FIPS,HR_UID,nameid,province,region,analysisTime,dates,pointprevalence_025,pointprevalence_50,pointprevalence_975,pointinfections_025,pointinfections_50,pointinfections_975,pointinfectious_025,pointinfectious_50,pointinfectious_975,pointinfectiousprevalence_05,pointinfectiousprevalence_50,pointinfectiousprevalence_95,infectrate_025,infectrate_50,infectrate_975
34023,0,USNewJerseyMiddlesex,New Jersey,Middlesex,2021-04-04 07:40:31.386648,2020-03-09 00:00:00.000000,0.02788188,0.02843610,0.07136670,230,234,588,100,103,242,0.01216123,0.01251090,0.02944382,0.79712229,0.95858583,1.11860717
34023,0,USNewJerseyMiddlesex,New Jersey,Middlesex,2021-04-04 07:40:31.386648,2020-03-10 00:00:00.000000,0.03421960,0.03527255,0.08276349,282,291,682,128,133,306,0.01558670,0.01614825,0.03712699,0.79709882,0.95857790,1.11860717
34023,0,USNewJerseyMiddlesex,New Jersey,Middlesex,2021-04-04 07:40:31.386648,2020-03-11 00:00:00.000000,0.04161345,0.04347952,0.09752754,343,358,804,161,168,371,0.01957068,0.02036579,0.04507568,0.79704766,0.95855051,1.11860715
34023,0,USNewJerseyMiddlesex,New Jersey,Middlesex,2021-04-04 07:40:31.386648,2020-03-12 00:00:00.000000,0.05011759,0.05335633,0.11658891,413,440,961,196,208,443,0.02379854,0.02532758,0.05377062,0.79693627,0.95845604,1.11860704
34023,0,USNewJerseyMiddlesex,New Jersey,Middlesex,2021-04-04 07:40:31.386648,2020-03-13 00:00:00.000000,0.06032217,0.06526985,0.13938781,497,538,1150,232,257,528,0.02821213,0.03124669,0.06400083,0.79669427,0.95813077,1.11860640
34023,0,USNewJerseyMiddlesex,New Jersey,Middlesex,2021-04-04 07:40:31.386648,2020-03-14 00:00:00.000000,0.07261303,0.07966946,0.16661392,599,657,1374,277,316,626,0.03364617,0.03840914,0.07598309,0.79617068,0.95701871,1.11860263
34023,0,USNewJerseyMiddlesex,New Jersey,Middlesex,2021-04-04 07:40:31.386648,2020-03-15 00:00:00.000000,0.08743185,0.09707976,0.19910807,721,800,1642,332,387,743,0.04026783,0.04696685,0.09008957,0.79504769,0.95292120,1.11858034
34023,0,USNewJerseyMiddlesex,New Jersey,Middlesex,2021-04-04 07:40:31.386648,2020-03-16 00:00:00.000000,0.10619124,0.11821758,0.23638137,876,975,1950,398,473,880,0.04829850,0.05736139,0.10673034,0.79268243,0.94149122,1.11844820
34023,0,USNewJerseyMiddlesex,New Jersey,Middlesex,2021-04-04 07:40:31.386648,2020-03-17 00:00:00.000000,0.12861172,0.14381486,0.27951876,1061,1186,2306,480,577,1067,0.05827242,0.06994920,0.12933963,0.79130924,0.91356120,1.11766702
34023,0,USNewJerseyMiddlesex,New Jersey,Middlesex,2021-04-04 07:40:31.386648,2020-03-18 00:00:00.000000,0.15558683,0.17324491,0.33043364,1283,1429,2726,581,702,1291,0.07041923,0.08517096,0.15653486,0.80297388,0.86649425,1.11312931
34023,0,USNewJerseyMiddlesex,New Jersey,Middlesex,2021-04-04 07:40:31.386648,2020-03-19 00:00:00.000000,0.18808000,0.20657389,0.39045309,1551,1704,3221,695,848,1561,0.08430812,0.10279058,0.18925554,0.80619875,0.83666594,1.08919898
34023,0,USNewJerseyMiddlesex,New Jersey,Middlesex,2021-04-04 07:40:31.386648,2020-03-20 00:00:00.000000,0.22472276,0.24567059,0.46104868,1854,2026,3803,820,1018,1886,0.09946138,0.12349160,0.22861999,0.79245003,0.82144496,1.07033229
34023,0,USNewJerseyMiddlesex,New Jersey,Middlesex,2021-04-04 07:40:31.386648,2020-03-21 00:00:00.000000,0.26489235,0.29145618,0.54449613,2185,2404,4492,967,1215,2244,0.11731208,0.14732889,0.27203525,0.78527567,0.81627619,1.05374010
34023,0,USNewJerseyMiddlesex,New Jersey,Middlesex,2021-04-04 07:40:31.386648,2020-03-22 00:00:00.000000,0.31218061,0.34559797,0.65419113,2575,2851,5397,1141,1444,2652,0.13838274,0.17510232,0.32146429,0.75192345,0.81464178,1.04024058
34023,0,USNewJerseyMiddlesex,New Jersey,Middlesex,2021-04-04 07:40:31.386648,2020-03-23 00:00:00.000000,0.36768848,0.41094161,0.78346491,3033,3390,6464,1346,1714,3122,0.16321133,0.20782083,0.37841461,0.72681250,0.81345997,1.02522611
34023,0,USNewJerseyMiddlesex,New Jersey,Middlesex,2021-04-04 07:40:31.386648,2020-03-24 00:00:00.000000,0.43304281,0.48842432,0.91228454,3572,4029,7526,1587,2033,3654,0.19242569,0.24651494,0.44296518,0.71588622,0.81121675,1.01910989
34023,0,USNewJerseyMiddlesex,New Jersey,Middlesex,2021-04-04 07:40:31.386648,2020-03-25 00:00:00.000000,0.50994102,0.57995817,1.05326402,4207,4785,8690,1871,2411,4255,0.22682113,0.29227825,0.51572236,0.69747115,0.81025462,1.02297901
34023,0,USNewJerseyMiddlesex,New Jersey,Middlesex,2021-04-04 07:40:31.386648,2020-03-26 00:00:00.000000,0.60039150,0.68814732,1.21525352,4953,5677,10026,2217,2857,4933,0.26878493,0.34637516,0.59791143,0.67568114,0.80752713,1.00728819
34023,0,USNewJerseyMiddlesex,New Jersey,Middlesex,2021-04-04 07:40:31.386648,2020-03-27 00:00:00.000000,0.70672490,0.81602078,1.40139510,5830,6732,11562,2706,3388,5706,0.32807444,0.41064866,0.69165527,0.66979627,0.80114118,0.96131692
34023,0,USNewJerseyMiddlesex,New Jersey,Middlesex,2021-04-04 07:40:31.386648,2020-03-28 00:00:00.000000,0.82790735,0.96485190,1.61405209,6830,7960,13316,3303,4021,6734,0.40036900,0.48744779,0.81628338,0.62457830,0.79025892,0.93891146
34023,0,USNewJerseyMiddlesex,New Jersey,Middlesex,2021-04-04 07:40:31.386648,2020-03-29 00:00:00.000000,0.95957085,1.13408303,1.85711938,7917,9356,15322,4029,4765,7771,0.48836783,0.57761112,0.94192527,0.58683994,0.76118904,0.90394102
34023,0,USNewJerseyMiddlesex,New Jersey,Middlesex,2021-04-04 07:40:31.386648,2020-03-30 00:00:00.000000,1.10400847,1.31963356,2.14007094,9108,10887,17656,4821,5617,8960,0.58439355,0.68086607,1.08603432,0.49262176,0.72025631,0.86211645
34023,0,USNewJerseyMiddlesex,New Jersey,Middlesex,2021-04-04 07:40:31.386648,2020-03-31 00:00:00.000000,1.26517110,1.51052703,2.44219780,10438,12462,20149,5621,6546,10321,0.68129127,0.79348971,1.25101843,0.44010021,0.64877613,0.82234680
34023,0,USNewJerseyMiddlesex,New Jersey,Middlesex,2021-04-04 07:40:31.386648,2020-04-01 00:00:00.000000,1.44560894,1.68905487,2.74278061,11927,13935,22629,6415,7521,11876,0.77755888,0.91159296,1.43952497,0.41911543,0.56368250,0.76838197
34023,0,USNewJerseyMiddlesex,New Jersey,Middlesex,2021-04-04 07:40:31.386648,2020-04-02 00:00:00.000000,1.64366032,1.84918955,3.03600405,13561,15256,25048,7215,8524,13646,0.87458910,1.03317532,1.65403286,0.39669584,0.48435481,0.73252109
34023,0,USNewJerseyMiddlesex,New Jersey,Middlesex,2021-04-04 07:40:31.386648,2020-04-03 00:00:00.000000,1.80302219,1.98492461,3.29079831,14876,16376,27151,8010,9467,15450,0.97085923,1.14748450,1.87259149,0.35908046,0.42595204,0.64585038
34023,0,USNewJerseyMiddlesex,New Jersey,Middlesex,2021-04-04 07:40:31.386648,2020-04-04 00:00:00.000000,1.91018622,2.11144896,3.48587275,15760,17420,28760,8759,10318,16959,1.06164986,1.25059638,2.05550658,0.32108491,0.39004947,0.51961249
34023,0,USNewJerseyMiddlesex,New Jersey,Middlesex,2021-04-04 07:40:31.386648,2020-04-05 00:00:00.000000,2.02735557,2.23098990,3.65888962,16726,18407,30188,9436,11100,18323,1.14370072,1.34541066,2.22088614,0.28378078,0.37068897,0.46059835
34023,0,USNewJerseyMiddlesex,New Jersey,Middlesex,2021-04-04 07:40:31.386648,2020-04-06 00:00:00.000000,2.14323011,2.35194232,3.76862381,17682,19404,31093,10047,11793,19336,1.21779432,1.42943270,2.34369198,0.25273157,0.36199404,0.41709007
34023,0,USNewJerseyMiddlesex,New Jersey,Middlesex,2021-04-04 07:40:31.386648,2020-04-07 00:00:00.000000,2.23213877,2.46665039,3.83038728,18416,20351,31603,10597,12503,20034,1.28440156,1.51545722,2.42823223,0.24062641,0.35136042,0.38288190
34023,0,USNewJerseyMiddlesex,New Jersey,Middlesex,2021-04-04 07:40:31.386648,2020-04-08 00:00:00.000000,2.28433190,2.57112241,3.94504729,18847,21213,32549,11019,13197,20876,1.33558536,1.59954975,2.53025370,0.23178340,0.32702014,0.35489457
34023,0,USNewJerseyMiddlesex,New Jersey,Middlesex,2021-04-04 07:40:31.386648,2020-04-09 00:00:00.000000,2.31945604,2.62902162,4.02265709,19136,21691,33189,11598,13827,21889,1.40581312,1.67588837,2.65307545,0.22765774,0.27437076,0.33874173
34023,0,USNewJerseyMiddlesex,New Jersey,Middlesex,2021-04-04 07:40:31.386648,2020-04-10 00:00:00.000000,2.34280806,2.66759972,4.11245040,19329,22009,33930,12011,14280,22759,1.45581743,1.73088330,2.75855919,0.21522012,0.23201638,0.31814951
34023,0,USNewJerseyMiddlesex,New Jersey,Middlesex,2021-04-04 07:40:31.386648,2020-04-11 00:00:00.000000,2.37422121,2.66654976,4.11349638,19588,22000,33938,12236,14532,23460,1.48305316,1.76140356,2.84347404,0.21216356,0.21862199,0.31329341
34023,0,USNewJerseyMiddlesex,New Jersey,Middlesex,2021-04-04 07:40:31.386648,2020-04-12 00:00:00.000000,2.39022963,2.65702831,4.13192477,19720,21922,34090,12327,14645,23941,1.49418711,1.77503795,2.90178212,0.20935410,0.21579252,0.30964908
34023,0,USNewJerseyMiddlesex,New Jersey,Middlesex,2021-04-04 07:40:31.386648,2020-04-13 00:00:00.000000,2.38821297,2.65708739,4.17968257,19704,21922,34484,12349,14676,23772,1.49681417,1.77889203,2.88127058,0.20673721,0.21496290,0.30669483
34023,0,USNewJerseyMiddlesex,New Jersey,Middlesex,2021-04-04 07:40:31.386648,2020-04-14 00:00:00.000000,2.39187186,2.64486800,4.18595213,19734,21821,34536,12367,14694,23580,1.49900615,1.78096953,2.85798709,0.20080039,0.21466069,0.28771641
34023,0,USNewJerseyMiddlesex,New Jersey,Middlesex,2021-04-04 07:40:31.386648,2020-04-15 00:00:00.000000,2.39434433,2.63988225,4.16840113,19754,21780,34391,12512,14744,23373,1.51654081,1.78705279,2.83296252,0.19715135,0.21402276,0.28233018
34023,0,USNewJerseyMiddlesex,New Jersey,Middlesex,2021-04-04 07:40:31.386648,2020-04-16 00:00:00.000000,2.39555970,2.62517011,4.15152642,19764,21659,34252,12643,14694,23157,1.53240422,1.78105344,2.80679981,0.19230150,0.21241134,0.28076753
34023,0,USNewJerseyMiddlesex,New Jersey,Middlesex,2021-04-04 07:40:31.386648,2020-04-17 00:00:00.000000,2.39459422,2.60323935,4.16091340,19756,21478,34330,12755,14686,23383,1.54604077,1.78003072,2.83409936,0.19215965,0.20878243,0.27682226
34023,0,USNewJerseyMiddlesex,New Jersey,Middlesex,2021-04-04 07:40:31.386648,2020-04-18 00:00:00.000000,2.38848665,2.57567979,4.16202273,19706,21250,34339,12846,14588,23663,1.55700251,1.76817059,2.86807149,0.18768477,0.20127725,0.26874872
34023,0,USNewJerseyMiddlesex,New Jersey,Middlesex,2021-04-04 07:40:31.386648,2020-04-19 00:00:00.000000,2.37218860,2.54135399,4.14471603,19572,20967,34196,12914,14460,23897,1.56530098,1.75262738,2.89644172,0.17366887,0.19166591,0.24920490
34023,0,USNewJerseyMiddlesex,New Jersey,Middlesex,2021-04-04 07:40:31.386648,2020-04-20 00:00:00.000000,2.34217981,2.50893861,4.13088786,19324,20700,34082,12964,14324,24071,1.57131921,1.73617676,2.91757914,0.14677797,0.18370056,0.25015021
34023,0,USNewJerseyMiddlesex,New Jersey,Middlesex,2021-04-04 07:40:31.386648,2020-04-21 00:00:00.000000,2.29073988,2.46638386,4.11896989,18900,20349,33984,12998,14130,24174,1.57545848,1.71261020,2.92998150,0.13525728,0.17961511,0.24669457
34023,0,USNewJerseyMiddlesex,New Jersey,Middlesex,2021-04-04 07:40:31.386648,2020-04-22 00:00:00.000000,2.21656906,2.42068972,4.14592107,18288,19972,34206,12841,13912,24184,1.55644836,1.68622159,2.93120255,0.12916877,0.17761101,0.24459591
34023,0,USNewJerseyMiddlesex,New Jersey,Middlesex,2021-04-04 07:40:31.386648,2020-04-23 00:00:00.000000,2.13453948,2.36804793,4.14490963,17611,19537,34198,12535,13678,24107,1.51928366,1.65784226,2.92186301,0.12578903,0.17506842,0.24022058
34023,0,USNewJerseyMiddlesex,New Jersey,Middlesex,2021-04-04 07:40:31.386648,2020-04-24 00:00:00.000000,2.05126397,2.31697141,4.11901991,16924,19116,33984,12151,13429,23953,1.47280852,1.62771563,2.90322264,0.12425289,0.17131425,0.23468256
34023,0,USNewJerseyMiddlesex,New Jersey,Middlesex,2021-04-04 07:40:31.386648,2020-04-25 00:00:00.000000,1.99360236,2.25886293,4.07544791,16448,18637,33624,11727,13161,23724,1.42138649,1.59523578,2.87546319,0.12405392,0.16534228,0.22333457
34023,0,USNewJerseyMiddlesex,New Jersey,Middlesex,2021-04-04 07:40:31.386648,2020-04-26 00:00:00.000000,1.94444615,2.19302949,4.02096284,16042,18093,33175,11286,12862,23417,1.36794012,1.55894712,2.83832671,0.12301873,0.15760744,0.20754054
34023,0,USNewJerseyMiddlesex,New Jersey,Middlesex,2021-04-04 07:40:31.386648,2020-04-27 00:00:00.000000,1.89449021,2.12297469,3.95962514,15630,17515,32669,10843,12506,23124,1.31420988,1.51587176,2.80275554,0.11342860,0.15273237,0.20374986
34023,0,USNewJerseyMiddlesex,New Jersey,Middlesex,2021-04-04 07:40:31.386648,2020-04-28 00:00:00.000000,1.84376575,2.05099932,3.89444510,15212,16922,32131,10405,12104,22832,1.26115939,1.46709051,2.76733602,0.10884744,0.15016148,0.19238128
34023,0,USNewJerseyMiddlesex,New Jersey,Middlesex,2021-04-04 07:40:31.386648,2020-04-29 00:00:00.000000,1.79203341,1.97918397,3.80389427,14785,16329,31384,9977,11681,22500,1.20935242,1.41580124,2.72708550,0.10382633,0.14852898,0.18612828
34023,0,USNewJerseyMiddlesex,New Jersey,Middlesex,2021-04-04 07:40:31.386648,2020-04-30 00:00:00.000000,1.73884997,1.90720420,3.68662182,14346,15735,30416,9591,11276,22138,1.16254863,1.36671367,2.68329777,0.09949315,0.14729078,0.17504304
34023,0,USNewJerseyMiddlesex,New Jersey,Middlesex,2021-04-04 07:40:31.386648,2020-05-01 00:00:00.000000,1.68329574,1.83239539,3.55865927,13888,15118,29361,9322,10875,21743,1.12995839,1.31808576,2.63536717,0.09663615,0.14578662,0.16340105
34023,0,USNewJerseyMiddlesex,New Jersey,Middlesex,2021-04-04 07:40:31.386648,2020-05-02 00:00:00.000000,1.62408105,1.75943124,3.42060426,13399,14516,28222,9044,10480,21281,1.09627156,1.27026010,2.57935733,0.09458141,0.14435794,0.15743537
34023,0,USNewJerseyMiddlesex,New Jersey,Middlesex,2021-04-04 07:40:31.386648,2020-05-03 00:00:00.000000,1.56096102,1.68758588,3.27665697,12878,13923,27034,8753,10092,20698,1.06091402,1.22321620,2.50869740,0.08954143,0.14398436,0.15207697
34023,0,USNewJerseyMiddlesex,New Jersey,Middlesex,2021-04-04 07:40:31.386648,2020-05-04 00:00:00.000000,1.49647231,1.61755763,3.13103685,12346,13345,25832,8444,9700,19978,1.02350267,1.17576252,2.42143248,0.08279697,0.14363681,0.15169347
34023,0,USNewJerseyMiddlesex,New Jersey,Middlesex,2021-04-04 07:40:31.386648,2020-05-05 00:00:00.000000,1.43171186,1.55631207,2.98776065,11812,12840,24650,7968,9338,19160,0.96574910,1.13189650,2.32232091,0.08083549,0.14281877,0.15058509
34023,0,USNewJerseyMiddlesex,New Jersey,Middlesex,2021-04-04 07:40:31.386648,2020-05-06 00:00:00.000000,1.34459139,1.49558370,2.84864697,11093,12339,23503,7396,8984,18569,0.89646585,1.08900503,2.25070606,0.08081674,0.14055051,0.15103365
34023,0,USNewJerseyMiddlesex,New Jersey,Middlesex,2021-04-04 07:40:31.386648,2020-05-07 00:00:00.000000,1.24674191,1.43135669,2.72369744,10286,11809,22472,6859,8636,18029,0.83141516,1.04679437,2.18518349,0.08081566,0.13478252,0.14609292
34023,0,USNewJerseyMiddlesex,New Jersey,Middlesex,2021-04-04 07:40:31.386648,2020-05-08 00:00:00.000000,1.15847927,1.36521642,2.62214836,9558,11263,21634,6452,8272,17404,0.78209059,1.00264370,2.10943383,0.08081667,0.12342920,0.14584369
34023,0,USNewJerseyMiddlesex,New Jersey,Middlesex,2021-04-04 07:40:31.386648,2020-05-09 00:00:00.000000,1.08179503,1.29323182,2.48975220,8925,10669,20541,6112,7904,16601,0.74091181,0.95807607,2.01213781,0.08184203,0.11006073,0.14513188
34023,0,USNewJerseyMiddlesex,New Jersey,Middlesex,2021-04-04 07:40:31.386648,2020-05-10 00:00:00.000000,1.01790432,1.21820126,2.36543109,8398,10050,19516,5792,7515,15827,0.70206534,0.91084947,1.91829358,0.08309734,0.09984565,0.14578574
34023,0,USNewJerseyMiddlesex,New Jersey,Middlesex,2021-04-04 07:40:31.386648,2020-05-11 00:00:00.000000,0.96489558,1.14456967,2.24733985,7960,9443,18541,5493,7111,15081,0.66587779,0.86189017,1.82789664,0.08015480,0.09491504,0.15385161
34023,0,USNewJerseyMiddlesex,New Jersey,Middlesex,2021-04-04 07:40:31.386648,2020-05-12 00:00:00.000000,0.91922364,1.07235297,2.13491473,7584,8847,17614,5215,6699,14363,0.63215258,0.81202636,1.74092356,0.07930105,0.09308557,0.16400924
34023,0,USNewJerseyMiddlesex,New Jersey,Middlesex,2021-04-04 07:40:31.386648,2020-05-13 00:00:00.000000,0.87830002,1.01130003,2.02755097,7246,8343,16728,4954,6303,13675,0.60051671,0.76400895,1.65754781,0.07874924,0.09270533,0.17002006
34023,0,USNewJerseyMiddlesex,New Jersey,Middlesex,2021-04-04 07:40:31.386648,2020-05-14 00:00:00.000000,0.84066987,0.94744863,1.92606143,6936,7817,15891,4708,5923,13020,0.57069934,0.71792199,1.57806633,0.07804149,0.09344489,0.17247312
34023,0,USNewJerseyMiddlesex,New Jersey,Middlesex,2021-04-04 07:40:31.386648,2020-05-15 00:00:00.000000,0.80556315,0.89312940,1.83578916,6646,7368,15146,4476,5558,12399,0.54250657,0.67373572,1.50283098,0.07750125,0.09535726,0.17311269
34023,0,USNewJerseyMiddlesex,New Jersey,Middlesex,2021-04-04 07:40:31.386648,2020-05-16 00:00:00.000000,0.77259622,0.83677858,1.76479340,6374,6903,14560,4255,5204,11814,0.51579651,0.63077650,1.43194315,0.07674478,0.09833691,0.17312691
34023,0,USNewJerseyMiddlesex,New Jersey,Middlesex,2021-04-04 07:40:31.386648,2020-05-17 00:00:00.000000,0.73403241,0.78446053,1.70018597,6056,6472,14027,4046,4897,11262,0.49046012,0.59359220,1.36510500,0.07557315,0.10042411,0.17298180
34023,0,USNewJerseyMiddlesex,New Jersey,Middlesex,2021-04-04 07:40:31.386648,2020-05-18 00:00:00.000000,0.68923817,0.73569983,1.63816342,5686,6069,13515,3848,4638,10741,0.46639913,0.56224780,1.30186639,0.07410905,0.10146824,0.17279114
34023,0,USNewJerseyMiddlesex,New Jersey,Middlesex,2021-04-04 07:40:31.386648,2020-05-19 00:00:00.000000,0.64737835,0.69077119,1.57851360,5341,5699,13023,3659,4355,10249,0.44349913,0.52790707,1.24223902,0.07281123,0.10197729,0.17258121
34023,0,USNewJerseyMiddlesex,New Jersey,Middlesex,2021-04-04 07:40:31.386648,2020-05-20 00:00:00.000000,0.60815220,0.64824917,1.52099144,5017,5348,12549,3475,4085,9782,0.42130144,0.49513514,1.18570158,0.07207043,0.10198076,0.17233449
34023,0,USNewJerseyMiddlesex,New Jersey,Middlesex,2021-04-04 07:40:31.386648,2020-05-21 00:00:00.000000,0.57136865,0.60839567,1.46502517,4714,5019,12087,3296,3832,9379,0.39955290,0.46449836,1.13688262,0.07189512,0.10186615,0.17205137
34023,0,USNewJerseyMiddlesex,New Jersey,Middlesex,2021-04-04 07:40:31.386648,2020-05-22 00:00:00.000000,0.53597017,0.57100902,1.40897665,4422,4711,11624,3155,3595,9035,0.38240351,0.43581745,1.09513523,0.07209958,0.10172720,0.17179097
34023,0,USNewJerseyMiddlesex,New Jersey,Middlesex,2021-04-04 07:40:31.386648,2020-05-23 00:00:00.000000,0.50252317,0.53589647,1.34775673,4146,4421,11119,3043,3378,8697,0.36888188,0.40947418,1.05415635,0.07250454,0.10157077,0.17056212
34023,0,USNewJerseyMiddlesex,New Jersey,Middlesex,2021-04-04 07:40:31.386648,2020-05-24 00:00:00.000000,0.47118140,0.50286967,1.28544077,3887,4148,10605,2939,3170,8360,0.35629505,0.38432346,1.01332078,0.07297153,0.10075068,0.16854712
34023,0,USNewJerseyMiddlesex,New Jersey,Middlesex,2021-04-04 07:40:31.386648,2020-05-25 00:00:00.000000,0.44153224,0.47149893,1.22570603,3642,3890,10112,2785,2975,8026,0.33755426,0.36069010,0.97287957,0.07344526,0.09968147,0.16616089
34023,0,USNewJerseyMiddlesex,New Jersey,Middlesex,2021-04-04 07:40:31.386648,2020-05-26 00:00:00.000000,0.41374474,0.44209777,1.16893427,3413,3647,9644,2610,2791,7699,0.31641566,0.33835876,0.93325091,0.07388138,0.09934497,0.16372393
34023,0,USNewJerseyMiddlesex,New Jersey,Middlesex,2021-04-04 07:40:31.386648,2020-05-27 00:00:00.000000,0.38816954,0.41496313,1.11491289,3202,3423,9198,2447,2618,7381,0.29660166,0.31733722,0.89467925,0.07415326,0.10166731,0.16156629
34023,0,USNewJerseyMiddlesex,New Jersey,Middlesex,2021-04-04 07:40:31.386648,2020-05-28 00:00:00.000000,0.36503888,0.39030923,1.06347504,3011,3220,8774,2294,2456,7072,0.27814746,0.29774569,0.85723275,0.07391004,0.10696682,0.15977920
34023,0,USNewJerseyMiddlesex,New Jersey,Middlesex,2021-04-04 07:40:31.386648,2020-05-29 00:00:00.000000,0.34391729,0.36773062,1.01447487,2837,3034,8370,2155,2307,6772,0.26120670,0.27972211,0.82090788,0.07437123,0.10985871,0.15792379
34023,0,USNewJerseyMiddlesex,New Jersey,Middlesex,2021-04-04 07:40:31.386648,2020-05-30 00:00:00.000000,0.32432797,0.34685806,0.96779231,2675,2861,7984,2027,2171,6482,0.24572684,0.26318645,0.78574759,0.07446065,0.11108120,0.15377590
34023,0,USNewJerseyMiddlesex,New Jersey,Middlesex,2021-04-04 07:40:31.386648,2020-05-31 00:00:00.000000,0.30602389,0.32716818,0.92338503,2524,2699,7618,1909,2045,6203,0.23147539,0.24792343,0.75182355,0.07473726,0.11141831,0.15438084
34023,0,USNewJerseyMiddlesex,New Jersey,Middlesex,2021-04-04 07:40:31.386648,2020-06-01 00:00:00.000000,0.28895570,0.30885115,0.88175657,2384,2548,7275,1800,1928,5933,0.21824952,0.23373781,0.71918676,0.07551952,0.11161317,0.15476827
34023,0,USNewJerseyMiddlesex,New Jersey,Middlesex,2021-04-04 07:40:31.386648,2020-06-02 00:00:00.000000,0.27298970,0.29172966,0.84225834,2252,2406,6949,1699,1819,5675,0.20593957,0.22052277,0.68787943,0.07601851,0.11239688,0.15460541
34023,0,USNewJerseyMiddlesex,New Jersey,Middlesex,2021-04-04 07:40:31.386648,2020-06-03 00:00:00.000000,0.25814461,0.27580029,0.80463420,2129,2275,6638,1604,1717,5427,0.19445066,0.20818227,0.65788265,0.07608888,0.11410995,0.15450733
34023,0,USNewJerseyMiddlesex,New Jersey,Middlesex,2021-04-04 07:40:31.386648,2020-06-04 00:00:00.000000,0.24450958,0.26114904,0.76872619,2017,2154,6342,1516,1622,5190,0.18374668,0.19667777,0.62916295,0.07602095,0.11731215,0.15440794
34023,0,USNewJerseyMiddlesex,New Jersey,Middlesex,2021-04-04 07:40:31.386648,2020-06-05 00:00:00.000000,0.23218431,0.24786783,0.73439456,1915,2045,6059,1434,1534,4964,0.17384620,0.18602450,0.60167963,0.07573049,0.12230883,0.15422169
34023,0,USNewJerseyMiddlesex,New Jersey,Middlesex,2021-04-04 07:40:31.386648,2020-06-06 00:00:00.000000,0.22112360,0.23590036,0.70148838,1824,1946,5787,1359,1454,4747,0.16479654,0.17626476,0.57538815,0.07545522,0.12824996,0.15412731
34023,0,USNewJerseyMiddlesex,New Jersey,Middlesex,2021-04-04 07:40:31.386648,2020-06-07 00:00:00.000000,0.21110064,0.22501351,0.66985229,1741,1856,5526,1292,1381,4539,0.15660407,0.16739921,0.55024185,0.07462733,0.13310353,0.15316057
34023,0,USNewJerseyMiddlesex,New Jersey,Middlesex,2021-04-04 07:40:31.386648,2020-06-08 00:00:00.000000,0.20203294,0.21512053,0.63933494,1666,1774,5274,1230,1314,4341,0.14918678,0.15934255,0.52619311,0.07768526,0.13610538,0.15087568
34023,0,USNewJerseyMiddlesex,New Jersey,Middlesex,2021-04-04 07:40:31.386648,2020-06-09 00:00:00.000000,0.19356597,0.20597560,0.60997338,1597,1699,5032,1175,1254,4151,0.14247271,0.15201976,0.50315246,0.07885814,0.13767620,0.15478937
34023,0,USNewJerseyMiddlesex,New Jersey,Middlesex,2021-04-04 07:40:31.386648,2020-06-10 00:00:00.000000,0.18559756,0.19741959,0.58183689,1531,1628,4800,1124,1198,3969,0.13629972,0.14527087,0.48109319,0.07620737,0.13895186,0.16235964
34023,0,USNewJerseyMiddlesex,New Jersey,Middlesex,2021-04-04 07:40:31.386648,2020-06-11 00:00:00.000000,0.17807242,0.18936453,0.55541555,1469,1562,4582,1077,1146,3795,0.13055182,0.13898133,0.45998437,0.07801974,0.14021834,0.17019719
34023,0,USNewJerseyMiddlesex,New Jersey,Middlesex,2021-04-04 07:40:31.386648,2020-06-12 00:00:00.000000,0.17099998,0.18185747,0.53113202,1410,1500,4382,1032,1098,3628,0.12515766,0.13309990,0.43979833,0.08038739,0.14213167,0.18304373
34023,0,USNewJerseyMiddlesex,New Jersey,Middlesex,2021-04-04 07:40:31.386648,2020-06-13 00:00:00.000000,0.16447887,0.17507316,0.50809268,1357,1444,4192,990,1053,3469,0.12008993,0.12768595,0.42051273,0.08071568,0.14663286,0.19609328
34023,0,USNewJerseyMiddlesex,New Jersey,Middlesex,2021-04-04 07:40:31.386648,2020-06-14 00:00:00.000000,0.15864627,0.16915449,0.48614809,1308,1395,4011,951,1012,3317,0.11537401,0.12271053,0.40210802,0.08131268,0.15469708,0.21060605
34023,0,USNewJerseyMiddlesex,New Jersey,Middlesex,2021-04-04 07:40:31.386648,2020-06-15 00:00:00.000000,0.15371814,0.16424043,0.46496754,1268,1355,3836,916,975,3173,0.11107395,0.11825468,0.38461253,0.08246033,0.16356838,0.21103508
34023,0,USNewJerseyMiddlesex,New Jersey,Middlesex,2021-04-04 07:40:31.386648,2020-06-16 00:00:00.000000,0.14962496,0.16018923,0.44477672,1234,1321,3669,885,943,3037,0.10729967,0.11440690,0.36814345,0.08505369,0.17326228,0.22056529
34023,0,USNewJerseyMiddlesex,New Jersey,Middlesex,2021-04-04 07:40:31.386648,2020-06-17 00:00:00.000000,0.14652487,0.15714559,0.42557646,1208,1296,3511,858,917,2912,0.10407822,0.11115834,0.35300171,0.08907600,0.18633882,0.22401373
34023,0,USNewJerseyMiddlesex,New Jersey,Middlesex,2021-04-04 07:40:31.386648,2020-06-18 00:00:00.000000,0.14444970,0.15514226,0.40759573,1191,1280,3362,837,895,2791,0.10147579,0.10855193,0.33837270,0.09517424,0.20166758,0.23920019
34023,0,USNewJerseyMiddlesex,New Jersey,Middlesex,2021-04-04 07:40:31.386648,2020-06-19 00:00:00.000000,0.14322223,0.15400360,0.39435871,1181,1270,3253,821,879,2672,0.09953616,0.10662184,0.32386095,0.09841863,0.21478091,0.26787592
34023,0,USNewJerseyMiddlesex,New Jersey,Middlesex,2021-04-04 07:40:31.386648,2020-06-20 00:00:00.000000,0.14257681,0.15346064,0.38376751,1176,1266,3166,810,868,2562,0.09821362,0.10532103,0.31059555,0.10289460,0.22365079,0.27815544
34023,0,USNewJerseyMiddlesex,New Jersey,Middlesex,2021-04-04 07:40:31.386648,2020-06-21 00:00:00.000000,0.14230230,0.15329704,0.37429668,1174,1264,3088,803,859,2468,0.09738596,0.10423162,0.29919050,0.11189412,0.22891410,0.27879103
34023,0,USNewJerseyMiddlesex,New Jersey,Middlesex,2021-04-04 07:40:31.386648,2020-06-22 00:00:00.000000,0.14194742,0.15328500,0.36552394,1171,1264,3015,799,854,2388,0.09691647,0.10359720,0.28951074,0.11720452,0.23270371,0.27756503
34023,0,USNewJerseyMiddlesex,New Jersey,Middlesex,2021-04-04 07:40:31.386648,2020-06-23 00:00:00.000000,0.14183249,0.15255419,0.35716672,1170,1258,2946,796,853,2318,0.09657692,0.10348603,0.28100189,0.12124198,0.23649878,0.27573751
34023,0,USNewJerseyMiddlesex,New Jersey,Middlesex,2021-04-04 07:40:31.386648,2020-06-24 00:00:00.000000,0.14202770,0.15324833,0.34918326,1171,1264,2880,795,852,2254,0.09637533,0.10327417,0.27325692,0.12428256,0.24150760,0.27363499
34023,0,USNewJerseyMiddlesex,New Jersey,Middlesex,2021-04-04 07:40:31.386648,2020-06-25 00:00:00.000000,0.14274984,0.15413626,0.34150146,1177,1271,2817,794,854,2194,0.09634510,0.10361139,0.26596076,0.12438938,0.25024181,0.27157126
34023,0,USNewJerseyMiddlesex,New Jersey,Middlesex,2021-04-04 07:40:31.386648,2020-06-26 00:00:00.000000,0.14431511,0.15624494,0.33412146,1190,1289,2756,796,857,2136,0.09655396,0.10387868,0.25896110,0.12455970,0.26428564,0.29920836
34023,0,USNewJerseyMiddlesex,New Jersey,Middlesex,2021-04-04 07:40:31.386648,2020-06-27 00:00:00.000000,0.14692469,0.15955782,0.32716716,1212,1316,2699,801,864,2081,0.09719698,0.10480741,0.25232002,0.12635190,0.28298934,0.30332023
34023,0,USNewJerseyMiddlesex,New Jersey,Middlesex,2021-04-04 07:40:31.386648,2020-06-28 00:00:00.000000,0.14797261,0.16306583,0.32101626,1220,1345,2648,812,876,2030,0.09844786,0.10620441,0.24608844,0.13199185,0.30247871,0.32369812
34023,0,USNewJerseyMiddlesex,New Jersey,Middlesex,2021-04-04 07:40:31.386648,2020-06-29 00:00:00.000000,0.14672222,0.16806936,0.32292244,1210,1386,2664,801,896,1983,0.09716698,0.10867212,0.24039714,0.13930141,0.31771286,0.33848206
34023,0,USNewJerseyMiddlesex,New Jersey,Middlesex,2021-04-04 07:40:31.386648,2020-06-30 00:00:00.000000,0.14598253,0.17395762,0.32807632,1204,1435,2706,792,923,1941,0.09606892,0.11198943,0.23537453,0.14961520,0.32680220,0.34617479
34023,0,USNewJerseyMiddlesex,New Jersey,Middlesex,2021-04-04 07:40:31.386648,2020-07-01 00:00:00.000000,0.14576282,0.17803872,0.33314330,1202,1468,2748,785,948,1906,0.09526162,0.11498033,0.23106944,0.15794955,0.33037939,0.34851669
34023,0,USNewJerseyMiddlesex,New Jersey,Middlesex,2021-04-04 07:40:31.386648,2020-07-02 00:00:00.000000,0.14605735,0.18438557,0.33799305,1205,1521,2788,781,972,1878,0.09476720,0.11781680,0.22763581,0.15962004,0.32957828,0.34633183
34023,0,USNewJerseyMiddlesex,New Jersey,Middlesex,2021-04-04 07:40:31.386648,2020-07-03 00:00:00.000000,0.15006502,0.19098228,0.34254675,1238,1575,2826,780,1002,1859,0.09459442,0.12156580,0.22542962,0.17378108,0.32455180,0.33919341
34023,0,USNewJerseyMiddlesex,New Jersey,Middlesex,2021-04-04 07:40:31.386648,2020-07-04 00:00:00.000000,0.15699673,0.19717496,0.34682547,1295,1626,2861,781,1039,1865,0.09477656,0.12603912,0.22608683,0.19337391,0.31513796,0.36140805
34023,0,USNewJerseyMiddlesex,New Jersey,Middlesex,2021-04-04 07:40:31.386648,2020-07-05 00:00:00.000000,0.16451596,0.20276444,0.35090485,1357,1672,2895,802,1075,1887,0.09721017,0.13036121,0.22875844,0.20669106,0.30348540,0.39874390
34023,0,USNewJerseyMiddlesex,New Jersey,Middlesex,2021-04-04 07:40:31.386648,2020-07-06 00:00:00.000000,0.17248418,0.20814951,0.35462815,1423,1717,2925,839,1108,1915,0.10172988,0.13438587,0.23212476,0.21232203,0.29556378,0.42098777
34023,0,USNewJerseyMiddlesex,New Jersey,Middlesex,2021-04-04 07:40:31.386648,2020-07-07 00:00:00.000000,0.18085553,0.21326140,0.35818063,1492,1759,2955,879,1140,1948,0.10659652,0.13819320,0.23610566,0.21565654,0.29238345,0.42904070
34023,0,USNewJerseyMiddlesex,New Jersey,Middlesex,2021-04-04 07:40:31.386648,2020-07-08 00:00:00.000000,0.18851379,0.21828890,0.36145964,1555,1801,2982,921,1169,1984,0.11174381,0.14180543,0.24056811,0.21755670,0.29101048,0.43029867
34023,0,USNewJerseyMiddlesex,New Jersey,Middlesex,2021-04-04 07:40:31.386648,2020-07-09 00:00:00.000000,0.19387972,0.22333844,0.36440548,1599,1842,3006,966,1198,2024,0.11715419,0.14529858,0.24540892,0.21796253,0.29092864,0.42976216
34023,0,USNewJerseyMiddlesex,New Jersey,Middlesex,2021-04-04 07:40:31.386648,2020-07-10 00:00:00.000000,0.19960255,0.22847820,0.36708104,1646,1885,3028,1013,1226,2067,0.12282222,0.14870660,0.25054582,0.21856472,0.29116752,0.42609779
34023,0,USNewJerseyMiddlesex,New Jersey,Middlesex,2021-04-04 07:40:31.386648,2020-07-11 00:00:00.000000,0.20601754,0.23374703,0.36959552,1699,1928,3049,1055,1255,2111,0.12791165,0.15219219,0.25591585,0.22020751,0.29188583,0.42371643
34023,0,USNewJerseyMiddlesex,New Jersey,Middlesex,2021-04-04 07:40:31.386648,2020-07-12 00:00:00.000000,0.21274181,0.23914843,0.37198877,1755,1973,3069,1063,1283,2157,0.12889870,0.15555350,0.26147301,0.22212005,0.29344287,0.42278663
34023,0,USNewJerseyMiddlesex,New Jersey,Middlesex,2021-04-04 07:40:31.386648,2020-07-13 00:00:00.000000,0.21791925,0.24479236,0.37808971,1797,2019,3119,1098,1312,2204,0.13308858,0.15911543,0.26717795,0.22303298,0.29533094,0.42241854
34023,0,USNewJerseyMiddlesex,New Jersey,Middlesex,2021-04-04 07:40:31.386648,2020-07-14 00:00:00.000000,0.22302519,0.25039826,0.39454893,1840,2065,3255,1151,1343,2252,0.13962126,0.16287506,0.27299686,0.22269890,0.29409762,0.42140142
34023,0,USNewJerseyMiddlesex,New Jersey,Middlesex,2021-04-04 07:40:31.386648,2020-07-15 00:00:00.000000,0.22822948,0.25571776,0.41189047,1883,2109,3398,1187,1376,2300,0.14395355,0.16681678,0.27887015,0.22230157,0.28987127,0.42125594
34023,0,USNewJerseyMiddlesex,New Jersey,Middlesex,2021-04-04 07:40:31.386648,2020-07-16 00:00:00.000000,0.23351002,0.26031863,0.43003026,1926,2147,3548,1230,1406,2349,0.14913749,0.17052677,0.28472374,0.22095263,0.28117954,0.42096894
34023,0,USNewJerseyMiddlesex,New Jersey,Middlesex,2021-04-04 07:40:31.386648,2020-07-17 00:00:00.000000,0.23869391,0.26375811,0.44889066,1969,2176,3703,1271,1434,2407,0.15411157,0.17390519,0.29185241,0.21869732,0.26788342,0.41990899
34023,0,USNewJerseyMiddlesex,New Jersey,Middlesex,2021-04-04 07:40:31.386648,2020-07-18 00:00:00.000000,0.24293075,0.26651812,0.46828116,2004,2198,3863,1308,1457,2513,0.15862443,0.17670906,0.30462132,0.21772322,0.25405210,0.41191708
34023,0,USNewJerseyMiddlesex,New Jersey,Middlesex,2021-04-04 07:40:31.386648,2020-07-19 00:00:00.000000,0.24493093,0.26999134,0.48739734,2020,2227,4021,1336,1475,2621,0.16203102,0.17878171,0.31773579,0.21604320,0.24378431,0.39396616
34023,0,USNewJerseyMiddlesex,New Jersey,Middlesex,2021-04-04 07:40:31.386648,2020-07-20 00:00:00.000000,0.24596418,0.27040686,0.50462359,2029,2231,4163,1341,1486,2731,0.16253962,0.18016863,0.33100591,0.20371969,0.23840850,0.37820882
34023,0,USNewJerseyMiddlesex,New Jersey,Middlesex,2021-04-04 07:40:31.386648,2020-07-21 00:00:00.000000,0.24655266,0.27047683,0.51410697,2034,2231,4241,1342,1492,2835,0.16273319,0.18092296,0.34367113,0.19717463,0.23520269,0.33962266
34023,0,USNewJerseyMiddlesex,New Jersey,Middlesex,2021-04-04 07:40:31.386648,2020-07-22 00:00:00.000000,0.24697290,0.27034183,0.50976514,2037,2230,4205,1341,1499,2922,0.16257988,0.18175121,0.35417321,0.18629786,0.23356576,0.30994915
34023,0,USNewJerseyMiddlesex,New Jersey,Middlesex,2021-04-04 07:40:31.386648,2020-07-23 00:00:00.000000,0.24730602,0.27009269,0.50159931,2040,2228,4138,1334,1500,2974,0.16170935,0.18187892,0.36047705,0.16593565,0.23283788,0.30713251
34023,0,USNewJerseyMiddlesex,New Jersey,Middlesex,2021-04-04 07:40:31.386648,2020-07-24 00:00:00.000000,0.24110467,0.26978939,0.49098838,1989,2225,4050,1315,1501,2972,0.15948055,0.18203769,0.36021780,0.15334767,0.23227776,0.28103528
34023,0,USNewJerseyMiddlesex,New Jersey,Middlesex,2021-04-04 07:40:31.386648,2020-07-25 00:00:00.000000,0.23247734,0.27047275,0.47879324,1918,2231,3950,1284,1506,2929,0.15569621,0.18262496,0.35510210,0.14381697,0.23158465,0.25938427
34023,0,USNewJerseyMiddlesex,New Jersey,Middlesex,2021-04-04 07:40:31.386648,2020-07-26 00:00:00.000000,0.22350283,0.26979382,0.46493530,1844,2225,3836,1244,1500,2873,0.15081589,0.18183082,0.34829264,0.13639878,0.23093326,0.24658854
34023,0,USNewJerseyMiddlesex,New Jersey,Middlesex,2021-04-04 07:40:31.386648,2020-07-27 00:00:00.000000,0.21496644,0.26836659,0.44904408,1773,2214,3704,1199,1495,2805,0.14538591,0.18122997,0.34004979,0.13466808,0.22778767,0.24428873
34023,0,USNewJerseyMiddlesex,New Jersey,Middlesex,2021-04-04 07:40:31.386648,2020-07-28 00:00:00.000000,0.20783081,0.26667146,0.43191205,1714,2200,3563,1154,1489,2725,0.13995776,0.18050801,0.33037789,0.13414858,0.21609536,0.24299318
34023,0,USNewJerseyMiddlesex,New Jersey,Middlesex,2021-04-04 07:40:31.386648,2020-07-29 00:00:00.000000,0.20595792,0.26313566,0.42628422,1699,2171,3517,1146,1482,2636,0.13892704,0.17974261,0.31953303,0.13396983,0.19668925,0.23289960
34023,0,USNewJerseyMiddlesex,New Jersey,Middlesex,2021-04-04 07:40:31.386648,2020-07-30 00:00:00.000000,0.20393106,0.25848604,0.41586131,1682,2132,3431,1137,1469,2541,0.13783511,0.17810717,0.30800727,0.13580766,0.18598265,0.22600037
34023,0,USNewJerseyMiddlesex,New Jersey,Middlesex,2021-04-04 07:40:31.386648,2020-07-31 00:00:00.000000,0.20181675,0.25270924,0.40819675,1665,2085,3367,1127,1449,2477,0.13667290,0.17565179,0.30028935,0.13591341,0.18083080,0.22587542
34023,0,USNewJerseyMiddlesex,New Jersey,Middlesex,2021-04-04 07:40:31.386648,2020-08-01 00:00:00.000000,0.19968469,0.24689902,0.40038285,1647,2037,3303,1117,1424,2406,0.13541847,0.17260137,0.29164618,0.13403795,0.17879021,0.22851380
34023,0,USNewJerseyMiddlesex,New Jersey,Middlesex,2021-04-04 07:40:31.386648,2020-08-02 00:00:00.000000,0.19749077,0.24062913,0.39255391,1629,1985,3238,1106,1395,2378,0.13409217,0.16916672,0.28831908,0.12794208,0.17802361,0.22452116
34023,0,USNewJerseyMiddlesex,New Jersey,Middlesex,2021-04-04 07:40:31.386648,2020-08-03 00:00:00.000000,0.19517861,0.23572178,0.38582576,1610,1944,3183,1094,1365,2351,0.13270514,0.16552135,0.28498517,0.12579308,0.17745847,0.22014940
34023,0,USNewJerseyMiddlesex,New Jersey,Middlesex,2021-04-04 07:40:31.386648,2020-08-04 00:00:00.000000,0.19276314,0.22998594,0.37921369,1590,1897,3128,1082,1335,2322,0.13124877,0.16181590,0.28154551,0.12686474,0.17725676,0.22135773
34023,0,USNewJerseyMiddlesex,New Jersey,Middlesex,2021-04-04 07:40:31.386648,2020-08-05 00:00:00.000000,0.19023700,0.22416331,0.37412589,1569,1849,3086,1070,1305,2292,0.12972272,0.15818881,0.27780070,0.12577357,0.17736098,0.22189759
34023,0,USNewJerseyMiddlesex,New Jersey,Middlesex,2021-04-04 07:40:31.386648,2020-08-06 00:00:00.000000,0.18760817,0.21882288,0.36857166,1547,1805,3040,1057,1275,2256,0.12812489,0.15459238,0.27352714,0.12708653,0.17770744,0.22214150
34023,0,USNewJerseyMiddlesex,New Jersey,Middlesex,2021-04-04 07:40:31.386648,2020-08-07 00:00:00.000000,0.18489521,0.21387524,0.36136251,1525,1764,2981,1028,1246,2217,0.12468219,0.15106322,0.26879948,0.13059442,0.17872104,0.22737321
34023,0,USNewJerseyMiddlesex,New Jersey,Middlesex,2021-04-04 07:40:31.386648,2020-08-08 00:00:00.000000,0.18212187,0.20919267,0.35540875,1502,1725,2932,996,1218,2176,0.12078118,0.14763650,0.26381709,0.13218191,0.17984407,0.24099036
34023,0,USNewJerseyMiddlesex,New Jersey,Middlesex,2021-04-04 07:40:31.386648,2020-08-09 00:00:00.000000,0.17931298,0.20481124,0.35065732,1479,1689,2893,965,1191,2134,0.11707738,0.14435362,0.25874121,0.13314741,0.18204841,0.25354891
34023,0,USNewJerseyMiddlesex,New Jersey,Middlesex,2021-04-04 07:40:31.386648,2020-08-10 00:00:00.000000,0.17562010,0.20040760,0.34786746,1448,1653,2870,936,1165,2093,0.11355216,0.14124726,0.25369939,0.13335115,0.18342610,0.26024415
34023,0,USNewJerseyMiddlesex,New Jersey,Middlesex,2021-04-04 07:40:31.386648,2020-08-11 00:00:00.000000,0.17039330,0.19618958,0.34624913,1405,1618,2856,909,1140,2052,0.11025771,0.13821660,0.24882736,0.13349150,0.18456002,0.26394181
34023,0,USNewJerseyMiddlesex,New Jersey,Middlesex,2021-04-04 07:40:31.386648,2020-08-12 00:00:00.000000,0.16552073,0.19213105,0.34507738,1365,1585,2847,883,1116,2014,0.10713970,0.13528296,0.24417308,0.13356385,0.18518312,0.26496042
34023,0,USNewJerseyMiddlesex,New Jersey,Middlesex,2021-04-04 07:40:31.386648,2020-08-13 00:00:00.000000,0.16101827,0.18810810,0.34152510,1328,1552,2817,859,1092,1977,0.10417294,0.13243990,0.23970074,0.13362619,0.18535510,0.26825603
34023,0,USNewJerseyMiddlesex,New Jersey,Middlesex,2021-04-04 07:40:31.386648,2020-08-14 00:00:00.000000,0.15693823,0.18420219,0.33792084,1294,1519,2788,836,1069,1942,0.10138283,0.12967557,0.23538045,0.13408976,0.18533215,0.27880428
34023,0,USNewJerseyMiddlesex,New Jersey,Middlesex,2021-04-04 07:40:31.386648,2020-08-15 00:00:00.000000,0.15331798,0.18038084,0.33417429,1264,1488,2757,816,1047,1907,0.09892630,0.12697970,0.23123151,0.14033774,0.18535857,0.27086441
34023,0,USNewJerseyMiddlesex,New Jersey,Middlesex,2021-04-04 07:40:31.386648,2020-08-16 00:00:00.000000,0.15016800,0.17663099,0.33016506,1238,1457,2724,800,1025,1876,0.09701501,0.12434416,0.22739461,0.14174199,0.18552123,0.26118527
34023,0,USNewJerseyMiddlesex,New Jersey,Middlesex,2021-04-04 07:40:31.386648,2020-08-17 00:00:00.000000,0.14737063,0.17295395,0.32595260,1215,1426,2689,788,1004,1850,0.09560787,0.12176212,0.22422612,0.14062021,0.18576040,0.26202029
34023,0,USNewJerseyMiddlesex,New Jersey,Middlesex,2021-04-04 07:40:31.386648,2020-08-18 00:00:00.000000,0.14585765,0.16934854,0.32122553,1203,1397,2650,778,983,1832,0.09439834,0.11923094,0.22206584,0.14238225,0.18668638,0.26116388
34023,0,USNewJerseyMiddlesex,New Jersey,Middlesex,2021-04-04 07:40:31.386648,2020-08-19 00:00:00.000000,0.14452597,0.16582504,0.31595278,1192,1368,2606,769,963,1821,0.09330244,0.11674918,0.22081170,0.14328085,0.18699052,0.26213434
34023,0,USNewJerseyMiddlesex,New Jersey,Middlesex,2021-04-04 07:40:31.386648,2020-08-20 00:00:00.000000,0.14299378,0.16240158,0.31021959,1179,1339,2559,761,943,1816,0.09228931,0.11431991,0.22014592,0.14437278,0.18775515,0.26253711
34023,0,USNewJerseyMiddlesex,New Jersey,Middlesex,2021-04-04 07:40:31.386648,2020-08-21 00:00:00.000000,0.14130169,0.15911824,0.30770646,1165,1312,2538,754,923,1813,0.09140220,0.11195127,0.21978561,0.14472051,0.18903914,0.26369152
34023,0,USNewJerseyMiddlesex,New Jersey,Middlesex,2021-04-04 07:40:31.386648,2020-08-22 00:00:00.000000,0.13939834,0.15600566,0.30508718,1150,1287,2517,745,904,1811,0.09039480,0.10966170,0.21951585,0.15093677,0.19176649,0.26625720
34023,0,USNewJerseyMiddlesex,New Jersey,Middlesex,2021-04-04 07:40:31.386648,2020-08-23 00:00:00.000000,0.13704975,0.15316999,0.30218795,1130,1263,2493,738,886,1808,0.08956148,0.10749108,0.21915244,0.15426279,0.19738807,0.26916934
34023,0,USNewJerseyMiddlesex,New Jersey,Middlesex,2021-04-04 07:40:31.386648,2020-08-24 00:00:00.000000,0.13463067,0.15109009,0.29915623,1110,1246,2468,735,870,1803,0.08919690,0.10551081,0.21853217,0.15473908,0.20514904,0.28400353
34023,0,USNewJerseyMiddlesex,New Jersey,Middlesex,2021-04-04 07:40:31.386648,2020-08-25 00:00:00.000000,0.13554884,0.14949334,0.29592188,1118,1233,2441,739,856,1788,0.08962147,0.10380366,0.21672372,0.16455612,0.21273739,0.29718075
34023,0,USNewJerseyMiddlesex,New Jersey,Middlesex,2021-04-04 07:40:31.386648,2020-08-26 00:00:00.000000,0.13670175,0.14814390,0.29091170,1127,1222,2400,744,844,1753,0.09028955,0.10240178,0.21254520,0.16595188,0.21833754,0.30820609
34023,0,USNewJerseyMiddlesex,New Jersey,Middlesex,2021-04-04 07:40:31.386648,2020-08-27 00:00:00.000000,0.13557681,0.14704647,0.28577377,1118,1213,2357,751,835,1720,0.09110252,0.10126942,0.20851198,0.16493191,0.22247988,0.31742766
34023,0,USNewJerseyMiddlesex,New Jersey,Middlesex,2021-04-04 07:40:31.386648,2020-08-28 00:00:00.000000,0.13499451,0.14648843,0.28123641,1113,1208,2320,759,828,1688,0.09203995,0.10036308,0.20465081,0.16486128,0.23188095,0.33095160
34023,0,USNewJerseyMiddlesex,New Jersey,Middlesex,2021-04-04 07:40:31.386648,2020-08-29 00:00:00.000000,0.13600598,0.14756929,0.27941494,1122,1217,2305,759,823,1658,0.09200825,0.09975251,0.20099230,0.16590783,0.26222362,0.33926095
34023,0,USNewJerseyMiddlesex,New Jersey,Middlesex,2021-04-04 07:40:31.386648,2020-08-30 00:00:00.000000,0.13906518,0.15111936,0.27868803,1147,1246,2299,759,823,1630,0.09209110,0.09984178,0.19756809,0.16931652,0.30975244,0.34374206
34023,0,USNewJerseyMiddlesex,New Jersey,Middlesex,2021-04-04 07:40:31.386648,2020-08-31 00:00:00.000000,0.13976716,0.15658457,0.28882916,1153,1291,2383,770,834,1603,0.09342877,0.10118245,0.19440882,0.18460827,0.33740602,0.34672273
34023,0,USNewJerseyMiddlesex,New Jersey,Middlesex,2021-04-04 07:40:31.386648,2020-09-01 00:00:00.000000,0.14169098,0.16268981,0.29981759,1169,1342,2473,784,856,1579,0.09502651,0.10382057,0.19143235,0.18390462,0.34401729,0.35245851
34023,0,USNewJerseyMiddlesex,New Jersey,Middlesex,2021-04-04 07:40:31.386648,2020-09-02 00:00:00.000000,0.14478595,0.16917033,0.31161875,1194,1395,2571,789,885,1623,0.09563858,0.10729786,0.19682787,0.18367307,0.34486533,0.35723893
34023,0,USNewJerseyMiddlesex,New Jersey,Middlesex,2021-04-04 07:40:31.386648,2020-09-03 00:00:00.000000,0.14880674,0.17590279,0.32412200,1227,1451,2674,799,918,1674,0.09695711,0.11128251,0.20292018,0.18828302,0.34406459,0.36006699
34023,0,USNewJerseyMiddlesex,New Jersey,Middlesex,2021-04-04 07:40:31.386648,2020-09-04 00:00:00.000000,0.15239308,0.18153415,0.33696348,1257,1497,2780,816,946,1708,0.09894608,0.11474393,0.20710238,0.19502457,0.34236847,0.35869975
34023,0,USNewJerseyMiddlesex,New Jersey,Middlesex,2021-04-04 07:40:31.386648,2020-09-05 00:00:00.000000,0.15478024,0.18817588,0.34875726,1277,1552,2877,813,982,1775,0.09857789,0.11912003,0.21516417,0.20338473,0.33931144,0.36687096
34023,0,USNewJerseyMiddlesex,New Jersey,Middlesex,2021-04-04 07:40:31.386648,2020-09-06 00:00:00.000000,0.15727569,0.19540125,0.35950433,1297,1612,2966,810,1020,1839,0.09824353,0.12371899,0.22290240,0.22536450,0.33582116,0.36540158
34023,0,USNewJerseyMiddlesex,New Jersey,Middlesex,2021-04-04 07:40:31.386648,2020-09-07 00:00:00.000000,0.16003222,0.20210806,0.37058007,1320,1667,3057,838,1059,1896,0.10165902,0.12840057,0.22988613,0.22574158,0.33278048,0.37739611
34023,0,USNewJerseyMiddlesex,New Jersey,Middlesex,2021-04-04 07:40:31.386648,2020-09-08 00:00:00.000000,0.16302901,0.20909521,0.38178322,1345,1725,3149,870,1098,1955,0.10555492,0.13316781,0.23702569,0.22720240,0.33138054,0.38140528
34023,0,USNewJerseyMiddlesex,New Jersey,Middlesex,2021-04-04 07:40:31.386648,2020-09-09 00:00:00.000000,0.16649377,0.21649025,0.39316063,1373,1786,3243,904,1138,2015,0.10967846,0.13800354,0.24429359,0.23312762,0.33032994,0.39244371
34023,0,USNewJerseyMiddlesex,New Jersey,Middlesex,2021-04-04 07:40:31.386648,2020-09-10 00:00:00.000000,0.17077188,0.22407214,0.40457115,1408,1848,3337,917,1179,2076,0.11120110,0.14293448,0.25168494,0.23823049,0.33008262,0.41627777
34023,0,USNewJerseyMiddlesex,New Jersey,Middlesex,2021-04-04 07:40:31.386648,2020-09-11 00:00:00.000000,0.17946717,0.23179384,0.41613460,1480,1912,3433,938,1220,2138,0.11373667,0.14797938,0.25919267,0.23965285,0.32968474,0.43038690
34023,0,USNewJerseyMiddlesex,New Jersey,Middlesex,2021-04-04 07:40:31.386648,2020-09-12 00:00:00.000000,0.18959689,0.23932982,0.42765868,1564,1974,3528,971,1263,2201,0.11779021,0.15312928,0.26677670,0.25278961,0.32480478,0.44418954
34023,0,USNewJerseyMiddlesex,New Jersey,Middlesex,2021-04-04 07:40:31.386648,2020-09-13 00:00:00.000000,0.20036020,0.24556392,0.43888345,1653,2026,3621,995,1305,2263,0.12067065,0.15826025,0.27435588,0.26206174,0.30805997,0.44726587
34023,0,USNewJerseyMiddlesex,New Jersey,Middlesex,2021-04-04 07:40:31.386648,2020-09-14 00:00:00.000000,0.20555313,0.24943957,0.44984052,1695,2058,3711,1019,1344,2325,0.12350950,0.16290350,0.28188230,0.26564995,0.28742533,0.44710643
34023,0,USNewJerseyMiddlesex,New Jersey,Middlesex,2021-04-04 07:40:31.386648,2020-09-15 00:00:00.000000,0.21110906,0.25257575,0.46086605,1741,2083,3802,1050,1372,2386,0.12735132,0.16640740,0.28930285,0.26073585,0.26963423,0.44446766
34023,0,USNewJerseyMiddlesex,New Jersey,Middlesex,2021-04-04 07:40:31.386648,2020-09-16 00:00:00.000000,0.21680664,0.25518237,0.47179411,1788,2105,3892,1081,1393,2447,0.13110211,0.16890902,0.29668336,0.25831399,0.26607608,0.43887054
34023,0,USNewJerseyMiddlesex,New Jersey,Middlesex,2021-04-04 07:40:31.386648,2020-09-17 00:00:00.000000,0.22248748,0.25789845,0.48244004,1835,2127,3980,1120,1409,2508,0.13580628,0.17082415,0.30401670,0.26317902,0.26967807,0.43467245
34023,0,USNewJerseyMiddlesex,New Jersey,Middlesex,2021-04-04 07:40:31.386648,2020-09-18 00:00:00.000000,0.22805215,0.26296848,0.49307507,1881,2169,4068,1165,1424,2568,0.14123012,0.17271367,0.31126671,0.26380522,0.29663911,0.45488566
34023,0,USNewJerseyMiddlesex,New Jersey,Middlesex,2021-04-04 07:40:31.386648,2020-09-19 00:00:00.000000,0.23539081,0.27088358,0.50256469,1942,2234,4146,1214,1448,2627,0.14717498,0.17553624,0.31847852,0.27217091,0.32470092,0.45047382
34023,0,USNewJerseyMiddlesex,New Jersey,Middlesex,2021-04-04 07:40:31.386648,2020-09-20 00:00:00.000000,0.24412201,0.27966827,0.51196460,2014,2307,4224,1266,1483,2687,0.15351120,0.17979110,0.32573466,0.26604776,0.33152773,0.44361130
34023,0,USNewJerseyMiddlesex,New Jersey,Middlesex,2021-04-04 07:40:31.386648,2020-09-21 00:00:00.000000,0.25295046,0.28950275,0.52764940,2086,2388,4353,1321,1528,2748,0.16016042,0.18525541,0.33312261,0.26360857,0.33308440,0.43480266
34023,0,USNewJerseyMiddlesex,New Jersey,Middlesex,2021-04-04 07:40:31.386648,2020-09-22 00:00:00.000000,0.26193111,0.29998349,0.54925526,2161,2475,4531,1378,1579,2814,0.16710090,0.19143362,0.34112440,0.26355655,0.33486236,0.42595670
34023,0,USNewJerseyMiddlesex,New Jersey,Middlesex,2021-04-04 07:40:31.386648,2020-09-23 00:00:00.000000,0.27105363,0.31118885,0.56719378,2236,2567,4679,1431,1634,2937,0.17351933,0.19813855,0.35602251,0.26442392,0.33853632,0.41938262
34023,0,USNewJerseyMiddlesex,New Jersey,Middlesex,2021-04-04 07:40:31.386648,2020-09-24 00:00:00.000000,0.28014138,0.32332219,0.58367573,2311,2667,4815,1470,1694,3062,0.17823929,0.20534216,0.37119118,0.27751724,0.34375375,0.41335350
34023,0,USNewJerseyMiddlesex,New Jersey,Middlesex,2021-04-04 07:40:31.386648,2020-09-25 00:00:00.000000,0.28990496,0.33653590,0.59871556,2391,2776,4939,1510,1758,3184,0.18309038,0.21311308,0.38601774,0.27962998,0.35015554,0.40736822
34023,0,USNewJerseyMiddlesex,New Jersey,Middlesex,2021-04-04 07:40:31.386648,2020-09-26 00:00:00.000000,0.29945897,0.35082419,0.61071857,2470,2894,5038,1552,1827,3296,0.18822405,0.22154298,0.39952772,0.27964932,0.35537246,0.40000806
34023,0,USNewJerseyMiddlesex,New Jersey,Middlesex,2021-04-04 07:40:31.386648,2020-09-27 00:00:00.000000,0.30908634,0.36607668,0.62517512,2550,3020,5158,1598,1899,3427,0.19373633,0.23016632,0.41539463,0.28232152,0.35759826,0.39948116
34023,0,USNewJerseyMiddlesex,New Jersey,Middlesex,2021-04-04 07:40:31.386648,2020-09-28 00:00:00.000000,0.31865150,0.38215706,0.64574881,2629,3153,5327,1647,1977,3526,0.19973473,0.23972815,0.42741799,0.27128079,0.35963620,0.39917174
34023,0,USNewJerseyMiddlesex,New Jersey,Middlesex,2021-04-04 07:40:31.386648,2020-09-29 00:00:00.000000,0.32841136,0.39902107,0.67688293,2709,3292,5584,1702,2055,3637,0.20630388,0.24915218,0.44090753,0.27090757,0.36056303,0.39903292
34023,0,USNewJerseyMiddlesex,New Jersey,Middlesex,2021-04-04 07:40:31.386648,2020-09-30 00:00:00.000000,0.33857141,0.41638407,0.70942364,2793,3435,5853,1761,2141,3744,0.21346099,0.25950345,0.45390156,0.26130419,0.36096827,0.39898099
34023,0,USNewJerseyMiddlesex,New Jersey,Middlesex,2021-04-04 07:40:31.386648,2020-10-01 00:00:00.000000,0.35184031,0.43409259,0.72972298,2902,3581,6020,1824,2226,3846,0.22118834,0.26989100,0.46622907,0.25824981,0.36106317,0.39899116
34023,0,USNewJerseyMiddlesex,New Jersey,Middlesex,2021-04-04 07:40:31.386648,2020-10-02 00:00:00.000000,0.36558710,0.45097135,0.74262154,3016,3720,6127,1893,2316,3947,0.22950683,0.28074977,0.47849464,0.26644258,0.36084765,0.39911184
34023,0,USNewJerseyMiddlesex,New Jersey,Middlesex,2021-04-04 07:40:31.386648,2020-10-03 00:00:00.000000,0.37981883,0.46744705,0.75524037,3133,3856,6231,1967,2413,4048,0.23852717,0.29257520,0.49066139,0.25609319,0.35632579,0.39953825
34023,0,USNewJerseyMiddlesex,New Jersey,Middlesex,2021-04-04 07:40:31.386648,2020-10-04 00:00:00.000000,0.39455691,0.48453237,0.76812739,3255,3997,6337,2046,2503,4196,0.24804448,0.30341646,0.50860157,0.25111400,0.34913724,0.40078301
34023,0,USNewJerseyMiddlesex,New Jersey,Middlesex,2021-04-04 07:40:31.386648,2020-10-05 00:00:00.000000,0.40963178,0.50381809,0.78687687,3379,4156,6492,2102,2588,4368,0.25480878,0.31377792,0.52950903,0.24757061,0.34401681,0.39688535
34023,0,USNewJerseyMiddlesex,New Jersey,Middlesex,2021-04-04 07:40:31.386648,2020-10-06 00:00:00.000000,0.42541102,0.52334611,0.82410913,3509,4317,6799,2159,2697,4490,0.26169327,0.32689446,0.54427824,0.24696047,0.34648524,0.40841047
34023,0,USNewJerseyMiddlesex,New Jersey,Middlesex,2021-04-04 07:40:31.386648,2020-10-07 00:00:00.000000,0.44184141,0.54058341,0.86069174,3645,4460,7101,2217,2806,4599,0.26870734,0.34010672,0.55741971,0.24802946,0.34665425,0.41401644
34023,0,USNewJerseyMiddlesex,New Jersey,Middlesex,2021-04-04 07:40:31.386648,2020-10-08 00:00:00.000000,0.45333163,0.55839135,0.90023505,3740,4607,7427,2276,2917,4707,0.27586566,0.35367000,0.57059825,0.25141231,0.34374108,0.41567388
34023,0,USNewJerseyMiddlesex,New Jersey,Middlesex,2021-04-04 07:40:31.386648,2020-10-09 00:00:00.000000,0.46578917,0.57567764,0.93912420,3843,4749,7748,2336,3026,4817,0.28318050,0.36679286,0.58388013,0.25839838,0.34164793,0.41892853
34023,0,USNewJerseyMiddlesex,New Jersey,Middlesex,2021-04-04 07:40:31.386648,2020-10-10 00:00:00.000000,0.49003014,0.59651613,0.97648169,4043,4921,8056,2398,3129,4928,0.29066164,0.37926600,0.59729898,0.25384993,0.34051566,0.42356525
34023,0,USNewJerseyMiddlesex,New Jersey,Middlesex,2021-04-04 07:40:31.386648,2020-10-11 00:00:00.000000,0.51513730,0.61713105,1.01519040,4250,5091,8375,2467,3235,5113,0.29903812,0.39219149,0.61971569,0.26088616,0.34139398,0.42468988
34023,0,USNewJerseyMiddlesex,New Jersey,Middlesex,2021-04-04 07:40:31.386648,2020-10-12 00:00:00.000000,0.53534520,0.63937142,1.05510170,4416,5275,8705,2565,3345,5345,0.31099185,0.40543803,0.64790011,0.26825416,0.34282932,0.42614957
34023,0,USNewJerseyMiddlesex,New Jersey,Middlesex,2021-04-04 07:40:31.386648,2020-10-13 00:00:00.000000,0.55344094,0.66268165,1.09642474,4566,5467,9046,2675,3470,5590,0.32431923,0.42063657,0.67758621,0.27287898,0.34439593,0.42540645
34023,0,USNewJerseyMiddlesex,New Jersey,Middlesex,2021-04-04 07:40:31.386648,2020-10-14 00:00:00.000000,0.56415609,0.68817707,1.13917348,4654,5677,9398,2801,3595,5847,0.33950760,0.43583902,0.70875391,0.27833500,0.34786985,0.43145493
34023,0,USNewJerseyMiddlesex,New Jersey,Middlesex,2021-04-04 07:40:31.386648,2020-10-15 00:00:00.000000,0.57698136,0.71460420,1.18331901,4760,5895,9763,2939,3729,6116,0.35630857,0.45198619,0.74137790,0.28556397,0.35463055,0.45056347
34023,0,USNewJerseyMiddlesex,New Jersey,Middlesex,2021-04-04 07:40:31.386648,2020-10-16 00:00:00.000000,0.59237519,0.74546570,1.22865363,4887,6150,10137,3027,3874,6398,0.36697966,0.46957228,0.77546426,0.28866829,0.36412486,0.46241132
34023,0,USNewJerseyMiddlesex,New Jersey,Middlesex,2021-04-04 07:40:31.386648,2020-10-17 00:00:00.000000,0.61023273,0.78112509,1.27448348,5034,6444,10515,3120,4030,6691,0.37824561,0.48848818,0.81103598,0.29225736,0.37395590,0.46533282
34023,0,USNewJerseyMiddlesex,New Jersey,Middlesex,2021-04-04 07:40:31.386648,2020-10-18 00:00:00.000000,0.63019027,0.82173440,1.31942032,5199,6779,10886,3219,4211,6997,0.39017795,0.51040459,0.84811070,0.29379622,0.38340652,0.47114910
34023,0,USNewJerseyMiddlesex,New Jersey,Middlesex,2021-04-04 07:40:31.386648,2020-10-19 00:00:00.000000,0.65224267,0.86388078,1.36264614,5381,7127,11242,3324,4413,7315,0.40294618,0.53495989,0.88664302,0.29789259,0.38821818,0.46663542
34023,0,USNewJerseyMiddlesex,New Jersey,Middlesex,2021-04-04 07:40:31.386648,2020-10-20 00:00:00.000000,0.67695478,0.90661722,1.40528259,5585,7480,11594,3438,4635,7642,0.41669753,0.56188760,0.92625842,0.29618243,0.39083281,0.45965146
34023,0,USNewJerseyMiddlesex,New Jersey,Middlesex,2021-04-04 07:40:31.386648,2020-10-21 00:00:00.000000,0.70613059,0.95444017,1.45746589,5826,7874,12024,3560,4856,7966,0.43151649,0.58866736,0.96561941,0.29514972,0.39189442,0.45862837
34023,0,USNewJerseyMiddlesex,New Jersey,Middlesex,2021-04-04 07:40:31.386648,2020-10-22 00:00:00.000000,0.74111587,1.00273053,1.51938519,6114,8273,12535,3690,5075,8266,0.44734216,0.61521593,1.00189308,0.29422183,0.39189112,0.45631264
34023,0,USNewJerseyMiddlesex,New Jersey,Middlesex,2021-04-04 07:40:31.386648,2020-10-23 00:00:00.000000,0.78178123,1.05393663,1.58236705,6450,8695,13055,3819,5313,8528,0.46295347,0.64395862,1.03364858,0.29491382,0.38838113,0.44300702
34023,0,USNewJerseyMiddlesex,New Jersey,Middlesex,2021-04-04 07:40:31.386648,2020-10-24 00:00:00.000000,0.82696685,1.10372031,1.64639971,6822,9106,13583,3972,5614,8760,0.48147476,0.68054371,1.06179952,0.29284397,0.38075987,0.44659766
34023,0,USNewJerseyMiddlesex,New Jersey,Middlesex,2021-04-04 07:40:31.386648,2020-10-25 00:00:00.000000,0.86262646,1.13591552,1.70184484,7117,9372,14041,4175,5906,8975,0.50613589,0.71593113,1.08781898,0.28647187,0.33247605,0.44509234
34023,0,USNewJerseyMiddlesex,New Jersey,Middlesex,2021-04-04 07:40:31.386648,2020-10-26 00:00:00.000000,0.88399403,1.15195539,1.73958449,7293,9504,14352,4341,6134,9183,0.52624382,0.74354361,1.11304229,0.27813680,0.30335406,0.45476799
34023,0,USNewJerseyMiddlesex,New Jersey,Middlesex,2021-04-04 07:40:31.386648,2020-10-27 00:00:00.000000,0.91462092,1.17065603,1.79818668,7546,9658,14836,4484,6280,9393,0.54358954,0.76118921,1.13855055,0.27292929,0.29706939,0.45515494
34023,0,USNewJerseyMiddlesex,New Jersey,Middlesex,2021-04-04 07:40:31.386648,2020-10-28 00:00:00.000000,0.96449195,1.19256686,1.86552801,7957,9839,15391,4632,6431,9614,0.56142649,0.77948917,1.16534872,0.27220091,0.29616780,0.45341951
34023,0,USNewJerseyMiddlesex,New Jersey,Middlesex,2021-04-04 07:40:31.386648,2020-10-29 00:00:00.000000,0.99715576,1.21417169,1.93604360,8227,10017,15973,4783,6565,9852,0.57981961,0.79578430,1.19420387,0.27238697,0.29606390,0.44686786
34023,0,USNewJerseyMiddlesex,New Jersey,Middlesex,2021-04-04 07:40:31.386648,2020-10-30 00:00:00.000000,1.06256009,1.23010295,2.00795167,8766,10149,16566,4941,6692,10112,0.59894712,0.81113283,1.22560554,0.27327018,0.29607005,0.43755635
34023,0,USNewJerseyMiddlesex,New Jersey,Middlesex,2021-04-04 07:40:31.386648,2020-10-31 00:00:00.000000,1.14367736,1.25195564,2.05986281,9436,10329,16995,5113,6815,10393,0.61974592,0.82606519,1.25977622,0.27564035,0.29606807,0.43947394
34023,0,USNewJerseyMiddlesex,New Jersey,Middlesex,2021-04-04 07:40:31.386648,2020-11-01 00:00:00.000000,1.18515061,1.27892873,2.11386331,9778,10551,17440,5305,6892,10877,0.64307443,0.83533364,1.31843127,0.27958998,0.29608695,0.44666477
34023,0,USNewJerseyMiddlesex,New Jersey,Middlesex,2021-04-04 07:40:31.386648,2020-11-02 00:00:00.000000,1.20270937,1.30103836,2.17596704,9923,10734,17953,5654,6966,11375,0.68536995,0.84436846,1.37877229,0.28438306,0.29672849,0.45001353
34023,0,USNewJerseyMiddlesex,New Jersey,Middlesex,2021-04-04 07:40:31.386648,2020-11-03 00:00:00.000000,1.22402043,1.32457277,2.23983634,10098,10928,18480,6089,7165,11851,0.73812170,0.86852474,1.43644423,0.29435701,0.30226428,0.45976702
34023,0,USNewJerseyMiddlesex,New Jersey,Middlesex,2021-04-04 07:40:31.386648,2020-11-04 00:00:00.000000,1.24918896,1.35167698,2.30447925,10306,11152,19013,6563,7309,12287,0.79552306,0.88596905,1.48931095,0.30470245,0.31147800,0.45492681
34023,0,USNewJerseyMiddlesex,New Jersey,Middlesex,2021-04-04 07:40:31.386648,2020-11-05 00:00:00.000000,1.28113338,1.38841282,2.37063672,10570,11455,19559,6804,7450,12676,0.82478055,0.90305283,1.53638311,0.31598210,0.32613854,0.47516705
34023,0,USNewJerseyMiddlesex,New Jersey,Middlesex,2021-04-04 07:40:31.386648,2020-11-06 00:00:00.000000,1.32233137,1.44057583,2.43941027,10910,11885,20126,6959,7618,13019,0.84352203,0.92336875,1.57804747,0.31801917,0.34743512,0.47974113
34023,0,USNewJerseyMiddlesex,New Jersey,Middlesex,2021-04-04 07:40:31.386648,2020-11-07 00:00:00.000000,1.37320630,1.49963001,2.51317163,11329,12372,20735,7154,7828,13327,0.86720395,0.94879246,1.61530756,0.31759963,0.36626511,0.47974747
34023,0,USNewJerseyMiddlesex,New Jersey,Middlesex,2021-04-04 07:40:31.386648,2020-11-08 00:00:00.000000,1.43191979,1.56413886,2.60468347,11814,12905,21490,7397,8089,13616,0.89662291,0.98044128,1.65040960,0.32584606,0.38038014,0.47934539
34023,0,USNewJerseyMiddlesex,New Jersey,Middlesex,2021-04-04 07:40:31.386648,2020-11-09 00:00:00.000000,1.49627111,1.62584451,2.70151019,12345,13414,22289,7685,8400,13911,0.93150638,1.01815014,1.68612822,0.32215446,0.38792419,0.48755109
34023,0,USNewJerseyMiddlesex,New Jersey,Middlesex,2021-04-04 07:40:31.386648,2020-11-10 00:00:00.000000,1.56488810,1.69063188,2.80041867,12911,13948,23105,8010,8753,14339,0.97092643,1.06095111,1.73795068,0.32069613,0.39110974,0.47948985
34023,0,USNewJerseyMiddlesex,New Jersey,Middlesex,2021-04-04 07:40:31.386648,2020-11-11 00:00:00.000000,1.63686385,1.76575769,2.89979426,13505,14568,23925,8365,9140,14952,1.01394546,1.10780182,1.81223630,0.31265870,0.39193541,0.47922515
34023,0,USNewJerseyMiddlesex,New Jersey,Middlesex,2021-04-04 07:40:31.386648,2020-11-12 00:00:00.000000,1.71141198,1.84612710,3.03213399,14120,15231,25016,8744,9552,15583,1.05980940,1.15784723,1.88875389,0.31822657,0.39099898,0.47709698
34023,0,USNewJerseyMiddlesex,New Jersey,Middlesex,2021-04-04 07:40:31.386648,2020-11-13 00:00:00.000000,1.78752909,1.92834577,3.14612909,14748,15910,25957,9140,9986,16235,1.10790056,1.21038907,1.96777402,0.31186356,0.38688942,0.45586314
34023,0,USNewJerseyMiddlesex,New Jersey,Middlesex,2021-04-04 07:40:31.386648,2020-11-14 00:00:00.000000,1.86406837,2.01131640,3.23132930,15379,16594,26660,9550,10434,16910,1.15758877,1.26473026,2.04957693,0.29923478,0.38283660,0.42299014
34023,0,USNewJerseyMiddlesex,New Jersey,Middlesex,2021-04-04 07:40:31.386648,2020-11-15 00:00:00.000000,1.94043713,2.09467744,3.30979026,16009,17282,27307,9842,10892,17610,1.19296217,1.32015011,2.13447058,0.29511090,0.37691892,0.41756260
34023,0,USNewJerseyMiddlesex,New Jersey,Middlesex,2021-04-04 07:40:31.386648,2020-11-16 00:00:00.000000,2.01675939,2.17883583,3.39418932,16639,17976,28004,10123,11354,18338,1.22705159,1.37618340,2.22271756,0.29861278,0.37260010,0.41397729
34023,0,USNewJerseyMiddlesex,New Jersey,Middlesex,2021-04-04 07:40:31.386648,2020-11-17 00:00:00.000000,2.09343984,2.26452875,3.53196022,17272,18683,29140,10466,11821,19095,1.26855101,1.43277512,2.31447243,0.27758658,0.37015097,0.41112892
34023,0,USNewJerseyMiddlesex,New Jersey,Middlesex,2021-04-04 07:40:31.386648,2020-11-18 00:00:00.000000,2.17144899,2.35192401,3.67346102,17915,19404,30308,10790,12294,19880,1.30786571,1.49018661,2.40955905,0.27218806,0.36766071,0.40813207
34023,0,USNewJerseyMiddlesex,New Jersey,Middlesex,2021-04-04 07:40:31.386648,2020-11-19 00:00:00.000000,2.23492277,2.44007600,3.81696820,18439,20132,31492,11039,12777,20689,1.33798660,1.54861341,2.50757892,0.27074927,0.36606771,0.40435438
34023,0,USNewJerseyMiddlesex,New Jersey,Middlesex,2021-04-04 07:40:31.386648,2020-11-20 00:00:00.000000,2.26979946,2.52473279,3.95867761,18727,20830,32661,11299,13193,21515,1.36948922,1.59904212,2.60774366,0.27046096,0.36142112,0.40333384
34023,0,USNewJerseyMiddlesex,New Jersey,Middlesex,2021-04-04 07:40:31.386648,2020-11-21 00:00:00.000000,2.31065904,2.59937974,4.09255790,19064,21446,33766,11567,13641,22344,1.40202367,1.65336760,2.70825789,0.27031721,0.35600160,0.40512603
34023,0,USNewJerseyMiddlesex,New Jersey,Middlesex,2021-04-04 07:40:31.386648,2020-11-22 00:00:00.000000,2.35931560,2.66627623,4.21503311,19465,21998,34776,11842,14092,23153,1.43530888,1.70799557,2.80621415,0.27212815,0.35299379,0.40910021
34023,0,USNewJerseyMiddlesex,New Jersey,Middlesex,2021-04-04 07:40:31.386648,2020-11-23 00:00:00.000000,2.41020604,2.72999021,4.32958952,19885,22524,35721,12120,14521,23919,1.46909786,1.76010130,2.89909944,0.27600784,0.34992293,0.41045681
34023,0,USNewJerseyMiddlesex,New Jersey,Middlesex,2021-04-04 07:40:31.386648,2020-11-24 00:00:00.000000,2.46151135,2.79136703,4.43940100,20308,23030,36627,12413,14935,24641,1.50460092,1.81024426,2.98660284,0.27862604,0.34807101,0.41093174
34023,0,USNewJerseyMiddlesex,New Jersey,Middlesex,2021-04-04 07:40:31.386648,2020-11-25 00:00:00.000000,2.51781672,2.85018964,4.54651161,20773,23515,37511,12711,15334,25326,1.54063882,1.85860405,3.06968746,0.27714268,0.34361205,0.41110362
34023,0,USNewJerseyMiddlesex,New Jersey,Middlesex,2021-04-04 07:40:31.386648,2020-11-26 00:00:00.000000,2.59437351,2.91385775,4.65128562,21405,24041,38375,13010,15676,25985,1.57687284,1.90005364,3.14957698,0.28221352,0.33739545,0.41115358
34023,0,USNewJerseyMiddlesex,New Jersey,Middlesex,2021-04-04 07:40:31.386648,2020-11-27 00:00:00.000000,2.64288497,2.98076045,4.75342281,21805,24593,39218,13271,16002,26625,1.60853971,1.93953747,3.22704353,0.28354906,0.33079270,0.41104383
34023,0,USNewJerseyMiddlesex,New Jersey,Middlesex,2021-04-04 07:40:31.386648,2020-11-28 00:00:00.000000,2.68099353,3.04158532,4.85264039,22119,25094,40037,13525,16311,27246,1.63928280,1.97698633,3.30237723,0.28348747,0.32675293,0.41284499
34023,0,USNewJerseyMiddlesex,New Jersey,Middlesex,2021-04-04 07:40:31.386648,2020-11-29 00:00:00.000000,2.74156586,3.09732926,4.94890508,22619,25554,40831,13768,16620,27850,1.66876997,2.01449621,3.37561850,0.28502825,0.32201067,0.41479896
34023,0,USNewJerseyMiddlesex,New Jersey,Middlesex,2021-04-04 07:40:31.386648,2020-11-30 00:00:00.000000,2.81053392,3.14984317,5.08560421,23188,25988,41959,14000,16943,28437,1.69693749,2.05362337,3.44676276,0.28113225,0.31862595,0.42936181
34023,0,USNewJerseyMiddlesex,New Jersey,Middlesex,2021-04-04 07:40:31.386648,2020-12-01 00:00:00.000000,2.89589055,3.20427766,5.21412403,23892,26437,43019,14302,17223,29002,1.73354320,2.08754929,3.51513698,0.27219316,0.31645843,0.42624409
34023,0,USNewJerseyMiddlesex,New Jersey,Middlesex,2021-04-04 07:40:31.386648,2020-12-02 00:00:00.000000,2.99221642,3.24365493,5.29432605,24687,26762,43681,14689,17499,29544,1.78039863,2.12093831,3.58084160,0.27144217,0.31503267,0.42450201
34023,0,USNewJerseyMiddlesex,New Jersey,Middlesex,2021-04-04 07:40:31.386648,2020-12-03 00:00:00.000000,3.07304686,3.28806965,5.37021159,25354,27128,44307,15077,17753,30066,1.82738518,2.15178675,3.64413465,0.27117383,0.31407251,0.42270952
34023,0,USNewJerseyMiddlesex,New Jersey,Middlesex,2021-04-04 07:40:31.386648,2020-12-04 00:00:00.000000,3.14551177,3.33048825,5.44900473,25952,27478,44957,15466,18021,30566,1.87458234,2.18429026,3.70474061,0.27103611,0.31301024,0.41981895
34023,0,USNewJerseyMiddlesex,New Jersey,Middlesex,2021-04-04 07:40:31.386648,2020-12-05 00:00:00.000000,3.20929345,3.36911867,5.53561017,26478,27797,45672,15857,18286,31041,1.92196882,2.21639198,3.76236430,0.26434587,0.31020540,0.41661293
34023,0,USNewJerseyMiddlesex,New Jersey,Middlesex,2021-04-04 07:40:31.386648,2020-12-06 00:00:00.000000,3.23783006,3.39966860,5.62254773,26714,28049,46389,16248,18512,31492,1.96942724,2.24379851,3.81701391,0.25393140,0.30107014,0.40808283
34023,0,USNewJerseyMiddlesex,New Jersey,Middlesex,2021-04-04 07:40:31.386648,2020-12-07 00:00:00.000000,3.25120712,3.41483546,5.70821783,26824,28174,47096,16629,18694,31921,2.01557127,2.26587174,3.86899792,0.24765592,0.28729597,0.40439397
34023,0,USNewJerseyMiddlesex,New Jersey,Middlesex,2021-04-04 07:40:31.386648,2020-12-08 00:00:00.000000,3.25476293,3.41850652,5.79170779,26853,28204,47785,16818,18807,32331,2.03850786,2.27949737,3.91869930,0.24175647,0.27921591,0.40383438
34023,0,USNewJerseyMiddlesex,New Jersey,Middlesex,2021-04-04 07:40:31.386648,2020-12-09 00:00:00.000000,3.25362428,3.41763139,5.87227717,26844,28197,48449,16930,18906,32724,2.05206215,2.29150543,3.96625011,0.23957074,0.27678047,0.40280033
34023,0,USNewJerseyMiddlesex,New Jersey,Middlesex,2021-04-04 07:40:31.386648,2020-12-10 00:00:00.000000,3.24982370,3.42301716,5.94873550,26813,28242,49080,16980,18901,33097,2.05805563,2.29091659,4.01155528,0.23513029,0.27603861,0.40018351
34023,0,USNewJerseyMiddlesex,New Jersey,Middlesex,2021-04-04 07:40:31.386648,2020-12-11 00:00:00.000000,3.24423208,3.42416087,6.01812754,26766,28251,49653,16995,18900,33443,2.05995927,2.29078268,4.05350856,0.23318349,0.27550062,0.39064357
34023,0,USNewJerseyMiddlesex,New Jersey,Middlesex,2021-04-04 07:40:31.386648,2020-12-12 00:00:00.000000,3.23735542,3.41555763,6.07252175,26710,28180,50102,17001,18881,33701,2.06059220,2.28849366,4.08468368,0.23268483,0.27530920,0.37799086
34023,0,USNewJerseyMiddlesex,New Jersey,Middlesex,2021-04-04 07:40:31.386648,2020-12-13 00:00:00.000000,3.22903023,3.40479174,6.09862924,26641,28091,50317,17011,18850,33834,2.06183524,2.28468029,4.10087509,0.23233663,0.27415942,0.37285440
34023,0,USNewJerseyMiddlesex,New Jersey,Middlesex,2021-04-04 07:40:31.386648,2020-12-14 00:00:00.000000,3.21248635,3.37925870,6.09252680,26505,27880,50267,17034,18868,33882,2.06466941,2.28695687,4.10662046,0.23166488,0.27310576,0.36847318
34023,0,USNewJerseyMiddlesex,New Jersey,Middlesex,2021-04-04 07:40:31.386648,2020-12-15 00:00:00.000000,3.19612920,3.36584129,6.06570805,26370,27770,50045,17073,18773,33872,2.06931608,2.27535520,4.10549855,0.23014068,0.27316982,0.36765984
34023,0,USNewJerseyMiddlesex,New Jersey,Middlesex,2021-04-04 07:40:31.386648,2020-12-16 00:00:00.000000,3.17955728,3.35090316,6.02828580,26233,27647,49737,17122,18702,33824,2.07533042,2.26678361,4.09965732,0.22851753,0.27317390,0.36739849
34023,0,USNewJerseyMiddlesex,New Jersey,Middlesex,2021-04-04 07:40:31.386648,2020-12-17 00:00:00.000000,3.16262105,3.33644903,5.98483543,26093,27527,49378,17176,18637,33748,2.08180698,2.25895614,4.09036281,0.22780041,0.27308756,0.36724134
34023,0,USNewJerseyMiddlesex,New Jersey,Middlesex,2021-04-04 07:40:31.386648,2020-12-18 00:00:00.000000,3.12644025,3.32043621,5.93620599,25795,27395,48977,17223,18565,33649,2.08752837,2.25017132,4.07842015,0.22812324,0.27335312,0.36686355
34023,0,USNewJerseyMiddlesex,New Jersey,Middlesex,2021-04-04 07:40:31.386648,2020-12-19 00:00:00.000000,3.08206971,3.30282667,5.88421743,25428,27250,48548,17254,18484,33534,2.09128912,2.24035110,4.06446216,0.22945694,0.27420203,0.36684332
34023,0,USNewJerseyMiddlesex,New Jersey,Middlesex,2021-04-04 07:40:31.386648,2020-12-20 00:00:00.000000,3.06867421,3.28460541,5.82954203,25318,27100,48097,17024,18394,33408,2.06343548,2.22946892,4.04920664,0.22987218,0.27505901,0.36752708
34023,0,USNewJerseyMiddlesex,New Jersey,Middlesex,2021-04-04 07:40:31.386648,2020-12-21 00:00:00.000000,3.07758145,3.26956590,5.77247397,25391,26975,47626,16768,18298,33279,2.03234614,2.21786102,4.03356633,0.22429269,0.28059956,0.36621592
34023,0,USNewJerseyMiddlesex,New Jersey,Middlesex,2021-04-04 07:40:31.386648,2020-12-22 00:00:00.000000,3.09390284,3.26592276,5.71345443,25526,26945,47139,16515,18209,33157,2.00168216,2.20703623,4.01873772,0.22842616,0.29361919,0.34664935
34023,0,USNewJerseyMiddlesex,New Jersey,Middlesex,2021-04-04 07:40:31.386648,2020-12-23 00:00:00.000000,3.06260548,3.28269378,5.65322046,25268,27084,46642,16272,18156,33070,1.97222190,2.20064934,4.00827489,0.23046778,0.31499452,0.34849850
34023,0,USNewJerseyMiddlesex,New Jersey,Middlesex,2021-04-04 07:40:31.386648,2020-12-24 00:00:00.000000,3.04090776,3.31878472,5.63515439,25089,27382,46493,16049,18181,33045,1.94523688,2.20369977,4.00525463,0.23389715,0.33602102,0.36523570
34023,0,USNewJerseyMiddlesex,New Jersey,Middlesex,2021-04-04 07:40:31.386648,2020-12-25 00:00:00.000000,3.03873508,3.36570977,5.67211385,25071,27769,46798,15863,18301,33098,1.92276252,2.21823774,4.01161541,0.24212453,0.34721973,0.40055221
34023,0,USNewJerseyMiddlesex,New Jersey,Middlesex,2021-04-04 07:40:31.386648,2020-12-26 00:00:00.000000,3.06238396,3.41491492,5.72088012,25266,28175,47200,15739,18498,33229,1.90768971,2.24212549,4.02750634,0.24848702,0.35216896,0.44402489
34023,0,USNewJerseyMiddlesex,New Jersey,Middlesex,2021-04-04 07:40:31.386648,2020-12-27 00:00:00.000000,3.10481329,3.46516904,5.78299846,25616,28589,47713,15701,18745,33434,1.90312772,2.27199700,4.05238000,0.26157362,0.35412814,0.45655214
34023,0,USNewJerseyMiddlesex,New Jersey,Middlesex,2021-04-04 07:40:31.386648,2020-12-28 00:00:00.000000,3.15906987,3.51890987,5.85043785,26064,29033,48269,15768,19019,33715,1.91113420,2.30517841,4.08647034,0.28063150,0.35592703,0.46803831
34023,0,USNewJerseyMiddlesex,New Jersey,Middlesex,2021-04-04 07:40:31.386648,2020-12-29 00:00:00.000000,3.20007159,3.57231313,5.95540089,26402,29473,49135,15931,19305,34082,1.93096260,2.33991564,4.13091669,0.27978854,0.35629075,0.47767811
34023,0,USNewJerseyMiddlesex,New Jersey,Middlesex,2021-04-04 07:40:31.386648,2020-12-30 00:00:00.000000,3.22233503,3.62478038,6.06074118,26586,29906,50004,16159,19525,34538,1.95857336,2.36660158,4.18614366,0.28686075,0.35646254,0.48101738
34023,0,USNewJerseyMiddlesex,New Jersey,Middlesex,2021-04-04 07:40:31.386648,2020-12-31 00:00:00.000000,3.25251209,3.67553328,6.17323531,26835,30325,50933,16463,19833,35072,1.99543527,2.40390721,4.25085105,0.28942878,0.35652117,0.48173529
34023,0,USNewJerseyMiddlesex,New Jersey,Middlesex,2021-04-04 07:40:31.386648,2021-01-01 00:00:00.000000,3.30997671,3.72320481,6.29122741,27309,30718,51906,16810,20136,35666,2.03744737,2.44057376,4.32289774,0.29312663,0.35444409,0.48567862
34023,0,USNewJerseyMiddlesex,New Jersey,Middlesex,2021-04-04 07:40:31.386648,2021-01-02 00:00:00.000000,3.36912444,3.76670444,6.41507520,27797,31077,52928,17148,20427,36307,2.07842997,2.47582287,4.40057956,0.29430072,0.35402313,0.48987024
34023,0,USNewJerseyMiddlesex,New Jersey,Middlesex,2021-04-04 07:40:31.386648,2021-01-03 00:00:00.000000,3.45782467,3.82894613,6.54520561,28529,31591,54002,17468,20682,36988,2.11726622,2.50676481,4.48313931,0.28911636,0.35287943,0.48287079
34023,0,USNewJerseyMiddlesex,New Jersey,Middlesex,2021-04-04 07:40:31.386648,2021-01-04 00:00:00.000000,3.55536303,3.86589523,6.67972056,29333,31896,55111,17759,20949,37708,2.15247260,2.53914397,4.57035738,0.28630629,0.34936419,0.47721065
34023,0,USNewJerseyMiddlesex,New Jersey,Middlesex,2021-04-04 07:40:31.386648,2021-01-05 00:00:00.000000,3.61541219,3.89740354,6.81304201,29829,32155,56211,18040,21201,38460,2.18658558,2.56966069,4.66150992,0.28552014,0.34803941,0.47388616
34023,0,USNewJerseyMiddlesex,New Jersey,Middlesex,2021-04-04 07:40:31.386648,2021-01-06 00:00:00.000000,3.65965671,3.94095459,6.93355473,30194,32515,57206,18387,21429,39226,2.22862283,2.59731286,4.75435172,0.28284590,0.34683661,0.47036753
34023,0,USNewJerseyMiddlesex,New Jersey,Middlesex,2021-04-04 07:40:31.386648,2021-01-07 00:00:00.000000,3.67816019,3.99347258,7.02144866,30347,32948,57931,18738,21638,39964,2.27117925,2.62264289,4.84379765,0.28148504,0.34604162,0.46536730
34023,0,USNewJerseyMiddlesex,New Jersey,Middlesex,2021-04-04 07:40:31.386648,2021-01-08 00:00:00.000000,3.69292840,4.03698962,7.05956358,30468,33307,58245,19085,21831,40597,2.31327970,2.64599726,4.92050159,0.27445996,0.34519328,0.46121773
34023,0,USNewJerseyMiddlesex,New Jersey,Middlesex,2021-04-04 07:40:31.386648,2021-01-09 00:00:00.000000,3.70438756,4.06793143,7.05367661,30563,33562,58197,19404,22007,41035,2.35186371,2.66741767,4.97368504,0.26877245,0.34173365,0.45919795
34023,0,USNewJerseyMiddlesex,New Jersey,Middlesex,2021-04-04 07:40:31.386648,2021-01-10 00:00:00.000000,3.71307639,4.06268313,7.02134159,30635,33519,57930,19624,22165,41248,2.37858040,2.68649990,4.99948814,0.25805284,0.33508823,0.45555729
34023,0,USNewJerseyMiddlesex,New Jersey,Middlesex,2021-04-04 07:40:31.386648,2021-01-11 00:00:00.000000,3.71510288,4.07248081,6.97410470,30651,33600,57540,19692,22308,41268,2.38675691,2.70389347,5.00189036,0.25172668,0.32675119,0.45524786
34023,0,USNewJerseyMiddlesex,New Jersey,Middlesex,2021-04-04 07:40:31.386648,2021-01-12 00:00:00.000000,3.68619909,4.06393574,6.91745905,30413,33529,57073,19744,22369,41146,2.39309356,2.71129937,4.98706211,0.24522595,0.31086672,0.45511898
34023,0,USNewJerseyMiddlesex,New Jersey,Middlesex,2021-04-04 07:40:31.386648,2021-01-13 00:00:00.000000,3.63398170,4.02846163,6.85401309,29982,33237,56549,19783,22392,40924,2.39779658,2.71397914,4.96013996,0.23990156,0.28743108,0.45472987
34023,0,USNewJerseyMiddlesex,New Jersey,Middlesex,2021-04-04 07:40:31.386648,2021-01-14 00:00:00.000000,3.56196785,3.98707727,6.78516508,29388,32895,55981,19522,22321,40631,2.36624038,2.70548233,4.92466961,0.23249658,0.27396683,0.45357402
34023,0,USNewJerseyMiddlesex,New Jersey,Middlesex,2021-04-04 07:40:31.386648,2021-01-15 00:00:00.000000,3.48015244,3.92710434,6.71149689,28713,32401,55374,19313,22121,40287,2.34081538,2.68118687,4.88294723,0.23181421,0.26182690,0.45030226
34023,0,USNewJerseyMiddlesex,New Jersey,Middlesex,2021-04-04 07:40:31.386648,2021-01-16 00:00:00.000000,3.39940678,3.86693420,6.63329315,28047,31904,54728,19175,21817,39902,2.32409889,2.64434046,4.83634243,0.23150832,0.25957103,0.44213435
34023,0,USNewJerseyMiddlesex,New Jersey,Middlesex,2021-04-04 07:40:31.386648,2021-01-17 00:00:00.000000,3.32849107,3.79251513,6.55117037,27462,31290,54051,18952,21465,39484,2.29713906,2.60167277,4.78564437,0.23119437,0.26556037,0.42667867
34023,0,USNewJerseyMiddlesex,New Jersey,Middlesex,2021-04-04 07:40:31.386648,2021-01-18 00:00:00.000000,3.26720170,3.72254968,6.46578410,26956,30713,53346,18698,21090,39037,2.26634455,2.55627739,4.73145750,0.23074619,0.26981224,0.40841964
34023,0,USNewJerseyMiddlesex,New Jersey,Middlesex,2021-04-04 07:40:31.386648,2021-01-19 00:00:00.000000,3.21046792,3.65367394,6.37769712,26488,30145,52619,18458,20817,38566,2.23726788,2.52316714,4.67431624,0.23047884,0.27275865,0.39616981
34023,0,USNewJerseyMiddlesex,New Jersey,Middlesex,2021-04-04 07:40:31.386648,2021-01-20 00:00:00.000000,3.15641426,3.58462063,6.28735053,26042,29575,51874,18228,20578,38074,2.20932297,2.49413688,4.61469536,0.23028929,0.27503773,0.39176512
34023,0,USNewJerseyMiddlesex,New Jersey,Middlesex,2021-04-04 07:40:31.386648,2021-01-21 00:00:00.000000,3.10446233,3.51467182,6.19501680,25613,28998,51112,17955,20206,37565,2.17626256,2.44910119,4.55300050,0.23032257,0.27538824,0.39417065
34023,0,USNewJerseyMiddlesex,New Jersey,Middlesex,2021-04-04 07:40:31.386648,2021-01-22 00:00:00.000000,3.05426962,3.44372451,6.10077374,25199,28412,50335,17655,19821,37041,2.13992191,2.40244732,4.48953488,0.23041729,0.27588033,0.42789876
34023,0,USNewJerseyMiddlesex,New Jersey,Middlesex,2021-04-04 07:40:31.386648,2021-01-23 00:00:00.000000,3.00525566,3.37226925,6.00460904,24795,27823,49541,17356,19432,36504,2.10363353,2.35531088,4.42447319,0.23032032,0.27863615,0.42341447
34023,0,USNewJerseyMiddlesex,New Jersey,Middlesex,2021-04-04 07:40:31.386648,2021-01-24 00:00:00.000000,2.95691678,3.30092953,5.90572980,24396,27234,48725,17065,19040,35955,2.06837638,2.30774348,4.35789979,0.23030000,0.27916734,0.42249471
34023,0,USNewJerseyMiddlesex,New Jersey,Middlesex,2021-04-04 07:40:31.386648,2021-01-25 00:00:00.000000,2.90794936,3.22918410,5.80112783,23992,26642,47862,16816,18646,35391,2.03825861,2.26000517,4.28959890,0.22909171,0.27974341,0.42233318
34023,0,USNewJerseyMiddlesex,New Jersey,Middlesex,2021-04-04 07:40:31.386648,2021-01-26 00:00:00.000000,2.85938324,3.16349764,5.69147765,23591,26100,46958,16542,18250,34804,2.00494901,2.21204689,4.21845588,0.22685182,0.27975706,0.42230501
34023,0,USNewJerseyMiddlesex,New Jersey,Middlesex,2021-04-04 07:40:31.386648,2021-01-27 00:00:00.000000,2.81128281,3.09783724,5.57997827,23194,25559,46038,16268,17857,34191,1.97179355,2.16441697,4.14407575,0.22544207,0.27903422,0.42230332
34023,0,USNewJerseyMiddlesex,New Jersey,Middlesex,2021-04-04 07:40:31.386648,2021-01-28 00:00:00.000000,2.76382639,3.03400459,5.46758359,22803,25032,45110,15953,17474,33558,1.93361419,2.11797266,4.06733415,0.22440214,0.28161794,0.42230742
34023,0,USNewJerseyMiddlesex,New Jersey,Middlesex,2021-04-04 07:40:31.386648,2021-01-29 00:00:00.000000,2.71709136,2.97219700,5.35460487,22417,24522,44178,15508,17114,32912,1.87973151,2.07427257,3.98905543,0.21763691,0.28252777,0.42231841
34023,0,USNewJerseyMiddlesex,New Jersey,Middlesex,2021-04-04 07:40:31.386648,2021-01-30 00:00:00.000000,2.65563557,2.91222616,5.24114523,21910,24027,43242,15061,16758,32258,1.82554299,2.03117023,3.90977992,0.21286645,0.28263128,0.42235123
34023,0,USNewJerseyMiddlesex,New Jersey,Middlesex,2021-04-04 07:40:31.386648,2021-01-31 00:00:00.000000,2.60901092,2.85369500,5.12703538,21525,23544,42301,14628,16428,31598,1.77301384,1.99115957,3.82982305,0.21173522,0.28277637,0.43018408
34023,0,USNewJerseyMiddlesex,New Jersey,Middlesex,2021-04-04 07:40:31.386648,2021-02-01 00:00:00.000000,2.55943411,2.79627143,5.01238233,21116,23070,41355,14225,16085,30933,1.72416856,1.94959668,3.74929025,0.21278580,0.28275827,0.45854667
34023,0,USNewJerseyMiddlesex,New Jersey,Middlesex,2021-04-04 07:40:31.386648,2021-02-02 00:00:00.000000,2.49107188,2.74017781,4.89631930,20552,22608,40397,13867,15750,30265,1.68077667,1.90903614,3.66826115,0.21402106,0.28327488,0.44924916
34023,0,USNewJerseyMiddlesex,New Jersey,Middlesex,2021-04-04 07:40:31.386648,2021-02-03 00:00:00.000000,2.43107209,2.68778549,4.78015919,20057,22175,39439,13552,15466,29590,1.64260257,1.87463422,3.58648926,0.22215281,0.28323295,0.44763983
34023,0,USNewJerseyMiddlesex,New Jersey,Middlesex,2021-04-04 07:40:31.386648,2021-02-04 00:00:00.000000,2.38930744,2.63689694,4.66856327,19713,21756,38518,13271,15197,28912,1.60857720,1.84194490,3.50426913,0.22683783,0.28391473,0.44981752
34023,0,USNewJerseyMiddlesex,New Jersey,Middlesex,2021-04-04 07:40:31.386648,2021-02-05 00:00:00.000000,2.35239009,2.58613953,4.56660266,19408,21337,37677,13019,14915,28244,1.57796274,1.80775431,3.42331952,0.22652088,0.28332110,0.45635659
34023,0,USNewJerseyMiddlesex,New Jersey,Middlesex,2021-04-04 07:40:31.386648,2021-02-06 00:00:00.000000,2.32098018,2.53302814,4.47231840,19149,20899,36899,12757,14618,27608,1.54625466,1.77175410,3.34627951,0.22237891,0.28288799,0.47138900
34023,0,USNewJerseyMiddlesex,New Jersey,Middlesex,2021-04-04 07:40:31.386648,2021-02-07 00:00:00.000000,2.28522363,2.48269816,4.38148638,18854,20483,36149,12409,14325,27011,1.50403642,1.73627340,3.27393452,0.22230982,0.28282970,0.47749583
34023,0,USNewJerseyMiddlesex,New Jersey,Middlesex,2021-04-04 07:40:31.386648,2021-02-08 00:00:00.000000,2.23660708,2.43136549,4.29187344,18453,20060,35410,12067,14037,26445,1.46258092,1.70138363,3.20524511,0.22052496,0.28292403,0.47769398
34023,0,USNewJerseyMiddlesex,New Jersey,Middlesex,2021-04-04 07:40:31.386648,2021-02-09 00:00:00.000000,2.17757478,2.37925970,4.20333013,17966,19630,34680,11739,13755,25897,1.42283200,1.66721114,3.13886446,0.21932872,0.28392405,0.47815310
34023,0,USNewJerseyMiddlesex,New Jersey,Middlesex,2021-04-04 07:40:31.386648,2021-02-10 00:00:00.000000,2.11286678,2.32735558,4.11578045,17432,19202,33957,11439,13480,25362,1.38653499,1.63390400,3.07402058,0.21842012,0.28487139,0.47853141
34023,0,USNewJerseyMiddlesex,New Jersey,Middlesex,2021-04-04 07:40:31.386648,2021-02-11 00:00:00.000000,2.07380303,2.27693187,4.02945172,17110,18786,33245,11191,13216,24836,1.35644992,1.60184663,3.01029892,0.21583062,0.29124058,0.47871623
34023,0,USNewJerseyMiddlesex,New Jersey,Middlesex,2021-04-04 07:40:31.386648,2021-02-12 00:00:00.000000,2.03557623,2.22801075,3.94486045,16794,18382,32547,10984,12896,24319,1.33137154,1.56315509,2.94756717,0.21641488,0.29817806,0.47878311
34023,0,USNewJerseyMiddlesex,New Jersey,Middlesex,2021-04-04 07:40:31.386648,2021-02-13 00:00:00.000000,1.99839587,2.18208691,3.86287095,16488,18003,31871,10783,12605,23810,1.30696245,1.52780463,2.88593606,0.21420869,0.30093018,0.47796024
34023,0,USNewJerseyMiddlesex,New Jersey,Middlesex,2021-04-04 07:40:31.386648,2021-02-14 00:00:00.000000,1.96272736,2.14462461,3.78467805,16193,17694,31225,10586,12355,23314,1.28317498,1.49750710,2.82575901,0.21537032,0.30211591,0.47542868
34023,0,USNewJerseyMiddlesex,New Jersey,Middlesex,2021-04-04 07:40:31.386648,2021-02-15 00:00:00.000000,1.92921433,2.10816119,3.71187939,15917,17393,30625,10396,12113,22834,1.26010891,1.46817443,2.76762785,0.21694034,0.30328225,0.47544391
34023,0,USNewJerseyMiddlesex,New Jersey,Middlesex,2021-04-04 07:40:31.386648,2021-02-16 00:00:00.000000,1.89918049,2.07282305,3.64489660,15669,17102,30072,10214,11878,22378,1.23802608,1.43966588,2.71239547,0.21697857,0.30556691,0.48059397
34023,0,USNewJerseyMiddlesex,New Jersey,Middlesex,2021-04-04 07:40:31.386648,2021-02-17 00:00:00.000000,1.87364448,2.03911348,3.58376903,15458,16823,29568,10044,11674,21952,1.21747399,1.41497245,2.66066629,0.21705089,0.30921347,0.47766925
34023,0,USNewJerseyMiddlesex,New Jersey,Middlesex,2021-04-04 07:40:31.386648,2021-02-18 00:00:00.000000,1.85296713,2.00790200,3.52842453,15288,16566,29111,9829,11480,21768,1.19140483,1.39145673,2.63844169,0.21775400,0.31461189,0.49335283
34023,0,USNewJerseyMiddlesex,New Jersey,Middlesex,2021-04-04 07:40:31.386648,2021-02-19 00:00:00.000000,1.83710180,1.98037889,3.48256605,15157,16339,28733,9617,11297,21626,1.16565048,1.36928507,2.62123883,0.23253102,0.32249411,0.50124400
34023,0,USNewJerseyMiddlesex,New Jersey,Middlesex,2021-04-04 07:40:31.386648,2021-02-20 00:00:00.000000,1.80198615,1.95772323,3.44785672,14867,16152,28446,9451,11130,21453,1.14555413,1.34906723,2.60027514,0.25507715,0.33241885,0.51221233
34023,0,USNewJerseyMiddlesex,New Jersey,Middlesex,2021-04-04 07:40:31.386648,2021-02-21 00:00:00.000000,1.77425320,1.94049237,3.41691084,14638,16010,28191,9450,10985,21241,1.14546097,1.33151706,2.57453704,0.27368827,0.34563479,0.52117436
34023,0,USNewJerseyMiddlesex,New Jersey,Middlesex,2021-04-04 07:40:31.386648,2021-02-22 00:00:00.000000,1.76243967,1.92863658,3.40221790,14541,15912,28070,9380,10867,20997,1.13698493,1.31717396,2.54498249,0.28061170,0.35950991,0.56818594
34023,0,USNewJerseyMiddlesex,New Jersey,Middlesex,2021-04-04 07:40:31.386648,2021-02-23 00:00:00.000000,1.76767630,1.92058220,3.41384491,14584,15845,28166,9249,10777,20731,1.12105690,1.30626904,2.51277925,0.28595347,0.37131044,0.57121476
34023,0,USNewJerseyMiddlesex,New Jersey,Middlesex,2021-04-04 07:40:31.386648,2021-02-24 00:00:00.000000,1.78608618,1.91637300,3.43436452,14736,15811,28335,9191,10712,20453,1.11401067,1.29834597,2.47903625,0.28729910,0.37983272,0.57338242
34023,0,USNewJerseyMiddlesex,New Jersey,Middlesex,2021-04-04 07:40:31.386648,2021-02-25 00:00:00.000000,1.81212566,1.91682390,3.45901649,14951,15814,28539,9204,10665,20194,1.11563764,1.29272163,2.44766662,0.28834314,0.38500389,0.60426908
34023,0,USNewJerseyMiddlesex,New Jersey,Middlesex,2021-04-04 07:40:31.386648,2021-02-26 00:00:00.000000,1.80936118,1.91746853,3.48523543,14928,15820,28755,9277,10645,20280,1.12451807,1.29025696,2.45805885,0.28844621,0.38809822,0.60553523
34023,0,USNewJerseyMiddlesex,New Jersey,Middlesex,2021-04-04 07:40:31.386648,2021-02-27 00:00:00.000000,1.80670957,1.92417025,3.51151880,14906,15875,28972,9323,10660,20397,1.12998813,1.29211937,2.47224768,0.28772451,0.39240669,0.64067461
34023,0,USNewJerseyMiddlesex,New Jersey,Middlesex,2021-04-04 07:40:31.386648,2021-02-28 00:00:00.000000,1.81774425,1.93969254,3.52075526,14997,16003,29048,9346,10661,20531,1.13285597,1.29218793,2.48842037,0.29107565,0.39790465,0.68208340
34023,0,USNewJerseyMiddlesex,New Jersey,Middlesex,2021-04-04 07:40:31.386648,2021-03-01 00:00:00.000000,1.83720178,1.95763888,3.50408907,15158,16151,28910,9447,10676,20670,1.14502883,1.29402414,2.50535240,0.29669377,0.40710740,0.68505681
34023,0,USNewJerseyMiddlesex,New Jersey,Middlesex,2021-04-04 07:40:31.386648,2021-03-02 00:00:00.000000,1.85583917,1.97727219,3.53163293,15311,16313,29138,9493,10745,20810,1.15069926,1.30234769,2.52225410,0.29627614,0.41561982,0.69901857
34023,0,USNewJerseyMiddlesex,New Jersey,Middlesex,2021-04-04 07:40:31.386648,2021-03-03 00:00:00.000000,1.87400431,1.99871041,3.57140142,15461,16490,29466,9557,10833,20945,1.15835730,1.31308759,2.53861225,0.29002907,0.42448675,0.72805959
34023,0,USNewJerseyMiddlesex,New Jersey,Middlesex,2021-04-04 07:40:31.386648,2021-03-04 00:00:00.000000,1.89275840,2.02099340,3.61717375,15616,16674,29843,9629,10922,21073,1.16715672,1.32379591,2.55411229,0.29922436,0.42948967,0.75247736
34023,0,USNewJerseyMiddlesex,New Jersey,Middlesex,2021-04-04 07:40:31.386648,2021-03-05 00:00:00.000000,1.91363183,2.04479314,3.64814087,15788,16870,30099,9707,11039,21192,1.17653530,1.33800547,2.56860872,0.31793012,0.43445580,0.76984672
34023,0,USNewJerseyMiddlesex,New Jersey,Middlesex,2021-04-04 07:40:31.386648,2021-03-06 00:00:00.000000,1.93228706,2.07074322,3.66944498,15942,17084,30275,9787,11168,21157,1.18632806,1.35363041,2.56438358,0.34269259,0.44041841,0.79450808
34023,0,USNewJerseyMiddlesex,New Jersey,Middlesex,2021-04-04 07:40:31.386648,2021-03-07 00:00:00.000000,1.95812034,2.08716348,3.69742428,16155,17220,30506,9976,11308,21059,1.20916057,1.37058382,2.55246708,0.34777037,0.44672080,0.80258435
34023,0,USNewJerseyMiddlesex,New Jersey,Middlesex,2021-04-04 07:40:31.386648,2021-03-08 00:00:00.000000,1.99004812,2.11965385,3.73479271,16419,17488,30814,10146,11461,21118,1.22983880,1.38915266,2.55968202,0.36651014,0.45496718,0.81417012
34023,0,USNewJerseyMiddlesex,New Jersey,Middlesex,2021-04-04 07:40:31.386648,2021-03-09 00:00:00.000000,2.02692090,2.14898828,3.77674736,16723,17730,31160,10316,11630,21335,1.25044354,1.40961742,2.58596667,0.37635924,0.46476581,0.83087409
34023,0,USNewJerseyMiddlesex,New Jersey,Middlesex,2021-04-04 07:40:31.386648,2021-03-10 00:00:00.000000,2.06280031,2.18352824,3.81904921,17019,18015,31509,10440,11819,21670,1.26540196,1.43250753,2.62655707,0.38419367,0.47416220,0.85520043
34023,0,USNewJerseyMiddlesex,New Jersey,Middlesex,2021-04-04 07:40:31.386648,2021-03-11 00:00:00.000000,2.06509377,2.22373196,3.85999486,17038,18347,31847,10548,12030,22157,1.27854309,1.45810856,2.68556801,0.39277928,0.48019736,0.90477221
34023,0,USNewJerseyMiddlesex,New Jersey,Middlesex,2021-04-04 07:40:31.386648,2021-03-12 00:00:00.000000,2.09517947,2.26962979,3.91147489,17286,18725,32272,10695,12262,22418,1.29628820,1.48622165,2.71713495,0.40132989,0.48192583,0.91611207
34023,0,USNewJerseyMiddlesex,New Jersey,Middlesex,2021-04-04 07:40:31.386648,2021-03-13 00:00:00.000000,2.15630481,2.31496415,4.02927692,17790,19099,33244,10870,12508,22658,1.31759195,1.51603815,2.74631690,0.40404094,0.47813297,0.94718755
34023,0,USNewJerseyMiddlesex,New Jersey,Middlesex,2021-04-04 07:40:31.386648,2021-03-14 00:00:00.000000,2.18912449,2.35876077,4.11087658,18061,19461,33917,11068,12758,22891,1.34156360,1.54640229,2.77448311,0.40701486,0.47213898,0.94019622
34023,0,USNewJerseyMiddlesex,New Jersey,Middlesex,2021-04-04 07:40:31.386648,2021-03-15 00:00:00.000000,2.20825687,2.40125933,4.15228804,18219,19811,34258,11283,13006,23110,1.36764517,1.57641063,2.80111398,0.40694937,0.47017370,0.92834575
34023,0,USNewJerseyMiddlesex,New Jersey,Middlesex,2021-04-04 07:40:31.386648,2021-03-16 00:00:00.000000,2.22312450,2.44314406,4.18874455,18342,20157,34559,11513,13248,23315,1.39544336,1.60574543,2.82589250,0.40681492,0.46870400,0.91819431
34023,0,USNewJerseyMiddlesex,New Jersey,Middlesex,2021-04-04 07:40:31.386648,2021-03-17 00:00:00.000000,2.23354875,2.48514755,4.21970243,18428,20504,34815,11603,13485,23503,1.40638582,1.63453585,2.84872768,0.40653696,0.46952320,0.91502295
34023,0,USNewJerseyMiddlesex,New Jersey,Middlesex,2021-04-04 07:40:31.386648,2021-03-18 00:00:00.000000,2.24494014,2.52857569,4.24550309,18522,20862,35028,11671,13721,23676,1.41461187,1.66312803,2.86963585,0.41076956,0.47264490,0.92252551
34023,0,USNewJerseyMiddlesex,New Jersey,Middlesex,2021-04-04 07:40:31.386648,2021-03-19 00:00:00.000000,2.26071223,2.57628487,4.28678587,18652,21255,35368,11786,13961,23833,1.42850987,1.69216615,2.88865732,0.40413068,0.47755038,0.93607625
34023,0,USNewJerseyMiddlesex,New Jersey,Middlesex,2021-04-04 07:40:31.386648,2021-03-20 00:00:00.000000,2.27048353,2.63135643,4.36135833,18732,21710,35983,11905,14215,23976,1.44297727,1.72300005,2.90602962,0.40025505,0.49304638,0.94817958
34023,0,USNewJerseyMiddlesex,New Jersey,Middlesex,2021-04-04 07:40:31.386648,2021-03-21 00:00:00.000000,2.27910354,2.69263442,4.43117481,18804,22215,36559,11990,14499,24116,1.45331949,1.75740598,2.92303878,0.38630098,0.50796249,0.95368002
34023,0,USNewJerseyMiddlesex,New Jersey,Middlesex,2021-04-04 07:40:31.386648,2021-03-22 00:00:00.000000,2.28718656,2.75652924,4.49604080,18870,22743,37095,12055,14816,24279,1.46110620,1.79580203,2.94270395,0.38024147,0.51423944,0.95517164
34023,0,USNewJerseyMiddlesex,New Jersey,Middlesex,2021-04-04 07:40:31.386648,2021-03-23 00:00:00.000000,2.30245542,2.81902457,4.55570938,18996,23258,37587,12106,15156,24497,1.46737421,1.83701189,2.96916492,0.36569847,0.51271421,0.95454200
34023,0,USNewJerseyMiddlesex,New Jersey,Middlesex,2021-04-04 07:40:31.386648,2021-03-24 00:00:00.000000,2.32360819,2.87163450,4.60990501,19171,23692,38034,12152,15502,24789,1.47287520,1.87895837,3.00456027,0.35322517,0.49594503,0.95068909
34023,0,USNewJerseyMiddlesex,New Jersey,Middlesex,2021-04-04 07:40:31.386648,2021-03-25 00:00:00.000000,2.34276543,2.89644176,4.64936145,19329,23897,38360,12192,15775,25146,1.47781841,1.91198002,3.04788064,0.34544871,0.45055672,0.93790988
34023,0,USNewJerseyMiddlesex,New Jersey,Middlesex,2021-04-04 07:40:31.386648,2021-03-26 00:00:00.000000,2.35983879,2.88481996,4.63000944,19470,23801,38200,12229,15920,25553,1.48220504,1.92960618,3.09721352,0.34174430,0.39249107,0.95593373
34023,0,USNewJerseyMiddlesex,New Jersey,Middlesex,2021-04-04 07:40:31.386648,2021-03-27 00:00:00.000000,2.37487807,2.85164208,4.60449738,19594,23527,37989,12262,15981,25997,1.48626997,1.93706085,3.15101595,0.34149031,0.36496006,1.10443141
34023,0,USNewJerseyMiddlesex,New Jersey,Middlesex,2021-04-04 07:40:31.386648,2021-03-28 00:00:00.000000,2.38812090,2.80918213,4.66867898,19703,23177,38519,12296,15941,26460,1.49039074,1.93221440,3.20713007,0.33719987,0.35716018,1.12868200
34023,0,USNewJerseyMiddlesex,New Jersey,Middlesex,2021-04-04 07:40:31.386648,2021-03-29 00:00:00.000000,2.37496830,2.76222846,4.64217522,19594,22790,38300,12336,15858,26925,1.49522117,1.92209912,3.26342685,0.33304455,0.35529712,1.12958444
34023,0,USNewJerseyMiddlesex,New Jersey,Middlesex,2021-04-04 07:40:31.386648,2021-03-30 00:00:00.000000,2.35555274,2.71320204,4.71325061,19434,22385,38887,12389,15635,27376,1.50158414,1.89512265,3.31812758,0.32844863,0.35384107,1.13029225
34023,0,USNewJerseyMiddlesex,New Jersey,Middlesex,2021-04-04 07:40:31.386648,2021-03-31 00:00:00.000000,2.36554322,2.66327413,4.78022495,19517,21973,39439,12428,15384,27616,1.50638257,1.86459530,3.34721385,0.32774567,0.35454952,1.13237081
34023,0,USNewJerseyMiddlesex,New Jersey,Middlesex,2021-04-04 07:40:31.386648,2021-04-01 00:00:00.000000,2.32824744,2.61331631,4.84065664,19209,21561,39938,12484,15116,27063,1.51313997,1.83222305,3.28014387,0.31523749,0.35506168,1.13541070
34023,0,USNewJerseyMiddlesex,New Jersey,Middlesex,2021-04-04 07:40:31.386648,2021-04-02 00:00:00.000000,2.28748336,2.56438044,4.87828201,18873,21157,40248,12548,14843,26317,1.52090405,1.79905213,3.18975301,0.32396363,0.35872962,1.13928610
34023,0,USNewJerseyMiddlesex,New Jersey,Middlesex,2021-04-04 07:40:31.386648,2021-04-03 00:00:00.000000,2.28955611,2.51826499,4.83908170,18890,20777,39925,12638,14569,26648,1.53187680,1.76591828,3.22988394,0.32349991,0.36437904,1.14850122
34023,0,USNewJerseyMiddlesex,New Jersey,Middlesex,2021-04-04 07:40:31.386648,2021-04-04 00:00:00.000000,2.28518263,2.49023070,4.90530171,18854,20545,40471,12766,14305,26902,1.54739301,1.73385325,3.26068303,0.32335636,0.37736209,1.17265524
34023,0,USNewJerseyMiddlesex,New Jersey,Middlesex,2021-04-04 07:40:31.386648,2021-04-05 00:00:00.000000,2.24333505,2.46714427,4.87522262,18508,20355,40223,12665,14062,27029,1.53507649,1.70440315,3.27608387,0.32330962,0.39793472,1.22307090
34023,0,USNewJerseyMiddlesex,New Jersey,Middlesex,2021-04-04 07:40:31.386648,2021-04-06 00:00:00.000000,2.19623004,2.44716819,4.82647201,18120,20190,39821,12559,13855,27110,1.52226736,1.67933531,3.28582211,0.32329390,0.41645692,1.28822682
34023,0,USNewJerseyMiddlesex,New Jersey,Middlesex,2021-04-04 07:40:31.386648,2021-04-07 00:00:00.000000,2.14946213,2.43482473,4.92545861,17734,20088,40638,12368,13691,27307,1.49906863,1.65945096,3.30978769,0.32328858,0.42839187,1.33480776
34023,0,USNewJerseyMiddlesex,New Jersey,Middlesex,2021-04-04 07:40:31.386648,2021-04-08 00:00:00.000000,2.10312633,2.42536380,4.87050147,17352,20010,40184,12109,13564,27474,1.46775447,1.64403049,3.33003514,0.32328677,0.43405472,1.35616563
34023,0,USNewJerseyMiddlesex,New Jersey,Middlesex,2021-04-04 07:40:31.386648,2021-04-09 00:00:00.000000,2.05728284,2.41693369,4.87418869,16973,19941,40215,11852,13462,27914,1.43661634,1.63163779,3.38337732,0.32328616,0.43638054,1.36413627
34023,0,USNewJerseyMiddlesex,New Jersey,Middlesex,2021-04-04 07:40:31.386648,2021-04-10 00:00:00.000000,2.01197282,2.40977384,5.00682064,16600,19882,41309,11598,13411,27760,1.40573239,1.62555953,3.36460145,0.32328595,0.43727859,1.36695345
34023,0,USNewJerseyMiddlesex,New Jersey,Middlesex,2021-04-04 07:40:31.386648,2021-04-11 00:00:00.000000,1.96722635,2.39988696,5.13792623,16230,19800,42391,11345,13385,28148,1.37515422,1.62235105,3.41163192,0.32328588,0.43761703,1.36796105
34023,0,USNewJerseyMiddlesex,New Jersey,Middlesex,2021-04-04 07:40:31.386648,2021-04-12 00:00:00.000000,1.92306669,2.36619315,5.26698699,15866,19522,43455,11096,13377,28666,1.34491708,1.62133636,3.47450657,0.32328586,0.43774341,1.36833585
34023,0,USNewJerseyMiddlesex,New Jersey,Middlesex,2021-04-04 07:40:31.386648,2021-04-13 00:00:00.000000,1.87951254,2.34415958,5.39350303,15507,19340,44499,10849,13333,29319,1.31504604,1.61607879,3.55364653,0.32328585,0.43779044,1.36848251
34023,0,USNewJerseyMiddlesex,New Jersey,Middlesex,2021-04-04 07:40:31.386648,2021-04-14 00:00:00.000000,1.83657937,2.32872362,5.51679698,15152,19213,45516,10606,13295,29957,1.28555979,1.61140377,3.63094065,0.32328585,0.43780792,1.36854302
34023,0,USNewJerseyMiddlesex,New Jersey,Middlesex,2021-04-04 07:40:31.386648,2021-04-15 00:00:00.000000,1.79428016,2.31162187,5.63554785,14803,19072,46496,10366,13237,30575,1.25647284,1.60445215,3.70585772,0.32328585,0.43781441,1.36856922
34023,0,USNewJerseyMiddlesex,New Jersey,Middlesex,2021-04-04 07:40:31.386648,2021-04-16 00:00:00.000000,1.75262586,2.30364901,5.75033427,14460,19006,47443,10130,13059,31170,1.22779685,1.58282206,3.77794293,0.32328585,0.43781682,1.36858104
