0 Divergences 
Failed validation 
Computed from 80 by 384 log-likelihood matrix

         Estimate       SE
elpd_loo  -884.52    49.85
p_loo       34.36        -

There has been a warning during the calculation. Please check the results.
------

Pareto k diagnostic values:
                         Count   Pct.
(-Inf, 0.5]   (good)      364   94.8%
 (0.5, 0.7]   (ok)         15    3.9%
   (0.7, 1]   (bad)         3    0.8%
   (1, Inf)   (very bad)    2    0.5%

           mean     sd  hdi_3%  hdi_97%  ...  ess_sd  ess_bulk  ess_tail  r_hat
pa        0.267  0.053   0.177    0.348  ...    46.0      45.0      60.0   1.04
pu        0.794  0.022   0.746    0.832  ...    14.0      15.0      97.0   1.11
mu        0.144  0.028   0.092    0.184  ...     6.0       6.0      20.0   1.39
mus       0.174  0.036   0.103    0.237  ...    57.0      53.0      40.0   1.02
gamma     0.188  0.043   0.116    0.277  ...    70.0      65.0      96.0   1.00
Is_begin  0.959  1.201   0.006    3.466  ...   108.0      52.0      60.0   1.02
Ia_begin  2.342  2.240   0.010    7.023  ...   102.0      83.0      43.0   1.00
E_begin   1.047  1.463   0.053    3.385  ...    92.0     103.0      96.0   1.02

[8 rows x 11 columns]