FIPS,HR_UID,nameid,province,region,analysisTime,dates,pointprevalence_025,pointprevalence_50,pointprevalence_975,pointinfections_025,pointinfections_50,pointinfections_975,pointinfectious_025,pointinfectious_50,pointinfectious_975,pointinfectiousprevalence_05,pointinfectiousprevalence_50,pointinfectiousprevalence_95,infectrate_025,infectrate_50,infectrate_975
26087,0,USMichiganLapeer,Michigan,Lapeer,2021-04-04 09:25:54.152190,2020-03-09 00:00:00.000000,0.00274454,0.01097860,0.03064465,2,9,26,1,4,13,0.00150768,0.00541899,0.01579767,0.46609373,0.70641429,0.90997034
26087,0,USMichiganLapeer,Michigan,Lapeer,2021-04-04 09:25:54.152190,2020-03-10 00:00:00.000000,0.00318724,0.01264468,0.03357556,2,11,29,1,5,14,0.00155406,0.00586185,0.01643986,0.46608008,0.70640772,0.90997001
26087,0,USMichiganLapeer,Michigan,Lapeer,2021-04-04 09:25:54.152190,2020-03-11 00:00:00.000000,0.00379749,0.01446119,0.03675890,3,12,32,1,5,15,0.00172175,0.00667868,0.01749671,0.46606135,0.70639676,0.90996901
26087,0,USMichiganLapeer,Michigan,Lapeer,2021-04-04 09:25:54.152190,2020-03-12 00:00:00.000000,0.00450733,0.01667499,0.04024485,3,14,35,1,6,16,0.00195544,0.00747513,0.01885009,0.46603510,0.70637844,0.90996569
26087,0,USMichiganLapeer,Michigan,Lapeer,2021-04-04 09:25:54.152190,2020-03-13 00:00:00.000000,0.00529701,0.01869720,0.04407528,4,16,38,1,7,17,0.00223500,0.00843508,0.02045112,0.46599687,0.70634781,0.90995432
26087,0,USMichiganLapeer,Michigan,Lapeer,2021-04-04 09:25:54.152190,2020-03-14 00:00:00.000000,0.00618567,0.02144571,0.04828883,5,18,42,2,8,19,0.00255514,0.00969256,0.02228011,0.46593740,0.70629658,0.90991448
26087,0,USMichiganLapeer,Michigan,Lapeer,2021-04-04 09:25:54.152190,2020-03-15 00:00:00.000000,0.00719153,0.02439379,0.05352259,6,21,46,2,9,22,0.00301291,0.01111023,0.02529721,0.46583520,0.70579594,0.90977282
26087,0,USMichiganLapeer,Michigan,Lapeer,2021-04-04 09:25:54.152190,2020-03-16 00:00:00.000000,0.01221197,0.03064053,0.06359756,10,26,55,3,11,25,0.00353605,0.01273483,0.02886627,0.46563672,0.70174180,0.90925198
26087,0,USMichiganLapeer,Michigan,Lapeer,2021-04-04 09:25:54.152190,2020-03-17 00:00:00.000000,0.01666795,0.03760591,0.07472250,14,32,65,4,13,29,0.00507143,0.01510685,0.03352485,0.46520397,0.69295492,0.90713889
26087,0,USMichiganLapeer,Michigan,Lapeer,2021-04-04 09:25:54.152190,2020-03-18 00:00:00.000000,0.02096341,0.04588850,0.08669575,18,40,75,6,16,34,0.00722923,0.01855288,0.03900684,0.46418612,0.67869664,0.89954077
26087,0,USMichiganLapeer,Michigan,Lapeer,2021-04-04 09:25:54.152190,2020-03-19 00:00:00.000000,0.02527512,0.05409074,0.09971046,22,47,87,8,19,39,0.00948999,0.02271595,0.04517534,0.46177289,0.64862325,0.85079284
26087,0,USMichiganLapeer,Michigan,Lapeer,2021-04-04 09:25:54.152190,2020-03-20 00:00:00.000000,0.03010338,0.06396378,0.11382207,26,56,99,10,23,45,0.01220431,0.02716567,0.05186631,0.44401230,0.64149302,0.82753618
26087,0,USMichiganLapeer,Michigan,Lapeer,2021-04-04 09:25:54.152190,2020-03-21 00:00:00.000000,0.03543934,0.07360668,0.12902720,31,64,113,12,28,51,0.01465459,0.03285416,0.05889086,0.42843906,0.62834438,0.80550636
26087,0,USMichiganLapeer,Michigan,Lapeer,2021-04-04 09:25:54.152190,2020-03-22 00:00:00.000000,0.04122441,0.08466950,0.14528581,36,74,127,15,33,57,0.01720626,0.03859726,0.06614552,0.41467404,0.60747512,0.77725468
26087,0,USMichiganLapeer,Michigan,Lapeer,2021-04-04 09:25:54.152190,2020-03-23 00:00:00.000000,0.04938476,0.09408803,0.15907499,43,82,139,17,39,64,0.01986653,0.04477701,0.07364335,0.40593919,0.58426610,0.77538821
26087,0,USMichiganLapeer,Michigan,Lapeer,2021-04-04 09:25:54.152190,2020-03-24 00:00:00.000000,0.05789372,0.10629805,0.17854875,50,93,156,20,43,71,0.02343304,0.05009747,0.08148914,0.38699859,0.56739570,0.77516155
26087,0,USMichiganLapeer,Michigan,Lapeer,2021-04-04 09:25:54.152190,2020-03-25 00:00:00.000000,0.06701821,0.12153140,0.20248883,58,106,177,24,49,81,0.02759681,0.05638747,0.09266825,0.38544045,0.54716376,0.77000469
26087,0,USMichiganLapeer,Michigan,Lapeer,2021-04-04 09:25:54.152190,2020-03-26 00:00:00.000000,0.07685528,0.13530572,0.22930281,67,118,200,28,55,91,0.03232221,0.06294453,0.10459509,0.38210115,0.52294349,0.75863595
26087,0,USMichiganLapeer,Michigan,Lapeer,2021-04-04 09:25:54.152190,2020-03-27 00:00:00.000000,0.08808901,0.15133504,0.25521367,77,132,223,31,61,102,0.03644378,0.07045749,0.11736228,0.36020418,0.50267511,0.73572393
26087,0,USMichiganLapeer,Michigan,Lapeer,2021-04-04 09:25:54.152190,2020-03-28 00:00:00.000000,0.09884695,0.16581775,0.27735197,86,145,242,38,68,114,0.04339124,0.07835286,0.13101048,0.34990810,0.48158920,0.69526603
26087,0,USMichiganLapeer,Michigan,Lapeer,2021-04-04 09:25:54.152190,2020-03-29 00:00:00.000000,0.11033665,0.17695178,0.29856635,96,155,261,43,74,125,0.04954514,0.08453906,0.14341953,0.31580872,0.45118867,0.66741136
26087,0,USMichiganLapeer,Michigan,Lapeer,2021-04-04 09:25:54.152190,2020-03-30 00:00:00.000000,0.12164979,0.18815602,0.31526978,106,164,276,48,80,136,0.05521127,0.09208048,0.15584925,0.29993773,0.41651759,0.64244009
26087,0,USMichiganLapeer,Michigan,Lapeer,2021-04-04 09:25:54.152190,2020-03-31 00:00:00.000000,0.12715919,0.20550042,0.33151532,111,180,290,51,88,146,0.05857897,0.10066972,0.16736840,0.28082618,0.40205904,0.59342114
26087,0,USMichiganLapeer,Michigan,Lapeer,2021-04-04 09:25:54.152190,2020-04-01 00:00:00.000000,0.13207509,0.22016696,0.34610868,115,192,303,54,95,156,0.06184982,0.10890784,0.17819821,0.27187844,0.38506277,0.57040359
26087,0,USMichiganLapeer,Michigan,Lapeer,2021-04-04 09:25:54.152190,2020-04-02 00:00:00.000000,0.13714500,0.23153456,0.35396849,120,202,310,60,103,165,0.06865209,0.11784006,0.18858248,0.25692627,0.37251926,0.51466098
26087,0,USMichiganLapeer,Michigan,Lapeer,2021-04-04 09:25:54.152190,2020-04-03 00:00:00.000000,0.14238628,0.24356770,0.37366447,124,213,327,62,110,174,0.07135625,0.12623221,0.19864829,0.24979238,0.34801757,0.49518676
26087,0,USMichiganLapeer,Michigan,Lapeer,2021-04-04 09:25:54.152190,2020-04-04 00:00:00.000000,0.14764439,0.25744017,0.38333020,129,225,335,64,118,182,0.07413028,0.13495201,0.20855246,0.23409951,0.32429301,0.49379966
26087,0,USMichiganLapeer,Michigan,Lapeer,2021-04-04 09:25:54.152190,2020-04-05 00:00:00.000000,0.15290756,0.27369232,0.40656246,133,239,356,67,125,191,0.07694490,0.14277414,0.21844877,0.21523655,0.29594250,0.45939043
26087,0,USMichiganLapeer,Michigan,Lapeer,2021-04-04 09:25:54.152190,2020-04-06 00:00:00.000000,0.15478457,0.27731106,0.41545648,135,242,363,69,130,199,0.07978202,0.14867833,0.22819408,0.20383098,0.27353456,0.42816050
26087,0,USMichiganLapeer,Michigan,Lapeer,2021-04-04 09:25:54.152190,2020-04-07 00:00:00.000000,0.15626310,0.27709820,0.42374211,136,242,371,71,135,204,0.08180819,0.15432114,0.23361606,0.19498369,0.25330251,0.38535562
26087,0,USMichiganLapeer,Michigan,Lapeer,2021-04-04 09:25:54.152190,2020-04-08 00:00:00.000000,0.15641391,0.27821320,0.42880305,137,243,375,72,139,210,0.08325575,0.15880605,0.24082520,0.18027740,0.24031145,0.35126735
26087,0,USMichiganLapeer,Michigan,Lapeer,2021-04-04 09:25:54.152190,2020-04-09 00:00:00.000000,0.15481036,0.28169416,0.42790478,135,246,374,73,142,215,0.08406908,0.16281303,0.24602529,0.16712132,0.23105420,0.32056171
26087,0,USMichiganLapeer,Michigan,Lapeer,2021-04-04 09:25:54.152190,2020-04-10 00:00:00.000000,0.15210954,0.28065067,0.43498208,133,245,381,73,143,220,0.08410211,0.16432586,0.25187544,0.16139636,0.22249711,0.30059450
26087,0,USMichiganLapeer,Michigan,Lapeer,2021-04-04 09:25:54.152190,2020-04-11 00:00:00.000000,0.14895165,0.27664061,0.43860400,130,242,384,73,144,226,0.08343126,0.16528646,0.25869521,0.14727583,0.20904336,0.29435184
26087,0,USMichiganLapeer,Michigan,Lapeer,2021-04-04 09:25:54.152190,2020-04-12 00:00:00.000000,0.14655545,0.27373579,0.43859626,128,239,384,72,144,231,0.08226409,0.16543274,0.26375117,0.13133152,0.19669615,0.27972155
26087,0,USMichiganLapeer,Michigan,Lapeer,2021-04-04 09:25:54.152190,2020-04-13 00:00:00.000000,0.14596513,0.27000323,0.42355677,127,236,371,70,143,233,0.08078764,0.16375335,0.26700372,0.12428843,0.18775014,0.25811076
26087,0,USMichiganLapeer,Michigan,Lapeer,2021-04-04 09:25:54.152190,2020-04-14 00:00:00.000000,0.14490265,0.26427422,0.40694985,126,231,356,69,142,235,0.07944475,0.16294361,0.26881694,0.12105981,0.18045274,0.24129883
26087,0,USMichiganLapeer,Michigan,Lapeer,2021-04-04 09:25:54.152190,2020-04-15 00:00:00.000000,0.14362878,0.25829687,0.40204071,125,226,352,68,141,235,0.07818106,0.16106071,0.26933357,0.10887526,0.17554409,0.23591605
26087,0,USMichiganLapeer,Michigan,Lapeer,2021-04-04 09:25:54.152190,2020-04-16 00:00:00.000000,0.14224319,0.25157898,0.39782429,124,220,348,67,139,235,0.07693003,0.15934993,0.26876411,0.10145989,0.16651748,0.22700201
26087,0,USMichiganLapeer,Michigan,Lapeer,2021-04-04 09:25:54.152190,2020-04-17 00:00:00.000000,0.13798300,0.24364271,0.39346550,120,213,344,66,135,230,0.07577425,0.15439287,0.26279965,0.09764706,0.16053936,0.22275958
26087,0,USMichiganLapeer,Michigan,Lapeer,2021-04-04 09:25:54.152190,2020-04-18 00:00:00.000000,0.13116099,0.23527078,0.38888834,114,206,340,65,129,225,0.07511109,0.14804984,0.25750680,0.09682758,0.15728069,0.21667600
26087,0,USMichiganLapeer,Michigan,Lapeer,2021-04-04 09:25:54.152190,2020-04-19 00:00:00.000000,0.12559258,0.23049661,0.38397614,110,201,336,65,124,219,0.07439564,0.14250568,0.25033087,0.09553024,0.15421815,0.21328596
26087,0,USMichiganLapeer,Michigan,Lapeer,2021-04-04 09:25:54.152190,2020-04-20 00:00:00.000000,0.11971378,0.22533040,0.37811050,104,197,331,64,119,211,0.07364004,0.13679232,0.24179701,0.09371465,0.14952708,0.22154002
26087,0,USMichiganLapeer,Michigan,Lapeer,2021-04-04 09:25:54.152190,2020-04-21 00:00:00.000000,0.11490612,0.21843394,0.37155787,100,191,325,62,116,202,0.07172170,0.13266835,0.23159220,0.09295965,0.14827925,0.21656690
26087,0,USMichiganLapeer,Michigan,Lapeer,2021-04-04 09:25:54.152190,2020-04-22 00:00:00.000000,0.11051376,0.21118333,0.36411269,96,185,318,60,113,196,0.06919844,0.12929295,0.22404017,0.08966177,0.14262226,0.20585399
26087,0,USMichiganLapeer,Michigan,Lapeer,2021-04-04 09:25:54.152190,2020-04-23 00:00:00.000000,0.10646395,0.20403072,0.35562398,93,178,311,58,110,192,0.06646772,0.12641036,0.22030116,0.08400061,0.14027228,0.20051211
26087,0,USMichiganLapeer,Michigan,Lapeer,2021-04-04 09:25:54.152190,2020-04-24 00:00:00.000000,0.10269543,0.19840280,0.34602721,89,173,303,56,107,189,0.06396534,0.12288113,0.21602265,0.07858822,0.13496083,0.19274468
26087,0,USMichiganLapeer,Michigan,Lapeer,2021-04-04 09:25:54.152190,2020-04-25 00:00:00.000000,0.09924591,0.19286689,0.33538551,86,168,293,54,104,185,0.06164992,0.11890837,0.21119908,0.07344374,0.13224104,0.19178573
26087,0,USMichiganLapeer,Michigan,Lapeer,2021-04-04 09:25:54.152190,2020-04-26 00:00:00.000000,0.09601967,0.18682238,0.32388598,84,163,283,52,100,180,0.05949756,0.11478087,0.20580538,0.06990059,0.13044229,0.18922626
26087,0,USMichiganLapeer,Michigan,Lapeer,2021-04-04 09:25:54.152190,2020-04-27 00:00:00.000000,0.09205899,0.17991111,0.31460737,80,157,275,49,96,175,0.05662741,0.11055581,0.19986907,0.06818570,0.13008965,0.18839588
26087,0,USMichiganLapeer,Michigan,Lapeer,2021-04-04 09:25:54.152190,2020-04-28 00:00:00.000000,0.08820482,0.17122748,0.30500764,77,150,267,46,93,170,0.05276388,0.10644134,0.19405934,0.06792636,0.12834946,0.18754264
26087,0,USMichiganLapeer,Michigan,Lapeer,2021-04-04 09:25:54.152190,2020-04-29 00:00:00.000000,0.08450955,0.16351992,0.29537461,74,143,258,45,89,164,0.05144456,0.10237161,0.18827664,0.06881720,0.12856322,0.18622346
26087,0,USMichiganLapeer,Michigan,Lapeer,2021-04-04 09:25:54.152190,2020-04-30 00:00:00.000000,0.08093825,0.15513179,0.28584728,70,135,250,44,85,159,0.05091320,0.09813965,0.18250288,0.07078485,0.12939631,0.18421938
26087,0,USMichiganLapeer,Michigan,Lapeer,2021-04-04 09:25:54.152190,2020-05-01 00:00:00.000000,0.07736571,0.15023443,0.27643140,67,131,242,42,83,154,0.04876446,0.09487902,0.17676558,0.07385838,0.13007391,0.18133602
26087,0,USMichiganLapeer,Michigan,Lapeer,2021-04-04 09:25:54.152190,2020-05-02 00:00:00.000000,0.07374581,0.14303907,0.26735222,64,125,234,40,80,149,0.04665533,0.09139808,0.17111238,0.07793571,0.12902316,0.18890666
26087,0,USMichiganLapeer,Michigan,Lapeer,2021-04-04 09:25:54.152190,2020-05-03 00:00:00.000000,0.07095916,0.13618578,0.25867888,62,119,226,39,76,145,0.04453632,0.08768682,0.16559098,0.08259721,0.12712206,0.18758055
26087,0,USMichiganLapeer,Michigan,Lapeer,2021-04-04 09:25:54.152190,2020-05-04 00:00:00.000000,0.07168465,0.13078482,0.24790775,62,114,217,37,73,140,0.04242064,0.08387789,0.16024223,0.08722064,0.12880228,0.18330031
26087,0,USMichiganLapeer,Michigan,Lapeer,2021-04-04 09:25:54.152190,2020-05-05 00:00:00.000000,0.07255163,0.12578011,0.23754614,63,110,208,36,70,135,0.04127218,0.08073579,0.15452848,0.08806221,0.12868460,0.18358424
26087,0,USMichiganLapeer,Michigan,Lapeer,2021-04-04 09:25:54.152190,2020-05-06 00:00:00.000000,0.06917166,0.12220059,0.22752760,60,107,199,35,68,130,0.04064304,0.07810678,0.14866609,0.08750141,0.12946170,0.18135764
26087,0,USMichiganLapeer,Michigan,Lapeer,2021-04-04 09:25:54.152190,2020-05-07 00:00:00.000000,0.06794282,0.11965767,0.21787382,59,104,190,35,66,125,0.04029584,0.07566281,0.14300195,0.08193845,0.13123817,0.17420495
26087,0,USMichiganLapeer,Michigan,Lapeer,2021-04-04 09:25:54.152190,2020-05-08 00:00:00.000000,0.06771196,0.11578063,0.21297408,59,101,186,35,63,122,0.04005987,0.07291647,0.13999532,0.07725837,0.13335216,0.17784631
26087,0,USMichiganLapeer,Michigan,Lapeer,2021-04-04 09:25:54.152190,2020-05-09 00:00:00.000000,0.06758223,0.11218449,0.20918920,59,98,183,34,62,118,0.03935572,0.07104396,0.13567337,0.07451393,0.13634540,0.18108125
26087,0,USMichiganLapeer,Michigan,Lapeer,2021-04-04 09:25:54.152190,2020-05-10 00:00:00.000000,0.06438803,0.10888306,0.20508713,56,95,179,33,59,116,0.03822951,0.06781554,0.13354133,0.07478897,0.13805483,0.18211839
26087,0,USMichiganLapeer,Michigan,Lapeer,2021-04-04 09:25:54.152190,2020-05-11 00:00:00.000000,0.06094420,0.10845403,0.20100495,53,95,176,32,57,115,0.03721495,0.06575434,0.13159775,0.07533737,0.13822119,0.18812645
26087,0,USMichiganLapeer,Michigan,Lapeer,2021-04-04 09:25:54.152190,2020-05-12 00:00:00.000000,0.05779502,0.10417467,0.19664672,50,91,172,31,55,113,0.03624491,0.06379868,0.12941140,0.07588595,0.13774262,0.19147515
26087,0,USMichiganLapeer,Michigan,Lapeer,2021-04-04 09:25:54.152190,2020-05-13 00:00:00.000000,0.05493855,0.10369324,0.19213200,48,90,168,30,53,111,0.03529782,0.06151978,0.12707334,0.07842555,0.13683278,0.19241280
26087,0,USMichiganLapeer,Michigan,Lapeer,2021-04-04 09:25:54.152190,2020-05-14 00:00:00.000000,0.05305544,0.10393566,0.18756719,46,91,164,30,53,109,0.03438974,0.06061822,0.12457511,0.08133965,0.13956076,0.19308220
26087,0,USMichiganLapeer,Michigan,Lapeer,2021-04-04 09:25:54.152190,2020-05-15 00:00:00.000000,0.05176315,0.10142239,0.18300721,45,88,160,29,52,106,0.03332425,0.05987553,0.12184620,0.08461899,0.14317431,0.19558208
26087,0,USMichiganLapeer,Michigan,Lapeer,2021-04-04 09:25:54.152190,2020-05-16 00:00:00.000000,0.05055993,0.09961281,0.17632976,44,87,154,27,51,104,0.03176545,0.05867997,0.11889408,0.08327015,0.13889335,0.20398815
26087,0,USMichiganLapeer,Michigan,Lapeer,2021-04-04 09:25:54.152190,2020-05-17 00:00:00.000000,0.04945290,0.09905947,0.16969306,43,86,148,26,49,101,0.03036509,0.05663551,0.11579784,0.08142560,0.13834596,0.21278336
26087,0,USMichiganLapeer,Michigan,Lapeer,2021-04-04 09:25:54.152190,2020-05-18 00:00:00.000000,0.04824283,0.09682624,0.16490063,42,84,144,25,49,98,0.02911201,0.05644152,0.11262628,0.08029119,0.14140285,0.21937153
26087,0,USMichiganLapeer,Michigan,Lapeer,2021-04-04 09:25:54.152190,2020-05-19 00:00:00.000000,0.04752876,0.09559916,0.16150912,41,83,141,25,48,95,0.02886475,0.05551265,0.10945055,0.08045133,0.14661527,0.22322380
26087,0,USMichiganLapeer,Michigan,Lapeer,2021-04-04 09:25:54.152190,2020-05-20 00:00:00.000000,0.04718083,0.09447603,0.15836515,41,82,138,25,47,92,0.02880220,0.05381641,0.10578817,0.08157370,0.15063196,0.23554875
26087,0,USMichiganLapeer,Michigan,Lapeer,2021-04-04 09:25:54.152190,2020-05-21 00:00:00.000000,0.04755524,0.09337998,0.15536160,41,81,136,24,46,89,0.02814550,0.05327774,0.10227015,0.08240332,0.15595013,0.24586410
26087,0,USMichiganLapeer,Michigan,Lapeer,2021-04-04 09:25:54.152190,2020-05-22 00:00:00.000000,0.04680679,0.09353964,0.15537246,41,81,136,24,46,87,0.02760510,0.05272580,0.09939905,0.08339228,0.15552324,0.25429005
26087,0,USMichiganLapeer,Michigan,Lapeer,2021-04-04 09:25:54.152190,2020-05-23 00:00:00.000000,0.04615279,0.09267598,0.15658119,40,81,137,23,45,83,0.02713493,0.05219487,0.09580230,0.09167497,0.15513621,0.26264440
26087,0,USMichiganLapeer,Michigan,Lapeer,2021-04-04 09:25:54.152190,2020-05-24 00:00:00.000000,0.04563418,0.09197099,0.15642645,39,80,137,23,45,83,0.02718218,0.05169298,0.09502976,0.09833219,0.16095740,0.26742459
26087,0,USMichiganLapeer,Michigan,Lapeer,2021-04-04 09:25:54.152190,2020-05-25 00:00:00.000000,0.04750058,0.09090899,0.15310410,41,79,134,23,44,83,0.02672225,0.05120091,0.09510150,0.09578425,0.16331713,0.26788268
26087,0,USMichiganLapeer,Michigan,Lapeer,2021-04-04 09:25:54.152190,2020-05-26 00:00:00.000000,0.04661301,0.09081629,0.14940327,40,79,130,23,45,83,0.02655266,0.05183550,0.09564036,0.09562905,0.16515250,0.27159676
26087,0,USMichiganLapeer,Michigan,Lapeer,2021-04-04 09:25:54.152190,2020-05-27 00:00:00.000000,0.04583371,0.09144616,0.14917802,40,80,130,22,45,84,0.02622955,0.05181908,0.09646069,0.10014142,0.17229063,0.27779341
26087,0,USMichiganLapeer,Michigan,Lapeer,2021-04-04 09:25:54.152190,2020-05-28 00:00:00.000000,0.04516454,0.09280439,0.14935990,39,81,130,22,45,84,0.02598762,0.05215239,0.09602927,0.11132201,0.17563923,0.29478906
26087,0,USMichiganLapeer,Michigan,Lapeer,2021-04-04 09:25:54.152190,2020-05-29 00:00:00.000000,0.04529469,0.09360935,0.15046255,39,82,131,22,45,83,0.02584967,0.05233511,0.09512155,0.11257628,0.17855863,0.29873710
26087,0,USMichiganLapeer,Michigan,Lapeer,2021-04-04 09:25:54.152190,2020-05-30 00:00:00.000000,0.04594493,0.09395700,0.15227943,40,82,133,22,46,82,0.02583341,0.05305816,0.09418228,0.11306419,0.18314226,0.29942681
26087,0,USMichiganLapeer,Michigan,Lapeer,2021-04-04 09:25:54.152190,2020-05-31 00:00:00.000000,0.04556926,0.09456603,0.15424803,39,82,135,22,46,81,0.02592433,0.05341003,0.09316647,0.11535813,0.18627362,0.30336697
26087,0,USMichiganLapeer,Michigan,Lapeer,2021-04-04 09:25:54.152190,2020-06-01 00:00:00.000000,0.04755957,0.09394588,0.15687351,41,82,137,22,46,80,0.02611095,0.05359859,0.09207314,0.12046075,0.19604495,0.31634584
26087,0,USMichiganLapeer,Michigan,Lapeer,2021-04-04 09:25:54.152190,2020-06-02 00:00:00.000000,0.04979886,0.09537560,0.15946949,43,83,139,24,47,81,0.02798856,0.05405526,0.09264700,0.12491852,0.19948218,0.31681343
26087,0,USMichiganLapeer,Michigan,Lapeer,2021-04-04 09:25:54.152190,2020-06-03 00:00:00.000000,0.05300475,0.09541056,0.16211305,46,83,142,25,47,83,0.02891832,0.05459375,0.09509480,0.13639529,0.20562180,0.31675316
26087,0,USMichiganLapeer,Michigan,Lapeer,2021-04-04 09:25:54.152190,2020-06-04 00:00:00.000000,0.05561904,0.09942577,0.16482561,48,87,144,25,48,85,0.02900285,0.05521174,0.09756130,0.13697446,0.21637410,0.31591991
26087,0,USMichiganLapeer,Michigan,Lapeer,2021-04-04 09:25:54.152190,2020-06-05 00:00:00.000000,0.05576332,0.10152051,0.17038840,48,88,149,26,49,87,0.02998884,0.05642017,0.10009099,0.13795933,0.22229869,0.33427629
26087,0,USMichiganLapeer,Michigan,Lapeer,2021-04-04 09:25:54.152190,2020-06-06 00:00:00.000000,0.05887026,0.10604383,0.17823392,51,92,156,27,50,89,0.03158502,0.05756591,0.10271100,0.14615676,0.22566294,0.35114827
26087,0,USMichiganLapeer,Michigan,Lapeer,2021-04-04 09:25:54.152190,2020-06-07 00:00:00.000000,0.05969285,0.10852010,0.18585758,52,95,162,28,50,92,0.03295789,0.05808439,0.10542722,0.15298319,0.23565172,0.35311482
26087,0,USMichiganLapeer,Michigan,Lapeer,2021-04-04 09:25:54.152190,2020-06-08 00:00:00.000000,0.06177366,0.11150412,0.18943316,54,97,165,29,52,94,0.03363055,0.06045667,0.10823515,0.15243521,0.24108617,0.35390206
26087,0,USMichiganLapeer,Michigan,Lapeer,2021-04-04 09:25:54.152190,2020-06-09 00:00:00.000000,0.06807028,0.11430967,0.19227347,59,100,168,29,54,96,0.03367496,0.06183354,0.11050532,0.15218331,0.24698100,0.35764705
26087,0,USMichiganLapeer,Michigan,Lapeer,2021-04-04 09:25:54.152190,2020-06-10 00:00:00.000000,0.07254527,0.12169578,0.19775579,63,106,173,29,56,98,0.03405807,0.06394321,0.11241634,0.15465513,0.24912561,0.38469194
26087,0,USMichiganLapeer,Michigan,Lapeer,2021-04-04 09:25:54.152190,2020-06-11 00:00:00.000000,0.07255322,0.12626450,0.20637787,63,110,180,31,58,99,0.03647222,0.06622651,0.11406597,0.15810301,0.24831746,0.38621175
26087,0,USMichiganLapeer,Michigan,Lapeer,2021-04-04 09:25:54.152190,2020-06-12 00:00:00.000000,0.07371695,0.12920840,0.21554906,64,113,188,35,58,101,0.04035680,0.06692837,0.11550253,0.16624084,0.25071456,0.38631164
26087,0,USMichiganLapeer,Michigan,Lapeer,2021-04-04 09:25:54.152190,2020-06-13 00:00:00.000000,0.07623305,0.13514338,0.21827550,66,118,191,37,59,102,0.04246455,0.06845340,0.11676582,0.16565073,0.25535358,0.38576956
26087,0,USMichiganLapeer,Michigan,Lapeer,2021-04-04 09:25:54.152190,2020-06-14 00:00:00.000000,0.08367439,0.14007788,0.21981839,73,122,192,38,62,103,0.04413709,0.07101008,0.11790009,0.17347308,0.25716643,0.38256326
26087,0,USMichiganLapeer,Michigan,Lapeer,2021-04-04 09:25:54.152190,2020-06-15 00:00:00.000000,0.08969359,0.14332685,0.22199697,78,125,194,40,65,104,0.04591765,0.07451338,0.11968623,0.17833145,0.25907674,0.37347014
26087,0,USMichiganLapeer,Michigan,Lapeer,2021-04-04 09:25:54.152190,2020-06-16 00:00:00.000000,0.09396809,0.14970330,0.22718897,82,131,199,42,68,106,0.04838101,0.07870263,0.12208016,0.17790865,0.26208468,0.38097368
26087,0,USMichiganLapeer,Michigan,Lapeer,2021-04-04 09:25:54.152190,2020-06-17 00:00:00.000000,0.09918883,0.15598359,0.23740281,86,136,207,45,73,108,0.05160870,0.08344288,0.12407578,0.17909446,0.26190725,0.38586642
26087,0,USMichiganLapeer,Michigan,Lapeer,2021-04-04 09:25:54.152190,2020-06-18 00:00:00.000000,0.10196294,0.16299668,0.24743563,89,142,216,47,76,111,0.05441365,0.08710988,0.12682107,0.18097239,0.26104646,0.38723772
26087,0,USMichiganLapeer,Michigan,Lapeer,2021-04-04 09:25:54.152190,2020-06-19 00:00:00.000000,0.10571373,0.16993811,0.25739207,92,148,225,49,78,115,0.05611721,0.08963073,0.13199748,0.18332476,0.25631317,0.38409433
26087,0,USMichiganLapeer,Michigan,Lapeer,2021-04-04 09:25:54.152190,2020-06-20 00:00:00.000000,0.10938365,0.17437923,0.26723506,95,152,234,50,82,120,0.05821028,0.09398847,0.13742870,0.18084786,0.25688629,0.37994614
26087,0,USMichiganLapeer,Michigan,Lapeer,2021-04-04 09:25:54.152190,2020-06-21 00:00:00.000000,0.11297828,0.18093975,0.27100706,98,158,237,51,85,125,0.05931193,0.09715304,0.14314576,0.17059134,0.26019367,0.37206107
26087,0,USMichiganLapeer,Michigan,Lapeer,2021-04-04 09:25:54.152190,2020-06-22 00:00:00.000000,0.11149770,0.18574414,0.28291908,97,162,247,52,86,130,0.06042032,0.09927524,0.14934484,0.17066809,0.25483914,0.38077112
26087,0,USMichiganLapeer,Michigan,Lapeer,2021-04-04 09:25:54.152190,2020-06-23 00:00:00.000000,0.10996676,0.18713992,0.28886907,96,163,253,53,89,136,0.06155796,0.10216359,0.15579869,0.17117445,0.25576070,0.36103140
26087,0,USMichiganLapeer,Michigan,Lapeer,2021-04-04 09:25:54.152190,2020-06-24 00:00:00.000000,0.10833937,0.18930615,0.29603245,94,165,259,54,91,141,0.06276475,0.10447761,0.16207930,0.17265623,0.25567449,0.36704020
26087,0,USMichiganLapeer,Michigan,Lapeer,2021-04-04 09:25:54.152190,2020-06-25 00:00:00.000000,0.10793916,0.19272036,0.31129555,94,168,272,54,92,146,0.06185124,0.10577207,0.16679006,0.17657432,0.25182713,0.36612353
26087,0,USMichiganLapeer,Michigan,Lapeer,2021-04-04 09:25:54.152190,2020-06-26 00:00:00.000000,0.10519359,0.19678223,0.32753385,92,172,286,53,93,155,0.06084681,0.10683873,0.17762758,0.17852131,0.25168042,0.35472299
26087,0,USMichiganLapeer,Michigan,Lapeer,2021-04-04 09:25:54.152190,2020-06-27 00:00:00.000000,0.10295845,0.20233585,0.33899250,90,177,296,53,95,163,0.06089459,0.10887577,0.18647511,0.17595261,0.24808178,0.35481661
26087,0,USMichiganLapeer,Michigan,Lapeer,2021-04-04 09:25:54.152190,2020-06-28 00:00:00.000000,0.10640660,0.20637600,0.34840452,93,180,305,52,97,170,0.05992706,0.11153839,0.19497827,0.17154791,0.24591556,0.35344357
26087,0,USMichiganLapeer,Michigan,Lapeer,2021-04-04 09:25:54.152190,2020-06-29 00:00:00.000000,0.11079927,0.20763587,0.35093298,97,181,307,51,100,178,0.05911285,0.11416556,0.20337660,0.17039377,0.24466449,0.34786304
26087,0,USMichiganLapeer,Michigan,Lapeer,2021-04-04 09:25:54.152190,2020-06-30 00:00:00.000000,0.11510813,0.21077129,0.35416312,100,184,310,52,101,182,0.05951558,0.11552067,0.20883155,0.17111525,0.24453489,0.35791363
26087,0,USMichiganLapeer,Michigan,Lapeer,2021-04-04 09:25:54.152190,2020-07-01 00:00:00.000000,0.11629727,0.20996360,0.35791545,101,183,313,53,101,185,0.06068271,0.11629556,0.21183253,0.17212314,0.24710215,0.36795929
26087,0,USMichiganLapeer,Michigan,Lapeer,2021-04-04 09:25:54.152190,2020-07-02 00:00:00.000000,0.11662717,0.20979627,0.36084104,102,183,316,54,102,187,0.06229646,0.11662146,0.21386684,0.17356371,0.25231650,0.38652720
26087,0,USMichiganLapeer,Michigan,Lapeer,2021-04-04 09:25:54.152190,2020-07-03 00:00:00.000000,0.12003543,0.21502075,0.36881758,105,188,323,56,102,188,0.06422779,0.11725893,0.21531739,0.17404507,0.25217134,0.40073895
26087,0,USMichiganLapeer,Michigan,Lapeer,2021-04-04 09:25:54.152190,2020-07-04 00:00:00.000000,0.12431404,0.21881082,0.37829540,108,191,331,58,103,189,0.06636306,0.11842243,0.21640164,0.16780175,0.25402885,0.40364427
26087,0,USMichiganLapeer,Michigan,Lapeer,2021-04-04 09:25:54.152190,2020-07-05 00:00:00.000000,0.12892579,0.22125358,0.39105568,112,193,342,60,105,199,0.06865154,0.11990073,0.22791959,0.16890791,0.25871827,0.41214705
26087,0,USMichiganLapeer,Michigan,Lapeer,2021-04-04 09:25:54.152190,2020-07-06 00:00:00.000000,0.13162873,0.22201226,0.40276555,115,194,352,62,107,209,0.07110876,0.12219856,0.23955853,0.16647560,0.25952627,0.41689203
26087,0,USMichiganLapeer,Michigan,Lapeer,2021-04-04 09:25:54.152190,2020-07-07 00:00:00.000000,0.13490733,0.22777004,0.40760324,118,199,357,64,109,217,0.07314348,0.12522476,0.24874452,0.16757484,0.26042448,0.41918925
26087,0,USMichiganLapeer,Michigan,Lapeer,2021-04-04 09:25:54.152190,2020-07-08 00:00:00.000000,0.13383971,0.23214052,0.41581766,117,203,364,65,113,220,0.07499785,0.12910032,0.25174001,0.17080035,0.26126384,0.41984606
26087,0,USMichiganLapeer,Michigan,Lapeer,2021-04-04 09:25:54.152190,2020-07-09 00:00:00.000000,0.13253109,0.23461248,0.41974308,116,205,367,64,113,222,0.07413091,0.12968182,0.25431977,0.16915369,0.26335444,0.41899459
26087,0,USMichiganLapeer,Michigan,Lapeer,2021-04-04 09:25:54.152190,2020-07-10 00:00:00.000000,0.13119927,0.23741741,0.42081504,114,207,368,64,113,224,0.07333940,0.12906842,0.25662752,0.17625553,0.26047185,0.41607810
26087,0,USMichiganLapeer,Michigan,Lapeer,2021-04-04 09:25:54.152190,2020-07-11 00:00:00.000000,0.12988026,0.24288035,0.42103893,113,212,368,63,113,226,0.07257920,0.12905677,0.25875663,0.17519914,0.26095810,0.41003788
26087,0,USMichiganLapeer,Michigan,Lapeer,2021-04-04 09:25:54.152190,2020-07-12 00:00:00.000000,0.12862557,0.24923935,0.42500775,112,218,372,62,114,228,0.07183727,0.13023811,0.26076610,0.17549584,0.25703799,0.40040862
26087,0,USMichiganLapeer,Michigan,Lapeer,2021-04-04 09:25:54.152190,2020-07-13 00:00:00.000000,0.13387777,0.25760462,0.44215689,117,225,387,62,115,230,0.07112095,0.13146588,0.26269178,0.17717502,0.25721789,0.39780568
26087,0,USMichiganLapeer,Michigan,Lapeer,2021-04-04 09:25:54.152190,2020-07-14 00:00:00.000000,0.14192027,0.26216506,0.45427805,124,229,397,61,116,232,0.07053459,0.13354865,0.26489111,0.18014531,0.26383133,0.39948822
26087,0,USMichiganLapeer,Michigan,Lapeer,2021-04-04 09:25:54.152190,2020-07-15 00:00:00.000000,0.15026238,0.26385417,0.46062891,131,231,403,61,120,234,0.07006615,0.13734448,0.26772334,0.18429319,0.26641381,0.40002413
26087,0,USMichiganLapeer,Michigan,Lapeer,2021-04-04 09:25:54.152190,2020-07-16 00:00:00.000000,0.15885735,0.26693415,0.46698339,139,233,409,64,124,237,0.07325468,0.14193460,0.27083626,0.18638201,0.26105895,0.39895852
26087,0,USMichiganLapeer,Michigan,Lapeer,2021-04-04 09:25:54.152190,2020-07-17 00:00:00.000000,0.16073814,0.27453164,0.47284025,140,240,414,67,127,240,0.07725784,0.14603119,0.27396546,0.18319124,0.25609734,0.39746583
26087,0,USMichiganLapeer,Michigan,Lapeer,2021-04-04 09:25:54.152190,2020-07-18 00:00:00.000000,0.16187347,0.27745694,0.47799229,141,243,418,71,129,242,0.08152221,0.14820827,0.27692198,0.17893691,0.25170087,0.39901465
26087,0,USMichiganLapeer,Michigan,Lapeer,2021-04-04 09:25:54.152190,2020-07-19 00:00:00.000000,0.16355659,0.27599340,0.48205712,143,241,422,75,132,247,0.08600249,0.15084090,0.28292927,0.17547768,0.24892685,0.39812043
26087,0,USMichiganLapeer,Michigan,Lapeer,2021-04-04 09:25:54.152190,2020-07-20 00:00:00.000000,0.16404215,0.27753535,0.49022024,143,243,429,79,134,255,0.09068921,0.15323667,0.29123836,0.16852587,0.25391779,0.39887580
26087,0,USMichiganLapeer,Michigan,Lapeer,2021-04-04 09:25:54.152190,2020-07-21 00:00:00.000000,0.16528131,0.28511468,0.49733479,144,249,435,80,135,259,0.09138821,0.15457608,0.29644611,0.16563925,0.24671761,0.39955453
26087,0,USMichiganLapeer,Michigan,Lapeer,2021-04-04 09:25:54.152190,2020-07-22 00:00:00.000000,0.16688497,0.29071021,0.50385243,146,254,441,80,138,260,0.09198261,0.15834357,0.29758131,0.16657574,0.24680994,0.39998863
26087,0,USMichiganLapeer,Michigan,Lapeer,2021-04-04 09:25:54.152190,2020-07-23 00:00:00.000000,0.16869758,0.29423170,0.50990099,147,257,446,81,140,258,0.09272558,0.16085741,0.29507062,0.16870943,0.24710918,0.40059441
26087,0,USMichiganLapeer,Michigan,Lapeer,2021-04-04 09:25:54.152190,2020-07-24 00:00:00.000000,0.17154372,0.29736511,0.51258887,150,260,449,82,143,254,0.09360482,0.16335260,0.29000593,0.16197098,0.24393584,0.40276729
26087,0,USMichiganLapeer,Michigan,Lapeer,2021-04-04 09:25:54.152190,2020-07-25 00:00:00.000000,0.17982275,0.30247626,0.49788556,157,264,436,82,144,252,0.09460573,0.16468085,0.28818769,0.15833938,0.23833728,0.38599556
26087,0,USMichiganLapeer,Michigan,Lapeer,2021-04-04 09:25:54.152190,2020-07-26 00:00:00.000000,0.18761972,0.30376253,0.49628865,164,266,434,83,145,252,0.09576239,0.16650698,0.28867015,0.15419217,0.23713767,0.35753104
26087,0,USMichiganLapeer,Michigan,Lapeer,2021-04-04 09:25:54.152190,2020-07-27 00:00:00.000000,0.18953254,0.30236389,0.50222396,166,264,439,85,146,251,0.09805267,0.16755999,0.28753211,0.14977988,0.23406971,0.34354145
26087,0,USMichiganLapeer,Michigan,Lapeer,2021-04-04 09:25:54.152190,2020-07-28 00:00:00.000000,0.19080747,0.30086654,0.50674440,167,263,443,88,147,249,0.10093233,0.16855569,0.28455003,0.14477894,0.23013839,0.33933172
26087,0,USMichiganLapeer,Michigan,Lapeer,2021-04-04 09:25:54.152190,2020-07-29 00:00:00.000000,0.19421898,0.30509151,0.50077924,170,267,438,94,148,245,0.10778347,0.16978136,0.28036731,0.14233822,0.22653668,0.33143288
26087,0,USMichiganLapeer,Michigan,Lapeer,2021-04-04 09:25:54.152190,2020-07-30 00:00:00.000000,0.19880524,0.30566642,0.49218571,174,267,431,97,151,247,0.11085123,0.17248121,0.28259867,0.14099569,0.22206323,0.32263802
26087,0,USMichiganLapeer,Michigan,Lapeer,2021-04-04 09:25:54.152190,2020-07-31 00:00:00.000000,0.19154159,0.30496610,0.48740412,167,267,427,96,152,252,0.11058507,0.17375452,0.28873900,0.14103365,0.21791032,0.31455208
26087,0,USMichiganLapeer,Michigan,Lapeer,2021-04-04 09:25:54.152190,2020-08-01 00:00:00.000000,0.18595706,0.30789678,0.48353611,162,269,423,99,153,253,0.11410391,0.17532999,0.28966136,0.13880328,0.21242600,0.30262502
26087,0,USMichiganLapeer,Michigan,Lapeer,2021-04-04 09:25:54.152190,2020-08-02 00:00:00.000000,0.18601793,0.30452462,0.47391422,162,266,415,99,153,250,0.11398782,0.17501594,0.28598816,0.13893543,0.20385021,0.29245265
26087,0,USMichiganLapeer,Michigan,Lapeer,2021-04-04 09:25:54.152190,2020-08-03 00:00:00.000000,0.18445011,0.30221204,0.46427432,161,264,406,96,154,246,0.11022896,0.17607017,0.28148689,0.13602602,0.19572423,0.28618718
26087,0,USMichiganLapeer,Michigan,Lapeer,2021-04-04 09:25:54.152190,2020-08-04 00:00:00.000000,0.18295205,0.29941717,0.45419461,160,262,397,96,153,242,0.10969005,0.17558364,0.27655488,0.13063334,0.18853411,0.28320846
26087,0,USMichiganLapeer,Michigan,Lapeer,2021-04-04 09:25:54.152190,2020-08-05 00:00:00.000000,0.18129363,0.29535400,0.44416273,158,258,389,95,151,237,0.10894109,0.17309743,0.27116232,0.12679900,0.18168917,0.28777658
26087,0,USMichiganLapeer,Michigan,Lapeer,2021-04-04 09:25:54.152190,2020-08-06 00:00:00.000000,0.17096865,0.29028945,0.43643559,149,254,382,92,149,232,0.10513771,0.17098408,0.26558499,0.12514992,0.17600968,0.29292747
26087,0,USMichiganLapeer,Michigan,Lapeer,2021-04-04 09:25:54.152190,2020-08-07 00:00:00.000000,0.16116309,0.28538078,0.44081408,141,250,386,87,149,229,0.09949165,0.17059766,0.26180303,0.12472207,0.17337879,0.29702599
26087,0,USMichiganLapeer,Michigan,Lapeer,2021-04-04 09:25:54.152190,2020-08-08 00:00:00.000000,0.15194423,0.27957053,0.43121414,133,244,377,82,147,232,0.09398824,0.16782271,0.26521231,0.12181127,0.17219480,0.26657125
26087,0,USMichiganLapeer,Michigan,Lapeer,2021-04-04 09:25:54.152190,2020-08-09 00:00:00.000000,0.14327387,0.27510165,0.42026100,125,241,368,77,145,234,0.08871257,0.16595415,0.26805365,0.12255574,0.17114509,0.25679261
26087,0,USMichiganLapeer,Michigan,Lapeer,2021-04-04 09:25:54.152190,2020-08-10 00:00:00.000000,0.13723085,0.27242929,0.41110269,120,238,360,74,142,236,0.08531634,0.16302892,0.27037473,0.11940427,0.17266552,0.25696496
26087,0,USMichiganLapeer,Michigan,Lapeer,2021-04-04 09:25:54.152190,2020-08-11 00:00:00.000000,0.13504656,0.26673620,0.40237576,118,233,352,72,139,234,0.08255630,0.15955762,0.26823193,0.11766729,0.16967914,0.25692232
26087,0,USMichiganLapeer,Michigan,Lapeer,2021-04-04 09:25:54.152190,2020-08-12 00:00:00.000000,0.13350062,0.26128314,0.39402447,116,228,345,68,136,230,0.07843629,0.15592057,0.26295314,0.11665233,0.16841957,0.25680493
26087,0,USMichiganLapeer,Michigan,Lapeer,2021-04-04 09:25:54.152190,2020-08-13 00:00:00.000000,0.13203343,0.25470652,0.38590158,115,223,338,65,133,225,0.07461980,0.15267551,0.25749056,0.11380551,0.16790900,0.26145434
26087,0,USMichiganLapeer,Michigan,Lapeer,2021-04-04 09:25:54.152190,2020-08-14 00:00:00.000000,0.12988743,0.24816955,0.37790431,113,217,331,62,131,220,0.07109879,0.14976735,0.25204547,0.11113640,0.16340371,0.26984758
26087,0,USMichiganLapeer,Michigan,Lapeer,2021-04-04 09:25:54.152190,2020-08-15 00:00:00.000000,0.12487835,0.24168760,0.37187480,109,211,325,59,129,216,0.06789032,0.14779151,0.24667030,0.10922586,0.16758180,0.24522509
26087,0,USMichiganLapeer,Michigan,Lapeer,2021-04-04 09:25:54.152190,2020-08-16 00:00:00.000000,0.12048471,0.23501683,0.36640308,105,205,320,56,126,211,0.06502193,0.14455471,0.24141107,0.11176572,0.16886953,0.23645372
26087,0,USMichiganLapeer,Michigan,Lapeer,2021-04-04 09:25:54.152190,2020-08-17 00:00:00.000000,0.11599495,0.23019067,0.36099897,101,201,316,54,124,207,0.06247826,0.14208213,0.23630024,0.11547356,0.16904088,0.23434911
26087,0,USMichiganLapeer,Michigan,Lapeer,2021-04-04 09:25:54.152190,2020-08-18 00:00:00.000000,0.11090048,0.22595688,0.35586474,97,197,311,53,121,202,0.06058285,0.13882449,0.23125223,0.11333826,0.16865651,0.23203205
26087,0,USMichiganLapeer,Michigan,Lapeer,2021-04-04 09:25:54.152190,2020-08-19 00:00:00.000000,0.10613660,0.22299516,0.35096588,92,195,307,51,118,198,0.05933666,0.13541508,0.22634780,0.11291999,0.16320895,0.23010127
26087,0,USMichiganLapeer,Michigan,Lapeer,2021-04-04 09:25:54.152190,2020-08-20 00:00:00.000000,0.10438415,0.21766092,0.34626587,91,190,303,51,115,195,0.05835538,0.13142787,0.22277098,0.11288219,0.16200972,0.23087733
26087,0,USMichiganLapeer,Michigan,Lapeer,2021-04-04 09:25:54.152190,2020-08-21 00:00:00.000000,0.10288277,0.21324291,0.34171428,90,186,299,50,111,192,0.05755356,0.12686807,0.21970611,0.11298068,0.16171502,0.24539242
26087,0,USMichiganLapeer,Michigan,Lapeer,2021-04-04 09:25:54.152190,2020-08-22 00:00:00.000000,0.10091383,0.20830593,0.33725345,88,182,295,49,110,189,0.05686851,0.12581301,0.21674301,0.11327461,0.16407063,0.26175904
26087,0,USMichiganLapeer,Michigan,Lapeer,2021-04-04 09:25:54.152190,2020-08-23 00:00:00.000000,0.09940109,0.20436771,0.33285027,87,179,291,48,108,187,0.05543479,0.12358111,0.21386162,0.11438327,0.16817879,0.26000984
26087,0,USMichiganLapeer,Michigan,Lapeer,2021-04-04 09:25:54.152190,2020-08-24 00:00:00.000000,0.09820205,0.20074327,0.32772301,86,175,287,46,106,184,0.05319419,0.12153448,0.21071466,0.11804425,0.17047426,0.26559010
26087,0,USMichiganLapeer,Michigan,Lapeer,2021-04-04 09:25:54.152190,2020-08-25 00:00:00.000000,0.09532244,0.19630081,0.32262270,83,171,282,44,105,181,0.05118201,0.12037023,0.20676540,0.12074115,0.17412278,0.26789009
26087,0,USMichiganLapeer,Michigan,Lapeer,2021-04-04 09:25:54.152190,2020-08-26 00:00:00.000000,0.09277679,0.19007073,0.31746732,81,166,278,45,102,177,0.05246330,0.11749017,0.20267583,0.12551978,0.17628379,0.26854342
26087,0,USMichiganLapeer,Michigan,Lapeer,2021-04-04 09:25:54.152190,2020-08-27 00:00:00.000000,0.09057201,0.18814848,0.30599304,79,164,268,45,99,174,0.05202286,0.11346522,0.19871687,0.12586342,0.17762812,0.26678234
26087,0,USMichiganLapeer,Michigan,Lapeer,2021-04-04 09:25:54.152190,2020-08-28 00:00:00.000000,0.08861048,0.18760624,0.30082603,77,164,263,44,97,171,0.05073323,0.11168112,0.19603610,0.13168044,0.17883879,0.26408641
26087,0,USMichiganLapeer,Michigan,Lapeer,2021-04-04 09:25:54.152190,2020-08-29 00:00:00.000000,0.08681240,0.18599743,0.29519960,76,162,258,43,97,165,0.04954634,0.11161261,0.18941359,0.13577846,0.17833670,0.26765021
26087,0,USMichiganLapeer,Michigan,Lapeer,2021-04-04 09:25:54.152190,2020-08-30 00:00:00.000000,0.08513401,0.18272331,0.29155291,74,160,255,42,96,161,0.04845727,0.11043035,0.18487534,0.13642974,0.18071725,0.26798396
26087,0,USMichiganLapeer,Michigan,Lapeer,2021-04-04 09:25:54.152190,2020-08-31 00:00:00.000000,0.08348957,0.18155695,0.28946983,73,159,253,41,95,158,0.04745113,0.10867876,0.18045660,0.13667922,0.17996096,0.26794881
26087,0,USMichiganLapeer,Michigan,Lapeer,2021-04-04 09:25:54.152190,2020-09-01 00:00:00.000000,0.08192821,0.17913266,0.28741249,71,156,251,40,94,154,0.04650010,0.10730905,0.17616298,0.13676654,0.18444692,0.26803981
26087,0,USMichiganLapeer,Michigan,Lapeer,2021-04-04 09:25:54.152190,2020-09-02 00:00:00.000000,0.08044069,0.17622525,0.28552219,70,154,250,39,92,150,0.04559830,0.10597215,0.17198385,0.13682325,0.18664778,0.26966869
26087,0,USMichiganLapeer,Michigan,Lapeer,2021-04-04 09:25:54.152190,2020-09-03 00:00:00.000000,0.08254330,0.17388764,0.28406845,72,152,248,39,91,147,0.04474125,0.10452451,0.16790046,0.13749782,0.18969968,0.27099524
26087,0,USMichiganLapeer,Michigan,Lapeer,2021-04-04 09:25:54.152190,2020-09-04 00:00:00.000000,0.08613599,0.17288091,0.28359040,75,151,248,39,90,143,0.04504038,0.10302427,0.16422264,0.13941616,0.19338849,0.27916458
26087,0,USMichiganLapeer,Michigan,Lapeer,2021-04-04 09:25:54.152190,2020-09-05 00:00:00.000000,0.08978607,0.17294269,0.28431338,78,151,249,40,89,143,0.04645899,0.10163469,0.16412714,0.14061892,0.20092390,0.29165820
26087,0,USMichiganLapeer,Michigan,Lapeer,2021-04-04 09:25:54.152190,2020-09-06 00:00:00.000000,0.09401502,0.17253073,0.28575973,82,151,250,42,88,143,0.04826871,0.10130425,0.16408492,0.14170610,0.20726442,0.30709132
26087,0,USMichiganLapeer,Michigan,Lapeer,2021-04-04 09:25:54.152190,2020-09-07 00:00:00.000000,0.09666396,0.17438394,0.28625487,84,152,250,44,88,143,0.05042396,0.10095482,0.16409734,0.15678966,0.21541607,0.31446158
26087,0,USMichiganLapeer,Michigan,Lapeer,2021-04-04 09:25:54.152190,2020-09-08 00:00:00.000000,0.09974759,0.17589712,0.28619776,87,154,250,45,89,143,0.05231240,0.10177791,0.16371649,0.15917352,0.22539696,0.31043384
26087,0,USMichiganLapeer,Michigan,Lapeer,2021-04-04 09:25:54.152190,2020-09-09 00:00:00.000000,0.10304495,0.17728007,0.28357266,90,155,248,47,89,142,0.05410989,0.10184484,0.16312774,0.16119841,0.23175930,0.31701597
26087,0,USMichiganLapeer,Michigan,Lapeer,2021-04-04 09:25:54.152190,2020-09-10 00:00:00.000000,0.10616187,0.17908165,0.28122087,93,156,246,49,89,142,0.05616903,0.10209977,0.16248416,0.16398514,0.24103636,0.32774905
26087,0,USMichiganLapeer,Michigan,Lapeer,2021-04-04 09:25:54.152190,2020-09-11 00:00:00.000000,0.10769083,0.18249774,0.28691022,94,159,251,51,89,141,0.05873440,0.10233393,0.16185573,0.17004422,0.24765596,0.34836337
26087,0,USMichiganLapeer,Michigan,Lapeer,2021-04-04 09:25:54.152190,2020-09-12 00:00:00.000000,0.10742869,0.18300357,0.28993713,94,160,254,51,90,141,0.05834579,0.10353773,0.16124029,0.17963933,0.25429261,0.36971841
26087,0,USMichiganLapeer,Michigan,Lapeer,2021-04-04 09:25:54.152190,2020-09-13 00:00:00.000000,0.11155236,0.18653169,0.28993170,97,163,254,52,91,140,0.06003223,0.10447043,0.16061131,0.18656051,0.26439376,0.39273028
26087,0,USMichiganLapeer,Michigan,Lapeer,2021-04-04 09:25:54.152190,2020-09-14 00:00:00.000000,0.11670909,0.19062347,0.29164731,102,166,255,53,94,142,0.06089429,0.10756342,0.16218188,0.18679209,0.26742963,0.39588701
26087,0,USMichiganLapeer,Michigan,Lapeer,2021-04-04 09:25:54.152190,2020-09-15 00:00:00.000000,0.11906846,0.19422567,0.29643801,104,170,259,54,96,144,0.06193050,0.11068727,0.16503467,0.19688265,0.28249717,0.39570250
26087,0,USMichiganLapeer,Michigan,Lapeer,2021-04-04 09:25:54.152190,2020-09-16 00:00:00.000000,0.12246589,0.19877053,0.30316310,107,174,265,54,98,147,0.06268625,0.11270699,0.16808422,0.19932958,0.28488249,0.39687404
26087,0,USMichiganLapeer,Michigan,Lapeer,2021-04-04 09:25:54.152190,2020-09-17 00:00:00.000000,0.12665106,0.20399318,0.31210399,110,178,273,57,100,150,0.06579111,0.11451064,0.17143194,0.20160420,0.29838761,0.40347270
26087,0,USMichiganLapeer,Michigan,Lapeer,2021-04-04 09:25:54.152190,2020-09-18 00:00:00.000000,0.13163716,0.21025581,0.32331146,115,184,283,58,101,153,0.06675166,0.11607617,0.17523276,0.20463058,0.30541776,0.42660181
26087,0,USMichiganLapeer,Michigan,Lapeer,2021-04-04 09:25:54.152190,2020-09-19 00:00:00.000000,0.13406039,0.21666377,0.33608883,117,189,294,59,104,156,0.06764387,0.11945654,0.17894682,0.21278256,0.30882661,0.43946043
26087,0,USMichiganLapeer,Michigan,Lapeer,2021-04-04 09:25:54.152190,2020-09-20 00:00:00.000000,0.13635983,0.22435050,0.35214500,119,196,308,60,107,161,0.06849077,0.12297962,0.18487184,0.21483912,0.31033743,0.46969272
26087,0,USMichiganLapeer,Michigan,Lapeer,2021-04-04 09:25:54.152190,2020-09-21 00:00:00.000000,0.14324373,0.23118546,0.37117969,125,202,325,61,110,167,0.06964431,0.12592640,0.19087684,0.22042663,0.32195795,0.47911869
26087,0,USMichiganLapeer,Michigan,Lapeer,2021-04-04 09:25:54.152190,2020-09-22 00:00:00.000000,0.15059090,0.23994311,0.38559708,131,210,337,63,113,173,0.07198195,0.12927971,0.19787320,0.22480916,0.32861541,0.47939728
26087,0,USMichiganLapeer,Michigan,Lapeer,2021-04-04 09:25:54.152190,2020-09-23 00:00:00.000000,0.15573172,0.24951641,0.40020817,136,218,350,65,116,181,0.07490143,0.13301053,0.20743893,0.22848143,0.33907160,0.47953356
26087,0,USMichiganLapeer,Michigan,Lapeer,2021-04-04 09:25:54.152190,2020-09-24 00:00:00.000000,0.15871640,0.25872523,0.42750011,139,226,374,68,121,190,0.07826809,0.13826432,0.21737694,0.23730670,0.34693741,0.47960529
26087,0,USMichiganLapeer,Michigan,Lapeer,2021-04-04 09:25:54.152190,2020-09-25 00:00:00.000000,0.16624398,0.26906346,0.45601390,145,235,399,70,127,200,0.08075361,0.14515951,0.22885513,0.24887970,0.35282766,0.47858474
26087,0,USMichiganLapeer,Michigan,Lapeer,2021-04-04 09:25:54.152190,2020-09-26 00:00:00.000000,0.17127561,0.28949898,0.48480259,150,253,424,71,131,213,0.08216150,0.15053581,0.24425804,0.25056735,0.36386833,0.48075669
26087,0,USMichiganLapeer,Michigan,Lapeer,2021-04-04 09:25:54.152190,2020-09-27 00:00:00.000000,0.17689576,0.30632155,0.50996138,154,268,446,75,137,227,0.08655419,0.15738381,0.26024110,0.26738892,0.37553672,0.47483538
26087,0,USMichiganLapeer,Michigan,Lapeer,2021-04-04 09:25:54.152190,2020-09-28 00:00:00.000000,0.18420333,0.31622141,0.53334267,161,277,467,80,143,241,0.09159353,0.16368184,0.27618070,0.28198773,0.37527915,0.48475744
26087,0,USMichiganLapeer,Michigan,Lapeer,2021-04-04 09:25:54.152190,2020-09-29 00:00:00.000000,0.19355078,0.32825151,0.55478726,169,287,486,85,151,255,0.09748845,0.17248539,0.29113114,0.29519848,0.38907973,0.50411110
26087,0,USMichiganLapeer,Michigan,Lapeer,2021-04-04 09:25:54.152190,2020-09-30 00:00:00.000000,0.20463828,0.34495665,0.57383126,179,302,502,90,159,267,0.10376435,0.18161143,0.30487310,0.29783614,0.39597157,0.50973007
26087,0,USMichiganLapeer,Michigan,Lapeer,2021-04-04 09:25:54.152190,2020-10-01 00:00:00.000000,0.21709477,0.36529663,0.59234691,190,320,518,96,167,278,0.10987851,0.19086896,0.31761261,0.30116702,0.39806013,0.50945909
26087,0,USMichiganLapeer,Michigan,Lapeer,2021-04-04 09:25:54.152190,2020-10-02 00:00:00.000000,0.23015266,0.38176757,0.61014277,201,334,534,100,175,288,0.11503044,0.19996462,0.32962694,0.30708605,0.40521494,0.51206390
26087,0,USMichiganLapeer,Michigan,Lapeer,2021-04-04 09:25:54.152190,2020-10-03 00:00:00.000000,0.24146692,0.40046001,0.63766873,211,350,558,105,183,298,0.12054211,0.20965662,0.34104364,0.30905402,0.40453730,0.51445022
26087,0,USMichiganLapeer,Michigan,Lapeer,2021-04-04 09:25:54.152190,2020-10-04 00:00:00.000000,0.25377188,0.42296280,0.66670792,222,370,584,110,194,314,0.12648039,0.22149419,0.35913934,0.30362345,0.40650362,0.51637795
26087,0,USMichiganLapeer,Michigan,Lapeer,2021-04-04 09:25:54.152190,2020-10-05 00:00:00.000000,0.27033520,0.44540304,0.69906898,236,390,612,116,202,331,0.13285212,0.23121416,0.37872123,0.30756685,0.41237955,0.52513088
26087,0,USMichiganLapeer,Michigan,Lapeer,2021-04-04 09:25:54.152190,2020-10-06 00:00:00.000000,0.28883628,0.47205537,0.73143453,253,413,640,123,213,350,0.14067426,0.24404090,0.40001396,0.30926505,0.41644886,0.53769547
26087,0,USMichiganLapeer,Michigan,Lapeer,2021-04-04 09:25:54.152190,2020-10-07 00:00:00.000000,0.31039155,0.50401989,0.75783920,271,441,663,131,226,370,0.14978524,0.25867184,0.42263957,0.31052059,0.42063510,0.53788643
26087,0,USMichiganLapeer,Michigan,Lapeer,2021-04-04 09:25:54.152190,2020-10-08 00:00:00.000000,0.33514700,0.53642126,0.78601997,293,469,688,140,238,383,0.16040544,0.27200468,0.43825837,0.31161122,0.42212708,0.55725162
26087,0,USMichiganLapeer,Michigan,Lapeer,2021-04-04 09:25:54.152190,2020-10-09 00:00:00.000000,0.36287564,0.56914165,0.81683262,317,498,715,151,250,398,0.17272543,0.28620711,0.45453248,0.31378571,0.42897716,0.57190282
26087,0,USMichiganLapeer,Michigan,Lapeer,2021-04-04 09:25:54.152190,2020-10-10 00:00:00.000000,0.39335081,0.59736943,0.85024282,344,523,744,163,266,413,0.18669110,0.30439761,0.47187214,0.31684535,0.42836002,0.57812548
26087,0,USMichiganLapeer,Michigan,Lapeer,2021-04-04 09:25:54.152190,2020-10-11 00:00:00.000000,0.42225203,0.62842395,0.88562951,369,550,775,177,281,429,0.20214979,0.32118940,0.49050730,0.32048588,0.43246873,0.61521588
26087,0,USMichiganLapeer,Michigan,Lapeer,2021-04-04 09:25:54.152190,2020-10-12 00:00:00.000000,0.45022614,0.66612389,0.92684709,394,583,811,189,294,447,0.21658160,0.33655395,0.51039070,0.32509180,0.43617671,0.62394191
26087,0,USMichiganLapeer,Michigan,Lapeer,2021-04-04 09:25:54.152190,2020-10-13 00:00:00.000000,0.47889234,0.70403490,0.97041093,419,616,850,201,309,465,0.23013441,0.35289413,0.53189591,0.32590429,0.44037451,0.62377317
26087,0,USMichiganLapeer,Michigan,Lapeer,2021-04-04 09:25:54.152190,2020-10-14 00:00:00.000000,0.51607096,0.74842834,1.02994435,452,655,902,214,329,485,0.24441535,0.37585994,0.55468400,0.33021665,0.44065453,0.62207424
26087,0,USMichiganLapeer,Michigan,Lapeer,2021-04-04 09:25:54.152190,2020-10-15 00:00:00.000000,0.55921466,0.78915541,1.10462875,489,691,967,227,348,506,0.25979500,0.39800873,0.57858740,0.33382611,0.44948270,0.61538524
26087,0,USMichiganLapeer,Michigan,Lapeer,2021-04-04 09:25:54.152190,2020-10-16 00:00:00.000000,0.60516128,0.82861221,1.18440549,530,725,1037,241,371,528,0.27621361,0.42372852,0.60360451,0.33072526,0.45594650,0.58116454
26087,0,USMichiganLapeer,Michigan,Lapeer,2021-04-04 09:25:54.152190,2020-10-17 00:00:00.000000,0.65423429,0.87704706,1.26849080,573,768,1111,257,394,555,0.29365782,0.45071525,0.63366938,0.34002302,0.45811269,0.57448756
26087,0,USMichiganLapeer,Michigan,Lapeer,2021-04-04 09:25:54.152190,2020-10-18 00:00:00.000000,0.69202010,0.93064013,1.34973476,606,815,1182,273,417,592,0.31219511,0.47694699,0.67621429,0.34167716,0.45976171,0.57730064
26087,0,USMichiganLapeer,Michigan,Lapeer,2021-04-04 09:25:54.152190,2020-10-19 00:00:00.000000,0.73458170,0.99254759,1.42008527,643,869,1244,293,444,633,0.33479451,0.50717709,0.72318012,0.36061454,0.46040355,0.57750485
26087,0,USMichiganLapeer,Michigan,Lapeer,2021-04-04 09:25:54.152190,2020-10-20 00:00:00.000000,0.77496516,1.06376095,1.48836466,678,931,1303,315,472,678,0.36001934,0.53986511,0.77419300,0.36863248,0.46238298,0.58062748
26087,0,USMichiganLapeer,Michigan,Lapeer,2021-04-04 09:25:54.152190,2020-10-21 00:00:00.000000,0.80895313,1.12267448,1.58131339,708,983,1385,332,501,726,0.37971231,0.57233787,0.82955254,0.35542748,0.46256462,0.57755230
26087,0,USMichiganLapeer,Michigan,Lapeer,2021-04-04 09:25:54.152190,2020-10-22 00:00:00.000000,0.84327174,1.20100371,1.69633259,738,1052,1486,354,530,779,0.40512305,0.60535805,0.88933641,0.35056161,0.46660462,0.57806734
26087,0,USMichiganLapeer,Michigan,Lapeer,2021-04-04 09:25:54.152190,2020-10-23 00:00:00.000000,0.88053491,1.27268677,1.81891158,771,1114,1593,382,565,826,0.43621574,0.64492570,0.94300403,0.34764676,0.47743086,0.58176362
26087,0,USMichiganLapeer,Michigan,Lapeer,2021-04-04 09:25:54.152190,2020-10-24 00:00:00.000000,0.92689487,1.35478061,1.94895866,812,1186,1707,405,605,866,0.46324731,0.69123601,0.98936528,0.35212248,0.48401838,0.59193039
26087,0,USMichiganLapeer,Michigan,Lapeer,2021-04-04 09:25:54.152190,2020-10-25 00:00:00.000000,0.98496845,1.46200322,2.08646237,862,1280,1827,425,653,910,0.48579424,0.74586786,1.03884965,0.35586246,0.48585695,0.61541567
26087,0,USMichiganLapeer,Michigan,Lapeer,2021-04-04 09:25:54.152190,2020-10-26 00:00:00.000000,1.05144942,1.56417296,2.23084340,921,1370,1954,449,702,956,0.51346969,0.80164535,1.09218950,0.36448609,0.48922791,0.61505026
26087,0,USMichiganLapeer,Michigan,Lapeer,2021-04-04 09:25:54.152190,2020-10-27 00:00:00.000000,1.12347323,1.68267017,2.38279995,984,1474,2087,478,745,1008,0.54618221,0.85060133,1.15117170,0.39420439,0.49908162,0.61879610
26087,0,USMichiganLapeer,Michigan,Lapeer,2021-04-04 09:25:54.152190,2020-10-28 00:00:00.000000,1.20134299,1.79177914,2.54327994,1052,1569,2228,510,796,1077,0.58265303,0.90892046,1.22982602,0.40828120,0.50123600,0.61159467
26087,0,USMichiganLapeer,Michigan,Lapeer,2021-04-04 09:25:54.152190,2020-10-29 00:00:00.000000,1.28799939,1.90240660,2.71209240,1128,1666,2375,545,849,1158,0.62248385,0.96977032,1.32206168,0.41174009,0.50183616,0.61145820
26087,0,USMichiganLapeer,Michigan,Lapeer,2021-04-04 09:25:54.152190,2020-10-30 00:00:00.000000,1.38772023,2.04728322,2.88841548,1215,1793,2530,583,901,1246,0.66608315,1.02863875,1.42245193,0.40885808,0.50854921,0.62146565
26087,0,USMichiganLapeer,Michigan,Lapeer,2021-04-04 09:25:54.152190,2020-10-31 00:00:00.000000,1.51570700,2.20911557,3.07932054,1327,1935,2697,626,967,1341,0.71513773,1.10459461,1.53111560,0.40608987,0.51800209,0.63416105
26087,0,USMichiganLapeer,Michigan,Lapeer,2021-04-04 09:25:54.152190,2020-11-01 00:00:00.000000,1.63673098,2.35964575,3.28418125,1433,2067,2877,663,1041,1443,0.75758703,1.18935210,1.64813931,0.41122613,0.51538394,0.63497052
26087,0,USMichiganLapeer,Michigan,Lapeer,2021-04-04 09:25:54.152190,2020-11-02 00:00:00.000000,1.77149536,2.53605728,3.49776551,1551,2221,3064,707,1117,1553,0.80794081,1.27541847,1.77337956,0.40795702,0.51695094,0.63550054
26087,0,USMichiganLapeer,Michigan,Lapeer,2021-04-04 09:25:54.152190,2020-11-03 00:00:00.000000,1.92570826,2.72262335,3.75578193,1687,2385,3290,770,1182,1669,0.87913463,1.34950410,1.90514234,0.41098603,0.51580178,0.63660876
26087,0,USMichiganLapeer,Michigan,Lapeer,2021-04-04 09:25:54.152190,2020-11-04 00:00:00.000000,2.09698067,2.94264710,4.02245888,1837,2577,3523,844,1267,1787,0.96355111,1.44630125,2.04076289,0.42199384,0.51305084,0.64773493
26087,0,USMichiganLapeer,Michigan,Lapeer,2021-04-04 09:25:54.152190,2020-11-05 00:00:00.000000,2.28354985,3.16382722,4.33420238,2000,2771,3797,927,1365,1908,1.05864245,1.55850435,2.17796298,0.42252575,0.50980166,0.64012729
26087,0,USMichiganLapeer,Michigan,Lapeer,2021-04-04 09:25:54.152190,2020-11-06 00:00:00.000000,2.45301659,3.38634825,4.71820817,2149,2966,4133,1019,1466,2028,1.16322547,1.67419566,2.31506762,0.42308178,0.50594113,0.64603158
26087,0,USMichiganLapeer,Michigan,Lapeer,2021-04-04 09:25:54.152190,2020-11-07 00:00:00.000000,2.61291293,3.61958318,5.12168351,2289,3171,4486,1117,1572,2147,1.27542422,1.79450430,2.45185800,0.41409902,0.49100215,0.63549692
26087,0,USMichiganLapeer,Michigan,Lapeer,2021-04-04 09:25:54.152190,2020-11-08 00:00:00.000000,2.74559690,3.81347912,5.50250853,2405,3340,4820,1195,1679,2284,1.36408867,1.91707190,2.60753363,0.40944014,0.48795978,0.63372793
26087,0,USMichiganLapeer,Michigan,Lapeer,2021-04-04 09:25:54.152190,2020-11-09 00:00:00.000000,2.88322135,4.01737117,5.77602548,2525,3519,5060,1258,1796,2427,1.43645738,2.05022466,2.77052564,0.40048331,0.49029365,0.65218843
26087,0,USMichiganLapeer,Michigan,Lapeer,2021-04-04 09:25:54.152190,2020-11-10 00:00:00.000000,3.10173594,4.26434745,6.05476376,2717,3735,5304,1333,1932,2560,1.52193010,2.20612793,2.92271321,0.39716478,0.48551729,0.65243577
26087,0,USMichiganLapeer,Michigan,Lapeer,2021-04-04 09:25:54.152190,2020-11-11 00:00:00.000000,3.32497596,4.52218426,6.33136833,2912,3961,5546,1428,2061,2747,1.63034133,2.35301723,3.13644652,0.39399881,0.47675447,0.62271800
26087,0,USMichiganLapeer,Michigan,Lapeer,2021-04-04 09:25:54.152190,2020-11-12 00:00:00.000000,3.50608503,4.74472938,6.59366829,3071,4156,5776,1506,2180,2911,1.71907545,2.48904638,3.32308189,0.39343339,0.47365758,0.63223597
26087,0,USMichiganLapeer,Michigan,Lapeer,2021-04-04 09:25:54.152190,2020-11-13 00:00:00.000000,3.69360804,4.97766918,6.84132541,3235,4360,5993,1581,2285,3059,1.80490395,2.60825079,3.49240885,0.37554251,0.46464927,0.61958807
26087,0,USMichiganLapeer,Michigan,Lapeer,2021-04-04 09:25:54.152190,2020-11-14 00:00:00.000000,3.88096614,5.21494714,7.08356771,3399,4568,6205,1664,2399,3220,1.89949506,2.73945858,3.67621301,0.37956577,0.45321913,0.59846039
26087,0,USMichiganLapeer,Michigan,Lapeer,2021-04-04 09:25:54.152190,2020-11-15 00:00:00.000000,4.06939358,5.45910492,7.32513119,3565,4782,6417,1759,2509,3366,2.00879254,2.86419770,3.84329189,0.36835831,0.44578462,0.60694446
26087,0,USMichiganLapeer,Michigan,Lapeer,2021-04-04 09:25:54.152190,2020-11-16 00:00:00.000000,4.26938014,5.72236374,7.56442547,3740,5013,6626,1872,2642,3502,2.13739727,3.01628550,3.99765067,0.35085314,0.44518554,0.59158514
26087,0,USMichiganLapeer,Michigan,Lapeer,2021-04-04 09:25:54.152190,2020-11-17 00:00:00.000000,4.47939539,5.97213109,7.80071079,3924,5232,6833,2000,2762,3680,2.28323097,3.15289652,4.20103288,0.33681097,0.44083259,0.59485825
26087,0,USMichiganLapeer,Michigan,Lapeer,2021-04-04 09:25:54.152190,2020-11-18 00:00:00.000000,4.69822357,6.25862467,8.03968330,4115,5482,7043,2098,2865,3794,2.39569196,3.27083374,4.33072799,0.32094643,0.43661618,0.58570933
26087,0,USMichiganLapeer,Michigan,Lapeer,2021-04-04 09:25:54.152190,2020-11-19 00:00:00.000000,4.92492746,6.51246726,8.31730426,4314,5705,7286,2202,2973,3987,2.51360819,3.39421033,4.55168884,0.31129884,0.42802540,0.57457773
26087,0,USMichiganLapeer,Michigan,Lapeer,2021-04-04 09:25:54.152190,2020-11-20 00:00:00.000000,5.11489316,6.71740409,8.51118353,4481,5884,7456,2309,3103,4175,2.63616017,3.54232196,4.76638236,0.30694550,0.42054263,0.52101912
26087,0,USMichiganLapeer,Michigan,Lapeer,2021-04-04 09:25:54.152190,2020-11-21 00:00:00.000000,5.26206703,6.93538801,8.69411498,4609,6075,7616,2420,3224,4284,2.76253376,3.68116561,4.89101120,0.30182247,0.40897141,0.51450043
26087,0,USMichiganLapeer,Michigan,Lapeer,2021-04-04 09:25:54.152190,2020-11-22 00:00:00.000000,5.33097937,7.16471478,8.88293240,4670,6276,7782,2511,3335,4425,2.86713281,3.80716195,5.05142022,0.28373428,0.40149078,0.51018286
26087,0,USMichiganLapeer,Michigan,Lapeer,2021-04-04 09:25:54.152190,2020-11-23 00:00:00.000000,5.38968018,7.33670287,9.00535160,4721,6427,7889,2564,3431,4511,2.92763421,3.91731636,5.15003464,0.27003469,0.39058064,0.48360658
26087,0,USMichiganLapeer,Michigan,Lapeer,2021-04-04 09:25:54.152190,2020-11-24 00:00:00.000000,5.45915431,7.47841917,9.05906127,4782,6551,7936,2597,3532,4559,2.96505760,4.03227925,5.20410068,0.24948760,0.36795743,0.46742330
26087,0,USMichiganLapeer,Michigan,Lapeer,2021-04-04 09:25:54.152190,2020-11-25 00:00:00.000000,5.51288328,7.51041546,9.11212367,4829,6579,7982,2624,3607,4674,2.99621478,4.11793199,5.33631146,0.23509612,0.35500199,0.45533308
26087,0,USMichiganLapeer,Michigan,Lapeer,2021-04-04 09:25:54.152190,2020-11-26 00:00:00.000000,5.55409551,7.48374966,9.16272367,4865,6556,8027,2648,3655,4764,3.02270290,4.17210248,5.43904213,0.22239161,0.33374592,0.43366762
26087,0,USMichiganLapeer,Michigan,Lapeer,2021-04-04 09:25:54.152190,2020-11-27 00:00:00.000000,5.57708308,7.40348372,9.14067871,4885,6485,8007,2667,3673,4825,3.04510942,4.19281352,5.50827802,0.21520953,0.31018178,0.41494630
26087,0,USMichiganLapeer,Michigan,Lapeer,2021-04-04 09:25:54.152190,2020-11-28 00:00:00.000000,5.57821669,7.36185800,9.05886334,4886,6449,7936,2683,3710,4853,3.06258599,4.23546522,5.54061202,0.21715539,0.28992802,0.38489086
26087,0,USMichiganLapeer,Michigan,Lapeer,2021-04-04 09:25:54.152190,2020-11-29 00:00:00.000000,5.56610063,7.30337873,9.03501673,4876,6398,7915,2690,3689,4850,3.07114716,4.21167770,5.53615556,0.21083720,0.27846079,0.36756802
26087,0,USMichiganLapeer,Michigan,Lapeer,2021-04-04 09:25:54.152190,2020-11-30 00:00:00.000000,5.54711799,7.16732170,9.04781170,4859,6279,7926,2688,3655,4831,3.06826616,4.17248809,5.51520806,0.20690734,0.26934037,0.35765353
26087,0,USMichiganLapeer,Michigan,Lapeer,2021-04-04 09:25:54.152190,2020-12-01 00:00:00.000000,5.52185004,7.02516602,8.80260284,4837,6154,7711,2680,3601,4901,3.05987097,4.11114949,5.59531013,0.20658249,0.26229018,0.35318980
26087,0,USMichiganLapeer,Michigan,Lapeer,2021-04-04 09:25:54.152190,2020-12-02 00:00:00.000000,5.49135334,6.87976410,8.67583058,4810,6027,7600,2663,3542,4935,3.04048515,4.04340558,5.63341704,0.19654174,0.26038033,0.35189300
26087,0,USMichiganLapeer,Michigan,Lapeer,2021-04-04 09:25:54.152190,2020-12-03 00:00:00.000000,5.45490901,6.73140744,8.61769326,4778,5897,7549,2639,3471,4941,3.01344068,3.96254283,5.64023045,0.19565273,0.25357467,0.34401059
26087,0,USMichiganLapeer,Michigan,Lapeer,2021-04-04 09:25:54.152190,2020-12-04 00:00:00.000000,5.39303499,6.56296314,8.53498348,4724,5749,7477,2611,3384,4928,2.98063843,3.86313935,5.62602857,0.19354050,0.24615206,0.33818264
26087,0,USMichiganLapeer,Michigan,Lapeer,2021-04-04 09:25:54.152190,2020-12-05 00:00:00.000000,5.18816966,6.38347072,8.40276503,4545,5592,7361,2577,3307,4900,2.94235659,3.77570708,5.59387123,0.18832405,0.24250077,0.33148830
26087,0,USMichiganLapeer,Michigan,Lapeer,2021-04-04 09:25:54.152190,2020-12-06 00:00:00.000000,4.97023152,6.20125889,8.23496059,4354,5432,7214,2538,3259,4830,2.89730352,3.72040454,5.51368297,0.17891747,0.23908794,0.32591794
26087,0,USMichiganLapeer,Michigan,Lapeer,2021-04-04 09:25:54.152190,2020-12-07 00:00:00.000000,4.77310902,6.00883314,8.05515284,4181,5264,7056,2491,3169,4727,2.84427123,3.61772595,5.39630091,0.17119965,0.23590023,0.32332004
26087,0,USMichiganLapeer,Michigan,Lapeer,2021-04-04 09:25:54.152190,2020-12-08 00:00:00.000000,4.60215687,5.84231190,7.87030109,4031,5118,6894,2429,3076,4625,2.77344839,3.51213062,5.28026265,0.16983984,0.23698444,0.31511058
26087,0,USMichiganLapeer,Michigan,Lapeer,2021-04-04 09:25:54.152190,2020-12-09 00:00:00.000000,4.45702489,5.65765649,7.65728984,3904,4956,6708,2331,3005,4525,2.66103532,3.43056628,5.16598384,0.16352615,0.23650589,0.31169191
26087,0,USMichiganLapeer,Michigan,Lapeer,2021-04-04 09:25:54.152190,2020-12-10 00:00:00.000000,4.26135591,5.46273800,7.44035141,3733,4785,6518,2233,2930,4427,2.54974054,3.34523105,5.05345728,0.15922894,0.23594110,0.30854356
26087,0,USMichiganLapeer,Michigan,Lapeer,2021-04-04 09:25:54.152190,2020-12-11 00:00:00.000000,4.09320470,5.26483621,7.26295513,3585,4612,6362,2138,2839,4329,2.44068680,3.24114223,4.94241261,0.15856653,0.23323557,0.30800324
26087,0,USMichiganLapeer,Michigan,Lapeer,2021-04-04 09:25:54.152190,2020-12-12 00:00:00.000000,3.89981565,5.07911441,7.11493175,3416,4449,6233,2052,2758,4233,2.34303270,3.14881888,4.83250819,0.15493537,0.22899917,0.31084283
26087,0,USMichiganLapeer,Michigan,Lapeer,2021-04-04 09:25:54.152190,2020-12-13 00:00:00.000000,3.73272961,4.86478773,6.85059554,3270,4261,6001,1986,2685,4138,2.26749482,3.06578296,4.72340934,0.15291852,0.22865823,0.30544685
26087,0,USMichiganLapeer,Michigan,Lapeer,2021-04-04 09:25:54.152190,2020-12-14 00:00:00.000000,3.63789251,4.70475007,6.57143195,3187,4121,5757,1920,2595,4042,2.19238054,2.96248475,4.61455268,0.15198922,0.22815920,0.30447541
26087,0,USMichiganLapeer,Michigan,Lapeer,2021-04-04 09:25:54.152190,2020-12-15 00:00:00.000000,3.54824940,4.54186508,6.29547039,3108,3978,5515,1856,2510,3923,2.11957082,2.86537559,4.47861937,0.15159586,0.22500961,0.30657807
26087,0,USMichiganLapeer,Michigan,Lapeer,2021-04-04 09:25:54.152190,2020-12-16 00:00:00.000000,3.45988377,4.38962195,6.05614488,3031,3845,5305,1775,2409,3806,2.02682261,2.74986302,4.34540024,0.15148374,0.22544162,0.30666249
26087,0,USMichiganLapeer,Michigan,Lapeer,2021-04-04 09:25:54.152190,2020-12-17 00:00:00.000000,3.29432270,4.24361887,5.89307673,2886,3717,5162,1703,2325,3705,1.94416513,2.65500590,4.22926719,0.15168233,0.22463709,0.30471821
26087,0,USMichiganLapeer,Michigan,Lapeer,2021-04-04 09:25:54.152190,2020-12-18 00:00:00.000000,3.10850715,4.09481085,5.72494951,2723,3587,5015,1653,2246,3599,1.88740578,2.56401265,4.10870025,0.15272276,0.22474381,0.30441139
26087,0,USMichiganLapeer,Michigan,Lapeer,2021-04-04 09:25:54.152190,2020-12-19 00:00:00.000000,2.97995192,3.94404239,5.55539671,2610,3455,4866,1579,2168,3492,1.80336135,2.47579984,3.98646940,0.15626995,0.22373726,0.30557708
26087,0,USMichiganLapeer,Michigan,Lapeer,2021-04-04 09:25:54.152190,2020-12-20 00:00:00.000000,2.85956796,3.79154597,5.38594061,2505,3321,4718,1500,2091,3385,1.71240090,2.38742148,3.86446585,0.15732880,0.22526009,0.30392825
26087,0,USMichiganLapeer,Michigan,Lapeer,2021-04-04 09:25:54.152190,2020-12-21 00:00:00.000000,2.76400968,3.65976647,5.21669827,2421,3206,4570,1424,2007,3280,1.62634158,2.29146139,3.74475567,0.15957930,0.22435127,0.30023321
26087,0,USMichiganLapeer,Michigan,Lapeer,2021-04-04 09:25:54.152190,2020-12-22 00:00:00.000000,2.63365231,3.52788551,5.04798732,2307,3090,4422,1355,1923,3181,1.54717306,2.19588481,3.63189275,0.16505854,0.22523296,0.29481367
26087,0,USMichiganLapeer,Michigan,Lapeer,2021-04-04 09:25:54.152190,2020-12-23 00:00:00.000000,2.49770601,3.41205626,4.89053044,2188,2989,4284,1284,1841,3089,1.46636639,2.10210695,3.52623943,0.16791120,0.23207458,0.28888349
26087,0,USMichiganLapeer,Michigan,Lapeer,2021-04-04 09:25:54.152190,2020-12-24 00:00:00.000000,2.38406573,3.29943269,4.75531381,2088,2890,4165,1227,1762,3001,1.40121367,2.01130099,3.42603629,0.16684407,0.23181848,0.29106079
26087,0,USMichiganLapeer,Michigan,Lapeer,2021-04-04 09:25:54.152190,2020-12-25 00:00:00.000000,2.27699560,3.20152087,4.62438994,1994,2804,4051,1172,1685,2917,1.33805290,1.92435673,3.32994854,0.16586245,0.23362145,0.30069684
26087,0,USMichiganLapeer,Michigan,Lapeer,2021-04-04 09:25:54.152190,2020-12-26 00:00:00.000000,2.17669528,3.07663132,4.49954844,1906,2695,3941,1119,1613,2836,1.27781449,1.84202084,3.23734535,0.16672672,0.23711321,0.32011842
26087,0,USMichiganLapeer,Michigan,Lapeer,2021-04-04 09:25:54.152190,2020-12-27 00:00:00.000000,2.07375035,2.94495057,4.38396292,1816,2579,3840,1069,1556,2743,1.22128308,1.77657625,3.13169391,0.17518494,0.23764216,0.33782912
26087,0,USMichiganLapeer,Michigan,Lapeer,2021-04-04 09:25:54.152190,2020-12-28 00:00:00.000000,1.98810096,2.82050285,4.27511659,1741,2470,3745,1024,1502,2644,1.16890465,1.71517474,3.01859690,0.17934891,0.23800668,0.35062327
26087,0,USMichiganLapeer,Michigan,Lapeer,2021-04-04 09:25:54.152190,2020-12-29 00:00:00.000000,1.91710722,2.73550816,4.17214596,1679,2396,3655,981,1471,2547,1.12067462,1.68003550,2.90738502,0.18262652,0.23925096,0.34889414
26087,0,USMichiganLapeer,Michigan,Lapeer,2021-04-04 09:25:54.152190,2020-12-30 00:00:00.000000,1.84953271,2.66314688,4.02841464,1620,2333,3529,943,1438,2451,1.07663182,1.64165192,2.79857266,0.18418891,0.24124338,0.35150502
26087,0,USMichiganLapeer,Michigan,Lapeer,2021-04-04 09:25:54.152190,2020-12-31 00:00:00.000000,1.78476864,2.58010801,3.87691880,1563,2260,3396,920,1383,2358,1.05048472,1.57883323,2.69261083,0.18184941,0.24224970,0.36060970
26087,0,USMichiganLapeer,Michigan,Lapeer,2021-04-04 09:25:54.152190,2021-01-01 00:00:00.000000,1.72246643,2.49767209,3.72441415,1509,2188,3262,894,1343,2269,1.02055714,1.53322718,2.59008306,0.17906422,0.24368166,0.36895834
26087,0,USMichiganLapeer,Michigan,Lapeer,2021-04-04 09:25:54.152190,2021-01-02 00:00:00.000000,1.63206151,2.42881103,3.57299018,1429,2127,3130,862,1294,2183,0.98491624,1.47807713,2.49192687,0.17937950,0.24771163,0.37477728
26087,0,USMichiganLapeer,Michigan,Lapeer,2021-04-04 09:25:54.152190,2021-01-03 00:00:00.000000,1.54403407,2.35808083,3.42640611,1352,2065,3001,826,1246,2101,0.94295077,1.42252583,2.39885973,0.18122316,0.24812439,0.37638166
26087,0,USMichiganLapeer,Michigan,Lapeer,2021-04-04 09:25:54.152190,2021-01-04 00:00:00.000000,1.49705982,2.26961972,3.28214865,1311,1988,2875,791,1203,2024,0.90327213,1.37428061,2.31055491,0.18184119,0.25058280,0.37638466
26087,0,USMichiganLapeer,Michigan,Lapeer,2021-04-04 09:25:54.152190,2021-01-05 00:00:00.000000,1.48020754,2.18369985,3.14452189,1296,1913,2754,761,1163,1950,0.86926319,1.32861033,2.22634160,0.17792418,0.25271051,0.37558984
26087,0,USMichiganLapeer,Michigan,Lapeer,2021-04-04 09:25:54.152190,2021-01-06 00:00:00.000000,1.43409445,2.08376618,3.01370282,1256,1825,2640,731,1134,1879,0.83503431,1.29547072,2.14552210,0.17724940,0.25290172,0.37182704
26087,0,USMichiganLapeer,Michigan,Lapeer,2021-04-04 09:25:54.152190,2021-01-07 00:00:00.000000,1.39570581,2.01266321,2.88985669,1222,1763,2531,709,1097,1811,0.81012279,1.25263681,2.06767434,0.17748374,0.25414975,0.36421809
26087,0,USMichiganLapeer,Michigan,Lapeer,2021-04-04 09:25:54.152190,2021-01-08 00:00:00.000000,1.35965759,1.96254948,2.77296504,1191,1719,2429,684,1070,1745,0.78140983,1.22208744,1.99256596,0.17844945,0.25137581,0.35308783
26087,0,USMichiganLapeer,Michigan,Lapeer,2021-04-04 09:25:54.152190,2021-01-09 00:00:00.000000,1.29822979,1.91432899,2.66283670,1137,1677,2332,669,1035,1682,0.76470945,1.18243877,1.92007555,0.17882549,0.25075442,0.35144740
26087,0,USMichiganLapeer,Michigan,Lapeer,2021-04-04 09:25:54.152190,2021-01-10 00:00:00.000000,1.23264719,1.85871958,2.56053696,1079,1628,2243,645,999,1620,0.73668512,1.14112187,1.85014119,0.17810692,0.24790798,0.34629376
26087,0,USMichiganLapeer,Michigan,Lapeer,2021-04-04 09:25:54.152190,2021-01-11 00:00:00.000000,1.17168787,1.79923683,2.51317300,1026,1576,2201,619,966,1561,0.70664315,1.10290985,1.78272575,0.18003609,0.25147323,0.33385376
26087,0,USMichiganLapeer,Michigan,Lapeer,2021-04-04 09:25:54.152190,2021-01-12 00:00:00.000000,1.12245508,1.75213509,2.46436061,983,1534,2158,595,942,1505,0.67948511,1.07624278,1.71848322,0.18015799,0.25419632,0.33989581
26087,0,USMichiganLapeer,Michigan,Lapeer,2021-04-04 09:25:54.152190,2021-01-13 00:00:00.000000,1.08904904,1.70143696,2.41297204,954,1490,2113,573,912,1451,0.65503573,1.04166096,1.65699062,0.18279717,0.25710677,0.33832488
26087,0,USMichiganLapeer,Michigan,Lapeer,2021-04-04 09:25:54.152190,2021-01-14 00:00:00.000000,1.06424991,1.63136099,2.35842265,932,1429,2066,554,880,1399,0.63296474,1.00476101,1.59797524,0.17231652,0.25856740,0.33613239
26087,0,USMichiganLapeer,Michigan,Lapeer,2021-04-04 09:25:54.152190,2021-01-15 00:00:00.000000,1.04663630,1.57593303,2.30084077,916,1380,2015,537,848,1350,0.61369760,0.96859580,1.54123614,0.17533702,0.26626004,0.34227958
26087,0,USMichiganLapeer,Michigan,Lapeer,2021-04-04 09:25:54.152190,2021-01-16 00:00:00.000000,1.02024330,1.53139517,2.24086135,893,1341,1963,524,818,1302,0.59846680,0.93405301,1.48661649,0.17658593,0.27133310,0.35937086
26087,0,USMichiganLapeer,Michigan,Lapeer,2021-04-04 09:25:54.152190,2021-01-17 00:00:00.000000,0.99740396,1.48486972,2.17936216,873,1300,1909,508,790,1256,0.58079927,0.90223179,1.43400076,0.17889001,0.27771067,0.38187919
26087,0,USMichiganLapeer,Michigan,Lapeer,2021-04-04 09:25:54.152190,2021-01-18 00:00:00.000000,0.96308096,1.44419931,2.11072023,843,1265,1849,496,765,1211,0.56627132,0.87426242,1.38333015,0.18321052,0.28078780,0.38626448
26087,0,USMichiganLapeer,Michigan,Lapeer,2021-04-04 09:25:54.152190,2021-01-19 00:00:00.000000,0.93891022,1.40703675,2.04223752,822,1232,1789,485,747,1168,0.55423092,0.85357486,1.33376771,0.18424714,0.28865978,0.38645563
26087,0,USMichiganLapeer,Michigan,Lapeer,2021-04-04 09:25:54.152190,2021-01-20 00:00:00.000000,0.93331430,1.37007695,1.98595506,817,1200,1739,476,726,1126,0.54384922,0.82932915,1.28602685,0.18915044,0.29305133,0.42173000
26087,0,USMichiganLapeer,Michigan,Lapeer,2021-04-04 09:25:54.152190,2021-01-21 00:00:00.000000,0.92767728,1.32803961,1.95392314,812,1163,1711,468,710,1087,0.53450418,0.81101860,1.24090914,0.19751988,0.30651526,0.44144024
26087,0,USMichiganLapeer,Michigan,Lapeer,2021-04-04 09:25:54.152190,2021-01-22 00:00:00.000000,0.91907360,1.30200083,1.92306235,805,1140,1684,460,692,1050,0.52571903,0.79090342,1.19924303,0.20573015,0.30902808,0.44732181
26087,0,USMichiganLapeer,Michigan,Lapeer,2021-04-04 09:25:54.152190,2021-01-23 00:00:00.000000,0.90248263,1.28884831,1.89330475,790,1129,1658,453,674,1018,0.51722532,0.77023527,1.16228277,0.21157337,0.31395981,0.45973609
26087,0,USMichiganLapeer,Michigan,Lapeer,2021-04-04 09:25:54.152190,2021-01-24 00:00:00.000000,0.88150256,1.26776799,1.85668270,772,1110,1626,445,659,996,0.50906033,0.75285093,1.13770054,0.21310208,0.32189181,0.46493487
26087,0,USMichiganLapeer,Michigan,Lapeer,2021-04-04 09:25:54.152190,2021-01-25 00:00:00.000000,0.87133191,1.26719560,1.81837371,763,1110,1593,439,650,984,0.50114917,0.74206804,1.12383852,0.22039900,0.33086269,0.46604179
26087,0,USMichiganLapeer,Michigan,Lapeer,2021-04-04 09:25:54.152190,2021-01-26 00:00:00.000000,0.86303032,1.25570234,1.78384077,756,1100,1562,434,646,977,0.49578043,0.73805123,1.11542346,0.22703085,0.34174301,0.47461365
26087,0,USMichiganLapeer,Michigan,Lapeer,2021-04-04 09:25:54.152190,2021-01-27 00:00:00.000000,0.85799518,1.24905170,1.75293316,751,1094,1535,424,640,971,0.48407861,0.73088224,1.10885510,0.23108571,0.35198132,0.48396097
26087,0,USMichiganLapeer,Michigan,Lapeer,2021-04-04 09:25:54.152190,2021-01-28 00:00:00.000000,0.85459670,1.23648087,1.72626763,748,1083,1512,417,628,965,0.47607790,0.71698791,1.10218715,0.23338112,0.36080170,0.49003255
26087,0,USMichiganLapeer,Michigan,Lapeer,2021-04-04 09:25:54.152190,2021-01-29 00:00:00.000000,0.85170469,1.23079829,1.70429099,746,1078,1493,415,618,958,0.47430006,0.70588710,1.09452663,0.23844833,0.36678350,0.48603995
26087,0,USMichiganLapeer,Michigan,Lapeer,2021-04-04 09:25:54.152190,2021-01-30 00:00:00.000000,0.84910076,1.22138455,1.69228539,743,1070,1482,415,610,951,0.47457614,0.69720750,1.08568470,0.24234950,0.37219365,0.49873063
26087,0,USMichiganLapeer,Michigan,Lapeer,2021-04-04 09:25:54.152190,2021-01-31 00:00:00.000000,0.84666433,1.21366569,1.69552297,741,1063,1485,418,608,942,0.47718615,0.69437009,1.07584478,0.25641079,0.37413151,0.50263235
26087,0,USMichiganLapeer,Michigan,Lapeer,2021-04-04 09:25:54.152190,2021-02-01 00:00:00.000000,0.84503739,1.20635404,1.69623830,740,1056,1486,421,604,933,0.48152990,0.69007482,1.06583182,0.26952453,0.37351772,0.51178751
26087,0,USMichiganLapeer,Michigan,Lapeer,2021-04-04 09:25:54.152190,2021-02-02 00:00:00.000000,0.84340218,1.19975322,1.69763514,738,1051,1487,426,600,934,0.48644170,0.68499252,1.06616177,0.27337926,0.37437793,0.51467104
26087,0,USMichiganLapeer,Michigan,Lapeer,2021-04-04 09:25:54.152190,2021-02-03 00:00:00.000000,0.85192383,1.19032973,1.70852700,746,1042,1496,430,593,934,0.49172461,0.67801305,1.06642435,0.27379458,0.37779795,0.51296679
26087,0,USMichiganLapeer,Michigan,Lapeer,2021-04-04 09:25:54.152190,2021-02-04 00:00:00.000000,0.86145729,1.18971330,1.70765820,754,1042,1496,430,589,934,0.49162273,0.67332274,1.06660716,0.27402822,0.38638251,0.51601459
26087,0,USMichiganLapeer,Michigan,Lapeer,2021-04-04 09:25:54.152190,2021-02-05 00:00:00.000000,0.87093511,1.19499637,1.70714718,763,1046,1495,424,589,934,0.48439583,0.67253768,1.06667837,0.28328937,0.39641752,0.50865125
26087,0,USMichiganLapeer,Michigan,Lapeer,2021-04-04 09:25:54.152190,2021-02-06 00:00:00.000000,0.87699360,1.19995504,1.70792536,768,1051,1496,424,590,934,0.48450053,0.67424404,1.06658348,0.28692780,0.40092337,0.51779321
26087,0,USMichiganLapeer,Michigan,Lapeer,2021-04-04 09:25:54.152190,2021-02-07 00:00:00.000000,0.87864515,1.19982401,1.70681557,769,1051,1495,428,592,934,0.48949228,0.67653458,1.06622745,0.28757114,0.40020947,0.53090695
26087,0,USMichiganLapeer,Michigan,Lapeer,2021-04-04 09:25:54.152190,2021-02-08 00:00:00.000000,0.87798863,1.20099452,1.70551882,769,1052,1494,433,589,936,0.49436246,0.67326462,1.06888173,0.29231609,0.40019052,0.53838669
26087,0,USMichiganLapeer,Michigan,Lapeer,2021-04-04 09:25:54.152190,2021-02-09 00:00:00.000000,0.88389561,1.20672707,1.71006162,774,1057,1498,437,591,943,0.49967765,0.67566171,1.07705174,0.29494721,0.40799475,0.54027658
26087,0,USMichiganLapeer,Michigan,Lapeer,2021-04-04 09:25:54.152190,2021-02-10 00:00:00.000000,0.89527785,1.20505283,1.71975916,784,1055,1506,442,594,950,0.50497032,0.67863815,1.08533342,0.29992292,0.40903004,0.53856648
26087,0,USMichiganLapeer,Michigan,Lapeer,2021-04-04 09:25:54.152190,2021-02-11 00:00:00.000000,0.91000667,1.20658543,1.72913458,797,1057,1514,445,597,949,0.50824483,0.68241045,1.08393674,0.30447627,0.41448491,0.54595943
26087,0,USMichiganLapeer,Michigan,Lapeer,2021-04-04 09:25:54.152190,2021-02-12 00:00:00.000000,0.92424940,1.21778967,1.73559366,809,1066,1520,444,597,945,0.50793178,0.68237708,1.07902264,0.30650587,0.41232223,0.56093953
26087,0,USMichiganLapeer,Michigan,Lapeer,2021-04-04 09:25:54.152190,2021-02-13 00:00:00.000000,0.93235095,1.23503270,1.73850702,816,1081,1523,444,600,941,0.50752818,0.68550126,1.07457317,0.30904415,0.41837448,0.53747397
26087,0,USMichiganLapeer,Michigan,Lapeer,2021-04-04 09:25:54.152190,2021-02-14 00:00:00.000000,0.94036272,1.25437258,1.73865707,823,1098,1523,452,606,938,0.51661726,0.69252680,1.07122607,0.31452195,0.42735325,0.52961757
26087,0,USMichiganLapeer,Michigan,Lapeer,2021-04-04 09:25:54.152190,2021-02-15 00:00:00.000000,0.95784978,1.26257738,1.73793048,839,1106,1522,462,611,937,0.52756826,0.69765306,1.06975551,0.31531172,0.43207742,0.54069387
26087,0,USMichiganLapeer,Michigan,Lapeer,2021-04-04 09:25:54.152190,2021-02-16 00:00:00.000000,0.97691188,1.27585825,1.73965076,855,1117,1524,467,611,939,0.53360327,0.69812881,1.07204092,0.32535491,0.43082484,0.56270809
26087,0,USMichiganLapeer,Michigan,Lapeer,2021-04-04 09:25:54.152190,2021-02-17 00:00:00.000000,0.98525744,1.28413238,1.74698171,863,1124,1530,470,615,943,0.53693525,0.70219666,1.07690224,0.32685485,0.44212000,0.58215621
26087,0,USMichiganLapeer,Michigan,Lapeer,2021-04-04 09:25:54.152190,2021-02-18 00:00:00.000000,0.99438326,1.29440110,1.75710035,871,1133,1539,473,622,948,0.54000335,0.71007703,1.08226239,0.32936830,0.44232027,0.59082958
26087,0,USMichiganLapeer,Michigan,Lapeer,2021-04-04 09:25:54.152190,2021-02-19 00:00:00.000000,1.00313797,1.30327293,1.76865973,878,1141,1549,475,628,953,0.54290102,0.71720611,1.08842057,0.34079586,0.44828605,0.60830100
26087,0,USMichiganLapeer,Michigan,Lapeer,2021-04-04 09:25:54.152190,2021-02-20 00:00:00.000000,0.99574833,1.31542407,1.78059860,872,1152,1559,478,639,959,0.54574414,0.72962232,1.09514960,0.35379087,0.45474799,0.62336444
26087,0,USMichiganLapeer,Michigan,Lapeer,2021-04-04 09:25:54.152190,2021-02-21 00:00:00.000000,0.99547152,1.33167094,1.79165938,872,1166,1569,475,651,965,0.54292558,0.74393958,1.10243511,0.35429364,0.46555540,0.63447430
26087,0,USMichiganLapeer,Michigan,Lapeer,2021-04-04 09:25:54.152190,2021-02-22 00:00:00.000000,0.99930700,1.34818258,1.81085386,875,1181,1586,480,667,972,0.54876887,0.76154237,1.11061236,0.36544964,0.47437879,0.63858163
26087,0,USMichiganLapeer,Michigan,Lapeer,2021-04-04 09:25:54.152190,2021-02-23 00:00:00.000000,1.00675828,1.36775574,1.83019821,881,1198,1603,487,675,984,0.55627226,0.77137390,1.12394380,0.36431957,0.48380751,0.64615569
26087,0,USMichiganLapeer,Michigan,Lapeer,2021-04-04 09:25:54.152190,2021-02-24 00:00:00.000000,1.02067894,1.39458808,1.88312137,894,1221,1649,493,682,994,0.56291901,0.77896598,1.13484692,0.36074561,0.49097533,0.65641453
26087,0,USMichiganLapeer,Michigan,Lapeer,2021-04-04 09:25:54.152190,2021-02-25 00:00:00.000000,1.04578849,1.42471161,1.94795536,916,1248,1706,500,690,1004,0.57136901,0.78795690,1.14606185,0.36257834,0.51180179,0.67344268
26087,0,USMichiganLapeer,Michigan,Lapeer,2021-04-04 09:25:54.152190,2021-02-26 00:00:00.000000,1.08101301,1.46913217,2.02862804,947,1287,1777,510,699,1016,0.58216098,0.79862659,1.16054202,0.36956608,0.52943913,0.71133515
26087,0,USMichiganLapeer,Michigan,Lapeer,2021-04-04 09:25:54.152190,2021-02-27 00:00:00.000000,1.10486954,1.51861918,2.11748070,967,1330,1855,515,720,1033,0.58788678,0.82298063,1.18019910,0.38556907,0.54982789,0.74640061
26087,0,USMichiganLapeer,Michigan,Lapeer,2021-04-04 09:25:54.152190,2021-02-28 00:00:00.000000,1.11732770,1.58368676,2.21180072,978,1387,1937,520,739,1055,0.59452079,0.84429935,1.20530337,0.41676080,0.56977670,0.76630281
26087,0,USMichiganLapeer,Michigan,Lapeer,2021-04-04 09:25:54.152190,2021-03-01 00:00:00.000000,1.14485351,1.63935874,2.29989337,1002,1436,2014,527,755,1082,0.60253432,0.86240165,1.23508006,0.42930496,0.58888117,0.77657702
26087,0,USMichiganLapeer,Michigan,Lapeer,2021-04-04 09:25:54.152190,2021-03-02 00:00:00.000000,1.19307059,1.71322281,2.37155301,1045,1500,2077,536,790,1111,0.61217759,0.90237573,1.26889085,0.45093518,0.61411697,0.78053783
26087,0,USMichiganLapeer,Michigan,Lapeer,2021-04-04 09:25:54.152190,2021-03-03 00:00:00.000000,1.26953788,1.77219448,2.44727746,1112,1552,2143,546,828,1144,0.62366981,0.94582454,1.30594653,0.45972967,0.63236860,0.79626799
26087,0,USMichiganLapeer,Michigan,Lapeer,2021-04-04 09:25:54.152190,2021-03-04 00:00:00.000000,1.33652559,1.84419533,2.53209076,1170,1615,2218,565,860,1179,0.64555448,0.98170868,1.34596228,0.46770974,0.64386391,0.82530120
26087,0,USMichiganLapeer,Michigan,Lapeer,2021-04-04 09:25:54.152190,2021-03-05 00:00:00.000000,1.38420174,1.92407168,2.64693536,1212,1685,2318,587,893,1225,0.67076450,1.01950435,1.39855818,0.47562136,0.66489893,0.87128411
26087,0,USMichiganLapeer,Michigan,Lapeer,2021-04-04 09:25:54.152190,2021-03-06 00:00:00.000000,1.46493925,2.02027842,2.78530297,1283,1769,2440,625,933,1294,0.71345461,1.06507907,1.47772145,0.48539123,0.68718882,0.90748247
26087,0,USMichiganLapeer,Michigan,Lapeer,2021-04-04 09:25:54.152190,2021-03-07 00:00:00.000000,1.56161219,2.14591571,2.95489959,1368,1879,2588,666,982,1357,0.76042729,1.12138454,1.54981509,0.48555239,0.71861564,1.02036303
26087,0,USMichiganLapeer,Michigan,Lapeer,2021-04-04 09:25:54.152190,2021-03-08 00:00:00.000000,1.62528028,2.27292608,3.15824859,1423,1991,2766,709,1032,1412,0.80934664,1.17831750,1.61214061,0.48821631,0.72893619,1.07482920
26087,0,USMichiganLapeer,Michigan,Lapeer,2021-04-04 09:25:54.152190,2021-03-09 00:00:00.000000,1.69380690,2.40703784,3.37706847,1483,2108,2958,751,1095,1479,0.85754891,1.25091426,1.68892921,0.54266922,0.74571291,1.09895247
26087,0,USMichiganLapeer,Michigan,Lapeer,2021-04-04 09:25:54.152190,2021-03-10 00:00:00.000000,1.78111026,2.55299297,3.60043582,1560,2236,3154,794,1152,1556,0.90643816,1.31543687,1.77653682,0.56202431,0.76640214,1.11533330
26087,0,USMichiganLapeer,Michigan,Lapeer,2021-04-04 09:25:54.152190,2021-03-11 00:00:00.000000,1.87376775,2.72484597,3.82666144,1641,2387,3352,839,1232,1640,0.95792574,1.40630780,1.87217842,0.56942177,0.77454141,1.13279329
26087,0,USMichiganLapeer,Michigan,Lapeer,2021-04-04 09:25:54.152190,2021-03-12 00:00:00.000000,1.99549188,2.92546424,4.07181075,1748,2562,3567,888,1312,1729,1.01471357,1.49822596,1.97427827,0.57938743,0.79203556,1.15352650
26087,0,USMichiganLapeer,Michigan,Lapeer,2021-04-04 09:25:54.152190,2021-03-13 00:00:00.000000,2.14257398,3.13043861,4.33629101,1877,2742,3798,946,1392,1824,1.07984942,1.58960166,2.08215071,0.62419942,0.82281004,1.17726817
26087,0,USMichiganLapeer,Michigan,Lapeer,2021-04-04 09:25:54.152190,2021-03-14 00:00:00.000000,2.30600966,3.33004833,4.66916498,2020,2917,4090,1010,1492,1965,1.15312876,1.70341961,2.24370558,0.62759731,0.83481401,1.20249412
26087,0,USMichiganLapeer,Michigan,Lapeer,2021-04-04 09:25:54.152190,2021-03-15 00:00:00.000000,2.47286417,3.55388990,5.00118048,2166,3113,4381,1081,1595,2130,1.23453840,1.82137154,2.43134124,0.62950144,0.85401339,1.22701808
26087,0,USMichiganLapeer,Michigan,Lapeer,2021-04-04 09:25:54.152190,2021-03-16 00:00:00.000000,2.65200477,3.77333875,5.29321455,2323,3305,4637,1157,1685,2296,1.32121537,1.92388469,2.62114790,0.63148477,0.86290711,1.24822212
26087,0,USMichiganLapeer,Michigan,Lapeer,2021-04-04 09:25:54.152190,2021-03-17 00:00:00.000000,2.84306137,4.03388101,5.56507816,2490,3533,4875,1238,1782,2455,1.41395855,2.03511059,2.80275502,0.63392746,0.88529668,1.26078869
26087,0,USMichiganLapeer,Michigan,Lapeer,2021-04-04 09:25:54.152190,2021-03-18 00:00:00.000000,3.08326472,4.29919838,5.91765803,2701,3766,5184,1324,1903,2601,1.51229670,2.17253805,2.96999068,0.62673755,0.89594603,1.24622876
26087,0,USMichiganLapeer,Michigan,Lapeer,2021-04-04 09:25:54.152190,2021-03-19 00:00:00.000000,3.34480287,4.59965347,6.29534271,2930,4029,5515,1429,2044,2735,1.63195982,2.33354448,3.12254315,0.61966400,0.90699585,1.30002323
26087,0,USMichiganLapeer,Michigan,Lapeer,2021-04-04 09:25:54.152190,2021-03-20 00:00:00.000000,3.62460556,4.90104911,6.68289226,3175,4293,5854,1542,2180,2857,1.76029013,2.48855062,3.26217367,0.61782348,0.91277345,1.32523397
26087,0,USMichiganLapeer,Michigan,Lapeer,2021-04-04 09:25:54.152190,2021-03-21 00:00:00.000000,3.86146713,5.20356738,7.03855977,3382,4558,6166,1645,2310,2970,1.87882772,2.63700837,3.39105522,0.61682324,0.92591628,1.33211499
26087,0,USMichiganLapeer,Michigan,Lapeer,2021-04-04 09:25:54.152190,2021-03-22 00:00:00.000000,4.11251439,5.49452612,7.39343447,3602,4813,6477,1752,2444,3145,2.00037275,2.79005196,3.59077642,0.61649819,0.94296684,1.29776801
26087,0,USMichiganLapeer,Michigan,Lapeer,2021-04-04 09:25:54.152190,2021-03-23 00:00:00.000000,4.37371610,5.77540991,7.76170319,3831,5059,6799,1869,2582,3341,2.13444970,2.94760231,3.81404279,0.60596518,0.94149002,1.32707683
26087,0,USMichiganLapeer,Michigan,Lapeer,2021-04-04 09:25:54.152190,2021-03-24 00:00:00.000000,4.70311484,6.10055952,8.15715902,4120,5344,7146,1989,2738,3566,2.27075719,3.12613950,4.07099750,0.59492803,0.95338480,1.36734609
26087,0,USMichiganLapeer,Michigan,Lapeer,2021-04-04 09:25:54.152190,2021-03-25 00:00:00.000000,5.03714195,6.46632072,8.52984305,4412,5664,7472,2113,2896,3807,2.41235162,3.30589579,4.34590235,0.56508807,0.94637514,1.43267201
26087,0,USMichiganLapeer,Michigan,Lapeer,2021-04-04 09:25:54.152190,2021-03-26 00:00:00.000000,5.30431884,6.76668591,8.89905883,4646,5928,7796,2240,3048,4054,2.55745548,3.47943623,4.62821390,0.55267190,0.94547093,1.47821139
26087,0,USMichiganLapeer,Michigan,Lapeer,2021-04-04 09:25:54.152190,2021-03-27 00:00:00.000000,5.54610025,7.17887568,9.26212751,4858,6289,8114,2357,3207,4307,2.69133599,3.66162392,4.91634179,0.56756685,0.95185687,1.50801037
26087,0,USMichiganLapeer,Michigan,Lapeer,2021-04-04 09:25:54.152190,2021-03-28 00:00:00.000000,5.85159697,7.49266577,9.61623872,5126,6564,8424,2477,3372,4562,2.82820003,3.84996040,5.20842406,0.58572597,0.93601006,1.52719045
26087,0,USMichiganLapeer,Michigan,Lapeer,2021-04-04 09:25:54.152190,2021-03-29 00:00:00.000000,6.08501237,7.76828914,9.95566028,5330,6805,8721,2599,3578,4820,2.96777493,4.08455009,5.50233128,0.57228848,0.91239369,1.54847797
26087,0,USMichiganLapeer,Michigan,Lapeer,2021-04-04 09:25:54.152190,2021-03-30 00:00:00.000000,6.37626536,8.05630189,10.28355304,5586,7057,9009,2723,3744,5011,3.10842970,4.27428876,5.72042590,0.56293545,0.93015998,1.59313797
26087,0,USMichiganLapeer,Michigan,Lapeer,2021-04-04 09:25:54.152190,2021-03-31 00:00:00.000000,6.65988117,8.38349111,10.61407686,5834,7344,9298,2840,3890,5177,3.24252172,4.44057707,5.91039954,0.56089822,0.93271938,1.70384313
26087,0,USMichiganLapeer,Michigan,Lapeer,2021-04-04 09:25:54.152190,2021-04-01 00:00:00.000000,6.81085137,8.64563048,11.11851356,5966,7574,9740,2968,4061,5335,3.38885506,4.63625802,6.08976642,0.54557451,0.87077809,1.77792540
26087,0,USMichiganLapeer,Michigan,Lapeer,2021-04-04 09:25:54.152190,2021-04-02 00:00:00.000000,6.86555416,8.99697512,11.66474539,6014,7881,10219,3093,4222,5481,3.53156133,4.82000820,6.25680488,0.53226548,0.86773308,1.80989302
26087,0,USMichiganLapeer,Michigan,Lapeer,2021-04-04 09:25:54.152190,2021-04-03 00:00:00.000000,6.78453179,9.27203339,12.14396623,5943,8122,10638,3215,4407,5664,3.67055242,5.03134173,6.46579014,0.52132055,0.88080622,1.83373450
26087,0,USMichiganLapeer,Michigan,Lapeer,2021-04-04 09:25:54.152190,2021-04-04 00:00:00.000000,6.65884085,9.68442783,12.44650575,5833,8484,10904,3299,4546,5942,3.76572390,5.18943548,6.78308914,0.49817590,0.87791077,1.80027838
26087,0,USMichiganLapeer,Michigan,Lapeer,2021-04-04 09:25:54.152190,2021-04-05 00:00:00.000000,6.69862714,9.87166239,12.90146964,5868,8648,11302,3395,4715,6213,3.87557615,5.38239762,7.09289063,0.48237594,0.89312266,1.73602968
26087,0,USMichiganLapeer,Michigan,Lapeer,2021-04-04 09:25:54.152190,2021-04-06 00:00:00.000000,6.71071830,10.02312289,13.36967810,5879,8780,11712,3451,4868,6476,3.93943178,5.55703415,7.39267098,0.46766702,0.90787593,1.67448075
26087,0,USMichiganLapeer,Michigan,Lapeer,2021-04-04 09:25:54.152190,2021-04-07 00:00:00.000000,6.70242624,10.23404365,13.86958938,5871,8965,12150,3453,4981,6632,3.94190632,5.68630514,7.57105238,0.46682545,0.90953708,1.64420294
26087,0,USMichiganLapeer,Michigan,Lapeer,2021-04-04 09:25:54.152190,2021-04-08 00:00:00.000000,6.59065677,10.37656420,14.33926796,5773,9090,12562,3446,5043,6716,3.93417465,5.75688818,7.66673677,0.46642524,0.90778654,1.64662332
26087,0,USMichiganLapeer,Michigan,Lapeer,2021-04-04 09:25:54.152190,2021-04-09 00:00:00.000000,6.40222231,10.55104595,14.73875336,5608,9243,12912,3428,5153,6962,3.91329513,5.88250401,7.94743065,0.46622594,0.90809649,1.64912365
26087,0,USMichiganLapeer,Michigan,Lapeer,2021-04-04 09:25:54.152190,2021-04-10 00:00:00.000000,6.21220301,10.71282124,15.08582884,5442,9385,13216,3332,5272,7190,3.80355227,6.01789317,8.20738735,0.46612314,0.90854259,1.65006265
26087,0,USMichiganLapeer,Michigan,Lapeer,2021-04-04 09:25:54.152190,2021-04-11 00:00:00.000000,6.02202149,10.76994305,15.37790466,5275,9435,13472,3234,5374,7396,3.69225029,6.13532086,8.44312702,0.46606856,0.90884212,1.65041258
26087,0,USMichiganLapeer,Michigan,Lapeer,2021-04-04 09:25:54.152190,2021-04-12 00:00:00.000000,5.83269475,10.83084607,15.61074275,5109,9488,13676,3136,5418,7579,3.58025578,6.18490877,8.65140098,0.46603900,0.90901523,1.65054266
26087,0,USMichiganLapeer,Michigan,Lapeer,2021-04-04 09:25:54.152190,2021-04-13 00:00:00.000000,5.64497567,10.88107442,15.78102428,4945,9532,13825,3038,5463,7735,3.46819239,6.23687506,8.82928585,0.46602277,0.90911038,1.65059098
26087,0,USMichiganLapeer,Michigan,Lapeer,2021-04-04 09:25:54.152190,2021-04-14 00:00:00.000000,5.45943607,10.81867054,15.88645379,4782,9477,13917,2940,5498,7861,3.35653332,6.27640357,8.97400519,0.46601380,0.90916168,1.65060893
26087,0,USMichiganLapeer,Michigan,Lapeer,2021-04-04 09:25:54.152190,2021-04-15 00:00:00.000000,5.27651957,10.70846161,15.92582679,4622,9381,13952,2843,5519,8037,3.24565444,6.30050819,9.17447043,0.46600881,0.90918913,1.65061561
26087,0,USMichiganLapeer,Michigan,Lapeer,2021-04-04 09:25:54.152190,2021-04-16 00:00:00.000000,5.09657642,10.66633765,15.89905749,4464,9344,13928,2747,5532,8078,3.13586504,6.31486807,9.22153750,0.46600604,0.90920376,1.65061809
