FIPS,HR_UID,nameid,province,region,analysisTime,dates,pointprevalence_025,pointprevalence_50,pointprevalence_975,pointinfections_025,pointinfections_50,pointinfections_975,pointinfectious_025,pointinfectious_50,pointinfectious_975,pointinfectiousprevalence_05,pointinfectiousprevalence_50,pointinfectiousprevalence_95,infectrate_025,infectrate_50,infectrate_975
42105,0,USPennsylvaniaPotter,Pennsylvania,Potter,2021-04-04 05:08:09.597811,2020-03-09 00:00:00.000000,0.00645934,0.03340054,0.08260134,1,5,13,0,2,6,0.00173482,0.01488132,0.03953059,0.31879065,0.45450117,0.60947020
42105,0,USPennsylvaniaPotter,Pennsylvania,Potter,2021-04-04 05:08:09.597811,2020-03-10 00:00:00.000000,0.00909922,0.04207815,0.09455339,1,6,15,0,2,6,0.00281199,0.01567782,0.04082496,0.31879065,0.45450111,0.60944323
42105,0,USPennsylvaniaPotter,Pennsylvania,Potter,2021-04-04 05:08:09.597811,2020-03-11 00:00:00.000000,0.01303007,0.05106772,0.11317070,2,8,18,0,2,7,0.00421726,0.01788229,0.04543782,0.31879064,0.45450071,0.60936788
42105,0,USPennsylvaniaPotter,Pennsylvania,Potter,2021-04-04 05:08:09.597811,2020-03-12 00:00:00.000000,0.01801548,0.05967133,0.13521267,2,9,22,1,3,8,0.00700802,0.02263902,0.05176863,0.31879063,0.45449866,0.60915583
42105,0,USPennsylvaniaPotter,Pennsylvania,Potter,2021-04-04 05:08:09.597811,2020-03-13 00:00:00.000000,0.02257600,0.06842753,0.15264471,3,11,25,1,4,9,0.00867118,0.02680746,0.05985356,0.31879056,0.45448833,0.60855760
42105,0,USPennsylvaniaPotter,Pennsylvania,Potter,2021-04-04 05:08:09.597811,2020-03-14 00:00:00.000000,0.02651736,0.07678930,0.16164736,4,12,26,1,5,11,0.01045085,0.03135577,0.06902113,0.31870648,0.45443505,0.60688055
42105,0,USPennsylvaniaPotter,Pennsylvania,Potter,2021-04-04 05:08:09.597811,2020-03-15 00:00:00.000000,0.03076759,0.08533179,0.18062100,5,14,29,2,5,12,0.01275098,0.03590565,0.07855755,0.31802558,0.45415292,0.60230586
42105,0,USPennsylvaniaPotter,Pennsylvania,Potter,2021-04-04 05:08:09.597811,2020-03-16 00:00:00.000000,0.04060430,0.09666515,0.20195385,6,15,33,2,6,14,0.01592869,0.04004840,0.09027275,0.31438749,0.45382438,0.59268282
42105,0,USPennsylvaniaPotter,Pennsylvania,Potter,2021-04-04 05:08:09.597811,2020-03-17 00:00:00.000000,0.04930505,0.10753033,0.22462382,8,17,37,3,7,16,0.01948718,0.04512244,0.10213203,0.31000244,0.44818250,0.58495748
42105,0,USPennsylvaniaPotter,Pennsylvania,Potter,2021-04-04 05:08:09.597811,2020-03-18 00:00:00.000000,0.05727773,0.11840763,0.26041436,9,19,43,3,8,18,0.02301540,0.04990097,0.11340120,0.30506855,0.43707164,0.57801299
42105,0,USPennsylvaniaPotter,Pennsylvania,Potter,2021-04-04 05:08:09.597811,2020-03-19 00:00:00.000000,0.06540304,0.13280295,0.27636909,10,21,45,4,9,20,0.02696241,0.05764512,0.12392307,0.28233658,0.39832566,0.56236090
42105,0,USPennsylvaniaPotter,Pennsylvania,Potter,2021-04-04 05:08:09.597811,2020-03-20 00:00:00.000000,0.07331338,0.14595848,0.30332983,12,24,50,5,10,22,0.03090383,0.06627720,0.13393129,0.24347657,0.37612708,0.53358367
42105,0,USPennsylvaniaPotter,Pennsylvania,Potter,2021-04-04 05:08:09.597811,2020-03-21 00:00:00.000000,0.07979480,0.15964966,0.33179974,13,26,54,5,12,24,0.03339934,0.07459930,0.14770122,0.21801212,0.35080827,0.50276096
42105,0,USPennsylvaniaPotter,Pennsylvania,Potter,2021-04-04 05:08:09.597811,2020-03-22 00:00:00.000000,0.08261871,0.17001523,0.35731356,13,28,59,5,13,28,0.03616780,0.08343825,0.17055710,0.20723065,0.32138071,0.47122333
42105,0,USPennsylvaniaPotter,Pennsylvania,Potter,2021-04-04 05:08:09.597811,2020-03-23 00:00:00.000000,0.09238404,0.18367206,0.37705554,15,30,62,6,14,31,0.03780947,0.08925794,0.19093920,0.19768838,0.31088983,0.44098881
42105,0,USPennsylvaniaPotter,Pennsylvania,Potter,2021-04-04 05:08:09.597811,2020-03-24 00:00:00.000000,0.10086101,0.19805045,0.39592997,16,32,65,6,15,33,0.04059335,0.09677066,0.20570268,0.18607214,0.30229921,0.42530735
42105,0,USPennsylvaniaPotter,Pennsylvania,Potter,2021-04-04 05:08:09.597811,2020-03-25 00:00:00.000000,0.10859446,0.21509129,0.41504134,17,35,68,7,17,36,0.04413113,0.10335097,0.21790173,0.16998121,0.29269805,0.41392982
42105,0,USPennsylvaniaPotter,Pennsylvania,Potter,2021-04-04 05:08:09.597811,2020-03-26 00:00:00.000000,0.11438520,0.22979589,0.43452640,18,37,71,8,18,37,0.04845273,0.11256034,0.22460911,0.15882070,0.27995198,0.38902020
42105,0,USPennsylvaniaPotter,Pennsylvania,Potter,2021-04-04 05:08:09.597811,2020-03-27 00:00:00.000000,0.12022133,0.24101934,0.45381487,19,39,74,8,19,38,0.05289076,0.12016863,0.23430083,0.14989245,0.26567601,0.38416599
42105,0,USPennsylvaniaPotter,Pennsylvania,Potter,2021-04-04 05:08:09.597811,2020-03-28 00:00:00.000000,0.13152768,0.24952514,0.45607255,21,41,75,9,21,40,0.05718509,0.12818278,0.24252739,0.13837129,0.24697533,0.36399203
42105,0,USPennsylvaniaPotter,Pennsylvania,Potter,2021-04-04 05:08:09.597811,2020-03-29 00:00:00.000000,0.14018214,0.25901331,0.45437368,23,42,75,10,22,41,0.06124886,0.13365856,0.24841847,0.13036513,0.24022236,0.35426592
42105,0,USPennsylvaniaPotter,Pennsylvania,Potter,2021-04-04 05:08:09.597811,2020-03-30 00:00:00.000000,0.14556805,0.26705788,0.45542641,24,44,75,10,22,41,0.06507796,0.13793874,0.25205849,0.12522751,0.23451463,0.32747838
42105,0,USPennsylvaniaPotter,Pennsylvania,Potter,2021-04-04 05:08:09.597811,2020-03-31 00:00:00.000000,0.14613499,0.27268685,0.45599683,24,45,75,11,23,43,0.06859126,0.13933678,0.26549980,0.12078133,0.22666598,0.32588235
42105,0,USPennsylvaniaPotter,Pennsylvania,Potter,2021-04-04 05:08:09.597811,2020-04-01 00:00:00.000000,0.14630797,0.27871980,0.45671671,24,46,75,11,23,46,0.07095101,0.14431510,0.27868554,0.11180948,0.22179144,0.31561424
42105,0,USPennsylvaniaPotter,Pennsylvania,Potter,2021-04-04 05:08:09.597811,2020-04-02 00:00:00.000000,0.14623869,0.28191334,0.46173072,24,46,76,12,24,47,0.07382834,0.14993468,0.28738157,0.10525988,0.20993006,0.31244849
42105,0,USPennsylvaniaPotter,Pennsylvania,Potter,2021-04-04 05:08:09.597811,2020-04-03 00:00:00.000000,0.14614602,0.28547333,0.47710817,24,47,78,12,25,48,0.07719923,0.15249128,0.29334774,0.09683191,0.20111642,0.29840546
42105,0,USPennsylvaniaPotter,Pennsylvania,Potter,2021-04-04 05:08:09.597811,2020-04-04 00:00:00.000000,0.14652400,0.29318097,0.49813139,24,48,82,13,25,49,0.08018510,0.15391205,0.29858192,0.09150627,0.19184088,0.28330041
42105,0,USPennsylvaniaPotter,Pennsylvania,Potter,2021-04-04 05:08:09.597811,2020-04-05 00:00:00.000000,0.14769146,0.30572237,0.52708158,24,50,87,13,25,50,0.08283867,0.15503183,0.30312195,0.08956289,0.18687240,0.27913655
42105,0,USPennsylvaniaPotter,Pennsylvania,Potter,2021-04-04 05:08:09.597811,2020-04-06 00:00:00.000000,0.14419536,0.29513108,0.52962551,23,48,87,14,25,52,0.08519549,0.15640018,0.31834306,0.08866857,0.18004585,0.26577376
42105,0,USPennsylvaniaPotter,Pennsylvania,Potter,2021-04-04 05:08:09.597811,2020-04-07 00:00:00.000000,0.14135226,0.28053492,0.53189890,23,46,87,14,25,54,0.08649197,0.15628855,0.33111079,0.08825169,0.17874916,0.25566754
42105,0,USPennsylvaniaPotter,Pennsylvania,Potter,2021-04-04 05:08:09.597811,2020-04-08 00:00:00.000000,0.13894169,0.27414057,0.53149269,22,45,87,14,26,56,0.08603378,0.15805998,0.33976078,0.08806017,0.17487282,0.24914236
42105,0,USPennsylvaniaPotter,Pennsylvania,Potter,2021-04-04 05:08:09.597811,2020-04-09 00:00:00.000000,0.13594264,0.26990743,0.52762142,22,44,87,14,25,57,0.08514046,0.15505932,0.34516538,0.08797612,0.16931578,0.24151280
42105,0,USPennsylvaniaPotter,Pennsylvania,Potter,2021-04-04 05:08:09.597811,2020-04-10 00:00:00.000000,0.13236649,0.26303499,0.51733975,21,43,85,13,25,57,0.08385048,0.15337778,0.34688259,0.08796419,0.16390482,0.23758470
42105,0,USPennsylvaniaPotter,Pennsylvania,Potter,2021-04-04 05:08:09.597811,2020-04-11 00:00:00.000000,0.12838345,0.25347908,0.51673724,21,41,85,13,24,57,0.08098478,0.15122566,0.34594495,0.08778455,0.15246603,0.23165981
42105,0,USPennsylvaniaPotter,Pennsylvania,Potter,2021-04-04 05:08:09.597811,2020-04-12 00:00:00.000000,0.12419535,0.24572771,0.51868084,20,40,85,12,24,56,0.07696581,0.14728892,0.34274046,0.08475710,0.14402260,0.21133382
42105,0,USPennsylvaniaPotter,Pennsylvania,Potter,2021-04-04 05:08:09.597811,2020-04-13 00:00:00.000000,0.11994657,0.23668263,0.51902674,19,39,85,12,23,56,0.07278715,0.14375603,0.34067171,0.08085087,0.13875326,0.21706999
42105,0,USPennsylvaniaPotter,Pennsylvania,Potter,2021-04-04 05:08:09.597811,2020-04-14 00:00:00.000000,0.11242046,0.22750836,0.51760646,18,37,85,11,23,55,0.06857175,0.13991586,0.33643893,0.08135286,0.13609688,0.22863205
42105,0,USPennsylvaniaPotter,Pennsylvania,Potter,2021-04-04 05:08:09.597811,2020-04-15 00:00:00.000000,0.10709077,0.21995754,0.51426421,17,36,84,10,22,55,0.06440781,0.13542426,0.33395247,0.08170539,0.13483849,0.22454705
42105,0,USPennsylvaniaPotter,Pennsylvania,Potter,2021-04-04 05:08:09.597811,2020-04-16 00:00:00.000000,0.10132286,0.21226081,0.50902665,16,35,84,10,21,55,0.06067248,0.13160129,0.33420414,0.07914390,0.13312746,0.21514682
42105,0,USPennsylvaniaPotter,Pennsylvania,Potter,2021-04-04 05:08:09.597811,2020-04-17 00:00:00.000000,0.09457878,0.20306997,0.50194625,15,33,82,9,20,55,0.05902317,0.12636474,0.33325908,0.07693470,0.13277599,0.20670771
42105,0,USPennsylvaniaPotter,Pennsylvania,Potter,2021-04-04 05:08:09.597811,2020-04-18 00:00:00.000000,0.08740575,0.19427298,0.49369081,14,32,81,9,20,54,0.05550451,0.12292164,0.33116568,0.07515787,0.12831662,0.19136249
42105,0,USPennsylvaniaPotter,Pennsylvania,Potter,2021-04-04 05:08:09.597811,2020-04-19 00:00:00.000000,0.08057278,0.18593364,0.48466960,13,30,80,8,19,54,0.04997768,0.11969677,0.32801852,0.07375519,0.12621932,0.18766632
42105,0,USPennsylvaniaPotter,Pennsylvania,Potter,2021-04-04 05:08:09.597811,2020-04-20 00:00:00.000000,0.07413446,0.17821725,0.47518428,12,29,78,7,19,53,0.04694466,0.11519424,0.32181497,0.07251255,0.12459869,0.17868857
42105,0,USPennsylvaniaPotter,Pennsylvania,Potter,2021-04-04 05:08:09.597811,2020-04-21 00:00:00.000000,0.06845173,0.17039575,0.46542224,11,28,76,7,18,52,0.04444362,0.10966005,0.31496065,0.07094810,0.12275663,0.17870453
42105,0,USPennsylvaniaPotter,Pennsylvania,Potter,2021-04-04 05:08:09.597811,2020-04-22 00:00:00.000000,0.06239601,0.16320818,0.44920625,10,26,74,6,17,50,0.04127137,0.10459634,0.30753437,0.06988093,0.12151003,0.17822212
42105,0,USPennsylvaniaPotter,Pennsylvania,Potter,2021-04-04 05:08:09.597811,2020-04-23 00:00:00.000000,0.05708295,0.15605449,0.42983460,9,25,71,6,16,49,0.03804514,0.10068284,0.29962632,0.06815420,0.12098508,0.17749115
42105,0,USPennsylvaniaPotter,Pennsylvania,Potter,2021-04-04 05:08:09.597811,2020-04-24 00:00:00.000000,0.05215615,0.14934440,0.41414833,8,24,68,5,15,47,0.03502496,0.09639554,0.28766997,0.06766034,0.11771224,0.17716789
42105,0,USPennsylvaniaPotter,Pennsylvania,Potter,2021-04-04 05:08:09.597811,2020-04-25 00:00:00.000000,0.04757719,0.14187374,0.40666907,7,23,67,5,15,45,0.03221725,0.09164431,0.27561154,0.06751863,0.11290856,0.17431985
42105,0,USPennsylvaniaPotter,Pennsylvania,Potter,2021-04-04 05:08:09.597811,2020-04-26 00:00:00.000000,0.04333593,0.13342630,0.39878461,7,22,65,4,14,44,0.02962634,0.08738471,0.26830618,0.06679090,0.11104978,0.16420754
42105,0,USPennsylvaniaPotter,Pennsylvania,Potter,2021-04-04 05:08:09.597811,2020-04-27 00:00:00.000000,0.03962219,0.12641678,0.39077409,6,20,64,4,13,43,0.02724832,0.08304067,0.26398078,0.06634056,0.10843758,0.17223495
42105,0,USPennsylvaniaPotter,Pennsylvania,Potter,2021-04-04 05:08:09.597811,2020-04-28 00:00:00.000000,0.03647952,0.11819326,0.38274287,6,19,63,4,13,42,0.02506970,0.07919531,0.25887129,0.06613955,0.10739721,0.17502957
42105,0,USPennsylvaniaPotter,Pennsylvania,Potter,2021-04-04 05:08:09.597811,2020-04-29 00:00:00.000000,0.03359276,0.11159125,0.37470470,5,18,61,3,12,41,0.02307301,0.07482299,0.25086999,0.06605956,0.10699763,0.17512000
42105,0,USPennsylvaniaPotter,Pennsylvania,Potter,2021-04-04 05:08:09.597811,2020-04-30 00:00:00.000000,0.03093825,0.10595263,0.36661672,5,17,60,3,11,40,0.02124113,0.07090672,0.24297954,0.06406011,0.10687231,0.16905810
42105,0,USPennsylvaniaPotter,Pennsylvania,Potter,2021-04-04 05:08:09.597811,2020-05-01 00:00:00.000000,0.02849526,0.10072040,0.35820605,4,16,59,3,11,38,0.01955872,0.06746477,0.23520552,0.06357743,0.10540113,0.17392010
42105,0,USPennsylvaniaPotter,Pennsylvania,Potter,2021-04-04 05:08:09.597811,2020-05-02 00:00:00.000000,0.02624192,0.09738064,0.34723387,4,16,57,2,10,37,0.01801213,0.06354179,0.22752584,0.06241421,0.10528100,0.17814485
42105,0,USPennsylvaniaPotter,Pennsylvania,Potter,2021-04-04 05:08:09.597811,2020-05-03 00:00:00.000000,0.02415703,0.09374927,0.33639072,3,15,55,2,9,36,0.01658844,0.05958237,0.21989427,0.06020924,0.10239542,0.17717750
42105,0,USPennsylvaniaPotter,Pennsylvania,Potter,2021-04-04 05:08:09.597811,2020-05-04 00:00:00.000000,0.02223348,0.08798650,0.32568545,3,14,53,2,9,35,0.01516489,0.05514221,0.21226692,0.05761234,0.10100941,0.17756855
42105,0,USPennsylvaniaPotter,Pennsylvania,Potter,2021-04-04 05:08:09.597811,2020-05-05 00:00:00.000000,0.02046143,0.08159270,0.31313307,3,13,51,2,8,33,0.01366781,0.05170890,0.20463480,0.05620136,0.10077010,0.17771116
42105,0,USPennsylvaniaPotter,Pennsylvania,Potter,2021-04-04 05:08:09.597811,2020-05-06 00:00:00.000000,0.01882951,0.07571687,0.30017827,3,12,49,2,8,32,0.01230376,0.04948856,0.19702513,0.05569725,0.09916724,0.17799487
42105,0,USPennsylvaniaPotter,Pennsylvania,Potter,2021-04-04 05:08:09.597811,2020-05-07 00:00:00.000000,0.01732619,0.07104380,0.28753082,2,11,47,1,7,31,0.01106321,0.04737142,0.19153005,0.05485975,0.09575007,0.18119538
42105,0,USPennsylvaniaPotter,Pennsylvania,Potter,2021-04-04 05:08:09.597811,2020-05-08 00:00:00.000000,0.01593808,0.06665362,0.27511382,2,11,45,1,7,30,0.00993833,0.04517169,0.18670896,0.05276353,0.09463836,0.19053488
42105,0,USPennsylvaniaPotter,Pennsylvania,Potter,2021-04-04 05:08:09.597811,2020-05-09 00:00:00.000000,0.01464933,0.06261374,0.26275787,2,10,43,1,7,30,0.00892146,0.04333295,0.18176499,0.05236738,0.09505976,0.19192979
42105,0,USPennsylvaniaPotter,Pennsylvania,Potter,2021-04-04 05:08:09.597811,2020-05-10 00:00:00.000000,0.01329298,0.05896026,0.25032540,2,9,41,1,6,29,0.00800447,0.04161192,0.17671820,0.05198900,0.09539874,0.19209947
42105,0,USPennsylvaniaPotter,Pennsylvania,Potter,2021-04-04 05:08:09.597811,2020-05-11 00:00:00.000000,0.01190504,0.05551354,0.23789671,1,9,39,1,6,28,0.00717882,0.03903289,0.17159476,0.05097562,0.09485123,0.19213371
42105,0,USPennsylvaniaPotter,Pennsylvania,Potter,2021-04-04 05:08:09.597811,2020-05-12 00:00:00.000000,0.01065817,0.05174003,0.22567349,1,8,37,1,6,27,0.00643607,0.03652431,0.16642428,0.04952668,0.09373844,0.19498056
42105,0,USPennsylvaniaPotter,Pennsylvania,Potter,2021-04-04 05:08:09.597811,2020-05-13 00:00:00.000000,0.00953715,0.04851328,0.21378260,1,8,35,0,5,26,0.00576809,0.03416366,0.16123368,0.04856402,0.09186487,0.19503572
42105,0,USPennsylvaniaPotter,Pennsylvania,Potter,2021-04-04 05:08:09.597811,2020-05-14 00:00:00.000000,0.00852817,0.04574400,0.20360707,1,7,33,0,5,25,0.00516725,0.03194688,0.15603691,0.04865210,0.09055281,0.19498818
42105,0,USPennsylvaniaPotter,Pennsylvania,Potter,2021-04-04 05:08:09.597811,2020-05-15 00:00:00.000000,0.00761893,0.04338987,0.19594621,1,7,32,0,4,24,0.00462649,0.02983516,0.15082358,0.04884720,0.09057468,0.19493880
42105,0,USPennsylvaniaPotter,Pennsylvania,Potter,2021-04-04 05:08:09.597811,2020-05-16 00:00:00.000000,0.00679874,0.04148132,0.18820112,1,6,31,0,4,24,0.00413939,0.02771566,0.14556588,0.04921942,0.08737448,0.19480918
42105,0,USPennsylvaniaPotter,Pennsylvania,Potter,2021-04-04 05:08:09.597811,2020-05-17 00:00:00.000000,0.00605867,0.03952810,0.18050222,1,6,29,0,4,23,0.00370024,0.02622786,0.14025770,0.04793763,0.08613563,0.19306397
42105,0,USPennsylvaniaPotter,Pennsylvania,Potter,2021-04-04 05:08:09.597811,2020-05-18 00:00:00.000000,0.01307011,0.04943524,0.18782624,2,8,31,0,4,22,0.00330408,0.02490473,0.13493041,0.04404894,0.08363898,0.19253227
42105,0,USPennsylvaniaPotter,Pennsylvania,Potter,2021-04-04 05:08:09.597811,2020-05-19 00:00:00.000000,0.01896377,0.05747189,0.19520096,3,9,32,0,4,22,0.00546184,0.02675513,0.13345348,0.04327326,0.08314863,0.19081651
42105,0,USPennsylvaniaPotter,Pennsylvania,Potter,2021-04-04 05:08:09.597811,2020-05-20 00:00:00.000000,0.02360757,0.06813041,0.20336889,3,11,33,1,4,22,0.00754161,0.02953361,0.13454307,0.04317623,0.08394457,0.19216913
42105,0,USPennsylvaniaPotter,Pennsylvania,Potter,2021-04-04 05:08:09.597811,2020-05-21 00:00:00.000000,0.02719043,0.07761260,0.22080722,4,12,36,1,5,22,0.00971896,0.03235161,0.13722003,0.04262964,0.08393373,0.19190455
42105,0,USPennsylvaniaPotter,Pennsylvania,Potter,2021-04-04 05:08:09.597811,2020-05-22 00:00:00.000000,0.03067386,0.08541205,0.23817731,5,14,39,1,6,23,0.01139391,0.03704645,0.14086545,0.04019708,0.08165219,0.18871438
42105,0,USPennsylvaniaPotter,Pennsylvania,Potter,2021-04-04 05:08:09.597811,2020-05-23 00:00:00.000000,0.03406115,0.09156289,0.25604470,5,15,42,2,6,24,0.01351346,0.04138410,0.14683629,0.03920503,0.08046670,0.18687595
42105,0,USPennsylvaniaPotter,Pennsylvania,Potter,2021-04-04 05:08:09.597811,2020-05-24 00:00:00.000000,0.03729427,0.09940963,0.27347926,6,16,45,2,7,25,0.01513235,0.04761890,0.15357906,0.03856703,0.08034068,0.18448943
42105,0,USPennsylvaniaPotter,Pennsylvania,Potter,2021-04-04 05:08:09.597811,2020-05-25 00:00:00.000000,0.04570049,0.11318491,0.29146233,7,18,48,2,8,27,0.01710323,0.05226682,0.16776648,0.03727055,0.07973054,0.18689171
42105,0,USPennsylvaniaPotter,Pennsylvania,Potter,2021-04-04 05:08:09.597811,2020-05-26 00:00:00.000000,0.04936378,0.12719043,0.30892846,8,21,51,3,9,29,0.02087421,0.05735781,0.18033005,0.03637042,0.07881601,0.18771153
42105,0,USPennsylvaniaPotter,Pennsylvania,Potter,2021-04-04 05:08:09.597811,2020-05-27 00:00:00.000000,0.05274079,0.13458661,0.32583066,8,22,53,4,10,31,0.02428008,0.06172494,0.19209513,0.03584019,0.07808279,0.18865571
42105,0,USPennsylvaniaPotter,Pennsylvania,Potter,2021-04-04 05:08:09.597811,2020-05-28 00:00:00.000000,0.05594129,0.14154522,0.34130450,9,23,56,4,10,33,0.02667927,0.06405910,0.20377863,0.03592632,0.07757989,0.18981261
42105,0,USPennsylvaniaPotter,Pennsylvania,Potter,2021-04-04 05:08:09.597811,2020-05-29 00:00:00.000000,0.05966624,0.15006114,0.36150797,9,24,59,4,11,35,0.02860977,0.07052316,0.21505654,0.03712033,0.07548917,0.19109609
42105,0,USPennsylvaniaPotter,Pennsylvania,Potter,2021-04-04 05:08:09.597811,2020-05-30 00:00:00.000000,0.06252410,0.15343672,0.38158042,10,25,63,5,12,37,0.03124172,0.07814667,0.22559763,0.03792955,0.07303598,0.19263046
42105,0,USPennsylvaniaPotter,Pennsylvania,Potter,2021-04-04 05:08:09.597811,2020-05-31 00:00:00.000000,0.06524636,0.15801330,0.40203929,10,26,66,5,13,39,0.03379103,0.08184579,0.23926393,0.03799665,0.07314000,0.19420800
42105,0,USPennsylvaniaPotter,Pennsylvania,Potter,2021-04-04 05:08:09.597811,2020-06-01 00:00:00.000000,0.06769498,0.17578905,0.40053196,11,29,66,5,14,41,0.03486925,0.08935649,0.24824010,0.03779033,0.07243559,0.19553846
42105,0,USPennsylvaniaPotter,Pennsylvania,Potter,2021-04-04 05:08:09.597811,2020-06-02 00:00:00.000000,0.07143838,0.18462994,0.39808471,11,30,65,5,15,42,0.03584565,0.09384246,0.25539659,0.03762846,0.07250323,0.19647826
42105,0,USPennsylvaniaPotter,Pennsylvania,Potter,2021-04-04 05:08:09.597811,2020-06-03 00:00:00.000000,0.07511911,0.19957108,0.40902729,12,32,67,6,16,43,0.03727801,0.09895862,0.26129522,0.03733918,0.07183354,0.19704930
42105,0,USPennsylvaniaPotter,Pennsylvania,Potter,2021-04-04 05:08:09.597811,2020-06-04 00:00:00.000000,0.07864551,0.20126858,0.40680345,12,33,67,6,17,43,0.03925389,0.10354672,0.26487752,0.03707580,0.07170034,0.19732550
42105,0,USPennsylvaniaPotter,Pennsylvania,Potter,2021-04-04 05:08:09.597811,2020-06-05 00:00:00.000000,0.08204733,0.20319047,0.41118403,13,33,67,6,17,43,0.04123858,0.10299607,0.26385943,0.03695146,0.07096789,0.19707254
42105,0,USPennsylvaniaPotter,Pennsylvania,Potter,2021-04-04 05:08:09.597811,2020-06-06 00:00:00.000000,0.08367841,0.20279748,0.41523522,13,33,68,7,17,44,0.04318645,0.10516170,0.27151870,0.03672078,0.07013573,0.18809989
42105,0,USPennsylvaniaPotter,Pennsylvania,Potter,2021-04-04 05:08:09.597811,2020-06-07 00:00:00.000000,0.08358921,0.19545821,0.41889462,13,32,69,7,17,45,0.04417261,0.10801065,0.27830122,0.03577522,0.06883409,0.18428039
42105,0,USPennsylvaniaPotter,Pennsylvania,Potter,2021-04-04 05:08:09.597811,2020-06-08 00:00:00.000000,0.09094451,0.20437474,0.41986409,15,33,69,7,17,46,0.04420513,0.10819097,0.28159468,0.03531263,0.06776707,0.17471156
42105,0,USPennsylvaniaPotter,Pennsylvania,Potter,2021-04-04 05:08:09.597811,2020-06-09 00:00:00.000000,0.09404793,0.20941576,0.42049196,15,34,69,7,18,46,0.04575990,0.10953931,0.28398727,0.03520403,0.06754490,0.16984132
42105,0,USPennsylvaniaPotter,Pennsylvania,Potter,2021-04-04 05:08:09.597811,2020-06-10 00:00:00.000000,0.09629643,0.21155522,0.42073542,15,34,69,7,18,47,0.04828409,0.11105433,0.28570458,0.03542395,0.06782474,0.16873097
42105,0,USPennsylvaniaPotter,Pennsylvania,Potter,2021-04-04 05:08:09.597811,2020-06-11 00:00:00.000000,0.09822457,0.21606455,0.42054724,16,35,69,8,18,47,0.04950680,0.11248803,0.28689708,0.03602702,0.06808626,0.16713801
42105,0,USPennsylvaniaPotter,Pennsylvania,Potter,2021-04-04 05:08:09.597811,2020-06-12 00:00:00.000000,0.09988579,0.21330734,0.41978654,16,35,69,8,18,47,0.05118522,0.11386274,0.28764769,0.03482120,0.06705058,0.16496562
42105,0,USPennsylvaniaPotter,Pennsylvania,Potter,2021-04-04 05:08:09.597811,2020-06-13 00:00:00.000000,0.10137078,0.21487817,0.42155590,16,35,69,8,19,47,0.05204510,0.11510885,0.28797456,0.03262769,0.06707866,0.16221600
42105,0,USPennsylvaniaPotter,Pennsylvania,Potter,2021-04-04 05:08:09.597811,2020-06-14 00:00:00.000000,0.10271603,0.21621798,0.42543621,16,35,70,8,19,47,0.05301958,0.11655629,0.28784946,0.03254612,0.06412314,0.15903835
42105,0,USPennsylvaniaPotter,Pennsylvania,Potter,2021-04-04 05:08:09.597811,2020-06-15 00:00:00.000000,0.10214101,0.21532053,0.41772517,16,35,69,8,18,47,0.05406652,0.11464205,0.28843665,0.03255299,0.06371768,0.15569863
42105,0,USPennsylvaniaPotter,Pennsylvania,Potter,2021-04-04 05:08:09.597811,2020-06-16 00:00:00.000000,0.10551435,0.21135600,0.40951618,17,34,67,8,18,47,0.05426519,0.11202978,0.28861854,0.03262609,0.06329124,0.15241238
42105,0,USPennsylvaniaPotter,Pennsylvania,Potter,2021-04-04 05:08:09.597811,2020-06-17 00:00:00.000000,0.10914959,0.20530398,0.40055377,18,33,66,8,18,47,0.05412525,0.11151234,0.28604599,0.03290152,0.06261911,0.14907417
42105,0,USPennsylvaniaPotter,Pennsylvania,Potter,2021-04-04 05:08:09.597811,2020-06-18 00:00:00.000000,0.11018010,0.20268540,0.39120585,18,33,64,8,18,46,0.05351624,0.10985162,0.28173558,0.03101704,0.06337325,0.14510069
42105,0,USPennsylvaniaPotter,Pennsylvania,Potter,2021-04-04 05:08:09.597811,2020-06-19 00:00:00.000000,0.11126233,0.20751724,0.38166668,18,34,63,8,18,45,0.05342092,0.11329359,0.27635134,0.02952975,0.06423736,0.14234509
42105,0,USPennsylvaniaPotter,Pennsylvania,Potter,2021-04-04 05:08:09.597811,2020-06-20 00:00:00.000000,0.11069784,0.21128868,0.38528876,18,34,63,8,18,44,0.05286881,0.11225947,0.27031569,0.03126716,0.06393851,0.14559546
42105,0,USPennsylvaniaPotter,Pennsylvania,Potter,2021-04-04 05:08:09.597811,2020-06-21 00:00:00.000000,0.10990574,0.21055242,0.39976738,18,34,66,8,18,43,0.05246434,0.11070066,0.26388624,0.03383430,0.06254068,0.14563223
42105,0,USPennsylvaniaPotter,Pennsylvania,Potter,2021-04-04 05:08:09.597811,2020-06-22 00:00:00.000000,0.11155598,0.20993332,0.39003908,18,34,64,8,18,42,0.05216037,0.11030996,0.25720726,0.03640317,0.06216849,0.14618261
42105,0,USPennsylvaniaPotter,Pennsylvania,Potter,2021-04-04 05:08:09.597811,2020-06-23 00:00:00.000000,0.11296127,0.20977711,0.37878335,18,34,62,8,18,42,0.05247089,0.11189286,0.25533816,0.03809977,0.06160407,0.14493420
42105,0,USPennsylvaniaPotter,Pennsylvania,Potter,2021-04-04 05:08:09.597811,2020-06-24 00:00:00.000000,0.11442467,0.20792945,0.36627214,18,34,60,8,18,41,0.05391239,0.11162271,0.25338468,0.03823321,0.06141481,0.14145431
42105,0,USPennsylvaniaPotter,Pennsylvania,Potter,2021-04-04 05:08:09.597811,2020-06-25 00:00:00.000000,0.11586555,0.21155707,0.37088446,19,34,61,9,18,41,0.05573926,0.11339930,0.25044716,0.03879469,0.06156411,0.13882915
42105,0,USPennsylvaniaPotter,Pennsylvania,Potter,2021-04-04 05:08:09.597811,2020-06-26 00:00:00.000000,0.11495315,0.21339531,0.37590346,18,35,62,9,18,40,0.05773335,0.11434120,0.24700867,0.03735296,0.06223153,0.14121678
42105,0,USPennsylvaniaPotter,Pennsylvania,Potter,2021-04-04 05:08:09.597811,2020-06-27 00:00:00.000000,0.11645543,0.21707925,0.37446358,19,35,61,9,18,40,0.05975521,0.11229620,0.24739096,0.03712907,0.06277282,0.14504842
42105,0,USPennsylvaniaPotter,Pennsylvania,Potter,2021-04-04 05:08:09.597811,2020-06-28 00:00:00.000000,0.11504619,0.21706992,0.37783259,19,35,62,9,18,41,0.06037589,0.11174623,0.25050669,0.03719323,0.06292799,0.14456897
42105,0,USPennsylvaniaPotter,Pennsylvania,Potter,2021-04-04 05:08:09.597811,2020-06-29 00:00:00.000000,0.11609685,0.21657429,0.37186546,19,35,61,9,18,41,0.05736196,0.11410861,0.25383393,0.03730993,0.06266163,0.13990517
42105,0,USPennsylvaniaPotter,Pennsylvania,Potter,2021-04-04 05:08:09.597811,2020-06-30 00:00:00.000000,0.11285230,0.21656656,0.35916721,18,35,59,9,18,42,0.05505054,0.11478620,0.25466579,0.03571428,0.06221113,0.13930768
42105,0,USPennsylvaniaPotter,Pennsylvania,Potter,2021-04-04 05:08:09.597811,2020-07-01 00:00:00.000000,0.10972508,0.21743993,0.34540498,18,35,57,8,18,41,0.05400705,0.11357788,0.24979979,0.03405982,0.06283343,0.14060742
42105,0,USPennsylvaniaPotter,Pennsylvania,Potter,2021-04-04 05:08:09.597811,2020-07-02 00:00:00.000000,0.10668126,0.22036269,0.34306193,17,36,56,8,18,40,0.05268188,0.11262512,0.24276122,0.03450583,0.06479869,0.14208638
42105,0,USPennsylvaniaPotter,Pennsylvania,Potter,2021-04-04 05:08:09.597811,2020-07-03 00:00:00.000000,0.10597079,0.22026393,0.34320437,17,36,56,8,19,38,0.05124705,0.11527699,0.23576005,0.03383598,0.06556268,0.14385080
42105,0,USPennsylvaniaPotter,Pennsylvania,Potter,2021-04-04 05:08:09.597811,2020-07-04 00:00:00.000000,0.10077611,0.21548096,0.33913578,16,35,56,8,19,38,0.04988354,0.11739486,0.23264438,0.03349086,0.06620484,0.14587892
42105,0,USPennsylvaniaPotter,Pennsylvania,Potter,2021-04-04 05:08:09.597811,2020-07-05 00:00:00.000000,0.09813831,0.21150385,0.33961872,16,34,56,8,20,38,0.04855240,0.12196390,0.23301754,0.03335344,0.06925204,0.14043697
42105,0,USPennsylvaniaPotter,Pennsylvania,Potter,2021-04-04 05:08:09.597811,2020-07-06 00:00:00.000000,0.09886284,0.21143620,0.34325201,16,34,56,7,20,38,0.04723095,0.12239880,0.23330437,0.03161719,0.06902397,0.13494164
42105,0,USPennsylvaniaPotter,Pennsylvania,Potter,2021-04-04 05:08:09.597811,2020-07-07 00:00:00.000000,0.10468000,0.21192115,0.33835834,17,35,55,7,20,38,0.04624236,0.12128678,0.23114417,0.03152331,0.06811136,0.13259622
42105,0,USPennsylvaniaPotter,Pennsylvania,Potter,2021-04-04 05:08:09.597811,2020-07-08 00:00:00.000000,0.09942720,0.20940646,0.34532618,16,34,57,7,20,38,0.04637081,0.12238746,0.23048434,0.03125233,0.06713313,0.13205310
42105,0,USPennsylvaniaPotter,Pennsylvania,Potter,2021-04-04 05:08:09.597811,2020-07-09 00:00:00.000000,0.09449621,0.20787850,0.35354861,15,34,58,8,20,36,0.04877281,0.12268482,0.22190150,0.03127035,0.06816178,0.13625878
42105,0,USPennsylvaniaPotter,Pennsylvania,Potter,2021-04-04 05:08:09.597811,2020-07-10 00:00:00.000000,0.09273747,0.20901763,0.37088146,15,34,61,8,19,36,0.05170399,0.11836401,0.21973581,0.03133720,0.06982884,0.13783013
42105,0,USPennsylvaniaPotter,Pennsylvania,Potter,2021-04-04 05:08:09.597811,2020-07-11 00:00:00.000000,0.09205923,0.20989344,0.38800839,15,34,64,8,19,36,0.05141460,0.11615808,0.22377893,0.03149100,0.07265662,0.13900231
42105,0,USPennsylvaniaPotter,Pennsylvania,Potter,2021-04-04 05:08:09.597811,2020-07-12 00:00:00.000000,0.09147667,0.21270354,0.40309124,15,35,66,8,19,37,0.04891024,0.11562167,0.22985759,0.03150527,0.07156383,0.14084246
42105,0,USPennsylvaniaPotter,Pennsylvania,Potter,2021-04-04 05:08:09.597811,2020-07-13 00:00:00.000000,0.08633001,0.21091030,0.40454097,14,34,66,7,18,39,0.04656001,0.11399836,0.23983140,0.03154586,0.07001987,0.14006475
42105,0,USPennsylvaniaPotter,Pennsylvania,Potter,2021-04-04 05:08:09.597811,2020-07-14 00:00:00.000000,0.08928246,0.20685207,0.41951611,14,34,69,7,18,40,0.04616844,0.11464690,0.24755587,0.03161999,0.07182201,0.14052657
42105,0,USPennsylvaniaPotter,Pennsylvania,Potter,2021-04-04 05:08:09.597811,2020-07-15 00:00:00.000000,0.08977149,0.20476944,0.42572944,14,33,70,7,19,41,0.04700693,0.11688344,0.25357439,0.03176736,0.07119290,0.14056911
42105,0,USPennsylvaniaPotter,Pennsylvania,Potter,2021-04-04 05:08:09.597811,2020-07-16 00:00:00.000000,0.08769152,0.20496606,0.43106751,14,33,71,8,19,42,0.04858733,0.11660961,0.25862810,0.03305151,0.07070833,0.14038734
42105,0,USPennsylvaniaPotter,Pennsylvania,Potter,2021-04-04 05:08:09.597811,2020-07-17 00:00:00.000000,0.08275895,0.20828040,0.43435635,13,34,71,7,19,43,0.04756428,0.11878259,0.26288813,0.03402504,0.07186190,0.13998671
42105,0,USPennsylvaniaPotter,Pennsylvania,Potter,2021-04-04 05:08:09.597811,2020-07-18 00:00:00.000000,0.07821404,0.20585192,0.43357107,12,34,71,7,20,44,0.04495113,0.12193833,0.26673844,0.03439477,0.07148064,0.13937421
42105,0,USPennsylvaniaPotter,Pennsylvania,Potter,2021-04-04 05:08:09.597811,2020-07-19 00:00:00.000000,0.07405980,0.20016914,0.44775840,12,33,73,7,20,44,0.04248175,0.12336306,0.27044647,0.03487512,0.07111111,0.13982826
42105,0,USPennsylvaniaPotter,Pennsylvania,Potter,2021-04-04 05:08:09.597811,2020-07-20 00:00:00.000000,0.06728484,0.18754577,0.42870412,11,30,70,6,19,45,0.04017882,0.11870578,0.27388665,0.03489244,0.07146263,0.13860649
42105,0,USPennsylvaniaPotter,Pennsylvania,Potter,2021-04-04 05:08:09.597811,2020-07-21 00:00:00.000000,0.06089404,0.17567591,0.40906521,10,29,67,6,18,44,0.03742653,0.11305891,0.26982736,0.03547622,0.07223065,0.13721395
42105,0,USPennsylvaniaPotter,Pennsylvania,Potter,2021-04-04 05:08:09.597811,2020-07-22 00:00:00.000000,0.05502839,0.16453523,0.38779639,9,27,64,5,17,43,0.03447001,0.10688553,0.26148064,0.03577752,0.07201883,0.13696503
42105,0,USPennsylvaniaPotter,Pennsylvania,Potter,2021-04-04 05:08:09.597811,2020-07-23 00:00:00.000000,0.04934517,0.15381534,0.36568466,8,25,60,5,16,41,0.03169580,0.10120358,0.25062362,0.03577122,0.07195694,0.13740695
42105,0,USPennsylvaniaPotter,Pennsylvania,Potter,2021-04-04 05:08:09.597811,2020-07-24 00:00:00.000000,0.04414304,0.14330467,0.34748303,7,23,57,4,15,39,0.02881491,0.09533511,0.23832133,0.03575900,0.07201657,0.13888355
42105,0,USPennsylvaniaPotter,Pennsylvania,Potter,2021-04-04 05:08:09.597811,2020-07-25 00:00:00.000000,0.03949810,0.13405330,0.33119140,6,22,54,4,14,37,0.02593408,0.08962535,0.22533377,0.03574041,0.07300510,0.14116574
42105,0,USPennsylvaniaPotter,Pennsylvania,Potter,2021-04-04 05:08:09.597811,2020-07-26 00:00:00.000000,0.03531307,0.12605841,0.31049955,5,20,51,3,13,35,0.02320968,0.08367027,0.21221072,0.03726775,0.07396534,0.14312283
42105,0,USPennsylvaniaPotter,Pennsylvania,Potter,2021-04-04 05:08:09.597811,2020-07-27 00:00:00.000000,0.03898158,0.12854880,0.29572117,6,21,48,3,12,33,0.02083494,0.07812404,0.20318489,0.03923946,0.07519694,0.14422883
42105,0,USPennsylvaniaPotter,Pennsylvania,Potter,2021-04-04 05:08:09.597811,2020-07-28 00:00:00.000000,0.04311969,0.13437686,0.29115145,7,22,48,3,12,32,0.02020514,0.07707575,0.19775717,0.03843498,0.07491458,0.14470601
42105,0,USPennsylvaniaPotter,Pennsylvania,Potter,2021-04-04 05:08:09.597811,2020-07-29 00:00:00.000000,0.04778206,0.13674040,0.29559046,7,22,48,3,12,32,0.02073651,0.07477068,0.19406313,0.03751660,0.07477827,0.14485275
42105,0,USPennsylvaniaPotter,Pennsylvania,Potter,2021-04-04 05:08:09.597811,2020-07-30 00:00:00.000000,0.05260028,0.13982835,0.29699696,8,23,49,3,12,31,0.02201580,0.07380417,0.19128139,0.03694230,0.07442058,0.14444362
42105,0,USPennsylvaniaPotter,Pennsylvania,Potter,2021-04-04 05:08:09.597811,2020-07-31 00:00:00.000000,0.05739994,0.14324754,0.29344838,9,23,48,3,12,31,0.02382372,0.07642245,0.19173698,0.03745114,0.07679794,0.14176630
42105,0,USPennsylvaniaPotter,Pennsylvania,Potter,2021-04-04 05:08:09.597811,2020-08-01 00:00:00.000000,0.06372864,0.14803200,0.30252958,10,24,49,4,12,32,0.02588991,0.07551871,0.19674115,0.04058453,0.07631685,0.14225811
42105,0,USPennsylvaniaPotter,Pennsylvania,Potter,2021-04-04 05:08:09.597811,2020-08-02 00:00:00.000000,0.06629302,0.14834913,0.30773194,10,24,50,4,12,33,0.02806404,0.07672945,0.20214380,0.04376520,0.07541176,0.14561641
42105,0,USPennsylvaniaPotter,Pennsylvania,Potter,2021-04-04 05:08:09.597811,2020-08-03 00:00:00.000000,0.06970036,0.14583664,0.30521779,11,24,50,4,12,33,0.02971142,0.07858059,0.20165583,0.04453687,0.07546401,0.14676620
42105,0,USPennsylvaniaPotter,Pennsylvania,Potter,2021-04-04 05:08:09.597811,2020-08-04 00:00:00.000000,0.07891803,0.14602225,0.30227525,13,24,49,5,13,32,0.03354423,0.08033456,0.19771639,0.04486519,0.07695976,0.14889916
42105,0,USPennsylvaniaPotter,Pennsylvania,Potter,2021-04-04 05:08:09.597811,2020-08-05 00:00:00.000000,0.08333438,0.14959542,0.29890942,13,24,49,6,13,32,0.03783704,0.08077838,0.19598483,0.04505741,0.07675417,0.15108157
42105,0,USPennsylvaniaPotter,Pennsylvania,Potter,2021-04-04 05:08:09.597811,2020-08-06 00:00:00.000000,0.08343718,0.14847886,0.29535874,13,24,48,6,13,32,0.04222942,0.08247941,0.19578285,0.04442334,0.07700910,0.15531287
42105,0,USPennsylvaniaPotter,Pennsylvania,Potter,2021-04-04 05:08:09.597811,2020-08-07 00:00:00.000000,0.08352141,0.15280055,0.29138497,13,25,48,7,13,32,0.04415907,0.08439528,0.19661534,0.04626119,0.07883487,0.15650987
42105,0,USPennsylvaniaPotter,Pennsylvania,Potter,2021-04-04 05:08:09.597811,2020-08-08 00:00:00.000000,0.08358381,0.15884481,0.29447758,13,26,48,7,14,32,0.04518800,0.08741796,0.19811561,0.04717298,0.07671133,0.16170584
42105,0,USPennsylvaniaPotter,Pennsylvania,Potter,2021-04-04 05:08:09.597811,2020-08-09 00:00:00.000000,0.08361157,0.16061692,0.30303062,13,26,50,7,14,32,0.04360394,0.08853749,0.19942143,0.04659976,0.07743914,0.16373840
42105,0,USPennsylvaniaPotter,Pennsylvania,Potter,2021-04-04 05:08:09.597811,2020-08-10 00:00:00.000000,0.08754390,0.16152831,0.30920049,14,26,51,7,14,33,0.04387585,0.08991100,0.20209190,0.04619034,0.08075816,0.16896364
42105,0,USPennsylvaniaPotter,Pennsylvania,Potter,2021-04-04 05:08:09.597811,2020-08-11 00:00:00.000000,0.09358363,0.16367562,0.31977681,15,27,52,7,15,33,0.04654673,0.09255393,0.20212465,0.04700206,0.08005366,0.17072261
42105,0,USPennsylvaniaPotter,Pennsylvania,Potter,2021-04-04 05:08:09.597811,2020-08-12 00:00:00.000000,0.09970955,0.16633195,0.31946299,16,27,52,8,15,33,0.05121620,0.09500999,0.20199029,0.04966795,0.08277210,0.17113147
42105,0,USPennsylvaniaPotter,Pennsylvania,Potter,2021-04-04 05:08:09.597811,2020-08-13 00:00:00.000000,0.10353207,0.16853184,0.34075293,17,27,56,8,15,33,0.05424430,0.09523154,0.20295122,0.05136679,0.08524462,0.17131706
42105,0,USPennsylvaniaPotter,Pennsylvania,Potter,2021-04-04 05:08:09.597811,2020-08-14 00:00:00.000000,0.10805320,0.16939616,0.35124173,17,27,58,9,15,33,0.05530536,0.09648288,0.20399385,0.05541475,0.08757393,0.17164540
42105,0,USPennsylvaniaPotter,Pennsylvania,Potter,2021-04-04 05:08:09.597811,2020-08-15 00:00:00.000000,0.10940684,0.17737786,0.36115730,18,29,59,8,16,33,0.05438386,0.09713459,0.20268550,0.05506111,0.08859374,0.17253804
42105,0,USPennsylvaniaPotter,Pennsylvania,Potter,2021-04-04 05:08:09.597811,2020-08-16 00:00:00.000000,0.10647465,0.18005155,0.37044784,17,29,61,8,16,34,0.05318996,0.09811176,0.20638863,0.05451441,0.09045253,0.17450308
42105,0,USPennsylvaniaPotter,Pennsylvania,Potter,2021-04-04 05:08:09.597811,2020-08-17 00:00:00.000000,0.10198085,0.18085360,0.37487815,16,29,61,8,16,34,0.05273865,0.09910857,0.20778528,0.05362276,0.09265084,0.17774951
42105,0,USPennsylvaniaPotter,Pennsylvania,Potter,2021-04-04 05:08:09.597811,2020-08-18 00:00:00.000000,0.10827439,0.18207507,0.37865836,17,30,62,8,16,34,0.05381279,0.10036573,0.21030108,0.05573153,0.09320908,0.17319086
42105,0,USPennsylvaniaPotter,Pennsylvania,Potter,2021-04-04 05:08:09.597811,2020-08-19 00:00:00.000000,0.10769321,0.18208181,0.38162335,17,30,63,9,16,35,0.05502760,0.10124017,0.21352716,0.05840753,0.09387472,0.17279298
42105,0,USPennsylvaniaPotter,Pennsylvania,Potter,2021-04-04 05:08:09.597811,2020-08-20 00:00:00.000000,0.10516353,0.18333073,0.38420371,17,30,63,8,16,35,0.05422008,0.10285854,0.21718410,0.05964019,0.09357898,0.17283142
42105,0,USPennsylvaniaPotter,Pennsylvania,Potter,2021-04-04 05:08:09.597811,2020-08-21 00:00:00.000000,0.10199594,0.18466087,0.37991299,16,30,62,8,16,36,0.05366423,0.10216065,0.22108143,0.05930534,0.09578154,0.17290976
42105,0,USPennsylvaniaPotter,Pennsylvania,Potter,2021-04-04 05:08:09.597811,2020-08-22 00:00:00.000000,0.09897111,0.18663556,0.37007203,16,30,61,8,17,37,0.05329010,0.10356702,0.22508031,0.05926694,0.09557358,0.17334342
42105,0,USPennsylvaniaPotter,Pennsylvania,Potter,2021-04-04 05:08:09.597811,2020-08-23 00:00:00.000000,0.09618107,0.18837454,0.39127515,15,31,64,8,17,37,0.05304418,0.10427265,0.22893310,0.05938290,0.09757212,0.17039111
42105,0,USPennsylvaniaPotter,Pennsylvania,Potter,2021-04-04 05:08:09.597811,2020-08-24 00:00:00.000000,0.10440674,0.18810065,0.38887153,17,31,64,8,17,38,0.05185314,0.10398595,0.23163899,0.05966348,0.10044614,0.17007565
42105,0,USPennsylvaniaPotter,Pennsylvania,Potter,2021-04-04 05:08:09.597811,2020-08-25 00:00:00.000000,0.10704507,0.19127009,0.38516215,17,31,63,8,17,37,0.05086204,0.10474112,0.22986857,0.06079802,0.10070907,0.17575460
42105,0,USPennsylvaniaPotter,Pennsylvania,Potter,2021-04-04 05:08:09.597811,2020-08-26 00:00:00.000000,0.10848082,0.19635945,0.38294575,17,32,63,8,17,38,0.05023529,0.10547316,0.23034757,0.06293004,0.10276688,0.17574700
42105,0,USPennsylvaniaPotter,Pennsylvania,Potter,2021-04-04 05:08:09.597811,2020-08-27 00:00:00.000000,0.10814443,0.20410544,0.39106008,17,33,64,8,17,37,0.05313502,0.10814486,0.22789238,0.06276315,0.10503443,0.17532636
42105,0,USPennsylvaniaPotter,Pennsylvania,Potter,2021-04-04 05:08:09.597811,2020-08-28 00:00:00.000000,0.10799657,0.20761652,0.39777248,17,34,65,9,18,37,0.05781290,0.11175621,0.22414063,0.06290991,0.10567108,0.17435929
42105,0,USPennsylvaniaPotter,Pennsylvania,Potter,2021-04-04 05:08:09.597811,2020-08-29 00:00:00.000000,0.10798561,0.20545341,0.39817746,17,33,65,9,19,36,0.05955552,0.11637096,0.22059231,0.06556533,0.10841145,0.17265882
42105,0,USPennsylvaniaPotter,Pennsylvania,Potter,2021-04-04 05:08:09.597811,2020-08-30 00:00:00.000000,0.10807307,0.20717402,0.39844970,17,34,65,10,19,36,0.06071803,0.11733855,0.22116289,0.06884717,0.11006908,0.16985927
42105,0,USPennsylvaniaPotter,Pennsylvania,Potter,2021-04-04 05:08:09.597811,2020-08-31 00:00:00.000000,0.10036295,0.19967896,0.38472266,16,32,63,10,19,36,0.06074652,0.11934126,0.22159502,0.06957628,0.11045439,0.16558653
42105,0,USPennsylvaniaPotter,Pennsylvania,Potter,2021-04-04 05:08:09.597811,2020-09-01 00:00:00.000000,0.09301757,0.19249207,0.37093119,15,31,61,9,19,36,0.05996647,0.11776698,0.21926510,0.06952239,0.11458522,0.17634846
42105,0,USPennsylvaniaPotter,Pennsylvania,Potter,2021-04-04 05:08:09.597811,2020-09-02 00:00:00.000000,0.08888569,0.18568666,0.35691950,14,30,58,9,18,35,0.05862923,0.11472654,0.21504808,0.06949489,0.11610713,0.18248542
42105,0,USPennsylvaniaPotter,Pennsylvania,Potter,2021-04-04 05:08:09.597811,2020-09-03 00:00:00.000000,0.08484120,0.17921166,0.34293203,14,29,56,9,18,34,0.05691945,0.11067767,0.20957218,0.06950546,0.11856342,0.18368303
42105,0,USPennsylvaniaPotter,Pennsylvania,Potter,2021-04-04 05:08:09.597811,2020-09-04 00:00:00.000000,0.08097004,0.17272866,0.33016740,13,28,54,9,17,34,0.05476762,0.10527756,0.20609958,0.06817167,0.11892513,0.18201499
42105,0,USPennsylvaniaPotter,Pennsylvania,Potter,2021-04-04 05:08:09.597811,2020-09-05 00:00:00.000000,0.07733454,0.16575682,0.31678012,12,27,52,8,16,33,0.05141066,0.10147934,0.20299458,0.06796499,0.12079593,0.18345519
42105,0,USPennsylvaniaPotter,Pennsylvania,Potter,2021-04-04 05:08:09.597811,2020-09-06 00:00:00.000000,0.07396614,0.15920807,0.30948556,12,26,51,7,15,32,0.04813905,0.09673298,0.19946563,0.06798545,0.12329987,0.18509856
42105,0,USPennsylvaniaPotter,Pennsylvania,Potter,2021-04-04 05:08:09.597811,2020-09-07 00:00:00.000000,0.07992516,0.16018729,0.31091027,13,26,51,7,15,32,0.04502014,0.09207263,0.19562693,0.06868386,0.12660333,0.19888672
42105,0,USPennsylvaniaPotter,Pennsylvania,Potter,2021-04-04 05:08:09.597811,2020-09-08 00:00:00.000000,0.08194871,0.16358605,0.31994673,13,27,52,7,15,31,0.04432451,0.09140258,0.19325532,0.06853607,0.13130104,0.20174815
42105,0,USPennsylvaniaPotter,Pennsylvania,Potter,2021-04-04 05:08:09.597811,2020-09-09 00:00:00.000000,0.08272337,0.16592876,0.33151098,13,27,54,7,15,32,0.04507247,0.09656638,0.19573115,0.06852996,0.13613836,0.20469622
42105,0,USPennsylvaniaPotter,Pennsylvania,Potter,2021-04-04 05:08:09.597811,2020-09-10 00:00:00.000000,0.08429496,0.17011287,0.34428177,13,28,56,7,15,32,0.04608951,0.09632570,0.19466530,0.06870748,0.13923194,0.20967357
42105,0,USPennsylvaniaPotter,Pennsylvania,Potter,2021-04-04 05:08:09.597811,2020-09-11 00:00:00.000000,0.08359703,0.17247118,0.35923933,13,28,59,7,16,33,0.04454956,0.09698520,0.20321422,0.07006157,0.14389043,0.21877986
42105,0,USPennsylvaniaPotter,Pennsylvania,Potter,2021-04-04 05:08:09.597811,2020-09-12 00:00:00.000000,0.08326581,0.17543694,0.37284634,13,28,61,7,16,34,0.04473189,0.09707362,0.21087181,0.07616244,0.14711906,0.23186416
42105,0,USPennsylvaniaPotter,Pennsylvania,Potter,2021-04-04 05:08:09.597811,2020-09-13 00:00:00.000000,0.08317576,0.17924231,0.39116493,13,29,64,7,15,36,0.04751889,0.09546769,0.21817046,0.07714833,0.15088495,0.23484358
42105,0,USPennsylvaniaPotter,Pennsylvania,Potter,2021-04-04 05:08:09.597811,2020-09-14 00:00:00.000000,0.08894034,0.18579395,0.40324998,14,30,66,7,15,37,0.04704392,0.09539354,0.22630871,0.07899033,0.15285076,0.23809994
42105,0,USPennsylvaniaPotter,Pennsylvania,Potter,2021-04-04 05:08:09.597811,2020-09-15 00:00:00.000000,0.09490638,0.19166335,0.41465800,15,31,68,7,16,38,0.04777432,0.09866291,0.23215210,0.08092526,0.15417095,0.23924431
42105,0,USPennsylvaniaPotter,Pennsylvania,Potter,2021-04-04 05:08:09.597811,2020-09-16 00:00:00.000000,0.10090677,0.20074647,0.43768329,16,33,72,8,16,39,0.04936804,0.10116117,0.23715009,0.08212994,0.15812848,0.25895800
42105,0,USPennsylvaniaPotter,Pennsylvania,Potter,2021-04-04 05:08:09.597811,2020-09-17 00:00:00.000000,0.10520517,0.20758932,0.46952088,17,34,77,8,17,40,0.05159724,0.10684131,0.24211558,0.08263718,0.16159389,0.25804575
42105,0,USPennsylvaniaPotter,Pennsylvania,Potter,2021-04-04 05:08:09.597811,2020-09-18 00:00:00.000000,0.10810933,0.21343755,0.48435019,17,35,80,8,18,40,0.05435409,0.11296323,0.24721321,0.08283894,0.16386671,0.25754581
42105,0,USPennsylvaniaPotter,Pennsylvania,Potter,2021-04-04 05:08:09.597811,2020-09-19 00:00:00.000000,0.11275528,0.22122090,0.49193831,18,36,81,9,19,41,0.05750438,0.11853345,0.25243724,0.08302169,0.17215261,0.27206702
42105,0,USPennsylvaniaPotter,Pennsylvania,Potter,2021-04-04 05:08:09.597811,2020-09-20 00:00:00.000000,0.11774659,0.23083047,0.50727193,19,38,83,9,20,42,0.05987839,0.12529761,0.25775611,0.08668837,0.17829329,0.28732400
42105,0,USPennsylvaniaPotter,Pennsylvania,Potter,2021-04-04 05:08:09.597811,2020-09-21 00:00:00.000000,0.13000187,0.24080234,0.52688005,21,39,87,10,21,45,0.06202753,0.12799731,0.27402551,0.09192201,0.17903200,0.30535702
42105,0,USPennsylvaniaPotter,Pennsylvania,Potter,2021-04-04 05:08:09.597811,2020-09-22 00:00:00.000000,0.13425256,0.24825442,0.54661817,22,41,90,10,21,47,0.06266474,0.13293912,0.28581852,0.09734195,0.18285748,0.31293908
42105,0,USPennsylvaniaPotter,Pennsylvania,Potter,2021-04-04 05:08:09.597811,2020-09-23 00:00:00.000000,0.13862677,0.25126011,0.56649885,22,41,93,10,22,51,0.06366902,0.13707224,0.31034088,0.09990500,0.18826980,0.32260363
42105,0,USPennsylvaniaPotter,Pennsylvania,Potter,2021-04-04 05:08:09.597811,2020-09-24 00:00:00.000000,0.14625400,0.26214425,0.58214978,24,43,96,11,23,54,0.06875652,0.14182673,0.32760086,0.10279231,0.19410795,0.32769097
42105,0,USPennsylvaniaPotter,Pennsylvania,Potter,2021-04-04 05:08:09.597811,2020-09-25 00:00:00.000000,0.15216784,0.27243709,0.58952563,25,45,97,12,23,53,0.07330070,0.14468022,0.32413083,0.10226542,0.19507273,0.33407296
42105,0,USPennsylvaniaPotter,Pennsylvania,Potter,2021-04-04 05:08:09.597811,2020-09-26 00:00:00.000000,0.15177603,0.28042577,0.62468014,25,46,103,11,24,52,0.07248651,0.14852642,0.32051847,0.10221037,0.19723181,0.34423580
42105,0,USPennsylvaniaPotter,Pennsylvania,Potter,2021-04-04 05:08:09.597811,2020-09-27 00:00:00.000000,0.16127205,0.28986975,0.64947615,26,47,107,12,25,52,0.07469799,0.15557438,0.31693392,0.10253345,0.19872764,0.34628412
42105,0,USPennsylvaniaPotter,Pennsylvania,Potter,2021-04-04 05:08:09.597811,2020-09-28 00:00:00.000000,0.18531554,0.30868423,0.66131333,30,51,109,13,26,52,0.07995238,0.16000967,0.31916644,0.10377127,0.20242652,0.34879184
42105,0,USPennsylvaniaPotter,Pennsylvania,Potter,2021-04-04 05:08:09.597811,2020-09-29 00:00:00.000000,0.20500982,0.33064741,0.67395155,33,54,111,13,28,53,0.08392747,0.16948342,0.32292343,0.10718776,0.20682233,0.35707786
42105,0,USPennsylvaniaPotter,Pennsylvania,Potter,2021-04-04 05:08:09.597811,2020-09-30 00:00:00.000000,0.21754853,0.34579021,0.68735961,35,57,113,14,29,55,0.08831771,0.17767000,0.33460381,0.11300158,0.21267743,0.36606856
42105,0,USPennsylvaniaPotter,Pennsylvania,Potter,2021-04-04 05:08:09.597811,2020-10-01 00:00:00.000000,0.21696370,0.36157826,0.70164445,35,59,115,16,30,57,0.09685172,0.18684559,0.34601042,0.11756538,0.21973478,0.36646374
42105,0,USPennsylvaniaPotter,Pennsylvania,Potter,2021-04-04 05:08:09.597811,2020-10-02 00:00:00.000000,0.22832830,0.37308008,0.71288439,37,61,117,17,32,59,0.10591009,0.19589582,0.35954668,0.11932509,0.22807606,0.36611205
42105,0,USPennsylvaniaPotter,Pennsylvania,Potter,2021-04-04 05:08:09.597811,2020-10-03 00:00:00.000000,0.23674390,0.38350291,0.72308835,39,63,119,18,34,62,0.11134884,0.20662887,0.37536796,0.12167729,0.23530414,0.36425011
42105,0,USPennsylvaniaPotter,Pennsylvania,Potter,2021-04-04 05:08:09.597811,2020-10-04 00:00:00.000000,0.23921047,0.39621444,0.73282174,39,65,121,18,36,65,0.11445906,0.22165151,0.39371843,0.12646362,0.24017771,0.36761996
42105,0,USPennsylvaniaPotter,Pennsylvania,Potter,2021-04-04 05:08:09.597811,2020-10-05 00:00:00.000000,0.25975121,0.43141584,0.74010117,42,71,122,19,37,68,0.11746703,0.22608688,0.41431928,0.14215081,0.24688453,0.37367368
42105,0,USPennsylvaniaPotter,Pennsylvania,Potter,2021-04-04 05:08:09.597811,2020-10-06 00:00:00.000000,0.26736077,0.45517878,0.75222962,44,75,124,20,38,71,0.12220729,0.23286746,0.43391322,0.14896830,0.25862064,0.38519300
42105,0,USPennsylvaniaPotter,Pennsylvania,Potter,2021-04-04 05:08:09.597811,2020-10-07 00:00:00.000000,0.26664587,0.47661963,0.80329667,44,78,132,21,39,77,0.12913604,0.24094112,0.46819874,0.15008942,0.26573447,0.38783727
42105,0,USPennsylvaniaPotter,Pennsylvania,Potter,2021-04-04 05:08:09.597811,2020-10-08 00:00:00.000000,0.26549255,0.49218089,0.84044804,43,81,138,22,41,83,0.13807628,0.25269509,0.50400117,0.16608870,0.26809953,0.39131296
42105,0,USPennsylvaniaPotter,Pennsylvania,Potter,2021-04-04 05:08:09.597811,2020-10-09 00:00:00.000000,0.26417379,0.52104515,0.87515532,43,86,144,23,43,86,0.14449713,0.26599541,0.52626588,0.17039312,0.27275053,0.39775032
42105,0,USPennsylvaniaPotter,Pennsylvania,Potter,2021-04-04 05:08:09.597811,2020-10-10 00:00:00.000000,0.26302978,0.54568517,0.91584860,43,90,151,24,46,88,0.14882180,0.28140923,0.53382965,0.17584531,0.27903602,0.40399561
42105,0,USPennsylvaniaPotter,Pennsylvania,Potter,2021-04-04 05:08:09.597811,2020-10-11 00:00:00.000000,0.26447972,0.56974806,0.95920677,43,94,158,24,49,89,0.15043868,0.30143669,0.54219102,0.18011328,0.28368781,0.41381963
42105,0,USPennsylvaniaPotter,Pennsylvania,Potter,2021-04-04 05:08:09.597811,2020-10-12 00:00:00.000000,0.31177951,0.60193210,0.99795260,51,99,164,26,52,91,0.15892138,0.31555814,0.55129679,0.19032174,0.28737585,0.45027844
42105,0,USPennsylvaniaPotter,Pennsylvania,Potter,2021-04-04 05:08:09.597811,2020-10-13 00:00:00.000000,0.34951484,0.64018925,1.03834189,57,105,171,27,53,92,0.16767227,0.32502505,0.56090242,0.19115227,0.29396219,0.47188059
42105,0,USPennsylvaniaPotter,Pennsylvania,Potter,2021-04-04 05:08:09.597811,2020-10-14 00:00:00.000000,0.35695033,0.66591827,1.08026546,58,110,178,29,55,95,0.17605179,0.33574913,0.57990308,0.19368490,0.30450326,0.47236386
42105,0,USPennsylvaniaPotter,Pennsylvania,Potter,2021-04-04 05:08:09.597811,2020-10-15 00:00:00.000000,0.38924210,0.69641524,1.12384790,64,115,185,30,58,99,0.18437437,0.35244649,0.60293128,0.19785047,0.31180844,0.47344148
42105,0,USPennsylvaniaPotter,Pennsylvania,Potter,2021-04-04 05:08:09.597811,2020-10-16 00:00:00.000000,0.40649440,0.72056414,1.16931259,67,119,193,31,60,103,0.19307552,0.36785688,0.62454916,0.20621956,0.32506528,0.48855133
42105,0,USPennsylvaniaPotter,Pennsylvania,Potter,2021-04-04 05:08:09.597811,2020-10-17 00:00:00.000000,0.42241434,0.75408531,1.21703840,69,124,201,33,63,106,0.20170281,0.38134938,0.64542746,0.20828149,0.33860094,0.52319730
42105,0,USPennsylvaniaPotter,Pennsylvania,Potter,2021-04-04 05:08:09.597811,2020-10-18 00:00:00.000000,0.43938119,0.78951894,1.25867531,72,130,208,34,65,110,0.21081090,0.39673597,0.66593888,0.21031485,0.35380239,0.55813398
42105,0,USPennsylvaniaPotter,Pennsylvania,Potter,2021-04-04 05:08:09.597811,2020-10-19 00:00:00.000000,0.45688745,0.82084221,1.30517064,75,135,215,36,69,113,0.22141043,0.41772615,0.68624744,0.21789729,0.36014600,0.57390629
42105,0,USPennsylvaniaPotter,Pennsylvania,Potter,2021-04-04 05:08:09.597811,2020-10-20 00:00:00.000000,0.49802228,0.87058184,1.35289785,82,143,223,38,73,116,0.23009895,0.44721387,0.70700568,0.23336955,0.36748568,0.57659991
42105,0,USPennsylvaniaPotter,Pennsylvania,Potter,2021-04-04 05:08:09.597811,2020-10-21 00:00:00.000000,0.55661235,0.92746401,1.40228035,91,153,231,39,76,120,0.24158620,0.46504390,0.72793289,0.23468343,0.37283785,0.57412286
42105,0,USPennsylvaniaPotter,Pennsylvania,Potter,2021-04-04 05:08:09.597811,2020-10-22 00:00:00.000000,0.62061128,0.96894808,1.45403196,102,160,240,42,80,123,0.25706084,0.48602960,0.74889673,0.23903672,0.38048414,0.56985291
42105,0,USPennsylvaniaPotter,Pennsylvania,Potter,2021-04-04 05:08:09.597811,2020-10-23 00:00:00.000000,0.68615535,1.03371498,1.53548768,113,170,253,48,84,131,0.29488560,0.51208629,0.79506743,0.24699032,0.38707292,0.56326564
42105,0,USPennsylvaniaPotter,Pennsylvania,Potter,2021-04-04 05:08:09.597811,2020-10-24 00:00:00.000000,0.72512662,1.10329095,1.59301718,119,182,263,53,89,140,0.32151055,0.54206468,0.84782537,0.25507885,0.39675481,0.56308598
42105,0,USPennsylvaniaPotter,Pennsylvania,Potter,2021-04-04 05:08:09.597811,2020-10-25 00:00:00.000000,0.77197950,1.16413859,1.69536586,127,192,280,57,94,149,0.34798621,0.57287722,0.90467792,0.26047740,0.40248815,0.57651650
42105,0,USPennsylvaniaPotter,Pennsylvania,Potter,2021-04-04 05:08:09.597811,2020-10-26 00:00:00.000000,0.83599230,1.23048510,1.78062809,138,203,294,62,99,159,0.37683207,0.60316053,0.96637789,0.26944011,0.40530931,0.60048894
42105,0,USPennsylvaniaPotter,Pennsylvania,Potter,2021-04-04 05:08:09.597811,2020-10-27 00:00:00.000000,0.88150244,1.31184860,1.87029397,145,216,309,67,105,171,0.40798141,0.63915298,1.03473317,0.27147479,0.41047497,0.62446618
42105,0,USPennsylvaniaPotter,Pennsylvania,Potter,2021-04-04 05:08:09.597811,2020-10-28 00:00:00.000000,0.91596232,1.39790783,1.99809192,151,231,330,71,112,183,0.43212872,0.68318477,1.10747439,0.27272713,0.42182069,0.63295670
42105,0,USPennsylvaniaPotter,Pennsylvania,Potter,2021-04-04 05:08:09.597811,2020-10-29 00:00:00.000000,0.95201563,1.48778680,2.13167213,157,245,352,74,120,194,0.45279207,0.72944808,1.17869521,0.27415875,0.42756211,0.64545950
42105,0,USPennsylvaniaPotter,Pennsylvania,Potter,2021-04-04 05:08:09.597811,2020-10-30 00:00:00.000000,0.99028752,1.58165621,2.24365354,163,261,370,78,129,208,0.47476619,0.78330948,1.26233967,0.28606093,0.44642805,0.69430108
42105,0,USPennsylvaniaPotter,Pennsylvania,Potter,2021-04-04 05:08:09.597811,2020-10-31 00:00:00.000000,1.07005089,1.69000552,2.36160167,176,279,390,82,136,219,0.49862020,0.82668110,1.32959085,0.29373810,0.45859792,0.73859178
42105,0,USPennsylvaniaPotter,Pennsylvania,Potter,2021-04-04 05:08:09.597811,2020-11-01 00:00:00.000000,1.19611588,1.78852829,2.55255454,197,295,421,89,144,231,0.53895980,0.87448321,1.39791785,0.33016732,0.46361350,0.79774837
42105,0,USPennsylvaniaPotter,Pennsylvania,Potter,2021-04-04 05:08:09.597811,2020-11-02 00:00:00.000000,1.27353101,1.89833907,2.72192306,210,313,449,98,153,242,0.59626461,0.92943733,1.46861508,0.34051961,0.47709851,0.82952252
42105,0,USPennsylvaniaPotter,Pennsylvania,Potter,2021-04-04 05:08:09.597811,2020-11-03 00:00:00.000000,1.35912213,2.04660594,2.90807238,224,338,480,106,163,256,0.64272727,0.99069921,1.54926141,0.34280235,0.48331267,0.83727600
42105,0,USPennsylvaniaPotter,Pennsylvania,Potter,2021-04-04 05:08:09.597811,2020-11-04 00:00:00.000000,1.45377991,2.21494596,3.11251068,240,366,514,117,173,270,0.71352506,1.04836284,1.63897381,0.34313237,0.49655961,0.91676339
42105,0,USPennsylvaniaPotter,Pennsylvania,Potter,2021-04-04 05:08:09.597811,2020-11-05 00:00:00.000000,1.55976365,2.36428522,3.34048726,257,390,552,125,187,287,0.75662556,1.13302822,1.73767575,0.34926772,0.52111354,0.93065391
42105,0,USPennsylvaniaPotter,Pennsylvania,Potter,2021-04-04 05:08:09.597811,2020-11-06 00:00:00.000000,1.66519748,2.56588408,3.59842365,275,424,594,133,201,304,0.80933561,1.21853217,1.84536865,0.35996447,0.54136094,0.93459585
42105,0,USPennsylvaniaPotter,Pennsylvania,Potter,2021-04-04 05:08:09.597811,2020-11-07 00:00:00.000000,1.80151357,2.76689800,3.89816563,297,457,644,144,215,324,0.87292095,1.30550404,1.96295711,0.36730534,0.56044952,0.94152435
42105,0,USPennsylvaniaPotter,Pennsylvania,Potter,2021-04-04 05:08:09.597811,2020-11-08 00:00:00.000000,1.99134150,2.99935721,4.26907529,329,495,705,151,230,345,0.91812818,1.39679074,2.09299912,0.37603783,0.57297541,0.95773508
42105,0,USPennsylvaniaPotter,Pennsylvania,Potter,2021-04-04 05:08:09.597811,2020-11-09 00:00:00.000000,2.18476455,3.24273004,4.68142340,361,535,773,159,249,372,0.96786350,1.50825652,2.25652840,0.37651594,0.59041614,0.98116816
42105,0,USPennsylvaniaPotter,Pennsylvania,Potter,2021-04-04 05:08:09.597811,2020-11-10 00:00:00.000000,2.32835101,3.51307999,5.15207691,384,580,851,173,267,400,1.04752252,1.62058162,2.42631149,0.37834793,0.59552857,0.99797402
42105,0,USPennsylvaniaPotter,Pennsylvania,Potter,2021-04-04 05:08:09.597811,2020-11-11 00:00:00.000000,2.55594598,3.80486389,5.68836542,422,628,940,191,287,428,1.15787879,1.73920122,2.59499209,0.39289378,0.60396503,1.00476144
42105,0,USPennsylvaniaPotter,Pennsylvania,Potter,2021-04-04 05:08:09.597811,2020-11-12 00:00:00.000000,2.83312535,4.15942255,6.27894451,468,687,1037,208,313,463,1.26145170,1.89509047,2.80247584,0.43392730,0.62666296,1.00643329
42105,0,USPennsylvaniaPotter,Pennsylvania,Potter,2021-04-04 05:08:09.597811,2020-11-13 00:00:00.000000,3.13689390,4.53380612,6.92432485,518,749,1144,227,339,506,1.37951705,2.05703419,3.06450913,0.44751493,0.63902871,1.00535367
42105,0,USPennsylvaniaPotter,Pennsylvania,Potter,2021-04-04 05:08:09.597811,2020-11-14 00:00:00.000000,3.46949662,4.96918540,7.62650684,573,821,1260,251,371,553,1.52179630,2.25029045,3.34685138,0.46435943,0.65926285,1.00206480
42105,0,USPennsylvaniaPotter,Pennsylvania,Potter,2021-04-04 05:08:09.597811,2020-11-15 00:00:00.000000,3.83669160,5.43631182,8.38841385,634,898,1386,277,409,601,1.67915362,2.47558055,3.63791937,0.46743174,0.66706364,0.98553590
42105,0,USPennsylvaniaPotter,Pennsylvania,Potter,2021-04-04 05:08:09.597811,2020-11-16 00:00:00.000000,4.24252142,5.95494533,9.21650152,701,984,1523,303,443,657,1.83365376,2.68432088,3.97583741,0.47176658,0.67728477,0.96081144
42105,0,USPennsylvaniaPotter,Pennsylvania,Potter,2021-04-04 05:08:09.597811,2020-11-17 00:00:00.000000,4.70675601,6.57529772,10.11423096,777,1086,1671,333,486,714,2.01660188,2.94254484,4.32601985,0.47221300,0.68482149,0.95972585
42105,0,USPennsylvaniaPotter,Pennsylvania,Potter,2021-04-04 05:08:09.597811,2020-11-18 00:00:00.000000,5.20604174,7.21492021,11.08214830,860,1192,1831,368,534,776,2.23057225,3.23703175,4.69777357,0.47275697,0.68582213,0.96123443
42105,0,USPennsylvaniaPotter,Pennsylvania,Potter,2021-04-04 05:08:09.597811,2020-11-19 00:00:00.000000,5.73366702,7.80828891,12.11006170,947,1290,2001,408,586,841,2.47194592,3.54787142,5.09125198,0.48319185,0.67906987,0.93836443
42105,0,USPennsylvaniaPotter,Pennsylvania,Potter,2021-04-04 05:08:09.597811,2020-11-20 00:00:00.000000,6.30225436,8.44240630,13.16122006,1041,1395,2175,452,640,909,2.73955260,3.87620947,5.50155939,0.48625569,0.66858223,0.93538709
42105,0,USPennsylvaniaPotter,Pennsylvania,Potter,2021-04-04 05:08:09.597811,2020-11-21 00:00:00.000000,6.86804654,9.19781771,14.15432577,1135,1520,2339,501,701,977,3.03343602,4.24754475,5.91684575,0.48713196,0.64142894,0.92918221
42105,0,USPennsylvaniaPotter,Pennsylvania,Potter,2021-04-04 05:08:09.597811,2020-11-22 00:00:00.000000,7.47569318,9.98802092,15.02227167,1235,1650,2482,554,760,1056,3.35418794,4.60037897,6.39528875,0.49096092,0.62855316,0.91139368
42105,0,USPennsylvaniaPotter,Pennsylvania,Potter,2021-04-04 05:08:09.597811,2020-11-23 00:00:00.000000,8.11100476,10.81524100,15.62488906,1340,1787,2582,610,816,1138,3.69388471,4.94334031,6.88799394,0.49633818,0.62431899,0.89953313
42105,0,USPennsylvaniaPotter,Pennsylvania,Potter,2021-04-04 05:08:09.597811,2020-11-24 00:00:00.000000,8.74824967,11.53905134,16.18953296,1445,1906,2675,666,884,1225,4.03589561,5.35138667,7.41540610,0.48109876,0.62103030,0.87474468
42105,0,USPennsylvaniaPotter,Pennsylvania,Potter,2021-04-04 05:08:09.597811,2020-11-25 00:00:00.000000,9.38752966,12.41829131,16.73143542,1551,2052,2765,725,944,1318,4.39211025,5.71792430,7.97585635,0.47869850,0.61290555,0.82934705
42105,0,USPennsylvaniaPotter,Pennsylvania,Potter,2021-04-04 05:08:09.597811,2020-11-26 00:00:00.000000,10.04756243,13.13976025,17.23582943,1660,2171,2848,773,1008,1437,4.68246475,6.10283588,8.69875257,0.46319925,0.59090249,0.76456766
42105,0,USPennsylvaniaPotter,Pennsylvania,Potter,2021-04-04 05:08:09.597811,2020-11-27 00:00:00.000000,10.71939362,13.87129229,18.01282612,1771,2292,2976,808,1080,1555,4.89012847,6.53915476,9.41140805,0.43505317,0.57461990,0.70762810
42105,0,USPennsylvaniaPotter,Pennsylvania,Potter,2021-04-04 05:08:09.597811,2020-11-28 00:00:00.000000,11.37928549,14.37252764,18.93211591,1880,2375,3128,840,1160,1668,5.08731917,7.02017907,10.09356596,0.37894169,0.54336662,0.68127294
42105,0,USPennsylvaniaPotter,Pennsylvania,Potter,2021-04-04 05:08:09.597811,2020-11-29 00:00:00.000000,11.89683989,14.87957421,19.58415334,1966,2458,3236,872,1228,1773,5.28227431,7.43374435,10.73410070,0.34814732,0.51560428,0.65987800
42105,0,USPennsylvaniaPotter,Pennsylvania,Potter,2021-04-04 05:08:09.597811,2020-11-30 00:00:00.000000,12.08029386,15.37674079,19.94090058,1996,2541,3295,894,1305,1867,5.41190402,7.89991988,11.29939257,0.32516648,0.46871637,0.60962580
42105,0,USPennsylvaniaPotter,Pennsylvania,Potter,2021-04-04 05:08:09.597811,2020-12-01 00:00:00.000000,12.12953787,15.64170868,20.17324072,2004,2584,3333,933,1356,1934,5.64734445,8.20870008,11.70640521,0.28575191,0.43117999,0.60375574
42105,0,USPennsylvaniaPotter,Pennsylvania,Potter,2021-04-04 05:08:09.597811,2020-12-02 00:00:00.000000,12.06316937,15.85260437,20.31095728,1993,2619,3356,964,1396,2000,5.83874660,8.45188905,12.10345451,0.27525992,0.39542673,0.53274226
42105,0,USPennsylvaniaPotter,Pennsylvania,Potter,2021-04-04 05:08:09.597811,2020-12-03 00:00:00.000000,12.04894077,15.71719222,20.36413419,1991,2597,3365,981,1437,2047,5.93855975,8.70116314,12.38763729,0.25179301,0.36507243,0.48134956
42105,0,USPennsylvaniaPotter,Pennsylvania,Potter,2021-04-04 05:08:09.597811,2020-12-04 00:00:00.000000,12.00119416,15.66818246,20.33833816,1983,2589,3361,981,1464,2100,5.93658157,8.85952195,12.70782456,0.23699383,0.33985778,0.44552615
42105,0,USPennsylvaniaPotter,Pennsylvania,Potter,2021-04-04 05:08:09.597811,2020-12-05 00:00:00.000000,11.82206332,15.51127977,20.35800358,1953,2563,3364,968,1470,2115,5.86257143,8.90071366,12.79836031,0.22503144,0.31885543,0.42494379
42105,0,USPennsylvaniaPotter,Pennsylvania,Potter,2021-04-04 05:08:09.597811,2020-12-06 00:00:00.000000,11.56621899,15.36571417,20.46858231,1911,2539,3382,949,1474,2130,5.74370687,8.91953217,12.88972871,0.21999725,0.30962510,0.40815531
42105,0,USPennsylvaniaPotter,Pennsylvania,Potter,2021-04-04 05:08:09.597811,2020-12-07 00:00:00.000000,11.28345910,15.23667710,20.55042807,1864,2518,3396,925,1467,2134,5.59759015,8.87857337,12.91326248,0.21817528,0.30428951,0.39450155
42105,0,USPennsylvaniaPotter,Pennsylvania,Potter,2021-04-04 05:08:09.597811,2020-12-08 00:00:00.000000,10.98840621,14.93123986,20.59909021,1815,2467,3404,897,1466,2128,5.43142065,8.87362138,12.87695946,0.21766461,0.30250062,0.39425119
42105,0,USPennsylvaniaPotter,Pennsylvania,Potter,2021-04-04 05:08:09.597811,2020-12-09 00:00:00.000000,10.69352698,14.66298987,20.34480683,1767,2423,3362,868,1463,2115,5.25443703,8.85283492,12.80247114,0.21761277,0.29786835,0.39411815
42105,0,USPennsylvaniaPotter,Pennsylvania,Potter,2021-04-04 05:08:09.597811,2020-12-10 00:00:00.000000,10.38450683,14.46198504,20.28145342,1716,2389,3351,838,1443,2101,5.07432317,8.73678751,12.71511528,0.21776987,0.29967554,0.39889097
42105,0,USPennsylvaniaPotter,Pennsylvania,Potter,2021-04-04 05:08:09.597811,2020-12-11 00:00:00.000000,10.12987103,14.14566685,20.24662706,1674,2337,3345,818,1428,2086,4.95230274,8.64475993,12.62851450,0.22070244,0.29817439,0.42001138
42105,0,USPennsylvaniaPotter,Pennsylvania,Potter,2021-04-04 05:08:09.597811,2020-12-12 00:00:00.000000,9.87666688,13.84291982,20.14068790,1632,2287,3328,804,1416,2072,4.86850180,8.57092417,12.53892925,0.22450440,0.30594618,0.43099895
42105,0,USPennsylvaniaPotter,Pennsylvania,Potter,2021-04-04 05:08:09.597811,2020-12-13 00:00:00.000000,9.65582090,13.63422523,19.99238998,1595,2253,3303,792,1398,2056,4.79470505,8.46375209,12.44576047,0.22960629,0.31745135,0.43676102
42105,0,USPennsylvaniaPotter,Pennsylvania,Potter,2021-04-04 05:08:09.597811,2020-12-14 00:00:00.000000,9.47598768,13.40319861,19.78491751,1566,2215,3269,780,1371,2040,4.72367881,8.30009675,12.34661395,0.23113053,0.32734084,0.44872434
42105,0,USPennsylvaniaPotter,Pennsylvania,Potter,2021-04-04 05:08:09.597811,2020-12-15 00:00:00.000000,9.33440550,13.17088372,19.40504204,1542,2176,3206,769,1352,2023,4.65327391,8.18565806,12.24165591,0.23164169,0.34160620,0.48696100
42105,0,USPennsylvaniaPotter,Pennsylvania,Potter,2021-04-04 05:08:09.597811,2020-12-16 00:00:00.000000,9.19420518,12.98238006,19.00332874,1519,2145,3140,757,1336,2004,4.58123780,8.08627737,12.12963424,0.23590822,0.35842266,0.50929083
42105,0,USPennsylvaniaPotter,Pennsylvania,Potter,2021-04-04 05:08:09.597811,2020-12-17 00:00:00.000000,9.06533348,12.76005912,18.59024894,1498,2108,3072,744,1321,1984,4.50656493,7.99373490,12.01036551,0.23723294,0.37224541,0.52407069
42105,0,USPennsylvaniaPotter,Pennsylvania,Potter,2021-04-04 05:08:09.597811,2020-12-18 00:00:00.000000,8.93149597,12.67863893,18.17181664,1476,2095,3003,731,1296,1964,4.42920188,7.84412454,11.88455121,0.24183969,0.38569182,0.57135636
42105,0,USPennsylvaniaPotter,Pennsylvania,Potter,2021-04-04 05:08:09.597811,2020-12-19 00:00:00.000000,8.94855616,12.59428064,17.75579340,1478,2081,2934,718,1273,1942,4.35003944,7.70317258,11.75370052,0.24994908,0.40520413,0.61991769
42105,0,USPennsylvaniaPotter,Pennsylvania,Potter,2021-04-04 05:08:09.597811,2020-12-20 00:00:00.000000,8.77761903,12.45056895,17.55901465,1450,2057,2901,705,1252,1920,4.27048468,7.57603009,11.62020146,0.29561424,0.42529614,0.64425753
42105,0,USPennsylvaniaPotter,Pennsylvania,Potter,2021-04-04 05:08:09.597811,2020-12-21 00:00:00.000000,8.69459334,12.31371409,17.44501729,1436,2034,2882,694,1235,1897,4.20057596,7.47743816,11.48119723,0.31580368,0.44111395,0.65738767
42105,0,USPennsylvaniaPotter,Pennsylvania,Potter,2021-04-04 05:08:09.597811,2020-12-22 00:00:00.000000,8.70976755,12.33570881,17.31327552,1439,2038,2861,698,1239,1877,4.22400952,7.49927008,11.36127431,0.33864635,0.45466027,0.66544207
42105,0,USPennsylvaniaPotter,Pennsylvania,Potter,2021-04-04 05:08:09.597811,2020-12-23 00:00:00.000000,8.77716534,12.33279915,17.16289586,1450,2038,2836,702,1240,1858,4.25213540,7.50878345,11.24296413,0.34701875,0.48737769,0.67013394
42105,0,USPennsylvaniaPotter,Pennsylvania,Potter,2021-04-04 05:08:09.597811,2020-12-24 00:00:00.000000,8.83249263,12.38708472,16.99525677,1459,2047,2808,707,1232,1840,4.28096793,7.46053656,11.13493824,0.35635372,0.51023452,0.66559150
42105,0,USPennsylvaniaPotter,Pennsylvania,Potter,2021-04-04 05:08:09.597811,2020-12-25 00:00:00.000000,8.87483055,12.48218130,16.83452195,1466,2062,2782,711,1225,1854,4.30825389,7.41474484,11.21884376,0.37112391,0.51890012,0.67870602
42105,0,USPennsylvaniaPotter,Pennsylvania,Potter,2021-04-04 05:08:09.597811,2020-12-26 00:00:00.000000,8.90368704,12.58834403,16.85437429,1471,2080,2785,714,1219,1876,4.32636180,7.37659583,11.35198174,0.38007089,0.53106938,0.68905096
42105,0,USPennsylvaniaPotter,Pennsylvania,Potter,2021-04-04 05:08:09.597811,2020-12-27 00:00:00.000000,8.91960436,12.65116122,16.96829076,1474,2090,2804,716,1208,1881,4.33356853,7.31014350,11.38252770,0.39113645,0.53126754,0.69902422
42105,0,USPennsylvaniaPotter,Pennsylvania,Potter,2021-04-04 05:08:09.597811,2020-12-28 00:00:00.000000,8.90416976,12.72273672,17.10483804,1471,2102,2826,715,1210,1882,4.33102369,7.32687510,11.38876922,0.39474458,0.52858461,0.70250880
42105,0,USPennsylvaniaPotter,Pennsylvania,Potter,2021-04-04 05:08:09.597811,2020-12-29 00:00:00.000000,8.87970278,12.74215320,17.39993040,1467,2105,2875,713,1206,1904,4.31926190,7.29953292,11.52632555,0.39745050,0.52889536,0.70076689
42105,0,USPennsylvaniaPotter,Pennsylvania,Potter,2021-04-04 05:08:09.597811,2020-12-30 00:00:00.000000,8.84242623,12.70471423,17.66101955,1461,2099,2918,710,1209,1942,4.29977989,7.31825730,11.75478946,0.39892416,0.52203970,0.69880525
42105,0,USPennsylvaniaPotter,Pennsylvania,Potter,2021-04-04 05:08:09.597811,2020-12-31 00:00:00.000000,8.78964965,12.69513381,17.81885700,1452,2097,2944,706,1208,1977,4.27250226,7.31124593,11.96781657,0.39835756,0.51299548,0.69269407
42105,0,USPennsylvaniaPotter,Pennsylvania,Potter,2021-04-04 05:08:09.597811,2021-01-01 00:00:00.000000,8.71907339,12.64284628,17.65271337,1440,2089,2917,699,1202,2009,4.22988629,7.27680768,12.15748643,0.37480279,0.50543790,0.68084513
42105,0,USPennsylvaniaPotter,Pennsylvania,Potter,2021-04-04 05:08:09.597811,2021-01-02 00:00:00.000000,8.58376860,12.51286468,17.42646722,1418,2067,2879,687,1204,2036,4.15914334,7.29100678,12.32357302,0.33700114,0.49238450,0.67908825
42105,0,USPennsylvaniaPotter,Pennsylvania,Potter,2021-04-04 05:08:09.597811,2021-01-03 00:00:00.000000,8.37148209,12.36045531,17.11611737,1383,2042,2828,674,1195,2035,4.08271878,7.23165317,12.31997259,0.33607406,0.46965062,0.67671764
42105,0,USPennsylvaniaPotter,Pennsylvania,Potter,2021-04-04 05:08:09.597811,2021-01-04 00:00:00.000000,8.15398630,12.19563006,16.93995726,1347,2015,2799,660,1184,2011,3.99919150,7.16683833,12.16908574,0.33706183,0.45604301,0.65640074
42105,0,USPennsylvaniaPotter,Pennsylvania,Potter,2021-04-04 05:08:09.597811,2021-01-05 00:00:00.000000,7.93321326,12.01085838,16.74934855,1311,1984,2767,645,1170,1979,3.90534921,7.08479943,11.97877497,0.33683002,0.45553995,0.65611514
42105,0,USPennsylvaniaPotter,Pennsylvania,Potter,2021-04-04 05:08:09.597811,2021-01-06 00:00:00.000000,7.71068596,11.80351941,16.52925734,1274,1950,2731,628,1149,1940,3.80102425,6.95792051,11.74483990,0.32398203,0.45269657,0.65598504
42105,0,USPennsylvaniaPotter,Pennsylvania,Potter,2021-04-04 05:08:09.597811,2021-01-07 00:00:00.000000,7.48764912,11.52602415,16.23482537,1237,1904,2682,609,1128,1895,3.68916215,6.82930418,11.46947288,0.31072572,0.45059616,0.65385408
42105,0,USPennsylvaniaPotter,Pennsylvania,Potter,2021-04-04 05:08:09.597811,2021-01-08 00:00:00.000000,7.26506655,11.25241915,15.86514850,1200,1859,2621,592,1107,1843,3.58692615,6.70166018,11.15677401,0.30174384,0.44966406,0.64322970
42105,0,USPennsylvaniaPotter,Pennsylvania,Potter,2021-04-04 05:08:09.597811,2021-01-09 00:00:00.000000,7.04359781,10.91297869,15.47934582,1164,1803,2558,574,1082,1787,3.47382102,6.54846445,10.81582268,0.28746978,0.44806407,0.62354322
42105,0,USPennsylvaniaPotter,Pennsylvania,Potter,2021-04-04 05:08:09.597811,2021-01-10 00:00:00.000000,6.77016932,10.54590085,15.08669364,1118,1742,2493,553,1059,1728,3.35119646,6.41333228,10.45661161,0.27057693,0.43708134,0.59340867
42105,0,USPennsylvaniaPotter,Pennsylvania,Potter,2021-04-04 05:08:09.597811,2021-01-11 00:00:00.000000,6.47183401,10.23800873,14.63853020,1069,1691,2419,533,1036,1681,3.22790814,6.26969249,10.17267335,0.26216203,0.42307886,0.59346210
42105,0,USPennsylvaniaPotter,Pennsylvania,Potter,2021-04-04 05:08:09.597811,2021-01-12 00:00:00.000000,6.17147213,9.91293157,14.10748871,1019,1638,2331,515,1006,1644,3.12151053,6.09298860,9.95006980,0.26088026,0.41525444,0.58725314
42105,0,USPennsylvaniaPotter,Pennsylvania,Potter,2021-04-04 05:08:09.597811,2021-01-13 00:00:00.000000,5.87392272,9.55995940,13.58667047,970,1579,2245,498,975,1605,3.01902122,5.90154418,9.71354309,0.26260788,0.40882384,0.58383716
42105,0,USPennsylvaniaPotter,Pennsylvania,Potter,2021-04-04 05:08:09.597811,2021-01-14 00:00:00.000000,5.58234625,9.15449078,13.07749403,922,1512,2161,482,947,1564,2.91942452,5.73160537,9.46564848,0.26662106,0.40380799,0.58091206
42105,0,USPennsylvaniaPotter,Pennsylvania,Potter,2021-04-04 05:08:09.597811,2021-01-15 00:00:00.000000,5.29920251,8.72406992,12.58171389,875,1441,2079,466,917,1521,2.82202799,5.55236772,9.20740109,0.26690971,0.40566107,0.58663123
42105,0,USPennsylvaniaPotter,Pennsylvania,Potter,2021-04-04 05:08:09.597811,2021-01-16 00:00:00.000000,5.02676512,8.29639930,12.10182186,830,1371,1999,450,887,1477,2.72632566,5.36871676,8.94128839,0.26551388,0.40880835,0.59981413
42105,0,USPennsylvaniaPotter,Pennsylvania,Potter,2021-04-04 05:08:09.597811,2021-01-17 00:00:00.000000,4.77655672,7.93582915,11.64262074,789,1311,1924,434,854,1432,2.63159419,5.17260086,8.67049811,0.26477259,0.42636474,0.60441543
42105,0,USPennsylvaniaPotter,Pennsylvania,Potter,2021-04-04 05:08:09.597811,2021-01-18 00:00:00.000000,4.61905365,7.67279797,11.21255063,763,1268,1852,419,823,1387,2.53617956,4.98035007,8.39780178,0.26490689,0.43437966,0.64819360
42105,0,USPennsylvaniaPotter,Pennsylvania,Potter,2021-04-04 05:08:09.597811,2021-01-19 00:00:00.000000,4.51060758,7.48312637,10.84623119,745,1236,1792,403,791,1342,2.44000388,4.78890509,8.12589294,0.27578708,0.44446710,0.67480101
42105,0,USPennsylvaniaPotter,Pennsylvania,Potter,2021-04-04 05:08:09.597811,2021-01-20 00:00:00.000000,4.42329166,7.29706562,10.52525650,730,1205,1739,387,760,1298,2.34294874,4.60278086,7.85647688,0.27690048,0.45586635,0.69178636
42105,0,USPennsylvaniaPotter,Pennsylvania,Potter,2021-04-04 05:08:09.597811,2021-01-21 00:00:00.000000,4.36134534,7.06824155,10.20567718,720,1168,1686,371,730,1254,2.24637643,4.42326467,7.59097682,0.28967734,0.46877246,0.69099228
42105,0,USPennsylvaniaPotter,Pennsylvania,Potter,2021-04-04 05:08:09.597811,2021-01-22 00:00:00.000000,4.31007532,6.82312376,9.88530865,712,1127,1633,355,702,1211,2.15174968,4.25069610,7.33061459,0.31653368,0.47639227,0.68689175
42105,0,USPennsylvaniaPotter,Pennsylvania,Potter,2021-04-04 05:08:09.597811,2021-01-23 00:00:00.000000,4.25917789,6.60101574,9.60773436,703,1090,1587,340,675,1169,2.06024277,4.08953806,7.07665027,0.31918973,0.51853081,0.70540428
42105,0,USPennsylvaniaPotter,Pennsylvania,Potter,2021-04-04 05:08:09.597811,2021-01-24 00:00:00.000000,4.20779329,6.34553695,9.34251825,695,1048,1543,326,650,1128,1.97300685,3.93424635,6.83066835,0.32199104,0.53428423,0.78098718
42105,0,USPennsylvaniaPotter,Pennsylvania,Potter,2021-04-04 05:08:09.597811,2021-01-25 00:00:00.000000,4.12765786,6.13143130,9.07468328,682,1013,1499,321,631,1089,1.94278320,3.82144570,6.59465428,0.32455112,0.55390806,0.82323656
42105,0,USPennsylvaniaPotter,Pennsylvania,Potter,2021-04-04 05:08:09.597811,2021-01-26 00:00:00.000000,4.01849881,5.96253909,8.79640674,664,985,1453,318,611,1052,1.92778907,3.70234026,6.37126039,0.33955904,0.56513176,0.85797356
42105,0,USPennsylvaniaPotter,Pennsylvania,Potter,2021-04-04 05:08:09.597811,2021-01-27 00:00:00.000000,3.92056388,5.80381339,8.53945184,647,959,1411,317,594,1018,1.91860230,3.59522554,6.16140680,0.35539679,0.58476963,0.88397356
42105,0,USPennsylvaniaPotter,Pennsylvania,Potter,2021-04-04 05:08:09.597811,2021-01-28 00:00:00.000000,3.78336057,5.66308025,8.30309490,625,935,1372,313,577,985,1.89771133,3.49697302,5.96507067,0.37229343,0.60493767,0.87354232
42105,0,USPennsylvaniaPotter,Pennsylvania,Potter,2021-04-04 05:08:09.597811,2021-01-29 00:00:00.000000,3.65776352,5.53360515,8.09185871,604,914,1337,305,559,955,1.84846187,3.38728496,5.78209668,0.39197114,0.62612271,0.90907599
42105,0,USPennsylvaniaPotter,Pennsylvania,Potter,2021-04-04 05:08:09.597811,2021-01-30 00:00:00.000000,3.54936443,5.41941244,7.91188634,586,895,1307,298,542,927,1.80352676,3.28139376,5.61328570,0.39832789,0.64519356,0.93696887
42105,0,USPennsylvaniaPotter,Pennsylvania,Potter,2021-04-04 05:08:09.597811,2021-01-31 00:00:00.000000,3.46288495,5.31575938,7.76140146,572,878,1282,291,528,902,1.76322640,3.19840962,5.46042530,0.40599579,0.66359635,0.94018960
42105,0,USPennsylvaniaPotter,Pennsylvania,Potter,2021-04-04 05:08:09.597811,2021-02-01 00:00:00.000000,3.38847565,5.20611475,7.62059278,559,860,1259,285,516,879,1.72837522,3.12742386,5.32441308,0.41085446,0.67003555,0.98620920
42105,0,USPennsylvaniaPotter,Pennsylvania,Potter,2021-04-04 05:08:09.597811,2021-02-02 00:00:00.000000,3.32148403,5.08670151,7.44895793,548,840,1231,281,504,859,1.70168926,3.05544596,5.20227504,0.41402084,0.67981052,1.03061666
42105,0,USPennsylvaniaPotter,Pennsylvania,Potter,2021-04-04 05:08:09.597811,2021-02-03 00:00:00.000000,3.25953856,4.99038642,7.27926078,538,824,1202,275,496,841,1.66476748,3.00290864,5.09141669,0.42563497,0.68263561,1.09918488
42105,0,USPennsylvaniaPotter,Pennsylvania,Potter,2021-04-04 05:08:09.597811,2021-02-04 00:00:00.000000,3.20651706,4.89632637,7.11059984,529,809,1175,266,487,824,1.61503447,2.95001349,4.98894054,0.45694086,0.69863881,1.14037957
42105,0,USPennsylvaniaPotter,Pennsylvania,Potter,2021-04-04 05:08:09.597811,2021-02-05 00:00:00.000000,3.16462903,4.80726826,6.94266912,522,794,1147,259,478,808,1.56820408,2.89628983,4.89239055,0.44844835,0.70811751,1.16198787
42105,0,USPennsylvaniaPotter,Pennsylvania,Potter,2021-04-04 05:08:09.597811,2021-02-06 00:00:00.000000,3.12215001,4.72499619,6.77288595,515,780,1119,252,469,793,1.52787111,2.83845495,4.79994752,0.45565216,0.72279958,1.15087295
42105,0,USPennsylvaniaPotter,Pennsylvania,Potter,2021-04-04 05:08:09.597811,2021-02-07 00:00:00.000000,3.08008036,4.64253692,6.60448506,509,767,1091,247,460,778,1.49610684,2.78884249,4.71040378,0.46509843,0.74632091,1.16820581
42105,0,USPennsylvaniaPotter,Pennsylvania,Potter,2021-04-04 05:08:09.597811,2021-02-08 00:00:00.000000,3.04334497,4.55231795,6.43340119,502,752,1063,242,454,764,1.46958736,2.75290286,4.62307446,0.47441251,0.75317880,1.18420274
42105,0,USPennsylvaniaPotter,Pennsylvania,Potter,2021-04-04 05:08:09.597811,2021-02-09 00:00:00.000000,3.00660278,4.47664349,6.24644042,496,739,1032,239,447,749,1.44707755,2.70668589,4.53769971,0.48318504,0.76479073,1.19645488
42105,0,USPennsylvaniaPotter,Pennsylvania,Potter,2021-04-04 05:08:09.597811,2021-02-10 00:00:00.000000,2.96959893,4.40761352,6.10267739,490,728,1008,235,438,736,1.42690819,2.65407594,4.45429938,0.49075529,0.77844417,1.20496700
42105,0,USPennsylvaniaPotter,Pennsylvania,Potter,2021-04-04 05:08:09.597811,2021-02-11 00:00:00.000000,2.93204072,4.32482343,6.01360333,484,714,993,232,429,722,1.40802504,2.60111220,4.37301400,0.50212109,0.78291806,1.22281630
42105,0,USPennsylvaniaPotter,Pennsylvania,Potter,2021-04-04 05:08:09.597811,2021-02-12 00:00:00.000000,2.89377838,4.24907287,5.93537693,478,702,980,229,422,710,1.38976827,2.55397316,4.29980621,0.50827318,0.79495016,1.27267305
42105,0,USPennsylvaniaPotter,Pennsylvania,Potter,2021-04-04 05:08:09.597811,2021-02-13 00:00:00.000000,2.85475316,4.17687969,5.87417616,471,690,970,226,414,700,1.36801156,2.50528206,4.23694205,0.51918920,0.79734300,1.30891203
42105,0,USPennsylvaniaPotter,Pennsylvania,Potter,2021-04-04 05:08:09.597811,2021-02-14 00:00:00.000000,2.80823031,4.11119197,5.80835652,464,679,959,223,405,689,1.35311886,2.45512204,4.17312076,0.52450184,0.79630999,1.29061570
42105,0,USPennsylvaniaPotter,Pennsylvania,Potter,2021-04-04 05:08:09.597811,2021-02-15 00:00:00.000000,2.75960945,4.02878156,5.72661661,456,665,946,220,398,680,1.33445157,2.41078738,4.11775848,0.52679556,0.82347413,1.26269101
42105,0,USPennsylvaniaPotter,Pennsylvania,Potter,2021-04-04 05:08:09.597811,2021-02-16 00:00:00.000000,2.70358229,3.96170545,5.64082489,446,654,932,216,392,673,1.31303671,2.37534333,4.07343545,0.52707801,0.85917692,1.27308425
42105,0,USPennsylvaniaPotter,Pennsylvania,Potter,2021-04-04 05:08:09.597811,2021-02-17 00:00:00.000000,2.64656624,3.87952671,5.55046642,437,641,917,213,384,664,1.28977141,2.32666148,4.02051626,0.52791834,0.86325907,1.29051309
42105,0,USPennsylvaniaPotter,Pennsylvania,Potter,2021-04-04 05:08:09.597811,2021-02-18 00:00:00.000000,2.58891998,3.81879814,5.45595411,427,631,901,209,378,654,1.26526001,2.28850260,3.96133283,0.52643543,0.86609610,1.31159469
42105,0,USPennsylvaniaPotter,Pennsylvania,Potter,2021-04-04 05:08:09.597811,2021-02-19 00:00:00.000000,2.53090993,3.77053825,5.35777265,418,623,885,205,369,644,1.24281830,2.23635824,3.89926724,0.52818905,0.87041877,1.35059167
42105,0,USPennsylvaniaPotter,Pennsylvania,Potter,2021-04-04 05:08:09.597811,2021-02-20 00:00:00.000000,2.47274067,3.69592144,5.25754280,408,610,868,203,365,633,1.23101881,2.21123864,3.83439833,0.53569271,0.87187677,1.36274670
42105,0,USPennsylvaniaPotter,Pennsylvania,Potter,2021-04-04 05:08:09.597811,2021-02-21 00:00:00.000000,2.41457470,3.62748306,5.21478285,399,599,861,200,364,622,1.21085548,2.20446836,3.76685840,0.51239323,0.85736375,1.36457759
42105,0,USPennsylvaniaPotter,Pennsylvania,Potter,2021-04-04 05:08:09.597811,2021-02-22 00:00:00.000000,2.35510582,3.54991008,5.19486099,389,586,858,195,360,614,1.18250364,2.17933833,3.71724893,0.49415256,0.85252066,1.36568508
42105,0,USPennsylvaniaPotter,Pennsylvania,Potter,2021-04-04 05:08:09.597811,2021-02-23 00:00:00.000000,2.26593705,3.45995792,5.17451269,374,571,855,190,351,610,1.15549359,2.12622756,3.69272284,0.49282965,0.84671238,1.36673504
42105,0,USPennsylvaniaPotter,Pennsylvania,Potter,2021-04-04 05:08:09.597811,2021-02-24 00:00:00.000000,2.22268540,3.37961235,5.15070880,367,558,851,186,340,606,1.12907951,2.06313217,3.67233260,0.49239334,0.83537089,1.36746743
42105,0,USPennsylvaniaPotter,Pennsylvania,Potter,2021-04-04 05:08:09.597811,2021-02-25 00:00:00.000000,2.18174190,3.29458617,5.12293884,360,544,846,182,331,601,1.10187938,2.00803340,3.63990767,0.47780073,0.81530062,1.35793862
42105,0,USPennsylvaniaPotter,Pennsylvania,Potter,2021-04-04 05:08:09.597811,2021-02-26 00:00:00.000000,2.14112501,3.19997188,5.09050948,353,528,841,177,325,591,1.07343147,1.97087466,3.58180376,0.48080229,0.80375651,1.34179894
42105,0,USPennsylvaniaPotter,Pennsylvania,Potter,2021-04-04 05:08:09.597811,2021-02-27 00:00:00.000000,2.10072869,3.11328671,5.05110448,347,514,834,171,317,582,1.04031038,1.92079611,3.52233827,0.46634763,0.79909001,1.34462768
42105,0,USPennsylvaniaPotter,Pennsylvania,Potter,2021-04-04 05:08:09.597811,2021-02-28 00:00:00.000000,2.05069269,3.01147992,5.00123938,338,497,826,167,308,572,1.01312252,1.86424427,3.46135203,0.40116066,0.78926332,1.34280323
42105,0,USPennsylvaniaPotter,Pennsylvania,Potter,2021-04-04 05:08:09.597811,2021-03-01 00:00:00.000000,1.99486174,2.92678957,4.91661644,329,483,812,162,301,561,0.98496057,1.82246457,3.39814330,0.39534417,0.76501121,1.31547684
42105,0,USPennsylvaniaPotter,Pennsylvania,Potter,2021-04-04 05:08:09.597811,2021-03-02 00:00:00.000000,1.93297245,2.84098973,4.77679513,319,469,789,158,294,550,0.96206002,1.78066003,3.32952292,0.39315640,0.76105021,1.34466250
42105,0,USPennsylvaniaPotter,Pennsylvania,Potter,2021-04-04 05:08:09.597811,2021-03-03 00:00:00.000000,1.87269372,2.74986684,4.61780722,309,454,763,154,285,537,0.93288108,1.72598746,3.25340003,0.39241134,0.74609186,1.36699326
42105,0,USPennsylvaniaPotter,Pennsylvania,Potter,2021-04-04 05:08:09.597811,2021-03-04 00:00:00.000000,1.80846249,2.65780149,4.45470742,298,439,736,149,276,523,0.90515138,1.67117806,3.16926869,0.39174519,0.75551757,1.37570798
42105,0,USPennsylvaniaPotter,Pennsylvania,Potter,2021-04-04 05:08:09.597811,2021-03-05 00:00:00.000000,1.73549506,2.57188264,4.29528710,286,425,709,145,269,508,0.87855884,1.63286074,3.07882559,0.38737855,0.74766480,1.38850612
42105,0,USPennsylvaniaPotter,Pennsylvania,Potter,2021-04-04 05:08:09.597811,2021-03-06 00:00:00.000000,1.66638334,2.49434784,4.14124617,275,412,684,140,261,493,0.85291321,1.58381561,2.98478868,0.36834427,0.74749627,1.44744144
42105,0,USPennsylvaniaPotter,Pennsylvania,Potter,2021-04-04 05:08:09.597811,2021-03-07 00:00:00.000000,1.59384582,2.40303701,3.98957279,263,397,659,136,252,477,0.82809791,1.52605281,2.88935709,0.35847934,0.75319454,1.47279841
42105,0,USPennsylvaniaPotter,Pennsylvania,Potter,2021-04-04 05:08:09.597811,2021-03-08 00:00:00.000000,1.50886545,2.32273072,3.83112121,249,383,633,132,243,461,0.80404099,1.47578951,2.79342741,0.33909926,0.74532297,1.51793539
42105,0,USPennsylvaniaPotter,Pennsylvania,Potter,2021-04-04 05:08:09.597811,2021-03-09 00:00:00.000000,1.42961144,2.24444959,3.76060427,236,370,621,128,233,445,0.77798565,1.41503168,2.69579054,0.31158423,0.74103541,1.54215398
42105,0,USPennsylvaniaPotter,Pennsylvania,Potter,2021-04-04 05:08:09.597811,2021-03-10 00:00:00.000000,1.36792738,2.18099208,3.71034692,226,360,613,124,225,429,0.75104942,1.36387373,2.59712773,0.31243431,0.74222594,1.57173370
42105,0,USPennsylvaniaPotter,Pennsylvania,Potter,2021-04-04 05:08:09.597811,2021-03-11 00:00:00.000000,1.30873774,2.12460631,3.65950310,216,351,604,119,219,415,0.72391922,1.32744561,2.51595659,0.32131373,0.73666860,1.56038990
42105,0,USPennsylvaniaPotter,Pennsylvania,Potter,2021-04-04 05:08:09.597811,2021-03-12 00:00:00.000000,1.25358029,2.03636540,3.60803465,207,336,596,115,213,403,0.69701605,1.29346875,2.44062193,0.33128251,0.72620565,1.52653948
42105,0,USPennsylvaniaPotter,Pennsylvania,Potter,2021-04-04 05:08:09.597811,2021-03-13 00:00:00.000000,1.20385822,1.97095591,3.55246413,198,325,587,111,208,390,0.67178022,1.26164683,2.36457194,0.34048179,0.72418504,1.54747087
42105,0,USPennsylvaniaPotter,Pennsylvania,Potter,2021-04-04 05:08:09.597811,2021-03-14 00:00:00.000000,1.16019530,1.90549707,3.41970817,191,314,565,107,202,378,0.65078585,1.22695432,2.28841107,0.34805656,0.71804832,1.54486506
42105,0,USPennsylvaniaPotter,Pennsylvania,Potter,2021-04-04 05:08:09.597811,2021-03-15 00:00:00.000000,1.12555918,1.86061338,3.29613437,186,307,544,102,196,365,0.61937625,1.18925998,2.21265259,0.34696124,0.71467227,1.52691994
42105,0,USPennsylvaniaPotter,Pennsylvania,Potter,2021-04-04 05:08:09.597811,2021-03-16 00:00:00.000000,1.09530899,1.81815158,3.17695249,181,300,525,98,190,358,0.59574299,1.15374363,2.17109455,0.34508346,0.71115029,1.52662324
42105,0,USPennsylvaniaPotter,Pennsylvania,Potter,2021-04-04 05:08:09.597811,2021-03-17 00:00:00.000000,1.04859556,1.76452719,3.06326168,173,291,506,94,185,353,0.57355600,1.11998124,2.13976467,0.34448677,0.70986052,1.52180155
42105,0,USPennsylvaniaPotter,Pennsylvania,Potter,2021-04-04 05:08:09.597811,2021-03-18 00:00:00.000000,1.03427084,1.70025978,2.95654809,170,280,488,91,179,348,0.55254580,1.08767719,2.10864354,0.36383774,0.71821469,1.50840870
42105,0,USPennsylvaniaPotter,Pennsylvania,Potter,2021-04-04 05:08:09.597811,2021-03-19 00:00:00.000000,0.97716904,1.64359069,2.85638736,161,271,472,88,174,343,0.53312209,1.05662477,2.07764780,0.36571370,0.73167135,1.50107895
42105,0,USPennsylvaniaPotter,Pennsylvania,Potter,2021-04-04 05:08:09.597811,2021-03-20 00:00:00.000000,0.91954205,1.59408715,2.76161636,151,263,456,85,168,338,0.51487589,1.01771796,2.04672677,0.36459286,0.73697666,1.48438117
42105,0,USPennsylvaniaPotter,Pennsylvania,Potter,2021-04-04 05:08:09.597811,2021-03-21 00:00:00.000000,0.86544527,1.55189033,2.67110805,143,256,441,84,161,333,0.51376164,0.97875693,2.01584910,0.36262217,0.73260603,1.45516828
42105,0,USPennsylvaniaPotter,Pennsylvania,Potter,2021-04-04 05:08:09.597811,2021-03-22 00:00:00.000000,0.84163178,1.49961135,2.57917443,139,247,426,84,155,326,0.51282354,0.94070759,1.97852225,0.36002464,0.75115440,1.47445416
42105,0,USPennsylvaniaPotter,Pennsylvania,Potter,2021-04-04 05:08:09.597811,2021-03-23 00:00:00.000000,0.82733828,1.45414478,2.49033740,136,240,411,81,148,315,0.49029741,0.89847019,1.91193699,0.35332701,0.76074535,1.47224149
42105,0,USPennsylvaniaPotter,Pennsylvania,Potter,2021-04-04 05:08:09.597811,2021-03-24 00:00:00.000000,0.81534263,1.40377497,2.40416364,134,231,397,76,142,305,0.46328974,0.86156979,1.84716269,0.34831036,0.74861490,1.47212618
42105,0,USPennsylvaniaPotter,Pennsylvania,Potter,2021-04-04 05:08:09.597811,2021-03-25 00:00:00.000000,0.80136127,1.34669797,2.32005107,132,222,383,72,137,294,0.43823149,0.83016321,1.78420234,0.33923251,0.74729603,1.57760419
42105,0,USPennsylvaniaPotter,Pennsylvania,Potter,2021-04-04 05:08:09.597811,2021-03-26 00:00:00.000000,0.75606338,1.29378278,2.23668385,124,213,369,68,132,284,0.41477689,0.80176019,1.72292792,0.33047638,0.74297584,1.64965305
42105,0,USPennsylvaniaPotter,Pennsylvania,Potter,2021-04-04 05:08:09.597811,2021-03-27 00:00:00.000000,0.71489762,1.23960117,2.19211068,118,204,362,65,128,274,0.39868118,0.77998411,1.66296236,0.32371589,0.74460587,1.69746263
42105,0,USPennsylvaniaPotter,Pennsylvania,Potter,2021-04-04 05:08:09.597811,2021-03-28 00:00:00.000000,0.67674714,1.19093310,2.15637510,111,196,356,63,124,265,0.38415045,0.75550990,1.60381300,0.31956353,0.74538113,1.73763102
42105,0,USPennsylvaniaPotter,Pennsylvania,Potter,2021-04-04 05:08:09.597811,2021-03-29 00:00:00.000000,0.63105666,1.14779440,2.08232824,104,189,344,61,120,255,0.37030312,0.73068763,1.54539884,0.30407610,0.74595603,1.75087069
42105,0,USPennsylvaniaPotter,Pennsylvania,Potter,2021-04-04 05:08:09.597811,2021-03-30 00:00:00.000000,0.58783598,1.09456491,2.00840707,97,180,331,58,116,245,0.35576895,0.70607797,1.48630004,0.29964575,0.75446824,1.75675228
42105,0,USPennsylvaniaPotter,Pennsylvania,Potter,2021-04-04 05:08:09.597811,2021-03-31 00:00:00.000000,0.54682541,1.04733333,1.95979558,90,173,323,56,113,236,0.34090498,0.68506766,1.43142441,0.30683147,0.74850811,1.76080683
42105,0,USPennsylvaniaPotter,Pennsylvania,Potter,2021-04-04 05:08:09.597811,2021-04-01 00:00:00.000000,0.50806989,1.00560723,1.86304867,83,166,307,53,109,231,0.32608247,0.66073917,1.40312231,0.31390351,0.74246960,1.75608392
42105,0,USPennsylvaniaPotter,Pennsylvania,Potter,2021-04-04 05:08:09.597811,2021-04-02 00:00:00.000000,0.47090006,0.95788679,1.79251221,77,158,296,51,104,227,0.31152609,0.63378823,1.37481914,0.31636771,0.74295146,1.73468173
42105,0,USPennsylvaniaPotter,Pennsylvania,Potter,2021-04-04 05:08:09.597811,2021-04-03 00:00:00.000000,0.43441639,0.91341879,1.72308618,71,150,284,48,100,222,0.29597475,0.60692377,1.34647036,0.30741384,0.74119851,1.76214353
42105,0,USPennsylvaniaPotter,Pennsylvania,Potter,2021-04-04 05:08:09.597811,2021-04-04 00:00:00.000000,0.39996386,0.87326639,1.65511159,66,144,273,45,96,211,0.27458920,0.58259700,1.27776387,0.29615041,0.74492383,1.78393476
42105,0,USPennsylvaniaPotter,Pennsylvania,Potter,2021-04-04 05:08:09.597811,2021-04-05 00:00:00.000000,0.36784395,0.82763581,1.58888334,60,136,262,41,92,198,0.25405553,0.55987979,1.20416251,0.29519526,0.74981958,1.80396809
42105,0,USPennsylvaniaPotter,Pennsylvania,Potter,2021-04-04 05:08:09.597811,2021-04-06 00:00:00.000000,0.33802731,0.78460233,1.52459558,55,129,251,38,88,187,0.23455799,0.53258974,1.13280008,0.29506761,0.76358135,1.86830642
42105,0,USPennsylvaniaPotter,Pennsylvania,Potter,2021-04-04 05:08:09.597811,2021-04-07 00:00:00.000000,0.31172189,0.74296165,1.46235486,51,122,241,35,83,175,0.21620135,0.50592822,1.06422391,0.29500333,0.76671653,1.88491672
42105,0,USPennsylvaniaPotter,Pennsylvania,Potter,2021-04-04 05:08:09.597811,2021-04-08 00:00:00.000000,0.28835638,0.71464547,1.41434084,47,118,233,32,79,166,0.19902774,0.48274536,1.00810227,0.29495984,0.76718794,1.88835744
42105,0,USPennsylvaniaPotter,Pennsylvania,Potter,2021-04-04 05:08:09.597811,2021-04-09 00:00:00.000000,0.26671856,0.68576895,1.38339569,44,113,228,30,75,159,0.18303619,0.45934326,0.96454089,0.29493397,0.76725322,1.88904122
42105,0,USPennsylvaniaPotter,Pennsylvania,Potter,2021-04-04 05:08:09.597811,2021-04-10 00:00:00.000000,0.24668357,0.65630781,1.35294592,40,108,223,27,72,152,0.16819819,0.43875266,0.92275323,0.29492020,0.76726171,1.88917923
42105,0,USPennsylvaniaPotter,Pennsylvania,Potter,2021-04-04 05:08:09.597811,2021-04-11 00:00:00.000000,0.22813717,0.62801990,1.32298818,37,103,218,25,68,145,0.15446801,0.41747827,0.88268006,0.29491332,0.76726253,1.88920839
42105,0,USPennsylvaniaPotter,Pennsylvania,Potter,2021-04-04 05:08:09.597811,2021-04-12 00:00:00.000000,0.21097245,0.60087036,1.29352009,34,99,213,23,65,139,0.14178969,0.39386142,0.84426196,0.29490998,0.76726245,1.88921508
42105,0,USPennsylvaniaPotter,Pennsylvania,Potter,2021-04-04 05:08:09.597811,2021-04-13 00:00:00.000000,0.19508927,0.57478186,1.26453983,32,94,208,21,61,133,0.13010181,0.37434911,0.80719627,0.29490839,0.76726234,1.88921680
42105,0,USPennsylvaniaPotter,Pennsylvania,Potter,2021-04-04 05:08:09.597811,2021-04-14 00:00:00.000000,0.18039408,0.54591656,1.23604592,29,90,204,19,59,127,0.11934078,0.35889660,0.77163955,0.29490764,0.76726227,1.88921731
42105,0,USPennsylvaniaPotter,Pennsylvania,Potter,2021-04-04 05:08:09.597811,2021-04-15 00:00:00.000000,0.16679963,0.51847872,1.20803701,27,85,199,18,56,121,0.10944304,0.33924063,0.73757898,0.29490728,0.76726224,1.88921748
42105,0,USPennsylvaniaPotter,Pennsylvania,Potter,2021-04-04 05:08:09.597811,2021-04-16 00:00:00.000000,0.15422471,0.49240162,1.18119714,25,81,195,16,52,118,0.10034653,0.32063257,0.71517002,0.29490711,0.76726222,1.88921755
