FIPS,HR_UID,nameid,province,region,analysisTime,dates,pointprevalence_025,pointprevalence_50,pointprevalence_975,pointinfections_025,pointinfections_50,pointinfections_975,pointinfectious_025,pointinfectious_50,pointinfectious_975,pointinfectiousprevalence_05,pointinfectiousprevalence_50,pointinfectiousprevalence_95,infectrate_025,infectrate_50,infectrate_975
29071,0,USMissouriFranklin,Missouri,Franklin,2021-04-04 08:23:45.957139,2020-03-09 00:00:00.000000,0.00011205,0.00225081,0.01490859,0,2,15,0,1,9,0.00006348,0.00129656,0.00885334,0.33510266,0.48736678,0.62820572
29071,0,USMissouriFranklin,Missouri,Franklin,2021-04-04 08:23:45.957139,2020-03-10 00:00:00.000000,0.00012311,0.00251431,0.01664482,0,2,17,0,1,9,0.00006675,0.00141327,0.00921436,0.33509401,0.48721040,0.62660901
29071,0,USMissouriFranklin,Missouri,Franklin,2021-04-04 08:23:45.957139,2020-03-11 00:00:00.000000,0.00013544,0.00280273,0.01856423,0,2,19,0,1,10,0.00007404,0.00159035,0.01012049,0.33507911,0.48696165,0.62324187
29071,0,USMissouriFranklin,Missouri,Franklin,2021-04-04 08:23:45.957139,2020-03-12 00:00:00.000000,0.00014898,0.00306806,0.02070336,0,3,21,0,1,11,0.00008311,0.00179099,0.01131405,0.33505354,0.48656726,0.61739181
29071,0,USMissouriFranklin,Missouri,Franklin,2021-04-04 08:23:45.957139,2020-03-13 00:00:00.000000,0.00016373,0.00321393,0.02309343,0,3,24,0,2,13,0.00009319,0.00200437,0.01270528,0.33502733,0.48594514,0.61401616
29071,0,USMissouriFranklin,Missouri,Franklin,2021-04-04 08:23:45.957139,2020-03-14 00:00:00.000000,0.00017972,0.00350866,0.02527131,0,3,26,0,2,14,0.00010404,0.00222929,0.01427077,0.33502707,0.48415350,0.61400051
29071,0,USMissouriFranklin,Missouri,Franklin,2021-04-04 08:23:45.957139,2020-03-15 00:00:00.000000,0.00019689,0.00392855,0.02693694,0,4,28,0,2,16,0.00011563,0.00243822,0.01601298,0.33502605,0.48376229,0.61388762
29071,0,USMissouriFranklin,Missouri,Franklin,2021-04-04 08:23:45.957139,2020-03-16 00:00:00.000000,0.00122548,0.00496757,0.03108288,1,5,32,0,2,18,0.00012795,0.00269228,0.01794698,0.33502183,0.47716393,0.61258249
29071,0,USMissouriFranklin,Missouri,Franklin,2021-04-04 08:23:45.957139,2020-03-17 00:00:00.000000,0.00187019,0.00632972,0.03534933,1,6,36,0,3,21,0.00065600,0.00333781,0.02043524,0.33243003,0.46571685,0.60892681
29071,0,USMissouriFranklin,Missouri,Franklin,2021-04-04 08:23:45.957139,2020-03-18 00:00:00.000000,0.00254432,0.00848413,0.03996827,2,8,41,1,4,24,0.00108131,0.00414673,0.02334345,0.31803666,0.44920594,0.60496011
29071,0,USMissouriFranklin,Missouri,Franklin,2021-04-04 08:23:45.957139,2020-03-19 00:00:00.000000,0.00326961,0.01028222,0.04490062,3,10,46,1,5,27,0.00158358,0.00522476,0.02646735,0.26813958,0.42888059,0.59480676
29071,0,USMissouriFranklin,Missouri,Franklin,2021-04-04 08:23:45.957139,2020-03-20 00:00:00.000000,0.00389343,0.01195686,0.05010922,4,12,52,2,6,30,0.00209924,0.00660440,0.02978343,0.25508955,0.40825662,0.58991090
29071,0,USMissouriFranklin,Missouri,Franklin,2021-04-04 08:23:45.957139,2020-03-21 00:00:00.000000,0.00450624,0.01402250,0.05544093,4,14,57,2,8,34,0.00264116,0.00785308,0.03332402,0.23963495,0.37660279,0.58099232
29071,0,USMissouriFranklin,Missouri,Franklin,2021-04-04 08:23:45.957139,2020-03-22 00:00:00.000000,0.00511361,0.01633872,0.06042703,5,16,62,3,9,38,0.00299872,0.00919421,0.03701373,0.23331205,0.34984937,0.56226160
29071,0,USMissouriFranklin,Missouri,Franklin,2021-04-04 08:23:45.957139,2020-03-23 00:00:00.000000,0.00654511,0.01859953,0.06288939,6,19,65,3,10,42,0.00335194,0.01042556,0.04062868,0.22543319,0.33048524,0.52142261
29071,0,USMissouriFranklin,Missouri,Franklin,2021-04-04 08:23:45.957139,2020-03-24 00:00:00.000000,0.00826064,0.02122739,0.06859337,8,22,71,4,12,44,0.00427531,0.01197328,0.04317693,0.20642814,0.32200771,0.49098482
29071,0,USMissouriFranklin,Missouri,Franklin,2021-04-04 08:23:45.957139,2020-03-25 00:00:00.000000,0.01044084,0.02333180,0.07509453,10,24,78,5,14,49,0.00536032,0.01400630,0.04726260,0.20177131,0.29710997,0.45987599
29071,0,USMissouriFranklin,Missouri,Franklin,2021-04-04 08:23:45.957139,2020-03-26 00:00:00.000000,0.01270192,0.02593336,0.08088440,13,26,84,7,16,54,0.00683105,0.01567987,0.05213039,0.18636431,0.28614600,0.43890565
29071,0,USMissouriFranklin,Missouri,Franklin,2021-04-04 08:23:45.957139,2020-03-27 00:00:00.000000,0.01410545,0.02752983,0.08557176,14,28,88,8,18,58,0.00825774,0.01736817,0.05659861,0.17600776,0.27059529,0.42896362
29071,0,USMissouriFranklin,Missouri,Franklin,2021-04-04 08:23:45.957139,2020-03-28 00:00:00.000000,0.01518339,0.02895809,0.08886956,15,30,92,9,19,62,0.00912671,0.01903274,0.06041654,0.17017365,0.25506949,0.39954157
29071,0,USMissouriFranklin,Missouri,Franklin,2021-04-04 08:23:45.957139,2020-03-29 00:00:00.000000,0.01623507,0.03132238,0.09080819,16,32,94,10,21,65,0.00997171,0.02052477,0.06335521,0.16543009,0.24160167,0.38338515
29071,0,USMissouriFranklin,Missouri,Franklin,2021-04-04 08:23:45.957139,2020-03-30 00:00:00.000000,0.01833655,0.03446215,0.09298605,19,35,96,11,22,67,0.01075714,0.02201804,0.06534661,0.16272341,0.23577513,0.35810845
29071,0,USMissouriFranklin,Missouri,Franklin,2021-04-04 08:23:45.957139,2020-03-31 00:00:00.000000,0.02043351,0.03694845,0.09447579,21,38,98,12,24,69,0.01249409,0.02387357,0.06710674,0.15743317,0.22590918,0.34013749
29071,0,USMissouriFranklin,Missouri,Franklin,2021-04-04 08:23:45.957139,2020-04-01 00:00:00.000000,0.02183980,0.03891239,0.09561314,22,40,99,14,26,71,0.01390523,0.02538429,0.06850069,0.14297561,0.22110100,0.29724237
29071,0,USMissouriFranklin,Missouri,Franklin,2021-04-04 08:23:45.957139,2020-04-02 00:00:00.000000,0.02238845,0.04093831,0.09648104,23,42,100,15,27,72,0.01494840,0.02683715,0.06958435,0.13976275,0.21522347,0.27411204
29071,0,USMissouriFranklin,Missouri,Franklin,2021-04-04 08:23:45.957139,2020-04-03 00:00:00.000000,0.02270340,0.04207930,0.09748990,23,43,101,16,29,73,0.01573615,0.02834983,0.07042765,0.12966859,0.20519555,0.26430210
29071,0,USMissouriFranklin,Missouri,Franklin,2021-04-04 08:23:45.957139,2020-04-04 00:00:00.000000,0.02357412,0.04338685,0.09975604,24,45,103,17,30,73,0.01642832,0.02976967,0.07106050,0.12366517,0.19342092,0.25414752
29071,0,USMissouriFranklin,Missouri,Franklin,2021-04-04 08:23:45.957139,2020-04-05 00:00:00.000000,0.02483878,0.04510688,0.10135111,25,46,105,17,32,74,0.01693078,0.03110197,0.07151090,0.12065560,0.17980259,0.24270126
29071,0,USMissouriFranklin,Missouri,Franklin,2021-04-04 08:23:45.957139,2020-04-06 00:00:00.000000,0.02612662,0.04593770,0.10287372,27,47,106,18,33,74,0.01780466,0.03227121,0.07183361,0.11648462,0.17082612,0.23267019
29071,0,USMissouriFranklin,Missouri,Franklin,2021-04-04 08:23:45.957139,2020-04-07 00:00:00.000000,0.02707984,0.04773121,0.10418149,28,49,108,19,34,74,0.01847979,0.03340886,0.07207871,0.11014222,0.16236022,0.22628136
29071,0,USMissouriFranklin,Missouri,Franklin,2021-04-04 08:23:45.957139,2020-04-08 00:00:00.000000,0.02802015,0.04861356,0.10537261,29,50,109,19,35,75,0.01917279,0.03393401,0.07227848,0.10651977,0.15703134,0.22544796
29071,0,USMissouriFranklin,Missouri,Franklin,2021-04-04 08:23:45.957139,2020-04-09 00:00:00.000000,0.02876101,0.04999423,0.10647880,29,51,110,20,35,75,0.01960005,0.03429674,0.07244962,0.10414553,0.15014325,0.22529574
29071,0,USMissouriFranklin,Missouri,Franklin,2021-04-04 08:23:45.957139,2020-04-10 00:00:00.000000,0.02965910,0.05037000,0.10660108,30,52,110,21,36,75,0.02041813,0.03467396,0.07260093,0.10062117,0.14581703,0.22439926
29071,0,USMissouriFranklin,Missouri,Franklin,2021-04-04 08:23:45.957139,2020-04-11 00:00:00.000000,0.03034466,0.05016192,0.10866251,31,52,112,22,36,75,0.02118680,0.03490021,0.07273541,0.09202409,0.13894812,0.22024983
29071,0,USMissouriFranklin,Missouri,Franklin,2021-04-04 08:23:45.957139,2020-04-12 00:00:00.000000,0.03094533,0.04929462,0.10971697,32,51,114,22,36,78,0.02186418,0.03553944,0.07502731,0.08924464,0.13730664,0.21305777
29071,0,USMissouriFranklin,Missouri,Franklin,2021-04-04 08:23:45.957139,2020-04-13 00:00:00.000000,0.03022210,0.04895700,0.11152312,31,50,115,23,36,78,0.02230308,0.03529295,0.07549798,0.08840869,0.13145728,0.18819909
29071,0,USMissouriFranklin,Missouri,Franklin,2021-04-04 08:23:45.957139,2020-04-14 00:00:00.000000,0.03116271,0.04859699,0.11318253,32,50,117,22,36,77,0.02156276,0.03533898,0.07435579,0.08785388,0.13097826,0.18339997
29071,0,USMissouriFranklin,Missouri,Franklin,2021-04-04 08:23:45.957139,2020-04-15 00:00:00.000000,0.03185189,0.04823500,0.11475441,33,50,119,23,36,77,0.02221981,0.03533029,0.07487886,0.08706046,0.12852602,0.18029567
29071,0,USMissouriFranklin,Missouri,Franklin,2021-04-04 08:23:45.957139,2020-04-16 00:00:00.000000,0.03209588,0.04806993,0.11611036,33,49,120,22,37,78,0.02161086,0.03588048,0.07594950,0.08573870,0.12488766,0.17289865
29071,0,USMissouriFranklin,Missouri,Franklin,2021-04-04 08:23:45.957139,2020-04-17 00:00:00.000000,0.03233182,0.04868801,0.11683341,33,50,121,23,37,79,0.02237796,0.03566065,0.07693508,0.08240357,0.12117358,0.16618241
29071,0,USMissouriFranklin,Missouri,Franklin,2021-04-04 08:23:45.957139,2020-04-18 00:00:00.000000,0.03256205,0.04948557,0.11589534,33,51,120,24,36,80,0.02316040,0.03554322,0.07765259,0.08072364,0.11779543,0.16371503
29071,0,USMissouriFranklin,Missouri,Franklin,2021-04-04 08:23:45.957139,2020-04-19 00:00:00.000000,0.03167736,0.05024245,0.11381018,32,52,118,24,37,81,0.02389391,0.03604812,0.07799159,0.07766813,0.11501686,0.16170571
29071,0,USMissouriFranklin,Missouri,Franklin,2021-04-04 08:23:45.957139,2020-04-20 00:00:00.000000,0.03278475,0.04979733,0.11070740,34,51,115,24,37,81,0.02327411,0.03619594,0.07804769,0.07499687,0.11341667,0.16160850
29071,0,USMissouriFranklin,Missouri,Franklin,2021-04-04 08:23:45.957139,2020-04-21 00:00:00.000000,0.03277951,0.04885102,0.10763216,34,50,111,24,37,80,0.02358224,0.03606176,0.07725272,0.07305401,0.11194604,0.16180417
29071,0,USMissouriFranklin,Missouri,Franklin,2021-04-04 08:23:45.957139,2020-04-22 00:00:00.000000,0.03157281,0.04807659,0.10460527,32,49,108,23,37,79,0.02272652,0.03560882,0.07600733,0.06811616,0.11098978,0.16346773
29071,0,USMissouriFranklin,Missouri,Franklin,2021-04-04 08:23:45.957139,2020-04-23 00:00:00.000000,0.03014439,0.04899819,0.10167422,31,50,105,22,36,77,0.02179319,0.03514297,0.07452322,0.06490491,0.10799897,0.16566949
29071,0,USMissouriFranklin,Missouri,Franklin,2021-04-04 08:23:45.957139,2020-04-24 00:00:00.000000,0.02877140,0.04847777,0.09886622,29,50,102,21,36,75,0.02082766,0.03537333,0.07290709,0.06307843,0.10582787,0.16584530
29071,0,USMissouriFranklin,Missouri,Franklin,2021-04-04 08:23:45.957139,2020-04-25 00:00:00.000000,0.02765568,0.04804218,0.09621500,28,49,100,20,36,73,0.01989087,0.03537799,0.07100769,0.06111434,0.10380947,0.16479138
29071,0,USMissouriFranklin,Missouri,Franklin,2021-04-04 08:23:45.957139,2020-04-26 00:00:00.000000,0.02677559,0.04836973,0.09374692,27,50,97,20,35,71,0.01974007,0.03444683,0.06913737,0.05944773,0.10152626,0.16400762
29071,0,USMissouriFranklin,Missouri,Franklin,2021-04-04 08:23:45.957139,2020-04-27 00:00:00.000000,0.02531713,0.04729553,0.09379477,26,49,97,19,35,70,0.01896067,0.03397952,0.06736722,0.05911810,0.09969209,0.16088799
29071,0,USMissouriFranklin,Missouri,Franklin,2021-04-04 08:23:45.957139,2020-04-28 00:00:00.000000,0.02391938,0.04679856,0.09082383,24,48,94,18,35,68,0.01795805,0.03394946,0.06615117,0.05904075,0.09898894,0.15808640
29071,0,USMissouriFranklin,Missouri,Franklin,2021-04-04 08:23:45.957139,2020-04-29 00:00:00.000000,0.02259083,0.04679829,0.08806516,23,48,91,17,34,67,0.01698217,0.03349662,0.06478613,0.05717997,0.09587277,0.15417225
29071,0,USMissouriFranklin,Missouri,Franklin,2021-04-04 08:23:45.957139,2020-04-30 00:00:00.000000,0.02133376,0.04613393,0.08561949,22,47,89,16,35,65,0.01604838,0.03391353,0.06320625,0.05494312,0.09677540,0.15261254
29071,0,USMissouriFranklin,Missouri,Franklin,2021-04-04 08:23:45.957139,2020-05-01 00:00:00.000000,0.02014387,0.04591314,0.08349414,20,47,86,15,34,64,0.01516079,0.03351006,0.06156603,0.05542783,0.09592227,0.14803759
29071,0,USMissouriFranklin,Missouri,Franklin,2021-04-04 08:23:45.957139,2020-05-02 00:00:00.000000,0.01902060,0.04577170,0.08160793,19,47,84,14,34,62,0.01431978,0.03366209,0.05992044,0.05743227,0.09312741,0.14278667
29071,0,USMissouriFranklin,Missouri,Franklin,2021-04-04 08:23:45.957139,2020-05-03 00:00:00.000000,0.01796685,0.04543041,0.07988050,18,47,83,14,34,60,0.01352477,0.03336447,0.05829911,0.05628212,0.09295798,0.14752627
29071,0,USMissouriFranklin,Missouri,Franklin,2021-04-04 08:23:45.957139,2020-05-04 00:00:00.000000,0.01835205,0.04492780,0.07816260,19,46,81,13,34,58,0.01277692,0.03326759,0.05672148,0.05728905,0.09253134,0.14958968
29071,0,USMissouriFranklin,Missouri,Franklin,2021-04-04 08:23:45.957139,2020-05-05 00:00:00.000000,0.01983691,0.04382140,0.07653793,20,45,79,13,33,57,0.01252717,0.03267367,0.05567887,0.05515528,0.09211301,0.14752392
29071,0,USMissouriFranklin,Missouri,Franklin,2021-04-04 08:23:45.957139,2020-05-06 00:00:00.000000,0.02145240,0.04352096,0.07499887,22,45,77,13,33,58,0.01306447,0.03198759,0.05598987,0.05403702,0.09102397,0.14763600
29071,0,USMissouriFranklin,Missouri,Franklin,2021-04-04 08:23:45.957139,2020-05-07 00:00:00.000000,0.02302426,0.04302089,0.07354636,23,44,76,14,32,56,0.01408531,0.03144312,0.05481042,0.05369998,0.09010213,0.14727020
29071,0,USMissouriFranklin,Missouri,Franklin,2021-04-04 08:23:45.957139,2020-05-08 00:00:00.000000,0.02445376,0.04211599,0.07218266,25,43,75,15,32,55,0.01512132,0.03142397,0.05369340,0.05354061,0.09093593,0.14604245
29071,0,USMissouriFranklin,Missouri,Franklin,2021-04-04 08:23:45.957139,2020-05-09 00:00:00.000000,0.02482601,0.04113987,0.07090908,25,42,73,16,32,54,0.01609550,0.03119089,0.05263913,0.05141278,0.09139969,0.14191398
29071,0,USMissouriFranklin,Missouri,Franklin,2021-04-04 08:23:45.957139,2020-05-10 00:00:00.000000,0.02363514,0.04074286,0.06972372,24,42,72,17,32,53,0.01696671,0.03079340,0.05164836,0.05003591,0.09153384,0.13938932
29071,0,USMissouriFranklin,Missouri,Franklin,2021-04-04 08:23:45.957139,2020-05-11 00:00:00.000000,0.02313417,0.04026691,0.07029954,24,41,73,17,31,52,0.01711536,0.03009667,0.05072086,0.04966807,0.09040188,0.13435320
29071,0,USMissouriFranklin,Missouri,Franklin,2021-04-04 08:23:45.957139,2020-05-12 00:00:00.000000,0.02268659,0.03936251,0.07137107,23,40,74,17,30,52,0.01666809,0.02955719,0.05024309,0.04956096,0.08908379,0.13609815
29071,0,USMissouriFranklin,Missouri,Franklin,2021-04-04 08:23:45.957139,2020-05-13 00:00:00.000000,0.02230236,0.03873679,0.07249664,23,40,75,17,30,52,0.01644992,0.02925407,0.05083017,0.04954271,0.08830033,0.13417269
29071,0,USMissouriFranklin,Missouri,Franklin,2021-04-04 08:23:45.957139,2020-05-14 00:00:00.000000,0.02155031,0.03854332,0.07367042,22,40,76,16,29,53,0.01630668,0.02879894,0.05152926,0.04927311,0.08712846,0.13369731
29071,0,USMissouriFranklin,Missouri,Franklin,2021-04-04 08:23:45.957139,2020-05-15 00:00:00.000000,0.02077936,0.03803301,0.07488745,21,39,77,16,29,54,0.01588960,0.02839419,0.05229730,0.04927955,0.08744740,0.13611927
29071,0,USMissouriFranklin,Missouri,Franklin,2021-04-04 08:23:45.957139,2020-05-16 00:00:00.000000,0.01997333,0.03782136,0.07611913,20,39,79,15,29,55,0.01517438,0.02830569,0.05311417,0.04938329,0.08651440,0.13590203
29071,0,USMissouriFranklin,Missouri,Franklin,2021-04-04 08:23:45.957139,2020-05-17 00:00:00.000000,0.01909568,0.03709616,0.07733519,19,38,80,15,28,56,0.01450836,0.02766882,0.05396058,0.04791105,0.08588614,0.13468212
29071,0,USMissouriFranklin,Missouri,Franklin,2021-04-04 08:23:45.957139,2020-05-18 00:00:00.000000,0.01854413,0.03732444,0.07899108,19,38,82,14,28,56,0.01352796,0.02723725,0.05481597,0.04738414,0.08702741,0.13555787
29071,0,USMissouriFranklin,Missouri,Franklin,2021-04-04 08:23:45.957139,2020-05-19 00:00:00.000000,0.01787704,0.03614496,0.07744444,18,37,80,13,27,57,0.01310393,0.02660148,0.05551843,0.04678889,0.08718388,0.13589566
29071,0,USMissouriFranklin,Missouri,Franklin,2021-04-04 08:23:45.957139,2020-05-20 00:00:00.000000,0.01718262,0.03549451,0.08131360,17,36,84,13,27,56,0.01284829,0.02622515,0.05471756,0.04699284,0.08840174,0.13590955
29071,0,USMissouriFranklin,Missouri,Franklin,2021-04-04 08:23:45.957139,2020-05-21 00:00:00.000000,0.01653270,0.03604592,0.08413977,17,37,87,13,26,57,0.01252358,0.02560554,0.05540102,0.04722384,0.09096362,0.13591821
29071,0,USMissouriFranklin,Missouri,Franklin,2021-04-04 08:23:45.957139,2020-05-22 00:00:00.000000,0.01592608,0.03565456,0.08584133,16,37,89,12,26,58,0.01200480,0.02586759,0.05604968,0.04720546,0.09222200,0.13822815
29071,0,USMissouriFranklin,Missouri,Franklin,2021-04-04 08:23:45.957139,2020-05-23 00:00:00.000000,0.01536052,0.03594170,0.08777056,15,37,91,11,27,59,0.01153166,0.02654862,0.05764048,0.04721009,0.09231482,0.13586167
29071,0,USMissouriFranklin,Missouri,Franklin,2021-04-04 08:23:45.957139,2020-05-24 00:00:00.000000,0.01483317,0.03566008,0.08983862,15,37,93,11,27,62,0.01110533,0.02633427,0.06019142,0.04735076,0.09055849,0.13574565
29071,0,USMissouriFranklin,Missouri,Franklin,2021-04-04 08:23:45.957139,2020-05-25 00:00:00.000000,0.01495455,0.03487621,0.08856040,15,36,92,11,27,65,0.01072708,0.02661432,0.06282743,0.04842075,0.09015164,0.14521045
29071,0,USMissouriFranklin,Missouri,Franklin,2021-04-04 08:23:45.957139,2020-05-26 00:00:00.000000,0.01510779,0.03470434,0.08728311,15,36,90,10,27,65,0.01050320,0.02642888,0.06277311,0.04949228,0.09094960,0.14493212
29071,0,USMissouriFranklin,Missouri,Franklin,2021-04-04 08:23:45.957139,2020-05-27 00:00:00.000000,0.01513400,0.03476988,0.08597228,15,36,89,10,27,64,0.01036385,0.02608307,0.06201439,0.04944020,0.09177572,0.14331390
29071,0,USMissouriFranklin,Missouri,Franklin,2021-04-04 08:23:45.957139,2020-05-28 00:00:00.000000,0.01505707,0.03430421,0.08467483,15,35,88,10,26,63,0.01027065,0.02564337,0.06116456,0.04945162,0.09169180,0.14075179
29071,0,USMissouriFranklin,Missouri,Franklin,2021-04-04 08:23:45.957139,2020-05-29 00:00:00.000000,0.01500117,0.03409810,0.08341371,15,35,86,10,26,62,0.01020386,0.02518832,0.06028014,0.04988108,0.09222475,0.13875939
29071,0,USMissouriFranklin,Missouri,Franklin,2021-04-04 08:23:45.957139,2020-05-30 00:00:00.000000,0.01496529,0.03398310,0.08219790,15,35,85,10,26,61,0.01015596,0.02518094,0.05939352,0.05032691,0.09294974,0.14068031
29071,0,USMissouriFranklin,Missouri,Franklin,2021-04-04 08:23:45.957139,2020-05-31 00:00:00.000000,0.01495425,0.03352341,0.08102845,15,34,84,10,25,60,0.01012788,0.02487829,0.05852191,0.05247865,0.09360579,0.14377028
29071,0,USMissouriFranklin,Missouri,Franklin,2021-04-04 08:23:45.957139,2020-06-01 00:00:00.000000,0.01579400,0.03386527,0.07908859,16,35,82,10,25,59,0.01011571,0.02454496,0.05767286,0.05370570,0.09606916,0.15401994
29071,0,USMissouriFranklin,Missouri,Franklin,2021-04-04 08:23:45.957139,2020-06-02 00:00:00.000000,0.01667467,0.03477386,0.07718673,17,36,80,11,25,58,0.01063114,0.02482644,0.05653699,0.05856419,0.09723831,0.15905314
29071,0,USMissouriFranklin,Missouri,Franklin,2021-04-04 08:23:45.957139,2020-06-03 00:00:00.000000,0.01735324,0.03513581,0.07529145,18,36,78,11,26,57,0.01101359,0.02526152,0.05528025,0.05775130,0.09870202,0.15847626
29071,0,USMissouriFranklin,Missouri,Franklin,2021-04-04 08:23:45.957139,2020-06-04 00:00:00.000000,0.01693311,0.03535329,0.07344024,17,36,76,12,26,56,0.01159171,0.02541026,0.05398600,0.05746101,0.09889099,0.15175230
29071,0,USMissouriFranklin,Missouri,Franklin,2021-04-04 08:23:45.957139,2020-06-05 00:00:00.000000,0.01627245,0.03589111,0.07164331,16,37,74,12,26,54,0.01167557,0.02561910,0.05269546,0.05913505,0.09994356,0.14765560
29071,0,USMissouriFranklin,Missouri,Franklin,2021-04-04 08:23:45.957139,2020-06-06 00:00:00.000000,0.01590449,0.03612429,0.07256525,16,37,75,11,27,53,0.01139402,0.02597589,0.05142787,0.06214369,0.10319614,0.14932585
29071,0,USMissouriFranklin,Missouri,Franklin,2021-04-04 08:23:45.957139,2020-06-07 00:00:00.000000,0.01556459,0.03612117,0.07376654,16,37,76,11,26,52,0.01113640,0.02582270,0.05018972,0.06103559,0.10595375,0.15499891
29071,0,USMissouriFranklin,Missouri,Franklin,2021-04-04 08:23:45.957139,2020-06-08 00:00:00.000000,0.01541064,0.03653351,0.07216861,16,37,75,11,26,51,0.01089901,0.02580849,0.04998494,0.06247206,0.10666531,0.16488420
29071,0,USMissouriFranklin,Missouri,Franklin,2021-04-04 08:23:45.957139,2020-06-09 00:00:00.000000,0.01570895,0.03694024,0.07040742,16,38,73,11,26,52,0.01071807,0.02572575,0.05025422,0.06343914,0.10714652,0.16327675
29071,0,USMissouriFranklin,Missouri,Franklin,2021-04-04 08:23:45.957139,2020-06-10 00:00:00.000000,0.01599601,0.03711723,0.06954419,16,38,72,10,27,53,0.01055344,0.02597597,0.05120593,0.06401391,0.10825218,0.16230836
29071,0,USMissouriFranklin,Missouri,Franklin,2021-04-04 08:23:45.957139,2020-06-11 00:00:00.000000,0.01626367,0.03776678,0.07075727,16,39,73,11,27,54,0.01072972,0.02620830,0.05215335,0.06436630,0.11141587,0.16533453
29071,0,USMissouriFranklin,Missouri,Franklin,2021-04-04 08:23:45.957139,2020-06-12 00:00:00.000000,0.01650790,0.03786297,0.07194502,17,39,74,11,27,55,0.01091031,0.02660761,0.05307643,0.06439510,0.11231196,0.17119654
29071,0,USMissouriFranklin,Missouri,Franklin,2021-04-04 08:23:45.957139,2020-06-13 00:00:00.000000,0.01672992,0.03788274,0.07310842,17,39,76,11,27,54,0.01107655,0.02687661,0.05216080,0.06509666,0.11329577,0.17789368
29071,0,USMissouriFranklin,Missouri,Franklin,2021-04-04 08:23:45.957139,2020-06-14 00:00:00.000000,0.01693768,0.03853072,0.07185110,17,40,74,11,28,53,0.01123001,0.02706623,0.05124351,0.06586310,0.11394444,0.20150798
29071,0,USMissouriFranklin,Missouri,Franklin,2021-04-04 08:23:45.957139,2020-06-15 00:00:00.000000,0.01804650,0.03940487,0.07334987,18,40,76,11,28,53,0.01137582,0.02739785,0.05132204,0.06751104,0.11399902,0.20020738
29071,0,USMissouriFranklin,Missouri,Franklin,2021-04-04 08:23:45.957139,2020-06-16 00:00:00.000000,0.01919906,0.04006196,0.07246727,19,41,75,12,28,53,0.01192765,0.02776563,0.05121879,0.07064599,0.11601013,0.19702927
29071,0,USMissouriFranklin,Missouri,Franklin,2021-04-04 08:23:45.957139,2020-06-17 00:00:00.000000,0.02137116,0.04064416,0.07412876,22,42,77,13,29,53,0.01268611,0.02796965,0.05123897,0.07552327,0.11925795,0.19755338
29071,0,USMissouriFranklin,Missouri,Franklin,2021-04-04 08:23:45.957139,2020-06-18 00:00:00.000000,0.02152358,0.04204646,0.07907161,22,43,82,14,30,54,0.01440015,0.02912839,0.05238512,0.07732072,0.12069962,0.21686612
29071,0,USMissouriFranklin,Missouri,Franklin,2021-04-04 08:23:45.957139,2020-06-19 00:00:00.000000,0.02224006,0.04309404,0.08124057,23,44,84,16,30,56,0.01555794,0.02977524,0.05411891,0.08375920,0.12442081,0.21741901
29071,0,USMissouriFranklin,Missouri,Franklin,2021-04-04 08:23:45.957139,2020-06-20 00:00:00.000000,0.02235464,0.04344852,0.08358950,23,45,86,16,32,57,0.01581822,0.03082741,0.05492254,0.08385075,0.12927128,0.21969390
29071,0,USMissouriFranklin,Missouri,Franklin,2021-04-04 08:23:45.957139,2020-06-21 00:00:00.000000,0.02244486,0.04384845,0.08623608,23,45,89,16,32,60,0.01591965,0.03137629,0.05842323,0.08395267,0.13401358,0.22485103
29071,0,USMissouriFranklin,Missouri,Franklin,2021-04-04 08:23:45.957139,2020-06-22 00:00:00.000000,0.02247223,0.04539012,0.08864518,23,47,92,17,33,65,0.01639555,0.03210851,0.06318780,0.08385795,0.13550860,0.23062527
29071,0,USMissouriFranklin,Missouri,Franklin,2021-04-04 08:23:45.957139,2020-06-23 00:00:00.000000,0.02261710,0.04762197,0.09133817,23,49,94,17,34,67,0.01649475,0.03276061,0.06510567,0.08399004,0.13598965,0.23757793
29071,0,USMissouriFranklin,Missouri,Franklin,2021-04-04 08:23:45.957139,2020-06-24 00:00:00.000000,0.02242176,0.04883200,0.09331704,23,50,97,17,34,68,0.01662560,0.03355033,0.06604444,0.08447339,0.13971004,0.24520898
29071,0,USMissouriFranklin,Missouri,Franklin,2021-04-04 08:23:45.957139,2020-06-25 00:00:00.000000,0.02237462,0.05128392,0.09724018,23,53,101,17,35,69,0.01659497,0.03437982,0.06670749,0.08592322,0.14468324,0.25500183
29071,0,USMissouriFranklin,Missouri,Franklin,2021-04-04 08:23:45.957139,2020-06-26 00:00:00.000000,0.02233373,0.05290578,0.10121135,23,55,105,17,37,69,0.01656260,0.03573329,0.06712719,0.08978836,0.15211420,0.26394600
29071,0,USMissouriFranklin,Missouri,Franklin,2021-04-04 08:23:45.957139,2020-06-27 00:00:00.000000,0.02232267,0.05340967,0.10523966,23,55,109,17,38,71,0.01653345,0.03728611,0.06875026,0.09764836,0.15507844,0.28218242
29071,0,USMissouriFranklin,Missouri,Franklin,2021-04-04 08:23:45.957139,2020-06-28 00:00:00.000000,0.02236645,0.05482336,0.10916714,23,56,113,17,39,74,0.01651313,0.03809051,0.07184890,0.10201966,0.16293027,0.29316958
29071,0,USMissouriFranklin,Missouri,Franklin,2021-04-04 08:23:45.957139,2020-06-29 00:00:00.000000,0.02415885,0.05613339,0.11455642,25,58,119,17,40,78,0.01651454,0.03851447,0.07530811,0.09459415,0.16862460,0.30029279
29071,0,USMissouriFranklin,Missouri,Franklin,2021-04-04 08:23:45.957139,2020-06-30 00:00:00.000000,0.02599670,0.05834187,0.12071705,27,60,125,17,41,82,0.01715184,0.03952367,0.07918863,0.09067084,0.17688205,0.30416251
29071,0,USMissouriFranklin,Missouri,Franklin,2021-04-04 08:23:45.957139,2020-07-01 00:00:00.000000,0.02795832,0.06048138,0.12280766,29,62,127,18,42,87,0.01762890,0.04101851,0.08382552,0.09004216,0.18268158,0.30640979
29071,0,USMissouriFranklin,Missouri,Franklin,2021-04-04 08:23:45.957139,2020-07-02 00:00:00.000000,0.02996623,0.06246968,0.13400201,31,64,139,21,44,91,0.02026047,0.04246488,0.08781167,0.09210362,0.18908727,0.31374165
29071,0,USMissouriFranklin,Missouri,Franklin,2021-04-04 08:23:45.957139,2020-07-03 00:00:00.000000,0.03042577,0.06433825,0.14064111,31,66,146,22,46,96,0.02172790,0.04433888,0.09256562,0.09875238,0.18976801,0.31750564
29071,0,USMissouriFranklin,Missouri,Franklin,2021-04-04 08:23:45.957139,2020-07-04 00:00:00.000000,0.03089837,0.06661807,0.14850182,32,69,154,22,47,101,0.02198170,0.04608412,0.09732696,0.10627482,0.19082425,0.33409277
29071,0,USMissouriFranklin,Missouri,Franklin,2021-04-04 08:23:45.957139,2020-07-05 00:00:00.000000,0.03138633,0.06854751,0.16034256,32,71,166,23,48,108,0.02224062,0.04691621,0.10458167,0.10784541,0.19406646,0.34473517
29071,0,USMissouriFranklin,Missouri,Franklin,2021-04-04 08:23:45.957139,2020-07-06 00:00:00.000000,0.03330357,0.07126456,0.17046225,34,74,177,22,50,117,0.02205117,0.04838349,0.11309503,0.11298272,0.19574862,0.34718469
29071,0,USMissouriFranklin,Missouri,Franklin,2021-04-04 08:23:45.957139,2020-07-07 00:00:00.000000,0.03470637,0.07448806,0.18097953,36,77,188,24,51,125,0.02309781,0.04972925,0.12108475,0.10914580,0.20133260,0.34627333
29071,0,USMissouriFranklin,Missouri,Franklin,2021-04-04 08:23:45.957139,2020-07-08 00:00:00.000000,0.03653634,0.07754936,0.19172179,37,80,199,25,53,134,0.02498440,0.05141595,0.12899157,0.10782997,0.20471762,0.34184672
29071,0,USMissouriFranklin,Missouri,Franklin,2021-04-04 08:23:45.957139,2020-07-09 00:00:00.000000,0.04042166,0.07888477,0.20265123,42,82,210,27,55,142,0.02627411,0.05302333,0.13697383,0.10920547,0.20931863,0.32977888
29071,0,USMissouriFranklin,Missouri,Franklin,2021-04-04 08:23:45.957139,2020-07-10 00:00:00.000000,0.04442910,0.08272064,0.21365936,46,86,222,28,56,150,0.02770289,0.05468944,0.14508779,0.11086746,0.21934942,0.30772638
29071,0,USMissouriFranklin,Missouri,Franklin,2021-04-04 08:23:45.957139,2020-07-11 00:00:00.000000,0.04746318,0.08841889,0.22476409,49,91,233,31,59,159,0.03012811,0.05770730,0.15334106,0.11574860,0.22818084,0.32906080
29071,0,USMissouriFranklin,Missouri,Franklin,2021-04-04 08:23:45.957139,2020-07-12 00:00:00.000000,0.04840395,0.09376009,0.23591031,50,97,245,34,62,168,0.03281688,0.06034085,0.16171418,0.12085362,0.23295360,0.33751019
29071,0,USMissouriFranklin,Missouri,Franklin,2021-04-04 08:23:45.957139,2020-07-13 00:00:00.000000,0.05485378,0.09991629,0.24547114,57,103,255,35,66,176,0.03410922,0.06422137,0.17015879,0.12461747,0.23491267,0.36692742
29071,0,USMissouriFranklin,Missouri,Franklin,2021-04-04 08:23:45.957139,2020-07-14 00:00:00.000000,0.06352661,0.10441391,0.25460471,66,108,264,39,70,185,0.03817372,0.06755774,0.17796722,0.12436884,0.23420309,0.37416833
29071,0,USMissouriFranklin,Missouri,Franklin,2021-04-04 08:23:45.957139,2020-07-15 00:00:00.000000,0.06975957,0.10974816,0.26280697,72,114,273,44,74,192,0.04293209,0.07176924,0.18529530,0.12422453,0.23878545,0.37671112
29071,0,USMissouriFranklin,Missouri,Franklin,2021-04-04 08:23:45.957139,2020-07-16 00:00:00.000000,0.07449271,0.11599582,0.26996919,77,120,280,47,78,199,0.04606444,0.07591908,0.19205627,0.12416454,0.23943163,0.37763644
29071,0,USMissouriFranklin,Missouri,Franklin,2021-04-04 08:23:45.957139,2020-07-17 00:00:00.000000,0.07658697,0.12052859,0.27639543,79,125,287,51,84,205,0.04981267,0.08171797,0.19809669,0.12427456,0.24422335,0.37760055
29071,0,USMissouriFranklin,Missouri,Franklin,2021-04-04 08:23:45.957139,2020-07-18 00:00:00.000000,0.07880143,0.12733565,0.28243450,81,132,293,53,89,211,0.05160460,0.08597631,0.20350227,0.12967002,0.24884663,0.37762881
29071,0,USMissouriFranklin,Missouri,Franklin,2021-04-04 08:23:45.957139,2020-07-19 00:00:00.000000,0.08110834,0.13308699,0.28825318,84,138,299,55,93,216,0.05344352,0.08995396,0.20846055,0.13924510,0.25576893,0.37753940
29071,0,USMissouriFranklin,Missouri,Franklin,2021-04-04 08:23:45.957139,2020-07-20 00:00:00.000000,0.08523066,0.13988692,0.29266350,88,145,304,57,98,221,0.05534230,0.09483811,0.21314376,0.14141159,0.25985519,0.37842018
29071,0,USMissouriFranklin,Missouri,Franklin,2021-04-04 08:23:45.957139,2020-07-21 00:00:00.000000,0.08901748,0.14535145,0.29707510,92,151,308,59,101,225,0.05727158,0.09780036,0.21718348,0.15033287,0.26009327,0.37918021
29071,0,USMissouriFranklin,Missouri,Franklin,2021-04-04 08:23:45.957139,2020-07-22 00:00:00.000000,0.09186212,0.14984420,0.30146292,95,155,313,63,104,229,0.06106928,0.10030285,0.22090427,0.15102564,0.26036413,0.37918052
29071,0,USMissouriFranklin,Missouri,Franklin,2021-04-04 08:23:45.957139,2020-07-23 00:00:00.000000,0.09468130,0.15445970,0.30587024,98,160,318,65,107,233,0.06296515,0.10380812,0.22447306,0.15176988,0.26095872,0.37730531
29071,0,USMissouriFranklin,Missouri,Franklin,2021-04-04 08:23:45.957139,2020-07-24 00:00:00.000000,0.09739498,0.16204579,0.31569654,101,168,328,67,112,237,0.06481139,0.10785013,0.22797622,0.16692315,0.26509007,0.37405041
29071,0,USMissouriFranklin,Missouri,Franklin,2021-04-04 08:23:45.957139,2020-07-25 00:00:00.000000,0.09670738,0.17079691,0.33006539,100,177,343,69,116,240,0.06669028,0.11241176,0.23143113,0.17189849,0.27398626,0.37861486
29071,0,USMissouriFranklin,Missouri,Franklin,2021-04-04 08:23:45.957139,2020-07-26 00:00:00.000000,0.09926995,0.17519644,0.34236337,103,182,355,70,122,248,0.06798262,0.11795236,0.23939425,0.17129982,0.27480678,0.38728969
29071,0,USMissouriFranklin,Missouri,Franklin,2021-04-04 08:23:45.957139,2020-07-27 00:00:00.000000,0.10430815,0.18295480,0.35264336,108,190,366,71,129,258,0.06839338,0.12428274,0.24904791,0.18087796,0.27607586,0.38814619
29071,0,USMissouriFranklin,Missouri,Franklin,2021-04-04 08:23:45.957139,2020-07-28 00:00:00.000000,0.11034806,0.19304754,0.37074594,114,200,385,73,136,267,0.07078261,0.13089904,0.25728536,0.18094020,0.27620718,0.38854739
29071,0,USMissouriFranklin,Missouri,Franklin,2021-04-04 08:23:45.957139,2020-07-29 00:00:00.000000,0.11439622,0.20498763,0.40004012,118,213,415,76,143,275,0.07339710,0.13777168,0.26478721,0.18121113,0.27672347,0.38670261
29071,0,USMissouriFranklin,Missouri,Franklin,2021-04-04 08:23:45.957139,2020-07-30 00:00:00.000000,0.11851351,0.21807583,0.41475235,123,226,431,79,152,282,0.07608150,0.14629990,0.27201761,0.18204077,0.27729276,0.37595838
29071,0,USMissouriFranklin,Missouri,Franklin,2021-04-04 08:23:45.957139,2020-07-31 00:00:00.000000,0.12269876,0.23334326,0.42440291,127,242,441,81,161,303,0.07882574,0.15527012,0.29184676,0.19070772,0.27485811,0.37750385
29071,0,USMissouriFranklin,Missouri,Franklin,2021-04-04 08:23:45.957139,2020-08-01 00:00:00.000000,0.12702746,0.24959423,0.44051824,132,259,457,84,170,321,0.08162045,0.16444559,0.30898060,0.20251969,0.27291267,0.37720819
29071,0,USMissouriFranklin,Missouri,Franklin,2021-04-04 08:23:45.957139,2020-08-02 00:00:00.000000,0.13165275,0.26601799,0.46327346,136,276,481,87,178,328,0.08448580,0.17211357,0.31617326,0.20342176,0.27687613,0.37617137
29071,0,USMissouriFranklin,Missouri,Franklin,2021-04-04 08:23:45.957139,2020-08-03 00:00:00.000000,0.13570134,0.27599050,0.48295089,141,286,502,90,189,337,0.08748957,0.18201306,0.32446224,0.20447216,0.27764688,0.37514215
29071,0,USMissouriFranklin,Missouri,Franklin,2021-04-04 08:23:45.957139,2020-08-04 00:00:00.000000,0.14081261,0.28626754,0.50199591,146,297,521,93,197,353,0.09032397,0.18960401,0.33987462,0.20923979,0.27853724,0.37638980
29071,0,USMissouriFranklin,Missouri,Franklin,2021-04-04 08:23:45.957139,2020-08-05 00:00:00.000000,0.15343144,0.29761972,0.50399356,159,309,523,97,206,368,0.09354571,0.19840792,0.35475247,0.20868583,0.27725556,0.38398656
29071,0,USMissouriFranklin,Missouri,Franklin,2021-04-04 08:23:45.957139,2020-08-06 00:00:00.000000,0.15831365,0.31044695,0.50556200,164,322,525,106,216,384,0.10222221,0.20835122,0.36952045,0.20806909,0.27773224,0.38499971
29071,0,USMissouriFranklin,Missouri,Franklin,2021-04-04 08:23:45.957139,2020-08-07 00:00:00.000000,0.16335745,0.32113267,0.50708872,169,333,527,114,228,399,0.10982774,0.21999491,0.38432427,0.20785339,0.28022702,0.38219905
29071,0,USMissouriFranklin,Missouri,Franklin,2021-04-04 08:23:45.957139,2020-08-08 00:00:00.000000,0.17190924,0.33171292,0.51384227,178,344,534,117,239,408,0.11327037,0.23070734,0.39290077,0.20782005,0.27289068,0.38374021
29071,0,USMissouriFranklin,Missouri,Franklin,2021-04-04 08:23:45.957139,2020-08-09 00:00:00.000000,0.18124029,0.34208013,0.53811225,188,355,559,121,249,410,0.11683895,0.24019112,0.39446849,0.20514280,0.27155293,0.38198544
29071,0,USMissouriFranklin,Missouri,Franklin,2021-04-04 08:23:45.957139,2020-08-10 00:00:00.000000,0.19097155,0.35283631,0.55798873,198,366,580,125,258,413,0.12054352,0.24911031,0.39742982,0.20337796,0.26799773,0.37402023
29071,0,USMissouriFranklin,Missouri,Franklin,2021-04-04 08:23:45.957139,2020-08-11 00:00:00.000000,0.19980665,0.36533345,0.57703898,207,379,599,130,265,423,0.12587524,0.25507871,0.40700333,0.20191798,0.26790688,0.37339145
29071,0,USMissouriFranklin,Missouri,Franklin,2021-04-04 08:23:45.957139,2020-08-12 00:00:00.000000,0.20426103,0.37543656,0.59626718,212,390,619,135,269,436,0.12999643,0.25942364,0.41977889,0.20164015,0.26891312,0.37251544
29071,0,USMissouriFranklin,Missouri,Franklin,2021-04-04 08:23:45.957139,2020-08-13 00:00:00.000000,0.20879556,0.38553766,0.60650544,217,400,630,140,279,447,0.13508479,0.26879438,0.43008516,0.20195984,0.26798682,0.37273241
29071,0,USMissouriFranklin,Missouri,Franklin,2021-04-04 08:23:45.957139,2020-08-14 00:00:00.000000,0.21565102,0.39560863,0.61911657,224,411,643,146,286,451,0.14078838,0.27575593,0.43380800,0.20355310,0.26928893,0.36172337
29071,0,USMissouriFranklin,Missouri,Franklin,2021-04-04 08:23:45.957139,2020-08-15 00:00:00.000000,0.21917591,0.41096595,0.64067273,227,427,666,152,294,463,0.14714073,0.28291058,0.44565064,0.20745078,0.26925911,0.36370524
29071,0,USMissouriFranklin,Missouri,Franklin,2021-04-04 08:23:45.957139,2020-08-16 00:00:00.000000,0.22297963,0.42900007,0.65482336,231,446,680,159,304,476,0.15313808,0.29322582,0.45859913,0.21159792,0.26833086,0.37252284
29071,0,USMissouriFranklin,Missouri,Franklin,2021-04-04 08:23:45.957139,2020-08-17 00:00:00.000000,0.23515610,0.44790880,0.66813307,244,465,694,163,317,490,0.15695887,0.30551382,0.47167287,0.21301398,0.27223106,0.37844831
29071,0,USMissouriFranklin,Missouri,Franklin,2021-04-04 08:23:45.957139,2020-08-18 00:00:00.000000,0.24911713,0.46529818,0.68467204,258,483,711,172,329,498,0.16617342,0.31683304,0.47953093,0.21338667,0.27034191,0.38021002
29071,0,USMissouriFranklin,Missouri,Franklin,2021-04-04 08:23:45.957139,2020-08-19 00:00:00.000000,0.26382381,0.47993395,0.70002285,274,498,727,182,342,515,0.17599437,0.32987136,0.49611685,0.21303180,0.27713305,0.37999183
29071,0,USMissouriFranklin,Missouri,Franklin,2021-04-04 08:23:45.957139,2020-08-20 00:00:00.000000,0.27908533,0.49211638,0.71250548,290,511,740,193,353,529,0.18637812,0.33987722,0.50891855,0.20973190,0.27380576,0.36939129
29071,0,USMissouriFranklin,Missouri,Franklin,2021-04-04 08:23:45.957139,2020-08-21 00:00:00.000000,0.29425733,0.50431631,0.73320537,305,524,762,204,361,540,0.19649636,0.34793161,0.51960446,0.19623517,0.27228397,0.35704753
29071,0,USMissouriFranklin,Missouri,Franklin,2021-04-04 08:23:45.957139,2020-08-22 00:00:00.000000,0.30281203,0.52002774,0.75693564,314,540,786,210,371,556,0.20250549,0.35697085,0.53556505,0.19875849,0.27073111,0.34739595
29071,0,USMissouriFranklin,Missouri,Franklin,2021-04-04 08:23:45.957139,2020-08-23 00:00:00.000000,0.31110868,0.53647874,0.78084314,323,557,811,216,382,575,0.20810602,0.36753490,0.55310526,0.19646351,0.26898202,0.33626234
29071,0,USMissouriFranklin,Missouri,Franklin,2021-04-04 08:23:45.957139,2020-08-24 00:00:00.000000,0.31947116,0.55174415,0.80673296,332,573,838,222,391,593,0.21382081,0.37677196,0.57063351,0.19623097,0.26812262,0.33947519
29071,0,USMissouriFranklin,Missouri,Franklin,2021-04-04 08:23:45.957139,2020-08-25 00:00:00.000000,0.32800437,0.57674130,0.83305174,341,599,866,228,401,611,0.21961583,0.38597430,0.58858294,0.19981668,0.27150391,0.33569590
29071,0,USMissouriFranklin,Missouri,Franklin,2021-04-04 08:23:45.957139,2020-08-26 00:00:00.000000,0.33672047,0.59943318,0.86010296,350,623,894,234,414,632,0.22527041,0.39845560,0.60850659,0.19835927,0.27207508,0.33417147
29071,0,USMissouriFranklin,Missouri,Franklin,2021-04-04 08:23:45.957139,2020-08-27 00:00:00.000000,0.34461148,0.61523828,0.88815905,358,639,923,239,430,653,0.23074104,0.41368016,0.62831643,0.19342564,0.26997352,0.32993725
29071,0,USMissouriFranklin,Missouri,Franklin,2021-04-04 08:23:45.957139,2020-08-28 00:00:00.000000,0.35229939,0.63080432,0.91768638,366,655,954,246,446,674,0.23719759,0.42930385,0.64878170,0.18600946,0.26571445,0.32663507
29071,0,USMissouriFranklin,Missouri,Franklin,2021-04-04 08:23:45.957139,2020-08-29 00:00:00.000000,0.36080877,0.64910361,0.94918634,375,674,986,252,461,696,0.24274056,0.44402058,0.67014213,0.19977130,0.26679843,0.32839931
29071,0,USMissouriFranklin,Missouri,Franklin,2021-04-04 08:23:45.957139,2020-08-30 00:00:00.000000,0.37100116,0.66954774,0.98282287,385,696,1021,258,480,720,0.24855349,0.46198077,0.69270575,0.20065996,0.27048462,0.33043448
29071,0,USMissouriFranklin,Missouri,Franklin,2021-04-04 08:23:45.957139,2020-08-31 00:00:00.000000,0.38262549,0.69061746,1.01389986,397,718,1054,263,498,741,0.25317314,0.47904173,0.71279587,0.19648297,0.26885423,0.32723488
29071,0,USMissouriFranklin,Missouri,Franklin,2021-04-04 08:23:45.957139,2020-09-01 00:00:00.000000,0.39527687,0.70886601,1.04623746,410,736,1087,269,512,758,0.25935183,0.49316790,0.72971475,0.19404648,0.26700007,0.33110807
29071,0,USMissouriFranklin,Missouri,Franklin,2021-04-04 08:23:45.957139,2020-09-02 00:00:00.000000,0.40850841,0.72633341,1.10292792,424,755,1146,277,522,775,0.26737518,0.50283318,0.74557085,0.19284342,0.26577290,0.34019107
29071,0,USMissouriFranklin,Missouri,Franklin,2021-04-04 08:23:45.957139,2020-09-03 00:00:00.000000,0.42286084,0.74004590,1.15223000,439,769,1197,287,534,798,0.27644188,0.51425268,0.76814975,0.20634540,0.26509454,0.34994721
29071,0,USMissouriFranklin,Missouri,Franklin,2021-04-04 08:23:45.957139,2020-09-04 00:00:00.000000,0.42888399,0.75466813,1.17234429,445,784,1218,297,546,846,0.28623056,0.52607737,0.81426249,0.21009984,0.26542178,0.35275869
29071,0,USMissouriFranklin,Missouri,Franklin,2021-04-04 08:23:45.957139,2020-09-05 00:00:00.000000,0.43504754,0.77084888,1.18684062,452,801,1233,308,559,873,0.29639373,0.53792338,0.84027344,0.21150495,0.26740144,0.35405824
29071,0,USMissouriFranklin,Missouri,Franklin,2021-04-04 08:23:45.957139,2020-09-06 00:00:00.000000,0.44914406,0.79642459,1.21788564,466,828,1266,314,569,900,0.30211401,0.54744914,0.86594875,0.20906465,0.26638846,0.35462145
29071,0,USMissouriFranklin,Missouri,Franklin,2021-04-04 08:23:45.957139,2020-09-07 00:00:00.000000,0.45637959,0.80977560,1.27300306,474,841,1323,321,584,927,0.30949656,0.56219346,0.89163152,0.21131397,0.26438733,0.35485946
29071,0,USMissouriFranklin,Missouri,Franklin,2021-04-04 08:23:45.957139,2020-09-08 00:00:00.000000,0.46431129,0.82051551,1.33504731,482,853,1388,328,604,967,0.31612679,0.58165494,0.93082555,0.20580887,0.26504497,0.35495992
29071,0,USMissouriFranklin,Missouri,Franklin,2021-04-04 08:23:45.957139,2020-09-09 00:00:00.000000,0.47423412,0.83901497,1.39381601,493,872,1449,336,621,1000,0.32318895,0.59777213,0.96203357,0.20861968,0.26437293,0.35500351
29071,0,USMissouriFranklin,Missouri,Franklin,2021-04-04 08:23:45.957139,2020-09-10 00:00:00.000000,0.49124223,0.86355729,1.42561412,510,897,1482,343,634,1026,0.33054050,0.61003482,0.98715999,0.20849698,0.26494270,0.34240166
29071,0,USMissouriFranklin,Missouri,Franklin,2021-04-04 08:23:45.957139,2020-09-11 00:00:00.000000,0.50996604,0.88988690,1.44207703,530,925,1499,351,648,1048,0.33820343,0.62353495,1.00828725,0.20722119,0.26313321,0.34067393
29071,0,USMissouriFranklin,Missouri,Franklin,2021-04-04 08:23:45.957139,2020-09-12 00:00:00.000000,0.53041127,0.90546830,1.45486394,551,941,1512,360,655,1064,0.34639731,0.63058307,1.02431874,0.20379448,0.26287212,0.33641296
29071,0,USMissouriFranklin,Missouri,Franklin,2021-04-04 08:23:45.957139,2020-09-13 00:00:00.000000,0.55229916,0.92234366,1.46615915,574,958,1524,369,667,1085,0.35524553,0.64186278,1.04429111,0.19858654,0.25735693,0.32894362
29071,0,USMissouriFranklin,Missouri,Franklin,2021-04-04 08:23:45.957139,2020-09-14 00:00:00.000000,0.57134640,0.94214379,1.48509968,594,979,1544,379,685,1111,0.36479081,0.65932243,1.06909264,0.19648064,0.25705372,0.33663876
29071,0,USMissouriFranklin,Missouri,Franklin,2021-04-04 08:23:45.957139,2020-09-15 00:00:00.000000,0.58903895,0.96966778,1.51769379,612,1008,1577,390,703,1137,0.37551837,0.67643804,1.09367308,0.19541921,0.25639765,0.34762512
29071,0,USMissouriFranklin,Missouri,Franklin,2021-04-04 08:23:45.957139,2020-09-16 00:00:00.000000,0.61273744,0.99632878,1.54969662,637,1035,1611,402,717,1162,0.38686535,0.68971266,1.11815996,0.19086080,0.25753516,0.34845709
29071,0,USMissouriFranklin,Missouri,Franklin,2021-04-04 08:23:45.957139,2020-09-17 00:00:00.000000,0.62410519,1.00295617,1.58021955,648,1042,1642,414,736,1187,0.39842822,0.70862698,1.14235163,0.18474615,0.25384383,0.34372164
29071,0,USMissouriFranklin,Missouri,Franklin,2021-04-04 08:23:45.957139,2020-09-18 00:00:00.000000,0.63487152,1.01621055,1.60846979,660,1056,1672,429,754,1212,0.41300228,0.72602284,1.16575786,0.17880726,0.25242864,0.34152879
29071,0,USMissouriFranklin,Missouri,Franklin,2021-04-04 08:23:45.957139,2020-09-19 00:00:00.000000,0.64531060,1.02683406,1.63870539,670,1067,1703,441,768,1234,0.42512595,0.73871804,1.18782274,0.17960412,0.24609961,0.33171397
29071,0,USMissouriFranklin,Missouri,Franklin,2021-04-04 08:23:45.957139,2020-09-20 00:00:00.000000,0.66365206,1.04491744,1.69022103,689,1086,1757,449,780,1256,0.43269801,0.75051945,1.20825070,0.17874457,0.24328293,0.33752190
29071,0,USMissouriFranklin,Missouri,Franklin,2021-04-04 08:23:45.957139,2020-09-21 00:00:00.000000,0.68184908,1.06871651,1.74125026,708,1111,1810,461,788,1275,0.44357690,0.75881797,1.22719838,0.17358154,0.23725952,0.34792684
29071,0,USMissouriFranklin,Missouri,Franklin,2021-04-04 08:23:45.957139,2020-09-22 00:00:00.000000,0.69128941,1.09737827,1.78313915,718,1140,1853,476,798,1313,0.45804243,0.76807805,1.26334031,0.17258049,0.23713443,0.35092622
29071,0,USMissouriFranklin,Missouri,Franklin,2021-04-04 08:23:45.957139,2020-09-23 00:00:00.000000,0.69377536,1.12661428,1.78733867,721,1171,1858,493,814,1352,0.47445011,0.78380664,1.30104830,0.17191589,0.24265368,0.35094888
29071,0,USMissouriFranklin,Missouri,Franklin,2021-04-04 08:23:45.957139,2020-09-24 00:00:00.000000,0.69884371,1.14352603,1.79251448,726,1188,1863,511,840,1391,0.49198879,0.80795282,1.33816998,0.17127392,0.24268433,0.34915636
29071,0,USMissouriFranklin,Missouri,Franklin,2021-04-04 08:23:45.957139,2020-09-25 00:00:00.000000,0.70724087,1.15491310,1.82998792,735,1200,1902,520,854,1417,0.50032186,0.82166314,1.36385098,0.17188602,0.24026383,0.34647274
29071,0,USMissouriFranklin,Missouri,Franklin,2021-04-04 08:23:45.957139,2020-09-26 00:00:00.000000,0.71846948,1.16392104,1.86634398,746,1210,1940,523,862,1424,0.50312522,0.82976923,1.36996757,0.17055400,0.24377728,0.35162159
29071,0,USMissouriFranklin,Missouri,Franklin,2021-04-04 08:23:45.957139,2020-09-27 00:00:00.000000,0.73157200,1.17275426,1.87934695,760,1219,1953,522,869,1447,0.50294358,0.83642251,1.39244625,0.17017452,0.24577637,0.35174314
29071,0,USMissouriFranklin,Missouri,Franklin,2021-04-04 08:23:45.957139,2020-09-28 00:00:00.000000,0.74507695,1.19507498,1.86484596,774,1242,1938,523,878,1442,0.50335905,0.84520054,1.38719537,0.17032930,0.24647815,0.35781614
29071,0,USMissouriFranklin,Missouri,Franklin,2021-04-04 08:23:45.957139,2020-09-29 00:00:00.000000,0.75398343,1.21648600,1.84913199,783,1264,1922,524,886,1433,0.50489239,0.85222078,1.37864511,0.17162848,0.24844923,0.35096101
29071,0,USMissouriFranklin,Missouri,Franklin,2021-04-04 08:23:45.957139,2020-09-30 00:00:00.000000,0.76517066,1.23750877,1.83295519,795,1286,1905,528,896,1425,0.50861446,0.86260462,1.37147171,0.17542589,0.24892385,0.34882589
29071,0,USMissouriFranklin,Missouri,Franklin,2021-04-04 08:23:45.957139,2020-10-01 00:00:00.000000,0.77933962,1.25838702,1.81675111,810,1308,1888,535,916,1425,0.51493390,0.88177201,1.37114056,0.17628622,0.24840061,0.34005092
29071,0,USMissouriFranklin,Missouri,Franklin,2021-04-04 08:23:45.957139,2020-10-02 00:00:00.000000,0.79680961,1.27929693,1.80101053,828,1330,1872,544,934,1425,0.52344340,0.89847662,1.37078312,0.17649588,0.24821448,0.32920902
29071,0,USMissouriFranklin,Missouri,Franklin,2021-04-04 08:23:45.957139,2020-10-03 00:00:00.000000,0.81823732,1.30202449,1.81757983,850,1353,1889,554,951,1425,0.53365228,0.91521169,1.37086409,0.18016724,0.24785948,0.33034155
29071,0,USMissouriFranklin,Missouri,Franklin,2021-04-04 08:23:45.957139,2020-10-04 00:00:00.000000,0.83754280,1.32674920,1.84305254,870,1379,1916,567,966,1426,0.54570442,0.92919884,1.37178989,0.18611462,0.24985365,0.33813175
29071,0,USMissouriFranklin,Missouri,Franklin,2021-04-04 08:23:45.957139,2020-10-05 00:00:00.000000,0.86199207,1.35203387,1.88583961,896,1405,1960,582,987,1436,0.55993352,0.94935691,1.38210478,0.18573846,0.25118503,0.33505611
29071,0,USMissouriFranklin,Missouri,Franklin,2021-04-04 08:23:45.957139,2020-10-06 00:00:00.000000,0.88685847,1.36888618,1.93996541,922,1423,2016,600,1006,1462,0.57740754,0.96809880,1.40710070,0.18571074,0.25745970,0.33329558
29071,0,USMissouriFranklin,Missouri,Franklin,2021-04-04 08:23:45.957139,2020-10-07 00:00:00.000000,0.91117807,1.39163753,1.96943145,947,1446,2047,619,1018,1497,0.59554016,0.97935596,1.44056791,0.18725682,0.26036667,0.33385095
29071,0,USMissouriFranklin,Missouri,Franklin,2021-04-04 08:23:45.957139,2020-10-08 00:00:00.000000,0.93412207,1.40875561,1.99774528,971,1464,2076,638,1042,1538,0.61386409,1.00295401,1.47973497,0.18854179,0.26396682,0.33225505
29071,0,USMissouriFranklin,Missouri,Franklin,2021-04-04 08:23:45.957139,2020-10-09 00:00:00.000000,0.95418083,1.45792895,2.03962479,992,1515,2120,657,1065,1562,0.63249918,1.02472127,1.50252207,0.20322260,0.26944599,0.32764683
29071,0,USMissouriFranklin,Missouri,Franklin,2021-04-04 08:23:45.957139,2020-10-10 00:00:00.000000,0.97266476,1.49869376,2.08243793,1011,1558,2165,677,1090,1569,0.65149617,1.04885109,1.50929686,0.20367745,0.27357119,0.32903947
29071,0,USMissouriFranklin,Missouri,Franklin,2021-04-04 08:23:45.957139,2020-10-11 00:00:00.000000,0.99792029,1.53725780,2.14065746,1037,1598,2225,697,1111,1580,0.67087712,1.06894717,1.52061227,0.20663981,0.27778101,0.33752405
29071,0,USMissouriFranklin,Missouri,Franklin,2021-04-04 08:23:45.957139,2020-10-12 00:00:00.000000,1.01810038,1.57578688,2.22611982,1058,1638,2314,716,1141,1598,0.68907474,1.09770304,1.53728997,0.21415877,0.28096532,0.34604483
29071,0,USMissouriFranklin,Missouri,Franklin,2021-04-04 08:23:45.957139,2020-10-13 00:00:00.000000,1.03754747,1.61544021,2.31315819,1078,1679,2404,738,1164,1659,0.71035639,1.11968347,1.59573881,0.21775291,0.28234451,0.34955663
29071,0,USMissouriFranklin,Missouri,Franklin,2021-04-04 08:23:45.957139,2020-10-14 00:00:00.000000,1.06271208,1.63214823,2.40204094,1104,1696,2497,751,1190,1724,0.72284035,1.14525948,1.65876641,0.21898538,0.28352069,0.34834878
29071,0,USMissouriFranklin,Missouri,Franklin,2021-04-04 08:23:45.957139,2020-10-15 00:00:00.000000,1.09352971,1.66516458,2.45617537,1136,1731,2553,767,1215,1791,0.73833858,1.16943778,1.72312485,0.21487012,0.28742846,0.35119941
29071,0,USMissouriFranklin,Missouri,Franklin,2021-04-04 08:23:45.957139,2020-10-16 00:00:00.000000,1.13113700,1.72454983,2.50136853,1176,1792,2600,788,1244,1859,0.75805668,1.19744800,1.78817399,0.22057440,0.28674159,0.35078225
29071,0,USMissouriFranklin,Missouri,Franklin,2021-04-04 08:23:45.957139,2020-10-17 00:00:00.000000,1.15557756,1.76951723,2.57446434,1201,1839,2676,794,1272,1916,0.76411637,1.22387415,1.84291474,0.21772640,0.29084409,0.36049428
29071,0,USMissouriFranklin,Missouri,Franklin,2021-04-04 08:23:45.957139,2020-10-18 00:00:00.000000,1.18624163,1.80210156,2.60877632,1233,1873,2712,801,1308,1991,0.77073867,1.25893714,1.91567801,0.21353611,0.29475654,0.36439509
29071,0,USMissouriFranklin,Missouri,Franklin,2021-04-04 08:23:45.957139,2020-10-19 00:00:00.000000,1.20419279,1.84753092,2.63718495,1251,1920,2741,820,1349,2023,0.78903521,1.29776851,1.94634542,0.21437133,0.29466916,0.36556289
29071,0,USMissouriFranklin,Missouri,Franklin,2021-04-04 08:23:45.957139,2020-10-20 00:00:00.000000,1.24401791,1.90478321,2.70282902,1293,1980,2810,841,1389,2050,0.80936645,1.33637354,1.97221955,0.21433155,0.29521266,0.36694638
29071,0,USMissouriFranklin,Missouri,Franklin,2021-04-04 08:23:45.957139,2020-10-21 00:00:00.000000,1.26748293,1.97593653,2.79195543,1317,2054,2902,865,1441,2073,0.83252594,1.38688164,1.99402092,0.21471380,0.29809740,0.37447067
29071,0,USMissouriFranklin,Missouri,Franklin,2021-04-04 08:23:45.957139,2020-10-22 00:00:00.000000,1.30333657,2.03774871,2.88527009,1355,2118,2999,898,1486,2122,0.86420818,1.42981033,2.04136446,0.21923708,0.30302048,0.37682085
29071,0,USMissouriFranklin,Missouri,Franklin,2021-04-04 08:23:45.957139,2020-10-23 00:00:00.000000,1.33282909,2.09785523,2.98419505,1385,2181,3102,934,1525,2189,0.89880311,1.46745296,2.10555606,0.21956450,0.30850630,0.37308078
29071,0,USMissouriFranklin,Missouri,Franklin,2021-04-04 08:23:45.957139,2020-10-24 00:00:00.000000,1.36262999,2.18844735,3.07792339,1416,2275,3200,972,1564,2250,0.93549835,1.50491939,2.16440048,0.21791261,0.30754853,0.38620665
29071,0,USMissouriFranklin,Missouri,Franklin,2021-04-04 08:23:45.957139,2020-10-25 00:00:00.000000,1.39465235,2.25232203,3.16650409,1449,2341,3292,996,1602,2328,0.95874018,1.54124767,2.23949264,0.21631583,0.30674452,0.39245026
29071,0,USMissouriFranklin,Missouri,Franklin,2021-04-04 08:23:45.957139,2020-10-26 00:00:00.000000,1.43019900,2.33501526,3.25033155,1486,2427,3379,1007,1662,2424,0.96932985,1.59886290,2.33220461,0.23032169,0.30681189,0.39404630
29071,0,USMissouriFranklin,Missouri,Franklin,2021-04-04 08:23:45.957139,2020-10-27 00:00:00.000000,1.47146585,2.42192065,3.39027017,1529,2517,3524,1029,1720,2523,0.98988238,1.65506256,2.42760305,0.23543621,0.30562588,0.40030004
29071,0,USMissouriFranklin,Missouri,Franklin,2021-04-04 08:23:45.957139,2020-10-28 00:00:00.000000,1.51869685,2.52427282,3.56750753,1578,2624,3709,1056,1777,2624,1.01610389,1.70985745,2.52478788,0.24816193,0.30720603,0.40521669
29071,0,USMissouriFranklin,Missouri,Franklin,2021-04-04 08:23:45.957139,2020-10-29 00:00:00.000000,1.57136658,2.63329283,3.75124423,1633,2737,3900,1086,1831,2727,1.04481742,1.76201499,2.62388007,0.24914148,0.30844055,0.40743191
29071,0,USMissouriFranklin,Missouri,Franklin,2021-04-04 08:23:45.957139,2020-10-30 00:00:00.000000,1.62813499,2.72549126,3.93998937,1692,2833,4096,1117,1883,2833,1.07484820,1.81117857,2.72576187,0.24729753,0.31487009,0.41182324
29071,0,USMissouriFranklin,Missouri,Franklin,2021-04-04 08:23:45.957139,2020-10-31 00:00:00.000000,1.68783647,2.82741267,4.13020171,1754,2939,4294,1150,1952,2959,1.10620002,1.87840290,2.84666875,0.24923721,0.32148428,0.41198903
29071,0,USMissouriFranklin,Missouri,Franklin,2021-04-04 08:23:45.957139,2020-11-01 00:00:00.000000,1.74988010,2.93661772,4.31613193,1819,3053,4487,1185,2036,3105,1.14009123,1.95862668,2.98703524,0.24650191,0.32066607,0.40199778
29071,0,USMissouriFranklin,Missouri,Franklin,2021-04-04 08:23:45.957139,2020-11-02 00:00:00.000000,1.81421172,3.01494531,4.47589471,1886,3134,4653,1223,2089,3250,1.17643135,2.00998686,3.12656460,0.24647797,0.31763021,0.40293544
29071,0,USMissouriFranklin,Missouri,Franklin,2021-04-04 08:23:45.957139,2020-11-03 00:00:00.000000,1.88008337,3.11004923,4.61249822,1954,3233,4795,1261,2178,3392,1.21334864,2.09492709,3.26314278,0.24523522,0.31653196,0.40067787
29071,0,USMissouriFranklin,Missouri,Franklin,2021-04-04 08:23:45.957139,2020-11-04 00:00:00.000000,1.94688730,3.17283166,4.75384520,2024,3298,4942,1296,2246,3530,1.24728892,2.16098345,3.39549821,0.24302109,0.31291156,0.39418405
29071,0,USMissouriFranklin,Missouri,Franklin,2021-04-04 08:23:45.957139,2020-11-05 00:00:00.000000,2.01366536,3.26761289,4.85848438,2093,3397,5051,1340,2331,3631,1.28921601,2.24245445,3.49313115,0.24500563,0.31251348,0.39042325
29071,0,USMissouriFranklin,Missouri,Franklin,2021-04-04 08:23:45.957139,2020-11-06 00:00:00.000000,2.07831213,3.36933252,4.95148802,2160,3502,5147,1380,2426,3697,1.32829297,2.33387648,3.55642673,0.24132221,0.31430611,0.39089349
29071,0,USMissouriFranklin,Missouri,Franklin,2021-04-04 08:23:45.957139,2020-11-07 00:00:00.000000,2.14644531,3.44773060,5.16924027,2231,3584,5374,1422,2508,3808,1.36823202,2.41237059,3.66333842,0.23680345,0.30402044,0.39292394
29071,0,USMissouriFranklin,Missouri,Franklin,2021-04-04 08:23:45.957139,2020-11-08 00:00:00.000000,2.21344313,3.52183058,5.32349253,2301,3661,5534,1464,2565,3945,1.40906303,2.46713402,3.79462100,0.23285259,0.30121217,0.38728379
29071,0,USMissouriFranklin,Missouri,Franklin,2021-04-04 08:23:45.957139,2020-11-09 00:00:00.000000,2.28206109,3.63274586,5.52839913,2372,3776,5747,1508,2617,4084,1.45083712,2.51768874,3.92827091,0.23092871,0.29929154,0.38301230
29071,0,USMissouriFranklin,Missouri,Franklin,2021-04-04 08:23:45.957139,2020-11-10 00:00:00.000000,2.35107315,3.76108822,5.73698573,2444,3910,5964,1555,2692,4208,1.49623615,2.59003684,4.04747027,0.22528850,0.29791389,0.37452973
29071,0,USMissouriFranklin,Missouri,Franklin,2021-04-04 08:23:45.957139,2020-11-11 00:00:00.000000,2.40007350,3.82085348,5.77130321,2495,3972,6000,1615,2763,4320,1.55367122,2.65789855,4.15590796,0.22238589,0.29381871,0.36791374
29071,0,USMissouriFranklin,Missouri,Franklin,2021-04-04 08:23:45.957139,2020-11-12 00:00:00.000000,2.42533076,3.90135395,5.95160974,2521,4056,6187,1672,2825,4450,1.60879450,2.71752131,4.28087214,0.21847784,0.28756843,0.36148358
29071,0,USMissouriFranklin,Missouri,Franklin,2021-04-04 08:23:45.957139,2020-11-13 00:00:00.000000,2.44920433,3.96947558,6.14874358,2546,4126,6392,1698,2881,4538,1.63346233,2.77114794,4.36534304,0.21516459,0.28138269,0.35046873
29071,0,USMissouriFranklin,Missouri,Franklin,2021-04-04 08:23:45.957139,2020-11-14 00:00:00.000000,2.47169890,3.98723000,6.25131014,2569,4145,6499,1744,2931,4638,1.67749484,2.81943044,4.46113574,0.20929347,0.27694249,0.35053968
29071,0,USMissouriFranklin,Missouri,Franklin,2021-04-04 08:23:45.957139,2020-11-15 00:00:00.000000,2.49693955,4.02787063,6.27604547,2595,4187,6525,1786,2978,4704,1.71874020,2.86463627,4.52514764,0.20709549,0.27234479,0.34291401
29071,0,USMissouriFranklin,Missouri,Franklin,2021-04-04 08:23:45.957139,2020-11-16 00:00:00.000000,2.57050295,4.03777002,6.28384573,2672,4197,6533,1808,3010,4745,1.73971287,2.89598600,4.56483545,0.20619327,0.26738967,0.34524894
29071,0,USMissouriFranklin,Missouri,Franklin,2021-04-04 08:23:45.957139,2020-11-17 00:00:00.000000,2.58917392,4.05028235,6.27717952,2691,4210,6526,1825,3018,4769,1.75615335,2.90289498,4.58746292,0.20597529,0.26111122,0.34590377
29071,0,USMissouriFranklin,Missouri,Franklin,2021-04-04 08:23:45.957139,2020-11-18 00:00:00.000000,2.59184238,4.03308276,6.26072535,2694,4193,6509,1839,3011,4779,1.76972110,2.89654563,4.59694210,0.20177306,0.25574129,0.34402577
29071,0,USMissouriFranklin,Missouri,Franklin,2021-04-04 08:23:45.957139,2020-11-19 00:00:00.000000,2.59185629,4.02521001,6.23773269,2694,4184,6485,1851,3022,4778,1.78103144,2.90724075,4.59660973,0.19362815,0.25218822,0.33810499
29071,0,USMissouriFranklin,Missouri,Franklin,2021-04-04 08:23:45.957139,2020-11-20 00:00:00.000000,2.59079706,4.05556850,6.21009296,2693,4216,6456,1861,3026,4771,1.79004550,2.91082327,4.58916314,0.18347195,0.24885525,0.32522307
29071,0,USMissouriFranklin,Missouri,Franklin,2021-04-04 08:23:45.957139,2020-11-21 00:00:00.000000,2.59248287,4.05353402,6.17739506,2695,4214,6422,1868,3031,4758,1.79682111,2.91598135,4.57649776,0.17744605,0.24639248,0.31780160
29071,0,USMissouriFranklin,Missouri,Franklin,2021-04-04 08:23:45.957139,2020-11-22 00:00:00.000000,2.60769014,4.08471238,6.13035685,2711,4246,6373,1871,3042,4740,1.80048116,2.92644474,4.55924066,0.17600978,0.24625686,0.31492831
29071,0,USMissouriFranklin,Missouri,Franklin,2021-04-04 08:23:45.957139,2020-11-23 00:00:00.000000,2.63059310,4.10553168,6.06266569,2734,4268,6303,1872,3052,4713,1.80071776,2.93569120,4.53385184,0.17775498,0.24464244,0.31803825
29071,0,USMissouriFranklin,Missouri,Franklin,2021-04-04 08:23:45.957139,2020-11-24 00:00:00.000000,2.65616156,4.10334059,5.97121839,2761,4266,6208,1870,3029,4674,1.79914752,2.91384120,4.49612899,0.17430084,0.24315479,0.31835819
29071,0,USMissouriFranklin,Missouri,Franklin,2021-04-04 08:23:45.957139,2020-11-25 00:00:00.000000,2.65959477,4.08829501,5.85658453,2765,4250,6088,1866,3022,4619,1.79523681,2.90700099,4.44306161,0.17416040,0.24243824,0.31773788
29071,0,USMissouriFranklin,Missouri,Franklin,2021-04-04 08:23:45.957139,2020-11-26 00:00:00.000000,2.63841812,4.05620255,5.86786292,2743,4217,6100,1873,3030,4547,1.80175309,2.91501278,4.37369364,0.17288526,0.24112771,0.31008007
29071,0,USMissouriFranklin,Missouri,Franklin,2021-04-04 08:23:45.957139,2020-11-27 00:00:00.000000,2.62370225,4.01858016,5.78123354,2727,4177,6010,1884,3034,4476,1.81235522,2.91857040,4.30586920,0.17081851,0.24042338,0.30392394
29071,0,USMissouriFranklin,Missouri,Franklin,2021-04-04 08:23:45.957139,2020-11-28 00:00:00.000000,2.60937197,3.99744859,5.75575819,2712,4156,5984,1884,3032,4509,1.81232987,2.91670849,4.33717846,0.16905426,0.24070412,0.28962301
29071,0,USMissouriFranklin,Missouri,Franklin,2021-04-04 08:23:45.957139,2020-11-29 00:00:00.000000,2.59623102,4.00790617,5.80183851,2699,4166,6031,1875,3004,4515,1.80401066,2.88995872,4.34353756,0.17424072,0.24240871,0.29023191
29071,0,USMissouriFranklin,Missouri,Franklin,2021-04-04 08:23:45.957139,2020-11-30 00:00:00.000000,2.57978352,3.96018397,5.84686101,2682,4117,6078,1862,2990,4541,1.79170360,2.87678266,4.36824387,0.17436128,0.23794094,0.29375949
29071,0,USMissouriFranklin,Missouri,Franklin,2021-04-04 08:23:45.957139,2020-12-01 00:00:00.000000,2.56399690,3.92195558,5.88889259,2665,4077,6122,1846,2973,4544,1.77559672,2.86039438,4.37112475,0.17472103,0.23819807,0.29551902
29071,0,USMissouriFranklin,Missouri,Franklin,2021-04-04 08:23:45.957139,2020-12-02 00:00:00.000000,2.54825555,3.87965214,5.89114630,2649,4033,6124,1827,2939,4530,1.75793374,2.82780071,4.35723172,0.17511545,0.23954923,0.29636759
29071,0,USMissouriFranklin,Missouri,Franklin,2021-04-04 08:23:45.957139,2020-12-03 00:00:00.000000,2.53169472,3.83651102,5.83106768,2632,3988,6062,1809,2910,4503,1.74022970,2.79980663,4.33185378,0.17517539,0.23773468,0.29887437
29071,0,USMissouriFranklin,Missouri,Franklin,2021-04-04 08:23:45.957139,2020-12-04 00:00:00.000000,2.50881003,3.79501577,5.74870858,2608,3945,5976,1792,2883,4466,1.72456474,2.77390279,4.29613679,0.17522692,0.23790879,0.30363452
29071,0,USMissouriFranklin,Missouri,Franklin,2021-04-04 08:23:45.957139,2020-12-05 00:00:00.000000,2.47909823,3.75078428,5.65118030,2577,3899,5875,1778,2855,4416,1.71068201,2.74695176,4.24816691,0.17528562,0.23549579,0.30005885
29071,0,USMissouriFranklin,Missouri,Franklin,2021-04-04 08:23:45.957139,2020-12-06 00:00:00.000000,2.45840343,3.71277278,5.54617071,2555,3860,5766,1767,2826,4354,1.70023757,2.71874893,4.18810613,0.17537227,0.23630765,0.31160440
29071,0,USMissouriFranklin,Missouri,Franklin,2021-04-04 08:23:45.957139,2020-12-07 00:00:00.000000,2.43921974,3.69055171,5.44382213,2535,3836,5659,1758,2795,4280,1.69115479,2.68919559,4.11748477,0.17368213,0.23480476,0.32926206
29071,0,USMissouriFranklin,Missouri,Franklin,2021-04-04 08:23:45.957139,2020-12-08 00:00:00.000000,2.42099019,3.66458627,5.44624808,2517,3809,5662,1749,2769,4268,1.68296041,2.66387819,4.10584205,0.17043416,0.23656259,0.32831824
29071,0,USMissouriFranklin,Missouri,Franklin,2021-04-04 08:23:45.957139,2020-12-09 00:00:00.000000,2.39478549,3.63594577,5.43812961,2489,3780,5653,1717,2746,4282,1.65152832,2.64205454,4.11946245,0.16963457,0.23801551,0.32443295
29071,0,USMissouriFranklin,Missouri,Franklin,2021-04-04 08:23:45.957139,2020-12-10 00:00:00.000000,2.35202406,3.58752319,5.38918605,2445,3729,5602,1695,2728,4286,1.63067935,2.62414028,4.12331399,0.16954125,0.24049644,0.32701168
29071,0,USMissouriFranklin,Missouri,Franklin,2021-04-04 08:23:45.957139,2020-12-11 00:00:00.000000,2.31057107,3.60770287,5.33708666,2402,3750,5548,1669,2737,4282,1.60599651,2.63314715,4.11866647,0.17123726,0.24593554,0.32923422
29071,0,USMissouriFranklin,Missouri,Franklin,2021-04-04 08:23:45.957139,2020-12-12 00:00:00.000000,2.25938922,3.59464522,5.28812348,2349,3737,5497,1638,2721,4269,1.57564429,2.61717858,4.10615982,0.17397214,0.24978009,0.32948572
29071,0,USMissouriFranklin,Missouri,Franklin,2021-04-04 08:23:45.957139,2020-12-13 00:00:00.000000,2.20090058,3.56788640,5.24147878,2288,3709,5449,1601,2703,4248,1.54064425,2.59997371,4.08636498,0.17833582,0.24767977,0.32555677
29071,0,USMissouriFranklin,Missouri,Franklin,2021-04-04 08:23:45.957139,2020-12-14 00:00:00.000000,2.14109644,3.50250455,5.19520076,2226,3641,5401,1564,2692,4221,1.50456716,2.58938178,4.06002474,0.18140395,0.24966172,0.32628873
29071,0,USMissouriFranklin,Missouri,Franklin,2021-04-04 08:23:45.957139,2020-12-15 00:00:00.000000,2.08113422,3.47918543,5.14943572,2163,3617,5353,1544,2670,4187,1.48559862,2.56898891,4.02742970,0.18847611,0.24994774,0.32759184
29071,0,USMissouriFranklin,Missouri,Franklin,2021-04-04 08:23:45.957139,2020-12-16 00:00:00.000000,2.02973444,3.41239981,5.10288403,2110,3547,5305,1527,2655,4148,1.46953658,2.55435158,3.98994115,0.18786196,0.24978843,0.33227356
29071,0,USMissouriFranklin,Missouri,Franklin,2021-04-04 08:23:45.957139,2020-12-17 00:00:00.000000,2.01430581,3.38708793,5.05024345,2094,3521,5250,1514,2609,4105,1.45658161,2.50990539,3.94879550,0.18676848,0.25173138,0.32769294
29071,0,USMissouriFranklin,Missouri,Franklin,2021-04-04 08:23:45.957139,2020-12-18 00:00:00.000000,1.99971850,3.38219654,4.98948540,2079,3516,5187,1491,2588,4060,1.43491351,2.48989382,3.90516022,0.18671906,0.25064203,0.32774307
29071,0,USMissouriFranklin,Missouri,Franklin,2021-04-04 08:23:45.957139,2020-12-19 00:00:00.000000,1.98628804,3.36185462,4.92747295,2065,3495,5122,1468,2569,4013,1.41220020,2.47129405,3.86038579,0.18876213,0.25106555,0.32757237
29071,0,USMissouriFranklin,Missouri,Franklin,2021-04-04 08:23:45.957139,2020-12-20 00:00:00.000000,1.97262455,3.34137751,4.86656056,2050,3473,5059,1443,2555,3967,1.38861808,2.45792041,3.81626655,0.18885018,0.25717652,0.32301857
29071,0,USMissouriFranklin,Missouri,Franklin,2021-04-04 08:23:45.957139,2020-12-21 00:00:00.000000,1.95372828,3.31039689,4.80870740,2031,3441,4999,1418,2542,3924,1.36419100,2.44563483,3.77454209,0.17923542,0.25503575,0.32023297
29071,0,USMissouriFranklin,Missouri,Franklin,2021-04-04 08:23:45.957139,2020-12-22 00:00:00.000000,1.92136367,3.28649642,4.75660364,1997,3416,4945,1390,2501,3884,1.33698739,2.40648236,3.73594635,0.17717342,0.25403793,0.32254909
29071,0,USMissouriFranklin,Missouri,Franklin,2021-04-04 08:23:45.957139,2020-12-23 00:00:00.000000,1.92022471,3.28290764,4.71175769,1996,3413,4898,1358,2491,3846,1.30668850,2.39662455,3.69975509,0.17645305,0.25160962,0.32386580
29071,0,USMissouriFranklin,Missouri,Franklin,2021-04-04 08:23:45.957139,2020-12-24 00:00:00.000000,1.90132020,3.28899600,4.71839923,1976,3419,4905,1324,2491,3809,1.27380533,2.39611240,3.66462145,0.17866765,0.25416561,0.33201276
29071,0,USMissouriFranklin,Missouri,Franklin,2021-04-04 08:23:45.957139,2020-12-25 00:00:00.000000,1.88259704,3.29730779,4.66792454,1957,3428,4853,1316,2490,3773,1.26587382,2.39521685,3.62912413,0.18532519,0.25546560,0.33981696
29071,0,USMissouriFranklin,Missouri,Franklin,2021-04-04 08:23:45.957139,2020-12-26 00:00:00.000000,1.86546080,3.30578055,4.61341010,1939,3436,4796,1326,2472,3756,1.27540883,2.37829068,3.61350210,0.18451696,0.25842261,0.34002018
29071,0,USMissouriFranklin,Missouri,Franklin,2021-04-04 08:23:45.957139,2020-12-27 00:00:00.000000,1.85601521,3.26389521,4.56173014,1929,3393,4742,1340,2454,3778,1.28931757,2.36087003,3.63422146,0.18404102,0.25464828,0.34130733
29071,0,USMissouriFranklin,Missouri,Franklin,2021-04-04 08:23:45.957139,2020-12-28 00:00:00.000000,1.86363291,3.26023698,4.50115726,1937,3389,4679,1357,2451,3709,1.30574705,2.35796429,3.56821125,0.19004442,0.25073484,0.33695676
29071,0,USMissouriFranklin,Missouri,Franklin,2021-04-04 08:23:45.957139,2020-12-29 00:00:00.000000,1.88757120,3.22979583,4.44436695,1962,3357,4620,1377,2437,3638,1.32481462,2.34497448,3.49943972,0.18554644,0.25081032,0.35125034
29071,0,USMissouriFranklin,Missouri,Franklin,2021-04-04 08:23:45.957139,2020-12-30 00:00:00.000000,1.91398202,3.19481671,4.38716620,1989,3321,4561,1392,2406,3565,1.33977501,2.31449783,3.42981929,0.18223765,0.24980594,0.36363298
29071,0,USMissouriFranklin,Missouri,Franklin,2021-04-04 08:23:45.957139,2020-12-31 00:00:00.000000,1.92488389,3.17050824,4.33693514,2001,3296,4508,1378,2398,3521,1.32597614,2.30735044,3.38676643,0.18216971,0.24739367,0.36404267
29071,0,USMissouriFranklin,Missouri,Franklin,2021-04-04 08:23:45.957139,2021-01-01 00:00:00.000000,1.92426049,3.12708147,4.32919705,2000,3251,4500,1369,2387,3476,1.31757379,2.29688143,3.34360443,0.17970082,0.24578355,0.35817311
29071,0,USMissouriFranklin,Missouri,Franklin,2021-04-04 08:23:45.957139,2021-01-02 00:00:00.000000,1.91997556,3.05913317,4.33678243,1996,3180,4508,1364,2342,3431,1.31272357,2.25271466,3.30017156,0.17978981,0.24484527,0.35427433
29071,0,USMissouriFranklin,Missouri,Franklin,2021-04-04 08:23:45.957139,2021-01-03 00:00:00.000000,1.86492936,2.98843116,4.30877894,1938,3106,4479,1361,2285,3385,1.30939640,2.19813040,3.25652656,0.17927814,0.24657845,0.35317619
29071,0,USMissouriFranklin,Missouri,Franklin,2021-04-04 08:23:45.957139,2021-01-04 00:00:00.000000,1.87862336,2.93562503,4.25045644,1953,3052,4419,1357,2254,3340,1.30543161,2.16830780,3.21276254,0.16962270,0.24165077,0.35266831
29071,0,USMissouriFranklin,Missouri,Franklin,2021-04-04 08:23:45.957139,2021-01-05 00:00:00.000000,1.87906227,2.85580032,4.17881445,1953,2969,4344,1311,2208,3296,1.26169892,2.12391482,3.17056917,0.16355747,0.23462204,0.32992858
29071,0,USMissouriFranklin,Missouri,Franklin,2021-04-04 08:23:45.957139,2021-01-06 00:00:00.000000,1.85770081,2.74783055,4.08907552,1931,2856,4251,1315,2170,3259,1.26499084,2.08768281,3.13545989,0.15709420,0.22846976,0.32339091
29071,0,USMissouriFranklin,Missouri,Franklin,2021-04-04 08:23:45.957139,2021-01-07 00:00:00.000000,1.81590570,2.68243313,4.01471068,1887,2788,4173,1305,2127,3231,1.25606701,2.04635446,3.10793702,0.15667498,0.22418211,0.31965708
29071,0,USMissouriFranklin,Missouri,Franklin,2021-04-04 08:23:45.957139,2021-01-08 00:00:00.000000,1.76140330,2.62971670,3.97839996,1831,2734,4136,1282,2089,3205,1.23366638,2.00952645,3.08362960,0.15455391,0.21854222,0.31370036
29071,0,USMissouriFranklin,Missouri,Franklin,2021-04-04 08:23:45.957139,2021-01-09 00:00:00.000000,1.69927296,2.56905109,3.92028353,1766,2670,4075,1248,2027,3178,1.20115842,1.95022239,3.05727835,0.14914800,0.21341589,0.30606417
29071,0,USMissouriFranklin,Missouri,Franklin,2021-04-04 08:23:45.957139,2021-01-10 00:00:00.000000,1.63309553,2.50958632,3.81181931,1697,2609,3963,1208,1993,3126,1.16219242,1.91774927,3.00754989,0.13423197,0.20964555,0.29126141
29071,0,USMissouriFranklin,Missouri,Franklin,2021-04-04 08:23:45.957139,2021-01-11 00:00:00.000000,1.56073111,2.44242935,3.70507707,1622,2539,3852,1163,1936,3046,1.11916431,1.86261714,2.93045205,0.13215850,0.20516948,0.28067839
29071,0,USMissouriFranklin,Missouri,Franklin,2021-04-04 08:23:45.957139,2021-01-12 00:00:00.000000,1.48693769,2.37012231,3.60155306,1545,2464,3744,1114,1881,2962,1.07242889,1.80996593,2.84950422,0.13177780,0.19929319,0.27494774
29071,0,USMissouriFranklin,Missouri,Franklin,2021-04-04 08:23:45.957139,2021-01-13 00:00:00.000000,1.41292142,2.30554734,3.50078823,1468,2397,3639,1064,1830,2880,1.02398501,1.76100504,2.77065665,0.13177629,0.19601210,0.27275931
29071,0,USMissouriFranklin,Missouri,Franklin,2021-04-04 08:23:45.957139,2021-01-14 00:00:00.000000,1.34013248,2.23891903,3.40257508,1393,2327,3537,1013,1787,2800,0.97484123,1.71902636,2.69376988,0.13183695,0.19149763,0.26746406
29071,0,USMissouriFranklin,Missouri,Franklin,2021-04-04 08:23:45.957139,2021-01-15 00:00:00.000000,1.26943910,2.17324397,3.30690856,1319,2259,3438,962,1743,2722,0.92604445,1.67684382,2.61870997,0.13193011,0.18860407,0.26714743
29071,0,USMissouriFranklin,Missouri,Franklin,2021-04-04 08:23:45.957139,2021-01-16 00:00:00.000000,1.21075095,2.09963023,3.21392788,1258,2182,3341,913,1693,2646,0.87830444,1.62841430,2.54539353,0.13276362,0.18713746,0.26478643
29071,0,USMissouriFranklin,Missouri,Franklin,2021-04-04 08:23:45.957139,2021-01-17 00:00:00.000000,1.17336917,2.03135561,3.12218924,1219,2111,3246,865,1629,2571,0.83225408,1.56708206,2.47377085,0.13193945,0.18704826,0.26392281
29071,0,USMissouriFranklin,Missouri,Franklin,2021-04-04 08:23:45.957139,2021-01-18 00:00:00.000000,1.14109988,1.96578105,3.03467941,1186,2043,3155,839,1581,2499,0.80735082,1.52096406,2.40383778,0.13020365,0.18700943,0.26312554
29071,0,USMissouriFranklin,Missouri,Franklin,2021-04-04 08:23:45.957139,2021-01-19 00:00:00.000000,1.10735178,1.90335938,2.95189627,1151,1978,3068,815,1529,2441,0.78460076,1.47107039,2.34872179,0.12948296,0.18765076,0.26089470
29071,0,USMissouriFranklin,Missouri,Franklin,2021-04-04 08:23:45.957139,2021-01-20 00:00:00.000000,1.07939207,1.84013119,2.87835198,1122,1913,2992,792,1484,2390,0.76202343,1.42783766,2.29913843,0.12941128,0.18823966,0.26262023
29071,0,USMissouriFranklin,Missouri,Franklin,2021-04-04 08:23:45.957139,2021-01-21 00:00:00.000000,1.06004420,1.77851628,2.81677519,1102,1849,2928,771,1441,2340,0.74191867,1.38647046,2.25104723,0.12929924,0.18969824,0.27009701
29071,0,USMissouriFranklin,Missouri,Franklin,2021-04-04 08:23:45.957139,2021-01-22 00:00:00.000000,1.04253191,1.73109358,2.76401896,1083,1799,2873,755,1399,2292,0.72660009,1.34603540,2.20470148,0.13214507,0.19257692,0.27255017
29071,0,USMissouriFranklin,Missouri,Franklin,2021-04-04 08:23:45.957139,2021-01-23 00:00:00.000000,1.02611341,1.67420603,2.71470374,1066,1740,2822,742,1356,2232,0.71385028,1.30489441,2.14734520,0.13431983,0.19334685,0.26663838
29071,0,USMissouriFranklin,Missouri,Franklin,2021-04-04 08:23:45.957139,2021-01-24 00:00:00.000000,0.98924069,1.62110108,2.66702910,1028,1685,2772,730,1313,2167,0.70238274,1.26381110,2.08504065,0.13989196,0.19829820,0.27452002
29071,0,USMissouriFranklin,Missouri,Franklin,2021-04-04 08:23:45.957139,2021-01-25 00:00:00.000000,0.95318522,1.57516968,2.61954944,990,1637,2723,718,1272,2120,0.69144248,1.22422557,2.03968851,0.13391769,0.20054564,0.29129415
29071,0,USMissouriFranklin,Missouri,Franklin,2021-04-04 08:23:45.957139,2021-01-26 00:00:00.000000,0.91957300,1.52390419,2.56167806,956,1584,2663,706,1226,2082,0.67949310,1.17922987,2.00313581,0.13487319,0.20651382,0.29862829
29071,0,USMissouriFranklin,Missouri,Franklin,2021-04-04 08:23:45.957139,2021-01-27 00:00:00.000000,0.88341107,1.49071121,2.50165235,918,1549,2600,674,1185,2045,0.64855353,1.14038122,1.96727440,0.13669877,0.20962986,0.31419940
29071,0,USMissouriFranklin,Missouri,Franklin,2021-04-04 08:23:45.957139,2021-01-28 00:00:00.000000,0.84225649,1.45960390,2.45460838,875,1517,2551,642,1159,2008,0.61798800,1.11524763,1.93204445,0.14022199,0.21351881,0.33354510
29071,0,USMissouriFranklin,Missouri,Franklin,2021-04-04 08:23:45.957139,2021-01-29 00:00:00.000000,0.80352416,1.41363362,2.42120652,835,1469,2517,612,1122,1972,0.58910952,1.07978446,1.89755810,0.15080938,0.22038645,0.34031006
29071,0,USMissouriFranklin,Missouri,Franklin,2021-04-04 08:23:45.957139,2021-01-30 00:00:00.000000,0.76772940,1.37786472,2.39909306,798,1432,2494,584,1100,1938,0.56192825,1.05838899,1.86413427,0.15814453,0.22915267,0.35233518
29071,0,USMissouriFranklin,Missouri,Franklin,2021-04-04 08:23:45.957139,2021-01-31 00:00:00.000000,0.73890897,1.35102539,2.36275784,768,1404,2456,558,1073,1905,0.53674670,1.03217610,1.83232560,0.16084324,0.23992311,0.38539877
29071,0,USMissouriFranklin,Missouri,Franklin,2021-04-04 08:23:45.957139,2021-02-01 00:00:00.000000,0.72411562,1.32575781,2.33282526,752,1378,2425,535,1040,1874,0.51524008,1.00080380,1.80295630,0.16406691,0.24888748,0.40218926
29071,0,USMissouriFranklin,Missouri,Franklin,2021-04-04 08:23:45.957139,2021-02-02 00:00:00.000000,0.71710083,1.31332577,2.31006621,745,1365,2401,521,1013,1847,0.50124625,0.97524489,1.77741945,0.17062968,0.25837674,0.40907814
29071,0,USMissouriFranklin,Missouri,Franklin,2021-04-04 08:23:45.957139,2021-02-03 00:00:00.000000,0.71318377,1.30383721,2.29449810,741,1355,2385,512,1007,1826,0.49341554,0.96872235,1.75664108,0.17281463,0.26719755,0.41344452
29071,0,USMissouriFranklin,Missouri,Franklin,2021-04-04 08:23:45.957139,2021-02-04 00:00:00.000000,0.71173684,1.29549097,2.28488965,739,1346,2375,508,1000,1810,0.48890336,0.96190435,1.74098488,0.17177375,0.28255256,0.43693545
29071,0,USMissouriFranklin,Missouri,Franklin,2021-04-04 08:23:45.957139,2021-02-05 00:00:00.000000,0.71383904,1.29199696,2.28073325,742,1343,2371,505,1001,1798,0.48644071,0.96325868,1.73004671,0.17180415,0.29343247,0.45708288
29071,0,USMissouriFranklin,Missouri,Franklin,2021-04-04 08:23:45.957139,2021-02-06 00:00:00.000000,0.73457823,1.29089480,2.28556028,763,1342,2376,505,990,1791,0.48610827,0.95259893,1.72341439,0.17949166,0.30209699,0.49583704
29071,0,USMissouriFranklin,Missouri,Franklin,2021-04-04 08:23:45.957139,2021-02-07 00:00:00.000000,0.73124791,1.28617661,2.30804892,760,1337,2399,508,977,1790,0.48942770,0.93998829,1.72245051,0.18703828,0.31827832,0.52862337
29071,0,USMissouriFranklin,Missouri,Franklin,2021-04-04 08:23:45.957139,2021-02-08 00:00:00.000000,0.74027441,1.31720213,2.34492432,769,1369,2437,531,982,1800,0.51106793,0.94522500,1.73154183,0.19709605,0.33987828,0.57191114
29071,0,USMissouriFranklin,Missouri,Franklin,2021-04-04 08:23:45.957139,2021-02-09 00:00:00.000000,0.76617521,1.33141699,2.36972893,796,1384,2463,543,1009,1822,0.52275358,0.97087368,1.75336078,0.21485369,0.36604847,0.59102961
29071,0,USMissouriFranklin,Missouri,Franklin,2021-04-04 08:23:45.957139,2021-02-10 00:00:00.000000,0.80628181,1.36927731,2.43530606,838,1423,2531,550,1015,1855,0.52959889,0.97718529,1.78500865,0.22680036,0.39012907,0.61580809
29071,0,USMissouriFranklin,Missouri,Franklin,2021-04-04 08:23:45.957139,2021-02-11 00:00:00.000000,0.85911236,1.41145822,2.52863264,893,1467,2628,575,1031,1895,0.55332320,0.99174162,1.82360234,0.24296756,0.41212419,0.63394316
29071,0,USMissouriFranklin,Missouri,Franklin,2021-04-04 08:23:45.957139,2021-02-12 00:00:00.000000,0.89463085,1.47922071,2.64653626,930,1537,2751,603,1055,1941,0.58077574,1.01562924,1.86782012,0.25326956,0.42726905,0.64676188
29071,0,USMissouriFranklin,Missouri,Franklin,2021-04-04 08:23:45.957139,2021-02-13 00:00:00.000000,0.89757151,1.50532930,2.78493405,933,1565,2895,635,1090,1994,0.61160182,1.04842894,1.91795132,0.26273334,0.45393173,0.71928927
29071,0,USMissouriFranklin,Missouri,Franklin,2021-04-04 08:23:45.957139,2021-02-14 00:00:00.000000,0.90901274,1.53965574,2.91402542,945,1600,3029,673,1139,2053,0.64788731,1.09627456,1.97551638,0.29492048,0.49819355,0.78769040
29071,0,USMissouriFranklin,Missouri,Franklin,2021-04-04 08:23:45.957139,2021-02-15 00:00:00.000000,0.96576365,1.59591172,3.03999213,1004,1659,3160,690,1167,2123,0.66441969,1.12343338,2.04263077,0.30528088,0.54909093,0.80510199
29071,0,USMissouriFranklin,Missouri,Franklin,2021-04-04 08:23:45.957139,2021-02-16 00:00:00.000000,1.02604060,1.70919182,3.26409838,1066,1776,3393,712,1204,2272,0.68485316,1.15824786,2.18616270,0.36070176,0.59899817,0.87181938
29071,0,USMissouriFranklin,Missouri,Franklin,2021-04-04 08:23:45.957139,2021-02-17 00:00:00.000000,1.07287135,1.84408160,3.51871465,1115,1917,3658,770,1278,2412,0.74102623,1.22962516,2.32003487,0.38628426,0.62409228,0.89379531
29071,0,USMissouriFranklin,Missouri,Franklin,2021-04-04 08:23:45.957139,2021-02-18 00:00:00.000000,1.13737197,2.02915981,3.79943234,1182,2109,3950,852,1372,2510,0.81984341,1.31966760,2.41475378,0.43700062,0.66430533,0.95084330
29071,0,USMissouriFranklin,Missouri,Franklin,2021-04-04 08:23:45.957139,2021-02-19 00:00:00.000000,1.22201958,2.20887362,4.18452514,1270,2296,4350,899,1476,2618,0.86471372,1.42049672,2.51863939,0.46343416,0.71138280,1.02656708
29071,0,USMissouriFranklin,Missouri,Franklin,2021-04-04 08:23:45.957139,2021-02-20 00:00:00.000000,1.33967689,2.47252287,4.61046106,1392,2570,4793,960,1623,2792,0.92405045,1.56189056,2.68550943,0.49413954,0.75461837,1.07525396
29071,0,USMissouriFranklin,Missouri,Franklin,2021-04-04 08:23:45.957139,2021-02-21 00:00:00.000000,1.52336357,2.78221909,5.06975026,1583,2892,5270,1041,1794,3025,1.00207765,1.72631088,2.90995145,0.51118726,0.79560030,1.07566870
29071,0,USMissouriFranklin,Missouri,Franklin,2021-04-04 08:23:45.957139,2021-02-22 00:00:00.000000,1.75055942,3.11950809,5.56444717,1820,3243,5785,1147,1989,3352,1.10404148,1.91328325,3.22413850,0.57529924,0.81743153,1.07267439
29071,0,USMissouriFranklin,Missouri,Franklin,2021-04-04 08:23:45.957139,2021-02-23 00:00:00.000000,1.94664431,3.47804004,6.13772575,2023,3616,6381,1281,2208,3711,1.23277046,2.12456567,3.57018440,0.61364859,0.83121248,1.06817993
29071,0,USMissouriFranklin,Missouri,Franklin,2021-04-04 08:23:45.957139,2021-02-24 00:00:00.000000,2.17978563,3.87532188,6.78372786,2266,4029,7052,1459,2455,4104,1.40386078,2.36197966,3.94746490,0.66663484,0.84346162,1.06520769
29071,0,USMissouriFranklin,Missouri,Franklin,2021-04-04 08:23:45.957139,2021-02-25 00:00:00.000000,2.47896280,4.31707237,7.40869009,2577,4488,7702,1651,2723,4506,1.58807821,2.61935408,4.33417064,0.71841006,0.86582637,1.06394472
29071,0,USMissouriFranklin,Missouri,Franklin,2021-04-04 08:23:45.957139,2021-02-26 00:00:00.000000,2.82615274,4.81153862,8.07156124,2938,5002,8391,1868,3027,5007,1.79750471,2.91189425,4.81609226,0.78037975,0.89363224,1.08351661
29071,0,USMissouriFranklin,Missouri,Franklin,2021-04-04 08:23:45.957139,2021-02-27 00:00:00.000000,3.24776819,5.35480727,8.85278097,3376,5567,9203,2137,3375,5519,2.05567944,3.24703806,5.30890979,0.81911313,0.90433324,1.07928565
29071,0,USMissouriFranklin,Missouri,Franklin,2021-04-04 08:23:45.957139,2021-02-28 00:00:00.000000,3.72467708,5.94477794,9.68816683,3872,6180,10072,2449,3769,6068,2.35609833,3.62523505,5.83685066,0.84312698,0.91625150,1.06817712
29071,0,USMissouriFranklin,Missouri,Franklin,2021-04-04 08:23:45.957139,2021-03-01 00:00:00.000000,4.26662799,6.64226697,10.71331544,4435,6905,11138,2808,4181,6651,2.70126985,4.02174314,6.39794454,0.85780671,0.92216932,1.07060026
29071,0,USMissouriFranklin,Missouri,Franklin,2021-04-04 08:23:45.957139,2021-03-02 00:00:00.000000,4.87688243,7.37750552,11.61056918,5070,7670,12071,3214,4656,7268,3.09170282,4.47876659,6.99157846,0.85847212,0.92367198,1.07858651
29071,0,USMissouriFranklin,Missouri,Franklin,2021-04-04 08:23:45.957139,2021-03-03 00:00:00.000000,5.56052418,8.13156129,12.52588479,5781,8454,13022,3671,5283,7914,3.53143715,5.08144000,7.61294711,0.85791821,0.92538092,1.08595277
29071,0,USMissouriFranklin,Missouri,Franklin,2021-04-04 08:23:45.957139,2021-03-04 00:00:00.000000,6.30891381,8.96355574,13.44762867,6559,9319,13981,4183,5938,8584,4.02428364,5.71193132,8.25665536,0.85663454,0.92683565,1.08880263
29071,0,USMissouriFranklin,Missouri,Franklin,2021-04-04 08:23:45.957139,2021-03-05 00:00:00.000000,7.03715733,9.89524107,14.36232832,7316,10287,14932,4755,6557,9269,4.57363051,6.30757980,8.91624538,0.85353634,0.92697690,1.08984356
29071,0,USMissouriFranklin,Missouri,Franklin,2021-04-04 08:23:45.957139,2021-03-06 00:00:00.000000,7.93623582,10.88277869,15.25494171,8251,11314,15860,5287,7195,9964,5.08576207,6.92056541,9.58403476,0.84626649,0.92421391,1.08579635
29071,0,USMissouriFranklin,Missouri,Franklin,2021-04-04 08:23:45.957139,2021-03-07 00:00:00.000000,8.91455206,11.93271307,16.11596446,9268,12406,16755,5971,7862,10657,5.74351784,7.56267606,10.25112649,0.81819474,0.92046181,1.05704805
29071,0,USMissouriFranklin,Missouri,Franklin,2021-04-04 08:23:45.957139,2021-03-08 00:00:00.000000,9.96872371,12.99935507,16.96577381,10364,13515,17638,6686,8610,11340,6.43154007,8.28221924,10.90754361,0.76866810,0.90894456,1.00197065
29071,0,USMissouriFranklin,Missouri,Franklin,2021-04-04 08:23:45.957139,2021-03-09 00:00:00.000000,10.97467216,14.10251600,17.75203005,11410,14661,18456,7216,9332,12173,6.94072680,8.97643508,11.70943707,0.60122750,0.85828611,0.95417181
29071,0,USMissouriFranklin,Missouri,Franklin,2021-04-04 08:23:45.957139,2021-03-10 00:00:00.000000,11.81452507,14.51623573,18.23329358,12283,15092,18956,7740,10089,13035,7.44509787,9.70439192,12.53813445,0.38906991,0.72347551,0.90799022
29071,0,USMissouriFranklin,Missouri,Franklin,2021-04-04 08:23:45.957139,2021-03-11 00:00:00.000000,11.86583392,14.75410042,18.09176060,12336,15339,18809,8499,10645,13720,8.17496634,10.23940722,13.19681913,0.26186635,0.53766576,0.81116809
29071,0,USMissouriFranklin,Missouri,Franklin,2021-04-04 08:23:45.957139,2021-03-12 00:00:00.000000,11.18085852,14.53090716,17.95228057,11624,15107,18664,8635,10944,14081,8.30634927,10.52705664,13.54446371,0.20193861,0.35055875,0.59394530
29071,0,USMissouriFranklin,Missouri,Franklin,2021-04-04 08:23:45.957139,2021-03-13 00:00:00.000000,10.46680066,13.89879269,17.82514670,10882,14450,18532,8389,10740,14065,8.06920477,10.33048565,13.52852305,0.16806158,0.26196792,0.51244755
29071,0,USMissouriFranklin,Missouri,Franklin,2021-04-04 08:23:45.957139,2021-03-14 00:00:00.000000,9.72864337,13.35253207,17.64573454,10114,13882,18345,7907,10460,13898,7.60595102,10.06095490,13.36828844,0.15264166,0.22788278,0.46205937
29071,0,USMissouriFranklin,Missouri,Franklin,2021-04-04 08:23:45.957139,2021-03-15 00:00:00.000000,9.02017735,12.67917713,17.33368927,9378,13182,18021,7413,10220,13813,7.13098077,9.83058711,13.28597900,0.14485995,0.22060951,0.41302053
29071,0,USMissouriFranklin,Missouri,Franklin,2021-04-04 08:23:45.957139,2021-03-16 00:00:00.000000,8.34322767,12.01936913,16.89642146,8674,12496,17566,6930,9766,13699,6.66577193,9.39338621,13.17659068,0.12950851,0.21452009,0.39860226
29071,0,USMissouriFranklin,Missouri,Franklin,2021-04-04 08:23:45.957139,2021-03-17 00:00:00.000000,7.71273925,11.38160978,16.16931891,8018,11833,16810,6464,9252,13494,6.21822721,8.89956091,12.97945902,0.12585597,0.20389837,0.39670905
29071,0,USMissouriFranklin,Missouri,Franklin,2021-04-04 08:23:45.957139,2021-03-18 00:00:00.000000,7.12883681,10.72067855,15.44959381,7411,11145,16062,6018,8777,13225,5.78863293,8.44225050,12.72124052,0.11379136,0.20060381,0.38243261
29071,0,USMissouriFranklin,Missouri,Franklin,2021-04-04 08:23:45.957139,2021-03-19 00:00:00.000000,6.58301576,10.04746881,14.74591621,6844,10446,15330,5508,8292,12904,5.29791380,7.97619967,12.41233327,0.10386247,0.19318927,0.37413851
29071,0,USMissouriFranklin,Missouri,Franklin,2021-04-04 08:23:45.957139,2021-03-20 00:00:00.000000,5.93503982,9.38433504,14.05971933,6170,9756,14617,4956,7814,12302,4.76746482,7.51664536,11.83322033,0.09638730,0.18394254,0.36208822
29071,0,USMissouriFranklin,Missouri,Franklin,2021-04-04 08:23:45.957139,2021-03-21 00:00:00.000000,5.32462011,8.75506198,13.39086591,5535,9102,13922,4456,7311,11695,4.28674332,7.03273551,11.24967064,0.09031703,0.17900203,0.35902867
29071,0,USMissouriFranklin,Missouri,Franklin,2021-04-04 08:23:45.957139,2021-03-22 00:00:00.000000,4.78108543,8.12867643,12.74499149,4970,8451,13250,4005,6906,11099,3.85310232,6.64275889,10.67578821,0.08673470,0.17008715,0.35078807
29071,0,USMissouriFranklin,Missouri,Franklin,2021-04-04 08:23:45.957139,2021-03-23 00:00:00.000000,4.29474387,7.60613733,12.12338100,4465,7907,12604,3602,6489,10517,3.46461185,6.24180906,10.11649214,0.08567681,0.16797099,0.33556739
29071,0,USMissouriFranklin,Missouri,Franklin,2021-04-04 08:23:45.957139,2021-03-24 00:00:00.000000,3.85970883,7.10814959,11.52750389,4012,7390,11984,3239,6062,9953,3.11617079,5.83116694,9.57368078,0.08551311,0.16735706,0.33920471
29071,0,USMissouriFranklin,Missouri,Franklin,2021-04-04 08:23:45.957139,2021-03-25 00:00:00.000000,3.47036358,6.63967081,10.95796385,3608,6903,11392,2914,5660,9406,2.80347239,5.44464979,9.04750723,0.08518598,0.16710523,0.33943095
29071,0,USMissouriFranklin,Missouri,Franklin,2021-04-04 08:23:45.957139,2021-03-26 00:00:00.000000,3.12281466,6.21682635,10.41448599,3246,6463,10827,2622,5260,8996,2.52281431,5.05971340,8.65333349,0.08420050,0.16692872,0.32602991
29071,0,USMissouriFranklin,Missouri,Franklin,2021-04-04 08:23:45.957139,2021-03-27 00:00:00.000000,2.81742166,5.80749073,9.89579330,2929,6037,10288,2361,4879,8599,2.27146117,4.69337340,8.27108049,0.08131729,0.16607167,0.32047256
29071,0,USMissouriFranklin,Missouri,Franklin,2021-04-04 08:23:45.957139,2021-03-28 00:00:00.000000,2.54747210,5.42966671,9.39944275,2648,5645,9772,2130,4532,8195,2.04909522,4.35935603,7.88240260,0.07530705,0.16354720,0.31851146
29071,0,USMissouriFranklin,Missouri,Franklin,2021-04-04 08:23:45.957139,2021-03-29 00:00:00.000000,2.30116078,5.06706905,8.91933178,2392,5268,9273,1925,4232,7792,1.85241294,4.07139193,7.49494814,0.06876544,0.16201563,0.31772947
29071,0,USMissouriFranklin,Missouri,Franklin,2021-04-04 08:23:45.957139,2021-03-30 00:00:00.000000,2.07944080,4.66910169,8.45240941,2161,4854,8787,1740,3950,7395,1.67432879,3.79930874,7.11350262,0.06599064,0.16365672,0.31732307
29071,0,USMissouriFranklin,Missouri,Franklin,2021-04-04 08:23:45.957139,2021-03-31 00:00:00.000000,1.87926099,4.28786612,7.99581416,1953,4457,8313,1573,3659,7009,1.51329817,3.51946374,6.74170256,0.06526056,0.16112677,0.32058433
29071,0,USMissouriFranklin,Missouri,Franklin,2021-04-04 08:23:45.957139,2021-04-01 00:00:00.000000,1.69869343,3.96654038,7.55142541,1766,4123,7850,1422,3394,6634,1.36793924,3.26521917,6.38162730,0.06497042,0.16281173,0.32955302
29071,0,USMissouriFranklin,Missouri,Franklin,2021-04-04 08:23:45.957139,2021-04-02 00:00:00.000000,1.53592810,3.66077738,7.12281260,1596,3806,7405,1285,3154,6272,1.23671650,3.03452495,6.03356753,0.06484620,0.16370695,0.33093629
29071,0,USMissouriFranklin,Missouri,Franklin,2021-04-04 08:23:45.957139,2021-04-03 00:00:00.000000,1.38919988,3.37724715,6.71302969,1444,3511,6979,1162,2930,5920,1.11834190,2.81853656,5.69455881,0.06522367,0.16303957,0.33108455
29071,0,USMissouriFranklin,Missouri,Franklin,2021-04-04 08:23:45.957139,2021-04-04 00:00:00.000000,1.25681067,3.12254837,6.35237805,1306,3246,6604,1051,2714,5574,1.01157795,2.61122334,5.36217855,0.06687453,0.16018907,0.32907929
29071,0,USMissouriFranklin,Missouri,Franklin,2021-04-04 08:23:45.957139,2021-04-05 00:00:00.000000,1.13721193,2.90108857,6.10435092,1182,3016,6346,951,2515,5247,0.91522930,2.41997815,5.04700077,0.06651271,0.16057030,0.32271852
29071,0,USMissouriFranklin,Missouri,Franklin,2021-04-04 08:23:45.957139,2021-04-06 00:00:00.000000,1.02904899,2.69652188,5.85922994,1069,2803,6091,861,2332,5011,0.82818908,2.24373015,4.82032586,0.06610575,0.16014004,0.32781540
29071,0,USMissouriFranklin,Missouri,Franklin,2021-04-04 08:23:45.957139,2021-04-07 00:00:00.000000,0.93117438,2.50745544,5.53285249,968,2606,5752,779,2153,4788,0.74947589,2.07147357,4.60591341,0.06581787,0.16504127,0.32902048
29071,0,USMissouriFranklin,Missouri,Franklin,2021-04-04 08:23:45.957139,2021-04-08 00:00:00.000000,0.84259962,2.33244505,5.25795381,876,2424,5466,705,1987,4576,0.67824660,1.91196023,4.40215075,0.06562065,0.16336153,0.32929380
29071,0,USMissouriFranklin,Missouri,Franklin,2021-04-04 08:23:45.957139,2021-04-09 00:00:00.000000,0.76244043,2.16893610,5.02777706,792,2254,5227,638,1841,4358,0.61377544,1.77096940,4.19237215,0.06548655,0.16293696,0.32935484
29071,0,USMissouriFranklin,Missouri,Franklin,2021-04-04 08:23:45.957139,2021-04-10 00:00:00.000000,0.68989859,2.00701305,4.80700371,717,2086,4997,577,1704,4155,0.55542039,1.63976852,3.99667030,0.06539565,0.16295961,0.32936830
29071,0,USMissouriFranklin,Missouri,Franklin,2021-04-04 08:23:45.957139,2021-04-11 00:00:00.000000,0.62425215,1.85696822,4.59520870,649,1930,4777,522,1578,3985,0.50260361,1.51789978,3.83352949,0.06533411,0.16297643,0.32937122
29071,0,USMissouriFranklin,Missouri,Franklin,2021-04-04 08:23:45.957139,2021-04-12 00:00:00.000000,0.56484743,1.71799051,4.39203966,587,1786,4566,472,1460,3821,0.45480196,1.40483073,3.67604415,0.06529245,0.16298865,0.32937183
29071,0,USMissouriFranklin,Missouri,Franklin,2021-04-04 08:23:45.957139,2021-04-13 00:00:00.000000,0.51109234,1.60077237,4.19689991,531,1664,4363,427,1351,3655,0.41154122,1.30000526,3.51621362,0.06526424,0.16299739,0.32937195
29071,0,USMissouriFranklin,Missouri,Franklin,2021-04-04 08:23:45.957139,2021-04-14 00:00:00.000000,0.46245063,1.49398826,4.01190042,480,1553,4171,387,1250,3494,0.37239150,1.20287172,3.36092522,0.06524513,0.16300358,0.32937198
29071,0,USMissouriFranklin,Missouri,Franklin,2021-04-04 08:23:45.957139,2021-04-15 00:00:00.000000,0.41843664,1.39432972,3.86593040,435,1449,4019,350,1157,3339,0.33696321,1.11289753,3.21202832,0.06523218,0.16300794,0.32937198
29071,0,USMissouriFranklin,Missouri,Franklin,2021-04-04 08:23:45.957139,2021-04-16 00:00:00.000000,0.37861065,1.30131866,3.69106529,393,1352,3837,316,1076,3191,0.30490341,1.03523805,3.06928660,0.06522339,0.16301098,0.32937198
