FIPS,HR_UID,nameid,province,region,analysisTime,dates,pointprevalence_025,pointprevalence_50,pointprevalence_975,pointinfections_025,pointinfections_50,pointinfections_975,pointinfectious_025,pointinfectious_50,pointinfectious_975,pointinfectiousprevalence_05,pointinfectiousprevalence_50,pointinfectiousprevalence_95,infectrate_025,infectrate_50,infectrate_975
18147,0,USIndianaSpencer,Indiana,Spencer,2021-04-04 11:20:00.985567,2020-03-09 00:00:00.000000,0.00253206,0.01481083,0.04309411,0,3,8,0,1,5,0.00127188,0.00822244,0.02550742,0.36523618,0.48047421,0.66321256
18147,0,USIndianaSpencer,Indiana,Spencer,2021-04-04 11:20:00.985567,2020-03-10 00:00:00.000000,0.00290616,0.01615243,0.04726671,0,3,9,0,1,4,0.00124493,0.00802058,0.02442171,0.36519583,0.48044953,0.66320685
18147,0,USIndianaSpencer,Indiana,Spencer,2021-04-04 11:20:00.985567,2020-03-11 00:00:00.000000,0.00326143,0.01763315,0.05142662,0,3,10,0,1,5,0.00129414,0.00807114,0.02514197,0.36508663,0.48038600,0.66319444
18147,0,USIndianaSpencer,Indiana,Spencer,2021-04-04 11:20:00.985567,2020-03-12 00:00:00.000000,0.00360585,0.01907029,0.05569752,0,3,11,0,1,5,0.00138901,0.00844846,0.02638615,0.36476105,0.48033998,0.66316756
18147,0,USIndianaSpencer,Indiana,Spencer,2021-04-04 11:20:00.985567,2020-03-13 00:00:00.000000,0.00379449,0.02068272,0.06012873,0,4,12,0,1,5,0.00151137,0.00894311,0.02801447,0.36375878,0.48025099,0.66310966
18147,0,USIndianaSpencer,Indiana,Spencer,2021-04-04 11:20:00.985567,2020-03-14 00:00:00.000000,0.00399198,0.02202846,0.06461916,0,4,13,0,1,6,0.00165066,0.00959131,0.02994663,0.36076093,0.48004614,0.66176458
18147,0,USIndianaSpencer,Indiana,Spencer,2021-04-04 11:20:00.985567,2020-03-15 00:00:00.000000,0.00419933,0.02337408,0.06714055,0,4,13,0,2,6,0.00180093,0.01025286,0.03213606,0.35692093,0.47957641,0.65188715
18147,0,USIndianaSpencer,Indiana,Spencer,2021-04-04 11:20:00.985567,2020-03-16 00:00:00.000000,0.00880897,0.02922341,0.07882570,1,5,15,0,2,7,0.00195903,0.01118489,0.03455044,0.35184304,0.47797473,0.63262317
18147,0,USIndianaSpencer,Indiana,Spencer,2021-04-04 11:20:00.985567,2020-03-17 00:00:00.000000,0.01138919,0.03560562,0.08821755,2,7,17,0,2,7,0.00278956,0.01266903,0.03814750,0.33702262,0.47185213,0.61434617
18147,0,USIndianaSpencer,Indiana,Spencer,2021-04-04 11:20:00.985567,2020-03-18 00:00:00.000000,0.01399384,0.04121144,0.09787089,2,8,19,0,2,8,0.00408234,0.01464773,0.04184861,0.31661338,0.45863792,0.61266165
18147,0,USIndianaSpencer,Indiana,Spencer,2021-04-04 11:20:00.985567,2020-03-19 00:00:00.000000,0.01727877,0.04714992,0.10767133,3,9,21,1,3,9,0.00570363,0.01753178,0.04550132,0.30441364,0.44493363,0.60876515
18147,0,USIndianaSpencer,Indiana,Spencer,2021-04-04 11:20:00.985567,2020-03-20 00:00:00.000000,0.02038179,0.05383048,0.11740976,4,10,23,1,4,10,0.00693018,0.02110912,0.04989095,0.28200300,0.41868824,0.60873248
18147,0,USIndianaSpencer,Indiana,Spencer,2021-04-04 11:20:00.985567,2020-03-21 00:00:00.000000,0.02452095,0.06028675,0.12890486,4,12,26,1,4,11,0.00828665,0.02372787,0.05694675,0.26280143,0.40053724,0.60785508
18147,0,USIndianaSpencer,Indiana,Spencer,2021-04-04 11:20:00.985567,2020-03-22 00:00:00.000000,0.02649902,0.06841052,0.14110197,5,13,28,1,5,12,0.00955605,0.02664553,0.06373251,0.25085372,0.38036880,0.55763433
18147,0,USIndianaSpencer,Indiana,Spencer,2021-04-04 11:20:00.985567,2020-03-23 00:00:00.000000,0.03514504,0.07731775,0.15113883,7,15,30,2,5,13,0.01165068,0.02953946,0.06888659,0.24881805,0.35110281,0.50354275
18147,0,USIndianaSpencer,Indiana,Spencer,2021-04-04 11:20:00.985567,2020-03-24 00:00:00.000000,0.04356724,0.08506294,0.16050723,8,17,32,2,6,14,0.01429761,0.03416136,0.07375536,0.24655886,0.33563599,0.49125811
18147,0,USIndianaSpencer,Indiana,Spencer,2021-04-04 11:20:00.985567,2020-03-25 00:00:00.000000,0.04892532,0.09533770,0.16944878,9,19,34,3,7,15,0.01664202,0.03816225,0.07826471,0.22419638,0.32027508,0.46762068
18147,0,USIndianaSpencer,Indiana,Spencer,2021-04-04 11:20:00.985567,2020-03-26 00:00:00.000000,0.05369890,0.10653856,0.17832772,10,21,36,4,8,17,0.01995177,0.04278851,0.08391871,0.20433498,0.30951767,0.44759135
18147,0,USIndianaSpencer,Indiana,Spencer,2021-04-04 11:20:00.985567,2020-03-27 00:00:00.000000,0.05700514,0.11564686,0.18992607,11,23,38,4,9,18,0.02268943,0.04748550,0.09043360,0.19058350,0.30341490,0.41549025
18147,0,USIndianaSpencer,Indiana,Spencer,2021-04-04 11:20:00.985567,2020-03-28 00:00:00.000000,0.06011342,0.12248688,0.20074017,12,24,40,5,10,19,0.02468947,0.05261189,0.09658073,0.18405933,0.28192277,0.40788413
18147,0,USIndianaSpencer,Indiana,Spencer,2021-04-04 11:20:00.985567,2020-03-29 00:00:00.000000,0.06299142,0.12795106,0.21058635,12,25,42,5,11,20,0.02687324,0.05775004,0.10235654,0.16169568,0.27064958,0.39361687
18147,0,USIndianaSpencer,Indiana,Spencer,2021-04-04 11:20:00.985567,2020-03-30 00:00:00.000000,0.07365346,0.13782087,0.22425221,14,27,45,5,12,21,0.02822749,0.06208936,0.10782726,0.15489702,0.26314940,0.38057843
18147,0,USIndianaSpencer,Indiana,Spencer,2021-04-04 11:20:00.985567,2020-03-31 00:00:00.000000,0.08269359,0.14674360,0.23739636,16,29,48,6,13,22,0.03072876,0.06679020,0.11179753,0.15417568,0.25433520,0.36608745
18147,0,USIndianaSpencer,Indiana,Spencer,2021-04-04 11:20:00.985567,2020-04-01 00:00:00.000000,0.08732943,0.15297630,0.24958218,17,31,50,6,14,23,0.03425432,0.07058097,0.11477984,0.14576423,0.24588654,0.36228434
18147,0,USIndianaSpencer,Indiana,Spencer,2021-04-04 11:20:00.985567,2020-04-02 00:00:00.000000,0.09152279,0.15921992,0.26055922,18,32,52,7,14,23,0.03809752,0.07348792,0.11709448,0.14793179,0.23891613,0.35176021
18147,0,USIndianaSpencer,Indiana,Spencer,2021-04-04 11:20:00.985567,2020-04-03 00:00:00.000000,0.09327753,0.16613134,0.27071493,18,33,54,8,15,24,0.04074720,0.07814777,0.12136148,0.14880563,0.22471761,0.34746150
18147,0,USIndianaSpencer,Indiana,Spencer,2021-04-04 11:20:00.985567,2020-04-04 00:00:00.000000,0.09383107,0.17061872,0.28037865,19,34,56,8,16,25,0.04261576,0.08296310,0.12609564,0.12737785,0.21834447,0.34318624
18147,0,USIndianaSpencer,Indiana,Spencer,2021-04-04 11:20:00.985567,2020-04-05 00:00:00.000000,0.09838445,0.17482476,0.28975306,19,35,58,8,17,26,0.04357307,0.08640279,0.13139960,0.11876812,0.20764050,0.31617911
18147,0,USIndianaSpencer,Indiana,Spencer,2021-04-04 11:20:00.985567,2020-04-06 00:00:00.000000,0.10094351,0.17611898,0.28926410,20,35,58,8,18,28,0.04436770,0.08982679,0.14001813,0.11849505,0.20056623,0.28760901
18147,0,USIndianaSpencer,Indiana,Spencer,2021-04-04 11:20:00.985567,2020-04-07 00:00:00.000000,0.10902452,0.18062318,0.28856920,22,36,58,9,18,29,0.04572342,0.09231721,0.14654596,0.11479427,0.19750218,0.28487637
18147,0,USIndianaSpencer,Indiana,Spencer,2021-04-04 11:20:00.985567,2020-04-08 00:00:00.000000,0.11204892,0.18712691,0.29184977,22,37,59,9,19,31,0.04740985,0.09443047,0.15340765,0.11437495,0.19154825,0.28409264
18147,0,USIndianaSpencer,Indiana,Spencer,2021-04-04 11:20:00.985567,2020-04-09 00:00:00.000000,0.11396528,0.18793125,0.30173066,23,38,61,10,19,32,0.04932410,0.09582303,0.16086984,0.11379561,0.18248192,0.27025807
18147,0,USIndianaSpencer,Indiana,Spencer,2021-04-04 11:20:00.985567,2020-04-10 00:00:00.000000,0.11850469,0.19135024,0.31265862,24,38,63,10,19,33,0.05147756,0.09782476,0.16499519,0.11268689,0.17961010,0.27798898
18147,0,USIndianaSpencer,Indiana,Spencer,2021-04-04 11:20:00.985567,2020-04-11 00:00:00.000000,0.12305231,0.19473578,0.33156291,24,39,67,11,20,34,0.05472447,0.09985355,0.16884384,0.11112828,0.17412538,0.26387113
18147,0,USIndianaSpencer,Indiana,Spencer,2021-04-04 11:20:00.985567,2020-04-12 00:00:00.000000,0.12736681,0.19871085,0.33994742,25,40,68,11,20,35,0.05805048,0.10088613,0.17418198,0.10776810,0.17259592,0.25347039
18147,0,USIndianaSpencer,Indiana,Spencer,2021-04-04 11:20:00.985567,2020-04-13 00:00:00.000000,0.12746762,0.19913725,0.34339671,25,40,69,12,20,37,0.06137894,0.10115609,0.18439445,0.10768860,0.17150222,0.23246998
18147,0,USIndianaSpencer,Indiana,Spencer,2021-04-04 11:20:00.985567,2020-04-14 00:00:00.000000,0.12737445,0.19940272,0.34697307,25,40,70,12,20,38,0.06229448,0.10209597,0.19099494,0.10441475,0.16618990,0.23010221
18147,0,USIndianaSpencer,Indiana,Spencer,2021-04-04 11:20:00.985567,2020-04-15 00:00:00.000000,0.12723941,0.20190399,0.35053231,25,40,71,12,21,39,0.06318617,0.10436085,0.19508197,0.10121377,0.16329762,0.23006465
18147,0,USIndianaSpencer,Indiana,Spencer,2021-04-04 11:20:00.985567,2020-04-16 00:00:00.000000,0.12702139,0.20444002,0.35401422,25,41,71,12,21,40,0.06406235,0.10568118,0.19733815,0.09988836,0.16030973,0.23150978
18147,0,USIndianaSpencer,Indiana,Spencer,2021-04-04 11:20:00.985567,2020-04-17 00:00:00.000000,0.12703980,0.20601862,0.35740932,25,41,72,13,21,40,0.06491902,0.10624569,0.19819790,0.09867945,0.15355742,0.23066012
18147,0,USIndianaSpencer,Indiana,Spencer,2021-04-04 11:20:00.985567,2020-04-18 00:00:00.000000,0.12842323,0.20703953,0.35726288,26,41,72,13,21,40,0.06575125,0.10751895,0.19794978,0.08981089,0.15150388,0.23382242
18147,0,USIndianaSpencer,Indiana,Spencer,2021-04-04 11:20:00.985567,2020-04-19 00:00:00.000000,0.12934329,0.20863709,0.35645170,26,42,72,13,22,39,0.06504374,0.10924654,0.19674543,0.08456946,0.15239935,0.23380176
18147,0,USIndianaSpencer,Indiana,Spencer,2021-04-04 11:20:00.985567,2020-04-20 00:00:00.000000,0.13070266,0.21065661,0.35700808,26,42,72,12,22,39,0.06379040,0.11040518,0.19469378,0.08253006,0.14261722,0.21988334
18147,0,USIndianaSpencer,Indiana,Spencer,2021-04-04 11:20:00.985567,2020-04-21 00:00:00.000000,0.12708482,0.21180711,0.35652887,25,42,72,12,22,38,0.06325206,0.11156621,0.19215379,0.08181095,0.13922829,0.22529809
18147,0,USIndianaSpencer,Indiana,Spencer,2021-04-04 11:20:00.985567,2020-04-22 00:00:00.000000,0.12351135,0.20948838,0.35528171,25,42,72,13,22,39,0.06558094,0.11258986,0.19307579,0.08144426,0.13925566,0.22759851
18147,0,USIndianaSpencer,Indiana,Spencer,2021-04-04 11:20:00.985567,2020-04-23 00:00:00.000000,0.12011674,0.21028486,0.35858262,24,42,72,12,22,39,0.06390920,0.11208577,0.19429210,0.08105814,0.13838104,0.22835389
18147,0,USIndianaSpencer,Indiana,Spencer,2021-04-04 11:20:00.985567,2020-04-24 00:00:00.000000,0.11696798,0.21384361,0.36106536,23,43,73,12,22,39,0.06393002,0.11019078,0.19569081,0.08074468,0.13698824,0.22857997
18147,0,USIndianaSpencer,Indiana,Spencer,2021-04-04 11:20:00.985567,2020-04-25 00:00:00.000000,0.11413482,0.21320554,0.35795977,23,43,72,13,22,40,0.06462108,0.11131377,0.20082800,0.08074853,0.13488504,0.22487606
18147,0,USIndianaSpencer,Indiana,Spencer,2021-04-04 11:20:00.985567,2020-04-26 00:00:00.000000,0.11167830,0.21557548,0.35470846,22,43,71,12,22,41,0.06388146,0.11148750,0.20586097,0.08114906,0.13363943,0.22067306
18147,0,USIndianaSpencer,Indiana,Spencer,2021-04-04 11:20:00.985567,2020-04-27 00:00:00.000000,0.11158375,0.21643166,0.36590968,22,43,74,12,22,42,0.06187066,0.11191217,0.21072674,0.08198210,0.13175969,0.22056784
18147,0,USIndianaSpencer,Indiana,Spencer,2021-04-04 11:20:00.985567,2020-04-28 00:00:00.000000,0.11182050,0.21989927,0.35799042,22,44,72,12,22,42,0.06011402,0.11263559,0.21069200,0.08462358,0.13759968,0.21979450
18147,0,USIndianaSpencer,Indiana,Spencer,2021-04-04 11:20:00.985567,2020-04-29 00:00:00.000000,0.11228118,0.22290516,0.35638031,22,45,72,11,23,42,0.05855722,0.11471282,0.20748863,0.08751215,0.13477426,0.21738779
18147,0,USIndianaSpencer,Indiana,Spencer,2021-04-04 11:20:00.985567,2020-04-30 00:00:00.000000,0.11306780,0.22863685,0.35899335,22,46,72,11,23,42,0.05715886,0.11649131,0.21107430,0.08767635,0.13552552,0.21061400
18147,0,USIndianaSpencer,Indiana,Spencer,2021-04-04 11:20:00.985567,2020-05-01 00:00:00.000000,0.11365579,0.22853276,0.36457967,23,46,73,11,23,43,0.05664315,0.11693829,0.21599501,0.08598104,0.13582749,0.20699880
18147,0,USIndianaSpencer,Indiana,Spencer,2021-04-04 11:20:00.985567,2020-05-02 00:00:00.000000,0.11361261,0.22688418,0.37497113,23,46,76,11,23,44,0.05683117,0.11671653,0.22049003,0.08570250,0.13764770,0.23102801
18147,0,USIndianaSpencer,Indiana,Spencer,2021-04-04 11:20:00.985567,2020-05-03 00:00:00.000000,0.11267919,0.22731714,0.38497902,22,46,78,11,23,43,0.05712295,0.11656485,0.21697013,0.08569271,0.13615666,0.22298319
18147,0,USIndianaSpencer,Indiana,Spencer,2021-04-04 11:20:00.985567,2020-05-04 00:00:00.000000,0.11172366,0.23054849,0.39041774,22,46,79,11,23,43,0.05820227,0.11668325,0.21324376,0.08569926,0.13092301,0.21762680
18147,0,USIndianaSpencer,Indiana,Spencer,2021-04-04 11:20:00.985567,2020-05-05 00:00:00.000000,0.11104118,0.23199614,0.39590060,22,47,80,12,23,43,0.06205262,0.11607538,0.21264511,0.08570863,0.13216275,0.21223872
18147,0,USIndianaSpencer,Indiana,Spencer,2021-04-04 11:20:00.985567,2020-05-06 00:00:00.000000,0.11063323,0.23056486,0.40031909,22,46,81,13,23,43,0.06648387,0.11727343,0.21269320,0.08572169,0.13391289,0.21139111
18147,0,USIndianaSpencer,Indiana,Spencer,2021-04-04 11:20:00.985567,2020-05-07 00:00:00.000000,0.11518270,0.23062592,0.40501147,23,46,82,13,23,42,0.06613895,0.11732247,0.21131862,0.08561203,0.13518598,0.21184352
18147,0,USIndianaSpencer,Indiana,Spencer,2021-04-04 11:20:00.985567,2020-05-08 00:00:00.000000,0.11180156,0.23076721,0.40951420,22,46,83,13,23,42,0.06663505,0.11761023,0.20907490,0.08463456,0.13696501,0.20916306
18147,0,USIndianaSpencer,Indiana,Spencer,2021-04-04 11:20:00.985567,2020-05-09 00:00:00.000000,0.10986447,0.22896647,0.41386775,22,46,83,13,23,42,0.06552540,0.11824359,0.20905297,0.08174447,0.13812888,0.20488318
18147,0,USIndianaSpencer,Indiana,Spencer,2021-04-04 11:20:00.985567,2020-05-10 00:00:00.000000,0.10980897,0.22822811,0.41797675,22,46,84,13,23,42,0.06530834,0.11773370,0.20920835,0.07962863,0.13805268,0.20122811
18147,0,USIndianaSpencer,Indiana,Spencer,2021-04-04 11:20:00.985567,2020-05-11 00:00:00.000000,0.11207121,0.23059484,0.42003698,22,46,85,13,23,42,0.06513377,0.11736963,0.20924260,0.08084356,0.14040994,0.20365598
18147,0,USIndianaSpencer,Indiana,Spencer,2021-04-04 11:20:00.985567,2020-05-12 00:00:00.000000,0.11438267,0.23177938,0.42198162,23,46,85,13,24,42,0.06558189,0.11879170,0.20990069,0.07885849,0.14188304,0.20985839
18147,0,USIndianaSpencer,Indiana,Spencer,2021-04-04 11:20:00.985567,2020-05-13 00:00:00.000000,0.11733525,0.23196566,0.42385011,23,47,85,13,24,42,0.06619490,0.11927727,0.21087005,0.08142098,0.14254223,0.20664113
18147,0,USIndianaSpencer,Indiana,Spencer,2021-04-04 11:20:00.985567,2020-05-14 00:00:00.000000,0.12024427,0.22767328,0.42575845,24,46,86,13,24,42,0.06685880,0.11892567,0.21202542,0.08370114,0.14359716,0.20687843
18147,0,USIndianaSpencer,Indiana,Spencer,2021-04-04 11:20:00.985567,2020-05-15 00:00:00.000000,0.12215641,0.23634483,0.42779876,24,47,86,13,24,43,0.06770960,0.11901731,0.21327492,0.08531839,0.14506549,0.20590169
18147,0,USIndianaSpencer,Indiana,Spencer,2021-04-04 11:20:00.985567,2020-05-16 00:00:00.000000,0.12396705,0.23782169,0.42997612,25,48,87,13,24,43,0.06878004,0.11866734,0.21454786,0.08630140,0.14558983,0.21133689
18147,0,USIndianaSpencer,Indiana,Spencer,2021-04-04 11:20:00.985567,2020-05-17 00:00:00.000000,0.12526423,0.24341373,0.43220855,25,49,87,14,23,43,0.07147484,0.11811645,0.21580827,0.08687649,0.14595246,0.23350333
18147,0,USIndianaSpencer,Indiana,Spencer,2021-04-04 11:20:00.985567,2020-05-18 00:00:00.000000,0.13269527,0.24439013,0.42658840,26,49,86,14,24,44,0.07276109,0.11891524,0.21704335,0.08729068,0.14784510,0.23875575
18147,0,USIndianaSpencer,Indiana,Spencer,2021-04-04 11:20:00.985567,2020-05-19 00:00:00.000000,0.13724430,0.24578092,0.43468311,27,49,88,15,24,44,0.07473975,0.11962847,0.21891750,0.08778214,0.14845120,0.24041894
18147,0,USIndianaSpencer,Indiana,Spencer,2021-04-04 11:20:00.985567,2020-05-20 00:00:00.000000,0.13744371,0.24782485,0.44277685,27,50,89,15,23,44,0.07519495,0.11818239,0.22127332,0.08871785,0.14993902,0.23272808
18147,0,USIndianaSpencer,Indiana,Spencer,2021-04-04 11:20:00.985567,2020-05-21 00:00:00.000000,0.13756379,0.24824859,0.45071859,27,50,91,15,24,45,0.07644513,0.11940643,0.22398579,0.09087132,0.15089675,0.21383808
18147,0,USIndianaSpencer,Indiana,Spencer,2021-04-04 11:20:00.985567,2020-05-22 00:00:00.000000,0.13771985,0.24926662,0.45835259,27,50,92,15,24,46,0.07634809,0.12073152,0.22695014,0.09530505,0.15330582,0.22037536
18147,0,USIndianaSpencer,Indiana,Spencer,2021-04-04 11:20:00.985567,2020-05-23 00:00:00.000000,0.13970010,0.24485514,0.46556342,28,49,94,15,25,46,0.07625677,0.12455412,0.22958058,0.09930013,0.15601112,0.22159334
18147,0,USIndianaSpencer,Indiana,Spencer,2021-04-04 11:20:00.985567,2020-05-24 00:00:00.000000,0.13972341,0.24155943,0.47240884,28,48,95,15,25,44,0.07621413,0.12710870,0.22164989,0.09968305,0.15847231,0.22648366
18147,0,USIndianaSpencer,Indiana,Spencer,2021-04-04 11:20:00.985567,2020-05-25 00:00:00.000000,0.13649932,0.24439132,0.47608030,27,49,96,15,26,45,0.07620598,0.12848211,0.22519319,0.10032834,0.15954754,0.23232497
18147,0,USIndianaSpencer,Indiana,Spencer,2021-04-04 11:20:00.985567,2020-05-26 00:00:00.000000,0.13413625,0.25017998,0.47968653,27,50,97,15,25,46,0.07695145,0.12811240,0.22816407,0.10130249,0.16450737,0.23516508
18147,0,USIndianaSpencer,Indiana,Spencer,2021-04-04 11:20:00.985567,2020-05-27 00:00:00.000000,0.13222928,0.25575031,0.48217065,26,51,97,15,25,46,0.07704027,0.12767631,0.23062430,0.10304504,0.16638763,0.23710182
18147,0,USIndianaSpencer,Indiana,Spencer,2021-04-04 11:20:00.985567,2020-05-28 00:00:00.000000,0.13040152,0.25750851,0.48386117,26,52,98,15,25,47,0.07523677,0.12798305,0.23266570,0.10361204,0.16790184,0.23794916
18147,0,USIndianaSpencer,Indiana,Spencer,2021-04-04 11:20:00.985567,2020-05-29 00:00:00.000000,0.12868131,0.26074609,0.48541859,26,52,98,14,26,47,0.07349942,0.12927960,0.23437671,0.10463825,0.16792026,0.24021312
18147,0,USIndianaSpencer,Indiana,Spencer,2021-04-04 11:20:00.985567,2020-05-30 00:00:00.000000,0.12710138,0.26202618,0.48689070,25,53,98,14,26,47,0.07187792,0.13252486,0.23583200,0.10598024,0.16745017,0.24389568
18147,0,USIndianaSpencer,Indiana,Spencer,2021-04-04 11:20:00.985567,2020-05-31 00:00:00.000000,0.12577945,0.26337831,0.48831287,25,53,99,14,27,48,0.07038843,0.13468958,0.23709145,0.10966734,0.16814020,0.24561479
18147,0,USIndianaSpencer,Indiana,Spencer,2021-04-04 11:20:00.985567,2020-06-01 00:00:00.000000,0.12897719,0.26414083,0.48585861,26,53,98,13,27,48,0.06902262,0.13633188,0.23820276,0.10699881,0.17098248,0.24699663
18147,0,USIndianaSpencer,Indiana,Spencer,2021-04-04 11:20:00.985567,2020-06-02 00:00:00.000000,0.13395713,0.26680161,0.48347891,27,54,98,13,27,48,0.06857056,0.13757949,0.23867897,0.10508282,0.17507523,0.24969933
18147,0,USIndianaSpencer,Indiana,Spencer,2021-04-04 11:20:00.985567,2020-06-03 00:00:00.000000,0.14054230,0.26719023,0.48121620,28,54,97,13,28,48,0.06866316,0.13822028,0.23869889,0.10792522,0.17963100,0.26618326
18147,0,USIndianaSpencer,Indiana,Spencer,2021-04-04 11:20:00.985567,2020-06-04 00:00:00.000000,0.14715655,0.27427584,0.47914081,29,55,97,14,28,48,0.06923205,0.13922173,0.23840808,0.11400951,0.18417358,0.27255251
18147,0,USIndianaSpencer,Indiana,Spencer,2021-04-04 11:20:00.985567,2020-06-05 00:00:00.000000,0.14845295,0.28086657,0.48252433,30,56,97,14,28,48,0.07330201,0.13971095,0.23795172,0.12294037,0.18717254,0.28180308
18147,0,USIndianaSpencer,Indiana,Spencer,2021-04-04 11:20:00.985567,2020-06-06 00:00:00.000000,0.15187506,0.28348900,0.49022045,30,57,99,15,28,50,0.07775415,0.14211852,0.24670381,0.12301483,0.19525992,0.29096667
18147,0,USIndianaSpencer,Indiana,Spencer,2021-04-04 11:20:00.985567,2020-06-07 00:00:00.000000,0.15258380,0.28624329,0.49881243,30,58,101,16,29,52,0.08245051,0.14640437,0.25756659,0.12318904,0.20147901,0.29081058
18147,0,USIndianaSpencer,Indiana,Spencer,2021-04-04 11:20:00.985567,2020-06-08 00:00:00.000000,0.15607145,0.29569966,0.50854948,31,59,103,16,29,52,0.08381747,0.14615152,0.25746611,0.12355677,0.20060996,0.30122276
18147,0,USIndianaSpencer,Indiana,Spencer,2021-04-04 11:20:00.985567,2020-06-09 00:00:00.000000,0.15479380,0.30060269,0.51850550,31,60,105,17,29,52,0.08419015,0.14690626,0.25719464,0.12429714,0.20394358,0.31359751
18147,0,USIndianaSpencer,Indiana,Spencer,2021-04-04 11:20:00.985567,2020-06-10 00:00:00.000000,0.15943328,0.30298839,0.52854028,32,61,107,17,30,52,0.08549906,0.15194072,0.25708686,0.12575083,0.20708305,0.32028259
18147,0,USIndianaSpencer,Indiana,Spencer,2021-04-04 11:20:00.985567,2020-06-11 00:00:00.000000,0.16178375,0.30780202,0.53833649,32,62,109,17,31,53,0.08728322,0.15407498,0.26171935,0.12850124,0.21109388,0.32059850
18147,0,USIndianaSpencer,Indiana,Spencer,2021-04-04 11:20:00.985567,2020-06-12 00:00:00.000000,0.16393476,0.32604542,0.54745501,33,66,111,17,32,54,0.08740228,0.15896395,0.26646741,0.13341634,0.21455607,0.33311115
18147,0,USIndianaSpencer,Indiana,Spencer,2021-04-04 11:20:00.985567,2020-06-13 00:00:00.000000,0.16661284,0.34085441,0.55584466,33,69,112,17,33,54,0.08834778,0.16437046,0.27121286,0.14141118,0.22135148,0.34225174
18147,0,USIndianaSpencer,Indiana,Spencer,2021-04-04 11:20:00.985567,2020-06-14 00:00:00.000000,0.16950170,0.35052854,0.56384219,34,71,114,18,33,55,0.08995692,0.16764858,0.27586044,0.14644442,0.23492392,0.34273736
18147,0,USIndianaSpencer,Indiana,Spencer,2021-04-04 11:20:00.985567,2020-06-15 00:00:00.000000,0.17214434,0.35952336,0.60710010,34,72,123,18,34,56,0.09050741,0.17203831,0.28038369,0.15213086,0.24092956,0.35149287
18147,0,USIndianaSpencer,Indiana,Spencer,2021-04-04 11:20:00.985567,2020-06-16 00:00:00.000000,0.18368947,0.37110046,0.63193090,37,75,128,19,36,58,0.09459811,0.17996150,0.28945840,0.15232625,0.25348915,0.36572188
18147,0,USIndianaSpencer,Indiana,Spencer,2021-04-04 11:20:00.985567,2020-06-17 00:00:00.000000,0.19856225,0.39109567,0.65611245,40,79,133,19,37,61,0.09676008,0.18619776,0.30495220,0.15298553,0.25757393,0.37897415
18147,0,USIndianaSpencer,Indiana,Spencer,2021-04-04 11:20:00.985567,2020-06-18 00:00:00.000000,0.20811616,0.40816894,0.69754949,42,82,141,20,38,65,0.10131976,0.18974099,0.32451102,0.15507662,0.25861968,0.38071489
18147,0,USIndianaSpencer,Indiana,Spencer,2021-04-04 11:20:00.985567,2020-06-19 00:00:00.000000,0.22368287,0.43833579,0.73017499,45,88,148,21,39,69,0.10520464,0.19702574,0.34513871,0.16183564,0.27658522,0.38393751
18147,0,USIndianaSpencer,Indiana,Spencer,2021-04-04 11:20:00.985567,2020-06-20 00:00:00.000000,0.23141776,0.46027424,0.77352381,46,93,156,22,42,74,0.10865192,0.20940051,0.36583527,0.16574186,0.28692288,0.40071939
18147,0,USIndianaSpencer,Indiana,Spencer,2021-04-04 11:20:00.985567,2020-06-21 00:00:00.000000,0.23966137,0.47415665,0.83866401,48,96,170,22,43,75,0.11231009,0.21539431,0.37402836,0.16747885,0.29081465,0.41563305
18147,0,USIndianaSpencer,Indiana,Spencer,2021-04-04 11:20:00.985567,2020-06-22 00:00:00.000000,0.25023404,0.50287018,0.89247872,50,101,180,23,45,79,0.11619892,0.22355764,0.39291825,0.16791551,0.29860699,0.42168027
18147,0,USIndianaSpencer,Indiana,Spencer,2021-04-04 11:20:00.985567,2020-06-23 00:00:00.000000,0.27737587,0.53059386,0.91366865,56,107,185,24,47,83,0.11980432,0.23266969,0.41117780,0.16798880,0.30194101,0.43006473
18147,0,USIndianaSpencer,Indiana,Spencer,2021-04-04 11:20:00.985567,2020-06-24 00:00:00.000000,0.30596685,0.55096133,0.93468424,62,111,189,27,49,86,0.13511703,0.24570847,0.42757598,0.17398965,0.30722373,0.45004017
18147,0,USIndianaSpencer,Indiana,Spencer,2021-04-04 11:20:00.985567,2020-06-25 00:00:00.000000,0.32532765,0.57376919,0.95570625,65,116,193,28,52,89,0.14220804,0.26121515,0.44250985,0.17989758,0.31532970,0.45642929
18147,0,USIndianaSpencer,Indiana,Spencer,2021-04-04 11:20:00.985567,2020-06-26 00:00:00.000000,0.32629653,0.60124344,0.99105205,66,121,200,30,55,94,0.15016772,0.27314136,0.46601126,0.18726655,0.32003789,0.48397682
18147,0,USIndianaSpencer,Indiana,Spencer,2021-04-04 11:20:00.985567,2020-06-27 00:00:00.000000,0.32452194,0.63271545,1.05173114,65,128,213,32,57,99,0.15859413,0.28356874,0.49136360,0.19357513,0.32736986,0.48919237
18147,0,USIndianaSpencer,Indiana,Spencer,2021-04-04 11:20:00.985567,2020-06-28 00:00:00.000000,0.34979460,0.65967445,1.11328654,70,133,225,33,60,104,0.16682019,0.29956136,0.51760685,0.19757061,0.33390032,0.49885230
18147,0,USIndianaSpencer,Indiana,Spencer,2021-04-04 11:20:00.985567,2020-06-29 00:00:00.000000,0.40875886,0.68453945,1.16885419,82,138,237,34,64,110,0.17051180,0.31629520,0.54468971,0.20282363,0.32544422,0.50861438
18147,0,USIndianaSpencer,Indiana,Spencer,2021-04-04 11:20:00.985567,2020-06-30 00:00:00.000000,0.45444049,0.72284322,1.22510751,92,146,248,38,68,116,0.18904230,0.33967297,0.57250096,0.20422257,0.32306097,0.50063919
18147,0,USIndianaSpencer,Indiana,Spencer,2021-04-04 11:20:00.985567,2020-07-01 00:00:00.000000,0.49295255,0.77381862,1.24437134,99,156,252,41,72,119,0.20460751,0.35597732,0.58965420,0.20432822,0.32815821,0.49350474
18147,0,USIndianaSpencer,Indiana,Spencer,2021-04-04 11:20:00.985567,2020-07-02 00:00:00.000000,0.53292018,0.83182071,1.26124031,108,168,255,44,76,125,0.22170184,0.37610072,0.62073722,0.20379153,0.32733849,0.47207469
18147,0,USIndianaSpencer,Indiana,Spencer,2021-04-04 11:20:00.985567,2020-07-03 00:00:00.000000,0.58238006,0.87383605,1.27577064,118,177,258,48,80,132,0.23989147,0.39775660,0.65142035,0.20124985,0.33025028,0.46160805
18147,0,USIndianaSpencer,Indiana,Spencer,2021-04-04 11:20:00.985567,2020-07-04 00:00:00.000000,0.63068137,0.91725174,1.28169001,127,185,259,52,85,137,0.25972900,0.42274204,0.67840836,0.20058729,0.32655858,0.46178710
18147,0,USIndianaSpencer,Indiana,Spencer,2021-04-04 11:20:00.985567,2020-07-05 00:00:00.000000,0.66490422,0.96352751,1.31268433,134,195,266,59,89,139,0.29130198,0.43962749,0.68619343,0.20072244,0.32424690,0.46167582
18147,0,USIndianaSpencer,Indiana,Spencer,2021-04-04 11:20:00.985567,2020-07-06 00:00:00.000000,0.71005263,0.99808655,1.37640229,143,202,279,64,94,139,0.31969772,0.46550370,0.68972491,0.19657309,0.32498579,0.46070536
18147,0,USIndianaSpencer,Indiana,Spencer,2021-04-04 11:20:00.985567,2020-07-07 00:00:00.000000,0.75473629,1.04221182,1.46382840,153,211,296,69,98,143,0.34183284,0.48558781,0.70911575,0.19535221,0.32609690,0.45885628
18147,0,USIndianaSpencer,Indiana,Spencer,2021-04-04 11:20:00.985567,2020-07-08 00:00:00.000000,0.78328883,1.09657020,1.51148381,158,222,306,74,102,152,0.36774344,0.50510219,0.75395189,0.19528025,0.32000897,0.45281456
18147,0,USIndianaSpencer,Indiana,Spencer,2021-04-04 11:20:00.985567,2020-07-09 00:00:00.000000,0.81464630,1.13399168,1.55896734,165,229,316,79,106,161,0.39314130,0.52654528,0.79871061,0.19513390,0.31543523,0.45008434
18147,0,USIndianaSpencer,Indiana,Spencer,2021-04-04 11:20:00.985567,2020-07-10 00:00:00.000000,0.84573157,1.18314008,1.57965438,171,239,320,83,111,164,0.41333138,0.55211733,0.81368191,0.19438464,0.30883324,0.43428011
18147,0,USIndianaSpencer,Indiana,Spencer,2021-04-04 11:20:00.985567,2020-07-11 00:00:00.000000,0.87560206,1.23739670,1.63307156,177,250,331,86,116,171,0.42567121,0.57633525,0.84524842,0.19364522,0.30577623,0.43229016
18147,0,USIndianaSpencer,Indiana,Spencer,2021-04-04 11:20:00.985567,2020-07-12 00:00:00.000000,0.88763648,1.25944634,1.65236574,179,255,335,88,121,179,0.43726999,0.59970595,0.88593297,0.17425924,0.30031724,0.42265612
18147,0,USIndianaSpencer,Indiana,Spencer,2021-04-04 11:20:00.985567,2020-07-13 00:00:00.000000,0.88935894,1.27535271,1.67906279,180,258,340,90,125,185,0.44783768,0.61646889,0.91415270,0.16908745,0.28005747,0.40671140
18147,0,USIndianaSpencer,Indiana,Spencer,2021-04-04 11:20:00.985567,2020-07-14 00:00:00.000000,0.88858794,1.28402493,1.70652131,180,260,346,92,128,189,0.45585142,0.63127207,0.93306126,0.16737682,0.26731176,0.38368723
18147,0,USIndianaSpencer,Indiana,Spencer,2021-04-04 11:20:00.985567,2020-07-15 00:00:00.000000,0.88635033,1.30538927,1.72605150,179,264,349,93,130,192,0.46190868,0.64193455,0.95039862,0.16536069,0.26103240,0.37304623
18147,0,USIndianaSpencer,Indiana,Spencer,2021-04-04 11:20:00.985567,2020-07-16 00:00:00.000000,0.89336301,1.31633286,1.74330144,181,266,353,96,131,195,0.47529943,0.64829843,0.96592410,0.15013832,0.25117744,0.36461283
18147,0,USIndianaSpencer,Indiana,Spencer,2021-04-04 11:20:00.985567,2020-07-17 00:00:00.000000,0.92009923,1.32228623,1.76296464,186,268,357,99,133,200,0.49130181,0.65943258,0.99054031,0.14584449,0.23655729,0.35461557
18147,0,USIndianaSpencer,Indiana,Spencer,2021-04-04 11:20:00.985567,2020-07-18 00:00:00.000000,0.94557040,1.32612165,1.76766858,191,268,358,102,134,200,0.50683110,0.66263692,0.98989013,0.14324531,0.23148761,0.32675229
18147,0,USIndianaSpencer,Indiana,Spencer,2021-04-04 11:20:00.985567,2020-07-19 00:00:00.000000,0.94916865,1.32626193,1.76743331,192,268,358,103,135,202,0.50906538,0.66721714,0.99852870,0.14185511,0.22731885,0.30994246
18147,0,USIndianaSpencer,Indiana,Spencer,2021-04-04 11:20:00.985567,2020-07-20 00:00:00.000000,0.94611260,1.33575576,1.78301344,191,270,361,102,136,203,0.50591220,0.67512383,1.00462451,0.14136078,0.21783090,0.30203378
18147,0,USIndianaSpencer,Indiana,Spencer,2021-04-04 11:20:00.985567,2020-07-21 00:00:00.000000,0.93419052,1.33844563,1.77184914,189,271,359,101,137,203,0.50176093,0.67729602,1.00286479,0.14179628,0.21371236,0.29536675
18147,0,USIndianaSpencer,Indiana,Spencer,2021-04-04 11:20:00.985567,2020-07-22 00:00:00.000000,0.92447971,1.34109265,1.75125646,187,271,355,100,137,201,0.49658804,0.67834730,0.99562713,0.14269653,0.21268554,0.28942625
18147,0,USIndianaSpencer,Indiana,Spencer,2021-04-04 11:20:00.985567,2020-07-23 00:00:00.000000,0.92022718,1.33606625,1.72570111,186,270,349,99,138,204,0.49020437,0.68247779,1.00708240,0.14933102,0.21087616,0.28207724
18147,0,USIndianaSpencer,Indiana,Spencer,2021-04-04 11:20:00.985567,2020-07-24 00:00:00.000000,0.91265120,1.32937360,1.71470051,185,269,347,97,138,205,0.48050661,0.68438330,1.01519536,0.14723551,0.20913108,0.27049603
18147,0,USIndianaSpencer,Indiana,Spencer,2021-04-04 11:20:00.985567,2020-07-25 00:00:00.000000,0.90081772,1.31640616,1.72213639,182,266,349,95,138,206,0.46896410,0.68143944,1.02027864,0.13666974,0.20444113,0.25479629
18147,0,USIndianaSpencer,Indiana,Spencer,2021-04-04 11:20:00.985567,2020-07-26 00:00:00.000000,0.88522759,1.30119279,1.71232729,179,263,347,93,138,207,0.46052330,0.68338025,1.02299105,0.13568511,0.19929524,0.25590370
18147,0,USIndianaSpencer,Indiana,Spencer,2021-04-04 11:20:00.985567,2020-07-27 00:00:00.000000,0.87729930,1.29766119,1.69780505,177,263,344,90,139,207,0.44755472,0.68627068,1.02398034,0.13474251,0.19447723,0.25636176
18147,0,USIndianaSpencer,Indiana,Spencer,2021-04-04 11:20:00.985567,2020-07-28 00:00:00.000000,0.86879591,1.28973036,1.68723060,176,261,342,88,139,207,0.43435653,0.68935302,1.02243621,0.13382433,0.19166159,0.25637078
18147,0,USIndianaSpencer,Indiana,Spencer,2021-04-04 11:20:00.985567,2020-07-29 00:00:00.000000,0.84649906,1.28243344,1.67562752,171,260,339,85,138,206,0.42119561,0.68386114,1.01921903,0.13307886,0.19115074,0.25638385
18147,0,USIndianaSpencer,Indiana,Spencer,2021-04-04 11:20:00.985567,2020-07-30 00:00:00.000000,0.82052611,1.26817067,1.66335227,166,257,337,83,137,205,0.40963300,0.67799783,1.01493025,0.13052425,0.19080184,0.25760056
18147,0,USIndianaSpencer,Indiana,Spencer,2021-04-04 11:20:00.985567,2020-07-31 00:00:00.000000,0.80012395,1.26052087,1.65446024,162,255,335,81,136,204,0.40283170,0.67192525,1.00949594,0.12759912,0.18894181,0.25973238
18147,0,USIndianaSpencer,Indiana,Spencer,2021-04-04 11:20:00.985567,2020-08-01 00:00:00.000000,0.79804266,1.25928167,1.64492760,161,255,333,80,134,203,0.39866696,0.66206859,1.00368373,0.12615710,0.18889554,0.25806621
18147,0,USIndianaSpencer,Indiana,Spencer,2021-04-04 11:20:00.985567,2020-08-02 00:00:00.000000,0.78366903,1.24130454,1.63446095,158,251,331,80,133,202,0.39459368,0.65931789,0.99767107,0.12568545,0.18665783,0.25883574
18147,0,USIndianaSpencer,Indiana,Spencer,2021-04-04 11:20:00.985567,2020-08-03 00:00:00.000000,0.76547033,1.21225822,1.61495634,155,245,327,79,132,201,0.39062743,0.65510196,0.99136593,0.12487511,0.18425384,0.25104869
18147,0,USIndianaSpencer,Indiana,Spencer,2021-04-04 11:20:00.985567,2020-08-04 00:00:00.000000,0.74924418,1.17507932,1.57110007,151,238,318,78,131,197,0.38682056,0.65025202,0.97557950,0.12447625,0.18249980,0.25419464
18147,0,USIndianaSpencer,Indiana,Spencer,2021-04-04 11:20:00.985567,2020-08-05 00:00:00.000000,0.73442005,1.14953642,1.52706979,148,233,309,77,129,193,0.38335395,0.63779412,0.95297974,0.12446827,0.18311933,0.25798418
18147,0,USIndianaSpencer,Indiana,Spencer,2021-04-04 11:20:00.985567,2020-08-06 00:00:00.000000,0.72065128,1.14768919,1.49337469,146,232,302,76,128,189,0.37743026,0.63129880,0.93323697,0.12493354,0.17929815,0.25325850
18147,0,USIndianaSpencer,Indiana,Spencer,2021-04-04 11:20:00.985567,2020-08-07 00:00:00.000000,0.70587982,1.13553179,1.48880952,143,230,301,74,126,185,0.36908749,0.62159635,0.91398099,0.12404823,0.18066316,0.25544354
18147,0,USIndianaSpencer,Indiana,Spencer,2021-04-04 11:20:00.985567,2020-08-08 00:00:00.000000,0.71195168,1.11549990,1.48375191,144,226,300,74,125,181,0.36740181,0.61651890,0.89633837,0.12373517,0.18212448,0.25527677
18147,0,USIndianaSpencer,Indiana,Spencer,2021-04-04 11:20:00.985567,2020-08-09 00:00:00.000000,0.71753746,1.10976278,1.48248044,145,225,300,75,123,178,0.36994669,0.60980493,0.88025920,0.12420713,0.17983265,0.25132026
18147,0,USIndianaSpencer,Indiana,Spencer,2021-04-04 11:20:00.985567,2020-08-10 00:00:00.000000,0.70188467,1.08470740,1.46336809,142,219,296,74,121,175,0.36610305,0.59896052,0.86522801,0.12593367,0.18075372,0.25217734
18147,0,USIndianaSpencer,Indiana,Spencer,2021-04-04 11:20:00.985567,2020-08-11 00:00:00.000000,0.68532447,1.05720436,1.44227506,138,214,292,72,120,174,0.35985624,0.59201949,0.85929308,0.12952605,0.18260924,0.25576458
18147,0,USIndianaSpencer,Indiana,Spencer,2021-04-04 11:20:00.985567,2020-08-12 00:00:00.000000,0.66997517,1.04867223,1.41826119,135,212,287,71,119,173,0.35235379,0.58895051,0.85727434,0.13006800,0.18683802,0.26320853
18147,0,USIndianaSpencer,Indiana,Spencer,2021-04-04 11:20:00.985567,2020-08-13 00:00:00.000000,0.65715511,1.04219912,1.40345842,133,211,284,69,117,173,0.34473806,0.58107306,0.85653660,0.13179616,0.18645045,0.27410810
18147,0,USIndianaSpencer,Indiana,Spencer,2021-04-04 11:20:00.985567,2020-08-14 00:00:00.000000,0.64793293,1.03384969,1.39850550,131,209,283,68,115,171,0.33715927,0.57061199,0.84700718,0.13167542,0.19022277,0.27399986
18147,0,USIndianaSpencer,Indiana,Spencer,2021-04-04 11:20:00.985567,2020-08-15 00:00:00.000000,0.64238862,1.03186250,1.39365945,130,209,282,66,114,171,0.32906812,0.56678847,0.84468944,0.13166182,0.19276075,0.28284323
18147,0,USIndianaSpencer,Indiana,Spencer,2021-04-04 11:20:00.985567,2020-08-16 00:00:00.000000,0.63970995,1.02163765,1.38920486,129,207,281,66,113,171,0.32683365,0.56087493,0.84668268,0.13092297,0.19655689,0.29560668
18147,0,USIndianaSpencer,Indiana,Spencer,2021-04-04 11:20:00.985567,2020-08-17 00:00:00.000000,0.64073464,1.01755403,1.38190698,129,206,280,65,112,172,0.32418676,0.55244161,0.84896653,0.12991562,0.20109450,0.30107457
18147,0,USIndianaSpencer,Indiana,Spencer,2021-04-04 11:20:00.985567,2020-08-18 00:00:00.000000,0.63934081,1.02088903,1.38954302,129,207,281,65,109,173,0.32537014,0.54238049,0.85745609,0.12897454,0.20628035,0.30577436
18147,0,USIndianaSpencer,Indiana,Spencer,2021-04-04 11:20:00.985567,2020-08-19 00:00:00.000000,0.62496218,1.01806706,1.40070001,126,206,284,65,108,173,0.32518929,0.53365449,0.85538004,0.13476340,0.21034437,0.30696690
18147,0,USIndianaSpencer,Indiana,Spencer,2021-04-04 11:20:00.985567,2020-08-20 00:00:00.000000,0.62780321,1.00960825,1.41178493,127,204,286,64,107,172,0.32017563,0.52849563,0.85043282,0.13614106,0.21424873,0.30726517
18147,0,USIndianaSpencer,Indiana,Spencer,2021-04-04 11:20:00.985567,2020-08-21 00:00:00.000000,0.63233913,0.99678093,1.42280159,128,202,288,64,107,171,0.31565597,0.52808138,0.84471569,0.13419044,0.21919237,0.30946010
18147,0,USIndianaSpencer,Indiana,Spencer,2021-04-04 11:20:00.985567,2020-08-22 00:00:00.000000,0.63730837,0.98443891,1.43374364,129,199,290,63,106,170,0.31176982,0.52426042,0.84144447,0.13296976,0.22374935,0.31620766
18147,0,USIndianaSpencer,Indiana,Spencer,2021-04-04 11:20:00.985567,2020-08-23 00:00:00.000000,0.61482134,0.98242339,1.44440697,124,199,292,62,105,169,0.30928366,0.52257155,0.83833337,0.13238485,0.23547111,0.33160081
18147,0,USIndianaSpencer,Indiana,Spencer,2021-04-04 11:20:00.985567,2020-08-24 00:00:00.000000,0.62094422,0.98216550,1.45091945,125,199,294,64,105,169,0.31980043,0.51982215,0.83578416,0.13663304,0.23995615,0.36669368
18147,0,USIndianaSpencer,Indiana,Spencer,2021-04-04 11:20:00.985567,2020-08-25 00:00:00.000000,0.63675516,0.99034061,1.45677964,129,200,295,65,105,169,0.32289208,0.52007183,0.83600974,0.15071659,0.25031868,0.37668493
18147,0,USIndianaSpencer,Indiana,Spencer,2021-04-04 11:20:00.985567,2020-08-26 00:00:00.000000,0.62874157,1.00745100,1.49214407,127,204,302,64,105,170,0.31767424,0.51876616,0.83919197,0.16813201,0.25781902,0.37753170
18147,0,USIndianaSpencer,Indiana,Spencer,2021-04-04 11:20:00.985567,2020-08-27 00:00:00.000000,0.62218639,1.02542950,1.52654902,126,207,309,64,106,171,0.31733345,0.52729560,0.84466134,0.16904442,0.26237767,0.38718307
18147,0,USIndianaSpencer,Indiana,Spencer,2021-04-04 11:20:00.985567,2020-08-28 00:00:00.000000,0.61698818,1.04520496,1.56078292,125,211,316,65,108,172,0.32058024,0.53435074,0.85189540,0.17385839,0.26574462,0.39822282
18147,0,USIndianaSpencer,Indiana,Spencer,2021-04-04 11:20:00.985567,2020-08-29 00:00:00.000000,0.61399724,1.07235211,1.61902128,124,217,328,66,109,174,0.32976129,0.53813707,0.86056818,0.18678444,0.28240301,0.41717577
18147,0,USIndianaSpencer,Indiana,Spencer,2021-04-04 11:20:00.985567,2020-08-30 00:00:00.000000,0.62693238,1.10333991,1.66853318,127,223,338,67,110,176,0.33188988,0.54302771,0.87083185,0.20237992,0.30075837,0.42585574
18147,0,USIndianaSpencer,Indiana,Spencer,2021-04-04 11:20:00.985567,2020-08-31 00:00:00.000000,0.66513502,1.13122516,1.70960303,134,229,346,67,111,178,0.33480237,0.55146045,0.88266110,0.20539721,0.31429177,0.43756572
18147,0,USIndianaSpencer,Indiana,Spencer,2021-04-04 11:20:00.985567,2020-09-01 00:00:00.000000,0.71578054,1.15162428,1.75126766,145,233,355,69,114,183,0.34252144,0.56386949,0.90272395,0.21025160,0.32376156,0.44939349
18147,0,USIndianaSpencer,Indiana,Spencer,2021-04-04 11:20:00.985567,2020-09-02 00:00:00.000000,0.73967657,1.17972744,1.79356738,149,239,363,71,116,188,0.35430575,0.57639350,0.92956940,0.21664044,0.32788003,0.45212192
18147,0,USIndianaSpencer,Indiana,Spencer,2021-04-04 11:20:00.985567,2020-09-03 00:00:00.000000,0.75065633,1.21471589,1.83701119,152,246,372,74,120,194,0.36944847,0.59224530,0.95691888,0.21749980,0.33578783,0.45246591
18147,0,USIndianaSpencer,Indiana,Spencer,2021-04-04 11:20:00.985567,2020-09-04 00:00:00.000000,0.78095456,1.25567823,1.89181197,158,254,383,78,123,199,0.38717499,0.60740658,0.98391474,0.22088400,0.35397186,0.44556823
18147,0,USIndianaSpencer,Indiana,Spencer,2021-04-04 11:20:00.985567,2020-09-05 00:00:00.000000,0.82109402,1.29399132,1.95250211,166,262,395,82,127,202,0.40718257,0.62941629,0.99755765,0.22176444,0.36594801,0.45387088
18147,0,USIndianaSpencer,Indiana,Spencer,2021-04-04 11:20:00.985567,2020-09-06 00:00:00.000000,0.86441455,1.33472034,2.00272924,175,270,406,87,133,205,0.43068978,0.65704658,1.01264498,0.22239348,0.37375418,0.47282808
18147,0,USIndianaSpencer,Indiana,Spencer,2021-04-04 11:20:00.985567,2020-09-07 00:00:00.000000,0.92584577,1.37694697,2.04860918,187,279,415,93,137,210,0.46001225,0.67613417,1.03616735,0.23576024,0.37941414,0.48340932
18147,0,USIndianaSpencer,Indiana,Spencer,2021-04-04 11:20:00.985567,2020-09-08 00:00:00.000000,0.98951494,1.42953657,2.11540999,200,289,428,98,140,214,0.48743857,0.69164188,1.05978664,0.24628642,0.38025851,0.49711858
18147,0,USIndianaSpencer,Indiana,Spencer,2021-04-04 11:20:00.985567,2020-09-09 00:00:00.000000,1.05632036,1.50070316,2.18506420,214,304,443,105,143,219,0.52048132,0.70588747,1.08493060,0.25519174,0.38034890,0.50221283
18147,0,USIndianaSpencer,Indiana,Spencer,2021-04-04 11:20:00.985567,2020-09-10 00:00:00.000000,1.12621382,1.57374982,2.26417276,228,319,459,110,150,227,0.54493785,0.74095355,1.12113418,0.25902036,0.37902881,0.50029895
18147,0,USIndianaSpencer,Indiana,Spencer,2021-04-04 11:20:00.985567,2020-09-11 00:00:00.000000,1.19920845,1.63588780,2.34817937,243,331,476,116,157,234,0.57519601,0.77714156,1.15578078,0.26146209,0.38864298,0.50265178
18147,0,USIndianaSpencer,Indiana,Spencer,2021-04-04 11:20:00.985567,2020-09-12 00:00:00.000000,1.27534387,1.72980277,2.46399481,258,350,499,121,164,242,0.60142679,0.81115104,1.19808055,0.26881023,0.39254350,0.49935902
18147,0,USIndianaSpencer,Indiana,Spencer,2021-04-04 11:20:00.985567,2020-09-13 00:00:00.000000,1.35464804,1.81711465,2.58450085,274,368,524,127,170,253,0.62840998,0.84273460,1.25128682,0.28268075,0.39158896,0.49926319
18147,0,USIndianaSpencer,Indiana,Spencer,2021-04-04 11:20:00.985567,2020-09-14 00:00:00.000000,1.42696528,1.89311394,2.70645019,289,383,548,133,177,260,0.65665887,0.87490399,1.28503194,0.28481646,0.39661133,0.50097097
18147,0,USIndianaSpencer,Indiana,Spencer,2021-04-04 11:20:00.985567,2020-09-15 00:00:00.000000,1.50243316,1.97061657,2.83207030,304,399,574,139,183,271,0.68880315,0.90345621,1.34089472,0.28884939,0.39003436,0.51071229
18147,0,USIndianaSpencer,Indiana,Spencer,2021-04-04 11:20:00.985567,2020-09-16 00:00:00.000000,1.58054603,2.04994568,2.91718808,320,415,591,146,190,283,0.72311356,0.93855373,1.39650461,0.29202767,0.39581553,0.51749145
18147,0,USIndianaSpencer,Indiana,Spencer,2021-04-04 11:20:00.985567,2020-09-17 00:00:00.000000,1.63572702,2.13149295,2.99210656,331,432,606,153,198,294,0.75750492,0.97999699,1.45019251,0.29293040,0.39687643,0.50601284
18147,0,USIndianaSpencer,Indiana,Spencer,2021-04-04 11:20:00.985567,2020-09-18 00:00:00.000000,1.66931845,2.23123208,3.06653048,338,452,621,160,208,304,0.78921899,1.02798396,1.50223767,0.28417685,0.38668356,0.49827449
18147,0,USIndianaSpencer,Indiana,Spencer,2021-04-04 11:20:00.985567,2020-09-19 00:00:00.000000,1.71256999,2.31122293,3.14094485,347,468,636,163,216,315,0.80771754,1.06755605,1.55702245,0.27670075,0.38381294,0.48621039
18147,0,USIndianaSpencer,Indiana,Spencer,2021-04-04 11:20:00.985567,2020-09-20 00:00:00.000000,1.77334135,2.39183402,3.21440558,359,484,651,167,225,327,0.82445926,1.11267476,1.61472781,0.26622859,0.37654725,0.48773845
18147,0,USIndianaSpencer,Indiana,Spencer,2021-04-04 11:20:00.985567,2020-09-21 00:00:00.000000,1.84590564,2.49109791,3.28556409,374,505,666,170,235,339,0.84180717,1.16077143,1.67533798,0.26555099,0.37011688,0.48622484
18147,0,USIndianaSpencer,Indiana,Spencer,2021-04-04 11:20:00.985567,2020-09-22 00:00:00.000000,1.92853746,2.57837332,3.34651811,391,522,678,177,243,350,0.87380790,1.20044000,1.72902086,0.26082220,0.36055758,0.48491714
18147,0,USIndianaSpencer,Indiana,Spencer,2021-04-04 11:20:00.985567,2020-09-23 00:00:00.000000,1.97284765,2.64270342,3.40953149,400,535,691,186,253,359,0.91869403,1.24795717,1.77507758,0.25980258,0.35235171,0.47725680
18147,0,USIndianaSpencer,Indiana,Spencer,2021-04-04 11:20:00.985567,2020-09-24 00:00:00.000000,2.01524451,2.72889943,3.54656707,408,553,719,190,261,371,0.94079179,1.29083255,1.83056491,0.26132894,0.34140343,0.46973265
18147,0,USIndianaSpencer,Indiana,Spencer,2021-04-04 11:20:00.985567,2020-09-25 00:00:00.000000,2.05433958,2.77975797,3.68594558,416,563,747,195,268,384,0.96204074,1.32370898,1.89385405,0.25722228,0.33397921,0.45473259
18147,0,USIndianaSpencer,Indiana,Spencer,2021-04-04 11:20:00.985567,2020-09-26 00:00:00.000000,2.09204882,2.80587450,3.82466659,424,568,775,201,275,395,0.99264763,1.35747458,1.95171519,0.25394298,0.32362310,0.44608665
18147,0,USIndianaSpencer,Indiana,Spencer,2021-04-04 11:20:00.985567,2020-09-27 00:00:00.000000,2.14503568,2.82946933,3.92422072,434,573,795,209,283,406,1.03395833,1.39989446,2.00359515,0.24324026,0.31146336,0.43598967
18147,0,USIndianaSpencer,Indiana,Spencer,2021-04-04 11:20:00.985567,2020-09-28 00:00:00.000000,2.19356571,2.85020281,3.97618987,444,577,806,216,293,415,1.06759186,1.44895858,2.05020501,0.22339096,0.30078679,0.40191533
18147,0,USIndianaSpencer,Indiana,Spencer,2021-04-04 11:20:00.985567,2020-09-29 00:00:00.000000,2.23919176,2.87075918,4.00625107,454,582,812,221,301,424,1.09091914,1.48542341,2.09532715,0.21342836,0.29844562,0.38957546
18147,0,USIndianaSpencer,Indiana,Spencer,2021-04-04 11:20:00.985567,2020-09-30 00:00:00.000000,2.28293976,2.89313581,4.01791596,462,586,814,225,305,433,1.11246427,1.50817993,2.13878470,0.20823868,0.29752617,0.38849744
18147,0,USIndianaSpencer,Indiana,Spencer,2021-04-04 11:20:00.985567,2020-10-01 00:00:00.000000,2.32536727,2.91691462,4.11738317,471,591,834,225,310,442,1.11298922,1.53352752,2.18031611,0.20506935,0.29733025,0.38750170
18147,0,USIndianaSpencer,Indiana,Spencer,2021-04-04 11:20:00.985567,2020-10-02 00:00:00.000000,2.34500988,2.92862324,4.24316020,475,593,860,224,314,450,1.10704523,1.55343715,2.21960187,0.20010388,0.29252735,0.37122342
18147,0,USIndianaSpencer,Indiana,Spencer,2021-04-04 11:20:00.985567,2020-10-03 00:00:00.000000,2.36378683,2.95184350,4.33541150,479,598,879,223,317,457,1.10359316,1.56560821,2.25628778,0.19895872,0.28925390,0.37229107
18147,0,USIndianaSpencer,Indiana,Spencer,2021-04-04 11:20:00.985567,2020-10-04 00:00:00.000000,2.37263570,2.96504000,4.36520670,481,601,885,228,318,464,1.12636323,1.56946433,2.29002604,0.19781023,0.28621749,0.37889327
18147,0,USIndianaSpencer,Indiana,Spencer,2021-04-04 11:20:00.985567,2020-10-05 00:00:00.000000,2.38682883,3.00815472,4.40247916,483,609,892,233,321,470,1.14996062,1.58313154,2.32053947,0.19634170,0.28578683,0.37597357
18147,0,USIndianaSpencer,Indiana,Spencer,2021-04-04 11:20:00.985567,2020-10-06 00:00:00.000000,2.34669870,3.06408179,4.48105601,475,621,908,232,320,475,1.14850450,1.58260539,2.34485705,0.19441251,0.28761690,0.38324121
18147,0,USIndianaSpencer,Indiana,Spencer,2021-04-04 11:20:00.985567,2020-10-07 00:00:00.000000,2.31326148,3.09744653,4.55239178,469,628,923,230,321,479,1.13691702,1.58497704,2.36365991,0.19201653,0.28642815,0.38769722
18147,0,USIndianaSpencer,Indiana,Spencer,2021-04-04 11:20:00.985567,2020-10-08 00:00:00.000000,2.29758653,3.11131781,4.59229747,465,630,931,228,323,481,1.12657676,1.59543108,2.37681694,0.18928986,0.29577431,0.39164674
18147,0,USIndianaSpencer,Indiana,Spencer,2021-04-04 11:20:00.985567,2020-10-09 00:00:00.000000,2.31044565,3.14230960,4.58396556,468,637,929,230,323,495,1.13699589,1.59458287,2.44315788,0.18664900,0.29624774,0.39924986
18147,0,USIndianaSpencer,Indiana,Spencer,2021-04-04 11:20:00.985567,2020-10-10 00:00:00.000000,2.34148387,3.15363326,4.57298384,474,639,927,231,324,509,1.14222561,1.60060225,2.51284563,0.19127941,0.30879155,0.40695687
18147,0,USIndianaSpencer,Indiana,Spencer,2021-04-04 11:20:00.985567,2020-10-11 00:00:00.000000,2.38407469,3.18386457,4.56009210,483,645,924,231,325,523,1.14235240,1.60698829,2.58131148,0.19625062,0.31212993,0.41339398
18147,0,USIndianaSpencer,Indiana,Spencer,2021-04-04 11:20:00.985567,2020-10-12 00:00:00.000000,2.42772458,3.19123334,4.55267277,492,647,923,233,328,537,1.14975419,1.62208188,2.64841448,0.21010801,0.31757806,0.41759055
18147,0,USIndianaSpencer,Indiana,Spencer,2021-04-04 11:20:00.985567,2020-10-13 00:00:00.000000,2.47200995,3.24691703,4.70271407,501,658,953,235,334,539,1.16210408,1.64870792,2.66047108,0.22744837,0.32090705,0.42013309
18147,0,USIndianaSpencer,Indiana,Spencer,2021-04-04 11:20:00.985567,2020-10-14 00:00:00.000000,2.49879715,3.30101286,4.87291473,506,669,988,239,339,541,1.18004750,1.67249666,2.67296768,0.23682020,0.33014354,0.42745748
18147,0,USIndianaSpencer,Indiana,Spencer,2021-04-04 11:20:00.985567,2020-10-15 00:00:00.000000,2.53784817,3.37012538,5.04799832,514,683,1023,244,342,545,1.20414016,1.68976846,2.68921630,0.25332803,0.33464960,0.42942669
18147,0,USIndianaSpencer,Indiana,Spencer,2021-04-04 11:20:00.985567,2020-10-16 00:00:00.000000,2.59677576,3.44004323,5.12282405,526,697,1038,249,345,550,1.23197068,1.70572921,2.71456120,0.26113334,0.34464728,0.44921558
18147,0,USIndianaSpencer,Indiana,Spencer,2021-04-04 11:20:00.985567,2020-10-17 00:00:00.000000,2.63459903,3.50160481,5.21977858,534,710,1058,253,352,558,1.24917262,1.73652582,2.75332070,0.26657647,0.35744284,0.47624659
18147,0,USIndianaSpencer,Indiana,Spencer,2021-04-04 11:20:00.985567,2020-10-18 00:00:00.000000,2.69712179,3.58377292,5.39009586,546,726,1092,257,356,568,1.27040193,1.75971928,2.80223299,0.27432792,0.36331130,0.50665550
18147,0,USIndianaSpencer,Indiana,Spencer,2021-04-04 11:20:00.985567,2020-10-19 00:00:00.000000,2.79704841,3.70265759,5.56807835,567,750,1129,262,365,579,1.29237391,1.80014525,2.85810708,0.28430720,0.37086152,0.50710755
18147,0,USIndianaSpencer,Indiana,Spencer,2021-04-04 11:20:00.985567,2020-10-20 00:00:00.000000,2.89307587,3.81882490,5.74967315,586,774,1165,265,371,591,1.31013181,1.83304565,2.91878340,0.28806951,0.38501307,0.54203520
18147,0,USIndianaSpencer,Indiana,Spencer,2021-04-04 11:20:00.985567,2020-10-21 00:00:00.000000,2.97243025,3.92066199,5.93443302,602,794,1203,272,382,604,1.34143982,1.88568591,2.98295533,0.29099908,0.40534374,0.54910077
18147,0,USIndianaSpencer,Indiana,Spencer,2021-04-04 11:20:00.985567,2020-10-22 00:00:00.000000,3.06948215,4.01594889,6.12217794,622,814,1241,281,393,621,1.38643610,1.93843432,3.06320734,0.29308549,0.41140061,0.55362843
18147,0,USIndianaSpencer,Indiana,Spencer,2021-04-04 11:20:00.985567,2020-10-23 00:00:00.000000,3.16279511,4.16399499,6.29986969,641,844,1277,292,406,637,1.44223146,2.00685290,3.14463481,0.29466357,0.42612058,0.57713188
18147,0,USIndianaSpencer,Indiana,Spencer,2021-04-04 11:20:00.985567,2020-10-24 00:00:00.000000,3.26659058,4.30149066,6.44060024,662,872,1305,303,422,653,1.49724203,2.08332816,3.22460595,0.29625944,0.43762034,0.59299594
18147,0,USIndianaSpencer,Indiana,Spencer,2021-04-04 11:20:00.985567,2020-10-25 00:00:00.000000,3.40026462,4.45097906,6.58114371,689,902,1334,312,438,669,1.54270399,2.16034385,3.30352950,0.30447615,0.45239998,0.60613675
18147,0,USIndianaSpencer,Indiana,Spencer,2021-04-04 11:20:00.985567,2020-10-26 00:00:00.000000,3.58777237,4.60843558,6.72268654,727,934,1363,322,454,685,1.59007493,2.24328546,3.38091532,0.32273987,0.46713154,0.61861897
18147,0,USIndianaSpencer,Indiana,Spencer,2021-04-04 11:20:00.985567,2020-10-27 00:00:00.000000,3.69990417,4.75916428,6.86376856,750,965,1391,331,470,704,1.63338074,2.32176259,3.47614820,0.32330634,0.47247254,0.64998679
18147,0,USIndianaSpencer,Indiana,Spencer,2021-04-04 11:20:00.985567,2020-10-28 00:00:00.000000,3.80985782,4.95152935,7.01191483,772,1004,1421,343,488,727,1.69508861,2.40920710,3.58656064,0.33470568,0.48206533,0.66841689
18147,0,USIndianaSpencer,Indiana,Spencer,2021-04-04 11:20:00.985567,2020-10-29 00:00:00.000000,3.92716963,5.19167811,7.26327047,796,1052,1472,357,508,750,1.76482662,2.50957290,3.70331529,0.34743556,0.48729318,0.66591038
18147,0,USIndianaSpencer,Indiana,Spencer,2021-04-04 11:20:00.985567,2020-10-30 00:00:00.000000,4.11729998,5.44667397,7.54241791,834,1104,1529,373,530,776,1.84350637,2.61474613,3.82743035,0.37050401,0.49654864,0.65502365
18147,0,USIndianaSpencer,Indiana,Spencer,2021-04-04 11:20:00.985567,2020-10-31 00:00:00.000000,4.32209575,5.72474613,7.83091162,876,1160,1587,385,552,802,1.90067593,2.72561492,3.95781658,0.37758122,0.50208049,0.65362056
18147,0,USIndianaSpencer,Indiana,Spencer,2021-04-04 11:20:00.985567,2020-11-01 00:00:00.000000,4.51424285,5.99814111,8.13431636,915,1216,1649,411,572,830,2.02997367,2.82419738,4.09786269,0.37965854,0.49798305,0.67883886
18147,0,USIndianaSpencer,Indiana,Spencer,2021-04-04 11:20:00.985567,2020-11-02 00:00:00.000000,4.72706129,6.22906897,8.46313048,958,1263,1716,439,595,863,2.16673319,2.93438530,4.25745182,0.38519247,0.50101189,0.67510962
18147,0,USIndianaSpencer,Indiana,Spencer,2021-04-04 11:20:00.985567,2020-11-03 00:00:00.000000,4.89524643,6.49787226,8.80330522,992,1317,1785,455,617,900,2.24611273,3.04319675,4.44080974,0.38944666,0.49815748,0.65789704
18147,0,USIndianaSpencer,Indiana,Spencer,2021-04-04 11:20:00.985567,2020-11-04 00:00:00.000000,5.11868472,6.84785337,9.15429196,1037,1388,1856,469,641,941,2.31417277,3.16410741,4.64479963,0.39229276,0.49314639,0.63813374
18147,0,USIndianaSpencer,Indiana,Spencer,2021-04-04 11:20:00.985567,2020-11-05 00:00:00.000000,5.36850127,7.11046936,9.50856456,1088,1441,1928,482,669,985,2.38171684,3.30189081,4.86025101,0.38953342,0.48917666,0.62876453
18147,0,USIndianaSpencer,Indiana,Spencer,2021-04-04 11:20:00.985567,2020-11-06 00:00:00.000000,5.55647503,7.33949334,9.78353052,1126,1488,1983,496,693,1031,2.45092590,3.41930390,5.08850179,0.38620893,0.47748829,0.61646853
18147,0,USIndianaSpencer,Indiana,Spencer,2021-04-04 11:20:00.985567,2020-11-07 00:00:00.000000,5.73558411,7.57961872,9.96116341,1163,1536,2019,520,721,1079,2.56722738,3.55634639,5.32409126,0.37785743,0.46695607,0.59746468
18147,0,USIndianaSpencer,Indiana,Spencer,2021-04-04 11:20:00.985567,2020-11-08 00:00:00.000000,5.90066929,7.81782070,10.10808747,1196,1585,2049,544,745,1127,2.68772584,3.67618405,5.56116016,0.35360597,0.45750545,0.58086187
18147,0,USIndianaSpencer,Indiana,Spencer,2021-04-04 11:20:00.985567,2020-11-09 00:00:00.000000,6.03021857,8.02527083,10.41883348,1222,1627,2112,569,772,1174,2.80894898,3.80924649,5.79196158,0.32643219,0.45299687,0.58315500
18147,0,USIndianaSpencer,Indiana,Spencer,2021-04-04 11:20:00.985567,2020-11-10 00:00:00.000000,6.15773099,8.20507155,10.73060062,1248,1663,2175,594,803,1219,2.93187707,3.96384212,6.01212808,0.32599117,0.44370229,0.58097125
18147,0,USIndianaSpencer,Indiana,Spencer,2021-04-04 11:20:00.985567,2020-11-11 00:00:00.000000,6.28076356,8.34398334,10.99659584,1273,1691,2229,619,827,1260,3.05496273,4.08022267,6.21556282,0.31682717,0.43937550,0.55828127
18147,0,USIndianaSpencer,Indiana,Spencer,2021-04-04 11:20:00.985567,2020-11-12 00:00:00.000000,6.39975574,8.57181235,11.22885961,1297,1738,2276,644,850,1298,3.17736806,4.19334251,6.40412430,0.31468599,0.43147592,0.53076883
18147,0,USIndianaSpencer,Indiana,Spencer,2021-04-04 11:20:00.985567,2020-11-13 00:00:00.000000,6.57697992,8.70723148,11.41600278,1333,1765,2314,662,871,1334,3.26711919,4.29935849,6.58259213,0.31152913,0.42579410,0.51705947
18147,0,USIndianaSpencer,Indiana,Spencer,2021-04-04 11:20:00.985567,2020-11-14 00:00:00.000000,6.62505825,8.74248716,11.57044902,1343,1772,2346,670,893,1369,3.30770360,4.40540864,6.75519401,0.30569631,0.41430799,0.50943380
18147,0,USIndianaSpencer,Indiana,Spencer,2021-04-04 11:20:00.985567,2020-11-15 00:00:00.000000,6.72811195,8.83105690,11.69868460,1364,1790,2372,674,919,1403,3.32490641,4.53394214,6.92338153,0.30479180,0.40467368,0.49606789
18147,0,USIndianaSpencer,Indiana,Spencer,2021-04-04 11:20:00.985567,2020-11-16 00:00:00.000000,6.81813905,8.98549078,11.80587880,1382,1821,2393,677,935,1437,3.33895025,4.61588473,7.08824323,0.30442442,0.39938790,0.48709106
18147,0,USIndianaSpencer,Indiana,Spencer,2021-04-04 11:20:00.985567,2020-11-17 00:00:00.000000,6.90199729,9.08111786,11.88966087,1399,1841,2410,679,947,1468,3.35177191,4.67069102,7.24312313,0.29364915,0.39463046,0.49060841
18147,0,USIndianaSpencer,Indiana,Spencer,2021-04-04 11:20:00.985567,2020-11-18 00:00:00.000000,6.97494828,9.16301723,12.07462821,1414,1857,2448,681,955,1478,3.36312322,4.71413829,7.29087121,0.28835469,0.38763580,0.49968636
18147,0,USIndianaSpencer,Indiana,Spencer,2021-04-04 11:20:00.985567,2020-11-19 00:00:00.000000,7.05130541,9.16977980,12.25756756,1429,1859,2485,683,960,1480,3.37285744,4.73919527,7.30187031,0.27683157,0.38271961,0.48895511
18147,0,USIndianaSpencer,Indiana,Spencer,2021-04-04 11:20:00.985567,2020-11-20 00:00:00.000000,7.11769197,9.15194345,12.43823433,1443,1855,2522,689,966,1480,3.39874004,4.76446314,7.29908023,0.27429300,0.37726128,0.48439109
18147,0,USIndianaSpencer,Indiana,Spencer,2021-04-04 11:20:00.985567,2020-11-21 00:00:00.000000,7.16983587,9.19167141,12.61278653,1453,1863,2557,697,968,1477,3.44000729,4.77608698,7.28510327,0.27610028,0.37691181,0.46831415
18147,0,USIndianaSpencer,Indiana,Spencer,2021-04-04 11:20:00.985567,2020-11-22 00:00:00.000000,7.14083957,9.19153972,12.71500772,1447,1863,2578,705,971,1472,3.47746425,4.79056351,7.26231769,0.27747993,0.37492702,0.46672674
18147,0,USIndianaSpencer,Indiana,Spencer,2021-04-04 11:20:00.985567,2020-11-23 00:00:00.000000,7.10686569,9.21158899,12.69055468,1441,1867,2573,711,974,1466,3.51042130,4.80496695,7.23423878,0.27766740,0.36932981,0.46741268
18147,0,USIndianaSpencer,Indiana,Spencer,2021-04-04 11:20:00.985567,2020-11-24 00:00:00.000000,7.17942918,9.17217412,12.77760498,1455,1859,2590,717,970,1461,3.53773012,4.78736571,7.20585828,0.27554781,0.36713187,0.46902545
18147,0,USIndianaSpencer,Indiana,Spencer,2021-04-04 11:20:00.985567,2020-11-25 00:00:00.000000,7.25939789,9.12576360,12.73459413,1471,1850,2582,712,970,1456,3.51326274,4.78662490,7.18087957,0.27249071,0.36741298,0.46988119
18147,0,USIndianaSpencer,Indiana,Spencer,2021-04-04 11:20:00.985567,2020-11-26 00:00:00.000000,7.21960884,9.03400669,12.67924260,1463,1831,2570,706,968,1452,3.48475241,4.77576900,7.16122057,0.27108566,0.36823535,0.47213896
18147,0,USIndianaSpencer,Indiana,Spencer,2021-04-04 11:20:00.985567,2020-11-27 00:00:00.000000,7.16929696,8.97239087,12.61509394,1453,1819,2557,700,961,1449,3.45327263,4.74356342,7.14906524,0.27588164,0.37115339,0.47815197
18147,0,USIndianaSpencer,Indiana,Spencer,2021-04-04 11:20:00.985567,2020-11-28 00:00:00.000000,7.11219507,8.88054869,12.54474196,1442,1800,2543,693,957,1448,3.41929981,4.72158077,7.14593351,0.28023425,0.37819905,0.48744227
18147,0,USIndianaSpencer,Indiana,Spencer,2021-04-04 11:20:00.985567,2020-11-29 00:00:00.000000,7.04986203,8.82453507,12.47222594,1429,1789,2528,691,952,1450,3.41030116,4.69788771,7.15138322,0.29085306,0.38278037,0.49822332
18147,0,USIndianaSpencer,Indiana,Spencer,2021-04-04 11:20:00.985567,2020-11-30 00:00:00.000000,6.97164372,8.77757204,12.41141413,1413,1779,2516,692,951,1452,3.41547652,4.69261806,7.16323455,0.30458643,0.39036438,0.50578638
18147,0,USIndianaSpencer,Indiana,Spencer,2021-04-04 11:20:00.985567,2020-12-01 00:00:00.000000,6.88907544,8.74763717,12.35469512,1396,1773,2505,694,949,1455,3.42321622,4.68480015,7.17830834,0.30347191,0.39238958,0.51329728
18147,0,USIndianaSpencer,Indiana,Spencer,2021-04-04 11:20:00.985567,2020-12-02 00:00:00.000000,6.80366898,8.72938594,12.37770915,1379,1770,2509,696,945,1458,3.43356706,4.66454352,7.19411311,0.30155980,0.40189287,0.51476029
18147,0,USIndianaSpencer,Indiana,Spencer,2021-04-04 11:20:00.985567,2020-12-03 00:00:00.000000,6.72693362,8.72363751,12.46398117,1364,1768,2527,694,942,1461,3.42686012,4.64878005,7.20868846,0.30390869,0.40907752,0.51785172
18147,0,USIndianaSpencer,Indiana,Spencer,2021-04-04 11:20:00.985567,2020-12-04 00:00:00.000000,6.67904255,8.71703998,12.54404169,1354,1767,2543,683,938,1464,3.36920286,4.62758953,7.22075191,0.31099191,0.43074281,0.54806188
18147,0,USIndianaSpencer,Indiana,Spencer,2021-04-04 11:20:00.985567,2020-12-05 00:00:00.000000,6.68291992,8.71773384,12.61720659,1355,1767,2558,674,938,1466,3.32459468,4.63043979,7.23026325,0.32286656,0.45703002,0.61973008
18147,0,USIndianaSpencer,Indiana,Spencer,2021-04-04 11:20:00.985567,2020-12-06 00:00:00.000000,6.73244346,8.79336037,12.68442531,1365,1783,2572,666,941,1468,3.28917840,4.64520864,7.24237681,0.33880254,0.47730889,0.65439932
18147,0,USIndianaSpencer,Indiana,Spencer,2021-04-04 11:20:00.985567,2020-12-07 00:00:00.000000,6.80332115,8.84626040,12.74908282,1379,1793,2585,667,947,1475,3.29161389,4.67281666,7.27657307,0.34285251,0.49370320,0.66963190
18147,0,USIndianaSpencer,Indiana,Spencer,2021-04-04 11:20:00.985567,2020-12-08 00:00:00.000000,6.84672350,8.94345220,12.78748887,1388,1813,2592,668,951,1489,3.29483130,4.69169651,7.34367105,0.34134225,0.50581125,0.67363760
18147,0,USIndianaSpencer,Indiana,Spencer,2021-04-04 11:20:00.985567,2020-12-09 00:00:00.000000,6.85878295,9.03191147,12.84311382,1390,1831,2604,671,959,1504,3.31369416,4.73383381,7.42189073,0.36649138,0.51608796,0.68399264
18147,0,USIndianaSpencer,Indiana,Spencer,2021-04-04 11:20:00.985567,2020-12-10 00:00:00.000000,6.90110471,9.13651866,12.99921034,1399,1852,2635,678,970,1505,3.34603652,4.78556216,7.42615320,0.40631267,0.53077355,0.70863144
18147,0,USIndianaSpencer,Indiana,Spencer,2021-04-04 11:20:00.985567,2020-12-11 00:00:00.000000,6.97136919,9.26487093,13.16341942,1413,1878,2669,687,977,1514,3.39147847,4.82174169,7.46757645,0.43279298,0.54634304,0.73771995
18147,0,USIndianaSpencer,Indiana,Spencer,2021-04-04 11:20:00.985567,2020-12-12 00:00:00.000000,7.06309195,9.32271149,13.25739940,1432,1890,2688,699,987,1530,3.45052980,4.86822771,7.54551239,0.43438227,0.57163665,0.74695565
18147,0,USIndianaSpencer,Indiana,Spencer,2021-04-04 11:20:00.985567,2020-12-13 00:00:00.000000,7.16977394,9.45984566,13.40631955,1453,1918,2718,714,993,1551,3.52322665,4.90073228,7.65293167,0.43522089,0.59416914,0.74856564
18147,0,USIndianaSpencer,Indiana,Spencer,2021-04-04 11:20:00.985567,2020-12-14 00:00:00.000000,7.28521599,9.64178433,13.62189167,1477,1955,2762,731,1000,1577,3.60832843,4.93629580,7.78063738,0.43572769,0.61242168,0.74856861
18147,0,USIndianaSpencer,Indiana,Spencer,2021-04-04 11:20:00.985567,2020-12-15 00:00:00.000000,7.40422171,9.81292843,13.82173325,1501,1989,2802,750,1011,1606,3.70132514,4.98693100,7.92048010,0.43618445,0.62310543,0.75285276
18147,0,USIndianaSpencer,Indiana,Spencer,2021-04-04 11:20:00.985567,2020-12-16 00:00:00.000000,7.52438637,9.99160615,14.04820749,1525,2025,2848,770,1024,1635,3.79998575,5.05168710,8.06558199,0.44591153,0.62968390,0.76447908
18147,0,USIndianaSpencer,Indiana,Spencer,2021-04-04 11:20:00.985567,2020-12-17 00:00:00.000000,7.64479035,10.14323639,14.32441677,1550,2056,2904,784,1045,1664,3.87107556,5.15589974,8.21053093,0.46587003,0.63560871,0.76524809
18147,0,USIndianaSpencer,Indiana,Spencer,2021-04-04 11:20:00.985567,2020-12-18 00:00:00.000000,7.73894732,10.29990370,14.58601448,1569,2088,2957,794,1065,1693,3.92034055,5.25659209,8.35050556,0.47631224,0.64307262,0.77822468
18147,0,USIndianaSpencer,Indiana,Spencer,2021-04-04 11:20:00.985567,2020-12-19 00:00:00.000000,7.81323864,10.46310290,14.82935999,1584,2121,3006,804,1080,1719,3.96683642,5.32652592,8.48048450,0.49221411,0.63874605,0.81413512
18147,0,USIndianaSpencer,Indiana,Spencer,2021-04-04 11:20:00.985567,2020-12-20 00:00:00.000000,7.88239362,10.62766745,15.05327884,1598,2154,3052,813,1092,1743,4.00957209,5.38903195,8.59675883,0.51354838,0.64924605,0.82245853
18147,0,USIndianaSpencer,Indiana,Spencer,2021-04-04 11:20:00.985567,2020-12-21 00:00:00.000000,8.01523272,10.76231964,15.24647169,1625,2182,3091,820,1104,1763,4.04788629,5.44755559,8.69865486,0.51582523,0.66017719,0.81833214
18147,0,USIndianaSpencer,Indiana,Spencer,2021-04-04 11:20:00.985567,2020-12-22 00:00:00.000000,8.13556960,10.90663604,15.40156916,1649,2211,3122,827,1120,1781,4.08263098,5.52686105,8.78700750,0.51423973,0.66634981,0.81432477
18147,0,USIndianaSpencer,Indiana,Spencer,2021-04-04 11:20:00.985567,2020-12-23 00:00:00.000000,8.24212143,11.01272129,15.47869213,1671,2233,3138,833,1134,1797,4.11301246,5.59510419,8.86373055,0.51880609,0.67134697,0.80579816
18147,0,USIndianaSpencer,Indiana,Spencer,2021-04-04 11:20:00.985567,2020-12-24 00:00:00.000000,8.33392430,11.13826537,15.53002568,1689,2258,3149,839,1150,1811,4.13857433,5.67610523,8.93159939,0.52936701,0.67931203,0.80471406
18147,0,USIndianaSpencer,Indiana,Spencer,2021-04-04 11:20:00.985567,2020-12-25 00:00:00.000000,8.41069264,11.28575466,15.55440146,1705,2288,3153,843,1167,1823,4.15947605,5.75708469,8.99436937,0.54657456,0.68400811,0.81381960
18147,0,USIndianaSpencer,Indiana,Spencer,2021-04-04 11:20:00.985567,2020-12-26 00:00:00.000000,8.47348505,11.42243033,15.57028703,1718,2316,3157,847,1180,1847,4.17977853,5.82117528,9.11287188,0.55168227,0.68521886,0.82728751
18147,0,USIndianaSpencer,Indiana,Spencer,2021-04-04 11:20:00.985567,2020-12-27 00:00:00.000000,8.52998169,11.47296432,15.53232986,1729,2326,3149,853,1197,1876,4.21101991,5.90547723,9.25191818,0.55120169,0.68398152,0.84290292
18147,0,USIndianaSpencer,Indiana,Spencer,2021-04-04 11:20:00.985567,2020-12-28 00:00:00.000000,8.56093676,11.52476469,15.53115125,1735,2336,3149,862,1208,1899,4.25189219,5.95878771,9.36740115,0.54163687,0.68255850,0.84914326
18147,0,USIndianaSpencer,Indiana,Spencer,2021-04-04 11:20:00.985567,2020-12-29 00:00:00.000000,8.48561283,11.53168474,15.51157374,1720,2338,3145,870,1217,1917,4.29427418,6.00379161,9.45430537,0.52742983,0.67990315,0.85471159
18147,0,USIndianaSpencer,Indiana,Spencer,2021-04-04 11:20:00.985567,2020-12-30 00:00:00.000000,8.46273558,11.52836928,15.41377763,1715,2337,3125,875,1231,1928,4.31896589,6.07414066,9.50878118,0.51563074,0.66727834,0.85739881
18147,0,USIndianaSpencer,Indiana,Spencer,2021-04-04 11:20:00.985567,2020-12-31 00:00:00.000000,8.40080843,11.49655220,15.23630070,1703,2331,3089,868,1231,1931,4.28083664,6.07573797,9.52588094,0.51303513,0.65311951,0.85041081
18147,0,USIndianaSpencer,Indiana,Spencer,2021-04-04 11:20:00.985567,2021-01-01 00:00:00.000000,8.20924002,11.43690636,14.99751647,1664,2319,3041,853,1227,1926,4.20970443,6.05378254,9.50174326,0.46200554,0.64534941,0.84925386
18147,0,USIndianaSpencer,Indiana,Spencer,2021-04-04 11:20:00.985567,2021-01-02 00:00:00.000000,8.03567547,11.34441784,14.86121883,1629,2300,3013,846,1219,1913,4.17354928,6.01563940,9.43727109,0.42377062,0.64043203,0.82436435
18147,0,USIndianaSpencer,Indiana,Spencer,2021-04-04 11:20:00.985567,2021-01-03 00:00:00.000000,7.87451171,11.23432381,14.83813050,1596,2277,3008,832,1217,1895,4.10342480,6.00679463,9.34586958,0.41308318,0.63751419,0.81861620
18147,0,USIndianaSpencer,Indiana,Spencer,2021-04-04 11:20:00.985567,2021-01-04 00:00:00.000000,7.71352242,11.06829581,14.73703469,1564,2244,2988,816,1209,1879,4.02659537,5.96295567,9.26990013,0.41110197,0.62700643,0.79261516
18147,0,USIndianaSpencer,Indiana,Spencer,2021-04-04 11:20:00.985567,2021-01-05 00:00:00.000000,7.55045951,10.88986382,14.53179395,1531,2208,2946,799,1191,1850,3.94288974,5.87480969,9.12619177,0.41163593,0.62087526,0.78565820
18147,0,USIndianaSpencer,Indiana,Spencer,2021-04-04 11:20:00.985567,2021-01-06 00:00:00.000000,7.38284357,10.66310800,14.25070098,1497,2162,2889,781,1181,1817,3.85436880,5.82925899,8.96513669,0.41430247,0.61962289,0.78660940
18147,0,USIndianaSpencer,Indiana,Spencer,2021-04-04 11:20:00.985567,2021-01-07 00:00:00.000000,7.21009168,10.42477767,13.92887322,1461,2113,2824,762,1168,1782,3.76255188,5.76340744,8.78993830,0.42323586,0.62197274,0.78667774
18147,0,USIndianaSpencer,Indiana,Spencer,2021-04-04 11:20:00.985567,2021-01-08 00:00:00.000000,7.03286798,10.18388579,13.61156533,1426,2064,2760,743,1150,1761,3.66867015,5.67634600,8.68665263,0.44025151,0.61300819,0.77938963
18147,0,USIndianaSpencer,Indiana,Spencer,2021-04-04 11:20:00.985567,2021-01-09 00:00:00.000000,6.85549010,9.96343205,13.40551360,1390,2020,2718,724,1131,1742,3.57386976,5.58081629,8.59503090,0.46195382,0.61401458,0.79932448
18147,0,USIndianaSpencer,Indiana,Spencer,2021-04-04 11:20:00.985567,2021-01-10 00:00:00.000000,6.69669061,9.79085226,13.23526437,1357,1985,2683,705,1113,1720,3.47941083,5.49210402,8.48445373,0.47864549,0.61869264,0.86932974
18147,0,USIndianaSpencer,Indiana,Spencer,2021-04-04 11:20:00.985567,2021-01-11 00:00:00.000000,6.57510638,9.61525293,13.07288612,1333,1949,2650,686,1092,1694,3.38688969,5.39003497,8.35566460,0.47896335,0.64120126,0.90176340
18147,0,USIndianaSpencer,Indiana,Spencer,2021-04-04 11:20:00.985567,2021-01-12 00:00:00.000000,6.46209389,9.43389535,12.89172221,1310,1912,2614,668,1068,1665,3.29736199,5.26980461,8.21215787,0.48041606,0.64595656,0.91376973
18147,0,USIndianaSpencer,Indiana,Spencer,2021-04-04 11:20:00.985567,2021-01-13 00:00:00.000000,6.34721624,9.22766890,12.68740777,1287,1871,2572,655,1042,1633,3.23179099,5.14052387,8.05623410,0.48477299,0.65564193,0.95122891
18147,0,USIndianaSpencer,Indiana,Spencer,2021-04-04 11:20:00.985567,2021-01-14 00:00:00.000000,6.22811986,8.96300635,12.45960544,1262,1817,2526,643,1017,1599,3.17165659,5.01819560,7.89024662,0.48863995,0.65961434,0.96101098
18147,0,USIndianaSpencer,Indiana,Spencer,2021-04-04 11:20:00.985567,2021-01-15 00:00:00.000000,6.10231177,8.64737169,12.21067427,1237,1753,2475,631,986,1565,3.11251197,4.86622409,7.72000854,0.49388988,0.66444367,0.94906542
18147,0,USIndianaSpencer,Indiana,Spencer,2021-04-04 11:20:00.985567,2021-01-16 00:00:00.000000,5.96335742,8.38617712,11.94219188,1209,1700,2421,618,954,1532,3.05232204,4.70507738,7.55631356,0.49074042,0.66299921,0.93222141
18147,0,USIndianaSpencer,Indiana,Spencer,2021-04-04 11:20:00.985567,2021-01-17 00:00:00.000000,5.80488567,8.14480763,11.65973474,1177,1651,2364,605,929,1500,2.98858423,4.58324822,7.39812625,0.49653251,0.66134032,0.91547547
18147,0,USIndianaSpencer,Indiana,Spencer,2021-04-04 11:20:00.985567,2021-01-18 00:00:00.000000,5.63555129,7.93538698,11.36973465,1142,1609,2305,591,904,1468,2.91850046,4.45868793,7.24284651,0.48509173,0.69010302,0.91122909
18147,0,USIndianaSpencer,Indiana,Spencer,2021-04-04 11:20:00.985567,2021-01-19 00:00:00.000000,5.46658375,7.74676934,11.07407097,1108,1570,2245,575,880,1437,2.83673907,4.34208822,7.08898198,0.49641650,0.68914249,0.94377030
18147,0,USIndianaSpencer,Indiana,Spencer,2021-04-04 11:20:00.985567,2021-01-20 00:00:00.000000,5.35902057,7.49782045,10.77827239,1086,1520,2185,560,857,1406,2.76201526,4.22866798,6.93512546,0.50683425,0.69058097,0.97219826
18147,0,USIndianaSpencer,Indiana,Spencer,2021-04-04 11:20:00.985567,2021-01-21 00:00:00.000000,5.25009514,7.27649249,10.50613478,1064,1475,2130,543,833,1374,2.68090510,4.11266347,6.78018057,0.51327724,0.70088471,0.95971089
18147,0,USIndianaSpencer,Indiana,Spencer,2021-04-04 11:20:00.985567,2021-01-22 00:00:00.000000,5.06835261,7.02790129,10.29654388,1027,1425,2087,527,811,1342,2.60077284,4.00414344,6.62298909,0.51664333,0.70731112,1.00074529
18147,0,USIndianaSpencer,Indiana,Spencer,2021-04-04 11:20:00.985567,2021-01-23 00:00:00.000000,4.89530193,6.78784951,10.07515732,992,1376,2042,511,792,1310,2.52216082,3.90625560,6.46263156,0.51885537,0.70543810,1.08578630
18147,0,USIndianaSpencer,Indiana,Spencer,2021-04-04 11:20:00.985567,2021-01-24 00:00:00.000000,4.82337986,6.58547479,9.82962385,978,1335,1993,497,769,1277,2.45584643,3.79659607,6.29914376,0.52023857,0.70081111,1.21214184
18147,0,USIndianaSpencer,Indiana,Spencer,2021-04-04 11:20:00.985567,2021-01-25 00:00:00.000000,4.69504647,6.38472557,9.54133392,952,1294,1934,494,745,1243,2.43858451,3.67775441,6.13308044,0.52125481,0.70213456,1.23312673
18147,0,USIndianaSpencer,Indiana,Spencer,2021-04-04 11:20:00.985567,2021-01-26 00:00:00.000000,4.49248020,6.18649112,9.22625379,910,1254,1870,487,720,1209,2.40492863,3.55422652,5.96430271,0.52208086,0.71385661,1.28424841
18147,0,USIndianaSpencer,Indiana,Spencer,2021-04-04 11:20:00.985567,2021-01-27 00:00:00.000000,4.30928905,5.96111928,8.90387223,873,1208,1805,467,693,1174,2.30615467,3.42044169,5.79358950,0.53312445,0.70734698,1.42203224
18147,0,USIndianaSpencer,Indiana,Spencer,2021-04-04 11:20:00.985567,2021-01-28 00:00:00.000000,4.20733979,5.78546273,8.58210508,853,1173,1740,447,672,1139,2.20930520,3.31756586,5.62160428,0.52815898,0.71497316,1.54027208
18147,0,USIndianaSpencer,Indiana,Spencer,2021-04-04 11:20:00.985567,2021-01-29 00:00:00.000000,4.10672026,5.60869464,8.26369850,832,1137,1675,429,653,1104,2.11621677,3.22167819,5.44889091,0.52231737,0.69649883,1.53748003
18147,0,USIndianaSpencer,Indiana,Spencer,2021-04-04 11:20:00.985567,2021-01-30 00:00:00.000000,3.97431289,5.45437216,7.94984777,805,1105,1611,411,631,1075,2.02854986,3.11474118,5.30626544,0.51930800,0.69206478,1.51371949
18147,0,USIndianaSpencer,Indiana,Spencer,2021-04-04 11:20:00.985567,2021-01-31 00:00:00.000000,3.82476499,5.29895082,7.64704777,775,1074,1550,395,607,1050,1.95190409,2.99454397,5.17975767,0.51523619,0.70297350,1.47694030
18147,0,USIndianaSpencer,Indiana,Spencer,2021-04-04 11:20:00.985567,2021-02-01 00:00:00.000000,3.70026233,5.14126045,7.40931627,750,1042,1502,382,586,1023,1.88724432,2.89231743,5.04836891,0.51362798,0.70597094,1.46595037
18147,0,USIndianaSpencer,Indiana,Spencer,2021-04-04 11:20:00.985567,2021-02-02 00:00:00.000000,3.50754313,4.95169294,7.16849510,711,1004,1453,373,567,995,1.83978669,2.79806031,4.91188732,0.51305503,0.71584695,1.46477791
18147,0,USIndianaSpencer,Indiana,Spencer,2021-04-04 11:20:00.985567,2021-02-03 00:00:00.000000,3.32400286,4.76456780,6.92911738,674,966,1405,363,550,967,1.79339092,2.71302219,4.77132384,0.50059248,0.72744372,1.60541965
18147,0,USIndianaSpencer,Indiana,Spencer,2021-04-04 11:20:00.985567,2021-02-04 00:00:00.000000,3.16633945,4.58518014,6.69613985,642,929,1357,354,532,938,1.74762951,2.62427724,4.62827219,0.51319793,0.72917531,1.70922845
18147,0,USIndianaSpencer,Indiana,Spencer,2021-04-04 11:20:00.985567,2021-02-05 00:00:00.000000,3.03417668,4.41789204,6.47350906,615,895,1312,345,514,909,1.70226527,2.53853726,4.48479453,0.51310963,0.72924636,1.51762496
18147,0,USIndianaSpencer,Indiana,Spencer,2021-04-04 11:20:00.985567,2021-02-06 00:00:00.000000,2.91092465,4.22373963,6.26206347,590,856,1269,336,495,880,1.65718382,2.44386901,4.34307606,0.50742851,0.73076656,1.47080481
18147,0,USIndianaSpencer,Indiana,Spencer,2021-04-04 11:20:00.985567,2021-02-07 00:00:00.000000,2.79356962,4.02959931,6.05928928,566,817,1228,320,476,852,1.58074306,2.35142072,4.20357740,0.47100910,0.73166615,1.47281809
18147,0,USIndianaSpencer,Indiana,Spencer,2021-04-04 11:20:00.985567,2021-02-08 00:00:00.000000,2.68940139,3.85605140,5.86381212,545,781,1189,309,457,818,1.52709019,2.25747362,4.03677630,0.46755171,0.73055771,1.46809405
18147,0,USIndianaSpencer,Indiana,Spencer,2021-04-04 11:20:00.985567,2021-02-09 00:00:00.000000,2.55385895,3.68438275,5.59885640,517,747,1135,301,440,785,1.48800880,2.17087508,3.87347836,0.46715237,0.73441132,1.46500778
18147,0,USIndianaSpencer,Indiana,Spencer,2021-04-04 11:20:00.985567,2021-02-10 00:00:00.000000,2.42383956,3.54972111,5.32939894,491,719,1080,291,423,753,1.43580041,2.08965515,3.71435332,0.46726580,0.73210536,1.41159202
18147,0,USIndianaSpencer,Indiana,Spencer,2021-04-04 11:20:00.985567,2021-02-11 00:00:00.000000,2.30089638,3.41858247,5.07100236,466,693,1028,276,407,721,1.36547769,2.01204248,3.56018839,0.46758864,0.72872717,1.39400400
18147,0,USIndianaSpencer,Indiana,Spencer,2021-04-04 11:20:00.985567,2021-02-12 00:00:00.000000,2.18760035,3.26814822,4.82565811,443,662,978,263,392,691,1.29760813,1.93385645,3.41184983,0.46808215,0.72793724,1.40939986
18147,0,USIndianaSpencer,Indiana,Spencer,2021-04-04 11:20:00.985567,2021-02-13 00:00:00.000000,2.08640656,3.13122965,4.59386905,423,634,931,250,376,663,1.23332194,1.85739576,3.27007231,0.46883531,0.73403680,1.44496191
18147,0,USIndianaSpencer,Indiana,Spencer,2021-04-04 11:20:00.985567,2021-02-14 00:00:00.000000,1.98400883,3.00746444,4.37445095,402,609,887,238,361,635,1.17382047,1.78224553,3.13560007,0.47292564,0.74229676,1.48770878
18147,0,USIndianaSpencer,Indiana,Spencer,2021-04-04 11:20:00.985567,2021-02-15 00:00:00.000000,1.92414524,2.86855325,4.17805833,390,581,847,226,346,610,1.11947462,1.70860910,3.00893623,0.48118597,0.74940992,1.50825981
18147,0,USIndianaSpencer,Indiana,Spencer,2021-04-04 11:20:00.985567,2021-02-16 00:00:00.000000,1.85634824,2.73705817,3.99146080,376,554,809,217,331,585,1.07231541,1.63723218,2.88979899,0.47378664,0.77325578,1.51911145
18147,0,USIndianaSpencer,Indiana,Spencer,2021-04-04 11:20:00.985567,2021-02-17 00:00:00.000000,1.79234444,2.65455589,3.82576048,363,538,775,208,317,563,1.02604205,1.56593483,2.77728102,0.47614023,0.77696516,1.52273821
18147,0,USIndianaSpencer,Indiana,Spencer,2021-04-04 11:20:00.985567,2021-02-18 00:00:00.000000,1.71464388,2.56660984,3.68173399,347,520,746,198,305,541,0.97958311,1.50566804,2.67037000,0.47956463,0.79285395,1.52812320
18147,0,USIndianaSpencer,Indiana,Spencer,2021-04-04 11:20:00.985567,2021-02-19 00:00:00.000000,1.64618004,2.46496918,3.54306577,333,499,718,189,294,520,0.93690564,1.45015482,2.56822885,0.48404055,0.79829626,1.56564241
18147,0,USIndianaSpencer,Indiana,Spencer,2021-04-04 11:20:00.985567,2021-02-20 00:00:00.000000,1.57117370,2.39833123,3.40961829,318,486,691,181,283,500,0.89735205,1.39866286,2.47054616,0.48568484,0.82003685,1.60213746
18147,0,USIndianaSpencer,Indiana,Spencer,2021-04-04 11:20:00.985567,2021-02-21 00:00:00.000000,1.47372724,2.33662620,3.28126248,298,473,665,176,273,482,0.86998161,1.35042592,2.37982004,0.47921946,0.83146733,1.63497594
18147,0,USIndianaSpencer,Indiana,Spencer,2021-04-04 11:20:00.985567,2021-02-22 00:00:00.000000,1.41203714,2.22334266,3.14681340,286,450,638,168,262,465,0.82944257,1.29472010,2.29679448,0.49847064,0.84543905,1.66319323
18147,0,USIndianaSpencer,Indiana,Spencer,2021-04-04 11:20:00.985567,2021-02-23 00:00:00.000000,1.35523134,2.14205574,3.01720220,274,434,611,161,249,450,0.79740369,1.23285236,2.22024280,0.50164769,0.85839801,1.70655002
18147,0,USIndianaSpencer,Indiana,Spencer,2021-04-04 11:20:00.985567,2021-02-24 00:00:00.000000,1.30331194,2.09530008,2.89222729,264,424,586,156,238,435,0.77385423,1.17865561,2.14847711,0.50524833,0.85780508,1.73627901
18147,0,USIndianaSpencer,Indiana,Spencer,2021-04-04 11:20:00.985567,2021-02-25 00:00:00.000000,1.24419255,2.03532869,2.80186400,252,412,568,150,230,418,0.74178415,1.13825417,2.06491003,0.51401213,0.88591246,1.79840011
18147,0,USIndianaSpencer,Indiana,Spencer,2021-04-04 11:20:00.985567,2021-02-26 00:00:00.000000,1.18929317,1.96767424,2.69626140,241,398,546,141,223,399,0.69726542,1.10054582,1.97167105,0.52940338,0.89386821,1.91235066
18147,0,USIndianaSpencer,Indiana,Spencer,2021-04-04 11:20:00.985567,2021-02-27 00:00:00.000000,1.14495572,1.89349232,2.60966257,232,383,529,136,214,381,0.67105830,1.05601299,1.88233906,0.54739416,0.91699686,1.99175145
18147,0,USIndianaSpencer,Indiana,Spencer,2021-04-04 11:20:00.985567,2021-02-28 00:00:00.000000,1.11649829,1.81571266,2.52662392,226,368,512,131,206,364,0.64904066,1.02080612,1.79699227,0.61125650,0.93384557,2.12950162
18147,0,USIndianaSpencer,Indiana,Spencer,2021-04-04 11:20:00.985567,2021-03-01 00:00:00.000000,1.10214058,1.75266861,2.42702341,223,355,492,127,200,347,0.62788079,0.98705129,1.71577750,0.61813790,0.94114058,2.21151955
18147,0,USIndianaSpencer,Indiana,Spencer,2021-04-04 11:20:00.985567,2021-03-02 00:00:00.000000,1.09277264,1.68547245,2.34818161,221,341,476,123,193,332,0.61028465,0.95450821,1.64006538,0.64742248,0.94466248,2.15345935
18147,0,USIndianaSpencer,Indiana,Spencer,2021-04-04 11:20:00.985567,2021-03-03 00:00:00.000000,1.08551799,1.61783405,2.27768650,220,328,461,121,187,318,0.59806122,0.92237078,1.57178417,0.66190237,0.95104802,2.11652449
18147,0,USIndianaSpencer,Indiana,Spencer,2021-04-04 11:20:00.985567,2021-03-04 00:00:00.000000,1.07920507,1.55390500,2.20879465,218,315,447,119,180,306,0.58924182,0.89034007,1.51026069,0.67256788,0.96158835,2.09376124
18147,0,USIndianaSpencer,Indiana,Spencer,2021-04-04 11:20:00.985567,2021-03-05 00:00:00.000000,1.06451308,1.50821445,2.14154326,215,305,434,118,175,294,0.58262657,0.86529901,1.45396081,0.67219402,0.96686577,2.06727979
18147,0,USIndianaSpencer,Indiana,Spencer,2021-04-04 11:20:00.985567,2021-03-06 00:00:00.000000,1.02897233,1.45610932,2.07595698,208,295,420,116,169,284,0.57576395,0.83525800,1.40176618,0.67051951,0.97498542,2.03054429
18147,0,USIndianaSpencer,Indiana,Spencer,2021-04-04 11:20:00.985567,2021-03-07 00:00:00.000000,0.98367700,1.40996951,2.01205055,199,285,407,113,164,274,0.55828068,0.81035685,1.35286009,0.66403170,0.98165533,2.08257333
18147,0,USIndianaSpencer,Indiana,Spencer,2021-04-04 11:20:00.985567,2021-03-08 00:00:00.000000,0.94464118,1.36381314,1.94990839,191,276,395,109,158,264,0.54157126,0.78408444,1.30664485,0.65141511,0.99114926,1.99519350
18147,0,USIndianaSpencer,Indiana,Spencer,2021-04-04 11:20:00.985567,2021-03-09 00:00:00.000000,0.90815636,1.31752291,1.88945309,184,267,383,105,153,256,0.52048701,0.75855264,1.26665941,0.64162388,0.99379836,1.97778963
18147,0,USIndianaSpencer,Indiana,Spencer,2021-04-04 11:20:00.985567,2021-03-10 00:00:00.000000,0.87404982,1.28178114,1.83068035,177,259,371,101,149,249,0.49971913,0.73817174,1.23139371,0.63878055,0.98772566,1.93764436
18147,0,USIndianaSpencer,Indiana,Spencer,2021-04-04 11:20:00.985567,2021-03-11 00:00:00.000000,0.84203635,1.23694204,1.77357933,170,250,359,97,145,243,0.48038741,0.71842190,1.19974057,0.64083095,0.98879737,1.90017007
18147,0,USIndianaSpencer,Indiana,Spencer,2021-04-04 11:20:00.985567,2021-03-12 00:00:00.000000,0.81190226,1.19796829,1.73350796,164,242,351,93,141,237,0.46247759,0.69915217,1.17088687,0.64653284,0.98942212,1.98992130
18147,0,USIndianaSpencer,Indiana,Spencer,2021-04-04 11:20:00.985567,2021-03-13 00:00:00.000000,0.78343799,1.16891215,1.70033392,158,237,344,90,137,232,0.44506347,0.67793092,1.14423438,0.65570407,0.98816480,1.96250769
18147,0,USIndianaSpencer,Indiana,Spencer,2021-04-04 11:20:00.985567,2021-03-14 00:00:00.000000,0.75611631,1.14253655,1.66829412,153,231,338,86,133,226,0.42650730,0.65603772,1.11934194,0.66714045,0.99747485,2.12765558
18147,0,USIndianaSpencer,Indiana,Spencer,2021-04-04 11:20:00.985567,2021-03-15 00:00:00.000000,0.73701367,1.11064795,1.61702491,149,225,327,82,129,222,0.40883962,0.63846557,1.09588338,0.65643251,1.00118933,2.13133189
18147,0,USIndianaSpencer,Indiana,Spencer,2021-04-04 11:20:00.985567,2021-03-16 00:00:00.000000,0.71879408,1.08184787,1.56670811,145,219,317,79,125,216,0.39419426,0.61996518,1.06967116,0.65380499,0.99858832,2.13228896
18147,0,USIndianaSpencer,Indiana,Spencer,2021-04-04 11:20:00.985567,2021-03-17 00:00:00.000000,0.70204249,1.04047025,1.51707854,142,210,307,77,120,211,0.38185147,0.59623220,1.04170199,0.65346308,1.00974425,2.13244488
18147,0,USIndianaSpencer,Indiana,Spencer,2021-04-04 11:20:00.985567,2021-03-18 00:00:00.000000,0.68419728,1.00935932,1.46836008,138,204,297,74,116,205,0.36538608,0.57648934,1.01270346,0.65437025,1.02914935,2.12199611
18147,0,USIndianaSpencer,Indiana,Spencer,2021-04-04 11:20:00.985567,2021-03-19 00:00:00.000000,0.65099891,0.99751504,1.42070954,132,202,288,70,114,199,0.34800333,0.56545952,0.98320580,0.63343795,1.02899084,2.08298585
18147,0,USIndianaSpencer,Indiana,Spencer,2021-04-04 11:20:00.985567,2021-03-20 00:00:00.000000,0.61927927,0.96240299,1.40900175,125,195,285,67,111,193,0.33099715,0.55052988,0.95359441,0.61584289,1.01714912,2.01943777
18147,0,USIndianaSpencer,Indiana,Spencer,2021-04-04 11:20:00.985567,2021-03-21 00:00:00.000000,0.59875501,0.93635088,1.39769353,121,189,283,63,107,187,0.31447320,0.52866891,0.92414824,0.61006613,1.02892498,1.95628613
18147,0,USIndianaSpencer,Indiana,Spencer,2021-04-04 11:20:00.985567,2021-03-22 00:00:00.000000,0.57248002,0.89357379,1.35998168,116,181,275,60,103,181,0.29850244,0.51206529,0.89506799,0.61508481,1.03070989,1.92172074
18147,0,USIndianaSpencer,Indiana,Spencer,2021-04-04 11:20:00.985567,2021-03-23 00:00:00.000000,0.54711471,0.87446164,1.32347953,110,177,268,58,103,175,0.28939206,0.50854949,0.86596352,0.57307864,1.05487950,1.91802894
18147,0,USIndianaSpencer,Indiana,Spencer,2021-04-04 11:20:00.985567,2021-03-24 00:00:00.000000,0.52345393,0.85751092,1.28813646,106,173,261,57,100,169,0.28313539,0.49598514,0.83709476,0.56863295,1.05963532,2.09775537
18147,0,USIndianaSpencer,Indiana,Spencer,2021-04-04 11:20:00.985567,2021-03-25 00:00:00.000000,0.50135711,0.83440232,1.25394804,101,169,254,55,97,163,0.27587195,0.47948082,0.80864768,0.56858428,1.07107724,2.17928144
18147,0,USIndianaSpencer,Indiana,Spencer,2021-04-04 11:20:00.985567,2021-03-26 00:00:00.000000,0.48070121,0.80574641,1.23519814,97,163,250,54,93,158,0.26823925,0.46283666,0.78075378,0.55752523,1.08104754,2.23403127
18147,0,USIndianaSpencer,Indiana,Spencer,2021-04-04 11:20:00.985567,2021-03-27 00:00:00.000000,0.46141975,0.77804425,1.22687015,93,157,248,52,91,152,0.26049452,0.45269017,0.75350442,0.54667975,1.08801553,2.37917062
18147,0,USIndianaSpencer,Indiana,Spencer,2021-04-04 11:20:00.985567,2021-03-28 00:00:00.000000,0.44368368,0.75103453,1.23849084,89,152,251,51,88,147,0.25278019,0.43631700,0.72696129,0.54205103,1.09122600,2.43204367
18147,0,USIndianaSpencer,Indiana,Spencer,2021-04-04 11:20:00.985567,2021-03-29 00:00:00.000000,0.41932022,0.71158146,1.20927014,85,144,245,49,86,142,0.24522085,0.42603850,0.70116422,0.54018136,1.09870436,2.44840924
18147,0,USIndianaSpencer,Indiana,Spencer,2021-04-04 11:20:00.985567,2021-03-30 00:00:00.000000,0.39599118,0.68059152,1.17982605,80,138,239,47,82,137,0.23597348,0.40904138,0.67697160,0.53847707,1.13646796,2.45730123
18147,0,USIndianaSpencer,Indiana,Spencer,2021-04-04 11:20:00.985567,2021-03-31 00:00:00.000000,0.37352634,0.64408750,1.14949322,75,130,233,45,79,132,0.22519377,0.39152896,0.65355564,0.53774041,1.15223254,2.46973827
18147,0,USIndianaSpencer,Indiana,Spencer,2021-04-04 11:20:00.985567,2021-04-01 00:00:00.000000,0.34847910,0.61613643,1.11824877,70,124,226,43,75,129,0.21385104,0.37345476,0.63892716,0.53661754,1.14781033,2.49327984
18147,0,USIndianaSpencer,Indiana,Spencer,2021-04-04 11:20:00.985567,2021-04-02 00:00:00.000000,0.32412311,0.58992632,1.07687865,65,119,218,41,72,126,0.20396035,0.35677870,0.62313720,0.53178248,1.14366065,2.53508077
18147,0,USIndianaSpencer,Indiana,Spencer,2021-04-04 11:20:00.985567,2021-04-03 00:00:00.000000,0.30127567,0.56131215,1.03560618,61,113,209,39,69,123,0.19415002,0.34090896,0.60663981,0.52484533,1.13816642,2.58378963
18147,0,USIndianaSpencer,Indiana,Spencer,2021-04-04 11:20:00.985567,2021-04-04 00:00:00.000000,0.27989555,0.53387016,0.99431633,56,108,201,37,65,119,0.18454822,0.32544530,0.58976062,0.51807937,1.16038606,2.66873929
18147,0,USIndianaSpencer,Indiana,Spencer,2021-04-04 11:20:00.985567,2021-04-05 00:00:00.000000,0.26483917,0.50931214,0.95747834,53,103,194,35,63,116,0.17490100,0.31170651,0.57273304,0.51283411,1.13564588,2.72679741
18147,0,USIndianaSpencer,Indiana,Spencer,2021-04-04 11:20:00.985567,2021-04-06 00:00:00.000000,0.25136993,0.48897005,0.92721614,50,99,188,33,60,112,0.16539381,0.29975798,0.55572415,0.50697269,1.12018650,2.76296726
18147,0,USIndianaSpencer,Indiana,Spencer,2021-04-04 11:20:00.985567,2021-04-07 00:00:00.000000,0.23857009,0.46939090,0.89766264,48,95,182,31,57,109,0.15357474,0.28451383,0.53885328,0.50129141,1.12067992,2.78223964
18147,0,USIndianaSpencer,Indiana,Spencer,2021-04-04 11:20:00.985567,2021-04-08 00:00:00.000000,0.22349267,0.44821523,0.86883842,45,90,176,28,54,105,0.14252213,0.27101212,0.52220521,0.49812481,1.12450317,2.79163125
18147,0,USIndianaSpencer,Indiana,Spencer,2021-04-04 11:20:00.985567,2021-04-09 00:00:00.000000,0.20762534,0.42265987,0.84075461,42,85,170,26,51,102,0.13221101,0.25636398,0.50583976,0.49657358,1.12580417,2.79600622
18147,0,USIndianaSpencer,Indiana,Spencer,2021-04-04 11:20:00.985567,2021-04-10 00:00:00.000000,0.19281401,0.39847395,0.81341539,39,80,164,24,49,99,0.12260830,0.24400606,0.48979859,0.49586149,1.12580064,2.79800120
18147,0,USIndianaSpencer,Indiana,Spencer,2021-04-04 11:20:00.985567,2021-04-11 00:00:00.000000,0.17766318,0.37561025,0.78676893,36,76,159,23,47,96,0.11367657,0.23237755,0.47411013,0.49554426,1.12579840,2.79890203
18147,0,USIndianaSpencer,Indiana,Spencer,2021-04-04 11:20:00.985567,2021-04-12 00:00:00.000000,0.16607755,0.35826104,0.76062214,33,72,154,21,44,93,0.10537659,0.21981090,0.45879318,0.49540476,1.12579700,2.79930698
18147,0,USIndianaSpencer,Indiana,Spencer,2021-04-04 11:20:00.985567,2021-04-13 00:00:00.000000,0.15404619,0.34170947,0.73523091,31,69,149,19,42,90,0.09766892,0.20775596,0.44385942,0.49534373,1.12579611,2.79948866
18147,0,USIndianaSpencer,Indiana,Spencer,2021-04-04 11:20:00.985567,2021-04-14 00:00:00.000000,0.14286664,0.32521697,0.71058412,28,65,144,18,40,86,0.09051494,0.19840672,0.42724154,0.49531707,1.12579556,2.79957010
18147,0,USIndianaSpencer,Indiana,Spencer,2021-04-04 11:20:00.985567,2021-04-15 00:00:00.000000,0.13248365,0.30718100,0.68666920,26,62,139,17,38,82,0.08387742,0.18946217,0.40867921,0.49530543,1.12579521,2.79960658
18147,0,USIndianaSpencer,Indiana,Spencer,2021-04-04 11:20:00.985567,2021-04-16 00:00:00.000000,0.12284418,0.29002243,0.65704852,24,58,133,15,36,79,0.07772719,0.18090717,0.39087353,0.49530034,1.12579500,2.79962293
