FIPS,HR_UID,nameid,province,region,analysisTime,dates,pointprevalence_025,pointprevalence_50,pointprevalence_975,pointinfections_025,pointinfections_50,pointinfections_975,pointinfectious_025,pointinfectious_50,pointinfectious_975,pointinfectiousprevalence_05,pointinfectiousprevalence_50,pointinfectiousprevalence_95,infectrate_025,infectrate_50,infectrate_975
54013,0,USWestVirginiaCalhoun,West Virginia,Calhoun,2021-04-04 02:03:55.702006,2020-03-09 00:00:00.000000,0.00550451,0.03135217,0.11603922,0,2,8,0,1,4,0.00262337,0.01745294,0.06049973,0.38409865,0.52426621,0.64920490
54013,0,USWestVirginiaCalhoun,West Virginia,Calhoun,2021-04-04 02:03:55.702006,2020-03-10 00:00:00.000000,0.00631091,0.03551396,0.12334054,0,2,8,0,1,4,0.00282946,0.01734104,0.05980872,0.38408626,0.52424343,0.64920401
54013,0,USWestVirginiaCalhoun,West Virginia,Calhoun,2021-04-04 02:03:55.702006,2020-03-11 00:00:00.000000,0.00714261,0.03899370,0.13138765,0,2,9,0,1,4,0.00315164,0.01835144,0.06170390,0.38406049,0.52419021,0.64920190
54013,0,USWestVirginiaCalhoun,West Virginia,Calhoun,2021-04-04 02:03:55.702006,2020-03-12 00:00:00.000000,0.00801697,0.04212020,0.13986983,0,2,9,0,1,4,0.00354316,0.01948191,0.06527941,0.38400687,0.52406578,0.64919686
54013,0,USWestVirginiaCalhoun,West Virginia,Calhoun,2021-04-04 02:03:55.702006,2020-03-13 00:00:00.000000,0.00866652,0.04537294,0.14868735,0,3,10,0,1,4,0.00376437,0.02107546,0.06840520,0.38389533,0.52377497,0.64918462
54013,0,USWestVirginiaCalhoun,West Virginia,Calhoun,2021-04-04 02:03:55.702006,2020-03-14 00:00:00.000000,0.00921706,0.04876203,0.15783218,0,3,11,0,1,5,0.00401755,0.02274206,0.07151243,0.38366362,0.52367145,0.64915428
54013,0,USWestVirginiaCalhoun,West Virginia,Calhoun,2021-04-04 02:03:55.702006,2020-03-15 00:00:00.000000,0.00978263,0.05213969,0.16733363,0,3,11,0,1,5,0.00429012,0.02450324,0.07476240,0.38318443,0.52354015,0.64907685
54013,0,USWestVirginiaCalhoun,West Virginia,Calhoun,2021-04-04 02:03:55.702006,2020-03-16 00:00:00.000000,0.01036576,0.05606708,0.17723347,0,3,12,0,1,5,0.00457590,0.02639065,0.07811716,0.38220514,0.52327014,0.64577161
54013,0,USWestVirginiaCalhoun,West Virginia,Calhoun,2021-04-04 02:03:55.702006,2020-03-17 00:00:00.000000,0.01096383,0.06002134,0.18756982,0,4,13,0,2,5,0.00487212,0.02837883,0.08215004,0.38026135,0.52271538,0.64370714
54013,0,USWestVirginiaCalhoun,West Virginia,Calhoun,2021-04-04 02:03:55.702006,2020-03-18 00:00:00.000000,0.01155804,0.06418035,0.19703276,0,4,14,0,2,6,0.00517685,0.03030303,0.09045623,0.36219203,0.51262107,0.64292708
54013,0,USWestVirginiaCalhoun,West Virginia,Calhoun,2021-04-04 02:03:55.702006,2020-03-19 00:00:00.000000,0.01212181,0.06849816,0.20543915,0,4,14,0,2,7,0.00548676,0.03233784,0.09942868,0.34220702,0.50234130,0.64069896
54013,0,USWestVirginiaCalhoun,West Virginia,Calhoun,2021-04-04 02:03:55.702006,2020-03-20 00:00:00.000000,0.01267762,0.07281824,0.21330959,0,5,15,0,2,7,0.00579665,0.03448253,0.10684975,0.33321639,0.48798753,0.63509931
54013,0,USWestVirginiaCalhoun,West Virginia,Calhoun,2021-04-04 02:03:55.702006,2020-03-21 00:00:00.000000,0.01324184,0.07625455,0.21923555,0,5,15,0,2,8,0.00610039,0.03672591,0.11254031,0.32433356,0.45709334,0.62771853
54013,0,USWestVirginiaCalhoun,West Virginia,Calhoun,2021-04-04 02:03:55.702006,2020-03-22 00:00:00.000000,0.01382481,0.07842092,0.22387535,0,5,15,0,2,8,0.00640178,0.03872465,0.11737898,0.29826816,0.42899046,0.60983447
54013,0,USWestVirginiaCalhoun,West Virginia,Calhoun,2021-04-04 02:03:55.702006,2020-03-23 00:00:00.000000,0.01443030,0.08318350,0.22791252,1,5,16,0,2,8,0.00673760,0.04122622,0.12129075,0.27319787,0.41492745,0.59755320
54013,0,USWestVirginiaCalhoun,West Virginia,Calhoun,2021-04-04 02:03:55.702006,2020-03-24 00:00:00.000000,0.01506012,0.08597481,0.23171084,1,6,16,0,3,8,0.00751350,0.04240156,0.12471743,0.26804494,0.40353485,0.57997846
54013,0,USWestVirginiaCalhoun,West Virginia,Calhoun,2021-04-04 02:03:55.702006,2020-03-25 00:00:00.000000,0.01658737,0.08841613,0.23713818,1,6,16,0,3,9,0.00836655,0.04363453,0.13151789,0.26620702,0.38415619,0.57056618
54013,0,USWestVirginiaCalhoun,West Virginia,Calhoun,2021-04-04 02:03:55.702006,2020-03-26 00:00:00.000000,0.01832894,0.08946963,0.24450537,1,6,17,0,3,9,0.00930032,0.04528361,0.13793045,0.26189173,0.37028847,0.55436103
54013,0,USWestVirginiaCalhoun,West Virginia,Calhoun,2021-04-04 02:03:55.702006,2020-03-27 00:00:00.000000,0.01905159,0.09177531,0.25088348,1,6,17,0,3,10,0.00967377,0.04733183,0.14364805,0.24625617,0.36547913,0.53909045
54013,0,USWestVirginiaCalhoun,West Virginia,Calhoun,2021-04-04 02:03:55.702006,2020-03-28 00:00:00.000000,0.01897590,0.09399662,0.25640002,1,6,18,0,3,10,0.00966124,0.04957824,0.14870048,0.24293710,0.36460671,0.53454818
54013,0,USWestVirginiaCalhoun,West Virginia,Calhoun,2021-04-04 02:03:55.702006,2020-03-29 00:00:00.000000,0.01887726,0.09616453,0.26118095,1,6,18,0,3,10,0.00963481,0.05075494,0.15313536,0.23877492,0.35928570,0.52015231
54013,0,USWestVirginiaCalhoun,West Virginia,Calhoun,2021-04-04 02:03:55.702006,2020-03-30 00:00:00.000000,0.01894050,0.09663301,0.26534530,1,6,18,0,3,11,0.00959587,0.05178104,0.15700562,0.23526384,0.33952972,0.51089765
54013,0,USWestVirginiaCalhoun,West Virginia,Calhoun,2021-04-04 02:03:55.702006,2020-03-31 00:00:00.000000,0.01936962,0.09793682,0.26904745,1,6,19,0,3,11,0.00954540,0.05295710,0.16036651,0.22863837,0.32279334,0.50554751
54013,0,USWestVirginiaCalhoun,West Virginia,Calhoun,2021-04-04 02:03:55.702006,2020-04-01 00:00:00.000000,0.01966224,0.09964807,0.27033809,1,7,19,0,3,11,0.00957014,0.05402837,0.16125690,0.21266249,0.31561009,0.50239219
54013,0,USWestVirginiaCalhoun,West Virginia,Calhoun,2021-04-04 02:03:55.702006,2020-04-02 00:00:00.000000,0.01983394,0.10004867,0.26831703,1,7,19,0,3,11,0.00979823,0.05508000,0.16044931,0.20017737,0.31339389,0.49671683
54013,0,USWestVirginiaCalhoun,West Virginia,Calhoun,2021-04-04 02:03:55.702006,2020-04-03 00:00:00.000000,0.01989002,0.10046506,0.27015879,1,7,19,0,3,11,0.00997052,0.05550038,0.15912512,0.18729471,0.30355306,0.47298636
54013,0,USWestVirginiaCalhoun,West Virginia,Calhoun,2021-04-04 02:03:55.702006,2020-04-04 00:00:00.000000,0.01984430,0.10252305,0.27427569,1,7,19,0,4,11,0.01008542,0.05693906,0.15739252,0.17590412,0.28593785,0.45217959
54013,0,USWestVirginiaCalhoun,West Virginia,Calhoun,2021-04-04 02:03:55.702006,2020-04-05 00:00:00.000000,0.01972210,0.10265198,0.27451935,1,7,19,0,4,11,0.01014480,0.05663803,0.15516197,0.16719616,0.27496994,0.43961857
54013,0,USWestVirginiaCalhoun,West Virginia,Calhoun,2021-04-04 02:03:55.702006,2020-04-06 00:00:00.000000,0.01954944,0.09974928,0.27314955,1,7,19,0,3,10,0.01015502,0.05559262,0.15232501,0.16392760,0.26784897,0.42389204
54013,0,USWestVirginiaCalhoun,West Virginia,Calhoun,2021-04-04 02:03:55.702006,2020-04-07 00:00:00.000000,0.01934605,0.09861961,0.27164018,1,7,19,0,3,10,0.01012530,0.05505332,0.15259049,0.15926559,0.25760385,0.41928143
54013,0,USWestVirginiaCalhoun,West Virginia,Calhoun,2021-04-04 02:03:55.702006,2020-04-08 00:00:00.000000,0.01912489,0.09773322,0.26995025,1,6,19,0,3,11,0.01006532,0.05530512,0.15599396,0.16228056,0.25245503,0.41908001
54013,0,USWestVirginiaCalhoun,West Virginia,Calhoun,2021-04-04 02:03:55.702006,2020-04-09 00:00:00.000000,0.01889407,0.09679673,0.26800598,1,6,19,0,3,11,0.00998359,0.05500344,0.15904908,0.15643369,0.24795303,0.41546809
54013,0,USWestVirginiaCalhoun,West Virginia,Calhoun,2021-04-04 02:03:55.702006,2020-04-10 00:00:00.000000,0.01866137,0.09464916,0.26560288,1,6,18,0,3,11,0.00988687,0.05578080,0.16168541,0.15341494,0.24934052,0.40350302
54013,0,USWestVirginiaCalhoun,West Virginia,Calhoun,2021-04-04 02:03:55.702006,2020-04-11 00:00:00.000000,0.01847660,0.09357524,0.26451031,1,6,18,0,3,11,0.00978750,0.05608981,0.16374700,0.14352935,0.23477038,0.37550086
54013,0,USWestVirginiaCalhoun,West Virginia,Calhoun,2021-04-04 02:03:55.702006,2020-04-12 00:00:00.000000,0.01849671,0.09172574,0.26399186,1,6,18,0,4,11,0.00969289,0.05648441,0.16509241,0.13796722,0.22883504,0.37291224
54013,0,USWestVirginiaCalhoun,West Virginia,Calhoun,2021-04-04 02:03:55.702006,2020-04-13 00:00:00.000000,0.01857520,0.09221923,0.26334489,1,6,18,0,3,11,0.00963983,0.05619748,0.16418254,0.13593794,0.22098321,0.37947587
54013,0,USWestVirginiaCalhoun,West Virginia,Calhoun,2021-04-04 02:03:55.702006,2020-04-14 00:00:00.000000,0.01866402,0.09131201,0.26258840,1,6,18,0,3,11,0.00962485,0.05515758,0.16199294,0.13472511,0.21947586,0.38470091
54013,0,USWestVirginiaCalhoun,West Virginia,Calhoun,2021-04-04 02:03:55.702006,2020-04-15 00:00:00.000000,0.01875893,0.08992297,0.26171041,1,6,18,0,3,11,0.00975393,0.05349074,0.15950043,0.13279061,0.21823903,0.38768013
54013,0,USWestVirginiaCalhoun,West Virginia,Calhoun,2021-04-04 02:03:55.702006,2020-04-16 00:00:00.000000,0.01895899,0.08840873,0.26191965,1,6,18,0,3,11,0.01001015,0.05332035,0.15674667,0.12887476,0.21382358,0.38890367
54013,0,USWestVirginiaCalhoun,West Virginia,Calhoun,2021-04-04 02:03:55.702006,2020-04-17 00:00:00.000000,0.01948902,0.08681736,0.26398406,1,6,18,0,3,10,0.01028178,0.05328376,0.15364115,0.12331150,0.21281834,0.38819161
54013,0,USWestVirginiaCalhoun,West Virginia,Calhoun,2021-04-04 02:03:55.702006,2020-04-18 00:00:00.000000,0.01995923,0.08568067,0.26517637,1,6,18,0,3,10,0.01056506,0.05246280,0.14996056,0.11633882,0.21164020,0.37415754
54013,0,USWestVirginiaCalhoun,West Virginia,Calhoun,2021-04-04 02:03:55.702006,2020-04-19 00:00:00.000000,0.02012956,0.08390269,0.26493199,1,5,18,0,3,10,0.01084022,0.05137214,0.14566674,0.11144934,0.21030542,0.37083304
54013,0,USWestVirginiaCalhoun,West Virginia,Calhoun,2021-04-04 02:03:55.702006,2020-04-20 00:00:00.000000,0.01892322,0.08174965,0.26315171,1,5,18,0,3,10,0.01103688,0.05017450,0.14092759,0.11029301,0.20526786,0.36993559
54013,0,USWestVirginiaCalhoun,West Virginia,Calhoun,2021-04-04 02:03:55.702006,2020-04-21 00:00:00.000000,0.01884463,0.08209535,0.25275128,1,5,17,0,3,9,0.01090586,0.04789931,0.14027237,0.10992524,0.20131642,0.36196897
54013,0,USWestVirginiaCalhoun,West Virginia,Calhoun,2021-04-04 02:03:55.702006,2020-04-22 00:00:00.000000,0.01772263,0.08214105,0.24748358,1,5,17,0,3,9,0.01009543,0.04578795,0.13980507,0.10972400,0.19294830,0.33755232
54013,0,USWestVirginiaCalhoun,West Virginia,Calhoun,2021-04-04 02:03:55.702006,2020-04-23 00:00:00.000000,0.01643515,0.08011823,0.24384948,1,5,17,0,3,9,0.00972622,0.04514461,0.13881098,0.10963865,0.19138633,0.33408070
54013,0,USWestVirginiaCalhoun,West Virginia,Calhoun,2021-04-04 02:03:55.702006,2020-04-24 00:00:00.000000,0.01536709,0.07746514,0.23982735,1,5,17,0,3,9,0.00938236,0.04458026,0.13733717,0.10960211,0.18194010,0.33362748
54013,0,USWestVirginiaCalhoun,West Virginia,Calhoun,2021-04-04 02:03:55.702006,2020-04-25 00:00:00.000000,0.01449788,0.07482712,0.23549665,1,5,16,0,3,9,0.00872912,0.04445172,0.13534678,0.10508109,0.18067760,0.32675317
54013,0,USWestVirginiaCalhoun,West Virginia,Calhoun,2021-04-04 02:03:55.702006,2020-04-26 00:00:00.000000,0.01372780,0.07131160,0.23095911,0,5,16,0,3,9,0.00817631,0.04425267,0.13268300,0.10064416,0.17380328,0.32215578
54013,0,USWestVirginiaCalhoun,West Virginia,Calhoun,2021-04-04 02:03:55.702006,2020-04-27 00:00:00.000000,0.02963364,0.08869580,0.23303701,2,6,16,0,3,9,0.00770043,0.04324703,0.12940080,0.09475775,0.17255055,0.31690753
54013,0,USWestVirginiaCalhoun,West Virginia,Calhoun,2021-04-04 02:03:55.702006,2020-04-28 00:00:00.000000,0.04083959,0.11032241,0.25121633,2,7,17,0,3,9,0.01311221,0.04733808,0.13040661,0.09393819,0.16669941,0.31354482
54013,0,USWestVirginiaCalhoun,West Virginia,Calhoun,2021-04-04 02:03:55.702006,2020-04-29 00:00:00.000000,0.05452847,0.12668761,0.30000344,3,9,21,1,3,9,0.01840446,0.05356446,0.13303421,0.09026645,0.16550435,0.31003504
54013,0,USWestVirginiaCalhoun,West Virginia,Calhoun,2021-04-04 02:03:55.702006,2020-04-30 00:00:00.000000,0.06712888,0.14363646,0.31060030,4,10,22,1,4,10,0.02314088,0.06087148,0.14703514,0.08304834,0.16366427,0.30504373
54013,0,USWestVirginiaCalhoun,West Virginia,Calhoun,2021-04-04 02:03:55.702006,2020-05-01 00:00:00.000000,0.07607363,0.16500983,0.34750232,5,11,24,1,4,12,0.02577804,0.06917101,0.16930563,0.07801006,0.15994080,0.29918176
54013,0,USWestVirginiaCalhoun,West Virginia,Calhoun,2021-04-04 02:03:55.702006,2020-05-02 00:00:00.000000,0.08496298,0.18659916,0.38511832,6,13,27,2,5,13,0.02848769,0.07967398,0.19247260,0.07657574,0.15528128,0.28277580
54013,0,USWestVirginiaCalhoun,West Virginia,Calhoun,2021-04-04 02:03:55.702006,2020-05-03 00:00:00.000000,0.09180550,0.20346801,0.42773989,6,14,30,2,6,15,0.03113580,0.09048153,0.21775141,0.07593168,0.15383122,0.28033136
54013,0,USWestVirginiaCalhoun,West Virginia,Calhoun,2021-04-04 02:03:55.702006,2020-05-04 00:00:00.000000,0.10414373,0.22120872,0.44776265,7,15,31,2,7,17,0.03369727,0.10176764,0.24366508,0.07572580,0.15382352,0.25944458
54013,0,USWestVirginiaCalhoun,West Virginia,Calhoun,2021-04-04 02:03:55.702006,2020-05-05 00:00:00.000000,0.11627806,0.23802816,0.46648783,8,16,33,3,8,18,0.04459744,0.11412211,0.26359287,0.07364486,0.15166102,0.26108186
54013,0,USWestVirginiaCalhoun,West Virginia,Calhoun,2021-04-04 02:03:55.702006,2020-05-06 00:00:00.000000,0.12899832,0.26292080,0.49058527,9,18,34,3,8,19,0.04945175,0.12248092,0.27974149,0.07484691,0.14893403,0.26149646
54013,0,USWestVirginiaCalhoun,West Virginia,Calhoun,2021-04-04 02:03:55.702006,2020-05-07 00:00:00.000000,0.13538789,0.28030246,0.51699436,9,19,36,4,9,20,0.05626916,0.13103405,0.29345627,0.07592452,0.14579355,0.25170266
54013,0,USWestVirginiaCalhoun,West Virginia,Calhoun,2021-04-04 02:03:55.702006,2020-05-08 00:00:00.000000,0.14150371,0.29497191,0.53868869,10,20,38,4,9,21,0.06323397,0.13997432,0.30552160,0.07625335,0.14438042,0.25168735
54013,0,USWestVirginiaCalhoun,West Virginia,Calhoun,2021-04-04 02:03:55.702006,2020-05-09 00:00:00.000000,0.14800373,0.30897576,0.55698490,10,21,39,4,10,22,0.06648291,0.15134051,0.31631338,0.07536536,0.14101406,0.25153542
54013,0,USWestVirginiaCalhoun,West Virginia,Calhoun,2021-04-04 02:03:55.702006,2020-05-10 00:00:00.000000,0.15260432,0.32818292,0.57402965,10,23,40,4,11,23,0.06957178,0.16078889,0.32593460,0.07283749,0.13952222,0.25187818
54013,0,USWestVirginiaCalhoun,West Virginia,Calhoun,2021-04-04 02:03:55.702006,2020-05-11 00:00:00.000000,0.18145301,0.33712732,0.60680680,12,23,43,5,12,23,0.07247711,0.16945873,0.33447479,0.07018055,0.13751548,0.24545758
54013,0,USWestVirginiaCalhoun,West Virginia,Calhoun,2021-04-04 02:03:55.702006,2020-05-12 00:00:00.000000,0.19599057,0.36196913,0.62500642,13,25,44,6,12,24,0.08467726,0.17770163,0.33997653,0.06615143,0.13559867,0.24366613
54013,0,USWestVirginiaCalhoun,West Virginia,Calhoun,2021-04-04 02:03:55.702006,2020-05-13 00:00:00.000000,0.20718815,0.37933504,0.63639228,14,26,45,6,13,25,0.09474243,0.18416365,0.36098816,0.06639191,0.13398418,0.24317028
54013,0,USWestVirginiaCalhoun,West Virginia,Calhoun,2021-04-04 02:03:55.702006,2020-05-14 00:00:00.000000,0.20377789,0.38962919,0.64758926,14,27,46,7,13,26,0.10075724,0.19416117,0.36848328,0.06749684,0.13285643,0.24006593
54013,0,USWestVirginiaCalhoun,West Virginia,Calhoun,2021-04-04 02:03:55.702006,2020-05-15 00:00:00.000000,0.20905602,0.39343792,0.66208876,14,27,47,7,14,26,0.10708058,0.20635860,0.37039583,0.06868190,0.13183340,0.23582892
54013,0,USWestVirginiaCalhoun,West Virginia,Calhoun,2021-04-04 02:03:55.702006,2020-05-16 00:00:00.000000,0.20662830,0.40647730,0.72910682,14,28,51,8,14,27,0.11344570,0.21010726,0.38917303,0.06797695,0.13042959,0.24645672
54013,0,USWestVirginiaCalhoun,West Virginia,Calhoun,2021-04-04 02:03:55.702006,2020-05-17 00:00:00.000000,0.20433070,0.41407634,0.76123096,14,29,54,8,15,29,0.11948202,0.21631792,0.41864307,0.06582636,0.12652668,0.25950177
54013,0,USWestVirginiaCalhoun,West Virginia,Calhoun,2021-04-04 02:03:55.702006,2020-05-18 00:00:00.000000,0.19434267,0.40431756,0.73440634,13,28,52,8,16,31,0.12509684,0.22665383,0.44343678,0.06318234,0.12299039,0.27090078
54013,0,USWestVirginiaCalhoun,West Virginia,Calhoun,2021-04-04 02:03:55.702006,2020-05-19 00:00:00.000000,0.18455854,0.39006522,0.71171469,13,27,50,8,16,31,0.12509567,0.22597966,0.44526570,0.06340911,0.12210193,0.27829013
54013,0,USWestVirginiaCalhoun,West Virginia,Calhoun,2021-04-04 02:03:55.702006,2020-05-20 00:00:00.000000,0.17491028,0.36893889,0.68859192,12,26,48,8,15,31,0.12161082,0.22246063,0.43801322,0.06213320,0.12253101,0.28203547
54013,0,USWestVirginiaCalhoun,West Virginia,Calhoun,2021-04-04 02:03:55.702006,2020-05-21 00:00:00.000000,0.16556153,0.34703795,0.66391920,11,24,47,8,15,30,0.11606171,0.21306013,0.42457223,0.06176129,0.12206849,0.28047794
54013,0,USWestVirginiaCalhoun,West Virginia,Calhoun,2021-04-04 02:03:55.702006,2020-05-22 00:00:00.000000,0.15405218,0.32282242,0.63859160,10,22,45,7,14,28,0.10938524,0.20476664,0.40678768,0.06184157,0.11975997,0.26966752
54013,0,USWestVirginiaCalhoun,West Virginia,Calhoun,2021-04-04 02:03:55.702006,2020-05-23 00:00:00.000000,0.14202655,0.30619444,0.61305035,10,21,43,7,14,27,0.10196870,0.19914711,0.38628117,0.06125282,0.11480565,0.26101886
54013,0,USWestVirginiaCalhoun,West Virginia,Calhoun,2021-04-04 02:03:55.702006,2020-05-24 00:00:00.000000,0.13076168,0.29004428,0.58737575,9,20,41,6,13,25,0.09420786,0.19074725,0.36441159,0.06082345,0.11187737,0.25232138
54013,0,USWestVirginiaCalhoun,West Virginia,Calhoun,2021-04-04 02:03:55.702006,2020-05-25 00:00:00.000000,0.12028909,0.27572718,0.56146593,8,19,39,6,12,24,0.08604453,0.17896881,0.34827412,0.06058921,0.11111373,0.24490574
54013,0,USWestVirginiaCalhoun,West Virginia,Calhoun,2021-04-04 02:03:55.702006,2020-05-26 00:00:00.000000,0.11050099,0.25981783,0.53758890,7,18,38,5,11,24,0.07700147,0.16776450,0.33809906,0.06064368,0.11071886,0.23914182
54013,0,USWestVirginiaCalhoun,West Virginia,Calhoun,2021-04-04 02:03:55.702006,2020-05-27 00:00:00.000000,0.09823408,0.24791886,0.51338938,6,17,36,4,11,23,0.06884803,0.15790843,0.32781325,0.06084756,0.11204742,0.24050365
54013,0,USWestVirginiaCalhoun,West Virginia,Calhoun,2021-04-04 02:03:55.702006,2020-05-28 00:00:00.000000,0.08733439,0.24046405,0.48325500,6,17,34,4,10,22,0.06150678,0.14850774,0.31720201,0.06134607,0.11390251,0.22764153
54013,0,USWestVirginiaCalhoun,West Virginia,Calhoun,2021-04-04 02:03:55.702006,2020-05-29 00:00:00.000000,0.07769931,0.22669963,0.45726032,5,16,32,3,9,21,0.05488897,0.13942129,0.30604183,0.06055236,0.11255405,0.22584563
54013,0,USWestVirginiaCalhoun,West Virginia,Calhoun,2021-04-04 02:03:55.702006,2020-05-30 00:00:00.000000,0.06920809,0.20961739,0.43644014,4,14,31,3,9,20,0.04891690,0.13216824,0.29432854,0.06010331,0.11101110,0.22803093
54013,0,USWestVirginiaCalhoun,West Virginia,Calhoun,2021-04-04 02:03:55.702006,2020-05-31 00:00:00.000000,0.06171628,0.19364895,0.41598073,4,13,29,3,8,20,0.04353811,0.12403051,0.28225081,0.05627268,0.10903318,0.22941484
54013,0,USWestVirginiaCalhoun,West Virginia,Calhoun,2021-04-04 02:03:55.702006,2020-06-01 00:00:00.000000,0.05508732,0.17906375,0.39610350,3,12,28,2,8,19,0.03871900,0.11637340,0.27004280,0.05546324,0.10466749,0.22686965
54013,0,USWestVirginiaCalhoun,West Virginia,Calhoun,2021-04-04 02:03:55.702006,2020-06-02 00:00:00.000000,0.04920842,0.16762434,0.37692755,3,11,26,2,7,18,0.03440622,0.10988949,0.25692324,0.05255011,0.10631356,0.21637889
54013,0,USWestVirginiaCalhoun,West Virginia,Calhoun,2021-04-04 02:03:55.702006,2020-06-03 00:00:00.000000,0.04399299,0.15636085,0.36512475,3,11,25,2,7,17,0.03055669,0.10266112,0.24638787,0.05322659,0.10454367,0.20759721
54013,0,USWestVirginiaCalhoun,West Virginia,Calhoun,2021-04-04 02:03:55.702006,2020-06-04 00:00:00.000000,0.03938241,0.14647950,0.35502039,2,10,25,1,6,16,0.02712699,0.09740606,0.23509346,0.05464812,0.10523309,0.20299390
54013,0,USWestVirginiaCalhoun,West Virginia,Calhoun,2021-04-04 02:03:55.702006,2020-06-05 00:00:00.000000,0.03533528,0.13731180,0.33272572,2,9,23,1,6,15,0.02407507,0.09090295,0.22417135,0.05621473,0.10508669,0.20173045
54013,0,USWestVirginiaCalhoun,West Virginia,Calhoun,2021-04-04 02:03:55.702006,2020-06-06 00:00:00.000000,0.03146084,0.12748098,0.31148954,2,9,22,1,6,15,0.02136064,0.08481017,0.21367144,0.05626300,0.10861224,0.20244368
54013,0,USWestVirginiaCalhoun,West Virginia,Calhoun,2021-04-04 02:03:55.702006,2020-06-07 00:00:00.000000,0.02782891,0.11806523,0.29503897,1,8,20,1,5,14,0.01894142,0.07942711,0.20363777,0.05922010,0.10855944,0.19860004
54013,0,USWestVirginiaCalhoun,West Virginia,Calhoun,2021-04-04 02:03:55.702006,2020-06-08 00:00:00.000000,0.02458280,0.10931142,0.28179949,1,7,20,1,5,13,0.01677385,0.07440516,0.19406911,0.05921721,0.10820008,0.20060590
54013,0,USWestVirginiaCalhoun,West Virginia,Calhoun,2021-04-04 02:03:55.702006,2020-06-09 00:00:00.000000,0.02169847,0.10143203,0.26974844,1,7,19,1,4,13,0.01483341,0.06844603,0.18500502,0.05922189,0.10812916,0.20346365
54013,0,USWestVirginiaCalhoun,West Virginia,Calhoun,2021-04-04 02:03:55.702006,2020-06-10 00:00:00.000000,0.01914074,0.09549999,0.25861117,1,6,18,0,4,12,0.01310329,0.06392232,0.17656915,0.05925777,0.10457719,0.20767703
54013,0,USWestVirginiaCalhoun,West Virginia,Calhoun,2021-04-04 02:03:55.702006,2020-06-11 00:00:00.000000,0.01687546,0.08943161,0.24833104,1,6,17,0,4,11,0.01156573,0.05939794,0.16877247,0.05941862,0.10337330,0.21195673
54013,0,USWestVirginiaCalhoun,West Virginia,Calhoun,2021-04-04 02:03:55.702006,2020-06-12 00:00:00.000000,0.01487082,0.08430453,0.23872331,1,5,16,0,3,11,0.01020230,0.05519488,0.16157641,0.05546510,0.10062437,0.20924119
54013,0,USWestVirginiaCalhoun,West Virginia,Calhoun,2021-04-04 02:03:55.702006,2020-06-13 00:00:00.000000,0.01309746,0.08079947,0.22960847,0,5,16,0,3,11,0.00899487,0.05128951,0.15490813,0.05514995,0.10577057,0.21195327
54013,0,USWestVirginiaCalhoun,West Virginia,Calhoun,2021-04-04 02:03:55.702006,2020-06-14 00:00:00.000000,0.01152815,0.07773871,0.22082078,0,5,15,0,3,10,0.00792635,0.04851365,0.14868135,0.05418824,0.10674624,0.21732846
54013,0,USWestVirginiaCalhoun,West Virginia,Calhoun,2021-04-04 02:03:55.702006,2020-06-15 00:00:00.000000,0.01013723,0.07409529,0.21217171,0,5,15,0,3,10,0.00698080,0.04610049,0.14280472,0.05379103,0.10608925,0.21747223
54013,0,USWestVirginiaCalhoun,West Virginia,Calhoun,2021-04-04 02:03:55.702006,2020-06-16 00:00:00.000000,0.00890327,0.07031197,0.20348450,0,4,14,0,3,9,0.00614333,0.04349825,0.13717886,0.05371541,0.10643782,0.21749176
54013,0,USWestVirginiaCalhoun,West Virginia,Calhoun,2021-04-04 02:03:55.702006,2020-06-17 00:00:00.000000,0.00781043,0.06578445,0.19473058,0,4,13,0,2,9,0.00540065,0.04061966,0.13292823,0.04940459,0.10543882,0.21751609
54013,0,USWestVirginiaCalhoun,West Virginia,Calhoun,2021-04-04 02:03:55.702006,2020-06-18 00:00:00.000000,0.00684298,0.06100150,0.18781363,0,4,13,0,2,9,0.00474213,0.03853771,0.13165683,0.04451568,0.10432848,0.21745921
54013,0,USWestVirginiaCalhoun,West Virginia,Calhoun,2021-04-04 02:03:55.702006,2020-06-19 00:00:00.000000,0.00598768,0.05621554,0.18721792,0,3,13,0,2,9,0.00415873,0.03599366,0.13064286,0.04332806,0.10364692,0.21711339
54013,0,USWestVirginiaCalhoun,West Virginia,Calhoun,2021-04-04 02:03:55.702006,2020-06-20 00:00:00.000000,0.00523291,0.05249649,0.18671201,0,3,13,0,2,9,0.00364249,0.03323732,0.12983485,0.04283180,0.10459699,0.21553537
54013,0,USWestVirginiaCalhoun,West Virginia,Calhoun,2021-04-04 02:03:55.702006,2020-06-21 00:00:00.000000,0.00456840,0.04904462,0.17982513,0,3,12,0,2,8,0.00318637,0.03093917,0.12481108,0.04443951,0.10395475,0.20937036
54013,0,USWestVirginiaCalhoun,West Virginia,Calhoun,2021-04-04 02:03:55.702006,2020-06-22 00:00:00.000000,0.02577239,0.06900667,0.20330041,1,4,14,0,2,8,0.00278417,0.02930228,0.11860119,0.04657602,0.10319681,0.19944146
54013,0,USWestVirginiaCalhoun,West Virginia,Calhoun,2021-04-04 02:03:55.702006,2020-06-23 00:00:00.000000,0.03686202,0.09152829,0.22721752,2,6,16,0,2,8,0.00895791,0.03222503,0.12096379,0.04659516,0.10242872,0.19537368
54013,0,USWestVirginiaCalhoun,West Virginia,Calhoun,2021-04-04 02:03:55.702006,2020-06-24 00:00:00.000000,0.04228520,0.11100946,0.25188376,3,7,17,1,2,9,0.01768267,0.04087835,0.12871584,0.04572673,0.10239898,0.19696265
54013,0,USWestVirginiaCalhoun,West Virginia,Calhoun,2021-04-04 02:03:55.702006,2020-06-25 00:00:00.000000,0.05316171,0.12870249,0.27715932,3,9,19,1,3,9,0.01936432,0.05075326,0.13974792,0.04593974,0.10184613,0.20720687
54013,0,USWestVirginiaCalhoun,West Virginia,Calhoun,2021-04-04 02:03:55.702006,2020-06-26 00:00:00.000000,0.05735177,0.15145558,0.30197449,4,10,21,1,4,10,0.02403828,0.05975848,0.15266396,0.04601053,0.10297041,0.21194567
54013,0,USWestVirginiaCalhoun,West Virginia,Calhoun,2021-04-04 02:03:55.702006,2020-06-27 00:00:00.000000,0.06144336,0.16995648,0.33185132,4,12,23,2,4,11,0.02919220,0.07014856,0.16653777,0.04603339,0.10083792,0.19581068
54013,0,USWestVirginiaCalhoun,West Virginia,Calhoun,2021-04-04 02:03:55.702006,2020-06-28 00:00:00.000000,0.06538593,0.18782615,0.36973353,4,13,26,2,5,12,0.03254993,0.07943147,0.18076171,0.04604070,0.10262787,0.18632024
54013,0,USWestVirginiaCalhoun,West Virginia,Calhoun,2021-04-04 02:03:55.702006,2020-06-29 00:00:00.000000,0.09712553,0.20575762,0.37842346,6,14,26,2,6,13,0.03515764,0.08846895,0.19524395,0.04604305,0.10131570,0.18804479
54013,0,USWestVirginiaCalhoun,West Virginia,Calhoun,2021-04-04 02:03:55.702006,2020-06-30 00:00:00.000000,0.10691654,0.22235870,0.40035322,7,15,28,3,7,14,0.04285235,0.09925408,0.20960784,0.04604392,0.10336255,0.17378830
54013,0,USWestVirginiaCalhoun,West Virginia,Calhoun,2021-04-04 02:03:55.702006,2020-07-01 00:00:00.000000,0.11407236,0.23721266,0.41123015,8,16,29,3,7,15,0.05207968,0.10998862,0.21996256,0.04604497,0.10447731,0.16928166
54013,0,USWestVirginiaCalhoun,West Virginia,Calhoun,2021-04-04 02:03:55.702006,2020-07-02 00:00:00.000000,0.12105295,0.25171964,0.42868388,8,17,30,4,8,16,0.05814831,0.12257073,0.23321153,0.04605075,0.10161802,0.17317183
54013,0,USWestVirginiaCalhoun,West Virginia,Calhoun,2021-04-04 02:03:55.702006,2020-07-03 00:00:00.000000,0.12672446,0.26534268,0.46893176,9,18,33,4,9,17,0.06149869,0.13206812,0.24839613,0.04609198,0.09905546,0.17219528
54013,0,USWestVirginiaCalhoun,West Virginia,Calhoun,2021-04-04 02:03:55.702006,2020-07-04 00:00:00.000000,0.13242557,0.27796482,0.50931146,9,19,36,4,10,18,0.06461822,0.14106081,0.26342134,0.04638514,0.09545976,0.17212237
54013,0,USWestVirginiaCalhoun,West Virginia,Calhoun,2021-04-04 02:03:55.702006,2020-07-05 00:00:00.000000,0.13590435,0.29030787,0.55026717,9,20,39,4,10,19,0.06753636,0.15120649,0.27834295,0.04698419,0.09507122,0.18059521
54013,0,USWestVirginiaCalhoun,West Virginia,Calhoun,2021-04-04 02:03:55.702006,2020-07-06 00:00:00.000000,0.15637311,0.30710180,0.57305614,11,21,40,4,11,21,0.07027362,0.16019834,0.30827062,0.04783459,0.09542990,0.18288332
54013,0,USWestVirginiaCalhoun,West Virginia,Calhoun,2021-04-04 02:03:55.702006,2020-07-07 00:00:00.000000,0.17022123,0.32266972,0.56026617,12,22,39,5,11,23,0.08139358,0.16639712,0.32761326,0.04714152,0.09563723,0.18299909
54013,0,USWestVirginiaCalhoun,West Virginia,Calhoun,2021-04-04 02:03:55.702006,2020-07-08 00:00:00.000000,0.18426493,0.33159461,0.56409491,13,23,40,6,12,23,0.09435141,0.17154903,0.32488093,0.04646568,0.09499302,0.18304299
54013,0,USWestVirginiaCalhoun,West Virginia,Calhoun,2021-04-04 02:03:55.702006,2020-07-09 00:00:00.000000,0.19826882,0.35224274,0.56529092,14,25,40,7,12,24,0.10238680,0.18011828,0.33845803,0.04589520,0.09464329,0.18303452
54013,0,USWestVirginiaCalhoun,West Virginia,Calhoun,2021-04-04 02:03:55.702006,2020-07-10 00:00:00.000000,0.21100042,0.36652401,0.57092048,15,26,40,7,13,25,0.10571915,0.18544114,0.35278325,0.04544745,0.09411071,0.18279077
54013,0,USWestVirginiaCalhoun,West Virginia,Calhoun,2021-04-04 02:03:55.702006,2020-07-11 00:00:00.000000,0.21939265,0.37070254,0.58805926,15,26,41,7,13,25,0.10526792,0.18792636,0.35704938,0.04508861,0.09359223,0.18055502
54013,0,USWestVirginiaCalhoun,West Virginia,Calhoun,2021-04-04 02:03:55.702006,2020-07-12 00:00:00.000000,0.21091526,0.38174801,0.62396047,14,27,44,7,14,25,0.10560073,0.19808892,0.35916190,0.04481279,0.09525377,0.17452740
54013,0,USWestVirginiaCalhoun,West Virginia,Calhoun,2021-04-04 02:03:55.702006,2020-07-13 00:00:00.000000,0.23497176,0.38446492,0.61772978,16,27,43,7,14,25,0.10707895,0.20710573,0.35697391,0.04461301,0.09505325,0.16236365
54013,0,USWestVirginiaCalhoun,West Virginia,Calhoun,2021-04-04 02:03:55.702006,2020-07-14 00:00:00.000000,0.23530456,0.38332854,0.61414855,16,27,43,7,15,25,0.11004436,0.21194141,0.35182606,0.04447777,0.09563783,0.16837873
54013,0,USWestVirginiaCalhoun,West Virginia,Calhoun,2021-04-04 02:03:55.702006,2020-07-15 00:00:00.000000,0.23103449,0.38342512,0.63738203,16,27,45,7,15,25,0.10850197,0.21538924,0.35325888,0.04440298,0.09722969,0.16979048
54013,0,USWestVirginiaCalhoun,West Virginia,Calhoun,2021-04-04 02:03:55.702006,2020-07-16 00:00:00.000000,0.22703888,0.37825719,0.64770053,16,26,46,8,15,25,0.11325975,0.21481215,0.35220601,0.04441723,0.09835631,0.16980557
54013,0,USWestVirginiaCalhoun,West Virginia,Calhoun,2021-04-04 02:03:55.702006,2020-07-17 00:00:00.000000,0.22331342,0.38074149,0.63553192,15,27,45,8,15,24,0.11882974,0.21554431,0.34957462,0.04466110,0.09839397,0.16963450
54013,0,USWestVirginiaCalhoun,West Virginia,Calhoun,2021-04-04 02:03:55.702006,2020-07-18 00:00:00.000000,0.21988414,0.37958312,0.62280921,15,26,44,8,15,24,0.12469548,0.21679505,0.34651455,0.04551743,0.09843662,0.17053559
54013,0,USWestVirginiaCalhoun,West Virginia,Calhoun,2021-04-04 02:03:55.702006,2020-07-19 00:00:00.000000,0.21683399,0.37893019,0.61597794,15,26,43,9,15,24,0.13032340,0.21481161,0.34688075,0.04715651,0.10003139,0.16960212
54013,0,USWestVirginiaCalhoun,West Virginia,Calhoun,2021-04-04 02:03:55.702006,2020-07-20 00:00:00.000000,0.21535724,0.38448463,0.60069381,15,27,42,9,15,25,0.12704801,0.21495979,0.35401339,0.04854785,0.10054307,0.16967271
54013,0,USWestVirginiaCalhoun,West Virginia,Calhoun,2021-04-04 02:03:55.702006,2020-07-21 00:00:00.000000,0.21627228,0.38341745,0.59296534,15,27,42,8,14,25,0.12229715,0.21016861,0.35842028,0.04919380,0.10085602,0.16973240
54013,0,USWestVirginiaCalhoun,West Virginia,Calhoun,2021-04-04 02:03:55.702006,2020-07-22 00:00:00.000000,0.21527959,0.38996319,0.59688249,15,27,42,8,15,25,0.11694536,0.21496746,0.36094971,0.04957527,0.09935568,0.17459538
54013,0,USWestVirginiaCalhoun,West Virginia,Calhoun,2021-04-04 02:03:55.702006,2020-07-23 00:00:00.000000,0.21099828,0.39212889,0.64171320,14,27,45,7,15,25,0.11219944,0.21846212,0.36219345,0.05014281,0.09975821,0.17824440
54013,0,USWestVirginiaCalhoun,West Virginia,Calhoun,2021-04-04 02:03:55.702006,2020-07-24 00:00:00.000000,0.20492788,0.39927762,0.68559622,14,28,48,8,16,25,0.11369497,0.23015386,0.36256468,0.05087760,0.09998010,0.18176738
54013,0,USWestVirginiaCalhoun,West Virginia,Calhoun,2021-04-04 02:03:55.702006,2020-07-25 00:00:00.000000,0.20778227,0.40267131,0.70653832,14,28,50,8,16,25,0.11724863,0.23140948,0.35952628,0.05090549,0.09943826,0.18216366
54013,0,USWestVirginiaCalhoun,West Virginia,Calhoun,2021-04-04 02:03:55.702006,2020-07-26 00:00:00.000000,0.20723889,0.40899594,0.70732670,14,29,50,8,16,26,0.12095115,0.23479422,0.37106499,0.05068557,0.10011548,0.18239383
54013,0,USWestVirginiaCalhoun,West Virginia,Calhoun,2021-04-04 02:03:55.702006,2020-07-27 00:00:00.000000,0.19679053,0.39130872,0.68414112,13,27,48,8,17,27,0.11873150,0.23966835,0.38970324,0.05173825,0.10159478,0.18302635
54013,0,USWestVirginiaCalhoun,West Virginia,Calhoun,2021-04-04 02:03:55.702006,2020-07-28 00:00:00.000000,0.18380951,0.37263573,0.65438588,13,26,46,8,16,27,0.11571063,0.23209427,0.39069141,0.05176674,0.10253193,0.18419192
54013,0,USWestVirginiaCalhoun,West Virginia,Calhoun,2021-04-04 02:03:55.702006,2020-07-29 00:00:00.000000,0.16987867,0.34777131,0.61600279,12,24,43,7,15,27,0.11013172,0.22312978,0.39344640,0.05165114,0.10143255,0.18596557
54013,0,USWestVirginiaCalhoun,West Virginia,Calhoun,2021-04-04 02:03:55.702006,2020-07-30 00:00:00.000000,0.15615544,0.32853991,0.59342002,11,23,42,7,15,27,0.10163103,0.21550102,0.38981117,0.05209717,0.10231401,0.18838797
54013,0,USWestVirginiaCalhoun,West Virginia,Calhoun,2021-04-04 02:03:55.702006,2020-07-31 00:00:00.000000,0.14252176,0.31202599,0.57345118,10,22,40,6,14,27,0.09125481,0.20768106,0.38192719,0.05212858,0.10219102,0.19142743
54013,0,USWestVirginiaCalhoun,West Virginia,Calhoun,2021-04-04 02:03:55.702006,2020-08-01 00:00:00.000000,0.12533636,0.29090612,0.55538132,8,20,39,5,14,26,0.08125879,0.19857711,0.37128876,0.05215624,0.10258765,0.19493957
54013,0,USWestVirginiaCalhoun,West Virginia,Calhoun,2021-04-04 02:03:55.702006,2020-08-02 00:00:00.000000,0.10987868,0.27132821,0.53859733,7,19,38,5,13,25,0.07191094,0.18841396,0.35894016,0.05131593,0.10113589,0.19865009
54013,0,USWestVirginiaCalhoun,West Virginia,Calhoun,2021-04-04 02:03:55.702006,2020-08-03 00:00:00.000000,0.10724135,0.30240002,0.54624179,7,21,38,4,12,24,0.06334284,0.17518479,0.34560583,0.05058230,0.10210576,0.20206082
54013,0,USWestVirginiaCalhoun,West Virginia,Calhoun,2021-04-04 02:03:55.702006,2020-08-04 00:00:00.000000,0.10253863,0.30510295,0.54963085,7,21,39,4,12,24,0.05851591,0.17391442,0.33796431,0.04997813,0.10248933,0.20442750
54013,0,USWestVirginiaCalhoun,West Virginia,Calhoun,2021-04-04 02:03:55.702006,2020-08-05 00:00:00.000000,0.10784977,0.30985883,0.56275406,7,22,40,4,12,23,0.05910027,0.17105609,0.33412448,0.04941552,0.10525272,0.20320345
54013,0,USWestVirginiaCalhoun,West Virginia,Calhoun,2021-04-04 02:03:55.702006,2020-08-06 00:00:00.000000,0.11075177,0.31849211,0.62788685,7,22,44,4,12,23,0.05651309,0.17189267,0.33277174,0.04887919,0.10686162,0.19679971
54013,0,USWestVirginiaCalhoun,West Virginia,Calhoun,2021-04-04 02:03:55.702006,2020-08-07 00:00:00.000000,0.10999041,0.32109023,0.67215409,7,22,47,3,12,23,0.05481165,0.17146224,0.32994721,0.04840743,0.10484203,0.21075378
54013,0,USWestVirginiaCalhoun,West Virginia,Calhoun,2021-04-04 02:03:55.702006,2020-08-08 00:00:00.000000,0.11197068,0.32475792,0.71537397,7,23,50,4,12,24,0.05762611,0.17690574,0.34906379,0.04803484,0.10629435,0.21315245
54013,0,USWestVirginiaCalhoun,West Virginia,Calhoun,2021-04-04 02:03:55.702006,2020-08-09 00:00:00.000000,0.11401180,0.33221439,0.75735286,8,23,53,4,12,26,0.06036264,0.17687381,0.37010523,0.04776747,0.10798028,0.21958296
54013,0,USWestVirginiaCalhoun,West Virginia,Calhoun,2021-04-04 02:03:55.702006,2020-08-10 00:00:00.000000,0.13271935,0.36376131,0.74876596,9,25,53,4,12,29,0.06288595,0.18205874,0.41164520,0.04759487,0.10989837,0.22499816
54013,0,USWestVirginiaCalhoun,West Virginia,Calhoun,2021-04-04 02:03:55.702006,2020-08-11 00:00:00.000000,0.15070552,0.37443466,0.75944713,10,26,53,4,13,31,0.06454976,0.19308076,0.44212110,0.04672661,0.10841931,0.22579765
54013,0,USWestVirginiaCalhoun,West Virginia,Calhoun,2021-04-04 02:03:55.702006,2020-08-12 00:00:00.000000,0.16172477,0.39182778,0.76598572,11,27,54,4,14,32,0.06950212,0.20110311,0.46306913,0.04555344,0.11106230,0.22710912
54013,0,USWestVirginiaCalhoun,West Virginia,Calhoun,2021-04-04 02:03:55.702006,2020-08-13 00:00:00.000000,0.16365769,0.39918884,0.81425235,11,28,57,5,15,33,0.07780900,0.21142353,0.47725502,0.04472280,0.11550985,0.23004402
54013,0,USWestVirginiaCalhoun,West Virginia,Calhoun,2021-04-04 02:03:55.702006,2020-08-14 00:00:00.000000,0.16524374,0.42701131,0.77235829,11,30,54,6,15,32,0.08637487,0.22014833,0.45543022,0.04377807,0.11647200,0.23224487
54013,0,USWestVirginiaCalhoun,West Virginia,Calhoun,2021-04-04 02:03:55.702006,2020-08-15 00:00:00.000000,0.16660976,0.42920443,0.77407937,11,30,55,6,16,31,0.09475319,0.22997085,0.43708480,0.04424717,0.11581542,0.23298731
54013,0,USWestVirginiaCalhoun,West Virginia,Calhoun,2021-04-04 02:03:55.702006,2020-08-16 00:00:00.000000,0.16785544,0.45525479,0.83066787,11,32,59,7,16,31,0.10272534,0.23538811,0.44462111,0.04540234,0.11572455,0.23355550
54013,0,USWestVirginiaCalhoun,West Virginia,Calhoun,2021-04-04 02:03:55.702006,2020-08-17 00:00:00.000000,0.21788206,0.48767659,0.88995109,15,34,63,7,16,34,0.10483201,0.23362249,0.48099848,0.04489885,0.11522452,0.23348644
54013,0,USWestVirginiaCalhoun,West Virginia,Calhoun,2021-04-04 02:03:55.702006,2020-08-18 00:00:00.000000,0.24091263,0.52047065,0.92625628,17,37,65,7,17,35,0.10788080,0.25043973,0.50401547,0.04404528,0.11492669,0.23350050
54013,0,USWestVirginiaCalhoun,West Virginia,Calhoun,2021-04-04 02:03:55.702006,2020-08-19 00:00:00.000000,0.25561952,0.54001962,0.95084804,18,38,67,8,18,35,0.11841094,0.26572063,0.50602345,0.04397211,0.11429831,0.23352348
54013,0,USWestVirginiaCalhoun,West Virginia,Calhoun,2021-04-04 02:03:55.702006,2020-08-20 00:00:00.000000,0.25442757,0.54971503,0.98663435,18,39,70,8,19,36,0.12137587,0.28115674,0.51199975,0.04582896,0.11964314,0.23352652
54013,0,USWestVirginiaCalhoun,West Virginia,Calhoun,2021-04-04 02:03:55.702006,2020-08-21 00:00:00.000000,0.25039573,0.56594837,1.04296619,17,40,74,9,20,37,0.12867343,0.29019483,0.53376093,0.04595841,0.12133248,0.23346488
54013,0,USWestVirginiaCalhoun,West Virginia,Calhoun,2021-04-04 02:03:55.702006,2020-08-22 00:00:00.000000,0.24710729,0.57273143,1.16706347,17,40,82,9,21,38,0.13734083,0.29667903,0.54852906,0.04599430,0.12227507,0.23313129
54013,0,USWestVirginiaCalhoun,West Virginia,Calhoun,2021-04-04 02:03:55.702006,2020-08-23 00:00:00.000000,0.24684718,0.58917421,1.26438680,17,41,89,9,21,41,0.13873957,0.30183628,0.58472341,0.04648014,0.12099481,0.23173366
54013,0,USWestVirginiaCalhoun,West Virginia,Calhoun,2021-04-04 02:03:55.702006,2020-08-24 00:00:00.000000,0.32407481,0.63170557,1.30563415,23,44,92,9,21,44,0.13704838,0.30633537,0.62267652,0.04736294,0.12474562,0.23393119
54013,0,USWestVirginiaCalhoun,West Virginia,Calhoun,2021-04-04 02:03:55.702006,2020-08-25 00:00:00.000000,0.35772018,0.70980069,1.33269761,25,50,94,10,23,47,0.15089420,0.33012052,0.66271352,0.04777390,0.12489254,0.22600119
54013,0,USWestVirginiaCalhoun,West Virginia,Calhoun,2021-04-04 02:03:55.702006,2020-08-26 00:00:00.000000,0.36459542,0.78926468,1.34750859,25,56,95,12,25,48,0.17336254,0.35705898,0.67966104,0.04806521,0.12714703,0.22610036
54013,0,USWestVirginiaCalhoun,West Virginia,Calhoun,2021-04-04 02:03:55.702006,2020-08-27 00:00:00.000000,0.36317148,0.82201082,1.35704758,25,58,96,13,27,48,0.18390804,0.39154696,0.68870141,0.04824321,0.12859380,0.22700181
54013,0,USWestVirginiaCalhoun,West Virginia,Calhoun,2021-04-04 02:03:55.702006,2020-08-28 00:00:00.000000,0.36596861,0.89141639,1.36101840,26,63,96,14,29,51,0.19716270,0.42184470,0.71792790,0.04880865,0.12904997,0.23322437
54013,0,USWestVirginiaCalhoun,West Virginia,Calhoun,2021-04-04 02:03:55.702006,2020-08-29 00:00:00.000000,0.36854957,0.92373637,1.37445828,26,65,97,14,32,54,0.19918632,0.45317083,0.76445303,0.05091465,0.13126248,0.21465103
54013,0,USWestVirginiaCalhoun,West Virginia,Calhoun,2021-04-04 02:03:55.702006,2020-08-30 00:00:00.000000,0.37098492,0.95670873,1.45209497,26,68,103,14,34,57,0.20625618,0.47927857,0.81449184,0.05588385,0.13279817,0.22797863
54013,0,USWestVirginiaCalhoun,West Virginia,Calhoun,2021-04-04 02:03:55.702006,2020-08-31 00:00:00.000000,0.43615811,0.95055419,1.46802530,31,67,104,14,36,61,0.20239577,0.50689424,0.86377634,0.05772817,0.13559982,0.23558366
54013,0,USWestVirginiaCalhoun,West Virginia,Calhoun,2021-04-04 02:03:55.702006,2020-09-01 00:00:00.000000,0.47789937,0.98946371,1.49021177,33,70,105,14,36,64,0.20479979,0.52005914,0.90158032,0.06038242,0.13685325,0.23570284
54013,0,USWestVirginiaCalhoun,West Virginia,Calhoun,2021-04-04 02:03:55.702006,2020-09-02 00:00:00.000000,0.52207018,0.97320568,1.50647329,37,69,107,15,37,65,0.21319084,0.53215254,0.91818004,0.05865397,0.13917346,0.23559901
54013,0,USWestVirginiaCalhoun,West Virginia,Calhoun,2021-04-04 02:03:55.702006,2020-09-03 00:00:00.000000,0.56626358,0.98666608,1.51914315,40,70,107,16,37,65,0.22753261,0.52627084,0.91529545,0.05806133,0.13938731,0.23500663
54013,0,USWestVirginiaCalhoun,West Virginia,Calhoun,2021-04-04 02:03:55.702006,2020-09-04 00:00:00.000000,0.61292462,1.00206691,1.52941636,43,71,108,17,37,64,0.24480397,0.53186344,0.90318053,0.06306134,0.13960782,0.23267428
54013,0,USWestVirginiaCalhoun,West Virginia,Calhoun,2021-04-04 02:03:55.702006,2020-09-05 00:00:00.000000,0.62781819,1.03842755,1.53772052,44,73,109,18,38,62,0.26515900,0.54322277,0.88545434,0.06688624,0.13768245,0.22508582
54013,0,USWestVirginiaCalhoun,West Virginia,Calhoun,2021-04-04 02:03:55.702006,2020-09-06 00:00:00.000000,0.62160660,1.05183592,1.55108850,44,74,110,20,38,64,0.28788164,0.54017710,0.91337547,0.06553486,0.13339919,0.21263351
54013,0,USWestVirginiaCalhoun,West Virginia,Calhoun,2021-04-04 02:03:55.702006,2020-09-07 00:00:00.000000,0.59808234,1.00903686,1.52119789,42,71,108,21,40,66,0.30114826,0.56617206,0.94114037,0.06495827,0.13881070,0.21052270
54013,0,USWestVirginiaCalhoun,West Virginia,Calhoun,2021-04-04 02:03:55.702006,2020-09-08 00:00:00.000000,0.57477453,1.00475712,1.49297679,40,71,106,22,40,66,0.31142044,0.56551794,0.93054976,0.06756377,0.13952161,0.21623320
54013,0,USWestVirginiaCalhoun,West Virginia,Calhoun,2021-04-04 02:03:55.702006,2020-09-09 00:00:00.000000,0.55166659,0.99856599,1.46536651,39,70,104,21,39,65,0.30898535,0.55937999,0.91466910,0.07049918,0.13771586,0.22024884
54013,0,USWestVirginiaCalhoun,West Virginia,Calhoun,2021-04-04 02:03:55.702006,2020-09-10 00:00:00.000000,0.52948779,0.97626224,1.43737914,37,69,102,21,39,63,0.30237134,0.55797186,0.89523516,0.07347392,0.13709343,0.22187329
54013,0,USWestVirginiaCalhoun,West Virginia,Calhoun,2021-04-04 02:03:55.702006,2020-09-11 00:00:00.000000,0.52042266,0.94030428,1.42252585,36,66,101,21,39,62,0.29710359,0.54987705,0.87286795,0.07532135,0.14005628,0.22235531
54013,0,USWestVirginiaCalhoun,West Virginia,Calhoun,2021-04-04 02:03:55.702006,2020-09-12 00:00:00.000000,0.51630187,0.91061837,1.39534339,36,64,99,20,38,60,0.29291702,0.54558080,0.84748080,0.07382952,0.14090820,0.23033195
54013,0,USWestVirginiaCalhoun,West Virginia,Calhoun,2021-04-04 02:03:55.702006,2020-09-13 00:00:00.000000,0.50090285,0.90952412,1.36750189,35,64,97,20,37,59,0.28300995,0.53134868,0.83524464,0.07262908,0.13793868,0.23838971
54013,0,USWestVirginiaCalhoun,West Virginia,Calhoun,2021-04-04 02:03:55.702006,2020-09-14 00:00:00.000000,0.48119520,0.89962721,1.32752528,34,63,94,19,36,58,0.27533270,0.51967832,0.82703516,0.07224407,0.13757977,0.24245809
54013,0,USWestVirginiaCalhoun,West Virginia,Calhoun,2021-04-04 02:03:55.702006,2020-09-15 00:00:00.000000,0.46509712,0.87871265,1.31280947,33,62,93,19,36,58,0.27219120,0.51371279,0.81760008,0.07301141,0.13931578,0.24323960
54013,0,USWestVirginiaCalhoun,West Virginia,Calhoun,2021-04-04 02:03:55.702006,2020-09-16 00:00:00.000000,0.46452815,0.86805654,1.30387949,33,61,92,18,35,57,0.26240225,0.50604043,0.81258782,0.07605097,0.13786155,0.24293475
54013,0,USWestVirginiaCalhoun,West Virginia,Calhoun,2021-04-04 02:03:55.702006,2020-09-17 00:00:00.000000,0.44663338,0.83798546,1.32422964,31,59,94,18,35,57,0.25428608,0.49290310,0.80839192,0.07383764,0.13541309,0.24155836
54013,0,USWestVirginiaCalhoun,West Virginia,Calhoun,2021-04-04 02:03:55.702006,2020-09-18 00:00:00.000000,0.42162002,0.82118517,1.35404765,29,58,96,17,34,57,0.24310583,0.48370207,0.80413568,0.07277060,0.13653169,0.25294812
54013,0,USWestVirginiaCalhoun,West Virginia,Calhoun,2021-04-04 02:03:55.702006,2020-09-19 00:00:00.000000,0.40203600,0.82392606,1.33556350,28,58,94,16,33,56,0.23369369,0.47632178,0.79955853,0.07407720,0.13435571,0.26322055
54013,0,USWestVirginiaCalhoun,West Virginia,Calhoun,2021-04-04 02:03:55.702006,2020-09-20 00:00:00.000000,0.38915608,0.82488578,1.30833727,27,58,93,16,33,56,0.22599038,0.46942391,0.79726106,0.07534652,0.13755194,0.26599271
54013,0,USWestVirginiaCalhoun,West Virginia,Calhoun,2021-04-04 02:03:55.702006,2020-09-21 00:00:00.000000,0.39374809,0.80583787,1.28397756,27,57,91,15,33,56,0.21830600,0.46529622,0.79106856,0.07604746,0.13386846,0.26667836
54013,0,USWestVirginiaCalhoun,West Virginia,Calhoun,2021-04-04 02:03:55.702006,2020-09-22 00:00:00.000000,0.39916996,0.79380311,1.26022482,28,56,89,15,32,55,0.21454036,0.46123984,0.78365977,0.07695724,0.13498707,0.26685118
54013,0,USWestVirginiaCalhoun,West Virginia,Calhoun,2021-04-04 02:03:55.702006,2020-09-23 00:00:00.000000,0.40324998,0.79448905,1.23711500,28,56,87,15,32,55,0.21344830,0.46118353,0.77594953,0.07759099,0.13510391,0.26688402
54013,0,USWestVirginiaCalhoun,West Virginia,Calhoun,2021-04-04 02:03:55.702006,2020-09-24 00:00:00.000000,0.38216589,0.79314784,1.21452075,27,56,86,15,32,54,0.21415229,0.45945919,0.76818379,0.07896840,0.13857535,0.26675085
54013,0,USWestVirginiaCalhoun,West Virginia,Calhoun,2021-04-04 02:03:55.702006,2020-09-25 00:00:00.000000,0.35684050,0.79051276,1.19959290,25,56,85,15,32,54,0.21603528,0.46308645,0.76124026,0.07924445,0.14110423,0.26618928
54013,0,USWestVirginiaCalhoun,West Virginia,Calhoun,2021-04-04 02:03:55.702006,2020-09-26 00:00:00.000000,0.33460195,0.78264801,1.19843787,23,55,85,14,32,53,0.20467974,0.45397241,0.75717872,0.07669048,0.14463684,0.26468336
54013,0,USWestVirginiaCalhoun,West Virginia,Calhoun,2021-04-04 02:03:55.702006,2020-09-27 00:00:00.000000,0.31524018,0.77951251,1.19786971,22,55,85,13,31,53,0.19281215,0.44363669,0.75435776,0.07715030,0.14880404,0.26331402
54013,0,USWestVirginiaCalhoun,West Virginia,Calhoun,2021-04-04 02:03:55.702006,2020-09-28 00:00:00.000000,0.30842701,0.77762473,1.18425228,21,55,84,12,31,53,0.18146813,0.43888261,0.75241876,0.07838227,0.15131357,0.26199201
54013,0,USWestVirginiaCalhoun,West Virginia,Calhoun,2021-04-04 02:03:55.702006,2020-09-29 00:00:00.000000,0.30419882,0.79056297,1.18914574,21,56,84,12,31,53,0.17471488,0.43645681,0.74811712,0.07953890,0.15100481,0.26084653
54013,0,USWestVirginiaCalhoun,West Virginia,Calhoun,2021-04-04 02:03:55.702006,2020-09-30 00:00:00.000000,0.30201069,0.78798112,1.16650015,21,56,82,12,30,52,0.17076439,0.43593779,0.74416540,0.08361972,0.15179661,0.26025516
54013,0,USWestVirginiaCalhoun,West Virginia,Calhoun,2021-04-04 02:03:55.702006,2020-10-01 00:00:00.000000,0.30177647,0.78014841,1.17632334,21,55,83,11,31,53,0.16855077,0.43704544,0.75535108,0.08455693,0.15605706,0.27116460
54013,0,USWestVirginiaCalhoun,West Virginia,Calhoun,2021-04-04 02:03:55.702006,2020-10-02 00:00:00.000000,0.30617158,0.78052580,1.19272740,21,55,84,11,31,54,0.16760710,0.44036480,0.76800616,0.09142663,0.15914177,0.27944889
54013,0,USWestVirginiaCalhoun,West Virginia,Calhoun,2021-04-04 02:03:55.702006,2020-10-03 00:00:00.000000,0.32393317,0.77688094,1.21475016,23,55,86,11,31,54,0.16787177,0.44286842,0.76745280,0.09726396,0.16356876,0.28664377
54013,0,USWestVirginiaCalhoun,West Virginia,Calhoun,2021-04-04 02:03:55.702006,2020-10-04 00:00:00.000000,0.34055466,0.78976442,1.23852390,24,56,88,12,32,54,0.16957279,0.45060117,0.76927737,0.09634371,0.16748136,0.29194079
54013,0,USWestVirginiaCalhoun,West Virginia,Calhoun,2021-04-04 02:03:55.702006,2020-10-05 00:00:00.000000,0.33672234,0.79577705,1.25462721,23,56,89,12,31,54,0.17253080,0.44903470,0.76298739,0.09606024,0.16901146,0.30324689
54013,0,USWestVirginiaCalhoun,West Virginia,Calhoun,2021-04-04 02:03:55.702006,2020-10-06 00:00:00.000000,0.35650897,0.79558520,1.28188047,25,56,91,12,31,54,0.18029043,0.44946721,0.76712568,0.09622660,0.17250513,0.31210608
54013,0,USWestVirginiaCalhoun,West Virginia,Calhoun,2021-04-04 02:03:55.702006,2020-10-07 00:00:00.000000,0.37724111,0.81220101,1.30727731,26,57,92,13,32,54,0.19047774,0.45166657,0.76972932,0.10422089,0.17308677,0.31274373
54013,0,USWestVirginiaCalhoun,West Virginia,Calhoun,2021-04-04 02:03:55.702006,2020-10-08 00:00:00.000000,0.36805949,0.82997416,1.33342974,26,59,94,13,31,54,0.19190445,0.44970780,0.77135618,0.10591043,0.17470574,0.31293869
54013,0,USWestVirginiaCalhoun,West Virginia,Calhoun,2021-04-04 02:03:55.702006,2020-10-09 00:00:00.000000,0.35975611,0.83261023,1.39841726,25,59,99,13,32,54,0.18717066,0.45158236,0.77228727,0.10795098,0.17945818,0.31788143
54013,0,USWestVirginiaCalhoun,West Virginia,Calhoun,2021-04-04 02:03:55.702006,2020-10-10 00:00:00.000000,0.35812955,0.83614162,1.50604287,25,59,107,12,32,55,0.18283048,0.45261840,0.78005561,0.11840561,0.18712771,0.32593287
54013,0,USWestVirginiaCalhoun,West Virginia,Calhoun,2021-04-04 02:03:55.702006,2020-10-11 00:00:00.000000,0.37363679,0.84395962,1.61161415,26,59,114,13,32,57,0.18466216,0.45982871,0.80700968,0.12734238,0.19155630,0.33070022
54013,0,USWestVirginiaCalhoun,West Virginia,Calhoun,2021-04-04 02:03:55.702006,2020-10-12 00:00:00.000000,0.40380583,0.84748457,1.63106653,28,60,115,13,32,59,0.19264821,0.46334647,0.83416021,0.13070445,0.19538587,0.33300206
54013,0,USWestVirginiaCalhoun,West Virginia,Calhoun,2021-04-04 02:03:55.702006,2020-10-13 00:00:00.000000,0.40744782,0.86417198,1.64464259,28,61,116,14,33,60,0.20664510,0.46556351,0.85422017,0.13100602,0.20006702,0.33412522
54013,0,USWestVirginiaCalhoun,West Virginia,Calhoun,2021-04-04 02:03:55.702006,2020-10-14 00:00:00.000000,0.41200082,0.85360592,1.65173901,29,60,117,14,33,62,0.20615938,0.46950878,0.87812256,0.12961146,0.20425314,0.33571319
54013,0,USWestVirginiaCalhoun,West Virginia,Calhoun,2021-04-04 02:03:55.702006,2020-10-15 00:00:00.000000,0.41738447,0.87308255,1.65407140,29,62,117,14,33,64,0.20600094,0.47534764,0.90567692,0.12824083,0.20790420,0.34481526
54013,0,USWestVirginiaCalhoun,West Virginia,Calhoun,2021-04-04 02:03:55.702006,2020-10-16 00:00:00.000000,0.43209300,0.86922981,1.68790268,30,61,119,14,34,65,0.20608353,0.48469046,0.91809510,0.12765318,0.20973730,0.35568534
54013,0,USWestVirginiaCalhoun,West Virginia,Calhoun,2021-04-04 02:03:55.702006,2020-10-17 00:00:00.000000,0.43346867,0.90104990,1.71216704,30,64,121,14,35,65,0.21009616,0.50472034,0.92788919,0.12777950,0.21498481,0.36316525
54013,0,USWestVirginiaCalhoun,West Virginia,Calhoun,2021-04-04 02:03:55.702006,2020-10-18 00:00:00.000000,0.43919529,0.92376924,1.73014911,31,65,122,15,36,66,0.21356596,0.50786392,0.93648213,0.12871189,0.21940107,0.37270862
54013,0,USWestVirginiaCalhoun,West Virginia,Calhoun,2021-04-04 02:03:55.702006,2020-10-19 00:00:00.000000,0.44615287,0.93966242,1.74712984,31,66,124,15,37,67,0.21686477,0.52342302,0.94533102,0.13044597,0.22264320,0.38397713
54013,0,USWestVirginiaCalhoun,West Virginia,Calhoun,2021-04-04 02:03:55.702006,2020-10-20 00:00:00.000000,0.45755709,0.96041967,1.78930571,32,68,127,15,37,69,0.21999543,0.53188432,0.97183361,0.13390227,0.23424135,0.39580294
54013,0,USWestVirginiaCalhoun,West Virginia,Calhoun,2021-04-04 02:03:55.702006,2020-10-21 00:00:00.000000,0.45786197,0.99920308,1.83141861,32,71,130,15,38,70,0.22315031,0.54134549,0.99827213,0.15419660,0.24525043,0.40712715
54013,0,USWestVirginiaCalhoun,West Virginia,Calhoun,2021-04-04 02:03:55.702006,2020-10-22 00:00:00.000000,0.46496870,1.01445835,1.93305574,33,72,137,16,39,72,0.22643279,0.55126956,1.02293338,0.16102933,0.25368717,0.41750899
54013,0,USWestVirginiaCalhoun,West Virginia,Calhoun,2021-04-04 02:03:55.702006,2020-10-23 00:00:00.000000,0.47270267,1.07291535,1.94393419,33,76,138,16,40,74,0.22704563,0.56690314,1.04668364,0.16824809,0.26091049,0.42737711
54013,0,USWestVirginiaCalhoun,West Virginia,Calhoun,2021-04-04 02:03:55.702006,2020-10-24 00:00:00.000000,0.48111227,1.11177610,1.96637086,34,79,139,16,40,76,0.22889739,0.57601122,1.07103233,0.17614460,0.26880426,0.44834314
54013,0,USWestVirginiaCalhoun,West Virginia,Calhoun,2021-04-04 02:03:55.702006,2020-10-25 00:00:00.000000,0.49016190,1.12132746,2.03303358,34,79,144,16,41,77,0.23541509,0.58992934,1.09714031,0.18655698,0.27929818,0.47335205
54013,0,USWestVirginiaCalhoun,West Virginia,Calhoun,2021-04-04 02:03:55.702006,2020-10-26 00:00:00.000000,0.52003010,1.17759363,2.11068990,36,83,150,17,43,80,0.24157036,0.60508686,1.12716353,0.19409643,0.29031315,0.50018701
54013,0,USWestVirginiaCalhoun,West Virginia,Calhoun,2021-04-04 02:03:55.702006,2020-10-27 00:00:00.000000,0.55245261,1.25107156,2.19109595,39,88,155,17,45,82,0.24794351,0.63908059,1.16522308,0.19769226,0.31042146,0.52764237
54013,0,USWestVirginiaCalhoun,West Virginia,Calhoun,2021-04-04 02:03:55.702006,2020-10-28 00:00:00.000000,0.56407467,1.30965264,2.27370136,40,93,161,18,47,86,0.25532860,0.66622701,1.21250620,0.21276361,0.31630567,0.55246113
54013,0,USWestVirginiaCalhoun,West Virginia,Calhoun,2021-04-04 02:03:55.702006,2020-10-29 00:00:00.000000,0.59796668,1.38396768,2.35839603,42,98,167,18,49,90,0.26338445,0.69175124,1.26697715,0.22176777,0.32428792,0.57131773
54013,0,USWestVirginiaCalhoun,West Virginia,Calhoun,2021-04-04 02:03:55.702006,2020-10-30 00:00:00.000000,0.65345233,1.47328955,2.44489104,46,104,173,19,51,94,0.27759738,0.72129968,1.32676639,0.23317534,0.33319834,0.58258637
54013,0,USWestVirginiaCalhoun,West Virginia,Calhoun,2021-04-04 02:03:55.702006,2020-10-31 00:00:00.000000,0.70889180,1.52272346,2.53248132,50,108,180,21,52,98,0.30551212,0.74470861,1.39067027,0.23777221,0.34498108,0.58897641
54013,0,USWestVirginiaCalhoun,West Virginia,Calhoun,2021-04-04 02:03:55.702006,2020-11-01 00:00:00.000000,0.76449569,1.57926558,2.62018310,54,112,186,23,55,103,0.33353080,0.78039935,1.45795354,0.24477837,0.35513729,0.61922379
54013,0,USWestVirginiaCalhoun,West Virginia,Calhoun,2021-04-04 02:03:55.702006,2020-11-02 00:00:00.000000,0.78517241,1.64633897,2.74275618,55,117,194,25,58,108,0.36160437,0.82798309,1.52817574,0.25875015,0.37230226,0.62895146
54013,0,USWestVirginiaCalhoun,West Virginia,Calhoun,2021-04-04 02:03:55.702006,2020-11-03 00:00:00.000000,0.82658810,1.76368328,2.86578950,58,125,203,27,61,113,0.38774221,0.86917403,1.59950020,0.26978730,0.38195515,0.63166291
54013,0,USWestVirginiaCalhoun,West Virginia,Calhoun,2021-04-04 02:03:55.702006,2020-11-04 00:00:00.000000,0.91057432,1.86864090,3.00093119,64,132,213,29,64,118,0.41305455,0.91426864,1.67208656,0.27083413,0.39229414,0.62632110
54013,0,USWestVirginiaCalhoun,West Virginia,Calhoun,2021-04-04 02:03:55.702006,2020-11-05 00:00:00.000000,0.98786039,1.99292269,3.15480840,70,141,224,31,69,122,0.43820606,0.97456123,1.72570953,0.27887194,0.40367687,0.63175906
54013,0,USWestVirginiaCalhoun,West Virginia,Calhoun,2021-04-04 02:03:55.702006,2020-11-06 00:00:00.000000,1.06601896,2.14462408,3.31814737,75,152,235,32,74,126,0.46353703,1.04487376,1.77848498,0.28986569,0.41385538,0.64161937
54013,0,USWestVirginiaCalhoun,West Virginia,Calhoun,2021-04-04 02:03:55.702006,2020-11-07 00:00:00.000000,1.11982035,2.27337273,3.48869252,79,161,248,35,79,130,0.49691160,1.11464989,1.83055845,0.29537311,0.43016226,0.65203470
54013,0,USWestVirginiaCalhoun,West Virginia,Calhoun,2021-04-04 02:03:55.702006,2020-11-08 00:00:00.000000,1.18056860,2.41278088,3.66434722,83,171,260,38,85,133,0.53719673,1.20561344,1.88216313,0.29365849,0.43603769,0.65454582
54013,0,USWestVirginiaCalhoun,West Virginia,Calhoun,2021-04-04 02:03:55.702006,2020-11-09 00:00:00.000000,1.28266755,2.55970702,3.86190686,91,181,274,39,92,137,0.55542223,1.29641430,1.93350911,0.29434560,0.44195077,0.65493712
54013,0,USWestVirginiaCalhoun,West Virginia,Calhoun,2021-04-04 02:03:55.702006,2020-11-10 00:00:00.000000,1.38703145,2.74109805,4.09552546,98,194,291,43,98,145,0.60694742,1.38074437,2.05351983,0.29320155,0.45213147,0.66404958
54013,0,USWestVirginiaCalhoun,West Virginia,Calhoun,2021-04-04 02:03:55.702006,2020-11-11 00:00:00.000000,1.49611463,2.92601455,4.38825903,106,208,311,46,103,156,0.66023903,1.46275119,2.20482122,0.29357770,0.45616954,0.66110529
54013,0,USWestVirginiaCalhoun,West Virginia,Calhoun,2021-04-04 02:03:55.702006,2020-11-12 00:00:00.000000,1.60993109,3.09498807,4.68969614,114,220,333,50,111,168,0.71581167,1.56240215,2.36727664,0.29949653,0.45627004,0.67337373
54013,0,USWestVirginiaCalhoun,West Virginia,Calhoun,2021-04-04 02:03:55.702006,2020-11-13 00:00:00.000000,1.73257929,3.28464219,4.90592936,123,233,348,55,117,179,0.77404293,1.65932307,2.52377851,0.31456212,0.45399356,0.70468891
54013,0,USWestVirginiaCalhoun,West Virginia,Calhoun,2021-04-04 02:03:55.702006,2020-11-14 00:00:00.000000,1.87583163,3.51284801,5.14226649,133,249,365,59,124,192,0.83479493,1.75044098,2.70412699,0.31787976,0.45487935,0.69266182
54013,0,USWestVirginiaCalhoun,West Virginia,Calhoun,2021-04-04 02:03:55.702006,2020-11-15 00:00:00.000000,1.97946314,3.72406358,5.44514330,140,264,387,63,132,204,0.89790463,1.86170317,2.88272116,0.31920297,0.46168941,0.69927476
54013,0,USWestVirginiaCalhoun,West Virginia,Calhoun,2021-04-04 02:03:55.702006,2020-11-16 00:00:00.000000,2.09669194,3.91431730,5.62129032,149,278,399,68,139,217,0.96404679,1.96838830,3.06075624,0.32605624,0.46257502,0.70244323
54013,0,USWestVirginiaCalhoun,West Virginia,Calhoun,2021-04-04 02:03:55.702006,2020-11-17 00:00:00.000000,2.21753854,4.12834553,5.88650771,157,293,418,73,147,229,1.03585664,2.06972877,3.23371861,0.32284935,0.46095527,0.68502467
54013,0,USWestVirginiaCalhoun,West Virginia,Calhoun,2021-04-04 02:03:55.702006,2020-11-18 00:00:00.000000,2.33968834,4.35453439,6.31390568,166,309,448,78,153,242,1.10984187,2.15767989,3.40507328,0.32101215,0.46140533,0.65770565
54013,0,USWestVirginiaCalhoun,West Virginia,Calhoun,2021-04-04 02:03:55.702006,2020-11-19 00:00:00.000000,2.46112190,4.58037817,6.70603047,174,325,476,84,161,254,1.18851086,2.26554704,3.57432442,0.31721214,0.46072638,0.64243074
54013,0,USWestVirginiaCalhoun,West Virginia,Calhoun,2021-04-04 02:03:55.702006,2020-11-20 00:00:00.000000,2.61640300,4.79963638,6.88069778,186,341,489,90,168,265,1.26935990,2.37284610,3.73304710,0.30853880,0.44966459,0.63544952
54013,0,USWestVirginiaCalhoun,West Virginia,Calhoun,2021-04-04 02:03:55.702006,2020-11-21 00:00:00.000000,2.77889769,5.00738318,7.04407012,197,355,500,96,177,274,1.35130064,2.50289352,3.86749861,0.29539022,0.43508286,0.60953332
54013,0,USWestVirginiaCalhoun,West Virginia,Calhoun,2021-04-04 02:03:55.702006,2020-11-22 00:00:00.000000,2.94566490,5.20977357,7.31680539,209,370,520,101,186,289,1.42336095,2.63030370,4.07585674,0.29410915,0.41246588,0.58996016
54013,0,USWestVirginiaCalhoun,West Virginia,Calhoun,2021-04-04 02:03:55.702006,2020-11-23 00:00:00.000000,3.05772948,5.38382816,7.50465980,217,382,533,106,195,306,1.49581329,2.75463601,4.30633632,0.29365882,0.38829734,0.56535530
54013,0,USWestVirginiaCalhoun,West Virginia,Calhoun,2021-04-04 02:03:55.702006,2020-11-24 00:00:00.000000,3.17122965,5.58722418,7.71508719,225,397,548,111,204,316,1.56444180,2.87543228,4.45152586,0.29325207,0.37743576,0.54699261
54013,0,USWestVirginiaCalhoun,West Virginia,Calhoun,2021-04-04 02:03:55.702006,2020-11-25 00:00:00.000000,3.25454983,5.73772618,7.98903734,231,407,567,115,211,324,1.62192246,2.96966985,4.56300767,0.28145313,0.36639873,0.54632389
54013,0,USWestVirginiaCalhoun,West Virginia,Calhoun,2021-04-04 02:03:55.702006,2020-11-26 00:00:00.000000,3.28944932,5.88034070,8.26783457,233,418,587,118,218,331,1.66806281,3.06963628,4.66397584,0.26308819,0.35565861,0.54045911
54013,0,USWestVirginiaCalhoun,West Virginia,Calhoun,2021-04-04 02:03:55.702006,2020-11-27 00:00:00.000000,3.31420714,5.97742640,8.55453053,235,424,608,121,224,339,1.70445095,3.15490193,4.77365524,0.26048356,0.34767425,0.52967050
54013,0,USWestVirginiaCalhoun,West Virginia,Calhoun,2021-04-04 02:03:55.702006,2020-11-28 00:00:00.000000,3.33397384,6.03201331,8.85051988,237,428,629,123,229,352,1.73214390,3.22537660,4.96521575,0.26018883,0.34015104,0.51142418
54013,0,USWestVirginiaCalhoun,West Virginia,Calhoun,2021-04-04 02:03:55.702006,2020-11-29 00:00:00.000000,3.35086208,6.10514222,9.03209343,238,434,642,124,233,364,1.74998763,3.29126927,5.12985054,0.24294880,0.33634875,0.52490815
54013,0,USWestVirginiaCalhoun,West Virginia,Calhoun,2021-04-04 02:03:55.702006,2020-11-30 00:00:00.000000,3.36428626,6.17067579,9.02976711,239,438,641,124,237,374,1.75504039,3.34406624,5.26970167,0.23648690,0.32565205,0.51433551
54013,0,USWestVirginiaCalhoun,West Virginia,Calhoun,2021-04-04 02:03:55.702006,2020-12-01 00:00:00.000000,3.37536179,6.13546195,8.98518378,239,436,638,124,239,381,1.75029510,3.37019498,5.36815980,0.23334570,0.32077834,0.50925483
54013,0,USWestVirginiaCalhoun,West Virginia,Calhoun,2021-04-04 02:03:55.702006,2020-12-02 00:00:00.000000,3.38438333,6.11144039,8.91372281,240,434,633,123,240,382,1.73582331,3.38719119,5.37909127,0.23103325,0.31886924,0.50214610
54013,0,USWestVirginiaCalhoun,West Virginia,Calhoun,2021-04-04 02:03:55.702006,2020-12-03 00:00:00.000000,3.33754914,6.12495859,8.78973002,237,435,624,121,242,381,1.71418899,3.40795734,5.37025381,0.22215465,0.31166956,0.45643987
54013,0,USWestVirginiaCalhoun,West Virginia,Calhoun,2021-04-04 02:03:55.702006,2020-12-04 00:00:00.000000,3.27658690,6.10201902,8.68518955,232,433,617,122,242,382,1.71777322,3.41602641,5.37445034,0.21136421,0.31081334,0.43561013
54013,0,USWestVirginiaCalhoun,West Virginia,Calhoun,2021-04-04 02:03:55.702006,2020-12-05 00:00:00.000000,3.21506368,6.08986960,8.71041821,228,432,619,122,242,387,1.72414923,3.41350348,5.45711345,0.20286142,0.30469944,0.44307332
54013,0,USWestVirginiaCalhoun,West Virginia,Calhoun,2021-04-04 02:03:55.702006,2020-12-06 00:00:00.000000,3.15678857,6.03871655,8.69291369,224,429,617,122,241,393,1.72358919,3.40246640,5.53425366,0.20268486,0.30321739,0.43185647
54013,0,USWestVirginiaCalhoun,West Virginia,Calhoun,2021-04-04 02:03:55.702006,2020-12-07 00:00:00.000000,3.08672425,6.04856369,8.62246301,219,429,612,121,241,398,1.71157437,3.39078503,5.60054454,0.20365102,0.29576061,0.43154880
54013,0,USWestVirginiaCalhoun,West Virginia,Calhoun,2021-04-04 02:03:55.702006,2020-12-08 00:00:00.000000,3.02672074,6.01918499,8.64871222,215,427,614,120,240,402,1.69919981,3.38858449,5.66113432,0.20357181,0.29336313,0.43156571
54013,0,USWestVirginiaCalhoun,West Virginia,Calhoun,2021-04-04 02:03:55.702006,2020-12-09 00:00:00.000000,2.99671462,5.98624745,8.77368586,213,425,623,119,239,406,1.68578750,3.37246850,5.71624967,0.20265191,0.29585508,0.44090444
54013,0,USWestVirginiaCalhoun,West Virginia,Calhoun,2021-04-04 02:03:55.702006,2020-12-10 00:00:00.000000,2.97040699,6.01041414,8.88812137,211,427,631,118,239,409,1.67172714,3.37193004,5.76638946,0.20272878,0.30283378,0.44083716
54013,0,USWestVirginiaCalhoun,West Virginia,Calhoun,2021-04-04 02:03:55.702006,2020-12-11 00:00:00.000000,2.94569057,5.99064697,8.81712932,209,425,626,117,239,413,1.65744356,3.37103817,5.81161812,0.20415034,0.30231415,0.44085362
54013,0,USWestVirginiaCalhoun,West Virginia,Calhoun,2021-04-04 02:03:55.702006,2020-12-12 00:00:00.000000,2.92668225,5.96170335,8.81655122,208,423,626,116,239,415,1.64346188,3.36221302,5.84979260,0.20678903,0.30068804,0.44143919
54013,0,USWestVirginiaCalhoun,West Virginia,Calhoun,2021-04-04 02:03:55.702006,2020-12-13 00:00:00.000000,2.91934353,5.96199418,8.81740086,207,423,626,115,238,415,1.63112886,3.35232253,5.84598299,0.20563336,0.30569892,0.44153641
54013,0,USWestVirginiaCalhoun,West Virginia,Calhoun,2021-04-04 02:03:55.702006,2020-12-14 00:00:00.000000,2.87099928,5.94985882,8.83140064,204,422,627,115,238,409,1.62273651,3.34908405,5.76391664,0.21121586,0.31244599,0.44802062
54013,0,USWestVirginiaCalhoun,West Virginia,Calhoun,2021-04-04 02:03:55.702006,2020-12-15 00:00:00.000000,2.82881420,5.94097553,8.79198983,201,422,625,114,238,403,1.60600691,3.35845115,5.68082096,0.20951561,0.32531297,0.45458809
54013,0,USWestVirginiaCalhoun,West Virginia,Calhoun,2021-04-04 02:03:55.702006,2020-12-16 00:00:00.000000,2.79630942,5.95142697,8.72711303,198,423,620,112,238,399,1.58586348,3.35427663,5.62661030,0.20997315,0.33081576,0.46601244
54013,0,USWestVirginiaCalhoun,West Virginia,Calhoun,2021-04-04 02:03:55.702006,2020-12-17 00:00:00.000000,2.78825170,5.95354235,8.65840482,198,423,615,111,237,397,1.56658196,3.34158458,5.59376710,0.21450766,0.33901429,0.48879594
54013,0,USWestVirginiaCalhoun,West Virginia,Calhoun,2021-04-04 02:03:55.702006,2020-12-18 00:00:00.000000,2.82136921,5.95688157,8.74361502,200,423,621,110,236,394,1.55422957,3.33285171,5.55561670,0.22941663,0.35350315,0.50806065
54013,0,USWestVirginiaCalhoun,West Virginia,Calhoun,2021-04-04 02:03:55.702006,2020-12-19 00:00:00.000000,2.89504142,5.97934162,8.81526827,205,425,626,110,236,391,1.55643908,3.32636566,5.51404626,0.25094797,0.36655327,0.58328879
54013,0,USWestVirginiaCalhoun,West Virginia,Calhoun,2021-04-04 02:03:55.702006,2020-12-20 00:00:00.000000,2.99401709,6.02895939,8.83502695,212,428,628,112,235,388,1.57720699,3.31856999,5.47066964,0.25310172,0.38117862,0.59997216
54013,0,USWestVirginiaCalhoun,West Virginia,Calhoun,2021-04-04 02:03:55.702006,2020-12-21 00:00:00.000000,3.09601301,6.13209815,8.88411668,220,435,631,114,236,385,1.61459947,3.32461955,5.42707658,0.25588760,0.41211681,0.60661100
54013,0,USWestVirginiaCalhoun,West Virginia,Calhoun,2021-04-04 02:03:55.702006,2020-12-22 00:00:00.000000,3.20535960,6.24543093,9.09000775,227,443,646,118,237,382,1.66158391,3.34393530,5.38333235,0.26833713,0.42795302,0.61872163
54013,0,USWestVirginiaCalhoun,West Virginia,Calhoun,2021-04-04 02:03:55.702006,2020-12-23 00:00:00.000000,3.31869302,6.41869802,9.34333522,235,456,664,121,241,379,1.71528216,3.40365880,5.34233982,0.28417394,0.43594773,0.65224765
54013,0,USWestVirginiaCalhoun,West Virginia,Calhoun,2021-04-04 02:03:55.702006,2020-12-24 00:00:00.000000,3.34942904,6.62977241,9.57174939,238,471,680,126,247,381,1.77345946,3.47471977,5.35985137,0.29776188,0.44229650,0.69385860
54013,0,USWestVirginiaCalhoun,West Virginia,Calhoun,2021-04-04 02:03:55.702006,2020-12-25 00:00:00.000000,3.35517747,6.80473720,9.75256659,238,483,693,130,253,390,1.83467591,3.56766813,5.48810631,0.30004938,0.45765858,0.73467842
54013,0,USWestVirginiaCalhoun,West Virginia,Calhoun,2021-04-04 02:03:55.702006,2020-12-26 00:00:00.000000,3.36182547,7.00999489,9.95185265,238,498,707,134,260,399,1.89806692,3.67131269,5.61499302,0.31045064,0.47214335,0.77804733
54013,0,USWestVirginiaCalhoun,West Virginia,Calhoun,2021-04-04 02:03:55.702006,2020-12-27 00:00:00.000000,3.45315071,7.22861563,10.24206008,245,513,728,139,268,399,1.96308003,3.77176734,5.61653175,0.32429612,0.48283376,0.79179122
54013,0,USWestVirginiaCalhoun,West Virginia,Calhoun,2021-04-04 02:03:55.702006,2020-12-28 00:00:00.000000,3.62360057,7.40118793,10.41785770,257,526,740,144,273,405,2.02912931,3.85008234,5.70078787,0.32223446,0.48555411,0.79531024
54013,0,USWestVirginiaCalhoun,West Virginia,Calhoun,2021-04-04 02:03:55.702006,2020-12-29 00:00:00.000000,3.80745075,7.59987079,10.59300037,270,540,753,148,280,416,2.09404535,3.95065770,5.86134517,0.33242212,0.48674865,0.79615341
54013,0,USWestVirginiaCalhoun,West Virginia,Calhoun,2021-04-04 02:03:55.702006,2020-12-30 00:00:00.000000,4.00209591,7.81566817,10.92478986,284,555,776,153,289,425,2.15836081,4.07851617,5.98293261,0.33512761,0.48272083,0.79630384
54013,0,USWestVirginiaCalhoun,West Virginia,Calhoun,2021-04-04 02:03:55.702006,2020-12-31 00:00:00.000000,4.20376081,7.99193573,11.19891983,298,568,796,157,299,436,2.22173486,4.21378590,6.13556668,0.32993229,0.48039367,0.79595278
54013,0,USWestVirginiaCalhoun,West Virginia,Calhoun,2021-04-04 02:03:55.702006,2021-01-01 00:00:00.000000,4.29867884,8.16014205,11.36601655,305,580,808,162,307,447,2.28170694,4.32478472,6.28926022,0.31956209,0.47611496,0.79277028
54013,0,USWestVirginiaCalhoun,West Virginia,Calhoun,2021-04-04 02:03:55.702006,2021-01-02 00:00:00.000000,4.30819668,8.35648423,11.41679990,306,594,811,165,317,455,2.33101983,4.46912704,6.41295238,0.30929943,0.46482044,0.77369932
54013,0,USWestVirginiaCalhoun,West Virginia,Calhoun,2021-04-04 02:03:55.702006,2021-01-03 00:00:00.000000,4.27716359,8.51448298,11.51213663,304,605,818,167,326,465,2.36005551,4.58807038,6.54267073,0.30359413,0.44665181,0.72717224
54013,0,USWestVirginiaCalhoun,West Virginia,Calhoun,2021-04-04 02:03:55.702006,2021-01-04 00:00:00.000000,4.26403051,8.53872288,11.49295904,303,607,817,168,335,478,2.36725313,4.71253747,6.73523222,0.28894000,0.41994363,0.68500534
54013,0,USWestVirginiaCalhoun,West Virginia,Calhoun,2021-04-04 02:03:55.702006,2021-01-05 00:00:00.000000,4.27806533,8.62868473,11.43097111,304,613,812,171,341,486,2.41737090,4.80874362,6.84056910,0.27475537,0.39205119,0.66177768
54013,0,USWestVirginiaCalhoun,West Virginia,Calhoun,2021-04-04 02:03:55.702006,2021-01-06 00:00:00.000000,4.27375671,8.67348872,11.60368566,303,616,824,176,347,496,2.48130609,4.88120043,6.98019268,0.26589684,0.38039239,0.62624897
54013,0,USWestVirginiaCalhoun,West Virginia,Calhoun,2021-04-04 02:03:55.702006,2021-01-07 00:00:00.000000,4.24765718,8.67881101,11.74352016,301,616,834,178,346,502,2.51489100,4.86800512,7.06977199,0.24882891,0.36636951,0.61351571
54013,0,USWestVirginiaCalhoun,West Virginia,Calhoun,2021-04-04 02:03:55.702006,2021-01-08 00:00:00.000000,4.19770077,8.55507658,11.68838236,298,608,830,178,344,506,2.51358193,4.85063940,7.12343911,0.24368019,0.34860602,0.55584202
54013,0,USWestVirginiaCalhoun,West Virginia,Calhoun,2021-04-04 02:03:55.702006,2021-01-09 00:00:00.000000,4.12718726,8.37673788,11.56977205,293,595,822,176,340,509,2.48072815,4.78508886,7.16090178,0.23043764,0.33223971,0.53138732
54013,0,USWestVirginiaCalhoun,West Virginia,Calhoun,2021-04-04 02:03:55.702006,2021-01-10 00:00:00.000000,4.04101923,8.19928308,11.42258490,287,582,812,172,335,510,2.42343514,4.72171962,7.17740744,0.22540535,0.30903226,0.51913934
54013,0,USWestVirginiaCalhoun,West Virginia,Calhoun,2021-04-04 02:03:55.702006,2021-01-11 00:00:00.000000,3.93379683,7.98630488,11.16803341,279,567,793,167,327,508,2.34919462,4.60465673,7.15821377,0.21493677,0.29812103,0.50065917
54013,0,USWestVirginiaCalhoun,West Virginia,Calhoun,2021-04-04 02:03:55.702006,2021-01-12 00:00:00.000000,3.82093105,7.69712224,10.82323571,271,547,769,161,318,505,2.26650739,4.47717208,7.11573579,0.20046460,0.29192689,0.49569125
54013,0,USWestVirginiaCalhoun,West Virginia,Calhoun,2021-04-04 02:03:55.702006,2021-01-13 00:00:00.000000,3.70404586,7.49374747,10.52555040,263,532,748,154,311,501,2.17942179,4.37554290,7.05655061,0.19054077,0.28738199,0.49173916
54013,0,USWestVirginiaCalhoun,West Virginia,Calhoun,2021-04-04 02:03:55.702006,2021-01-14 00:00:00.000000,3.58434713,7.25717196,10.39254212,254,515,738,148,303,489,2.09089130,4.27255388,6.88104524,0.19032086,0.27904776,0.48071362
54013,0,USWestVirginiaCalhoun,West Virginia,Calhoun,2021-04-04 02:03:55.702006,2021-01-15 00:00:00.000000,3.46078985,7.04743219,10.13868181,246,501,720,142,295,473,2.00288024,4.16333392,6.65736242,0.17904584,0.26973118,0.46724158
54013,0,USWestVirginiaCalhoun,West Virginia,Calhoun,2021-04-04 02:03:55.702006,2021-01-16 00:00:00.000000,3.33123096,6.85754264,9.73570620,236,487,692,136,288,456,1.91656156,4.05537174,6.41698135,0.17411786,0.25757667,0.47358679
54013,0,USWestVirginiaCalhoun,West Virginia,Calhoun,2021-04-04 02:03:55.702006,2021-01-17 00:00:00.000000,3.19385383,6.63711095,9.43051627,227,471,670,130,280,439,1.83248587,3.94654619,6.18592826,0.17283044,0.24916735,0.47364096
54013,0,USWestVirginiaCalhoun,West Virginia,Calhoun,2021-04-04 02:03:55.702006,2021-01-18 00:00:00.000000,3.11149059,6.36451717,9.32738347,221,452,663,124,270,427,1.75078522,3.80550369,6.01378222,0.16873821,0.24190923,0.44230207
54013,0,USWestVirginiaCalhoun,West Virginia,Calhoun,2021-04-04 02:03:55.702006,2021-01-19 00:00:00.000000,3.02292568,6.09196291,9.10982755,214,433,647,118,260,410,1.67346973,3.66055979,5.78124969,0.16217640,0.23852694,0.43809382
54013,0,USWestVirginiaCalhoun,West Virginia,Calhoun,2021-04-04 02:03:55.702006,2021-01-20 00:00:00.000000,2.87996879,5.83798238,8.76880150,204,415,623,113,249,401,1.60161537,3.50490329,5.64113854,0.15825151,0.23342641,0.42527456
54013,0,USWestVirginiaCalhoun,West Virginia,Calhoun,2021-04-04 02:03:55.702006,2021-01-21 00:00:00.000000,2.72453909,5.56136965,8.42624621,193,395,599,108,238,391,1.52961111,3.35863923,5.50315998,0.15546115,0.22910709,0.41270606
54013,0,USWestVirginiaCalhoun,West Virginia,Calhoun,2021-04-04 02:03:55.702006,2021-01-22 00:00:00.000000,2.57612132,5.29217439,8.08505339,183,376,574,103,231,381,1.45836566,3.25587468,5.36523361,0.14974083,0.22336072,0.40833693
54013,0,USWestVirginiaCalhoun,West Virginia,Calhoun,2021-04-04 02:03:55.702006,2021-01-23 00:00:00.000000,2.43464901,5.03095334,7.74465297,173,357,550,98,223,371,1.38844793,3.14936965,5.22465738,0.13660915,0.21834805,0.40802872
54013,0,USWestVirginiaCalhoun,West Virginia,Calhoun,2021-04-04 02:03:55.702006,2021-01-24 00:00:00.000000,2.29898985,4.74430342,7.40334715,163,337,526,93,213,360,1.32006644,3.00279935,5.07394532,0.12746629,0.21111884,0.39992829
54013,0,USWestVirginiaCalhoun,West Virginia,Calhoun,2021-04-04 02:03:55.702006,2021-01-25 00:00:00.000000,2.18457860,4.49186424,7.08192379,155,319,503,89,201,345,1.25342924,2.83409881,4.85453408,0.12596702,0.20686425,0.36336966
54013,0,USWestVirginiaCalhoun,West Virginia,Calhoun,2021-04-04 02:03:55.702006,2021-01-26 00:00:00.000000,2.07014769,4.24895393,6.74834851,147,302,479,84,189,329,1.19559124,2.66098506,4.63189498,0.12609322,0.20631874,0.34328164
54013,0,USWestVirginiaCalhoun,West Virginia,Calhoun,2021-04-04 02:03:55.702006,2021-01-27 00:00:00.000000,1.96011935,4.01629605,6.43651245,139,285,457,81,178,313,1.14434599,2.50721488,4.41117853,0.12677014,0.20583190,0.33741394
54013,0,USWestVirginiaCalhoun,West Virginia,Calhoun,2021-04-04 02:03:55.702006,2021-01-28 00:00:00.000000,1.82662972,3.79416766,6.13930951,129,269,436,78,168,300,1.09788879,2.36434006,4.22481490,0.12759853,0.20852768,0.33680077
54013,0,USWestVirginiaCalhoun,West Virginia,Calhoun,2021-04-04 02:03:55.702006,2021-01-29 00:00:00.000000,1.75415830,3.58250605,5.85565785,124,254,416,74,158,286,1.04123614,2.23228176,4.03396115,0.12923823,0.20858366,0.33755057
54013,0,USWestVirginiaCalhoun,West Virginia,Calhoun,2021-04-04 02:03:55.702006,2021-01-30 00:00:00.000000,1.63185559,3.38082256,5.58536467,116,240,397,68,150,273,0.96485626,2.12182012,3.85243263,0.12791663,0.20676344,0.33903477
54013,0,USWestVirginiaCalhoun,West Virginia,Calhoun,2021-04-04 02:03:55.702006,2021-01-31 00:00:00.000000,1.51634258,3.17076738,5.32825534,107,225,378,63,143,261,0.89430122,2.01521132,3.68350190,0.12575873,0.20614101,0.36376875
54013,0,USWestVirginiaCalhoun,West Virginia,Calhoun,2021-04-04 02:03:55.702006,2021-02-01 00:00:00.000000,1.42554514,3.00672704,5.09733655,101,213,362,58,135,250,0.82949744,1.91177717,3.51710568,0.12377808,0.20553238,0.37320036
54013,0,USWestVirginiaCalhoun,West Virginia,Calhoun,2021-04-04 02:03:55.702006,2021-02-02 00:00:00.000000,1.34327208,2.85186746,4.88908611,95,202,347,55,128,238,0.77393671,1.81212634,3.35777376,0.12286677,0.21083126,0.37461220
54013,0,USWestVirginiaCalhoun,West Virginia,Calhoun,2021-04-04 02:03:55.702006,2021-02-03 00:00:00.000000,1.26961010,2.71530175,4.67746912,90,193,332,51,122,227,0.72647510,1.71701094,3.20537029,0.12276652,0.21684446,0.37821496
54013,0,USWestVirginiaCalhoun,West Virginia,Calhoun,2021-04-04 02:03:55.702006,2021-02-04 00:00:00.000000,1.20337924,2.59420702,4.48754047,85,184,319,48,115,217,0.68295808,1.62706061,3.05969052,0.12316368,0.21953479,0.37870623
54013,0,USWestVirginiaCalhoun,West Virginia,Calhoun,2021-04-04 02:03:55.702006,2021-02-05 00:00:00.000000,1.14372883,2.48110651,4.30948861,81,176,306,45,109,207,0.64522129,1.54273210,2.92047434,0.12393954,0.21816544,0.39908596
54013,0,USWestVirginiaCalhoun,West Virginia,Calhoun,2021-04-04 02:03:55.702006,2021-02-06 00:00:00.000000,1.07767411,2.37647346,4.14207588,76,168,294,43,104,198,0.61178881,1.46537634,2.78746265,0.12500204,0.22410627,0.42903969
54013,0,USWestVirginiaCalhoun,West Virginia,Calhoun,2021-04-04 02:03:55.702006,2021-02-07 00:00:00.000000,1.01015793,2.27481841,3.98415719,71,161,283,41,99,189,0.58193894,1.40425423,2.66044947,0.12230639,0.22466126,0.44219598
54013,0,USWestVirginiaCalhoun,West Virginia,Calhoun,2021-04-04 02:03:55.702006,2021-02-08 00:00:00.000000,0.98795637,2.15957849,3.82070731,70,153,271,39,95,180,0.55507380,1.34832429,2.53928722,0.11841560,0.22787280,0.44949068
54013,0,USWestVirginiaCalhoun,West Virginia,Calhoun,2021-04-04 02:03:55.702006,2021-02-09 00:00:00.000000,0.93855423,2.02288512,3.66520997,66,143,260,37,91,172,0.53012202,1.28827514,2.42213033,0.11680395,0.23092216,0.46163047
54013,0,USWestVirginiaCalhoun,West Virginia,Calhoun,2021-04-04 02:03:55.702006,2021-02-10 00:00:00.000000,0.89266923,1.91574834,3.51745542,63,136,250,36,87,164,0.50703425,1.22643293,2.30951431,0.11758626,0.23309041,0.46609287
54013,0,USWestVirginiaCalhoun,West Virginia,Calhoun,2021-04-04 02:03:55.702006,2021-02-11 00:00:00.000000,0.85042078,1.84144541,3.37926968,60,130,240,35,83,156,0.50592033,1.16980539,2.20190811,0.12584192,0.23561597,0.47203855
54013,0,USWestVirginiaCalhoun,West Virginia,Calhoun,2021-04-04 02:03:55.702006,2021-02-12 00:00:00.000000,0.81177994,1.78494699,3.25491783,57,126,231,36,78,149,0.50753087,1.10986240,2.09979259,0.12979524,0.23594664,0.48139254
54013,0,USWestVirginiaCalhoun,West Virginia,Calhoun,2021-04-04 02:03:55.702006,2021-02-13 00:00:00.000000,0.77886171,1.71438749,3.14320585,55,121,223,36,75,142,0.51039775,1.06258898,2.00344248,0.13089242,0.25193301,0.49638270
54013,0,USWestVirginiaCalhoun,West Virginia,Calhoun,2021-04-04 02:03:55.702006,2021-02-14 00:00:00.000000,0.75378970,1.67032238,3.01078496,53,118,214,35,73,136,0.49359160,1.02793944,1.92239982,0.13259163,0.25461754,0.51510209
54013,0,USWestVirginiaCalhoun,West Virginia,Calhoun,2021-04-04 02:03:55.702006,2021-02-15 00:00:00.000000,0.79183459,1.65266820,2.94779657,56,117,209,33,70,131,0.47039008,0.99605385,1.85193186,0.13515773,0.25507541,0.52093024
54013,0,USWestVirginiaCalhoun,West Virginia,Calhoun,2021-04-04 02:03:55.702006,2021-02-16 00:00:00.000000,0.84186994,1.67366853,2.86400531,59,118,203,33,69,127,0.46448349,0.97457258,1.78749629,0.13861445,0.26535401,0.52857193
54013,0,USWestVirginiaCalhoun,West Virginia,Calhoun,2021-04-04 02:03:55.702006,2021-02-17 00:00:00.000000,0.89652360,1.68280483,2.79007752,63,119,198,33,67,122,0.46926166,0.95323956,1.72857288,0.14266691,0.26340301,0.53446577
54013,0,USWestVirginiaCalhoun,West Virginia,Calhoun,2021-04-04 02:03:55.702006,2021-02-18 00:00:00.000000,0.95210844,1.69810538,2.72707452,67,120,193,34,67,119,0.48049985,0.95230351,1.67508580,0.14680221,0.26682009,0.55299403
54013,0,USWestVirginiaCalhoun,West Virginia,Calhoun,2021-04-04 02:03:55.702006,2021-02-19 00:00:00.000000,1.00667461,1.73544430,2.67614678,71,123,190,35,66,115,0.49541796,0.94113421,1.62717475,0.14110445,0.26775599,0.57537493
54013,0,USWestVirginiaCalhoun,West Virginia,Calhoun,2021-04-04 02:03:55.702006,2021-02-20 00:00:00.000000,0.98579787,1.73264437,2.70545259,70,123,192,36,66,114,0.51218895,0.93140956,1.60946867,0.12787125,0.27551631,0.59212368
54013,0,USWestVirginiaCalhoun,West Virginia,Calhoun,2021-04-04 02:03:55.702006,2021-02-21 00:00:00.000000,0.99177632,1.76443274,2.78616609,70,125,198,37,65,114,0.52964684,0.92630755,1.61286800,0.11895798,0.28796893,0.58711731
54013,0,USWestVirginiaCalhoun,West Virginia,Calhoun,2021-04-04 02:03:55.702006,2021-02-22 00:00:00.000000,1.00451073,1.71843734,2.74887903,71,122,195,38,67,114,0.54707293,0.94724345,1.61717128,0.12156437,0.28958255,0.57318893
54013,0,USWestVirginiaCalhoun,West Virginia,Calhoun,2021-04-04 02:03:55.702006,2021-02-23 00:00:00.000000,0.99560924,1.69915490,2.70888775,70,120,192,37,67,114,0.53046402,0.94525678,1.60614042,0.12423556,0.29984963,0.56778573
54013,0,USWestVirginiaCalhoun,West Virginia,Calhoun,2021-04-04 02:03:55.702006,2021-02-24 00:00:00.000000,0.98036135,1.67034978,2.65989517,69,118,189,38,65,113,0.53672933,0.92698415,1.59999769,0.12633130,0.30302000,0.57030546
54013,0,USWestVirginiaCalhoun,West Virginia,Calhoun,2021-04-04 02:03:55.702006,2021-02-25 00:00:00.000000,0.96311884,1.63190723,2.59942587,68,116,184,37,65,112,0.52928936,0.91671031,1.58877593,0.12833890,0.30425520,0.56338991
54013,0,USWestVirginiaCalhoun,West Virginia,Calhoun,2021-04-04 02:03:55.702006,2021-02-26 00:00:00.000000,0.92811843,1.60346751,2.54329240,65,113,180,37,64,111,0.52076628,0.90467291,1.56983142,0.13082094,0.31303986,0.55413836
54013,0,USWestVirginiaCalhoun,West Virginia,Calhoun,2021-04-04 02:03:55.702006,2021-02-27 00:00:00.000000,0.93294757,1.56683689,2.49167036,66,111,177,36,63,111,0.50703511,0.88827088,1.57147550,0.13471697,0.31784988,0.56329061
54013,0,USWestVirginiaCalhoun,West Virginia,Calhoun,2021-04-04 02:03:55.702006,2021-02-28 00:00:00.000000,0.87518291,1.52981597,2.44494862,62,108,173,35,61,114,0.49404387,0.87189579,1.60491238,0.13984552,0.32124740,0.59697775
54013,0,USWestVirginiaCalhoun,West Virginia,Calhoun,2021-04-04 02:03:55.702006,2021-03-01 00:00:00.000000,0.84409717,1.49546050,2.39868326,60,106,170,34,60,111,0.49166302,0.85609753,1.56531885,0.14595365,0.32337844,0.59765354
54013,0,USWestVirginiaCalhoun,West Virginia,Calhoun,2021-04-04 02:03:55.702006,2021-03-02 00:00:00.000000,0.83168788,1.47856769,2.37517091,59,105,168,34,59,107,0.49220336,0.83343119,1.51317706,0.15218111,0.32586252,0.57217811
54013,0,USWestVirginiaCalhoun,West Virginia,Calhoun,2021-04-04 02:03:55.702006,2021-03-03 00:00:00.000000,0.82188273,1.49128401,2.39661192,58,106,170,33,58,104,0.46595844,0.82641049,1.46695916,0.15481346,0.32731158,0.58348733
54013,0,USWestVirginiaCalhoun,West Virginia,Calhoun,2021-04-04 02:03:55.702006,2021-03-04 00:00:00.000000,0.81377665,1.45717898,2.40885922,57,103,171,31,58,102,0.44235551,0.82543083,1.44711724,0.16142005,0.34404285,0.60704501
54013,0,USWestVirginiaCalhoun,West Virginia,Calhoun,2021-04-04 02:03:55.702006,2021-03-05 00:00:00.000000,0.80685028,1.44041193,2.39690093,57,102,170,29,57,102,0.42113137,0.81118000,1.44050947,0.16403965,0.34614130,0.65141869
54013,0,USWestVirginiaCalhoun,West Virginia,Calhoun,2021-04-04 02:03:55.702006,2021-03-06 00:00:00.000000,0.76520230,1.40977742,2.38097484,54,100,169,28,56,103,0.40265433,0.79162170,1.45027443,0.15829906,0.34862129,0.69608579
54013,0,USWestVirginiaCalhoun,West Virginia,Calhoun,2021-04-04 02:03:55.702006,2021-03-07 00:00:00.000000,0.72594045,1.40963161,2.36291477,51,100,167,27,55,103,0.38735852,0.77894219,1.46212073,0.14451251,0.35291006,0.71427260
54013,0,USWestVirginiaCalhoun,West Virginia,Calhoun,2021-04-04 02:03:55.702006,2021-03-08 00:00:00.000000,0.69631203,1.39349548,2.31115768,49,99,164,26,54,104,0.37277702,0.77119998,1.47541802,0.15148423,0.36228039,0.71947906
54013,0,USWestVirginiaCalhoun,West Virginia,Calhoun,2021-04-04 02:03:55.702006,2021-03-09 00:00:00.000000,0.67665093,1.38147972,2.27036418,48,98,161,25,54,105,0.36128438,0.77138758,1.48424051,0.15459685,0.37601666,0.72188419
54013,0,USWestVirginiaCalhoun,West Virginia,Calhoun,2021-04-04 02:03:55.702006,2021-03-10 00:00:00.000000,0.66589378,1.44451399,2.27731880,47,102,161,25,54,105,0.35779364,0.76525158,1.49105669,0.15565682,0.38118225,0.73588291
54013,0,USWestVirginiaCalhoun,West Virginia,Calhoun,2021-04-04 02:03:55.702006,2021-03-11 00:00:00.000000,0.68110569,1.44020694,2.29266193,48,102,162,25,54,105,0.36292449,0.76328579,1.48032035,0.15595930,0.38153703,0.74582527
54013,0,USWestVirginiaCalhoun,West Virginia,Calhoun,2021-04-04 02:03:55.702006,2021-03-12 00:00:00.000000,0.69657003,1.44843610,2.31939472,49,102,164,26,55,103,0.36976859,0.78039570,1.45997214,0.15602371,0.39108053,0.78047490
54013,0,USWestVirginiaCalhoun,West Virginia,Calhoun,2021-04-04 02:03:55.702006,2021-03-13 00:00:00.000000,0.71191165,1.45550577,2.33500572,50,103,165,26,55,102,0.37753317,0.77491145,1.44228295,0.15603745,0.39345988,0.82715698
54013,0,USWestVirginiaCalhoun,West Virginia,Calhoun,2021-04-04 02:03:55.702006,2021-03-14 00:00:00.000000,0.72689506,1.44143086,2.35607055,51,102,167,27,56,101,0.38571961,0.79267114,1.42719480,0.15608088,0.39665129,0.84283708
54013,0,USWestVirginiaCalhoun,West Virginia,Calhoun,2021-04-04 02:03:55.702006,2021-03-15 00:00:00.000000,0.71934126,1.46819380,2.43245373,51,104,172,28,57,103,0.39401435,0.80542229,1.44927337,0.15571477,0.39384124,0.84744885
54013,0,USWestVirginiaCalhoun,West Virginia,Calhoun,2021-04-04 02:03:55.702006,2021-03-16 00:00:00.000000,0.71120349,1.50392016,2.51013323,50,106,178,28,57,106,0.39621535,0.81057906,1.49348924,0.15475011,0.39311649,0.84911103
54013,0,USWestVirginiaCalhoun,West Virginia,Calhoun,2021-04-04 02:03:55.702006,2021-03-17 00:00:00.000000,0.71604523,1.51311988,2.54273808,50,107,180,28,58,107,0.39474594,0.82371323,1.50619048,0.15429731,0.39203917,0.85013682
54013,0,USWestVirginiaCalhoun,West Virginia,Calhoun,2021-04-04 02:03:55.702006,2021-03-18 00:00:00.000000,0.69178808,1.54956153,2.61308747,49,110,185,27,58,107,0.39166367,0.81904933,1.50587260,0.15451536,0.39344671,0.87632639
54013,0,USWestVirginiaCalhoun,West Virginia,Calhoun,2021-04-04 02:03:55.702006,2021-03-19 00:00:00.000000,0.67894971,1.58735178,2.68509059,48,112,190,27,58,109,0.38738718,0.81947506,1.54216174,0.15571493,0.40344533,0.91366714
54013,0,USWestVirginiaCalhoun,West Virginia,Calhoun,2021-04-04 02:03:55.702006,2021-03-20 00:00:00.000000,0.66713841,1.61814549,2.75930866,47,115,196,27,58,112,0.38241447,0.82483157,1.58208389,0.15225930,0.40784009,0.94383267
54013,0,USWestVirginiaCalhoun,West Virginia,Calhoun,2021-04-04 02:03:55.702006,2021-03-21 00:00:00.000000,0.65549772,1.62527487,2.83513332,46,115,201,28,59,115,0.39463882,0.83279664,1.62362667,0.14975830,0.40764663,0.99376325
54013,0,USWestVirginiaCalhoun,West Virginia,Calhoun,2021-04-04 02:03:55.702006,2021-03-22 00:00:00.000000,0.67043228,1.67334648,2.83903412,47,118,201,26,60,117,0.37794542,0.85397262,1.65085060,0.15177338,0.42763627,1.01838068
54013,0,USWestVirginiaCalhoun,West Virginia,Calhoun,2021-04-04 02:03:55.702006,2021-03-23 00:00:00.000000,0.71521334,1.69568645,2.85246726,50,120,202,27,63,117,0.38784493,0.89361566,1.65907888,0.15619023,0.45098349,1.02543623
54013,0,USWestVirginiaCalhoun,West Virginia,Calhoun,2021-04-04 02:03:55.702006,2021-03-24 00:00:00.000000,0.76415112,1.74835613,2.94124869,54,124,209,29,64,118,0.41613891,0.90879846,1.67138052,0.16202149,0.45272171,1.02368028
54013,0,USWestVirginiaCalhoun,West Virginia,Calhoun,2021-04-04 02:03:55.702006,2021-03-25 00:00:00.000000,0.81681111,1.74341415,3.03045624,58,123,215,30,63,119,0.42839339,0.90014632,1.68649460,0.16157357,0.44963147,1.01641432
54013,0,USWestVirginiaCalhoun,West Virginia,Calhoun,2021-04-04 02:03:55.702006,2021-03-26 00:00:00.000000,0.86872558,1.75540190,3.11992751,61,124,221,30,65,121,0.43284839,0.92408429,1.70347545,0.15978451,0.45427185,1.00607871
54013,0,USWestVirginiaCalhoun,West Virginia,Calhoun,2021-04-04 02:03:55.702006,2021-03-27 00:00:00.000000,0.86263125,1.79849131,3.20865386,61,127,228,31,67,122,0.43795569,0.94585152,1.72159079,0.15467738,0.44907619,1.07660343
54013,0,USWestVirginiaCalhoun,West Virginia,Calhoun,2021-04-04 02:03:55.702006,2021-03-28 00:00:00.000000,0.85634633,1.81244936,3.27994809,60,128,233,31,68,122,0.44353010,0.96622765,1.72349070,0.14687517,0.44079592,1.12649323
54013,0,USWestVirginiaCalhoun,West Virginia,Calhoun,2021-04-04 02:03:55.702006,2021-03-29 00:00:00.000000,0.83294851,1.80190840,3.26450027,59,128,232,31,69,122,0.44949220,0.98175707,1.71946464,0.14823862,0.43857299,1.13337954
54013,0,USWestVirginiaCalhoun,West Virginia,Calhoun,2021-04-04 02:03:55.702006,2021-03-30 00:00:00.000000,0.80949179,1.79812842,3.24550181,57,127,230,31,69,121,0.44533171,0.97785236,1.70365884,0.15088467,0.47625445,1.12686352
54013,0,USWestVirginiaCalhoun,West Virginia,Calhoun,2021-04-04 02:03:55.702006,2021-03-31 00:00:00.000000,0.78566950,1.76629203,3.22212309,55,125,229,30,68,122,0.43553544,0.96508108,1.72563413,0.15249668,0.47807769,1.12241175
54013,0,USWestVirginiaCalhoun,West Virginia,Calhoun,2021-04-04 02:03:55.702006,2021-04-01 00:00:00.000000,0.76184243,1.77808347,3.19510856,54,126,227,30,68,126,0.42252733,0.96025222,1.77996728,0.15308173,0.47828433,1.12294150
54013,0,USWestVirginiaCalhoun,West Virginia,Calhoun,2021-04-04 02:03:55.702006,2021-04-02 00:00:00.000000,0.71771823,1.76374038,3.20302965,51,125,227,28,68,129,0.40754790,0.96812549,1.82604387,0.15263554,0.48999861,1.08226199
54013,0,USWestVirginiaCalhoun,West Virginia,Calhoun,2021-04-04 02:03:55.702006,2021-04-03 00:00:00.000000,0.67483826,1.73913603,3.32254253,47,123,236,27,69,132,0.38969767,0.98236035,1.86246646,0.15077792,0.50191356,1.02537340
54013,0,USWestVirginiaCalhoun,West Virginia,Calhoun,2021-04-04 02:03:55.702006,2021-04-04 00:00:00.000000,0.63510718,1.70363114,3.45615833,45,121,245,26,69,134,0.36728913,0.97103931,1.89170365,0.14741354,0.50063873,1.02185956
54013,0,USWestVirginiaCalhoun,West Virginia,Calhoun,2021-04-04 02:03:55.702006,2021-04-05 00:00:00.000000,0.59858122,1.65458045,3.58906594,42,117,255,24,67,137,0.34597966,0.94735970,1.93145118,0.14401114,0.50029388,1.03340821
54013,0,USWestVirginiaCalhoun,West Virginia,Calhoun,2021-04-04 02:03:55.702006,2021-04-06 00:00:00.000000,0.56498107,1.61048416,3.72284698,40,114,264,23,68,140,0.32596270,0.95660899,1.97465845,0.14742181,0.50008420,1.04166062
54013,0,USWestVirginiaCalhoun,West Virginia,Calhoun,2021-04-04 02:03:55.702006,2021-04-07 00:00:00.000000,0.51106083,1.57911261,3.80523405,36,112,270,21,67,143,0.30728100,0.95013848,2.01710351,0.14848966,0.49997017,1.04692566
54013,0,USWestVirginiaCalhoun,West Virginia,Calhoun,2021-04-04 02:03:55.702006,2021-04-08 00:00:00.000000,0.45088118,1.55178288,3.84706201,32,110,273,20,65,146,0.28995265,0.91851077,2.05868811,0.14864371,0.49991035,1.05004582
54013,0,USWestVirginiaCalhoun,West Virginia,Calhoun,2021-04-04 02:03:55.702006,2021-04-09 00:00:00.000000,0.39709126,1.51215435,3.88653946,28,107,276,19,63,149,0.26739867,0.89355720,2.09930628,0.14866224,0.49987951,1.05181460
54013,0,USWestVirginiaCalhoun,West Virginia,Calhoun,2021-04-04 02:03:55.702006,2021-04-10 00:00:00.000000,0.34923017,1.48312512,3.92356524,24,105,278,16,62,152,0.23662947,0.87751375,2.13884607,0.14866404,0.49986382,1.05279216
54013,0,USWestVirginiaCalhoun,West Virginia,Calhoun,2021-04-04 02:03:55.702006,2021-04-11 00:00:00.000000,0.33219038,1.45664183,3.95804132,23,103,281,14,61,154,0.20893448,0.86155384,2.17719180,0.14866407,0.49985594,1.05332486
54013,0,USWestVirginiaCalhoun,West Virginia,Calhoun,2021-04-04 02:03:55.702006,2021-04-12 00:00:00.000000,0.31821106,1.40915253,3.98987432,22,100,283,13,59,157,0.19312092,0.83862493,2.21422606,0.14866400,0.49985205,1.05361291
54013,0,USWestVirginiaCalhoun,West Virginia,Calhoun,2021-04-04 02:03:55.702006,2021-04-13 00:00:00.000000,0.30503848,1.37091503,4.01897645,21,97,285,13,57,159,0.18494009,0.81031026,2.24983132,0.14866397,0.49985018,1.05376802
54013,0,USWestVirginiaCalhoun,West Virginia,Calhoun,2021-04-04 02:03:55.702006,2021-04-14 00:00:00.000000,0.29241636,1.35480988,4.04526629,20,96,287,12,56,162,0.17726759,0.78891566,2.28389126,0.14866396,0.49984931,1.05385135
54013,0,USWestVirginiaCalhoun,West Virginia,Calhoun,2021-04-04 02:03:55.702006,2021-04-15 00:00:00.000000,0.28031837,1.35181139,4.06866939,19,96,289,12,54,164,0.16992268,0.77236746,2.31629188,0.14866395,0.49984893,1.05389607
54013,0,USWestVirginiaCalhoun,West Virginia,Calhoun,2021-04-04 02:03:55.702006,2021-04-16 00:00:00.000000,0.26872081,1.34214034,4.08922028,19,95,290,11,55,166,0.16288721,0.78372585,2.34692249,0.14866395,0.49984877,1.05392005
