FIPS,HR_UID,nameid,province,region,analysisTime,dates,pointprevalence_025,pointprevalence_50,pointprevalence_975,pointinfections_025,pointinfections_50,pointinfections_975,pointinfectious_025,pointinfectious_50,pointinfectious_975,pointinfectiousprevalence_05,pointinfectiousprevalence_50,pointinfectiousprevalence_95,infectrate_025,infectrate_50,infectrate_975
0,0,Sudan,,,2021-04-04 00:56:42.414405,2020-03-09 00:00:00.000000,0.00000260,0.00001186,0.00002857,1,5,12,0,2,5,0.00000078,0.00000462,0.00001288,0.48051767,0.62226692,0.83834637
0,0,Sudan,,,2021-04-04 00:56:42.414405,2020-03-10 00:00:00.000000,0.00000372,0.00001559,0.00003382,1,6,14,0,2,6,0.00000126,0.00000563,0.00001445,0.48051906,0.62217268,0.83834637
0,0,Sudan,,,2021-04-04 00:56:42.414405,2020-03-11 00:00:00.000000,0.00000508,0.00001962,0.00004365,2,8,19,0,3,7,0.00000180,0.00000762,0.00001690,0.48052214,0.62199120,0.83834637
0,0,Sudan,,,2021-04-04 00:56:42.414405,2020-03-12 00:00:00.000000,0.00000665,0.00002444,0.00005423,2,10,23,1,4,8,0.00000253,0.00000965,0.00001974,0.48052896,0.62164639,0.83834634
0,0,Sudan,,,2021-04-04 00:56:42.414405,2020-03-13 00:00:00.000000,0.00000847,0.00002810,0.00006576,3,12,28,1,5,11,0.00000339,0.00001213,0.00002540,0.48054404,0.62099986,0.83834615
0,0,Sudan,,,2021-04-04 00:56:42.414405,2020-03-14 00:00:00.000000,0.00001058,0.00003271,0.00007456,4,14,32,1,6,13,0.00000440,0.00001460,0.00003136,0.48057741,0.62018442,0.83834509
0,0,Sudan,,,2021-04-04 00:56:42.414405,2020-03-15 00:00:00.000000,0.00001303,0.00003755,0.00008901,5,16,39,2,7,15,0.00000548,0.00001726,0.00003593,0.48065118,0.61979844,0.83833929
0,0,Sudan,,,2021-04-04 00:56:42.414405,2020-03-16 00:00:00.000000,0.00001564,0.00004453,0.00009785,6,19,42,2,8,18,0.00000635,0.00002042,0.00004325,0.48081443,0.61897359,0.83830909
0,0,Sudan,,,2021-04-04 00:56:42.414405,2020-03-17 00:00:00.000000,0.00001740,0.00005297,0.00011098,7,23,48,3,10,21,0.00000761,0.00002443,0.00004857,0.48117881,0.61723382,0.83817280
0,0,Sudan,,,2021-04-04 00:56:42.414405,2020-03-18 00:00:00.000000,0.00001927,0.00006112,0.00012786,8,26,56,3,12,22,0.00000907,0.00002776,0.00005215,0.46753658,0.60371491,0.83796250
0,0,Sudan,,,2021-04-04 00:56:42.414405,2020-03-19 00:00:00.000000,0.00002128,0.00007041,0.00014580,9,30,63,4,14,26,0.00001066,0.00003292,0.00005952,0.45552037,0.60173587,0.80719852
0,0,Sudan,,,2021-04-04 00:56:42.414405,2020-03-20 00:00:00.000000,0.00002346,0.00007962,0.00016456,10,34,72,5,16,29,0.00001236,0.00003784,0.00006787,0.43230368,0.59302148,0.81007950
0,0,Sudan,,,2021-04-04 00:56:42.414405,2020-03-21 00:00:00.000000,0.00002586,0.00008973,0.00018392,11,39,80,6,18,33,0.00001382,0.00004255,0.00007531,0.42961322,0.58879025,0.81728158
0,0,Sudan,,,2021-04-04 00:56:42.414405,2020-03-22 00:00:00.000000,0.00002855,0.00009998,0.00020370,12,43,89,6,20,35,0.00001526,0.00004745,0.00008186,0.39592362,0.58467328,0.79521619
0,0,Sudan,,,2021-04-04 00:56:42.414405,2020-03-23 00:00:00.000000,0.00003379,0.00011184,0.00022182,14,49,97,7,23,41,0.00001684,0.00005319,0.00009569,0.37722379,0.58036899,0.79479735
0,0,Sudan,,,2021-04-04 00:56:42.414405,2020-03-24 00:00:00.000000,0.00004025,0.00012614,0.00024504,17,55,107,8,26,46,0.00001913,0.00005984,0.00010675,0.37146413,0.56979974,0.83260000
0,0,Sudan,,,2021-04-04 00:56:42.414405,2020-03-25 00:00:00.000000,0.00004753,0.00013674,0.00027071,20,59,118,9,29,53,0.00002190,0.00006723,0.00012309,0.36827980,0.56350054,0.80900577
0,0,Sudan,,,2021-04-04 00:56:42.414405,2020-03-26 00:00:00.000000,0.00005578,0.00014814,0.00030072,24,64,131,10,32,62,0.00002504,0.00007346,0.00014148,0.36653128,0.56980689,0.79881331
0,0,Sudan,,,2021-04-04 00:56:42.414405,2020-03-27 00:00:00.000000,0.00006572,0.00016394,0.00033455,28,71,146,12,34,71,0.00002853,0.00007972,0.00016239,0.36565713,0.56723622,0.82277735
0,0,Sudan,,,2021-04-04 00:56:42.414405,2020-03-28 00:00:00.000000,0.00007192,0.00017815,0.00036683,31,78,160,14,38,81,0.00003305,0.00008729,0.00018618,0.37293037,0.56787536,0.84405471
0,0,Sudan,,,2021-04-04 00:56:42.414405,2020-03-29 00:00:00.000000,0.00007696,0.00019515,0.00041552,33,85,182,16,42,90,0.00003680,0.00009649,0.00020556,0.39319701,0.57539865,0.85908955
0,0,Sudan,,,2021-04-04 00:56:42.414405,2020-03-30 00:00:00.000000,0.00008567,0.00021426,0.00047617,37,93,208,18,46,99,0.00004157,0.00010581,0.00022616,0.40605203,0.57969773,0.86582630
0,0,Sudan,,,2021-04-04 00:56:42.414405,2020-03-31 00:00:00.000000,0.00009531,0.00023580,0.00054491,41,103,238,20,50,108,0.00004748,0.00011520,0.00024798,0.41708999,0.58283542,0.86064265
0,0,Sudan,,,2021-04-04 00:56:42.414405,2020-04-01 00:00:00.000000,0.00010998,0.00025851,0.00059902,48,113,262,23,54,119,0.00005448,0.00012491,0.00027155,0.41943761,0.58610528,0.83332157
0,0,Sudan,,,2021-04-04 00:56:42.414405,2020-04-02 00:00:00.000000,0.00012734,0.00028431,0.00065379,55,124,286,27,59,130,0.00006272,0.00013593,0.00029708,0.42979302,0.59179453,0.82953117
0,0,Sudan,,,2021-04-04 00:56:42.414405,2020-04-03 00:00:00.000000,0.00014795,0.00031687,0.00070986,64,138,311,31,65,142,0.00007229,0.00015005,0.00032450,0.44330590,0.61756277,0.86317807
0,0,Sudan,,,2021-04-04 00:56:42.414405,2020-04-04 00:00:00.000000,0.00017235,0.00034704,0.00076535,75,152,335,34,72,154,0.00007911,0.00016647,0.00035301,0.44611879,0.63658515,0.90104791
0,0,Sudan,,,2021-04-04 00:56:42.414405,2020-04-05 00:00:00.000000,0.00019011,0.00038354,0.00084075,83,168,368,38,82,170,0.00008785,0.00018723,0.00038868,0.47171973,0.66231075,0.94412068
0,0,Sudan,,,2021-04-04 00:56:42.414405,2020-04-06 00:00:00.000000,0.00020418,0.00042775,0.00092566,89,187,405,43,91,191,0.00009917,0.00020837,0.00043724,0.48375250,0.66797968,0.99284874
0,0,Sudan,,,2021-04-04 00:56:42.414405,2020-04-07 00:00:00.000000,0.00021932,0.00047543,0.00100438,96,208,440,47,98,216,0.00010939,0.00022419,0.00049365,0.48773143,0.68012877,1.01916096
0,0,Sudan,,,2021-04-04 00:56:42.414405,2020-04-08 00:00:00.000000,0.00024964,0.00053331,0.00109891,109,233,481,51,108,244,0.00011723,0.00024726,0.00055858,0.49461751,0.70642844,1.01901407
0,0,Sudan,,,2021-04-04 00:56:42.414405,2020-04-09 00:00:00.000000,0.00028367,0.00060445,0.00127052,124,265,557,55,123,268,0.00012716,0.00028090,0.00061290,0.49508064,0.72370299,1.02488432
0,0,Sudan,,,2021-04-04 00:56:42.414405,2020-04-10 00:00:00.000000,0.00032174,0.00067757,0.00146599,141,297,642,63,139,292,0.00014500,0.00031793,0.00066665,0.49592767,0.73177007,1.01910459
0,0,Sudan,,,2021-04-04 00:56:42.414405,2020-04-11 00:00:00.000000,0.00036503,0.00076607,0.00168867,160,335,740,72,155,318,0.00016497,0.00035519,0.00072684,0.50464188,0.74368832,1.01580612
0,0,Sudan,,,2021-04-04 00:56:42.414405,2020-04-12 00:00:00.000000,0.00041429,0.00086840,0.00194181,181,380,851,82,174,348,0.00018728,0.00039747,0.00079486,0.51777392,0.75688417,1.01430097
0,0,Sudan,,,2021-04-04 00:56:42.414405,2020-04-13 00:00:00.000000,0.00046625,0.00098070,0.00221251,204,430,970,93,197,396,0.00021253,0.00044930,0.00090407,0.53670515,0.77913615,1.01370146
0,0,Sudan,,,2021-04-04 00:56:42.414405,2020-04-14 00:00:00.000000,0.00052269,0.00111648,0.00246073,229,489,1079,105,222,454,0.00023977,0.00050703,0.00103591,0.57487506,0.79434473,1.04244842
0,0,Sudan,,,2021-04-04 00:56:42.414405,2020-04-15 00:00:00.000000,0.00058881,0.00125606,0.00271268,258,550,1189,118,251,518,0.00027097,0.00057379,0.00118211,0.57752846,0.80403973,1.08207863
0,0,Sudan,,,2021-04-04 00:56:42.414405,2020-04-16 00:00:00.000000,0.00066792,0.00140724,0.00299389,292,617,1312,133,285,589,0.00030530,0.00064998,0.00134346,0.58912070,0.80927594,1.08496908
0,0,Sudan,,,2021-04-04 00:56:42.414405,2020-04-17 00:00:00.000000,0.00074209,0.00159724,0.00330741,325,700,1450,149,324,667,0.00034118,0.00074063,0.00152242,0.60806347,0.82268969,1.08694837
0,0,Sudan,,,2021-04-04 00:56:42.414405,2020-04-18 00:00:00.000000,0.00082087,0.00181030,0.00365500,359,793,1602,169,369,754,0.00038760,0.00084203,0.00172141,0.60417444,0.83314973,1.08118618
0,0,Sudan,,,2021-04-04 00:56:42.414405,2020-04-19 00:00:00.000000,0.00092649,0.00207075,0.00403929,406,908,1771,193,419,852,0.00044108,0.00095761,0.00194317,0.60255255,0.83970699,1.04658110
0,0,Sudan,,,2021-04-04 00:56:42.414405,2020-04-20 00:00:00.000000,0.00104893,0.00237060,0.00446155,459,1039,1956,220,481,960,0.00050247,0.00109737,0.00219058,0.61271447,0.83686915,1.10397820
0,0,Sudan,,,2021-04-04 00:56:42.414405,2020-04-21 00:00:00.000000,0.00118777,0.00271703,0.00492852,520,1191,2161,249,551,1080,0.00056898,0.00125865,0.00246409,0.63475395,0.83825265,1.10749821
0,0,Sudan,,,2021-04-04 00:56:42.414405,2020-04-22 00:00:00.000000,0.00134463,0.00312496,0.00552854,589,1370,2424,275,632,1211,0.00062892,0.00144349,0.00276362,0.62940774,0.84443143,1.08301074
0,0,Sudan,,,2021-04-04 00:56:42.414405,2020-04-23 00:00:00.000000,0.00152174,0.00355792,0.00623337,667,1560,2733,304,725,1355,0.00069505,0.00165507,0.00309062,0.62098107,0.85333803,1.09242679
0,0,Sudan,,,2021-04-04 00:56:42.414405,2020-04-24 00:00:00.000000,0.00172432,0.00406535,0.00707762,756,1782,3103,341,834,1512,0.00077861,0.00190373,0.00344904,0.62928365,0.85468912,1.09634989
0,0,Sudan,,,2021-04-04 00:56:42.414405,2020-04-25 00:00:00.000000,0.00198845,0.00462308,0.00813711,871,2027,3568,393,947,1685,0.00089724,0.00216010,0.00384422,0.61987468,0.86226884,1.10870183
0,0,Sudan,,,2021-04-04 00:56:42.414405,2020-04-26 00:00:00.000000,0.00229482,0.00531678,0.00934841,1006,2331,4099,453,1086,1877,0.00103467,0.00247876,0.00428196,0.61524375,0.84644315,1.11345347
0,0,Sudan,,,2021-04-04 00:56:42.414405,2020-04-27 00:00:00.000000,0.00264307,0.00604060,0.01066408,1158,2648,4676,523,1233,2090,0.00119402,0.00281387,0.00476818,0.62137874,0.84018989,1.09818400
0,0,Sudan,,,2021-04-04 00:56:42.414405,2020-04-28 00:00:00.000000,0.00300875,0.00684620,0.01212450,1319,3002,5316,603,1394,2353,0.00137643,0.00318021,0.00536642,0.61554662,0.83822058,1.10056359
0,0,Sudan,,,2021-04-04 00:56:42.414405,2020-04-29 00:00:00.000000,0.00331286,0.00771423,0.01343631,1452,3382,5891,696,1581,2713,0.00158742,0.00360649,0.00618713,0.61850012,0.83752320,1.09711218
0,0,Sudan,,,2021-04-04 00:56:42.414405,2020-04-30 00:00:00.000000,0.00375156,0.00881252,0.01528162,1645,3864,6700,803,1820,3041,0.00183177,0.00415083,0.00693553,0.61476499,0.83212208,1.09169849
0,0,Sudan,,,2021-04-04 00:56:42.414405,2020-05-01 00:00:00.000000,0.00426618,0.00987027,0.01700995,1870,4328,7458,916,2096,3419,0.00209036,0.00478203,0.00779784,0.59894155,0.81007844,1.08131885
0,0,Sudan,,,2021-04-04 00:56:42.414405,2020-05-02 00:00:00.000000,0.00482847,0.01112103,0.01882051,2117,4876,8252,1008,2386,3715,0.00230021,0.00544282,0.00847236,0.58255276,0.79915183,1.03311407
0,0,Sudan,,,2021-04-04 00:56:42.414405,2020-05-03 00:00:00.000000,0.00544534,0.01254079,0.02035453,2387,5499,8925,1110,2703,4056,0.00253203,0.00616554,0.00925201,0.56626239,0.78295990,0.99000874
0,0,Sudan,,,2021-04-04 00:56:42.414405,2020-05-04 00:00:00.000000,0.00613409,0.01405115,0.02250110,2689,6161,9866,1224,3035,4541,0.00279153,0.00692313,0.01035805,0.54987908,0.77413063,0.98541414
0,0,Sudan,,,2021-04-04 00:56:42.414405,2020-05-05 00:00:00.000000,0.00689521,0.01586444,0.02556936,3023,6956,11211,1354,3397,5042,0.00308910,0.00774766,0.01149980,0.54408565,0.74819383,0.97904293
0,0,Sudan,,,2021-04-04 00:56:42.414405,2020-05-06 00:00:00.000000,0.00768492,0.01778808,0.02903694,3369,7799,12732,1507,3797,5648,0.00343810,0.00866079,0.01288239,0.53878131,0.72866592,0.97343197
0,0,Sudan,,,2021-04-04 00:56:42.414405,2020-05-07 00:00:00.000000,0.00844038,0.01985282,0.03279392,3701,8705,14379,1687,4218,6292,0.00384855,0.00961998,0.01434964,0.53590713,0.70824550,0.98397253
0,0,Sudan,,,2021-04-04 00:56:42.414405,2020-05-08 00:00:00.000000,0.00926583,0.02184114,0.03663301,4063,9577,16063,1896,4733,6994,0.00432481,0.01079545,0.01595177,0.53431116,0.68580965,0.96669022
0,0,Sudan,,,2021-04-04 00:56:42.414405,2020-05-09 00:00:00.000000,0.01016371,0.02437063,0.04090354,4456,10686,17935,2135,5257,7719,0.00486943,0.01198995,0.01760389,0.52816226,0.66158632,0.92892144
0,0,Sudan,,,2021-04-04 00:56:42.414405,2020-05-10 00:00:00.000000,0.01112263,0.02665314,0.04540164,4877,11687,19908,2404,5786,8575,0.00548446,0.01319590,0.01955711,0.49704782,0.64647200,0.89917123
0,0,Sudan,,,2021-04-04 00:56:42.414405,2020-05-11 00:00:00.000000,0.01209519,0.02849650,0.04909243,5303,12495,21526,2704,6363,9570,0.00616694,0.01451146,0.02182682,0.46852075,0.61961141,0.87856196
0,0,Sudan,,,2021-04-04 00:56:42.414405,2020-05-12 00:00:00.000000,0.01321812,0.03054346,0.05246344,5796,13393,23004,3015,6904,10651,0.00687732,0.01574672,0.02429071,0.43539867,0.58721927,0.84595159
0,0,Sudan,,,2021-04-04 00:56:42.414405,2020-05-13 00:00:00.000000,0.01427570,0.03263705,0.05611422,6259,14311,24605,3232,7320,11696,0.00737221,0.01669427,0.02667497,0.42365928,0.56591031,0.80486538
0,0,Sudan,,,2021-04-04 00:56:42.414405,2020-05-14 00:00:00.000000,0.01532812,0.03493887,0.05950927,6721,15320,26094,3448,7896,12561,0.00786447,0.01800768,0.02864628,0.40154437,0.55290712,0.73658561
0,0,Sudan,,,2021-04-04 00:56:42.414405,2020-05-15 00:00:00.000000,0.01630715,0.03734524,0.06203271,7150,16375,27200,3665,8536,13272,0.00836019,0.01946765,0.03026907,0.37386308,0.52670029,0.71634099
0,0,Sudan,,,2021-04-04 00:56:42.414405,2020-05-16 00:00:00.000000,0.01717411,0.03970954,0.06457351,7530,17412,28315,3886,9122,13947,0.00886265,0.02080401,0.03180724,0.36159566,0.49479800,0.69327044
0,0,Sudan,,,2021-04-04 00:56:42.414405,2020-05-17 00:00:00.000000,0.01806858,0.04142483,0.06768623,7922,18164,29679,4102,9732,14819,0.00935606,0.02219607,0.03379741,0.33246588,0.45935893,0.65543758
0,0,Sudan,,,2021-04-04 00:56:42.414405,2020-05-18 00:00:00.000000,0.01917455,0.04310799,0.07014631,8407,18902,30758,4286,10168,16226,0.00977666,0.02319011,0.03700443,0.30156899,0.43293974,0.63034063
0,0,Sudan,,,2021-04-04 00:56:42.414405,2020-05-19 00:00:00.000000,0.02009025,0.04429318,0.07209074,8809,19422,31611,4517,10684,17119,0.01030145,0.02436718,0.03904208,0.28512528,0.41767528,0.58499452
0,0,Sudan,,,2021-04-04 00:56:42.414405,2020-05-20 00:00:00.000000,0.02043738,0.04559516,0.07345440,8961,19993,32209,4774,11035,17676,0.01088895,0.02516643,0.04031109,0.27976318,0.39824377,0.55845681
0,0,Sudan,,,2021-04-04 00:56:42.414405,2020-05-21 00:00:00.000000,0.02053923,0.04674870,0.07481277,9006,20498,32804,5007,11213,18101,0.01142080,0.02557239,0.04128107,0.27861435,0.38057893,0.52073162
0,0,Sudan,,,2021-04-04 00:56:42.414405,2020-05-22 00:00:00.000000,0.02054063,0.04752741,0.07586039,9006,20840,33264,5214,11602,18405,0.01189158,0.02646050,0.04197357,0.27871643,0.36472822,0.50923998
0,0,Sudan,,,2021-04-04 00:56:42.414405,2020-05-23 00:00:00.000000,0.02049366,0.04778653,0.07659492,8986,20954,33586,5386,11793,18599,0.01228492,0.02689468,0.04241621,0.27693997,0.34674048,0.49662134
0,0,Sudan,,,2021-04-04 00:56:42.414405,2020-05-24 00:00:00.000000,0.02084531,0.04832861,0.07702342,9140,21191,33774,5379,11886,18700,0.01226760,0.02710848,0.04264681,0.26605130,0.33966021,0.47530004
0,0,Sudan,,,2021-04-04 00:56:42.414405,2020-05-25 00:00:00.000000,0.02085331,0.04895914,0.07712127,9144,21468,33817,5363,12036,18832,0.01223250,0.02744896,0.04294764,0.24806105,0.32463845,0.45691015
0,0,Sudan,,,2021-04-04 00:56:42.414405,2020-05-26 00:00:00.000000,0.02019412,0.04978764,0.07678878,8854,21831,33671,5267,12251,18867,0.01201321,0.02794047,0.04302863,0.24235463,0.31901773,0.45548062
0,0,Sudan,,,2021-04-04 00:56:42.414405,2020-05-27 00:00:00.000000,0.02007017,0.05017618,0.07602527,8800,22001,33336,5057,12514,18935,0.01153437,0.02854041,0.04318324,0.24221995,0.31754507,0.44975751
0,0,Sudan,,,2021-04-04 00:56:42.414405,2020-05-28 00:00:00.000000,0.01994920,0.05033406,0.07497916,8747,22071,32877,4935,12674,19228,0.01125538,0.02890434,0.04385067,0.24181942,0.31303652,0.43787919
0,0,Sudan,,,2021-04-04 00:56:42.414405,2020-05-29 00:00:00.000000,0.01982995,0.05023989,0.07378406,8695,22029,32353,4972,12793,19442,0.01133898,0.02917549,0.04433991,0.23787848,0.30406002,0.43366630
0,0,Sudan,,,2021-04-04 00:56:42.414405,2020-05-30 00:00:00.000000,0.01971765,0.04995360,0.07427095,8646,21904,32567,4981,12922,19530,0.01135957,0.02947073,0.04453970,0.23379610,0.29941769,0.42621723
0,0,Sudan,,,2021-04-04 00:56:42.414405,2020-05-31 00:00:00.000000,0.01961949,0.04959430,0.07483463,8603,21746,32814,4967,12859,19482,0.01132920,0.02932749,0.04443101,0.21981864,0.29672290,0.44003914
0,0,Sudan,,,2021-04-04 00:56:42.414405,2020-06-01 00:00:00.000000,0.01961240,0.04919655,0.07533551,8599,21572,33034,4937,12652,19342,0.01126038,0.02885529,0.04411082,0.20220030,0.29290747,0.44709975
0,0,Sudan,,,2021-04-04 00:56:42.414405,2020-06-02 00:00:00.000000,0.01973626,0.04851235,0.07580323,8654,21272,33239,4896,12494,19146,0.01116778,0.02849399,0.04366388,0.20143334,0.29464436,0.44872900
0,0,Sudan,,,2021-04-04 00:56:42.414405,2020-06-03 00:00:00.000000,0.01989645,0.04821101,0.07620696,8724,21140,33416,4848,12407,18915,0.01105763,0.02829545,0.04313868,0.20129262,0.29187328,0.44910876
0,0,Sudan,,,2021-04-04 00:56:42.414405,2020-06-04 00:00:00.000000,0.02005121,0.04808962,0.07642537,8792,21086,33511,4795,12312,18911,0.01093610,0.02808020,0.04312730,0.20133299,0.29233898,0.44899835
0,0,Sudan,,,2021-04-04 00:56:42.414405,2020-06-05 00:00:00.000000,0.02014207,0.04741981,0.07615402,8832,20793,33392,4739,12281,18922,0.01080875,0.02800742,0.04315407,0.20172395,0.29077509,0.44807805
0,0,Sudan,,,2021-04-04 00:56:42.414405,2020-06-06 00:00:00.000000,0.01988187,0.04628163,0.07502265,8718,20294,32896,4683,12143,18767,0.01068160,0.02769281,0.04279962,0.20253462,0.29237451,0.44462306
0,0,Sudan,,,2021-04-04 00:56:42.414405,2020-06-07 00:00:00.000000,0.01954468,0.04601946,0.07309666,8570,20179,32052,4631,12163,18604,0.01056314,0.02773853,0.04242795,0.20167886,0.29285106,0.43606269
0,0,Sudan,,,2021-04-04 00:56:42.414405,2020-06-08 00:00:00.000000,0.01923242,0.04603553,0.07145912,8433,20186,31334,4587,12040,18432,0.01046305,0.02745876,0.04203509,0.19944588,0.28846166,0.43472236
0,0,Sudan,,,2021-04-04 00:56:42.414405,2020-06-09 00:00:00.000000,0.01896715,0.04603245,0.07080620,8316,20184,31048,4553,11745,18074,0.01038437,0.02678626,0.04121866,0.19787070,0.28784478,0.41302946
0,0,Sudan,,,2021-04-04 00:56:42.414405,2020-06-10 00:00:00.000000,0.01873853,0.04582386,0.07011817,8216,20093,30746,4489,11600,17785,0.01023782,0.02645563,0.04055943,0.19445780,0.28673671,0.42694577
0,0,Sudan,,,2021-04-04 00:56:42.414405,2020-06-11 00:00:00.000000,0.01852426,0.04497738,0.06939137,8122,19722,30427,4431,11353,17632,0.01010734,0.02589138,0.04021118,0.19420854,0.28161791,0.43219740
0,0,Sudan,,,2021-04-04 00:56:42.414405,2020-06-12 00:00:00.000000,0.01830287,0.04383198,0.06860052,8025,19220,30080,4380,11121,17468,0.00998878,0.02536376,0.03983730,0.19172456,0.27976636,0.43042521
0,0,Sudan,,,2021-04-04 00:56:42.414405,2020-06-13 00:00:00.000000,0.01806773,0.04269539,0.06769784,7922,18721,29685,4329,11027,17291,0.00987326,0.02514857,0.03943294,0.18907619,0.27479522,0.42432512
0,0,Sudan,,,2021-04-04 00:56:42.414405,2020-06-14 00:00:00.000000,0.01782567,0.04171501,0.06663588,7816,18291,29219,4277,10808,17093,0.00975585,0.02464855,0.03898199,0.18652682,0.27388243,0.40471274
0,0,Sudan,,,2021-04-04 00:56:42.414405,2020-06-15 00:00:00.000000,0.01757909,0.04098093,0.06540770,7708,17969,28680,4224,10686,16852,0.00963504,0.02437135,0.03843298,0.18430819,0.26408139,0.37693984
0,0,Sudan,,,2021-04-04 00:56:42.414405,2020-06-16 00:00:00.000000,0.01733047,0.04056382,0.06406431,7599,17786,28091,4170,10530,16568,0.00951151,0.02401612,0.03778455,0.18081885,0.25844734,0.36959060
0,0,Sudan,,,2021-04-04 00:56:42.414405,2020-06-17 00:00:00.000000,0.01708181,0.04026111,0.06265998,7490,17654,27475,4115,10342,16272,0.00938618,0.02358712,0.03710987,0.17465229,0.25494259,0.36084248
0,0,Sudan,,,2021-04-04 00:56:42.414405,2020-06-18 00:00:00.000000,0.01683425,0.03967317,0.06123913,7381,17396,26852,4059,10176,15969,0.00925892,0.02320789,0.03641864,0.17276016,0.25196509,0.36512354
0,0,Sudan,,,2021-04-04 00:56:42.414405,2020-06-19 00:00:00.000000,0.01644117,0.03831924,0.05977159,7209,16802,26209,4001,9997,15648,0.00912514,0.02280006,0.03568735,0.17413691,0.25288100,0.36217569
0,0,Sudan,,,2021-04-04 00:56:42.414405,2020-06-20 00:00:00.000000,0.01599504,0.03713995,0.05784763,7013,16285,25365,3942,9776,15307,0.00899170,0.02229606,0.03490916,0.16823764,0.24800036,0.36253847
0,0,Sudan,,,2021-04-04 00:56:42.414405,2020-06-21 00:00:00.000000,0.01553606,0.03617635,0.05628383,6812,15863,24680,3872,9546,14967,0.00883190,0.02177173,0.03413360,0.16231989,0.24549131,0.36007240
0,0,Sudan,,,2021-04-04 00:56:42.414405,2020-06-22 00:00:00.000000,0.01506885,0.03506610,0.05527297,6607,15376,24236,3745,9325,14634,0.00854119,0.02126639,0.03337469,0.16041635,0.23982398,0.35369625
0,0,Sudan,,,2021-04-04 00:56:42.414405,2020-06-23 00:00:00.000000,0.01459762,0.03411775,0.05395736,6400,14960,23659,3612,9105,14314,0.00823914,0.02076460,0.03264495,0.16435656,0.23944317,0.35334197
0,0,Sudan,,,2021-04-04 00:56:42.414405,2020-06-24 00:00:00.000000,0.01412667,0.03283892,0.05241105,6194,14399,22981,3479,8896,14010,0.00793435,0.02028836,0.03195061,0.16447089,0.23783725,0.35325925
0,0,Sudan,,,2021-04-04 00:56:42.414405,2020-06-25 00:00:00.000000,0.01362023,0.03182689,0.05073634,5972,13955,22247,3346,8673,13721,0.00763291,0.01978045,0.03129182,0.17473395,0.23694952,0.35045431
0,0,Sudan,,,2021-04-04 00:56:42.414405,2020-06-26 00:00:00.000000,0.01308966,0.03090439,0.04908761,5739,13551,21524,3217,8406,13446,0.00733874,0.01917229,0.03066500,0.16996455,0.23676143,0.35249755
0,0,Sudan,,,2021-04-04 00:56:42.414405,2020-06-27 00:00:00.000000,0.01258210,0.03010753,0.04800256,5517,13201,21048,3093,8166,13148,0.00705424,0.01862319,0.02998544,0.17308967,0.23749141,0.35325332
0,0,Sudan,,,2021-04-04 00:56:42.414405,2020-06-28 00:00:00.000000,0.01209681,0.02942419,0.04695819,5304,12902,20590,2973,7978,12785,0.00678072,0.01819539,0.02915712,0.16838191,0.23540965,0.35573604
0,0,Sudan,,,2021-04-04 00:56:42.414405,2020-06-29 00:00:00.000000,0.01163532,0.02881248,0.04594047,5102,12634,20144,2858,7743,12581,0.00651855,0.01765842,0.02869338,0.16391606,0.23912779,0.35616104
0,0,Sudan,,,2021-04-04 00:56:42.414405,2020-06-30 00:00:00.000000,0.01119633,0.02817598,0.04495038,4909,12354,19710,2748,7465,12448,0.00626833,0.01702648,0.02839038,0.16077456,0.23986915,0.35596462
0,0,Sudan,,,2021-04-04 00:56:42.414405,2020-07-01 00:00:00.000000,0.01077767,0.02735711,0.04396486,4725,11995,19278,2683,7205,12230,0.00612036,0.01643258,0.02789300,0.15605094,0.23742162,0.35486158
0,0,Sudan,,,2021-04-04 00:56:42.414405,2020-07-02 00:00:00.000000,0.01037669,0.02667812,0.04299667,4550,11698,18853,2640,6970,12009,0.00602230,0.01589653,0.02738829,0.15711121,0.23567650,0.35728158
0,0,Sudan,,,2021-04-04 00:56:42.414405,2020-07-03 00:00:00.000000,0.01000492,0.02623625,0.04200948,4387,11504,18420,2583,6778,11792,0.00589226,0.01545791,0.02689311,0.15609004,0.24006071,0.36201059
0,0,Sudan,,,2021-04-04 00:56:42.414405,2020-07-04 00:00:00.000000,0.00967444,0.02551447,0.04084997,4242,11187,17912,2467,6538,11569,0.00562647,0.01491060,0.02638512,0.15883447,0.24499658,0.37165845
0,0,Sudan,,,2021-04-04 00:56:42.414405,2020-07-05 00:00:00.000000,0.00938952,0.02475663,0.04039269,4117,10855,17711,2356,6359,11312,0.00537466,0.01450332,0.02579930,0.15709832,0.25018228,0.39041058
0,0,Sudan,,,2021-04-04 00:56:42.414405,2020-07-06 00:00:00.000000,0.00910687,0.02397167,0.04017500,3993,10511,17616,2258,6230,11034,0.00515016,0.01420982,0.02516536,0.16075055,0.25370168,0.40577500
0,0,Sudan,,,2021-04-04 00:56:42.414405,2020-07-07 00:00:00.000000,0.00888116,0.02328337,0.04018532,3894,10209,17620,2179,6066,10747,0.00496993,0.01383387,0.02451120,0.16573491,0.26817655,0.41111671
0,0,Sudan,,,2021-04-04 00:56:42.414405,2020-07-08 00:00:00.000000,0.00871154,0.02259461,0.03949952,3819,9907,17320,2120,5892,10461,0.00483527,0.01343721,0.02385897,0.17189128,0.26855313,0.41428713
0,0,Sudan,,,2021-04-04 00:56:42.414405,2020-07-09 00:00:00.000000,0.00856740,0.02201152,0.03854865,3756,9651,16903,2075,5704,10186,0.00473299,0.01300864,0.02322994,0.17370920,0.27083972,0.41379922
0,0,Sudan,,,2021-04-04 00:56:42.414405,2020-07-10 00:00:00.000000,0.00844026,0.02142260,0.03810195,3700,9393,16707,2038,5553,9929,0.00464924,0.01266601,0.02264573,0.17427428,0.26932967,0.41095674
0,0,Sudan,,,2021-04-04 00:56:42.414405,2020-07-11 00:00:00.000000,0.00834352,0.02082563,0.03755142,3658,9131,16466,2006,5425,9700,0.00457648,0.01237256,0.02212129,0.17441726,0.26958228,0.40698707
0,0,Sudan,,,2021-04-04 00:56:42.414405,2020-07-12 00:00:00.000000,0.00829178,0.02029138,0.03678586,3635,8897,16130,1981,5264,9639,0.00451776,0.01200493,0.02198371,0.17461070,0.26978500,0.40375679
0,0,Sudan,,,2021-04-04 00:56:42.414405,2020-07-13 00:00:00.000000,0.00827104,0.02005721,0.03594080,3626,8794,15759,1958,5158,9517,0.00446647,0.01176315,0.02170486,0.17476007,0.27107719,0.40358496
0,0,Sudan,,,2021-04-04 00:56:42.414405,2020-07-14 00:00:00.000000,0.00820434,0.01969492,0.03506950,3597,8636,15377,1948,5108,9351,0.00444327,0.01164911,0.02132750,0.17515198,0.27321595,0.40692466
0,0,Sudan,,,2021-04-04 00:56:42.414405,2020-07-15 00:00:00.000000,0.00812918,0.01919073,0.03418244,3564,8414,14988,1945,5081,9160,0.00443698,0.01158759,0.02089028,0.17562372,0.27643955,0.40759874
0,0,Sudan,,,2021-04-04 00:56:42.414405,2020-07-16 00:00:00.000000,0.00805465,0.01894351,0.03337282,3531,8306,14633,1946,5038,8952,0.00443802,0.01149054,0.02041693,0.17658632,0.27577480,0.40538203
0,0,Sudan,,,2021-04-04 00:56:42.414405,2020-07-17 00:00:00.000000,0.00797708,0.01864048,0.03277767,3497,8173,14372,1947,4977,8734,0.00444174,0.01135100,0.01991974,0.17836658,0.27860043,0.39953769
0,0,Sudan,,,2021-04-04 00:56:42.414405,2020-07-18 00:00:00.000000,0.00788595,0.01821166,0.03225166,3457,7985,14142,1949,4889,8513,0.00444621,0.01115171,0.01941560,0.18085604,0.27802324,0.39379891
0,0,Sudan,,,2021-04-04 00:56:42.414405,2020-07-19 00:00:00.000000,0.00776122,0.01775753,0.03177118,3403,7786,13931,1951,4797,8289,0.00445065,0.01093990,0.01890490,0.17922230,0.27782418,0.39459450
0,0,Sudan,,,2021-04-04 00:56:42.414405,2020-07-20 00:00:00.000000,0.00759957,0.01748207,0.03132201,3332,7665,13734,1953,4727,8099,0.00445461,0.01078033,0.01847114,0.17121904,0.27439347,0.39471576
0,0,Sudan,,,2021-04-04 00:56:42.414405,2020-07-21 00:00:00.000000,0.00741122,0.01714068,0.03098547,3249,7516,13586,1955,4603,8002,0.00445917,0.01049948,0.01825007,0.17434170,0.27472738,0.39471650
0,0,Sudan,,,2021-04-04 00:56:42.414405,2020-07-22 00:00:00.000000,0.00721320,0.01699376,0.03060212,3162,7451,13418,1927,4479,7962,0.00439653,0.01021517,0.01815892,0.17617514,0.27043089,0.39469591
0,0,Sudan,,,2021-04-04 00:56:42.414405,2020-07-23 00:00:00.000000,0.00701489,0.01691684,0.03010045,3075,7417,13198,1888,4360,7894,0.00430607,0.00994450,0.01800370,0.17464713,0.26901275,0.39467180
0,0,Sudan,,,2021-04-04 00:56:42.414405,2020-07-24 00:00:00.000000,0.00682726,0.01653735,0.02939311,2993,7251,12888,1848,4297,7801,0.00421672,0.00980135,0.01779276,0.16908750,0.26795244,0.40917233
0,0,Sudan,,,2021-04-04 00:56:42.414405,2020-07-25 00:00:00.000000,0.00666447,0.01612929,0.02871348,2922,7072,12590,1810,4240,7691,0.00412866,0.00967024,0.01754034,0.17530096,0.26495460,0.42492527
0,0,Sudan,,,2021-04-04 00:56:42.414405,2020-07-26 00:00:00.000000,0.00653894,0.01577589,0.02805540,2867,6917,12302,1771,4183,7568,0.00403948,0.00954128,0.01726014,0.17946500,0.26508873,0.40583381
0,0,Sudan,,,2021-04-04 00:56:42.414405,2020-07-27 00:00:00.000000,0.00649473,0.01567699,0.02741820,2847,6874,12022,1730,4075,7437,0.00394671,0.00929507,0.01696245,0.18035966,0.26994614,0.42497859
0,0,Sudan,,,2021-04-04 00:56:42.414405,2020-07-28 00:00:00.000000,0.00644872,0.01523205,0.02680000,2827,6679,11751,1691,3954,7300,0.00385695,0.00901818,0.01664965,0.18028419,0.27705198,0.43006755
0,0,Sudan,,,2021-04-04 00:56:42.414405,2020-07-29 00:00:00.000000,0.00640166,0.01508783,0.02620422,2807,6615,11490,1653,3862,7158,0.00376975,0.00880833,0.01632429,0.18177181,0.28129091,0.43021222
0,0,Sudan,,,2021-04-04 00:56:42.414405,2020-07-30 00:00:00.000000,0.00635316,0.01485752,0.02564116,2785,6514,11243,1615,3798,7008,0.00368481,0.00866244,0.01598234,0.18508644,0.28021305,0.43049952
0,0,Sudan,,,2021-04-04 00:56:42.414405,2020-07-31 00:00:00.000000,0.00629993,0.01458177,0.02513181,2762,6394,11020,1579,3780,6846,0.00360210,0.00862262,0.01561349,0.18961352,0.27507735,0.43099909
0,0,Sudan,,,2021-04-04 00:56:42.414405,2020-08-01 00:00:00.000000,0.00623139,0.01445760,0.02450360,2732,6339,10744,1544,3752,6667,0.00352218,0.00855672,0.01520663,0.18626984,0.27117799,0.43213670
0,0,Sudan,,,2021-04-04 00:56:42.414405,2020-08-02 00:00:00.000000,0.00613476,0.01424944,0.02415571,2690,6248,10592,1511,3736,6471,0.00344769,0.00852064,0.01475892,0.18824433,0.27872368,0.43218377
0,0,Sudan,,,2021-04-04 00:56:42.414405,2020-08-03 00:00:00.000000,0.00601032,0.01409906,0.02402725,2635,6182,10535,1484,3714,6260,0.00338469,0.00847114,0.01427823,0.18577569,0.27991451,0.43203326
0,0,Sudan,,,2021-04-04 00:56:42.414405,2020-08-04 00:00:00.000000,0.00587800,0.01402641,0.02367647,2577,6150,10381,1463,3664,6059,0.00333659,0.00835664,0.01381829,0.17412868,0.28203982,0.44868326
0,0,Sudan,,,2021-04-04 00:56:42.414405,2020-08-05 00:00:00.000000,0.00574399,0.01399757,0.02326802,2518,6137,10202,1446,3618,6041,0.00329840,0.00825159,0.01377897,0.17303466,0.28186108,0.45644534
0,0,Sudan,,,2021-04-04 00:56:42.414405,2020-08-06 00:00:00.000000,0.00561118,0.01384873,0.02281421,2460,6072,10003,1431,3584,5999,0.00326551,0.00817549,0.01368313,0.17654401,0.28348644,0.46714431
0,0,Sudan,,,2021-04-04 00:56:42.414405,2020-08-07 00:00:00.000000,0.00548104,0.01374686,0.02233941,2403,6027,9795,1418,3554,5917,0.00323531,0.00810665,0.01349506,0.17365086,0.28587412,0.47023491
0,0,Sudan,,,2021-04-04 00:56:42.414405,2020-08-08 00:00:00.000000,0.00535520,0.01364507,0.02185858,2348,5983,9584,1406,3502,5803,0.00320757,0.00798697,0.01323494,0.17273803,0.28459164,0.46783727
0,0,Sudan,,,2021-04-04 00:56:42.414405,2020-08-09 00:00:00.000000,0.00540280,0.01329423,0.02137932,2369,5829,9374,1389,3428,5668,0.00316958,0.00781854,0.01292721,0.17290734,0.28152247,0.46400264
0,0,Sudan,,,2021-04-04 00:56:42.414405,2020-08-10 00:00:00.000000,0.00548299,0.01299330,0.02080073,2404,5697,9120,1362,3383,5519,0.00310774,0.00771670,0.01258766,0.17317389,0.28034647,0.45731540
0,0,Sudan,,,2021-04-04 00:56:42.414405,2020-08-11 00:00:00.000000,0.00555972,0.01285893,0.02013255,2437,5638,8827,1346,3353,5361,0.00307015,0.00764816,0.01222712,0.17344770,0.27850268,0.45300423
0,0,Sudan,,,2021-04-04 00:56:42.414405,2020-08-12 00:00:00.000000,0.00561856,0.01284378,0.01947950,2463,5631,8541,1339,3319,5198,0.00305466,0.00756939,0.01185491,0.17361173,0.28147679,0.45260584
0,0,Sudan,,,2021-04-04 00:56:42.414405,2020-08-13 00:00:00.000000,0.00561873,0.01272672,0.01918411,2463,5580,8412,1339,3278,5045,0.00305564,0.00747776,0.01150648,0.18195876,0.27918564,0.45537380
0,0,Sudan,,,2021-04-04 00:56:42.414405,2020-08-14 00:00:00.000000,0.00547351,0.01252883,0.01906310,2400,5493,8359,1345,3229,4982,0.00306855,0.00736536,0.01136221,0.18318632,0.27256898,0.46082602
0,0,Sudan,,,2021-04-04 00:56:42.414405,2020-08-15 00:00:00.000000,0.00533123,0.01243440,0.01861720,2337,5452,8163,1355,3174,4920,0.00309119,0.00724006,0.01122030,0.17874209,0.26988620,0.45182665
0,0,Sudan,,,2021-04-04 00:56:42.414405,2020-08-16 00:00:00.000000,0.00519206,0.01231527,0.01816327,2276,5400,7964,1330,3106,4858,0.00303448,0.00708358,0.01108067,0.17583054,0.26594218,0.41928732
0,0,Sudan,,,2021-04-04 00:56:42.414405,2020-08-17 00:00:00.000000,0.00506111,0.01202555,0.01814137,2219,5273,7954,1295,3044,4811,0.00295555,0.00694339,0.01097276,0.17585511,0.26424331,0.42453390
0,0,Sudan,,,2021-04-04 00:56:42.414405,2020-08-18 00:00:00.000000,0.00493360,0.01166703,0.01754591,2163,5115,7693,1262,3021,4739,0.00288007,0.00689101,0.01080871,0.17060513,0.25935018,0.43000099
0,0,Sudan,,,2021-04-04 00:56:42.414405,2020-08-19 00:00:00.000000,0.00480964,0.01131931,0.01763838,2108,4963,7734,1230,2992,4681,0.00280723,0.00682394,0.01067698,0.16716479,0.25792397,0.43368367
0,0,Sudan,,,2021-04-04 00:56:42.414405,2020-08-20 00:00:00.000000,0.00468841,0.01114185,0.01767624,2055,4885,7750,1199,2932,4624,0.00273659,0.00668704,0.01054717,0.16193489,0.25579543,0.43541764
0,0,Sudan,,,2021-04-04 00:56:42.414405,2020-08-21 00:00:00.000000,0.00456673,0.01088676,0.01754057,2002,4773,7691,1170,2844,4568,0.00266824,0.00648661,0.01041753,0.16157229,0.25256711,0.43364552
0,0,Sudan,,,2021-04-04 00:56:42.414405,2020-08-22 00:00:00.000000,0.00443268,0.01051130,0.01722178,1943,4609,7551,1140,2788,4508,0.00260127,0.00635840,0.01028150,0.16164204,0.24424092,0.41111708
0,0,Sudan,,,2021-04-04 00:56:42.414405,2020-08-23 00:00:00.000000,0.00426875,0.01007414,0.01664316,1871,4417,7297,1109,2698,4423,0.00253012,0.00615502,0.01008731,0.15128587,0.23399748,0.38696685
0,0,Sudan,,,2021-04-04 00:56:42.414405,2020-08-24 00:00:00.000000,0.00408257,0.00965799,0.01606259,1790,4234,7043,1072,2602,4299,0.00244645,0.00593404,0.00980534,0.14870092,0.21937328,0.35808427
0,0,Sudan,,,2021-04-04 00:56:42.414405,2020-08-25 00:00:00.000000,0.00389037,0.00922744,0.01552314,1705,4046,6806,1030,2525,4173,0.00234948,0.00575921,0.00951887,0.14614185,0.20914263,0.35768324
0,0,Sudan,,,2021-04-04 00:56:42.414405,2020-08-26 00:00:00.000000,0.00369486,0.00886136,0.01512431,1620,3885,6631,984,2424,4046,0.00224512,0.00552998,0.00922887,0.14054534,0.20407129,0.35698856
0,0,Sudan,,,2021-04-04 00:56:42.414405,2020-08-27 00:00:00.000000,0.00349244,0.00849894,0.01472345,1531,3726,6456,937,2317,3918,0.00213706,0.00528616,0.00893667,0.13972174,0.19955208,0.34215770
0,0,Sudan,,,2021-04-04 00:56:42.414405,2020-08-28 00:00:00.000000,0.00328103,0.00813427,0.01426112,1438,3566,6253,888,2226,3800,0.00202545,0.00507724,0.00866808,0.13637320,0.19448818,0.34655091
0,0,Sudan,,,2021-04-04 00:56:42.414405,2020-08-29 00:00:00.000000,0.00309690,0.00775716,0.01363147,1357,3401,5977,837,2137,3673,0.00190940,0.00487439,0.00837844,0.13151705,0.18713065,0.33359219
0,0,Sudan,,,2021-04-04 00:56:42.414405,2020-08-30 00:00:00.000000,0.00298721,0.00738953,0.01298435,1309,3240,5693,785,2047,3538,0.00179039,0.00466980,0.00807041,0.12145443,0.18247522,0.29948615
0,0,Sudan,,,2021-04-04 00:56:42.414405,2020-08-31 00:00:00.000000,0.00284618,0.00703423,0.01233535,1248,3084,5408,755,1958,3398,0.00172385,0.00446682,0.00775111,0.10704967,0.18126737,0.29878764
0,0,Sudan,,,2021-04-04 00:56:42.414405,2020-09-01 00:00:00.000000,0.00268007,0.00664496,0.01193248,1175,2913,5232,721,1863,3255,0.00164546,0.00424871,0.00742362,0.10287116,0.17065900,0.28120232
0,0,Sudan,,,2021-04-04 00:56:42.414405,2020-09-02 00:00:00.000000,0.00250619,0.00624787,0.01145543,1098,2739,5023,680,1770,3109,0.00155137,0.00403668,0.00709082,0.10171244,0.16236871,0.28099646
0,0,Sudan,,,2021-04-04 00:56:42.414405,2020-09-03 00:00:00.000000,0.00235815,0.00589833,0.01081379,1034,2586,4741,636,1678,2962,0.00145156,0.00382891,0.00675530,0.10146551,0.15548337,0.26601681
0,0,Sudan,,,2021-04-04 00:56:42.414405,2020-09-04 00:00:00.000000,0.00221365,0.00557256,0.01023798,970,2443,4489,593,1588,2812,0.00135286,0.00362373,0.00641375,0.10148523,0.14776110,0.25862758
0,0,Sudan,,,2021-04-04 00:56:42.414405,2020-09-05 00:00:00.000000,0.00206929,0.00527462,0.00963815,907,2312,4226,551,1491,2672,0.00125797,0.00340139,0.00609535,0.09814260,0.14346499,0.24011722
0,0,Sudan,,,2021-04-04 00:56:42.414405,2020-09-06 00:00:00.000000,0.00192724,0.00493370,0.00916264,845,2163,4017,511,1394,2541,0.00116673,0.00318107,0.00579608,0.09554293,0.13839495,0.23221731
0,0,Sudan,,,2021-04-04 00:56:42.414405,2020-09-07 00:00:00.000000,0.00178318,0.00459539,0.00868883,781,2015,3809,472,1288,2393,0.00107707,0.00293797,0.00545810,0.09316448,0.13550849,0.23151812
0,0,Sudan,,,2021-04-04 00:56:42.414405,2020-09-08 00:00:00.000000,0.00164355,0.00428403,0.00806344,720,1878,3535,434,1197,2252,0.00099110,0.00273153,0.00513638,0.09040534,0.13405833,0.23114328
0,0,Sudan,,,2021-04-04 00:56:42.414405,2020-09-09 00:00:00.000000,0.00151127,0.00397224,0.00746756,662,1741,3274,402,1112,2118,0.00091749,0.00253609,0.00483148,0.08971961,0.13279856,0.23093491
0,0,Sudan,,,2021-04-04 00:56:42.414405,2020-09-10 00:00:00.000000,0.00138824,0.00362067,0.00691019,608,1587,3030,371,1031,1992,0.00084639,0.00235185,0.00454346,0.08815621,0.13245811,0.23077008
0,0,Sudan,,,2021-04-04 00:56:42.414405,2020-09-11 00:00:00.000000,0.00127511,0.00334597,0.00638907,559,1467,2801,341,955,1873,0.00077908,0.00217936,0.00427210,0.08713894,0.13356007,0.23017220
0,0,Sudan,,,2021-04-04 00:56:42.414405,2020-09-12 00:00:00.000000,0.00115413,0.00308831,0.00596363,506,1354,2615,314,885,1761,0.00071631,0.00201858,0.00401690,0.08652102,0.13148126,0.21598013
0,0,Sudan,,,2021-04-04 00:56:42.414405,2020-09-13 00:00:00.000000,0.00104011,0.00286617,0.00557371,456,1256,2444,288,810,1656,0.00065832,0.00184928,0.00377705,0.08616510,0.13022336,0.21466673
0,0,Sudan,,,2021-04-04 00:56:42.414405,2020-09-14 00:00:00.000000,0.00093344,0.00264490,0.00522058,409,1159,2289,265,745,1557,0.00060496,0.00169918,0.00355186,0.08502652,0.13037819,0.20885179
0,0,Sudan,,,2021-04-04 00:56:42.414405,2020-09-15 00:00:00.000000,0.00086865,0.00244506,0.00489780,380,1072,2147,244,682,1465,0.00055846,0.00155536,0.00334203,0.08380279,0.13187555,0.21182777
0,0,Sudan,,,2021-04-04 00:56:42.414405,2020-09-16 00:00:00.000000,0.00081571,0.00228602,0.00459697,357,1002,2015,221,634,1379,0.00050542,0.00144703,0.00314688,0.08326329,0.13225376,0.22092677
0,0,Sudan,,,2021-04-04 00:56:42.414405,2020-09-17 00:00:00.000000,0.00077027,0.00213623,0.00431359,337,936,1891,207,589,1300,0.00047420,0.00134489,0.00296576,0.08282790,0.13255784,0.22898245
0,0,Sudan,,,2021-04-04 00:56:42.414405,2020-09-18 00:00:00.000000,0.00073099,0.00198046,0.00404539,320,868,1773,195,544,1226,0.00044663,0.00124245,0.00279787,0.08168286,0.13246796,0.24385981
0,0,Sudan,,,2021-04-04 00:56:42.414405,2020-09-19 00:00:00.000000,0.00069677,0.00183660,0.00379243,305,805,1662,182,504,1158,0.00041640,0.00115096,0.00264226,0.08163637,0.13432586,0.25989346
0,0,Sudan,,,2021-04-04 00:56:42.414405,2020-09-20 00:00:00.000000,0.00065983,0.00170359,0.00356800,289,747,1564,170,473,1095,0.00038902,0.00107996,0.00249782,0.08175104,0.13636999,0.27402414
0,0,Sudan,,,2021-04-04 00:56:42.414405,2020-09-21 00:00:00.000000,0.00061106,0.00158290,0.00338406,267,694,1483,159,447,1036,0.00036417,0.00102103,0.00236344,0.08236693,0.13839384,0.28368891
0,0,Sudan,,,2021-04-04 00:56:42.414405,2020-09-22 00:00:00.000000,0.00056602,0.00147263,0.00321150,248,645,1408,148,422,981,0.00033919,0.00096305,0.00223853,0.08915615,0.13989053,0.28853695
0,0,Sudan,,,2021-04-04 00:56:42.414405,2020-09-23 00:00:00.000000,0.00052443,0.00137236,0.00304946,229,601,1337,138,395,930,0.00031500,0.00090107,0.00212202,0.09524760,0.14084502,0.29036529
0,0,Sudan,,,2021-04-04 00:56:42.414405,2020-09-24 00:00:00.000000,0.00048678,0.00129170,0.00289731,213,566,1270,128,369,882,0.00029216,0.00084267,0.00201302,0.09903213,0.14404121,0.28910343
0,0,Sudan,,,2021-04-04 00:56:42.414405,2020-09-25 00:00:00.000000,0.00045345,0.00122014,0.00275468,198,535,1207,118,345,837,0.00027105,0.00078883,0.00191090,0.10264443,0.15062650,0.28454112
0,0,Sudan,,,2021-04-04 00:56:42.414405,2020-09-26 00:00:00.000000,0.00042443,0.00116458,0.00262146,186,510,1149,110,325,790,0.00025197,0.00074212,0.00180244,0.10649206,0.16027675,0.28261909
0,0,Sudan,,,2021-04-04 00:56:42.414405,2020-09-27 00:00:00.000000,0.00039914,0.00110267,0.00249780,175,483,1095,103,309,742,0.00023502,0.00070494,0.00169311,0.11092587,0.16823585,0.29031793
0,0,Sudan,,,2021-04-04 00:56:42.414405,2020-09-28 00:00:00.000000,0.00037663,0.00103921,0.00238455,165,455,1045,96,295,696,0.00022013,0.00067353,0.00158936,0.11118891,0.17056179,0.29404553
0,0,Sudan,,,2021-04-04 00:56:42.414405,2020-09-29 00:00:00.000000,0.00035433,0.00099007,0.00228026,155,434,999,90,283,652,0.00020698,0.00064644,0.00148857,0.11127459,0.17663307,0.29722465
0,0,Sudan,,,2021-04-04 00:56:42.414405,2020-09-30 00:00:00.000000,0.00033390,0.00095632,0.00213109,146,419,934,85,269,610,0.00019526,0.00061454,0.00139216,0.11131780,0.17909315,0.29966298
0,0,Sudan,,,2021-04-04 00:56:42.414405,2020-10-01 00:00:00.000000,0.00031527,0.00093095,0.00198969,138,408,872,81,257,570,0.00018475,0.00058764,0.00130089,0.11155009,0.18917610,0.30436478
0,0,Sudan,,,2021-04-04 00:56:42.414405,2020-10-02 00:00:00.000000,0.00029821,0.00090278,0.00185862,130,395,814,76,244,532,0.00017528,0.00055759,0.00121510,0.11457872,0.19992535,0.31521552
0,0,Sudan,,,2021-04-04 00:56:42.414405,2020-10-03 00:00:00.000000,0.00028263,0.00087647,0.00175030,123,384,767,72,232,497,0.00016642,0.00053014,0.00113502,0.12575309,0.21423483,0.33075300
0,0,Sudan,,,2021-04-04 00:56:42.414405,2020-10-04 00:00:00.000000,0.00026889,0.00083908,0.00169747,117,367,744,69,222,465,0.00015744,0.00050695,0.00106125,0.13454436,0.22926043,0.35138815
0,0,Sudan,,,2021-04-04 00:56:42.414405,2020-10-05 00:00:00.000000,0.00025876,0.00081070,0.00165089,113,355,723,66,216,436,0.00015180,0.00049378,0.00099566,0.14467274,0.24224938,0.38300749
0,0,Sudan,,,2021-04-04 00:56:42.414405,2020-10-06 00:00:00.000000,0.00025049,0.00079327,0.00160930,109,347,705,65,208,414,0.00014826,0.00047459,0.00094415,0.15179766,0.25157030,0.41861799
0,0,Sudan,,,2021-04-04 00:56:42.414405,2020-10-07 00:00:00.000000,0.00024387,0.00079139,0.00157657,106,347,691,63,203,401,0.00014450,0.00046499,0.00091599,0.15576683,0.26387283,0.44938363
0,0,Sudan,,,2021-04-04 00:56:42.414405,2020-10-08 00:00:00.000000,0.00023900,0.00079684,0.00155619,104,349,682,62,199,391,0.00014157,0.00045429,0.00089296,0.15787738,0.27890523,0.47754904
0,0,Sudan,,,2021-04-04 00:56:42.414405,2020-10-09 00:00:00.000000,0.00023616,0.00080346,0.00154686,103,352,678,61,196,383,0.00013925,0.00044803,0.00087489,0.15918835,0.29590589,0.51688408
0,0,Sudan,,,2021-04-04 00:56:42.414405,2020-10-10 00:00:00.000000,0.00023565,0.00079890,0.00154478,103,350,677,60,193,379,0.00013737,0.00044177,0.00086513,0.16037980,0.31027205,0.52914113
0,0,Sudan,,,2021-04-04 00:56:42.414405,2020-10-11 00:00:00.000000,0.00023762,0.00080603,0.00156452,104,353,686,59,193,380,0.00013595,0.00044099,0.00086717,0.17284699,0.32897608,0.55059201
0,0,Sudan,,,2021-04-04 00:56:42.414405,2020-10-12 00:00:00.000000,0.00023813,0.00081143,0.00162243,104,355,711,59,197,385,0.00013573,0.00045010,0.00087932,0.20737359,0.34565829,0.57574769
0,0,Sudan,,,2021-04-04 00:56:42.414405,2020-10-13 00:00:00.000000,0.00024066,0.00081240,0.00168658,105,356,739,62,200,394,0.00014259,0.00045664,0.00089996,0.21450269,0.37252032,0.58158903
0,0,Sudan,,,2021-04-04 00:56:42.414405,2020-10-14 00:00:00.000000,0.00024461,0.00082557,0.00175585,107,362,769,63,204,406,0.00014383,0.00046591,0.00092712,0.21738983,0.38615904,0.63490395
0,0,Sudan,,,2021-04-04 00:56:42.414405,2020-10-15 00:00:00.000000,0.00025022,0.00085061,0.00182176,109,372,798,63,209,422,0.00014576,0.00047776,0.00096360,0.25824841,0.39707282,0.64312423
0,0,Sudan,,,2021-04-04 00:56:42.414405,2020-10-16 00:00:00.000000,0.00025921,0.00089117,0.00186119,113,390,816,65,215,444,0.00014864,0.00049205,0.00101410,0.27933540,0.41614243,0.65825420
0,0,Sudan,,,2021-04-04 00:56:42.414405,2020-10-17 00:00:00.000000,0.00027348,0.00094094,0.00190838,119,412,836,67,222,462,0.00015316,0.00050785,0.00105476,0.28769906,0.45931649,0.77625659
0,0,Sudan,,,2021-04-04 00:56:42.414405,2020-10-18 00:00:00.000000,0.00029147,0.00099239,0.00196445,127,435,861,70,232,466,0.00016034,0.00052977,0.00106411,0.30056340,0.50661473,0.85567047
0,0,Sudan,,,2021-04-04 00:56:42.414405,2020-10-19 00:00:00.000000,0.00031369,0.00109365,0.00205913,137,479,902,74,244,472,0.00016998,0.00055813,0.00107833,0.32033803,0.53653360,0.91013297
0,0,Sudan,,,2021-04-04 00:56:42.414405,2020-10-20 00:00:00.000000,0.00033979,0.00116305,0.00224301,148,509,983,79,258,488,0.00018210,0.00058997,0.00111403,0.33618884,0.56554702,0.93610279
0,0,Sudan,,,2021-04-04 00:56:42.414405,2020-10-21 00:00:00.000000,0.00037147,0.00126972,0.00246401,162,556,1080,86,279,521,0.00019660,0.00063678,0.00118972,0.36832340,0.58427012,0.95061060
0,0,Sudan,,,2021-04-04 00:56:42.414405,2020-10-22 00:00:00.000000,0.00041104,0.00136839,0.00267361,180,600,1172,93,300,576,0.00021408,0.00068581,0.00131397,0.42186455,0.61008331,0.96181799
0,0,Sudan,,,2021-04-04 00:56:42.414405,2020-10-23 00:00:00.000000,0.00046139,0.00152674,0.00293388,202,669,1286,103,329,621,0.00023570,0.00075154,0.00141767,0.44952527,0.63140577,1.03071054
0,0,Sudan,,,2021-04-04 00:56:42.414405,2020-10-24 00:00:00.000000,0.00052537,0.00171067,0.00324777,230,750,1424,115,361,673,0.00026301,0.00082368,0.00153686,0.47939997,0.67631932,1.10185472
0,0,Sudan,,,2021-04-04 00:56:42.414405,2020-10-25 00:00:00.000000,0.00060545,0.00191655,0.00363362,265,840,1593,130,402,741,0.00029767,0.00091860,0.00169102,0.50314073,0.73856516,1.10840179
0,0,Sudan,,,2021-04-04 00:56:42.414405,2020-10-26 00:00:00.000000,0.00070312,0.00214897,0.00409251,308,942,1794,149,451,821,0.00034127,0.00102880,0.00187449,0.51555996,0.75851682,1.09392263
0,0,Sudan,,,2021-04-04 00:56:42.414405,2020-10-27 00:00:00.000000,0.00082196,0.00243889,0.00462882,360,1069,2029,171,504,915,0.00039127,0.00115117,0.00208676,0.53881219,0.78032061,1.13277773
0,0,Sudan,,,2021-04-04 00:56:42.414405,2020-10-28 00:00:00.000000,0.00096476,0.00275085,0.00527635,423,1206,2313,190,572,1024,0.00043369,0.00130530,0.00233722,0.61013676,0.79832150,1.14291405
0,0,Sudan,,,2021-04-04 00:56:42.414405,2020-10-29 00:00:00.000000,0.00113260,0.00309541,0.00601332,496,1357,2636,211,648,1197,0.00048278,0.00147976,0.00273197,0.62415619,0.81104661,1.14340116
0,0,Sudan,,,2021-04-04 00:56:42.414405,2020-10-30 00:00:00.000000,0.00129729,0.00349881,0.00685217,568,1534,3004,237,736,1400,0.00054109,0.00167943,0.00319338,0.64605493,0.83179711,1.15915089
0,0,Sudan,,,2021-04-04 00:56:42.414405,2020-10-31 00:00:00.000000,0.00150205,0.00394366,0.00780775,658,1729,3423,268,831,1583,0.00061277,0.00189682,0.00361033,0.65596558,0.84879469,1.15723734
0,0,Sudan,,,2021-04-04 00:56:42.414405,2020-11-01 00:00:00.000000,0.00174023,0.00447641,0.00890131,763,1962,3903,308,935,1768,0.00070298,0.00213275,0.00403299,0.69273768,0.85589219,1.15369444
0,0,Sudan,,,2021-04-04 00:56:42.414405,2020-11-02 00:00:00.000000,0.00200678,0.00512719,0.01014276,879,2248,4447,355,1055,2003,0.00081140,0.00240790,0.00456873,0.72894236,0.86948385,1.16259658
0,0,Sudan,,,2021-04-04 00:56:42.414405,2020-11-03 00:00:00.000000,0.00231514,0.00588830,0.01155685,1015,2581,5067,410,1192,2290,0.00093643,0.00271926,0.00522265,0.73622354,0.87517773,1.19431444
0,0,Sudan,,,2021-04-04 00:56:42.414405,2020-11-04 00:00:00.000000,0.00267030,0.00675962,0.01316673,1170,2964,5773,473,1349,2623,0.00108053,0.00307746,0.00598261,0.73689588,0.87756727,1.20176988
0,0,Sudan,,,2021-04-04 00:56:42.414405,2020-11-05 00:00:00.000000,0.00307935,0.00774800,0.01499903,1350,3397,6576,546,1529,3003,0.00124652,0.00348729,0.00685005,0.72895358,0.87419138,1.20514173
0,0,Sudan,,,2021-04-04 00:56:42.414405,2020-11-06 00:00:00.000000,0.00355047,0.00880728,0.01708945,1556,3861,7493,630,1737,3431,0.00143769,0.00396196,0.00782651,0.71790649,0.87642376,1.20917122
0,0,Sudan,,,2021-04-04 00:56:42.414405,2020-11-07 00:00:00.000000,0.00409291,0.01001107,0.01945483,1794,4389,8530,726,1975,3908,0.00165789,0.00450412,0.00891369,0.68314283,0.87321160,1.19353773
0,0,Sudan,,,2021-04-04 00:56:42.414405,2020-11-08 00:00:00.000000,0.00471565,0.01137907,0.02214610,2067,4989,9710,838,2248,4435,0.00191145,0.00512779,0.01011451,0.68290442,0.87412811,1.14986458
0,0,Sudan,,,2021-04-04 00:56:42.414405,2020-11-09 00:00:00.000000,0.00531241,0.01293433,0.02471382,2329,5671,10836,965,2560,5014,0.00220280,0.00583906,0.01143570,0.67948698,0.86026146,1.11081025
0,0,Sudan,,,2021-04-04 00:56:42.414405,2020-11-10 00:00:00.000000,0.00593022,0.01470168,0.02748096,2600,6446,12050,1098,2915,5598,0.00250591,0.00664901,0.01276723,0.69768926,0.86023068,1.03784509
0,0,Sudan,,,2021-04-04 00:56:42.414405,2020-11-11 00:00:00.000000,0.00660073,0.01671016,0.03063429,2894,7327,13432,1236,3313,6228,0.00281906,0.00755624,0.01420371,0.69318612,0.85365299,1.04391124
0,0,Sudan,,,2021-04-04 00:56:42.414405,2020-11-12 00:00:00.000000,0.00733309,0.01893412,0.03479434,3215,8302,15257,1381,3744,7005,0.00315109,0.00853876,0.01597643,0.67786936,0.82998359,1.02010753
0,0,Sudan,,,2021-04-04 00:56:42.414405,2020-11-13 00:00:00.000000,0.00813123,0.02119251,0.03972751,3565,9292,17420,1538,4221,8004,0.00350930,0.00962719,0.01825569,0.64098106,0.79306102,1.02408533
0,0,Sudan,,,2021-04-04 00:56:42.414405,2020-11-14 00:00:00.000000,0.00900326,0.02369807,0.04447458,3947,10391,19501,1709,4838,8969,0.00389821,0.01103340,0.02045618,0.59027552,0.77631481,1.02911431
0,0,Sudan,,,2021-04-04 00:56:42.414405,2020-11-15 00:00:00.000000,0.00996120,0.02639558,0.04859598,4367,11574,21308,1895,5524,10029,0.00432206,0.01259921,0.02287344,0.57106611,0.74018143,1.00869205
0,0,Sudan,,,2021-04-04 00:56:42.414405,2020-11-16 00:00:00.000000,0.01101784,0.02893152,0.05212939,4831,12686,22858,2098,6272,11166,0.00478609,0.01430570,0.02546581,0.53704478,0.69031200,0.98164312
0,0,Sudan,,,2021-04-04 00:56:42.414405,2020-11-17 00:00:00.000000,0.01218373,0.03175867,0.05537064,5342,13925,24279,2322,6839,12327,0.00529600,0.01559665,0.02811229,0.51647035,0.65596355,0.95840263
0,0,Sudan,,,2021-04-04 00:56:42.414405,2020-11-18 00:00:00.000000,0.01347043,0.03503993,0.05887186,5906,15364,25814,2568,7499,13452,0.00585790,0.01710262,0.03067784,0.44701228,0.62156868,0.92647576
0,0,Sudan,,,2021-04-04 00:56:42.414405,2020-11-19 00:00:00.000000,0.01488496,0.03889314,0.06279156,6526,17054,27533,2840,8266,14524,0.00647786,0.01885115,0.03312262,0.44006976,0.59802663,0.86056134
0,0,Sudan,,,2021-04-04 00:56:42.414405,2020-11-20 00:00:00.000000,0.01636483,0.04231001,0.06675146,7175,18552,29270,3139,9114,15552,0.00716031,0.02078708,0.03546716,0.40974504,0.56537140,0.77092118
0,0,Sudan,,,2021-04-04 00:56:42.414405,2020-11-21 00:00:00.000000,0.01744522,0.04482278,0.07018599,7649,19654,30776,3459,9929,16415,0.00788996,0.02264511,0.03743730,0.36742099,0.53772743,0.74549425
0,0,Sudan,,,2021-04-04 00:56:42.414405,2020-11-22 00:00:00.000000,0.01801421,0.04773344,0.07288660,7899,20930,31960,3743,10678,17525,0.00853668,0.02435366,0.03996765,0.34396331,0.49950969,0.70207056
0,0,Sudan,,,2021-04-04 00:56:42.414405,2020-11-23 00:00:00.000000,0.01848999,0.05049512,0.07703103,8107,22141,33777,3946,11325,18591,0.00900054,0.02582918,0.04239814,0.32500669,0.48020977,0.68721247
0,0,Sudan,,,2021-04-04 00:56:42.414405,2020-11-24 00:00:00.000000,0.01893921,0.05300646,0.08095232,8304,23242,35497,4117,12011,19854,0.00938924,0.02739188,0.04528005,0.31189175,0.46580216,0.66069545
0,0,Sudan,,,2021-04-04 00:56:42.414405,2020-11-25 00:00:00.000000,0.01937903,0.05615832,0.08355198,8497,24625,36636,4335,12832,20491,0.00988817,0.02926459,0.04673191,0.30523315,0.44828976,0.64351528
0,0,Sudan,,,2021-04-04 00:56:42.414405,2020-11-26 00:00:00.000000,0.02057003,0.05831206,0.08545560,9019,25569,37471,4573,13460,21393,0.01042917,0.03069650,0.04878912,0.28758353,0.43319719,0.63072191
0,0,Sudan,,,2021-04-04 00:56:42.414405,2020-11-27 00:00:00.000000,0.02188377,0.05999274,0.09263550,9595,26306,40619,4850,14185,22360,0.01106248,0.03235152,0.05099496,0.28435499,0.41647237,0.60372828
0,0,Sudan,,,2021-04-04 00:56:42.414405,2020-11-28 00:00:00.000000,0.02331414,0.06262835,0.09570202,10223,27462,41964,5155,14888,23339,0.01175845,0.03395396,0.05322568,0.27796574,0.40833064,0.58115219
0,0,Sudan,,,2021-04-04 00:56:42.414405,2020-11-29 00:00:00.000000,0.02451566,0.06398281,0.09711436,10749,28055,42583,5488,15548,24287,0.01251723,0.03545974,0.05538809,0.27101780,0.39098767,0.54074647
0,0,Sudan,,,2021-04-04 00:56:42.414405,2020-11-30 00:00:00.000000,0.02418925,0.06522814,0.09812032,10606,28602,43025,5843,16022,25115,0.01332741,0.03653888,0.05727769,0.26580245,0.37388207,0.52223983
0,0,Sudan,,,2021-04-04 00:56:42.414405,2020-12-01 00:00:00.000000,0.02378282,0.06658038,0.09890561,10428,29195,43369,6084,16219,25817,0.01387520,0.03698860,0.05887822,0.26516195,0.35963996,0.48199313
0,0,Sudan,,,2021-04-04 00:56:42.414405,2020-12-02 00:00:00.000000,0.02335341,0.06776864,0.09956009,10240,29716,43656,5985,16400,26381,0.01365071,0.03740158,0.06016312,0.25684465,0.35370484,0.47366891
0,0,Sudan,,,2021-04-04 00:56:42.414405,2020-12-03 00:00:00.000000,0.02340676,0.06833754,0.10023616,10263,29965,43952,5878,16563,26809,0.01340680,0.03777411,0.06114009,0.25527676,0.34611191,0.46997147
0,0,Sudan,,,2021-04-04 00:56:42.414405,2020-12-04 00:00:00.000000,0.02399025,0.06874750,0.10148095,10519,30145,44498,5776,16695,27104,0.01317398,0.03807559,0.06181297,0.24657316,0.34165593,0.46628560
0,0,Sudan,,,2021-04-04 00:56:42.414405,2020-12-05 00:00:00.000000,0.02455040,0.06973134,0.10280830,10765,30576,45080,5739,16870,27257,0.01308955,0.03847414,0.06216161,0.24236610,0.33036868,0.45209836
0,0,Sudan,,,2021-04-04 00:56:42.414405,2020-12-06 00:00:00.000000,0.02505207,0.07059122,0.10127504,10985,30953,44408,5784,17038,27246,0.01319170,0.03885771,0.06213760,0.24176712,0.32898966,0.44376294
0,0,Sudan,,,2021-04-04 00:56:42.414405,2020-12-07 00:00:00.000000,0.02544635,0.07065786,0.10191975,11158,30982,44691,5824,17364,27119,0.01328236,0.03960141,0.06184684,0.23811391,0.32683505,0.44625704
0,0,Sudan,,,2021-04-04 00:56:42.414405,2020-12-08 00:00:00.000000,0.02500738,0.06976852,0.10236499,10965,30592,44886,5864,17407,27139,0.01337495,0.03969808,0.06189263,0.22476118,0.32433566,0.44571668
0,0,Sudan,,,2021-04-04 00:56:42.414405,2020-12-09 00:00:00.000000,0.02454338,0.06886066,0.10212489,10762,30194,44781,5905,17307,27218,0.01346784,0.03947063,0.06207356,0.22256783,0.31944305,0.44278408
0,0,Sudan,,,2021-04-04 00:56:42.414405,2020-12-10 00:00:00.000000,0.02446184,0.06819548,0.10139104,10726,29903,44459,5854,17227,27164,0.01335255,0.03928831,0.06195000,0.22171114,0.31075940,0.44252651
0,0,Sudan,,,2021-04-04 00:56:42.414405,2020-12-11 00:00:00.000000,0.02466204,0.06760456,0.10023721,10814,29644,43953,5886,16998,27020,0.01342553,0.03876561,0.06162218,0.21410378,0.30971052,0.43956910
0,0,Sudan,,,2021-04-04 00:56:42.414405,2020-12-12 00:00:00.000000,0.02488156,0.06727984,0.09885383,10910,29501,43346,5904,16843,26818,0.01346617,0.03841206,0.06116079,0.21337040,0.30755670,0.42893821
0,0,Sudan,,,2021-04-04 00:56:42.414405,2020-12-13 00:00:00.000000,0.02511762,0.06704849,0.09738480,11013,29400,42702,5916,16812,26578,0.01349230,0.03834128,0.06061342,0.21288073,0.30290608,0.42917331
0,0,Sudan,,,2021-04-04 00:56:42.414405,2020-12-14 00:00:00.000000,0.02536654,0.06681439,0.09671218,11123,29297,42407,5926,16762,26314,0.01351581,0.03822866,0.06001164,0.21251590,0.30071280,0.42963522
0,0,Sudan,,,2021-04-04 00:56:42.414405,2020-12-15 00:00:00.000000,0.02562586,0.06629157,0.09769474,11236,29068,42838,5937,16657,26035,0.01354147,0.03798892,0.05937522,0.21965428,0.29741778,0.43023067
0,0,Sudan,,,2021-04-04 00:56:42.414405,2020-12-16 00:00:00.000000,0.02589436,0.06590610,0.09873146,11354,28899,43293,5949,16486,25938,0.01356882,0.03759894,0.05915384,0.22034861,0.30344403,0.43108770
0,0,Sudan,,,2021-04-04 00:56:42.414405,2020-12-17 00:00:00.000000,0.02617124,0.06552382,0.09983171,11475,28731,43775,5962,16310,26010,0.01359732,0.03719642,0.05931779,0.21866204,0.30485432,0.41942680
0,0,Sudan,,,2021-04-04 00:56:42.414405,2020-12-18 00:00:00.000000,0.02621688,0.06485291,0.10100637,11495,28437,44290,5975,16039,25741,0.01362664,0.03657929,0.05870492,0.21833751,0.30511532,0.41886958
0,0,Sudan,,,2021-04-04 00:56:42.414405,2020-12-19 00:00:00.000000,0.02576906,0.06414932,0.10226366,11299,28129,44841,5988,15790,25401,0.01365651,0.03601102,0.05792996,0.22311476,0.30863182,0.41781633
0,0,Sudan,,,2021-04-04 00:56:42.414405,2020-12-20 00:00:00.000000,0.02539055,0.06326127,0.10360519,11133,27739,45430,6001,15661,25596,0.01368612,0.03571667,0.05837440,0.22456505,0.31088881,0.41602728
0,0,Sudan,,,2021-04-04 00:56:42.414405,2020-12-21 00:00:00.000000,0.02506201,0.06248371,0.10503030,10989,27398,46055,6012,15698,25913,0.01371271,0.03580191,0.05909642,0.21879802,0.31325602,0.43665857
0,0,Sudan,,,2021-04-04 00:56:42.414405,2020-12-22 00:00:00.000000,0.02477170,0.06216770,0.10650545,10862,27260,46701,6021,15647,26250,0.01373237,0.03568407,0.05986572,0.21894431,0.31170662,0.44505866
0,0,Sudan,,,2021-04-04 00:56:42.414405,2020-12-23 00:00:00.000000,0.02458677,0.06225555,0.10549972,10781,27298,46260,6028,15437,26288,0.01374715,0.03520545,0.05995308,0.21942411,0.31318016,0.44597249
0,0,Sudan,,,2021-04-04 00:56:42.414405,2020-12-24 00:00:00.000000,0.02488082,0.06110372,0.10407041,10910,26793,45634,6033,15326,26280,0.01376054,0.03495251,0.05993401,0.22000040,0.31603360,0.44781362
0,0,Sudan,,,2021-04-04 00:56:42.414405,2020-12-25 00:00:00.000000,0.02518988,0.06134006,0.10275338,11045,26897,45056,6043,15449,26241,0.01378199,0.03523356,0.05984523,0.22094400,0.32492422,0.45537397
0,0,Sudan,,,2021-04-04 00:56:42.414405,2020-12-26 00:00:00.000000,0.02553589,0.06198331,0.10149784,11197,27179,44506,6067,15609,26175,0.01383612,0.03559758,0.05969409,0.22406372,0.33403315,0.46614885
0,0,Sudan,,,2021-04-04 00:56:42.414405,2020-12-27 00:00:00.000000,0.02589685,0.06216119,0.10026957,11355,27257,43967,6109,15416,26087,0.01393228,0.03515735,0.05949369,0.23774568,0.34118162,0.48327045
0,0,Sudan,,,2021-04-04 00:56:42.414405,2020-12-28 00:00:00.000000,0.02579165,0.06301504,0.09906018,11309,27631,43437,6164,15616,26017,0.01405895,0.03561448,0.05933357,0.25313123,0.34887571,0.49125158
0,0,Sudan,,,2021-04-04 00:56:42.414405,2020-12-29 00:00:00.000000,0.02569638,0.06433507,0.09787904,11267,28210,42919,6228,15658,25998,0.01420546,0.03570998,0.05929009,0.25047159,0.35866227,0.49712593
0,0,Sudan,,,2021-04-04 00:56:42.414405,2020-12-30 00:00:00.000000,0.02561777,0.06531656,0.09690654,11233,28640,42492,6294,15757,25931,0.01435550,0.03593467,0.05913863,0.24804529,0.35925996,0.50446248
0,0,Sudan,,,2021-04-04 00:56:42.414405,2020-12-31 00:00:00.000000,0.02555090,0.06711486,0.09825004,11203,29429,43081,6281,15964,25820,0.01432420,0.03640823,0.05888535,0.24128511,0.35979374,0.51529431
0,0,Sudan,,,2021-04-04 00:56:42.414405,2021-01-01 00:00:00.000000,0.02589444,0.06872163,0.09855144,11354,30133,43214,6297,16353,25604,0.01436267,0.03729445,0.05839272,0.23123857,0.35584487,0.53073357
0,0,Sudan,,,2021-04-04 00:56:42.414405,2021-01-02 00:00:00.000000,0.02658201,0.06973679,0.09940156,11656,30579,43586,6473,16760,25892,0.01476379,0.03822344,0.05904891,0.21968907,0.35122516,0.53639419
0,0,Sudan,,,2021-04-04 00:56:42.414405,2021-01-03 00:00:00.000000,0.02724594,0.07043344,0.10121735,11947,30884,44383,6618,17131,26036,0.01509482,0.03906927,0.05937711,0.21900738,0.34120820,0.54116060
0,0,Sudan,,,2021-04-04 00:56:42.414405,2021-01-04 00:00:00.000000,0.02791489,0.07079741,0.10162104,12240,31044,44560,6723,17312,26052,0.01533350,0.03948275,0.05941420,0.21880914,0.33543666,0.54285046
0,0,Sudan,,,2021-04-04 00:56:42.414405,2021-01-05 00:00:00.000000,0.02859603,0.07074474,0.10010250,12539,31021,43894,6842,17420,26245,0.01560386,0.03972898,0.05985336,0.21875922,0.33029072,0.54239559
0,0,Sudan,,,2021-04-04 00:56:42.414405,2021-01-06 00:00:00.000000,0.02856334,0.07027688,0.10102584,12524,30815,44299,6973,17539,26069,0.01590250,0.03999990,0.05945226,0.21724648,0.32504624,0.53369647
0,0,Sudan,,,2021-04-04 00:56:42.414405,2021-01-07 00:00:00.000000,0.02841798,0.06943293,0.10140002,12461,30445,44463,7057,17823,25707,0.01609488,0.04064832,0.05862680,0.20933494,0.31295436,0.50679189
0,0,Sudan,,,2021-04-04 00:56:42.414405,2021-01-08 00:00:00.000000,0.02825282,0.06902035,0.10118395,12388,30264,44368,7025,17675,25435,0.01602213,0.04030934,0.05800715,0.20105529,0.29970605,0.47175895
0,0,Sudan,,,2021-04-04 00:56:42.414405,2021-01-09 00:00:00.000000,0.02806284,0.06745916,0.10033961,12305,29580,43998,6988,17421,24981,0.01593672,0.03973027,0.05697200,0.18663131,0.27888283,0.45550240
0,0,Sudan,,,2021-04-04 00:56:42.414405,2021-01-10 00:00:00.000000,0.02779916,0.06621251,0.09955831,12189,29033,43655,7019,17369,24507,0.01600759,0.03961097,0.05589051,0.18013900,0.25381866,0.42940286
0,0,Sudan,,,2021-04-04 00:56:42.414405,2021-01-11 00:00:00.000000,0.02730391,0.06451894,0.09831334,11972,28291,43109,7095,16908,24624,0.01618124,0.03856154,0.05615626,0.16470879,0.24120099,0.38446959
0,0,Sudan,,,2021-04-04 00:56:42.414405,2021-01-12 00:00:00.000000,0.02721357,0.06195882,0.09593603,11932,27168,42067,7153,16415,24431,0.01631310,0.03743732,0.05571751,0.16042594,0.22886201,0.34645168
0,0,Sudan,,,2021-04-04 00:56:42.414405,2021-01-13 00:00:00.000000,0.02685298,0.06030005,0.09385342,11774,26441,41154,7000,15885,23947,0.01596519,0.03622777,0.05461299,0.15604672,0.21679823,0.32733070
0,0,Sudan,,,2021-04-04 00:56:42.414405,2021-01-14 00:00:00.000000,0.02638660,0.05779880,0.09223620,11570,25344,40444,6694,15574,23629,0.01526815,0.03551745,0.05388844,0.14615223,0.21298606,0.31718061
0,0,Sudan,,,2021-04-04 00:56:42.414405,2021-01-15 00:00:00.000000,0.02496651,0.05507389,0.09048072,10947,24149,39675,6365,15077,23270,0.01451598,0.03438500,0.05306962,0.14130063,0.20729377,0.31504167
0,0,Sudan,,,2021-04-04 00:56:42.414405,2021-01-16 00:00:00.000000,0.02354499,0.05285886,0.08819262,10324,23178,38671,6008,14489,22874,0.01370149,0.03304276,0.05216566,0.13583518,0.20194657,0.31136037
0,0,Sudan,,,2021-04-04 00:56:42.414405,2021-01-17 00:00:00.000000,0.02263688,0.05056919,0.08569020,9926,22174,37574,5737,13918,22424,0.01308562,0.03174102,0.05114015,0.12904811,0.19534884,0.30424495
0,0,Sudan,,,2021-04-04 00:56:42.414405,2021-01-18 00:00:00.000000,0.02133522,0.04819109,0.08247997,9355,21131,36166,5424,13444,21881,0.01237119,0.03065991,0.04990174,0.12005399,0.19091866,0.29206813
0,0,Sudan,,,2021-04-04 00:56:42.414405,2021-01-19 00:00:00.000000,0.02009223,0.04590325,0.07853314,8810,20128,34436,5120,12859,21201,0.01167727,0.02932691,0.04835048,0.11777577,0.18909151,0.27848781
0,0,Sudan,,,2021-04-04 00:56:42.414405,2021-01-20 00:00:00.000000,0.01890717,0.04364232,0.07429871,8290,19136,32579,4827,12263,20377,0.01100915,0.02796821,0.04647093,0.11842107,0.18664994,0.27821462
0,0,Sudan,,,2021-04-04 00:56:42.414405,2021-01-21 00:00:00.000000,0.01777693,0.04137084,0.07057040,7795,18140,30944,4546,11659,19442,0.01036945,0.02658974,0.04433939,0.11567089,0.18293300,0.27788676
0,0,Sudan,,,2021-04-04 00:56:42.414405,2021-01-22 00:00:00.000000,0.01681276,0.03948590,0.06742291,7372,17314,29564,4315,11004,18443,0.00984101,0.02509724,0.04206101,0.11510849,0.17960535,0.27718389
0,0,Sudan,,,2021-04-04 00:56:42.414405,2021-01-23 00:00:00.000000,0.01598340,0.03724356,0.06433746,7008,16331,28211,4142,10435,17420,0.00944670,0.02379833,0.03972877,0.11432711,0.18029582,0.27623738
0,0,Sudan,,,2021-04-04 00:56:42.414405,2021-01-24 00:00:00.000000,0.01521224,0.03521434,0.06126828,6670,15441,26865,3980,9927,16503,0.00907692,0.02263994,0.03763769,0.11319304,0.17644580,0.27667127
0,0,Sudan,,,2021-04-04 00:56:42.414405,2021-01-25 00:00:00.000000,0.01460442,0.03330810,0.05812838,6403,14605,25488,3825,9427,15877,0.00872387,0.02150085,0.03620916,0.11160705,0.17415918,0.27722246
0,0,Sudan,,,2021-04-04 00:56:42.414405,2021-01-26 00:00:00.000000,0.01401927,0.03131791,0.05488407,6147,13732,24066,3675,8935,15216,0.00838287,0.02037710,0.03470285,0.10899865,0.17293230,0.27769821
0,0,Sudan,,,2021-04-04 00:56:42.414405,2021-01-27 00:00:00.000000,0.01324496,0.02942729,0.05160664,5807,12903,22629,3530,8448,14535,0.00805038,0.01926701,0.03314918,0.10665154,0.17138404,0.27720069
0,0,Sudan,,,2021-04-04 00:56:42.414405,2021-01-28 00:00:00.000000,0.01252362,0.02734638,0.04842034,5491,11991,21231,3366,7968,13850,0.00767712,0.01817326,0.03158702,0.10501891,0.16829653,0.27356098
0,0,Sudan,,,2021-04-04 00:56:42.414405,2021-01-29 00:00:00.000000,0.01193361,0.02559565,0.04536227,5232,11223,19891,3148,7500,13159,0.00718089,0.01710421,0.03000973,0.10501661,0.16567167,0.27178425
0,0,Sudan,,,2021-04-04 00:56:42.414405,2021-01-30 00:00:00.000000,0.01137561,0.02419838,0.04244499,4988,10610,18611,2944,6987,12433,0.00671589,0.01593588,0.02835509,0.10768020,0.16626290,0.26744853
0,0,Sudan,,,2021-04-04 00:56:42.414405,2021-01-31 00:00:00.000000,0.01083959,0.02289929,0.03958711,4753,10041,17358,2754,6512,11690,0.00628160,0.01485234,0.02666047,0.10753699,0.16490679,0.26476798
0,0,Sudan,,,2021-04-04 00:56:42.414405,2021-02-01 00:00:00.000000,0.01022528,0.02168928,0.03660300,4483,9510,16050,2607,6137,10827,0.00594733,0.01399720,0.02469205,0.10455939,0.16637684,0.26213459
0,0,Sudan,,,2021-04-04 00:56:42.414405,2021-02-02 00:00:00.000000,0.00959568,0.02055571,0.03385137,4207,9013,14843,2416,5798,10031,0.00551046,0.01322377,0.02287616,0.10484776,0.16746304,0.25985872
0,0,Sudan,,,2021-04-04 00:56:42.414405,2021-02-03 00:00:00.000000,0.00881171,0.01923709,0.03145668,3863,8435,13793,2244,5482,9434,0.00511842,0.01250342,0.02151522,0.10478940,0.16561588,0.25876875
0,0,Sudan,,,2021-04-04 00:56:42.414405,2021-02-04 00:00:00.000000,0.00806852,0.01791193,0.02968790,3537,7854,13017,2095,5146,8926,0.00477943,0.01173625,0.02035798,0.10473236,0.16891319,0.26001466
0,0,Sudan,,,2021-04-04 00:56:42.414405,2021-02-05 00:00:00.000000,0.00742939,0.01674968,0.02809446,3257,7344,12319,1932,4779,8441,0.00440743,0.01090019,0.01925182,0.10571800,0.17012241,0.26417308
0,0,Sudan,,,2021-04-04 00:56:42.414405,2021-02-06 00:00:00.000000,0.00686653,0.01583271,0.02626635,3010,6942,11517,1775,4421,7980,0.00405012,0.01008379,0.01820091,0.10958172,0.17203875,0.27183036
0,0,Sudan,,,2021-04-04 00:56:42.414405,2021-02-07 00:00:00.000000,0.00636098,0.01498113,0.02457932,2789,6569,10777,1655,4149,7545,0.00377541,0.00946240,0.01720796,0.11488156,0.17452130,0.27212831
0,0,Sudan,,,2021-04-04 00:56:42.414405,2021-02-08 00:00:00.000000,0.00593457,0.01447298,0.02341481,2602,6346,10267,1548,3990,7136,0.00353117,0.00910163,0.01627459,0.11673351,0.17813683,0.27708075
0,0,Sudan,,,2021-04-04 00:56:42.414405,2021-02-09 00:00:00.000000,0.00557058,0.01388607,0.02234413,2442,6088,9797,1450,3861,6753,0.00330734,0.00880744,0.01540083,0.11667737,0.18272681,0.30203231
0,0,Sudan,,,2021-04-04 00:56:42.414405,2021-02-10 00:00:00.000000,0.00523277,0.01324076,0.02132159,2294,5805,9349,1359,3670,6395,0.00310030,0.00837030,0.01458459,0.11674088,0.18752376,0.30684038
0,0,Sudan,,,2021-04-04 00:56:42.414405,2021-02-11 00:00:00.000000,0.00492702,0.01257580,0.02034636,2160,5514,8921,1275,3460,6061,0.00290785,0.00789092,0.01382299,0.11710459,0.18881939,0.31071954
0,0,Sudan,,,2021-04-04 00:56:42.414405,2021-02-12 00:00:00.000000,0.00467045,0.01184805,0.01941654,2047,5195,8514,1196,3280,5750,0.00272951,0.00748084,0.01311442,0.11861875,0.19340449,0.31400818
0,0,Sudan,,,2021-04-04 00:56:42.414405,2021-02-13 00:00:00.000000,0.00445308,0.01119787,0.01855529,1952,4910,8136,1126,3156,5463,0.00256991,0.00719750,0.01246059,0.12603756,0.19769965,0.31843888
0,0,Sudan,,,2021-04-04 00:56:42.414405,2021-02-14 00:00:00.000000,0.00424004,0.01052370,0.01794061,1859,4614,7866,1069,2955,5203,0.00243970,0.00674036,0.01186570,0.13433151,0.20526876,0.33215133
0,0,Sudan,,,2021-04-04 00:56:42.414405,2021-02-15 00:00:00.000000,0.00398994,0.01007177,0.01715440,1749,4416,7522,1001,2798,5066,0.00228427,0.00638314,0.01155387,0.14142982,0.21241815,0.35465515
0,0,Sudan,,,2021-04-04 00:56:42.414405,2021-02-16 00:00:00.000000,0.00378914,0.00952616,0.01640807,1661,4177,7194,940,2664,4854,0.00214477,0.00607740,0.01107115,0.14185063,0.21582324,0.38905848
0,0,Sudan,,,2021-04-04 00:56:42.414405,2021-02-17 00:00:00.000000,0.00362717,0.00905059,0.01569712,1590,3968,6883,889,2533,4642,0.00202941,0.00577760,0.01058648,0.14210573,0.22202846,0.42373835
0,0,Sudan,,,2021-04-04 00:56:42.414405,2021-02-18 00:00:00.000000,0.00360867,0.00862264,0.01538449,1582,3780,6745,848,2427,4440,0.00193601,0.00553559,0.01012590,0.14251417,0.22898133,0.44598069
0,0,Sudan,,,2021-04-04 00:56:42.414405,2021-02-19 00:00:00.000000,0.00347776,0.00837351,0.01508811,1524,3671,6616,854,2337,4247,0.00194867,0.00532979,0.00968703,0.14396796,0.24496241,0.45572166
0,0,Sudan,,,2021-04-04 00:56:42.414405,2021-02-20 00:00:00.000000,0.00336640,0.00827249,0.01480489,1476,3627,6491,876,2269,4087,0.00199974,0.00517464,0.00932244,0.14839420,0.25984359,0.45949222
0,0,Sudan,,,2021-04-04 00:56:42.414405,2021-02-21 00:00:00.000000,0.00327643,0.00810942,0.01453859,1436,3555,6375,850,2229,3953,0.00193920,0.00508386,0.00901608,0.15295084,0.26949885,0.46033004
0,0,Sudan,,,2021-04-04 00:56:42.414405,2021-02-22 00:00:00.000000,0.00320120,0.00793935,0.01429048,1403,3481,6266,826,2164,3840,0.00188516,0.00493704,0.00875889,0.16274474,0.28275968,0.46235890
0,0,Sudan,,,2021-04-04 00:56:42.414405,2021-02-23 00:00:00.000000,0.00319835,0.00786318,0.01406009,1402,3447,6165,807,2097,3772,0.00184043,0.00478290,0.00860307,0.17894982,0.29361473,0.46630507
0,0,Sudan,,,2021-04-04 00:56:42.414405,2021-02-24 00:00:00.000000,0.00311303,0.00778990,0.01386165,1365,3415,6078,792,2015,3708,0.00180620,0.00459546,0.00845748,0.19150888,0.29902429,0.48415123
0,0,Sudan,,,2021-04-04 00:56:42.414405,2021-02-25 00:00:00.000000,0.00309816,0.00793600,0.01387165,1358,3479,6082,778,1995,3651,0.00177562,0.00455092,0.00832653,0.19164073,0.30472748,0.48944454
0,0,Sudan,,,2021-04-04 00:56:42.414405,2021-02-26 00:00:00.000000,0.00311266,0.00803840,0.01408217,1364,3524,6174,751,2010,3624,0.00171341,0.00458394,0.00826554,0.19213550,0.31356657,0.49988505
0,0,Sudan,,,2021-04-04 00:56:42.414405,2021-02-27 00:00:00.000000,0.00314666,0.00810648,0.01431955,1379,3554,6279,758,2023,3640,0.00172987,0.00461550,0.00830182,0.19403880,0.32501007,0.52083931
0,0,Sudan,,,2021-04-04 00:56:42.414405,2021-02-28 00:00:00.000000,0.00319468,0.00815160,0.01457139,1400,3574,6389,761,2063,3681,0.00173623,0.00470549,0.00839534,0.20437415,0.34869853,0.54618253
0,0,Sudan,,,2021-04-04 00:56:42.414405,2021-03-01 00:00:00.000000,0.00318724,0.00830834,0.01464300,1397,3643,6420,754,2109,3735,0.00171998,0.00481029,0.00851946,0.22668938,0.35767271,0.54781014
0,0,Sudan,,,2021-04-04 00:56:42.414405,2021-03-02 00:00:00.000000,0.00318500,0.00850965,0.01462439,1396,3731,6412,750,2128,3797,0.00171114,0.00485434,0.00865943,0.24225635,0.35999352,0.57529550
0,0,Sudan,,,2021-04-04 00:56:42.414405,2021-03-03 00:00:00.000000,0.00325771,0.00867035,0.01461590,1428,3801,6408,748,2152,3861,0.00170802,0.00490979,0.00880634,0.24533283,0.36345233,0.59288922
0,0,Sudan,,,2021-04-04 00:56:42.414405,2021-03-04 00:00:00.000000,0.00337339,0.00873152,0.01461547,1479,3828,6408,749,2159,3926,0.00170893,0.00492416,0.00895468,0.25010585,0.36446543,0.59862185
0,0,Sudan,,,2021-04-04 00:56:42.414405,2021-03-05 00:00:00.000000,0.00349337,0.00899238,0.01462542,1531,3943,6413,753,2185,3961,0.00171733,0.00498456,0.00903451,0.25728965,0.39019346,0.59890664
0,0,Sudan,,,2021-04-04 00:56:42.414405,2021-03-06 00:00:00.000000,0.00358834,0.00927247,0.01492876,1573,4065,6546,773,2254,3959,0.00176472,0.00514205,0.00902923,0.26735596,0.39457301,0.57427486
0,0,Sudan,,,2021-04-04 00:56:42.414405,2021-03-07 00:00:00.000000,0.00359211,0.00956930,0.01550790,1575,4196,6800,801,2290,3982,0.00182709,0.00522346,0.00908333,0.27462225,0.39930893,0.55962780
0,0,Sudan,,,2021-04-04 00:56:42.414405,2021-03-08 00:00:00.000000,0.00354628,0.00983075,0.01611359,1555,4310,7065,829,2355,4130,0.00189106,0.00537171,0.00941899,0.27349400,0.40962259,0.62158617
0,0,Sudan,,,2021-04-04 00:56:42.414405,2021-03-09 00:00:00.000000,0.00351651,0.01015109,0.01667330,1541,4451,7311,856,2434,4228,0.00195242,0.00555222,0.00964348,0.27816736,0.42507756,0.66066365
0,0,Sudan,,,2021-04-04 00:56:42.414405,2021-03-10 00:00:00.000000,0.00362795,0.01050660,0.01688877,1590,4607,7405,867,2541,4283,0.00197875,0.00579708,0.00976874,0.29181559,0.43231297,0.64969203
0,0,Sudan,,,2021-04-04 00:56:42.414405,2021-03-11 00:00:00.000000,0.00377013,0.01094826,0.01714346,1653,4800,7517,866,2635,4338,0.00197647,0.00601122,0.00989519,0.30357416,0.43583447,0.63721292
0,0,Sudan,,,2021-04-04 00:56:42.414405,2021-03-12 00:00:00.000000,0.00392389,0.01145974,0.01823585,1720,5025,7996,899,2736,4399,0.00205167,0.00624027,0.01003427,0.33186569,0.44476206,0.62641705
0,0,Sudan,,,2021-04-04 00:56:42.414405,2021-03-13 00:00:00.000000,0.00409353,0.01205598,0.01946898,1794,5286,8537,935,2802,4475,0.00213365,0.00639026,0.01020564,0.34252476,0.45323824,0.58802238
0,0,Sudan,,,2021-04-04 00:56:42.414405,2021-03-14 00:00:00.000000,0.00428372,0.01268604,0.02028429,1878,5562,8894,974,2921,4617,0.00222323,0.00666340,0.01053113,0.36091793,0.46875010,0.62401787
0,0,Sudan,,,2021-04-04 00:56:42.414405,2021-03-15 00:00:00.000000,0.00449297,0.01331873,0.02107114,1970,5840,9239,1018,3069,4917,0.00232280,0.00700064,0.01121554,0.36067174,0.48716048,0.63319370
0,0,Sudan,,,2021-04-04 00:56:42.414405,2021-03-16 00:00:00.000000,0.00472653,0.01394196,0.02188560,2072,6113,9596,1064,3193,5227,0.00242801,0.00728305,0.01192259,0.36552697,0.49042478,0.67143900
0,0,Sudan,,,2021-04-04 00:56:42.414405,2021-03-17 00:00:00.000000,0.00498342,0.01460888,0.02273033,2185,6405,9967,1106,3331,5547,0.00252402,0.00759662,0.01265189,0.36537325,0.48992068,0.68017365
0,0,Sudan,,,2021-04-04 00:56:42.414405,2021-03-18 00:00:00.000000,0.00526522,0.01548523,0.02390748,2308,6790,10483,1152,3483,5879,0.00262898,0.00794396,0.01340942,0.36402479,0.49853184,0.67607849
0,0,Sudan,,,2021-04-04 00:56:42.414405,2021-03-19 00:00:00.000000,0.00557955,0.01629512,0.02585691,2446,7145,11338,1205,3747,6228,0.00274942,0.00854738,0.01420484,0.37200217,0.50817898,0.66640116
0,0,Sudan,,,2021-04-04 00:56:42.414405,2021-03-20 00:00:00.000000,0.00593524,0.01717750,0.02796871,2602,7532,12264,1270,3991,6511,0.00289828,0.00910211,0.01485072,0.37208130,0.52411892,0.68463537
0,0,Sudan,,,2021-04-04 00:56:42.414405,2021-03-21 00:00:00.000000,0.00632949,0.01790795,0.03026411,2775,7852,13270,1350,4186,6765,0.00307980,0.00954739,0.01542790,0.37252438,0.52721664,0.71660481
0,0,Sudan,,,2021-04-04 00:56:42.414405,2021-03-22 00:00:00.000000,0.00676000,0.01907936,0.03278000,2964,8366,14373,1442,4403,7047,0.00328919,0.01004169,0.01607312,0.37818270,0.53790855,0.74316003
0,0,Sudan,,,2021-04-04 00:56:42.414405,2021-03-23 00:00:00.000000,0.00722486,0.02068492,0.03543485,3168,9070,15537,1543,4629,7629,0.00351944,0.01055695,0.01739915,0.38992049,0.54037465,0.75655346
0,0,Sudan,,,2021-04-04 00:56:42.414405,2021-03-24 00:00:00.000000,0.00772593,0.02210968,0.03769820,3387,9694,16530,1652,4864,8273,0.00376870,0.01109397,0.01886773,0.40450079,0.54351134,0.75317015
0,0,Sudan,,,2021-04-04 00:56:42.414405,2021-03-25 00:00:00.000000,0.00826891,0.02386008,0.04014069,3625,10462,17601,1768,5210,8938,0.00403362,0.01188297,0.02038509,0.40618479,0.54885837,0.77286718
0,0,Sudan,,,2021-04-04 00:56:42.414405,2021-03-26 00:00:00.000000,0.00887189,0.02569043,0.04277623,3890,11265,18757,1890,5566,9512,0.00431220,0.01269394,0.02169362,0.39894035,0.55669087,0.78887741
0,0,Sudan,,,2021-04-04 00:56:42.414405,2021-03-27 00:00:00.000000,0.00980668,0.02780174,0.04649660,4300,12190,20388,2019,6031,10138,0.00460651,0.01375473,0.02312084,0.39204320,0.56036029,0.81394945
0,0,Sudan,,,2021-04-04 00:56:42.414405,2021-03-28 00:00:00.000000,0.01063513,0.02972054,0.04951566,4663,13032,21712,2210,6563,10843,0.00504144,0.01496928,0.02472996,0.39065422,0.56901473,0.83735459
0,0,Sudan,,,2021-04-04 00:56:42.414405,2021-03-29 00:00:00.000000,0.01159952,0.03098868,0.05366759,5086,13588,23532,2431,7077,12003,0.00554611,0.01614001,0.02737513,0.39783848,0.57772385,0.86371717
0,0,Sudan,,,2021-04-04 00:56:42.414405,2021-03-30 00:00:00.000000,0.01293175,0.03255008,0.05821282,5670,14272,25525,2674,7514,13724,0.00609948,0.01713780,0.03129939,0.38407648,0.58115762,0.88293143
0,0,Sudan,,,2021-04-04 00:56:42.414405,2021-03-31 00:00:00.000000,0.01445446,0.03506974,0.06315740,6338,15377,27694,2968,8117,14487,0.00676933,0.01851123,0.03303954,0.37900892,0.57278643,0.90082363
0,0,Sudan,,,2021-04-04 00:56:42.414405,2021-04-01 00:00:00.000000,0.01617247,0.03742837,0.06853004,7091,16412,30049,3310,8728,15262,0.00754967,0.01990619,0.03480616,0.37785388,0.57062879,0.90394522
0,0,Sudan,,,2021-04-04 00:56:42.414405,2021-04-02 00:00:00.000000,0.01810227,0.04027295,0.07436711,7937,17659,32609,3700,9352,16089,0.00843893,0.02132854,0.03669226,0.37758732,0.56979614,0.90540662
0,0,Sudan,,,2021-04-04 00:56:42.414405,2021-04-03 00:00:00.000000,0.02026645,0.04320570,0.08193677,8886,18945,35928,4140,10051,17375,0.00944219,0.02292237,0.03962657,0.37098342,0.56951775,0.91429070
0,0,Sudan,,,2021-04-04 00:56:42.414405,2021-04-04 00:00:00.000000,0.02097442,0.04642204,0.09116608,9197,20355,39975,4612,10780,19294,0.01051943,0.02458599,0.04400202,0.36705610,0.56942924,0.92703692
0,0,Sudan,,,2021-04-04 00:56:42.414405,2021-04-05 00:00:00.000000,0.02133093,0.04952476,0.10143645,9353,21716,44479,4827,11735,21425,0.01100818,0.02676267,0.04886129,0.36515460,0.56940156,0.93564301
0,0,Sudan,,,2021-04-04 00:56:42.414405,2021-04-06 00:00:00.000000,0.02168261,0.05276574,0.11286527,9507,23137,49490,5051,12493,23791,0.01151967,0.02849158,0.05425785,0.36424594,0.56939294,0.94128403
0,0,Sudan,,,2021-04-04 00:56:42.414405,2021-04-07 00:00:00.000000,0.02203473,0.05689689,0.12558312,9662,24948,55067,5286,13347,26419,0.01205497,0.03043933,0.06025108,0.36381444,0.56939027,0.94491011
0,0,Sudan,,,2021-04-04 00:56:42.414405,2021-04-08 00:00:00.000000,0.02239024,0.06146205,0.13971997,9817,26950,61266,5531,14297,29338,0.01261517,0.03260511,0.06690688,0.36361014,0.56938944,0.94721186
0,0,Sudan,,,2021-04-04 00:56:42.414405,2021-04-09 00:00:00.000000,0.02298878,0.06659952,0.15538170,10080,29203,68133,5788,15319,32578,0.01320143,0.03493559,0.07429565,0.36351355,0.56938918,0.94866131
0,0,Sudan,,,2021-04-04 00:56:42.414405,2021-04-10 00:00:00.000000,0.02448385,0.07084187,0.17279522,10735,31063,75769,6057,16563,36158,0.01381496,0.03777405,0.08246058,0.36346791,0.56938910,0.94956946
0,0,Sudan,,,2021-04-04 00:56:42.414405,2021-04-11 00:00:00.000000,0.02607747,0.07561673,0.19450136,11434,33157,85287,6241,18009,40131,0.01423380,0.04107151,0.09152045,0.36344635,0.56938907,0.95013668
0,0,Sudan,,,2021-04-04 00:56:42.414405,2021-04-12 00:00:00.000000,0.02777616,0.08364978,0.22064837,12179,36679,96752,6340,19303,44538,0.01446037,0.04402207,0.10157268,0.36343617,0.56938906,0.95049025
0,0,Sudan,,,2021-04-04 00:56:42.414405,2021-04-13 00:00:00.000000,0.02961830,0.08928311,0.25029359,12987,39149,109751,6441,20560,50046,0.01469088,0.04688929,0.11413202,0.36343137,0.56938906,0.95071037
0,0,Sudan,,,2021-04-04 00:56:42.414405,2021-04-14 00:00:00.000000,0.03058744,0.09508969,0.28390019,13412,41696,124488,6544,21899,56772,0.01492558,0.04994343,0.12947151,0.36342910,0.56938906,0.95084731
0,0,Sudan,,,2021-04-04 00:56:42.414405,2021-04-15 00:00:00.000000,0.03132032,0.10099008,0.32199124,13733,44283,141190,6848,23857,64398,0.01561767,0.05440729,0.14686229,0.36342802,0.56938906,0.95093246
0,0,Sudan,,,2021-04-04 00:56:42.414405,2021-04-16 00:00:00.000000,0.03207198,0.10723553,0.36515712,14063,47021,160118,7297,25496,73042,0.01664140,0.05814600,0.16657565,0.36342752,0.56938906,0.95098539
0,0,Sudan,,,2021-04-04 00:56:42.414405,2021-04-17 00:00:00.000000,0.03317146,0.11487517,0.41406365,14545,50371,181563,7608,27201,82839,0.01735235,0.06203424,0.18891791,0.36342728,0.56938906,0.95101829
