FIPS,HR_UID,nameid,province,region,analysisTime,dates,pointprevalence_025,pointprevalence_50,pointprevalence_975,pointinfections_025,pointinfections_50,pointinfections_975,pointinfectious_025,pointinfectious_50,pointinfectious_975,pointinfectiousprevalence_05,pointinfectiousprevalence_50,pointinfectiousprevalence_95,infectrate_025,infectrate_50,infectrate_975
39079,0,USOhioJackson,Ohio,Jackson,2021-04-04 06:16:54.440652,2020-03-09 00:00:00.000000,0.00127630,0.00597238,0.02905922,0,1,9,0,1,5,0.00065061,0.00321247,0.01703246,0.35354740,0.52434995,0.69599185
39079,0,USOhioJackson,Ohio,Jackson,2021-04-04 06:16:54.440652,2020-03-10 00:00:00.000000,0.00141591,0.00660937,0.03045046,0,2,9,0,1,5,0.00063351,0.00325496,0.01644874,0.35354741,0.52434809,0.69598777
39079,0,USOhioJackson,Ohio,Jackson,2021-04-04 06:16:54.440652,2020-03-11 00:00:00.000000,0.00152985,0.00704252,0.03188181,0,2,10,0,1,5,0.00066224,0.00341149,0.01666457,0.35354743,0.52434274,0.69593786
39079,0,USOhioJackson,Ohio,Jackson,2021-04-04 06:16:54.440652,2020-03-12 00:00:00.000000,0.00164832,0.00766190,0.03390522,0,2,10,0,1,5,0.00071641,0.00363856,0.01809710,0.35354763,0.52432648,0.69529520
39079,0,USOhioJackson,Ohio,Jackson,2021-04-04 06:16:54.440652,2020-03-13 00:00:00.000000,0.00177348,0.00835832,0.03696331,0,2,11,0,1,6,0.00078498,0.00394912,0.01973850,0.35354901,0.52427371,0.68728153
39079,0,USOhioJackson,Ohio,Jackson,2021-04-04 06:16:54.440652,2020-03-14 00:00:00.000000,0.00190665,0.00922208,0.04025133,0,2,13,0,1,6,0.00086221,0.00442381,0.02153264,0.35355882,0.52353923,0.67580671
39079,0,USOhioJackson,Ohio,Jackson,2021-04-04 06:16:54.440652,2020-03-15 00:00:00.000000,0.00204849,0.00992199,0.04383017,0,3,14,0,1,7,0.00094524,0.00491996,0.02349000,0.35362835,0.51917317,0.67164865
39079,0,USOhioJackson,Ohio,Jackson,2021-04-04 06:16:54.440652,2020-03-16 00:00:00.000000,0.00219902,0.01078000,0.04772614,0,3,15,0,1,8,0.00103276,0.00538157,0.02562506,0.31594768,0.51478062,0.65968620
39079,0,USOhioJackson,Ohio,Jackson,2021-04-04 06:16:54.440652,2020-03-17 00:00:00.000000,0.00235745,0.01164096,0.04937159,0,3,16,0,1,9,0.00112420,0.00587270,0.02788494,0.31591107,0.50992608,0.64904244
39079,0,USOhioJackson,Ohio,Jackson,2021-04-04 06:16:54.440652,2020-03-18 00:00:00.000000,0.00256070,0.01244063,0.05009266,0,4,16,0,2,9,0.00121947,0.00635713,0.02844359,0.31612353,0.49799842,0.64138218
39079,0,USOhioJackson,Ohio,Jackson,2021-04-04 06:16:54.440652,2020-03-19 00:00:00.000000,0.00282477,0.01320104,0.05100970,0,4,16,0,2,9,0.00131781,0.00683955,0.02895922,0.29385798,0.48180506,0.63881986
39079,0,USOhioJackson,Ohio,Jackson,2021-04-04 06:16:54.440652,2020-03-20 00:00:00.000000,0.00311543,0.01395488,0.05603719,1,4,18,0,2,9,0.00141835,0.00730744,0.02938914,0.26628892,0.43205297,0.63386885
39079,0,USOhioJackson,Ohio,Jackson,2021-04-04 06:16:54.440652,2020-03-21 00:00:00.000000,0.00324549,0.01457267,0.06148649,1,4,19,0,2,10,0.00151988,0.00774684,0.03163747,0.25632938,0.42651129,0.61638715
39079,0,USOhioJackson,Ohio,Jackson,2021-04-04 06:16:54.440652,2020-03-22 00:00:00.000000,0.00333520,0.01517063,0.06729797,1,4,21,0,2,11,0.00162072,0.00818014,0.03476493,0.25590794,0.39375936,0.58615125
39079,0,USOhioJackson,Ohio,Jackson,2021-04-04 06:16:54.440652,2020-03-23 00:00:00.000000,0.00606739,0.01864557,0.07557770,1,6,24,0,2,12,0.00178032,0.00861785,0.03813139,0.22471309,0.37501036,0.57912531
39079,0,USOhioJackson,Ohio,Jackson,2021-04-04 06:16:54.440652,2020-03-24 00:00:00.000000,0.00741799,0.02301163,0.08290155,2,7,26,0,3,13,0.00225391,0.00980305,0.04231243,0.20988143,0.36327209,0.57631024
39079,0,USOhioJackson,Ohio,Jackson,2021-04-04 06:16:54.440652,2020-03-25 00:00:00.000000,0.00861467,0.02800174,0.09066157,2,9,29,0,3,15,0.00306708,0.01148630,0.04670130,0.20487962,0.35090608,0.57553111
39079,0,USOhioJackson,Ohio,Jackson,2021-04-04 06:16:54.440652,2020-03-26 00:00:00.000000,0.00987164,0.03339325,0.09594949,3,10,31,1,4,16,0.00386720,0.01332414,0.05104907,0.19412580,0.33421457,0.57296883
39079,0,USOhioJackson,Ohio,Jackson,2021-04-04 06:16:54.440652,2020-03-27 00:00:00.000000,0.01117457,0.03824950,0.10142915,3,12,32,1,4,18,0.00493693,0.01538846,0.05607748,0.17416733,0.32006173,0.55243641
39079,0,USOhioJackson,Ohio,Jackson,2021-04-04 06:16:54.440652,2020-03-28 00:00:00.000000,0.01244516,0.04223235,0.10741892,4,13,34,1,5,19,0.00599409,0.01767052,0.06092992,0.16698596,0.30934496,0.47975315
39079,0,USOhioJackson,Ohio,Jackson,2021-04-04 06:16:54.440652,2020-03-29 00:00:00.000000,0.01380791,0.04774433,0.11276752,4,15,36,2,6,20,0.00669694,0.02058401,0.06268102,0.16177210,0.29119422,0.43710135
39079,0,USOhioJackson,Ohio,Jackson,2021-04-04 06:16:54.440652,2020-03-30 00:00:00.000000,0.01917922,0.05217153,0.11922772,6,16,38,2,7,21,0.00742750,0.02305282,0.06631472,0.15987797,0.27673374,0.40364997
39079,0,USOhioJackson,Ohio,Jackson,2021-04-04 06:16:54.440652,2020-03-31 00:00:00.000000,0.02280596,0.05809202,0.12532689,7,18,40,2,8,22,0.00840606,0.02577464,0.07013503,0.15886696,0.26742127,0.40095344
39079,0,USOhioJackson,Ohio,Jackson,2021-04-04 06:16:54.440652,2020-04-01 00:00:00.000000,0.02567984,0.06203828,0.13462260,8,20,43,3,9,23,0.00998805,0.02880659,0.07398735,0.15818337,0.25925160,0.39557637
39079,0,USOhioJackson,Ohio,Jackson,2021-04-04 06:16:54.440652,2020-04-02 00:00:00.000000,0.02781642,0.06754295,0.14380508,9,21,46,3,10,25,0.01181403,0.03114139,0.07783369,0.15051236,0.24166113,0.38386851
39079,0,USOhioJackson,Ohio,Jackson,2021-04-04 06:16:54.440652,2020-04-03 00:00:00.000000,0.03158296,0.07226946,0.15249624,10,23,49,4,10,26,0.01349632,0.03388522,0.08167365,0.14216430,0.23157265,0.37604286
39079,0,USOhioJackson,Ohio,Jackson,2021-04-04 06:16:54.440652,2020-04-04 00:00:00.000000,0.03458626,0.07852430,0.16117939,11,25,52,4,11,27,0.01508516,0.03699067,0.08552861,0.12663040,0.22227839,0.36311880
39079,0,USOhioJackson,Ohio,Jackson,2021-04-04 06:16:54.440652,2020-04-05 00:00:00.000000,0.03763164,0.08310759,0.17250352,12,26,55,5,12,29,0.01731746,0.03932177,0.08994959,0.12314239,0.21276140,0.34291248
39079,0,USOhioJackson,Ohio,Jackson,2021-04-04 06:16:54.440652,2020-04-06 00:00:00.000000,0.04210641,0.08707953,0.17630972,13,28,57,6,13,31,0.01881698,0.04077169,0.09774093,0.11896499,0.19898617,0.33615518
39079,0,USOhioJackson,Ohio,Jackson,2021-04-04 06:16:54.440652,2020-04-07 00:00:00.000000,0.04478857,0.09221027,0.18255527,14,29,59,6,13,33,0.01995404,0.04288725,0.10270295,0.11496401,0.18935979,0.31781532
39079,0,USOhioJackson,Ohio,Jackson,2021-04-04 06:16:54.440652,2020-04-08 00:00:00.000000,0.04741010,0.09557547,0.18606441,15,30,60,6,14,34,0.02104242,0.04576215,0.10661553,0.11049125,0.18544567,0.29929264
39079,0,USOhioJackson,Ohio,Jackson,2021-04-04 06:16:54.440652,2020-04-09 00:00:00.000000,0.05218775,0.09870625,0.18712670,16,31,60,7,15,35,0.02209992,0.04761041,0.11017824,0.09936928,0.17787698,0.28864069
39079,0,USOhioJackson,Ohio,Jackson,2021-04-04 06:16:54.440652,2020-04-10 00:00:00.000000,0.05527302,0.10045832,0.18722092,17,32,60,7,16,36,0.02458641,0.04996102,0.11258791,0.09660680,0.17132425,0.27458126
39079,0,USOhioJackson,Ohio,Jackson,2021-04-04 06:16:54.440652,2020-04-11 00:00:00.000000,0.05809539,0.10163005,0.18798656,18,32,60,8,16,36,0.02725304,0.05224958,0.11394223,0.08929813,0.16717169,0.27142604
39079,0,USOhioJackson,Ohio,Jackson,2021-04-04 06:16:54.440652,2020-04-12 00:00:00.000000,0.05890791,0.10481687,0.18770954,19,33,60,9,17,37,0.03002125,0.05508396,0.11441309,0.08516885,0.16540795,0.26251430
39079,0,USOhioJackson,Ohio,Jackson,2021-04-04 06:16:54.440652,2020-04-13 00:00:00.000000,0.06191039,0.10642537,0.18835551,20,34,61,10,18,37,0.03284533,0.05762933,0.11667697,0.08313152,0.15970209,0.25957972
39079,0,USOhioJackson,Ohio,Jackson,2021-04-04 06:16:54.440652,2020-04-14 00:00:00.000000,0.06447430,0.10910437,0.19358794,20,35,62,11,19,39,0.03541040,0.05877228,0.12098455,0.08276710,0.15408095,0.25074927
39079,0,USOhioJackson,Ohio,Jackson,2021-04-04 06:16:54.440652,2020-04-15 00:00:00.000000,0.06698879,0.10933077,0.19889833,21,35,64,11,19,39,0.03543803,0.05975248,0.12340562,0.08270911,0.14997550,0.24795965
39079,0,USOhioJackson,Ohio,Jackson,2021-04-04 06:16:54.440652,2020-04-16 00:00:00.000000,0.06844412,0.11262213,0.20418114,22,36,66,11,20,40,0.03630899,0.06170764,0.12397819,0.08286088,0.13958703,0.24038854
39079,0,USOhioJackson,Ohio,Jackson,2021-04-04 06:16:54.440652,2020-04-17 00:00:00.000000,0.06953242,0.11600968,0.20442566,22,37,66,12,20,40,0.03778196,0.06223897,0.12395768,0.08343508,0.13602664,0.22123458
39079,0,USOhioJackson,Ohio,Jackson,2021-04-04 06:16:54.440652,2020-04-18 00:00:00.000000,0.07009039,0.11651708,0.20646639,22,37,66,12,20,40,0.03901404,0.06334141,0.12544438,0.08400138,0.13408550,0.21575523
39079,0,USOhioJackson,Ohio,Jackson,2021-04-04 06:16:54.440652,2020-04-19 00:00:00.000000,0.06991613,0.11665081,0.20758124,22,37,67,12,20,41,0.03986329,0.06255275,0.12704674,0.08429021,0.13207396,0.22128494
39079,0,USOhioJackson,Ohio,Jackson,2021-04-04 06:16:54.440652,2020-04-20 00:00:00.000000,0.07011046,0.11636738,0.20675431,22,37,67,13,20,42,0.04060746,0.06319663,0.13043819,0.07534856,0.12939973,0.22112418
39079,0,USOhioJackson,Ohio,Jackson,2021-04-04 06:16:54.440652,2020-04-21 00:00:00.000000,0.07028756,0.11648321,0.21004390,22,37,68,13,21,42,0.04020613,0.06540899,0.13225289,0.07572752,0.12697683,0.22151028
39079,0,USOhioJackson,Ohio,Jackson,2021-04-04 06:16:54.440652,2020-04-22 00:00:00.000000,0.07148797,0.12218669,0.20581299,23,39,66,12,21,43,0.03983827,0.06744516,0.13309487,0.07591815,0.12318400,0.22165596
39079,0,USOhioJackson,Ohio,Jackson,2021-04-04 06:16:54.440652,2020-04-23 00:00:00.000000,0.07462529,0.12479060,0.20246150,24,40,65,12,22,42,0.03968679,0.07029113,0.13251387,0.07727715,0.12129023,0.22183201
39079,0,USOhioJackson,Ohio,Jackson,2021-04-04 06:16:54.440652,2020-04-24 00:00:00.000000,0.07699591,0.12423956,0.20191672,24,40,65,13,23,42,0.04012481,0.07160387,0.13164172,0.07383176,0.11994826,0.22229066
39079,0,USOhioJackson,Ohio,Jackson,2021-04-04 06:16:54.440652,2020-04-25 00:00:00.000000,0.07711359,0.12383740,0.20077785,24,40,65,13,23,42,0.04109137,0.07262934,0.13059471,0.07122373,0.11747735,0.22293255
39079,0,USOhioJackson,Ohio,Jackson,2021-04-04 06:16:54.440652,2020-04-26 00:00:00.000000,0.07718655,0.12796902,0.20222044,25,41,65,13,23,41,0.04105363,0.07339116,0.12941114,0.06993425,0.11543635,0.21243953
39079,0,USOhioJackson,Ohio,Jackson,2021-04-04 06:16:54.440652,2020-04-27 00:00:00.000000,0.07545778,0.13002872,0.19860781,24,42,64,13,23,41,0.04099529,0.07360688,0.12845570,0.06879961,0.11278341,0.18601525
39079,0,USOhioJackson,Ohio,Jackson,2021-04-04 06:16:54.440652,2020-04-28 00:00:00.000000,0.07775379,0.13187157,0.20628387,25,42,66,13,23,41,0.04193867,0.07347292,0.12842263,0.06809534,0.11230842,0.18296958
39079,0,USOhioJackson,Ohio,Jackson,2021-04-04 06:16:54.440652,2020-04-29 00:00:00.000000,0.07746189,0.13141893,0.20447255,25,42,66,14,23,41,0.04334378,0.07313807,0.12686319,0.06757630,0.10862343,0.17658007
39079,0,USOhioJackson,Ohio,Jackson,2021-04-04 06:16:54.440652,2020-04-30 00:00:00.000000,0.07717625,0.12796591,0.19846253,25,41,64,13,23,40,0.04319124,0.07368502,0.12639508,0.06613500,0.10801653,0.17590008
39079,0,USOhioJackson,Ohio,Jackson,2021-04-04 06:16:54.440652,2020-05-01 00:00:00.000000,0.07690001,0.12650867,0.19965445,24,41,64,13,24,39,0.04303728,0.07446763,0.12185185,0.06254303,0.10603339,0.17529819
39079,0,USOhioJackson,Ohio,Jackson,2021-04-04 06:16:54.440652,2020-05-02 00:00:00.000000,0.07663868,0.12745230,0.20076335,24,41,65,13,23,40,0.04288451,0.07389901,0.12457305,0.05918324,0.10234765,0.17194391
39079,0,USOhioJackson,Ohio,Jackson,2021-04-04 06:16:54.440652,2020-05-03 00:00:00.000000,0.07640874,0.12401220,0.20163160,24,40,65,13,24,40,0.04273558,0.07480438,0.12616607,0.05873862,0.10213519,0.16538449
39079,0,USOhioJackson,Ohio,Jackson,2021-04-04 06:16:54.440652,2020-05-04 00:00:00.000000,0.07822697,0.12576800,0.19738201,25,40,63,13,24,40,0.04259542,0.07636422,0.12618538,0.05698105,0.10313014,0.16533709
39079,0,USOhioJackson,Ohio,Jackson,2021-04-04 06:16:54.440652,2020-05-05 00:00:00.000000,0.07861326,0.12607115,0.19320422,25,40,62,13,24,41,0.04281753,0.07682918,0.12713287,0.05542422,0.10287248,0.16532463
39079,0,USOhioJackson,Ohio,Jackson,2021-04-04 06:16:54.440652,2020-05-06 00:00:00.000000,0.07677655,0.12622584,0.19341102,24,40,62,13,24,41,0.04199218,0.07646118,0.12897914,0.05461344,0.10146640,0.16534527
39079,0,USOhioJackson,Ohio,Jackson,2021-04-04 06:16:54.440652,2020-05-07 00:00:00.000000,0.07522721,0.12517288,0.19394245,24,40,62,13,24,42,0.04124983,0.07545011,0.13012449,0.05478899,0.09887626,0.16542317
39079,0,USOhioJackson,Ohio,Jackson,2021-04-04 06:16:54.440652,2020-05-08 00:00:00.000000,0.07408222,0.12637271,0.19484226,24,40,63,13,24,42,0.04057436,0.07508401,0.13139951,0.05884249,0.09875994,0.16562883
39079,0,USOhioJackson,Ohio,Jackson,2021-04-04 06:16:54.440652,2020-05-09 00:00:00.000000,0.07422649,0.13027453,0.19608901,24,42,63,12,24,43,0.03995454,0.07563003,0.13304736,0.06275155,0.09914863,0.16610248
39079,0,USOhioJackson,Ohio,Jackson,2021-04-04 06:16:54.440652,2020-05-10 00:00:00.000000,0.07335012,0.12972446,0.19848090,23,42,64,13,24,43,0.04019752,0.07623069,0.13460835,0.05916577,0.09589578,0.16698934
39079,0,USOhioJackson,Ohio,Jackson,2021-04-04 06:16:54.440652,2020-05-11 00:00:00.000000,0.07378996,0.12850134,0.19891769,23,41,64,12,24,44,0.03880230,0.07586269,0.13605521,0.05840395,0.09464081,0.16799360
39079,0,USOhioJackson,Ohio,Jackson,2021-04-04 06:16:54.440652,2020-05-12 00:00:00.000000,0.07433586,0.12767197,0.19929424,24,41,64,12,24,44,0.03933257,0.07488887,0.13628405,0.05558977,0.09334697,0.16858067
39079,0,USOhioJackson,Ohio,Jackson,2021-04-04 06:16:54.440652,2020-05-13 00:00:00.000000,0.07374634,0.12621079,0.19955594,23,40,64,12,23,43,0.03840565,0.07403412,0.13566298,0.05480797,0.09291968,0.16874416
39079,0,USOhioJackson,Ohio,Jackson,2021-04-04 06:16:54.440652,2020-05-14 00:00:00.000000,0.07139910,0.12333360,0.19974056,23,39,64,12,23,43,0.03841641,0.07251882,0.13444626,0.05483641,0.09292444,0.17047645
39079,0,USOhioJackson,Ohio,Jackson,2021-04-04 06:16:54.440652,2020-05-15 00:00:00.000000,0.06921975,0.12123137,0.20512554,22,39,66,12,23,43,0.03854176,0.07163500,0.13284755,0.05517797,0.09156523,0.17145355
39079,0,USOhioJackson,Ohio,Jackson,2021-04-04 06:16:54.440652,2020-05-16 00:00:00.000000,0.06799348,0.12065740,0.21120199,22,39,68,12,23,42,0.03873347,0.07173582,0.13247031,0.05597210,0.09087144,0.17200087
39079,0,USOhioJackson,Ohio,Jackson,2021-04-04 06:16:54.440652,2020-05-17 00:00:00.000000,0.06689208,0.12210643,0.21667379,21,39,70,12,23,42,0.03895903,0.07288008,0.13241657,0.05647671,0.09039613,0.17248096
39079,0,USOhioJackson,Ohio,Jackson,2021-04-04 06:16:54.440652,2020-05-18 00:00:00.000000,0.06658738,0.12348047,0.21247352,21,40,68,12,23,42,0.03919473,0.07270149,0.13140021,0.05547119,0.08882873,0.17323699
39079,0,USOhioJackson,Ohio,Jackson,2021-04-04 06:16:54.440652,2020-05-19 00:00:00.000000,0.06501709,0.12287127,0.20776650,21,39,67,12,23,43,0.03897218,0.07289449,0.13551896,0.05472272,0.09046078,0.17200094
39079,0,USOhioJackson,Ohio,Jackson,2021-04-04 06:16:54.440652,2020-05-20 00:00:00.000000,0.06357473,0.12525563,0.20586138,20,40,66,12,23,45,0.03800204,0.07348487,0.13961718,0.05440968,0.08764089,0.17109741
39079,0,USOhioJackson,Ohio,Jackson,2021-04-04 06:16:54.440652,2020-05-21 00:00:00.000000,0.06261504,0.12642130,0.20636770,20,40,66,12,23,45,0.03710384,0.07388298,0.14011753,0.05408701,0.08480487,0.17032494
39079,0,USOhioJackson,Ohio,Jackson,2021-04-04 06:16:54.440652,2020-05-22 00:00:00.000000,0.06231481,0.12735151,0.20608070,20,41,66,11,24,45,0.03627319,0.07480633,0.14000595,0.05346604,0.08456867,0.16949427
39079,0,USOhioJackson,Ohio,Jackson,2021-04-04 06:16:54.440652,2020-05-23 00:00:00.000000,0.06397722,0.12803424,0.20552019,20,41,66,11,23,45,0.03550502,0.07336444,0.13962526,0.05230361,0.08624993,0.16851803
39079,0,USOhioJackson,Ohio,Jackson,2021-04-04 06:16:54.440652,2020-05-24 00:00:00.000000,0.06181839,0.12741573,0.20487817,20,41,66,11,23,45,0.03520341,0.07179873,0.13904134,0.05159459,0.08925330,0.16738676
39079,0,USOhioJackson,Ohio,Jackson,2021-04-04 06:16:54.440652,2020-05-25 00:00:00.000000,0.06416982,0.12383755,0.20301356,20,40,65,11,22,44,0.03501350,0.07058086,0.13833464,0.04951083,0.09052789,0.16617528
39079,0,USOhioJackson,Ohio,Jackson,2021-04-04 06:16:54.440652,2020-05-26 00:00:00.000000,0.06573060,0.12353795,0.20112748,21,40,65,11,22,44,0.03504372,0.06999528,0.13758288,0.04833703,0.09006527,0.16522540
39079,0,USOhioJackson,Ohio,Jackson,2021-04-04 06:16:54.440652,2020-05-27 00:00:00.000000,0.06604352,0.12237504,0.19920427,21,39,64,11,22,44,0.03690299,0.06959610,0.13680281,0.04974426,0.09073618,0.16399880
39079,0,USOhioJackson,Ohio,Jackson,2021-04-04 06:16:54.440652,2020-05-28 00:00:00.000000,0.06642871,0.12026042,0.19724186,21,38,63,12,22,44,0.03848587,0.07050999,0.13600719,0.05319967,0.09332251,0.16132521
39079,0,USOhioJackson,Ohio,Jackson,2021-04-04 06:16:54.440652,2020-05-29 00:00:00.000000,0.06608889,0.12259381,0.19558057,21,39,63,12,23,43,0.03774410,0.07118187,0.13520323,0.05307013,0.09368852,0.16204914
39079,0,USOhioJackson,Ohio,Jackson,2021-04-04 06:16:54.440652,2020-05-30 00:00:00.000000,0.06400271,0.11970463,0.19985524,20,38,64,11,22,43,0.03695802,0.07052079,0.13439216,0.05886539,0.09461632,0.16216701
39079,0,USOhioJackson,Ohio,Jackson,2021-04-04 06:16:54.440652,2020-05-31 00:00:00.000000,0.06449201,0.12050020,0.20415239,20,39,66,11,22,43,0.03617841,0.06915164,0.13356628,0.05765481,0.09569270,0.16114194
39079,0,USOhioJackson,Ohio,Jackson,2021-04-04 06:16:54.440652,2020-06-01 00:00:00.000000,0.06705297,0.11911259,0.20922648,21,38,67,11,22,43,0.03543544,0.06974645,0.13270196,0.05572759,0.09577697,0.15403653
39079,0,USOhioJackson,Ohio,Jackson,2021-04-04 06:16:54.440652,2020-06-02 00:00:00.000000,0.06974271,0.11773321,0.21140264,22,38,68,11,22,42,0.03548769,0.07015472,0.13217652,0.05786132,0.09636346,0.15788639
39079,0,USOhioJackson,Ohio,Jackson,2021-04-04 06:16:54.440652,2020-06-03 00:00:00.000000,0.07001909,0.11804114,0.20759757,22,38,67,11,22,42,0.03611599,0.06968851,0.13177277,0.06017719,0.09790853,0.16185010
39079,0,USOhioJackson,Ohio,Jackson,2021-04-04 06:16:54.440652,2020-06-04 00:00:00.000000,0.06807778,0.12031581,0.20287051,22,38,65,12,22,42,0.03714301,0.06892061,0.13133917,0.06092406,0.09972951,0.16186347
39079,0,USOhioJackson,Ohio,Jackson,2021-04-04 06:16:54.440652,2020-06-05 00:00:00.000000,0.06628735,0.11992281,0.21648054,21,38,70,12,22,42,0.03843970,0.06857915,0.12963852,0.06178080,0.10170911,0.16887480
39079,0,USOhioJackson,Ohio,Jackson,2021-04-04 06:16:54.440652,2020-06-06 00:00:00.000000,0.06480024,0.12166424,0.21867354,21,39,70,12,22,41,0.03991360,0.06976982,0.12688185,0.06167472,0.10650159,0.17246969
39079,0,USOhioJackson,Ohio,Jackson,2021-04-04 06:16:54.440652,2020-06-07 00:00:00.000000,0.06432080,0.12120236,0.22030386,20,39,71,12,22,42,0.03923813,0.06903599,0.12959269,0.06147563,0.10683845,0.17346599
39079,0,USOhioJackson,Ohio,Jackson,2021-04-04 06:16:54.440652,2020-06-08 00:00:00.000000,0.06462573,0.11984487,0.21945508,20,38,71,12,22,42,0.03835900,0.06865674,0.13096963,0.06099658,0.10825389,0.17402455
39079,0,USOhioJackson,Ohio,Jackson,2021-04-04 06:16:54.440652,2020-06-09 00:00:00.000000,0.06503636,0.11992994,0.22389695,21,38,72,12,22,43,0.03781282,0.06894471,0.13345981,0.06115395,0.10865555,0.17956874
39079,0,USOhioJackson,Ohio,Jackson,2021-04-04 06:16:54.440652,2020-06-10 00:00:00.000000,0.06642671,0.12140880,0.23032109,21,39,74,12,22,43,0.03748682,0.06867981,0.13377841,0.06029226,0.11099369,0.18500794
39079,0,USOhioJackson,Ohio,Jackson,2021-04-04 06:16:54.440652,2020-06-11 00:00:00.000000,0.06710234,0.12222281,0.22890562,21,39,74,12,22,43,0.03730262,0.06934353,0.13377934,0.05987498,0.11479520,0.18962338
39079,0,USOhioJackson,Ohio,Jackson,2021-04-04 06:16:54.440652,2020-06-12 00:00:00.000000,0.06746288,0.12250872,0.22247394,21,39,72,12,22,43,0.03720421,0.07008452,0.13355356,0.05971944,0.11494632,0.19193407
39079,0,USOhioJackson,Ohio,Jackson,2021-04-04 06:16:54.440652,2020-06-13 00:00:00.000000,0.06777509,0.12271084,0.22065193,21,39,71,12,22,43,0.03715057,0.07077389,0.13507983,0.05970467,0.12038994,0.19717770
39079,0,USOhioJackson,Ohio,Jackson,2021-04-04 06:16:54.440652,2020-06-14 00:00:00.000000,0.06836036,0.12226509,0.22523781,22,39,73,12,23,45,0.03713024,0.07181275,0.13893130,0.05994072,0.12175411,0.19539830
39079,0,USOhioJackson,Ohio,Jackson,2021-04-04 06:16:54.440652,2020-06-15 00:00:00.000000,0.06984306,0.12376034,0.23210313,22,40,75,12,23,46,0.03819570,0.07273568,0.14257954,0.06126305,0.12286892,0.19718308
39079,0,USOhioJackson,Ohio,Jackson,2021-04-04 06:16:54.440652,2020-06-16 00:00:00.000000,0.06889770,0.12656837,0.23899597,22,41,77,13,23,45,0.04025549,0.07330205,0.14180788,0.06615043,0.12402976,0.20132399
39079,0,USOhioJackson,Ohio,Jackson,2021-04-04 06:16:54.440652,2020-06-17 00:00:00.000000,0.06813340,0.13069867,0.24592597,22,42,79,13,23,45,0.04172221,0.07394247,0.13919098,0.06748604,0.12221045,0.20198638
39079,0,USOhioJackson,Ohio,Jackson,2021-04-04 06:16:54.440652,2020-06-18 00:00:00.000000,0.06744960,0.13578631,0.24575756,21,44,79,13,24,44,0.04108980,0.07579226,0.13708040,0.06708122,0.12574452,0.20222360
39079,0,USOhioJackson,Ohio,Jackson,2021-04-04 06:16:54.440652,2020-06-19 00:00:00.000000,0.06801573,0.13728927,0.24472146,22,44,79,13,24,45,0.04055494,0.07629260,0.14020791,0.06645173,0.12830737,0.20246569
39079,0,USOhioJackson,Ohio,Jackson,2021-04-04 06:16:54.440652,2020-06-20 00:00:00.000000,0.06889678,0.13736096,0.24516842,22,44,79,12,25,46,0.04006491,0.07829454,0.14204375,0.07116075,0.12986931,0.20732072
39079,0,USOhioJackson,Ohio,Jackson,2021-04-04 06:16:54.440652,2020-06-21 00:00:00.000000,0.06988850,0.13870740,0.25247562,22,44,81,12,26,46,0.03962825,0.08022965,0.14411447,0.07107777,0.13323096,0.21071505
39079,0,USOhioJackson,Ohio,Jackson,2021-04-04 06:16:54.440652,2020-06-22 00:00:00.000000,0.08001499,0.14191572,0.25072069,25,45,81,13,25,47,0.04015586,0.08013274,0.14627490,0.07108740,0.13944298,0.21260263
39079,0,USOhioJackson,Ohio,Jackson,2021-04-04 06:16:54.440652,2020-06-23 00:00:00.000000,0.08580452,0.14923813,0.25291440,27,48,81,13,26,48,0.04292728,0.08038934,0.14877903,0.07123945,0.13985263,0.22999299
39079,0,USOhioJackson,Ohio,Jackson,2021-04-04 06:16:54.440652,2020-06-24 00:00:00.000000,0.08719539,0.15817258,0.25779143,28,51,83,15,26,48,0.04706313,0.08237865,0.15038438,0.07185107,0.14463114,0.23477219
39079,0,USOhioJackson,Ohio,Jackson,2021-04-04 06:16:54.440652,2020-06-25 00:00:00.000000,0.08951329,0.16305552,0.26277232,29,52,85,16,27,49,0.04978943,0.08423381,0.15133490,0.07343209,0.14756343,0.25137767
39079,0,USOhioJackson,Ohio,Jackson,2021-04-04 06:16:54.440652,2020-06-26 00:00:00.000000,0.09250097,0.16643562,0.26793070,29,53,86,16,28,49,0.05054846,0.08775925,0.15152449,0.07685348,0.15052844,0.25659486
39079,0,USOhioJackson,Ohio,Jackson,2021-04-04 06:16:54.440652,2020-06-27 00:00:00.000000,0.09585608,0.17158638,0.27195346,31,55,88,16,29,49,0.05132792,0.09217717,0.15201201,0.07791479,0.15649944,0.26079673
39079,0,USOhioJackson,Ohio,Jackson,2021-04-04 06:16:54.440652,2020-06-28 00:00:00.000000,0.09846243,0.17725476,0.27773690,31,57,90,16,31,50,0.05214204,0.09566303,0.15642666,0.08100886,0.15915364,0.26468524
39079,0,USOhioJackson,Ohio,Jackson,2021-04-04 06:16:54.440652,2020-06-29 00:00:00.000000,0.10227790,0.18135613,0.28394471,33,58,92,17,31,51,0.05302093,0.09855348,0.15941400,0.08800026,0.16530571,0.27330128
39079,0,USOhioJackson,Ohio,Jackson,2021-04-04 06:16:54.440652,2020-06-30 00:00:00.000000,0.11149151,0.18765294,0.29018965,36,60,94,18,32,52,0.05568882,0.10056776,0.16320630,0.08846754,0.16817118,0.27637598
39079,0,USOhioJackson,Ohio,Jackson,2021-04-04 06:16:54.440652,2020-07-01 00:00:00.000000,0.11857731,0.19111592,0.29538794,38,61,95,19,33,54,0.05952715,0.10335637,0.16760980,0.09008065,0.16846361,0.27678814
39079,0,USOhioJackson,Ohio,Jackson,2021-04-04 06:16:54.440652,2020-07-02 00:00:00.000000,0.12075417,0.19571207,0.29991886,39,63,97,20,34,55,0.06355897,0.10513815,0.17158749,0.09429082,0.17542924,0.27701662
39079,0,USOhioJackson,Ohio,Jackson,2021-04-04 06:16:54.440652,2020-07-03 00:00:00.000000,0.11699782,0.20208870,0.30415251,37,65,98,21,34,56,0.06566302,0.10784474,0.17299305,0.09778283,0.17434377,0.27811869
39079,0,USOhioJackson,Ohio,Jackson,2021-04-04 06:16:54.440652,2020-07-04 00:00:00.000000,0.12124496,0.20907185,0.31077052,39,67,100,22,36,56,0.06794288,0.11157928,0.17516843,0.10133611,0.17957749,0.27797046
39079,0,USOhioJackson,Ohio,Jackson,2021-04-04 06:16:54.440652,2020-07-05 00:00:00.000000,0.12439094,0.21434341,0.31585078,40,69,102,22,37,59,0.06819474,0.11598668,0.18325649,0.10330125,0.18066592,0.28013512
39079,0,USOhioJackson,Ohio,Jackson,2021-04-04 06:16:54.440652,2020-07-06 00:00:00.000000,0.13307079,0.22249362,0.32395455,43,72,105,23,38,62,0.07252964,0.11920036,0.19219624,0.10786375,0.18762276,0.28905035
39079,0,USOhioJackson,Ohio,Jackson,2021-04-04 06:16:54.440652,2020-07-07 00:00:00.000000,0.14185978,0.22732646,0.33273017,45,73,107,24,39,64,0.07426826,0.12293902,0.19859843,0.10812028,0.19320690,0.29342347
39079,0,USOhioJackson,Ohio,Jackson,2021-04-04 06:16:54.440652,2020-07-08 00:00:00.000000,0.14409100,0.23518734,0.34164726,46,76,110,25,41,66,0.07721080,0.12779193,0.20469537,0.11052376,0.19423648,0.29118939
39079,0,USOhioJackson,Ohio,Jackson,2021-04-04 06:16:54.440652,2020-07-09 00:00:00.000000,0.14892722,0.24416609,0.35749133,48,79,115,26,42,68,0.08096154,0.13234594,0.21065288,0.11448697,0.19734772,0.28816866
39079,0,USOhioJackson,Ohio,Jackson,2021-04-04 06:16:54.440652,2020-07-10 00:00:00.000000,0.15104688,0.25110329,0.37619874,48,81,121,27,43,69,0.08523497,0.13364138,0.21580254,0.11492877,0.20180801,0.29053252
39079,0,USOhioJackson,Ohio,Jackson,2021-04-04 06:16:54.440652,2020-07-11 00:00:00.000000,0.15205158,0.25882827,0.38647454,49,83,125,28,43,71,0.08780551,0.13494910,0.22132121,0.11598008,0.20630218,0.29006076
39079,0,USOhioJackson,Ohio,Jackson,2021-04-04 06:16:54.440652,2020-07-12 00:00:00.000000,0.15321502,0.26796735,0.39220985,49,86,127,28,45,74,0.08852112,0.13912167,0.22944922,0.11830939,0.20657512,0.29808877
39079,0,USOhioJackson,Ohio,Jackson,2021-04-04 06:16:54.440652,2020-07-13 00:00:00.000000,0.16001179,0.28057407,0.39433697,51,90,127,28,46,76,0.08909384,0.14429175,0.23647955,0.12237886,0.20831968,0.30089053
39079,0,USOhioJackson,Ohio,Jackson,2021-04-04 06:16:54.440652,2020-07-14 00:00:00.000000,0.16766083,0.28773189,0.40946904,54,93,132,29,48,78,0.09033470,0.14979541,0.24168353,0.12455330,0.20935732,0.30149855
39079,0,USOhioJackson,Ohio,Jackson,2021-04-04 06:16:54.440652,2020-07-15 00:00:00.000000,0.17548400,0.29648959,0.41713683,56,96,135,29,50,79,0.09200857,0.15544322,0.24565604,0.12806894,0.21332871,0.30560931
39079,0,USOhioJackson,Ohio,Jackson,2021-04-04 06:16:54.440652,2020-07-16 00:00:00.000000,0.18307793,0.30398831,0.43286893,59,98,140,30,52,80,0.09394162,0.16277063,0.24913919,0.13318049,0.21735219,0.30721172
39079,0,USOhioJackson,Ohio,Jackson,2021-04-04 06:16:54.440652,2020-07-17 00:00:00.000000,0.18480232,0.31082267,0.46273782,59,100,149,31,55,83,0.09602555,0.16979134,0.25748421,0.13582955,0.22093292,0.31349061
39079,0,USOhioJackson,Ohio,Jackson,2021-04-04 06:16:54.440652,2020-07-18 00:00:00.000000,0.18628095,0.32139886,0.47827679,60,104,155,31,56,87,0.09833168,0.17543800,0.27021740,0.14464122,0.22702534,0.33126705
39079,0,USOhioJackson,Ohio,Jackson,2021-04-04 06:16:54.440652,2020-07-19 00:00:00.000000,0.18828734,0.32531380,0.50206947,61,105,162,32,57,90,0.10080637,0.17852713,0.27991872,0.14938250,0.23410835,0.34377621
39079,0,USOhioJackson,Ohio,Jackson,2021-04-04 06:16:54.440652,2020-07-20 00:00:00.000000,0.18974126,0.33560238,0.51762100,61,108,167,33,59,95,0.10366635,0.18288530,0.29536861,0.15121744,0.24322606,0.34953220
39079,0,USOhioJackson,Ohio,Jackson,2021-04-04 06:16:54.440652,2020-07-21 00:00:00.000000,0.19143681,0.34402317,0.53353768,62,111,172,34,61,97,0.10604961,0.18824595,0.30218552,0.15237973,0.24614678,0.35188735
39079,0,USOhioJackson,Ohio,Jackson,2021-04-04 06:16:54.440652,2020-07-22 00:00:00.000000,0.20268121,0.35300169,0.54949654,65,114,178,34,62,100,0.10619205,0.19435651,0.30923745,0.15220823,0.24694150,0.35547108
39079,0,USOhioJackson,Ohio,Jackson,2021-04-04 06:16:54.440652,2020-07-23 00:00:00.000000,0.22251417,0.36306431,0.56547191,72,117,183,35,65,102,0.11078520,0.20103370,0.31528804,0.15161979,0.24939519,0.35899970
39079,0,USOhioJackson,Ohio,Jackson,2021-04-04 06:16:54.440652,2020-07-24 00:00:00.000000,0.22910671,0.38062580,0.58135756,74,123,188,37,66,106,0.11591876,0.20634090,0.32947433,0.15233283,0.25728717,0.37978082
39079,0,USOhioJackson,Ohio,Jackson,2021-04-04 06:16:54.440652,2020-07-25 00:00:00.000000,0.23566207,0.39992449,0.59690532,76,129,193,38,69,110,0.11937544,0.21292898,0.34034914,0.15233244,0.26295855,0.38349546
39079,0,USOhioJackson,Ohio,Jackson,2021-04-04 06:16:54.440652,2020-07-26 00:00:00.000000,0.24222628,0.41741367,0.61478780,78,135,199,39,71,113,0.12287923,0.22053114,0.35005628,0.15308662,0.26433893,0.38464896
39079,0,USOhioJackson,Ohio,Jackson,2021-04-04 06:16:54.440652,2020-07-27 00:00:00.000000,0.26898635,0.43919212,0.63480767,87,142,205,40,76,116,0.12641774,0.23692515,0.35989596,0.15466297,0.26249552,0.38439234
39079,0,USOhioJackson,Ohio,Jackson,2021-04-04 06:16:54.440652,2020-07-28 00:00:00.000000,0.27986279,0.45484151,0.65620675,90,147,212,43,78,121,0.13521334,0.24321476,0.37611618,0.15716809,0.26508874,0.38313237
39079,0,USOhioJackson,Ohio,Jackson,2021-04-04 06:16:54.440652,2020-07-29 00:00:00.000000,0.29075274,0.46621994,0.67859925,94,151,219,46,81,127,0.14383177,0.25003694,0.39346606,0.16210790,0.26836962,0.38045152
39079,0,USOhioJackson,Ohio,Jackson,2021-04-04 06:16:54.440652,2020-07-30 00:00:00.000000,0.29175315,0.47735692,0.70213349,94,154,227,49,83,133,0.15228308,0.25818167,0.41045434,0.17164943,0.27566719,0.38718906
39079,0,USOhioJackson,Ohio,Jackson,2021-04-04 06:16:54.440652,2020-07-31 00:00:00.000000,0.29159710,0.49966469,0.72902717,94,161,236,52,87,138,0.16152813,0.26902704,0.42734856,0.17341808,0.28027902,0.40296217
39079,0,USOhioJackson,Ohio,Jackson,2021-04-04 06:16:54.440652,2020-08-01 00:00:00.000000,0.29749164,0.52310637,0.76170221,96,169,246,55,89,143,0.17087818,0.27641213,0.44353785,0.17537939,0.28857587,0.40865616
39079,0,USOhioJackson,Ohio,Jackson,2021-04-04 06:16:54.440652,2020-08-02 00:00:00.000000,0.31530208,0.53656785,0.79370369,102,173,257,55,92,148,0.17224067,0.28576698,0.45664694,0.17952747,0.29308391,0.40938513
39079,0,USOhioJackson,Ohio,Jackson,2021-04-04 06:16:54.440652,2020-08-03 00:00:00.000000,0.33716563,0.54762448,0.81435596,109,177,263,56,95,152,0.17352320,0.29552967,0.47011513,0.19693871,0.29588348,0.43269053
39079,0,USOhioJackson,Ohio,Jackson,2021-04-04 06:16:54.440652,2020-08-04 00:00:00.000000,0.35313364,0.56524019,0.84773243,114,183,274,57,99,157,0.17612040,0.30607686,0.48440185,0.20344691,0.29925555,0.43321841
39079,0,USOhioJackson,Ohio,Jackson,2021-04-04 06:16:54.440652,2020-08-05 00:00:00.000000,0.37007358,0.57780597,0.90008071,119,187,291,61,102,162,0.19080912,0.31544741,0.50076713,0.20134967,0.30320370,0.43463119
39079,0,USOhioJackson,Ohio,Jackson,2021-04-04 06:16:54.440652,2020-08-06 00:00:00.000000,0.38856711,0.59926108,0.94934691,125,194,307,67,104,171,0.20705211,0.32281968,0.52828890,0.20239267,0.31275756,0.46068565
39079,0,USOhioJackson,Ohio,Jackson,2021-04-04 06:16:54.440652,2020-08-07 00:00:00.000000,0.40853551,0.62788966,0.98017303,132,203,317,72,108,178,0.22456902,0.33439562,0.54981434,0.20699891,0.32036960,0.47998444
39079,0,USOhioJackson,Ohio,Jackson,2021-04-04 06:16:54.440652,2020-08-08 00:00:00.000000,0.43733614,0.66161972,1.03546765,141,214,335,78,113,187,0.24158614,0.34875009,0.57830784,0.21648780,0.32274586,0.47837445
39079,0,USOhioJackson,Ohio,Jackson,2021-04-04 06:16:54.440652,2020-08-09 00:00:00.000000,0.45713336,0.69936655,1.07141869,148,226,347,82,117,192,0.25394074,0.36260936,0.59348161,0.21636400,0.32206940,0.49081761
39079,0,USOhioJackson,Ohio,Jackson,2021-04-04 06:16:54.440652,2020-08-10 00:00:00.000000,0.48836211,0.74233972,1.10915050,158,240,359,85,121,198,0.26488861,0.37510124,0.61177236,0.21613016,0.32356655,0.49900284
39079,0,USOhioJackson,Ohio,Jackson,2021-04-04 06:16:54.440652,2020-08-11 00:00:00.000000,0.52462617,0.78198962,1.15457586,170,253,374,91,127,204,0.28153118,0.39342627,0.63237405,0.21708769,0.32702030,0.51171593
39079,0,USOhioJackson,Ohio,Jackson,2021-04-04 06:16:54.440652,2020-08-12 00:00:00.000000,0.56448777,0.82320169,1.19201904,182,266,386,96,135,212,0.29684921,0.41714830,0.65506859,0.21649245,0.32680003,0.50698878
39079,0,USOhioJackson,Ohio,Jackson,2021-04-04 06:16:54.440652,2020-08-13 00:00:00.000000,0.60702879,0.86310494,1.22707943,196,279,397,99,142,220,0.30632036,0.43977257,0.67940997,0.21587467,0.32548551,0.50097270
39079,0,USOhioJackson,Ohio,Jackson,2021-04-04 06:16:54.440652,2020-08-14 00:00:00.000000,0.64002207,0.90137249,1.26843953,207,292,411,106,150,228,0.32722190,0.46344710,0.70365814,0.21516189,0.32138465,0.48680038
39079,0,USOhioJackson,Ohio,Jackson,2021-04-04 06:16:54.440652,2020-08-15 00:00:00.000000,0.66578148,0.94171705,1.37262459,215,305,444,111,157,237,0.34373670,0.48467990,0.73325782,0.21409283,0.31408639,0.47118848
39079,0,USOhioJackson,Ohio,Jackson,2021-04-04 06:16:54.440652,2020-08-16 00:00:00.000000,0.67279249,0.98313351,1.45944455,218,318,473,115,164,245,0.35484952,0.50615515,0.75654866,0.21268635,0.30646569,0.46522026
39079,0,USOhioJackson,Ohio,Jackson,2021-04-04 06:16:54.440652,2020-08-17 00:00:00.000000,0.69272691,1.02818585,1.51859530,224,333,492,118,173,256,0.36544559,0.53549394,0.79152230,0.21096785,0.30555729,0.44069050
39079,0,USOhioJackson,Ohio,Jackson,2021-04-04 06:16:54.440652,2020-08-18 00:00:00.000000,0.71961801,1.07534112,1.55219551,233,348,503,121,184,269,0.37493655,0.56894431,0.83056061,0.21169924,0.29623676,0.43436916
39079,0,USOhioJackson,Ohio,Jackson,2021-04-04 06:16:54.440652,2020-08-19 00:00:00.000000,0.75053577,1.11257730,1.57001782,243,360,508,124,191,279,0.38365180,0.59081670,0.86225679,0.21141339,0.28359353,0.42533123
39079,0,USOhioJackson,Ohio,Jackson,2021-04-04 06:16:54.440652,2020-08-20 00:00:00.000000,0.75707361,1.13262500,1.57701708,245,367,511,126,198,287,0.39171155,0.61167953,0.88792986,0.19818933,0.27335748,0.41135097
39079,0,USOhioJackson,Ohio,Jackson,2021-04-04 06:16:54.440652,2020-08-21 00:00:00.000000,0.77529901,1.15390279,1.57746020,251,374,511,129,202,295,0.39897609,0.62442148,0.91186197,0.19687250,0.26285751,0.38009713
39079,0,USOhioJackson,Ohio,Jackson,2021-04-04 06:16:54.440652,2020-08-22 00:00:00.000000,0.78376811,1.17012142,1.57427271,254,379,510,131,208,302,0.40565758,0.64461512,0.93318584,0.18737392,0.24926889,0.33732316
39079,0,USOhioJackson,Ohio,Jackson,2021-04-04 06:16:54.440652,2020-08-23 00:00:00.000000,0.78430009,1.17794815,1.56907145,254,381,508,133,213,309,0.41173669,0.65886867,0.95579156,0.17535211,0.23812983,0.33044227
39079,0,USOhioJackson,Ohio,Jackson,2021-04-04 06:16:54.440652,2020-08-24 00:00:00.000000,0.77719789,1.19064670,1.56200533,251,385,506,134,217,321,0.41545913,0.67212020,0.99158809,0.16602854,0.23014947,0.33222210
39079,0,USOhioJackson,Ohio,Jackson,2021-04-04 06:16:54.440652,2020-08-25 00:00:00.000000,0.77340039,1.19663334,1.57480337,250,387,510,134,222,328,0.41424527,0.68645846,1.01341778,0.16403889,0.22573390,0.32900803
39079,0,USOhioJackson,Ohio,Jackson,2021-04-04 06:16:54.440652,2020-08-26 00:00:00.000000,0.77982961,1.19943578,1.60660691,252,388,520,133,224,331,0.41054499,0.69368069,1.02313541,0.16319695,0.22199672,0.32488976
39079,0,USOhioJackson,Ohio,Jackson,2021-04-04 06:16:54.440652,2020-08-27 00:00:00.000000,0.78649059,1.19042201,1.63561188,254,385,530,132,224,334,0.40755800,0.69331255,1.03068423,0.15545674,0.21947768,0.32141924
39079,0,USOhioJackson,Ohio,Jackson,2021-04-04 06:16:54.440652,2020-08-28 00:00:00.000000,0.79339764,1.19987336,1.66026891,257,388,538,130,224,336,0.40382708,0.69184819,1.03820113,0.14586288,0.21633214,0.30042448
39079,0,USOhioJackson,Ohio,Jackson,2021-04-04 06:16:54.440652,2020-08-29 00:00:00.000000,0.79470934,1.21435320,1.67824399,257,393,543,129,225,344,0.39971903,0.69540753,1.06261841,0.14429325,0.20295995,0.29708324
39079,0,USOhioJackson,Ohio,Jackson,2021-04-04 06:16:54.440652,2020-08-30 00:00:00.000000,0.78576456,1.21392447,1.68823371,254,393,547,128,225,350,0.39563131,0.69493738,1.08135805,0.14239362,0.20152522,0.28651640
39079,0,USOhioJackson,Ohio,Jackson,2021-04-04 06:16:54.440652,2020-08-31 00:00:00.000000,0.77974177,1.21666419,1.68234171,252,394,545,127,225,355,0.39213089,0.69545391,1.09649715,0.13932436,0.20250435,0.28944531
39079,0,USOhioJackson,Ohio,Jackson,2021-04-04 06:16:54.440652,2020-09-01 00:00:00.000000,0.77385498,1.22301687,1.67179316,250,396,541,127,225,359,0.39353590,0.69458509,1.10917495,0.13313567,0.20237288,0.29158799
39079,0,USOhioJackson,Ohio,Jackson,2021-04-04 06:16:54.440652,2020-09-02 00:00:00.000000,0.76813468,1.23026711,1.66515101,248,398,539,128,226,363,0.39689274,0.69733703,1.12027708,0.13565120,0.20381481,0.29224860
39079,0,USOhioJackson,Ohio,Jackson,2021-04-04 06:16:54.440652,2020-09-03 00:00:00.000000,0.76252988,1.22353588,1.64457895,247,396,533,129,227,366,0.40052093,0.70058241,1.13024641,0.14121410,0.20423939,0.29150278
39079,0,USOhioJackson,Ohio,Jackson,2021-04-04 06:16:54.440652,2020-09-04 00:00:00.000000,0.76205919,1.22739648,1.62988795,247,397,528,131,227,369,0.40459152,0.70084961,1.13913695,0.14334078,0.20880470,0.29015824
39079,0,USOhioJackson,Ohio,Jackson,2021-04-04 06:16:54.440652,2020-09-05 00:00:00.000000,0.77059460,1.22904370,1.61479542,249,398,523,132,226,368,0.40933640,0.69976358,1.13584322,0.14539650,0.20694224,0.29020081
39079,0,USOhioJackson,Ohio,Jackson,2021-04-04 06:16:54.440652,2020-09-06 00:00:00.000000,0.78110948,1.22220190,1.59955681,253,396,518,134,228,365,0.41498255,0.70499358,1.12674750,0.14678564,0.20578662,0.31438007
39079,0,USOhioJackson,Ohio,Jackson,2021-04-04 06:16:54.440652,2020-09-07 00:00:00.000000,0.78188172,1.21676817,1.59808214,253,394,517,136,230,362,0.42166142,0.71117143,1.11701525,0.14447537,0.20920856,0.31258862
39079,0,USOhioJackson,Ohio,Jackson,2021-04-04 06:16:54.440652,2020-09-08 00:00:00.000000,0.76269533,1.22766119,1.61412898,247,397,523,136,233,358,0.42106650,0.72075103,1.10723955,0.14002975,0.21212276,0.32804414
39079,0,USOhioJackson,Ohio,Jackson,2021-04-04 06:16:54.440652,2020-09-09 00:00:00.000000,0.74497996,1.23649443,1.63018270,241,400,528,137,234,355,0.42561784,0.72211839,1.09745374,0.14056277,0.21461975,0.33648403
39079,0,USOhioJackson,Ohio,Jackson,2021-04-04 06:16:54.440652,2020-09-10 00:00:00.000000,0.75008328,1.22984918,1.64624189,243,398,533,138,233,356,0.42623246,0.72141432,1.09996508,0.14848905,0.21998493,0.33975016
39079,0,USOhioJackson,Ohio,Jackson,2021-04-04 06:16:54.440652,2020-09-11 00:00:00.000000,0.74597420,1.23221666,1.66230916,241,399,538,139,234,361,0.43112441,0.72417166,1.11671647,0.15050231,0.22380322,0.34083432
39079,0,USOhioJackson,Ohio,Jackson,2021-04-04 06:16:54.440652,2020-09-12 00:00:00.000000,0.74403830,1.23444548,1.67406581,241,400,542,136,238,367,0.41995451,0.73667543,1.13357995,0.15461989,0.23306221,0.34269195
39079,0,USOhioJackson,Ohio,Jackson,2021-04-04 06:16:54.440652,2020-09-13 00:00:00.000000,0.74569374,1.22149718,1.68987309,241,395,547,134,240,372,0.41493746,0.74245971,1.15020313,0.15741434,0.23255844,0.34592899
39079,0,USOhioJackson,Ohio,Jackson,2021-04-04 06:16:54.440652,2020-09-14 00:00:00.000000,0.76557901,1.24078713,1.71044711,248,402,554,133,241,372,0.41207579,0.74491076,1.14785980,0.15820768,0.23548394,0.34672858
39079,0,USOhioJackson,Ohio,Jackson,2021-04-04 06:16:54.440652,2020-09-15 00:00:00.000000,0.79021584,1.25476256,1.73033304,256,406,560,133,242,369,0.41171754,0.74786599,1.14011115,0.16041108,0.24031035,0.34931748
39079,0,USOhioJackson,Ohio,Jackson,2021-04-04 06:16:54.440652,2020-09-16 00:00:00.000000,0.80489971,1.26678901,1.74998783,260,410,567,134,243,366,0.41343621,0.75070655,1.12959489,0.16082850,0.24170286,0.34819991
39079,0,USOhioJackson,Ohio,Jackson,2021-04-04 06:16:54.440652,2020-09-17 00:00:00.000000,0.81934516,1.29159245,1.76958753,265,418,573,135,247,362,0.41695856,0.76280307,1.11733671,0.16145868,0.24863976,0.35271908
39079,0,USOhioJackson,Ohio,Jackson,2021-04-04 06:16:54.440652,2020-09-18 00:00:00.000000,0.83549908,1.32425579,1.80280717,270,429,584,136,249,360,0.42201420,0.77015187,1.11110307,0.16371979,0.25394912,0.35689139
39079,0,USOhioJackson,Ohio,Jackson,2021-04-04 06:16:54.440652,2020-09-19 00:00:00.000000,0.85274505,1.35361935,1.85009800,276,438,599,141,250,361,0.43539840,0.77259780,1.11472049,0.16629645,0.26120227,0.36681434
39079,0,USOhioJackson,Ohio,Jackson,2021-04-04 06:16:54.440652,2020-09-20 00:00:00.000000,0.87057635,1.38156315,1.89331081,282,447,613,145,256,362,0.44999355,0.79284751,1.11772290,0.16908422,0.26672536,0.38451893
39079,0,USOhioJackson,Ohio,Jackson,2021-04-04 06:16:54.440652,2020-09-21 00:00:00.000000,0.88675776,1.40209304,1.90586753,287,454,617,151,261,364,0.46628367,0.80727452,1.12484747,0.17273262,0.26883292,0.39385822
39079,0,USOhioJackson,Ohio,Jackson,2021-04-04 06:16:54.440652,2020-09-22 00:00:00.000000,0.90316166,1.41738356,1.91803317,292,459,621,156,263,371,0.48229046,0.81388684,1.14675390,0.17937331,0.27480686,0.40479932
39079,0,USOhioJackson,Ohio,Jackson,2021-04-04 06:16:54.440652,2020-09-23 00:00:00.000000,0.91962684,1.44932066,1.92990545,298,469,625,161,269,379,0.49875450,0.83259270,1.17080008,0.19305709,0.27705420,0.40551880
39079,0,USOhioJackson,Ohio,Jackson,2021-04-04 06:16:54.440652,2020-09-24 00:00:00.000000,0.93616512,1.48366985,1.94160120,303,480,629,167,274,388,0.51572494,0.84644131,1.19801164,0.19973383,0.28051241,0.40427013
39079,0,USOhioJackson,Ohio,Jackson,2021-04-04 06:16:54.440652,2020-09-25 00:00:00.000000,0.96273049,1.50958961,1.98513203,312,489,643,172,277,398,0.53317771,0.85601793,1.22920999,0.20356813,0.28719097,0.40855739
39079,0,USOhioJackson,Ohio,Jackson,2021-04-04 06:16:54.440652,2020-09-26 00:00:00.000000,0.99524666,1.54521806,2.03374312,322,500,659,176,282,409,0.54506813,0.87164979,1.26453103,0.21599701,0.29073269,0.41007845
39079,0,USOhioJackson,Ohio,Jackson,2021-04-04 06:16:54.440652,2020-09-27 00:00:00.000000,1.03021688,1.59107256,2.08348896,333,515,675,179,288,415,0.55473682,0.88878515,1.28237880,0.22496465,0.29541922,0.42812758
39079,0,USOhioJackson,Ohio,Jackson,2021-04-04 06:16:54.440652,2020-09-28 00:00:00.000000,1.08299717,1.62997966,2.14054847,351,528,693,182,293,419,0.56457442,0.90520642,1.29535577,0.22737186,0.30351586,0.43869527
39079,0,USOhioJackson,Ohio,Jackson,2021-04-04 06:16:54.440652,2020-09-29 00:00:00.000000,1.14163937,1.68804537,2.19897705,370,547,712,188,303,426,0.58145493,0.93762127,1.31614560,0.23024240,0.31138529,0.44301671
39079,0,USOhioJackson,Ohio,Jackson,2021-04-04 06:16:54.440652,2020-09-30 00:00:00.000000,1.14545008,1.74324164,2.25967649,371,565,732,197,313,435,0.60816316,0.96832364,1.34242644,0.23085420,0.31327030,0.44532187
39079,0,USOhioJackson,Ohio,Jackson,2021-04-04 06:16:54.440652,2020-10-01 00:00:00.000000,1.18960356,1.79552170,2.34081467,385,581,758,204,325,457,0.63192201,1.00336390,1.41137809,0.23422224,0.31700259,0.43660573
39079,0,USOhioJackson,Ohio,Jackson,2021-04-04 06:16:54.440652,2020-10-02 00:00:00.000000,1.25043792,1.84173663,2.44580670,405,596,792,213,335,480,0.66014216,1.03579033,1.48141669,0.23808046,0.32846095,0.44473229
39079,0,USOhioJackson,Ohio,Jackson,2021-04-04 06:16:54.440652,2020-10-03 00:00:00.000000,1.31350437,1.88771650,2.50332945,425,611,811,216,346,503,0.66644575,1.06902530,1.55215191,0.24202352,0.33079016,0.44175352
39079,0,USOhioJackson,Ohio,Jackson,2021-04-04 06:16:54.440652,2020-10-04 00:00:00.000000,1.37750762,1.93703621,2.54506540,446,627,824,220,357,526,0.67988956,1.10446785,1.62406056,0.24773080,0.33003420,0.43884670
39079,0,USOhioJackson,Ohio,Jackson,2021-04-04 06:16:54.440652,2020-10-05 00:00:00.000000,1.43763489,1.99874104,2.64357228,465,647,856,227,371,543,0.70071726,1.14466962,1.67570903,0.25030140,0.33674732,0.45172434
39079,0,USOhioJackson,Ohio,Jackson,2021-04-04 06:16:54.440652,2020-10-06 00:00:00.000000,1.49850099,2.09911366,2.77099982,485,680,898,235,385,558,0.72733253,1.18781140,1.72410688,0.25036276,0.34239822,0.46255397
39079,0,USOhioJackson,Ohio,Jackson,2021-04-04 06:16:54.440652,2020-10-07 00:00:00.000000,1.56064615,2.18712098,2.90288021,505,708,940,245,394,574,0.75784823,1.21831206,1.77298611,0.25038119,0.34043621,0.46930307
39079,0,USOhioJackson,Ohio,Jackson,2021-04-04 06:16:54.440652,2020-10-08 00:00:00.000000,1.62431520,2.26536090,3.03311587,526,734,983,256,406,590,0.79126054,1.25271914,1.82198993,0.25041226,0.33416376,0.46368979
39079,0,USOhioJackson,Ohio,Jackson,2021-04-04 06:16:54.440652,2020-10-09 00:00:00.000000,1.69001703,2.34601572,3.15010657,547,760,1021,268,415,606,0.82691049,1.28082467,1.87044736,0.25046357,0.32621162,0.44764042
39079,0,USOhioJackson,Ohio,Jackson,2021-04-04 06:16:54.440652,2020-10-10 00:00:00.000000,1.75891210,2.42576053,3.24529227,570,786,1051,280,428,621,0.86433571,1.32053858,1.91745931,0.24871889,0.32456051,0.43935926
39079,0,USOhioJackson,Ohio,Jackson,2021-04-04 06:16:54.440652,2020-10-11 00:00:00.000000,1.83224056,2.49704328,3.32478544,593,809,1077,292,440,635,0.90316576,1.36041968,1.96214999,0.24778097,0.31469471,0.44201130
39079,0,USOhioJackson,Ohio,Jackson,2021-04-04 06:16:54.440652,2020-10-12 00:00:00.000000,1.89616874,2.56966606,3.39556536,614,832,1100,305,453,653,0.94308661,1.39772963,2.01687957,0.24403701,0.30990119,0.44268162
39079,0,USOhioJackson,Ohio,Jackson,2021-04-04 06:16:54.440652,2020-10-13 00:00:00.000000,1.96239298,2.64438102,3.46205906,636,857,1122,317,465,669,0.98078302,1.43513491,2.06549655,0.24226750,0.30744791,0.42761020
39079,0,USOhioJackson,Ohio,Jackson,2021-04-04 06:16:54.440652,2020-10-14 00:00:00.000000,2.01291210,2.71441448,3.52392783,652,879,1142,330,479,685,1.02066221,1.48057229,2.11575268,0.24104055,0.30433641,0.41425180
39079,0,USOhioJackson,Ohio,Jackson,2021-04-04 06:16:54.440652,2020-10-15 00:00:00.000000,2.05013978,2.77090084,3.57937748,664,898,1160,342,491,702,1.05578199,1.51505347,2.16648152,0.22375888,0.30196687,0.41251919
39079,0,USOhioJackson,Ohio,Jackson,2021-04-04 06:16:54.440652,2020-10-16 00:00:00.000000,2.08779439,2.82761319,3.62655952,676,916,1175,352,506,717,1.08622772,1.56320256,2.21489877,0.21528436,0.30103192,0.38689787
39079,0,USOhioJackson,Ohio,Jackson,2021-04-04 06:16:54.440652,2020-10-17 00:00:00.000000,2.12781138,2.87736290,3.66484745,689,932,1187,358,517,731,1.10658164,1.59787211,2.25708875,0.21476871,0.29756892,0.38081855
39079,0,USOhioJackson,Ohio,Jackson,2021-04-04 06:16:54.440652,2020-10-18 00:00:00.000000,2.17166057,2.92659493,3.69523958,703,948,1197,362,523,742,1.11975580,1.61363950,2.29063146,0.21517434,0.29251036,0.38297784
39079,0,USOhioJackson,Ohio,Jackson,2021-04-04 06:16:54.440652,2020-10-19 00:00:00.000000,2.21843422,2.96392712,3.71647433,719,960,1204,369,534,750,1.13913049,1.65004557,2.31595574,0.21770635,0.29138830,0.37635739
39079,0,USOhioJackson,Ohio,Jackson,2021-04-04 06:16:54.440652,2020-10-20 00:00:00.000000,2.22158134,3.01021512,3.73351353,720,975,1210,375,545,756,1.15702906,1.68417907,2.33507088,0.20437765,0.29048661,0.37580383
39079,0,USOhioJackson,Ohio,Jackson,2021-04-04 06:16:54.440652,2020-10-21 00:00:00.000000,2.25302974,3.03895520,3.74763757,730,985,1214,372,552,768,1.14886709,1.70317352,2.37238965,0.19810471,0.28956276,0.36684916
39079,0,USOhioJackson,Ohio,Jackson,2021-04-04 06:16:54.440652,2020-10-22 00:00:00.000000,2.25613903,3.07847001,3.78573381,731,997,1227,371,558,774,1.14557477,1.72283998,2.38908342,0.19600648,0.28560715,0.37022012
39079,0,USOhioJackson,Ohio,Jackson,2021-04-04 06:16:54.440652,2020-10-23 00:00:00.000000,2.23674136,3.11013256,3.88759448,724,1008,1260,373,566,788,1.15298837,1.74891135,2.43390714,0.19540859,0.28683433,0.37607042
39079,0,USOhioJackson,Ohio,Jackson,2021-04-04 06:16:54.440652,2020-10-24 00:00:00.000000,2.21271116,3.16198634,3.99069949,717,1024,1293,376,577,807,1.16143329,1.78030728,2.49164705,0.19545474,0.29127724,0.37628650
39079,0,USOhioJackson,Ohio,Jackson,2021-04-04 06:16:54.440652,2020-10-25 00:00:00.000000,2.18551907,3.20592059,4.09518684,708,1039,1327,379,581,824,1.17211554,1.79267685,2.54509716,0.19840877,0.29124049,0.38177295
39079,0,USOhioJackson,Ohio,Jackson,2021-04-04 06:16:54.440652,2020-10-26 00:00:00.000000,2.15710182,3.26676202,4.20867683,699,1058,1364,384,590,841,1.18545653,1.82202690,2.59486898,0.21353021,0.28988741,0.40783489
39079,0,USOhioJackson,Ohio,Jackson,2021-04-04 06:16:54.440652,2020-10-27 00:00:00.000000,2.16802746,3.32908483,4.32289482,702,1079,1401,390,597,857,1.20354210,1.84401811,2.64581025,0.21356102,0.29147968,0.42099212
39079,0,USOhioJackson,Ohio,Jackson,2021-04-04 06:16:54.440652,2020-10-28 00:00:00.000000,2.20245619,3.38571378,4.42397831,713,1097,1433,397,606,874,1.22556853,1.87071746,2.69736395,0.21395608,0.29304750,0.42020161
39079,0,USOhioJackson,Ohio,Jackson,2021-04-04 06:16:54.440652,2020-10-29 00:00:00.000000,2.23962940,3.44371918,4.49175912,725,1116,1455,400,619,891,1.23561182,1.91139951,2.74936718,0.21442023,0.30023037,0.41841486
39079,0,USOhioJackson,Ohio,Jackson,2021-04-04 06:16:54.440652,2020-10-30 00:00:00.000000,2.28222323,3.49797601,4.62715106,739,1133,1499,402,633,908,1.24043704,1.95486360,2.80184529,0.21366882,0.30725461,0.41703691
39079,0,USOhioJackson,Ohio,Jackson,2021-04-04 06:16:54.440652,2020-10-31 00:00:00.000000,2.33529618,3.56175083,4.72636617,756,1154,1531,408,646,925,1.26172692,1.99338962,2.85491036,0.21727769,0.32508452,0.44810019
39079,0,USOhioJackson,Ohio,Jackson,2021-04-04 06:16:54.440652,2020-11-01 00:00:00.000000,2.39698286,3.65096749,4.79060160,776,1183,1552,416,662,942,1.28629782,2.04517942,2.90873874,0.22331668,0.33435838,0.45281962
39079,0,USOhioJackson,Ohio,Jackson,2021-04-04 06:16:54.440652,2020-11-02 00:00:00.000000,2.47051832,3.73638081,4.85349572,800,1211,1573,426,677,960,1.31473219,2.09172358,2.96363597,0.22738228,0.33827781,0.47207348
39079,0,USOhioJackson,Ohio,Jackson,2021-04-04 06:16:54.440652,2020-11-03 00:00:00.000000,2.54875334,3.82806201,4.95316186,826,1240,1605,436,698,979,1.34811232,2.15523160,3.02053715,0.23211065,0.34353386,0.48884553
39079,0,USOhioJackson,Ohio,Jackson,2021-04-04 06:16:54.440652,2020-11-04 00:00:00.000000,2.63342327,3.92389259,5.13682933,853,1271,1665,449,720,998,1.38558100,2.22250368,3.08042673,0.24113993,0.35013791,0.50099326
39079,0,USOhioJackson,Ohio,Jackson,2021-04-04 06:16:54.440652,2020-11-05 00:00:00.000000,2.72644495,4.03493193,5.33702722,883,1307,1729,462,741,1026,1.42709061,2.28655066,3.16577167,0.25184621,0.35727665,0.50885535
39079,0,USOhioJackson,Ohio,Jackson,2021-04-04 06:16:54.440652,2020-11-06 00:00:00.000000,2.82893843,4.15543162,5.55863328,916,1346,1801,477,760,1060,1.47313633,2.34761131,3.27125325,0.25227171,0.36619946,0.51902433
39079,0,USOhioJackson,Ohio,Jackson,2021-04-04 06:16:54.440652,2020-11-07 00:00:00.000000,2.94050974,4.29790223,5.80298510,953,1393,1880,494,785,1095,1.52408559,2.42322805,3.38046016,0.25315740,0.37414502,0.53708940
39079,0,USOhioJackson,Ohio,Jackson,2021-04-04 06:16:54.440652,2020-11-08 00:00:00.000000,3.05983003,4.44582864,5.94085711,991,1441,1925,512,813,1132,1.57998524,2.50877884,3.49400614,0.25720339,0.38648279,0.56748403
39079,0,USOhioJackson,Ohio,Jackson,2021-04-04 06:16:54.440652,2020-11-09 00:00:00.000000,3.17509283,4.59240376,6.06486019,1029,1488,1965,531,837,1170,1.64055101,2.58372232,3.61254084,0.27952688,0.39128659,0.57802690
39079,0,USOhioJackson,Ohio,Jackson,2021-04-04 06:16:54.440652,2020-11-10 00:00:00.000000,3.33983024,4.75979253,6.18942261,1082,1542,2006,551,868,1210,1.70285333,2.68006602,3.73450713,0.28826241,0.39417374,0.58429201
39079,0,USOhioJackson,Ohio,Jackson,2021-04-04 06:16:54.440652,2020-11-11 00:00:00.000000,3.54699977,4.94943513,6.31189360,1149,1604,2045,572,891,1251,1.76725992,2.75079256,3.85972073,0.28866147,0.40205913,0.59588308
39079,0,USOhioJackson,Ohio,Jackson,2021-04-04 06:16:54.440652,2020-11-12 00:00:00.000000,3.63796817,5.12008237,6.55646836,1179,1659,2125,594,919,1288,1.83389315,2.83537089,3.97667569,0.29576883,0.41314466,0.60186515
39079,0,USOhioJackson,Ohio,Jackson,2021-04-04 06:16:54.440652,2020-11-13 00:00:00.000000,3.73163407,5.35702670,6.95249024,1209,1736,2253,616,950,1335,1.90287837,2.93101937,4.12008753,0.30137038,0.42300187,0.64463092
39079,0,USOhioJackson,Ohio,Jackson,2021-04-04 06:16:54.440652,2020-11-14 00:00:00.000000,3.83898109,5.56107964,7.34717892,1244,1802,2381,644,987,1379,1.98806805,3.04810546,4.25479876,0.30522285,0.42884759,0.66039117
39079,0,USOhioJackson,Ohio,Jackson,2021-04-04 06:16:54.440652,2020-11-15 00:00:00.000000,4.00714594,5.86928184,7.74116447,1298,1902,2509,682,1027,1423,2.10454142,3.16983857,4.39027745,0.31959368,0.45559650,0.66088716
39079,0,USOhioJackson,Ohio,Jackson,2021-04-04 06:16:54.440652,2020-11-16 00:00:00.000000,4.22522543,6.18063370,8.14504114,1369,2003,2640,715,1067,1465,2.20883011,3.29492159,4.52279864,0.34104821,0.47697885,0.66868434
39079,0,USOhioJackson,Ohio,Jackson,2021-04-04 06:16:54.440652,2020-11-17 00:00:00.000000,4.50163078,6.48412727,8.55873456,1459,2101,2774,756,1116,1521,2.33355416,3.44402251,4.69318640,0.36041966,0.49053522,0.67472388
39079,0,USOhioJackson,Ohio,Jackson,2021-04-04 06:16:54.440652,2020-11-18 00:00:00.000000,4.81348399,6.86234419,9.02961980,1560,2224,2926,792,1171,1585,2.44447731,3.61318135,4.89196854,0.36450727,0.50655012,0.69062095
39079,0,USOhioJackson,Ohio,Jackson,2021-04-04 06:16:54.440652,2020-11-19 00:00:00.000000,5.15153032,7.24824258,9.55179405,1669,2349,3096,838,1229,1657,2.58751363,3.79378224,5.11216571,0.37434179,0.52148823,0.69716595
39079,0,USOhioJackson,Ohio,Jackson,2021-04-04 06:16:54.440652,2020-11-20 00:00:00.000000,5.51033994,7.69361533,10.09919324,1786,2493,3273,892,1290,1734,2.75421963,3.98241908,5.35262524,0.38904633,0.52802503,0.71239841
39079,0,USOhioJackson,Ohio,Jackson,2021-04-04 06:16:54.440652,2020-11-21 00:00:00.000000,5.88902202,8.18552761,10.54827859,1908,2653,3419,952,1359,1830,2.93895633,4.19365489,5.64670528,0.39226294,0.54208843,0.71882412
39079,0,USOhioJackson,Ohio,Jackson,2021-04-04 06:16:54.440652,2020-11-22 00:00:00.000000,6.28743015,8.67590929,11.21668169,2037,2812,3635,1017,1429,1927,3.13833412,4.40968419,5.94545300,0.39295115,0.55415153,0.71520851
39079,0,USOhioJackson,Ohio,Jackson,2021-04-04 06:16:54.440652,2020-11-23 00:00:00.000000,6.73385397,9.18661992,11.95473949,2182,2977,3874,1076,1506,2019,3.32260602,4.64790927,6.23163886,0.39264562,0.55481870,0.72323084
39079,0,USOhioJackson,Ohio,Jackson,2021-04-04 06:16:54.440652,2020-11-24 00:00:00.000000,7.20010340,9.74793912,12.65391828,2333,3159,4101,1134,1605,2109,3.49924957,4.95207609,6.50935581,0.39093281,0.56116169,0.72251648
39079,0,USOhioJackson,Ohio,Jackson,2021-04-04 06:16:54.440652,2020-11-25 00:00:00.000000,7.68731197,10.30395071,13.14718483,2491,3339,4261,1200,1718,2201,3.70370237,5.30084681,6.79054548,0.38974988,0.56291373,0.70614340
39079,0,USOhioJackson,Ohio,Jackson,2021-04-04 06:16:54.440652,2020-11-26 00:00:00.000000,8.19224370,10.78234454,13.62931147,2655,3494,4417,1282,1819,2341,3.95689250,5.61369573,7.22381889,0.37410977,0.55673317,0.68865152
39079,0,USOhioJackson,Ohio,Jackson,2021-04-04 06:16:54.440652,2020-11-27 00:00:00.000000,8.68573402,11.26148496,14.08372116,2815,3650,4564,1368,1928,2468,4.22290350,5.94831951,7.61535950,0.36893839,0.54074534,0.67390380
39079,0,USOhioJackson,Ohio,Jackson,2021-04-04 06:16:54.440652,2020-11-28 00:00:00.000000,9.05906153,11.72972187,14.47342123,2936,3801,4691,1444,2032,2606,4.45602932,6.27174691,8.04156116,0.36399370,0.50896019,0.64914058
39079,0,USOhioJackson,Ohio,Jackson,2021-04-04 06:16:54.440652,2020-11-29 00:00:00.000000,9.34596174,12.18887027,14.91404283,3029,3950,4834,1511,2121,2747,4.66177816,6.54445080,8.47651738,0.35565764,0.48091552,0.64446716
39079,0,USOhioJackson,Ohio,Jackson,2021-04-04 06:16:54.440652,2020-11-30 00:00:00.000000,9.57830226,12.62549984,15.34396190,3104,4092,4973,1576,2201,2878,4.86462617,6.79064570,8.88170815,0.35372733,0.45991648,0.61686860
39079,0,USOhioJackson,Ohio,Jackson,2021-04-04 06:16:54.440652,2020-12-01 00:00:00.000000,9.77819379,12.95824982,15.72360907,3169,4200,5096,1657,2280,2995,5.11260265,7.03627702,9.24285913,0.33927904,0.44149778,0.59688888
39079,0,USOhioJackson,Ohio,Jackson,2021-04-04 06:16:54.440652,2020-12-02 00:00:00.000000,9.91564525,13.26414635,16.02427816,3213,4299,5193,1704,2364,3094,5.25950446,7.29568725,9.54618199,0.32870621,0.41072605,0.55491700
39079,0,USOhioJackson,Ohio,Jackson,2021-04-04 06:16:54.440652,2020-12-03 00:00:00.000000,9.95971832,13.42832167,16.29057051,3228,4352,5280,1726,2445,3169,5.32639092,7.54543239,9.77969849,0.30333353,0.37398014,0.51498736
39079,0,USOhioJackson,Ohio,Jackson,2021-04-04 06:16:54.440652,2020-12-04 00:00:00.000000,9.90624570,13.41980143,16.44945922,3210,4349,5331,1731,2512,3256,5.34280220,7.75154043,10.04744776,0.27536664,0.35224151,0.48045513
39079,0,USOhioJackson,Ohio,Jackson,2021-04-04 06:16:54.440652,2020-12-05 00:00:00.000000,9.78144613,13.38565648,16.41401104,3170,4338,5320,1723,2532,3334,5.31849164,7.81264983,10.28831375,0.26382680,0.32910303,0.42971963
39079,0,USOhioJackson,Ohio,Jackson,2021-04-04 06:16:54.440652,2020-12-06 00:00:00.000000,9.61496254,13.29425752,16.27250313,3116,4309,5274,1715,2537,3401,5.29229018,7.82760299,10.49456620,0.24712721,0.30610433,0.40445904
39079,0,USOhioJackson,Ohio,Jackson,2021-04-04 06:16:54.440652,2020-12-07 00:00:00.000000,9.43523504,13.15074566,16.08952341,3058,4262,5215,1711,2541,3475,5.28115979,7.84064655,10.72150481,0.23628235,0.30019168,0.39383841
39079,0,USOhioJackson,Ohio,Jackson,2021-04-04 06:16:54.440652,2020-12-08 00:00:00.000000,9.24220244,12.96173800,15.88743979,2995,4201,5149,1665,2531,3498,5.13692013,7.81116503,10.79321291,0.23410909,0.29606406,0.38726001
39079,0,USOhioJackson,Ohio,Jackson,2021-04-04 06:16:54.440652,2020-12-09 00:00:00.000000,9.05268656,12.77326259,15.67093377,2934,4140,5079,1627,2529,3525,5.02150635,7.80502502,10.87679857,0.22372837,0.28977430,0.40055955
39079,0,USOhioJackson,Ohio,Jackson,2021-04-04 06:16:54.440652,2020-12-10 00:00:00.000000,8.87360934,12.66914647,15.44279530,2876,4106,5005,1596,2518,3536,4.92506378,7.77018066,10.90986238,0.21579175,0.28976493,0.39746752
39079,0,USOhioJackson,Ohio,Jackson,2021-04-04 06:16:54.440652,2020-12-11 00:00:00.000000,8.65949556,12.42618270,15.20097924,2806,4027,4927,1564,2492,3531,4.82540474,7.69134931,10.89464849,0.20682037,0.28981426,0.39347931
39079,0,USOhioJackson,Ohio,Jackson,2021-04-04 06:16:54.440652,2020-12-12 00:00:00.000000,8.41834945,12.10765186,14.95279982,2728,3924,4846,1531,2459,3512,4.72344574,7.58705694,10.83755904,0.19658387,0.28851491,0.39015387
39079,0,USOhioJackson,Ohio,Jackson,2021-04-04 06:16:54.440652,2020-12-13 00:00:00.000000,8.17023982,11.82439591,14.71009440,2648,3832,4767,1505,2435,3468,4.64354213,7.51327376,10.70164805,0.18803303,0.28903522,0.40231245
39079,0,USOhioJackson,Ohio,Jackson,2021-04-04 06:16:54.440652,2020-12-14 00:00:00.000000,7.86196742,11.53100852,14.47513865,2548,3737,4691,1481,2402,3396,4.57113033,7.41228831,10.47814939,0.19072166,0.29218597,0.41559133
39079,0,USOhioJackson,Ohio,Jackson,2021-04-04 06:16:54.440652,2020-12-15 00:00:00.000000,7.70950875,11.23488140,14.23307258,2498,3641,4613,1458,2358,3319,4.49899357,7.27783392,10.24015811,0.19352530,0.29462303,0.41913152
39079,0,USOhioJackson,Ohio,Jackson,2021-04-04 06:16:54.440652,2020-12-16 00:00:00.000000,7.61059479,10.95032678,13.99402518,2466,3549,4535,1434,2311,3239,4.42577985,7.13214902,9.99446918,0.19426314,0.30016444,0.43007178
39079,0,USOhioJackson,Ohio,Jackson,2021-04-04 06:16:54.440652,2020-12-17 00:00:00.000000,7.41372875,10.67185216,13.74901879,2403,3459,4456,1401,2263,3190,4.32259953,6.98293635,9.84234647,0.19686982,0.30655039,0.44011919
39079,0,USOhioJackson,Ohio,Jackson,2021-04-04 06:16:54.440652,2020-12-18 00:00:00.000000,7.23827290,10.43162703,13.50190596,2346,3381,4376,1357,2215,3167,4.18711800,6.83374490,9.77278896,0.20196052,0.31604690,0.45242726
39079,0,USOhioJackson,Ohio,Jackson,2021-04-04 06:16:54.440652,2020-12-19 00:00:00.000000,7.08366630,10.22106151,13.30447579,2296,3312,4312,1315,2161,3143,4.05870099,6.66999533,9.69708816,0.21044450,0.32202755,0.46885692
39079,0,USOhioJackson,Ohio,Jackson,2021-04-04 06:16:54.440652,2020-12-20 00:00:00.000000,6.94048554,10.03437030,13.05286326,2249,3252,4230,1288,2108,3116,3.97555968,6.50475676,9.61541600,0.21970369,0.33194278,0.47981576
39079,0,USOhioJackson,Ohio,Jackson,2021-04-04 06:16:54.440652,2020-12-21 00:00:00.000000,6.81576300,9.88192558,12.74220384,2209,3203,4130,1263,2065,3088,3.89766433,6.37230496,9.52802501,0.22256651,0.34265934,0.48610665
39079,0,USOhioJackson,Ohio,Jackson,2021-04-04 06:16:54.440652,2020-12-22 00:00:00.000000,6.69668037,9.75337055,12.69510998,2170,3161,4114,1238,2021,3041,3.82022838,6.23715931,9.38423915,0.23295143,0.36801085,0.49594964
39079,0,USOhioJackson,Ohio,Jackson,2021-04-04 06:16:54.440652,2020-12-23 00:00:00.000000,6.58371534,9.64707198,12.65217862,2133,3126,4100,1218,1982,2983,3.75944364,6.11753520,9.20551451,0.24357566,0.37757907,0.55075594
39079,0,USOhioJackson,Ohio,Jackson,2021-04-04 06:16:54.440652,2020-12-24 00:00:00.000000,6.49772493,9.54021186,12.50712568,2106,3092,4053,1207,1951,2925,3.72543941,6.01953824,9.02611331,0.25432572,0.38969795,0.56558373
39079,0,USOhioJackson,Ohio,Jackson,2021-04-04 06:16:54.440652,2020-12-25 00:00:00.000000,6.50846208,9.43215240,12.42367929,2109,3057,4026,1198,1919,2867,3.69699321,5.92243519,8.84743627,0.26381140,0.41764677,0.57624617
39079,0,USOhioJackson,Ohio,Jackson,2021-04-04 06:16:54.440652,2020-12-26 00:00:00.000000,6.52108733,9.36089455,12.42011362,2113,3034,4025,1190,1891,2839,3.67203859,5.83518427,8.75940391,0.26832973,0.44507491,0.58378081
39079,0,USOhioJackson,Ohio,Jackson,2021-04-04 06:16:54.440652,2020-12-27 00:00:00.000000,6.54116605,9.30923183,12.47396111,2120,3017,4043,1176,1871,2812,3.62990277,5.77293756,8.67778798,0.26867713,0.45576424,0.61562193
39079,0,USOhioJackson,Ohio,Jackson,2021-04-04 06:16:54.440652,2020-12-28 00:00:00.000000,6.55705326,9.29821884,12.53499531,2125,3013,4062,1154,1865,2800,3.56061446,5.75495998,8.63975114,0.26879716,0.46279856,0.63118354
39079,0,USOhioJackson,Ohio,Jackson,2021-04-04 06:16:54.440652,2020-12-29 00:00:00.000000,6.49420817,9.31681874,12.49222151,2104,3019,4049,1132,1843,2788,3.49471028,5.68638893,8.60289018,0.27336096,0.46532602,0.63338673
39079,0,USOhioJackson,Ohio,Jackson,2021-04-04 06:16:54.440652,2020-12-30 00:00:00.000000,6.37701462,9.34669150,12.41143045,2066,3029,4022,1116,1841,2756,3.44327593,5.68259610,8.50471790,0.27728415,0.47057757,0.63030035
39079,0,USOhioJackson,Ohio,Jackson,2021-04-04 06:16:54.440652,2020-12-31 00:00:00.000000,6.28585578,9.34062997,12.29747736,2037,3027,3985,1104,1839,2727,3.40632816,5.67637687,8.41336574,0.27778869,0.46759334,0.63275275
39079,0,USOhioJackson,Ohio,Jackson,2021-04-04 06:16:54.440652,2021-01-01 00:00:00.000000,6.21436719,9.31384339,12.14259986,2014,3018,3935,1094,1845,2698,3.37824468,5.69370177,8.32563587,0.27281872,0.46308690,0.62777130
39079,0,USOhioJackson,Ohio,Jackson,2021-04-04 06:16:54.440652,2021-01-02 00:00:00.000000,6.15152986,9.20719665,11.95744384,1993,2984,3875,1087,1840,2684,3.35425672,5.67919282,8.28117330,0.26347119,0.45704396,0.59624289
39079,0,USOhioJackson,Ohio,Jackson,2021-04-04 06:16:54.440652,2021-01-03 00:00:00.000000,6.09008719,9.06353059,11.89264181,1973,2937,3854,1079,1834,2672,3.33124724,5.66068047,8.24541785,0.25895943,0.45164382,0.59435941
39079,0,USOhioJackson,Ohio,Jackson,2021-04-04 06:16:54.440652,2021-01-04 00:00:00.000000,6.02690319,8.90302118,11.80359450,1953,2885,3825,1071,1825,2655,3.30726546,5.63127968,8.19135470,0.25209469,0.43580257,0.60176104
39079,0,USOhioJackson,Ohio,Jackson,2021-04-04 06:16:54.440652,2021-01-05 00:00:00.000000,5.96013791,8.76951415,11.69606742,1931,2842,3791,1064,1806,2629,3.28320639,5.57251794,8.11344181,0.24264902,0.42807866,0.60213845
39079,0,USOhioJackson,Ohio,Jackson,2021-04-04 06:16:54.440652,2021-01-06 00:00:00.000000,5.88768274,8.61796760,11.57381489,1908,2793,3751,1055,1777,2597,3.25754740,5.48436350,8.01435850,0.23138092,0.41862505,0.59605257
39079,0,USOhioJackson,Ohio,Jackson,2021-04-04 06:16:54.440652,2021-01-07 00:00:00.000000,5.79752720,8.41806857,11.40960469,1879,2728,3698,1046,1744,2559,3.22943824,5.38359251,7.89790834,0.22611118,0.40300054,0.58356832
39079,0,USOhioJackson,Ohio,Jackson,2021-04-04 06:16:54.440652,2021-01-08 00:00:00.000000,5.66094126,8.17449330,11.16699233,1834,2649,3619,1036,1706,2536,3.19799585,5.26613159,7.82571052,0.21943665,0.39196073,0.57267214
39079,0,USOhioJackson,Ohio,Jackson,2021-04-04 06:16:54.440652,2021-01-09 00:00:00.000000,5.47957536,7.98577967,10.90590455,1776,2588,3534,1024,1667,2513,3.16053861,5.14327804,7.75614276,0.20327628,0.37175847,0.55297243
39079,0,USOhioJackson,Ohio,Jackson,2021-04-04 06:16:54.440652,2021-01-10 00:00:00.000000,5.30169149,7.78723671,10.58938765,1718,2524,3432,1007,1624,2486,3.10963502,5.01180601,7.67047791,0.19868595,0.35080558,0.53750225
39079,0,USOhioJackson,Ohio,Jackson,2021-04-04 06:16:54.440652,2021-01-11 00:00:00.000000,5.16258660,7.57341284,10.27104653,1673,2454,3329,985,1579,2447,3.03947405,4.87451456,7.55192023,0.19597998,0.34438157,0.53161611
39079,0,USOhioJackson,Ohio,Jackson,2021-04-04 06:16:54.440652,2021-01-12 00:00:00.000000,4.98652083,7.35371446,9.95478831,1616,2383,3226,956,1540,2397,2.95161813,4.75362965,7.39756061,0.19272148,0.33364681,0.52238660
39079,0,USOhioJackson,Ohio,Jackson,2021-04-04 06:16:54.440652,2021-01-13 00:00:00.000000,4.80679830,7.10117406,9.64608431,1558,2301,3126,924,1501,2332,2.85261150,4.63202292,7.19595584,0.18991110,0.32559638,0.48964704
39079,0,USOhioJackson,Ohio,Jackson,2021-04-04 06:16:54.440652,2021-01-14 00:00:00.000000,4.62118010,6.81470774,9.32906815,1497,2208,3023,890,1456,2264,2.74753787,4.49386190,6.98720517,0.19008533,0.32040688,0.46182274
39079,0,USOhioJackson,Ohio,Jackson,2021-04-04 06:16:54.440652,2021-01-15 00:00:00.000000,4.42847985,6.53631267,8.96787321,1435,2118,2906,855,1407,2198,2.64044733,4.34233661,6.78282290,0.19070769,0.32026286,0.45408001
39079,0,USOhioJackson,Ohio,Jackson,2021-04-04 06:16:54.440652,2021-01-16 00:00:00.000000,4.23085738,6.25984766,8.61699126,1371,2029,2793,820,1357,2133,2.53289569,4.18879523,6.58154597,0.18725963,0.32092254,0.45424624
39079,0,USOhioJackson,Ohio,Jackson,2021-04-04 06:16:54.440652,2021-01-17 00:00:00.000000,4.03265993,6.00706183,8.27706615,1307,1947,2682,792,1307,2062,2.44552547,4.03375199,6.36302164,0.18537274,0.31808778,0.45425204
39079,0,USOhioJackson,Ohio,Jackson,2021-04-04 06:16:54.440652,2021-01-18 00:00:00.000000,3.84773685,5.75337037,7.94464126,1247,1864,2575,762,1255,1992,2.35290149,3.87328819,6.14667681,0.18206288,0.32127437,0.45537261
39079,0,USOhioJackson,Ohio,Jackson,2021-04-04 06:16:54.440652,2021-01-19 00:00:00.000000,3.66792147,5.52931005,7.62254353,1188,1792,2470,728,1196,1922,2.24700337,3.69219378,5.93241022,0.18165905,0.32578369,0.46035345
39079,0,USOhioJackson,Ohio,Jackson,2021-04-04 06:16:54.440652,2021-01-20 00:00:00.000000,3.49465224,5.32335641,7.31044925,1132,1725,2369,695,1140,1854,2.14665082,3.51713832,5.72286106,0.18263626,0.32923932,0.47686321
39079,0,USOhioJackson,Ohio,Jackson,2021-04-04 06:16:54.440652,2021-01-21 00:00:00.000000,3.32809395,5.11191488,7.00846302,1078,1656,2271,670,1094,1789,2.06852618,3.37726163,5.51988731,0.18729974,0.33147580,0.48804440
39079,0,USOhioJackson,Ohio,Jackson,2021-04-04 06:16:54.440652,2021-01-22 00:00:00.000000,3.17408897,4.88286432,6.72060263,1028,1582,2178,645,1050,1725,1.99230424,3.24027387,5.32440094,0.19170325,0.33148328,0.49188988
39079,0,USOhioJackson,Ohio,Jackson,2021-04-04 06:16:54.440652,2021-01-23 00:00:00.000000,3.04798612,4.66299557,6.48355821,987,1511,2101,620,1012,1664,1.91484236,3.12259904,5.13647511,0.19426655,0.33200917,0.51497056
39079,0,USOhioJackson,Ohio,Jackson,2021-04-04 06:16:54.440652,2021-01-24 00:00:00.000000,2.92460659,4.46724597,6.25414300,947,1447,2027,590,975,1606,1.82257242,3.00887979,4.95571221,0.20187935,0.33358436,0.52260769
39079,0,USOhioJackson,Ohio,Jackson,2021-04-04 06:16:54.440652,2021-01-25 00:00:00.000000,2.79884914,4.30927109,6.03188832,907,1396,1955,561,937,1549,1.73314635,2.89219039,4.78156736,0.20142360,0.33666714,0.54216455
39079,0,USOhioJackson,Ohio,Jackson,2021-04-04 06:16:54.440652,2021-01-26 00:00:00.000000,2.67553597,4.16226177,5.81698972,867,1349,1885,541,901,1495,1.67103485,2.78134511,4.61349494,0.20064437,0.34173435,0.56060212
39079,0,USOhioJackson,Ohio,Jackson,2021-04-04 06:16:54.440652,2021-01-27 00:00:00.000000,2.55982691,3.99937164,5.62562263,829,1296,1823,523,867,1442,1.61589970,2.67599008,4.45106915,0.20094722,0.34396746,0.56120038
39079,0,USOhioJackson,Ohio,Jackson,2021-04-04 06:16:54.440652,2021-01-28 00:00:00.000000,2.45001953,3.83686026,5.46633329,794,1243,1771,506,833,1391,1.56413572,2.57177156,4.29395382,0.20259285,0.34844103,0.55708752
39079,0,USOhioJackson,Ohio,Jackson,2021-04-04 06:16:54.440652,2021-01-29 00:00:00.000000,2.34552601,3.68719025,5.34360968,760,1195,1732,486,799,1352,1.49945983,2.46597044,4.17147320,0.20744365,0.34967094,0.54677362
39079,0,USOhioJackson,Ohio,Jackson,2021-04-04 06:16:54.440652,2021-01-30 00:00:00.000000,2.24603937,3.56235981,5.22972367,728,1154,1695,465,768,1323,1.43690282,2.37042051,4.08265427,0.21030637,0.35868703,0.52160111
39079,0,USOhioJackson,Ohio,Jackson,2021-04-04 06:16:54.440652,2021-01-31 00:00:00.000000,2.15258433,3.43892491,5.11328350,697,1114,1657,445,739,1294,1.37516278,2.28281481,3.99527869,0.21091872,0.35157410,0.50236131
39079,0,USOhioJackson,Ohio,Jackson,2021-04-04 06:16:54.440652,2021-02-01 00:00:00.000000,2.07135866,3.30753228,4.97970845,671,1072,1614,426,712,1266,1.31658684,2.19953870,3.90792052,0.21355385,0.35736038,0.50203674
39079,0,USOhioJackson,Ohio,Jackson,2021-04-04 06:16:54.440652,2021-02-02 00:00:00.000000,1.99283048,3.17822595,4.83641857,645,1030,1567,408,685,1236,1.26097996,2.11446755,3.81531386,0.21745748,0.35458475,0.50181395
39079,0,USOhioJackson,Ohio,Jackson,2021-04-04 06:16:54.440652,2021-02-03 00:00:00.000000,1.91832447,3.03821279,4.68445065,621,984,1518,390,657,1204,1.20510859,2.02966294,3.71673876,0.21002962,0.35645845,0.50129064
39079,0,USOhioJackson,Ohio,Jackson,2021-04-04 06:16:54.440652,2021-02-04 00:00:00.000000,1.84670971,2.90299631,4.52523945,598,940,1466,372,631,1170,1.15053059,1.94753300,3.61236935,0.19931540,0.35414642,0.49445453
39079,0,USOhioJackson,Ohio,Jackson,2021-04-04 06:16:54.440652,2021-02-05 00:00:00.000000,1.77805371,2.78514549,4.36227871,576,902,1413,355,608,1135,1.09799228,1.87714295,3.50250333,0.19362378,0.35799605,0.50074646
39079,0,USOhioJackson,Ohio,Jackson,2021-04-04 06:16:54.440652,2021-02-06 00:00:00.000000,1.70320912,2.69119305,4.19963953,552,872,1361,338,586,1098,1.04360889,1.80951435,3.38836273,0.19131059,0.35599600,0.50106006
39079,0,USOhioJackson,Ohio,Jackson,2021-04-04 06:16:54.440652,2021-02-07 00:00:00.000000,1.60245227,2.60125834,4.05247257,519,843,1313,321,565,1060,0.99312965,1.74478965,3.27190122,0.19048384,0.35674407,0.51341275
39079,0,USOhioJackson,Ohio,Jackson,2021-04-04 06:16:54.440652,2021-02-08 00:00:00.000000,1.50661275,2.51223930,3.92611410,488,814,1272,307,545,1022,0.94754107,1.68287974,3.15472018,0.19020705,0.35812451,0.53619329
39079,0,USOhioJackson,Ohio,Jackson,2021-04-04 06:16:54.440652,2021-02-09 00:00:00.000000,1.43800176,2.42678901,3.80331370,466,786,1232,293,525,985,0.90618354,1.62180681,3.03927709,0.19013097,0.35720962,0.56597103
39079,0,USOhioJackson,Ohio,Jackson,2021-04-04 06:16:54.440652,2021-02-10 00:00:00.000000,1.38339811,2.33694770,3.68396295,448,757,1194,281,504,950,0.86881228,1.55689605,2.93160955,0.19015075,0.35705044,0.58500130
39079,0,USOhioJackson,Ohio,Jackson,2021-04-04 06:16:54.440652,2021-02-11 00:00:00.000000,1.33500380,2.23809698,3.56778973,432,725,1156,270,484,917,0.83512487,1.49572544,2.82954550,0.19022528,0.35774523,0.58433727
39079,0,USOhioJackson,Ohio,Jackson,2021-04-04 06:16:54.440652,2021-02-12 00:00:00.000000,1.27860099,2.14681434,3.45495877,414,695,1119,256,468,884,0.79234944,1.44390841,2.72884899,0.19079721,0.35934444,0.60649022
39079,0,USOhioJackson,Ohio,Jackson,2021-04-04 06:16:54.440652,2021-02-13 00:00:00.000000,1.21821411,2.06650277,3.34507067,394,669,1084,242,451,853,0.74757168,1.39426808,2.63190097,0.19511407,0.36053668,0.62811349
39079,0,USOhioJackson,Ohio,Jackson,2021-04-04 06:16:54.440652,2021-02-14 00:00:00.000000,1.16210088,1.99266341,3.23688589,376,645,1049,228,436,824,0.70562698,1.34585141,2.54419113,0.19684458,0.35871463,0.62453936
39079,0,USOhioJackson,Ohio,Jackson,2021-04-04 06:16:54.440652,2021-02-15 00:00:00.000000,1.10891875,1.91924950,3.12902709,359,622,1014,215,420,798,0.66631016,1.29781802,2.46375769,0.19753305,0.35929485,0.60475850
39079,0,USOhioJackson,Ohio,Jackson,2021-04-04 06:16:54.440652,2021-02-16 00:00:00.000000,1.05917951,1.84918372,3.02192048,343,599,979,204,404,772,0.63224794,1.24817968,2.38465499,0.19806777,0.36351450,0.60303465
39079,0,USOhioJackson,Ohio,Jackson,2021-04-04 06:16:54.440652,2021-02-17 00:00:00.000000,1.01342095,1.78160478,2.91734631,328,577,945,195,389,747,0.60220733,1.20100421,2.30661837,0.19891531,0.37347294,0.62431318
39079,0,USOhioJackson,Ohio,Jackson,2021-04-04 06:16:54.440652,2021-02-18 00:00:00.000000,0.97421000,1.72168183,2.81596915,315,558,912,186,373,722,0.57555067,1.15288102,2.22991442,0.19991011,0.38613376,0.65343218
39079,0,USOhioJackson,Ohio,Jackson,2021-04-04 06:16:54.440652,2021-02-19 00:00:00.000000,0.94328938,1.65607913,2.71403143,305,536,879,178,358,698,0.55223667,1.10588887,2.15488238,0.20047902,0.39251774,0.65503615
39079,0,USOhioJackson,Ohio,Jackson,2021-04-04 06:16:54.440652,2021-02-20 00:00:00.000000,0.91734167,1.59086096,2.61812592,297,515,848,172,344,674,0.53232217,1.06258789,2.08180272,0.20572173,0.39656441,0.67199398
39079,0,USOhioJackson,Ohio,Jackson,2021-04-04 06:16:54.440652,2021-02-21 00:00:00.000000,0.89377921,1.54753860,2.52702604,289,501,819,167,331,651,0.51536979,1.02255108,2.01095605,0.20565020,0.40553375,0.69124365
39079,0,USOhioJackson,Ohio,Jackson,2021-04-04 06:16:54.440652,2021-02-22 00:00:00.000000,0.88047145,1.50283465,2.45300937,285,487,795,162,321,629,0.50092163,0.99207316,1.94253517,0.20349172,0.41255767,0.69495680
39079,0,USOhioJackson,Ohio,Jackson,2021-04-04 06:16:54.440652,2021-02-23 00:00:00.000000,0.86826095,1.45982067,2.37892915,281,473,771,157,312,608,0.48520158,0.96394537,1.87803875,0.20333608,0.43074477,0.71593599
39079,0,USOhioJackson,Ohio,Jackson,2021-04-04 06:16:54.440652,2021-02-24 00:00:00.000000,0.84943441,1.42314744,2.30512727,275,461,747,152,300,588,0.46898963,0.92841169,1.81689653,0.20377290,0.44712729,0.71530605
39079,0,USOhioJackson,Ohio,Jackson,2021-04-04 06:16:54.440652,2021-02-25 00:00:00.000000,0.83108015,1.39406407,2.23403822,269,451,724,146,290,571,0.45287034,0.89753675,1.76255106,0.21044292,0.45534927,0.71452976
39079,0,USOhioJackson,Ohio,Jackson,2021-04-04 06:16:54.440652,2021-02-26 00:00:00.000000,0.80390843,1.36920853,2.17320334,260,443,704,141,281,556,0.43747976,0.86978757,1.71795202,0.21852749,0.46201690,0.74471275
39079,0,USOhioJackson,Ohio,Jackson,2021-04-04 06:16:54.440652,2021-02-27 00:00:00.000000,0.77773915,1.34890125,2.11515774,252,437,685,138,274,542,0.42855748,0.84665162,1.67438943,0.21676413,0.47306724,0.77661413
39079,0,USOhioJackson,Ohio,Jackson,2021-04-04 06:16:54.440652,2021-02-28 00:00:00.000000,0.76139699,1.33249749,2.05813825,246,431,667,137,265,527,0.42362416,0.81904410,1.62782482,0.21563873,0.47585210,0.81248576
39079,0,USOhioJackson,Ohio,Jackson,2021-04-04 06:16:54.440652,2021-03-01 00:00:00.000000,0.76461704,1.31327844,1.98732133,247,425,644,135,259,512,0.41954670,0.80099280,1.58167389,0.21610569,0.48710557,0.83223251
39079,0,USOhioJackson,Ohio,Jackson,2021-04-04 06:16:54.440652,2021-03-02 00:00:00.000000,0.76875001,1.28434797,1.91989841,249,416,622,135,254,496,0.41676949,0.78532132,1.53289170,0.21918522,0.48680040,0.84168592
39079,0,USOhioJackson,Ohio,Jackson,2021-04-04 06:16:54.440652,2021-03-03 00:00:00.000000,0.76558020,1.26680192,1.85603720,248,410,601,134,249,480,0.41483653,0.77002936,1.48309542,0.22301981,0.50167772,0.86440038
39079,0,USOhioJackson,Ohio,Jackson,2021-04-04 06:16:54.440652,2021-03-04 00:00:00.000000,0.75538518,1.25082462,1.79303601,244,405,581,129,243,464,0.40046359,0.75237134,1.43344160,0.22745558,0.51787199,0.87590409
39079,0,USOhioJackson,Ohio,Jackson,2021-04-04 06:16:54.440652,2021-03-05 00:00:00.000000,0.74559078,1.22027957,1.73109147,241,395,561,130,238,448,0.40108048,0.73511870,1.38473266,0.23218818,0.52093386,0.97264516
39079,0,USOhioJackson,Ohio,Jackson,2021-04-04 06:16:54.440652,2021-03-06 00:00:00.000000,0.73595598,1.19324089,1.67196796,238,386,541,132,236,433,0.40765862,0.72835386,1.33745574,0.23683121,0.53990964,1.01453198
39079,0,USOhioJackson,Ohio,Jackson,2021-04-04 06:16:54.440652,2021-03-07 00:00:00.000000,0.72597540,1.17275317,1.61617769,235,380,523,130,233,418,0.40407893,0.71979917,1.29183692,0.23995832,0.54973891,1.04448156
39079,0,USOhioJackson,Ohio,Jackson,2021-04-04 06:16:54.440652,2021-03-08 00:00:00.000000,0.72229326,1.16013921,1.58416558,234,376,513,132,230,404,0.40821380,0.70990225,1.24794253,0.23999426,0.56193758,1.05705654
39079,0,USOhioJackson,Ohio,Jackson,2021-04-04 06:16:54.440652,2021-03-09 00:00:00.000000,0.71912393,1.13848499,1.54124210,233,369,499,132,226,391,0.41017354,0.69858829,1.20680081,0.24750843,0.57676199,1.06401891
39079,0,USOhioJackson,Ohio,Jackson,2021-04-04 06:16:54.440652,2021-03-10 00:00:00.000000,0.71711796,1.13860480,1.50011840,232,369,486,133,223,378,0.41069333,0.69077292,1.16809104,0.24981079,0.59946346,1.07103286
39079,0,USOhioJackson,Ohio,Jackson,2021-04-04 06:16:54.440652,2021-03-11 00:00:00.000000,0.71698240,1.12910524,1.48344064,232,365,480,132,222,366,0.40746011,0.68510306,1.13171906,0.25518249,0.62868750,1.07876759
39079,0,USOhioJackson,Ohio,Jackson,2021-04-04 06:16:54.440652,2021-03-12 00:00:00.000000,0.71940211,1.12102683,1.47777643,233,363,478,131,220,355,0.40505892,0.68086170,1.09783144,0.25757634,0.64315192,1.08468122
39079,0,USOhioJackson,Ohio,Jackson,2021-04-04 06:16:54.440652,2021-03-13 00:00:00.000000,0.72550035,1.12639520,1.49250482,235,365,483,131,218,345,0.40653504,0.67377489,1.06674290,0.29997747,0.69588119,1.12478477
39079,0,USOhioJackson,Ohio,Jackson,2021-04-04 06:16:54.440652,2021-03-14 00:00:00.000000,0.73976232,1.12533061,1.51130514,239,364,489,130,215,336,0.40409192,0.66465240,1.03870139,0.31247107,0.73923769,1.14195120
39079,0,USOhioJackson,Ohio,Jackson,2021-04-04 06:16:54.440652,2021-03-15 00:00:00.000000,0.76216606,1.12634626,1.53109512,247,365,496,130,213,328,0.40203709,0.65866636,1.01366222,0.32394398,0.75337159,1.15760848
39079,0,USOhioJackson,Ohio,Jackson,2021-04-04 06:16:54.440652,2021-03-16 00:00:00.000000,0.75968829,1.12232450,1.55340390,246,363,503,130,213,323,0.40295413,0.65879555,0.99732975,0.32651035,0.75954178,1.18542663
39079,0,USOhioJackson,Ohio,Jackson,2021-04-04 06:16:54.440652,2021-03-17 00:00:00.000000,0.75111853,1.13030556,1.57672328,243,366,511,131,213,320,0.40539928,0.65791739,0.98789922,0.33500539,0.77278734,1.19751548
39079,0,USOhioJackson,Ohio,Jackson,2021-04-04 06:16:54.440652,2021-03-18 00:00:00.000000,0.74777963,1.13062699,1.60094434,242,366,518,132,214,320,0.40983189,0.66217947,0.98906104,0.34722212,0.78090144,1.20012865
39079,0,USOhioJackson,Ohio,Jackson,2021-04-04 06:16:54.440652,2021-03-19 00:00:00.000000,0.76506702,1.14128783,1.61176420,247,369,522,135,216,321,0.41669993,0.66708830,0.99308180,0.36415955,0.78932377,1.15747041
39079,0,USOhioJackson,Ohio,Jackson,2021-04-04 06:16:54.440652,2021-03-20 00:00:00.000000,0.76832768,1.16233172,1.62174171,249,376,525,138,218,325,0.42654457,0.67437178,1.00535884,0.38533323,0.79350421,1.19659890
39079,0,USOhioJackson,Ohio,Jackson,2021-04-04 06:16:54.440652,2021-03-21 00:00:00.000000,0.77550645,1.17981905,1.65390149,251,382,536,141,220,331,0.43562391,0.68025351,1.02134027,0.40724902,0.80227342,1.21660399
39079,0,USOhioJackson,Ohio,Jackson,2021-04-04 06:16:54.440652,2021-03-22 00:00:00.000000,0.78703800,1.19679549,1.68426156,255,387,545,143,223,336,0.44354951,0.69096350,1.03968934,0.42581186,0.81401729,1.21405856
39079,0,USOhioJackson,Ohio,Jackson,2021-04-04 06:16:54.440652,2021-03-23 00:00:00.000000,0.79851207,1.21530460,1.71490898,258,393,555,146,225,341,0.45123732,0.69702844,1.05258246,0.43966715,0.81792497,1.22915518
39079,0,USOhioJackson,Ohio,Jackson,2021-04-04 06:16:54.440652,2021-03-24 00:00:00.000000,0.81130516,1.20990788,1.74557928,262,392,565,148,230,344,0.45818442,0.71157418,1.06195119,0.44917651,0.82960447,1.24860681
39079,0,USOhioJackson,Ohio,Jackson,2021-04-04 06:16:54.440652,2021-03-25 00:00:00.000000,0.82792377,1.24620626,1.77617535,268,403,575,150,233,349,0.46527806,0.72093614,1.07693125,0.45577300,0.82549927,1.28377953
39079,0,USOhioJackson,Ohio,Jackson,2021-04-04 06:16:54.440652,2021-03-26 00:00:00.000000,0.85047763,1.26394257,1.80536118,275,409,585,153,236,355,0.47357274,0.73084214,1.09601596,0.46112312,0.85239372,1.33402937
39079,0,USOhioJackson,Ohio,Jackson,2021-04-04 06:16:54.440652,2021-03-27 00:00:00.000000,0.87569202,1.28103056,1.82784504,283,415,592,155,240,357,0.47948943,0.74172240,1.10295382,0.46626305,0.84321390,1.39290184
39079,0,USOhioJackson,Ohio,Jackson,2021-04-04 06:16:54.440652,2021-03-28 00:00:00.000000,0.87172737,1.29762117,1.84910961,282,420,599,156,243,359,0.48436186,0.74982975,1.10995681,0.46697260,0.84819541,1.44714789
39079,0,USOhioJackson,Ohio,Jackson,2021-04-04 06:16:54.440652,2021-03-29 00:00:00.000000,0.85245957,1.30256652,1.85715131,276,422,601,159,245,362,0.49290657,0.75816471,1.11807500,0.43171051,0.84967256,1.48693751
39079,0,USOhioJackson,Ohio,Jackson,2021-04-04 06:16:54.440652,2021-03-30 00:00:00.000000,0.85359325,1.30498556,1.88404217,276,422,610,162,249,366,0.50183669,0.76849337,1.13028815,0.41792282,0.84669495,1.51224738
39079,0,USOhioJackson,Ohio,Jackson,2021-04-04 06:16:54.440652,2021-03-31 00:00:00.000000,0.84209759,1.30460679,1.90646755,272,422,617,160,253,370,0.49578085,0.78144256,1.14263561,0.41255547,0.83207979,1.52819763
39079,0,USOhioJackson,Ohio,Jackson,2021-04-04 06:16:54.440652,2021-04-01 00:00:00.000000,0.83605760,1.30164959,1.92999474,270,421,625,158,257,375,0.48854178,0.79292049,1.15879018,0.40649469,0.82747905,1.53972697
39079,0,USOhioJackson,Ohio,Jackson,2021-04-04 06:16:54.440652,2021-04-02 00:00:00.000000,0.82989150,1.29649220,1.98039925,268,420,641,155,257,381,0.48065222,0.79429928,1.17796645,0.40001227,0.83859957,1.54441340
39079,0,USOhioJackson,Ohio,Jackson,2021-04-04 06:16:54.440652,2021-04-03 00:00:00.000000,0.82343670,1.29893134,2.01420516,266,421,652,151,258,388,0.46827496,0.79606777,1.19727773,0.41050006,0.84841197,1.54318371
39079,0,USOhioJackson,Ohio,Jackson,2021-04-04 06:16:54.440652,2021-04-04 00:00:00.000000,0.81676675,1.29454147,2.05197977,264,419,665,146,258,391,0.45093079,0.79880331,1.20778349,0.42167863,0.86002388,1.57054157
39079,0,USOhioJackson,Ohio,Jackson,2021-04-04 06:16:54.440652,2021-04-05 00:00:00.000000,0.80992829,1.27652911,2.10153755,262,413,681,140,257,397,0.43285129,0.79597043,1.22752101,0.42697468,0.85373442,1.62004951
39079,0,USOhioJackson,Ohio,Jackson,2021-04-04 06:16:54.440652,2021-04-06 00:00:00.000000,0.80295139,1.26299441,2.15824028,260,409,699,135,257,405,0.41789862,0.79320570,1.25208021,0.42861975,0.84247020,1.64067900
39079,0,USOhioJackson,Ohio,Jackson,2021-04-04 06:16:54.440652,2021-04-07 00:00:00.000000,0.78095512,1.25420471,2.21987826,253,406,719,134,254,410,0.41422848,0.78595066,1.26709158,0.42905862,0.84910515,1.73468025
39079,0,USOhioJackson,Ohio,Jackson,2021-04-04 06:16:54.440652,2021-04-08 00:00:00.000000,0.74797940,1.25640949,2.28474501,242,407,740,133,252,424,0.41046664,0.78041908,1.30919331,0.42917070,0.85557393,1.74513010
39079,0,USOhioJackson,Ohio,Jackson,2021-04-04 06:16:54.440652,2021-04-09 00:00:00.000000,0.71624645,1.26062066,2.35176275,232,408,762,131,253,438,0.40671376,0.78296104,1.35234427,0.42919899,0.85282801,1.74853538
39079,0,USOhioJackson,Ohio,Jackson,2021-04-04 06:16:54.440652,2021-04-10 00:00:00.000000,0.68574162,1.26407349,2.42030495,222,409,784,130,251,452,0.40306829,0.77588733,1.39587969,0.42920610,0.85107069,1.74965007
39079,0,USOhioJackson,Ohio,Jackson,2021-04-04 06:16:54.440652,2021-04-11 00:00:00.000000,0.65644061,1.26332594,2.49000914,212,409,807,129,247,466,0.39936798,0.76469322,1.43995505,0.42920789,0.85029848,1.75002240
39079,0,USOhioJackson,Ohio,Jackson,2021-04-04 06:16:54.440652,2021-04-12 00:00:00.000000,0.63142070,1.26656600,2.56065254,204,410,829,127,249,481,0.39219052,0.77055867,1.48464692,0.42920834,0.84997144,1.75015025
39079,0,USOhioJackson,Ohio,Jackson,2021-04-04 06:16:54.440652,2021-04-13 00:00:00.000000,0.61707351,1.25920373,2.63208136,200,408,853,124,248,493,0.38367742,0.76622956,1.52322474,0.42920845,0.84984039,1.75019550
39079,0,USOhioJackson,Ohio,Jackson,2021-04-04 06:16:54.440652,2021-04-14 00:00:00.000000,0.60297059,1.24866205,2.70417333,195,404,876,121,249,503,0.37527771,0.76879575,1.55461602,0.42920848,0.84979318,1.75021200
39079,0,USOhioJackson,Ohio,Jackson,2021-04-04 06:16:54.440652,2021-04-15 00:00:00.000000,0.57828492,1.24619490,2.77681856,187,403,900,118,248,514,0.36699530,0.76687255,1.58598061,0.42920849,0.84978031,1.75021819
39079,0,USOhioJackson,Ohio,Jackson,2021-04-04 06:16:54.440652,2021-04-16 00:00:00.000000,0.55287288,1.24429175,2.84990993,179,403,923,116,248,524,0.35883318,0.76685806,1.61725460,0.42920849,0.84978044,1.75022056
