FIPS,HR_UID,nameid,province,region,analysisTime,dates,pointprevalence_025,pointprevalence_50,pointprevalence_975,pointinfections_025,pointinfections_50,pointinfections_975,pointinfectious_025,pointinfectious_50,pointinfectious_975,pointinfectiousprevalence_05,pointinfectiousprevalence_50,pointinfectiousprevalence_95,infectrate_025,infectrate_50,infectrate_975
26131,0,USMichiganOntonagon,Michigan,Ontonagon,2021-04-04 08:49:57.779465,2020-03-09 00:00:00.000000,0.00766707,0.04240215,0.13928091,0,2,7,0,1,4,0.00390962,0.02310844,0.08328977,0.36986734,0.51051479,0.72763065
26131,0,USMichiganOntonagon,Michigan,Ontonagon,2021-04-04 08:49:57.779465,2020-03-10 00:00:00.000000,0.00845805,0.04434260,0.13778148,0,2,7,0,1,4,0.00414829,0.02170166,0.07391877,0.36986726,0.51049504,0.72762282
26131,0,USMichiganOntonagon,Michigan,Ontonagon,2021-04-04 08:49:57.779465,2020-03-11 00:00:00.000000,0.00885517,0.04517598,0.14597849,0,2,8,0,1,4,0.00421361,0.02166198,0.07122503,0.36986707,0.51045671,0.72760267
26131,0,USMichiganOntonagon,Michigan,Ontonagon,2021-04-04 08:49:57.779465,2020-03-12 00:00:00.000000,0.00928735,0.04677037,0.15466534,0,2,8,0,1,4,0.00436768,0.02302974,0.07723649,0.36986664,0.51038233,0.72755086
26131,0,USMichiganOntonagon,Michigan,Ontonagon,2021-04-04 08:49:57.779465,2020-03-13 00:00:00.000000,0.00972116,0.04843733,0.16371382,0,2,9,0,1,4,0.00456858,0.02413098,0.08308584,0.36986564,0.51023799,0.72741766
26131,0,USMichiganOntonagon,Michigan,Ontonagon,2021-04-04 08:49:57.779465,2020-03-14 00:00:00.000000,0.01014716,0.05061670,0.17217505,0,2,9,0,1,4,0.00478154,0.02566022,0.08445290,0.36986336,0.50995812,0.72707560
26131,0,USMichiganOntonagon,Michigan,Ontonagon,2021-04-04 08:49:57.779465,2020-03-15 00:00:00.000000,0.01056504,0.05497560,0.17628857,0,3,10,0,1,4,0.00499448,0.02749015,0.08613182,0.36985814,0.50879793,0.72619983
26131,0,USMichiganOntonagon,Michigan,Ontonagon,2021-04-04 08:49:57.779465,2020-03-16 00:00:00.000000,0.01097772,0.05990338,0.18064518,0,3,10,0,1,5,0.00520432,0.03011750,0.08806079,0.36984622,0.50617568,0.72397563
26131,0,USMichiganOntonagon,Michigan,Ontonagon,2021-04-04 08:49:57.779465,2020-03-17 00:00:00.000000,0.01138918,0.06207669,0.18751279,0,3,10,0,1,5,0.00541140,0.03205274,0.09557485,0.36549955,0.50250685,0.71844234
26131,0,USMichiganOntonagon,Michigan,Ontonagon,2021-04-04 08:49:57.779465,2020-03-18 00:00:00.000000,0.01180418,0.06515965,0.20324646,0,3,11,0,1,5,0.00561728,0.03391887,0.10365947,0.35437293,0.49624005,0.70536142
26131,0,USMichiganOntonagon,Michigan,Ontonagon,2021-04-04 08:49:57.779465,2020-03-19 00:00:00.000000,0.01223536,0.06583694,0.21134569,0,3,12,0,2,6,0.00582408,0.03631437,0.11236087,0.33855012,0.47826488,0.69171583
26131,0,USMichiganOntonagon,Michigan,Ontonagon,2021-04-04 08:49:57.779465,2020-03-20 00:00:00.000000,0.01268939,0.06815905,0.20932400,0,3,11,0,2,6,0.00603457,0.03846118,0.11741991,0.31910910,0.45170160,0.68488312
26131,0,USMichiganOntonagon,Michigan,Ontonagon,2021-04-04 08:49:57.779465,2020-03-21 00:00:00.000000,0.01317277,0.07040280,0.21084115,0,4,12,0,2,6,0.00625281,0.04014924,0.11691648,0.29786924,0.42442937,0.64556123
26131,0,USMichiganOntonagon,Michigan,Ontonagon,2021-04-04 08:49:57.779465,2020-03-22 00:00:00.000000,0.01369552,0.07094038,0.21355658,0,4,12,0,2,6,0.00648436,0.04061701,0.12040967,0.28290981,0.40618854,0.62352069
26131,0,USMichiganOntonagon,Michigan,Ontonagon,2021-04-04 08:49:57.779465,2020-03-23 00:00:00.000000,0.02905386,0.09076163,0.23201371,1,5,13,0,2,7,0.00673493,0.04169682,0.12312479,0.26433055,0.39024593,0.59030646
26131,0,USMichiganOntonagon,Michigan,Ontonagon,2021-04-04 08:49:57.779465,2020-03-24 00:00:00.000000,0.03619258,0.11486366,0.26303162,2,6,15,0,2,7,0.01331591,0.05019377,0.12851227,0.25329243,0.37239885,0.55156047
26131,0,USMichiganOntonagon,Michigan,Ontonagon,2021-04-04 08:49:57.779465,2020-03-25 00:00:00.000000,0.04374183,0.13229777,0.30169231,2,7,17,1,3,8,0.01969557,0.05931446,0.14363389,0.25345276,0.36174622,0.52028588
26131,0,USMichiganOntonagon,Michigan,Ontonagon,2021-04-04 08:49:57.779465,2020-03-26 00:00:00.000000,0.05121729,0.15143054,0.33732208,2,8,19,1,3,9,0.02408430,0.06975669,0.17100778,0.24303407,0.34070657,0.51338918
26131,0,USMichiganOntonagon,Michigan,Ontonagon,2021-04-04 08:49:57.779465,2020-03-27 00:00:00.000000,0.05835661,0.17024858,0.38987674,3,9,22,1,4,10,0.02859178,0.08271597,0.18766574,0.22380514,0.33370598,0.50233099
26131,0,USMichiganOntonagon,Michigan,Ontonagon,2021-04-04 08:49:57.779465,2020-03-28 00:00:00.000000,0.06519111,0.18933837,0.44632914,3,10,25,1,4,12,0.03246288,0.08664889,0.22179956,0.21875169,0.31500861,0.47678993
26131,0,USMichiganOntonagon,Michigan,Ontonagon,2021-04-04 08:49:57.779465,2020-03-29 00:00:00.000000,0.07180716,0.20443551,0.46675499,4,11,26,2,5,14,0.03706801,0.09535348,0.25365544,0.21600979,0.30396624,0.45677252
26131,0,USMichiganOntonagon,Michigan,Ontonagon,2021-04-04 08:49:57.779465,2020-03-30 00:00:00.000000,0.08732718,0.22673243,0.47299753,4,12,27,2,5,15,0.04103340,0.10259402,0.26654567,0.20482433,0.28905333,0.43826611
26131,0,USMichiganOntonagon,Michigan,Ontonagon,2021-04-04 08:49:57.779465,2020-03-31 00:00:00.000000,0.10293019,0.24383936,0.47722482,5,13,27,2,6,15,0.04819421,0.11578776,0.27481445,0.17286641,0.28453508,0.42513365
26131,0,USMichiganOntonagon,Michigan,Ontonagon,2021-04-04 08:49:57.779465,2020-04-01 00:00:00.000000,0.11901889,0.26077022,0.48331616,6,14,27,3,7,16,0.05737433,0.12870679,0.28006095,0.17229778,0.27551452,0.39823179
26131,0,USMichiganOntonagon,Michigan,Ontonagon,2021-04-04 08:49:57.779465,2020-04-02 00:00:00.000000,0.13752665,0.28217931,0.50684658,7,16,28,3,7,16,0.06671278,0.13844316,0.29353054,0.17177032,0.27130664,0.38716755
26131,0,USMichiganOntonagon,Michigan,Ontonagon,2021-04-04 08:49:57.779465,2020-04-03 00:00:00.000000,0.15698455,0.29596921,0.52772275,8,16,30,4,8,17,0.07615931,0.15389312,0.30871601,0.17020194,0.26620450,0.37332929
26131,0,USMichiganOntonagon,Michigan,Ontonagon,2021-04-04 08:49:57.779465,2020-04-04 00:00:00.000000,0.17334164,0.30860560,0.54523169,9,17,31,4,9,18,0.08549403,0.16364065,0.32238149,0.16204140,0.26151249,0.36773825
26131,0,USMichiganOntonagon,Michigan,Ontonagon,2021-04-04 08:49:57.779465,2020-04-05 00:00:00.000000,0.18015407,0.32292683,0.55529569,10,18,31,5,9,19,0.09004918,0.16969444,0.33414735,0.15570944,0.24733403,0.34790937
26131,0,USMichiganOntonagon,Michigan,Ontonagon,2021-04-04 08:49:57.779465,2020-04-06 00:00:00.000000,0.17443202,0.31639476,0.55034807,9,18,31,5,10,19,0.09116505,0.17794692,0.34413004,0.15024212,0.24161757,0.33402573
26131,0,USMichiganOntonagon,Michigan,Ontonagon,2021-04-04 08:49:57.779465,2020-04-07 00:00:00.000000,0.16821012,0.31183506,0.53545450,9,17,30,5,10,19,0.09215376,0.17538528,0.34608851,0.14742728,0.23903044,0.34646585
26131,0,USMichiganOntonagon,Michigan,Ontonagon,2021-04-04 08:49:57.779465,2020-04-08 00:00:00.000000,0.16174603,0.30463757,0.52184432,9,17,29,5,9,19,0.09097285,0.17201941,0.34884700,0.14618639,0.23501856,0.35157512
26131,0,USMichiganOntonagon,Michigan,Ontonagon,2021-04-04 08:49:57.779465,2020-04-09 00:00:00.000000,0.15535291,0.29319761,0.51108675,8,16,29,5,9,19,0.08757063,0.16736885,0.34321508,0.14282232,0.22470612,0.33668311
26131,0,USMichiganOntonagon,Michigan,Ontonagon,2021-04-04 08:49:57.779465,2020-04-10 00:00:00.000000,0.14688793,0.27890142,0.50026034,8,15,28,4,9,19,0.08310171,0.16531498,0.33672366,0.14154868,0.21466557,0.33209638
26131,0,USMichiganOntonagon,Michigan,Ontonagon,2021-04-04 08:49:57.779465,2020-04-11 00:00:00.000000,0.13553476,0.26746407,0.50284849,7,15,28,4,9,18,0.07875444,0.16188583,0.33047281,0.13841411,0.21186696,0.33201479
26131,0,USMichiganOntonagon,Michigan,Ontonagon,2021-04-04 08:49:57.779465,2020-04-12 00:00:00.000000,0.12493248,0.25470996,0.50750342,7,14,29,4,8,18,0.07294015,0.15580109,0.32310563,0.12765607,0.21092116,0.33128708
26131,0,USMichiganOntonagon,Michigan,Ontonagon,2021-04-04 08:49:57.779465,2020-04-13 00:00:00.000000,0.11509313,0.23835119,0.49619419,6,13,28,3,8,18,0.06749783,0.14664380,0.31624113,0.12690483,0.20543819,0.32097859
26131,0,USMichiganOntonagon,Michigan,Ontonagon,2021-04-04 08:49:57.779465,2020-04-14 00:00:00.000000,0.10599040,0.22380485,0.48358637,6,12,27,3,7,17,0.06238497,0.13917323,0.31124499,0.12446690,0.20359270,0.31645862
26131,0,USMichiganOntonagon,Michigan,Ontonagon,2021-04-04 08:49:57.779465,2020-04-15 00:00:00.000000,0.09758690,0.21184129,0.46960526,5,12,26,3,7,17,0.05751504,0.13123636,0.30403188,0.12342998,0.20142182,0.31470118
26131,0,USMichiganOntonagon,Michigan,Ontonagon,2021-04-04 08:49:57.779465,2020-04-16 00:00:00.000000,0.08983889,0.19833273,0.45321089,5,11,25,3,7,16,0.05289560,0.12271135,0.29608209,0.12404860,0.19619266,0.31056437
26131,0,USMichiganOntonagon,Michigan,Ontonagon,2021-04-04 08:49:57.779465,2020-04-17 00:00:00.000000,0.08270053,0.18676597,0.43384052,4,10,24,2,6,16,0.04856509,0.11559107,0.28929666,0.12094474,0.19484638,0.30067649
26131,0,USMichiganOntonagon,Michigan,Ontonagon,2021-04-04 08:49:57.779465,2020-04-18 00:00:00.000000,0.07612791,0.17452663,0.41536179,4,9,23,2,6,16,0.04454313,0.10738763,0.28251350,0.11741131,0.18892172,0.29307004
26131,0,USMichiganOntonagon,Michigan,Ontonagon,2021-04-04 08:49:57.779465,2020-04-19 00:00:00.000000,0.07008302,0.16635514,0.40414796,4,9,23,2,5,15,0.04099124,0.09964399,0.27463235,0.11206524,0.18559241,0.28283830
26131,0,USMichiganOntonagon,Michigan,Ontonagon,2021-04-04 08:49:57.779465,2020-04-20 00:00:00.000000,0.06454445,0.15803613,0.38554759,3,9,22,2,5,15,0.03773535,0.09277452,0.26390118,0.10902463,0.18356227,0.28011297
26131,0,USMichiganOntonagon,Michigan,Ontonagon,2021-04-04 08:49:57.779465,2020-04-21 00:00:00.000000,0.05898530,0.14808026,0.36668218,3,8,20,1,4,14,0.03474864,0.08625406,0.25261537,0.10630100,0.18438763,0.27484028
26131,0,USMichiganOntonagon,Michigan,Ontonagon,2021-04-04 08:49:57.779465,2020-04-22 00:00:00.000000,0.05331048,0.13799620,0.34840016,3,7,19,1,4,13,0.03203637,0.08011500,0.24105436,0.10425237,0.18531403,0.26953897
26131,0,USMichiganOntonagon,Michigan,Ontonagon,2021-04-04 08:49:57.779465,2020-04-23 00:00:00.000000,0.04818179,0.12994753,0.33345291,2,7,19,1,4,13,0.02962652,0.07559185,0.22954844,0.10400044,0.18390671,0.26868435
26131,0,USMichiganOntonagon,Michigan,Ontonagon,2021-04-04 08:49:57.779465,2020-04-24 00:00:00.000000,0.04357489,0.12144951,0.31790992,2,6,18,1,4,12,0.02682844,0.07183600,0.21830545,0.10504405,0.18092712,0.27579220
26131,0,USMichiganOntonagon,Michigan,Ontonagon,2021-04-04 08:49:57.779465,2020-04-25 00:00:00.000000,0.03946476,0.11308485,0.30237525,2,6,17,1,3,11,0.02426226,0.06720163,0.20743858,0.10612981,0.17633115,0.28247616
26131,0,USMichiganOntonagon,Michigan,Ontonagon,2021-04-04 08:49:57.779465,2020-04-26 00:00:00.000000,0.03581292,0.10512946,0.28722623,2,6,16,1,3,11,0.02195596,0.06249743,0.20152878,0.10558354,0.17772645,0.28118168
26131,0,USMichiganOntonagon,Michigan,Ontonagon,2021-04-04 08:49:57.779465,2020-04-27 00:00:00.000000,0.03256189,0.09762262,0.27972563,1,5,16,1,3,11,0.01989434,0.05928081,0.19608888,0.10569658,0.17781277,0.27242406
26131,0,USMichiganOntonagon,Michigan,Ontonagon,2021-04-04 08:49:57.779465,2020-04-28 00:00:00.000000,0.02965820,0.09061800,0.27475498,1,5,15,1,3,10,0.01806254,0.05649372,0.19123711,0.10581619,0.17987239,0.28095225
26131,0,USMichiganOntonagon,Michigan,Ontonagon,2021-04-04 08:49:57.779465,2020-04-29 00:00:00.000000,0.02705682,0.08457396,0.27078905,1,4,15,0,3,10,0.01677647,0.05341029,0.18714441,0.10606382,0.18019408,0.29214650
26131,0,USMichiganOntonagon,Michigan,Ontonagon,2021-04-04 08:49:57.779465,2020-04-30 00:00:00.000000,0.02470231,0.07919017,0.26760678,1,4,15,0,2,10,0.01556514,0.05041827,0.18376857,0.10665217,0.17754801,0.29548524
26131,0,USMichiganOntonagon,Michigan,Ontonagon,2021-04-04 08:49:57.779465,2020-05-01 00:00:00.000000,0.02256731,0.07454900,0.26563958,1,4,15,0,2,10,0.01441990,0.04670745,0.18100864,0.10799055,0.17520080,0.28068432
26131,0,USMichiganOntonagon,Michigan,Ontonagon,2021-04-04 08:49:57.779465,2020-05-02 00:00:00.000000,0.02064138,0.07020007,0.26483188,1,4,15,0,2,10,0.01333550,0.04341479,0.17895184,0.10112067,0.17016586,0.28636892
26131,0,USMichiganOntonagon,Michigan,Ontonagon,2021-04-04 08:49:57.779465,2020-05-03 00:00:00.000000,0.01892962,0.06596632,0.26051454,1,3,14,0,2,10,0.01230955,0.04059427,0.17763232,0.10021001,0.16746875,0.29307440
26131,0,USMichiganOntonagon,Michigan,Ontonagon,2021-04-04 08:49:57.779465,2020-05-04 00:00:00.000000,0.01740373,0.06239969,0.24931908,0,3,14,0,2,10,0.01134278,0.03807484,0.17542891,0.09909283,0.16654907,0.30486972
26131,0,USMichiganOntonagon,Michigan,Ontonagon,2021-04-04 08:49:57.779465,2020-05-05 00:00:00.000000,0.01602526,0.05906539,0.23838398,0,3,13,0,2,9,0.01041849,0.03577775,0.16831870,0.09941934,0.16561723,0.31955240
26131,0,USMichiganOntonagon,Michigan,Ontonagon,2021-04-04 08:49:57.779465,2020-05-06 00:00:00.000000,0.01479854,0.05590501,0.22780158,0,3,13,0,1,9,0.00920489,0.03366252,0.16120909,0.10328099,0.16493222,0.32873803
26131,0,USMichiganOntonagon,Michigan,Ontonagon,2021-04-04 08:49:57.779465,2020-05-07 00:00:00.000000,0.01326838,0.05211723,0.21759162,0,2,12,0,1,8,0.00813066,0.03195720,0.15423004,0.10339608,0.16553019,0.32933974
26131,0,USMichiganOntonagon,Michigan,Ontonagon,2021-04-04 08:49:57.779465,2020-05-08 00:00:00.000000,0.01184565,0.04911236,0.20772445,0,2,11,0,1,8,0.00742803,0.03038973,0.14744409,0.10199859,0.16673488,0.32716158
26131,0,USMichiganOntonagon,Michigan,Ontonagon,2021-04-04 08:49:57.779465,2020-05-09 00:00:00.000000,0.01057960,0.04643890,0.19813116,0,2,11,0,1,8,0.00663368,0.02889488,0.14086720,0.09976443,0.16507516,0.31234440
26131,0,USMichiganOntonagon,Michigan,Ontonagon,2021-04-04 08:49:57.779465,2020-05-10 00:00:00.000000,0.00944917,0.04389922,0.18872983,0,2,10,0,1,7,0.00592463,0.02746965,0.13448156,0.09764598,0.16138001,0.30442195
26131,0,USMichiganOntonagon,Michigan,Ontonagon,2021-04-04 08:49:57.779465,2020-05-11 00:00:00.000000,0.00829089,0.04147999,0.17938409,0,2,10,0,1,7,0.00528181,0.02611196,0.12817464,0.09618029,0.16222280,0.29597661
26131,0,USMichiganOntonagon,Michigan,Ontonagon,2021-04-04 08:49:57.779465,2020-05-12 00:00:00.000000,0.00718310,0.03898712,0.17010002,0,2,9,0,1,6,0.00464508,0.02452491,0.12191325,0.09212020,0.16260831,0.29635175
26131,0,USMichiganOntonagon,Michigan,Ontonagon,2021-04-04 08:49:57.779465,2020-05-13 00:00:00.000000,0.00622359,0.03662420,0.16098612,0,2,9,0,1,6,0.00408787,0.02302868,0.11578049,0.09156220,0.16397406,0.29645150
26131,0,USMichiganOntonagon,Michigan,Ontonagon,2021-04-04 08:49:57.779465,2020-05-14 00:00:00.000000,0.00539391,0.03434304,0.15200625,0,1,8,0,1,6,0.00360149,0.02176430,0.10976563,0.09134810,0.16506950,0.29646729
26131,0,USMichiganOntonagon,Michigan,Ontonagon,2021-04-04 08:49:57.779465,2020-05-15 00:00:00.000000,0.00469752,0.03220407,0.14312182,0,1,8,0,1,5,0.00315519,0.02085234,0.10385169,0.08967700,0.16515450,0.29643563
26131,0,USMichiganOntonagon,Michigan,Ontonagon,2021-04-04 08:49:57.779465,2020-05-16 00:00:00.000000,0.00413792,0.02983485,0.13433541,0,1,7,0,1,5,0.00273841,0.01937713,0.09801735,0.08815695,0.16185628,0.29632810
26131,0,USMichiganOntonagon,Michigan,Ontonagon,2021-04-04 08:49:57.779465,2020-05-17 00:00:00.000000,0.00369010,0.02764651,0.12571028,0,1,7,0,1,5,0.00238102,0.01813567,0.09225344,0.08803929,0.15921792,0.29608317
26131,0,USMichiganOntonagon,Michigan,Ontonagon,2021-04-04 08:49:57.779465,2020-05-18 00:00:00.000000,0.00331021,0.02598052,0.11734404,0,1,6,0,0,4,0.00212738,0.01695251,0.08657789,0.08804484,0.15539536,0.29554231
26131,0,USMichiganOntonagon,Michigan,Ontonagon,2021-04-04 08:49:57.779465,2020-05-19 00:00:00.000000,0.00296502,0.02431489,0.11293196,0,1,6,0,0,4,0.00190993,0.01574346,0.08103364,0.08672950,0.15531047,0.28632048
26131,0,USMichiganOntonagon,Michigan,Ontonagon,2021-04-04 08:49:57.779465,2020-05-20 00:00:00.000000,0.00265296,0.02258447,0.11248833,0,1,6,0,0,4,0.00171182,0.01462147,0.07567289,0.08582027,0.15500086,0.27893929
26131,0,USMichiganOntonagon,Michigan,Ontonagon,2021-04-04 08:49:57.779465,2020-05-21 00:00:00.000000,0.00237148,0.02096587,0.11225663,0,1,6,0,0,4,0.00153233,0.01372565,0.07054165,0.08521062,0.15538548,0.27872215
26131,0,USMichiganOntonagon,Michigan,Ontonagon,2021-04-04 08:49:57.779465,2020-05-22 00:00:00.000000,0.00211692,0.01944926,0.11211327,0,1,6,0,0,3,0.00137020,0.01277786,0.06874204,0.08480458,0.15562912,0.27240539
26131,0,USMichiganOntonagon,Michigan,Ontonagon,2021-04-04 08:49:57.779465,2020-05-23 00:00:00.000000,0.00188523,0.01831600,0.11202749,0,1,6,0,0,3,0.00121737,0.01191489,0.06853915,0.08419994,0.15660885,0.27246184
26131,0,USMichiganOntonagon,Michigan,Ontonagon,2021-04-04 08:49:57.779465,2020-05-24 00:00:00.000000,0.00167328,0.01725756,0.11198196,0,0,6,0,0,3,0.00108082,0.01114571,0.06841375,0.08015368,0.15772126,0.27210995
26131,0,USMichiganOntonagon,Michigan,Ontonagon,2021-04-04 08:49:57.779465,2020-05-25 00:00:00.000000,0.00148005,0.01626541,0.11196246,0,0,6,0,0,3,0.00095902,0.01040286,0.06833767,0.08081048,0.15744949,0.27181351
26131,0,USMichiganOntonagon,Michigan,Ontonagon,2021-04-04 08:49:57.779465,2020-05-26 00:00:00.000000,0.00130542,0.01530052,0.11195880,0,0,6,0,0,3,0.00084996,0.00968836,0.06829336,0.08128283,0.15927929,0.27173199
26131,0,USMichiganOntonagon,Michigan,Ontonagon,2021-04-04 08:49:57.779465,2020-05-27 00:00:00.000000,0.00114866,0.01414459,0.11196260,0,0,6,0,0,3,0.00075187,0.00904396,0.06826938,0.08103834,0.15830253,0.27238965
26131,0,USMichiganOntonagon,Michigan,Ontonagon,2021-04-04 08:49:57.779465,2020-05-28 00:00:00.000000,0.00100829,0.01304160,0.11195933,0,0,6,0,0,3,0.00066358,0.00836260,0.06825765,0.07984967,0.15472050,0.27134235
26131,0,USMichiganOntonagon,Michigan,Ontonagon,2021-04-04 08:49:57.779465,2020-05-29 00:00:00.000000,0.00088261,0.01203006,0.11126588,0,0,6,0,0,3,0.00058437,0.00771510,0.06824984,0.07727005,0.15431663,0.27038611
26131,0,USMichiganOntonagon,Michigan,Ontonagon,2021-04-04 08:49:57.779465,2020-05-30 00:00:00.000000,0.00077034,0.01110103,0.10688324,0,0,6,0,0,3,0.00051367,0.00712430,0.06822784,0.07439244,0.15409118,0.27246617
26131,0,USMichiganOntonagon,Michigan,Ontonagon,2021-04-04 08:49:57.779465,2020-05-31 00:00:00.000000,0.00067391,0.01024628,0.10149267,0,0,5,0,0,3,0.00044985,0.00658629,0.06813880,0.07481908,0.15718141,0.27391250
26131,0,USMichiganOntonagon,Michigan,Ontonagon,2021-04-04 08:49:57.779465,2020-06-01 00:00:00.000000,0.00058903,0.00945806,0.09548896,0,0,5,0,0,3,0.00039215,0.00617541,0.06550114,0.07536579,0.15490334,0.27454847
26131,0,USMichiganOntonagon,Michigan,Ontonagon,2021-04-04 08:49:57.779465,2020-06-02 00:00:00.000000,0.00051715,0.00873836,0.08947737,0,0,5,0,0,3,0.00034112,0.00582932,0.06215230,0.07619706,0.15564276,0.27541016
26131,0,USMichiganOntonagon,Michigan,Ontonagon,2021-04-04 08:49:57.779465,2020-06-03 00:00:00.000000,0.00045935,0.00812425,0.08361589,0,0,4,0,0,3,0.00029631,0.00550464,0.05862402,0.07741959,0.15788316,0.27930995
26131,0,USMichiganOntonagon,Michigan,Ontonagon,2021-04-04 08:49:57.779465,2020-06-04 00:00:00.000000,0.00041075,0.00763158,0.07803730,0,0,4,0,0,3,0.00025715,0.00518661,0.05507413,0.08064713,0.15591842,0.28430457
26131,0,USMichiganOntonagon,Michigan,Ontonagon,2021-04-04 08:49:57.779465,2020-06-05 00:00:00.000000,0.00036866,0.00711135,0.07585187,0,0,4,0,0,2,0.00022304,0.00482350,0.05160240,0.08069437,0.15438924,0.28708438
26131,0,USMichiganOntonagon,Michigan,Ontonagon,2021-04-04 08:49:57.779465,2020-06-06 00:00:00.000000,0.00032615,0.00653813,0.07435710,0,0,4,0,0,2,0.00019864,0.00441114,0.04826562,0.08233187,0.15440890,0.28791979
26131,0,USMichiganOntonagon,Michigan,Ontonagon,2021-04-04 08:49:57.779465,2020-06-07 00:00:00.000000,0.00028557,0.00618429,0.07283251,0,0,4,0,0,2,0.00017860,0.00405784,0.04507742,0.08189061,0.15886245,0.28811634
26131,0,USMichiganOntonagon,Michigan,Ontonagon,2021-04-04 08:49:57.779465,2020-06-08 00:00:00.000000,0.00025004,0.00582748,0.07113593,0,0,4,0,0,2,0.00015669,0.00383262,0.04412229,0.08066651,0.16172689,0.29269733
26131,0,USMichiganOntonagon,Michigan,Ontonagon,2021-04-04 08:49:57.779465,2020-06-09 00:00:00.000000,0.00021893,0.00542777,0.06904206,0,0,3,0,0,2,0.00013720,0.00354570,0.04316632,0.07975839,0.16021984,0.29741580
26131,0,USMichiganOntonagon,Michigan,Ontonagon,2021-04-04 08:49:57.779465,2020-06-10 00:00:00.000000,0.00019171,0.00509197,0.06657350,0,0,3,0,0,2,0.00012013,0.00328528,0.04206829,0.07917007,0.15378662,0.30314547
26131,0,USMichiganOntonagon,Michigan,Ontonagon,2021-04-04 08:49:57.779465,2020-06-11 00:00:00.000000,0.00016793,0.00477288,0.06395593,0,0,3,0,0,2,0.00010519,0.00301690,0.04078619,0.07912745,0.15227765,0.29907903
26131,0,USMichiganOntonagon,Michigan,Ontonagon,2021-04-04 08:49:57.779465,2020-06-12 00:00:00.000000,0.00014721,0.00443408,0.06131175,0,0,3,0,0,2,0.00009214,0.00277745,0.03936553,0.07838798,0.15366285,0.28709380
26131,0,USMichiganOntonagon,Michigan,Ontonagon,2021-04-04 08:49:57.779465,2020-06-13 00:00:00.000000,0.00012924,0.00408538,0.05868137,0,0,3,0,0,2,0.00008075,0.00255815,0.03786849,0.07905754,0.14650508,0.28280695
26131,0,USMichiganOntonagon,Michigan,Ontonagon,2021-04-04 08:49:57.779465,2020-06-14 00:00:00.000000,0.00011367,0.00376707,0.05608537,0,0,3,0,0,2,0.00007086,0.00235743,0.03633909,0.08107955,0.14594275,0.27625962
26131,0,USMichiganOntonagon,Michigan,Ontonagon,2021-04-04 08:49:57.779465,2020-06-15 00:00:00.000000,0.00874581,0.02643547,0.08117872,0,1,4,0,0,1,0.00006229,0.00217395,0.03480486,0.07788822,0.14709562,0.26033062
26131,0,USMichiganOntonagon,Michigan,Ontonagon,2021-04-04 08:49:57.779465,2020-06-16 00:00:00.000000,0.01679557,0.04528541,0.11908764,0,2,6,0,0,2,0.00369139,0.01021364,0.03858717,0.07801673,0.14510188,0.23506773
26131,0,USMichiganOntonagon,Michigan,Ontonagon,2021-04-04 08:49:57.779465,2020-06-17 00:00:00.000000,0.02408218,0.06621950,0.16437227,1,3,9,0,1,3,0.00698599,0.01962914,0.06269014,0.07672796,0.15093163,0.23562554
26131,0,USMichiganOntonagon,Michigan,Ontonagon,2021-04-04 08:49:57.779465,2020-06-18 00:00:00.000000,0.03192927,0.08571042,0.21724789,1,4,12,0,1,4,0.01132523,0.02967474,0.07494174,0.07605640,0.15330177,0.23734180
26131,0,USMichiganOntonagon,Michigan,Ontonagon,2021-04-04 08:49:57.779465,2020-06-19 00:00:00.000000,0.03930729,0.10383773,0.26623723,2,5,15,0,2,5,0.01573064,0.04000543,0.10153514,0.07471641,0.15384843,0.26144851
26131,0,USMichiganOntonagon,Michigan,Ontonagon,2021-04-04 08:49:57.779465,2020-06-20 00:00:00.000000,0.04615952,0.11994003,0.31438955,2,6,17,1,2,7,0.01996346,0.05000896,0.12887947,0.07319617,0.15211787,0.28472248
26131,0,USMichiganOntonagon,Michigan,Ontonagon,2021-04-04 08:49:57.779465,2020-06-21 00:00:00.000000,0.05248922,0.13578397,0.36683689,3,7,20,1,3,8,0.02392160,0.05855156,0.15714380,0.07296952,0.15253641,0.28731753
26131,0,USMichiganOntonagon,Michigan,Ontonagon,2021-04-04 08:49:57.779465,2020-06-22 00:00:00.000000,0.07638389,0.14932421,0.40984708,4,8,23,1,3,10,0.02756465,0.06732481,0.18595704,0.07286486,0.15245288,0.28461956
26131,0,USMichiganOntonagon,Michigan,Ontonagon,2021-04-04 08:49:57.779465,2020-06-23 00:00:00.000000,0.08683836,0.16955393,0.44017315,4,9,25,2,4,12,0.03858591,0.07523740,0.21141476,0.07281345,0.15373737,0.28009718
26131,0,USMichiganOntonagon,Michigan,Ontonagon,2021-04-04 08:49:57.779465,2020-06-24 00:00:00.000000,0.09788385,0.18600393,0.42221674,5,10,24,2,4,13,0.04915232,0.08444247,0.23419705,0.07277829,0.15263035,0.27498847
26131,0,USMichiganOntonagon,Michigan,Ontonagon,2021-04-04 08:49:57.779465,2020-06-25 00:00:00.000000,0.09759988,0.20609200,0.40229843,5,11,23,3,5,13,0.05648318,0.09893193,0.23597288,0.07273673,0.15073236,0.26239527
26131,0,USMichiganOntonagon,Michigan,Ontonagon,2021-04-04 08:49:57.779465,2020-06-26 00:00:00.000000,0.09744618,0.22190532,0.38273948,5,12,21,3,6,12,0.05661445,0.10910981,0.22572959,0.07267026,0.14940933,0.23657852
26131,0,USMichiganOntonagon,Michigan,Ontonagon,2021-04-04 08:49:57.779465,2020-06-27 00:00:00.000000,0.09737789,0.23145184,0.39723258,5,13,22,3,6,13,0.05315892,0.12060805,0.23004531,0.07255408,0.14585678,0.23635197
26131,0,USMichiganOntonagon,Michigan,Ontonagon,2021-04-04 08:49:57.779465,2020-06-28 00:00:00.000000,0.09720871,0.24520436,0.42589671,5,14,24,3,7,14,0.05397372,0.12755344,0.24874603,0.07237809,0.14448626,0.23610183
26131,0,USMichiganOntonagon,Michigan,Ontonagon,2021-04-04 08:49:57.779465,2020-06-29 00:00:00.000000,0.08989238,0.22987773,0.41176552,5,13,23,3,7,13,0.05585773,0.13321336,0.24375853,0.07211322,0.14387114,0.23584990
26131,0,USMichiganOntonagon,Michigan,Ontonagon,2021-04-04 08:49:57.779465,2020-06-30 00:00:00.000000,0.08264824,0.21663024,0.40784005,4,12,23,3,7,13,0.05347664,0.13010913,0.23968484,0.07471781,0.14380564,0.23562533
26131,0,USMichiganOntonagon,Michigan,Ontonagon,2021-04-04 08:49:57.779465,2020-07-01 00:00:00.000000,0.07525795,0.20208713,0.40207471,4,11,22,2,7,13,0.05021647,0.12599657,0.23209225,0.07523151,0.14446701,0.23544164
26131,0,USMichiganOntonagon,Michigan,Ontonagon,2021-04-04 08:49:57.779465,2020-07-02 00:00:00.000000,0.06818320,0.18779635,0.39553766,3,10,22,2,6,12,0.04664228,0.12057913,0.22069556,0.07523468,0.14378585,0.23526563
26131,0,USMichiganOntonagon,Michigan,Ontonagon,2021-04-04 08:49:57.779465,2020-07-03 00:00:00.000000,0.06159208,0.16963672,0.38731782,3,9,22,2,6,12,0.04245946,0.10904500,0.21741635,0.07533246,0.14399299,0.23453005
26131,0,USMichiganOntonagon,Michigan,Ontonagon,2021-04-04 08:49:57.779465,2020-07-04 00:00:00.000000,0.05554527,0.15774307,0.37130510,3,9,21,2,5,12,0.03845019,0.09993019,0.21235037,0.07069905,0.14254386,0.21486022
26131,0,USMichiganOntonagon,Michigan,Ontonagon,2021-04-04 08:49:57.779465,2020-07-05 00:00:00.000000,0.05004193,0.14302680,0.35518672,2,8,20,1,5,11,0.03473757,0.09217272,0.20529310,0.07040871,0.14093231,0.21430185
26131,0,USMichiganOntonagon,Michigan,Ontonagon,2021-04-04 08:49:57.779465,2020-07-06 00:00:00.000000,0.06861785,0.16516386,0.38461682,3,9,22,1,4,11,0.03133877,0.08591246,0.19721297,0.07025897,0.14130538,0.22846102
26131,0,USMichiganOntonagon,Michigan,Ontonagon,2021-04-04 08:49:57.779465,2020-07-07 00:00:00.000000,0.07903868,0.17192734,0.41442649,4,9,23,2,5,11,0.03548984,0.08776625,0.20135976,0.07037114,0.14266880,0.22966559
26131,0,USMichiganOntonagon,Michigan,Ontonagon,2021-04-04 08:49:57.779465,2020-07-08 00:00:00.000000,0.08783963,0.18488648,0.44623544,5,10,25,2,5,12,0.04191533,0.09436826,0.21754017,0.06919341,0.14200754,0.23419486
26131,0,USMichiganOntonagon,Michigan,Ontonagon,2021-04-04 08:49:57.779465,2020-07-09 00:00:00.000000,0.09421755,0.19560980,0.47754953,5,11,27,2,5,13,0.04517429,0.10269605,0.24439194,0.06611682,0.14148190,0.23704064
26131,0,USMichiganOntonagon,Michigan,Ontonagon,2021-04-04 08:49:57.779465,2020-07-10 00:00:00.000000,0.10039181,0.20229590,0.51032269,5,11,29,2,6,14,0.04916520,0.10768760,0.25908779,0.06579902,0.13931870,0.23899368
26131,0,USMichiganOntonagon,Michigan,Ontonagon,2021-04-04 08:49:57.779465,2020-07-11 00:00:00.000000,0.10021035,0.21416154,0.54235236,5,12,31,2,6,16,0.05145764,0.11398003,0.28497098,0.06671927,0.13885748,0.24107289
26131,0,USMichiganOntonagon,Michigan,Ontonagon,2021-04-04 08:49:57.779465,2020-07-12 00:00:00.000000,0.10317224,0.22531880,0.59621117,5,12,34,3,6,18,0.05324629,0.11996535,0.32986017,0.07271533,0.13850296,0.24604914
26131,0,USMichiganOntonagon,Michigan,Ontonagon,2021-04-04 08:49:57.779465,2020-07-13 00:00:00.000000,0.11189070,0.23610542,0.59206239,6,13,33,3,7,20,0.05496888,0.12421885,0.35243006,0.07553919,0.13853845,0.25380613
26131,0,USMichiganOntonagon,Michigan,Ontonagon,2021-04-04 08:49:57.779465,2020-07-14 00:00:00.000000,0.12707171,0.26155602,0.58452817,7,14,33,3,7,20,0.06106393,0.13054479,0.35427316,0.07688318,0.13890955,0.26540164
26131,0,USMichiganOntonagon,Michigan,Ontonagon,2021-04-04 08:49:57.779465,2020-07-15 00:00:00.000000,0.13542544,0.27145651,0.58657171,7,15,33,3,8,20,0.06761454,0.14002796,0.35868423,0.07819764,0.14047961,0.27344135
26131,0,USMichiganOntonagon,Michigan,Ontonagon,2021-04-04 08:49:57.779465,2020-07-16 00:00:00.000000,0.14261076,0.28840639,0.58879796,8,16,33,4,8,20,0.07567456,0.14579600,0.36007590,0.07959316,0.14106555,0.27598855
26131,0,USMichiganOntonagon,Michigan,Ontonagon,2021-04-04 08:49:57.779465,2020-07-17 00:00:00.000000,0.14764667,0.30082755,0.59521380,8,17,34,4,8,20,0.07912507,0.15470997,0.35670357,0.08105787,0.13858243,0.27710869
26131,0,USMichiganOntonagon,Michigan,Ontonagon,2021-04-04 08:49:57.779465,2020-07-18 00:00:00.000000,0.15277761,0.31827842,0.67083687,8,18,38,4,9,20,0.08091755,0.16527468,0.35050720,0.08256817,0.13686089,0.27823990
26131,0,USMichiganOntonagon,Michigan,Ontonagon,2021-04-04 08:49:57.779465,2020-07-19 00:00:00.000000,0.15774452,0.32833424,0.74581303,9,18,42,4,9,21,0.08255443,0.17115200,0.36880945,0.07963611,0.13791071,0.27917094
26131,0,USMichiganOntonagon,Michigan,Ontonagon,2021-04-04 08:49:57.779465,2020-07-20 00:00:00.000000,0.16017265,0.36112226,0.74476382,9,20,42,4,10,22,0.08403422,0.17904071,0.38908706,0.07695003,0.13746613,0.28018116
26131,0,USMichiganOntonagon,Michigan,Ontonagon,2021-04-04 08:49:57.779465,2020-07-21 00:00:00.000000,0.16242054,0.37873144,0.73618792,9,21,42,4,10,23,0.08720255,0.19202537,0.40868196,0.08148163,0.13593978,0.28137330
26131,0,USMichiganOntonagon,Michigan,Ontonagon,2021-04-04 08:49:57.779465,2020-07-22 00:00:00.000000,0.16276190,0.40138051,0.72553856,9,22,41,5,11,23,0.08901958,0.19965523,0.41355770,0.08369951,0.13760596,0.28298248
26131,0,USMichiganOntonagon,Michigan,Ontonagon,2021-04-04 08:49:57.779465,2020-07-23 00:00:00.000000,0.15926993,0.41891959,0.78233731,9,23,44,4,11,25,0.08710451,0.20722296,0.44530960,0.08453322,0.13720780,0.28622866
26131,0,USMichiganOntonagon,Michigan,Ontonagon,2021-04-04 08:49:57.779465,2020-07-24 00:00:00.000000,0.15607610,0.44122381,0.83161583,8,25,47,4,12,26,0.08522035,0.21905739,0.46482872,0.08552070,0.14096521,0.29446098
26131,0,USMichiganOntonagon,Michigan,Ontonagon,2021-04-04 08:49:57.779465,2020-07-25 00:00:00.000000,0.15322861,0.47031235,0.91359042,8,26,52,4,13,26,0.08346039,0.23276121,0.46473976,0.08658974,0.14013690,0.31115902
26131,0,USMichiganOntonagon,Michigan,Ontonagon,2021-04-04 08:49:57.779465,2020-07-26 00:00:00.000000,0.15073726,0.48044253,0.97888870,8,27,55,4,14,28,0.08186873,0.24642851,0.49410877,0.08762676,0.14181438,0.32999848
26131,0,USMichiganOntonagon,Michigan,Ontonagon,2021-04-04 08:49:57.779465,2020-07-27 00:00:00.000000,0.19563082,0.51149489,0.98689530,11,29,56,4,14,30,0.08046137,0.25402549,0.54169891,0.08553134,0.14204157,0.34091832
26131,0,USMichiganOntonagon,Michigan,Ontonagon,2021-04-04 08:49:57.779465,2020-07-28 00:00:00.000000,0.24694373,0.54404443,0.99326221,14,31,56,5,15,31,0.09491433,0.27426526,0.54877801,0.08953251,0.14322542,0.34494393
26131,0,USMichiganOntonagon,Michigan,Ontonagon,2021-04-04 08:49:57.779465,2020-07-29 00:00:00.000000,0.27707883,0.57594802,1.12323436,15,32,64,6,16,34,0.12155824,0.28682312,0.60243881,0.09071921,0.14477328,0.34597417
26131,0,USMichiganOntonagon,Michigan,Ontonagon,2021-04-04 08:49:57.779465,2020-07-30 00:00:00.000000,0.30446192,0.61136482,1.25663734,17,34,71,7,17,35,0.13782509,0.31150650,0.61674104,0.09145454,0.14612154,0.34557740
26131,0,USMichiganOntonagon,Michigan,Ontonagon,2021-04-04 08:49:57.779465,2020-07-31 00:00:00.000000,0.32264382,0.65044460,1.38504939,18,37,79,8,18,37,0.15277189,0.32395825,0.66111165,0.09497974,0.14886635,0.34329953
26131,0,USMichiganOntonagon,Michigan,Ontonagon,2021-04-04 08:49:57.779465,2020-08-01 00:00:00.000000,0.31614500,0.67365108,1.50676385,18,38,86,9,20,42,0.17226265,0.35326378,0.73483389,0.09545632,0.15477288,0.33350097
26131,0,USMichiganOntonagon,Michigan,Ontonagon,2021-04-04 08:49:57.779465,2020-08-02 00:00:00.000000,0.32775920,0.70392691,1.62105616,18,40,92,9,21,46,0.16796690,0.36758453,0.80636440,0.09646330,0.15534065,0.30882538
26131,0,USMichiganOntonagon,Michigan,Ontonagon,2021-04-04 08:49:57.779465,2020-08-03 00:00:00.000000,0.47971637,0.76626849,1.60451865,27,43,91,9,22,48,0.16360096,0.38849277,0.85067408,0.09879710,0.15554864,0.29737203
26131,0,USMichiganOntonagon,Michigan,Ontonagon,2021-04-04 08:49:57.779465,2020-08-04 00:00:00.000000,0.57482757,0.86027722,1.58046210,32,49,90,12,24,49,0.21585012,0.42067825,0.86870292,0.10020856,0.15569349,0.27495663
26131,0,USMichiganOntonagon,Michigan,Ontonagon,2021-04-04 08:49:57.779465,2020-08-05 00:00:00.000000,0.60320268,0.95375570,1.61970332,34,54,92,15,26,49,0.26668031,0.47064838,0.87411742,0.10060107,0.15570236,0.26215963
26131,0,USMichiganOntonagon,Michigan,Ontonagon,2021-04-04 08:49:57.779465,2020-08-06 00:00:00.000000,0.62844225,1.02400226,1.62472359,35,58,92,17,29,51,0.31123930,0.51152405,0.89414151,0.09856522,0.15485199,0.26092452
26131,0,USMichiganOntonagon,Michigan,Ontonagon,2021-04-04 08:49:57.779465,2020-08-07 00:00:00.000000,0.65309533,1.11073560,1.71166392,37,63,97,18,30,51,0.32122484,0.53421652,0.90759229,0.10148736,0.15179700,0.26013999
26131,0,USMichiganOntonagon,Michigan,Ontonagon,2021-04-04 08:49:57.779465,2020-08-08 00:00:00.000000,0.67700091,1.20586437,1.76993421,38,68,101,19,33,55,0.34190340,0.58400794,0.97204310,0.10471137,0.15508176,0.25768441
26131,0,USMichiganOntonagon,Michigan,Ontonagon,2021-04-04 08:49:57.779465,2020-08-09 00:00:00.000000,0.70049652,1.29574473,1.84179273,40,74,105,21,36,59,0.36847355,0.63272198,1.03334287,0.10428725,0.15323747,0.26961208
26131,0,USMichiganOntonagon,Michigan,Ontonagon,2021-04-04 08:49:57.779465,2020-08-10 00:00:00.000000,0.69918252,1.29037006,1.80434506,39,73,103,21,38,62,0.38435431,0.67546647,1.09180723,0.10354265,0.15512841,0.26014728
26131,0,USMichiganOntonagon,Michigan,Ontonagon,2021-04-04 08:49:57.779465,2020-08-11 00:00:00.000000,0.70083301,1.27011381,1.77071591,40,72,101,21,40,62,0.38375304,0.70524232,1.09509042,0.10257133,0.15333364,0.24275146
26131,0,USMichiganOntonagon,Michigan,Ontonagon,2021-04-04 08:49:57.779465,2020-08-12 00:00:00.000000,0.68873774,1.23453693,1.74615487,39,70,99,21,40,61,0.37947626,0.71179549,1.07202036,0.10160143,0.15138946,0.23989065
26131,0,USMichiganOntonagon,Michigan,Ontonagon,2021-04-04 08:49:57.779465,2020-08-13 00:00:00.000000,0.67826679,1.16958073,1.72004349,38,66,98,22,40,59,0.39224350,0.69946761,1.03813295,0.09938208,0.14874839,0.23953753
26131,0,USMichiganOntonagon,Michigan,Ontonagon,2021-04-04 08:49:57.779465,2020-08-14 00:00:00.000000,0.67586270,1.11998752,1.69396235,38,64,96,21,38,57,0.38179023,0.66601937,1.00612765,0.10229766,0.14571640,0.23934926
26131,0,USMichiganOntonagon,Michigan,Ontonagon,2021-04-04 08:49:57.779465,2020-08-15 00:00:00.000000,0.64639146,1.08186198,1.72231306,36,61,98,21,36,59,0.36943147,0.63135568,1.03234161,0.10213424,0.14441851,0.23899492
26131,0,USMichiganOntonagon,Michigan,Ontonagon,2021-04-04 08:49:57.779465,2020-08-16 00:00:00.000000,0.59728410,1.03187792,1.71227063,34,59,97,19,34,61,0.33541948,0.59884617,1.07423633,0.10099525,0.14020580,0.23626458
26131,0,USMichiganOntonagon,Michigan,Ontonagon,2021-04-04 08:49:57.779465,2020-08-17 00:00:00.000000,0.60471442,0.99151181,1.69963549,34,56,97,18,33,63,0.33013074,0.59323354,1.11633268,0.10024473,0.13930562,0.22758362
26131,0,USMichiganOntonagon,Michigan,Ontonagon,2021-04-04 08:49:57.779465,2020-08-18 00:00:00.000000,0.60518651,0.95971172,1.68273742,34,54,96,18,32,63,0.31868753,0.56693240,1.10414972,0.09897496,0.13924735,0.22646594
26131,0,USMichiganOntonagon,Michigan,Ontonagon,2021-04-04 08:49:57.779465,2020-08-19 00:00:00.000000,0.60093383,0.93126474,1.62089291,34,53,92,18,31,61,0.31812856,0.55429855,1.07124935,0.09823073,0.14053223,0.22225652
26131,0,USMichiganOntonagon,Michigan,Ontonagon,2021-04-04 08:49:57.779465,2020-08-20 00:00:00.000000,0.58596530,0.90793335,1.60799539,33,51,91,17,30,60,0.30837849,0.54194507,1.06352159,0.09913980,0.14172499,0.21859069
26131,0,USMichiganOntonagon,Michigan,Ontonagon,2021-04-04 08:49:57.779465,2020-08-21 00:00:00.000000,0.55731984,0.87688543,1.59307022,31,50,91,17,30,60,0.29801224,0.53168416,1.05510056,0.10166039,0.14353858,0.22733477
26131,0,USMichiganOntonagon,Michigan,Ontonagon,2021-04-04 08:49:57.779465,2020-08-22 00:00:00.000000,0.51822684,0.85590472,1.53344609,29,48,87,16,29,59,0.28757680,0.51285387,1.04561353,0.10553719,0.14507343,0.21161648
26131,0,USMichiganOntonagon,Michigan,Ontonagon,2021-04-04 08:49:57.779465,2020-08-23 00:00:00.000000,0.48326230,0.83455539,1.46454269,27,47,83,15,28,58,0.27818406,0.49824222,1.01985640,0.10851652,0.14380351,0.23380699
26131,0,USMichiganOntonagon,Michigan,Ontonagon,2021-04-04 08:49:57.779465,2020-08-24 00:00:00.000000,0.49456470,0.79127988,1.41988287,28,45,81,15,27,55,0.27044990,0.48053381,0.97770182,0.10404637,0.14575186,0.24508955
26131,0,USMichiganOntonagon,Michigan,Ontonagon,2021-04-04 08:49:57.779465,2020-08-25 00:00:00.000000,0.48341641,0.75739069,1.37841346,27,43,78,15,26,53,0.26331656,0.45779638,0.94180552,0.10137322,0.14794042,0.24998010
26131,0,USMichiganOntonagon,Michigan,Ontonagon,2021-04-04 08:49:57.779465,2020-08-26 00:00:00.000000,0.45952501,0.73631927,1.34039848,26,42,76,14,25,52,0.25360723,0.44289457,0.91048285,0.10160587,0.15039852,0.25429158
26131,0,USMichiganOntonagon,Michigan,Ontonagon,2021-04-04 08:49:57.779465,2020-08-27 00:00:00.000000,0.43651056,0.71142946,1.30581109,24,40,74,14,24,50,0.24487116,0.42887898,0.88262276,0.09946720,0.15392236,0.25999434
26131,0,USMichiganOntonagon,Michigan,Ontonagon,2021-04-04 08:49:57.779465,2020-08-28 00:00:00.000000,0.41774476,0.69013491,1.27512151,23,39,72,13,23,49,0.23423459,0.41405193,0.85759259,0.09953180,0.15465616,0.26712640
26131,0,USMichiganOntonagon,Michigan,Ontonagon,2021-04-04 08:49:57.779465,2020-08-29 00:00:00.000000,0.40179746,0.66844884,1.24812571,22,38,71,12,22,47,0.22183634,0.39761833,0.83518301,0.10002927,0.15396690,0.27414970
26131,0,USMichiganOntonagon,Michigan,Ontonagon,2021-04-04 08:49:57.779465,2020-08-30 00:00:00.000000,0.38785000,0.65032903,1.22375692,22,37,69,12,22,46,0.21216997,0.38822659,0.81524317,0.10020940,0.15518983,0.26965259
26131,0,USMichiganOntonagon,Michigan,Ontonagon,2021-04-04 08:49:57.779465,2020-08-31 00:00:00.000000,0.38402600,0.63333010,1.20143576,21,36,68,11,21,45,0.20449264,0.38389568,0.79739641,0.10067620,0.15479721,0.26417897
26131,0,USMichiganOntonagon,Michigan,Ontonagon,2021-04-04 08:49:57.779465,2020-09-01 00:00:00.000000,0.37806153,0.62389726,1.17999645,21,35,67,11,21,44,0.19974347,0.37120393,0.78136065,0.09987382,0.15394854,0.25958438
26131,0,USMichiganOntonagon,Michigan,Ontonagon,2021-04-04 08:49:57.779465,2020-09-02 00:00:00.000000,0.35825786,0.61427384,1.15983074,20,35,66,11,20,43,0.20327093,0.36171690,0.76674704,0.09901181,0.15192145,0.25742453
26131,0,USMichiganOntonagon,Michigan,Ontonagon,2021-04-04 08:49:57.779465,2020-09-03 00:00:00.000000,0.35878600,0.59918934,1.14084024,20,34,65,11,20,43,0.20248886,0.35471460,0.75288678,0.09850016,0.15223615,0.26047348
26131,0,USMichiganOntonagon,Michigan,Ontonagon,2021-04-04 08:49:57.779465,2020-09-04 00:00:00.000000,0.33061513,0.58609610,1.12299678,18,33,64,11,19,42,0.19515324,0.34335666,0.73968677,0.09828087,0.15904287,0.26217065
26131,0,USMichiganOntonagon,Michigan,Ontonagon,2021-04-04 08:49:57.779465,2020-09-05 00:00:00.000000,0.31396291,0.56703166,1.10696489,17,32,63,10,19,41,0.18314013,0.33485331,0.72880471,0.09847005,0.16469266,0.29295904
26131,0,USMichiganOntonagon,Michigan,Ontonagon,2021-04-04 08:49:57.779465,2020-09-06 00:00:00.000000,0.30791120,0.54969017,1.09445798,17,31,62,9,18,41,0.17418655,0.32359966,0.72505374,0.09833872,0.16490286,0.29915576
26131,0,USMichiganOntonagon,Michigan,Ontonagon,2021-04-04 08:49:57.779465,2020-09-07 00:00:00.000000,0.31253555,0.55125775,1.08309877,17,31,61,9,18,41,0.16307062,0.31712901,0.72124253,0.10029928,0.16769320,0.30959767
26131,0,USMichiganOntonagon,Michigan,Ontonagon,2021-04-04 08:49:57.779465,2020-09-08 00:00:00.000000,0.30832491,0.54938230,1.05667877,17,31,60,9,17,40,0.16341303,0.31329053,0.70670425,0.10214471,0.16969424,0.31667931
26131,0,USMichiganOntonagon,Michigan,Ontonagon,2021-04-04 08:49:57.779465,2020-09-09 00:00:00.000000,0.30537432,0.54990485,1.05089160,17,31,60,9,18,39,0.16586014,0.31839446,0.68989721,0.10729645,0.17016979,0.31790367
26131,0,USMichiganOntonagon,Michigan,Ontonagon,2021-04-04 08:49:57.779465,2020-09-10 00:00:00.000000,0.30355544,0.54987305,1.04518306,17,31,59,9,18,39,0.17116165,0.31483733,0.68484526,0.11000278,0.17606755,0.32016283
26131,0,USMichiganOntonagon,Michigan,Ontonagon,2021-04-04 08:49:57.779465,2020-09-11 00:00:00.000000,0.30298189,0.55025022,1.03986111,17,31,59,10,17,38,0.17537850,0.31345371,0.68120316,0.11126644,0.18064427,0.31270748
26131,0,USMichiganOntonagon,Michigan,Ontonagon,2021-04-04 08:49:57.779465,2020-09-12 00:00:00.000000,0.30352370,0.55066891,1.03507104,17,31,59,10,17,38,0.17810806,0.31278077,0.67887085,0.11283630,0.18895941,0.30751019
26131,0,USMichiganOntonagon,Michigan,Ontonagon,2021-04-04 08:49:57.779465,2020-09-13 00:00:00.000000,0.29687553,0.55596649,1.04290048,16,31,59,9,17,38,0.17202780,0.31402169,0.67778276,0.11520470,0.19590979,0.30501690
26131,0,USMichiganOntonagon,Michigan,Ontonagon,2021-04-04 08:49:57.779465,2020-09-14 00:00:00.000000,0.30650245,0.56094400,1.06194524,17,32,60,9,18,38,0.16203429,0.31559102,0.67775366,0.11794958,0.19948259,0.31380269
26131,0,USMichiganOntonagon,Michigan,Ontonagon,2021-04-04 08:49:57.779465,2020-09-15 00:00:00.000000,0.31811677,0.56660779,1.06891210,18,32,61,9,18,38,0.16166476,0.31560305,0.67783039,0.12040448,0.20340412,0.33402146
26131,0,USMichiganOntonagon,Michigan,Ontonagon,2021-04-04 08:49:57.779465,2020-09-16 00:00:00.000000,0.32469221,0.57497170,1.07015186,18,32,61,9,17,38,0.16611891,0.31331795,0.67806265,0.12242816,0.20623623,0.34796609
26131,0,USMichiganOntonagon,Michigan,Ontonagon,2021-04-04 08:49:57.779465,2020-09-17 00:00:00.000000,0.32583181,0.58053819,1.08737193,18,33,62,9,17,38,0.17262213,0.31383742,0.67853977,0.12453417,0.21329466,0.37793191
26131,0,USMichiganOntonagon,Michigan,Ontonagon,2021-04-04 08:49:57.779465,2020-09-18 00:00:00.000000,0.33663369,0.58752135,1.11168840,19,33,63,10,18,38,0.18005493,0.32573943,0.67953590,0.12793739,0.21880993,0.38920699
26131,0,USMichiganOntonagon,Michigan,Ontonagon,2021-04-04 08:49:57.779465,2020-09-19 00:00:00.000000,0.33693129,0.59716057,1.13661503,19,34,65,10,19,38,0.18127480,0.33431474,0.68172443,0.13468740,0.22436798,0.40310812
26131,0,USMichiganOntonagon,Michigan,Ontonagon,2021-04-04 08:49:57.779465,2020-09-20 00:00:00.000000,0.32051022,0.61004325,1.16452681,18,34,66,10,19,39,0.17628250,0.34168961,0.68625198,0.15110468,0.23471782,0.40858747
26131,0,USMichiganOntonagon,Michigan,Ontonagon,2021-04-04 08:49:57.779465,2020-09-21 00:00:00.000000,0.33140244,0.63225982,1.19159357,18,36,68,9,19,39,0.17229731,0.34879104,0.69412112,0.15533952,0.24600613,0.41109459
26131,0,USMichiganOntonagon,Michigan,Ontonagon,2021-04-04 08:49:57.779465,2020-09-22 00:00:00.000000,0.33329096,0.65549948,1.23250321,19,37,70,9,20,40,0.17065164,0.35821715,0.70618338,0.15988626,0.25639018,0.41228237
26131,0,USMichiganOntonagon,Michigan,Ontonagon,2021-04-04 08:49:57.779465,2020-09-23 00:00:00.000000,0.33804803,0.66608371,1.28664420,19,38,73,9,20,41,0.17058317,0.35908822,0.72958304,0.16210779,0.26672539,0.41281224
26131,0,USMichiganOntonagon,Michigan,Ontonagon,2021-04-04 08:49:57.779465,2020-09-24 00:00:00.000000,0.33419346,0.68788844,1.34355918,19,39,76,9,20,43,0.17217151,0.36014734,0.75839576,0.16579918,0.27979068,0.42870677
26131,0,USMichiganOntonagon,Michigan,Ontonagon,2021-04-04 08:49:57.779465,2020-09-25 00:00:00.000000,0.33642194,0.73170213,1.40387450,19,41,80,10,21,45,0.17530417,0.37146296,0.79011056,0.17614364,0.28673429,0.43165626
26131,0,USMichiganOntonagon,Michigan,Ontonagon,2021-04-04 08:49:57.779465,2020-09-26 00:00:00.000000,0.32844462,0.76495955,1.46192812,18,43,83,10,22,47,0.18304766,0.38572540,0.82445044,0.19097570,0.29958206,0.46749201
26131,0,USMichiganOntonagon,Michigan,Ontonagon,2021-04-04 08:49:57.779465,2020-09-27 00:00:00.000000,0.32333480,0.79065400,1.48196849,18,45,84,10,23,49,0.18659469,0.40420503,0.86097715,0.19925748,0.31293480,0.52267574
26131,0,USMichiganOntonagon,Michigan,Ontonagon,2021-04-04 08:49:57.779465,2020-09-28 00:00:00.000000,0.33551705,0.83894432,1.58535012,19,47,90,10,23,51,0.19102566,0.41917583,0.89930916,0.20580054,0.32964136,0.53358662
26131,0,USMichiganOntonagon,Michigan,Ontonagon,2021-04-04 08:49:57.779465,2020-09-29 00:00:00.000000,0.36627256,0.87557922,1.64216157,20,50,93,11,24,53,0.19560499,0.43440766,0.93505811,0.21709522,0.33872099,0.56890048
26131,0,USMichiganOntonagon,Michigan,Ontonagon,2021-04-04 08:49:57.779465,2020-09-30 00:00:00.000000,0.40639244,0.92151259,1.69835026,23,52,97,11,26,55,0.20412884,0.46350256,0.96977947,0.22586299,0.35245419,0.57344758
26131,0,USMichiganOntonagon,Michigan,Ontonagon,2021-04-04 08:49:57.779465,2020-10-01 00:00:00.000000,0.41615714,0.98190970,1.75550629,23,56,100,12,28,57,0.21538762,0.49890054,1.00426500,0.23225725,0.36504934,0.59643762
26131,0,USMichiganOntonagon,Michigan,Ontonagon,2021-04-04 08:49:57.779465,2020-10-02 00:00:00.000000,0.42546059,1.03785326,1.83472398,24,59,104,12,30,59,0.22648019,0.52919432,1.03896210,0.23363609,0.38444743,0.60166137
26131,0,USMichiganOntonagon,Michigan,Ontonagon,2021-04-04 08:49:57.779465,2020-10-03 00:00:00.000000,0.43531426,1.13321866,1.94089092,24,64,111,13,32,61,0.23739435,0.56139831,1.07424054,0.23463586,0.41044028,0.61926251
26131,0,USMichiganOntonagon,Michigan,Ontonagon,2021-04-04 08:49:57.779465,2020-10-04 00:00:00.000000,0.44554332,1.22190109,2.09649307,25,69,119,14,34,66,0.24917636,0.60485950,1.15914994,0.23650987,0.43024557,0.64664682
26131,0,USMichiganOntonagon,Michigan,Ontonagon,2021-04-04 08:49:57.779465,2020-10-05 00:00:00.000000,0.57931880,1.36030745,2.27031686,33,77,129,14,37,73,0.25729199,0.65075593,1.28833500,0.23942950,0.45241121,0.64189365
26131,0,USMichiganOntonagon,Michigan,Ontonagon,2021-04-04 08:49:57.779465,2020-10-06 00:00:00.000000,0.71758560,1.46870662,2.46386998,41,84,140,18,40,78,0.32096335,0.70121499,1.37247164,0.24381270,0.46915777,0.66129257
26131,0,USMichiganOntonagon,Michigan,Ontonagon,2021-04-04 08:49:57.779465,2020-10-07 00:00:00.000000,0.86428037,1.61777299,2.67095931,49,92,152,23,44,85,0.40302795,0.77053362,1.49401846,0.25033333,0.48199748,0.67281470
26131,0,USMichiganOntonagon,Michigan,Ontonagon,2021-04-04 08:49:57.779465,2020-10-08 00:00:00.000000,0.98768969,1.75358290,2.84995530,56,100,163,27,47,92,0.47976218,0.83321700,1.62276863,0.25676493,0.51563872,0.69582547
26131,0,USMichiganOntonagon,Michigan,Ontonagon,2021-04-04 08:49:57.779465,2020-10-09 00:00:00.000000,1.13425520,1.90076794,3.05658504,64,108,174,31,51,100,0.55199220,0.90843466,1.75948394,0.26128824,0.52240529,0.70553701
26131,0,USMichiganOntonagon,Michigan,Ontonagon,2021-04-04 08:49:57.779465,2020-10-10 00:00:00.000000,1.28216463,2.05251909,3.24539348,73,117,185,35,56,108,0.62928989,0.98713914,1.89559063,0.27811278,0.52450501,0.70743901
26131,0,USMichiganOntonagon,Michigan,Ontonagon,2021-04-04 08:49:57.779465,2020-10-11 00:00:00.000000,1.43339416,2.24967226,3.52251954,81,128,201,40,61,114,0.71127311,1.07435661,1.99768587,0.30072084,0.52494464,0.72737970
26131,0,USMichiganOntonagon,Michigan,Ontonagon,2021-04-04 08:49:57.779465,2020-10-12 00:00:00.000000,1.55827760,2.44469015,3.86408606,89,139,221,45,66,122,0.79870485,1.15995676,2.13346531,0.32553388,0.53930682,0.73224243
26131,0,USMichiganOntonagon,Michigan,Ontonagon,2021-04-04 08:49:57.779465,2020-10-13 00:00:00.000000,1.75658009,2.65665912,4.18021696,100,151,239,50,72,129,0.87606656,1.27381011,2.25880498,0.35053280,0.55369845,0.74675775
26131,0,USMichiganOntonagon,Michigan,Ontonagon,2021-04-04 08:49:57.779465,2020-10-14 00:00:00.000000,1.96608241,2.89117509,4.45174533,112,165,254,54,80,136,0.95976658,1.39917500,2.38873933,0.37327437,0.56296389,0.75220093
26131,0,USMichiganOntonagon,Michigan,Ontonagon,2021-04-04 08:49:57.779465,2020-10-15 00:00:00.000000,2.16754756,3.11226246,4.82747706,123,178,276,59,87,147,1.03754886,1.52398941,2.57815508,0.39458707,0.58053666,0.76679336
26131,0,USMichiganOntonagon,Michigan,Ontonagon,2021-04-04 08:49:57.779465,2020-10-16 00:00:00.000000,2.33922044,3.42099021,5.33350018,133,195,305,64,94,161,1.11944866,1.65583073,2.82748401,0.41843089,0.59063670,0.77484966
26131,0,USMichiganOntonagon,Michigan,Ontonagon,2021-04-04 08:49:57.779465,2020-10-17 00:00:00.000000,2.52239594,3.78071645,5.99291803,144,216,342,68,102,176,1.20484196,1.79613802,3.09224186,0.43614966,0.62259411,0.80274214
26131,0,USMichiganOntonagon,Michigan,Ontonagon,2021-04-04 08:49:57.779465,2020-10-18 00:00:00.000000,2.66854344,4.13964346,6.64266725,152,236,379,74,111,192,1.30421890,1.95359905,3.36062980,0.44614031,0.64106561,0.84376734
26131,0,USMichiganOntonagon,Michigan,Ontonagon,2021-04-04 08:49:57.779465,2020-10-19 00:00:00.000000,2.79294980,4.51563547,7.22682928,159,258,413,79,122,211,1.38554736,2.13552142,3.69255157,0.46601373,0.65734561,0.86577083
26131,0,USMichiganOntonagon,Michigan,Ontonagon,2021-04-04 08:49:57.779465,2020-10-20 00:00:00.000000,2.94795793,4.93661611,7.84240224,168,282,448,84,132,230,1.48225403,2.32191307,4.02180059,0.48436249,0.65952708,0.89004442
26131,0,USMichiganOntonagon,Michigan,Ontonagon,2021-04-04 08:49:57.779465,2020-10-21 00:00:00.000000,3.15110330,5.26714419,8.48889629,180,301,485,92,143,250,1.61385962,2.50393858,4.37179806,0.50600880,0.65989758,0.89343903
26131,0,USMichiganOntonagon,Michigan,Ontonagon,2021-04-04 08:49:57.779465,2020-10-22 00:00:00.000000,3.41570828,5.75846458,9.15851282,195,329,523,101,156,272,1.76913740,2.73964845,4.76560924,0.53047557,0.66859930,0.87568832
26131,0,USMichiganOntonagon,Michigan,Ontonagon,2021-04-04 08:49:57.779465,2020-10-23 00:00:00.000000,3.75445809,6.31782062,9.83555639,214,361,562,111,173,297,1.94453351,3.03601341,5.20641169,0.53324484,0.67627369,0.84754042
26131,0,USMichiganOntonagon,Michigan,Ontonagon,2021-04-04 08:49:57.779465,2020-10-24 00:00:00.000000,4.15975149,6.93341075,10.57889058,237,396,605,119,190,323,2.08097619,3.32284120,5.65777653,0.52602132,0.67986726,0.83064457
26131,0,USMichiganOntonagon,Michigan,Ontonagon,2021-04-04 08:49:57.779465,2020-10-25 00:00:00.000000,4.62490092,7.59354508,11.52858653,264,434,659,128,206,345,2.24106729,3.61120996,6.03749073,0.51725751,0.67468260,0.82847502
26131,0,USMichiganOntonagon,Michigan,Ontonagon,2021-04-04 08:49:57.779465,2020-10-26 00:00:00.000000,5.07872033,8.27589433,12.50807815,290,473,715,137,222,363,2.40720040,3.89709587,6.36271599,0.51783110,0.66540942,0.81445789
26131,0,USMichiganOntonagon,Michigan,Ontonagon,2021-04-04 08:49:57.779465,2020-10-27 00:00:00.000000,5.61558700,8.90090504,13.43087389,321,509,768,150,242,395,2.62844093,4.23358041,6.91282778,0.50569794,0.65324300,0.81984020
26131,0,USMichiganOntonagon,Michigan,Ontonagon,2021-04-04 08:49:57.779465,2020-10-28 00:00:00.000000,6.03042186,9.56015782,14.14931568,344,546,809,165,262,430,2.89568000,4.58719108,7.52206050,0.48096480,0.64827561,0.81724240
26131,0,USMichiganOntonagon,Michigan,Ontonagon,2021-04-04 08:49:57.779465,2020-10-29 00:00:00.000000,6.45022438,10.11979054,14.44682945,368,578,826,181,283,449,3.16627785,4.95442537,7.86337670,0.47577948,0.63664244,0.79151846
26131,0,USMichiganOntonagon,Michigan,Ontonagon,2021-04-04 08:49:57.779465,2020-10-30 00:00:00.000000,6.86897411,10.69056637,15.35864907,392,611,878,197,304,474,3.45524754,5.32103961,8.30401850,0.47256900,0.61477520,0.75795630
26131,0,USMichiganOntonagon,Michigan,Ontonagon,2021-04-04 08:49:57.779465,2020-10-31 00:00:00.000000,7.26543329,11.19937255,15.73971748,415,640,900,214,325,504,3.75797079,5.68742979,8.81771294,0.42980268,0.58143732,0.73562480
26131,0,USMichiganOntonagon,Michigan,Ontonagon,2021-04-04 08:49:57.779465,2020-11-01 00:00:00.000000,7.56406607,11.52926547,15.89940171,432,659,909,223,339,529,3.90162477,5.93865876,9.26141176,0.38824253,0.52320618,0.69979001
26131,0,USMichiganOntonagon,Michigan,Ontonagon,2021-04-04 08:49:57.779465,2020-11-02 00:00:00.000000,7.78724260,11.86784361,16.27123625,445,678,930,229,346,561,4.00416183,6.06043628,9.81467672,0.32778879,0.49086667,0.64162403
26131,0,USMichiganOntonagon,Michigan,Ontonagon,2021-04-04 08:49:57.779465,2020-11-03 00:00:00.000000,7.86092075,12.03877486,16.53133176,449,688,945,232,353,581,4.06783722,6.18348030,10.16203827,0.29281105,0.45148027,0.59146931
26131,0,USMichiganOntonagon,Michigan,Ontonagon,2021-04-04 08:49:57.779465,2020-11-04 00:00:00.000000,7.90686161,11.95539267,16.16587312,452,683,924,234,358,580,4.09902536,6.26926552,10.15495437,0.26352332,0.41516333,0.54683934
26131,0,USMichiganOntonagon,Michigan,Ontonagon,2021-04-04 08:49:57.779465,2020-11-05 00:00:00.000000,7.83425243,11.68010353,15.67164935,448,668,896,232,362,573,4.06506599,6.33309537,10.03309977,0.23903516,0.38975948,0.50196195
26131,0,USMichiganOntonagon,Michigan,Ontonagon,2021-04-04 08:49:57.779465,2020-11-06 00:00:00.000000,7.65043488,11.26747433,15.15922259,437,644,867,227,361,559,3.97171977,6.32542435,9.79015996,0.22530053,0.36170264,0.46393332
26131,0,USMichiganOntonagon,Michigan,Ontonagon,2021-04-04 08:49:57.779465,2020-11-07 00:00:00.000000,7.40685688,10.75186728,14.80308805,423,615,846,220,355,541,3.84920687,6.22200321,9.46533740,0.20391422,0.33376938,0.42769003
26131,0,USMichiganOntonagon,Michigan,Ontonagon,2021-04-04 08:49:57.779465,2020-11-08 00:00:00.000000,6.95059956,10.21190438,14.41493389,397,584,824,213,344,531,3.74042297,6.02619944,9.28583466,0.20322776,0.31400159,0.41145593
26131,0,USMichiganOntonagon,Michigan,Ontonagon,2021-04-04 08:49:57.779465,2020-11-09 00:00:00.000000,6.60064917,9.77905461,13.90518197,377,559,795,208,332,521,3.64832216,5.81508906,9.12196194,0.20305831,0.29181117,0.40211085
26131,0,USMichiganOntonagon,Michigan,Ontonagon,2021-04-04 08:49:57.779465,2020-11-10 00:00:00.000000,6.25266114,9.42269562,13.32363258,357,538,762,201,319,508,3.52226404,5.58409481,8.89246263,0.20300966,0.28825782,0.39525110
26131,0,USMichiganOntonagon,Michigan,Ontonagon,2021-04-04 08:49:57.779465,2020-11-11 00:00:00.000000,5.84382814,8.90626042,12.70981588,334,509,727,190,306,492,3.33689517,5.35026855,8.61458805,0.20295257,0.27986383,0.39638544
26131,0,USMichiganOntonagon,Michigan,Ontonagon,2021-04-04 08:49:57.779465,2020-11-12 00:00:00.000000,5.55672031,8.36967212,12.08628613,317,478,691,178,291,474,3.11318411,5.09570713,8.30239492,0.19065417,0.28088632,0.40004421
26131,0,USMichiganOntonagon,Michigan,Ontonagon,2021-04-04 08:49:57.779465,2020-11-13 00:00:00.000000,5.27790412,7.86417792,11.52536194,301,449,659,169,276,455,2.96165193,4.82606440,7.96753215,0.18865201,0.28289245,0.39173590
26131,0,USMichiganOntonagon,Michigan,Ontonagon,2021-04-04 08:49:57.779465,2020-11-14 00:00:00.000000,4.98999727,7.39873627,11.13888938,285,423,637,160,260,440,2.81310924,4.54943319,7.69307617,0.19029749,0.28241906,0.39148418
26131,0,USMichiganOntonagon,Michigan,Ontonagon,2021-04-04 08:49:57.779465,2020-11-15 00:00:00.000000,4.71538217,6.99121341,10.75112682,269,399,614,150,244,425,2.63839817,4.27668540,7.44655106,0.18810574,0.27758452,0.39118945
26131,0,USMichiganOntonagon,Michigan,Ontonagon,2021-04-04 08:49:57.779465,2020-11-16 00:00:00.000000,4.41284227,6.60626377,10.25031215,252,377,586,140,229,411,2.46398765,4.01011529,7.19792138,0.18806245,0.26979150,0.37902116
26131,0,USMichiganOntonagon,Michigan,Ontonagon,2021-04-04 08:49:57.779465,2020-11-17 00:00:00.000000,4.08762208,6.18751594,9.74127147,233,353,557,131,215,396,2.29470371,3.77535882,6.92699285,0.18800317,0.26708880,0.37397255
26131,0,USMichiganOntonagon,Michigan,Ontonagon,2021-04-04 08:49:57.779465,2020-11-18 00:00:00.000000,3.77645329,5.80222480,9.26039313,216,331,529,121,203,376,2.12908955,3.56269412,6.58713535,0.18791664,0.26506622,0.37417830
26131,0,USMichiganOntonagon,Michigan,Ontonagon,2021-04-04 08:49:57.779465,2020-11-19 00:00:00.000000,3.54755508,5.44848337,8.96884768,202,311,513,112,191,358,1.96990945,3.35358625,6.26361932,0.18769969,0.26177833,0.37406636
26131,0,USMichiganOntonagon,Michigan,Ontonagon,2021-04-04 08:49:57.779465,2020-11-20 00:00:00.000000,3.25737296,5.13534177,8.68065017,186,293,496,104,179,340,1.82481936,3.14250992,5.95593634,0.18711979,0.26041925,0.37022920
26131,0,USMichiganOntonagon,Michigan,Ontonagon,2021-04-04 08:49:57.779465,2020-11-21 00:00:00.000000,3.07419877,4.80000746,8.21210234,175,274,469,98,168,323,1.72371951,2.94505059,5.66305791,0.18675491,0.25791401,0.36762279
26131,0,USMichiganOntonagon,Michigan,Ontonagon,2021-04-04 08:49:57.779465,2020-11-22 00:00:00.000000,2.86473841,4.47725766,7.74439309,163,256,442,93,157,314,1.62949595,2.76123142,5.49945191,0.18594860,0.25478352,0.35750447
26131,0,USMichiganOntonagon,Michigan,Ontonagon,2021-04-04 08:49:57.779465,2020-11-23 00:00:00.000000,2.64658036,4.13286861,7.28480029,151,236,416,87,148,302,1.52433281,2.59194759,5.28926514,0.17491395,0.25658677,0.35338460
26131,0,USMichiganOntonagon,Michigan,Ontonagon,2021-04-04 08:49:57.779465,2020-11-24 00:00:00.000000,2.44706851,3.81927905,6.84040225,139,218,391,80,140,285,1.40886309,2.46011316,4.99056860,0.16159947,0.25384904,0.36683086
26131,0,USMichiganOntonagon,Michigan,Ontonagon,2021-04-04 08:49:57.779465,2020-11-25 00:00:00.000000,2.26477901,3.59041695,6.49257542,129,205,371,74,131,268,1.30239389,2.29115141,4.69751245,0.15369729,0.25299006,0.36695428
26131,0,USMichiganOntonagon,Michigan,Ontonagon,2021-04-04 08:49:57.779465,2020-11-26 00:00:00.000000,2.08643556,3.37607575,6.16363323,119,193,352,68,121,252,1.20464853,2.12732174,4.41299079,0.15119674,0.24889538,0.36591609
26131,0,USMichiganOntonagon,Michigan,Ontonagon,2021-04-04 08:49:57.779465,2020-11-27 00:00:00.000000,1.93475103,3.15540527,5.85060404,110,180,334,63,115,238,1.11517022,2.01375952,4.17494259,0.15832488,0.24732379,0.35061335
26131,0,USMichiganOntonagon,Michigan,Ontonagon,2021-04-04 08:49:57.779465,2020-11-28 00:00:00.000000,1.80854785,2.95773721,5.52636523,103,169,316,58,109,226,1.02250764,1.91109375,3.96413120,0.16085260,0.24883829,0.36163648
26131,0,USMichiganOntonagon,Michigan,Ontonagon,2021-04-04 08:49:57.779465,2020-11-29 00:00:00.000000,1.68904538,2.77104203,5.12066228,96,158,292,53,102,212,0.93848344,1.78770702,3.70811976,0.15631033,0.24491886,0.35904905
26131,0,USMichiganOntonagon,Michigan,Ontonagon,2021-04-04 08:49:57.779465,2020-11-30 00:00:00.000000,1.56151237,2.61468247,4.69795087,89,149,268,49,94,196,0.86295495,1.65772579,3.43908951,0.15365372,0.24066090,0.35795378
26131,0,USMichiganOntonagon,Michigan,Ontonagon,2021-04-04 08:49:57.779465,2020-12-01 00:00:00.000000,1.41173239,2.43103276,4.30724693,80,139,246,45,88,181,0.79411869,1.54348870,3.17144516,0.15406054,0.23777919,0.35935825
26131,0,USMichiganOntonagon,Michigan,Ontonagon,2021-04-04 08:49:57.779465,2020-12-02 00:00:00.000000,1.27193029,2.29167901,3.94746899,72,131,225,41,83,166,0.73200445,1.45836954,2.91507388,0.15337129,0.23516528,0.36010125
26131,0,USMichiganOntonagon,Michigan,Ontonagon,2021-04-04 08:49:57.779465,2020-12-03 00:00:00.000000,1.17538828,2.15135374,3.68477359,67,123,210,38,77,156,0.67623160,1.35501948,2.72968754,0.15221987,0.23253761,0.36041658
26131,0,USMichiganOntonagon,Michigan,Ontonagon,2021-04-04 08:49:57.779465,2020-12-04 00:00:00.000000,1.09178280,2.00712969,3.45824528,62,114,197,35,72,146,0.62626492,1.26170375,2.56644091,0.14623143,0.23515724,0.36293801
26131,0,USMichiganOntonagon,Michigan,Ontonagon,2021-04-04 08:49:57.779465,2020-12-05 00:00:00.000000,1.01699623,1.87607664,3.24928891,58,107,185,33,67,138,0.58150656,1.17920165,2.41486410,0.14438234,0.23898374,0.37705072
26131,0,USMichiganOntonagon,Michigan,Ontonagon,2021-04-04 08:49:57.779465,2020-12-06 00:00:00.000000,0.94924378,1.75545658,3.11372852,54,100,178,30,63,130,0.54130180,1.11091523,2.27415692,0.14390333,0.23568280,0.41533188
26131,0,USMichiganOntonagon,Michigan,Ontonagon,2021-04-04 08:49:57.779465,2020-12-07 00:00:00.000000,0.88481442,1.64120181,3.00499864,50,93,171,28,59,122,0.50496099,1.03928489,2.14355796,0.14419935,0.23988549,0.43561248
26131,0,USMichiganOntonagon,Michigan,Ontonagon,2021-04-04 08:49:57.779465,2020-12-08 00:00:00.000000,0.82579712,1.53521322,2.90621862,47,87,166,26,55,115,0.47089132,0.97222932,2.01918032,0.14504950,0.24197483,0.43182228
26131,0,USMichiganOntonagon,Michigan,Ontonagon,2021-04-04 08:49:57.779465,2020-12-09 00:00:00.000000,0.77300546,1.44688212,2.81329747,44,82,160,25,51,108,0.43934621,0.90723634,1.90200365,0.14207674,0.24583204,0.41906523
26131,0,USMichiganOntonagon,Michigan,Ontonagon,2021-04-04 08:49:57.779465,2020-12-10 00:00:00.000000,0.72784701,1.35713239,2.72249511,41,77,155,23,48,102,0.41087362,0.85006824,1.79227665,0.14048254,0.24706345,0.40763309
26131,0,USMichiganOntonagon,Michigan,Ontonagon,2021-04-04 08:49:57.779465,2020-12-11 00:00:00.000000,0.68930964,1.28555821,2.63448020,39,73,150,22,46,97,0.38618235,0.80752709,1.69821714,0.14142160,0.24804789,0.39792633
26131,0,USMichiganOntonagon,Michigan,Ontonagon,2021-04-04 08:49:57.779465,2020-12-12 00:00:00.000000,0.62906023,1.22108933,2.55088380,35,69,145,20,43,93,0.36550715,0.75745049,1.64298982,0.14440927,0.26059467,0.41270267
26131,0,USMichiganOntonagon,Michigan,Ontonagon,2021-04-04 08:49:57.779465,2020-12-13 00:00:00.000000,0.60212472,1.16638822,2.46596304,34,66,141,19,40,90,0.33958454,0.71283125,1.58996128,0.17257769,0.26814345,0.43084349
26131,0,USMichiganOntonagon,Michigan,Ontonagon,2021-04-04 08:49:57.779465,2020-12-14 00:00:00.000000,0.56714914,1.10843597,2.37383310,32,63,135,17,38,88,0.31197654,0.66666383,1.53946069,0.17574372,0.27438637,0.43599331
26131,0,USMichiganOntonagon,Michigan,Ontonagon,2021-04-04 08:49:57.779465,2020-12-15 00:00:00.000000,0.54016050,1.06393419,2.28899372,30,60,130,17,36,85,0.30029262,0.63375519,1.49213889,0.17685670,0.27820935,0.43145594
26131,0,USMichiganOntonagon,Michigan,Ontonagon,2021-04-04 08:49:57.779465,2020-12-16 00:00:00.000000,0.51622174,1.01559654,2.21075553,29,58,126,16,34,82,0.29586561,0.60817871,1.44785935,0.17668063,0.28268388,0.43678250
26131,0,USMichiganOntonagon,Michigan,Ontonagon,2021-04-04 08:49:57.779465,2020-12-17 00:00:00.000000,0.49636854,0.97720633,2.13780637,28,55,122,15,33,80,0.27881385,0.58662771,1.40658397,0.17790309,0.28841505,0.44390711
26131,0,USMichiganOntonagon,Michigan,Ontonagon,2021-04-04 08:49:57.779465,2020-12-18 00:00:00.000000,0.47956366,0.93965232,2.06929039,27,53,118,14,32,78,0.25750121,0.56292971,1.36834971,0.18027867,0.29803472,0.46115285
26131,0,USMichiganOntonagon,Michigan,Ontonagon,2021-04-04 08:49:57.779465,2020-12-19 00:00:00.000000,0.46699337,0.92057748,2.00433314,26,52,114,13,31,76,0.24456047,0.54816458,1.33321812,0.18259436,0.31763467,0.47296497
26131,0,USMichiganOntonagon,Michigan,Ontonagon,2021-04-04 08:49:57.779465,2020-12-20 00:00:00.000000,0.45025369,0.88594879,1.94306747,25,50,111,13,30,74,0.23620952,0.53873085,1.30801916,0.18538165,0.32673251,0.48007785
26131,0,USMichiganOntonagon,Michigan,Ontonagon,2021-04-04 08:49:57.779465,2020-12-21 00:00:00.000000,0.44133460,0.88238404,1.89300424,25,50,108,13,29,75,0.22898479,0.51398685,1.31145634,0.19050322,0.33339102,0.48408983
26131,0,USMichiganOntonagon,Michigan,Ontonagon,2021-04-04 08:49:57.779465,2020-12-22 00:00:00.000000,0.42780057,0.88564736,1.84513859,24,50,105,12,28,73,0.22298162,0.50327589,1.29308428,0.19497265,0.34470077,0.50601680
26131,0,USMichiganOntonagon,Michigan,Ontonagon,2021-04-04 08:49:57.779465,2020-12-23 00:00:00.000000,0.41591660,0.89690087,1.79696123,23,51,102,12,28,71,0.21155409,0.50577997,1.25059260,0.19887764,0.35188944,0.53871759
26131,0,USMichiganOntonagon,Michigan,Ontonagon,2021-04-04 08:49:57.779465,2020-12-24 00:00:00.000000,0.40524291,0.90684221,1.75503681,23,51,100,11,28,69,0.20084420,0.50087212,1.22103412,0.20255765,0.35583953,0.58841864
26131,0,USMichiganOntonagon,Michigan,Ontonagon,2021-04-04 08:49:57.779465,2020-12-25 00:00:00.000000,0.39559569,0.91989737,1.76396310,22,52,100,11,28,68,0.19461676,0.49031978,1.20274434,0.20668539,0.36732192,0.60423780
26131,0,USMichiganOntonagon,Michigan,Ontonagon,2021-04-04 08:49:57.779465,2020-12-26 00:00:00.000000,0.38707306,0.92206347,1.77902229,22,52,101,10,27,67,0.18957857,0.47840413,1.17792764,0.22941083,0.37914715,0.61304571
26131,0,USMichiganOntonagon,Michigan,Ontonagon,2021-04-04 08:49:57.779465,2020-12-27 00:00:00.000000,0.38040183,0.92537896,1.80083198,21,52,103,10,26,66,0.18525106,0.47081855,1.16273303,0.23855723,0.39699864,0.62099594
26131,0,USMichiganOntonagon,Michigan,Ontonagon,2021-04-04 08:49:57.779465,2020-12-28 00:00:00.000000,0.39979936,0.93794198,1.82572012,22,53,104,10,27,66,0.18177713,0.47294952,1.15682570,0.23897655,0.42537599,0.65914156
26131,0,USMichiganOntonagon,Michigan,Ontonagon,2021-04-04 08:49:57.779465,2020-12-29 00:00:00.000000,0.42119069,0.95528585,1.86016786,24,54,106,11,27,66,0.19634903,0.48379498,1.15975456,0.24116211,0.45229332,0.70315106
26131,0,USMichiganOntonagon,Michigan,Ontonagon,2021-04-04 08:49:57.779465,2020-12-30 00:00:00.000000,0.42991414,0.99992850,1.90774301,24,57,109,11,28,66,0.20423009,0.50269196,1.16733597,0.25016375,0.48073414,0.71241959
26131,0,USMichiganOntonagon,Michigan,Ontonagon,2021-04-04 08:49:57.779465,2020-12-31 00:00:00.000000,0.43143426,1.02132599,1.92079064,24,58,109,12,29,67,0.21619985,0.51529881,1.17558371,0.26524724,0.49001033,0.72188857
26131,0,USMichiganOntonagon,Michigan,Ontonagon,2021-04-04 08:49:57.779465,2021-01-01 00:00:00.000000,0.43770290,1.06180057,1.90702837,25,60,109,13,31,67,0.23097197,0.54427887,1.18369089,0.28613616,0.51388207,0.73999979
26131,0,USMichiganOntonagon,Michigan,Ontonagon,2021-04-04 08:49:57.779465,2021-01-02 00:00:00.000000,0.44290162,1.10079869,1.89807519,25,62,108,13,33,68,0.24213995,0.57747486,1.20139801,0.31901695,0.53127023,0.77018782
26131,0,USMichiganOntonagon,Michigan,Ontonagon,2021-04-04 08:49:57.779465,2021-01-03 00:00:00.000000,0.44861384,1.14110207,1.97321263,25,65,112,14,34,69,0.24770112,0.59917860,1.21474274,0.35631418,0.55304248,0.78266772
26131,0,USMichiganOntonagon,Michigan,Ontonagon,2021-04-04 08:49:57.779465,2021-01-04 00:00:00.000000,0.53881638,1.22362596,2.08179879,30,69,119,14,34,70,0.25919975,0.60981334,1.22847127,0.36352564,0.59623626,0.85876692
26131,0,USMichiganOntonagon,Michigan,Ontonagon,2021-04-04 08:49:57.779465,2021-01-05 00:00:00.000000,0.58181495,1.26564368,2.24967867,33,72,128,15,37,73,0.27103164,0.64781932,1.29112360,0.36836054,0.63073893,0.97563376
26131,0,USMichiganOntonagon,Michigan,Ontonagon,2021-04-04 08:49:57.779465,2021-01-06 00:00:00.000000,0.60816645,1.33068003,2.42554946,34,76,138,16,39,78,0.29399301,0.68307113,1.36424879,0.37286864,0.65250852,1.05248770
26131,0,USMichiganOntonagon,Michigan,Ontonagon,2021-04-04 08:49:57.779465,2021-01-07 00:00:00.000000,0.64604208,1.44452752,2.60342828,36,82,148,18,41,82,0.32885748,0.72073987,1.44290962,0.38017955,0.68279168,1.07536292
26131,0,USMichiganOntonagon,Michigan,Ontonagon,2021-04-04 08:49:57.779465,2021-01-08 00:00:00.000000,0.70863327,1.55541318,2.78324740,40,88,159,20,44,88,0.36404739,0.77756426,1.55534779,0.39989750,0.69166892,1.08063654
26131,0,USMichiganOntonagon,Michigan,Ontonagon,2021-04-04 08:49:57.779465,2021-01-09 00:00:00.000000,0.77743064,1.65278126,2.97209123,44,94,170,22,47,95,0.39984002,0.83616151,1.67821976,0.45270183,0.72258059,1.08167590
26131,0,USMichiganOntonagon,Michigan,Ontonagon,2021-04-04 08:49:57.779465,2021-01-10 00:00:00.000000,0.85793124,1.79265737,3.20623569,49,102,183,25,51,103,0.43861409,0.90736687,1.81150710,0.47158752,0.74104438,1.08157878
26131,0,USMichiganOntonagon,Michigan,Ontonagon,2021-04-04 08:49:57.779465,2021-01-11 00:00:00.000000,0.94827369,1.99040555,3.46759342,54,113,198,27,56,111,0.48356376,0.98426404,1.95258245,0.49342301,0.76988835,1.08063968
26131,0,USMichiganOntonagon,Michigan,Ontonagon,2021-04-04 08:49:57.779465,2021-01-12 00:00:00.000000,1.04940557,2.21322882,3.74211751,60,126,214,30,61,119,0.53463896,1.08189517,2.08128227,0.51650989,0.77699601,1.07784765
26131,0,USMichiganOntonagon,Michigan,Ontonagon,2021-04-04 08:49:57.779465,2021-01-13 00:00:00.000000,1.24442074,2.44088650,4.02055291,71,139,229,33,67,126,0.59155383,1.17648945,2.20558811,0.54175106,0.79908397,1.07020185
26131,0,USMichiganOntonagon,Michigan,Ontonagon,2021-04-04 08:49:57.779465,2021-01-14 00:00:00.000000,1.46280121,2.65495213,4.24582765,83,151,242,37,71,133,0.65473263,1.25707536,2.32902515,0.56041638,0.81086419,1.05117970
26131,0,USMichiganOntonagon,Michigan,Ontonagon,2021-04-04 08:49:57.779465,2021-01-15 00:00:00.000000,1.63020136,2.88257791,4.47383798,93,164,255,42,78,141,0.73503680,1.36990642,2.47018570,0.56973024,0.83719155,1.02942818
26131,0,USMichiganOntonagon,Michigan,Ontonagon,2021-04-04 08:49:57.779465,2021-01-16 00:00:00.000000,1.78632465,3.09123118,4.70631518,102,176,269,48,84,149,0.85401300,1.47379071,2.62048334,0.58696638,0.84642608,0.98814008
26131,0,USMichiganOntonagon,Michigan,Ontonagon,2021-04-04 08:49:57.779465,2021-01-17 00:00:00.000000,1.95756722,3.32631536,4.94283632,111,190,282,56,92,157,0.98012289,1.62014912,2.76187909,0.59244493,0.84706220,0.99904450
26131,0,USMichiganOntonagon,Michigan,Ontonagon,2021-04-04 08:49:57.779465,2021-01-18 00:00:00.000000,2.17328919,3.51768013,5.21525789,124,201,298,60,100,166,1.05795553,1.75323695,2.90482517,0.60290163,0.84366273,1.00537043
26131,0,USMichiganOntonagon,Michigan,Ontonagon,2021-04-04 08:49:57.779465,2021-01-19 00:00:00.000000,2.40079634,3.74082608,5.48074001,137,213,313,65,106,176,1.14676308,1.86739738,3.09264889,0.61117506,0.84572865,1.00789585
26131,0,USMichiganOntonagon,Michigan,Ontonagon,2021-04-04 08:49:57.779465,2021-01-20 00:00:00.000000,2.64431352,3.92699117,5.77207561,151,224,330,71,115,188,1.25048333,2.01477760,3.28801608,0.60807001,0.84682879,1.00785546
26131,0,USMichiganOntonagon,Michigan,Ontonagon,2021-04-04 08:49:57.779465,2021-01-21 00:00:00.000000,2.78429505,4.12457287,6.10378873,159,235,349,76,122,201,1.32916800,2.13548872,3.51699377,0.60581840,0.83041692,1.00493809
26131,0,USMichiganOntonagon,Michigan,Ontonagon,2021-04-04 08:49:57.779465,2021-01-22 00:00:00.000000,2.88553028,4.26754734,6.42889395,165,244,367,81,127,213,1.42491096,2.22686954,3.72860011,0.60244767,0.81003981,0.99859215
26131,0,USMichiganOntonagon,Michigan,Ontonagon,2021-04-04 08:49:57.779465,2021-01-23 00:00:00.000000,3.09086849,4.42894695,6.70891641,176,253,383,88,131,221,1.53950390,2.30659155,3.86747955,0.54808129,0.79682738,0.98051831
26131,0,USMichiganOntonagon,Michigan,Ontonagon,2021-04-04 08:49:57.779465,2021-01-24 00:00:00.000000,3.20881627,4.60010083,6.84629445,183,263,391,92,136,227,1.62451845,2.38837106,3.98386298,0.52543008,0.76075146,0.96795755
26131,0,USMichiganOntonagon,Michigan,Ontonagon,2021-04-04 08:49:57.779465,2021-01-25 00:00:00.000000,3.40389354,4.68408842,6.91601352,194,267,395,97,142,237,1.71091136,2.49377710,4.14905236,0.50697849,0.73375138,0.95303631
26131,0,USMichiganOntonagon,Michigan,Ontonagon,2021-04-04 08:49:57.779465,2021-01-26 00:00:00.000000,3.55118910,4.69409916,7.07004301,203,268,404,102,146,246,1.79270707,2.56518271,4.30912921,0.49090766,0.70230528,0.89610863
26131,0,USMichiganOntonagon,Michigan,Ontonagon,2021-04-04 08:49:57.779465,2021-01-27 00:00:00.000000,3.53061500,4.72598630,7.18097945,201,270,410,106,149,253,1.85469746,2.61446981,4.42637057,0.44007373,0.64502838,0.88678342
26131,0,USMichiganOntonagon,Michigan,Ontonagon,2021-04-04 08:49:57.779465,2021-01-28 00:00:00.000000,3.43705126,4.73741148,7.23541673,196,270,413,107,152,255,1.87464240,2.65957114,4.47330979,0.38566305,0.58473887,0.84232130
26131,0,USMichiganOntonagon,Michigan,Ontonagon,2021-04-04 08:49:57.779465,2021-01-29 00:00:00.000000,3.41433019,4.74542451,7.02151487,195,271,401,105,154,257,1.84409242,2.69942772,4.49439823,0.35703275,0.54726428,0.81594445
26131,0,USMichiganOntonagon,Michigan,Ontonagon,2021-04-04 08:49:57.779465,2021-01-30 00:00:00.000000,3.24161502,4.64203390,6.78411251,185,265,388,102,152,257,1.78773148,2.66156371,4.50450593,0.30057461,0.48783972,0.80979953
26131,0,USMichiganOntonagon,Michigan,Ontonagon,2021-04-04 08:49:57.779465,2021-01-31 00:00:00.000000,3.07887258,4.55628860,6.59884807,176,260,377,98,149,254,1.72422888,2.61196932,4.45422185,0.29402590,0.44049790,0.68632804
26131,0,USMichiganOntonagon,Michigan,Ontonagon,2021-04-04 08:49:57.779465,2021-02-01 00:00:00.000000,2.92518344,4.35531649,6.52707484,167,249,373,93,146,249,1.63510836,2.55279587,4.36511820,0.29356378,0.40590219,0.66551068
26131,0,USMichiganOntonagon,Michigan,Ontonagon,2021-04-04 08:49:57.779465,2021-02-02 00:00:00.000000,2.76577177,4.16838027,6.44087511,158,238,368,88,141,243,1.54593130,2.48059088,4.25012044,0.28175767,0.39919439,0.65589971
26131,0,USMichiganOntonagon,Michigan,Ontonagon,2021-04-04 08:49:57.779465,2021-02-03 00:00:00.000000,2.60125628,3.95257959,6.17120119,148,226,352,82,137,235,1.44888451,2.40447341,4.12135450,0.25973057,0.38326819,0.60240806
26131,0,USMichiganOntonagon,Michigan,Ontonagon,2021-04-04 08:49:57.779465,2021-02-04 00:00:00.000000,2.43477964,3.74388776,5.83792090,139,214,333,77,132,227,1.35743200,2.31058973,3.98467721,0.23265312,0.37275945,0.57430247
26131,0,USMichiganOntonagon,Michigan,Ontonagon,2021-04-04 08:49:57.779465,2021-02-05 00:00:00.000000,2.26942560,3.52037049,5.60410572,129,201,320,72,126,219,1.26974428,2.21300102,3.83875408,0.21423513,0.35835890,0.54932045
26131,0,USMichiganOntonagon,Michigan,Ontonagon,2021-04-04 08:49:57.779465,2021-02-06 00:00:00.000000,2.10940544,3.30193825,5.40091412,120,188,308,67,120,211,1.18453853,2.11199191,3.69903090,0.20778859,0.32714359,0.52586438
26131,0,USMichiganOntonagon,Michigan,Ontonagon,2021-04-04 08:49:57.779465,2021-02-07 00:00:00.000000,1.94762895,3.11458854,5.08460534,111,178,290,63,113,203,1.10277508,1.97868801,3.55071017,0.20068332,0.30708301,0.50773722
26131,0,USMichiganOntonagon,Michigan,Ontonagon,2021-04-04 08:49:57.779465,2021-02-08 00:00:00.000000,1.77835527,2.90535069,4.78258438,101,166,273,58,105,194,1.02580376,1.83871974,3.39588144,0.19322869,0.29591583,0.49549718
26131,0,USMichiganOntonagon,Michigan,Ontonagon,2021-04-04 08:49:57.779465,2021-02-09 00:00:00.000000,1.63346449,2.71593651,4.49506426,93,155,257,54,98,184,0.94912008,1.72385227,3.23086789,0.18957212,0.28914772,0.48202350
26131,0,USMichiganOntonagon,Michigan,Ontonagon,2021-04-04 08:49:57.779465,2021-02-10 00:00:00.000000,1.50729627,2.52846682,4.22373579,86,144,241,50,91,174,0.88098325,1.59787639,3.05929768,0.18866981,0.28008935,0.46317299
26131,0,USMichiganOntonagon,Michigan,Ontonagon,2021-04-04 08:49:57.779465,2021-02-11 00:00:00.000000,1.39705240,2.35053387,3.96856014,79,134,227,46,85,164,0.81581795,1.49086553,2.88389893,0.17880385,0.27268209,0.45142452
26131,0,USMichiganOntonagon,Michigan,Ontonagon,2021-04-04 08:49:57.779465,2021-02-12 00:00:00.000000,1.29976850,2.17566917,3.72942192,74,124,213,43,78,154,0.75612600,1.37745084,2.70774168,0.17523064,0.26518182,0.45050434
26131,0,USMichiganOntonagon,Michigan,Ontonagon,2021-04-04 08:49:57.779465,2021-02-13 00:00:00.000000,1.21357289,2.00359351,3.50661320,69,114,200,40,72,144,0.70177245,1.26726550,2.53391361,0.17232144,0.26464247,0.44920935
26131,0,USMichiganOntonagon,Michigan,Ontonagon,2021-04-04 08:49:57.779465,2021-02-14 00:00:00.000000,1.13469253,1.83107243,3.28873537,64,104,188,37,66,135,0.65139976,1.16528646,2.36510351,0.16878638,0.26251829,0.44425615
26131,0,USMichiganOntonagon,Michigan,Ontonagon,2021-04-04 08:49:57.779465,2021-02-15 00:00:00.000000,1.01835269,1.68575841,3.11775973,58,96,178,34,61,126,0.60410818,1.07719863,2.20333533,0.16565468,0.25296868,0.43544780
26131,0,USMichiganOntonagon,Michigan,Ontonagon,2021-04-04 08:49:57.779465,2021-02-16 00:00:00.000000,0.91450036,1.56442572,2.95934694,52,89,169,31,56,117,0.55557105,0.99592595,2.05112490,0.16374038,0.25049505,0.43301567
26131,0,USMichiganOntonagon,Michigan,Ontonagon,2021-04-04 08:49:57.779465,2021-02-17 00:00:00.000000,0.82178303,1.46110537,2.81462959,47,83,160,29,53,109,0.50966416,0.93336777,1.91088964,0.16321040,0.24657557,0.42853952
26131,0,USMichiganOntonagon,Michigan,Ontonagon,2021-04-04 08:49:57.779465,2021-02-18 00:00:00.000000,0.76080305,1.38708608,2.68158707,43,79,153,26,50,104,0.46297428,0.87461859,1.82565161,0.16180229,0.24838756,0.42155436
26131,0,USMichiganOntonagon,Michigan,Ontonagon,2021-04-04 08:49:57.779465,2021-02-19 00:00:00.000000,0.70608017,1.31330703,2.55960953,40,75,146,24,47,99,0.41973691,0.82613465,1.74374603,0.16045588,0.24822437,0.41069651
26131,0,USMichiganOntonagon,Michigan,Ontonagon,2021-04-04 08:49:57.779465,2021-02-20 00:00:00.000000,0.64235908,1.23884263,2.45009929,36,70,140,21,43,94,0.38030284,0.76830450,1.65950760,0.16095673,0.25278065,0.42504419
26131,0,USMichiganOntonagon,Michigan,Ontonagon,2021-04-04 08:49:57.779465,2021-02-21 00:00:00.000000,0.58574985,1.16083331,2.35474569,33,66,134,19,40,89,0.34464111,0.71021590,1.57299576,0.15298676,0.25400103,0.43700623
26131,0,USMichiganOntonagon,Michigan,Ontonagon,2021-04-04 08:49:57.779465,2021-02-22 00:00:00.000000,0.53413677,1.07708729,2.28691365,30,61,130,17,38,85,0.31310982,0.66788588,1.49912297,0.14625674,0.25542176,0.43585404
26131,0,USMichiganOntonagon,Michigan,Ontonagon,2021-04-04 08:49:57.779465,2021-02-23 00:00:00.000000,0.48672375,1.00192932,2.17652633,27,57,124,16,35,83,0.28574599,0.61663893,1.45548284,0.14260838,0.25767090,0.43539317
26131,0,USMichiganOntonagon,Michigan,Ontonagon,2021-04-04 08:49:57.779465,2021-02-24 00:00:00.000000,0.44413743,0.96126090,2.07157662,25,54,118,14,33,81,0.26096928,0.58901957,1.42606749,0.14108347,0.25970830,0.43644091
26131,0,USMichiganOntonagon,Michigan,Ontonagon,2021-04-04 08:49:57.779465,2021-02-25 00:00:00.000000,0.40593502,0.91064008,1.97213227,23,52,112,13,31,79,0.23997417,0.55561882,1.39707727,0.13830258,0.25750212,0.45066454
26131,0,USMichiganOntonagon,Michigan,Ontonagon,2021-04-04 08:49:57.779465,2021-02-26 00:00:00.000000,0.37178520,0.87458170,1.87799656,21,50,107,12,30,76,0.22152942,0.53406100,1.33061724,0.13671114,0.25886045,0.44736670
26131,0,USMichiganOntonagon,Michigan,Ontonagon,2021-04-04 08:49:57.779465,2021-02-27 00:00:00.000000,0.34088006,0.83350007,1.78886547,19,47,102,11,29,72,0.20282591,0.52389934,1.26720180,0.12730717,0.26327453,0.44953366
26131,0,USMichiganOntonagon,Michigan,Ontonagon,2021-04-04 08:49:57.779465,2021-02-28 00:00:00.000000,0.31698687,0.80632416,1.72790092,18,46,98,10,28,69,0.18459215,0.50676546,1.20689717,0.12347889,0.26625070,0.46983688
26131,0,USMichiganOntonagon,Michigan,Ontonagon,2021-04-04 08:49:57.779465,2021-03-01 00:00:00.000000,0.38103820,0.86386560,1.76846036,21,49,101,9,27,65,0.16902686,0.48629828,1.14967789,0.12311764,0.26671693,0.50410128
26131,0,USMichiganOntonagon,Michigan,Ontonagon,2021-04-04 08:49:57.779465,2021-03-02 00:00:00.000000,0.39222160,0.91820651,1.83730492,22,52,105,11,28,65,0.19984578,0.49157508,1.14612657,0.12304675,0.26630058,0.53207382
26131,0,USMichiganOntonagon,Michigan,Ontonagon,2021-04-04 08:49:57.779465,2021-03-03 00:00:00.000000,0.39174433,0.97304915,1.89132779,22,55,108,11,29,66,0.20215912,0.51089743,1.16259686,0.12302558,0.26511222,0.53386097
26131,0,USMichiganOntonagon,Michigan,Ontonagon,2021-04-04 08:49:57.779465,2021-03-04 00:00:00.000000,0.40873859,1.02366620,1.88846906,23,58,108,11,30,67,0.20686031,0.53284783,1.18715034,0.12302973,0.26762161,0.53176475
26131,0,USMichiganOntonagon,Michigan,Ontonagon,2021-04-04 08:49:57.779465,2021-03-05 00:00:00.000000,0.42840313,1.07777751,1.94094038,24,61,111,12,32,69,0.21822058,0.56354614,1.21741446,0.12302740,0.26993180,0.52454507
26131,0,USMichiganOntonagon,Michigan,Ontonagon,2021-04-04 08:49:57.779465,2021-03-06 00:00:00.000000,0.42270815,1.12543089,1.98829489,24,64,113,13,32,71,0.22856693,0.57618555,1.25012368,0.12051830,0.26769429,0.50934721
26131,0,USMichiganOntonagon,Michigan,Ontonagon,2021-04-04 08:49:57.779465,2021-03-07 00:00:00.000000,0.41757240,1.18598075,2.10572591,23,67,120,13,34,73,0.22777019,0.61018658,1.28284040,0.11933719,0.26995459,0.48396773
26131,0,USMichiganOntonagon,Michigan,Ontonagon,2021-04-04 08:49:57.779465,2021-03-08 00:00:00.000000,0.51333686,1.16426804,2.07068436,29,66,118,13,37,75,0.22811771,0.65150652,1.31465957,0.10936672,0.27675265,0.46983669
26131,0,USMichiganOntonagon,Michigan,Ontonagon,2021-04-04 08:49:57.779465,2021-03-09 00:00:00.000000,0.59618365,1.15515552,2.03465209,34,66,116,14,37,75,0.25562081,0.64984536,1.31510947,0.10286941,0.27502527,0.47707432
26131,0,USMichiganOntonagon,Michigan,Ontonagon,2021-04-04 08:49:57.779465,2021-03-10 00:00:00.000000,0.55132388,1.11654516,1.98995272,31,63,113,16,37,74,0.29161657,0.64727747,1.29704236,0.10174774,0.27093339,0.47540890
26131,0,USMichiganOntonagon,Michigan,Ontonagon,2021-04-04 08:49:57.779465,2021-03-11 00:00:00.000000,0.50868298,1.07510296,1.94238055,29,61,111,17,36,72,0.30008243,0.63166407,1.26748762,0.10159558,0.26602996,0.46797606
26131,0,USMichiganOntonagon,Michigan,Ontonagon,2021-04-04 08:49:57.779465,2021-03-12 00:00:00.000000,0.46913127,1.03842611,1.89625262,26,59,108,15,35,70,0.27790865,0.62907271,1.23125719,0.10146552,0.26159346,0.46414783
26131,0,USMichiganOntonagon,Michigan,Ontonagon,2021-04-04 08:49:57.779465,2021-03-13 00:00:00.000000,0.43294497,0.99539377,1.81817304,24,56,103,14,35,68,0.25672430,0.61693737,1.19148567,0.09682921,0.25653079,0.46365228
26131,0,USMichiganOntonagon,Michigan,Ontonagon,2021-04-04 08:49:57.779465,2021-03-14 00:00:00.000000,0.40006887,1.01534748,1.82964792,22,58,104,13,33,65,0.23699514,0.59418276,1.15054372,0.09743816,0.25938561,0.46323661
26131,0,USMichiganOntonagon,Michigan,Ontonagon,2021-04-04 08:49:57.779465,2021-03-15 00:00:00.000000,0.42751133,0.97404055,1.73288668,24,55,99,12,33,63,0.21888612,0.57995856,1.10984640,0.09356287,0.26150699,0.46235389
26131,0,USMichiganOntonagon,Michigan,Ontonagon,2021-04-04 08:49:57.779465,2021-03-16 00:00:00.000000,0.45807032,0.94027818,1.64709653,26,53,94,12,32,62,0.21855062,0.56623183,1.09670275,0.09111774,0.25851202,0.46078435
26131,0,USMichiganOntonagon,Michigan,Ontonagon,2021-04-04 08:49:57.779465,2021-03-17 00:00:00.000000,0.49227474,0.89265714,1.61124443,28,51,92,13,30,62,0.22806959,0.53283897,1.08853892,0.09047555,0.26018496,0.45744074
26131,0,USMichiganOntonagon,Michigan,Ontonagon,2021-04-04 08:49:57.779465,2021-03-18 00:00:00.000000,0.48469508,0.86972543,1.57966251,27,49,90,13,28,61,0.24260683,0.50628063,1.07010839,0.09023285,0.26097774,0.45697910
26131,0,USMichiganOntonagon,Michigan,Ontonagon,2021-04-04 08:49:57.779465,2021-03-19 00:00:00.000000,0.46912864,0.83442863,1.55158701,26,47,88,14,27,59,0.25501523,0.48138951,1.04699522,0.08927955,0.26468040,0.46009395
26131,0,USMichiganOntonagon,Michigan,Ontonagon,2021-04-04 08:49:57.779465,2021-03-20 00:00:00.000000,0.45021944,0.78723658,1.56522930,25,45,89,14,26,58,0.24736150,0.46957825,1.02677209,0.08201362,0.26551431,0.46097578
26131,0,USMichiganOntonagon,Michigan,Ontonagon,2021-04-04 08:49:57.779465,2021-03-21 00:00:00.000000,0.40970929,0.76190790,1.58162314,23,43,90,13,25,57,0.23645843,0.45239698,1.00839440,0.08176501,0.26120287,0.46088704
26131,0,USMichiganOntonagon,Michigan,Ontonagon,2021-04-04 08:49:57.779465,2021-03-22 00:00:00.000000,0.40465462,0.71994837,1.52024354,23,41,86,12,24,57,0.21460394,0.42806722,1.00130835,0.08178184,0.25821965,0.46163894
26131,0,USMichiganOntonagon,Michigan,Ontonagon,2021-04-04 08:49:57.779465,2021-03-23 00:00:00.000000,0.39381430,0.68311556,1.51385495,22,39,86,11,23,56,0.20442191,0.41029993,0.98808434,0.08775599,0.26005202,0.46242689
26131,0,USMichiganOntonagon,Michigan,Ontonagon,2021-04-04 08:49:57.779465,2021-03-24 00:00:00.000000,0.37400281,0.65530182,1.48459770,21,37,84,11,22,56,0.20083755,0.39839785,0.98521263,0.08439888,0.25816999,0.46237479
26131,0,USMichiganOntonagon,Michigan,Ontonagon,2021-04-04 08:49:57.779465,2021-03-25 00:00:00.000000,0.35686213,0.65191440,1.45759795,20,37,83,11,21,55,0.19248546,0.38395197,0.96534492,0.08561167,0.25612847,0.46189001
26131,0,USMichiganOntonagon,Michigan,Ontonagon,2021-04-04 08:49:57.779465,2021-03-26 00:00:00.000000,0.34127133,0.63767517,1.43240880,19,36,81,10,20,54,0.18283840,0.35924743,0.94600908,0.08936358,0.25605237,0.46161239
26131,0,USMichiganOntonagon,Michigan,Ontonagon,2021-04-04 08:49:57.779465,2021-03-27 00:00:00.000000,0.31678410,0.61854770,1.40944537,18,35,80,9,19,53,0.17449488,0.33786001,0.92784375,0.08923845,0.25811646,0.46099021
26131,0,USMichiganOntonagon,Michigan,Ontonagon,2021-04-04 08:49:57.779465,2021-03-28 00:00:00.000000,0.29537548,0.58908889,1.38983313,16,33,79,9,18,52,0.16719476,0.33060841,0.90995190,0.08862232,0.25679770,0.48224516
26131,0,USMichiganOntonagon,Michigan,Ontonagon,2021-04-04 08:49:57.779465,2021-03-29 00:00:00.000000,0.26508247,0.53522557,1.30601087,15,30,74,9,18,50,0.16078042,0.32638549,0.87924144,0.08836736,0.25363921,0.50661488
26131,0,USMichiganOntonagon,Michigan,Ontonagon,2021-04-04 08:49:57.779465,2021-03-30 00:00:00.000000,0.23567047,0.49173498,1.22397198,13,28,70,8,18,48,0.14924156,0.31675276,0.84147173,0.08828414,0.24886731,0.53640329
26131,0,USMichiganOntonagon,Michigan,Ontonagon,2021-04-04 08:49:57.779465,2021-03-31 00:00:00.000000,0.20529074,0.44151471,1.14265225,11,25,65,7,16,45,0.13418493,0.29019034,0.80063909,0.08826724,0.24627794,0.55648447
26131,0,USMichiganOntonagon,Michigan,Ontonagon,2021-04-04 08:49:57.779465,2021-04-01 00:00:00.000000,0.17776398,0.39860391,1.07675576,10,22,61,6,14,43,0.11989584,0.26144644,0.75909600,0.08828867,0.24567934,0.56582827
26131,0,USMichiganOntonagon,Michigan,Ontonagon,2021-04-04 08:49:57.779465,2021-04-02 00:00:00.000000,0.15323722,0.35946877,1.06442256,8,20,60,6,13,41,0.10682718,0.23559770,0.71812441,0.08838170,0.25224874,0.56580247
26131,0,USMichiganOntonagon,Michigan,Ontonagon,2021-04-04 08:49:57.779465,2021-04-03 00:00:00.000000,0.13292324,0.32167850,1.01940762,7,18,58,5,12,39,0.09475673,0.21328594,0.68358572,0.08872868,0.25487052,0.56500186
26131,0,USMichiganOntonagon,Michigan,Ontonagon,2021-04-04 08:49:57.779465,2021-04-04 00:00:00.000000,0.11899080,0.28588172,0.94947809,6,16,54,4,10,36,0.08275812,0.19077502,0.64159967,0.08983851,0.26085454,0.56140742
26131,0,USMichiganOntonagon,Michigan,Ontonagon,2021-04-04 08:49:57.779465,2021-04-05 00:00:00.000000,0.10696768,0.24884302,0.88358418,6,14,50,4,9,34,0.07189072,0.16789609,0.60538217,0.08681442,0.25851336,0.55442526
26131,0,USMichiganOntonagon,Michigan,Ontonagon,2021-04-04 08:49:57.779465,2021-04-06 00:00:00.000000,0.09627519,0.21948009,0.82269953,5,12,47,3,8,32,0.06216602,0.14981484,0.57022112,0.08390997,0.26134744,0.55073493
26131,0,USMichiganOntonagon,Michigan,Ontonagon,2021-04-04 08:49:57.779465,2021-04-07 00:00:00.000000,0.08661966,0.19766694,0.76733355,4,11,43,3,7,30,0.05355331,0.13558833,0.53661928,0.08249205,0.26016199,0.55055247
26131,0,USMichiganOntonagon,Michigan,Ontonagon,2021-04-04 08:49:57.779465,2021-04-08 00:00:00.000000,0.07797701,0.17894973,0.73819067,4,10,42,2,7,28,0.04599273,0.12410264,0.50465889,0.08187663,0.25923532,0.55093527
26131,0,USMichiganOntonagon,Michigan,Ontonagon,2021-04-04 08:49:57.779465,2021-04-09 00:00:00.000000,0.06875041,0.16215805,0.70559827,3,9,40,2,6,27,0.04110811,0.11359515,0.47437664,0.08209147,0.25866630,0.55114008
26131,0,USMichiganOntonagon,Michigan,Ontonagon,2021-04-04 08:49:57.779465,2021-04-10 00:00:00.000000,0.05862747,0.14444987,0.66318716,3,8,37,2,5,25,0.03721526,0.10326535,0.44576975,0.08257124,0.25832523,0.55121535
26131,0,USMichiganOntonagon,Michigan,Ontonagon,2021-04-04 08:49:57.779465,2021-04-11 00:00:00.000000,0.04999060,0.13103102,0.62324533,2,7,35,1,5,24,0.03351844,0.09230791,0.42872101,0.08289144,0.25812345,0.55124007
26131,0,USMichiganOntonagon,Michigan,Ontonagon,2021-04-04 08:49:57.779465,2021-04-12 00:00:00.000000,0.04262359,0.11958199,0.58564636,2,6,33,1,4,22,0.03019431,0.08235376,0.40115223,0.08309990,0.25800479,0.55124788
26131,0,USMichiganOntonagon,Michigan,Ontonagon,2021-04-04 08:49:57.779465,2021-04-13 00:00:00.000000,0.03634084,0.10930335,0.55026485,2,6,31,1,4,21,0.02676128,0.07301752,0.37403386,0.08323345,0.25793515,0.55125030
26131,0,USMichiganOntonagon,Michigan,Ontonagon,2021-04-04 08:49:57.779465,2021-04-14 00:00:00.000000,0.03098337,0.09891256,0.51697882,1,5,29,1,3,19,0.02282093,0.06496521,0.34874661,0.08331812,0.25789426,0.55125105
26131,0,USMichiganOntonagon,Michigan,Ontonagon,2021-04-04 08:49:57.779465,2021-04-15 00:00:00.000000,0.02641526,0.08951927,0.48567093,1,5,27,1,3,18,0.01945984,0.05792914,0.32668510,0.08337146,0.25787020,0.55125128
26131,0,USMichiganOntonagon,Michigan,Ontonagon,2021-04-04 08:49:57.779465,2021-04-16 00:00:00.000000,0.02252040,0.08015575,0.45622904,1,4,26,0,2,17,0.01659318,0.05203985,0.30694445,0.08340492,0.25785601,0.55125135
