FIPS,HR_UID,nameid,province,region,analysisTime,dates,pointprevalence_025,pointprevalence_50,pointprevalence_975,pointinfections_025,pointinfections_50,pointinfections_975,pointinfectious_025,pointinfectious_50,pointinfectious_975,pointinfectiousprevalence_05,pointinfectiousprevalence_50,pointinfectiousprevalence_95,infectrate_025,infectrate_50,infectrate_975
28161,0,USMississippiYalobusha,Mississippi,Yalobusha,2021-04-04 08:07:14.534247,2020-03-09 00:00:00.000000,0.00520451,0.02257411,0.07076141,0,2,8,0,1,4,0.00281381,0.01266115,0.03837910,0.38727147,0.53343644,0.77176010
28161,0,USMississippiYalobusha,Mississippi,Yalobusha,2021-04-04 08:07:14.534247,2020-03-10 00:00:00.000000,0.00596785,0.02525443,0.07589006,0,3,9,0,1,4,0.00269855,0.01241377,0.03763753,0.38727143,0.53342958,0.77175956
28161,0,USMississippiYalobusha,Mississippi,Yalobusha,2021-04-04 08:07:14.534247,2020-03-11 00:00:00.000000,0.00677131,0.02769703,0.08320595,0,3,10,0,1,4,0.00279178,0.01303609,0.03792250,0.38727129,0.53341804,0.77175786
28161,0,USMississippiYalobusha,Mississippi,Yalobusha,2021-04-04 08:07:14.534247,2020-03-12 00:00:00.000000,0.00761657,0.03073366,0.09086556,0,3,11,0,1,4,0.00302929,0.01388630,0.04037660,0.38727078,0.53339580,0.77175257
28161,0,USMississippiYalobusha,Mississippi,Yalobusha,2021-04-04 08:07:14.534247,2020-03-13 00:00:00.000000,0.00852150,0.03337917,0.09898527,1,4,11,0,1,5,0.00352756,0.01462040,0.04415428,0.38726891,0.53334525,0.77173597
28161,0,USMississippiYalobusha,Mississippi,Yalobusha,2021-04-04 08:07:14.534247,2020-03-14 00:00:00.000000,0.00949689,0.03684745,0.10766247,1,4,13,0,1,5,0.00410417,0.01553736,0.04839700,0.38726208,0.53321248,0.77168370
28161,0,USMississippiYalobusha,Mississippi,Yalobusha,2021-04-04 08:07:14.534247,2020-03-15 00:00:00.000000,0.01054994,0.04018877,0.11698366,1,4,14,0,2,6,0.00475806,0.01689244,0.05313057,0.38723707,0.53171389,0.77151825
28161,0,USMississippiYalobusha,Mississippi,Yalobusha,2021-04-04 08:07:14.534247,2020-03-16 00:00:00.000000,0.01520819,0.05466433,0.13548999,1,6,16,0,2,7,0.00547795,0.01835077,0.05839078,0.38642072,0.53060291,0.77099149
28161,0,USMississippiYalobusha,Mississippi,Yalobusha,2021-04-04 08:07:14.534247,2020-03-17 00:00:00.000000,0.02181559,0.07135510,0.16442766,2,8,19,0,2,8,0.00679902,0.02237782,0.06656215,0.38225704,0.52277820,0.76168326
28161,0,USMississippiYalobusha,Mississippi,Yalobusha,2021-04-04 08:07:14.534247,2020-03-18 00:00:00.000000,0.02878350,0.08584927,0.20735159,3,10,25,1,3,8,0.00861989,0.02738541,0.07335129,0.37141225,0.51882600,0.72753289
28161,0,USMississippiYalobusha,Mississippi,Yalobusha,2021-04-04 08:07:14.534247,2020-03-19 00:00:00.000000,0.03442854,0.09886339,0.25188126,4,11,30,1,4,9,0.01089866,0.03343514,0.08255353,0.35705059,0.51392822,0.70964818
28161,0,USMississippiYalobusha,Mississippi,Yalobusha,2021-04-04 08:07:14.534247,2020-03-20 00:00:00.000000,0.03979584,0.11507958,0.29786611,4,13,36,1,4,11,0.01353652,0.03958992,0.09741969,0.33619544,0.49908255,0.68564859
28161,0,USMississippiYalobusha,Mississippi,Yalobusha,2021-04-04 08:07:14.534247,2020-03-21 00:00:00.000000,0.04485364,0.13329613,0.34498520,5,16,41,1,5,13,0.01647477,0.04701151,0.11429951,0.32069762,0.47314737,0.62010975
28161,0,USMississippiYalobusha,Mississippi,Yalobusha,2021-04-04 08:07:14.534247,2020-03-22 00:00:00.000000,0.04951572,0.14997539,0.39264850,5,18,47,2,6,16,0.01968006,0.05590717,0.13468521,0.30879875,0.44478620,0.57128720
28161,0,USMississippiYalobusha,Mississippi,Yalobusha,2021-04-04 08:07:14.534247,2020-03-23 00:00:00.000000,0.06204394,0.17114494,0.41643819,7,20,50,2,7,19,0.02311857,0.06265600,0.15722311,0.29675852,0.41989271,0.57087564
28161,0,USMississippiYalobusha,Mississippi,Yalobusha,2021-04-04 08:07:14.534247,2020-03-24 00:00:00.000000,0.07418822,0.18829753,0.44088109,8,22,53,3,8,21,0.02720183,0.07116342,0.17670805,0.29424493,0.39720999,0.56381533
28161,0,USMississippiYalobusha,Mississippi,Yalobusha,2021-04-04 08:07:14.534247,2020-03-25 00:00:00.000000,0.08060961,0.20975677,0.46490781,9,25,56,3,10,23,0.03168680,0.08318917,0.19566759,0.27691218,0.38077034,0.54497710
28161,0,USMississippiYalobusha,Mississippi,Yalobusha,2021-04-04 08:07:14.534247,2020-03-26 00:00:00.000000,0.08721608,0.23272397,0.48769599,10,28,59,4,11,26,0.03654081,0.09234283,0.21804215,0.24529592,0.36893745,0.53632923
28161,0,USMississippiYalobusha,Mississippi,Yalobusha,2021-04-04 08:07:14.534247,2020-03-27 00:00:00.000000,0.09400627,0.25739622,0.50855694,11,31,61,5,12,29,0.04166929,0.10340755,0.23993017,0.23950749,0.35521558,0.53369263
28161,0,USMississippiYalobusha,Mississippi,Yalobusha,2021-04-04 08:07:14.534247,2020-03-28 00:00:00.000000,0.10094746,0.27779867,0.53545137,12,33,64,5,13,31,0.04669990,0.11382911,0.26286323,0.23659209,0.33869031,0.51482480
28161,0,USMississippiYalobusha,Mississippi,Yalobusha,2021-04-04 08:07:14.534247,2020-03-29 00:00:00.000000,0.10964751,0.29663062,0.57651015,13,35,69,6,14,34,0.05000947,0.12381753,0.28686736,0.23512797,0.32723458,0.49998007
28161,0,USMississippiYalobusha,Mississippi,Yalobusha,2021-04-04 08:07:14.534247,2020-03-30 00:00:00.000000,0.12979392,0.31845889,0.60660878,15,38,73,6,15,37,0.05499838,0.13145965,0.30910825,0.21709904,0.31967579,0.47504120
28161,0,USMississippiYalobusha,Mississippi,Yalobusha,2021-04-04 08:07:14.534247,2020-03-31 00:00:00.000000,0.15167815,0.34171140,0.64105591,18,41,77,7,16,39,0.06180675,0.13997028,0.32467373,0.20879281,0.31238176,0.46012523
28161,0,USMississippiYalobusha,Mississippi,Yalobusha,2021-04-04 08:07:14.534247,2020-04-01 00:00:00.000000,0.17414012,0.36537041,0.66319522,21,44,80,8,18,42,0.06850162,0.15079335,0.34877783,0.20003647,0.30334691,0.44758750
28161,0,USMississippiYalobusha,Mississippi,Yalobusha,2021-04-04 08:07:14.534247,2020-04-02 00:00:00.000000,0.19521361,0.38804936,0.68531603,23,46,82,9,19,45,0.07826382,0.16330770,0.37262194,0.20174857,0.29785042,0.44484615
28161,0,USMississippiYalobusha,Mississippi,Yalobusha,2021-04-04 08:07:14.534247,2020-04-03 00:00:00.000000,0.20917533,0.41455827,0.71042073,25,50,86,10,21,47,0.09017932,0.17597902,0.39028481,0.18801398,0.29317965,0.44402573
28161,0,USMississippiYalobusha,Mississippi,Yalobusha,2021-04-04 08:07:14.534247,2020-04-04 00:00:00.000000,0.22367159,0.43297598,0.73783700,27,52,89,12,22,49,0.10297906,0.18733712,0.40584119,0.17563154,0.28348770,0.44382101
28161,0,USMississippiYalobusha,Mississippi,Yalobusha,2021-04-04 08:07:14.534247,2020-04-05 00:00:00.000000,0.23877947,0.45372796,0.76312732,28,54,92,13,24,50,0.11470445,0.20107003,0.41864535,0.17293929,0.27655050,0.44246347
28161,0,USMississippiYalobusha,Mississippi,Yalobusha,2021-04-04 08:07:14.534247,2020-04-06 00:00:00.000000,0.27515821,0.47886086,0.79114668,33,57,95,15,25,51,0.12584604,0.21224456,0.42928542,0.17292339,0.27358133,0.43899208
28161,0,USMississippiYalobusha,Mississippi,Yalobusha,2021-04-04 08:07:14.534247,2020-04-07 00:00:00.000000,0.30280757,0.50500299,0.81848578,36,61,99,16,27,53,0.13656922,0.23049229,0.44024647,0.17295061,0.27279265,0.43105411
28161,0,USMississippiYalobusha,Mississippi,Yalobusha,2021-04-04 08:07:14.534247,2020-04-08 00:00:00.000000,0.31970291,0.53211648,0.84584650,38,64,102,17,30,54,0.14708625,0.25098785,0.45146545,0.17301573,0.27103298,0.41681066
28161,0,USMississippiYalobusha,Mississippi,Yalobusha,2021-04-04 08:07:14.534247,2020-04-09 00:00:00.000000,0.33707967,0.55439837,0.87379124,40,67,105,19,32,56,0.15753170,0.26545362,0.46289821,0.17313861,0.26954795,0.40253450
28161,0,USMississippiYalobusha,Mississippi,Yalobusha,2021-04-04 08:07:14.534247,2020-04-10 00:00:00.000000,0.35490972,0.58376747,0.90337913,42,70,109,20,33,57,0.16800150,0.27846927,0.47447969,0.17334887,0.26477299,0.38338999
28161,0,USMississippiYalobusha,Mississippi,Yalobusha,2021-04-04 08:07:14.534247,2020-04-11 00:00:00.000000,0.37325499,0.61375889,0.94532530,45,74,114,21,35,59,0.17856061,0.28976643,0.49338428,0.17434482,0.26430993,0.39265429
28161,0,USMississippiYalobusha,Mississippi,Yalobusha,2021-04-04 08:07:14.534247,2020-04-12 00:00:00.000000,0.39167308,0.64551365,0.99954105,47,78,121,22,36,62,0.18921979,0.30100504,0.51688195,0.17417205,0.26940966,0.38958577
28161,0,USMississippiYalobusha,Mississippi,Yalobusha,2021-04-04 08:07:14.534247,2020-04-13 00:00:00.000000,0.41408724,0.67848459,1.03901940,50,82,125,24,37,65,0.19984634,0.31150866,0.53973171,0.17715257,0.26742392,0.37853720
28161,0,USMississippiYalobusha,Mississippi,Yalobusha,2021-04-04 08:07:14.534247,2020-04-14 00:00:00.000000,0.43616173,0.70870367,1.07772848,52,85,130,25,39,68,0.20809158,0.32569086,0.56311339,0.17810429,0.26719060,0.37919363
28161,0,USMississippiYalobusha,Mississippi,Yalobusha,2021-04-04 08:07:14.534247,2020-04-15 00:00:00.000000,0.43708379,0.73793792,1.11574381,52,89,135,26,41,70,0.21607976,0.34489042,0.58613446,0.17173496,0.26485427,0.38547082
28161,0,USMississippiYalobusha,Mississippi,Yalobusha,2021-04-04 08:07:14.534247,2020-04-16 00:00:00.000000,0.43095421,0.76127755,1.16297008,52,92,140,27,43,73,0.22461775,0.36252903,0.60813966,0.16107722,0.26462943,0.39013995
28161,0,USMississippiYalobusha,Mississippi,Yalobusha,2021-04-04 08:07:14.534247,2020-04-17 00:00:00.000000,0.44480458,0.79901009,1.23782795,53,96,149,28,45,75,0.23332046,0.37552535,0.62556776,0.14997634,0.26867350,0.39381277
28161,0,USMississippiYalobusha,Mississippi,Yalobusha,2021-04-04 08:07:14.534247,2020-04-18 00:00:00.000000,0.46758783,0.83455815,1.29672919,56,101,157,29,47,79,0.24232250,0.39580064,0.65723770,0.15215085,0.26974257,0.39742256
28161,0,USMississippiYalobusha,Mississippi,Yalobusha,2021-04-04 08:07:14.534247,2020-04-19 00:00:00.000000,0.47555218,0.86162401,1.33784450,57,104,161,30,50,83,0.25023345,0.41978568,0.69097239,0.15815893,0.27408366,0.40245587
28161,0,USMississippiYalobusha,Mississippi,Yalobusha,2021-04-04 08:07:14.534247,2020-04-20 00:00:00.000000,0.50712963,0.89923421,1.40610123,61,108,170,30,52,87,0.25408866,0.43090191,0.72311849,0.15779886,0.27488366,0.41023107
28161,0,USMississippiYalobusha,Mississippi,Yalobusha,2021-04-04 08:07:14.534247,2020-04-21 00:00:00.000000,0.53977613,0.94347850,1.45352204,65,114,175,31,53,91,0.26233089,0.44488438,0.75823733,0.15771790,0.27615771,0.41861869
28161,0,USMississippiYalobusha,Mississippi,Yalobusha,2021-04-04 08:07:14.534247,2020-04-22 00:00:00.000000,0.57332310,0.99745814,1.52357828,69,120,184,33,55,96,0.27380590,0.46243056,0.79570562,0.15775069,0.27743296,0.42710653
28161,0,USMississippiYalobusha,Mississippi,Yalobusha,2021-04-04 08:07:14.534247,2020-04-23 00:00:00.000000,0.60736273,1.04155283,1.59651424,73,126,193,34,59,101,0.28759286,0.49466012,0.84093401,0.15787139,0.27565754,0.43308084
28161,0,USMississippiYalobusha,Mississippi,Yalobusha,2021-04-04 08:07:14.534247,2020-04-24 00:00:00.000000,0.65086870,1.07040994,1.67696500,78,129,203,36,62,107,0.30300858,0.51898713,0.89195329,0.15848053,0.27226356,0.44883765
28161,0,USMississippiYalobusha,Mississippi,Yalobusha,2021-04-04 08:07:14.534247,2020-04-25 00:00:00.000000,0.67621144,1.11631199,1.77380440,81,135,214,38,65,111,0.31956400,0.54342530,0.91751402,0.16243015,0.26969530,0.42309585
28161,0,USMississippiYalobusha,Mississippi,Yalobusha,2021-04-04 08:07:14.534247,2020-04-26 00:00:00.000000,0.70919947,1.16533764,1.88454612,85,141,228,41,68,116,0.34095148,0.56666888,0.96517926,0.16122786,0.26600998,0.42154943
28161,0,USMississippiYalobusha,Mississippi,Yalobusha,2021-04-04 08:07:14.534247,2020-04-27 00:00:00.000000,0.77152137,1.20282271,1.95572301,93,145,236,44,72,123,0.36627133,0.59490144,1.01975898,0.15912132,0.26670147,0.41755753
28161,0,USMississippiYalobusha,Mississippi,Yalobusha,2021-04-04 08:07:14.534247,2020-04-28 00:00:00.000000,0.84135897,1.24783101,2.04898742,101,151,248,46,75,128,0.38735947,0.62187786,1.06537494,0.15748424,0.26983400,0.42209247
28161,0,USMississippiYalobusha,Mississippi,Yalobusha,2021-04-04 08:07:14.534247,2020-04-29 00:00:00.000000,0.87649858,1.31599058,2.10872077,106,159,255,49,79,132,0.41162394,0.65624442,1.09635180,0.16109313,0.26831408,0.43769984
28161,0,USMississippiYalobusha,Mississippi,Yalobusha,2021-04-04 08:07:14.534247,2020-04-30 00:00:00.000000,0.90911190,1.38075512,2.16999743,110,167,262,53,83,141,0.43825603,0.69273829,1.16710014,0.16156585,0.26744476,0.45388047
28161,0,USMississippiYalobusha,Mississippi,Yalobusha,2021-04-04 08:07:14.534247,2020-05-01 00:00:00.000000,0.94047459,1.46464899,2.30656577,113,177,279,56,88,144,0.46680732,0.72905509,1.19318964,0.16845841,0.27023801,0.46471207
28161,0,USMississippiYalobusha,Mississippi,Yalobusha,2021-04-04 08:07:14.534247,2020-05-02 00:00:00.000000,0.96039591,1.54102030,2.40989168,116,186,291,59,92,147,0.49518807,0.76250575,1.21680079,0.16449672,0.26995405,0.46304875
28161,0,USMississippiYalobusha,Mississippi,Yalobusha,2021-04-04 08:07:14.534247,2020-05-03 00:00:00.000000,0.98529183,1.64809392,2.49290704,119,199,301,62,96,150,0.51210098,0.79821433,1.23918563,0.16345051,0.26722853,0.43554697
28161,0,USMississippiYalobusha,Mississippi,Yalobusha,2021-04-04 08:07:14.534247,2020-05-04 00:00:00.000000,1.07200548,1.71189217,2.57777691,129,207,312,64,99,157,0.53075586,0.82180960,1.29721280,0.16483126,0.26707872,0.41754567
28161,0,USMississippiYalobusha,Mississippi,Yalobusha,2021-04-04 08:07:14.534247,2020-05-05 00:00:00.000000,1.16644091,1.78127231,2.68817594,141,215,325,67,105,165,0.55439119,0.87320246,1.36727153,0.16215346,0.26607103,0.43661596
28161,0,USMississippiYalobusha,Mississippi,Yalobusha,2021-04-04 08:07:14.534247,2020-05-06 00:00:00.000000,1.24839802,1.85862404,2.76755726,151,225,335,70,109,173,0.58263177,0.90614562,1.43693313,0.16074422,0.26476998,0.43962677
28161,0,USMississippiYalobusha,Mississippi,Yalobusha,2021-04-04 08:07:14.534247,2020-05-07 00:00:00.000000,1.33870672,1.93817543,2.83154750,162,234,342,74,114,182,0.61162625,0.94277167,1.50575596,0.15540670,0.26157814,0.42787536
28161,0,USMississippiYalobusha,Mississippi,Yalobusha,2021-04-04 08:07:14.534247,2020-05-08 00:00:00.000000,1.36629017,2.01546321,2.91696396,165,244,353,76,118,190,0.63141564,0.98202536,1.57396749,0.14923339,0.25717182,0.40560223
28161,0,USMississippiYalobusha,Mississippi,Yalobusha,2021-04-04 08:07:14.534247,2020-05-09 00:00:00.000000,1.38823296,2.09369754,3.00269510,168,253,363,80,123,198,0.66094544,1.02257971,1.64163319,0.14500154,0.24476658,0.37936011
28161,0,USMississippiYalobusha,Mississippi,Yalobusha,2021-04-04 08:07:14.534247,2020-05-10 00:00:00.000000,1.41865794,2.15286517,3.08849970,171,260,373,83,128,202,0.69087081,1.06139324,1.67581157,0.14157854,0.23600745,0.35306574
28161,0,USMississippiYalobusha,Mississippi,Yalobusha,2021-04-04 08:07:14.534247,2020-05-11 00:00:00.000000,1.41065777,2.18040897,3.16949525,170,264,383,86,131,204,0.71713825,1.08578244,1.69176899,0.14014369,0.22402463,0.34170203
28161,0,USMississippiYalobusha,Mississippi,Yalobusha,2021-04-04 08:07:14.534247,2020-05-12 00:00:00.000000,1.40522860,2.22369781,3.18712954,170,269,385,87,134,209,0.72602993,1.11398532,1.73366027,0.13700313,0.22117965,0.33473565
28161,0,USMississippiYalobusha,Mississippi,Yalobusha,2021-04-04 08:07:14.534247,2020-05-13 00:00:00.000000,1.40161064,2.26042136,3.20056170,169,273,387,88,138,214,0.73185322,1.14196551,1.76914848,0.13702050,0.21481568,0.33229862
28161,0,USMississippiYalobusha,Mississippi,Yalobusha,2021-04-04 08:07:14.534247,2020-05-14 00:00:00.000000,1.39684005,2.27802785,3.21202122,169,275,388,89,142,217,0.73533350,1.17450657,1.79651283,0.13943548,0.20455149,0.31103326
28161,0,USMississippiYalobusha,Mississippi,Yalobusha,2021-04-04 08:07:14.534247,2020-05-15 00:00:00.000000,1.39285326,2.28126040,3.22008089,168,276,389,89,145,220,0.73703011,1.19897185,1.81807673,0.13475301,0.19742056,0.31019391
28161,0,USMississippiYalobusha,Mississippi,Yalobusha,2021-04-04 08:07:14.534247,2020-05-16 00:00:00.000000,1.42122893,2.27816236,3.22397377,172,275,390,89,147,222,0.73740426,1.21809758,1.83911731,0.13208305,0.19280313,0.29000130
28161,0,USMississippiYalobusha,Mississippi,Yalobusha,2021-04-04 08:07:14.534247,2020-05-17 00:00:00.000000,1.43648804,2.28122828,3.22343156,173,276,390,89,149,228,0.73738968,1.23627012,1.88694355,0.12892424,0.18475320,0.27876830
28161,0,USMississippiYalobusha,Mississippi,Yalobusha,2021-04-04 08:07:14.534247,2020-05-18 00:00:00.000000,1.44496454,2.30429416,3.21398156,174,279,389,89,150,233,0.73740858,1.24604408,1.92675534,0.12768244,0.18212276,0.27430230
28161,0,USMississippiYalobusha,Mississippi,Yalobusha,2021-04-04 08:07:14.534247,2020-05-19 00:00:00.000000,1.45305734,2.29462133,3.21231293,175,277,388,89,150,233,0.73653552,1.24073859,1.92767080,0.12672769,0.18066735,0.26984396
28161,0,USMississippiYalobusha,Mississippi,Yalobusha,2021-04-04 08:07:14.534247,2020-05-20 00:00:00.000000,1.45936489,2.30542541,3.22369473,176,279,390,89,149,233,0.73586318,1.23429206,1.92738253,0.12567268,0.17905522,0.26929143
28161,0,USMississippiYalobusha,Mississippi,Yalobusha,2021-04-04 08:07:14.534247,2020-05-21 00:00:00.000000,1.45846851,2.32472382,3.22309130,176,281,390,89,149,233,0.73558626,1.23633655,1.92611628,0.12361006,0.17867257,0.26902675
28161,0,USMississippiYalobusha,Mississippi,Yalobusha,2021-04-04 08:07:14.534247,2020-05-22 00:00:00.000000,1.45687839,2.32808712,3.20423220,176,281,387,89,150,232,0.73559104,1.24637564,1.92418833,0.12333109,0.17887122,0.26354472
28161,0,USMississippiYalobusha,Mississippi,Yalobusha,2021-04-04 08:07:14.534247,2020-05-23 00:00:00.000000,1.45482244,2.32644522,3.19457196,176,281,386,89,152,232,0.73569790,1.26121122,1.92349886,0.12228934,0.17679098,0.24839048
28161,0,USMississippiYalobusha,Mississippi,Yalobusha,2021-04-04 08:07:14.534247,2020-05-24 00:00:00.000000,1.45245538,2.33092822,3.23351579,175,282,391,89,155,234,0.73574385,1.28193424,1.93710283,0.12094702,0.17556938,0.24104949
28161,0,USMississippiYalobusha,Mississippi,Yalobusha,2021-04-04 08:07:14.534247,2020-05-25 00:00:00.000000,1.45389991,2.30387813,3.24776121,176,278,393,89,156,235,0.73564553,1.29537283,1.94896373,0.11834297,0.17463884,0.24318195
28161,0,USMississippiYalobusha,Mississippi,Yalobusha,2021-04-04 08:07:14.534247,2020-05-26 00:00:00.000000,1.45487704,2.28500317,3.25348091,176,276,393,88,156,237,0.73370588,1.29326886,1.95999828,0.11674494,0.17455931,0.24606064
28161,0,USMississippiYalobusha,Mississippi,Yalobusha,2021-04-04 08:07:14.534247,2020-05-27 00:00:00.000000,1.44507417,2.25183865,3.25845289,174,272,394,88,153,238,0.73044400,1.27116505,1.97025487,0.11303799,0.17065816,0.25241341
28161,0,USMississippiYalobusha,Mississippi,Yalobusha,2021-04-04 08:07:14.534247,2020-05-28 00:00:00.000000,1.42898853,2.23566504,3.26365790,173,270,395,87,156,239,0.72623896,1.29140651,1.97958106,0.10890435,0.16920993,0.25422555
28161,0,USMississippiYalobusha,Mississippi,Yalobusha,2021-04-04 08:07:14.534247,2020-05-29 00:00:00.000000,1.41242715,2.25642308,3.27157672,171,273,396,87,156,240,0.72136366,1.29622110,1.98770757,0.11458719,0.16747713,0.25106143
28161,0,USMississippiYalobusha,Mississippi,Yalobusha,2021-04-04 08:07:14.534247,2020-05-30 00:00:00.000000,1.39571643,2.25369809,3.28317066,168,272,397,86,157,241,0.71605177,1.29839905,1.99437296,0.11172192,0.16753119,0.24487910
28161,0,USMississippiYalobusha,Mississippi,Yalobusha,2021-04-04 08:07:14.534247,2020-05-31 00:00:00.000000,1.37932611,2.24995186,3.29541862,167,272,399,86,158,242,0.71072847,1.30652790,1.99983453,0.11113231,0.16603954,0.24356585
28161,0,USMississippiYalobusha,Mississippi,Yalobusha,2021-04-04 08:07:14.534247,2020-06-01 00:00:00.000000,1.36731373,2.22023526,3.30675112,165,268,400,85,159,242,0.70583821,1.32022406,2.00328390,0.11105294,0.16656714,0.24428703
28161,0,USMississippiYalobusha,Mississippi,Yalobusha,2021-04-04 08:07:14.534247,2020-06-02 00:00:00.000000,1.35983953,2.19490232,3.31497138,164,265,401,85,160,242,0.70457793,1.32160203,2.00588453,0.11022336,0.16871653,0.24521603
28161,0,USMississippiYalobusha,Mississippi,Yalobusha,2021-04-04 08:07:14.534247,2020-06-03 00:00:00.000000,1.36513953,2.20025057,3.31862217,165,266,401,85,157,243,0.70592262,1.29877289,2.00697326,0.10842217,0.17010497,0.25019890
28161,0,USMississippiYalobusha,Mississippi,Yalobusha,2021-04-04 08:07:14.534247,2020-06-04 00:00:00.000000,1.37735015,2.21279396,3.31627959,166,267,401,85,154,242,0.70921041,1.27678174,2.00661128,0.10758716,0.17228465,0.25392875
28161,0,USMississippiYalobusha,Mississippi,Yalobusha,2021-04-04 08:07:14.534247,2020-06-05 00:00:00.000000,1.39611959,2.22438903,3.30706483,169,269,400,86,153,242,0.71411213,1.26922236,2.00482343,0.11013918,0.17286322,0.26043782
28161,0,USMississippiYalobusha,Mississippi,Yalobusha,2021-04-04 08:07:14.534247,2020-06-06 00:00:00.000000,1.41041759,2.21181730,3.29106753,170,267,398,87,152,242,0.72050958,1.26239351,2.00162322,0.11357233,0.17156637,0.25486380
28161,0,USMississippiYalobusha,Mississippi,Yalobusha,2021-04-04 08:07:14.534247,2020-06-07 00:00:00.000000,1.42006728,2.22430098,3.26921990,171,269,395,87,152,241,0.72227598,1.25621847,1.99724505,0.11453837,0.17344829,0.26327979
28161,0,USMississippiYalobusha,Mississippi,Yalobusha,2021-04-04 08:07:14.534247,2020-06-08 00:00:00.000000,1.41840031,2.21824324,3.26635321,171,268,395,86,151,242,0.71286606,1.25063802,2.00044077,0.11725195,0.17290835,0.26384178
28161,0,USMississippiYalobusha,Mississippi,Yalobusha,2021-04-04 08:07:14.534247,2020-06-09 00:00:00.000000,1.41424904,2.21719305,3.26077818,171,268,394,85,151,242,0.70489074,1.24777909,2.00171079,0.12073110,0.17543554,0.26457590
28161,0,USMississippiYalobusha,Mississippi,Yalobusha,2021-04-04 08:07:14.534247,2020-06-10 00:00:00.000000,1.39847835,2.21343342,3.25387185,169,268,393,84,150,242,0.69898630,1.24456290,2.00129739,0.12523371,0.17709836,0.26844668
28161,0,USMississippiYalobusha,Mississippi,Yalobusha,2021-04-04 08:07:14.534247,2020-06-11 00:00:00.000000,1.38638424,2.19480828,3.24628046,167,265,393,84,150,242,0.69998949,1.24184847,1.99953252,0.12533863,0.18190650,0.27325220
28161,0,USMississippiYalobusha,Mississippi,Yalobusha,2021-04-04 08:07:14.534247,2020-06-12 00:00:00.000000,1.37987159,2.19786304,3.23969642,167,266,392,84,149,241,0.70108212,1.23765625,1.99668935,0.12694581,0.18668650,0.28265212
28161,0,USMississippiYalobusha,Mississippi,Yalobusha,2021-04-04 08:07:14.534247,2020-06-13 00:00:00.000000,1.37939828,2.19696643,3.24498177,167,266,392,85,149,241,0.70344371,1.23061175,1.99298301,0.13142028,0.18884814,0.28966031
28161,0,USMississippiYalobusha,Mississippi,Yalobusha,2021-04-04 08:07:14.534247,2020-06-14 00:00:00.000000,1.38358310,2.18841456,3.23949733,167,264,392,85,148,240,0.70903590,1.22660903,1.98859196,0.13120090,0.19176514,0.31323877
28161,0,USMississippiYalobusha,Mississippi,Yalobusha,2021-04-04 08:07:14.534247,2020-06-15 00:00:00.000000,1.39801330,2.22837815,3.23583549,169,269,391,87,148,240,0.71937013,1.22649814,1.98370991,0.13125853,0.19496781,0.31615872
28161,0,USMississippiYalobusha,Mississippi,Yalobusha,2021-04-04 08:07:14.534247,2020-06-16 00:00:00.000000,1.41393147,2.27739825,3.26414365,171,275,395,89,149,239,0.73643981,1.23464296,1.97839092,0.13260983,0.19757184,0.31649518
28161,0,USMississippiYalobusha,Mississippi,Yalobusha,2021-04-04 08:07:14.534247,2020-06-17 00:00:00.000000,1.43084088,2.32719209,3.33681833,173,281,404,91,150,239,0.75790776,1.24056792,1.97394854,0.13936175,0.21240938,0.32437982
28161,0,USMississippiYalobusha,Mississippi,Yalobusha,2021-04-04 08:07:14.534247,2020-06-18 00:00:00.000000,1.44838411,2.32002865,3.41391586,175,280,413,93,150,238,0.77007665,1.24323052,1.97311961,0.14074898,0.21374120,0.33629725
28161,0,USMississippiYalobusha,Mississippi,Yalobusha,2021-04-04 08:07:14.534247,2020-06-19 00:00:00.000000,1.46653942,2.32637769,3.47284339,177,281,420,94,150,239,0.78136000,1.24092888,1.97783710,0.14253822,0.22009047,0.34706550
28161,0,USMississippiYalobusha,Mississippi,Yalobusha,2021-04-04 08:07:14.534247,2020-06-20 00:00:00.000000,1.50329716,2.35281458,3.51189792,182,284,425,95,150,240,0.78865222,1.23974442,1.98800718,0.14779108,0.22360524,0.34581315
28161,0,USMississippiYalobusha,Mississippi,Yalobusha,2021-04-04 08:07:14.534247,2020-06-21 00:00:00.000000,1.54549469,2.38323284,3.49867333,187,288,423,96,152,242,0.79935592,1.25879254,2.00312342,0.15506227,0.23032472,0.34539712
28161,0,USMississippiYalobusha,Mississippi,Yalobusha,2021-04-04 08:07:14.534247,2020-06-22 00:00:00.000000,1.56559407,2.39671710,3.47513641,189,290,420,96,155,244,0.79796701,1.28016516,2.02289295,0.15804459,0.23174385,0.35254899
28161,0,USMississippiYalobusha,Mississippi,Yalobusha,2021-04-04 08:07:14.534247,2020-06-23 00:00:00.000000,1.62673976,2.43566814,3.51106764,196,294,425,96,157,248,0.79776095,1.30182535,2.04944966,0.15926946,0.23870318,0.34901905
28161,0,USMississippiYalobusha,Mississippi,Yalobusha,2021-04-04 08:07:14.534247,2020-06-24 00:00:00.000000,1.68543933,2.47527267,3.60135390,204,299,436,96,160,252,0.79876636,1.32344103,2.08144721,0.15627744,0.23860380,0.35409697
28161,0,USMississippiYalobusha,Mississippi,Yalobusha,2021-04-04 08:07:14.534247,2020-06-25 00:00:00.000000,1.73426881,2.54315946,3.69413876,209,307,447,98,163,256,0.80972663,1.34872957,2.11771356,0.15671061,0.24061464,0.35433971
28161,0,USMississippiYalobusha,Mississippi,Yalobusha,2021-04-04 08:07:14.534247,2020-06-26 00:00:00.000000,1.78589871,2.59134606,3.78852699,216,313,458,100,165,261,0.83258847,1.36652740,2.15726151,0.16274044,0.24934915,0.35578467
28161,0,USMississippiYalobusha,Mississippi,Yalobusha,2021-04-04 08:07:14.534247,2020-06-27 00:00:00.000000,1.84358048,2.65629638,3.88339534,223,321,470,103,167,266,0.85660550,1.38552144,2.19882384,0.16681995,0.25144732,0.35050416
28161,0,USMississippiYalobusha,Mississippi,Yalobusha,2021-04-04 08:07:14.534247,2020-06-28 00:00:00.000000,1.86753600,2.70939239,3.93236900,226,328,476,106,169,271,0.88247472,1.40120010,2.24150485,0.16800788,0.25363195,0.35433563
28161,0,USMississippiYalobusha,Mississippi,Yalobusha,2021-04-04 08:07:14.534247,2020-06-29 00:00:00.000000,1.89128420,2.75204541,3.93722161,228,333,476,110,171,276,0.91139815,1.41823900,2.28506458,0.16703655,0.25601874,0.37337049
28161,0,USMississippiYalobusha,Mississippi,Yalobusha,2021-04-04 08:07:14.534247,2020-06-30 00:00:00.000000,1.91887298,2.83074559,3.93034509,232,342,475,113,175,282,0.94024823,1.44992613,2.33158928,0.16659813,0.25663993,0.38486746
28161,0,USMississippiYalobusha,Mississippi,Yalobusha,2021-04-04 08:07:14.534247,2020-07-01 00:00:00.000000,1.94922393,2.86843743,3.91894197,236,347,474,115,178,286,0.95691145,1.47760222,2.36360372,0.16832277,0.25692750,0.38921439
28161,0,USMississippiYalobusha,Mississippi,Yalobusha,2021-04-04 08:07:14.534247,2020-07-02 00:00:00.000000,1.98264094,2.89657856,3.95447883,240,350,478,117,182,289,0.96785209,1.50799188,2.39124862,0.16625011,0.26007956,0.38535206
28161,0,USMississippiYalobusha,Mississippi,Yalobusha,2021-04-04 08:07:14.534247,2020-07-03 00:00:00.000000,2.01971446,2.94596193,4.05537197,244,356,491,118,185,293,0.98075725,1.53279391,2.42519622,0.16462876,0.25720622,0.36335628
28161,0,USMississippiYalobusha,Mississippi,Yalobusha,2021-04-04 08:07:14.534247,2020-07-04 00:00:00.000000,2.06100495,2.98927966,4.16726681,249,361,504,119,188,298,0.98843270,1.55885632,2.46545894,0.16580443,0.25534055,0.35668431
28161,0,USMississippiYalobusha,Mississippi,Yalobusha,2021-04-04 08:07:14.534247,2020-07-05 00:00:00.000000,2.10683810,3.04237827,4.27814102,255,368,517,120,192,304,0.99579351,1.58930016,2.51233213,0.17041787,0.25351175,0.35532364
28161,0,USMississippiYalobusha,Mississippi,Yalobusha,2021-04-04 08:07:14.534247,2020-07-06 00:00:00.000000,2.17577855,3.09736534,4.37263231,263,375,529,122,197,310,1.00988835,1.62707126,2.56490222,0.16539741,0.25562325,0.35363207
28161,0,USMississippiYalobusha,Mississippi,Yalobusha,2021-04-04 08:07:14.534247,2020-07-07 00:00:00.000000,2.22937045,3.13837426,4.46324400,269,379,540,124,200,317,1.02939085,1.65724611,2.62137508,0.16339915,0.25581494,0.35191014
28161,0,USMississippiYalobusha,Mississippi,Yalobusha,2021-04-04 08:07:14.534247,2020-07-08 00:00:00.000000,2.25845530,3.19277805,4.54104823,273,386,549,127,204,324,1.05264023,1.68863074,2.68091703,0.16378241,0.25509644,0.34911110
28161,0,USMississippiYalobusha,Mississippi,Yalobusha,2021-04-04 08:07:14.534247,2020-07-09 00:00:00.000000,2.28853927,3.24125243,4.59514171,277,392,556,129,208,327,1.06781208,1.72573939,2.70724580,0.16473605,0.24626098,0.34459984
28161,0,USMississippiYalobusha,Mississippi,Yalobusha,2021-04-04 08:07:14.534247,2020-07-10 00:00:00.000000,2.31876896,3.31702319,4.63821571,280,401,561,130,213,329,1.08192557,1.76055326,2.71758690,0.16173635,0.24446031,0.34998764
28161,0,USMississippiYalobusha,Mississippi,Yalobusha,2021-04-04 08:07:14.534247,2020-07-11 00:00:00.000000,2.34920184,3.34985797,4.67428437,284,405,565,132,216,329,1.09627480,1.78937742,2.72235668,0.15334306,0.24595199,0.35767380
28161,0,USMississippiYalobusha,Mississippi,Yalobusha,2021-04-04 08:07:14.534247,2020-07-12 00:00:00.000000,2.37970740,3.35915930,4.65677966,288,406,563,134,219,329,1.11076262,1.81506757,2.72124586,0.14806186,0.24751087,0.35103866
28161,0,USMississippiYalobusha,Mississippi,Yalobusha,2021-04-04 08:07:14.534247,2020-07-13 00:00:00.000000,2.41137018,3.42492522,4.75140316,291,414,575,136,221,330,1.12535277,1.82811511,2.73088617,0.14424557,0.24218488,0.34841086
28161,0,USMississippiYalobusha,Mississippi,Yalobusha,2021-04-04 08:07:14.534247,2020-07-14 00:00:00.000000,2.44429063,3.45289014,4.78416349,295,418,579,138,223,334,1.14019794,1.84182299,2.76307332,0.14495009,0.23440654,0.33965355
28161,0,USMississippiYalobusha,Mississippi,Yalobusha,2021-04-04 08:07:14.534247,2020-07-15 00:00:00.000000,2.47760440,3.47545323,4.81313861,299,420,582,139,223,338,1.15542395,1.84875453,2.79197291,0.14549604,0.22756568,0.33712666
28161,0,USMississippiYalobusha,Mississippi,Yalobusha,2021-04-04 08:07:14.534247,2020-07-16 00:00:00.000000,2.51065231,3.47520927,4.83571046,303,420,585,141,224,341,1.17097004,1.85567119,2.81785814,0.14596673,0.22333086,0.32857244
28161,0,USMississippiYalobusha,Mississippi,Yalobusha,2021-04-04 08:07:14.534247,2020-07-17 00:00:00.000000,2.54298598,3.47672804,4.84797399,307,420,586,143,226,343,1.18668283,1.87399564,2.84049438,0.14579989,0.21571919,0.31007568
28161,0,USMississippiYalobusha,Mississippi,Yalobusha,2021-04-04 08:07:14.534247,2020-07-18 00:00:00.000000,2.57394954,3.48596664,4.84713296,311,422,586,145,231,346,1.20238545,1.91208350,2.85908075,0.14455584,0.21230281,0.30809054
28161,0,USMississippiYalobusha,Mississippi,Yalobusha,2021-04-04 08:07:14.534247,2020-07-19 00:00:00.000000,2.57814651,3.48040061,4.83471578,312,421,585,148,235,347,1.22488106,1.94297193,2.87258322,0.14366756,0.20237263,0.30451948
28161,0,USMississippiYalobusha,Mississippi,Yalobusha,2021-04-04 08:07:14.534247,2020-07-20 00:00:00.000000,2.57116955,3.46586247,4.80360886,311,419,581,150,235,348,1.24629093,1.94574163,2.88049887,0.14172488,0.20029281,0.28440431
28161,0,USMississippiYalobusha,Mississippi,Yalobusha,2021-04-04 08:07:14.534247,2020-07-21 00:00:00.000000,2.53883262,3.44834211,4.76623792,307,417,577,152,234,350,1.26149821,1.93846103,2.89435124,0.14141695,0.19109174,0.27786762
28161,0,USMississippiYalobusha,Mississippi,Yalobusha,2021-04-04 08:07:14.534247,2020-07-22 00:00:00.000000,2.52368374,3.43046083,4.72281445,305,415,571,153,234,352,1.27123885,1.93302405,2.91210220,0.12984544,0.18692541,0.27104321
28161,0,USMississippiYalobusha,Mississippi,Yalobusha,2021-04-04 08:07:14.534247,2020-07-23 00:00:00.000000,2.50239742,3.41394636,4.67299416,302,413,565,154,232,354,1.27520699,1.91834418,2.92941839,0.12764953,0.18300648,0.26759296
28161,0,USMississippiYalobusha,Mississippi,Yalobusha,2021-04-04 08:07:14.534247,2020-07-24 00:00:00.000000,2.47918543,3.38546666,4.61613451,300,409,558,154,230,356,1.27452232,1.90017655,2.94575014,0.11844907,0.18020050,0.26346063
28161,0,USMississippiYalobusha,Mississippi,Yalobusha,2021-04-04 08:07:14.534247,2020-07-25 00:00:00.000000,2.45505915,3.33698601,4.55232061,297,404,551,153,228,358,1.27046996,1.88548962,2.95854212,0.11568869,0.17726740,0.26018241
28161,0,USMississippiYalobusha,Mississippi,Yalobusha,2021-04-04 08:07:14.534247,2020-07-26 00:00:00.000000,2.43040968,3.29428959,4.48221299,294,398,542,153,226,359,1.26394457,1.86726756,2.96549268,0.11763803,0.16845329,0.25860502
28161,0,USMississippiYalobusha,Mississippi,Yalobusha,2021-04-04 08:07:14.534247,2020-07-27 00:00:00.000000,2.37733890,3.25551703,4.40680747,287,394,533,152,223,359,1.25556797,1.84500514,2.96741254,0.12064276,0.16384195,0.25796084
28161,0,USMississippiYalobusha,Mississippi,Yalobusha,2021-04-04 08:07:14.534247,2020-07-28 00:00:00.000000,2.29687130,3.21422496,4.32746295,278,389,523,150,220,358,1.24380057,1.82065474,2.95946062,0.12286029,0.16114352,0.25604094
28161,0,USMississippiYalobusha,Mississippi,Yalobusha,2021-04-04 08:07:14.534247,2020-07-29 00:00:00.000000,2.21631032,3.17800826,4.28205685,268,384,518,148,218,356,1.22965154,1.80486664,2.94436170,0.11926171,0.15990861,0.25378329
28161,0,USMississippiYalobusha,Mississippi,Yalobusha,2021-04-04 08:07:14.534247,2020-07-30 00:00:00.000000,2.15542574,3.14015720,4.26445115,260,380,516,146,216,354,1.20836314,1.78620127,2.92408795,0.11787792,0.16158945,0.25754276
28161,0,USMississippiYalobusha,Mississippi,Yalobusha,2021-04-04 08:07:14.534247,2020-07-31 00:00:00.000000,2.13937509,3.10181604,4.24529949,259,375,514,143,212,351,1.18693037,1.75624845,2.90003721,0.11484594,0.15842373,0.25463302
28161,0,USMississippiYalobusha,Mississippi,Yalobusha,2021-04-04 08:07:14.534247,2020-08-01 00:00:00.000000,2.12465563,3.06393011,4.22469488,257,370,511,141,209,347,1.16705343,1.72936828,2.87312108,0.11443819,0.15943257,0.25136791
28161,0,USMississippiYalobusha,Mississippi,Yalobusha,2021-04-04 08:07:14.534247,2020-08-02 00:00:00.000000,2.11017036,3.01600032,4.20658404,255,365,509,139,206,344,1.14850560,1.70667176,2.84370036,0.11566159,0.16021586,0.25498257
28161,0,USMississippiYalobusha,Mississippi,Yalobusha,2021-04-04 08:07:14.534247,2020-08-03 00:00:00.000000,2.08578539,2.96340345,4.20021614,252,358,508,137,204,340,1.13180539,1.69240776,2.81127936,0.10959954,0.16208467,0.26459409
28161,0,USMississippiYalobusha,Mississippi,Yalobusha,2021-04-04 08:07:14.534247,2020-08-04 00:00:00.000000,2.06227760,2.89444607,4.19265735,249,350,507,134,202,336,1.11065673,1.66966948,2.77597869,0.09749068,0.16334148,0.26823069
28161,0,USMississippiYalobusha,Mississippi,Yalobusha,2021-04-04 08:07:14.534247,2020-08-05 00:00:00.000000,2.03975115,2.84345997,4.18410849,246,344,506,131,200,331,1.08671388,1.65311050,2.73555918,0.09148289,0.16273313,0.26736168
28161,0,USMississippiYalobusha,Mississippi,Yalobusha,2021-04-04 08:07:14.534247,2020-08-06 00:00:00.000000,2.01858545,2.80847020,4.17380878,244,340,505,128,197,325,1.06118017,1.62994793,2.68965248,0.09075802,0.16658086,0.26354442
28161,0,USMississippiYalobusha,Mississippi,Yalobusha,2021-04-04 08:07:14.534247,2020-08-07 00:00:00.000000,1.99997794,2.77448721,4.13805719,242,335,501,125,194,319,1.03498484,1.60434339,2.63987747,0.09553090,0.16738343,0.26105538
28161,0,USMississippiYalobusha,Mississippi,Yalobusha,2021-04-04 08:07:14.534247,2020-08-08 00:00:00.000000,1.98538841,2.75616176,4.12729708,240,333,499,122,192,315,1.00891594,1.59174819,2.60629741,0.10896481,0.16874609,0.25923318
28161,0,USMississippiYalobusha,Mississippi,Yalobusha,2021-04-04 08:07:14.534247,2020-08-09 00:00:00.000000,1.96829986,2.69837378,4.10650675,238,326,497,119,188,314,0.98351079,1.55832904,2.59990322,0.11516217,0.17104395,0.25742982
28161,0,USMississippiYalobusha,Mississippi,Yalobusha,2021-04-04 08:07:14.534247,2020-08-10 00:00:00.000000,1.91048579,2.66022993,4.04649367,231,322,489,116,186,314,0.95896687,1.53641369,2.59726388,0.11728215,0.17227331,0.25501906
28161,0,USMississippiYalobusha,Mississippi,Yalobusha,2021-04-04 08:07:14.534247,2020-08-11 00:00:00.000000,1.85777318,2.63202944,3.98751455,224,318,482,115,185,314,0.95059528,1.52841612,2.59732532,0.11750518,0.17164020,0.25259014
28161,0,USMississippiYalobusha,Mississippi,Yalobusha,2021-04-04 08:07:14.534247,2020-08-12 00:00:00.000000,1.81261517,2.61777235,3.92703806,219,316,475,115,184,314,0.95325048,1.52189756,2.59956023,0.11997000,0.17217574,0.25794277
28161,0,USMississippiYalobusha,Mississippi,Yalobusha,2021-04-04 08:07:14.534247,2020-08-13 00:00:00.000000,1.81991390,2.57782614,3.86331467,220,312,467,112,182,315,0.92944102,1.50734634,2.60343893,0.12160088,0.17162493,0.25970220
28161,0,USMississippiYalobusha,Mississippi,Yalobusha,2021-04-04 08:07:14.534247,2020-08-14 00:00:00.000000,1.86641187,2.55266328,3.79562523,225,309,459,110,180,315,0.91392281,1.48808248,2.60851575,0.10763536,0.17169200,0.26854573
28161,0,USMississippiYalobusha,Mississippi,Yalobusha,2021-04-04 08:07:14.534247,2020-08-15 00:00:00.000000,1.88309566,2.52799681,3.76275244,228,306,455,110,180,316,0.90872195,1.48984037,2.61445546,0.10403120,0.17366121,0.27237238
28161,0,USMississippiYalobusha,Mississippi,Yalobusha,2021-04-04 08:07:14.534247,2020-08-16 00:00:00.000000,1.87129492,2.52621070,3.76299176,226,305,455,109,179,317,0.90285513,1.47962225,2.62109385,0.10179848,0.17284354,0.27682462
28161,0,USMississippiYalobusha,Mississippi,Yalobusha,2021-04-04 08:07:14.534247,2020-08-17 00:00:00.000000,1.84901934,2.50099084,3.75939303,223,302,455,108,177,318,0.89625238,1.46727284,2.62855307,0.10209064,0.17499763,0.28721158
28161,0,USMississippiYalobusha,Mississippi,Yalobusha,2021-04-04 08:07:14.534247,2020-08-18 00:00:00.000000,1.81906822,2.48188896,3.74923368,220,300,453,107,175,314,0.88893660,1.45178532,2.60056989,0.10286387,0.17444652,0.29151007
28161,0,USMississippiYalobusha,Mississippi,Yalobusha,2021-04-04 08:07:14.534247,2020-08-19 00:00:00.000000,1.78322012,2.47910403,3.73451868,215,300,452,106,173,309,0.88107034,1.42963947,2.56012585,0.10620671,0.17561266,0.29236152
28161,0,USMississippiYalobusha,Mississippi,Yalobusha,2021-04-04 08:07:14.534247,2020-08-20 00:00:00.000000,1.78013325,2.45792781,3.71689422,215,297,450,105,171,305,0.87279295,1.41756155,2.52275680,0.11134065,0.17630695,0.29240963
28161,0,USMississippiYalobusha,Mississippi,Yalobusha,2021-04-04 08:07:14.534247,2020-08-21 00:00:00.000000,1.76229693,2.46348837,3.69762656,213,298,447,104,169,304,0.86420239,1.40006924,2.51843191,0.11268382,0.17670868,0.29197921
28161,0,USMississippiYalobusha,Mississippi,Yalobusha,2021-04-04 08:07:14.534247,2020-08-22 00:00:00.000000,1.77224393,2.44297454,3.67772917,214,295,445,103,168,304,0.85534778,1.39024054,2.51176766,0.11490844,0.17187148,0.29067263
28161,0,USMississippiYalobusha,Mississippi,Yalobusha,2021-04-04 08:07:14.534247,2020-08-23 00:00:00.000000,1.74486558,2.41683898,3.65687857,211,292,442,104,167,303,0.86714767,1.38005393,2.50331220,0.11520610,0.16951306,0.28732027
28161,0,USMississippiYalobusha,Mississippi,Yalobusha,2021-04-04 08:07:14.534247,2020-08-24 00:00:00.000000,1.69998478,2.39952251,3.62540220,205,290,438,105,165,301,0.87148621,1.36722269,2.49364005,0.11445060,0.16507672,0.28557641
28161,0,USMississippiYalobusha,Mississippi,Yalobusha,2021-04-04 08:07:14.534247,2020-08-25 00:00:00.000000,1.64301366,2.36664489,3.60431852,198,286,436,104,164,300,0.86042245,1.35528266,2.48146383,0.11302795,0.16316558,0.26680591
28161,0,USMississippiYalobusha,Mississippi,Yalobusha,2021-04-04 08:07:14.534247,2020-08-26 00:00:00.000000,1.65461202,2.35443866,3.57857576,200,285,433,104,161,298,0.86165271,1.33644419,2.46767785,0.11253021,0.16255441,0.26923130
28161,0,USMississippiYalobusha,Mississippi,Yalobusha,2021-04-04 08:07:14.534247,2020-08-27 00:00:00.000000,1.64805072,2.31668905,3.55300670,199,280,430,104,159,296,0.86295993,1.31381506,2.45285327,0.11252161,0.16315215,0.27701997
28161,0,USMississippiYalobusha,Mississippi,Yalobusha,2021-04-04 08:07:14.534247,2020-08-28 00:00:00.000000,1.62659226,2.28311369,3.52742033,196,276,427,104,156,295,0.86398003,1.28986957,2.43727219,0.11058386,0.16421027,0.26146801
28161,0,USMississippiYalobusha,Mississippi,Yalobusha,2021-04-04 08:07:14.534247,2020-08-29 00:00:00.000000,1.62378688,2.25727617,3.50172789,196,273,423,103,153,293,0.85136838,1.26907846,2.42109266,0.10950361,0.16593737,0.26437067
28161,0,USMississippiYalobusha,Mississippi,Yalobusha,2021-04-04 08:07:14.534247,2020-08-30 00:00:00.000000,1.63579498,2.22043445,3.47589283,198,268,420,101,151,291,0.83979865,1.25085304,2.40445394,0.10900043,0.16780956,0.26500341
28161,0,USMississippiYalobusha,Mississippi,Yalobusha,2021-04-04 08:07:14.534247,2020-08-31 00:00:00.000000,1.61877263,2.20169098,3.46942026,196,266,420,100,149,289,0.82949318,1.23694755,2.38745210,0.10899212,0.16830800,0.26318554
28161,0,USMississippiYalobusha,Mississippi,Yalobusha,2021-04-04 08:07:14.534247,2020-09-01 00:00:00.000000,1.60175346,2.17896923,3.46278483,193,263,419,99,147,287,0.82334006,1.21594062,2.37415809,0.10984221,0.17031317,0.26308682
28161,0,USMississippiYalobusha,Mississippi,Yalobusha,2021-04-04 08:07:14.534247,2020-09-02 00:00:00.000000,1.57768335,2.14533863,3.43113166,191,259,415,99,145,286,0.82029964,1.19896568,2.36347934,0.11320427,0.16986734,0.26336453
28161,0,USMississippiYalobusha,Mississippi,Yalobusha,2021-04-04 08:07:14.534247,2020-09-03 00:00:00.000000,1.52786208,2.10884523,3.39956556,184,255,411,98,144,285,0.81008989,1.19022746,2.35462295,0.11616778,0.17198556,0.26377934
28161,0,USMississippiYalobusha,Mississippi,Yalobusha,2021-04-04 08:07:14.534247,2020-09-04 00:00:00.000000,1.50884364,2.08490194,3.37901684,182,252,409,96,142,284,0.79899208,1.17650281,2.34700415,0.11655403,0.17070880,0.26427468
28161,0,USMississippiYalobusha,Mississippi,Yalobusha,2021-04-04 08:07:14.534247,2020-09-05 00:00:00.000000,1.48475871,2.05046554,3.37519083,179,248,408,95,141,283,0.78875263,1.16649824,2.34018690,0.11811636,0.16930618,0.26482276
28161,0,USMississippiYalobusha,Mississippi,Yalobusha,2021-04-04 08:07:14.534247,2020-09-06 00:00:00.000000,1.45118630,2.03048892,3.37453794,175,245,408,94,140,282,0.77916736,1.15965402,2.33391250,0.12428598,0.17010198,0.26538705
28161,0,USMississippiYalobusha,Mississippi,Yalobusha,2021-04-04 08:07:14.534247,2020-09-07 00:00:00.000000,1.41883503,2.00295425,3.34734491,171,242,405,93,138,281,0.77010475,1.14216656,2.32829836,0.12964225,0.17062616,0.26968226
28161,0,USMississippiYalobusha,Mississippi,Yalobusha,2021-04-04 08:07:14.534247,2020-09-08 00:00:00.000000,1.38736543,1.98522055,3.32001643,167,240,401,91,136,281,0.75917282,1.12927778,2.32256224,0.13005978,0.17109721,0.27280938
28161,0,USMississippiYalobusha,Mississippi,Yalobusha,2021-04-04 08:07:14.534247,2020-09-09 00:00:00.000000,1.36671933,1.97388935,3.28998762,165,238,398,90,134,280,0.74737881,1.11481090,2.31827245,0.13018858,0.17619087,0.27012991
28161,0,USMississippiYalobusha,Mississippi,Yalobusha,2021-04-04 08:07:14.534247,2020-09-10 00:00:00.000000,1.35558473,1.96928040,3.25416060,164,238,394,90,133,278,0.74758681,1.10155016,2.30024662,0.13037095,0.18626674,0.27650715
28161,0,USMississippiYalobusha,Mississippi,Yalobusha,2021-04-04 08:07:14.534247,2020-09-11 00:00:00.000000,1.34825597,1.96614769,3.23762136,163,238,392,91,132,275,0.75367736,1.09215018,2.27275690,0.13067841,0.19419237,0.28130554
28161,0,USMississippiYalobusha,Mississippi,Yalobusha,2021-04-04 08:07:14.534247,2020-09-12 00:00:00.000000,1.34601771,1.95913989,3.22337149,162,237,390,90,131,271,0.74547657,1.08272639,2.24627310,0.13121283,0.19696444,0.28497606
28161,0,USMississippiYalobusha,Mississippi,Yalobusha,2021-04-04 08:07:14.534247,2020-09-13 00:00:00.000000,1.33683250,1.96843096,3.20987371,161,238,388,88,130,268,0.72914109,1.08044401,2.22075025,0.13205731,0.19771343,0.29693692
28161,0,USMississippiYalobusha,Mississippi,Yalobusha,2021-04-04 08:07:14.534247,2020-09-14 00:00:00.000000,1.32072013,1.96196311,3.18496652,159,237,385,86,130,265,0.71354930,1.07572450,2.19608863,0.13383740,0.19792766,0.30471148
28161,0,USMississippiYalobusha,Mississippi,Yalobusha,2021-04-04 08:07:14.534247,2020-09-15 00:00:00.000000,1.31079688,1.95109226,3.16081598,158,236,382,84,129,262,0.69915470,1.07012228,2.17110442,0.13396170,0.20199860,0.30963992
28161,0,USMississippiYalobusha,Mississippi,Yalobusha,2021-04-04 08:07:14.534247,2020-09-16 00:00:00.000000,1.30482584,1.93378256,3.14348167,157,234,380,83,129,259,0.68686975,1.06586744,2.14593516,0.13447687,0.20496749,0.31883675
28161,0,USMississippiYalobusha,Mississippi,Yalobusha,2021-04-04 08:07:14.534247,2020-09-17 00:00:00.000000,1.30063617,1.94637590,3.14983630,157,235,381,81,129,256,0.67640630,1.06651693,2.12056412,0.13900610,0.20676801,0.32786160
28161,0,USMississippiYalobusha,Mississippi,Yalobusha,2021-04-04 08:07:14.534247,2020-09-18 00:00:00.000000,1.29735125,1.96443296,3.15633912,157,237,382,80,129,253,0.66727568,1.07020733,2.09448213,0.13917732,0.20843723,0.33091267
28161,0,USMississippiYalobusha,Mississippi,Yalobusha,2021-04-04 08:07:14.534247,2020-09-19 00:00:00.000000,1.29476703,1.97976028,3.16511231,156,239,383,79,130,250,0.65910892,1.07515533,2.06846111,0.13938746,0.21481585,0.33682220
28161,0,USMississippiYalobusha,Mississippi,Yalobusha,2021-04-04 08:07:14.534247,2020-09-20 00:00:00.000000,1.29333167,1.98001579,3.17578231,156,239,384,79,130,247,0.65318358,1.08062957,2.04258221,0.14094055,0.21943781,0.34509005
28161,0,USMississippiYalobusha,Mississippi,Yalobusha,2021-04-04 08:07:14.534247,2020-09-21 00:00:00.000000,1.29479119,2.01286583,3.18614940,156,243,385,78,131,245,0.65128990,1.08649712,2.02373017,0.14134501,0.22752097,0.35218367
28161,0,USMississippiYalobusha,Mississippi,Yalobusha,2021-04-04 08:07:14.534247,2020-09-22 00:00:00.000000,1.29851813,2.03418141,3.19607686,157,246,386,78,132,245,0.65037272,1.09343086,2.02907303,0.14154588,0.23741693,0.35616136
28161,0,USMississippiYalobusha,Mississippi,Yalobusha,2021-04-04 08:07:14.534247,2020-09-23 00:00:00.000000,1.30171933,2.04041406,3.20545028,157,247,388,78,133,246,0.65051620,1.10125131,2.03439957,0.14176641,0.24392056,0.35718906
28161,0,USMississippiYalobusha,Mississippi,Yalobusha,2021-04-04 08:07:14.534247,2020-09-24 00:00:00.000000,1.31410759,2.06176641,3.21407344,159,249,389,78,133,246,0.65203361,1.10477431,2.03965183,0.14220141,0.25627461,0.35431425
28161,0,USMississippiYalobusha,Mississippi,Yalobusha,2021-04-04 08:07:14.534247,2020-09-25 00:00:00.000000,1.33570098,2.09907466,3.22153918,161,254,390,79,134,247,0.65537221,1.11481850,2.04479110,0.14318145,0.25997880,0.34670279
28161,0,USMississippiYalobusha,Mississippi,Yalobusha,2021-04-04 08:07:14.534247,2020-09-26 00:00:00.000000,1.35826319,2.13931292,3.22706279,164,259,390,80,136,248,0.66091079,1.12776753,2.04974177,0.14579091,0.26423348,0.36224851
28161,0,USMississippiYalobusha,Mississippi,Yalobusha,2021-04-04 08:07:14.534247,2020-09-27 00:00:00.000000,1.35325413,2.17830902,3.23503980,163,263,391,80,137,248,0.66875709,1.13499201,2.05426610,0.16000448,0.26928355,0.37519320
28161,0,USMississippiYalobusha,Mississippi,Yalobusha,2021-04-04 08:07:14.534247,2020-09-28 00:00:00.000000,1.34886161,2.20085808,3.32852396,163,266,403,82,137,249,0.67871911,1.13852565,2.05791222,0.17397486,0.28061598,0.38846571
28161,0,USMississippiYalobusha,Mississippi,Yalobusha,2021-04-04 08:07:14.534247,2020-09-29 00:00:00.000000,1.35336088,2.21365683,3.42391508,163,268,414,83,138,249,0.69039340,1.14422052,2.06084704,0.17520111,0.29138399,0.39817693
28161,0,USMississippiYalobusha,Mississippi,Yalobusha,2021-04-04 08:07:14.534247,2020-09-30 00:00:00.000000,1.41500623,2.23414910,3.52147260,171,270,426,85,140,249,0.70345275,1.15654299,2.06248543,0.19122476,0.29752805,0.40521211
28161,0,USMississippiYalobusha,Mississippi,Yalobusha,2021-04-04 08:07:14.534247,2020-10-01 00:00:00.000000,1.48836251,2.26745424,3.62144145,180,274,438,88,142,249,0.72889893,1.17659405,2.06266750,0.19450224,0.30307338,0.41253331
28161,0,USMississippiYalobusha,Mississippi,Yalobusha,2021-04-04 08:07:14.534247,2020-10-02 00:00:00.000000,1.50816592,2.28388669,3.72507139,182,276,451,89,144,249,0.73633243,1.19704783,2.06158053,0.19547451,0.31381808,0.42926816
28161,0,USMississippiYalobusha,Mississippi,Yalobusha,2021-04-04 08:07:14.534247,2020-10-03 00:00:00.000000,1.51877165,2.31471286,3.83402918,183,280,464,90,147,249,0.74839889,1.21950751,2.05880068,0.21214566,0.32251623,0.45422839
28161,0,USMississippiYalobusha,Mississippi,Yalobusha,2021-04-04 08:07:14.534247,2020-10-04 00:00:00.000000,1.53856777,2.38174047,3.94806913,186,288,478,92,150,252,0.76614099,1.23942137,2.08423559,0.22614475,0.33143295,0.47146505
28161,0,USMississippiYalobusha,Mississippi,Yalobusha,2021-04-04 08:07:14.534247,2020-10-05 00:00:00.000000,1.60365274,2.44417247,4.03940464,194,295,489,95,152,256,0.78570730,1.25901690,2.11777213,0.23438708,0.33600453,0.49290054
28161,0,USMississippiYalobusha,Mississippi,Yalobusha,2021-04-04 08:07:14.534247,2020-10-06 00:00:00.000000,1.68739299,2.51623115,4.13362014,204,304,500,97,155,260,0.80764284,1.28598617,2.15209474,0.23831837,0.34506508,0.49948782
28161,0,USMississippiYalobusha,Mississippi,Yalobusha,2021-04-04 08:07:14.534247,2020-10-07 00:00:00.000000,1.74223770,2.57648985,4.23057355,210,311,512,100,159,265,0.83143256,1.31392169,2.19140374,0.24400141,0.34770456,0.49505081
28161,0,USMississippiYalobusha,Mississippi,Yalobusha,2021-04-04 08:07:14.534247,2020-10-08 00:00:00.000000,1.77560011,2.65784040,4.32955683,214,321,524,103,163,271,0.85678383,1.34770517,2.24037586,0.24985095,0.35571724,0.48567490
28161,0,USMississippiYalobusha,Mississippi,Yalobusha,2021-04-04 08:07:14.534247,2020-10-09 00:00:00.000000,1.81594443,2.74638839,4.42982058,219,332,536,106,167,277,0.88338940,1.38114805,2.29178217,0.25103618,0.36439201,0.49315667
28161,0,USMississippiYalobusha,Mississippi,Yalobusha,2021-04-04 08:07:14.534247,2020-10-10 00:00:00.000000,1.87659100,2.88521647,4.53110035,227,349,548,110,171,283,0.91115799,1.41315560,2.34522516,0.25107852,0.37588037,0.50882269
28161,0,USMississippiYalobusha,Mississippi,Yalobusha,2021-04-04 08:07:14.534247,2020-10-11 00:00:00.000000,1.96325366,2.98235878,4.63334281,237,361,561,113,176,290,0.94032976,1.45477061,2.40044478,0.25101282,0.38235497,0.52645378
28161,0,USMississippiYalobusha,Mississippi,Yalobusha,2021-04-04 08:07:14.534247,2020-10-12 00:00:00.000000,2.05890906,3.07792459,4.73549169,249,372,573,117,181,297,0.97153030,1.50165355,2.45724766,0.25063624,0.38375377,0.50361058
28161,0,USMississippiYalobusha,Mississippi,Yalobusha,2021-04-04 08:07:14.534247,2020-10-13 00:00:00.000000,2.16502664,3.18475019,4.83734111,262,385,585,121,188,305,1.00374752,1.55272637,2.52443360,0.24968073,0.38195745,0.51685220
28161,0,USMississippiYalobusha,Mississippi,Yalobusha,2021-04-04 08:07:14.534247,2020-10-14 00:00:00.000000,2.26441903,3.27439493,4.93765128,274,396,597,125,193,314,1.03801164,1.60026023,2.59939075,0.24614491,0.38341982,0.51847189
28161,0,USMississippiYalobusha,Mississippi,Yalobusha,2021-04-04 08:07:14.534247,2020-10-15 00:00:00.000000,2.36670745,3.38839933,5.03440279,286,410,609,130,199,324,1.07451079,1.64811874,2.68023976,0.23576652,0.38347334,0.52452491
28161,0,USMississippiYalobusha,Mississippi,Yalobusha,2021-04-04 08:07:14.534247,2020-10-16 00:00:00.000000,2.45147344,3.48317847,5.12459954,296,421,620,134,206,334,1.11292384,1.70803780,2.76559509,0.23361006,0.37781677,0.53018336
28161,0,USMississippiYalobusha,Mississippi,Yalobusha,2021-04-04 08:07:14.534247,2020-10-17 00:00:00.000000,2.53770717,3.60151862,5.20505798,307,436,630,139,213,345,1.15272234,1.76219152,2.85391068,0.23308305,0.37003289,0.53162668
28161,0,USMississippiYalobusha,Mississippi,Yalobusha,2021-04-04 08:07:14.534247,2020-10-18 00:00:00.000000,2.63133956,3.72458402,5.27439570,318,450,638,144,222,356,1.19331319,1.83809212,2.94509199,0.23000121,0.36094670,0.51980886
28161,0,USMississippiYalobusha,Mississippi,Yalobusha,2021-04-04 08:07:14.534247,2020-10-19 00:00:00.000000,2.73561066,3.80339003,5.33280196,331,460,645,149,231,367,1.23410641,1.91200192,3.03910929,0.22261892,0.34600545,0.48521475
28161,0,USMississippiYalobusha,Mississippi,Yalobusha,2021-04-04 08:07:14.534247,2020-10-20 00:00:00.000000,2.84457630,3.88077198,5.40135634,344,469,653,154,236,378,1.27590322,1.95208555,3.12937588,0.21413716,0.33552952,0.47593423
28161,0,USMississippiYalobusha,Mississippi,Yalobusha,2021-04-04 08:07:14.534247,2020-10-21 00:00:00.000000,2.95207301,3.96944538,5.46651446,357,480,661,159,243,389,1.31757423,2.00845037,3.21760713,0.20140911,0.32142915,0.46145209
28161,0,USMississippiYalobusha,Mississippi,Yalobusha,2021-04-04 08:07:14.534247,2020-10-22 00:00:00.000000,3.03407845,4.01089750,5.55232507,367,485,672,164,248,400,1.35844648,2.05598283,3.30470721,0.19628922,0.31408289,0.44309530
28161,0,USMississippiYalobusha,Mississippi,Yalobusha,2021-04-04 08:07:14.534247,2020-10-23 00:00:00.000000,3.07536497,4.05900470,5.63062859,372,491,681,169,252,410,1.39801749,2.08190846,3.39085984,0.19171404,0.30434237,0.44191046
28161,0,USMississippiYalobusha,Mississippi,Yalobusha,2021-04-04 08:07:14.534247,2020-10-24 00:00:00.000000,3.10745358,4.10362910,5.70366010,376,496,690,173,255,420,1.43569771,2.11166277,3.47626600,0.19115800,0.29822900,0.44135025
28161,0,USMississippiYalobusha,Mississippi,Yalobusha,2021-04-04 08:07:14.534247,2020-10-25 00:00:00.000000,3.13693703,4.15065736,5.77431729,379,502,699,179,260,431,1.48239752,2.14852364,3.56161654,0.19103171,0.28609473,0.42573248
28161,0,USMississippiYalobusha,Mississippi,Yalobusha,2021-04-04 08:07:14.534247,2020-10-26 00:00:00.000000,3.16946414,4.20709720,5.83718612,383,509,706,183,265,441,1.51423957,2.19411056,3.64768797,0.19104795,0.28289414,0.41693392
28161,0,USMississippiYalobusha,Mississippi,Yalobusha,2021-04-04 08:07:14.534247,2020-10-27 00:00:00.000000,3.18323515,4.21472290,5.91120139,385,510,715,186,269,452,1.53623673,2.22624177,3.73400081,0.19123485,0.28410361,0.39451097
28161,0,USMississippiYalobusha,Mississippi,Yalobusha,2021-04-04 08:07:14.534247,2020-10-28 00:00:00.000000,3.19534271,4.22615551,6.04046598,386,511,731,189,272,462,1.56710016,2.24675231,3.82102767,0.18717943,0.28428441,0.39418070
28161,0,USMississippiYalobusha,Mississippi,Yalobusha,2021-04-04 08:07:14.534247,2020-10-29 00:00:00.000000,3.20995251,4.26527505,6.12740656,388,516,741,193,273,464,1.59757583,2.26119209,3.83230486,0.18642656,0.28289475,0.39190270
28161,0,USMississippiYalobusha,Mississippi,Yalobusha,2021-04-04 08:07:14.534247,2020-10-30 00:00:00.000000,3.22713065,4.25810072,6.20638846,390,515,751,196,275,457,1.61924044,2.27640781,3.78002232,0.18636907,0.28214724,0.38677992
28161,0,USMississippiYalobusha,Mississippi,Yalobusha,2021-04-04 08:07:14.534247,2020-10-31 00:00:00.000000,3.25152462,4.24199730,6.26080697,393,513,758,196,277,465,1.61897597,2.29258898,3.84815491,0.18648477,0.27852916,0.39550683
28161,0,USMississippiYalobusha,Mississippi,Yalobusha,2021-04-04 08:07:14.534247,2020-11-01 00:00:00.000000,3.26130777,4.25404580,6.27925188,394,515,760,195,279,478,1.61768480,2.30975367,3.94843773,0.18815835,0.27720773,0.40699533
28161,0,USMississippiYalobusha,Mississippi,Yalobusha,2021-04-04 08:07:14.534247,2020-11-02 00:00:00.000000,3.23937354,4.29707777,6.31678273,392,520,764,195,280,489,1.61543292,2.32006993,4.04280059,0.19387702,0.27697501,0.41766565
28161,0,USMississippiYalobusha,Mississippi,Yalobusha,2021-04-04 08:07:14.534247,2020-11-03 00:00:00.000000,3.21684902,4.32429269,6.39479314,389,523,774,195,279,500,1.61404234,2.31169060,4.12999695,0.19389853,0.28075122,0.42555762
28161,0,USMississippiYalobusha,Mississippi,Yalobusha,2021-04-04 08:07:14.534247,2020-11-04 00:00:00.000000,3.20500962,4.30882558,6.43310502,388,521,778,195,279,509,1.61340288,2.30718314,4.20656818,0.19391970,0.28292915,0.42895515
28161,0,USMississippiYalobusha,Mississippi,Yalobusha,2021-04-04 08:07:14.534247,2020-11-05 00:00:00.000000,3.21522743,4.34731314,6.44854652,389,526,780,195,282,516,1.61384122,2.33599651,4.26798762,0.19396505,0.28490453,0.42628129
28161,0,USMississippiYalobusha,Mississippi,Yalobusha,2021-04-04 08:07:14.534247,2020-11-06 00:00:00.000000,3.23456069,4.37313804,6.45587926,391,529,781,195,282,522,1.61610111,2.33428900,4.31431206,0.19410482,0.28966680,0.41799121
28161,0,USMississippiYalobusha,Mississippi,Yalobusha,2021-04-04 08:07:14.534247,2020-11-07 00:00:00.000000,3.26604704,4.37918269,6.45929619,395,530,782,196,282,525,1.62132349,2.33186700,4.33789798,0.19814117,0.29125412,0.40902770
28161,0,USMississippiYalobusha,Mississippi,Yalobusha,2021-04-04 08:07:14.534247,2020-11-08 00:00:00.000000,3.31000510,4.42098960,6.46002767,400,535,782,197,282,526,1.63090349,2.33042416,4.34690435,0.19806128,0.29336244,0.41069977
28161,0,USMississippiYalobusha,Mississippi,Yalobusha,2021-04-04 08:07:14.534247,2020-11-09 00:00:00.000000,3.34190496,4.45466195,6.46108165,404,539,782,199,282,527,1.64535044,2.33233703,4.35456515,0.20556043,0.30057647,0.41245420
28161,0,USMississippiYalobusha,Mississippi,Yalobusha,2021-04-04 08:07:14.534247,2020-11-10 00:00:00.000000,3.34231510,4.49688326,6.46046569,404,544,782,201,283,527,1.66317584,2.34452403,4.35890370,0.22134808,0.30864304,0.45447009
28161,0,USMississippiYalobusha,Mississippi,Yalobusha,2021-04-04 08:07:14.534247,2020-11-11 00:00:00.000000,3.36430955,4.54734611,6.45881418,407,550,782,203,286,528,1.68469920,2.36362906,4.36083906,0.22157760,0.31714434,0.45910631
28161,0,USMississippiYalobusha,Mississippi,Yalobusha,2021-04-04 08:07:14.534247,2020-11-12 00:00:00.000000,3.40112876,4.60746641,6.45710458,411,557,781,204,290,528,1.69221421,2.40276460,4.36099057,0.22206293,0.32104716,0.45452550
28161,0,USMississippiYalobusha,Mississippi,Yalobusha,2021-04-04 08:07:14.534247,2020-11-13 00:00:00.000000,3.37201157,4.65888778,6.45710676,408,564,781,205,293,527,1.69551635,2.42647764,4.36005107,0.21114171,0.32590614,0.46803334
28161,0,USMississippiYalobusha,Mississippi,Yalobusha,2021-04-04 08:07:14.534247,2020-11-14 00:00:00.000000,3.37620470,4.72452156,6.46185840,408,572,782,206,299,527,1.70473675,2.47351594,4.35974988,0.21449429,0.33527588,0.47265171
28161,0,USMississippiYalobusha,Mississippi,Yalobusha,2021-04-04 08:07:14.534247,2020-11-15 00:00:00.000000,3.43803607,4.78667125,6.47577919,416,579,784,208,305,528,1.72090627,2.52103948,4.36440940,0.22793999,0.33906475,0.48155130
28161,0,USMississippiYalobusha,Mississippi,Yalobusha,2021-04-04 08:07:14.534247,2020-11-16 00:00:00.000000,3.49748568,4.84250029,6.49464544,423,586,786,208,309,530,1.72145782,2.55893888,4.37819357,0.23191600,0.34297416,0.48929793
28161,0,USMississippiYalobusha,Mississippi,Yalobusha,2021-04-04 08:07:14.534247,2020-11-17 00:00:00.000000,3.55994623,4.97145223,6.58882343,431,601,797,207,313,533,1.71047462,2.58599942,4.40277485,0.23588680,0.35573862,0.47482200
28161,0,USMississippiYalobusha,Mississippi,Yalobusha,2021-04-04 08:07:14.534247,2020-11-18 00:00:00.000000,3.62357199,5.03564198,6.70245900,438,609,811,206,322,536,1.70608399,2.66073273,4.43487122,0.24231025,0.36113882,0.46990633
28161,0,USMississippiYalobusha,Mississippi,Yalobusha,2021-04-04 08:07:14.534247,2020-11-19 00:00:00.000000,3.68885491,5.11563314,6.81845742,446,619,825,206,330,541,1.70750951,2.72972754,4.47172748,0.24274003,0.36365192,0.46861966
28161,0,USMississippiYalobusha,Mississippi,Yalobusha,2021-04-04 08:07:14.534247,2020-11-20 00:00:00.000000,3.75688197,5.21974037,6.93951290,454,632,840,209,337,545,1.73212465,2.78852760,4.50557986,0.24885421,0.36580173,0.46736377
28161,0,USMississippiYalobusha,Mississippi,Yalobusha,2021-04-04 08:07:14.534247,2020-11-21 00:00:00.000000,3.75769921,5.34039502,7.06946232,454,646,855,213,345,549,1.76227581,2.85159756,4.53761905,0.25566014,0.36566298,0.47651634
28161,0,USMississippiYalobusha,Mississippi,Yalobusha,2021-04-04 08:07:14.534247,2020-11-22 00:00:00.000000,3.76551813,5.43907121,7.14096314,455,658,864,217,350,553,1.79412156,2.89626307,4.57395394,0.25535147,0.36764589,0.50236687
28161,0,USMississippiYalobusha,Mississippi,Yalobusha,2021-04-04 08:07:14.534247,2020-11-23 00:00:00.000000,3.80872483,5.53859451,7.17806565,461,670,869,221,354,558,1.82786318,2.92616045,4.61333349,0.25985810,0.36725594,0.52204061
28161,0,USMississippiYalobusha,Mississippi,Yalobusha,2021-04-04 08:07:14.534247,2020-11-24 00:00:00.000000,3.85900969,5.63731686,7.30998384,467,682,885,225,359,563,1.86449404,2.96753774,4.65537413,0.26311540,0.37531993,0.51945129
28161,0,USMississippiYalobusha,Mississippi,Yalobusha,2021-04-04 08:07:14.534247,2020-11-25 00:00:00.000000,3.91186075,5.75188558,7.45665515,473,696,902,230,364,568,1.90362726,3.00786654,4.69913341,0.26654588,0.38009362,0.52023165
28161,0,USMississippiYalobusha,Mississippi,Yalobusha,2021-04-04 08:07:14.534247,2020-11-26 00:00:00.000000,3.96592639,5.84470368,7.59988053,480,707,920,235,368,577,1.94491838,3.04676976,4.76817861,0.26761770,0.38347752,0.50854029
28161,0,USMississippiYalobusha,Mississippi,Yalobusha,2021-04-04 08:07:14.534247,2020-11-27 00:00:00.000000,4.01121086,5.93170272,7.73791315,485,718,936,240,373,588,1.98806560,3.08323032,4.85998984,0.27092085,0.39009010,0.51627298
28161,0,USMississippiYalobusha,Mississippi,Yalobusha,2021-04-04 08:07:14.534247,2020-11-28 00:00:00.000000,4.10747078,6.00714448,7.86729087,497,727,952,246,379,597,2.03278868,3.13227394,4.93159685,0.27969494,0.39060575,0.52962125
28161,0,USMississippiYalobusha,Mississippi,Yalobusha,2021-04-04 08:07:14.534247,2020-11-29 00:00:00.000000,4.14006650,6.08930135,7.98770337,501,737,967,248,386,606,2.05420496,3.19233738,5.00753419,0.27818357,0.39835953,0.53852037
28161,0,USMississippiYalobusha,Mississippi,Yalobusha,2021-04-04 08:07:14.534247,2020-11-30 00:00:00.000000,4.26515191,6.20221378,8.11050336,516,750,982,252,392,615,2.08350165,3.24022622,5.08101729,0.28310315,0.40090830,0.54303450
28161,0,USMississippiYalobusha,Mississippi,Yalobusha,2021-04-04 08:07:14.534247,2020-12-01 00:00:00.000000,4.31151260,6.30297839,8.35420008,522,763,1011,258,397,624,2.13440583,3.28471189,5.15955021,0.28290439,0.39784593,0.54477873
28161,0,USMississippiYalobusha,Mississippi,Yalobusha,2021-04-04 08:07:14.534247,2020-12-02 00:00:00.000000,4.35375764,6.42077764,8.59683592,527,777,1040,264,405,635,2.18308020,3.34563220,5.25270812,0.29644957,0.40095864,0.54465889
28161,0,USMississippiYalobusha,Mississippi,Yalobusha,2021-04-04 08:07:14.534247,2020-12-03 00:00:00.000000,4.40144171,6.56416015,8.79884507,532,794,1065,270,411,648,2.23030604,3.40210405,5.35627493,0.29726101,0.40896204,0.54267219
28161,0,USMississippiYalobusha,Mississippi,Yalobusha,2021-04-04 08:07:14.534247,2020-12-04 00:00:00.000000,4.41171990,6.66508861,8.93139973,534,807,1081,270,418,661,2.23423133,3.45376795,5.46711543,0.30932871,0.40806203,0.54727232
28161,0,USMississippiYalobusha,Mississippi,Yalobusha,2021-04-04 08:07:14.534247,2020-12-05 00:00:00.000000,4.41736241,6.77906233,9.01238708,534,820,1091,270,428,674,2.23072109,3.54305770,5.57219483,0.29924234,0.40499587,0.54883137
28161,0,USMississippiYalobusha,Mississippi,Yalobusha,2021-04-04 08:07:14.534247,2020-12-06 00:00:00.000000,4.43697028,6.89172474,9.28777041,537,834,1124,269,434,683,2.22947239,3.59130234,5.64707606,0.29716642,0.40970808,0.55853222
28161,0,USMississippiYalobusha,Mississippi,Yalobusha,2021-04-04 08:07:14.534247,2020-12-07 00:00:00.000000,4.47489490,6.94115326,9.54008254,541,840,1155,270,438,696,2.23235113,3.61964028,5.75219430,0.28960896,0.41086530,0.57639457
28161,0,USMississippiYalobusha,Mississippi,Yalobusha,2021-04-04 08:07:14.534247,2020-12-08 00:00:00.000000,4.52876216,6.99818305,9.74068575,548,847,1179,271,444,711,2.24158064,3.67219787,5.87669722,0.27903484,0.40895346,0.58811951
28161,0,USMississippiYalobusha,Mississippi,Yalobusha,2021-04-04 08:07:14.534247,2020-12-09 00:00:00.000000,4.59481331,7.06183397,9.87043363,556,855,1195,271,452,726,2.24509033,3.73597530,6.00041293,0.27137760,0.41241462,0.58404877
28161,0,USMississippiYalobusha,Mississippi,Yalobusha,2021-04-04 08:07:14.534247,2020-12-10 00:00:00.000000,4.66766555,7.11334517,9.95630718,565,861,1205,272,463,741,2.24825025,3.82639313,6.12385403,0.28540753,0.41460533,0.58650917
28161,0,USMississippiYalobusha,Mississippi,Yalobusha,2021-04-04 08:07:14.534247,2020-12-11 00:00:00.000000,4.81165545,7.17378884,10.02449355,582,868,1213,272,473,756,2.25357295,3.90815838,6.24793326,0.30782384,0.41620281,0.59132625
28161,0,USMississippiYalobusha,Mississippi,Yalobusha,2021-04-04 08:07:14.534247,2020-12-12 00:00:00.000000,4.95413836,7.26853668,10.08341749,599,880,1220,274,481,771,2.26895869,3.97477259,6.37481454,0.31267472,0.41591783,0.59098750
28161,0,USMississippiYalobusha,Mississippi,Yalobusha,2021-04-04 08:07:14.534247,2020-12-13 00:00:00.000000,5.01898160,7.41358375,10.13447463,607,897,1227,282,486,787,2.33218430,4.02035156,6.50232917,0.31853839,0.41604408,0.59653742
28161,0,USMississippiYalobusha,Mississippi,Yalobusha,2021-04-04 08:07:14.534247,2020-12-14 00:00:00.000000,5.06246403,7.55850844,10.30462181,612,915,1247,290,493,802,2.39640625,4.07284828,6.63081306,0.32847167,0.41944175,0.60139971
28161,0,USMississippiYalobusha,Mississippi,Yalobusha,2021-04-04 08:07:14.534247,2020-12-15 00:00:00.000000,5.11984892,7.67386211,10.48470000,619,929,1269,297,502,815,2.45439885,4.15378874,6.73588064,0.33675151,0.42126932,0.60513255
28161,0,USMississippiYalobusha,Mississippi,Yalobusha,2021-04-04 08:07:14.534247,2020-12-16 00:00:00.000000,5.22923639,7.75674599,10.66833079,633,939,1291,302,510,828,2.50231263,4.21516717,6.83913124,0.33526981,0.42246427,0.60736796
28161,0,USMississippiYalobusha,Mississippi,Yalobusha,2021-04-04 08:07:14.534247,2020-12-17 00:00:00.000000,5.33811820,7.79568631,10.85472768,646,943,1314,309,514,840,2.55307576,4.24543026,6.94264330,0.34271294,0.43127416,0.60755060
28161,0,USMississippiYalobusha,Mississippi,Yalobusha,2021-04-04 08:07:14.534247,2020-12-18 00:00:00.000000,5.44558662,7.86978193,11.03903951,659,952,1336,315,516,855,2.60544862,4.26851372,7.06677777,0.33290312,0.43211474,0.61061897
28161,0,USMississippiYalobusha,Mississippi,Yalobusha,2021-04-04 08:07:14.534247,2020-12-19 00:00:00.000000,5.55055817,8.01053351,11.21861498,672,969,1358,321,522,874,2.65850486,4.31259633,7.22045357,0.33306619,0.43117958,0.61750851
28161,0,USMississippiYalobusha,Mississippi,Yalobusha,2021-04-04 08:07:14.534247,2020-12-20 00:00:00.000000,5.65187088,8.14911725,11.39312151,684,986,1379,328,526,893,2.71147704,4.35000692,7.38027945,0.33333854,0.43991509,0.61711528
28161,0,USMississippiYalobusha,Mississippi,Yalobusha,2021-04-04 08:07:14.534247,2020-12-21 00:00:00.000000,5.71097914,8.23580282,11.55226995,691,997,1398,334,533,906,2.76367711,4.40433854,7.48861388,0.34159387,0.45169721,0.62355681
28161,0,USMississippiYalobusha,Mississippi,Yalobusha,2021-04-04 08:07:14.534247,2020-12-22 00:00:00.000000,5.76441329,8.29702137,11.70668510,697,1004,1417,339,538,915,2.80733524,4.44544441,7.56254172,0.35119823,0.45657281,0.61799091
28161,0,USMississippiYalobusha,Mississippi,Yalobusha,2021-04-04 08:07:14.534247,2020-12-23 00:00:00.000000,5.81153858,8.37427744,11.85875808,703,1013,1435,344,543,923,2.84446591,4.48840450,7.62846028,0.35233588,0.45730394,0.61186601
28161,0,USMississippiYalobusha,Mississippi,Yalobusha,2021-04-04 08:07:14.534247,2020-12-24 00:00:00.000000,5.89059620,8.48943371,12.00236894,713,1027,1453,347,548,930,2.87026052,4.52780640,7.68750473,0.34379970,0.45136206,0.61535151
28161,0,USMississippiYalobusha,Mississippi,Yalobusha,2021-04-04 08:07:14.534247,2020-12-25 00:00:00.000000,5.98320459,8.51485498,11.96979322,724,1030,1449,350,554,938,2.89847095,4.57728508,7.75334346,0.33230033,0.45030262,0.61633911
28161,0,USMississippiYalobusha,Mississippi,Yalobusha,2021-04-04 08:07:14.534247,2020-12-26 00:00:00.000000,6.07450513,8.53400652,11.93662799,735,1033,1445,354,560,948,2.92686640,4.62998418,7.83402004,0.34055895,0.44948676,0.61795722
28161,0,USMississippiYalobusha,Mississippi,Yalobusha,2021-04-04 08:07:14.534247,2020-12-27 00:00:00.000000,6.08515852,8.59645108,11.90166238,736,1040,1441,356,566,957,2.94573209,4.68113494,7.90698799,0.33822553,0.45177540,0.62534970
28161,0,USMississippiYalobusha,Mississippi,Yalobusha,2021-04-04 08:07:14.534247,2020-12-28 00:00:00.000000,6.08612843,8.66421168,11.91230983,736,1049,1442,358,574,965,2.96013974,4.74429516,7.97156293,0.33810084,0.45240859,0.63504759
28161,0,USMississippiYalobusha,Mississippi,Yalobusha,2021-04-04 08:07:14.534247,2020-12-29 00:00:00.000000,6.11310495,8.70206236,11.96799203,740,1053,1449,359,576,972,2.97100641,4.76312096,8.02966943,0.33918585,0.45389858,0.64008583
28161,0,USMississippiYalobusha,Mississippi,Yalobusha,2021-04-04 08:07:14.534247,2020-12-30 00:00:00.000000,6.12624802,8.75325703,12.00926333,741,1059,1454,360,579,978,2.97833818,4.78910646,8.08191366,0.33917025,0.45509694,0.63584941
28161,0,USMississippiYalobusha,Mississippi,Yalobusha,2021-04-04 08:07:14.534247,2020-12-31 00:00:00.000000,6.14852365,8.80274916,12.03974713,744,1065,1457,361,582,984,2.98228995,4.80791306,8.12795387,0.33101833,0.45335755,0.63404974
28161,0,USMississippiYalobusha,Mississippi,Yalobusha,2021-04-04 08:07:14.534247,2021-01-01 00:00:00.000000,6.17400015,8.73008522,12.05915026,747,1057,1460,361,585,988,2.98323659,4.83686023,8.16753143,0.33049142,0.44495426,0.63300752
28161,0,USMississippiYalobusha,Mississippi,Yalobusha,2021-04-04 08:07:14.534247,2021-01-02 00:00:00.000000,6.19906857,8.67708328,12.06682269,750,1050,1461,361,588,992,2.98224048,4.86079116,8.20041015,0.34114373,0.44565383,0.62742240
28161,0,USMississippiYalobusha,Mississippi,Yalobusha,2021-04-04 08:07:14.534247,2021-01-03 00:00:00.000000,6.20326199,8.64437320,12.06159588,751,1046,1460,364,590,996,3.00844725,4.87892962,8.22631569,0.33319153,0.44565729,0.62794266
28161,0,USMississippiYalobusha,Mississippi,Yalobusha,2021-04-04 08:07:14.534247,2021-01-04 00:00:00.000000,6.16498592,8.59630125,12.03070166,746,1040,1456,368,592,998,3.04395519,4.89071326,8.24488308,0.32919141,0.44541938,0.64202659
28161,0,USMississippiYalobusha,Mississippi,Yalobusha,2021-04-04 08:07:14.534247,2021-01-05 00:00:00.000000,6.12846077,8.62425377,11.98513483,742,1044,1451,372,592,999,3.07697642,4.89643177,8.25347067,0.32856989,0.44362865,0.64131390
28161,0,USMississippiYalobusha,Mississippi,Yalobusha,2021-04-04 08:07:14.534247,2021-01-06 00:00:00.000000,6.06416944,8.65364243,11.92754435,734,1047,1444,375,592,999,3.10374612,4.89627742,8.25233423,0.32846637,0.44815279,0.64312078
28161,0,USMississippiYalobusha,Mississippi,Yalobusha,2021-04-04 08:07:14.534247,2021-01-07 00:00:00.000000,5.95787984,8.63445824,11.85725422,721,1045,1435,374,593,997,3.09286048,4.90025705,8.24162158,0.32829164,0.44643197,0.64144633
28161,0,USMississippiYalobusha,Mississippi,Yalobusha,2021-04-04 08:07:14.534247,2021-01-08 00:00:00.000000,5.93287150,8.57468726,11.77103642,718,1038,1425,369,594,995,3.04911985,4.91136496,8.22129220,0.32763608,0.44968067,0.64266911
28161,0,USMississippiYalobusha,Mississippi,Yalobusha,2021-04-04 08:07:14.534247,2021-01-09 00:00:00.000000,5.93498528,8.58944256,11.66878479,718,1040,1412,363,595,991,3.00095645,4.91856276,8.19116540,0.32617381,0.45332021,0.64025874
28161,0,USMississippiYalobusha,Mississippi,Yalobusha,2021-04-04 08:07:14.534247,2021-01-10 00:00:00.000000,5.93184906,8.58715467,11.64439987,718,1039,1409,361,595,986,2.98959955,4.92038272,8.15113001,0.31534971,0.44699348,0.64625128
28161,0,USMississippiYalobusha,Mississippi,Yalobusha,2021-04-04 08:07:14.534247,2021-01-11 00:00:00.000000,5.95230784,8.49881567,11.70124308,720,1029,1416,361,592,980,2.98924933,4.89530677,8.10141671,0.32541699,0.44644849,0.64517981
28161,0,USMississippiYalobusha,Mississippi,Yalobusha,2021-04-04 08:07:14.534247,2021-01-12 00:00:00.000000,5.97071987,8.45421300,11.55306847,722,1023,1398,359,595,975,2.97134481,4.91671010,8.05436765,0.33143372,0.45324412,0.64491210
28161,0,USMississippiYalobusha,Mississippi,Yalobusha,2021-04-04 08:07:14.534247,2021-01-13 00:00:00.000000,5.92876822,8.41445304,11.72134597,717,1018,1419,354,595,969,2.92558969,4.91707958,8.00818685,0.33319817,0.45510369,0.69801899
28161,0,USMississippiYalobusha,Mississippi,Yalobusha,2021-04-04 08:07:14.534247,2021-01-14 00:00:00.000000,5.85403555,8.34769971,11.70443102,708,1010,1417,348,594,963,2.87899596,4.90788775,7.96141188,0.33376729,0.45874655,0.69132979
28161,0,USMississippiYalobusha,Mississippi,Yalobusha,2021-04-04 08:07:14.534247,2021-01-15 00:00:00.000000,5.82063170,8.30519001,11.62425561,704,1005,1407,344,588,958,2.84187392,4.86309768,7.91480929,0.33658819,0.46191452,0.64622446
28161,0,USMississippiYalobusha,Mississippi,Yalobusha,2021-04-04 08:07:14.534247,2021-01-16 00:00:00.000000,5.78418941,8.20813978,11.50784260,700,993,1393,345,583,953,2.85426139,4.81955308,7.87113095,0.33922081,0.46383886,0.64656592
28161,0,USMississippiYalobusha,Mississippi,Yalobusha,2021-04-04 08:07:14.534247,2021-01-17 00:00:00.000000,5.74434916,8.11661824,11.36200180,695,982,1375,346,580,948,2.85780449,4.79513366,7.83174286,0.34243856,0.46464126,0.65026732
28161,0,USMississippiYalobusha,Mississippi,Yalobusha,2021-04-04 08:07:14.534247,2021-01-18 00:00:00.000000,5.69282356,8.00104821,11.19624632,689,968,1355,344,578,944,2.84866302,4.77567841,7.79734894,0.33444197,0.46214895,0.66356612
28161,0,USMississippiYalobusha,Mississippi,Yalobusha,2021-04-04 08:07:14.534247,2021-01-19 00:00:00.000000,5.65504710,7.97800740,11.05707247,684,965,1338,342,577,939,2.82649879,4.77085042,7.75652013,0.32259745,0.45403443,0.69474376
28161,0,USMississippiYalobusha,Mississippi,Yalobusha,2021-04-04 08:07:14.534247,2021-01-20 00:00:00.000000,5.63300500,7.87463712,11.03631577,682,953,1336,338,569,933,2.79433983,4.70183163,7.71136183,0.32696284,0.44991035,0.72738332
28161,0,USMississippiYalobusha,Mississippi,Yalobusha,2021-04-04 08:07:14.534247,2021-01-21 00:00:00.000000,5.61460804,7.76228203,11.00346235,679,939,1332,333,559,927,2.75500269,4.62349942,7.66287198,0.32664979,0.45613182,0.74207490
28161,0,USMississippiYalobusha,Mississippi,Yalobusha,2021-04-04 08:07:14.534247,2021-01-22 00:00:00.000000,5.59429976,7.71338714,10.95905196,677,933,1326,328,549,921,2.71070475,4.54238351,7.61159584,0.32924176,0.44874592,0.74707651
28161,0,USMississippiYalobusha,Mississippi,Yalobusha,2021-04-04 08:07:14.534247,2021-01-23 00:00:00.000000,5.56613011,7.62999821,10.90354101,673,923,1320,322,542,915,2.66317205,4.47751789,7.55737153,0.31819778,0.43878176,0.75068170
28161,0,USMississippiYalobusha,Mississippi,Yalobusha,2021-04-04 08:07:14.534247,2021-01-24 00:00:00.000000,5.52525010,7.52189245,10.83703268,668,910,1312,318,535,908,2.62825082,4.42416326,7.50046542,0.31123580,0.43756848,0.71712651
28161,0,USMississippiYalobusha,Mississippi,Yalobusha,2021-04-04 08:07:14.534247,2021-01-25 00:00:00.000000,5.46169313,7.40093178,10.74631093,661,896,1301,315,528,901,2.60767845,4.36771350,7.44247160,0.31070188,0.42964888,0.70260534
28161,0,USMississippiYalobusha,Mississippi,Yalobusha,2021-04-04 08:07:14.534247,2021-01-26 00:00:00.000000,5.39688071,7.29120742,10.64281370,653,882,1288,312,522,894,2.58480971,4.31423756,7.38405558,0.30531924,0.43608024,0.68096163
28161,0,USMississippiYalobusha,Mississippi,Yalobusha,2021-04-04 08:07:14.534247,2021-01-27 00:00:00.000000,5.32833087,7.15026304,10.52177589,645,865,1273,310,513,886,2.56098134,4.24044093,7.32444602,0.28966698,0.43779664,0.66143687
28161,0,USMississippiYalobusha,Mississippi,Yalobusha,2021-04-04 08:07:14.534247,2021-01-28 00:00:00.000000,5.23848540,6.98755204,10.37523463,634,846,1256,308,503,879,2.54994338,4.15722484,7.26215503,0.28842955,0.43470677,0.66331509
28161,0,USMississippiYalobusha,Mississippi,Yalobusha,2021-04-04 08:07:14.534247,2021-01-29 00:00:00.000000,5.07869874,6.86032066,10.19629951,614,830,1234,306,496,859,2.53540783,4.09756273,7.09598426,0.28791838,0.43141804,0.66996426
28161,0,USMississippiYalobusha,Mississippi,Yalobusha,2021-04-04 08:07:14.534247,2021-01-30 00:00:00.000000,4.93023531,6.70081807,9.98336031,596,811,1208,304,487,838,2.51478858,4.02238440,6.92302394,0.28784225,0.42692570,0.68169785
28161,0,USMississippiYalobusha,Mississippi,Yalobusha,2021-04-04 08:07:14.534247,2021-01-31 00:00:00.000000,4.80401749,6.54498177,9.74732696,581,792,1180,300,473,817,2.48017876,3.90850794,6.74777381,0.28672013,0.42917635,0.69088861
28161,0,USMississippiYalobusha,Mississippi,Yalobusha,2021-04-04 08:07:14.534247,2021-02-01 00:00:00.000000,4.70264115,6.37437204,9.53021562,569,771,1153,292,461,795,2.41704037,3.80981761,6.56904278,0.26547039,0.42529596,0.70503820
28161,0,USMississippiYalobusha,Mississippi,Yalobusha,2021-04-04 08:07:14.534247,2021-02-02 00:00:00.000000,4.59518607,6.25021356,9.38431057,556,756,1136,285,451,773,2.35891500,3.72653939,6.38630557,0.25991160,0.42691840,0.72069674
28161,0,USMississippiYalobusha,Mississippi,Yalobusha,2021-04-04 08:07:14.534247,2021-02-03 00:00:00.000000,4.46609464,6.09912293,9.23549392,540,738,1118,281,442,750,2.32089900,3.65094457,6.20124460,0.26260643,0.42812584,0.73634913
28161,0,USMississippiYalobusha,Mississippi,Yalobusha,2021-04-04 08:07:14.534247,2021-02-04 00:00:00.000000,4.33858101,5.95944211,9.08419204,525,721,1099,276,430,728,2.28285075,3.55334981,6.02068390,0.27094902,0.42823998,0.75013490
28161,0,USMississippiYalobusha,Mississippi,Yalobusha,2021-04-04 08:07:14.534247,2021-02-05 00:00:00.000000,4.21301014,5.80646908,8.92639086,510,703,1080,269,418,719,2.22288873,3.45777701,5.93905848,0.25148589,0.42010241,0.75070053
28161,0,USMississippiYalobusha,Mississippi,Yalobusha,2021-04-04 08:07:14.534247,2021-02-06 00:00:00.000000,4.07675202,5.66353487,8.68236072,493,685,1051,261,408,708,2.16281323,3.37006359,5.85423722,0.23717589,0.42194419,0.73028653
28161,0,USMississippiYalobusha,Mississippi,Yalobusha,2021-04-04 08:07:14.534247,2021-02-07 00:00:00.000000,3.93996435,5.51858538,8.44875177,477,668,1022,254,398,698,2.10301398,3.29202172,5.76661807,0.24236687,0.42697281,0.72918334
28161,0,USMississippiYalobusha,Mississippi,Yalobusha,2021-04-04 08:07:14.534247,2021-02-08 00:00:00.000000,3.80405506,5.37273772,8.18637263,460,650,991,247,390,687,2.04378784,3.22465277,5.67623640,0.25711174,0.42928503,0.73463291
28161,0,USMississippiYalobusha,Mississippi,Yalobusha,2021-04-04 08:07:14.534247,2021-02-09 00:00:00.000000,3.73013985,5.20068165,7.86864637,451,629,952,240,381,675,1.98506459,3.14867726,5.58042105,0.25434079,0.43246962,0.72815126
28161,0,USMississippiYalobusha,Mississippi,Yalobusha,2021-04-04 08:07:14.534247,2021-02-10 00:00:00.000000,3.61394822,5.07204799,7.56426047,437,614,915,233,369,663,1.92750796,3.05578744,5.47941507,0.25327064,0.42852310,0.72906986
28161,0,USMississippiYalobusha,Mississippi,Yalobusha,2021-04-04 08:07:14.534247,2021-02-11 00:00:00.000000,3.49919248,4.94277962,7.29751201,423,598,883,229,359,650,1.89603299,2.97067726,5.37451404,0.25299651,0.42826866,0.73448504
28161,0,USMississippiYalobusha,Mississippi,Yalobusha,2021-04-04 08:07:14.534247,2021-02-12 00:00:00.000000,3.38501439,4.80977415,7.06130180,409,582,854,225,349,637,1.86014106,2.88482630,5.26765761,0.25310177,0.44002464,0.74369846
28161,0,USMississippiYalobusha,Mississippi,Yalobusha,2021-04-04 08:07:14.534247,2021-02-13 00:00:00.000000,3.26998302,4.68253151,6.87173542,395,566,832,219,339,624,1.81014233,2.80312962,5.16106544,0.25347419,0.44746309,0.74092532
28161,0,USMississippiYalobusha,Mississippi,Yalobusha,2021-04-04 08:07:14.534247,2021-02-14 00:00:00.000000,3.15385444,4.56086763,6.73008655,381,552,814,213,331,608,1.76350307,2.74074288,5.02671974,0.26375369,0.45993174,0.73704618
28161,0,USMississippiYalobusha,Mississippi,Yalobusha,2021-04-04 08:07:14.534247,2021-02-15 00:00:00.000000,3.04578721,4.46928473,6.65111597,368,541,805,208,325,592,1.72073509,2.68728654,4.89553823,0.27423391,0.46422220,0.78142759
28161,0,USMississippiYalobusha,Mississippi,Yalobusha,2021-04-04 08:07:14.534247,2021-02-16 00:00:00.000000,3.01421692,4.37434524,6.60931223,364,529,800,202,319,577,1.67535237,2.63471508,4.77002838,0.29139522,0.47169923,0.79964811
28161,0,USMississippiYalobusha,Mississippi,Yalobusha,2021-04-04 08:07:14.534247,2021-02-17 00:00:00.000000,2.99637781,4.29036013,6.56466429,362,519,794,197,312,562,1.62889056,2.57765569,4.64777313,0.29820923,0.48350383,0.84348609
28161,0,USMississippiYalobusha,Mississippi,Yalobusha,2021-04-04 08:07:14.534247,2021-02-18 00:00:00.000000,2.94875899,4.19586261,6.51673895,357,508,789,191,305,543,1.58306260,2.52114976,4.49158583,0.29872544,0.47905604,0.89633185
28161,0,USMississippiYalobusha,Mississippi,Yalobusha,2021-04-04 08:07:14.534247,2021-02-19 00:00:00.000000,2.89159986,4.10923520,6.46498562,350,497,782,186,300,525,1.53770202,2.47832434,4.34136971,0.29907684,0.48357141,0.95001980
28161,0,USMississippiYalobusha,Mississippi,Yalobusha,2021-04-04 08:07:14.534247,2021-02-20 00:00:00.000000,2.79094053,4.03324554,6.40905000,337,488,776,181,293,508,1.50302035,2.42159138,4.19677317,0.30505439,0.48377049,0.96164648
28161,0,USMississippiYalobusha,Mississippi,Yalobusha,2021-04-04 08:07:14.534247,2021-02-21 00:00:00.000000,2.69491727,3.94370189,6.34878029,326,477,768,177,286,491,1.46740739,2.36670828,4.05797132,0.32022599,0.49741420,0.96254311
28161,0,USMississippiYalobusha,Mississippi,Yalobusha,2021-04-04 08:07:14.534247,2021-02-22 00:00:00.000000,2.62581313,3.87955933,6.26270009,317,469,758,173,279,475,1.43513904,2.30526328,3.92983996,0.33936664,0.51783784,0.96293095
28161,0,USMississippiYalobusha,Mississippi,Yalobusha,2021-04-04 08:07:14.534247,2021-02-23 00:00:00.000000,2.56299467,3.81481528,6.17148547,310,461,747,170,273,470,1.41053873,2.25798181,3.88397088,0.33837073,0.53783954,0.96309563
28161,0,USMississippiYalobusha,Mississippi,Yalobusha,2021-04-04 08:07:14.534247,2021-02-24 00:00:00.000000,2.52982992,3.75152669,6.07535115,306,454,735,168,267,464,1.39212298,2.21301972,3.83554105,0.33707394,0.55567365,0.96240542
28161,0,USMississippiYalobusha,Mississippi,Yalobusha,2021-04-04 08:07:14.534247,2021-02-25 00:00:00.000000,2.52972002,3.69318664,5.97515789,306,447,723,166,262,458,1.37891716,2.17125394,3.78460297,0.33623555,0.56804065,0.96328590
28161,0,USMississippiYalobusha,Mississippi,Yalobusha,2021-04-04 08:07:14.534247,2021-02-26 00:00:00.000000,2.53792795,3.62519702,5.87126919,307,438,710,163,258,451,1.34925152,2.13134407,3.73122696,0.33730810,0.57631961,1.00435386
28161,0,USMississippiYalobusha,Mississippi,Yalobusha,2021-04-04 08:07:14.534247,2021-02-27 00:00:00.000000,2.53513732,3.56368842,5.76403927,306,431,697,159,253,445,1.32138580,2.09723483,3.68048413,0.33872944,0.60989752,1.05187090
28161,0,USMississippiYalobusha,Mississippi,Yalobusha,2021-04-04 08:07:14.534247,2021-02-28 00:00:00.000000,2.48902902,3.51177369,5.65373613,301,425,684,157,251,441,1.29881137,2.07617942,3.64542011,0.33681340,0.63982405,1.12777584
28161,0,USMississippiYalobusha,Mississippi,Yalobusha,2021-04-04 08:07:14.534247,2021-03-01 00:00:00.000000,2.44496525,3.47157964,5.53980579,296,420,670,155,248,437,1.28107685,2.04925890,3.61051466,0.33611858,0.64872366,1.17415558
28161,0,USMississippiYalobusha,Mississippi,Yalobusha,2021-04-04 08:07:14.534247,2021-03-02 00:00:00.000000,2.47781910,3.42531370,5.42354792,300,414,656,153,244,431,1.26553750,2.01856790,3.56607186,0.33744973,0.66744209,1.17529503
28161,0,USMississippiYalobusha,Mississippi,Yalobusha,2021-04-04 08:07:14.534247,2021-03-03 00:00:00.000000,2.43653997,3.42123251,5.30566043,295,414,642,151,239,425,1.25154431,1.98032462,3.51420543,0.34219409,0.67239274,1.21049035
28161,0,USMississippiYalobusha,Mississippi,Yalobusha,2021-04-04 08:07:14.534247,2021-03-04 00:00:00.000000,2.43015902,3.42857660,5.18675937,294,415,628,149,236,418,1.23794020,1.95328708,3.45675757,0.35476337,0.68382379,1.21571256
28161,0,USMississippiYalobusha,Mississippi,Yalobusha,2021-04-04 08:07:14.534247,2021-03-05 00:00:00.000000,2.46480459,3.41233881,5.10403549,298,413,617,148,233,411,1.22481398,1.93029514,3.39500963,0.37634143,0.69424775,1.23009993
28161,0,USMississippiYalobusha,Mississippi,Yalobusha,2021-04-04 08:07:14.534247,2021-03-06 00:00:00.000000,2.49287851,3.39209962,5.08035846,301,410,615,146,232,403,1.21334756,1.92231248,3.32968720,0.39553529,0.69524226,1.20974690
28161,0,USMississippiYalobusha,Mississippi,Yalobusha,2021-04-04 08:07:14.534247,2021-03-07 00:00:00.000000,2.44435529,3.38072534,5.06075183,295,409,612,146,232,395,1.21242757,1.91939028,3.26290699,0.40465880,0.70446173,1.21186540
28161,0,USMississippiYalobusha,Mississippi,Yalobusha,2021-04-04 08:07:14.534247,2021-03-08 00:00:00.000000,2.39045887,3.36809415,5.03167251,289,407,609,146,231,386,1.21397325,1.91312130,3.19565815,0.40728903,0.70735930,1.24524671
28161,0,USMississippiYalobusha,Mississippi,Yalobusha,2021-04-04 08:07:14.534247,2021-03-09 00:00:00.000000,2.34835811,3.35323598,5.00700973,284,406,606,147,229,379,1.21827776,1.89928482,3.13339028,0.40685946,0.72867545,1.34664410
28161,0,USMississippiYalobusha,Mississippi,Yalobusha,2021-04-04 08:07:14.534247,2021-03-10 00:00:00.000000,2.28988450,3.32310233,4.98316394,277,402,603,148,228,372,1.22467728,1.88705957,3.08008858,0.40393869,0.73496677,1.37256574
28161,0,USMississippiYalobusha,Mississippi,Yalobusha,2021-04-04 08:07:14.534247,2021-03-11 00:00:00.000000,2.23736685,3.30937810,4.91565349,270,400,595,149,227,370,1.23283702,1.87637475,3.06166715,0.39712353,0.74516211,1.38039335
28161,0,USMississippiYalobusha,Mississippi,Yalobusha,2021-04-04 08:07:14.534247,2021-03-12 00:00:00.000000,2.19081144,3.30558976,4.84901921,265,400,587,147,226,368,1.22020658,1.86858133,3.04090102,0.39531623,0.76087553,1.39090264
28161,0,USMississippiYalobusha,Mississippi,Yalobusha,2021-04-04 08:07:14.534247,2021-03-13 00:00:00.000000,2.14766407,3.26503330,4.78360669,260,395,579,146,225,365,1.20668699,1.85915051,3.01943400,0.39483840,0.76293889,1.47352147
28161,0,USMississippiYalobusha,Mississippi,Yalobusha,2021-04-04 08:07:14.534247,2021-03-14 00:00:00.000000,2.10834728,3.25808431,4.71881580,255,394,571,142,224,363,1.17476809,1.85174900,2.99865740,0.38745381,0.75978836,1.63220153
28161,0,USMississippiYalobusha,Mississippi,Yalobusha,2021-04-04 08:07:14.534247,2021-03-15 00:00:00.000000,2.08516061,3.19737119,4.69866134,252,387,568,141,223,360,1.16498362,1.84462254,2.97855849,0.38407875,0.76390284,1.62864704
28161,0,USMississippiYalobusha,Mississippi,Yalobusha,2021-04-04 08:07:14.534247,2021-03-16 00:00:00.000000,2.06495697,3.16417533,4.72125182,250,383,571,141,222,359,1.17056370,1.83718668,2.96769687,0.38142888,0.77049986,1.62577335
28161,0,USMississippiYalobusha,Mississippi,Yalobusha,2021-04-04 08:07:14.534247,2021-03-17 00:00:00.000000,2.04710804,3.14478327,4.69216118,247,380,568,141,221,358,1.16985568,1.82664114,2.96240098,0.37992656,0.77678373,1.62374663
28161,0,USMississippiYalobusha,Mississippi,Yalobusha,2021-04-04 08:07:14.534247,2021-03-18 00:00:00.000000,2.03066138,3.11698327,4.64515215,245,377,562,139,218,358,1.15227085,1.80349553,2.96021226,0.36922522,0.77233395,1.62263271
28161,0,USMississippiYalobusha,Mississippi,Yalobusha,2021-04-04 08:07:14.534247,2021-03-19 00:00:00.000000,2.01456873,3.07597687,4.59346621,243,372,556,135,215,358,1.12161491,1.77931572,2.95948614,0.35858545,0.77019249,1.62242486
28161,0,USMississippiYalobusha,Mississippi,Yalobusha,2021-04-04 08:07:14.534247,2021-03-20 00:00:00.000000,1.99730507,3.04348317,4.53440776,241,368,549,131,212,358,1.08961731,1.75725304,2.95908551,0.35087902,0.76498855,1.62308185
28161,0,USMississippiYalobusha,Mississippi,Yalobusha,2021-04-04 08:07:14.534247,2021-03-21 00:00:00.000000,1.94527261,3.00644123,4.46928730,235,364,541,127,212,355,1.05707732,1.75357285,2.93773115,0.34652116,0.74569136,1.62373595
28161,0,USMississippiYalobusha,Mississippi,Yalobusha,2021-04-04 08:07:14.534247,2021-03-22 00:00:00.000000,1.87778328,2.94445121,4.40922869,227,356,533,124,210,355,1.02455712,1.73952381,2.93564507,0.34445210,0.72558771,1.62235809
28161,0,USMississippiYalobusha,Mississippi,Yalobusha,2021-04-04 08:07:14.534247,2021-03-23 00:00:00.000000,1.83942688,2.89092090,4.34713695,222,350,526,120,210,355,0.99153419,1.74047956,2.93399536,0.34375028,0.71998392,1.61766362
28161,0,USMississippiYalobusha,Mississippi,Yalobusha,2021-04-04 08:07:14.534247,2021-03-24 00:00:00.000000,1.81727678,2.84064314,4.28393037,220,343,518,118,209,354,0.98030700,1.72622358,2.92752461,0.34005215,0.71359516,1.63544132
28161,0,USMississippiYalobusha,Mississippi,Yalobusha,2021-04-04 08:07:14.534247,2021-03-25 00:00:00.000000,1.76351035,2.80124239,4.22003511,213,339,510,117,206,352,0.97067359,1.70527041,2.91469320,0.33034007,0.72500348,1.63933904
28161,0,USMississippiYalobusha,Mississippi,Yalobusha,2021-04-04 08:07:14.534247,2021-03-26 00:00:00.000000,1.71117264,2.76933262,4.15576285,207,335,503,116,203,350,0.96192503,1.68457482,2.89286876,0.31127070,0.73251501,1.63880626
28161,0,USMississippiYalobusha,Mississippi,Yalobusha,2021-04-04 08:07:14.534247,2021-03-27 00:00:00.000000,1.66101826,2.69456712,4.09141190,201,326,495,115,199,347,0.95359808,1.65066989,2.86861794,0.29477213,0.74754498,1.63699637
28161,0,USMississippiYalobusha,Mississippi,Yalobusha,2021-04-04 08:07:14.534247,2021-03-28 00:00:00.000000,1.61340490,2.65184595,4.02738420,195,321,487,114,197,344,0.94406153,1.63325475,2.84282267,0.29303536,0.74506705,1.63183444
28161,0,USMississippiYalobusha,Mississippi,Yalobusha,2021-04-04 08:07:14.534247,2021-03-29 00:00:00.000000,1.55794933,2.61055492,3.95030972,188,316,478,111,196,341,0.91833193,1.61978455,2.81836644,0.29282084,0.76330583,1.61974544
28161,0,USMississippiYalobusha,Mississippi,Yalobusha,2021-04-04 08:07:14.534247,2021-03-30 00:00:00.000000,1.49429743,2.53970994,3.87456329,180,307,469,107,192,337,0.89103330,1.59356919,2.79043031,0.29274315,0.76374633,1.59528371
28161,0,USMississippiYalobusha,Mississippi,Yalobusha,2021-04-04 08:07:14.534247,2021-03-31 00:00:00.000000,1.41566314,2.46593744,3.80098665,171,298,460,104,188,334,0.86290150,1.55686857,2.75971837,0.29275221,0.76699450,1.60855382
28161,0,USMississippiYalobusha,Mississippi,Yalobusha,2021-04-04 08:07:14.534247,2021-04-01 00:00:00.000000,1.34021004,2.39475374,3.78361076,162,289,458,101,182,330,0.83444270,1.50343346,2.72671784,0.29283230,0.76646570,1.61420878
28161,0,USMississippiYalobusha,Mississippi,Yalobusha,2021-04-04 08:07:14.534247,2021-04-02 00:00:00.000000,1.26848052,2.35432863,3.76400925,153,285,455,97,176,325,0.80601902,1.45540254,2.69178802,0.29295387,0.76601748,1.61654956
28161,0,USMississippiYalobusha,Mississippi,Yalobusha,2021-04-04 08:07:14.534247,2021-04-03 00:00:00.000000,1.20096723,2.30788982,3.74246152,145,279,453,93,171,321,0.77548273,1.41287713,2.65521345,0.29287859,0.76552836,1.64447861
28161,0,USMississippiYalobusha,Mississippi,Yalobusha,2021-04-04 08:07:14.534247,2021-04-04 00:00:00.000000,1.13763865,2.23823350,3.71948714,137,271,450,89,166,316,0.74083364,1.37123710,2.61722613,0.29191836,0.76469073,1.66004388
28161,0,USMississippiYalobusha,Mississippi,Yalobusha,2021-04-04 08:07:14.534247,2021-04-05 00:00:00.000000,1.07816618,2.17232929,3.69561607,130,263,447,85,160,311,0.70881708,1.32923909,2.57637840,0.28913546,0.76586952,1.79620785
28161,0,USMississippiYalobusha,Mississippi,Yalobusha,2021-04-04 08:07:14.534247,2021-04-06 00:00:00.000000,1.02255375,2.11430425,3.64716698,123,255,441,82,156,305,0.67893204,1.29051002,2.52427556,0.29096515,0.76735279,1.68492103
28161,0,USMississippiYalobusha,Mississippi,Yalobusha,2021-04-04 08:07:14.534247,2021-04-07 00:00:00.000000,0.96981159,2.05725041,3.62077299,117,249,438,78,151,299,0.64677595,1.25153424,2.47068063,0.29159088,0.76670073,1.68648214
28161,0,USMississippiYalobusha,Mississippi,Yalobusha,2021-04-04 08:07:14.534247,2021-04-08 00:00:00.000000,0.93325873,2.00119878,3.58703226,112,242,434,74,148,292,0.61364591,1.22555305,2.41602017,0.29183113,0.76635602,1.68718147
28161,0,USMississippiYalobusha,Mississippi,Yalobusha,2021-04-04 08:07:14.534247,2021-04-09 00:00:00.000000,0.91171505,1.94876989,3.49560040,110,235,423,70,144,285,0.58215656,1.19577587,2.36063655,0.29190910,0.76621385,1.68749365
28161,0,USMississippiYalobusha,Mississippi,Yalobusha,2021-04-04 08:07:14.534247,2021-04-10 00:00:00.000000,0.86605882,1.90471108,3.43359130,104,230,415,66,141,279,0.55254900,1.16582926,2.30685128,0.29193502,0.76616095,1.68763281
28161,0,USMississippiYalobusha,Mississippi,Yalobusha,2021-04-04 08:07:14.534247,2021-04-11 00:00:00.000000,0.81595924,1.86115818,3.40626281,98,225,412,64,137,277,0.53220273,1.13647683,2.28962385,0.29194417,0.76614203,1.68769479
28161,0,USMississippiYalobusha,Mississippi,Yalobusha,2021-04-04 08:07:14.534247,2021-04-12 00:00:00.000000,0.76851059,1.80821953,3.37716938,93,218,408,60,133,275,0.50230361,1.10116515,2.27131687,0.29194778,0.76613535,1.68772240
28161,0,USMississippiYalobusha,Mississippi,Yalobusha,2021-04-04 08:07:14.534247,2021-04-13 00:00:00.000000,0.72363627,1.72900805,3.34627744,87,209,405,57,129,271,0.47374990,1.06622475,2.23948489,0.29194943,0.76613301,1.68773469
28161,0,USMississippiYalobusha,Mississippi,Yalobusha,2021-04-04 08:07:14.534247,2021-04-14 00:00:00.000000,0.68124262,1.65279173,3.31375284,82,200,401,54,124,265,0.44657266,1.03099083,2.19578764,0.29195033,0.76613220,1.68774017
28161,0,USMississippiYalobusha,Mississippi,Yalobusha,2021-04-04 08:07:14.534247,2021-04-15 00:00:00.000000,0.64122617,1.59414999,3.30294901,77,193,399,51,119,260,0.42204249,0.99053120,2.15191697,0.29195087,0.76613191,1.68774260
28161,0,USMississippiYalobusha,Mississippi,Yalobusha,2021-04-04 08:07:14.534247,2021-04-16 00:00:00.000000,0.60347845,1.54566020,3.31768822,73,187,401,48,115,255,0.39981944,0.95050633,2.10794344,0.29195123,0.76613181,1.68774369
