FIPS,HR_UID,nameid,province,region,analysisTime,dates,pointprevalence_025,pointprevalence_50,pointprevalence_975,pointinfections_025,pointinfections_50,pointinfections_975,pointinfectious_025,pointinfectious_50,pointinfectious_975,pointinfectiousprevalence_05,pointinfectiousprevalence_50,pointinfectiousprevalence_95,infectrate_025,infectrate_50,infectrate_975
20143,0,USKansasOttawa,Kansas,Ottawa,2021-04-04 11:36:13.569527,2020-03-09 00:00:00.000000,0.00622259,0.04726339,0.14073422,0,2,8,0,1,4,0.00338584,0.02403152,0.07632089,0.36803470,0.49580100,0.64895241
20143,0,USKansasOttawa,Kansas,Ottawa,2021-04-04 11:36:13.569527,2020-03-10 00:00:00.000000,0.00707503,0.05027178,0.15492086,0,2,8,0,1,4,0.00320172,0.02319909,0.07111072,0.36794678,0.49580100,0.64714329
20143,0,USKansasOttawa,Kansas,Ottawa,2021-04-04 11:36:13.569527,2020-03-11 00:00:00.000000,0.00790791,0.05240193,0.16792421,0,2,9,0,1,4,0.00319027,0.02237984,0.07018015,0.36781121,0.49580098,0.64441317
20143,0,USKansasOttawa,Kansas,Ottawa,2021-04-04 11:36:13.569527,2020-03-12 00:00:00.000000,0.00869862,0.05609999,0.17998130,0,3,10,0,1,4,0.00329398,0.02275028,0.07119712,0.36762112,0.49580095,0.64033034
20143,0,USKansasOttawa,Kansas,Ottawa,2021-04-04 11:36:13.569527,2020-03-13 00:00:00.000000,0.00946281,0.05900624,0.19128934,0,3,10,0,1,4,0.00348504,0.02371686,0.07345422,0.36735502,0.49580082,0.63430648
20143,0,USKansasOttawa,Kansas,Ottawa,2021-04-04 11:36:13.569527,2020-03-14 00:00:00.000000,0.01021257,0.06090666,0.20201190,0,3,11,0,1,4,0.00376804,0.02485037,0.07650166,0.36698331,0.49424767,0.63302649
20143,0,USKansasOttawa,Kansas,Ottawa,2021-04-04 11:36:13.569527,2020-03-15 00:00:00.000000,0.01095731,0.06508509,0.21228243,0,3,12,0,1,4,0.00408168,0.02613773,0.08005020,0.36637443,0.48439076,0.63296172
20143,0,USKansasOttawa,Kansas,Ottawa,2021-04-04 11:36:13.569527,2020-03-16 00:00:00.000000,0.02059665,0.09253613,0.22893799,1,5,13,0,1,4,0.00441721,0.02733375,0.08390214,0.36331458,0.47922250,0.63281143
20143,0,USKansasOttawa,Kansas,Ottawa,2021-04-04 11:36:13.569527,2020-03-17 00:00:00.000000,0.02917139,0.11726297,0.25279444,1,6,14,0,1,5,0.00752659,0.03083915,0.09054582,0.36249179,0.47369779,0.63245107
20143,0,USKansasOttawa,Kansas,Ottawa,2021-04-04 11:36:13.569527,2020-03-18 00:00:00.000000,0.03803454,0.13978972,0.27800523,2,7,15,0,2,5,0.01062995,0.03629421,0.09898408,0.33663104,0.46327938,0.63156962
20143,0,USKansasOttawa,Kansas,Ottawa,2021-04-04 11:36:13.569527,2020-03-19 00:00:00.000000,0.04705055,0.16111945,0.30190841,2,9,17,0,2,6,0.01436701,0.04589071,0.10961128,0.31358848,0.45832472,0.61658352
20143,0,USKansasOttawa,Kansas,Ottawa,2021-04-04 11:36:13.569527,2020-03-20 00:00:00.000000,0.05625858,0.18012515,0.34749438,3,10,19,1,3,6,0.01848880,0.05467399,0.12228824,0.29003584,0.43624294,0.59195465
20143,0,USKansasOttawa,Kansas,Ottawa,2021-04-04 11:36:13.569527,2020-03-21 00:00:00.000000,0.06569326,0.20258155,0.36868776,3,11,21,1,3,7,0.02286823,0.06361817,0.13571652,0.28003311,0.41108533,0.57246121
20143,0,USKansasOttawa,Kansas,Ottawa,2021-04-04 11:36:13.569527,2020-03-22 00:00:00.000000,0.07536420,0.22441949,0.42733418,4,12,24,1,4,8,0.02732103,0.07110488,0.15066290,0.26927325,0.38393921,0.55314807
20143,0,USKansasOttawa,Kansas,Ottawa,2021-04-04 11:36:13.569527,2020-03-23 00:00:00.000000,0.08730618,0.25020175,0.46336699,4,14,26,1,4,9,0.03018693,0.08002038,0.16885037,0.25427082,0.36783405,0.54107816
20143,0,USKansasOttawa,Kansas,Ottawa,2021-04-04 11:36:13.569527,2020-03-24 00:00:00.000000,0.09947103,0.27836422,0.49958256,5,15,28,1,5,11,0.03361122,0.09007210,0.19540891,0.23822913,0.35363569,0.53418196
20143,0,USKansasOttawa,Kansas,Ottawa,2021-04-04 11:36:13.569527,2020-03-25 00:00:00.000000,0.11192662,0.29930667,0.53483006,6,17,30,2,5,12,0.03741987,0.09973333,0.21901916,0.21272446,0.34718631,0.51107102
20143,0,USKansasOttawa,Kansas,Ottawa,2021-04-04 11:36:13.569527,2020-03-26 00:00:00.000000,0.12460323,0.32698531,0.56904686,7,18,32,2,6,13,0.04148606,0.11027742,0.23684121,0.19815164,0.33816466,0.50362240
20143,0,USKansasOttawa,Kansas,Ottawa,2021-04-04 11:36:13.569527,2020-03-27 00:00:00.000000,0.13739623,0.34915865,0.60241914,7,19,34,2,6,14,0.04574671,0.12174776,0.25093220,0.17651057,0.32664429,0.50250692
20143,0,USKansasOttawa,Kansas,Ottawa,2021-04-04 11:36:13.569527,2020-03-28 00:00:00.000000,0.15016585,0.37512193,0.62973708,8,21,35,2,7,15,0.05015903,0.13371838,0.27120614,0.16910765,0.31769184,0.46677216
20143,0,USKansasOttawa,Kansas,Ottawa,2021-04-04 11:36:13.569527,2020-03-29 00:00:00.000000,0.16277435,0.39616877,0.66113023,9,22,37,3,8,16,0.05469166,0.14471543,0.29090218,0.16620239,0.30646595,0.45864932
20143,0,USKansasOttawa,Kansas,Ottawa,2021-04-04 11:36:13.569527,2020-03-30 00:00:00.000000,0.17283626,0.42064963,0.69070282,9,23,39,3,8,17,0.05995365,0.15546430,0.31268079,0.16502469,0.30146740,0.42831341
20143,0,USKansasOttawa,Kansas,Ottawa,2021-04-04 11:36:13.569527,2020-03-31 00:00:00.000000,0.18266566,0.44767383,0.72700427,10,25,41,3,9,19,0.06512781,0.16583611,0.33411001,0.16447674,0.29312301,0.40825708
20143,0,USKansasOttawa,Kansas,Ottawa,2021-04-04 11:36:13.569527,2020-04-01 00:00:00.000000,0.19222533,0.47471595,0.76812148,10,27,43,4,9,20,0.07154524,0.17291025,0.35372037,0.16407257,0.28473983,0.40238018
20143,0,USKansasOttawa,Kansas,Ottawa,2021-04-04 11:36:13.569527,2020-04-02 00:00:00.000000,0.20159378,0.49835325,0.80637211,11,28,45,4,10,21,0.07712042,0.18232267,0.37218525,0.16300929,0.28156415,0.39228714
20143,0,USKansasOttawa,Kansas,Ottawa,2021-04-04 11:36:13.569527,2020-04-03 00:00:00.000000,0.21077200,0.51876049,0.84038289,12,29,47,4,11,22,0.08310274,0.19521082,0.38993025,0.15724538,0.27611662,0.37918140
20143,0,USKansasOttawa,Kansas,Ottawa,2021-04-04 11:36:13.569527,2020-04-04 00:00:00.000000,0.21954426,0.54143815,0.87495241,12,30,49,5,11,23,0.08935493,0.20328755,0.40717599,0.13694137,0.26803662,0.38214593
20143,0,USKansasOttawa,Kansas,Ottawa,2021-04-04 11:36:13.569527,2020-04-05 00:00:00.000000,0.22724584,0.56302772,0.90680711,12,32,51,5,12,24,0.09578284,0.21436771,0.42383389,0.13486649,0.25711022,0.37080195
20143,0,USKansasOttawa,Kansas,Ottawa,2021-04-04 11:36:13.569527,2020-04-06 00:00:00.000000,0.22570826,0.55586208,0.90108818,12,31,51,5,12,25,0.10233166,0.22593504,0.43964886,0.13416940,0.24966310,0.35640096
20143,0,USKansasOttawa,Kansas,Ottawa,2021-04-04 11:36:13.569527,2020-04-07 00:00:00.000000,0.22288943,0.55422037,0.89502541,12,31,51,6,13,25,0.10670363,0.23154953,0.45170815,0.11195381,0.24261269,0.35580152
20143,0,USKansasOttawa,Kansas,Ottawa,2021-04-04 11:36:13.569527,2020-04-08 00:00:00.000000,0.21921265,0.54817927,0.88829218,12,31,50,6,13,26,0.10961930,0.23283434,0.46096168,0.11219451,0.23311999,0.35548955
20143,0,USKansasOttawa,Kansas,Ottawa,2021-04-04 11:36:13.569527,2020-04-09 00:00:00.000000,0.21510626,0.54121597,0.88179941,12,30,50,6,13,26,0.11155918,0.23586166,0.46729244,0.11338101,0.22514753,0.35405225
20143,0,USKansasOttawa,Kansas,Ottawa,2021-04-04 11:36:13.569527,2020-04-10 00:00:00.000000,0.21072888,0.52864959,0.87707672,12,30,50,6,13,26,0.11187332,0.23582217,0.47013078,0.11251204,0.22410659,0.34255318
20143,0,USKansasOttawa,Kansas,Ottawa,2021-04-04 11:36:13.569527,2020-04-11 00:00:00.000000,0.20599383,0.51988701,0.87386602,11,29,49,6,13,26,0.11026335,0.23162379,0.46989733,0.11389370,0.21968315,0.33131398
20143,0,USKansasOttawa,Kansas,Ottawa,2021-04-04 11:36:13.569527,2020-04-12 00:00:00.000000,0.20056256,0.50856377,0.87229427,11,29,49,6,13,26,0.10831285,0.22820720,0.46739107,0.11452480,0.21624720,0.32571498
20143,0,USKansasOttawa,Kansas,Ottawa,2021-04-04 11:36:13.569527,2020-04-13 00:00:00.000000,0.22615644,0.52359559,0.88023277,12,29,50,6,12,26,0.10601744,0.22663018,0.46322277,0.11490956,0.21336848,0.32579946
20143,0,USKansasOttawa,Kansas,Ottawa,2021-04-04 11:36:13.569527,2020-04-14 00:00:00.000000,0.25696065,0.53394378,0.86746072,14,30,49,6,12,26,0.11008307,0.22563083,0.46061113,0.11559620,0.20922868,0.32638919
20143,0,USKansasOttawa,Kansas,Ottawa,2021-04-04 11:36:13.569527,2020-04-15 00:00:00.000000,0.29732752,0.54378647,0.90010990,16,31,51,6,13,26,0.11805904,0.22806664,0.45854077,0.11733469,0.20237027,0.32277482
20143,0,USKansasOttawa,Kansas,Ottawa,2021-04-04 11:36:13.569527,2020-04-16 00:00:00.000000,0.31714109,0.55551496,0.91185623,18,31,52,7,13,26,0.12396000,0.22923201,0.45616450,0.11838226,0.19411360,0.31489898
20143,0,USKansasOttawa,Kansas,Ottawa,2021-04-04 11:36:13.569527,2020-04-17 00:00:00.000000,0.32879080,0.57107248,0.92353924,18,32,52,7,13,25,0.13092180,0.23297460,0.45303966,0.11901734,0.19129616,0.30989484
20143,0,USKansasOttawa,Kansas,Ottawa,2021-04-04 11:36:13.569527,2020-04-18 00:00:00.000000,0.35322642,0.57942915,0.93978394,20,33,53,8,13,25,0.14060538,0.23766773,0.44913477,0.11812768,0.18727421,0.30806934
20143,0,USKansasOttawa,Kansas,Ottawa,2021-04-04 11:36:13.569527,2020-04-19 00:00:00.000000,0.37605980,0.59032663,1.01296136,21,33,57,8,13,25,0.14125243,0.24178490,0.44461308,0.11379928,0.17953080,0.30167046
20143,0,USKansasOttawa,Kansas,Ottawa,2021-04-04 11:36:13.569527,2020-04-20 00:00:00.000000,0.38600628,0.60740441,1.00909512,22,34,57,8,13,25,0.14614854,0.24437523,0.44822502,0.11496706,0.17493345,0.29151419
20143,0,USKansasOttawa,Kansas,Ottawa,2021-04-04 11:36:13.569527,2020-04-21 00:00:00.000000,0.39420032,0.62866136,1.00268417,22,35,57,8,14,26,0.15153397,0.24792280,0.46072306,0.11345181,0.17433244,0.29281927
20143,0,USKansasOttawa,Kansas,Ottawa,2021-04-04 11:36:13.569527,2020-04-22 00:00:00.000000,0.41490450,0.64277752,0.99867124,23,36,56,8,14,26,0.15727978,0.25679086,0.46881480,0.11261648,0.17258014,0.29236346
20143,0,USKansasOttawa,Kansas,Ottawa,2021-04-04 11:36:13.569527,2020-04-23 00:00:00.000000,0.40802615,0.65368728,1.01469571,23,37,57,9,15,27,0.16342960,0.26507966,0.47373723,0.11200453,0.17167031,0.28244259
20143,0,USKansasOttawa,Kansas,Ottawa,2021-04-04 11:36:13.569527,2020-04-24 00:00:00.000000,0.40683007,0.67597147,1.03011775,23,38,58,9,15,27,0.16973783,0.26795551,0.47614251,0.11146917,0.17047938,0.28835316
20143,0,USKansasOttawa,Kansas,Ottawa,2021-04-04 11:36:13.569527,2020-04-25 00:00:00.000000,0.40049677,0.68972728,1.04473983,22,39,59,10,15,27,0.17612280,0.27378404,0.47832947,0.11164908,0.16691697,0.29097549
20143,0,USKansasOttawa,Kansas,Ottawa,2021-04-04 11:36:13.569527,2020-04-26 00:00:00.000000,0.39107014,0.69861510,1.05837051,22,39,60,10,15,28,0.18252514,0.27648300,0.50288377,0.11112557,0.16557089,0.28766826
20143,0,USKansasOttawa,Kansas,Ottawa,2021-04-04 11:36:13.569527,2020-04-27 00:00:00.000000,0.36981739,0.68048624,1.04192245,21,38,59,10,15,30,0.18196611,0.27817342,0.52671282,0.10901267,0.16294145,0.28321205
20143,0,USKansasOttawa,Kansas,Ottawa,2021-04-04 11:36:13.569527,2020-04-28 00:00:00.000000,0.35306818,0.66553195,1.01427170,20,37,57,10,15,30,0.17742083,0.27410689,0.53677328,0.10196217,0.16086276,0.27344466
20143,0,USKansasOttawa,Kansas,Ottawa,2021-04-04 11:36:13.569527,2020-04-29 00:00:00.000000,0.33790890,0.64422179,0.98518411,19,36,56,9,15,30,0.17226837,0.26883578,0.53788426,0.09539916,0.15936842,0.26261649
20143,0,USKansasOttawa,Kansas,Ottawa,2021-04-04 11:36:13.569527,2020-04-30 00:00:00.000000,0.32501737,0.62051952,0.95499554,18,35,54,9,15,30,0.16589833,0.26428600,0.53298911,0.09418633,0.15910749,0.25283193
20143,0,USKansasOttawa,Kansas,Ottawa,2021-04-04 11:36:13.569527,2020-05-01 00:00:00.000000,0.30691889,0.59889719,0.92382560,17,34,52,9,14,29,0.15923418,0.25857913,0.52384470,0.09171372,0.15614870,0.25447013
20143,0,USKansasOttawa,Kansas,Ottawa,2021-04-04 11:36:13.569527,2020-05-02 00:00:00.000000,0.28552117,0.57801041,0.89172364,16,32,50,8,14,29,0.14870268,0.25338211,0.51149097,0.08847444,0.15503684,0.25588655
20143,0,USKansasOttawa,Kansas,Ottawa,2021-04-04 11:36:13.569527,2020-05-03 00:00:00.000000,0.26601240,0.55490303,0.85875125,15,31,48,7,14,28,0.13850157,0.24731794,0.49659325,0.08463054,0.15307697,0.25639451
20143,0,USKansasOttawa,Kansas,Ottawa,2021-04-04 11:36:13.569527,2020-05-04 00:00:00.000000,0.24832717,0.53755451,0.82505896,14,30,47,7,13,27,0.12876344,0.23983272,0.47967046,0.08257682,0.15212197,0.25656350
20143,0,USKansasOttawa,Kansas,Ottawa,2021-04-04 11:36:13.569527,2020-05-05 00:00:00.000000,0.23218207,0.52293453,0.79092882,13,29,45,6,13,26,0.11956530,0.23206796,0.46120981,0.08176398,0.15043924,0.25664416
20143,0,USKansasOttawa,Kansas,Ottawa,2021-04-04 11:36:13.569527,2020-05-06 00:00:00.000000,0.21735614,0.50252615,0.75673567,12,28,43,6,12,25,0.11103471,0.22473011,0.44168762,0.08114673,0.15049694,0.26469304
20143,0,USKansasOttawa,Kansas,Ottawa,2021-04-04 11:36:13.569527,2020-05-07 00:00:00.000000,0.20362438,0.48330024,0.72287031,11,27,41,5,12,24,0.10378906,0.21769013,0.42153787,0.08035234,0.14964381,0.27489279
20143,0,USKansasOttawa,Kansas,Ottawa,2021-04-04 11:36:13.569527,2020-05-08 00:00:00.000000,0.19081791,0.46483082,0.69115757,10,26,39,5,12,22,0.09707939,0.21081316,0.40111314,0.07959371,0.15246734,0.26979255
20143,0,USKansasOttawa,Kansas,Ottawa,2021-04-04 11:36:13.569527,2020-05-09 00:00:00.000000,0.17885828,0.44794769,0.67442852,10,25,38,5,11,21,0.09085151,0.20171451,0.38067043,0.08023151,0.15195406,0.26540017
20143,0,USKansasOttawa,Kansas,Ottawa,2021-04-04 11:36:13.569527,2020-05-10 00:00:00.000000,0.16767888,0.42907297,0.67004313,9,24,38,4,11,20,0.08506154,0.19375788,0.36039874,0.07475269,0.15403062,0.26200482
20143,0,USKansasOttawa,Kansas,Ottawa,2021-04-04 11:36:13.569527,2020-05-11 00:00:00.000000,0.15950667,0.41082949,0.66559470,9,23,37,4,10,19,0.07967213,0.18864334,0.34046608,0.07444858,0.15657897,0.26551565
20143,0,USKansasOttawa,Kansas,Ottawa,2021-04-04 11:36:13.569527,2020-05-12 00:00:00.000000,0.15106177,0.39350452,0.66111379,8,22,37,4,10,18,0.07467404,0.18200260,0.32788970,0.07441906,0.15873833,0.27221974
20143,0,USKansasOttawa,Kansas,Ottawa,2021-04-04 11:36:13.569527,2020-05-13 00:00:00.000000,0.14053377,0.37699183,0.63898671,8,21,36,4,10,18,0.07138194,0.17634598,0.32083566,0.07690881,0.16043102,0.27790221
20143,0,USKansasOttawa,Kansas,Ottawa,2021-04-04 11:36:13.569527,2020-05-14 00:00:00.000000,0.13077995,0.35595618,0.60697279,7,20,34,3,9,17,0.06646465,0.17129154,0.31354331,0.08041336,0.16086950,0.27952387
20143,0,USKansasOttawa,Kansas,Ottawa,2021-04-04 11:36:13.569527,2020-05-15 00:00:00.000000,0.12188045,0.33566745,0.57539674,6,19,32,3,9,17,0.06206857,0.16670333,0.30611632,0.08043110,0.16082127,0.27849310
20143,0,USKansasOttawa,Kansas,Ottawa,2021-04-04 11:36:13.569527,2020-05-16 00:00:00.000000,0.11406910,0.31905312,0.55719696,6,18,31,3,9,17,0.05868667,0.16309106,0.29866219,0.08057608,0.15896160,0.28259846
20143,0,USKansasOttawa,Kansas,Ottawa,2021-04-04 11:36:13.569527,2020-05-17 00:00:00.000000,0.10717684,0.30541036,0.54511341,6,17,31,3,9,16,0.05539496,0.15858019,0.29216619,0.08437710,0.15908586,0.28311173
20143,0,USKansasOttawa,Kansas,Ottawa,2021-04-04 11:36:13.569527,2020-05-18 00:00:00.000000,0.10087117,0.29187941,0.53322575,5,16,30,2,8,16,0.05217845,0.15216069,0.28591282,0.08691639,0.15747888,0.28389793
20143,0,USKansasOttawa,Kansas,Ottawa,2021-04-04 11:36:13.569527,2020-05-19 00:00:00.000000,0.09502083,0.28587985,0.52228390,5,16,29,2,8,15,0.04905408,0.14654712,0.27966315,0.08650297,0.15477497,0.28420070
20143,0,USKansasOttawa,Kansas,Ottawa,2021-04-04 11:36:13.569527,2020-05-20 00:00:00.000000,0.08956543,0.27758696,0.51253319,5,15,29,2,8,15,0.04604334,0.14072926,0.27343085,0.08655911,0.15376566,0.28385922
20143,0,USKansasOttawa,Kansas,Ottawa,2021-04-04 11:36:13.569527,2020-05-21 00:00:00.000000,0.08447560,0.26711198,0.50519720,4,15,28,2,7,15,0.04316390,0.13546553,0.26434246,0.08701409,0.15322399,0.28385274
20143,0,USKansasOttawa,Kansas,Ottawa,2021-04-04 11:36:13.569527,2020-05-22 00:00:00.000000,0.07977760,0.25417445,0.50103603,4,14,28,2,7,14,0.04042706,0.12958801,0.25717794,0.08777204,0.15035567,0.28357750
20143,0,USKansasOttawa,Kansas,Ottawa,2021-04-04 11:36:13.569527,2020-05-23 00:00:00.000000,0.07564319,0.24445579,0.49882697,4,13,28,2,6,14,0.03783821,0.12267893,0.25099696,0.08713055,0.14771096,0.28365636
20143,0,USKansasOttawa,Kansas,Ottawa,2021-04-04 11:36:13.569527,2020-05-24 00:00:00.000000,0.07139442,0.23697534,0.49734279,4,13,28,2,6,13,0.03539832,0.11846326,0.24495741,0.08890227,0.14101801,0.28265354
20143,0,USKansasOttawa,Kansas,Ottawa,2021-04-04 11:36:13.569527,2020-05-25 00:00:00.000000,0.06821440,0.22489920,0.49607233,3,12,28,1,6,13,0.03341916,0.11438444,0.23900460,0.08978236,0.14401843,0.28207661
20143,0,USKansasOttawa,Kansas,Ottawa,2021-04-04 11:36:13.569527,2020-05-26 00:00:00.000000,0.06546063,0.21324722,0.49479481,3,12,28,1,6,13,0.03174908,0.10965017,0.22887887,0.09015854,0.14520780,0.28148076
20143,0,USKansasOttawa,Kansas,Ottawa,2021-04-04 11:36:13.569527,2020-05-27 00:00:00.000000,0.06299733,0.20199652,0.49333338,3,11,28,1,5,12,0.03029320,0.10426755,0.21722286,0.09035096,0.14534401,0.28345080
20143,0,USKansasOttawa,Kansas,Ottawa,2021-04-04 11:36:13.569527,2020-05-28 00:00:00.000000,0.05952755,0.19120102,0.49149479,3,10,28,1,5,11,0.02911287,0.09927966,0.20597031,0.08486366,0.14735394,0.29390198
20143,0,USKansasOttawa,Kansas,Ottawa,2021-04-04 11:36:13.569527,2020-05-29 00:00:00.000000,0.05466677,0.18231272,0.48913554,3,10,27,1,5,11,0.02791937,0.09490659,0.19695008,0.08605035,0.14987242,0.28967400
20143,0,USKansasOttawa,Kansas,Ottawa,2021-04-04 11:36:13.569527,2020-05-30 00:00:00.000000,0.05011106,0.17465224,0.48626167,2,9,27,1,5,10,0.02684128,0.09139431,0.19182823,0.08610350,0.14940962,0.28506720
20143,0,USKansasOttawa,Kansas,Ottawa,2021-04-04 11:36:13.569527,2020-05-31 00:00:00.000000,0.04588214,0.16739360,0.48300703,2,9,27,1,4,10,0.02590552,0.08675281,0.18657677,0.08481178,0.14422008,0.28422053
20143,0,USKansasOttawa,Kansas,Ottawa,2021-04-04 11:36:13.569527,2020-06-01 00:00:00.000000,0.04201083,0.16066927,0.47952119,2,9,27,1,4,10,0.02504717,0.08247943,0.18125753,0.08455651,0.14410098,0.28444596
20143,0,USKansasOttawa,Kansas,Ottawa,2021-04-04 11:36:13.569527,2020-06-02 00:00:00.000000,0.03849936,0.15149054,0.47590625,2,8,27,1,4,10,0.02424780,0.07861446,0.17592395,0.08458052,0.14353300,0.28460851
20143,0,USKansasOttawa,Kansas,Ottawa,2021-04-04 11:36:13.569527,2020-06-03 00:00:00.000000,0.03535413,0.14380798,0.47221419,2,8,26,1,4,9,0.02257336,0.07494592,0.17063700,0.08938615,0.14645240,0.28466190
20143,0,USKansasOttawa,Kansas,Ottawa,2021-04-04 11:36:13.569527,2020-06-04 00:00:00.000000,0.03328496,0.13768183,0.46845916,1,7,26,1,4,9,0.02071752,0.07180955,0.16956344,0.09158817,0.14733868,0.28464668
20143,0,USKansasOttawa,Kansas,Ottawa,2021-04-04 11:36:13.569527,2020-06-05 00:00:00.000000,0.03162600,0.13264872,0.46462248,1,7,26,1,3,9,0.01903707,0.06826900,0.16889348,0.09249753,0.15060712,0.28455840
20143,0,USKansasOttawa,Kansas,Ottawa,2021-04-04 11:36:13.569527,2020-06-06 00:00:00.000000,0.03006908,0.12803461,0.46064583,1,7,26,0,3,9,0.01751926,0.06522773,0.16824309,0.09058626,0.15240665,0.28434130
20143,0,USKansasOttawa,Kansas,Ottawa,2021-04-04 11:36:13.569527,2020-06-07 00:00:00.000000,0.02860352,0.12355452,0.45641319,1,7,26,0,3,9,0.01614583,0.06237237,0.16761208,0.09222764,0.15392377,0.28127142
20143,0,USKansasOttawa,Kansas,Ottawa,2021-04-04 11:36:13.569527,2020-06-08 00:00:00.000000,0.04729013,0.15519705,0.49166646,2,8,28,0,3,9,0.01498509,0.06017192,0.16699584,0.09453283,0.15528950,0.26882639
20143,0,USKansasOttawa,Kansas,Ottawa,2021-04-04 11:36:13.569527,2020-06-09 00:00:00.000000,0.06302234,0.17723671,0.52643439,3,10,30,1,3,9,0.01874792,0.06100106,0.17236547,0.09589603,0.15687670,0.25651271
20143,0,USKansasOttawa,Kansas,Ottawa,2021-04-04 11:36:13.569527,2020-06-10 00:00:00.000000,0.08202360,0.20446980,0.56110833,4,11,32,1,3,10,0.02449351,0.06507382,0.17960027,0.09516799,0.15619853,0.24473559
20143,0,USKansasOttawa,Kansas,Ottawa,2021-04-04 11:36:13.569527,2020-06-11 00:00:00.000000,0.09695361,0.21712365,0.59613127,5,12,34,1,4,10,0.03147182,0.07306340,0.18601645,0.09367872,0.15512907,0.23345393
20143,0,USKansasOttawa,Kansas,Ottawa,2021-04-04 11:36:13.569527,2020-06-12 00:00:00.000000,0.10487483,0.23610672,0.63053216,5,13,35,2,4,11,0.03683209,0.07949643,0.19393504,0.09349404,0.15484827,0.23363108
20143,0,USKansasOttawa,Kansas,Ottawa,2021-04-04 11:36:13.569527,2020-06-13 00:00:00.000000,0.11146201,0.25779968,0.66373657,6,14,37,2,5,11,0.04262892,0.08772229,0.20861090,0.09312539,0.15216817,0.22544679
20143,0,USKansasOttawa,Kansas,Ottawa,2021-04-04 11:36:13.569527,2020-06-14 00:00:00.000000,0.11794550,0.28055902,0.69636559,6,16,39,2,5,13,0.04859047,0.09647462,0.24213069,0.09298963,0.15103459,0.22304792
20143,0,USKansasOttawa,Kansas,Ottawa,2021-04-04 11:36:13.569527,2020-06-15 00:00:00.000000,0.13319296,0.31282148,0.72086891,7,17,41,2,6,14,0.05218523,0.10569013,0.25960259,0.09195953,0.14871175,0.22188722
20143,0,USKansasOttawa,Kansas,Ottawa,2021-04-04 11:36:13.569527,2020-06-16 00:00:00.000000,0.14824286,0.33657543,0.76198526,8,19,43,3,6,15,0.05642955,0.11479235,0.28038664,0.09139533,0.15267521,0.21656942
20143,0,USKansasOttawa,Kansas,Ottawa,2021-04-04 11:36:13.569527,2020-06-17 00:00:00.000000,0.17047583,0.35633596,0.80120600,9,20,45,3,7,16,0.06168020,0.12332861,0.29439462,0.09117316,0.15362484,0.21401245
20143,0,USKansasOttawa,Kansas,Ottawa,2021-04-04 11:36:13.569527,2020-06-18 00:00:00.000000,0.19474252,0.37733414,0.83906196,11,21,47,3,7,17,0.06758742,0.13317326,0.30435646,0.08966715,0.15373137,0.21399833
20143,0,USKansasOttawa,Kansas,Ottawa,2021-04-04 11:36:13.569527,2020-06-19 00:00:00.000000,0.20411536,0.39705046,0.87577537,11,22,49,4,8,18,0.07389285,0.14617960,0.32283100,0.09160891,0.15227183,0.21611183
20143,0,USKansasOttawa,Kansas,Ottawa,2021-04-04 11:36:13.569527,2020-06-20 00:00:00.000000,0.20621605,0.42029522,0.91833121,11,23,52,4,8,19,0.08287564,0.15408126,0.34468309,0.08857741,0.15288281,0.21939625
20143,0,USKansasOttawa,Kansas,Ottawa,2021-04-04 11:36:13.569527,2020-06-21 00:00:00.000000,0.21400642,0.43664722,0.98580052,12,24,56,5,9,21,0.09340128,0.16466428,0.37007983,0.08782073,0.14932424,0.22160323
20143,0,USKansasOttawa,Kansas,Ottawa,2021-04-04 11:36:13.569527,2020-06-22 00:00:00.000000,0.23523368,0.47799828,1.03703840,13,27,59,5,9,22,0.09446623,0.16842201,0.40019007,0.08778699,0.14834032,0.22180154
20143,0,USKansasOttawa,Kansas,Ottawa,2021-04-04 11:36:13.569527,2020-06-23 00:00:00.000000,0.24764819,0.50307542,1.08458361,14,28,61,5,10,24,0.10210814,0.17714120,0.42872719,0.08703588,0.14938980,0.21954999
20143,0,USKansasOttawa,Kansas,Ottawa,2021-04-04 11:36:13.569527,2020-06-24 00:00:00.000000,0.25823097,0.53828283,1.11147318,14,30,63,6,10,26,0.11253210,0.18584354,0.45592468,0.08700523,0.14925747,0.23234151
20143,0,USKansasOttawa,Kansas,Ottawa,2021-04-04 11:36:13.569527,2020-06-25 00:00:00.000000,0.26704704,0.56015096,1.12252475,15,31,64,6,11,27,0.11378858,0.20059280,0.48197172,0.08698871,0.14891078,0.25543662
20143,0,USKansasOttawa,Kansas,Ottawa,2021-04-04 11:36:13.569527,2020-06-26 00:00:00.000000,0.27956216,0.58771679,1.13596821,15,33,64,6,12,29,0.11707387,0.21785516,0.50844382,0.08688139,0.14953860,0.25719975
20143,0,USKansasOttawa,Kansas,Ottawa,2021-04-04 11:36:13.569527,2020-06-27 00:00:00.000000,0.29274577,0.59946992,1.17170097,16,34,66,7,13,30,0.12802052,0.23470323,0.54302700,0.08655954,0.15032056,0.24849503
20143,0,USKansasOttawa,Kansas,Ottawa,2021-04-04 11:36:13.569527,2020-06-28 00:00:00.000000,0.29078657,0.62572462,1.22724714,16,35,70,7,13,32,0.13074941,0.24417743,0.57669520,0.08694278,0.14633161,0.23963140
20143,0,USKansasOttawa,Kansas,Ottawa,2021-04-04 11:36:13.569527,2020-06-29 00:00:00.000000,0.32777922,0.65962988,1.25552544,18,37,71,7,14,34,0.13035079,0.25941043,0.60934647,0.08699919,0.14764021,0.24065003
20143,0,USKansasOttawa,Kansas,Ottawa,2021-04-04 11:36:13.569527,2020-06-30 00:00:00.000000,0.40189454,0.68418754,1.28261412,22,39,73,7,15,35,0.13895771,0.27128478,0.62575327,0.08699678,0.14563518,0.24107774
20143,0,USKansasOttawa,Kansas,Ottawa,2021-04-04 11:36:13.569527,2020-07-01 00:00:00.000000,0.40376405,0.71358908,1.30577198,23,40,74,8,15,36,0.15138096,0.27656088,0.63132403,0.08700437,0.14462494,0.24113000
20143,0,USKansasOttawa,Kansas,Ottawa,2021-04-04 11:36:13.569527,2020-07-02 00:00:00.000000,0.42279136,0.72978140,1.30493771,24,41,74,9,16,35,0.17055216,0.28538225,0.62975355,0.08716963,0.14661701,0.24081641
20143,0,USKansasOttawa,Kansas,Ottawa,2021-04-04 11:36:13.569527,2020-07-03 00:00:00.000000,0.46503247,0.73801219,1.30300936,26,42,74,10,17,35,0.18977228,0.29821820,0.62715379,0.08988848,0.14411860,0.24046715
20143,0,USKansasOttawa,Kansas,Ottawa,2021-04-04 11:36:13.569527,2020-07-04 00:00:00.000000,0.48045806,0.77617357,1.34971783,27,44,76,11,18,36,0.21012906,0.31567695,0.63421671,0.09775473,0.14234868,0.24002211
20143,0,USKansasOttawa,Kansas,Ottawa,2021-04-04 11:36:13.569527,2020-07-05 00:00:00.000000,0.47168907,0.78002720,1.36882944,26,44,78,12,18,36,0.21316918,0.32607617,0.63992643,0.09552805,0.14219782,0.23799989
20143,0,USKansasOttawa,Kansas,Ottawa,2021-04-04 11:36:13.569527,2020-07-06 00:00:00.000000,0.48785398,0.80973209,1.38425638,27,46,78,12,19,36,0.21488872,0.33702477,0.64383211,0.09370104,0.14028652,0.22959866
20143,0,USKansasOttawa,Kansas,Ottawa,2021-04-04 11:36:13.569527,2020-07-07 00:00:00.000000,0.50392760,0.83639734,1.39922654,28,47,79,12,20,37,0.21832924,0.35072145,0.65101976,0.09230730,0.14054643,0.21869549
20143,0,USKansasOttawa,Kansas,Ottawa,2021-04-04 11:36:13.569527,2020-07-08 00:00:00.000000,0.51217918,0.84172132,1.41405838,29,48,80,12,20,38,0.22306765,0.35988444,0.66750965,0.09131740,0.13886395,0.22106839
20143,0,USKansasOttawa,Kansas,Ottawa,2021-04-04 11:36:13.569527,2020-07-09 00:00:00.000000,0.50881368,0.84643657,1.46989187,29,48,83,12,20,39,0.22603158,0.36410706,0.68531300,0.09072275,0.13808367,0.22159152
20143,0,USKansasOttawa,Kansas,Ottawa,2021-04-04 11:36:13.569527,2020-07-10 00:00:00.000000,0.51558316,0.83404224,1.52242839,29,47,86,12,21,39,0.22307523,0.37128664,0.69856766,0.09072428,0.13719946,0.22247131
20143,0,USKansasOttawa,Kansas,Ottawa,2021-04-04 11:36:13.569527,2020-07-11 00:00:00.000000,0.51060503,0.84571559,1.53106889,29,48,87,12,21,40,0.21979914,0.37201236,0.70721233,0.09186231,0.13999409,0.22100114
20143,0,USKansasOttawa,Kansas,Ottawa,2021-04-04 11:36:13.569527,2020-07-12 00:00:00.000000,0.50887822,0.85239781,1.53831904,29,48,87,12,21,40,0.21636288,0.37521221,0.71375112,0.09358398,0.13792117,0.22022357
20143,0,USKansasOttawa,Kansas,Ottawa,2021-04-04 11:36:13.569527,2020-07-13 00:00:00.000000,0.50815602,0.83865702,1.52744828,28,47,87,12,21,41,0.21287276,0.37545119,0.72259698,0.09525992,0.13787113,0.21857427
20143,0,USKansasOttawa,Kansas,Ottawa,2021-04-04 11:36:13.569527,2020-07-14 00:00:00.000000,0.51192191,0.83112350,1.51551783,29,47,86,12,21,41,0.21625033,0.37478378,0.72777952,0.09454497,0.13787231,0.21640058
20143,0,USKansasOttawa,Kansas,Ottawa,2021-04-04 11:36:13.569527,2020-07-15 00:00:00.000000,0.49336006,0.82346181,1.50454128,28,46,85,13,21,41,0.23119672,0.37655471,0.73508994,0.09473814,0.13906891,0.21390424
20143,0,USKansasOttawa,Kansas,Ottawa,2021-04-04 11:36:13.569527,2020-07-16 00:00:00.000000,0.49201221,0.81967516,1.51250531,28,46,86,12,21,42,0.22618391,0.37696160,0.74245414,0.09550160,0.14008232,0.21159530
20143,0,USKansasOttawa,Kansas,Ottawa,2021-04-04 11:36:13.569527,2020-07-17 00:00:00.000000,0.47874076,0.81341615,1.50124118,27,46,85,12,21,42,0.21788872,0.37455991,0.74979757,0.09799305,0.14016353,0.20808374
20143,0,USKansasOttawa,Kansas,Ottawa,2021-04-04 11:36:13.569527,2020-07-18 00:00:00.000000,0.46687904,0.79449627,1.50835520,26,45,86,12,20,43,0.21752256,0.36556798,0.75701322,0.10035016,0.13870298,0.20006879
20143,0,USKansasOttawa,Kansas,Ottawa,2021-04-04 11:36:13.569527,2020-07-19 00:00:00.000000,0.45657483,0.80141730,1.51361305,26,45,86,12,20,43,0.21788457,0.36187555,0.76388402,0.09915505,0.13759679,0.19326832
20143,0,USKansasOttawa,Kansas,Ottawa,2021-04-04 11:36:13.569527,2020-07-20 00:00:00.000000,0.43771371,0.79325124,1.50383661,24,45,85,12,20,43,0.21341686,0.35520730,0.77017072,0.09721354,0.13547566,0.19301782
20143,0,USKansasOttawa,Kansas,Ottawa,2021-04-04 11:36:13.569527,2020-07-21 00:00:00.000000,0.44258952,0.79473759,1.49361160,25,45,85,12,19,44,0.21069146,0.34879423,0.77266136,0.09349998,0.13864390,0.19279678
20143,0,USKansasOttawa,Kansas,Ottawa,2021-04-04 11:36:13.569527,2020-07-22 00:00:00.000000,0.45914568,0.79214742,1.48283025,26,45,84,11,19,44,0.20927928,0.34682934,0.77228232,0.09647668,0.14079530,0.19757921
20143,0,USKansasOttawa,Kansas,Ottawa,2021-04-04 11:36:13.569527,2020-07-23 00:00:00.000000,0.47708951,0.78850273,1.47047325,27,44,83,11,19,43,0.20897068,0.34650106,0.76976058,0.09446856,0.14412643,0.20748972
20143,0,USKansasOttawa,Kansas,Ottawa,2021-04-04 11:36:13.569527,2020-07-24 00:00:00.000000,0.46382432,0.78723770,1.45232901,26,44,82,11,19,43,0.20969273,0.34601253,0.76548490,0.09060164,0.14534584,0.21181741
20143,0,USKansasOttawa,Kansas,Ottawa,2021-04-04 11:36:13.569527,2020-07-25 00:00:00.000000,0.45304696,0.78901073,1.45204957,25,45,82,12,19,43,0.21121087,0.34828981,0.75885608,0.08751151,0.14571952,0.21894312
20143,0,USKansasOttawa,Kansas,Ottawa,2021-04-04 11:36:13.569527,2020-07-26 00:00:00.000000,0.44706091,0.80043887,1.44671113,25,45,82,12,20,42,0.21330115,0.35187942,0.75009567,0.08686675,0.14479479,0.21916969
20143,0,USKansasOttawa,Kansas,Ottawa,2021-04-04 11:36:13.569527,2020-07-27 00:00:00.000000,0.44211252,0.80600350,1.44504282,25,45,82,11,20,42,0.20788788,0.35825550,0.73981059,0.08683388,0.14599958,0.22033323
20143,0,USKansasOttawa,Kansas,Ottawa,2021-04-04 11:36:13.569527,2020-07-28 00:00:00.000000,0.43573786,0.81354941,1.43881475,24,46,82,11,20,41,0.20935264,0.35826055,0.72728357,0.08679724,0.14507829,0.22148212
20143,0,USKansasOttawa,Kansas,Ottawa,2021-04-04 11:36:13.569527,2020-07-29 00:00:00.000000,0.42861936,0.80518872,1.43225762,24,45,81,11,20,40,0.20865261,0.35651045,0.71321489,0.08669400,0.14739846,0.22382552
20143,0,USKansasOttawa,Kansas,Ottawa,2021-04-04 11:36:13.569527,2020-07-30 00:00:00.000000,0.42113711,0.80073911,1.42564942,24,45,81,12,20,39,0.21209038,0.35191428,0.69813631,0.08641004,0.14989415,0.22411563
20143,0,USKansasOttawa,Kansas,Ottawa,2021-04-04 11:36:13.569527,2020-07-31 00:00:00.000000,0.41365156,0.80480766,1.50740540,23,45,85,12,20,38,0.21653935,0.36065838,0.68244274,0.08572471,0.15229162,0.22042047
20143,0,USKansasOttawa,Kansas,Ottawa,2021-04-04 11:36:13.569527,2020-08-01 00:00:00.000000,0.41697697,0.80399373,1.60556134,23,45,91,12,20,38,0.21724453,0.36373745,0.66641170,0.08448924,0.15374378,0.22048335
20143,0,USKansasOttawa,Kansas,Ottawa,2021-04-04 11:36:13.569527,2020-08-02 00:00:00.000000,0.42974421,0.80929148,1.63025315,24,46,92,12,20,37,0.21294950,0.36123653,0.65016188,0.08317287,0.16199481,0.22072325
20143,0,USKansasOttawa,Kansas,Ottawa,2021-04-04 11:36:13.569527,2020-08-03 00:00:00.000000,0.44705725,0.80719723,1.63045997,25,46,93,11,20,37,0.20532285,0.35826436,0.64923894,0.08471385,0.16501520,0.22227650
20143,0,USKansasOttawa,Kansas,Ottawa,2021-04-04 11:36:13.569527,2020-08-04 00:00:00.000000,0.46380737,0.82852625,1.62985012,26,47,92,11,20,36,0.19881660,0.35768829,0.64403910,0.08452865,0.16707390,0.22326994
20143,0,USKansasOttawa,Kansas,Ottawa,2021-04-04 11:36:13.569527,2020-08-05 00:00:00.000000,0.48005987,0.83897247,1.62599664,27,47,92,11,20,35,0.19516500,0.36022433,0.62647208,0.08702261,0.16636987,0.22493160
20143,0,USKansasOttawa,Kansas,Ottawa,2021-04-04 11:36:13.569527,2020-08-06 00:00:00.000000,0.47208384,0.84825050,1.62148251,26,48,92,11,20,35,0.19352206,0.36301576,0.61513107,0.09756991,0.16793861,0.22922893
20143,0,USKansasOttawa,Kansas,Ottawa,2021-04-04 11:36:13.569527,2020-08-07 00:00:00.000000,0.45347652,0.85670273,1.61629269,25,48,92,11,21,34,0.19409475,0.36834849,0.60671154,0.09653971,0.17089295,0.23513020
20143,0,USKansasOttawa,Kansas,Ottawa,2021-04-04 11:36:13.569527,2020-08-08 00:00:00.000000,0.43601656,0.85824780,1.60999239,24,48,91,11,21,33,0.19470115,0.37346731,0.59359307,0.09491535,0.17206624,0.23673770
20143,0,USKansasOttawa,Kansas,Ottawa,2021-04-04 11:36:13.569527,2020-08-09 00:00:00.000000,0.41973736,0.86294136,1.60758463,23,49,91,11,21,33,0.19542069,0.38009890,0.58130120,0.09785652,0.17451013,0.23697819
20143,0,USKansasOttawa,Kansas,Ottawa,2021-04-04 11:36:13.569527,2020-08-10 00:00:00.000000,0.43297013,0.87728492,1.60882769,24,50,91,11,21,32,0.19658188,0.38459099,0.56974319,0.09825193,0.17389230,0.25051789
20143,0,USKansasOttawa,Kansas,Ottawa,2021-04-04 11:36:13.569527,2020-08-11 00:00:00.000000,0.44778125,0.88324525,1.61003241,25,50,91,11,22,32,0.19830122,0.38791087,0.57523882,0.09993270,0.18705384,0.26970213
20143,0,USKansasOttawa,Kansas,Ottawa,2021-04-04 11:36:13.569527,2020-08-12 00:00:00.000000,0.45220399,0.88707969,1.61154156,25,50,91,11,22,33,0.20057072,0.39160162,0.59066235,0.10262930,0.18859366,0.29834804
20143,0,USKansasOttawa,Kansas,Ottawa,2021-04-04 11:36:13.569527,2020-08-13 00:00:00.000000,0.46414197,0.90533667,1.61336181,26,51,92,11,22,34,0.20233212,0.39195925,0.60581924,0.10279221,0.18701371,0.31086688
20143,0,USKansasOttawa,Kansas,Ottawa,2021-04-04 11:36:13.569527,2020-08-14 00:00:00.000000,0.44929819,0.90137592,1.61553182,25,51,92,11,22,35,0.20426142,0.39230368,0.62067716,0.10285253,0.18701985,0.34419172
20143,0,USKansasOttawa,Kansas,Ottawa,2021-04-04 11:36:13.569527,2020-08-15 00:00:00.000000,0.44539723,0.90489078,1.61812246,25,51,92,11,22,36,0.20293772,0.39327405,0.63454705,0.10285978,0.19511411,0.37147096
20143,0,USKansasOttawa,Kansas,Ottawa,2021-04-04 11:36:13.569527,2020-08-16 00:00:00.000000,0.43354600,0.91527206,1.62124548,24,52,92,11,22,37,0.20202356,0.39121726,0.64884545,0.10284997,0.20755272,0.37197724
20143,0,USKansasOttawa,Kansas,Ottawa,2021-04-04 11:36:13.569527,2020-08-17 00:00:00.000000,0.44986982,0.91792001,1.62244802,25,52,92,11,22,37,0.20133332,0.39144991,0.66478006,0.10378063,0.20939326,0.37902085
20143,0,USKansasOttawa,Kansas,Ottawa,2021-04-04 11:36:13.569527,2020-08-18 00:00:00.000000,0.45661960,0.93241851,1.62406107,26,53,92,11,22,38,0.19867975,0.39512345,0.68132136,0.10542590,0.21449889,0.38172880
20143,0,USKansasOttawa,Kansas,Ottawa,2021-04-04 11:36:13.569527,2020-08-19 00:00:00.000000,0.46173001,0.94501532,1.62610295,26,53,92,11,22,39,0.19546985,0.39820326,0.69016810,0.10546664,0.21628858,0.38313296
20143,0,USKansasOttawa,Kansas,Ottawa,2021-04-04 11:36:13.569527,2020-08-20 00:00:00.000000,0.44843894,0.96211894,1.62904053,25,54,92,11,22,39,0.19363575,0.40089469,0.69343242,0.11021723,0.21907204,0.36623694
20143,0,USKansasOttawa,Kansas,Ottawa,2021-04-04 11:36:13.569527,2020-08-21 00:00:00.000000,0.43660331,0.97859025,1.63471388,24,55,93,11,23,39,0.19689938,0.40497109,0.69257048,0.11921502,0.22255945,0.36693097
20143,0,USKansasOttawa,Kansas,Ottawa,2021-04-04 11:36:13.569527,2020-08-22 00:00:00.000000,0.42621865,0.98747790,1.64775718,24,56,93,11,23,39,0.20037792,0.41259575,0.68865362,0.12163206,0.23054422,0.37159821
20143,0,USKansasOttawa,Kansas,Ottawa,2021-04-04 11:36:13.569527,2020-08-23 00:00:00.000000,0.43021764,1.02532180,1.67186210,24,58,95,11,23,39,0.19787197,0.41967187,0.68943540,0.12585868,0.23366686,0.37357206
20143,0,USKansasOttawa,Kansas,Ottawa,2021-04-04 11:36:13.569527,2020-08-24 00:00:00.000000,0.45241314,1.07991662,1.70341839,25,61,97,11,24,40,0.19501325,0.43560506,0.70305160,0.12903615,0.24128815,0.37379667
20143,0,USKansasOttawa,Kansas,Ottawa,2021-04-04 11:36:13.569527,2020-08-25 00:00:00.000000,0.47505924,1.10814360,1.73817959,27,63,99,11,25,40,0.19968927,0.43996519,0.70169358,0.13357383,0.24323698,0.36551629
20143,0,USKansasOttawa,Kansas,Ottawa,2021-04-04 11:36:13.569527,2020-08-26 00:00:00.000000,0.47197865,1.13134661,1.77449854,26,64,101,11,25,40,0.20680306,0.44782093,0.70210015,0.13502483,0.25195722,0.34982439
20143,0,USKansasOttawa,Kansas,Ottawa,2021-04-04 11:36:13.569527,2020-08-27 00:00:00.000000,0.45243489,1.15423414,1.81220023,25,65,103,11,25,40,0.20887201,0.45369032,0.70647390,0.13806627,0.25621394,0.34837066
20143,0,USKansasOttawa,Kansas,Ottawa,2021-04-04 11:36:13.569527,2020-08-28 00:00:00.000000,0.44687982,1.17647516,1.85175606,25,67,105,12,26,41,0.21132046,0.45813619,0.72935292,0.14147611,0.26055146,0.36693155
20143,0,USKansasOttawa,Kansas,Ottawa,2021-04-04 11:36:13.569527,2020-08-29 00:00:00.000000,0.45916672,1.19731707,1.89420158,26,68,108,11,26,42,0.21036567,0.46708137,0.75355883,0.14293797,0.26140753,0.39291174
20143,0,USKansasOttawa,Kansas,Ottawa,2021-04-04 11:36:13.569527,2020-08-30 00:00:00.000000,0.47111598,1.22085568,1.94085232,26,69,110,11,27,44,0.20947304,0.48136321,0.77995019,0.14445147,0.26357398,0.40130942
20143,0,USKansasOttawa,Kansas,Ottawa,2021-04-04 11:36:13.569527,2020-08-31 00:00:00.000000,0.49742051,1.25700836,1.98784686,28,71,113,11,27,45,0.20898273,0.48825536,0.79868625,0.14578721,0.26342267,0.40434645
20143,0,USKansasOttawa,Kansas,Ottawa,2021-04-04 11:36:13.569527,2020-09-01 00:00:00.000000,0.49917741,1.30453684,1.99591533,28,74,113,12,28,46,0.21328857,0.49742354,0.81756966,0.14769492,0.26642013,0.40458564
20143,0,USKansasOttawa,Kansas,Ottawa,2021-04-04 11:36:13.569527,2020-09-02 00:00:00.000000,0.51877371,1.33695011,2.04405000,29,76,116,12,29,47,0.22084275,0.51143136,0.83818908,0.14744907,0.26815189,0.41003651
20143,0,USKansasOttawa,Kansas,Ottawa,2021-04-04 11:36:13.569527,2020-09-03 00:00:00.000000,0.51953174,1.37358033,2.10333940,29,78,119,12,30,49,0.22210534,0.52993457,0.86013552,0.14798452,0.28083273,0.41491510
20143,0,USKansasOttawa,Kansas,Ottawa,2021-04-04 11:36:13.569527,2020-09-04 00:00:00.000000,0.51401217,1.41439187,2.20732893,29,80,125,12,30,50,0.22429307,0.54310557,0.88330689,0.14883943,0.29458105,0.42064226
20143,0,USKansasOttawa,Kansas,Ottawa,2021-04-04 11:36:13.569527,2020-09-05 00:00:00.000000,0.51031728,1.45154553,2.29484847,29,82,130,13,32,51,0.22807681,0.56205493,0.90763137,0.14992257,0.29941459,0.42354253
20143,0,USKansasOttawa,Kansas,Ottawa,2021-04-04 11:36:13.569527,2020-09-06 00:00:00.000000,0.51505453,1.48850861,2.36707562,29,84,135,12,33,53,0.22524578,0.58360870,0.93299965,0.15097091,0.30169811,0.43571298
20143,0,USKansasOttawa,Kansas,Ottawa,2021-04-04 11:36:13.569527,2020-09-07 00:00:00.000000,0.50730684,1.51766096,2.43073827,28,86,138,12,34,54,0.22582342,0.59653401,0.95932663,0.15184125,0.31197792,0.43329773
20143,0,USKansasOttawa,Kansas,Ottawa,2021-04-04 11:36:13.569527,2020-09-08 00:00:00.000000,0.49998706,1.55230942,2.50124796,28,88,142,12,34,56,0.22519694,0.61214933,0.98686791,0.15271986,0.31332674,0.43406287
20143,0,USKansasOttawa,Kansas,Ottawa,2021-04-04 11:36:13.569527,2020-09-09 00:00:00.000000,0.49269695,1.58873477,2.61463774,28,90,149,12,35,57,0.22335741,0.62803383,1.01551285,0.15424378,0.31704727,0.43221696
20143,0,USKansasOttawa,Kansas,Ottawa,2021-04-04 11:36:13.569527,2020-09-10 00:00:00.000000,0.49303201,1.65653449,2.70314805,28,94,154,12,36,60,0.22087139,0.64487360,1.05434747,0.15821193,0.33566663,0.47002065
20143,0,USKansasOttawa,Kansas,Ottawa,2021-04-04 11:36:13.569527,2020-09-11 00:00:00.000000,0.51469784,1.69769082,2.82270887,29,96,161,12,37,64,0.21813912,0.66253853,1.12371327,0.17027097,0.34323401,0.49614227
20143,0,USKansasOttawa,Kansas,Ottawa,2021-04-04 11:36:13.569527,2020-09-12 00:00:00.000000,0.55367643,1.74096086,3.03190965,31,99,172,12,38,65,0.21646188,0.68312659,1.15197563,0.17974975,0.33854554,0.50294124
20143,0,USKansasOttawa,Kansas,Ottawa,2021-04-04 11:36:13.569527,2020-09-13 00:00:00.000000,0.59534893,1.78640219,3.14985601,33,101,179,12,39,69,0.22069968,0.69914735,1.21622595,0.20007186,0.34031202,0.50524645
20143,0,USKansasOttawa,Kansas,Ottawa,2021-04-04 11:36:13.569527,2020-09-14 00:00:00.000000,0.68672462,1.85053481,3.18241246,39,105,181,12,41,72,0.22685403,0.72207948,1.27781318,0.20491426,0.33818608,0.51151350
20143,0,USKansasOttawa,Kansas,Ottawa,2021-04-04 11:36:13.569527,2020-09-15 00:00:00.000000,0.78044755,1.96675244,3.24643626,44,112,185,14,43,75,0.24687038,0.75785933,1.32521025,0.20581737,0.34491971,0.51367937
20143,0,USKansasOttawa,Kansas,Ottawa,2021-04-04 11:36:13.569527,2020-09-16 00:00:00.000000,0.83202988,2.08622433,3.40804862,47,118,194,15,44,77,0.27658027,0.78446579,1.36255534,0.20675280,0.34652947,0.51549172
20143,0,USKansasOttawa,Kansas,Ottawa,2021-04-04 11:36:13.569527,2020-09-17 00:00:00.000000,0.88727986,2.14759791,3.54046876,50,122,201,17,46,79,0.31263613,0.81427654,1.39353870,0.20771903,0.35722397,0.51704567
20143,0,USKansasOttawa,Kansas,Ottawa,2021-04-04 11:36:13.569527,2020-09-18 00:00:00.000000,0.90135836,2.22162784,3.60591237,51,126,205,20,48,81,0.36288517,0.85328768,1.42136716,0.20873470,0.36370049,0.52155497
20143,0,USKansasOttawa,Kansas,Ottawa,2021-04-04 11:36:13.569527,2020-09-19 00:00:00.000000,0.94314244,2.31611054,3.67583680,53,132,209,22,51,82,0.40151494,0.89520898,1.45301538,0.20985854,0.38266091,0.55003194
20143,0,USKansasOttawa,Kansas,Ottawa,2021-04-04 11:36:13.569527,2020-09-20 00:00:00.000000,0.94704063,2.39875604,3.75708056,54,136,214,24,53,84,0.42705346,0.93289260,1.48554803,0.22007549,0.39059482,0.58488473
20143,0,USKansasOttawa,Kansas,Ottawa,2021-04-04 11:36:13.569527,2020-09-21 00:00:00.000000,1.06853055,2.49630488,3.86884680,60,142,220,24,56,86,0.43320572,0.98865522,1.52193073,0.24148502,0.40284846,0.58503759
20143,0,USKansasOttawa,Kansas,Ottawa,2021-04-04 11:36:13.569527,2020-09-22 00:00:00.000000,1.19902789,2.60038988,3.97719991,68,148,226,26,59,88,0.46377398,1.04392371,1.56027395,0.25003011,0.41505565,0.59435542
20143,0,USKansasOttawa,Kansas,Ottawa,2021-04-04 11:36:13.569527,2020-09-23 00:00:00.000000,1.35456904,2.70621800,4.14174955,77,154,236,29,62,91,0.51393629,1.09766589,1.61260757,0.25144200,0.42418789,0.59463361
20143,0,USKansasOttawa,Kansas,Ottawa,2021-04-04 11:36:13.569527,2020-09-24 00:00:00.000000,1.49887418,2.85944243,4.31969952,85,163,246,32,65,95,0.57509987,1.14664822,1.67248053,0.25384319,0.42322687,0.59300090
20143,0,USKansasOttawa,Kansas,Ottawa,2021-04-04 11:36:13.569527,2020-09-25 00:00:00.000000,1.66851670,2.98684624,4.50162463,95,170,256,36,68,99,0.63135782,1.20300132,1.73680705,0.25525888,0.42661120,0.59347575
20143,0,USKansasOttawa,Kansas,Ottawa,2021-04-04 11:36:13.569527,2020-09-26 00:00:00.000000,1.81458654,3.12024178,4.68727200,103,177,267,37,72,102,0.65978409,1.26244427,1.80480469,0.25878114,0.42439664,0.60891552
20143,0,USKansasOttawa,Kansas,Ottawa,2021-04-04 11:36:13.569527,2020-09-27 00:00:00.000000,2.00792699,3.29830490,4.87642307,114,188,278,41,75,107,0.73060243,1.31853945,1.87590966,0.26397807,0.43218018,0.63756610
20143,0,USKansasOttawa,Kansas,Ottawa,2021-04-04 11:36:13.569527,2020-09-28 00:00:00.000000,2.13288398,3.46295905,5.05637015,121,197,288,46,78,109,0.80836708,1.37169229,1.92812192,0.25672045,0.42771761,0.63785617
20143,0,USKansasOttawa,Kansas,Ottawa,2021-04-04 11:36:13.569527,2020-09-29 00:00:00.000000,2.31942243,3.61118058,5.24407509,132,205,299,50,82,114,0.88270981,1.44334612,2.00598041,0.25337691,0.41848840,0.64295638
20143,0,USKansasOttawa,Kansas,Ottawa,2021-04-04 11:36:13.569527,2020-09-30 00:00:00.000000,2.50955639,3.79164480,5.44055524,143,216,310,54,86,119,0.95601148,1.51182441,2.08961540,0.24306561,0.40793423,0.64272809
20143,0,USKansasOttawa,Kansas,Ottawa,2021-04-04 11:36:13.569527,2020-10-01 00:00:00.000000,2.57229099,3.91449113,5.63873546,146,223,321,57,90,126,1.00275885,1.59277033,2.22162852,0.25144135,0.40766763,0.63896663
20143,0,USKansasOttawa,Kansas,Ottawa,2021-04-04 11:36:13.569527,2020-10-02 00:00:00.000000,2.72003721,4.03901315,5.82729180,155,230,332,58,94,131,1.02251617,1.64871611,2.30021622,0.25616468,0.40294185,0.63290580
20143,0,USKansasOttawa,Kansas,Ottawa,2021-04-04 11:36:13.569527,2020-10-03 00:00:00.000000,2.89308185,4.20702724,6.06946334,165,239,346,61,96,137,1.07577418,1.69304524,2.40474576,0.24573400,0.39024222,0.59334230
20143,0,USKansasOttawa,Kansas,Ottawa,2021-04-04 11:36:13.569527,2020-10-04 00:00:00.000000,3.06608462,4.36939982,6.30317743,174,249,359,64,99,143,1.12753904,1.75264622,2.50747350,0.23859011,0.37731037,0.57051935
20143,0,USKansasOttawa,Kansas,Ottawa,2021-04-04 11:36:13.569527,2020-10-05 00:00:00.000000,3.13733680,4.45913369,6.41478622,178,254,365,66,102,148,1.17192778,1.79217339,2.60717646,0.23483257,0.36830453,0.58890660
20143,0,USKansasOttawa,Kansas,Ottawa,2021-04-04 11:36:13.569527,2020-10-06 00:00:00.000000,3.19320123,4.52773326,6.47251553,182,258,369,69,106,154,1.21777935,1.86261464,2.69998611,0.23338228,0.35523888,0.57432140
20143,0,USKansasOttawa,Kansas,Ottawa,2021-04-04 11:36:13.569527,2020-10-07 00:00:00.000000,3.24387184,4.62613239,6.46932453,185,263,369,72,108,158,1.26418518,1.90654931,2.78447711,0.22959924,0.34672522,0.54614620
20143,0,USKansasOttawa,Kansas,Ottawa,2021-04-04 11:36:13.569527,2020-10-08 00:00:00.000000,3.23102306,4.66333467,6.58731360,184,265,375,74,110,162,1.31135905,1.94369762,2.84662647,0.23266692,0.33881832,0.53090451
20143,0,USKansasOttawa,Kansas,Ottawa,2021-04-04 11:36:13.569527,2020-10-09 00:00:00.000000,3.21024102,4.72829014,6.61724495,183,269,377,77,112,163,1.36004766,1.97358080,2.86870071,0.23408099,0.32683655,0.50466109
20143,0,USKansasOttawa,Kansas,Ottawa,2021-04-04 11:36:13.569527,2020-10-10 00:00:00.000000,3.19215417,4.85952657,6.69798912,182,277,382,80,114,168,1.41082495,2.00945557,2.95251696,0.22380612,0.32023888,0.47087829
20143,0,USKansasOttawa,Kansas,Ottawa,2021-04-04 11:36:13.569527,2020-10-11 00:00:00.000000,3.17582864,4.97583112,6.75588406,181,283,385,83,116,171,1.46221158,2.04151331,3.01507794,0.22241149,0.30984871,0.49020024
20143,0,USKansasOttawa,Kansas,Ottawa,2021-04-04 11:36:13.569527,2020-10-12 00:00:00.000000,3.19191178,4.95367260,6.77202945,182,282,386,84,116,173,1.47289750,2.04787860,3.04867399,0.22475167,0.30409157,0.46170289
20143,0,USKansasOttawa,Kansas,Ottawa,2021-04-04 11:36:13.569527,2020-10-13 00:00:00.000000,3.20753186,4.91993952,6.76211998,182,280,385,84,117,175,1.47838236,2.05197194,3.07573851,0.22701259,0.29651272,0.45689609
20143,0,USKansasOttawa,Kansas,Ottawa,2021-04-04 11:36:13.569527,2020-10-14 00:00:00.000000,3.22382347,4.88622798,6.78190076,183,278,386,84,118,178,1.47937710,2.08518110,3.12529103,0.22667481,0.29763410,0.45437073
20143,0,USKansasOttawa,Kansas,Ottawa,2021-04-04 11:36:13.569527,2020-10-15 00:00:00.000000,3.24176832,4.86888497,6.93394725,184,277,395,84,120,183,1.47681391,2.10945373,3.21460983,0.22575768,0.30075953,0.44542062
20143,0,USKansasOttawa,Kansas,Ottawa,2021-04-04 11:36:13.569527,2020-10-16 00:00:00.000000,3.26583542,4.90458494,7.17059556,186,279,409,83,119,188,1.47156502,2.10289023,3.30401174,0.22710484,0.30304760,0.46455456
20143,0,USKansasOttawa,Kansas,Ottawa,2021-04-04 11:36:13.569527,2020-10-17 00:00:00.000000,3.26966155,4.94889772,7.40676028,186,282,422,83,120,190,1.46423383,2.11282561,3.34042414,0.23292024,0.31292730,0.47950816
20143,0,USKansasOttawa,Kansas,Ottawa,2021-04-04 11:36:13.569527,2020-10-18 00:00:00.000000,3.24513956,4.99501087,7.63951388,185,284,435,82,120,191,1.45494760,2.11685561,3.34929215,0.24024699,0.32495164,0.48493145
20143,0,USKansasOttawa,Kansas,Ottawa,2021-04-04 11:36:13.569527,2020-10-19 00:00:00.000000,3.21646195,5.05118858,7.88439486,183,288,449,82,121,191,1.44373251,2.12596032,3.36168376,0.24003032,0.32756387,0.48636162
20143,0,USKansasOttawa,Kansas,Ottawa,2021-04-04 11:36:13.569527,2020-10-20 00:00:00.000000,3.18005350,5.10906133,7.88949495,181,291,450,82,122,191,1.44684134,2.14839008,3.35332029,0.23967738,0.33398268,0.48692612
20143,0,USKansasOttawa,Kansas,Ottawa,2021-04-04 11:36:13.569527,2020-10-21 00:00:00.000000,3.13959553,5.16435746,8.10178300,179,294,462,83,123,190,1.45877993,2.17203559,3.33280903,0.24104132,0.33947560,0.48656806
20143,0,USKansasOttawa,Kansas,Ottawa,2021-04-04 11:36:13.569527,2020-10-22 00:00:00.000000,3.10188540,5.20426320,8.35010960,176,296,476,84,125,188,1.47644322,2.20139914,3.30544071,0.24396405,0.34759098,0.49643650
20143,0,USKansasOttawa,Kansas,Ottawa,2021-04-04 11:36:13.569527,2020-10-23 00:00:00.000000,3.09071142,5.20980018,8.60698201,176,297,490,85,126,186,1.49829571,2.20993920,3.27514870,0.24879859,0.35532952,0.49375316
20143,0,USKansasOttawa,Kansas,Ottawa,2021-04-04 11:36:13.569527,2020-10-24 00:00:00.000000,3.19266897,5.28606280,8.79493138,182,301,501,86,127,185,1.51985133,2.23821309,3.25225188,0.25907240,0.36716936,0.50702772
20143,0,USKansasOttawa,Kansas,Ottawa,2021-04-04 11:36:13.569527,2020-10-25 00:00:00.000000,3.31231043,5.39156633,8.88816690,188,307,506,87,128,186,1.53946992,2.25838350,3.27045991,0.27250208,0.37647985,0.51917780
20143,0,USKansasOttawa,Kansas,Ottawa,2021-04-04 11:36:13.569527,2020-10-26 00:00:00.000000,3.47576466,5.42715536,9.05210241,198,309,516,88,130,191,1.55124364,2.28038216,3.35608605,0.28769261,0.38552908,0.52508904
20143,0,USKansasOttawa,Kansas,Ottawa,2021-04-04 11:36:13.569527,2020-10-27 00:00:00.000000,3.64363784,5.53213989,9.35885258,207,315,533,89,130,197,1.57584942,2.28994510,3.46674304,0.28871133,0.39602036,0.52938944
20143,0,USKansasOttawa,Kansas,Ottawa,2021-04-04 11:36:13.569527,2020-10-28 00:00:00.000000,3.81711744,5.68452042,9.66271351,217,324,551,91,132,204,1.60039840,2.32564640,3.58222307,0.29373818,0.40216707,0.53202589
20143,0,USKansasOttawa,Kansas,Ottawa,2021-04-04 11:36:13.569527,2020-10-29 00:00:00.000000,3.95678320,5.79917352,9.92392629,225,330,566,92,136,211,1.62907576,2.39371988,3.70046412,0.30138375,0.41195881,0.58568473
20143,0,USKansasOttawa,Kansas,Ottawa,2021-04-04 11:36:13.569527,2020-10-30 00:00:00.000000,4.03629406,5.94937281,10.09130470,230,339,575,94,138,217,1.66065760,2.43350730,3.81586521,0.31159109,0.42289607,0.62764886
20143,0,USKansasOttawa,Kansas,Ottawa,2021-04-04 11:36:13.569527,2020-10-31 00:00:00.000000,4.12016610,6.10070118,10.23263169,235,347,583,96,142,223,1.69491096,2.49234665,3.91833929,0.31983540,0.43303611,0.64681559
20143,0,USKansasOttawa,Kansas,Ottawa,2021-04-04 11:36:13.569527,2020-11-01 00:00:00.000000,4.21118416,6.31777584,10.47323678,240,360,597,98,146,228,1.73325147,2.56754391,4.00690140,0.31921005,0.44935769,0.65182241
20143,0,USKansasOttawa,Kansas,Ottawa,2021-04-04 11:36:13.569527,2020-11-02 00:00:00.000000,4.27432974,6.42119145,10.68294456,243,366,609,101,151,232,1.77921339,2.65887685,4.08424908,0.32093353,0.47609125,0.65313310
20143,0,USKansasOttawa,Kansas,Ottawa,2021-04-04 11:36:13.569527,2020-11-03 00:00:00.000000,4.35027774,6.64800455,10.89216050,248,379,621,105,157,237,1.84747744,2.75856184,4.16429080,0.32222590,0.49879852,0.66142720
20143,0,USKansasOttawa,Kansas,Ottawa,2021-04-04 11:36:13.569527,2020-11-04 00:00:00.000000,4.44104089,6.88967323,11.18945178,253,392,638,107,162,242,1.88342117,2.84045620,4.24614181,0.32503772,0.50342752,0.68091341
20143,0,USKansasOttawa,Kansas,Ottawa,2021-04-04 11:36:13.569527,2020-11-05 00:00:00.000000,4.59934574,7.18823348,11.50614959,262,410,656,109,166,246,1.91871501,2.92747421,4.32936853,0.33292594,0.51225905,0.71763331
20143,0,USKansasOttawa,Kansas,Ottawa,2021-04-04 11:36:13.569527,2020-11-06 00:00:00.000000,4.77780436,7.47540653,11.67134327,272,426,665,111,173,251,1.95985890,3.03611537,4.41418219,0.34974233,0.52314522,0.75470550
20143,0,USKansasOttawa,Kansas,Ottawa,2021-04-04 11:36:13.569527,2020-11-07 00:00:00.000000,4.85818515,7.76827002,11.86752351,277,443,676,114,180,256,2.00994520,3.15667065,4.50199234,0.37248314,0.53086991,0.77760832
20143,0,USKansasOttawa,Kansas,Ottawa,2021-04-04 11:36:13.569527,2020-11-08 00:00:00.000000,5.05547460,8.04735990,12.22381309,288,459,697,118,187,263,2.07134909,3.28506256,4.61218067,0.40056989,0.55406584,0.82224406
20143,0,USKansasOttawa,Kansas,Ottawa,2021-04-04 11:36:13.569527,2020-11-09 00:00:00.000000,5.30970695,8.40585451,12.63740814,302,479,720,122,192,276,2.14498021,3.38002933,4.85159536,0.42056095,0.55981963,0.82690216
20143,0,USKansasOttawa,Kansas,Ottawa,2021-04-04 11:36:13.569527,2020-11-10 00:00:00.000000,5.58660841,8.83484694,13.08718427,318,503,746,127,199,290,2.23624661,3.49264191,5.09354643,0.42608639,0.56159665,0.82751444
20143,0,USKansasOttawa,Kansas,Ottawa,2021-04-04 11:36:13.569527,2020-11-11 00:00:00.000000,5.89151333,9.05870957,13.56099047,336,516,773,133,206,304,2.34187106,3.61400511,5.33873308,0.43511017,0.57120402,0.82770662
20143,0,USKansasOttawa,Kansas,Ottawa,2021-04-04 11:36:13.569527,2020-11-12 00:00:00.000000,6.24015270,9.39785912,14.02439259,355,536,799,140,215,318,2.46192939,3.77920948,5.58737713,0.45024193,0.57542297,0.86615766
20143,0,USKansasOttawa,Kansas,Ottawa,2021-04-04 11:36:13.569527,2020-11-13 00:00:00.000000,6.64720650,9.88537274,14.39883800,379,563,821,148,225,333,2.59749692,3.94900261,5.83984208,0.43956650,0.58132707,0.88106878
20143,0,USKansasOttawa,Kansas,Ottawa,2021-04-04 11:36:13.569527,2020-11-14 00:00:00.000000,6.90138194,10.34158897,15.10144410,393,589,861,157,232,347,2.75302385,4.07761363,6.09762152,0.42562089,0.59089619,0.91455741
20143,0,USKansasOttawa,Kansas,Ottawa,2021-04-04 11:36:13.569527,2020-11-15 00:00:00.000000,7.13086216,10.86583696,15.65558450,406,619,892,167,239,363,2.93136273,4.19446088,6.36411923,0.44206413,0.60565068,0.97210869
20143,0,USKansasOttawa,Kansas,Ottawa,2021-04-04 11:36:13.569527,2020-11-16 00:00:00.000000,7.58236269,11.33133565,16.19744213,432,646,923,177,247,378,3.11633803,4.33383227,6.62770849,0.43151546,0.61218938,1.00293081
20143,0,USKansasOttawa,Kansas,Ottawa,2021-04-04 11:36:13.569527,2020-11-17 00:00:00.000000,8.07284124,11.81880392,16.74473043,460,674,955,183,256,391,3.22035863,4.50108575,6.86806598,0.42578893,0.61765141,1.02684124
20143,0,USKansasOttawa,Kansas,Ottawa,2021-04-04 11:36:13.569527,2020-11-18 00:00:00.000000,8.56472043,12.28010649,17.28789869,488,700,986,190,265,405,3.34610689,4.65119132,7.11058859,0.42654579,0.62180310,1.04007042
20143,0,USKansasOttawa,Kansas,Ottawa,2021-04-04 11:36:13.569527,2020-11-19 00:00:00.000000,9.04293140,12.69984996,17.81689110,515,724,1016,199,277,421,3.50579982,4.86487383,7.39683460,0.42935750,0.61980355,1.05228699
20143,0,USKansasOttawa,Kansas,Ottawa,2021-04-04 11:36:13.569527,2020-11-20 00:00:00.000000,9.44083146,13.06851687,18.31778155,538,745,1044,209,288,439,3.67122444,5.06258726,7.70957850,0.43578285,0.62665204,1.07576098
20143,0,USKansasOttawa,Kansas,Ottawa,2021-04-04 11:36:13.569527,2020-11-21 00:00:00.000000,9.62488702,13.41017179,18.77111183,549,764,1070,215,299,455,3.78630498,5.25352788,7.99343875,0.41811339,0.62485698,1.13202596
20143,0,USKansasOttawa,Kansas,Ottawa,2021-04-04 11:36:13.569527,2020-11-22 00:00:00.000000,9.82900642,13.72249907,19.15598154,560,782,1092,220,309,470,3.87386458,5.42245210,8.25173030,0.42685506,0.63158726,1.16551352
20143,0,USKansasOttawa,Kansas,Ottawa,2021-04-04 11:36:13.569527,2020-11-23 00:00:00.000000,10.04479097,13.98080490,19.53558078,572,797,1114,226,317,484,3.97268040,5.56034401,8.48736283,0.43332246,0.63337668,1.17362748
20143,0,USKansasOttawa,Kansas,Ottawa,2021-04-04 11:36:13.569527,2020-11-24 00:00:00.000000,10.38758320,14.36906191,19.83628441,592,819,1131,237,326,496,4.15969509,5.72020067,8.70370114,0.43422004,0.63353004,1.17422640
20143,0,USKansasOttawa,Kansas,Ottawa,2021-04-04 11:36:13.569527,2020-11-25 00:00:00.000000,10.74223156,14.82882046,20.32197630,612,845,1159,248,335,505,4.36225119,5.88212740,8.86118522,0.42195831,0.63265126,1.17411130
20143,0,USKansasOttawa,Kansas,Ottawa,2021-04-04 11:36:13.569527,2020-11-26 00:00:00.000000,11.02946792,15.15333201,20.91698077,629,864,1193,260,345,517,4.57298230,6.05723380,9.06765863,0.41517696,0.63345922,1.17226402
20143,0,USKansasOttawa,Kansas,Ottawa,2021-04-04 11:36:13.569527,2020-11-27 00:00:00.000000,11.26953037,15.49650354,21.49687092,642,883,1226,272,357,527,4.78464501,6.27437676,9.25038400,0.41235418,0.63355065,1.16491249
20143,0,USKansasOttawa,Kansas,Ottawa,2021-04-04 11:36:13.569527,2020-11-28 00:00:00.000000,11.50765745,15.79684128,21.94348885,656,901,1251,283,368,536,4.97458463,6.45916716,9.39874332,0.41139124,0.63645032,1.16492593
20143,0,USKansasOttawa,Kansas,Ottawa,2021-04-04 11:36:13.569527,2020-11-29 00:00:00.000000,11.73373199,16.07432234,22.18469744,669,916,1265,290,375,543,5.08566159,6.59159605,9.53199891,0.41656116,0.64222368,1.16957839
20143,0,USKansasOttawa,Kansas,Ottawa,2021-04-04 11:36:13.569527,2020-11-30 00:00:00.000000,11.97220095,16.34718554,22.45101862,682,932,1280,292,381,554,5.12440641,6.68243319,9.71679702,0.42710446,0.64761040,1.20968091
20143,0,USKansasOttawa,Kansas,Ottawa,2021-04-04 11:36:13.569527,2020-12-01 00:00:00.000000,12.18961960,16.63885793,22.70047297,695,949,1294,294,387,564,5.16232991,6.79624570,9.89914746,0.43967829,0.64980588,1.22899246
20143,0,USKansasOttawa,Kansas,Ottawa,2021-04-04 11:36:13.569527,2020-12-02 00:00:00.000000,12.24711745,16.75823721,22.90149252,698,955,1306,296,395,574,5.19768600,6.93085651,10.06582086,0.46438556,0.65594866,1.22464425
20143,0,USKansasOttawa,Kansas,Ottawa,2021-04-04 11:36:13.569527,2020-12-03 00:00:00.000000,12.29838735,16.90001659,23.04256491,701,963,1314,298,402,582,5.22889384,7.05420443,10.21597661,0.46472964,0.65918490,1.21869074
20143,0,USKansasOttawa,Kansas,Ottawa,2021-04-04 11:36:13.569527,2020-12-04 00:00:00.000000,12.38989677,17.32741501,23.13917204,706,988,1319,300,405,590,5.26728335,7.11225905,10.34938474,0.45539137,0.65892785,1.20300962
20143,0,USKansasOttawa,Kansas,Ottawa,2021-04-04 11:36:13.569527,2020-12-05 00:00:00.000000,12.30616252,17.36762720,23.21726640,701,990,1324,304,411,596,5.33913667,7.20614465,10.46605004,0.45510856,0.65952826,1.09423063
20143,0,USKansasOttawa,Kansas,Ottawa,2021-04-04 11:36:13.569527,2020-12-06 00:00:00.000000,12.07610669,17.33382082,23.16599631,688,988,1321,307,419,602,5.39704739,7.35401575,10.56607609,0.45964207,0.65431248,1.08199303
20143,0,USKansasOttawa,Kansas,Ottawa,2021-04-04 11:36:13.569527,2020-12-07 00:00:00.000000,11.85677681,17.26311083,23.01684510,676,984,1312,310,424,608,5.44350448,7.44908977,10.67238932,0.44558735,0.65022094,1.05855917
20143,0,USKansasOttawa,Kansas,Ottawa,2021-04-04 11:36:13.569527,2020-12-08 00:00:00.000000,11.57894586,17.17194368,22.93610595,660,979,1308,311,426,613,5.45629120,7.47840501,10.76180697,0.43793568,0.64688113,1.05623155
20143,0,USKansasOttawa,Kansas,Ottawa,2021-04-04 11:36:13.569527,2020-12-09 00:00:00.000000,11.27612951,17.03396744,23.03624114,643,971,1313,311,426,616,5.46215543,7.47947207,10.81180230,0.43691805,0.65181894,1.04102147
20143,0,USKansasOttawa,Kansas,Ottawa,2021-04-04 11:36:13.569527,2020-12-10 00:00:00.000000,11.10066111,16.78607886,23.07892985,633,957,1316,310,425,615,5.44720368,7.46751082,10.78714053,0.43560142,0.63935797,1.04370020
20143,0,USKansasOttawa,Kansas,Ottawa,2021-04-04 11:36:13.569527,2020-12-11 00:00:00.000000,10.98222970,16.58119527,23.06450977,626,945,1315,306,426,616,5.36841941,7.47450607,10.80189209,0.43397783,0.64224491,1.06956671
20143,0,USKansasOttawa,Kansas,Ottawa,2021-04-04 11:36:13.569527,2020-12-12 00:00:00.000000,10.83941696,16.48067886,22.99389385,618,940,1311,302,424,615,5.29621441,7.43805962,10.79701456,0.43316608,0.65057407,1.11524368
20143,0,USKansasOttawa,Kansas,Ottawa,2021-04-04 11:36:13.569527,2020-12-13 00:00:00.000000,10.67304571,16.38825828,22.88994872,608,934,1305,298,419,614,5.22497847,7.35784636,10.77018039,0.44479243,0.65336977,1.15436856
20143,0,USKansasOttawa,Kansas,Ottawa,2021-04-04 11:36:13.569527,2020-12-14 00:00:00.000000,10.49371129,16.24054834,22.79376278,598,926,1300,293,413,611,5.14250948,7.25757688,10.71940089,0.45219123,0.65770134,1.15758927
20143,0,USKansasOttawa,Kansas,Ottawa,2021-04-04 11:36:13.569527,2020-12-15 00:00:00.000000,10.30341017,16.18131641,22.65095348,587,922,1292,288,406,606,5.05597340,7.13374307,10.64138746,0.45000977,0.66618389,1.15789092
20143,0,USKansasOttawa,Kansas,Ottawa,2021-04-04 11:36:13.569527,2020-12-16 00:00:00.000000,10.20254978,16.03994894,22.46353433,581,914,1281,283,399,601,4.96646768,7.01115708,10.53876523,0.45088568,0.67968871,1.17505100
20143,0,USKansasOttawa,Kansas,Ottawa,2021-04-04 11:36:13.569527,2020-12-17 00:00:00.000000,10.08243384,15.81561669,22.24007983,575,902,1268,278,397,596,4.87377528,6.96686278,10.46102484,0.45540221,0.69209052,1.17578192
20143,0,USKansasOttawa,Kansas,Ottawa,2021-04-04 11:36:13.569527,2020-12-18 00:00:00.000000,9.77793184,15.52904824,21.96243784,557,885,1252,277,392,591,4.86637240,6.87651763,10.36677600,0.46157341,0.70939825,1.17715783
20143,0,USKansasOttawa,Kansas,Ottawa,2021-04-04 11:36:13.569527,2020-12-19 00:00:00.000000,9.54106224,15.31951505,21.34339780,544,873,1217,271,388,584,4.75493303,6.81092518,10.25165803,0.47173821,0.73213404,1.17967147
20143,0,USKansasOttawa,Kansas,Ottawa,2021-04-04 11:36:13.569527,2020-12-20 00:00:00.000000,9.40526970,14.99028881,20.83705044,536,855,1188,264,384,577,4.64018842,6.74945119,10.11980141,0.49306589,0.74549781,1.18449178
20143,0,USKansasOttawa,Kansas,Ottawa,2021-04-04 11:36:13.569527,2020-12-21 00:00:00.000000,9.31886175,14.66885892,20.44954370,531,836,1166,258,379,568,4.52617081,6.65954178,9.97527165,0.52698163,0.75529801,1.19075084
20143,0,USKansasOttawa,Kansas,Ottawa,2021-04-04 11:36:13.569527,2020-12-22 00:00:00.000000,9.23426571,14.43340791,20.23113935,526,823,1153,252,374,560,4.42203157,6.56204980,9.82367487,0.54333298,0.75564721,1.19424447
20143,0,USKansasOttawa,Kansas,Ottawa,2021-04-04 11:36:13.569527,2020-12-23 00:00:00.000000,9.14537907,14.21283764,19.96464180,521,810,1138,246,367,551,4.32032215,6.45053763,9.66744399,0.54671695,0.75882721,1.29004599
20143,0,USKansasOttawa,Kansas,Ottawa,2021-04-04 11:36:13.569527,2020-12-24 00:00:00.000000,9.04936454,13.91115930,19.64275239,516,793,1120,239,360,542,4.20501733,6.32602433,9.50615885,0.54596024,0.76347667,1.30100144
20143,0,USKansasOttawa,Kansas,Ottawa,2021-04-04 11:36:13.569527,2020-12-25 00:00:00.000000,8.84624504,13.55648985,19.11646315,504,773,1090,235,353,533,4.13389345,6.20479687,9.34534961,0.54325672,0.78967176,1.33503515
20143,0,USKansasOttawa,Kansas,Ottawa,2021-04-04 11:36:13.569527,2020-12-26 00:00:00.000000,8.68935206,13.22991025,18.56847196,495,754,1059,232,346,524,4.07397767,6.07848395,9.19537184,0.56142589,0.81972145,1.33803897
20143,0,USKansasOttawa,Kansas,Ottawa,2021-04-04 11:36:13.569527,2020-12-27 00:00:00.000000,8.46218527,12.78873795,18.00284733,482,729,1026,229,339,516,4.01898700,5.95690179,9.05506002,0.57324983,0.84234409,1.34351910
20143,0,USKansasOttawa,Kansas,Ottawa,2021-04-04 11:36:13.569527,2020-12-28 00:00:00.000000,8.31802886,12.53533107,17.51377559,474,715,998,223,333,508,3.90983392,5.84384341,8.91983509,0.57348206,0.85722830,1.35042994
20143,0,USKansasOttawa,Kansas,Ottawa,2021-04-04 11:36:13.569527,2020-12-29 00:00:00.000000,8.25244942,12.30143814,17.01472176,470,701,970,219,326,500,3.84929471,5.72954666,8.77321888,0.56856711,0.86474747,1.35978196
20143,0,USKansasOttawa,Kansas,Ottawa,2021-04-04 11:36:13.569527,2020-12-30 00:00:00.000000,8.22919282,12.09763736,16.50966181,469,690,941,215,317,490,3.77509358,5.57183116,8.59322689,0.56987135,0.87102308,1.39282230
20143,0,USKansasOttawa,Kansas,Ottawa,2021-04-04 11:36:13.569527,2020-12-31 00:00:00.000000,8.09938288,11.80702634,16.00058583,461,673,912,209,307,482,3.67867853,5.38995074,8.45198266,0.58083102,0.87180041,1.40523012
20143,0,USKansasOttawa,Kansas,Ottawa,2021-04-04 11:36:13.569527,2021-01-01 00:00:00.000000,7.96731871,11.55328153,15.59719072,454,658,889,204,296,473,3.58165985,5.20401280,8.30874595,0.63776513,0.87075729,1.42925291
20143,0,USKansasOttawa,Kansas,Ottawa,2021-04-04 11:36:13.569527,2021-01-02 00:00:00.000000,7.83220764,11.20454035,15.18963656,446,639,866,198,289,465,3.48678377,5.07532013,8.16190800,0.67659918,0.88264778,1.44926233
20143,0,USKansasOttawa,Kansas,Ottawa,2021-04-04 11:36:13.569527,2021-01-03 00:00:00.000000,7.69320152,10.82053029,14.92083809,438,617,851,193,282,456,3.39731714,4.95673769,8.01085786,0.69272358,0.91371254,1.52349533
20143,0,USKansasOttawa,Kansas,Ottawa,2021-04-04 11:36:13.569527,2021-01-04 00:00:00.000000,7.52022603,10.37241669,14.52787566,428,591,828,189,274,448,3.31606620,4.81127250,7.85539389,0.72919831,0.93344464,1.64905433
20143,0,USKansasOttawa,Kansas,Ottawa,2021-04-04 11:36:13.569527,2021-01-05 00:00:00.000000,7.31509067,9.96792492,14.11339178,417,568,805,186,268,439,3.26440971,4.71494828,7.69722179,0.73239862,0.93995107,1.77272198
20143,0,USKansasOttawa,Kansas,Ottawa,2021-04-04 11:36:13.569527,2021-01-06 00:00:00.000000,7.03726509,9.70292808,13.68591904,401,553,780,184,261,429,3.22850950,4.58480584,7.53655205,0.73221510,0.94064484,1.90217487
20143,0,USKansasOttawa,Kansas,Ottawa,2021-04-04 11:36:13.569527,2021-01-07 00:00:00.000000,6.75518451,9.37241101,13.40150432,385,534,764,178,254,420,3.12517136,4.45638118,7.37383179,0.73508036,0.94581375,2.01294209
20143,0,USKansasOttawa,Kansas,Ottawa,2021-04-04 11:36:13.569527,2021-01-08 00:00:00.000000,6.46952273,9.00239324,13.10262868,369,513,747,171,246,411,3.00780105,4.32993215,7.20822783,0.74006187,0.95530617,2.03435648
20143,0,USKansasOttawa,Kansas,Ottawa,2021-04-04 11:36:13.569527,2021-01-09 00:00:00.000000,6.20736387,8.68110653,12.79121344,354,495,729,165,241,401,2.89524168,4.22741401,7.03796687,0.65577198,0.96449740,2.03696636
20143,0,USKansasOttawa,Kansas,Ottawa,2021-04-04 11:36:13.569527,2021-01-10 00:00:00.000000,6.14723236,8.38058946,12.46918079,350,478,711,158,232,391,2.78684979,4.06848621,6.86223145,0.62655126,0.96177660,2.03690027
20143,0,USKansasOttawa,Kansas,Ottawa,2021-04-04 11:36:13.569527,2021-01-11 00:00:00.000000,6.03178132,8.08290313,12.08099043,344,461,689,153,222,381,2.68233773,3.89710865,6.68086738,0.62759583,0.95240235,2.03398051
20143,0,USKansasOttawa,Kansas,Ottawa,2021-04-04 11:36:13.569527,2021-01-12 00:00:00.000000,5.91132569,7.74819283,11.68599162,337,441,666,147,212,370,2.58456504,3.72742543,6.49022611,0.63551972,0.95004783,2.02293018
20143,0,USKansasOttawa,Kansas,Ottawa,2021-04-04 11:36:13.569527,2021-01-13 00:00:00.000000,5.78463120,7.47882505,11.28556822,329,426,643,142,204,360,2.49235646,3.58026740,6.31696390,0.64535976,0.94731787,1.98727103
20143,0,USKansasOttawa,Kansas,Ottawa,2021-04-04 11:36:13.569527,2021-01-14 00:00:00.000000,5.60700150,7.21334878,10.88220413,319,411,620,137,196,351,2.40490090,3.44151059,6.16221261,0.65671046,0.94081509,1.89475422
20143,0,USKansasOttawa,Kansas,Ottawa,2021-04-04 11:36:13.569527,2021-01-15 00:00:00.000000,5.34668546,6.90087591,10.47815857,304,393,597,132,188,342,2.32163472,3.29887190,6.00162488,0.66724977,0.92250074,1.79346445
20143,0,USKansasOttawa,Kansas,Ottawa,2021-04-04 11:36:13.569527,2021-01-16 00:00:00.000000,5.08442505,6.66851209,10.07547114,290,380,574,127,182,332,2.24216247,3.19750507,5.83641355,0.67531186,0.91755919,1.86148288
20143,0,USKansasOttawa,Kansas,Ottawa,2021-04-04 11:36:13.569527,2021-01-17 00:00:00.000000,4.88399643,6.40477379,9.67596798,278,365,551,123,174,323,2.16620431,3.06710047,5.66773584,0.67457044,0.89959070,1.98348033
20143,0,USKansasOttawa,Kansas,Ottawa,2021-04-04 11:36:13.569527,2021-01-18 00:00:00.000000,4.67431813,6.13826694,9.34102392,266,350,532,119,168,313,2.09356435,2.95807485,5.49671181,0.65369752,0.89342944,1.96021885
20143,0,USKansasOttawa,Kansas,Ottawa,2021-04-04 11:36:13.569527,2021-01-19 00:00:00.000000,4.40338462,5.86498500,9.01300313,251,334,514,114,161,303,2.01514266,2.82610372,5.32504924,0.62506467,0.88249462,1.94033959
20143,0,USKansasOttawa,Kansas,Ottawa,2021-04-04 11:36:13.569527,2021-01-20 00:00:00.000000,4.12984406,5.63451477,8.68602509,235,321,495,110,153,293,1.93070836,2.69774096,5.15339841,0.59806148,0.86987911,1.92917074
20143,0,USKansasOttawa,Kansas,Ottawa,2021-04-04 11:36:13.569527,2021-01-21 00:00:00.000000,3.89422327,5.37111894,8.35608962,222,306,476,104,146,284,1.83841371,2.57164939,4.98191610,0.59153920,0.86294102,1.92079876
20143,0,USKansasOttawa,Kansas,Ottawa,2021-04-04 11:36:13.569527,2021-01-22 00:00:00.000000,3.66114432,5.16634069,8.02453978,208,294,457,100,140,274,1.75500485,2.45563229,4.81010675,0.58201237,0.84465870,1.96238873
20143,0,USKansasOttawa,Kansas,Ottawa,2021-04-04 11:36:13.569527,2021-01-23 00:00:00.000000,3.44362916,4.94270758,7.69697039,196,281,439,95,133,264,1.67242032,2.34705747,4.63781826,0.54888958,0.84032175,2.07064850
20143,0,USKansasOttawa,Kansas,Ottawa,2021-04-04 11:36:13.569527,2021-01-24 00:00:00.000000,3.24238323,4.71622803,7.37680922,184,269,420,90,127,254,1.59030690,2.23851603,4.45342416,0.54273562,0.82179605,2.05255167
20143,0,USKansasOttawa,Kansas,Ottawa,2021-04-04 11:36:13.569527,2021-01-25 00:00:00.000000,3.04175051,4.46547710,7.02595012,173,254,400,85,121,243,1.50665776,2.13111132,4.26907766,0.53402978,0.80559273,2.02732909
20143,0,USKansasOttawa,Kansas,Ottawa,2021-04-04 11:36:13.569527,2021-01-26 00:00:00.000000,2.85746397,4.22715422,6.68456852,162,241,381,81,115,233,1.42979962,2.02319363,4.10224849,0.52720549,0.79729156,2.00818146
20143,0,USKansasOttawa,Kansas,Ottawa,2021-04-04 11:36:13.569527,2021-01-27 00:00:00.000000,2.68607523,3.98258585,6.35265081,153,227,362,77,109,225,1.35465270,1.91486635,3.94685013,0.49863633,0.79251411,1.99379535
20143,0,USKansasOttawa,Kansas,Ottawa,2021-04-04 11:36:13.569527,2021-01-28 00:00:00.000000,2.52598341,3.73715790,6.04183827,144,213,344,73,102,215,1.28196586,1.80458685,3.77300551,0.48690864,0.78687662,1.98284856
20143,0,USKansasOttawa,Kansas,Ottawa,2021-04-04 11:36:13.569527,2021-01-29 00:00:00.000000,2.37622914,3.50548300,5.74691000,135,199,327,69,97,205,1.21226925,1.71396506,3.60088887,0.47958791,0.77273800,1.97389176
20143,0,USKansasOttawa,Kansas,Ottawa,2021-04-04 11:36:13.569527,2021-01-30 00:00:00.000000,2.23601465,3.32428316,5.42894322,127,189,309,65,92,195,1.14600235,1.62744538,3.43047069,0.46723988,0.76002641,1.90884849
20143,0,USKansasOttawa,Kansas,Ottawa,2021-04-04 11:36:13.569527,2021-01-31 00:00:00.000000,2.10469474,3.13092971,5.11883514,120,178,291,61,88,186,1.08346599,1.54423108,3.26290774,0.45174445,0.73160708,1.80685700
20143,0,USKansasOttawa,Kansas,Ottawa,2021-04-04 11:36:13.569527,2021-02-01 00:00:00.000000,1.98418107,2.95106317,4.83301601,113,168,275,58,83,176,1.02193011,1.46080650,3.09856827,0.44894400,0.69906120,1.71882572
20143,0,USKansasOttawa,Kansas,Ottawa,2021-04-04 11:36:13.569527,2021-02-02 00:00:00.000000,1.87172089,2.76788354,4.55770867,106,157,259,54,78,167,0.95758829,1.38437478,2.93839496,0.44713628,0.68252260,1.68733763
20143,0,USKansasOttawa,Kansas,Ottawa,2021-04-04 11:36:13.569527,2021-02-03 00:00:00.000000,1.76700212,2.60252684,4.29358045,100,148,244,51,75,158,0.89644866,1.31797645,2.78262402,0.44596014,0.68049518,1.62579034
20143,0,USKansasOttawa,Kansas,Ottawa,2021-04-04 11:36:13.569527,2021-02-04 00:00:00.000000,1.67080939,2.45102253,4.04133768,95,139,230,47,71,150,0.83864602,1.24501360,2.63167168,0.44512430,0.67525969,1.61140442
20143,0,USKansasOttawa,Kansas,Ottawa,2021-04-04 11:36:13.569527,2021-02-05 00:00:00.000000,1.58102231,2.31346039,3.80115015,90,131,216,44,67,141,0.78422088,1.17663896,2.48594568,0.44429843,0.66516236,1.55477844
20143,0,USKansasOttawa,Kansas,Ottawa,2021-04-04 11:36:13.569527,2021-02-06 00:00:00.000000,1.50282327,2.19471360,3.57296988,85,125,203,41,63,133,0.73314528,1.11737994,2.34576662,0.44312597,0.66034476,1.49965352
20143,0,USKansasOttawa,Kansas,Ottawa,2021-04-04 11:36:13.569527,2021-02-07 00:00:00.000000,1.41682766,2.09893650,3.35668381,80,119,191,40,60,126,0.70438655,1.06172744,2.21136107,0.44080490,0.64422201,1.39850473
20143,0,USKansasOttawa,Kansas,Ottawa,2021-04-04 11:36:13.569527,2021-02-08 00:00:00.000000,1.34809751,1.98101756,3.18024292,76,112,181,38,57,118,0.67980561,1.01019896,2.08287517,0.43653180,0.64837554,1.38239069
20143,0,USKansasOttawa,Kansas,Ottawa,2021-04-04 11:36:13.569527,2021-02-09 00:00:00.000000,1.29563343,1.88041969,3.01516188,73,107,171,36,54,112,0.63630206,0.95687866,1.96458748,0.42510407,0.64250277,1.36954465
20143,0,USKansasOttawa,Kansas,Ottawa,2021-04-04 11:36:13.569527,2021-02-10 00:00:00.000000,1.23478758,1.80388194,2.86084771,70,102,163,33,52,105,0.59537909,0.91172157,1.85126424,0.41074363,0.63997443,1.37123763
20143,0,USKansasOttawa,Kansas,Ottawa,2021-04-04 11:36:13.569527,2021-02-11 00:00:00.000000,1.14426151,1.73028148,2.71599749,65,98,154,31,49,99,0.55725232,0.86565639,1.74516895,0.40406591,0.64192407,1.36784093
20143,0,USKansasOttawa,Kansas,Ottawa,2021-04-04 11:36:13.569527,2021-02-12 00:00:00.000000,1.09252569,1.65827064,2.57985654,62,94,147,30,47,93,0.53221648,0.82591453,1.64672506,0.40293083,0.64249698,1.35105539
20143,0,USKansasOttawa,Kansas,Ottawa,2021-04-04 11:36:13.569527,2021-02-13 00:00:00.000000,1.04503152,1.58852810,2.45237313,59,90,139,28,44,88,0.49962729,0.78378331,1.55525227,0.41158575,0.63771438,1.30911129
20143,0,USKansasOttawa,Kansas,Ottawa,2021-04-04 11:36:13.569527,2021-02-14 00:00:00.000000,0.97600265,1.51339883,2.44008940,55,86,139,26,42,84,0.46753100,0.75101838,1.48199657,0.40329077,0.63881887,1.28244868
20143,0,USKansasOttawa,Kansas,Ottawa,2021-04-04 11:36:13.569527,2021-02-15 00:00:00.000000,0.92524723,1.43428334,2.31839547,52,81,132,24,41,80,0.43661931,0.71910007,1.41315913,0.38146460,0.64216055,1.28022402
20143,0,USKansasOttawa,Kansas,Ottawa,2021-04-04 11:36:13.569527,2021-02-16 00:00:00.000000,0.87771818,1.37504593,2.20424350,50,78,125,23,38,76,0.40936087,0.67835662,1.34150551,0.37657200,0.64380955,1.27823501
20143,0,USKansasOttawa,Kansas,Ottawa,2021-04-04 11:36:13.569527,2021-02-17 00:00:00.000000,0.83504724,1.31657590,2.09723162,47,75,119,21,36,72,0.38529821,0.64789766,1.26931141,0.37658904,0.63548727,1.27409654
20143,0,USKansasOttawa,Kansas,Ottawa,2021-04-04 11:36:13.569527,2021-02-18 00:00:00.000000,0.79509016,1.26269799,1.99688344,45,72,113,21,35,68,0.36827774,0.61591354,1.20321037,0.39143764,0.62164929,1.26258658
20143,0,USKansasOttawa,Kansas,Ottawa,2021-04-04 11:36:13.569527,2021-02-19 00:00:00.000000,0.76227077,1.19560163,1.90275208,43,68,108,20,33,65,0.35115112,0.58672318,1.15660773,0.37887955,0.61670140,1.24317650
20143,0,USKansasOttawa,Kansas,Ottawa,2021-04-04 11:36:13.569527,2021-02-20 00:00:00.000000,0.71682030,1.14545541,1.81439814,40,65,103,19,31,62,0.33365288,0.55589791,1.09770051,0.37478299,0.61698227,1.18283504
20143,0,USKansasOttawa,Kansas,Ottawa,2021-04-04 11:36:13.569527,2021-02-21 00:00:00.000000,0.68039004,1.10509406,1.73135022,38,63,98,18,30,59,0.31768359,0.53301280,1.04178700,0.36186626,0.63345588,1.15374743
20143,0,USKansasOttawa,Kansas,Ottawa,2021-04-04 11:36:13.569527,2021-02-22 00:00:00.000000,0.62126427,1.02974196,1.62913791,35,58,92,17,28,56,0.30310480,0.50735668,0.98921465,0.35808237,0.65461624,1.15247336
20143,0,USKansasOttawa,Kansas,Ottawa,2021-04-04 11:36:13.569527,2021-02-23 00:00:00.000000,0.56616438,0.95787029,1.53101244,32,54,87,16,27,53,0.28788268,0.48212757,0.93018850,0.36030708,0.65632281,1.13448781
20143,0,USKansasOttawa,Kansas,Ottawa,2021-04-04 11:36:13.569527,2021-02-24 00:00:00.000000,0.51453968,0.88694472,1.43640800,29,50,81,15,25,49,0.27249737,0.45562639,0.86795180,0.36146814,0.63804916,1.13304853
20143,0,USKansasOttawa,Kansas,Ottawa,2021-04-04 11:36:13.569527,2021-02-25 00:00:00.000000,0.46647589,0.81799341,1.34561209,26,46,76,14,24,45,0.25728697,0.42604335,0.80513749,0.35129831,0.64569657,1.10297272
20143,0,USKansasOttawa,Kansas,Ottawa,2021-04-04 11:36:13.569527,2021-02-26 00:00:00.000000,0.42192530,0.75765097,1.25900910,24,43,71,13,22,42,0.24204562,0.39662535,0.74891190,0.33965734,0.64581731,1.07627235
20143,0,USKansasOttawa,Kansas,Ottawa,2021-04-04 11:36:13.569527,2021-02-27 00:00:00.000000,0.38064040,0.69780170,1.17682849,21,39,67,12,21,39,0.22332066,0.36832647,0.69495282,0.34402047,0.62830139,1.06862073
20143,0,USKansasOttawa,Kansas,Ottawa,2021-04-04 11:36:13.569527,2021-02-28 00:00:00.000000,0.34248047,0.64834791,1.09916419,19,36,62,11,19,36,0.20658723,0.34140366,0.64336169,0.32705957,0.61359858,1.04566212
20143,0,USKansasOttawa,Kansas,Ottawa,2021-04-04 11:36:13.569527,2021-03-01 00:00:00.000000,0.33878448,0.62985321,1.04217300,19,35,59,10,18,33,0.18754368,0.31635795,0.59450718,0.31390395,0.59180570,1.02707373
20143,0,USKansasOttawa,Kansas,Ottawa,2021-04-04 11:36:13.569527,2021-03-02 00:00:00.000000,0.34259261,0.61311867,0.98949577,19,34,56,10,17,31,0.17688988,0.29955637,0.55246557,0.30065340,0.57952062,1.01860120
20143,0,USKansasOttawa,Kansas,Ottawa,2021-04-04 11:36:13.569527,2021-03-03 00:00:00.000000,0.34654596,0.58888324,0.94263737,19,33,53,9,16,29,0.17221671,0.28727825,0.51593861,0.29033699,0.56941563,1.00343960
20143,0,USKansasOttawa,Kansas,Ottawa,2021-04-04 11:36:13.569527,2021-03-04 00:00:00.000000,0.34935472,0.56819851,0.98272828,19,32,56,9,15,28,0.17114611,0.27301888,0.49135661,0.27648811,0.56333403,0.98882106
20143,0,USKansasOttawa,Kansas,Ottawa,2021-04-04 11:36:13.569527,2021-03-05 00:00:00.000000,0.34344934,0.56399081,1.02339011,19,32,58,9,14,26,0.17205551,0.26111620,0.47179007,0.26568551,0.56509153,0.98482486
20143,0,USKansasOttawa,Kansas,Ottawa,2021-04-04 11:36:13.569527,2021-03-06 00:00:00.000000,0.34385811,0.55282939,1.06372929,19,31,60,9,14,25,0.17023439,0.25299190,0.45385704,0.25932063,0.55959855,0.97655451
20143,0,USKansasOttawa,Kansas,Ottawa,2021-04-04 11:36:13.569527,2021-03-07 00:00:00.000000,0.34741162,0.54165367,1.10326387,19,30,62,9,13,24,0.16961219,0.24394955,0.43735487,0.25264700,0.55713038,0.97260156
20143,0,USKansasOttawa,Kansas,Ottawa,2021-04-04 11:36:13.569527,2021-03-08 00:00:00.000000,0.33357134,0.54217192,1.09707471,19,30,62,9,13,24,0.16342089,0.24481018,0.42211734,0.24885756,0.54192008,0.97598974
20143,0,USKansasOttawa,Kansas,Ottawa,2021-04-04 11:36:13.569527,2021-03-09 00:00:00.000000,0.31762091,0.54107876,1.08948975,18,30,62,8,13,23,0.15623240,0.24170890,0.41971195,0.24694846,0.53765145,0.97716329
20143,0,USKansasOttawa,Kansas,Ottawa,2021-04-04 11:36:13.569527,2021-03-10 00:00:00.000000,0.30302108,0.53993634,1.08020305,17,30,61,8,13,24,0.14923932,0.23974208,0.42430369,0.24603008,0.53721390,0.97707401
20143,0,USKansasOttawa,Kansas,Ottawa,2021-04-04 11:36:13.569527,2021-03-11 00:00:00.000000,0.28989940,0.53569082,1.09566118,16,30,62,8,13,24,0.14263521,0.24339962,0.43142982,0.24590866,0.53530644,0.97570735
20143,0,USKansasOttawa,Kansas,Ottawa,2021-04-04 11:36:13.569527,2021-03-12 00:00:00.000000,0.26901606,0.52123117,1.07707881,15,29,61,8,13,24,0.14442331,0.23881356,0.43144268,0.24581912,0.53537732,0.97221853
20143,0,USKansasOttawa,Kansas,Ottawa,2021-04-04 11:36:13.569527,2021-03-13 00:00:00.000000,0.24912807,0.51483899,1.05973909,14,29,60,7,13,26,0.13843893,0.23023998,0.45786677,0.25344069,0.53765835,0.96185928
20143,0,USKansasOttawa,Kansas,Ottawa,2021-04-04 11:36:13.569527,2021-03-14 00:00:00.000000,0.23085937,0.52680919,1.10140954,13,30,62,7,12,27,0.12973135,0.22399960,0.48423143,0.26429605,0.53898783,0.93994024
20143,0,USKansasOttawa,Kansas,Ottawa,2021-04-04 11:36:13.569527,2021-03-15 00:00:00.000000,0.25034801,0.52596550,1.06816013,14,30,60,6,12,29,0.12157399,0.22057425,0.51117907,0.28009392,0.54115269,0.93116105
20143,0,USKansasOttawa,Kansas,Ottawa,2021-04-04 11:36:13.569527,2021-03-16 00:00:00.000000,0.26175836,0.52368428,1.02863934,14,29,58,6,12,28,0.11901436,0.21874520,0.50247265,0.28860220,0.54623371,1.02704200
20143,0,USKansasOttawa,Kansas,Ottawa,2021-04-04 11:36:13.569527,2021-03-17 00:00:00.000000,0.27674113,0.52603633,1.00483493,15,30,57,6,12,28,0.11872223,0.21689327,0.49213891,0.28893516,0.53566917,1.11688434
20143,0,USKansasOttawa,Kansas,Ottawa,2021-04-04 11:36:13.569527,2021-03-18 00:00:00.000000,0.29329095,0.53378809,1.04378210,16,30,59,6,12,27,0.11974836,0.21572577,0.48451368,0.28925773,0.52420046,1.21691369
20143,0,USKansasOttawa,Kansas,Ottawa,2021-04-04 11:36:13.569527,2021-03-19 00:00:00.000000,0.29506515,0.54638070,1.08071063,16,31,61,6,12,27,0.12150561,0.22137886,0.47394088,0.28975520,0.51180450,1.22185492
20143,0,USKansasOttawa,Kansas,Ottawa,2021-04-04 11:36:13.569527,2021-03-20 00:00:00.000000,0.27988407,0.54111796,1.11560570,15,30,63,7,12,26,0.12369802,0.22720448,0.46581999,0.28187660,0.51455563,1.22359112
20143,0,USKansasOttawa,Kansas,Ottawa,2021-04-04 11:36:13.569527,2021-03-21 00:00:00.000000,0.27591079,0.54389396,1.14847861,15,31,65,7,13,26,0.12628104,0.23123333,0.45825452,0.27351574,0.51257559,1.22636809
20143,0,USKansasOttawa,Kansas,Ottawa,2021-04-04 11:36:13.569527,2021-03-22 00:00:00.000000,0.28385423,0.54851853,1.11087095,16,31,63,7,13,25,0.12891536,0.22950989,0.45395804,0.27305725,0.51903229,1.23344280
20143,0,USKansasOttawa,Kansas,Ottawa,2021-04-04 11:36:13.569527,2021-03-23 00:00:00.000000,0.29151305,0.56549338,1.05541973,16,32,60,7,13,26,0.12618009,0.23189789,0.46226234,0.27205876,0.54263620,1.25931344
20143,0,USKansasOttawa,Kansas,Ottawa,2021-04-04 11:36:13.569527,2021-03-24 00:00:00.000000,0.28859743,0.57548793,1.05228974,16,32,60,6,13,25,0.12271392,0.23137381,0.44910318,0.27169968,0.52751933,1.29247887
20143,0,USKansasOttawa,Kansas,Ottawa,2021-04-04 11:36:13.569527,2021-03-25 00:00:00.000000,0.28501083,0.57963581,1.06660588,16,33,60,6,13,24,0.12210176,0.22859616,0.42860218,0.27162015,0.52854662,1.37265230
20143,0,USKansasOttawa,Kansas,Ottawa,2021-04-04 11:36:13.569527,2021-03-26 00:00:00.000000,0.28141400,0.57206890,1.04474187,16,32,59,7,13,23,0.12279853,0.23002261,0.41589743,0.27137856,0.52183388,1.48791895
20143,0,USKansasOttawa,Kansas,Ottawa,2021-04-04 11:36:13.569527,2021-03-27 00:00:00.000000,0.27790260,0.57614632,1.06886585,15,32,60,7,13,23,0.12439249,0.23487585,0.40637774,0.25767197,0.51896225,1.60023056
20143,0,USKansasOttawa,Kansas,Ottawa,2021-04-04 11:36:13.569527,2021-03-28 00:00:00.000000,0.27452625,0.56787234,1.12877551,15,32,64,7,13,24,0.12482956,0.23741130,0.42319493,0.25588726,0.52236089,1.67255629
20143,0,USKansasOttawa,Kansas,Ottawa,2021-04-04 11:36:13.569527,2021-03-29 00:00:00.000000,0.25783711,0.53579026,1.08833592,14,30,62,7,14,25,0.12334113,0.24735367,0.44105013,0.25314480,0.52823614,1.70624864
20143,0,USKansasOttawa,Kansas,Ottawa,2021-04-04 11:36:13.569527,2021-03-30 00:00:00.000000,0.24117268,0.50415121,1.04500997,13,28,59,6,13,24,0.11928913,0.23880871,0.42863515,0.25268739,0.52587100,1.77844739
20143,0,USKansasOttawa,Kansas,Ottawa,2021-04-04 11:36:13.569527,2021-03-31 00:00:00.000000,0.22420164,0.47129214,0.99803433,12,26,56,6,13,23,0.11369595,0.23394484,0.41675510,0.25264753,0.53230625,1.83149362
20143,0,USKansasOttawa,Kansas,Ottawa,2021-04-04 11:36:13.569527,2021-04-01 00:00:00.000000,0.20735503,0.43410921,0.94952714,11,24,54,6,12,22,0.10721423,0.22326166,0.39791996,0.25183415,0.53072230,1.85393653
20143,0,USKansasOttawa,Kansas,Ottawa,2021-04-04 11:36:13.569527,2021-04-02 00:00:00.000000,0.19104541,0.39871163,0.90179666,10,22,51,5,12,21,0.10027982,0.21500830,0.38052050,0.25116346,0.52979374,1.86853210
20143,0,USKansasOttawa,Kansas,Ottawa,2021-04-04 11:36:13.569527,2021-04-03 00:00:00.000000,0.17554451,0.36791915,0.85807335,10,20,48,5,11,20,0.09320913,0.20376944,0.36695479,0.25094862,0.52782988,1.88256360
20143,0,USKansasOttawa,Kansas,Ottawa,2021-04-04 11:36:13.569527,2021-04-04 00:00:00.000000,0.16098738,0.34044232,0.81690212,9,19,46,4,11,20,0.08622830,0.19372915,0.35226869,0.25145507,0.52569329,1.89816198
20143,0,USKansasOttawa,Kansas,Ottawa,2021-04-04 11:36:13.569527,2021-04-05 00:00:00.000000,0.14742484,0.31496477,0.77695385,8,17,44,4,10,19,0.07948751,0.18349705,0.33695262,0.25229788,0.52188329,1.91499640
20143,0,USKansasOttawa,Kansas,Ottawa,2021-04-04 11:36:13.569527,2021-04-06 00:00:00.000000,0.13485897,0.28924749,0.73843501,7,16,42,4,9,18,0.07307851,0.17331230,0.32078434,0.25270770,0.52393437,1.94376999
20143,0,USKansasOttawa,Kansas,Ottawa,2021-04-04 11:36:13.569527,2021-04-07 00:00:00.000000,0.12326324,0.26359606,0.70142859,7,15,40,3,9,17,0.06705141,0.16335941,0.30420100,0.25270753,0.52455958,1.95630713
20143,0,USKansasOttawa,Kansas,Ottawa,2021-04-04 11:36:13.569527,2021-04-08 00:00:00.000000,0.11259447,0.24301314,0.66597308,6,13,37,3,8,16,0.06142800,0.15295746,0.28753785,0.25270748,0.52459419,1.96121426
20143,0,USKansasOttawa,Kansas,Ottawa,2021-04-04 11:36:13.569527,2021-04-09 00:00:00.000000,0.10280027,0.22389664,0.62446568,5,12,35,3,7,15,0.05621131,0.13986781,0.27089256,0.25270746,0.52460590,1.96301635
20143,0,USKansasOttawa,Kansas,Ottawa,2021-04-04 11:36:13.569527,2021-04-10 00:00:00.000000,0.09382395,0.20613572,0.58214523,5,11,33,2,7,14,0.05139243,0.12592080,0.25210604,0.25270746,0.52460987,1.96365836
20143,0,USKansasOttawa,Kansas,Ottawa,2021-04-04 11:36:13.569527,2021-04-11 00:00:00.000000,0.08503583,0.18819218,0.54225479,4,10,30,2,6,13,0.04695509,0.11327916,0.23189074,0.25270746,0.52461121,1.96388406
20143,0,USKansasOttawa,Kansas,Ottawa,2021-04-04 11:36:13.569527,2021-04-12 00:00:00.000000,0.07627894,0.17084805,0.50473918,4,9,28,2,5,12,0.04229690,0.10315392,0.21296259,0.25270745,0.52461167,1.96396294
20143,0,USKansasOttawa,Kansas,Ottawa,2021-04-04 11:36:13.569527,2021-04-13 00:00:00.000000,0.06839789,0.15673206,0.46952628,3,8,26,2,5,11,0.03800772,0.09575377,0.19763092,0.25270745,0.52461182,1.96399042
20143,0,USKansasOttawa,Kansas,Ottawa,2021-04-04 11:36:13.569527,2021-04-14 00:00:00.000000,0.06131213,0.14339771,0.43653120,3,8,24,1,5,10,0.03413078,0.08878074,0.18728323,0.25270745,0.52461187,1.96399999
20143,0,USKansasOttawa,Kansas,Ottawa,2021-04-04 11:36:13.569527,2021-04-15 00:00:00.000000,0.05494656,0.13150093,0.40566010,3,7,23,1,4,10,0.03063251,0.08057948,0.17740142,0.25270745,0.52461189,1.96400331
20143,0,USKansasOttawa,Kansas,Ottawa,2021-04-04 11:36:13.569527,2021-04-16 00:00:00.000000,0.04923180,0.12035358,0.37681348,2,6,21,1,4,9,0.02748040,0.07386446,0.16797840,0.25270745,0.52461190,1.96400447
