FIPS,HR_UID,nameid,province,region,analysisTime,dates,pointprevalence_025,pointprevalence_50,pointprevalence_975,pointinfections_025,pointinfections_50,pointinfections_975,pointinfectious_025,pointinfectious_50,pointinfectious_975,pointinfectiousprevalence_05,pointinfectiousprevalence_50,pointinfectiousprevalence_95,infectrate_025,infectrate_50,infectrate_975
55111,0,USWisconsinSauk,Wisconsin,Sauk,2021-04-04 01:48:46.152839,2020-03-09 00:00:00.000000,0.00176333,0.00514021,0.01139315,1,3,7,0,1,2,0.00026622,0.00197076,0.00462006,0.37596772,0.51782121,0.74735281
55111,0,USWisconsinSauk,Wisconsin,Sauk,2021-04-04 01:48:46.152839,2020-03-10 00:00:00.000000,0.00258715,0.00711850,0.01609197,1,4,10,0,1,3,0.00050010,0.00229891,0.00483367,0.37596747,0.51781086,0.74696027
55111,0,USWisconsinSauk,Wisconsin,Sauk,2021-04-04 01:48:46.152839,2020-03-11 00:00:00.000000,0.00362569,0.00943137,0.02128968,2,6,13,0,1,3,0.00080314,0.00267604,0.00569595,0.37596642,0.51778796,0.74624625
55111,0,USWisconsinSauk,Wisconsin,Sauk,2021-04-04 01:48:46.152839,2020-03-12 00:00:00.000000,0.00477736,0.01177214,0.02713102,3,7,17,0,2,4,0.00109958,0.00357891,0.00734737,0.37596178,0.51773676,0.74495295
55111,0,USWisconsinSauk,Wisconsin,Sauk,2021-04-04 01:48:46.152839,2020-03-13 00:00:00.000000,0.00599910,0.01426937,0.03330544,3,9,21,0,2,6,0.00140651,0.00457548,0.00931097,0.37594121,0.51664267,0.74381844
55111,0,USWisconsinSauk,Wisconsin,Sauk,2021-04-04 01:48:46.152839,2020-03-14 00:00:00.000000,0.00730090,0.01708673,0.03982386,4,11,25,1,3,7,0.00181134,0.00575986,0.01151982,0.37584994,0.51375762,0.74281669
55111,0,USWisconsinSauk,Wisconsin,Sauk,2021-04-04 01:48:46.152839,2020-03-15 00:00:00.000000,0.00820873,0.01993295,0.04665246,5,12,30,1,4,8,0.00223565,0.00683282,0.01394284,0.37544729,0.51316004,0.74071403
55111,0,USWisconsinSauk,Wisconsin,Sauk,2021-04-04 01:48:46.152839,2020-03-16 00:00:00.000000,0.01016434,0.02362367,0.05149079,6,15,33,1,5,10,0.00264049,0.00807425,0.01655337,0.37372746,0.50815954,0.73633835
55111,0,USWisconsinSauk,Wisconsin,Sauk,2021-04-04 01:48:46.152839,2020-03-17 00:00:00.000000,0.01144935,0.02703149,0.05626444,7,17,36,1,6,12,0.00310226,0.00965140,0.01907492,0.36730073,0.49832161,0.72739055
55111,0,USWisconsinSauk,Wisconsin,Sauk,2021-04-04 01:48:46.152839,2020-03-18 00:00:00.000000,0.01277629,0.03025687,0.06070717,8,19,39,2,7,13,0.00360908,0.01105133,0.02158503,0.35017892,0.48852093,0.70970409
55111,0,USWisconsinSauk,Wisconsin,Sauk,2021-04-04 01:48:46.152839,2020-03-19 00:00:00.000000,0.01415336,0.03330828,0.06477818,9,21,41,2,8,15,0.00415039,0.01265029,0.02409532,0.29452575,0.46632597,0.69586126
55111,0,USWisconsinSauk,Wisconsin,Sauk,2021-04-04 01:48:46.152839,2020-03-20 00:00:00.000000,0.01558470,0.03745940,0.07336184,10,24,47,3,9,17,0.00471753,0.01485400,0.02655823,0.27072358,0.45064820,0.66376258
55111,0,USWisconsinSauk,Wisconsin,Sauk,2021-04-04 01:48:46.152839,2020-03-21 00:00:00.000000,0.01773051,0.04158661,0.08310520,11,26,53,3,10,19,0.00531229,0.01685475,0.02995962,0.25288482,0.43069802,0.65955422
55111,0,USWisconsinSauk,Wisconsin,Sauk,2021-04-04 01:48:46.152839,2020-03-22 00:00:00.000000,0.01984142,0.04475715,0.09492534,12,28,61,3,12,21,0.00619166,0.01870479,0.03350306,0.24832926,0.41921547,0.61552714
55111,0,USWisconsinSauk,Wisconsin,Sauk,2021-04-04 01:48:46.152839,2020-03-23 00:00:00.000000,0.02187915,0.04932976,0.10172751,14,31,65,4,13,25,0.00684745,0.02020144,0.03905716,0.24600565,0.40905725,0.59594513
55111,0,USWisconsinSauk,Wisconsin,Sauk,2021-04-04 01:48:46.152839,2020-03-24 00:00:00.000000,0.02497945,0.05501259,0.10929886,16,35,70,4,14,28,0.00766342,0.02207924,0.04441668,0.24460114,0.39196640,0.60088346
55111,0,USWisconsinSauk,Wisconsin,Sauk,2021-04-04 01:48:46.152839,2020-03-25 00:00:00.000000,0.02830498,0.06054288,0.11750847,18,39,75,5,15,30,0.00861463,0.02475594,0.04807870,0.22056787,0.36254734,0.58135798
55111,0,USWisconsinSauk,Wisconsin,Sauk,2021-04-04 01:48:46.152839,2020-03-26 00:00:00.000000,0.03028469,0.06469981,0.12632117,19,41,81,6,17,33,0.00966908,0.02776617,0.05129528,0.21475883,0.33887805,0.56980614
55111,0,USWisconsinSauk,Wisconsin,Sauk,2021-04-04 01:48:46.152839,2020-03-27 00:00:00.000000,0.03195497,0.06914199,0.13567828,20,44,87,6,19,34,0.01080075,0.03016181,0.05426874,0.20870007,0.31783568,0.54672117
55111,0,USWisconsinSauk,Wisconsin,Sauk,2021-04-04 01:48:46.152839,2020-03-28 00:00:00.000000,0.03366108,0.07395085,0.14546206,21,47,93,7,20,37,0.01182179,0.03243138,0.05779874,0.20457583,0.30776255,0.50243493
55111,0,USWisconsinSauk,Wisconsin,Sauk,2021-04-04 01:48:46.152839,2020-03-29 00:00:00.000000,0.03539689,0.07746220,0.15357081,22,49,98,8,22,40,0.01271078,0.03472957,0.06313449,0.19921074,0.30004244,0.47807645
55111,0,USWisconsinSauk,Wisconsin,Sauk,2021-04-04 01:48:46.152839,2020-03-30 00:00:00.000000,0.03836861,0.08117901,0.16204560,24,52,104,8,23,43,0.01382281,0.03705641,0.06798179,0.19552605,0.28905628,0.46073768
55111,0,USWisconsinSauk,Wisconsin,Sauk,2021-04-04 01:48:46.152839,2020-03-31 00:00:00.000000,0.04141422,0.08473212,0.17004888,26,54,109,9,25,46,0.01510863,0.03886929,0.07201585,0.19291851,0.27637595,0.45998639
55111,0,USWisconsinSauk,Wisconsin,Sauk,2021-04-04 01:48:46.152839,2020-04-01 00:00:00.000000,0.04454398,0.08907557,0.17735094,28,57,114,10,26,49,0.01635908,0.04065647,0.07647868,0.19018832,0.27351686,0.45207471
55111,0,USWisconsinSauk,Wisconsin,Sauk,2021-04-04 01:48:46.152839,2020-04-02 00:00:00.000000,0.04775887,0.09286436,0.18388672,30,59,118,11,27,52,0.01757305,0.04227234,0.08202372,0.18926892,0.26693377,0.44495887
55111,0,USWisconsinSauk,Wisconsin,Sauk,2021-04-04 01:48:46.152839,2020-04-03 00:00:00.000000,0.05101469,0.09611755,0.18961838,32,61,122,12,28,56,0.01874465,0.04430727,0.08714867,0.18702427,0.25861833,0.43804611
55111,0,USWisconsinSauk,Wisconsin,Sauk,2021-04-04 01:48:46.152839,2020-04-04 00:00:00.000000,0.05433907,0.10146326,0.19414908,35,65,125,12,29,59,0.01974923,0.04610453,0.09194691,0.17970040,0.25053278,0.37758653
55111,0,USWisconsinSauk,Wisconsin,Sauk,2021-04-04 01:48:46.152839,2020-04-05 00:00:00.000000,0.05620689,0.10365870,0.19622032,36,66,126,13,31,62,0.02059380,0.04813933,0.09672053,0.17593526,0.24081945,0.36636147
55111,0,USWisconsinSauk,Wisconsin,Sauk,2021-04-04 01:48:46.152839,2020-04-06 00:00:00.000000,0.05849780,0.10830336,0.20212971,37,69,130,14,32,65,0.02199454,0.05013405,0.10102079,0.17400622,0.23621596,0.34347761
55111,0,USWisconsinSauk,Wisconsin,Sauk,2021-04-04 01:48:46.152839,2020-04-07 00:00:00.000000,0.06008648,0.11293171,0.20767495,38,72,133,14,33,67,0.02290216,0.05192133,0.10540579,0.17054931,0.22372388,0.34250192
55111,0,USWisconsinSauk,Wisconsin,Sauk,2021-04-04 01:48:46.152839,2020-04-08 00:00:00.000000,0.06175610,0.11584631,0.21285414,39,74,137,15,34,70,0.02397901,0.05346432,0.10962598,0.16779905,0.21350139,0.34147888
55111,0,USWisconsinSauk,Wisconsin,Sauk,2021-04-04 01:48:46.152839,2020-04-09 00:00:00.000000,0.06294861,0.11871141,0.21715892,40,76,139,16,35,73,0.02573902,0.05480796,0.11358128,0.15411484,0.20842375,0.33967986
55111,0,USWisconsinSauk,Wisconsin,Sauk,2021-04-04 01:48:46.152839,2020-04-10 00:00:00.000000,0.06272174,0.12076593,0.22049874,40,77,142,17,36,74,0.02745724,0.05636633,0.11626565,0.14321939,0.19963921,0.33609601
55111,0,USWisconsinSauk,Wisconsin,Sauk,2021-04-04 01:48:46.152839,2020-04-11 00:00:00.000000,0.06227816,0.12065099,0.22289877,40,77,143,17,37,76,0.02750111,0.05844738,0.11870180,0.14254607,0.19449786,0.33266767
55111,0,USWisconsinSauk,Wisconsin,Sauk,2021-04-04 01:48:46.152839,2020-04-12 00:00:00.000000,0.06172622,0.12234075,0.22463779,39,78,144,17,38,77,0.02751252,0.05982693,0.12057747,0.14176707,0.19501908,0.32985963
55111,0,USWisconsinSauk,Wisconsin,Sauk,2021-04-04 01:48:46.152839,2020-04-13 00:00:00.000000,0.06225560,0.12434758,0.22244059,40,80,143,17,39,78,0.02751739,0.06079354,0.12227521,0.13541874,0.19314222,0.32592929
55111,0,USWisconsinSauk,Wisconsin,Sauk,2021-04-04 01:48:46.152839,2020-04-14 00:00:00.000000,0.06299082,0.12519749,0.22416380,40,80,144,17,39,79,0.02780885,0.06152229,0.12307415,0.12963928,0.18782971,0.31874267
55111,0,USWisconsinSauk,Wisconsin,Sauk,2021-04-04 01:48:46.152839,2020-04-15 00:00:00.000000,0.06471670,0.12689184,0.23040980,41,81,148,18,40,81,0.02829033,0.06283962,0.12631288,0.12460924,0.18388822,0.30743917
55111,0,USWisconsinSauk,Wisconsin,Sauk,2021-04-04 01:48:46.152839,2020-04-16 00:00:00.000000,0.06679486,0.12732772,0.23616427,43,82,152,18,40,83,0.02941885,0.06314679,0.12910323,0.12066116,0.18321488,0.29380496
55111,0,USWisconsinSauk,Wisconsin,Sauk,2021-04-04 01:48:46.152839,2020-04-17 00:00:00.000000,0.06885603,0.12827717,0.24145450,44,82,155,19,41,84,0.03073767,0.06460909,0.13150141,0.11987852,0.18310029,0.28630550
55111,0,USWisconsinSauk,Wisconsin,Sauk,2021-04-04 01:48:46.152839,2020-04-18 00:00:00.000000,0.07088680,0.13059980,0.24635766,45,84,158,20,42,86,0.03214426,0.06537447,0.13348541,0.11768024,0.18039021,0.28321305
55111,0,USWisconsinSauk,Wisconsin,Sauk,2021-04-04 01:48:46.152839,2020-04-19 00:00:00.000000,0.07287241,0.13186104,0.24815000,46,84,159,20,42,86,0.03250821,0.06619083,0.13494598,0.11474987,0.17404528,0.27958341
55111,0,USWisconsinSauk,Wisconsin,Sauk,2021-04-04 01:48:46.152839,2020-04-20 00:00:00.000000,0.07879031,0.13184887,0.24988831,50,84,161,21,43,87,0.03274272,0.06697790,0.13583383,0.11242506,0.17040648,0.27368720
55111,0,USWisconsinSauk,Wisconsin,Sauk,2021-04-04 01:48:46.152839,2020-04-21 00:00:00.000000,0.08158869,0.13090483,0.25163824,52,84,162,22,43,87,0.03565516,0.06822528,0.13631829,0.11042380,0.16629866,0.26605511
55111,0,USWisconsinSauk,Wisconsin,Sauk,2021-04-04 01:48:46.152839,2020-04-22 00:00:00.000000,0.08074590,0.13492235,0.25236282,52,86,162,23,43,87,0.03698982,0.06826398,0.13647643,0.10895672,0.16320063,0.26368337
55111,0,USWisconsinSauk,Wisconsin,Sauk,2021-04-04 01:48:46.152839,2020-04-23 00:00:00.000000,0.08005063,0.13410433,0.25230977,51,86,162,24,44,87,0.03741272,0.06871898,0.13638484,0.10346776,0.16106802,0.27330272
55111,0,USWisconsinSauk,Wisconsin,Sauk,2021-04-04 01:48:46.152839,2020-04-24 00:00:00.000000,0.07953325,0.13515428,0.25202120,51,87,162,24,44,88,0.03754263,0.06910595,0.13721111,0.10058361,0.15946383,0.27273872
55111,0,USWisconsinSauk,Wisconsin,Sauk,2021-04-04 01:48:46.152839,2020-04-25 00:00:00.000000,0.08039043,0.13647808,0.25156901,51,87,162,24,44,91,0.03744612,0.06951959,0.14132902,0.09988987,0.15548947,0.27176740
55111,0,USWisconsinSauk,Wisconsin,Sauk,2021-04-04 01:48:46.152839,2020-04-26 00:00:00.000000,0.08217232,0.13709564,0.25105169,52,88,161,23,45,93,0.03718048,0.06995495,0.14525061,0.09703190,0.15168336,0.26957531
55111,0,USWisconsinSauk,Wisconsin,Sauk,2021-04-04 01:48:46.152839,2020-04-27 00:00:00.000000,0.08152311,0.13634887,0.24885703,52,87,160,23,46,95,0.03679061,0.07219825,0.14889591,0.09394746,0.14729556,0.26931962
55111,0,USWisconsinSauk,Wisconsin,Sauk,2021-04-04 01:48:46.152839,2020-04-28 00:00:00.000000,0.08062004,0.13575431,0.24762862,51,87,159,24,46,97,0.03741988,0.07283920,0.15196138,0.08876296,0.14397332,0.26940161
55111,0,USWisconsinSauk,Wisconsin,Sauk,2021-04-04 01:48:46.152839,2020-04-29 00:00:00.000000,0.07862581,0.13442392,0.24998962,50,86,161,24,46,99,0.03761528,0.07273464,0.15455325,0.08615876,0.14188154,0.26932120
55111,0,USWisconsinSauk,Wisconsin,Sauk,2021-04-04 01:48:46.152839,2020-04-30 00:00:00.000000,0.07666395,0.13378495,0.25229051,49,86,162,24,46,101,0.03793627,0.07241745,0.15677499,0.08628231,0.14094465,0.26914368
55111,0,USWisconsinSauk,Wisconsin,Sauk,2021-04-04 01:48:46.152839,2020-05-01 00:00:00.000000,0.07475374,0.13252275,0.25444174,48,85,163,24,46,102,0.03834461,0.07179072,0.15871453,0.09453251,0.13931403,0.26867348
55111,0,USWisconsinSauk,Wisconsin,Sauk,2021-04-04 01:48:46.152839,2020-05-02 00:00:00.000000,0.07404566,0.13088777,0.25646243,47,84,165,25,45,102,0.03881558,0.07113584,0.15922099,0.08852068,0.13777778,0.26742318
55111,0,USWisconsinSauk,Wisconsin,Sauk,2021-04-04 01:48:46.152839,2020-05-03 00:00:00.000000,0.07497905,0.12964906,0.25832831,48,83,166,25,45,102,0.03933503,0.07044661,0.15977486,0.08948403,0.13674900,0.26425646
55111,0,USWisconsinSauk,Wisconsin,Sauk,2021-04-04 01:48:46.152839,2020-05-04 00:00:00.000000,0.07540333,0.12735387,0.26084581,48,82,168,25,44,103,0.03988977,0.06963037,0.16047631,0.09051380,0.13776141,0.25716075
55111,0,USWisconsinSauk,Wisconsin,Sauk,2021-04-04 01:48:46.152839,2020-05-05 00:00:00.000000,0.07530798,0.12469828,0.26648352,48,80,171,25,44,104,0.04032298,0.06862181,0.16193811,0.09131711,0.13514566,0.24485574
55111,0,USWisconsinSauk,Wisconsin,Sauk,2021-04-04 01:48:46.152839,2020-05-06 00:00:00.000000,0.07371166,0.12181217,0.27205144,47,78,175,25,43,104,0.03949893,0.06771734,0.16195693,0.09191968,0.13565822,0.23602647
55111,0,USWisconsinSauk,Wisconsin,Sauk,2021-04-04 01:48:46.152839,2020-05-07 00:00:00.000000,0.07234216,0.12132212,0.27734488,46,78,178,24,43,102,0.03828911,0.06705274,0.15972018,0.09023089,0.13669196,0.23959109
55111,0,USWisconsinSauk,Wisconsin,Sauk,2021-04-04 01:48:46.152839,2020-05-08 00:00:00.000000,0.07128745,0.11962551,0.28201991,45,77,181,24,42,100,0.03725568,0.06542005,0.15671368,0.08883829,0.13878277,0.23506028
55111,0,USWisconsinSauk,Wisconsin,Sauk,2021-04-04 01:48:46.152839,2020-05-09 00:00:00.000000,0.07059228,0.11939986,0.28576173,45,76,184,23,41,98,0.03639039,0.06381452,0.15322636,0.08843191,0.13744479,0.23270250
55111,0,USWisconsinSauk,Wisconsin,Sauk,2021-04-04 01:48:46.152839,2020-05-10 00:00:00.000000,0.07011839,0.11820531,0.28840226,45,76,185,23,39,96,0.03569463,0.06170902,0.14944542,0.08835197,0.13680243,0.23166440
55111,0,USWisconsinSauk,Wisconsin,Sauk,2021-04-04 01:48:46.152839,2020-05-11 00:00:00.000000,0.07041698,0.11572183,0.28628763,45,74,184,22,38,95,0.03563432,0.05977660,0.14848954,0.08835847,0.13736378,0.23383950
55111,0,USWisconsinSauk,Wisconsin,Sauk,2021-04-04 01:48:46.152839,2020-05-12 00:00:00.000000,0.07078856,0.11416365,0.28415362,45,73,183,22,37,95,0.03538646,0.05880469,0.14749388,0.08832525,0.13654314,0.23894633
55111,0,USWisconsinSauk,Wisconsin,Sauk,2021-04-04 01:48:46.152839,2020-05-13 00:00:00.000000,0.07062395,0.11486571,0.28204202,45,74,181,22,37,94,0.03499258,0.05799409,0.14646952,0.08835781,0.13755282,0.23955603
55111,0,USWisconsinSauk,Wisconsin,Sauk,2021-04-04 01:48:46.152839,2020-05-14 00:00:00.000000,0.07016300,0.11446891,0.27998611,45,73,180,22,36,93,0.03454875,0.05707003,0.14542697,0.08880544,0.13807281,0.23832765
55111,0,USWisconsinSauk,Wisconsin,Sauk,2021-04-04 01:48:46.152839,2020-05-15 00:00:00.000000,0.06891957,0.11452320,0.27805371,44,73,179,22,36,93,0.03457490,0.05728833,0.14437809,0.08795955,0.13911748,0.23498738
55111,0,USWisconsinSauk,Wisconsin,Sauk,2021-04-04 01:48:46.152839,2020-05-16 00:00:00.000000,0.06719358,0.11312786,0.27638420,43,72,178,22,36,92,0.03473103,0.05681765,0.14334087,0.08681255,0.14084018,0.22961567
55111,0,USWisconsinSauk,Wisconsin,Sauk,2021-04-04 01:48:46.152839,2020-05-17 00:00:00.000000,0.06584589,0.11200985,0.27544662,42,72,177,22,36,91,0.03502706,0.05666798,0.14235128,0.08674678,0.14228562,0.22784412
55111,0,USWisconsinSauk,Wisconsin,Sauk,2021-04-04 01:48:46.152839,2020-05-18 00:00:00.000000,0.06503635,0.11247043,0.27793957,41,72,179,22,36,91,0.03543099,0.05642873,0.14148566,0.08672364,0.14232768,0.23092482
55111,0,USWisconsinSauk,Wisconsin,Sauk,2021-04-04 01:48:46.152839,2020-05-19 00:00:00.000000,0.06407160,0.11217091,0.27996053,41,72,180,22,36,90,0.03559530,0.05626793,0.14113588,0.08690747,0.14472185,0.23177658
55111,0,USWisconsinSauk,Wisconsin,Sauk,2021-04-04 01:48:46.152839,2020-05-20 00:00:00.000000,0.06309664,0.11159533,0.27640949,40,71,178,21,36,91,0.03372471,0.05659160,0.14140260,0.08780359,0.14495372,0.23176157
55111,0,USWisconsinSauk,Wisconsin,Sauk,2021-04-04 01:48:46.152839,2020-05-21 00:00:00.000000,0.06211463,0.11169303,0.27291802,40,71,175,21,36,91,0.03337171,0.05671311,0.14232791,0.09194505,0.14513706,0.23672573
55111,0,USWisconsinSauk,Wisconsin,Sauk,2021-04-04 01:48:46.152839,2020-05-22 00:00:00.000000,0.06114583,0.11149985,0.26949466,39,71,173,22,36,92,0.03444564,0.05637853,0.14386580,0.09383055,0.14835191,0.24197476
55111,0,USWisconsinSauk,Wisconsin,Sauk,2021-04-04 01:48:46.152839,2020-05-23 00:00:00.000000,0.06020403,0.11136596,0.26615861,38,71,171,21,36,94,0.03400133,0.05673274,0.14592915,0.09430930,0.15242713,0.24617327
55111,0,USWisconsinSauk,Wisconsin,Sauk,2021-04-04 01:48:46.152839,2020-05-24 00:00:00.000000,0.05929567,0.11141517,0.26302954,38,71,169,21,36,95,0.03351780,0.05707985,0.14843875,0.09626615,0.15807349,0.24864567
55111,0,USWisconsinSauk,Wisconsin,Sauk,2021-04-04 01:48:46.152839,2020-05-25 00:00:00.000000,0.06209311,0.11197246,0.26125439,40,72,168,21,36,97,0.03365953,0.05702385,0.15132792,0.10008120,0.16338941,0.24937523
55111,0,USWisconsinSauk,Wisconsin,Sauk,2021-04-04 01:48:46.152839,2020-05-26 00:00:00.000000,0.06322353,0.11251054,0.25979844,40,72,167,21,36,98,0.03386648,0.05716253,0.15295039,0.10492539,0.17009776,0.25079607
55111,0,USWisconsinSauk,Wisconsin,Sauk,2021-04-04 01:48:46.152839,2020-05-27 00:00:00.000000,0.06217106,0.11174579,0.25868608,40,72,166,21,37,99,0.03321115,0.05742011,0.15383230,0.10581460,0.17195334,0.25713834
55111,0,USWisconsinSauk,Wisconsin,Sauk,2021-04-04 01:48:46.152839,2020-05-28 00:00:00.000000,0.06315991,0.11160152,0.25788718,40,71,166,21,37,99,0.03357652,0.05761448,0.15446567,0.10641403,0.17309071,0.25763064
55111,0,USWisconsinSauk,Wisconsin,Sauk,2021-04-04 01:48:46.152839,2020-05-29 00:00:00.000000,0.06419060,0.11249224,0.25735422,41,72,165,21,37,99,0.03385321,0.05825303,0.15491247,0.10742648,0.17958038,0.27938129
55111,0,USWisconsinSauk,Wisconsin,Sauk,2021-04-04 01:48:46.152839,2020-05-30 00:00:00.000000,0.06525299,0.11283130,0.25705119,42,72,165,21,37,100,0.03409828,0.05801228,0.15519275,0.11054073,0.18861787,0.29147949
55111,0,USWisconsinSauk,Wisconsin,Sauk,2021-04-04 01:48:46.152839,2020-05-31 00:00:00.000000,0.06633156,0.11429267,0.25698374,42,73,165,22,37,100,0.03442903,0.05811813,0.15529068,0.11868089,0.19512435,0.30745756
55111,0,USWisconsinSauk,Wisconsin,Sauk,2021-04-04 01:48:46.152839,2020-06-01 00:00:00.000000,0.07183618,0.11582893,0.25819930,46,74,166,22,38,100,0.03486028,0.05897913,0.15531156,0.12092091,0.19818546,0.31368604
55111,0,USWisconsinSauk,Wisconsin,Sauk,2021-04-04 01:48:46.152839,2020-06-02 00:00:00.000000,0.07514947,0.11765291,0.25980321,48,75,167,22,38,100,0.03534853,0.05976417,0.15521429,0.12225636,0.20398532,0.31658879
55111,0,USWisconsinSauk,Wisconsin,Sauk,2021-04-04 01:48:46.152839,2020-06-03 00:00:00.000000,0.07742729,0.11993136,0.26182059,49,77,168,22,39,99,0.03531056,0.06094557,0.15504670,0.12380431,0.20987752,0.31622495
55111,0,USWisconsinSauk,Wisconsin,Sauk,2021-04-04 01:48:46.152839,2020-06-04 00:00:00.000000,0.08030438,0.12184779,0.26419332,51,78,170,23,39,99,0.03651536,0.06189076,0.15486020,0.13732392,0.22023886,0.31719714
55111,0,USWisconsinSauk,Wisconsin,Sauk,2021-04-04 01:48:46.152839,2020-06-05 00:00:00.000000,0.08439228,0.12399964,0.26692211,54,79,172,24,40,99,0.03798064,0.06265136,0.15471524,0.14418014,0.22532767,0.31819026
55111,0,USWisconsinSauk,Wisconsin,Sauk,2021-04-04 01:48:46.152839,2020-06-06 00:00:00.000000,0.08579976,0.12583179,0.27017261,55,81,174,25,41,99,0.03941484,0.06497924,0.15468460,0.14749012,0.22846020,0.32356235
55111,0,USWisconsinSauk,Wisconsin,Sauk,2021-04-04 01:48:46.152839,2020-06-07 00:00:00.000000,0.08626591,0.12835937,0.27520451,55,82,177,26,42,101,0.04125792,0.06654936,0.15768409,0.15248449,0.23310821,0.32809762
55111,0,USWisconsinSauk,Wisconsin,Sauk,2021-04-04 01:48:46.152839,2020-06-08 00:00:00.000000,0.09156159,0.13248057,0.29066094,59,85,187,27,43,106,0.04317940,0.06759555,0.16467654,0.15924311,0.24432349,0.33961038
55111,0,USWisconsinSauk,Wisconsin,Sauk,2021-04-04 01:48:46.152839,2020-06-09 00:00:00.000000,0.09437177,0.13594169,0.30735584,60,87,198,28,44,111,0.04402544,0.06878250,0.17242931,0.16203856,0.25498337,0.35052410
55111,0,USWisconsinSauk,Wisconsin,Sauk,2021-04-04 01:48:46.152839,2020-06-10 00:00:00.000000,0.09744390,0.14128870,0.32447093,62,91,209,29,45,113,0.04510494,0.07078771,0.17540437,0.16855486,0.27047803,0.36037836
55111,0,USWisconsinSauk,Wisconsin,Sauk,2021-04-04 01:48:46.152839,2020-06-11 00:00:00.000000,0.10088451,0.14694249,0.33053879,65,94,213,29,47,115,0.04632967,0.07383930,0.17909617,0.17648858,0.27843168,0.38177892
55111,0,USWisconsinSauk,Wisconsin,Sauk,2021-04-04 01:48:46.152839,2020-06-12 00:00:00.000000,0.10061915,0.15386692,0.33692147,64,99,217,30,49,118,0.04774470,0.07621848,0.18351740,0.19327619,0.28873831,0.40115035
55111,0,USWisconsinSauk,Wisconsin,Sauk,2021-04-04 01:48:46.152839,2020-06-13 00:00:00.000000,0.10023273,0.16193480,0.34370648,64,104,221,30,50,121,0.04798761,0.07893393,0.18866805,0.19498852,0.29825857,0.41152503
55111,0,USWisconsinSauk,Wisconsin,Sauk,2021-04-04 01:48:46.152839,2020-06-14 00:00:00.000000,0.10524647,0.16817489,0.35100626,67,108,226,31,52,125,0.04912710,0.08209814,0.19455763,0.19678874,0.30734308,0.41711434
55111,0,USWisconsinSauk,Wisconsin,Sauk,2021-04-04 01:48:46.152839,2020-06-15 00:00:00.000000,0.11740287,0.17604578,0.36225099,75,113,233,32,55,129,0.05031457,0.08540405,0.20120754,0.19985908,0.31904944,0.42530089
55111,0,USWisconsinSauk,Wisconsin,Sauk,2021-04-04 01:48:46.152839,2020-06-16 00:00:00.000000,0.12140420,0.18462821,0.37401837,78,118,241,32,57,134,0.05116633,0.08926391,0.20844207,0.20666160,0.32657296,0.45235579
55111,0,USWisconsinSauk,Wisconsin,Sauk,2021-04-04 01:48:46.152839,2020-06-17 00:00:00.000000,0.12546044,0.19345394,0.38773543,80,124,249,34,60,139,0.05313268,0.09342914,0.21633560,0.22023398,0.33772162,0.46885742
55111,0,USWisconsinSauk,Wisconsin,Sauk,2021-04-04 01:48:46.152839,2020-06-18 00:00:00.000000,0.12959364,0.20451971,0.40556260,83,131,261,36,62,144,0.05594448,0.09690570,0.22484805,0.23139723,0.34486784,0.50500726
55111,0,USWisconsinSauk,Wisconsin,Sauk,2021-04-04 01:48:46.152839,2020-06-19 00:00:00.000000,0.13761901,0.21671249,0.42481901,88,139,273,38,65,150,0.05940838,0.10131301,0.23393719,0.23333393,0.35472663,0.51928273
55111,0,USWisconsinSauk,Wisconsin,Sauk,2021-04-04 01:48:46.152839,2020-06-20 00:00:00.000000,0.14687106,0.22980312,0.44664593,94,148,287,40,68,157,0.06266513,0.10706066,0.24382298,0.23272917,0.36559547,0.52506230
55111,0,USWisconsinSauk,Wisconsin,Sauk,2021-04-04 01:48:46.152839,2020-06-21 00:00:00.000000,0.15293578,0.24446931,0.47281213,98,157,304,41,73,164,0.06512008,0.11358002,0.25473869,0.25978914,0.38413419,0.53363202
55111,0,USWisconsinSauk,Wisconsin,Sauk,2021-04-04 01:48:46.152839,2020-06-22 00:00:00.000000,0.16796873,0.26077781,0.50234978,108,168,323,43,77,172,0.06748406,0.12026771,0.26716290,0.26217680,0.39493839,0.54049941
55111,0,USWisconsinSauk,Wisconsin,Sauk,2021-04-04 01:48:46.152839,2020-06-23 00:00:00.000000,0.18307169,0.27853300,0.53364416,117,179,343,46,81,181,0.07176172,0.12583729,0.28132974,0.26630717,0.40763200,0.56026593
55111,0,USWisconsinSauk,Wisconsin,Sauk,2021-04-04 01:48:46.152839,2020-06-24 00:00:00.000000,0.19557320,0.29987204,0.56671510,126,193,365,49,84,191,0.07674676,0.13180130,0.29709354,0.26935783,0.41274698,0.58288267
55111,0,USWisconsinSauk,Wisconsin,Sauk,2021-04-04 01:48:46.152839,2020-06-25 00:00:00.000000,0.20850018,0.31985019,0.60159047,134,206,387,52,89,202,0.08209183,0.13825852,0.31434215,0.28228340,0.41840623,0.59068923
55111,0,USWisconsinSauk,Wisconsin,Sauk,2021-04-04 01:48:46.152839,2020-06-26 00:00:00.000000,0.21872831,0.34017100,0.63823154,140,219,411,56,94,214,0.08774662,0.14635071,0.33299490,0.30701142,0.42558802,0.58882236
55111,0,USWisconsinSauk,Wisconsin,Sauk,2021-04-04 01:48:46.152839,2020-06-27 00:00:00.000000,0.22832445,0.36156337,0.67647721,147,232,435,60,100,227,0.09319018,0.15664246,0.35298636,0.32175145,0.43584997,0.59239497
55111,0,USWisconsinSauk,Wisconsin,Sauk,2021-04-04 01:48:46.152839,2020-06-28 00:00:00.000000,0.23878865,0.38732668,0.71600635,153,249,461,63,108,241,0.09819132,0.16854181,0.37424720,0.33618713,0.45681254,0.60758503
55111,0,USWisconsinSauk,Wisconsin,Sauk,2021-04-04 01:48:46.152839,2020-06-29 00:00:00.000000,0.25043474,0.41229517,0.75903934,161,265,489,66,116,255,0.10371782,0.18136279,0.39667427,0.35491141,0.46612056,0.62355741
55111,0,USWisconsinSauk,Wisconsin,Sauk,2021-04-04 01:48:46.152839,2020-06-30 00:00:00.000000,0.26276599,0.44083896,0.79313628,169,284,511,70,123,271,0.10956401,0.19209217,0.42056618,0.35518972,0.47007536,0.64567204
55111,0,USWisconsinSauk,Wisconsin,Sauk,2021-04-04 01:48:46.152839,2020-07-01 00:00:00.000000,0.27593903,0.47006875,0.82528213,177,302,531,74,131,287,0.11575564,0.20364841,0.44564491,0.35824872,0.47755415,0.64847371
55111,0,USWisconsinSauk,Wisconsin,Sauk,2021-04-04 01:48:46.152839,2020-07-02 00:00:00.000000,0.29303890,0.50852463,0.86489022,188,327,557,78,139,303,0.12238767,0.21688606,0.47171943,0.36408750,0.49475404,0.65421681
55111,0,USWisconsinSauk,Wisconsin,Sauk,2021-04-04 01:48:46.152839,2020-07-03 00:00:00.000000,0.31625598,0.54893571,0.91757743,203,353,591,83,149,321,0.12969456,0.23170811,0.49857126,0.36013505,0.48843259,0.67293410
55111,0,USWisconsinSauk,Wisconsin,Sauk,2021-04-04 01:48:46.152839,2020-07-04 00:00:00.000000,0.34144960,0.59098015,0.97160764,220,380,626,88,159,339,0.13783346,0.24782962,0.52611034,0.35458138,0.48938070,0.69556823
55111,0,USWisconsinSauk,Wisconsin,Sauk,2021-04-04 01:48:46.152839,2020-07-05 00:00:00.000000,0.36853419,0.63186145,1.02673434,237,407,661,94,172,357,0.14677474,0.26787885,0.55453623,0.35214943,0.49061065,0.68988570
55111,0,USWisconsinSauk,Wisconsin,Sauk,2021-04-04 01:48:46.152839,2020-07-06 00:00:00.000000,0.39276679,0.67621082,1.09132062,253,435,703,101,186,376,0.15740897,0.28998474,0.58385984,0.35118304,0.48928095,0.68218828
55111,0,USWisconsinSauk,Wisconsin,Sauk,2021-04-04 01:48:46.152839,2020-07-07 00:00:00.000000,0.41842607,0.72653870,1.15551442,269,468,744,110,198,395,0.17074400,0.30769525,0.61329935,0.34924605,0.48433248,0.67357119
55111,0,USWisconsinSauk,Wisconsin,Sauk,2021-04-04 01:48:46.152839,2020-07-08 00:00:00.000000,0.44464875,0.77461870,1.21757904,286,499,784,117,211,412,0.18291739,0.32817900,0.64039064,0.32464932,0.48256189,0.66454249
55111,0,USWisconsinSauk,Wisconsin,Sauk,2021-04-04 01:48:46.152839,2020-07-09 00:00:00.000000,0.47167244,0.82297564,1.29045676,303,530,831,127,228,430,0.19842851,0.35448024,0.66786756,0.30720840,0.47885151,0.66656152
55111,0,USWisconsinSauk,Wisconsin,Sauk,2021-04-04 01:48:46.152839,2020-07-10 00:00:00.000000,0.50008753,0.86936484,1.37865080,322,560,888,139,247,462,0.21695444,0.38336142,0.71781826,0.30567498,0.47413308,0.67027663
55111,0,USWisconsinSauk,Wisconsin,Sauk,2021-04-04 01:48:46.152839,2020-07-11 00:00:00.000000,0.53979881,0.92174260,1.45939477,347,593,940,150,266,488,0.23425985,0.41411560,0.75819783,0.30431229,0.46733682,0.63126904
55111,0,USWisconsinSauk,Wisconsin,Sauk,2021-04-04 01:48:46.152839,2020-07-12 00:00:00.000000,0.58274546,0.97847361,1.54341780,375,630,994,162,285,513,0.25247498,0.44273102,0.79719161,0.30116991,0.45139009,0.61619675
55111,0,USWisconsinSauk,Wisconsin,Sauk,2021-04-04 01:48:46.152839,2020-07-13 00:00:00.000000,0.62637601,1.02476187,1.62347439,403,660,1046,174,301,538,0.27149180,0.46812776,0.83574370,0.29890593,0.43355739,0.60463613
55111,0,USWisconsinSauk,Wisconsin,Sauk,2021-04-04 01:48:46.152839,2020-07-14 00:00:00.000000,0.67315051,1.07789017,1.70440740,433,694,1098,187,317,562,0.29068960,0.49195709,0.87267456,0.29760086,0.42334402,0.58765707
55111,0,USWisconsinSauk,Wisconsin,Sauk,2021-04-04 01:48:46.152839,2020-07-15 00:00:00.000000,0.72249725,1.12542027,1.76289069,465,725,1136,199,334,585,0.30962506,0.51945134,0.90859237,0.29191744,0.41527113,0.56882962
55111,0,USWisconsinSauk,Wisconsin,Sauk,2021-04-04 01:48:46.152839,2020-07-16 00:00:00.000000,0.77271151,1.18873832,1.81042505,497,766,1166,212,355,608,0.33024835,0.55132020,0.94394502,0.28711270,0.40707289,0.55825535
55111,0,USWisconsinSauk,Wisconsin,Sauk,2021-04-04 01:48:46.152839,2020-07-17 00:00:00.000000,0.81943582,1.24368852,1.84765973,528,801,1190,227,373,631,0.35269409,0.57976806,0.97924473,0.28009118,0.40163982,0.55447054
55111,0,USWisconsinSauk,Wisconsin,Sauk,2021-04-04 01:48:46.152839,2020-07-18 00:00:00.000000,0.85776705,1.29594470,1.90014556,552,835,1224,239,390,653,0.37133933,0.60612649,1.01478027,0.25565975,0.37897124,0.54622597
55111,0,USWisconsinSauk,Wisconsin,Sauk,2021-04-04 01:48:46.152839,2020-07-19 00:00:00.000000,0.88849866,1.35288503,1.92380632,572,871,1239,251,407,666,0.39029526,0.63299134,1.03444316,0.25014723,0.37152213,0.53098107
55111,0,USWisconsinSauk,Wisconsin,Sauk,2021-04-04 01:48:46.152839,2020-07-20 00:00:00.000000,0.91772514,1.40838037,1.96933685,591,907,1269,263,422,692,0.40963399,0.65626094,1.07448860,0.24173396,0.36716106,0.51536543
55111,0,USWisconsinSauk,Wisconsin,Sauk,2021-04-04 01:48:46.152839,2020-07-21 00:00:00.000000,0.94578413,1.45492229,2.03679185,609,937,1312,276,442,721,0.42900589,0.68669127,1.11948783,0.23747504,0.34330179,0.50641683
55111,0,USWisconsinSauk,Wisconsin,Sauk,2021-04-04 01:48:46.152839,2020-07-22 00:00:00.000000,0.97359361,1.50291106,2.09464671,627,968,1349,289,463,748,0.44868283,0.71965315,1.16120588,0.23353394,0.32995557,0.50504592
55111,0,USWisconsinSauk,Wisconsin,Sauk,2021-04-04 01:48:46.152839,2020-07-23 00:00:00.000000,1.00123320,1.54634579,2.14264008,645,996,1380,302,481,775,0.46881460,0.74655998,1.20293271,0.23212782,0.32410054,0.49904566
55111,0,USWisconsinSauk,Wisconsin,Sauk,2021-04-04 01:48:46.152839,2020-07-24 00:00:00.000000,1.02828233,1.57058445,2.18465117,662,1012,1407,311,498,797,0.48407700,0.77326902,1.23731883,0.22540933,0.30833621,0.48654295
55111,0,USWisconsinSauk,Wisconsin,Sauk,2021-04-04 01:48:46.152839,2020-07-25 00:00:00.000000,1.04815105,1.59159853,2.24385593,675,1025,1445,321,512,815,0.49842454,0.79574597,1.26566508,0.20372057,0.29929414,0.47442935
55111,0,USWisconsinSauk,Wisconsin,Sauk,2021-04-04 01:48:46.152839,2020-07-26 00:00:00.000000,1.05192919,1.61049846,2.27615433,677,1037,1466,330,524,828,0.51219547,0.81450225,1.28506331,0.19617268,0.28614089,0.46293921
55111,0,USWisconsinSauk,Wisconsin,Sauk,2021-04-04 01:48:46.152839,2020-07-27 00:00:00.000000,1.08117842,1.63625799,2.29858383,696,1054,1481,336,532,833,0.52194395,0.82605024,1.29337042,0.18911693,0.27740826,0.45246291
55111,0,USWisconsinSauk,Wisconsin,Sauk,2021-04-04 01:48:46.152839,2020-07-28 00:00:00.000000,1.09886480,1.65963602,2.33351704,708,1069,1503,338,539,836,0.52464151,0.83684325,1.29757746,0.18320831,0.26940915,0.40690826
55111,0,USWisconsinSauk,Wisconsin,Sauk,2021-04-04 01:48:46.152839,2020-07-29 00:00:00.000000,1.10078168,1.65303840,2.35734950,709,1065,1519,339,547,836,0.52667458,0.84930569,1.29871850,0.17988338,0.26220011,0.38876107
55111,0,USWisconsinSauk,Wisconsin,Sauk,2021-04-04 01:48:46.152839,2020-07-30 00:00:00.000000,1.11738917,1.65357911,2.36885499,720,1065,1526,340,556,836,0.52825010,0.86433040,1.29744645,0.17667117,0.25948294,0.36810114
55111,0,USWisconsinSauk,Wisconsin,Sauk,2021-04-04 01:48:46.152839,2020-07-31 00:00:00.000000,1.13956962,1.65189959,2.37813044,734,1064,1532,342,557,833,0.53099757,0.86568897,1.29412444,0.17657498,0.25525422,0.34287618
55111,0,USWisconsinSauk,Wisconsin,Sauk,2021-04-04 01:48:46.152839,2020-08-01 00:00:00.000000,1.14629008,1.64998301,2.38549219,738,1063,1537,343,563,830,0.53321081,0.87410625,1.28899065,0.17645344,0.24833015,0.33431632
55111,0,USWisconsinSauk,Wisconsin,Sauk,2021-04-04 01:48:46.152839,2020-08-02 00:00:00.000000,1.16085055,1.64918939,2.43150869,748,1062,1566,346,570,826,0.53845321,0.88574301,1.28230798,0.17521840,0.24478444,0.32583922
55111,0,USWisconsinSauk,Wisconsin,Sauk,2021-04-04 01:48:46.152839,2020-08-03 00:00:00.000000,1.17812661,1.65036677,2.42694143,759,1063,1563,347,572,821,0.53949252,0.88767700,1.27438477,0.17104301,0.24208847,0.32387171
55111,0,USWisconsinSauk,Wisconsin,Sauk,2021-04-04 01:48:46.152839,2020-08-04 00:00:00.000000,1.18565329,1.64412270,2.41982537,764,1059,1559,343,575,815,0.53252969,0.89229431,1.26520995,0.16854342,0.23457514,0.31047290
55111,0,USWisconsinSauk,Wisconsin,Sauk,2021-04-04 01:48:46.152839,2020-08-05 00:00:00.000000,1.17642961,1.64346549,2.41186593,758,1059,1554,338,572,823,0.52551257,0.88865466,1.27766556,0.16612971,0.23205310,0.30722064
55111,0,USWisconsinSauk,Wisconsin,Sauk,2021-04-04 01:48:46.152839,2020-08-06 00:00:00.000000,1.15989462,1.62526758,2.40294129,747,1047,1548,334,572,834,0.51850978,0.88805797,1.29462939,0.16021384,0.22814551,0.30508527
55111,0,USWisconsinSauk,Wisconsin,Sauk,2021-04-04 01:48:46.152839,2020-08-07 00:00:00.000000,1.15504189,1.61504441,2.39128835,744,1040,1540,329,572,844,0.51149764,0.88772202,1.31007371,0.15311489,0.22754905,0.30025902
55111,0,USWisconsinSauk,Wisconsin,Sauk,2021-04-04 01:48:46.152839,2020-08-08 00:00:00.000000,1.15063250,1.61110190,2.37361046,741,1038,1529,324,569,853,0.50403656,0.88368652,1.32385562,0.14423204,0.22414386,0.30201109
55111,0,USWisconsinSauk,Wisconsin,Sauk,2021-04-04 01:48:46.152839,2020-08-09 00:00:00.000000,1.14131258,1.59410434,2.36279139,735,1027,1522,318,566,860,0.49470544,0.87851995,1.33563757,0.13760928,0.21759952,0.30345856
55111,0,USWisconsinSauk,Wisconsin,Sauk,2021-04-04 01:48:46.152839,2020-08-10 00:00:00.000000,1.12848627,1.59350580,2.34876739,727,1026,1513,311,564,866,0.48298946,0.87526714,1.34469350,0.13662012,0.21426668,0.30686767
55111,0,USWisconsinSauk,Wisconsin,Sauk,2021-04-04 01:48:46.152839,2020-08-11 00:00:00.000000,1.11235895,1.58354097,2.33397314,716,1020,1504,303,561,869,0.47100322,0.87149759,1.34917121,0.13655593,0.21154510,0.30893754
55111,0,USWisconsinSauk,Wisconsin,Sauk,2021-04-04 01:48:46.152839,2020-08-12 00:00:00.000000,1.09452780,1.55982337,2.31712997,705,1005,1493,298,556,866,0.46345692,0.86408146,1.34431391,0.13659070,0.21120704,0.31005712
55111,0,USWisconsinSauk,Wisconsin,Sauk,2021-04-04 01:48:46.152839,2020-08-13 00:00:00.000000,1.07500822,1.54619800,2.31678066,692,996,1492,296,547,858,0.46038567,0.84963982,1.33184706,0.13670309,0.21178750,0.31031103
55111,0,USWisconsinSauk,Wisconsin,Sauk,2021-04-04 01:48:46.152839,2020-08-14 00:00:00.000000,1.05190689,1.54163143,2.30279142,677,993,1483,295,538,851,0.45856712,0.83548647,1.32074920,0.14014692,0.21476173,0.30597054
55111,0,USWisconsinSauk,Wisconsin,Sauk,2021-04-04 01:48:46.152839,2020-08-15 00:00:00.000000,1.03004085,1.52248545,2.28445660,663,981,1472,294,529,848,0.45738299,0.82244308,1.31639744,0.14777580,0.20785287,0.30383957
55111,0,USWisconsinSauk,Wisconsin,Sauk,2021-04-04 01:48:46.152839,2020-08-16 00:00:00.000000,1.01881725,1.50371058,2.24809902,656,969,1448,293,528,844,0.45554627,0.82041072,1.31004244,0.14695150,0.20715923,0.30505968
55111,0,USWisconsinSauk,Wisconsin,Sauk,2021-04-04 01:48:46.152839,2020-08-17 00:00:00.000000,1.00484686,1.48823013,2.20343960,647,959,1419,292,524,838,0.45322418,0.81337511,1.30177132,0.14479248,0.20588689,0.30405900
55111,0,USWisconsinSauk,Wisconsin,Sauk,2021-04-04 01:48:46.152839,2020-08-18 00:00:00.000000,0.98780006,1.48259788,2.16680257,636,955,1396,290,519,828,0.45056514,0.80568665,1.28630864,0.14304679,0.20437343,0.29928057
55111,0,USWisconsinSauk,Wisconsin,Sauk,2021-04-04 01:48:46.152839,2020-08-19 00:00:00.000000,0.96479903,1.46760992,2.15680577,621,945,1389,288,510,818,0.44773694,0.79217913,1.27050114,0.14198414,0.20624133,0.29963451
55111,0,USWisconsinSauk,Wisconsin,Sauk,2021-04-04 01:48:46.152839,2020-08-20 00:00:00.000000,0.95541277,1.44786419,2.14653883,615,933,1383,286,500,808,0.44488264,0.77730589,1.25458165,0.14169616,0.20723276,0.30290459
55111,0,USWisconsinSauk,Wisconsin,Sauk,2021-04-04 01:48:46.152839,2020-08-21 00:00:00.000000,0.95080434,1.44420424,2.13607829,612,930,1376,284,494,798,0.44214042,0.76702478,1.23879498,0.14282633,0.20767352,0.30507678
55111,0,USWisconsinSauk,Wisconsin,Sauk,2021-04-04 01:48:46.152839,2020-08-22 00:00:00.000000,0.94747186,1.43435593,2.12501418,610,924,1369,283,490,788,0.43965128,0.76111437,1.22343903,0.14583341,0.20808629,0.31067899
55111,0,USWisconsinSauk,Wisconsin,Sauk,2021-04-04 01:48:46.152839,2020-08-23 00:00:00.000000,0.94533915,1.41991760,2.11912110,609,915,1365,281,485,779,0.43754001,0.75283801,1.20889108,0.14329566,0.20746025,0.31549267
55111,0,USWisconsinSauk,Wisconsin,Sauk,2021-04-04 01:48:46.152839,2020-08-24 00:00:00.000000,0.94636135,1.39710935,2.11043508,609,900,1360,280,479,774,0.43586324,0.74334496,1.20224439,0.14081181,0.20944099,0.31534988
55111,0,USWisconsinSauk,Wisconsin,Sauk,2021-04-04 01:48:46.152839,2020-08-25 00:00:00.000000,0.94668023,1.37229599,2.09881100,610,884,1352,277,473,772,0.43011952,0.73460957,1.19879107,0.14105112,0.21162376,0.31564862
55111,0,USWisconsinSauk,Wisconsin,Sauk,2021-04-04 01:48:46.152839,2020-08-26 00:00:00.000000,0.93930364,1.35774845,2.08332855,605,874,1342,267,467,770,0.41444723,0.72471799,1.19575745,0.14253694,0.21577835,0.31611663
55111,0,USWisconsinSauk,Wisconsin,Sauk,2021-04-04 01:48:46.152839,2020-08-27 00:00:00.000000,0.92791149,1.34505254,2.06433679,597,866,1330,257,460,777,0.39937809,0.71442902,1.20582058,0.14753084,0.21927536,0.31973191
55111,0,USWisconsinSauk,Wisconsin,Sauk,2021-04-04 01:48:46.152839,2020-08-28 00:00:00.000000,0.90967607,1.33879515,2.05525205,586,862,1324,248,456,780,0.38508584,0.70885682,1.21135134,0.14747131,0.22518140,0.35600844
55111,0,USWisconsinSauk,Wisconsin,Sauk,2021-04-04 01:48:46.152839,2020-08-29 00:00:00.000000,0.88884682,1.33191148,2.05166765,572,858,1322,239,454,779,0.37178459,0.70469829,1.21005840,0.15704761,0.22820841,0.36843867
55111,0,USWisconsinSauk,Wisconsin,Sauk,2021-04-04 01:48:46.152839,2020-08-30 00:00:00.000000,0.88297683,1.34008177,2.05049620,569,863,1321,231,451,779,0.35974619,0.70038934,1.21029640,0.16346608,0.23733345,0.38064655
55111,0,USWisconsinSauk,Wisconsin,Sauk,2021-04-04 01:48:46.152839,2020-08-31 00:00:00.000000,0.88282708,1.34617511,2.05459960,568,867,1324,230,450,780,0.35711283,0.69840321,1.21176039,0.17900195,0.24711101,0.38608337
55111,0,USWisconsinSauk,Wisconsin,Sauk,2021-04-04 01:48:46.152839,2020-09-01 00:00:00.000000,0.88341846,1.35433319,2.05964594,569,872,1327,230,452,782,0.35703798,0.70151012,1.21412839,0.17763411,0.25151547,0.38961926
55111,0,USWisconsinSauk,Wisconsin,Sauk,2021-04-04 01:48:46.152839,2020-09-02 00:00:00.000000,0.88494889,1.36788108,2.06486801,570,881,1330,230,454,784,0.35750741,0.70573477,1.21712999,0.17498252,0.26111626,0.39056314
55111,0,USWisconsinSauk,Wisconsin,Sauk,2021-04-04 01:48:46.152839,2020-09-03 00:00:00.000000,0.87392189,1.38178658,2.07016175,563,890,1334,230,454,786,0.35838139,0.70553628,1.22055522,0.17348531,0.26619015,0.40919270
55111,0,USWisconsinSauk,Wisconsin,Sauk,2021-04-04 01:48:46.152839,2020-09-04 00:00:00.000000,0.87472852,1.39786170,2.07631101,563,900,1338,231,455,788,0.35993819,0.70650692,1.22424935,0.17403375,0.27043384,0.43090789
55111,0,USWisconsinSauk,Wisconsin,Sauk,2021-04-04 01:48:46.152839,2020-09-05 00:00:00.000000,0.87255097,1.41710180,2.08471158,562,913,1343,234,458,791,0.36321200,0.71157431,1.22810555,0.18306345,0.28393731,0.43153136
55111,0,USWisconsinSauk,Wisconsin,Sauk,2021-04-04 01:48:46.152839,2020-09-06 00:00:00.000000,0.87467324,1.44282449,2.13151194,563,929,1373,237,462,793,0.36799571,0.71766677,1.23207990,0.20268995,0.29314848,0.43236372
55111,0,USWisconsinSauk,Wisconsin,Sauk,2021-04-04 01:48:46.152839,2020-09-07 00:00:00.000000,0.88342717,1.45484407,2.18930192,569,937,1410,240,466,796,0.37381110,0.72465862,1.23624245,0.21277230,0.30216074,0.43304387
55111,0,USWisconsinSauk,Wisconsin,Sauk,2021-04-04 01:48:46.152839,2020-09-08 00:00:00.000000,0.89743711,1.47666999,2.25143648,578,951,1450,245,472,799,0.38077765,0.73297765,1.24108220,0.21504280,0.30725902,0.43342272
55111,0,USWisconsinSauk,Wisconsin,Sauk,2021-04-04 01:48:46.152839,2020-09-09 00:00:00.000000,0.91605063,1.50616805,2.31352606,590,970,1490,246,477,803,0.38222180,0.74161141,1.24643529,0.21556380,0.31356019,0.46168465
55111,0,USWisconsinSauk,Wisconsin,Sauk,2021-04-04 01:48:46.152839,2020-09-10 00:00:00.000000,0.92516714,1.52201567,2.35651355,596,980,1518,248,484,806,0.38562507,0.75120917,1.25223711,0.21580132,0.32459953,0.46868524
55111,0,USWisconsinSauk,Wisconsin,Sauk,2021-04-04 01:48:46.152839,2020-09-11 00:00:00.000000,0.93911456,1.53856836,2.36922174,605,991,1526,252,493,810,0.39110855,0.76533065,1.25844875,0.22690675,0.33595346,0.48514069
55111,0,USWisconsinSauk,Wisconsin,Sauk,2021-04-04 01:48:46.152839,2020-09-12 00:00:00.000000,0.96212266,1.57940006,2.38546799,620,1017,1537,261,505,815,0.40519156,0.78425171,1.26508688,0.23373492,0.34837960,0.49416861
55111,0,USWisconsinSauk,Wisconsin,Sauk,2021-04-04 01:48:46.152839,2020-09-13 00:00:00.000000,0.99918012,1.61192177,2.44510968,643,1038,1575,272,514,819,0.42316976,0.79887904,1.27239450,0.23432328,0.36393398,0.49639437
55111,0,USWisconsinSauk,Wisconsin,Sauk,2021-04-04 01:48:46.152839,2020-09-14 00:00:00.000000,1.02964909,1.67589510,2.52247603,663,1079,1625,278,528,825,0.43186976,0.82021554,1.28093029,0.23504450,0.37701411,0.51944875
55111,0,USWisconsinSauk,Wisconsin,Sauk,2021-04-04 01:48:46.152839,2020-09-15 00:00:00.000000,1.06406915,1.74424723,2.58994362,685,1124,1669,284,548,832,0.44131622,0.85038822,1.29182608,0.23908803,0.39661571,0.51952820
55111,0,USWisconsinSauk,Wisconsin,Sauk,2021-04-04 01:48:46.152839,2020-09-16 00:00:00.000000,1.11095692,1.82102172,2.63221370,715,1173,1696,290,565,847,0.45121988,0.87820458,1.31443821,0.26080649,0.40206962,0.51840461
55111,0,USWisconsinSauk,Wisconsin,Sauk,2021-04-04 01:48:46.152839,2020-09-17 00:00:00.000000,1.15762825,1.90130722,2.68292817,745,1225,1728,299,581,870,0.46550351,0.90274496,1.35045406,0.28301793,0.41249073,0.53006338
55111,0,USWisconsinSauk,Wisconsin,Sauk,2021-04-04 01:48:46.152839,2020-09-18 00:00:00.000000,1.21238776,1.97033113,2.75191847,781,1269,1773,312,601,897,0.48458682,0.93357463,1.39202026,0.28999444,0.42316356,0.52551844
55111,0,USWisconsinSauk,Wisconsin,Sauk,2021-04-04 01:48:46.152839,2020-09-19 00:00:00.000000,1.27149187,2.04240234,2.83132516,819,1316,1824,325,621,928,0.50555998,0.96434364,1.44046650,0.29331406,0.43903800,0.53110969
55111,0,USWisconsinSauk,Wisconsin,Sauk,2021-04-04 01:48:46.152839,2020-09-20 00:00:00.000000,1.33385339,2.14547645,2.99080731,859,1382,1927,348,644,964,0.54111300,0.99988206,1.49744803,0.29700881,0.44216704,0.55433014
55111,0,USWisconsinSauk,Wisconsin,Sauk,2021-04-04 01:48:46.152839,2020-09-21 00:00:00.000000,1.39955509,2.25080509,3.15925384,901,1450,2035,360,669,1008,0.55971266,1.03929735,1.56435543,0.30978056,0.45511710,0.58616898
55111,0,USWisconsinSauk,Wisconsin,Sauk,2021-04-04 01:48:46.152839,2020-09-22 00:00:00.000000,1.46901158,2.35872623,3.33497486,946,1520,2149,374,694,1057,0.58173897,1.07788392,1.64123923,0.32983539,0.45240591,0.61439348
55111,0,USWisconsinSauk,Wisconsin,Sauk,2021-04-04 01:48:46.152839,2020-09-23 00:00:00.000000,1.54253325,2.48418615,3.51798987,994,1600,2267,391,722,1113,0.60696896,1.12169618,1.72792461,0.33775227,0.45798523,0.64484844
55111,0,USWisconsinSauk,Wisconsin,Sauk,2021-04-04 01:48:46.152839,2020-09-24 00:00:00.000000,1.62144220,2.61250580,3.70902485,1044,1683,2390,409,756,1195,0.63503735,1.17361934,1.85580863,0.34447352,0.46364856,0.65299171
55111,0,USWisconsinSauk,Wisconsin,Sauk,2021-04-04 01:48:46.152839,2020-09-25 00:00:00.000000,1.71119770,2.73594258,3.90876072,1102,1763,2518,428,800,1273,0.66555026,1.24189555,1.97594201,0.35396633,0.46874820,0.65669144
55111,0,USWisconsinSauk,Wisconsin,Sauk,2021-04-04 01:48:46.152839,2020-09-26 00:00:00.000000,1.81476115,2.91142228,4.11761723,1169,1876,2653,449,846,1346,0.69821981,1.31429918,2.08947311,0.35800752,0.48313434,0.65727628
55111,0,USWisconsinSauk,Wisconsin,Sauk,2021-04-04 01:48:46.152839,2020-09-27 00:00:00.000000,1.92672036,3.05536547,4.36928504,1241,1968,2815,472,896,1412,0.73389577,1.39082190,2.19126005,0.35830977,0.49896462,0.69505984
55111,0,USWisconsinSauk,Wisconsin,Sauk,2021-04-04 01:48:46.152839,2020-09-28 00:00:00.000000,2.08442153,3.21677223,4.73075115,1343,2072,3048,498,941,1486,0.77317723,1.46068827,2.30730572,0.35850333,0.50956844,0.72609947
55111,0,USWisconsinSauk,Wisconsin,Sauk,2021-04-04 01:48:46.152839,2020-09-29 00:00:00.000000,2.23662475,3.40514820,4.94535829,1441,2194,3186,527,992,1562,0.81904721,1.53946267,2.42451044,0.36143179,0.51027238,0.78886623
55111,0,USWisconsinSauk,Wisconsin,Sauk,2021-04-04 01:48:46.152839,2020-09-30 00:00:00.000000,2.39877706,3.60175950,5.25963294,1545,2321,3389,564,1047,1636,0.87590727,1.62564965,2.53916272,0.39223205,0.51843920,0.79242229
55111,0,USWisconsinSauk,Wisconsin,Sauk,2021-04-04 01:48:46.152839,2020-10-01 00:00:00.000000,2.54956306,3.80366218,5.60640892,1642,2451,3612,607,1111,1723,0.94242162,1.72543485,2.67401526,0.39555121,0.52289993,0.79545721
55111,0,USWisconsinSauk,Wisconsin,Sauk,2021-04-04 01:48:46.152839,2020-10-02 00:00:00.000000,2.69319439,4.01900666,5.96780611,1735,2589,3845,655,1174,1847,1.01734286,1.82190769,2.86659087,0.40179719,0.52377180,0.79848483
55111,0,USWisconsinSauk,Wisconsin,Sauk,2021-04-04 01:48:46.152839,2020-10-03 00:00:00.000000,2.83265208,4.27955442,6.34364446,1825,2757,4087,708,1240,1970,1.09990650,1.92552698,3.05799510,0.39076337,0.52026965,0.72760098
55111,0,USWisconsinSauk,Wisconsin,Sauk,2021-04-04 01:48:46.152839,2020-10-04 00:00:00.000000,3.01314930,4.53911182,6.72501041,1941,2925,4333,763,1321,2092,1.18458470,2.05004443,3.24715080,0.37892232,0.52178662,0.68705026
55111,0,USWisconsinSauk,Wisconsin,Sauk,2021-04-04 01:48:46.152839,2020-10-05 00:00:00.000000,3.21060320,4.79984277,6.95363057,2068,3093,4481,816,1406,2205,1.26766294,2.18202588,3.42296356,0.35707918,0.52229636,0.68903200
55111,0,USWisconsinSauk,Wisconsin,Sauk,2021-04-04 01:48:46.152839,2020-10-06 00:00:00.000000,3.42316090,5.02718073,7.18856284,2205,3239,4632,870,1490,2309,1.35139762,2.31364850,3.58325345,0.35953622,0.51941369,0.69974809
55111,0,USWisconsinSauk,Wisconsin,Sauk,2021-04-04 01:48:46.152839,2020-10-07 00:00:00.000000,3.65118342,5.33622227,7.44843234,2352,3438,4799,926,1580,2406,1.43728537,2.45216289,3.73374995,0.35258935,0.51912616,0.72847704
55111,0,USWisconsinSauk,Wisconsin,Sauk,2021-04-04 01:48:46.152839,2020-10-08 00:00:00.000000,3.89556875,5.64561631,7.73943078,2510,3638,4987,983,1677,2527,1.52631433,2.60384282,3.92269255,0.35223949,0.50996746,0.75174261
55111,0,USWisconsinSauk,Wisconsin,Sauk,2021-04-04 01:48:46.152839,2020-10-09 00:00:00.000000,4.15515937,5.93874763,8.06017421,2677,3827,5194,1043,1775,2650,1.61860717,2.75534894,4.11310540,0.35527542,0.50370104,0.75685319
55111,0,USWisconsinSauk,Wisconsin,Sauk,2021-04-04 01:48:46.152839,2020-10-10 00:00:00.000000,4.42973772,6.23980368,8.40414650,2854,4021,5415,1107,1873,2789,1.71876103,2.90676852,4.32807255,0.35705032,0.50209879,0.74643667
55111,0,USWisconsinSauk,Wisconsin,Sauk,2021-04-04 01:48:46.152839,2020-10-11 00:00:00.000000,4.63100934,6.54303454,8.76439861,2984,4216,5647,1183,1943,2916,1.83716153,3.01597760,4.52565720,0.36618690,0.50061203,0.68428163
55111,0,USWisconsinSauk,Wisconsin,Sauk,2021-04-04 01:48:46.152839,2020-10-12 00:00:00.000000,4.82887452,6.84988519,9.13011762,3111,4414,5883,1245,2019,3043,1.93235206,3.13386241,4.72239740,0.38293143,0.49651719,0.67237747
55111,0,USWisconsinSauk,Wisconsin,Sauk,2021-04-04 01:48:46.152839,2020-10-13 00:00:00.000000,5.03391171,7.15835207,9.49021216,3243,4612,6115,1301,2095,3179,2.01945416,3.25197793,4.93400220,0.38231606,0.49191559,0.63517723
55111,0,USWisconsinSauk,Wisconsin,Sauk,2021-04-04 01:48:46.152839,2020-10-14 00:00:00.000000,5.24476393,7.47209816,9.86018970,3379,4815,6354,1365,2176,3323,2.11915482,3.37794684,5.15797009,0.37887671,0.48680202,0.62937052
55111,0,USWisconsinSauk,Wisconsin,Sauk,2021-04-04 01:48:46.152839,2020-10-15 00:00:00.000000,5.45724657,7.76096748,10.22556161,3516,5001,6589,1435,2278,3468,2.22759473,3.53539547,5.38278393,0.37750867,0.48244807,0.62963005
55111,0,USWisconsinSauk,Wisconsin,Sauk,2021-04-04 01:48:46.152839,2020-10-16 00:00:00.000000,5.64392936,8.00635478,10.56708871,3637,5159,6809,1515,2384,3573,2.35170299,3.69986065,5.54602478,0.37493863,0.47523084,0.62647359
55111,0,USWisconsinSauk,Wisconsin,Sauk,2021-04-04 01:48:46.152839,2020-10-17 00:00:00.000000,5.81715113,8.19523431,10.84774466,3748,5281,6990,1590,2480,3676,2.46801056,3.84970756,5.70510402,0.35457004,0.46676807,0.61003201
55111,0,USWisconsinSauk,Wisconsin,Sauk,2021-04-04 01:48:46.152839,2020-10-18 00:00:00.000000,5.98901547,8.45277222,11.13170457,3859,5447,7173,1667,2563,3779,2.58746261,3.97765571,5.86493987,0.34020212,0.46246356,0.60233499
55111,0,USWisconsinSauk,Wisconsin,Sauk,2021-04-04 01:48:46.152839,2020-10-19 00:00:00.000000,6.13607976,8.68856338,11.50769330,3954,5599,7415,1746,2651,3884,2.71023139,4.11402515,6.02766679,0.33273376,0.44648293,0.59830077
55111,0,USWisconsinSauk,Wisconsin,Sauk,2021-04-04 01:48:46.152839,2020-10-20 00:00:00.000000,6.25989097,8.95984090,11.88187335,4033,5773,7656,1810,2757,3991,2.80970657,4.27978295,6.19338875,0.32957569,0.44233525,0.59573917
55111,0,USWisconsinSauk,Wisconsin,Sauk,2021-04-04 01:48:46.152839,2020-10-21 00:00:00.000000,6.50208680,9.16953379,12.25576569,4190,5909,7897,1863,2855,4099,2.89251144,4.43091084,6.36115474,0.32851628,0.44009387,0.59204642
55111,0,USWisconsinSauk,Wisconsin,Sauk,2021-04-04 01:48:46.152839,2020-10-22 00:00:00.000000,6.67206598,9.37581196,12.62873336,4299,6041,8138,1917,2941,4207,2.97500578,4.56412822,6.52968203,0.32861503,0.44333652,0.58448120
55111,0,USWisconsinSauk,Wisconsin,Sauk,2021-04-04 01:48:46.152839,2020-10-23 00:00:00.000000,6.84244841,9.57308593,12.90295854,4409,6169,8314,1970,3023,4316,3.05725028,4.69253252,6.69790506,0.33522507,0.44036483,0.57056416
55111,0,USWisconsinSauk,Wisconsin,Sauk,2021-04-04 01:48:46.152839,2020-10-24 00:00:00.000000,7.01175083,9.78455015,13.09202270,4518,6305,8436,2019,3108,4424,3.13396028,4.82404859,6.86598911,0.35904581,0.43647472,0.55189635
55111,0,USWisconsinSauk,Wisconsin,Sauk,2021-04-04 01:48:46.152839,2020-10-25 00:00:00.000000,7.17643690,9.93126486,13.28862039,4624,6399,8563,2047,3195,4556,3.17675041,4.95848160,7.07047078,0.34680435,0.43295886,0.54823949
55111,0,USWisconsinSauk,Wisconsin,Sauk,2021-04-04 01:48:46.152839,2020-10-26 00:00:00.000000,7.32735986,10.13772531,13.48537083,4721,6532,8690,2066,3268,4686,3.20673293,5.07128359,7.27226936,0.34078872,0.42771405,0.55316293
55111,0,USWisconsinSauk,Wisconsin,Sauk,2021-04-04 01:48:46.152839,2020-10-27 00:00:00.000000,7.35626811,10.32817880,13.69685816,4740,6655,8826,2080,3351,4815,3.22800871,5.20041769,7.47299816,0.33752610,0.42872202,0.55854251
55111,0,USWisconsinSauk,Wisconsin,Sauk,2021-04-04 01:48:46.152839,2020-10-28 00:00:00.000000,7.37423282,10.51967938,14.05256303,4752,6779,9055,2090,3416,4961,3.24452636,5.30212790,7.69907821,0.33662506,0.42733584,0.56377631
55111,0,USWisconsinSauk,Wisconsin,Sauk,2021-04-04 01:48:46.152839,2020-10-29 00:00:00.000000,7.37980833,10.76138193,14.33106065,4755,6934,9235,2169,3471,5111,3.36612707,5.38634653,7.93135852,0.33003180,0.42959515,0.56726412
55111,0,USWisconsinSauk,Wisconsin,Sauk,2021-04-04 01:48:46.152839,2020-10-30 00:00:00.000000,7.37369617,10.92302780,14.54737772,4751,7039,9374,2250,3533,5262,3.49169409,5.48299725,8.16606238,0.32372285,0.42662838,0.56760216
55111,0,USWisconsinSauk,Wisconsin,Sauk,2021-04-04 01:48:46.152839,2020-10-31 00:00:00.000000,7.40733624,11.05487332,14.71800246,4773,7123,9484,2326,3598,5411,3.61058073,5.58485895,8.39732671,0.32102725,0.42369879,0.56267032
55111,0,USWisconsinSauk,Wisconsin,Sauk,2021-04-04 01:48:46.152839,2020-11-01 00:00:00.000000,7.44803258,11.16193028,14.84788678,4799,7192,9568,2394,3657,5549,3.71573296,5.67488147,8.61155555,0.31993646,0.41837165,0.56822065
55111,0,USWisconsinSauk,Wisconsin,Sauk,2021-04-04 01:48:46.152839,2020-11-02 00:00:00.000000,7.47471254,11.28004643,14.94878369,4816,7269,9633,2450,3711,5665,3.80225247,5.75992073,8.79109792,0.30733471,0.41592948,0.57882307
55111,0,USWisconsinSauk,Wisconsin,Sauk,2021-04-04 01:48:46.152839,2020-11-03 00:00:00.000000,7.49279948,11.25971587,15.12091156,4828,7255,9744,2493,3761,5755,3.86912016,5.83773101,8.93196611,0.30339308,0.41193491,0.58394517
55111,0,USWisconsinSauk,Wisconsin,Sauk,2021-04-04 01:48:46.152839,2020-11-04 00:00:00.000000,7.49795315,11.30348891,15.55867933,4831,7284,10026,2525,3799,5825,3.91892626,5.89630614,9.04044176,0.29955183,0.40907610,0.57917278
55111,0,USWisconsinSauk,Wisconsin,Sauk,2021-04-04 01:48:46.152839,2020-11-05 00:00:00.000000,7.48320265,11.38092933,15.87794583,4822,7334,10232,2548,3823,5877,3.95418102,5.93330364,9.12019169,0.29340893,0.40248658,0.55726373
55111,0,USWisconsinSauk,Wisconsin,Sauk,2021-04-04 01:48:46.152839,2020-11-06 00:00:00.000000,7.44148549,11.37940248,15.97326835,4795,7333,10293,2560,3826,5963,3.97289099,5.93745711,9.25425985,0.28373844,0.39590542,0.53364515
55111,0,USWisconsinSauk,Wisconsin,Sauk,2021-04-04 01:48:46.152839,2020-11-07 00:00:00.000000,7.37385371,11.31516224,15.89418401,4751,7291,10242,2559,3856,6037,3.97114788,5.98514856,9.36837910,0.27037602,0.37867559,0.51573317
55111,0,USWisconsinSauk,Wisconsin,Sauk,2021-04-04 01:48:46.152839,2020-11-08 00:00:00.000000,7.32078680,11.31219740,15.74255212,4717,7289,10144,2522,3848,6092,3.91438976,5.97214292,9.45416804,0.26755055,0.37303311,0.50688629
55111,0,USWisconsinSauk,Wisconsin,Sauk,2021-04-04 01:48:46.152839,2020-11-09 00:00:00.000000,7.29796839,11.17397980,15.56198152,4702,7200,10028,2479,3826,6096,3.84687206,5.93812081,9.45983660,0.26710779,0.36704872,0.50005072
55111,0,USWisconsinSauk,Wisconsin,Sauk,2021-04-04 01:48:46.152839,2020-11-10 00:00:00.000000,7.24403907,11.10622017,15.36245510,4668,7157,9899,2433,3794,6076,3.77637803,5.88868357,9.42907611,0.26737696,0.36588916,0.49401408
55111,0,USWisconsinSauk,Wisconsin,Sauk,2021-04-04 01:48:46.152839,2020-11-11 00:00:00.000000,7.14617589,11.06544832,15.14799697,4605,7130,9761,2389,3795,6046,3.70738944,5.89046358,9.38339490,0.26629951,0.36129642,0.48652763
55111,0,USWisconsinSauk,Wisconsin,Sauk,2021-04-04 01:48:46.152839,2020-11-12 00:00:00.000000,7.00319898,10.88521849,14.91871985,4513,7014,9613,2348,3803,6009,3.64455238,5.90292365,9.32503590,0.26209961,0.35382503,0.47665146
55111,0,USWisconsinSauk,Wisconsin,Sauk,2021-04-04 01:48:46.152839,2020-11-13 00:00:00.000000,6.82540012,10.67262911,14.67627795,4398,6877,9457,2313,3804,5964,3.58988313,5.90310956,9.25549260,0.26029588,0.35010268,0.49200493
55111,0,USWisconsinSauk,Wisconsin,Sauk,2021-04-04 01:48:46.152839,2020-11-14 00:00:00.000000,6.75294873,10.55676790,14.42144584,4351,6802,9293,2282,3784,5912,3.54242194,5.87293732,9.17511043,0.25955202,0.34842094,0.49792839
55111,0,USWisconsinSauk,Wisconsin,Sauk,2021-04-04 01:48:46.152839,2020-11-15 00:00:00.000000,6.74442509,10.46634766,14.15414992,4346,6744,9121,2255,3740,5852,3.50009391,5.80452607,9.08247963,0.25008065,0.34535184,0.49988959
55111,0,USWisconsinSauk,Wisconsin,Sauk,2021-04-04 01:48:46.152839,2020-11-16 00:00:00.000000,6.73943077,10.32191829,13.87227554,4343,6651,8939,2230,3679,5783,3.46092989,5.71006830,8.97484893,0.22917962,0.34112045,0.50036560
55111,0,USWisconsinSauk,Wisconsin,Sauk,2021-04-04 01:48:46.152839,2020-11-17 00:00:00.000000,6.73125719,10.08560039,13.57600288,4337,6499,8748,2206,3644,5703,3.42326964,5.65516715,8.85000862,0.22839865,0.34154347,0.49581246
55111,0,USWisconsinSauk,Wisconsin,Sauk,2021-04-04 01:48:46.152839,2020-11-18 00:00:00.000000,6.71313351,9.86478361,13.37746037,4326,6357,8620,2182,3604,5613,3.38606101,5.59268384,8.71069610,0.22849535,0.34040991,0.47852927
55111,0,USWisconsinSauk,Wisconsin,Sauk,2021-04-04 01:48:46.152839,2020-11-19 00:00:00.000000,6.66770562,9.60279252,13.18582433,4296,6188,8497,2143,3541,5517,3.32603729,5.49532271,8.56202846,0.22936538,0.34177239,0.47238386
55111,0,USWisconsinSauk,Wisconsin,Sauk,2021-04-04 01:48:46.152839,2020-11-20 00:00:00.000000,6.57667481,9.41164436,12.98535830,4238,6065,8368,2088,3470,5419,3.24077882,5.38528853,8.40925533,0.22316604,0.34465121,0.46690531
55111,0,USWisconsinSauk,Wisconsin,Sauk,2021-04-04 01:48:46.152839,2020-11-21 00:00:00.000000,6.45822299,9.25114329,12.77688341,4161,5961,8233,2031,3394,5320,3.15167953,5.26792808,8.25630492,0.23041512,0.34706669,0.46417358
55111,0,USWisconsinSauk,Wisconsin,Sauk,2021-04-04 01:48:46.152839,2020-11-22 00:00:00.000000,6.32887305,9.08422534,12.55970751,4078,5854,8093,1972,3321,5223,3.06033462,5.15452410,8.10558824,0.22547005,0.35523276,0.46126200
55111,0,USWisconsinSauk,Wisconsin,Sauk,2021-04-04 01:48:46.152839,2020-11-23 00:00:00.000000,6.19279525,8.87566784,12.32745172,3990,5719,7944,1912,3255,5128,2.96802716,5.05213838,7.95862746,0.22420156,0.35886984,0.46247957
55111,0,USWisconsinSauk,Wisconsin,Sauk,2021-04-04 01:48:46.152839,2020-11-24 00:00:00.000000,6.05312788,8.70433424,12.18944129,3900,5609,7855,1853,3183,5037,2.87557786,4.94080725,7.81714987,0.23234044,0.36106194,0.46454374
55111,0,USWisconsinSauk,Wisconsin,Sauk,2021-04-04 01:48:46.152839,2020-11-25 00:00:00.000000,5.91112754,8.49620818,11.96077223,3809,5475,7707,1793,3109,4950,2.78365162,4.82478843,7.68248222,0.25710157,0.36206276,0.46242489
55111,0,USWisconsinSauk,Wisconsin,Sauk,2021-04-04 01:48:46.152839,2020-11-26 00:00:00.000000,5.76767962,8.29769619,11.73926989,3716,5347,7565,1735,3032,4869,2.69270213,4.70543110,7.55574969,0.26166549,0.36506239,0.46253429
55111,0,USWisconsinSauk,Wisconsin,Sauk,2021-04-04 01:48:46.152839,2020-11-27 00:00:00.000000,5.62339768,8.11775763,11.52100299,3623,5231,7424,1677,2954,4792,2.60305012,4.58411175,7.43730593,0.26416719,0.37234020,0.46795766
55111,0,USWisconsinSauk,Wisconsin,Sauk,2021-04-04 01:48:46.152839,2020-11-28 00:00:00.000000,5.47868837,7.95334290,11.30370413,3530,5125,7284,1620,2875,4721,2.51494670,4.46178816,7.32653988,0.26143876,0.37234702,0.47511554
55111,0,USWisconsinSauk,Wisconsin,Sauk,2021-04-04 01:48:46.152839,2020-11-29 00:00:00.000000,5.33389724,7.78445468,11.08670209,3437,5016,7144,1565,2795,4654,2.42865104,4.33734311,7.22217880,0.26601791,0.37067576,0.48082093
55111,0,USWisconsinSauk,Wisconsin,Sauk,2021-04-04 01:48:46.152839,2020-11-30 00:00:00.000000,5.19431874,7.61675994,10.86122673,3347,4908,6999,1510,2725,4595,2.34458499,4.22987073,7.13044422,0.26678075,0.37895768,0.50149810
55111,0,USWisconsinSauk,Wisconsin,Sauk,2021-04-04 01:48:46.152839,2020-12-01 00:00:00.000000,5.05654003,7.52967721,10.63785989,3258,4852,6855,1459,2660,4535,2.26513576,4.12829773,7.03811648,0.26824253,0.38889404,0.54127631
55111,0,USWisconsinSauk,Wisconsin,Sauk,2021-04-04 01:48:46.152839,2020-12-02 00:00:00.000000,4.92271384,7.41242852,10.41931787,3172,4776,6714,1418,2610,4476,2.20151658,4.05132481,6.94582554,0.27141728,0.39150952,0.56283116
55111,0,USWisconsinSauk,Wisconsin,Sauk,2021-04-04 01:48:46.152839,2020-12-03 00:00:00.000000,4.79201159,7.25921430,10.20908618,3088,4677,6578,1391,2572,4407,2.15927089,3.99139514,6.83891330,0.27794196,0.39828093,0.57456100
55111,0,USWisconsinSauk,Wisconsin,Sauk,2021-04-04 01:48:46.152839,2020-12-04 00:00:00.000000,4.66317980,7.09794592,10.02357931,3005,4574,6459,1363,2558,4347,2.11636509,3.97068388,6.74663034,0.28064519,0.40837933,0.57608515
55111,0,USWisconsinSauk,Wisconsin,Sauk,2021-04-04 01:48:46.152839,2020-12-05 00:00:00.000000,4.53625955,6.94659099,9.87397514,2923,4476,6362,1337,2531,4288,2.07525864,3.92759484,6.65420046,0.28458121,0.41552652,0.56879593
55111,0,USWisconsinSauk,Wisconsin,Sauk,2021-04-04 01:48:46.152839,2020-12-06 00:00:00.000000,4.41160865,6.80423088,9.72118068,2842,4384,6264,1313,2485,4228,2.03777437,3.85722436,6.56113154,0.29189494,0.42184519,0.57759691
55111,0,USWisconsinSauk,Wisconsin,Sauk,2021-04-04 01:48:46.152839,2020-12-07 00:00:00.000000,4.28687734,6.73158173,9.56906963,2762,4337,6166,1291,2415,4167,2.00484395,3.74812873,6.46645103,0.30044209,0.42762028,0.59016375
55111,0,USWisconsinSauk,Wisconsin,Sauk,2021-04-04 01:48:46.152839,2020-12-08 00:00:00.000000,4.18398118,6.63042417,9.41527926,2696,4272,6067,1273,2347,4105,1.97643950,3.64219540,6.37102601,0.30159263,0.43023515,0.60217874
55111,0,USWisconsinSauk,Wisconsin,Sauk,2021-04-04 01:48:46.152839,2020-12-09 00:00:00.000000,4.14485578,6.52767655,9.27921578,2671,4206,5979,1257,2302,4040,1.95196253,3.57313188,6.26945194,0.30294649,0.43186267,0.60622124
55111,0,USWisconsinSauk,Wisconsin,Sauk,2021-04-04 01:48:46.152839,2020-12-10 00:00:00.000000,4.10421764,6.41366379,9.15294580,2644,4133,5898,1244,2267,3977,1.93047488,3.51791428,6.17145762,0.30540908,0.44024090,0.60835694
55111,0,USWisconsinSauk,Wisconsin,Sauk,2021-04-04 01:48:46.152839,2020-12-11 00:00:00.000000,4.04116862,6.27957096,9.03224105,2604,4046,5820,1231,2235,3916,1.91047423,3.46879676,6.07824089,0.31989035,0.44695493,0.61115200
55111,0,USWisconsinSauk,Wisconsin,Sauk,2021-04-04 01:48:46.152839,2020-12-12 00:00:00.000000,3.94646814,6.16043412,8.91588272,2543,3969,5745,1216,2199,3856,1.88713178,3.41257456,5.98424911,0.32442321,0.45756904,0.62026869
55111,0,USWisconsinSauk,Wisconsin,Sauk,2021-04-04 01:48:46.152839,2020-12-13 00:00:00.000000,3.84476735,6.07089294,8.80676435,2477,3912,5675,1195,2152,3794,1.85566013,3.33963713,5.88771749,0.32746150,0.46624074,0.61887372
55111,0,USWisconsinSauk,Wisconsin,Sauk,2021-04-04 01:48:46.152839,2020-12-14 00:00:00.000000,3.74057958,6.04817004,8.71512487,2410,3897,5616,1171,2111,3732,1.81785356,3.27585817,5.79171336,0.32228975,0.47796951,0.62810641
55111,0,USWisconsinSauk,Wisconsin,Sauk,2021-04-04 01:48:46.152839,2020-12-15 00:00:00.000000,3.63696158,6.02673451,8.62628024,2343,3883,5558,1144,2074,3661,1.77586135,3.21891384,5.68258548,0.32033844,0.47481760,0.63423094
55111,0,USWisconsinSauk,Wisconsin,Sauk,2021-04-04 01:48:46.152839,2020-12-16 00:00:00.000000,3.53408901,5.94740960,8.54254660,2277,3832,5504,1115,2040,3593,1.73144888,3.16695175,5.57703440,0.32084881,0.47389789,0.64027680
55111,0,USWisconsinSauk,Wisconsin,Sauk,2021-04-04 01:48:46.152839,2020-12-17 00:00:00.000000,3.43429994,5.82400666,8.47582771,2213,3753,5461,1086,1993,3527,1.68585010,3.09304147,5.47391132,0.32425039,0.47623693,0.64237534
55111,0,USWisconsinSauk,Wisconsin,Sauk,2021-04-04 01:48:46.152839,2020-12-18 00:00:00.000000,3.35130511,5.70204937,8.33601826,2159,3674,5371,1057,1957,3461,1.64024198,3.03728649,5.37146186,0.32990418,0.48408834,0.64407001
55111,0,USWisconsinSauk,Wisconsin,Sauk,2021-04-04 01:48:46.152839,2020-12-19 00:00:00.000000,3.28729102,5.58570568,8.22429908,2118,3599,5299,1029,1925,3395,1.59699780,2.98775326,5.26925884,0.33561419,0.49126042,0.64598736
55111,0,USWisconsinSauk,Wisconsin,Sauk,2021-04-04 01:48:46.152839,2020-12-20 00:00:00.000000,3.24900363,5.47363403,8.11260069,2093,3527,5227,1005,1902,3329,1.56052402,2.95189943,5.16684879,0.33922665,0.49592714,0.65173670
55111,0,USWisconsinSauk,Wisconsin,Sauk,2021-04-04 01:48:46.152839,2020-12-21 00:00:00.000000,3.22425101,5.38610039,7.98693336,2077,3470,5146,989,1886,3263,1.53617738,2.92815096,5.06393317,0.34091501,0.49908148,0.68718152
55111,0,USWisconsinSauk,Wisconsin,Sauk,2021-04-04 01:48:46.152839,2020-12-22 00:00:00.000000,3.20325426,5.31931030,7.86154561,2064,3427,5066,981,1874,3196,1.52251137,2.90854838,4.96094917,0.34169059,0.51480481,0.69612277
55111,0,USWisconsinSauk,Wisconsin,Sauk,2021-04-04 01:48:46.152839,2020-12-23 00:00:00.000000,3.18843687,5.27015598,7.73977248,2054,3396,4987,971,1865,3130,1.50705349,2.89554629,4.85773759,0.34840921,0.51874670,0.73501504
55111,0,USWisconsinSauk,Wisconsin,Sauk,2021-04-04 01:48:46.152839,2020-12-24 00:00:00.000000,3.18119176,5.17256949,7.62517070,2050,3333,4913,959,1835,3063,1.48868564,2.84753426,4.75431832,0.35002124,0.52533318,0.72093340
55111,0,USWisconsinSauk,Wisconsin,Sauk,2021-04-04 01:48:46.152839,2020-12-25 00:00:00.000000,3.17817125,5.05379674,7.51775486,2048,3256,4844,949,1804,2997,1.47395492,2.80005513,4.65087873,0.34873225,0.52703323,0.71369188
55111,0,USWisconsinSauk,Wisconsin,Sauk,2021-04-04 01:48:46.152839,2020-12-26 00:00:00.000000,3.17592311,4.95677727,7.41278832,2046,3194,4776,946,1774,2930,1.46821212,2.75376205,4.54777570,0.34597530,0.52487688,0.71159176
55111,0,USWisconsinSauk,Wisconsin,Sauk,2021-04-04 01:48:46.152839,2020-12-27 00:00:00.000000,3.17341656,4.86910193,7.30262953,2045,3137,4705,943,1745,2864,1.46424190,2.70873450,4.44553974,0.35840646,0.52455838,0.71489286
55111,0,USWisconsinSauk,Wisconsin,Sauk,2021-04-04 01:48:46.152839,2020-12-28 00:00:00.000000,3.16468869,4.80165720,7.18361124,2039,3094,4629,941,1709,2799,1.46120178,2.65344888,4.34485948,0.37489599,0.52601214,0.71767549
55111,0,USWisconsinSauk,Wisconsin,Sauk,2021-04-04 01:48:46.152839,2020-12-29 00:00:00.000000,3.15498112,4.75792146,7.05540317,2033,3066,4546,939,1687,2765,1.45748219,2.61817306,4.29153521,0.37940929,0.53349374,0.71634789
55111,0,USWisconsinSauk,Wisconsin,Sauk,2021-04-04 01:48:46.152839,2020-12-30 00:00:00.000000,3.14394606,4.72165132,6.91648344,2026,3042,4457,936,1667,2733,1.45310593,2.58804748,4.24176481,0.37098199,0.53397642,0.71125885
55111,0,USWisconsinSauk,Wisconsin,Sauk,2021-04-04 01:48:46.152839,2020-12-31 00:00:00.000000,3.11206816,4.64427455,6.76751560,2005,2992,4361,933,1645,2701,1.44809022,2.55318120,4.19153650,0.35813271,0.53331558,0.70687779
55111,0,USWisconsinSauk,Wisconsin,Sauk,2021-04-04 01:48:46.152839,2021-01-01 00:00:00.000000,3.08766638,4.58385639,6.61088686,1989,2953,4260,929,1621,2667,1.44246224,2.51674609,4.13995653,0.34934037,0.53314275,0.68912264
55111,0,USWisconsinSauk,Wisconsin,Sauk,2021-04-04 01:48:46.152839,2021-01-02 00:00:00.000000,3.09104233,4.53457334,6.44885713,1991,2922,4155,925,1601,2632,1.43632735,2.48459654,4.08516029,0.34411813,0.53416096,0.69410534
55111,0,USWisconsinSauk,Wisconsin,Sauk,2021-04-04 01:48:46.152839,2021-01-03 00:00:00.000000,3.02226600,4.46246268,6.28526818,1947,2875,4050,921,1578,2574,1.43009119,2.44940939,3.99570929,0.33511424,0.52219205,0.68841798
55111,0,USWisconsinSauk,Wisconsin,Sauk,2021-04-04 01:48:46.152839,2021-01-04 00:00:00.000000,2.94885540,4.36707348,6.12215909,1900,2814,3945,917,1555,2511,1.42420529,2.41319730,3.89679403,0.32284938,0.50216547,0.68358503
55111,0,USWisconsinSauk,Wisconsin,Sauk,2021-04-04 01:48:46.152839,2021-01-05 00:00:00.000000,2.87492040,4.26412565,5.97025911,1852,2747,3847,898,1531,2451,1.39457689,2.37678892,3.80465390,0.30543109,0.49004386,0.68486803
55111,0,USWisconsinSauk,Wisconsin,Sauk,2021-04-04 01:48:46.152839,2021-01-06 00:00:00.000000,2.79983898,4.16376471,5.85420278,1804,2683,3772,873,1504,2396,1.35621676,2.33512838,3.71862023,0.30626176,0.47504936,0.68176451
55111,0,USWisconsinSauk,Wisconsin,Sauk,2021-04-04 01:48:46.152839,2021-01-07 00:00:00.000000,2.72158716,4.07397679,5.73326370,1753,2625,3694,849,1473,2344,1.31815889,2.28609169,3.63746030,0.29579704,0.47151607,0.66908809
55111,0,USWisconsinSauk,Wisconsin,Sauk,2021-04-04 01:48:46.152839,2021-01-08 00:00:00.000000,2.63846731,3.93408821,5.60824453,1700,2535,3614,825,1432,2294,1.28048372,2.22370291,3.56008401,0.29527273,0.47405678,0.64684799
55111,0,USWisconsinSauk,Wisconsin,Sauk,2021-04-04 01:48:46.152839,2021-01-09 00:00:00.000000,2.55212007,3.80797166,5.48070958,1644,2453,3531,801,1391,2250,1.24325385,2.15998194,3.49194596,0.29427926,0.46982230,0.64351018
55111,0,USWisconsinSauk,Wisconsin,Sauk,2021-04-04 01:48:46.152839,2021-01-10 00:00:00.000000,2.46544241,3.70775868,5.32100624,1588,2389,3428,777,1360,2205,1.20651886,2.11118718,3.42239567,0.29046066,0.45789564,0.63980566
55111,0,USWisconsinSauk,Wisconsin,Sauk,2021-04-04 01:48:46.152839,2021-01-11 00:00:00.000000,2.37798730,3.59766445,5.12662017,1532,2318,3303,754,1338,2159,1.17025552,2.07645776,3.35114957,0.27906041,0.45444847,0.63676020
55111,0,USWisconsinSauk,Wisconsin,Sauk,2021-04-04 01:48:46.152839,2021-01-12 00:00:00.000000,2.29288365,3.47865563,4.96753094,1477,2241,3201,731,1313,2112,1.13501680,2.03813388,3.27868033,0.29010788,0.44915780,0.63791482
55111,0,USWisconsinSauk,Wisconsin,Sauk,2021-04-04 01:48:46.152839,2021-01-13 00:00:00.000000,2.21071085,3.39146137,4.85072908,1424,2185,3125,709,1276,2065,1.10050054,1.98075293,3.20538585,0.28127948,0.44254010,0.65587978
55111,0,USWisconsinSauk,Wisconsin,Sauk,2021-04-04 01:48:46.152839,2021-01-14 00:00:00.000000,2.14013847,3.29820066,4.71109446,1379,2125,3035,687,1241,2020,1.06676074,1.92602733,3.13471297,0.27065692,0.43553942,0.64987908
55111,0,USWisconsinSauk,Wisconsin,Sauk,2021-04-04 01:48:46.152839,2021-01-15 00:00:00.000000,2.06975369,3.20373263,4.56530896,1333,2064,2941,666,1198,1974,1.03398132,1.86033702,3.06357345,0.26920443,0.43718865,0.63576208
55111,0,USWisconsinSauk,Wisconsin,Sauk,2021-04-04 01:48:46.152839,2021-01-16 00:00:00.000000,1.99288807,3.09218363,4.42018133,1284,1992,2848,645,1159,1927,1.00233900,1.79906405,2.99041488,0.26884635,0.44129004,0.64146205
55111,0,USWisconsinSauk,Wisconsin,Sauk,2021-04-04 01:48:46.152839,2021-01-17 00:00:00.000000,1.92367771,2.96849143,4.27703347,1239,1912,2756,626,1120,1878,0.97193938,1.73942922,2.91499716,0.26514644,0.44071046,0.63997723
55111,0,USWisconsinSauk,Wisconsin,Sauk,2021-04-04 01:48:46.152839,2021-01-18 00:00:00.000000,1.86473009,2.86041799,4.13445540,1201,1843,2664,607,1081,1828,0.94279656,1.67771500,2.83761961,0.24859824,0.43739313,0.64430643
55111,0,USWisconsinSauk,Wisconsin,Sauk,2021-04-04 01:48:46.152839,2021-01-19 00:00:00.000000,1.79821738,2.76670348,3.99478831,1158,1782,2574,589,1039,1779,0.91430179,1.61307753,2.76202690,0.24547491,0.43646893,0.67535194
55111,0,USWisconsinSauk,Wisconsin,Sauk,2021-04-04 01:48:46.152839,2021-01-20 00:00:00.000000,1.73395630,2.67274102,3.85826779,1117,1722,2486,571,1002,1734,0.88653887,1.55489444,2.69147017,0.24645704,0.43567709,0.68833143
55111,0,USWisconsinSauk,Wisconsin,Sauk,2021-04-04 01:48:46.152839,2021-01-21 00:00:00.000000,1.67737418,2.59562633,3.75590207,1080,1672,2420,553,965,1689,0.85953546,1.49777811,2.62236625,0.24953145,0.43533085,0.70191436
55111,0,USWisconsinSauk,Wisconsin,Sauk,2021-04-04 01:48:46.152839,2021-01-22 00:00:00.000000,1.63430146,2.51281989,3.65942602,1053,1619,2358,536,927,1646,0.83329100,1.43989640,2.55488415,0.25555346,0.43303940,0.71542331
55111,0,USWisconsinSauk,Wisconsin,Sauk,2021-04-04 01:48:46.152839,2021-01-23 00:00:00.000000,1.58083736,2.43525037,3.56233173,1018,1569,2295,520,890,1603,0.80777992,1.38244078,2.48827531,0.26570460,0.43158756,0.72787877
55111,0,USWisconsinSauk,Wisconsin,Sauk,2021-04-04 01:48:46.152839,2021-01-24 00:00:00.000000,1.50214788,2.33774741,3.46669994,968,1506,2234,504,854,1553,0.78269089,1.32616880,2.41019813,0.26959597,0.43924313,0.73794276
55111,0,USWisconsinSauk,Wisconsin,Sauk,2021-04-04 01:48:46.152839,2021-01-25 00:00:00.000000,1.43511413,2.24925975,3.36224310,924,1449,2166,478,823,1499,0.74230151,1.27797930,2.32749444,0.25948424,0.43999165,0.74306388
55111,0,USWisconsinSauk,Wisconsin,Sauk,2021-04-04 01:48:46.152839,2021-01-26 00:00:00.000000,1.36903651,2.16952587,3.26427961,882,1398,2103,453,795,1448,0.70399732,1.23423535,2.24772185,0.27012780,0.44247574,0.73720106
55111,0,USWisconsinSauk,Wisconsin,Sauk,2021-04-04 01:48:46.152839,2021-01-27 00:00:00.000000,1.30384614,2.09804937,3.18132374,840,1352,2050,430,771,1400,0.66809568,1.19728757,2.17257832,0.27055419,0.45120775,0.72052313
55111,0,USWisconsinSauk,Wisconsin,Sauk,2021-04-04 01:48:46.152839,2021-01-28 00:00:00.000000,1.24042211,2.03664792,3.10051348,799,1312,1998,408,741,1354,0.63437884,1.15031657,2.10200212,0.27143012,0.44721455,0.73362461
55111,0,USWisconsinSauk,Wisconsin,Sauk,2021-04-04 01:48:46.152839,2021-01-29 00:00:00.000000,1.17943992,1.96914735,2.98348398,760,1268,1922,388,715,1311,0.60270730,1.10971512,2.03562155,0.27357836,0.44466246,0.74357584
55111,0,USWisconsinSauk,Wisconsin,Sauk,2021-04-04 01:48:46.152839,2021-01-30 00:00:00.000000,1.12136463,1.91405459,2.86741606,722,1233,1847,369,694,1271,0.57337510,1.07730651,1.97286036,0.28989837,0.44026927,0.76448990
55111,0,USWisconsinSauk,Wisconsin,Sauk,2021-04-04 01:48:46.152839,2021-01-31 00:00:00.000000,1.06837647,1.84351725,2.75650006,688,1187,1776,352,670,1232,0.54707208,1.04056534,1.91314341,0.30821511,0.44593357,0.78629457
55111,0,USWisconsinSauk,Wisconsin,Sauk,2021-04-04 01:48:46.152839,2021-02-01 00:00:00.000000,1.03803944,1.77663317,2.65598513,668,1144,1711,339,644,1196,0.52732883,0.99941736,1.85599449,0.30210867,0.44662544,0.80523833
55111,0,USWisconsinSauk,Wisconsin,Sauk,2021-04-04 01:48:46.152839,2021-02-02 00:00:00.000000,1.00912784,1.71421521,2.56281314,650,1104,1651,328,617,1160,0.51014251,0.95836004,1.80110101,0.29162189,0.46249360,0.81891376
55111,0,USWisconsinSauk,Wisconsin,Sauk,2021-04-04 01:48:46.152839,2021-02-03 00:00:00.000000,0.98103084,1.65540451,2.47270538,632,1066,1593,317,595,1126,0.49201972,0.92376039,1.74812903,0.29018122,0.46806531,0.82173491
55111,0,USWisconsinSauk,Wisconsin,Sauk,2021-04-04 01:48:46.152839,2021-02-04 00:00:00.000000,0.95371067,1.61212240,2.39354518,614,1038,1542,304,572,1093,0.47325984,0.88888182,1.69676524,0.29051377,0.46552216,0.83234115
55111,0,USWisconsinSauk,Wisconsin,Sauk,2021-04-04 01:48:46.152839,2021-02-05 00:00:00.000000,0.92701964,1.55705018,2.34645541,597,1003,1512,292,553,1061,0.45460007,0.85910483,1.64675042,0.29150785,0.46802371,0.83492355
55111,0,USWisconsinSauk,Wisconsin,Sauk,2021-04-04 01:48:46.152839,2021-02-06 00:00:00.000000,0.90054662,1.50186598,2.30313629,580,967,1484,282,536,1029,0.43849823,0.83195914,1.59797580,0.29968881,0.49052974,0.87175960
55111,0,USWisconsinSauk,Wisconsin,Sauk,2021-04-04 01:48:46.152839,2021-02-07 00:00:00.000000,0.87397150,1.45243391,2.26506458,563,935,1459,273,519,999,0.42490176,0.80673873,1.55037757,0.29972380,0.50285087,0.90851458
55111,0,USWisconsinSauk,Wisconsin,Sauk,2021-04-04 01:48:46.152839,2021-02-08 00:00:00.000000,0.84767251,1.41528583,2.23307090,546,912,1439,266,505,969,0.41298190,0.78440269,1.50392503,0.30537443,0.52004711,0.90785958
55111,0,USWisconsinSauk,Wisconsin,Sauk,2021-04-04 01:48:46.152839,2021-02-09 00:00:00.000000,0.82245723,1.38853439,2.20117271,530,894,1418,258,491,939,0.40183501,0.76317896,1.45821998,0.30569781,0.52931049,0.92919360
55111,0,USWisconsinSauk,Wisconsin,Sauk,2021-04-04 01:48:46.152839,2021-02-10 00:00:00.000000,0.79885426,1.36740359,2.16940853,514,881,1398,252,479,910,0.39125510,0.74340366,1.41338606,0.30634569,0.54766708,0.94350176
55111,0,USWisconsinSauk,Wisconsin,Sauk,2021-04-04 01:48:46.152839,2021-02-11 00:00:00.000000,0.77744457,1.34408274,2.13767699,501,866,1377,245,467,893,0.38114165,0.72558808,1.38669774,0.30878199,0.56386443,0.95002112
55111,0,USWisconsinSauk,Wisconsin,Sauk,2021-04-04 01:48:46.152839,2021-02-12 00:00:00.000000,0.75872946,1.32195257,2.10591706,488,851,1357,239,456,881,0.37158638,0.70803387,1.36714790,0.31694198,0.57687386,0.96155580
55111,0,USWisconsinSauk,Wisconsin,Sauk,2021-04-04 01:48:46.152839,2021-02-13 00:00:00.000000,0.74312880,1.30614039,2.06979542,478,841,1333,234,447,868,0.36316767,0.69500187,1.34715166,0.33459670,0.60744502,0.96802759
55111,0,USWisconsinSauk,Wisconsin,Sauk,2021-04-04 01:48:46.152839,2021-02-14 00:00:00.000000,0.73012405,1.27991698,2.01021736,470,824,1295,229,439,855,0.35635375,0.68125146,1.32683527,0.35190928,0.61283605,0.96952234
55111,0,USWisconsinSauk,Wisconsin,Sauk,2021-04-04 01:48:46.152839,2021-02-15 00:00:00.000000,0.72651514,1.25697899,1.95279090,468,810,1258,223,431,841,0.34725434,0.66981949,1.30640623,0.33945731,0.64105195,1.01470558
55111,0,USWisconsinSauk,Wisconsin,Sauk,2021-04-04 01:48:46.152839,2021-02-16 00:00:00.000000,0.70536922,1.23274248,1.89916238,454,794,1223,217,426,829,0.33699327,0.66111586,1.28669570,0.33430722,0.65543175,1.01334352
55111,0,USWisconsinSauk,Wisconsin,Sauk,2021-04-04 01:48:46.152839,2021-02-17 00:00:00.000000,0.69412494,1.21047497,1.85849107,447,780,1197,211,422,816,0.32774110,0.65546170,1.26740472,0.33418354,0.66784730,1.10437122
55111,0,USWisconsinSauk,Wisconsin,Sauk,2021-04-04 01:48:46.152839,2021-02-18 00:00:00.000000,0.69307143,1.19562755,1.83044218,446,770,1179,206,416,804,0.31983496,0.64607537,1.24834572,0.33581739,0.67890646,1.13434695
55111,0,USWisconsinSauk,Wisconsin,Sauk,2021-04-04 01:48:46.152839,2021-02-19 00:00:00.000000,0.69436290,1.17383072,1.80227524,447,756,1161,205,407,792,0.31912876,0.63241799,1.22940240,0.33974021,0.69928659,1.19798392
55111,0,USWisconsinSauk,Wisconsin,Sauk,2021-04-04 01:48:46.152839,2021-02-20 00:00:00.000000,0.69547029,1.15628936,1.77400656,448,745,1143,205,402,775,0.31900277,0.62522906,1.20281063,0.34814284,0.69974754,1.28925688
55111,0,USWisconsinSauk,Wisconsin,Sauk,2021-04-04 01:48:46.152839,2021-02-21 00:00:00.000000,0.69559343,1.14907345,1.74565874,448,740,1124,203,399,754,0.31631213,0.61973696,1.17034922,0.36259272,0.70771749,1.35431094
55111,0,USWisconsinSauk,Wisconsin,Sauk,2021-04-04 01:48:46.152839,2021-02-22 00:00:00.000000,0.68064319,1.14897152,1.71215343,438,740,1103,198,396,733,0.30750535,0.61499212,1.13892781,0.37218333,0.71654300,1.35338763
55111,0,USWisconsinSauk,Wisconsin,Sauk,2021-04-04 01:48:46.152839,2021-02-23 00:00:00.000000,0.67088369,1.13225137,1.70217145,432,729,1096,193,393,715,0.30038306,0.61085654,1.10985741,0.37932676,0.72978241,1.36196586
55111,0,USWisconsinSauk,Wisconsin,Sauk,2021-04-04 01:48:46.152839,2021-02-24 00:00:00.000000,0.66732404,1.11628492,1.69492701,430,719,1092,192,389,704,0.29946972,0.60491815,1.09329939,0.39047434,0.74336045,1.36452383
55111,0,USWisconsinSauk,Wisconsin,Sauk,2021-04-04 01:48:46.152839,2021-02-25 00:00:00.000000,0.66743546,1.11402147,1.68746112,430,717,1087,192,387,694,0.29907823,0.60186260,1.07715748,0.39586485,0.75639516,1.36505990
55111,0,USWisconsinSauk,Wisconsin,Sauk,2021-04-04 01:48:46.152839,2021-02-26 00:00:00.000000,0.66892984,1.11028542,1.67981397,431,715,1082,192,386,684,0.29905587,0.60008639,1.06180271,0.39932229,0.76571517,1.39434474
55111,0,USWisconsinSauk,Wisconsin,Sauk,2021-04-04 01:48:46.152839,2021-02-27 00:00:00.000000,0.67100725,1.10705164,1.65939061,432,713,1069,190,385,675,0.29637819,0.59823645,1.04774473,0.42441492,0.78644304,1.45515488
55111,0,USWisconsinSauk,Wisconsin,Sauk,2021-04-04 01:48:46.152839,2021-02-28 00:00:00.000000,0.67113495,1.10307513,1.63154680,432,710,1051,188,384,673,0.29247778,0.59668662,1.04584250,0.44918127,0.79603944,1.50050554
55111,0,USWisconsinSauk,Wisconsin,Sauk,2021-04-04 01:48:46.152839,2021-03-01 00:00:00.000000,0.66641689,1.09055996,1.62501194,429,702,1047,186,382,660,0.28863659,0.59326423,1.02518569,0.47638698,0.80616345,1.53209502
55111,0,USWisconsinSauk,Wisconsin,Sauk,2021-04-04 01:48:46.152839,2021-03-02 00:00:00.000000,0.67009327,1.07551735,1.62589958,431,693,1047,183,384,654,0.28449818,0.59605172,1.01621120,0.47862211,0.80881630,1.55800864
55111,0,USWisconsinSauk,Wisconsin,Sauk,2021-04-04 01:48:46.152839,2021-03-03 00:00:00.000000,0.67784072,1.06288006,1.62633956,436,684,1048,180,381,649,0.28020229,0.59227453,1.00832491,0.48471718,0.82612390,1.60160877
55111,0,USWisconsinSauk,Wisconsin,Sauk,2021-04-04 01:48:46.152839,2021-03-04 00:00:00.000000,0.68470225,1.05821394,1.62633541,441,681,1048,177,379,645,0.27583637,0.58962707,1.00139012,0.48864006,0.83470170,1.63877188
55111,0,USWisconsinSauk,Wisconsin,Sauk,2021-04-04 01:48:46.152839,2021-03-05 00:00:00.000000,0.68351033,1.05396713,1.62583242,440,679,1047,174,376,641,0.27145473,0.58436273,0.99518440,0.48984250,0.83639788,1.69209069
55111,0,USWisconsinSauk,Wisconsin,Sauk,2021-04-04 01:48:46.152839,2021-03-06 00:00:00.000000,0.67200822,1.05403927,1.62481384,433,679,1047,172,372,643,0.26709139,0.57815642,0.99792179,0.46249516,0.86346743,1.70399987
55111,0,USWisconsinSauk,Wisconsin,Sauk,2021-04-04 01:48:46.152839,2021-03-07 00:00:00.000000,0.66070512,1.04299073,1.62327798,425,672,1046,170,367,646,0.26488682,0.57014543,1.00272386,0.48271213,0.86766654,1.71931660
55111,0,USWisconsinSauk,Wisconsin,Sauk,2021-04-04 01:48:46.152839,2021-03-08 00:00:00.000000,0.65676193,1.04726766,1.62186316,423,674,1045,173,361,649,0.26876094,0.56171264,1.00806093,0.50063324,0.87540218,1.87633755
55111,0,USWisconsinSauk,Wisconsin,Sauk,2021-04-04 01:48:46.152839,2021-03-09 00:00:00.000000,0.66176516,1.03958284,1.61993231,426,669,1043,176,360,653,0.27365058,0.55920018,1.01373744,0.52945639,0.90000275,1.95281751
55111,0,USWisconsinSauk,Wisconsin,Sauk,2021-04-04 01:48:46.152839,2021-03-10 00:00:00.000000,0.66733169,1.03537388,1.62604724,430,667,1047,180,359,657,0.27965073,0.55803159,1.01956448,0.54471081,0.91318890,1.97385170
55111,0,USWisconsinSauk,Wisconsin,Sauk,2021-04-04 01:48:46.152839,2021-03-11 00:00:00.000000,0.65471775,1.03102549,1.63434829,421,664,1053,184,356,660,0.28641866,0.55312869,1.02536547,0.50290685,0.93866787,1.97906650
55111,0,USWisconsinSauk,Wisconsin,Sauk,2021-04-04 01:48:46.152839,2021-03-12 00:00:00.000000,0.64751842,1.03098149,1.64139165,417,664,1057,189,353,664,0.29373770,0.54848845,1.03095936,0.46057676,0.93529287,1.98177458
55111,0,USWisconsinSauk,Wisconsin,Sauk,2021-04-04 01:48:46.152839,2021-03-13 00:00:00.000000,0.62868449,1.03783850,1.64719801,405,668,1061,194,350,667,0.30147091,0.54401907,1.03617382,0.43774027,0.93332621,1.98690915
55111,0,USWisconsinSauk,Wisconsin,Sauk,2021-04-04 01:48:46.152839,2021-03-14 00:00:00.000000,0.61004194,1.02496264,1.65197034,393,660,1064,199,351,670,0.30953184,0.54531809,1.04088984,0.44738123,0.93427495,2.00329781
55111,0,USWisconsinSauk,Wisconsin,Sauk,2021-04-04 01:48:46.152839,2021-03-15 00:00:00.000000,0.60665260,1.01093157,1.65595490,390,651,1067,202,349,670,0.31354428,0.54223545,1.04086970,0.47630531,0.93828290,2.13818060
55111,0,USWisconsinSauk,Wisconsin,Sauk,2021-04-04 01:48:46.152839,2021-03-16 00:00:00.000000,0.60333585,1.00717591,1.65936333,388,649,1069,196,347,669,0.30502034,0.53908572,1.03848895,0.51356347,0.95674127,2.18101716
55111,0,USWisconsinSauk,Wisconsin,Sauk,2021-04-04 01:48:46.152839,2021-03-17 00:00:00.000000,0.60026065,1.00812899,1.66236546,386,649,1071,190,348,667,0.29632369,0.54081579,1.03593041,0.53379688,0.97721554,2.31729128
55111,0,USWisconsinSauk,Wisconsin,Sauk,2021-04-04 01:48:46.152839,2021-03-18 00:00:00.000000,0.59743191,1.00111463,1.66529073,384,645,1073,188,349,665,0.29287908,0.54242499,1.03315391,0.48816523,0.96580756,2.32261288
55111,0,USWisconsinSauk,Wisconsin,Sauk,2021-04-04 01:48:46.152839,2021-03-19 00:00:00.000000,0.59466234,0.99372706,1.66846020,383,640,1075,184,351,663,0.28675786,0.54507121,1.03013483,0.43151050,0.98748045,2.32544831
55111,0,USWisconsinSauk,Wisconsin,Sauk,2021-04-04 01:48:46.152839,2021-03-20 00:00:00.000000,0.59192112,0.98593901,1.67373410,381,635,1078,181,351,661,0.28144684,0.54557932,1.02666330,0.44159540,1.00572391,2.32075612
55111,0,USWisconsinSauk,Wisconsin,Sauk,2021-04-04 01:48:46.152839,2021-03-21 00:00:00.000000,0.58918594,0.98073589,1.68277782,379,632,1084,178,351,659,0.27682868,0.54531960,1.02278939,0.45473825,1.01111363,2.32151843
55111,0,USWisconsinSauk,Wisconsin,Sauk,2021-04-04 01:48:46.152839,2021-03-22 00:00:00.000000,0.57907977,0.97873495,1.69569236,373,630,1092,175,349,656,0.27276949,0.54285160,1.01864454,0.46653431,1.01039832,2.31029687
55111,0,USWisconsinSauk,Wisconsin,Sauk,2021-04-04 01:48:46.152839,2021-03-23 00:00:00.000000,0.56896114,0.96630393,1.70873377,366,622,1101,173,348,653,0.26939855,0.54072479,1.01394376,0.47419336,1.01717282,2.28744179
55111,0,USWisconsinSauk,Wisconsin,Sauk,2021-04-04 01:48:46.152839,2021-03-24 00:00:00.000000,0.55864218,0.95918852,1.72060194,360,618,1108,171,347,648,0.26651151,0.53855707,1.00651228,0.47706380,0.99796928,2.25416872
55111,0,USWisconsinSauk,Wisconsin,Sauk,2021-04-04 01:48:46.152839,2021-03-25 00:00:00.000000,0.54828601,0.94806162,1.73177799,353,610,1115,170,345,641,0.26396111,0.53617447,0.99474210,0.47726889,1.01601861,2.35137353
55111,0,USWisconsinSauk,Wisconsin,Sauk,2021-04-04 01:48:46.152839,2021-03-26 00:00:00.000000,0.53799117,0.93594886,1.73212153,346,603,1116,168,343,633,0.26164401,0.53262162,0.98280990,0.47795216,0.98631928,2.36939908
55111,0,USWisconsinSauk,Wisconsin,Sauk,2021-04-04 01:48:46.152839,2021-03-27 00:00:00.000000,0.52781503,0.92774907,1.72465082,340,597,1111,167,337,625,0.25948769,0.52414287,0.97073719,0.47825299,0.98004660,2.52666762
55111,0,USWisconsinSauk,Wisconsin,Sauk,2021-04-04 01:48:46.152839,2021-03-28 00:00:00.000000,0.51778692,0.92029907,1.71675398,333,593,1106,165,332,617,0.25743474,0.51539537,0.95854282,0.47825021,0.97003784,2.57645845
55111,0,USWisconsinSauk,Wisconsin,Sauk,2021-04-04 01:48:46.152839,2021-03-29 00:00:00.000000,0.50674272,0.90683235,1.72074763,326,584,1108,164,324,611,0.25541637,0.50405714,0.94910869,0.47802513,0.94969077,2.58037932
55111,0,USWisconsinSauk,Wisconsin,Sauk,2021-04-04 01:48:46.152839,2021-03-30 00:00:00.000000,0.49584474,0.90195789,1.73941310,319,581,1120,162,319,619,0.25242513,0.49630504,0.96158971,0.47703248,0.93795752,2.58798206
55111,0,USWisconsinSauk,Wisconsin,Sauk,2021-04-04 01:48:46.152839,2021-03-31 00:00:00.000000,0.48506987,0.89786474,1.75745529,312,578,1132,160,314,620,0.24855383,0.48820114,0.96337982,0.47214830,0.93699770,2.60024886
55111,0,USWisconsinSauk,Wisconsin,Sauk,2021-04-04 01:48:46.152839,2021-04-01 00:00:00.000000,0.47445590,0.88914672,1.75603489,305,572,1131,157,310,629,0.24389407,0.48201187,0.97721000,0.45441393,0.95274349,2.60622894
55111,0,USWisconsinSauk,Wisconsin,Sauk,2021-04-04 01:48:46.152839,2021-04-02 00:00:00.000000,0.46402433,0.87924705,1.76953474,299,566,1140,153,303,641,0.23860947,0.47055334,0.99506666,0.42730470,0.97293117,2.63562462
55111,0,USWisconsinSauk,Wisconsin,Sauk,2021-04-04 01:48:46.152839,2021-04-03 00:00:00.000000,0.45378830,0.87098688,1.80963738,292,561,1166,150,299,648,0.23287455,0.46538075,1.00691242,0.43858185,0.98474782,2.68162182
55111,0,USWisconsinSauk,Wisconsin,Sauk,2021-04-04 01:48:46.152839,2021-04-04 00:00:00.000000,0.44375252,0.86548371,1.82646693,285,557,1177,146,300,655,0.22686314,0.46568967,1.01727878,0.44059205,0.98005967,2.77699551
55111,0,USWisconsinSauk,Wisconsin,Sauk,2021-04-04 01:48:46.152839,2021-04-05 00:00:00.000000,0.43391716,0.85815323,1.84259914,279,553,1187,142,299,661,0.22071519,0.46524104,1.02724595,0.44086800,0.97867550,2.81281222
55111,0,USWisconsinSauk,Wisconsin,Sauk,2021-04-04 01:48:46.152839,2021-04-06 00:00:00.000000,0.42428028,0.85111362,1.85802529,273,548,1197,138,293,668,0.21453028,0.45572932,1.03681801,0.44090416,1.00322997,2.78353129
55111,0,USWisconsinSauk,Wisconsin,Sauk,2021-04-04 01:48:46.152839,2021-04-07 00:00:00.000000,0.41483895,0.84430771,1.87273734,267,544,1206,134,287,674,0.20837621,0.44629215,1.04599220,0.44090883,1.00693665,2.75126385
55111,0,USWisconsinSauk,Wisconsin,Sauk,2021-04-04 01:48:46.152839,2021-04-08 00:00:00.000000,0.40558972,0.82884233,1.88672289,261,534,1215,130,281,679,0.20234537,0.43694878,1.05476160,0.44090943,1.00977032,2.73024947
55111,0,USWisconsinSauk,Wisconsin,Sauk,2021-04-04 01:48:46.152839,2021-04-09 00:00:00.000000,0.39652894,0.81172819,1.89996539,255,523,1224,126,277,685,0.19644184,0.43112482,1.06311683,0.44090950,1.01248640,2.71720822
55111,0,USWisconsinSauk,Wisconsin,Sauk,2021-04-04 01:48:46.152839,2021-04-10 00:00:00.000000,0.38765291,0.79086307,1.91244588,249,509,1232,122,279,690,0.19066030,0.43421539,1.07075352,0.44090951,1.01396024,2.70935436
55111,0,USWisconsinSauk,Wisconsin,Sauk,2021-04-04 01:48:46.152839,2021-04-11 00:00:00.000000,0.37895802,0.77230218,1.92414463,244,497,1239,119,275,694,0.18501206,0.42780141,1.07781664,0.44090951,1.01478153,2.70470948
55111,0,USWisconsinSauk,Wisconsin,Sauk,2021-04-04 01:48:46.152839,2021-04-12 00:00:00.000000,0.37044071,0.75829042,1.93504214,238,488,1246,115,269,698,0.17950360,0.41800031,1.08443117,0.44090951,1.01525872,2.70199180
55111,0,USWisconsinSauk,Wisconsin,Sauk,2021-04-04 01:48:46.152839,2021-04-13 00:00:00.000000,0.36209757,0.75184312,1.94511975,233,484,1253,112,264,702,0.17413814,0.41104108,1.09058617,0.44090951,1.01554953,2.70041167
55111,0,USWisconsinSauk,Wisconsin,Sauk,2021-04-04 01:48:46.152839,2021-04-14 00:00:00.000000,0.35392533,0.74540705,1.95436000,228,480,1259,108,261,706,0.16891668,0.40553151,1.09627121,0.44090951,1.01573515,2.69949631
55111,0,USWisconsinSauk,Wisconsin,Sauk,2021-04-04 01:48:46.152839,2021-04-15 00:00:00.000000,0.34592080,0.73406028,1.96274680,222,473,1264,105,257,709,0.16383871,0.40002865,1.10147645,0.44090951,1.01585844,2.69896717
55111,0,USWisconsinSauk,Wisconsin,Sauk,2021-04-04 01:48:46.152839,2021-04-16 00:00:00.000000,0.33808092,0.72202254,1.97026558,217,465,1269,102,254,714,0.15890269,0.39454231,1.10835320,0.44090951,1.01594294,2.69866166
