FIPS,HR_UID,nameid,province,region,analysisTime,dates,pointprevalence_025,pointprevalence_50,pointprevalence_975,pointinfections_025,pointinfections_50,pointinfections_975,pointinfectious_025,pointinfectious_50,pointinfectious_975,pointinfectiousprevalence_05,pointinfectiousprevalence_50,pointinfectiousprevalence_95,infectrate_025,infectrate_50,infectrate_975
36101,0,USNewYorkSteuben,New York,Steuben,2021-04-04 07:11:17.426984,2020-03-09 00:00:00.000000,0.00375003,0.00852582,0.01677398,3,8,15,0,2,4,0.00078578,0.00233049,0.00523690,0.64729632,0.82764002,1.04412596
36101,0,USNewYorkSteuben,New York,Steuben,2021-04-04 07:11:17.426984,2020-03-10 00:00:00.000000,0.00560976,0.01327461,0.02646562,5,12,25,1,3,7,0.00163313,0.00356954,0.00821295,0.64731759,0.82762196,1.04412389
36101,0,USNewYorkSteuben,New York,Steuben,2021-04-04 07:11:17.426984,2020-03-11 00:00:00.000000,0.00783613,0.01849804,0.03651891,7,17,34,2,5,11,0.00271868,0.00605381,0.01228440,0.64734665,0.82758441,1.04411989
36101,0,USNewYorkSteuben,New York,Steuben,2021-04-04 07:11:17.426984,2020-03-12 00:00:00.000000,0.01042116,0.02398716,0.04942048,9,22,47,3,8,18,0.00387657,0.00880015,0.01928368,0.64738756,0.82750619,1.04411214
36101,0,USNewYorkSteuben,New York,Steuben,2021-04-04 07:11:17.426984,2020-03-13 00:00:00.000000,0.01340439,0.03075984,0.06474819,12,29,61,4,11,26,0.00521187,0.01215461,0.02729185,0.64744765,0.82734337,1.04409711
36101,0,USNewYorkSteuben,New York,Steuben,2021-04-04 07:11:17.426984,2020-03-14 00:00:00.000000,0.01621877,0.03857149,0.08329101,15,36,79,6,14,34,0.00675266,0.01569802,0.03642291,0.64754067,0.82700598,1.04406799
36101,0,USNewYorkSteuben,New York,Steuben,2021-04-04 07:11:17.426984,2020-03-15 00:00:00.000000,0.01944123,0.04751475,0.10466513,18,45,99,8,18,44,0.00852934,0.01990755,0.04676416,0.64890033,0.82540089,1.04401148
36101,0,USNewYorkSteuben,New York,Steuben,2021-04-04 07:11:17.426984,2020-03-16 00:00:00.000000,0.02870053,0.05719787,0.12160134,27,54,115,10,23,55,0.01056128,0.02489120,0.05844788,0.65180971,0.82379464,1.04390149
36101,0,USNewYorkSteuben,New York,Steuben,2021-04-04 07:11:17.426984,2020-03-17 00:00:00.000000,0.03608112,0.06763848,0.14230355,34,64,135,14,29,65,0.01493534,0.03057367,0.06853711,0.65283838,0.82436490,1.04367433
36101,0,USNewYorkSteuben,New York,Steuben,2021-04-04 07:11:17.426984,2020-03-18 00:00:00.000000,0.04339746,0.08146724,0.16439344,41,77,156,18,35,75,0.01897359,0.03721263,0.07869133,0.65390768,0.82184249,1.04305940
36101,0,USNewYorkSteuben,New York,Steuben,2021-04-04 07:11:17.426984,2020-03-19 00:00:00.000000,0.05191976,0.09802102,0.18652656,49,93,177,21,42,85,0.02285071,0.04478641,0.08964495,0.65019093,0.81154685,1.04055698
36101,0,USNewYorkSteuben,New York,Steuben,2021-04-04 07:11:17.426984,2020-03-20 00:00:00.000000,0.06306324,0.11868413,0.20968387,60,113,199,26,50,97,0.02738955,0.05332333,0.10177668,0.65121527,0.81186947,1.03368965
36101,0,USNewYorkSteuben,New York,Steuben,2021-04-04 07:11:17.426984,2020-03-21 00:00:00.000000,0.07762987,0.13959708,0.23226781,74,133,221,31,60,110,0.03266763,0.06389600,0.11533172,0.65268961,0.80406561,0.99866210
36101,0,USNewYorkSteuben,New York,Steuben,2021-04-04 07:11:17.426984,2020-03-22 00:00:00.000000,0.09445337,0.16287039,0.25657092,90,155,244,37,74,124,0.03943530,0.07791352,0.13040484,0.65446797,0.79974765,0.99082241
36101,0,USNewYorkSteuben,New York,Steuben,2021-04-04 07:11:17.426984,2020-03-23 00:00:00.000000,0.11447132,0.18709119,0.29342724,109,178,279,45,87,144,0.04728814,0.09200279,0.15183695,0.65452920,0.79180098,0.99467175
36101,0,USNewYorkSteuben,New York,Steuben,2021-04-04 07:11:17.426984,2020-03-24 00:00:00.000000,0.13807629,0.21927431,0.34390796,131,209,328,54,101,166,0.05737062,0.10661509,0.17494021,0.63443564,0.78977067,0.99644286
36101,0,USNewYorkSteuben,New York,Steuben,2021-04-04 07:11:17.426984,2020-03-25 00:00:00.000000,0.16610960,0.25418738,0.40251296,158,242,383,66,118,192,0.06983282,0.12399208,0.20136127,0.58806082,0.78596817,1.00208033
36101,0,USNewYorkSteuben,New York,Steuben,2021-04-04 07:11:17.426984,2020-03-26 00:00:00.000000,0.19764086,0.29762794,0.46994566,188,283,448,81,134,218,0.08545433,0.14142597,0.22929473,0.58594086,0.78027157,0.97540985
36101,0,USNewYorkSteuben,New York,Steuben,2021-04-04 07:11:17.426984,2020-03-27 00:00:00.000000,0.23340382,0.34054950,0.54572103,222,324,520,98,155,252,0.10356955,0.16291421,0.26456280,0.56429092,0.76807095,0.94356231
36101,0,USNewYorkSteuben,New York,Steuben,2021-04-04 07:11:17.426984,2020-03-28 00:00:00.000000,0.27173507,0.38969400,0.59966654,259,371,571,112,179,287,0.11798890,0.18822876,0.30192902,0.54738651,0.76122736,0.96716388
36101,0,USNewYorkSteuben,New York,Steuben,2021-04-04 07:11:17.426984,2020-03-29 00:00:00.000000,0.30706876,0.44572656,0.65358196,292,425,623,132,206,323,0.13864621,0.21662561,0.33936670,0.52318389,0.71865661,0.93494072
36101,0,USNewYorkSteuben,New York,Steuben,2021-04-04 07:11:17.426984,2020-03-30 00:00:00.000000,0.34226446,0.50060456,0.71741302,326,477,684,151,232,356,0.15858979,0.24348791,0.37336931,0.51163939,0.69503346,0.87754170
36101,0,USNewYorkSteuben,New York,Steuben,2021-04-04 07:11:17.426984,2020-03-31 00:00:00.000000,0.37343594,0.55971746,0.82428623,356,533,786,173,262,401,0.18147113,0.27521003,0.42054410,0.46707498,0.66425998,0.85427063
36101,0,USNewYorkSteuben,New York,Steuben,2021-04-04 07:11:17.426984,2020-04-01 00:00:00.000000,0.41480279,0.62232608,0.86861186,395,593,828,197,294,443,0.20712995,0.30836520,0.46494735,0.45790137,0.62877665,0.82399690
36101,0,USNewYorkSteuben,New York,Steuben,2021-04-04 07:11:17.426984,2020-04-02 00:00:00.000000,0.45529136,0.67966461,0.94773840,434,648,903,218,324,487,0.22870640,0.33975862,0.51115641,0.43989844,0.61176900,0.82380304
36101,0,USNewYorkSteuben,New York,Steuben,2021-04-04 07:11:17.426984,2020-04-03 00:00:00.000000,0.50467914,0.73327999,1.07137953,481,699,1021,239,358,534,0.25092727,0.37577224,0.56027453,0.42773746,0.57871201,0.78870205
36101,0,USNewYorkSteuben,New York,Steuben,2021-04-04 07:11:17.426984,2020-04-04 00:00:00.000000,0.55272244,0.79587961,1.20403886,527,759,1148,261,393,590,0.27370945,0.41225864,0.61889126,0.41216445,0.54038491,0.75208629
36101,0,USNewYorkSteuben,New York,Steuben,2021-04-04 07:11:17.426984,2020-04-05 00:00:00.000000,0.58449512,0.86037282,1.32186163,557,820,1260,283,433,658,0.29693129,0.45474456,0.69060627,0.38873206,0.50797937,0.72429295
36101,0,USNewYorkSteuben,New York,Steuben,2021-04-04 07:11:17.426984,2020-04-06 00:00:00.000000,0.61532319,0.92612566,1.38580374,586,883,1321,305,470,717,0.32049741,0.49358976,0.75261182,0.36429759,0.47421282,0.63169962
36101,0,USNewYorkSteuben,New York,Steuben,2021-04-04 07:11:17.426984,2020-04-07 00:00:00.000000,0.65356524,0.98657605,1.42524606,623,940,1359,327,507,770,0.34348416,0.53198832,0.80756517,0.33923289,0.44765136,0.60002862
36101,0,USNewYorkSteuben,New York,Steuben,2021-04-04 07:11:17.426984,2020-04-08 00:00:00.000000,0.69102082,1.03412169,1.46277671,659,986,1395,347,543,817,0.36461006,0.57013278,0.85733791,0.32639181,0.42375005,0.58659948
36101,0,USNewYorkSteuben,New York,Steuben,2021-04-04 07:11:17.426984,2020-04-09 00:00:00.000000,0.72692642,1.08316852,1.47976041,693,1033,1411,363,576,859,0.38112602,0.60476039,0.90080724,0.29190414,0.40636944,0.57121133
36101,0,USNewYorkSteuben,New York,Steuben,2021-04-04 07:11:17.426984,2020-04-10 00:00:00.000000,0.73975313,1.12162628,1.55294280,705,1069,1481,383,606,896,0.40162414,0.63536775,0.93962822,0.26679257,0.36828838,0.54506988
36101,0,USNewYorkSteuben,New York,Steuben,2021-04-04 07:11:17.426984,2020-04-11 00:00:00.000000,0.75095631,1.13630212,1.62025850,716,1083,1545,402,633,927,0.42227836,0.66463537,0.97241783,0.24227248,0.32824552,0.48207085
36101,0,USNewYorkSteuben,New York,Steuben,2021-04-04 07:11:17.426984,2020-04-12 00:00:00.000000,0.76086006,1.14506322,1.66848237,725,1092,1591,420,649,952,0.44130075,0.68114957,0.99866790,0.22082187,0.31042233,0.41716788
36101,0,USNewYorkSteuben,New York,Steuben,2021-04-04 07:11:17.426984,2020-04-13 00:00:00.000000,0.74726034,1.14929982,1.65561176,712,1096,1579,414,668,971,0.43500514,0.70071753,1.01812278,0.21957414,0.28257230,0.39252612
36101,0,USNewYorkSteuben,New York,Steuben,2021-04-04 07:11:17.426984,2020-04-14 00:00:00.000000,0.73509375,1.15071840,1.63043109,701,1097,1555,412,678,986,0.43223416,0.71085267,1.03398413,0.20730902,0.26437693,0.37470426
36101,0,USNewYorkSteuben,New York,Steuben,2021-04-04 07:11:17.426984,2020-04-15 00:00:00.000000,0.73107887,1.15359140,1.59315419,697,1100,1519,419,676,999,0.44024494,0.70895924,1.04777761,0.18978090,0.25307040,0.34726580
36101,0,USNewYorkSteuben,New York,Steuben,2021-04-04 07:11:17.426984,2020-04-16 00:00:00.000000,0.71141000,1.12985540,1.54285883,678,1077,1471,427,672,993,0.44784286,0.70456052,1.04172444,0.16927028,0.24364374,0.33276074
36101,0,USNewYorkSteuben,New York,Steuben,2021-04-04 07:11:17.426984,2020-04-17 00:00:00.000000,0.69402518,1.10651203,1.47951781,661,1055,1411,434,664,985,0.45505748,0.69644833,1.03334233,0.14617016,0.22738169,0.31261686
36101,0,USNewYorkSteuben,New York,Steuben,2021-04-04 07:11:17.426984,2020-04-18 00:00:00.000000,0.67174862,1.07510893,1.45442896,640,1025,1387,421,658,953,0.44142299,0.69086887,0.99954723,0.12632030,0.21253053,0.30972200
36101,0,USNewYorkSteuben,New York,Steuben,2021-04-04 07:11:17.426984,2020-04-19 00:00:00.000000,0.64699513,1.03433397,1.44008252,617,986,1373,406,648,930,0.42658007,0.68028300,0.97526874,0.12131656,0.19398608,0.30231960
36101,0,USNewYorkSteuben,New York,Steuben,2021-04-04 07:11:17.426984,2020-04-20 00:00:00.000000,0.62275825,1.00204250,1.40009341,593,955,1335,391,630,929,0.41049131,0.66113380,0.97446248,0.11399119,0.17921898,0.28055177
36101,0,USNewYorkSteuben,New York,Steuben,2021-04-04 07:11:17.426984,2020-04-21 00:00:00.000000,0.59671748,0.96715409,1.34280890,569,922,1280,374,603,918,0.39227101,0.63324533,0.96322967,0.11229893,0.16573329,0.23158590
36101,0,USNewYorkSteuben,New York,Steuben,2021-04-04 07:11:17.426984,2020-04-22 00:00:00.000000,0.56751101,0.92330061,1.27488690,541,880,1215,353,577,891,0.37080879,0.60523577,0.93474242,0.10031548,0.15563683,0.20805632
36101,0,USNewYorkSteuben,New York,Steuben,2021-04-04 07:11:17.426984,2020-04-23 00:00:00.000000,0.53359731,0.87078420,1.21252850,508,830,1156,330,551,861,0.34682342,0.57835226,0.90376153,0.08705027,0.14180212,0.19323943
36101,0,USNewYorkSteuben,New York,Steuben,2021-04-04 07:11:17.426984,2020-04-24 00:00:00.000000,0.49606606,0.81499144,1.13663026,473,777,1084,310,533,821,0.32553306,0.55967977,0.86177038,0.08154703,0.12347888,0.18679196
36101,0,USNewYorkSteuben,New York,Steuben,2021-04-04 07:11:17.426984,2020-04-25 00:00:00.000000,0.45740736,0.76586990,1.05766660,436,730,1008,290,502,770,0.30490431,0.52633553,0.80796725,0.07830222,0.11450241,0.16996755
36101,0,USNewYorkSteuben,New York,Steuben,2021-04-04 07:11:17.426984,2020-04-26 00:00:00.000000,0.41943961,0.71341121,0.98876852,400,680,943,269,475,722,0.28273824,0.49884539,0.75701066,0.07446942,0.10840963,0.15923159
36101,0,USNewYorkSteuben,New York,Steuben,2021-04-04 07:11:17.426984,2020-04-27 00:00:00.000000,0.38045578,0.66072102,0.92327361,362,630,880,244,447,678,0.25592759,0.46948237,0.71090715,0.07182400,0.10359084,0.15373762
36101,0,USNewYorkSteuben,New York,Steuben,2021-04-04 07:11:17.426984,2020-04-28 00:00:00.000000,0.34391589,0.60957984,0.86136315,328,581,821,221,417,635,0.23220648,0.43802057,0.66610208,0.06927015,0.10250409,0.14305951
36101,0,USNewYorkSteuben,New York,Steuben,2021-04-04 07:11:17.426984,2020-04-29 00:00:00.000000,0.31004392,0.55835193,0.80303043,295,532,765,201,386,594,0.21109746,0.40496336,0.62311684,0.06743709,0.09970448,0.13540027
36101,0,USNewYorkSteuben,New York,Steuben,2021-04-04 07:11:17.426984,2020-04-30 00:00:00.000000,0.27898806,0.51069940,0.74813603,266,487,713,183,358,555,0.19224110,0.37579396,0.58220248,0.06438088,0.09683250,0.13366268
36101,0,USNewYorkSteuben,New York,Steuben,2021-04-04 07:11:17.426984,2020-05-01 00:00:00.000000,0.25059724,0.46935589,0.69570233,239,447,663,167,328,517,0.17535119,0.34441499,0.54212241,0.06174022,0.09302852,0.13274376
36101,0,USNewYorkSteuben,New York,Steuben,2021-04-04 07:11:17.426984,2020-05-02 00:00:00.000000,0.22458896,0.42947193,0.64820080,214,409,618,151,299,480,0.15845602,0.31409740,0.50426640,0.05670261,0.09077569,0.12977709
36101,0,USNewYorkSteuben,New York,Steuben,2021-04-04 07:11:17.426984,2020-05-03 00:00:00.000000,0.20089906,0.39439218,0.60284089,191,376,574,135,274,447,0.14224258,0.28746614,0.46915802,0.05512926,0.08850074,0.12703990
36101,0,USNewYorkSteuben,New York,Steuben,2021-04-04 07:11:17.426984,2020-05-04 00:00:00.000000,0.17944526,0.36278437,0.56002607,171,346,534,121,251,416,0.12743156,0.26399925,0.43665066,0.05403339,0.08582052,0.12691480
36101,0,USNewYorkSteuben,New York,Steuben,2021-04-04 07:11:17.426984,2020-05-05 00:00:00.000000,0.16025039,0.32841880,0.51994990,152,313,495,109,229,386,0.11439012,0.24074592,0.40484617,0.05288403,0.08537865,0.12529072
36101,0,USNewYorkSteuben,New York,Steuben,2021-04-04 07:11:17.426984,2020-05-06 00:00:00.000000,0.14315262,0.30332678,0.48246579,136,289,460,98,209,357,0.10316807,0.21998498,0.37454656,0.05205031,0.08466658,0.12235889
36101,0,USNewYorkSteuben,New York,Steuben,2021-04-04 07:11:17.426984,2020-05-07 00:00:00.000000,0.12797508,0.27907712,0.44942284,122,266,428,88,191,330,0.09299242,0.20085630,0.34604357,0.05106069,0.08285165,0.11994058
36101,0,USNewYorkSteuben,New York,Steuben,2021-04-04 07:11:17.426984,2020-05-08 00:00:00.000000,0.11453462,0.25728222,0.41516649,109,245,395,79,174,304,0.08377998,0.18291759,0.31938292,0.05016187,0.08150086,0.11740825
36101,0,USNewYorkSteuben,New York,Steuben,2021-04-04 07:11:17.426984,2020-05-09 00:00:00.000000,0.10265219,0.23627206,0.38493032,97,225,367,71,159,281,0.07544707,0.16699954,0.29471702,0.04960915,0.07786141,0.11750997
36101,0,USNewYorkSteuben,New York,Steuben,2021-04-04 07:11:17.426984,2020-05-10 00:00:00.000000,0.09227107,0.21298155,0.35667297,88,203,340,64,145,262,0.06791305,0.15255837,0.27483639,0.04935580,0.07465872,0.11801660
36101,0,USNewYorkSteuben,New York,Steuben,2021-04-04 07:11:17.426984,2020-05-11 00:00:00.000000,0.08323564,0.19442000,0.33113219,79,185,315,58,133,244,0.06110459,0.13955387,0.25625950,0.04923041,0.07363310,0.11817477
36101,0,USNewYorkSteuben,New York,Steuben,2021-04-04 07:11:17.426984,2020-05-12 00:00:00.000000,0.07512825,0.17806994,0.31313545,71,169,298,52,122,227,0.05506772,0.12806391,0.23899454,0.04906267,0.07308998,0.11829463
36101,0,USNewYorkSteuben,New York,Steuben,2021-04-04 07:11:17.426984,2020-05-13 00:00:00.000000,0.06788308,0.16352477,0.29774835,64,155,283,47,111,212,0.04968341,0.11675948,0.22255529,0.04814350,0.07284571,0.11836725
36101,0,USNewYorkSteuben,New York,Steuben,2021-04-04 07:11:17.426984,2020-05-14 00:00:00.000000,0.06158927,0.14918400,0.27911031,58,142,266,42,101,197,0.04487244,0.10670895,0.20709814,0.04523055,0.07277799,0.11969451
36101,0,USNewYorkSteuben,New York,Steuben,2021-04-04 07:11:17.426984,2020-05-15 00:00:00.000000,0.05606306,0.13576800,0.25963340,53,129,247,38,92,183,0.04057552,0.09693688,0.19265173,0.04257282,0.07315915,0.12121144
36101,0,USNewYorkSteuben,New York,Steuben,2021-04-04 07:11:17.426984,2020-05-16 00:00:00.000000,0.05118619,0.12719551,0.24150291,48,121,230,35,84,170,0.03674232,0.08828964,0.17918321,0.04141036,0.07496845,0.12099400
36101,0,USNewYorkSteuben,New York,Steuben,2021-04-04 07:11:17.426984,2020-05-17 00:00:00.000000,0.04688547,0.11780709,0.22472992,44,112,214,31,77,158,0.03332610,0.08160821,0.16665204,0.04070828,0.07536446,0.11994824
36101,0,USNewYorkSteuben,New York,Steuben,2021-04-04 07:11:17.426984,2020-05-18 00:00:00.000000,0.04404404,0.10921052,0.21044029,42,104,200,28,71,147,0.03028203,0.07530376,0.15501560,0.04052261,0.07505618,0.12482155
36101,0,USNewYorkSteuben,New York,Steuben,2021-04-04 07:11:17.426984,2020-05-19 00:00:00.000000,0.04164695,0.10164790,0.19738158,39,96,188,26,66,137,0.02780988,0.07003587,0.14456882,0.04048262,0.07513526,0.13496294
36101,0,USNewYorkSteuben,New York,Steuben,2021-04-04 07:11:17.426984,2020-05-20 00:00:00.000000,0.03965092,0.09392170,0.18541085,37,89,176,24,62,128,0.02573127,0.06577178,0.13513809,0.04056078,0.07627108,0.14398330
36101,0,USNewYorkSteuben,New York,Steuben,2021-04-04 07:11:17.426984,2020-05-21 00:00:00.000000,0.03795854,0.08719903,0.17646792,36,83,168,23,58,121,0.02414223,0.06137618,0.12789150,0.03983878,0.07649651,0.14258781
36101,0,USNewYorkSteuben,New York,Steuben,2021-04-04 07:11:17.426984,2020-05-22 00:00:00.000000,0.03458916,0.08119884,0.16985455,32,77,162,21,53,116,0.02300891,0.05651724,0.12178399,0.04051095,0.07702648,0.14060351
36101,0,USNewYorkSteuben,New York,Steuben,2021-04-04 07:11:17.426984,2020-05-23 00:00:00.000000,0.03131680,0.07575608,0.16353435,29,72,155,20,49,110,0.02172447,0.05219000,0.11625515,0.03999743,0.07687788,0.14420850
36101,0,USNewYorkSteuben,New York,Steuben,2021-04-04 07:11:17.426984,2020-05-24 00:00:00.000000,0.02892465,0.07141315,0.15267812,27,68,145,18,46,106,0.01982041,0.04860085,0.11122852,0.03958202,0.07650492,0.14580726
36101,0,USNewYorkSteuben,New York,Steuben,2021-04-04 07:11:17.426984,2020-05-25 00:00:00.000000,0.02905932,0.06719038,0.14130431,27,64,134,17,43,101,0.01875523,0.04557297,0.10669470,0.03941401,0.07490211,0.14646840
36101,0,USNewYorkSteuben,New York,Steuben,2021-04-04 07:11:17.426984,2020-05-26 00:00:00.000000,0.02997213,0.06388483,0.13076938,28,60,124,16,40,97,0.01772453,0.04279576,0.10231643,0.03934817,0.07483196,0.14763142
36101,0,USNewYorkSteuben,New York,Steuben,2021-04-04 07:11:17.426984,2020-05-27 00:00:00.000000,0.02988497,0.06284904,0.12306203,28,59,117,16,38,92,0.01708771,0.04033714,0.09693715,0.03932274,0.07494469,0.15048414
36101,0,USNewYorkSteuben,New York,Steuben,2021-04-04 07:11:17.426984,2020-05-28 00:00:00.000000,0.02867345,0.05993255,0.11646777,27,57,111,15,36,85,0.01617112,0.03833632,0.08986758,0.03931294,0.07617364,0.14988506
36101,0,USNewYorkSteuben,New York,Steuben,2021-04-04 07:11:17.426984,2020-05-29 00:00:00.000000,0.02727250,0.05775014,0.11027512,26,55,105,14,35,79,0.01536582,0.03729073,0.08328576,0.03930862,0.07661164,0.15373293
36101,0,USNewYorkSteuben,New York,Steuben,2021-04-04 07:11:17.426984,2020-05-30 00:00:00.000000,0.02593732,0.05730771,0.10444448,24,54,99,13,34,73,0.01465562,0.03638509,0.07751760,0.03930312,0.07755195,0.15428800
36101,0,USNewYorkSteuben,New York,Steuben,2021-04-04 07:11:17.426984,2020-05-31 00:00:00.000000,0.02470923,0.05612743,0.09895411,23,53,94,13,34,70,0.01402822,0.03592874,0.07340130,0.03926646,0.08057762,0.15606775
36101,0,USNewYorkSteuben,New York,Steuben,2021-04-04 07:11:17.426984,2020-06-01 00:00:00.000000,0.02411219,0.05415126,0.09376166,22,51,89,12,33,66,0.01347448,0.03552693,0.06952281,0.03893336,0.08229547,0.15675383
36101,0,USNewYorkSteuben,New York,Steuben,2021-04-04 07:11:17.426984,2020-06-02 00:00:00.000000,0.02361730,0.05111330,0.09016498,22,48,85,13,32,62,0.01376648,0.03433567,0.06586209,0.03803202,0.08365531,0.15722383
36101,0,USNewYorkSteuben,New York,Steuben,2021-04-04 07:11:17.426984,2020-06-03 00:00:00.000000,0.02321575,0.04827165,0.08879406,22,46,84,13,31,59,0.01451347,0.03287527,0.06243010,0.03704433,0.08462150,0.15011347
36101,0,USNewYorkSteuben,New York,Steuben,2021-04-04 07:11:17.426984,2020-06-04 00:00:00.000000,0.02342914,0.04662248,0.08438274,22,44,80,13,30,57,0.01451911,0.03155294,0.06018322,0.03616555,0.08456434,0.14733505
36101,0,USNewYorkSteuben,New York,Steuben,2021-04-04 07:11:17.426984,2020-06-05 00:00:00.000000,0.02382896,0.04525767,0.07958870,22,43,75,13,28,56,0.01424454,0.03019893,0.05921428,0.03546729,0.08556023,0.14615091
36101,0,USNewYorkSteuben,New York,Steuben,2021-04-04 07:11:17.426984,2020-06-06 00:00:00.000000,0.02320157,0.04411570,0.07515292,22,42,71,13,27,54,0.01400190,0.02865688,0.05718643,0.03580179,0.08470025,0.13859917
36101,0,USNewYorkSteuben,New York,Steuben,2021-04-04 07:11:17.426984,2020-06-07 00:00:00.000000,0.02231465,0.04308057,0.07292742,21,41,69,13,26,51,0.01413754,0.02794676,0.05395298,0.03624228,0.08452280,0.14071876
36101,0,USNewYorkSteuben,New York,Steuben,2021-04-04 07:11:17.426984,2020-06-08 00:00:00.000000,0.02244841,0.04264113,0.07023707,21,40,66,12,25,48,0.01361246,0.02718629,0.05094933,0.03651878,0.08592838,0.14210936
36101,0,USNewYorkSteuben,New York,Steuben,2021-04-04 07:11:17.426984,2020-06-09 00:00:00.000000,0.02308420,0.04158158,0.06744839,22,39,64,13,25,45,0.01386801,0.02654358,0.04798945,0.03679007,0.08586791,0.14310875
36101,0,USNewYorkSteuben,New York,Steuben,2021-04-04 07:11:17.426984,2020-06-10 00:00:00.000000,0.02311906,0.04099198,0.06462203,22,39,61,13,24,43,0.01450064,0.02603331,0.04513946,0.03705756,0.08590505,0.13812462
36101,0,USNewYorkSteuben,New York,Steuben,2021-04-04 07:11:17.426984,2020-06-11 00:00:00.000000,0.02220180,0.03959043,0.06191192,21,37,59,13,24,40,0.01389658,0.02516401,0.04247537,0.03729881,0.08903109,0.14313782
36101,0,USNewYorkSteuben,New York,Steuben,2021-04-04 07:11:17.426984,2020-06-12 00:00:00.000000,0.02109059,0.03808155,0.06025623,20,36,57,12,24,38,0.01297346,0.02543121,0.04047511,0.03756354,0.08894119,0.14539092
36101,0,USNewYorkSteuben,New York,Steuben,2021-04-04 07:11:17.426984,2020-06-13 00:00:00.000000,0.01981536,0.03668617,0.06096780,18,34,58,11,23,37,0.01213441,0.02464558,0.03930418,0.03779427,0.09007709,0.14634058
36101,0,USNewYorkSteuben,New York,Steuben,2021-04-04 07:11:17.426984,2020-06-14 00:00:00.000000,0.01869850,0.03596426,0.06235397,17,34,59,10,22,37,0.01139120,0.02365741,0.03935153,0.03894942,0.09172597,0.14908512
36101,0,USNewYorkSteuben,New York,Steuben,2021-04-04 07:11:17.426984,2020-06-15 00:00:00.000000,0.02019458,0.03588893,0.06020171,19,34,57,10,21,38,0.01090783,0.02305346,0.04088858,0.03929408,0.09120189,0.15373657
36101,0,USNewYorkSteuben,New York,Steuben,2021-04-04 07:11:17.426984,2020-06-16 00:00:00.000000,0.02050660,0.03612311,0.06122210,19,34,58,11,21,38,0.01247433,0.02281755,0.04018474,0.03929374,0.09353024,0.15633739
36101,0,USNewYorkSteuben,New York,Steuben,2021-04-04 07:11:17.426984,2020-06-17 00:00:00.000000,0.02073525,0.03602713,0.06228516,19,34,59,11,21,36,0.01230371,0.02216838,0.03853290,0.03929068,0.09316810,0.15468926
36101,0,USNewYorkSteuben,New York,Steuben,2021-04-04 07:11:17.426984,2020-06-18 00:00:00.000000,0.02086924,0.03589014,0.06345412,19,34,60,11,21,36,0.01204288,0.02210411,0.03804233,0.03929789,0.09298394,0.14781251
36101,0,USNewYorkSteuben,New York,Steuben,2021-04-04 07:11:17.426984,2020-06-19 00:00:00.000000,0.02031798,0.03451961,0.06477174,19,32,61,11,21,35,0.01205535,0.02228698,0.03696477,0.03927722,0.09126917,0.14676887
36101,0,USNewYorkSteuben,New York,Steuben,2021-04-04 07:11:17.426984,2020-06-20 00:00:00.000000,0.01979533,0.03508363,0.06606268,18,33,63,11,20,36,0.01172587,0.02177601,0.03826241,0.03925552,0.09012678,0.14685689
36101,0,USNewYorkSteuben,New York,Steuben,2021-04-04 07:11:17.426984,2020-06-21 00:00:00.000000,0.01865693,0.03362243,0.06722311,17,32,64,10,20,38,0.01148668,0.02163624,0.04027368,0.03936891,0.09178154,0.14678299
36101,0,USNewYorkSteuben,New York,Steuben,2021-04-04 07:11:17.426984,2020-06-22 00:00:00.000000,0.01838200,0.03310567,0.06702796,17,31,63,10,20,39,0.01113667,0.02159500,0.04105858,0.03981242,0.09071046,0.14754864
36101,0,USNewYorkSteuben,New York,Steuben,2021-04-04 07:11:17.426984,2020-06-23 00:00:00.000000,0.01939843,0.03261455,0.06679125,18,31,63,10,19,39,0.01143834,0.02085953,0.04138466,0.04098973,0.09106701,0.15193335
36101,0,USNewYorkSteuben,New York,Steuben,2021-04-04 07:11:17.426984,2020-06-24 00:00:00.000000,0.01848677,0.03221803,0.06392531,17,30,60,11,19,39,0.01181300,0.02052673,0.04142973,0.04233980,0.09177597,0.15407167
36101,0,USNewYorkSteuben,New York,Steuben,2021-04-04 07:11:17.426984,2020-06-25 00:00:00.000000,0.01735820,0.03126091,0.06079601,16,29,57,11,19,37,0.01161665,0.02011103,0.03965402,0.04260768,0.09342825,0.15449066
36101,0,USNewYorkSteuben,New York,Steuben,2021-04-04 07:11:17.426984,2020-06-26 00:00:00.000000,0.01628143,0.03089988,0.05781449,15,29,55,10,19,35,0.01094096,0.02003336,0.03773003,0.04409678,0.09485674,0.15788015
36101,0,USNewYorkSteuben,New York,Steuben,2021-04-04 07:11:17.426984,2020-06-27 00:00:00.000000,0.01527074,0.03166465,0.05741510,14,30,54,9,18,34,0.01022945,0.01966887,0.03589328,0.04391425,0.09711857,0.17870260
36101,0,USNewYorkSteuben,New York,Steuben,2021-04-04 07:11:17.426984,2020-06-28 00:00:00.000000,0.01433179,0.03214786,0.05894953,13,30,56,9,19,33,0.00956395,0.02002352,0.03518146,0.04400612,0.09786334,0.17886705
36101,0,USNewYorkSteuben,New York,Steuben,2021-04-04 07:11:17.426984,2020-06-29 00:00:00.000000,0.01529435,0.03257317,0.05884158,14,31,56,8,18,31,0.00895132,0.01970511,0.03350339,0.04423468,0.09751249,0.17877381
36101,0,USNewYorkSteuben,New York,Steuben,2021-04-04 07:11:17.426984,2020-06-30 00:00:00.000000,0.01603684,0.03155033,0.05888359,15,30,56,8,18,33,0.00871619,0.01972540,0.03526865,0.04555976,0.09799310,0.17850522
36101,0,USNewYorkSteuben,New York,Steuben,2021-04-04 07:11:17.426984,2020-07-01 00:00:00.000000,0.01748451,0.03154379,0.05701111,16,30,54,8,18,34,0.00870066,0.01947451,0.03583816,0.04752661,0.09737767,0.17780484
36101,0,USNewYorkSteuben,New York,Steuben,2021-04-04 07:11:17.426984,2020-07-02 00:00:00.000000,0.01721105,0.03130215,0.05605687,16,29,53,8,18,34,0.00923032,0.01931303,0.03613227,0.04887335,0.10003631,0.17816486
36101,0,USNewYorkSteuben,New York,Steuben,2021-04-04 07:11:17.426984,2020-07-03 00:00:00.000000,0.01691358,0.03154412,0.05694243,16,30,54,9,18,35,0.00953205,0.01918550,0.03738373,0.05102041,0.10576846,0.17801628
36101,0,USNewYorkSteuben,New York,Steuben,2021-04-04 07:11:17.426984,2020-07-04 00:00:00.000000,0.01645438,0.03095423,0.05834228,15,29,55,9,18,36,0.01037599,0.01926178,0.03851390,0.05385707,0.10791390,0.17568252
36101,0,USNewYorkSteuben,New York,Steuben,2021-04-04 07:11:17.426984,2020-07-05 00:00:00.000000,0.01606789,0.03085170,0.05962668,15,29,56,10,18,37,0.01059404,0.01929506,0.03955940,0.05590025,0.11000847,0.17772261
36101,0,USNewYorkSteuben,New York,Steuben,2021-04-04 07:11:17.426984,2020-07-06 00:00:00.000000,0.01759330,0.03072432,0.05727440,16,29,54,9,18,38,0.01024118,0.01929744,0.04022293,0.05433037,0.11065067,0.17759724
36101,0,USNewYorkSteuben,New York,Steuben,2021-04-04 07:11:17.426984,2020-07-07 00:00:00.000000,0.01856050,0.03159597,0.05482547,17,30,52,9,18,37,0.01046526,0.01891490,0.03983740,0.05538467,0.11203502,0.17758308
36101,0,USNewYorkSteuben,New York,Steuben,2021-04-04 07:11:17.426984,2020-07-08 00:00:00.000000,0.01778670,0.03192817,0.05544232,16,30,52,10,18,37,0.01103574,0.01919880,0.03902065,0.05599116,0.11291589,0.17789948
36101,0,USNewYorkSteuben,New York,Steuben,2021-04-04 07:11:17.426984,2020-07-09 00:00:00.000000,0.01718125,0.03246983,0.05706248,16,30,54,10,18,35,0.01109134,0.01960311,0.03752866,0.05634411,0.11152971,0.18018742
36101,0,USNewYorkSteuben,New York,Steuben,2021-04-04 07:11:17.426984,2020-07-10 00:00:00.000000,0.01626781,0.03232391,0.05896861,15,30,56,10,19,34,0.01082996,0.01996070,0.03586910,0.05660953,0.11086803,0.18220996
36101,0,USNewYorkSteuben,New York,Steuben,2021-04-04 07:11:17.426984,2020-07-11 00:00:00.000000,0.01554707,0.03216566,0.05975175,14,30,56,9,19,33,0.01035686,0.02042771,0.03494392,0.05667353,0.10872476,0.18598620
36101,0,USNewYorkSteuben,New York,Steuben,2021-04-04 07:11:17.426984,2020-07-12 00:00:00.000000,0.01487250,0.03200160,0.06276456,14,30,59,9,19,34,0.00990125,0.02020758,0.03620308,0.05694341,0.10922451,0.18972278
36101,0,USNewYorkSteuben,New York,Steuben,2021-04-04 07:11:17.426984,2020-07-13 00:00:00.000000,0.01516976,0.03158015,0.06238355,14,30,59,9,19,34,0.00946906,0.02039164,0.03642971,0.05846109,0.11116522,0.19062843
36101,0,USNewYorkSteuben,New York,Steuben,2021-04-04 07:11:17.426984,2020-07-14 00:00:00.000000,0.01591645,0.03204222,0.06415804,15,30,61,8,19,34,0.00920336,0.02002908,0.03660548,0.05740942,0.10999246,0.19346838
36101,0,USNewYorkSteuben,New York,Steuben,2021-04-04 07:11:17.426984,2020-07-15 00:00:00.000000,0.01680115,0.03183127,0.06397713,16,30,61,8,19,34,0.00904047,0.02039444,0.03636799,0.05691428,0.11019153,0.19377421
36101,0,USNewYorkSteuben,New York,Steuben,2021-04-04 07:11:17.426984,2020-07-16 00:00:00.000000,0.01766951,0.03238365,0.06231100,16,30,59,9,19,35,0.00948415,0.02006981,0.03739858,0.05692556,0.11002485,0.19398309
36101,0,USNewYorkSteuben,New York,Steuben,2021-04-04 07:11:17.426984,2020-07-17 00:00:00.000000,0.01800580,0.03340620,0.06149755,17,31,58,9,19,36,0.00997675,0.01995192,0.03838685,0.05698413,0.11113321,0.19408141
36101,0,USNewYorkSteuben,New York,Steuben,2021-04-04 07:11:17.426984,2020-07-18 00:00:00.000000,0.01787032,0.03333606,0.06541647,17,31,62,9,19,37,0.01043114,0.02022313,0.03881073,0.06057052,0.11133240,0.19411987
36101,0,USNewYorkSteuben,New York,Steuben,2021-04-04 07:11:17.426984,2020-07-19 00:00:00.000000,0.01683193,0.03365886,0.06674645,16,32,63,10,19,37,0.01053559,0.02062551,0.03908349,0.06079908,0.11117132,0.19425010
36101,0,USNewYorkSteuben,New York,Steuben,2021-04-04 07:11:17.426984,2020-07-20 00:00:00.000000,0.01808518,0.03434493,0.06667920,17,32,63,9,19,37,0.01002428,0.02085347,0.03929944,0.06112802,0.11052182,0.19474078
36101,0,USNewYorkSteuben,New York,Steuben,2021-04-04 07:11:17.426984,2020-07-21 00:00:00.000000,0.01941912,0.03438653,0.06648961,18,32,63,9,19,38,0.00968197,0.02066008,0.04036319,0.06269848,0.11090234,0.19839030
36101,0,USNewYorkSteuben,New York,Steuben,2021-04-04 07:11:17.426984,2020-07-22 00:00:00.000000,0.01937946,0.03470609,0.06498801,18,33,61,9,19,38,0.00990217,0.02081849,0.03987621,0.06776448,0.11191200,0.20319781
36101,0,USNewYorkSteuben,New York,Steuben,2021-04-04 07:11:17.426984,2020-07-23 00:00:00.000000,0.01935091,0.03440400,0.06659177,18,32,63,9,20,36,0.01038642,0.02108421,0.03871081,0.06973383,0.11512518,0.20269272
36101,0,USNewYorkSteuben,New York,Steuben,2021-04-04 07:11:17.426984,2020-07-24 00:00:00.000000,0.01931914,0.03374322,0.06873735,18,32,65,10,19,37,0.01091247,0.02080280,0.03890508,0.06996165,0.11435988,0.20210958
36101,0,USNewYorkSteuben,New York,Steuben,2021-04-04 07:11:17.426984,2020-07-25 00:00:00.000000,0.01926509,0.03369848,0.06814654,18,32,64,10,20,37,0.01132025,0.02100798,0.03980521,0.07040916,0.11777515,0.20182321
36101,0,USNewYorkSteuben,New York,Steuben,2021-04-04 07:11:17.426984,2020-07-26 00:00:00.000000,0.01894172,0.03326038,0.06779479,18,31,64,10,20,41,0.01129691,0.02101052,0.04317000,0.07150396,0.11926574,0.20480552
36101,0,USNewYorkSteuben,New York,Steuben,2021-04-04 07:11:17.426984,2020-07-27 00:00:00.000000,0.01871390,0.03403583,0.06753576,17,32,64,10,20,41,0.01118976,0.02110800,0.04347886,0.07199623,0.12383248,0.21178491
36101,0,USNewYorkSteuben,New York,Steuben,2021-04-04 07:11:17.426984,2020-07-28 00:00:00.000000,0.01885648,0.03398233,0.06717649,17,32,64,10,19,41,0.01100217,0.02094821,0.04307918,0.07207262,0.13040201,0.21218389
36101,0,USNewYorkSteuben,New York,Steuben,2021-04-04 07:11:17.426984,2020-07-29 00:00:00.000000,0.01940212,0.03453632,0.06576385,18,32,62,10,19,41,0.01087561,0.02075817,0.04312731,0.07334928,0.13724363,0.21679523
36101,0,USNewYorkSteuben,New York,Steuben,2021-04-04 07:11:17.426984,2020-07-30 00:00:00.000000,0.01946408,0.03453264,0.06433749,18,32,61,10,19,40,0.01079771,0.02085468,0.04282115,0.08003278,0.14117894,0.23057582
36101,0,USNewYorkSteuben,New York,Steuben,2021-04-04 07:11:17.426984,2020-07-31 00:00:00.000000,0.01894750,0.03501775,0.06454092,18,33,61,10,19,39,0.01075203,0.02093279,0.04169696,0.09022450,0.14535160,0.23982739
36101,0,USNewYorkSteuben,New York,Steuben,2021-04-04 07:11:17.426984,2020-08-01 00:00:00.000000,0.01846876,0.03527356,0.06603462,17,33,62,10,20,39,0.01072635,0.02137331,0.04127159,0.09263539,0.14947657,0.24794968
36101,0,USNewYorkSteuben,New York,Steuben,2021-04-04 07:11:17.426984,2020-08-02 00:00:00.000000,0.01798190,0.03635600,0.06623649,17,34,63,10,20,39,0.01061156,0.02116142,0.04097301,0.09353133,0.15219071,0.25371067
36101,0,USNewYorkSteuben,New York,Steuben,2021-04-04 07:11:17.426984,2020-08-03 00:00:00.000000,0.01857006,0.03748125,0.06486832,17,35,61,9,20,38,0.01014084,0.02182950,0.04071939,0.09843414,0.15460916,0.25954075
36101,0,USNewYorkSteuben,New York,Steuben,2021-04-04 07:11:17.426984,2020-08-04 00:00:00.000000,0.01922362,0.03764385,0.06389472,18,35,60,9,20,38,0.01011576,0.02197685,0.04045072,0.10035321,0.15795035,0.26193815
36101,0,USNewYorkSteuben,New York,Steuben,2021-04-04 07:11:17.426984,2020-08-05 00:00:00.000000,0.01885438,0.03785127,0.06391156,17,36,60,9,21,38,0.01026551,0.02275435,0.04020055,0.10171524,0.16129914,0.26258226
36101,0,USNewYorkSteuben,New York,Steuben,2021-04-04 07:11:17.426984,2020-08-06 00:00:00.000000,0.01950744,0.03839972,0.06453155,18,36,61,10,22,38,0.01089495,0.02329068,0.04043717,0.10273117,0.16380848,0.26271038
36101,0,USNewYorkSteuben,New York,Steuben,2021-04-04 07:11:17.426984,2020-08-07 00:00:00.000000,0.02036758,0.03888998,0.06495858,19,37,61,10,22,38,0.01079142,0.02351739,0.04019739,0.10401779,0.16672392,0.26345117
36101,0,USNewYorkSteuben,New York,Steuben,2021-04-04 07:11:17.426984,2020-08-08 00:00:00.000000,0.02061158,0.03865232,0.06512987,19,36,62,10,22,38,0.01087280,0.02384527,0.04008105,0.10418158,0.17178075,0.28084773
36101,0,USNewYorkSteuben,New York,Steuben,2021-04-04 07:11:17.426984,2020-08-09 00:00:00.000000,0.02087594,0.03854306,0.06512954,19,36,62,10,22,38,0.01111785,0.02393672,0.04030773,0.10432945,0.17507955,0.29455582
36101,0,USNewYorkSteuben,New York,Steuben,2021-04-04 07:11:17.426984,2020-08-10 00:00:00.000000,0.02157037,0.04024127,0.06609496,20,38,63,10,23,38,0.01150279,0.02431789,0.04041039,0.10499643,0.17812312,0.31209266
36101,0,USNewYorkSteuben,New York,Steuben,2021-04-04 07:11:17.426984,2020-08-11 00:00:00.000000,0.02156589,0.04187240,0.06706201,20,39,63,11,23,38,0.01190507,0.02475782,0.04076441,0.10677214,0.18106232,0.32700152
36101,0,USNewYorkSteuben,New York,Steuben,2021-04-04 07:11:17.426984,2020-08-12 00:00:00.000000,0.02103279,0.04307049,0.06812331,20,41,64,12,24,39,0.01312001,0.02570064,0.04125854,0.11226754,0.18517917,0.32938993
36101,0,USNewYorkSteuben,New York,Steuben,2021-04-04 07:11:17.426984,2020-08-13 00:00:00.000000,0.02090309,0.04363703,0.06952937,19,41,66,12,24,39,0.01285251,0.02561087,0.04193011,0.11428882,0.18949507,0.33000265
36101,0,USNewYorkSteuben,New York,Steuben,2021-04-04 07:11:17.426984,2020-08-14 00:00:00.000000,0.02079215,0.04375166,0.07280039,19,41,69,11,24,40,0.01250951,0.02615538,0.04253139,0.11827151,0.19380842,0.32109464
36101,0,USNewYorkSteuben,New York,Steuben,2021-04-04 07:11:17.426984,2020-08-15 00:00:00.000000,0.02073418,0.04488457,0.07574385,19,42,72,12,25,41,0.01266238,0.02673379,0.04377227,0.12290438,0.20005132,0.32402724
36101,0,USNewYorkSteuben,New York,Steuben,2021-04-04 07:11:17.426984,2020-08-16 00:00:00.000000,0.02078784,0.04497277,0.07875647,19,42,75,12,25,43,0.01279011,0.02654632,0.04529183,0.13370630,0.20666480,0.32590082
36101,0,USNewYorkSteuben,New York,Steuben,2021-04-04 07:11:17.426984,2020-08-17 00:00:00.000000,0.02215385,0.04654539,0.08181504,21,44,78,11,25,44,0.01246097,0.02695291,0.04690735,0.13843439,0.21121439,0.33657878
36101,0,USNewYorkSteuben,New York,Steuben,2021-04-04 07:11:17.426984,2020-08-18 00:00:00.000000,0.02387046,0.04803637,0.08745439,22,45,83,12,26,47,0.01282306,0.02746695,0.05031341,0.13390679,0.22053053,0.34778270
36101,0,USNewYorkSteuben,New York,Steuben,2021-04-04 07:11:17.426984,2020-08-19 00:00:00.000000,0.02570836,0.04936597,0.09276866,24,47,88,13,26,51,0.01378911,0.02823623,0.05418490,0.13688329,0.22651799,0.35696704
36101,0,USNewYorkSteuben,New York,Steuben,2021-04-04 07:11:17.426984,2020-08-20 00:00:00.000000,0.02714910,0.05091629,0.09780105,25,48,93,13,27,55,0.01430680,0.02875121,0.05787294,0.13997770,0.23214545,0.35703920
36101,0,USNewYorkSteuben,New York,Steuben,2021-04-04 07:11:17.426984,2020-08-21 00:00:00.000000,0.02673387,0.05226305,0.10259578,25,49,97,14,28,58,0.01493447,0.03005506,0.06137612,0.14588984,0.24411493,0.35459419
36101,0,USNewYorkSteuben,New York,Steuben,2021-04-04 07:11:17.426984,2020-08-22 00:00:00.000000,0.02749650,0.05402365,0.10737218,26,51,102,14,29,61,0.01529921,0.03111554,0.06470953,0.15973646,0.25655651,0.35462481
36101,0,USNewYorkSteuben,New York,Steuben,2021-04-04 07:11:17.426984,2020-08-23 00:00:00.000000,0.02883118,0.05642546,0.11200727,27,53,106,14,30,64,0.01506645,0.03214039,0.06795347,0.18339955,0.26278171,0.36464615
36101,0,USNewYorkSteuben,New York,Steuben,2021-04-04 07:11:17.426984,2020-08-24 00:00:00.000000,0.02955734,0.05842796,0.11104768,28,55,105,14,31,67,0.01530803,0.03321342,0.07123070,0.19027419,0.27838681,0.38876638
36101,0,USNewYorkSteuben,New York,Steuben,2021-04-04 07:11:17.426984,2020-08-25 00:00:00.000000,0.03026060,0.06048802,0.11065177,28,57,105,16,32,68,0.01710269,0.03413393,0.07197944,0.19417762,0.28796526,0.42121158
36101,0,USNewYorkSteuben,New York,Steuben,2021-04-04 07:11:17.426984,2020-08-26 00:00:00.000000,0.03100643,0.06265601,0.11169054,29,59,106,18,33,68,0.01903974,0.03535729,0.07218778,0.20346942,0.29771947,0.42668349
36101,0,USNewYorkSteuben,New York,Steuben,2021-04-04 07:11:17.426984,2020-08-27 00:00:00.000000,0.03181623,0.06600670,0.11818969,30,62,112,18,34,69,0.01950272,0.03650200,0.07253615,0.21313277,0.30824537,0.44236642
36101,0,USNewYorkSteuben,New York,Steuben,2021-04-04 07:11:17.426984,2020-08-28 00:00:00.000000,0.03283438,0.06877036,0.12563664,31,65,119,19,35,70,0.02000148,0.03764351,0.07346350,0.21465014,0.32196835,0.46232337
36101,0,USNewYorkSteuben,New York,Steuben,2021-04-04 07:11:17.426984,2020-08-29 00:00:00.000000,0.03401066,0.07065139,0.13314433,32,67,126,19,37,71,0.02055665,0.03899168,0.07498290,0.22728698,0.34740195,0.46719970
36101,0,USNewYorkSteuben,New York,Steuben,2021-04-04 07:11:17.426984,2020-08-30 00:00:00.000000,0.03557253,0.07376979,0.14086000,33,70,134,20,38,73,0.02120298,0.04051819,0.07692866,0.24668981,0.36207973,0.46946839
36101,0,USNewYorkSteuben,New York,Steuben,2021-04-04 07:11:17.426984,2020-08-31 00:00:00.000000,0.03846446,0.07680680,0.14507772,36,73,138,20,40,75,0.02199049,0.04223694,0.07915186,0.25609103,0.37199687,0.48485179
36101,0,USNewYorkSteuben,New York,Steuben,2021-04-04 07:11:17.426984,2020-09-01 00:00:00.000000,0.04157460,0.08142547,0.14952997,39,77,142,22,42,81,0.02338018,0.04454674,0.08497767,0.28305938,0.37893429,0.50059438
36101,0,USNewYorkSteuben,New York,Steuben,2021-04-04 07:11:17.426984,2020-09-02 00:00:00.000000,0.04486486,0.08662568,0.15423917,42,82,147,24,44,86,0.02518602,0.04713046,0.09114220,0.30006540,0.39034239,0.51742859
36101,0,USNewYorkSteuben,New York,Steuben,2021-04-04 07:11:17.426984,2020-09-03 00:00:00.000000,0.04961067,0.09329830,0.16426915,47,88,156,26,47,92,0.02749207,0.05001267,0.09671382,0.31704173,0.41829154,0.56936091
36101,0,USNewYorkSteuben,New York,Steuben,2021-04-04 07:11:17.426984,2020-09-04 00:00:00.000000,0.05496062,0.09892808,0.17552581,52,94,167,28,51,98,0.03031456,0.05411257,0.10287018,0.33079080,0.44739173,0.62529830
36101,0,USNewYorkSteuben,New York,Steuben,2021-04-04 07:11:17.426984,2020-09-05 00:00:00.000000,0.05786236,0.10664232,0.18847541,55,101,179,32,55,104,0.03355776,0.05805055,0.10971801,0.34085626,0.47006847,0.66210977
36101,0,USNewYorkSteuben,New York,Steuben,2021-04-04 07:11:17.426984,2020-09-06 00:00:00.000000,0.05999408,0.11547232,0.20335231,57,110,193,33,59,112,0.03497545,0.06228023,0.11744578,0.34605978,0.48232879,0.68265226
36101,0,USNewYorkSteuben,New York,Steuben,2021-04-04 07:11:17.426984,2020-09-07 00:00:00.000000,0.06854431,0.12650178,0.21498205,65,120,205,34,64,120,0.03593035,0.06789747,0.12623347,0.35264439,0.51134138,0.69929819
36101,0,USNewYorkSteuben,New York,Steuben,2021-04-04 07:11:17.426984,2020-09-08 00:00:00.000000,0.07602559,0.14004297,0.22827012,72,133,217,37,70,128,0.03974552,0.07367040,0.13450473,0.35624434,0.52254959,0.73205221
36101,0,USNewYorkSteuben,New York,Steuben,2021-04-04 07:11:17.426984,2020-09-09 00:00:00.000000,0.08406650,0.15527685,0.24287496,80,148,231,42,76,136,0.04461493,0.08027353,0.14300334,0.37877186,0.53273332,0.73873880
36101,0,USNewYorkSteuben,New York,Steuben,2021-04-04 07:11:17.426984,2020-09-10 00:00:00.000000,0.09313078,0.17223718,0.25982988,88,164,247,47,83,145,0.04991129,0.08743289,0.15214065,0.39176407,0.55731302,0.75408386
36101,0,USNewYorkSteuben,New York,Steuben,2021-04-04 07:11:17.426984,2020-09-11 00:00:00.000000,0.10256098,0.18562939,0.28288836,97,177,269,52,91,154,0.05458950,0.09638950,0.16241093,0.41308668,0.56547476,0.76555222
36101,0,USNewYorkSteuben,New York,Steuben,2021-04-04 07:11:17.426984,2020-09-12 00:00:00.000000,0.11244072,0.21006299,0.31332929,107,200,298,57,101,167,0.06056282,0.10642552,0.17525551,0.45904803,0.61728554,0.82453109
36101,0,USNewYorkSteuben,New York,Steuben,2021-04-04 07:11:17.426984,2020-09-13 00:00:00.000000,0.12751349,0.23820378,0.34982138,121,227,333,64,112,183,0.06711940,0.11804868,0.19218443,0.49747911,0.62986318,0.86405914
36101,0,USNewYorkSteuben,New York,Steuben,2021-04-04 07:11:17.426984,2020-09-14 00:00:00.000000,0.14947227,0.26713179,0.39703181,142,254,378,73,126,203,0.07750371,0.13279493,0.21295858,0.51699718,0.65810259,0.87630161
36101,0,USNewYorkSteuben,New York,Steuben,2021-04-04 07:11:17.426984,2020-09-15 00:00:00.000000,0.17375394,0.30225367,0.45464786,165,288,433,85,141,223,0.09002507,0.14850765,0.23480832,0.52474931,0.66530310,0.89444166
36101,0,USNewYorkSteuben,New York,Steuben,2021-04-04 07:11:17.426984,2020-09-16 00:00:00.000000,0.20135039,0.33772258,0.51557725,192,322,491,99,162,253,0.10481657,0.17034988,0.26550118,0.53878144,0.68050508,0.89581661
36101,0,USNewYorkSteuben,New York,Steuben,2021-04-04 07:11:17.426984,2020-09-17 00:00:00.000000,0.23207294,0.38537080,0.58239800,221,367,555,113,184,289,0.11855921,0.19376885,0.30304276,0.53925719,0.69793074,0.89892748
36101,0,USNewYorkSteuben,New York,Steuben,2021-04-04 07:11:17.426984,2020-09-18 00:00:00.000000,0.26597385,0.43832548,0.65503764,253,418,624,126,206,326,0.13229994,0.21630680,0.34279873,0.53984870,0.70724258,0.90526943
36101,0,USNewYorkSteuben,New York,Steuben,2021-04-04 07:11:17.426984,2020-09-19 00:00:00.000000,0.30334828,0.49776489,0.73196147,289,474,698,142,234,365,0.14941701,0.24539624,0.38270193,0.55629011,0.72035064,0.91365899
36101,0,USNewYorkSteuben,New York,Steuben,2021-04-04 07:11:17.426984,2020-09-20 00:00:00.000000,0.34470772,0.56186612,0.81047841,328,535,773,162,265,409,0.17073290,0.27792373,0.42901283,0.56465530,0.72613412,0.94161647
36101,0,USNewYorkSteuben,New York,Steuben,2021-04-04 07:11:17.426984,2020-09-21 00:00:00.000000,0.38807914,0.63275546,0.89279424,370,603,851,187,297,462,0.19660066,0.31201580,0.48507515,0.54647751,0.72411290,0.95454309
36101,0,USNewYorkSteuben,New York,Steuben,2021-04-04 07:11:17.426984,2020-09-22 00:00:00.000000,0.43673348,0.70751247,0.99854462,416,674,952,216,335,513,0.22730730,0.35132382,0.53810521,0.54621134,0.71753235,0.96049794
36101,0,USNewYorkSteuben,New York,Steuben,2021-04-04 07:11:17.426984,2020-09-23 00:00:00.000000,0.49092096,0.80392203,1.12221278,468,766,1070,243,373,560,0.25527397,0.39150517,0.58757105,0.54620231,0.71149118,0.95556418
36101,0,USNewYorkSteuben,New York,Steuben,2021-04-04 07:11:17.426984,2020-09-24 00:00:00.000000,0.55139547,0.89190875,1.26515675,525,850,1206,270,423,615,0.28319017,0.44352323,0.64532520,0.54460672,0.70421216,0.95205994
36101,0,USNewYorkSteuben,New York,Steuben,2021-04-04 07:11:17.426984,2020-09-25 00:00:00.000000,0.61857541,0.98646964,1.40994404,589,940,1344,300,474,705,0.31469188,0.49702233,0.73943031,0.54575076,0.69117676,0.93796409
36101,0,USNewYorkSteuben,New York,Steuben,2021-04-04 07:11:17.426984,2020-09-26 00:00:00.000000,0.69301597,1.11290026,1.56675396,660,1061,1494,339,518,773,0.35588918,0.54390139,0.81121298,0.50606173,0.67712400,0.89163811
36101,0,USNewYorkSteuben,New York,Steuben,2021-04-04 07:11:17.426984,2020-09-27 00:00:00.000000,0.77688504,1.22430017,1.71750410,740,1167,1638,391,580,868,0.41015828,0.60846670,0.91102500,0.49220399,0.62623708,0.82999593
36101,0,USNewYorkSteuben,New York,Steuben,2021-04-04 07:11:17.426984,2020-09-28 00:00:00.000000,0.86890776,1.32971598,1.82328795,828,1268,1739,434,641,958,0.45522785,0.67235921,1.00462617,0.44210259,0.59863462,0.80701179
36101,0,USNewYorkSteuben,New York,Steuben,2021-04-04 07:11:17.426984,2020-09-29 00:00:00.000000,0.96431080,1.43691127,1.91153698,919,1370,1823,472,689,1043,0.49528504,0.72307163,1.09429092,0.40737222,0.57759888,0.75721427
36101,0,USNewYorkSteuben,New York,Steuben,2021-04-04 07:11:17.426984,2020-09-30 00:00:00.000000,1.03966875,1.54633090,2.09014016,991,1474,1993,512,742,1134,0.53769129,0.77895188,1.18900796,0.38602878,0.54533336,0.69871582
36101,0,USNewYorkSteuben,New York,Steuben,2021-04-04 07:11:17.426984,2020-10-01 00:00:00.000000,1.11227462,1.63318269,2.21839634,1060,1557,2115,554,799,1231,0.58125126,0.83804685,1.29100142,0.37299068,0.52004597,0.66304913
36101,0,USNewYorkSteuben,New York,Steuben,2021-04-04 07:11:17.426984,2020-10-02 00:00:00.000000,1.17928572,1.71173948,2.36085161,1124,1632,2251,595,858,1343,0.62450221,0.89968176,1.40811268,0.36452830,0.47817254,0.63931823
36101,0,USNewYorkSteuben,New York,Steuben,2021-04-04 07:11:17.426984,2020-10-03 00:00:00.000000,1.27577492,1.77699633,2.47575916,1216,1694,2361,639,922,1441,0.67096960,0.96698994,1.51161612,0.35128432,0.45337028,0.59033249
36101,0,USNewYorkSteuben,New York,Steuben,2021-04-04 07:11:17.426984,2020-10-04 00:00:00.000000,1.34553967,1.86041820,2.56609931,1283,1774,2447,696,981,1521,0.72989062,1.02924458,1.59567795,0.33366158,0.43077325,0.54848782
36101,0,USNewYorkSteuben,New York,Steuben,2021-04-04 07:11:17.426984,2020-10-05 00:00:00.000000,1.41888469,1.94189744,2.63932741,1353,1852,2517,745,1049,1583,0.78207087,1.10058712,1.66013950,0.31554982,0.40906741,0.51817024
36101,0,USNewYorkSteuben,New York,Steuben,2021-04-04 07:11:17.426984,2020-10-06 00:00:00.000000,1.45665652,2.02745819,2.70883369,1389,1933,2583,777,1086,1631,0.81470692,1.13923118,1.71104317,0.30103728,0.39698408,0.50066886
36101,0,USNewYorkSteuben,New York,Steuben,2021-04-04 07:11:17.426984,2020-10-07 00:00:00.000000,1.46569777,2.04906051,2.82882908,1397,1954,2698,803,1117,1668,0.84263059,1.17180357,1.74974165,0.28312458,0.38826289,0.47264196
36101,0,USNewYorkSteuben,New York,Steuben,2021-04-04 07:11:17.426984,2020-10-08 00:00:00.000000,1.47233110,2.08015338,2.88566397,1404,1984,2752,831,1166,1694,0.87230930,1.22271791,1.77608096,0.27667939,0.36683673,0.45446766
36101,0,USNewYorkSteuben,New York,Steuben,2021-04-04 07:11:17.426984,2020-10-09 00:00:00.000000,1.47563317,2.10869869,2.93440566,1407,2011,2798,857,1199,1727,0.89907022,1.25751769,1.81120910,0.26886853,0.34089285,0.44796178
36101,0,USNewYorkSteuben,New York,Steuben,2021-04-04 07:11:17.426984,2020-10-10 00:00:00.000000,1.47302906,2.12909229,2.96556471,1404,2030,2828,870,1223,1760,0.91269207,1.28229899,1.84542993,0.24424459,0.31835117,0.43192595
36101,0,USNewYorkSteuben,New York,Steuben,2021-04-04 07:11:17.426984,2020-10-11 00:00:00.000000,1.46223797,2.15129904,2.95231601,1394,2051,2815,875,1237,1786,0.91834262,1.29746646,1.87288756,0.23412333,0.30778719,0.39855843
36101,0,USNewYorkSteuben,New York,Steuben,2021-04-04 07:11:17.426984,2020-10-12 00:00:00.000000,1.45826474,2.13222934,2.93810623,1390,2033,2802,877,1238,1806,0.91999704,1.29824280,1.89365855,0.23291293,0.29543518,0.37667877
36101,0,USNewYorkSteuben,New York,Steuben,2021-04-04 07:11:17.426984,2020-10-13 00:00:00.000000,1.45636392,2.11994551,2.98956144,1389,2021,2851,876,1232,1830,0.91941159,1.29204548,1.91969988,0.23082256,0.29067023,0.36999643
36101,0,USNewYorkSteuben,New York,Steuben,2021-04-04 07:11:17.426984,2020-10-14 00:00:00.000000,1.45063325,2.10683735,3.01886115,1383,2009,2879,874,1221,1869,0.91711582,1.28117946,1.96042328,0.22528637,0.28940056,0.36698616
36101,0,USNewYorkSteuben,New York,Steuben,2021-04-04 07:11:17.426984,2020-10-15 00:00:00.000000,1.43673503,2.08382184,3.01302262,1370,1987,2873,852,1210,1861,0.89368957,1.26921823,1.95175771,0.22656554,0.28372918,0.36457247
36101,0,USNewYorkSteuben,New York,Steuben,2021-04-04 07:11:17.426984,2020-10-16 00:00:00.000000,1.41785231,2.05949901,2.94867446,1352,1964,2812,829,1197,1859,0.86997813,1.25515191,1.94952530,0.22081725,0.27762055,0.35236433
36101,0,USNewYorkSteuben,New York,Steuben,2021-04-04 07:11:17.426984,2020-10-17 00:00:00.000000,1.39726340,2.03180671,2.86695269,1332,1937,2734,808,1191,1855,0.84756298,1.24948911,1.94572315,0.22212185,0.27064046,0.34913395
36101,0,USNewYorkSteuben,New York,Steuben,2021-04-04 07:11:17.426984,2020-10-18 00:00:00.000000,1.37593112,2.00269488,2.82021652,1312,1910,2689,789,1185,1843,0.82739035,1.24269623,1.93260220,0.20951101,0.26621569,0.33545203
36101,0,USNewYorkSteuben,New York,Steuben,2021-04-04 07:11:17.426984,2020-10-19 00:00:00.000000,1.35073746,1.97101424,2.79257248,1288,1879,2663,769,1176,1812,0.80629654,1.23306106,1.90056563,0.20722441,0.26654547,0.33406478
36101,0,USNewYorkSteuben,New York,Steuben,2021-04-04 07:11:17.426984,2020-10-20 00:00:00.000000,1.30580044,1.93077814,2.76599400,1245,1841,2638,745,1157,1796,0.78146238,1.21337550,1.88351339,0.20759754,0.26660706,0.33472488
36101,0,USNewYorkSteuben,New York,Steuben,2021-04-04 07:11:17.426984,2020-10-21 00:00:00.000000,1.26507585,1.90296271,2.74220239,1206,1815,2615,721,1148,1765,0.75636023,1.20375088,1.85118631,0.20678303,0.26814298,0.33575230
36101,0,USNewYorkSteuben,New York,Steuben,2021-04-04 07:11:17.426984,2020-10-22 00:00:00.000000,1.23292446,1.88582558,2.72361293,1175,1798,2597,698,1140,1732,0.73239623,1.19571801,1.81599512,0.20656596,0.27182403,0.34483652
36101,0,USNewYorkSteuben,New York,Steuben,2021-04-04 07:11:17.426984,2020-10-23 00:00:00.000000,1.21336617,1.87379466,2.71233442,1157,1787,2586,678,1112,1697,0.71166287,1.16666349,1.78006022,0.20987216,0.28360591,0.36460384
36101,0,USNewYorkSteuben,New York,Steuben,2021-04-04 07:11:17.426984,2020-10-24 00:00:00.000000,1.20776365,1.86324524,2.69407903,1151,1777,2569,664,1098,1665,0.69638550,1.15150453,1.74586634,0.22011290,0.29174840,0.38851698
36101,0,USNewYorkSteuben,New York,Steuben,2021-04-04 07:11:17.426984,2020-10-25 00:00:00.000000,1.21346647,1.85567670,2.65765083,1157,1769,2534,656,1089,1647,0.68800222,1.14176297,1.72705407,0.22640676,0.29790641,0.39390177
36101,0,USNewYorkSteuben,New York,Steuben,2021-04-04 07:11:17.426984,2020-10-26 00:00:00.000000,1.22713206,1.85399434,2.62299816,1170,1768,2501,654,1082,1634,0.68630856,1.13488080,1.71355040,0.22974442,0.30618171,0.39595162
36101,0,USNewYorkSteuben,New York,Steuben,2021-04-04 07:11:17.426984,2020-10-27 00:00:00.000000,1.24228578,1.86505602,2.59091180,1184,1778,2471,658,1072,1626,0.69009368,1.12465096,1.70530496,0.23698587,0.31429385,0.40663429
36101,0,USNewYorkSteuben,New York,Steuben,2021-04-04 07:11:17.426984,2020-10-28 00:00:00.000000,1.25525083,1.87502006,2.57538582,1197,1788,2456,665,1057,1631,0.69762844,1.10840602,1.71065442,0.24348548,0.32251707,0.41160330
36101,0,USNewYorkSteuben,New York,Steuben,2021-04-04 07:11:17.426984,2020-10-29 00:00:00.000000,1.27727198,1.88394646,2.58151507,1218,1796,2462,670,1060,1636,0.70248393,1.11176920,1.71599566,0.25674045,0.33052816,0.42684096
36101,0,USNewYorkSteuben,New York,Steuben,2021-04-04 07:11:17.426984,2020-10-30 00:00:00.000000,1.29012000,1.89414452,2.59722397,1230,1806,2477,677,1073,1641,0.71083326,1.12535558,1.72113995,0.26534461,0.33755477,0.44507938
36101,0,USNewYorkSteuben,New York,Steuben,2021-04-04 07:11:17.426984,2020-10-31 00:00:00.000000,1.29239814,1.90412466,2.62595403,1232,1816,2504,689,1086,1646,0.72324019,1.13904261,1.72600232,0.26546450,0.34537995,0.45176041
36101,0,USNewYorkSteuben,New York,Steuben,2021-04-04 07:11:17.426984,2020-11-01 00:00:00.000000,1.30201221,1.91458234,2.66803830,1241,1826,2544,704,1096,1650,0.73842333,1.14938636,1.73056422,0.26810753,0.35364004,0.45700678
36101,0,USNewYorkSteuben,New York,Steuben,2021-04-04 07:11:17.426984,2020-11-02 00:00:00.000000,1.32618585,1.93847507,2.72018595,1264,1848,2594,720,1110,1655,0.75543535,1.16442004,1.73528440,0.27563030,0.36438031,0.46502969
36101,0,USNewYorkSteuben,New York,Steuben,2021-04-04 07:11:17.426984,2020-11-03 00:00:00.000000,1.35700458,1.95837359,2.77848407,1294,1867,2650,737,1115,1675,0.77314634,1.16994003,1.75627514,0.28153354,0.36976735,0.47547501
36101,0,USNewYorkSteuben,New York,Steuben,2021-04-04 07:11:17.426984,2020-11-04 00:00:00.000000,1.38269081,2.00115799,2.84020481,1318,1908,2708,755,1136,1706,0.79180838,1.19154698,1.78896554,0.29125872,0.37841741,0.47678194
36101,0,USNewYorkSteuben,New York,Steuben,2021-04-04 07:11:17.426984,2020-11-05 00:00:00.000000,1.41064778,2.04501178,2.90375644,1345,1950,2769,768,1155,1741,0.80534463,1.21148574,1.82552446,0.29035843,0.38438141,0.47755920
36101,0,USNewYorkSteuben,New York,Steuben,2021-04-04 07:11:17.426984,2020-11-06 00:00:00.000000,1.44103288,2.10036782,2.96898750,1374,2003,2831,776,1172,1778,0.81443800,1.22922495,1.86457283,0.29209194,0.38870821,0.47831132
36101,0,USNewYorkSteuben,New York,Steuben,2021-04-04 07:11:17.426984,2020-11-07 00:00:00.000000,1.46109544,2.15231960,3.03436571,1393,2052,2894,785,1200,1817,0.82351274,1.25915560,1.90519437,0.29875325,0.39451329,0.48761946
36101,0,USNewYorkSteuben,New York,Steuben,2021-04-04 07:11:17.426984,2020-11-08 00:00:00.000000,1.45947464,2.19032876,3.10097827,1392,2089,2957,794,1231,1856,0.83273028,1.29122553,1.94682807,0.30421357,0.39557507,0.49241079
36101,0,USNewYorkSteuben,New York,Steuben,2021-04-04 07:11:17.426984,2020-11-09 00:00:00.000000,1.47452932,2.23448014,3.16933824,1406,2131,3022,804,1250,1897,0.84305891,1.31077338,1.98919774,0.30776373,0.39236661,0.49439909
36101,0,USNewYorkSteuben,New York,Steuben,2021-04-04 07:11:17.426984,2020-11-10 00:00:00.000000,1.50538463,2.30218778,3.24993607,1435,2195,3099,814,1268,1938,0.85435499,1.33003860,2.03243621,0.30809121,0.39251216,0.49558970
36101,0,USNewYorkSteuben,New York,Steuben,2021-04-04 07:11:17.426984,2020-11-11 00:00:00.000000,1.53782645,2.35412735,3.33945796,1466,2245,3185,826,1291,1984,0.86610801,1.35375031,2.08012495,0.30715834,0.39012100,0.49595644
36101,0,USNewYorkSteuben,New York,Steuben,2021-04-04 07:11:17.426984,2020-11-12 00:00:00.000000,1.58350207,2.38716717,3.42924983,1510,2276,3270,842,1324,2024,0.88314228,1.38914792,2.12295520,0.31074770,0.38886258,0.49649291
36101,0,USNewYorkSteuben,New York,Steuben,2021-04-04 07:11:17.426984,2020-11-13 00:00:00.000000,1.62397556,2.40714903,3.50918843,1548,2295,3347,868,1346,2061,0.91066487,1.41151989,2.16154824,0.31105904,0.38924777,0.49802039
36101,0,USNewYorkSteuben,New York,Steuben,2021-04-04 07:11:17.426984,2020-11-14 00:00:00.000000,1.65777410,2.47151170,3.56138739,1581,2357,3396,892,1359,2099,0.93596766,1.42587820,2.20156125,0.30312117,0.38816495,0.50239098
36101,0,USNewYorkSteuben,New York,Steuben,2021-04-04 07:11:17.426984,2020-11-15 00:00:00.000000,1.68587399,2.53571496,3.59138384,1607,2418,3425,913,1381,2138,0.95798283,1.44847419,2.24211477,0.29869034,0.38483917,0.49784529
36101,0,USNewYorkSteuben,New York,Steuben,2021-04-04 07:11:17.426984,2020-11-16 00:00:00.000000,1.71348358,2.58248790,3.61760379,1634,2463,3450,931,1404,2177,0.97659747,1.47238538,2.28276963,0.29774272,0.38425420,0.49814545
36101,0,USNewYorkSteuben,New York,Steuben,2021-04-04 07:11:17.426984,2020-11-17 00:00:00.000000,1.73949381,2.61514190,3.64025677,1659,2494,3472,947,1428,2217,0.99356573,1.49774999,2.32523793,0.29862073,0.38451323,0.49710375
36101,0,USNewYorkSteuben,New York,Steuben,2021-04-04 07:11:17.426984,2020-11-18 00:00:00.000000,1.76602053,2.64118882,3.68307029,1684,2519,3512,962,1452,2252,1.00937773,1.52277569,2.36111502,0.30913921,0.38902808,0.47288274
36101,0,USNewYorkSteuben,New York,Steuben,2021-04-04 07:11:17.426984,2020-11-19 00:00:00.000000,1.81186051,2.67469795,3.75242364,1728,2551,3579,977,1476,2267,1.02486593,1.54818237,2.37778282,0.31035296,0.38999129,0.48059777
36101,0,USNewYorkSteuben,New York,Steuben,2021-04-04 07:11:17.426984,2020-11-20 00:00:00.000000,1.87325683,2.72260343,3.82467394,1786,2596,3647,992,1507,2282,1.04108548,1.58010293,2.39297851,0.30929409,0.39780883,0.49548757
36101,0,USNewYorkSteuben,New York,Steuben,2021-04-04 07:11:17.426984,2020-11-21 00:00:00.000000,1.94276796,2.78051976,3.90554662,1852,2652,3725,1009,1528,2296,1.05886769,1.60239780,2.40776420,0.31761719,0.40917686,0.50122354
36101,0,USNewYorkSteuben,New York,Steuben,2021-04-04 07:11:17.426984,2020-11-22 00:00:00.000000,1.98766518,2.82811141,4.00847586,1895,2697,3823,1028,1559,2311,1.07829669,1.63455520,2.42385707,0.32622860,0.41638735,0.51616208
36101,0,USNewYorkSteuben,New York,Steuben,2021-04-04 07:11:17.426984,2020-11-23 00:00:00.000000,2.02897945,2.86035295,4.13417269,1935,2728,3943,1048,1594,2356,1.09895750,1.67136369,2.47091685,0.33284717,0.41958488,0.51629997
36101,0,USNewYorkSteuben,New York,Steuben,2021-04-04 07:11:17.426984,2020-11-24 00:00:00.000000,2.07185724,2.89605219,4.27859577,1976,2762,4080,1067,1629,2422,1.11908988,1.70888628,2.53944383,0.34048759,0.42985770,0.51631229
36101,0,USNewYorkSteuben,New York,Steuben,2021-04-04 07:11:17.426984,2020-11-25 00:00:00.000000,2.11628093,2.98799631,4.43872761,2018,2849,4233,1086,1679,2488,1.13933674,1.76119958,2.60942621,0.34270476,0.43879303,0.52595370
36101,0,USNewYorkSteuben,New York,Steuben,2021-04-04 07:11:17.426984,2020-11-26 00:00:00.000000,2.16239039,3.06371513,4.59174357,2062,2922,4379,1107,1723,2556,1.16068598,1.80662588,2.68035333,0.34923273,0.44386817,0.52890743
36101,0,USNewYorkSteuben,New York,Steuben,2021-04-04 07:11:17.426984,2020-11-27 00:00:00.000000,2.21122894,3.13690759,4.69273142,2109,2991,4475,1130,1773,2624,1.18545976,1.85928085,2.75166796,0.35941347,0.45129841,0.53721150
36101,0,USNewYorkSteuben,New York,Steuben,2021-04-04 07:11:17.426984,2020-11-28 00:00:00.000000,2.26532821,3.23106132,4.79010826,2160,3081,4568,1161,1818,2699,1.21822804,1.90645452,2.83062812,0.36259483,0.46270206,0.55733476
36101,0,USNewYorkSteuben,New York,Steuben,2021-04-04 07:11:17.426984,2020-11-29 00:00:00.000000,2.32679570,3.36072950,4.88312390,2219,3205,4657,1202,1867,2785,1.26086581,1.95754455,2.92070334,0.36726089,0.47095421,0.58688170
36101,0,USNewYorkSteuben,New York,Steuben,2021-04-04 07:11:17.426984,2020-11-30 00:00:00.000000,2.39913688,3.50489269,4.97139114,2288,3342,4741,1250,1923,2868,1.31132875,2.01661694,3.00706159,0.38170062,0.47487077,0.59827838
36101,0,USNewYorkSteuben,New York,Steuben,2021-04-04 07:11:17.426984,2020-12-01 00:00:00.000000,2.50407857,3.64689759,5.05607406,2388,3478,4822,1304,1977,2948,1.36775637,2.07375758,3.09182696,0.39016135,0.48210692,0.60293501
36101,0,USNewYorkSteuben,New York,Steuben,2021-04-04 07:11:17.426984,2020-12-02 00:00:00.000000,2.61631872,3.76008508,5.13988073,2495,3586,4902,1362,2049,3030,1.42832482,2.14847395,3.17710200,0.38966991,0.48100907,0.59576497
36101,0,USNewYorkSteuben,New York,Steuben,2021-04-04 07:11:17.426984,2020-12-03 00:00:00.000000,2.73275156,3.87725517,5.22680984,2606,3698,4985,1423,2120,3112,1.49259790,2.22334047,3.26290653,0.38220831,0.47656134,0.61775288
36101,0,USNewYorkSteuben,New York,Steuben,2021-04-04 07:11:17.426984,2020-12-04 00:00:00.000000,2.85313768,3.98118528,5.32017687,2721,3797,5074,1481,2193,3194,1.55291394,2.30003814,3.34903201,0.40427169,0.47478170,0.60562022
36101,0,USNewYorkSteuben,New York,Steuben,2021-04-04 07:11:17.426984,2020-12-05 00:00:00.000000,2.97726545,4.07755983,5.50778869,2839,3889,5253,1553,2277,3276,1.62897139,2.38737402,3.43534654,0.40216606,0.47118846,0.59006098
36101,0,USNewYorkSteuben,New York,Steuben,2021-04-04 07:11:17.426984,2020-12-06 00:00:00.000000,3.06785162,4.18576681,5.65512665,2926,3992,5393,1621,2341,3360,1.70033281,2.45516492,3.52347216,0.40021276,0.47000063,0.58693932
36101,0,USNewYorkSteuben,New York,Steuben,2021-04-04 07:11:17.426984,2020-12-07 00:00:00.000000,3.13084070,4.29349068,5.84459360,2986,4095,5574,1691,2414,3447,1.77354157,2.53198537,3.61423908,0.39763200,0.46790400,0.58441065
36101,0,USNewYorkSteuben,New York,Steuben,2021-04-04 07:11:17.426984,2020-12-08 00:00:00.000000,3.19540852,4.40426441,6.02789018,3047,4200,5749,1761,2490,3557,1.84717209,2.61092940,3.72963939,0.39619246,0.46348710,0.58940888
36101,0,USNewYorkSteuben,New York,Steuben,2021-04-04 07:11:17.426984,2020-12-09 00:00:00.000000,3.26327796,4.52208319,6.19612643,3112,4313,5909,1825,2555,3707,1.91344084,2.67907922,3.88705352,0.39983931,0.45545429,0.57412635
36101,0,USNewYorkSteuben,New York,Steuben,2021-04-04 07:11:17.426984,2020-12-10 00:00:00.000000,3.35783556,4.61942776,6.35043624,3202,4405,6056,1874,2617,3863,1.96543173,2.74444110,4.05028490,0.39760543,0.45141626,0.56981926
36101,0,USNewYorkSteuben,New York,Steuben,2021-04-04 07:11:17.426984,2020-12-11 00:00:00.000000,3.47012404,4.72412429,6.47204898,3309,4505,6172,1922,2678,3997,2.01536369,2.80837633,4.19112925,0.39316113,0.45070582,0.59031689
36101,0,USNewYorkSteuben,New York,Steuben,2021-04-04 07:11:17.426984,2020-12-12 00:00:00.000000,3.53981887,4.82883553,6.55322942,3376,4605,6250,1969,2737,4117,2.06441497,2.87062992,4.31687779,0.38094786,0.44915171,0.61205487
36101,0,USNewYorkSteuben,New York,Steuben,2021-04-04 07:11:17.426984,2020-12-13 00:00:00.000000,3.60436851,4.94124851,6.73262311,3437,4712,6421,2012,2797,4239,2.11050326,2.93327164,4.44456592,0.37343055,0.44539324,0.61169451
36101,0,USNewYorkSteuben,New York,Steuben,2021-04-04 07:11:17.426984,2020-12-14 00:00:00.000000,3.68962506,5.05311511,6.90381884,3519,4819,6584,2052,2859,4359,2.15243737,2.99845606,4.57078290,0.37313691,0.44788275,0.60786721
36101,0,USNewYorkSteuben,New York,Steuben,2021-04-04 07:11:17.426984,2020-12-15 00:00:00.000000,3.74855943,5.16317104,7.06707325,3575,4924,6740,2090,2907,4476,2.19177265,3.04830827,4.69321350,0.36909250,0.44580583,0.59994792
36101,0,USNewYorkSteuben,New York,Steuben,2021-04-04 07:11:17.426984,2020-12-16 00:00:00.000000,3.84459363,5.24573173,7.21755319,3666,5003,6884,2126,2957,4568,2.22915084,3.10078455,4.78992109,0.36733158,0.44237204,0.58706970
36101,0,USNewYorkSteuben,New York,Steuben,2021-04-04 07:11:17.426984,2020-12-17 00:00:00.000000,3.93898431,5.33104154,7.28227009,3756,5084,6945,2160,2999,4630,2.26489985,3.14477725,4.85523472,0.36338832,0.44476654,0.57231872
36101,0,USNewYorkSteuben,New York,Steuben,2021-04-04 07:11:17.426984,2020-12-18 00:00:00.000000,3.97440285,5.38725124,7.39213133,3790,5138,7050,2185,3056,4682,2.29124169,3.20439392,4.90940653,0.36450504,0.44691584,0.55935700
36101,0,USNewYorkSteuben,New York,Steuben,2021-04-04 07:11:17.426984,2020-12-19 00:00:00.000000,4.00324056,5.42305621,7.50361210,3818,5172,7156,2216,3089,4725,2.32387469,3.23943396,4.95403615,0.36540104,0.44819731,0.55424134
36101,0,USNewYorkSteuben,New York,Steuben,2021-04-04 07:11:17.426984,2020-12-20 00:00:00.000000,4.09475418,5.50132904,7.62079159,3905,5247,7268,2252,3105,4761,2.36145503,3.25623334,4.99211315,0.36545894,0.45725132,0.55281054
36101,0,USNewYorkSteuben,New York,Steuben,2021-04-04 07:11:17.426984,2020-12-21 00:00:00.000000,4.19330960,5.59470991,7.75163978,3999,5336,7393,2293,3130,4792,2.40474738,3.28225170,5.02518956,0.36741876,0.46946979,0.57237901
36101,0,USNewYorkSteuben,New York,Steuben,2021-04-04 07:11:17.426984,2020-12-22 00:00:00.000000,4.19893896,5.70925421,7.84738344,4004,5445,7484,2344,3176,4835,2.45790209,3.33014489,5.06981696,0.37691150,0.47982890,0.58832773
36101,0,USNewYorkSteuben,New York,Steuben,2021-04-04 07:11:17.426984,2020-12-23 00:00:00.000000,4.19730354,5.78420507,7.93147696,4003,5516,7564,2370,3253,4918,2.48531073,3.41067433,5.15650940,0.38924484,0.48326979,0.59732136
36101,0,USNewYorkSteuben,New York,Steuben,2021-04-04 07:11:17.426984,2020-12-24 00:00:00.000000,4.24543270,5.89853630,8.01820034,4049,5625,7647,2393,3304,4999,2.50995490,3.46489484,5.24206803,0.40151098,0.49100697,0.60244367
36101,0,USNewYorkSteuben,New York,Steuben,2021-04-04 07:11:17.426984,2020-12-25 00:00:00.000000,4.29518877,6.02754668,8.13486731,4096,5749,7758,2406,3358,5063,2.52359420,3.52157853,5.30884057,0.40638235,0.49375061,0.61479699
36101,0,USNewYorkSteuben,New York,Steuben,2021-04-04 07:11:17.426984,2020-12-26 00:00:00.000000,4.34607930,6.14435766,8.28555382,4145,5860,7902,2426,3414,5117,2.54410988,3.57977956,5.36539162,0.40477255,0.50478652,0.62514781
36101,0,USNewYorkSteuben,New York,Steuben,2021-04-04 07:11:17.426984,2020-12-27 00:00:00.000000,4.40459091,6.26391017,8.42804153,4201,5974,8038,2452,3474,5172,2.57143414,3.64317249,5.42291517,0.40505475,0.51354680,0.62627526
36101,0,USNewYorkSteuben,New York,Steuben,2021-04-04 07:11:17.426984,2020-12-28 00:00:00.000000,4.48273389,6.37213204,8.56069721,4275,6077,8165,2486,3548,5233,2.60668263,3.72093624,5.48661621,0.41239639,0.52809758,0.62732933
36101,0,USNewYorkSteuben,New York,Steuben,2021-04-04 07:11:17.426984,2020-12-29 00:00:00.000000,4.59076238,6.43155485,8.71124300,4378,6134,8308,2529,3607,5318,2.65237939,3.78255347,5.57616305,0.40415358,0.53330388,0.64283104
36101,0,USNewYorkSteuben,New York,Steuben,2021-04-04 07:11:17.426984,2020-12-30 00:00:00.000000,4.67532097,6.52323743,8.96067229,4459,6221,8546,2580,3678,5436,2.70529299,3.85641730,5.70001988,0.40723106,0.53653207,0.64773353
36101,0,USNewYorkSteuben,New York,Steuben,2021-04-04 07:11:17.426984,2020-12-31 00:00:00.000000,4.77154096,6.62518659,9.16546618,4551,6319,8741,2596,3744,5575,2.72221369,3.92635540,5.84527817,0.41341019,0.53741158,0.64402961
36101,0,USNewYorkSteuben,New York,Steuben,2021-04-04 07:11:17.426984,2021-01-01 00:00:00.000000,4.72647139,6.74878042,9.26839058,4508,6436,8840,2595,3824,5721,2.72153275,4.00941657,5.99913920,0.41182364,0.52848165,0.64375203
36101,0,USNewYorkSteuben,New York,Steuben,2021-04-04 07:11:17.426984,2021-01-02 00:00:00.000000,4.65947392,6.85267924,9.51118241,4444,6536,9071,2606,3880,5798,2.73283204,4.06858758,6.07948454,0.39513717,0.52069632,0.64473133
36101,0,USNewYorkSteuben,New York,Steuben,2021-04-04 07:11:17.426984,2021-01-03 00:00:00.000000,4.71938960,6.87373723,9.57126059,4501,6556,9128,2667,3959,5839,2.79689524,4.15114540,6.12218474,0.37812460,0.50798813,0.64146538
36101,0,USNewYorkSteuben,New York,Steuben,2021-04-04 07:11:17.426984,2021-01-04 00:00:00.000000,4.80648563,6.88818549,9.46454272,4584,6569,9027,2726,3994,5834,2.85851357,4.18807847,6.11763250,0.34658573,0.48503817,0.62729369
36101,0,USNewYorkSteuben,New York,Steuben,2021-04-04 07:11:17.426984,2021-01-05 00:00:00.000000,4.87420789,6.87412912,9.45974838,4648,6556,9022,2779,4046,5785,2.91400557,4.24299946,6.06561117,0.30835843,0.46477912,0.60147802
36101,0,USNewYorkSteuben,New York,Steuben,2021-04-04 07:11:17.426984,2021-01-06 00:00:00.000000,4.75454144,6.84973074,9.42173394,4534,6533,8986,2784,4073,5714,2.91894757,4.27087102,5.99149531,0.29170472,0.44121203,0.56465949
36101,0,USNewYorkSteuben,New York,Steuben,2021-04-04 07:11:17.426984,2021-01-07 00:00:00.000000,4.55716352,6.77887776,9.31485052,4346,6465,8884,2713,4045,5744,2.84467524,4.24169702,6.02306122,0.28646999,0.41056769,0.53164753
36101,0,USNewYorkSteuben,New York,Steuben,2021-04-04 07:11:17.426984,2021-01-08 00:00:00.000000,4.35703615,6.66758049,9.09752076,4155,6359,8677,2629,4006,5736,2.75718774,4.20040086,6.01452283,0.28466239,0.38768260,0.49088043
36101,0,USNewYorkSteuben,New York,Steuben,2021-04-04 07:11:17.426984,2021-01-09 00:00:00.000000,4.15898579,6.50931897,8.86562448,3966,6208,8455,2534,3962,5680,2.65735300,4.15443130,5.95557481,0.28356087,0.36858707,0.47352618
36101,0,USNewYorkSteuben,New York,Steuben,2021-04-04 07:11:17.426984,2021-01-10 00:00:00.000000,3.96482813,6.29135948,8.62220697,3781,6000,8223,2430,3903,5574,2.54782680,4.09221261,5.84502660,0.28219841,0.35629177,0.44404515
36101,0,USNewYorkSteuben,New York,Steuben,2021-04-04 07:11:17.426984,2021-01-11 00:00:00.000000,3.85179773,6.07242458,8.36380278,3673,5791,7977,2319,3805,5433,2.43235384,3.98977393,5.69680221,0.28675415,0.35153619,0.43101522
36101,0,USNewYorkSteuben,New York,Steuben,2021-04-04 07:11:17.426984,2021-01-12 00:00:00.000000,3.74919064,5.85625891,8.09179064,3575,5585,7717,2207,3667,5270,2.31493342,3.84541029,5.52597271,0.28516994,0.34618430,0.41597712
36101,0,USNewYorkSteuben,New York,Steuben,2021-04-04 07:11:17.426984,2021-01-13 00:00:00.000000,3.64285427,5.63834023,7.80835809,3474,5377,7447,2134,3534,5096,2.23748325,3.70533166,5.34367203,0.27800833,0.34150284,0.41181914
36101,0,USNewYorkSteuben,New York,Steuben,2021-04-04 07:11:17.426984,2021-01-14 00:00:00.000000,3.53402004,5.41453774,7.51869756,3370,5164,7171,2076,3408,4971,2.17659232,3.57353473,5.21235696,0.26865493,0.34145075,0.43032232
36101,0,USNewYorkSteuben,New York,Steuben,2021-04-04 07:11:17.426984,2021-01-15 00:00:00.000000,3.42400052,5.17745030,7.23456840,3265,4938,6900,1982,3265,4841,2.07843358,3.42386315,5.07617623,0.26839932,0.34541955,0.44828980
36101,0,USNewYorkSteuben,New York,Steuben,2021-04-04 07:11:17.426984,2021-01-16 00:00:00.000000,3.31440804,4.99236207,6.96591804,3161,4761,6644,1874,3133,4708,1.96501407,3.28542487,4.93677010,0.26093525,0.34802562,0.47437744
36101,0,USNewYorkSteuben,New York,Steuben,2021-04-04 07:11:17.426984,2021-01-17 00:00:00.000000,3.20462173,4.82099691,6.75392123,3056,4598,6441,1773,3015,4573,1.85974088,3.16116252,4.79531658,0.26187734,0.35129789,0.51046425
36101,0,USNewYorkSteuben,New York,Steuben,2021-04-04 07:11:17.426984,2021-01-18 00:00:00.000000,3.09464773,4.63662996,6.54218241,2951,4422,6239,1686,2898,4459,1.76862678,3.03874782,4.67548454,0.26724508,0.35542966,0.51051419
36101,0,USNewYorkSteuben,New York,Steuben,2021-04-04 07:11:17.426984,2021-01-19 00:00:00.000000,2.98546250,4.51635459,6.35572114,2847,4307,6062,1615,2788,4351,1.69390804,2.92391347,4.56202587,0.26737479,0.36437173,0.51271524
36101,0,USNewYorkSteuben,New York,Steuben,2021-04-04 07:11:17.426984,2021-01-20 00:00:00.000000,2.85186589,4.38848416,6.19937130,2720,4185,5912,1554,2693,4233,1.63008488,2.82400875,4.43877968,0.26782499,0.37109122,0.51215686
36101,0,USNewYorkSteuben,New York,Steuben,2021-04-04 07:11:17.426984,2021-01-21 00:00:00.000000,2.72713124,4.20050483,6.04141465,2601,4006,5762,1500,2597,4089,1.57269859,2.72333273,4.28761674,0.26897780,0.37652803,0.51345278
36101,0,USNewYorkSteuben,New York,Steuben,2021-04-04 07:11:17.426984,2021-01-22 00:00:00.000000,2.60545221,4.01848756,5.87570549,2485,3832,5604,1450,2508,3947,1.52029903,2.62991508,4.13881174,0.27165387,0.38257604,0.52111036
36101,0,USNewYorkSteuben,New York,Steuben,2021-04-04 07:11:17.426984,2021-01-23 00:00:00.000000,2.47336770,3.87152706,5.69697532,2359,3692,5433,1407,2414,3820,1.47547017,2.53139294,4.00531443,0.27740714,0.39400883,0.53540239
36101,0,USNewYorkSteuben,New York,Steuben,2021-04-04 07:11:17.426984,2021-01-24 00:00:00.000000,2.35268913,3.70580926,5.50531641,2243,3534,5250,1373,2335,3705,1.44037216,2.44848221,3.88489313,0.28466502,0.39976011,0.54264437
36101,0,USNewYorkSteuben,New York,Steuben,2021-04-04 07:11:17.426984,2021-01-25 00:00:00.000000,2.26236841,3.56956041,5.30752237,2157,3404,5062,1346,2259,3599,1.41152116,2.36927388,3.77404448,0.28240812,0.40326116,0.54270278
36101,0,USNewYorkSteuben,New York,Steuben,2021-04-04 07:11:17.426984,2021-01-26 00:00:00.000000,2.21506168,3.41985843,5.10786178,2112,3261,4871,1294,2183,3496,1.35710864,2.28911691,3.66582491,0.28607409,0.40166599,0.54218163
36101,0,USNewYorkSteuben,New York,Steuben,2021-04-04 07:11:17.426984,2021-01-27 00:00:00.000000,2.14619253,3.28118198,4.90999365,2047,3129,4683,1244,2108,3378,1.30492376,2.21070994,3.54228089,0.28812040,0.39956265,0.54026682
36101,0,USNewYorkSteuben,New York,Steuben,2021-04-04 07:11:17.426984,2021-01-28 00:00:00.000000,2.04670791,3.15073728,4.75420949,1952,3005,4534,1196,2047,3263,1.25464648,2.14628725,3.42136420,0.28989098,0.39529235,0.53426418
36101,0,USNewYorkSteuben,New York,Steuben,2021-04-04 07:11:17.426984,2021-01-29 00:00:00.000000,1.96695091,3.03136595,4.61436672,1876,2891,4401,1150,1986,3150,1.20587046,2.08255119,3.30348281,0.28383913,0.39077518,0.51865474
36101,0,USNewYorkSteuben,New York,Steuben,2021-04-04 07:11:17.426984,2021-01-30 00:00:00.000000,1.89281797,2.93221565,4.46807103,1805,2796,4261,1104,1918,3041,1.15762957,2.01119909,3.18875036,0.28162811,0.38633512,0.50095693
36101,0,USNewYorkSteuben,New York,Steuben,2021-04-04 07:11:17.426984,2021-01-31 00:00:00.000000,1.79364660,2.83665069,4.32875052,1710,2705,4128,1065,1841,2934,1.11693953,1.93053709,3.07704621,0.25934867,0.38499440,0.49946904
36101,0,USNewYorkSteuben,New York,Steuben,2021-04-04 07:11:17.426984,2021-02-01 00:00:00.000000,1.69823906,2.72986538,4.20175001,1619,2603,4007,1019,1766,2831,1.06921241,1.85205640,2.96822155,0.25365448,0.37746744,0.49763336
36101,0,USNewYorkSteuben,New York,Steuben,2021-04-04 07:11:17.426984,2021-02-02 00:00:00.000000,1.60706015,2.63129870,4.07674040,1532,2509,3888,970,1699,2730,1.01718986,1.78144556,2.86265817,0.25272532,0.37286059,0.49106065
36101,0,USNewYorkSteuben,New York,Steuben,2021-04-04 07:11:17.426984,2021-02-03 00:00:00.000000,1.52706669,2.53084230,3.92479191,1456,2413,3743,922,1630,2632,0.96760899,1.70903448,2.76006677,0.25290250,0.36711273,0.47658637
36101,0,USNewYorkSteuben,New York,Steuben,2021-04-04 07:11:17.426984,2021-02-04 00:00:00.000000,1.44669358,2.42352082,3.76252838,1379,2311,3588,877,1558,2551,0.92032600,1.63355788,2.67492607,0.25256691,0.35950072,0.46910428
36101,0,USNewYorkSteuben,New York,Steuben,2021-04-04 07:11:17.426984,2021-02-05 00:00:00.000000,1.37883937,2.30900581,3.60048324,1315,2202,3434,834,1491,2473,0.87517485,1.56385170,2.59339363,0.25274588,0.35782747,0.46056162
36101,0,USNewYorkSteuben,New York,Steuben,2021-04-04 07:11:17.426984,2021-02-06 00:00:00.000000,1.32004525,2.18818199,3.43787669,1259,2087,3279,793,1429,2356,0.83186894,1.49867791,2.47023171,0.24463317,0.35058382,0.45686777
36101,0,USNewYorkSteuben,New York,Steuben,2021-04-04 07:11:17.426984,2021-02-07 00:00:00.000000,1.26799669,2.08822584,3.27859544,1209,1991,3127,753,1369,2269,0.78986173,1.43581167,2.37997749,0.23140824,0.35069387,0.45611811
36101,0,USNewYorkSteuben,New York,Steuben,2021-04-04 07:11:17.426984,2021-02-08 00:00:00.000000,1.21636705,2.00836122,3.12339424,1160,1915,2979,713,1302,2186,0.74822417,1.36606532,2.29212310,0.23292680,0.35041955,0.45630003
36101,0,USNewYorkSteuben,New York,Steuben,2021-04-04 07:11:17.426984,2021-02-09 00:00:00.000000,1.16852854,1.92124762,2.97518345,1114,1832,2837,676,1247,2103,0.70979405,1.30776413,2.20528202,0.22731123,0.34865564,0.44289194
36101,0,USNewYorkSteuben,New York,Steuben,2021-04-04 07:11:17.426984,2021-02-10 00:00:00.000000,1.12421910,1.85138485,2.84583456,1072,1765,2714,649,1193,2020,0.68127591,1.25182639,2.11847103,0.22696819,0.34910779,0.46193144
36101,0,USNewYorkSteuben,New York,Steuben,2021-04-04 07:11:17.426984,2021-02-11 00:00:00.000000,1.08532136,1.78341947,2.71578498,1035,1701,2590,624,1142,1937,0.65473522,1.19791208,2.03086166,0.22860780,0.35957725,0.47013309
36101,0,USNewYorkSteuben,New York,Steuben,2021-04-04 07:11:17.426984,2021-02-12 00:00:00.000000,1.05405323,1.70431747,2.59214582,1005,1625,2472,601,1092,1848,0.63067244,1.14589969,1.93838761,0.23190551,0.36347729,0.48774761
36101,0,USNewYorkSteuben,New York,Steuben,2021-04-04 07:11:17.426984,2021-02-13 00:00:00.000000,1.02976521,1.62904617,2.48436808,982,1553,2369,581,1039,1761,0.61004799,1.09035810,1.84678139,0.23789107,0.35721549,0.51527379
36101,0,USNewYorkSteuben,New York,Steuben,2021-04-04 07:11:17.426984,2021-02-14 00:00:00.000000,0.99973818,1.54018254,2.39516459,953,1469,2284,562,994,1682,0.59005177,1.04291658,1.76433692,0.24707769,0.36638438,0.51832193
36101,0,USNewYorkSteuben,New York,Steuben,2021-04-04 07:11:17.426984,2021-02-15 00:00:00.000000,0.95593816,1.46333678,2.31515908,911,1395,2208,535,949,1612,0.56172713,0.99534944,1.69072851,0.25781749,0.37600827,0.56027506
36101,0,USNewYorkSteuben,New York,Steuben,2021-04-04 07:11:17.426984,2021-02-16 00:00:00.000000,0.91499114,1.39989037,2.23739888,872,1335,2134,509,913,1550,0.53419080,0.95733529,1.62529791,0.27102265,0.39284559,0.57295016
36101,0,USNewYorkSteuben,New York,Steuben,2021-04-04 07:11:17.426984,2021-02-17 00:00:00.000000,0.87962800,1.33885551,2.16408223,838,1276,2064,484,867,1493,0.50747764,0.90987474,1.56610677,0.27762644,0.39461298,0.60145529
36101,0,USNewYorkSteuben,New York,Steuben,2021-04-04 07:11:17.426984,2021-02-18 00:00:00.000000,0.85698239,1.27882690,2.09405777,817,1219,1997,459,827,1441,0.48179423,0.86754545,1.51153566,0.27990015,0.41009886,0.61273185
36101,0,USNewYorkSteuben,New York,Steuben,2021-04-04 07:11:17.426984,2021-02-19 00:00:00.000000,0.84434687,1.23533149,2.03232137,805,1178,1938,436,792,1392,0.45739338,0.83105395,1.46039698,0.28809801,0.41888575,0.61940392
36101,0,USNewYorkSteuben,New York,Steuben,2021-04-04 07:11:17.426984,2021-02-20 00:00:00.000000,0.80683788,1.20624920,1.97718684,769,1150,1885,430,759,1349,0.45121161,0.79678729,1.41474309,0.30134534,0.42986339,0.62946652
36101,0,USNewYorkSteuben,New York,Steuben,2021-04-04 07:11:17.426984,2021-02-21 00:00:00.000000,0.80542661,1.18367688,1.92517740,768,1128,1836,433,731,1314,0.45433553,0.76691007,1.37799069,0.31833495,0.43463647,0.66589065
36101,0,USNewYorkSteuben,New York,Steuben,2021-04-04 07:11:17.426984,2021-02-22 00:00:00.000000,0.80310644,1.15604963,1.87406002,765,1102,1787,435,700,1277,0.45706569,0.73404249,1.33942820,0.32198243,0.44932184,0.71354950
36101,0,USNewYorkSteuben,New York,Steuben,2021-04-04 07:11:17.426984,2021-02-23 00:00:00.000000,0.78925171,1.12666365,1.85307957,752,1074,1767,422,683,1236,0.44279169,0.71650960,1.29603651,0.32656803,0.45945251,0.71547996
36101,0,USNewYorkSteuben,New York,Steuben,2021-04-04 07:11:17.426984,2021-02-24 00:00:00.000000,0.77186740,1.10715108,1.84483823,736,1055,1759,407,672,1207,0.42680027,0.70530085,1.26651533,0.32913021,0.48783252,0.73627046
36101,0,USNewYorkSteuben,New York,Steuben,2021-04-04 07:11:17.426984,2021-02-25 00:00:00.000000,0.76238896,1.09357876,1.77919283,727,1043,1696,395,654,1184,0.41450550,0.68656923,1.24143864,0.32792005,0.51795624,0.76130461
36101,0,USNewYorkSteuben,New York,Steuben,2021-04-04 07:11:17.426984,2021-02-26 00:00:00.000000,0.74493707,1.09065541,1.71157061,710,1040,1632,387,643,1153,0.40634411,0.67482886,1.20923841,0.34428189,0.53954931,0.78368558
36101,0,USNewYorkSteuben,New York,Steuben,2021-04-04 07:11:17.426984,2021-02-27 00:00:00.000000,0.74618209,1.09093238,1.65949478,711,1040,1582,382,630,1117,0.40151114,0.66130321,1.17214449,0.37757095,0.55361029,0.79202312
36101,0,USNewYorkSteuben,New York,Steuben,2021-04-04 07:11:17.426984,2021-02-28 00:00:00.000000,0.75050307,1.08420307,1.63312459,715,1034,1557,380,625,1082,0.39884126,0.65560524,1.13485085,0.40569605,0.56300640,0.81806285
36101,0,USNewYorkSteuben,New York,Steuben,2021-04-04 07:11:17.426984,2021-03-01 00:00:00.000000,0.75498417,1.08897379,1.62364637,720,1038,1548,379,624,1064,0.39746998,0.65503462,1.11651099,0.41086035,0.57498132,0.85049971
36101,0,USNewYorkSteuben,New York,Steuben,2021-04-04 07:11:17.426984,2021-03-02 00:00:00.000000,0.75494367,1.09424722,1.59826421,720,1043,1524,378,622,1039,0.39662948,0.65275260,1.09009485,0.41361556,0.59475727,0.85599854
36101,0,USNewYorkSteuben,New York,Steuben,2021-04-04 07:11:17.426984,2021-03-03 00:00:00.000000,0.76240835,1.08060151,1.57606671,727,1030,1503,377,621,1019,0.39620570,0.65188185,1.06893243,0.41466894,0.61353050,0.86017522
36101,0,USNewYorkSteuben,New York,Steuben,2021-04-04 07:11:17.426984,2021-03-04 00:00:00.000000,0.77893546,1.08407873,1.55494003,742,1033,1483,377,624,1002,0.39622214,0.65485594,1.05144933,0.41504988,0.62260797,0.87092313
36101,0,USNewYorkSteuben,New York,Steuben,2021-04-04 07:11:17.426984,2021-03-05 00:00:00.000000,0.77309678,1.09708640,1.54890554,737,1046,1477,378,624,988,0.39683099,0.65516817,1.03599529,0.41524915,0.62954197,0.88342968
36101,0,USNewYorkSteuben,New York,Steuben,2021-04-04 07:11:17.426984,2021-03-06 00:00:00.000000,0.76882820,1.09996077,1.55034487,733,1049,1478,379,623,985,0.39831685,0.65404007,1.03336347,0.41586408,0.63548241,0.89251187
36101,0,USNewYorkSteuben,New York,Steuben,2021-04-04 07:11:17.426984,2021-03-07 00:00:00.000000,0.77979189,1.09520260,1.55320499,743,1044,1481,382,628,986,0.40124232,0.65844850,1.03391379,0.42419305,0.64940667,0.90429484
36101,0,USNewYorkSteuben,New York,Steuben,2021-04-04 07:11:17.426984,2021-03-08 00:00:00.000000,0.79350089,1.08829022,1.54610216,756,1038,1474,390,637,987,0.40911710,0.66887746,1.03521299,0.46434789,0.66283260,0.91562317
36101,0,USNewYorkSteuben,New York,Steuben,2021-04-04 07:11:17.426984,2021-03-09 00:00:00.000000,0.78804971,1.09699063,1.56921506,751,1046,1496,398,641,990,0.41756224,0.67227034,1.03831441,0.48192394,0.67058004,0.96300720
36101,0,USNewYorkSteuben,New York,Steuben,2021-04-04 07:11:17.426984,2021-03-10 00:00:00.000000,0.78709554,1.12019023,1.58171003,750,1068,1508,406,640,988,0.42634740,0.67161953,1.03606152,0.49048431,0.69099075,1.00174142
36101,0,USNewYorkSteuben,New York,Steuben,2021-04-04 07:11:17.426984,2021-03-11 00:00:00.000000,0.79862182,1.13893544,1.58706140,761,1086,1513,415,646,984,0.43535319,0.67833130,1.03235564,0.49132280,0.70697951,1.01159958
36101,0,USNewYorkSteuben,New York,Steuben,2021-04-04 07:11:17.426984,2021-03-12 00:00:00.000000,0.81333927,1.16161884,1.59394179,775,1107,1520,423,659,989,0.44451225,0.69148687,1.03755292,0.49595786,0.72771482,1.06272416
36101,0,USNewYorkSteuben,New York,Steuben,2021-04-04 07:11:17.426984,2021-03-13 00:00:00.000000,0.82976012,1.18265506,1.61283330,791,1128,1538,434,670,1009,0.45544528,0.70264742,1.05863805,0.50047032,0.75480892,1.06056304
36101,0,USNewYorkSteuben,New York,Steuben,2021-04-04 07:11:17.426984,2021-03-14 00:00:00.000000,0.84736364,1.19645715,1.66817067,808,1141,1591,448,677,1014,0.47019610,0.70986101,1.06382345,0.51344569,0.77367750,1.05039923
36101,0,USNewYorkSteuben,New York,Steuben,2021-04-04 07:11:17.426984,2021-03-15 00:00:00.000000,0.86095984,1.22040649,1.69034618,821,1164,1612,453,688,1033,0.47519682,0.72177813,1.08401182,0.52427223,0.78149235,1.06867299
36101,0,USNewYorkSteuben,New York,Steuben,2021-04-04 07:11:17.426984,2021-03-16 00:00:00.000000,0.87963569,1.24275276,1.73192157,838,1185,1651,465,701,1056,0.48810525,0.73504181,1.10750411,0.52486191,0.80166125,1.10223645
36101,0,USNewYorkSteuben,New York,Steuben,2021-04-04 07:11:17.426984,2021-03-17 00:00:00.000000,0.90645114,1.26964716,1.77379832,864,1210,1691,481,716,1080,0.50471461,0.75122494,1.13280471,0.52656573,0.79957748,1.13319773
36101,0,USNewYorkSteuben,New York,Steuben,2021-04-04 07:11:17.426984,2021-03-18 00:00:00.000000,0.92902386,1.31232499,1.81575180,886,1251,1731,492,734,1105,0.51616877,0.77019307,1.15910869,0.53132902,0.81094250,1.15293326
36101,0,USNewYorkSteuben,New York,Steuben,2021-04-04 07:11:17.426984,2021-03-19 00:00:00.000000,0.96188892,1.34513576,1.87523697,917,1282,1788,496,749,1131,0.52105602,0.78608215,1.18596925,0.54369444,0.82249269,1.20316567
36101,0,USNewYorkSteuben,New York,Steuben,2021-04-04 07:11:17.426984,2021-03-20 00:00:00.000000,0.98492502,1.37930383,1.94898987,939,1315,1858,509,766,1156,0.53401600,0.80353664,1.21215513,0.56537756,0.84663363,1.28315385
36101,0,USNewYorkSteuben,New York,Steuben,2021-04-04 07:11:17.426984,2021-03-21 00:00:00.000000,1.00551752,1.41345768,2.01393116,959,1348,1920,527,784,1178,0.55307944,0.82283087,1.23531505,0.57669051,0.86013496,1.36448460
36101,0,USNewYorkSteuben,New York,Steuben,2021-04-04 07:11:17.426984,2021-03-22 00:00:00.000000,1.02485537,1.45027848,2.07275856,977,1383,1976,546,805,1209,0.57308241,0.84414834,1.26818666,0.58362457,0.86561369,1.38188747
36101,0,USNewYorkSteuben,New York,Steuben,2021-04-04 07:11:17.426984,2021-03-23 00:00:00.000000,1.04310372,1.48949900,2.10622018,994,1420,2008,565,825,1237,0.59292382,0.86571974,1.29705227,0.60517751,0.87638044,1.39285529
36101,0,USNewYorkSteuben,New York,Steuben,2021-04-04 07:11:17.426984,2021-03-24 00:00:00.000000,1.06065204,1.52425552,2.17642937,1011,1453,2075,576,841,1265,0.60417257,0.88209825,1.32633168,0.60691382,0.88220782,1.44644199
36101,0,USNewYorkSteuben,New York,Steuben,2021-04-04 07:11:17.426984,2021-03-25 00:00:00.000000,1.08403275,1.56176281,2.24738130,1033,1489,2143,586,867,1293,0.61487044,0.90943030,1.35574135,0.60737501,0.89510807,1.54580370
36101,0,USNewYorkSteuben,New York,Steuben,2021-04-04 07:11:17.426984,2021-03-26 00:00:00.000000,1.11335376,1.59577458,2.31909736,1061,1522,2211,596,888,1321,0.62513431,0.93143633,1.38509229,0.59295862,0.89609626,1.57137627
36101,0,USNewYorkSteuben,New York,Steuben,2021-04-04 07:11:17.426984,2021-03-27 00:00:00.000000,1.14306297,1.64074476,2.39149135,1090,1564,2280,605,917,1348,0.63496072,0.96163922,1.41340233,0.56552507,0.90630396,1.54265213
36101,0,USNewYorkSteuben,New York,Steuben,2021-04-04 07:11:17.426984,2021-03-28 00:00:00.000000,1.14243744,1.69718876,2.46445452,1089,1618,2350,622,950,1374,0.65283734,0.99607007,1.44141592,0.56372360,0.92336520,1.57824801
36101,0,USNewYorkSteuben,New York,Steuben,2021-04-04 07:11:17.426984,2021-03-29 00:00:00.000000,1.15323388,1.74687235,2.53725208,1099,1666,2420,622,972,1401,0.65225700,1.01951561,1.46905515,0.55248053,0.92939275,1.58876649
36101,0,USNewYorkSteuben,New York,Steuben,2021-04-04 07:11:17.426984,2021-03-30 00:00:00.000000,1.16590001,1.77493581,2.61035568,1112,1692,2489,628,996,1425,0.65869478,1.04443943,1.49460765,0.54396498,0.93281018,1.58930001
36101,0,USNewYorkSteuben,New York,Steuben,2021-04-04 07:11:17.426984,2021-03-31 00:00:00.000000,1.17625003,1.80418050,2.68358199,1121,1720,2559,633,1020,1448,0.66426814,1.07042667,1.51873725,0.55244221,0.92947865,1.58337569
36101,0,USNewYorkSteuben,New York,Steuben,2021-04-04 07:11:17.426984,2021-04-01 00:00:00.000000,1.18177224,1.83933446,2.75678003,1127,1754,2629,639,1048,1475,0.67073402,1.09972010,1.54673742,0.54336827,0.92522906,1.59002910
36101,0,USNewYorkSteuben,New York,Steuben,2021-04-04 07:11:17.426984,2021-04-02 00:00:00.000000,1.18215124,1.89470637,2.82978636,1127,1807,2699,648,1079,1514,0.68011309,1.13167115,1.58818418,0.54175979,0.92281300,1.57915513
36101,0,USNewYorkSteuben,New York,Steuben,2021-04-04 07:11:17.426984,2021-04-03 00:00:00.000000,1.18127422,1.92587829,2.90242737,1126,1836,2768,660,1104,1543,0.69209075,1.15823710,1.61841506,0.54102314,0.91904526,1.56032353
36101,0,USNewYorkSteuben,New York,Steuben,2021-04-04 07:11:17.426984,2021-04-04 00:00:00.000000,1.17992994,1.96658035,2.97452089,1125,1875,2837,672,1126,1584,0.70556468,1.18156180,1.66138323,0.54085024,0.93216426,1.54981871
36101,0,USNewYorkSteuben,New York,Steuben,2021-04-04 07:11:17.426984,2021-04-05 00:00:00.000000,1.17819954,1.98413844,3.04587738,1123,1892,2905,676,1155,1635,0.70913948,1.21194972,1.71500303,0.54080962,0.92165922,1.55909162
36101,0,USNewYorkSteuben,New York,Steuben,2021-04-04 07:11:17.426984,2021-04-06 00:00:00.000000,1.17612057,1.99994377,3.11630090,1121,1907,2972,676,1178,1676,0.70910620,1.23573172,1.75767151,0.54079615,0.91968898,1.56042132
36101,0,USNewYorkSteuben,New York,Steuben,2021-04-04 07:11:17.426984,2021-04-07 00:00:00.000000,1.17377476,2.02118850,3.18559024,1119,1927,3038,674,1186,1716,0.70763951,1.24411019,1.79994872,0.54079081,0.91473862,1.56061143
36101,0,USNewYorkSteuben,New York,Steuben,2021-04-04 07:11:17.426984,2021-04-08 00:00:00.000000,1.17132551,2.04939391,3.25353985,1117,1954,3103,672,1201,1756,0.70501461,1.26023179,1.84172262,0.54078857,0.91313865,1.56064064
36101,0,USNewYorkSteuben,New York,Steuben,2021-04-04 07:11:17.426984,2021-04-09 00:00:00.000000,1.16856539,2.06831817,3.36430799,1114,1972,3208,669,1210,1814,0.70157862,1.26964169,1.90241935,0.54078762,0.91264756,1.56064622
36101,0,USNewYorkSteuben,New York,Steuben,2021-04-04 07:11:17.426984,2021-04-10 00:00:00.000000,1.14322793,2.08072657,3.42964067,1090,1984,3271,665,1222,1899,0.69761311,1.28127986,1.99179649,0.54078721,0.91249135,1.56064783
36101,0,USNewYorkSteuben,New York,Steuben,2021-04-04 07:11:17.426984,2021-04-11 00:00:00.000000,1.11062116,2.06722117,3.49303109,1059,1971,3331,661,1236,1986,0.69328371,1.29677966,2.08306482,0.54078703,0.91243783,1.56064851
36101,0,USNewYorkSteuben,New York,Steuben,2021-04-04 07:11:17.426984,2021-04-12 00:00:00.000000,1.07879037,2.09417104,3.57197501,1028,1997,3406,656,1248,2075,0.68868259,1.30872364,2.17583356,0.54078696,0.91241780,1.56064886
36101,0,USNewYorkSteuben,New York,Steuben,2021-04-04 07:11:17.426984,2021-04-13 00:00:00.000000,1.04772737,2.10501596,3.71701151,999,2007,3545,651,1253,2163,0.68279831,1.31392123,2.26873101,0.54078693,0.91240964,1.56064905
36101,0,USNewYorkSteuben,New York,Steuben,2021-04-04 07:11:17.426984,2021-04-14 00:00:00.000000,1.01742323,2.11781660,3.86283292,970,2019,3684,632,1248,2253,0.66316477,1.30851886,2.36267094,0.54078691,0.91240609,1.56064915
36101,0,USNewYorkSteuben,New York,Steuben,2021-04-04 07:11:17.426984,2021-04-15 00:00:00.000000,0.98786833,2.12872591,3.99595900,942,2030,3811,614,1242,2343,0.64400623,1.30247828,2.45733621,0.54078691,0.91240446,1.56064921
36101,0,USNewYorkSteuben,New York,Steuben,2021-04-04 07:11:17.426984,2021-04-16 00:00:00.000000,0.95905248,2.13900684,4.05409908,914,2040,3866,596,1242,2434,0.62531742,1.30302240,2.55237931,0.54078690,0.91240370,1.56064924
