FIPS,HR_UID,nameid,province,region,analysisTime,dates,pointprevalence_025,pointprevalence_50,pointprevalence_975,pointinfections_025,pointinfections_50,pointinfections_975,pointinfectious_025,pointinfectious_50,pointinfectious_975,pointinfectiousprevalence_05,pointinfectiousprevalence_50,pointinfectiousprevalence_95,infectrate_025,infectrate_50,infectrate_975
17115,0,USIllinoisMacon,Illinois,Macon,2021-04-04 12:16:05.850534,2020-03-09 00:00:00.000000,0.00070151,0.00392066,0.01233920,0,4,12,0,2,6,0.00032064,0.00201107,0.00614142,0.50271597,0.67570043,0.89905952
17115,0,USIllinoisMacon,Illinois,Macon,2021-04-04 12:16:05.850534,2020-03-10 00:00:00.000000,0.00081778,0.00457122,0.01379559,0,4,14,0,2,6,0.00033158,0.00211729,0.00629900,0.50269594,0.67566965,0.89905950
17115,0,USIllinoisMacon,Illinois,Macon,2021-04-04 12:16:05.850534,2020-03-11 00:00:00.000000,0.00094198,0.00515043,0.01529679,0,5,15,0,2,7,0.00038695,0.00233200,0.00673261,0.50266108,0.67561583,0.89905948
17115,0,USIllinoisMacon,Illinois,Macon,2021-04-04 12:16:05.850534,2020-03-12 00:00:00.000000,0.00107857,0.00599348,0.01686660,1,6,17,0,2,7,0.00043355,0.00259599,0.00750242,0.50260052,0.67552093,0.89905944
17115,0,USIllinoisMacon,Illinois,Macon,2021-04-04 12:16:05.850534,2020-03-13 00:00:00.000000,0.00123091,0.00666104,0.01853478,1,6,19,0,3,8,0.00049193,0.00292159,0.00843138,0.50249556,0.67535222,0.89905938
17115,0,USIllinoisMacon,Illinois,Macon,2021-04-04 12:16:05.850534,2020-03-14 00:00:00.000000,0.00140199,0.00739715,0.02031245,1,7,21,0,3,9,0.00056013,0.00327929,0.00945118,0.50231432,0.67505019,0.89905928
17115,0,USIllinoisMacon,Illinois,Macon,2021-04-04 12:16:05.850534,2020-03-15 00:00:00.000000,0.00159480,0.00824318,0.02220693,1,8,23,0,3,10,0.00063799,0.00364844,0.01020896,0.50200342,0.67450704,0.89905910
17115,0,USIllinoisMacon,Illinois,Macon,2021-04-04 12:16:05.850534,2020-03-16 00:00:00.000000,0.00359172,0.01087031,0.02591327,3,11,26,0,4,11,0.00072622,0.00414979,0.01119936,0.50147604,0.67353086,0.89905872
17115,0,USIllinoisMacon,Illinois,Macon,2021-04-04 12:16:05.850534,2020-03-17 00:00:00.000000,0.00511792,0.01331773,0.02946175,5,13,30,1,5,13,0.00145967,0.00511311,0.01282762,0.50059785,0.67210815,0.89905761
17115,0,USIllinoisMacon,Illinois,Macon,2021-04-04 12:16:05.850534,2020-03-18 00:00:00.000000,0.00680117,0.01673590,0.03487550,7,17,36,2,6,15,0.00230654,0.00624480,0.01480743,0.49917877,0.67083176,0.89905257
17115,0,USIllinoisMacon,Illinois,Macon,2021-04-04 12:16:05.850534,2020-03-19 00:00:00.000000,0.00867801,0.02041122,0.04160161,9,21,43,3,8,19,0.00313730,0.00792139,0.01832459,0.49658698,0.66043486,0.89902370
17115,0,USIllinoisMacon,Illinois,Macon,2021-04-04 12:16:05.850534,2020-03-20 00:00:00.000000,0.01078638,0.02436456,0.05137354,11,25,53,4,9,22,0.00411373,0.00949464,0.02176282,0.48887846,0.66613633,0.89884507
17115,0,USIllinoisMacon,Illinois,Macon,2021-04-04 12:16:05.850534,2020-03-21 00:00:00.000000,0.01316433,0.02778617,0.06139640,13,28,63,5,12,28,0.00524858,0.01161560,0.02732796,0.46481528,0.65683653,0.88149854
17115,0,USIllinoisMacon,Illinois,Macon,2021-04-04 12:16:05.850534,2020-03-22 00:00:00.000000,0.01584824,0.03197060,0.07129744,16,33,74,6,14,35,0.00657999,0.01405924,0.03367773,0.45153646,0.63864594,0.87685899
17115,0,USIllinoisMacon,Illinois,Macon,2021-04-04 12:16:05.850534,2020-03-23 00:00:00.000000,0.02088044,0.03837329,0.07705128,21,39,80,8,16,42,0.00804731,0.01586189,0.04069766,0.44990129,0.62155661,0.86299594
17115,0,USIllinoisMacon,Illinois,Macon,2021-04-04 12:16:05.850534,2020-03-24 00:00:00.000000,0.02603927,0.04421509,0.08359775,27,45,86,10,19,47,0.01046176,0.01843143,0.04582626,0.44843182,0.61291612,0.84246410
17115,0,USIllinoisMacon,Illinois,Macon,2021-04-04 12:16:05.850534,2020-03-25 00:00:00.000000,0.03163541,0.05010872,0.09702568,32,52,100,13,22,52,0.01261499,0.02137667,0.05057415,0.44625951,0.60131575,0.82626778
17115,0,USIllinoisMacon,Illinois,Macon,2021-04-04 12:16:05.850534,2020-03-26 00:00:00.000000,0.03704614,0.05667586,0.11172328,38,58,116,15,25,57,0.01500294,0.02476578,0.05529156,0.44289035,0.60075770,0.80528017
17115,0,USIllinoisMacon,Illinois,Macon,2021-04-04 12:16:05.850534,2020-03-27 00:00:00.000000,0.04139339,0.06498897,0.12729460,43,67,132,18,29,62,0.01759385,0.02855342,0.06016738,0.43786970,0.60017010,0.79302774
17115,0,USIllinoisMacon,Illinois,Macon,2021-04-04 12:16:05.850534,2020-03-28 00:00:00.000000,0.04641950,0.07331083,0.14369996,48,76,149,21,34,67,0.02033287,0.03303935,0.06530981,0.43100991,0.58433008,0.78271358
17115,0,USIllinoisMacon,Illinois,Macon,2021-04-04 12:16:05.850534,2020-03-29 00:00:00.000000,0.05186989,0.08204297,0.16087487,53,85,167,23,40,76,0.02289993,0.03850528,0.07349422,0.42276690,0.57012646,0.77125696
17115,0,USIllinoisMacon,Illinois,Macon,2021-04-04 12:16:05.850534,2020-03-30 00:00:00.000000,0.05856646,0.09208070,0.17413403,60,95,181,26,44,86,0.02576142,0.04279284,0.08309748,0.41715132,0.56984262,0.76271981
17115,0,USIllinoisMacon,Illinois,Macon,2021-04-04 12:16:05.850534,2020-03-31 00:00:00.000000,0.06573545,0.10221485,0.18812911,68,106,195,31,50,95,0.02999181,0.04817297,0.09206568,0.41457638,0.56433797,0.75727309
17115,0,USIllinoisMacon,Illinois,Macon,2021-04-04 12:16:05.850534,2020-04-01 00:00:00.000000,0.07409761,0.11257873,0.20277767,77,117,210,35,56,104,0.03391057,0.05466476,0.10079398,0.39014928,0.54570128,0.74021675
17115,0,USIllinoisMacon,Illinois,Macon,2021-04-04 12:16:05.850534,2020-04-02 00:00:00.000000,0.08667821,0.12591276,0.21838003,90,130,227,39,62,113,0.03827500,0.06043175,0.10953779,0.37582332,0.54072129,0.75095730
17115,0,USIllinoisMacon,Illinois,Macon,2021-04-04 12:16:05.850534,2020-04-03 00:00:00.000000,0.09483111,0.13936256,0.23526760,98,144,244,44,69,123,0.04271331,0.06655409,0.11919874,0.37410076,0.53049408,0.74615953
17115,0,USIllinoisMacon,Illinois,Macon,2021-04-04 12:16:05.850534,2020-04-04 00:00:00.000000,0.10347838,0.15457150,0.25363249,107,160,263,49,77,135,0.04750605,0.07472421,0.13008891,0.36819447,0.50884117,0.72749221
17115,0,USIllinoisMacon,Illinois,Macon,2021-04-04 12:16:05.850534,2020-04-05 00:00:00.000000,0.11279124,0.16916731,0.27351883,117,175,284,54,85,147,0.05266547,0.08248779,0.14156859,0.35550056,0.49669905,0.69037408
17115,0,USIllinoisMacon,Illinois,Macon,2021-04-04 12:16:05.850534,2020-04-06 00:00:00.000000,0.12320682,0.18462668,0.29213431,128,192,303,60,94,159,0.05784491,0.09049284,0.15338221,0.33891650,0.47902959,0.66444174
17115,0,USIllinoisMacon,Illinois,Macon,2021-04-04 12:16:05.850534,2020-04-07 00:00:00.000000,0.13620990,0.20004678,0.31574586,141,208,328,65,103,175,0.06299156,0.09934010,0.16832941,0.31577374,0.47072263,0.66058569
17115,0,USIllinoisMacon,Illinois,Macon,2021-04-04 12:16:05.850534,2020-04-08 00:00:00.000000,0.14976574,0.21490092,0.33695241,155,223,350,71,112,188,0.06877861,0.10769293,0.18120536,0.30476962,0.45930020,0.63368610
17115,0,USIllinoisMacon,Illinois,Macon,2021-04-04 12:16:05.850534,2020-04-09 00:00:00.000000,0.16322643,0.23062149,0.35573699,169,239,369,77,122,200,0.07485911,0.11739294,0.19283340,0.30393369,0.44012644,0.61819351
17115,0,USIllinoisMacon,Illinois,Macon,2021-04-04 12:16:05.850534,2020-04-10 00:00:00.000000,0.16794737,0.24590051,0.37837433,174,255,393,82,133,217,0.07884108,0.12804272,0.20916252,0.29831315,0.42420793,0.61076496
17115,0,USIllinoisMacon,Illinois,Macon,2021-04-04 12:16:05.850534,2020-04-11 00:00:00.000000,0.17606348,0.25982064,0.40058907,183,270,416,83,145,235,0.08032600,0.13972328,0.22607498,0.28033330,0.40974310,0.57242451
17115,0,USIllinoisMacon,Illinois,Macon,2021-04-04 12:16:05.850534,2020-04-12 00:00:00.000000,0.18212865,0.27646316,0.42131404,189,287,438,86,155,252,0.08326948,0.14992385,0.24240525,0.26393611,0.39334014,0.53600338
17115,0,USIllinoisMacon,Illinois,Macon,2021-04-04 12:16:05.850534,2020-04-13 00:00:00.000000,0.18667343,0.29615947,0.43989737,194,308,457,92,167,267,0.08927356,0.16089272,0.25712136,0.24307009,0.37511129,0.50530433
17115,0,USIllinoisMacon,Illinois,Macon,2021-04-04 12:16:05.850534,2020-04-14 00:00:00.000000,0.18987541,0.31078247,0.45577309,197,323,474,99,175,281,0.09530800,0.16879116,0.27100552,0.23872471,0.35184682,0.47774976
17115,0,USIllinoisMacon,Illinois,Macon,2021-04-04 12:16:05.850534,2020-04-15 00:00:00.000000,0.19133094,0.32188527,0.46914428,199,334,487,105,183,295,0.10134135,0.17683871,0.28437588,0.23616778,0.34198246,0.46209605
17115,0,USIllinoisMacon,Illinois,Macon,2021-04-04 12:16:05.850534,2020-04-16 00:00:00.000000,0.19099326,0.32703585,0.47956197,198,340,498,108,190,309,0.10404561,0.18354130,0.29763331,0.22115538,0.32856368,0.44237512
17115,0,USIllinoisMacon,Illinois,Macon,2021-04-04 12:16:05.850534,2020-04-17 00:00:00.000000,0.19267715,0.33502780,0.48552993,200,348,504,110,197,323,0.10636659,0.18947601,0.31104131,0.20335016,0.30942422,0.41970087
17115,0,USIllinoisMacon,Illinois,Macon,2021-04-04 12:16:05.850534,2020-04-18 00:00:00.000000,0.19714209,0.33891342,0.50185605,205,352,521,112,203,337,0.10842903,0.19554820,0.32465574,0.19724420,0.29212971,0.40745682
17115,0,USIllinoisMacon,Illinois,Macon,2021-04-04 12:16:05.850534,2020-04-19 00:00:00.000000,0.20040343,0.34274037,0.51459322,208,356,535,114,208,340,0.11015476,0.20052485,0.32785058,0.18431406,0.27132110,0.38978848
17115,0,USIllinoisMacon,Illinois,Macon,2021-04-04 12:16:05.850534,2020-04-20 00:00:00.000000,0.20172079,0.34511191,0.51856712,209,358,539,113,211,341,0.10872278,0.20380548,0.32870785,0.16423608,0.25171182,0.35078849
17115,0,USIllinoisMacon,Illinois,Macon,2021-04-04 12:16:05.850534,2020-04-21 00:00:00.000000,0.20195980,0.34843349,0.51594824,210,362,536,111,214,351,0.10721665,0.20626839,0.33749600,0.14935661,0.23227917,0.34135916
17115,0,USIllinoisMacon,Illinois,Macon,2021-04-04 12:16:05.850534,2020-04-22 00:00:00.000000,0.20103250,0.34630116,0.52467943,209,360,545,109,215,364,0.10549276,0.20756040,0.35071391,0.14075599,0.22091580,0.33404568
17115,0,USIllinoisMacon,Illinois,Macon,2021-04-04 12:16:05.850534,2020-04-23 00:00:00.000000,0.19841697,0.33951916,0.52728400,206,353,548,107,214,370,0.10355061,0.20658787,0.35636632,0.13187220,0.21041765,0.31897790
17115,0,USIllinoisMacon,Illinois,Macon,2021-04-04 12:16:05.850534,2020-04-24 00:00:00.000000,0.19799862,0.32955253,0.52553193,205,342,546,105,212,370,0.10149643,0.20392679,0.35655442,0.12507459,0.19714567,0.30010672
17115,0,USIllinoisMacon,Illinois,Macon,2021-04-04 12:16:05.850534,2020-04-25 00:00:00.000000,0.19541331,0.31938514,0.52212188,203,332,543,105,209,369,0.10128864,0.20097021,0.35493542,0.11358385,0.18843081,0.27588828
17115,0,USIllinoisMacon,Illinois,Macon,2021-04-04 12:16:05.850534,2020-04-26 00:00:00.000000,0.19097552,0.30795415,0.51780161,198,320,538,105,204,366,0.10109725,0.19663720,0.35208006,0.10420974,0.17380838,0.25974964
17115,0,USIllinoisMacon,Illinois,Macon,2021-04-04 12:16:05.850534,2020-04-27 00:00:00.000000,0.18637544,0.29671662,0.50489575,193,308,525,104,198,356,0.10093889,0.19098872,0.34282778,0.10270114,0.16775964,0.25707684
17115,0,USIllinoisMacon,Illinois,Macon,2021-04-04 12:16:05.850534,2020-04-28 00:00:00.000000,0.18174880,0.28914405,0.48634389,189,300,505,103,191,345,0.09942488,0.18455934,0.33249638,0.10221512,0.16558140,0.25441331
17115,0,USIllinoisMacon,Illinois,Macon,2021-04-04 12:16:05.850534,2020-04-29 00:00:00.000000,0.17361983,0.27884343,0.46463361,180,290,483,101,184,334,0.09734720,0.17773805,0.32192850,0.09879552,0.15997638,0.25320936
17115,0,USIllinoisMacon,Illinois,Macon,2021-04-04 12:16:05.850534,2020-04-30 00:00:00.000000,0.16631701,0.27055153,0.44187238,172,281,459,98,178,323,0.09507429,0.17171255,0.31124018,0.09905457,0.15449069,0.25158904
17115,0,USIllinoisMacon,Illinois,Macon,2021-04-04 12:16:05.850534,2020-05-01 00:00:00.000000,0.16202902,0.26333728,0.41926335,168,273,436,96,172,312,0.09277226,0.16603572,0.30032836,0.09510852,0.14936413,0.24875501
17115,0,USIllinoisMacon,Illinois,Macon,2021-04-04 12:16:05.850534,2020-05-02 00:00:00.000000,0.15780861,0.25331897,0.39740628,164,263,413,93,166,301,0.09019404,0.16011946,0.28952910,0.09265062,0.14598855,0.24412482
17115,0,USIllinoisMacon,Illinois,Macon,2021-04-04 12:16:05.850534,2020-05-03 00:00:00.000000,0.15370361,0.24528095,0.37657771,159,255,391,89,160,295,0.08624924,0.15467739,0.28392407,0.09178808,0.14013134,0.23759069
17115,0,USIllinoisMacon,Illinois,Macon,2021-04-04 12:16:05.850534,2020-05-04 00:00:00.000000,0.14847135,0.23421333,0.36184854,154,243,376,87,155,288,0.08419043,0.14942324,0.27740633,0.09149794,0.13844681,0.23006770
17115,0,USIllinoisMacon,Illinois,Macon,2021-04-04 12:16:05.850534,2020-05-05 00:00:00.000000,0.14343600,0.22297823,0.34737821,149,231,361,85,150,273,0.08193191,0.14479041,0.26287708,0.09071038,0.13513538,0.22319876
17115,0,USIllinoisMacon,Illinois,Macon,2021-04-04 12:16:05.850534,2020-05-06 00:00:00.000000,0.13858372,0.21582004,0.33954521,144,224,353,82,144,258,0.07919725,0.13878290,0.24901200,0.08763573,0.13389174,0.21814611
17115,0,USIllinoisMacon,Illinois,Macon,2021-04-04 12:16:05.850534,2020-05-07 00:00:00.000000,0.13396609,0.20660040,0.33295194,139,214,346,79,137,245,0.07624481,0.13240726,0.23587806,0.08761624,0.13105890,0.21502246
17115,0,USIllinoisMacon,Illinois,Macon,2021-04-04 12:16:05.850534,2020-05-08 00:00:00.000000,0.12959907,0.19649692,0.32639001,134,204,339,76,133,234,0.07321824,0.12799384,0.22566432,0.08610221,0.12802830,0.21701647
17115,0,USIllinoisMacon,Illinois,Macon,2021-04-04 12:16:05.850534,2020-05-09 00:00:00.000000,0.12547419,0.18777891,0.32180298,130,195,334,73,128,227,0.07020058,0.12356857,0.21888570,0.08008726,0.12499531,0.21085860
17115,0,USIllinoisMacon,Illinois,Macon,2021-04-04 12:16:05.850534,2020-05-10 00:00:00.000000,0.12157093,0.18069195,0.31914408,126,187,331,71,123,220,0.06874102,0.11854384,0.21176720,0.07945252,0.12552267,0.20134525
17115,0,USIllinoisMacon,Illinois,Macon,2021-04-04 12:16:05.850534,2020-05-11 00:00:00.000000,0.11638731,0.17363244,0.31296431,121,180,325,70,117,212,0.06761552,0.11256240,0.20439711,0.07736977,0.12408561,0.19938086
17115,0,USIllinoisMacon,Illinois,Macon,2021-04-04 12:16:05.850534,2020-05-12 00:00:00.000000,0.11076398,0.16569527,0.30685625,115,172,319,67,111,209,0.06523398,0.10760243,0.20107941,0.07710836,0.12364020,0.19846017
17115,0,USIllinoisMacon,Illinois,Macon,2021-04-04 12:16:05.850534,2020-05-13 00:00:00.000000,0.10393687,0.15822449,0.30080420,108,164,312,64,106,206,0.06229646,0.10255094,0.19808032,0.07685573,0.12400094,0.20254217
17115,0,USIllinoisMacon,Illinois,Macon,2021-04-04 12:16:05.850534,2020-05-14 00:00:00.000000,0.09921298,0.15317744,0.29484345,103,159,306,61,101,202,0.05947022,0.09771528,0.19436033,0.07508571,0.12615099,0.20281944
17115,0,USIllinoisMacon,Illinois,Macon,2021-04-04 12:16:05.850534,2020-05-15 00:00:00.000000,0.09662653,0.14822642,0.28704299,100,154,298,58,97,193,0.05582649,0.09358164,0.18606853,0.07249644,0.12477092,0.21329605
17115,0,USIllinoisMacon,Illinois,Macon,2021-04-04 12:16:05.850534,2020-05-16 00:00:00.000000,0.09228057,0.14303688,0.27474108,95,148,285,56,94,185,0.05420699,0.09038806,0.17808406,0.07126782,0.12393432,0.22014107
17115,0,USIllinoisMacon,Illinois,Macon,2021-04-04 12:16:05.850534,2020-05-17 00:00:00.000000,0.08530172,0.13821040,0.26309907,88,143,273,53,90,177,0.05174628,0.08693401,0.17106271,0.07076253,0.12417081,0.22045421
17115,0,USIllinoisMacon,Illinois,Macon,2021-04-04 12:16:05.850534,2020-05-18 00:00:00.000000,0.07951788,0.13303921,0.25149268,82,138,261,50,87,172,0.04891089,0.08456893,0.16599335,0.07059732,0.12418308,0.21622516
17115,0,USIllinoisMacon,Illinois,Macon,2021-04-04 12:16:05.850534,2020-05-19 00:00:00.000000,0.07649373,0.12699806,0.24043883,79,132,250,48,84,167,0.04627914,0.08153128,0.16059815,0.07062305,0.12427486,0.20964629
17115,0,USIllinoisMacon,Illinois,Macon,2021-04-04 12:16:05.850534,2020-05-20 00:00:00.000000,0.07162265,0.12317338,0.22981982,74,128,239,44,81,161,0.04284071,0.07822751,0.15501359,0.07096115,0.12687043,0.20143453
17115,0,USIllinoisMacon,Illinois,Macon,2021-04-04 12:16:05.850534,2020-05-21 00:00:00.000000,0.06591193,0.11800644,0.21969477,68,122,228,42,78,155,0.04073736,0.07509216,0.14935593,0.07225129,0.12815201,0.19807554
17115,0,USIllinoisMacon,Illinois,Macon,2021-04-04 12:16:05.850534,2020-05-22 00:00:00.000000,0.06183583,0.11399199,0.21005353,64,118,218,40,74,149,0.03928704,0.07168340,0.14371537,0.07592891,0.12806545,0.21065737
17115,0,USIllinoisMacon,Illinois,Macon,2021-04-04 12:16:05.850534,2020-05-23 00:00:00.000000,0.05923331,0.10944757,0.20088230,61,113,208,39,71,143,0.03784498,0.06854824,0.13815697,0.07793694,0.12755805,0.20316223
17115,0,USIllinoisMacon,Illinois,Macon,2021-04-04 12:16:05.850534,2020-05-24 00:00:00.000000,0.05666088,0.10578262,0.19248630,58,110,200,37,69,138,0.03637463,0.06638636,0.13272554,0.07895394,0.12706424,0.20241498
17115,0,USIllinoisMacon,Illinois,Macon,2021-04-04 12:16:05.850534,2020-05-25 00:00:00.000000,0.05629930,0.10099542,0.18891727,58,105,196,35,66,132,0.03447701,0.06392714,0.12745043,0.08315242,0.12531759,0.20884881
17115,0,USIllinoisMacon,Illinois,Macon,2021-04-04 12:16:05.850534,2020-05-26 00:00:00.000000,0.05417152,0.09972541,0.18598233,56,103,193,33,64,128,0.03197822,0.06190166,0.12332981,0.08451530,0.12671391,0.20897499
17115,0,USIllinoisMacon,Illinois,Macon,2021-04-04 12:16:05.850534,2020-05-27 00:00:00.000000,0.05218478,0.09474504,0.18370005,54,98,191,31,62,124,0.02981072,0.05979916,0.11998060,0.08558228,0.12765023,0.20901140
17115,0,USIllinoisMacon,Illinois,Macon,2021-04-04 12:16:05.850534,2020-05-28 00:00:00.000000,0.05032475,0.08991174,0.18200485,52,93,189,29,60,121,0.02791618,0.05821813,0.11713516,0.08460647,0.12960431,0.20905370
17115,0,USIllinoisMacon,Illinois,Macon,2021-04-04 12:16:05.850534,2020-05-29 00:00:00.000000,0.04777163,0.08623633,0.18074127,49,89,187,27,59,119,0.02628574,0.05746380,0.11456368,0.08414493,0.13040567,0.20919266
17115,0,USIllinoisMacon,Illinois,Macon,2021-04-04 12:16:05.850534,2020-05-30 00:00:00.000000,0.04529491,0.08476626,0.17972259,47,88,186,26,57,116,0.02535442,0.05509115,0.11217066,0.08643642,0.13004770,0.20960384
17115,0,USIllinoisMacon,Illinois,Macon,2021-04-04 12:16:05.850534,2020-05-31 00:00:00.000000,0.04302104,0.08142269,0.17885864,44,84,186,25,55,114,0.02449008,0.05309790,0.10992602,0.08725003,0.13195494,0.21037969
17115,0,USIllinoisMacon,Illinois,Macon,2021-04-04 12:16:05.850534,2020-06-01 00:00:00.000000,0.04222863,0.07922334,0.17419137,43,82,181,24,53,112,0.02369146,0.05096814,0.10781649,0.08739109,0.13359740,0.21188696
17115,0,USIllinoisMacon,Illinois,Macon,2021-04-04 12:16:05.850534,2020-06-02 00:00:00.000000,0.04169183,0.07720052,0.16960602,43,80,176,24,51,109,0.02314763,0.04911084,0.10512068,0.08791088,0.13358682,0.22014245
17115,0,USIllinoisMacon,Illinois,Macon,2021-04-04 12:16:05.850534,2020-06-03 00:00:00.000000,0.04137613,0.07672558,0.16501638,43,79,171,23,49,106,0.02266427,0.04794129,0.10208863,0.08900312,0.13839683,0.22015472
17115,0,USIllinoisMacon,Illinois,Macon,2021-04-04 12:16:05.850534,2020-06-04 00:00:00.000000,0.04118975,0.07436134,0.16050091,42,77,166,23,48,104,0.02237680,0.04617048,0.10023181,0.09155706,0.14139173,0.22015599
17115,0,USIllinoisMacon,Illinois,Macon,2021-04-04 12:16:05.850534,2020-06-05 00:00:00.000000,0.04108698,0.07183266,0.15614003,42,74,162,23,47,103,0.02220721,0.04577822,0.09906845,0.09422212,0.14427347,0.22013716
17115,0,USIllinoisMacon,Illinois,Macon,2021-04-04 12:16:05.850534,2020-06-06 00:00:00.000000,0.04002720,0.07004432,0.15207790,41,72,158,22,46,101,0.02193368,0.04490550,0.09799537,0.09593528,0.14850631,0.22005954
17115,0,USIllinoisMacon,Illinois,Macon,2021-04-04 12:16:05.850534,2020-06-07 00:00:00.000000,0.03873231,0.06831862,0.15134072,40,71,157,21,45,100,0.02110413,0.04337007,0.09700654,0.09693358,0.15405999,0.22000033
17115,0,USIllinoisMacon,Illinois,Macon,2021-04-04 12:16:05.850534,2020-06-08 00:00:00.000000,0.03748486,0.06805775,0.14845317,38,70,154,21,43,99,0.02036212,0.04202466,0.09610453,0.09737685,0.16112864,0.22556403
17115,0,USIllinoisMacon,Illinois,Macon,2021-04-04 12:16:05.850534,2020-06-09 00:00:00.000000,0.03631979,0.06769558,0.14543260,37,70,151,20,42,97,0.01967559,0.04108734,0.09404543,0.09770558,0.16226988,0.22448970
17115,0,USIllinoisMacon,Illinois,Macon,2021-04-04 12:16:05.850534,2020-06-10 00:00:00.000000,0.03522924,0.06678426,0.14221269,36,69,147,19,42,95,0.01903746,0.04068544,0.09145861,0.09836023,0.16627572,0.22198071
17115,0,USIllinoisMacon,Illinois,Macon,2021-04-04 12:16:05.850534,2020-06-11 00:00:00.000000,0.03421532,0.06648096,0.13890251,35,69,144,19,42,92,0.01844281,0.04056611,0.08866886,0.10019071,0.16970801,0.22117147
17115,0,USIllinoisMacon,Illinois,Macon,2021-04-04 12:16:05.850534,2020-06-12 00:00:00.000000,0.03329236,0.06619807,0.13558602,34,68,141,18,42,89,0.01788980,0.04050234,0.08583914,0.10445270,0.17550028,0.22584817
17115,0,USIllinoisMacon,Illinois,Macon,2021-04-04 12:16:05.850534,2020-06-13 00:00:00.000000,0.03249565,0.06636016,0.13264529,33,69,137,18,42,86,0.01738288,0.04046867,0.08304982,0.10698512,0.17979993,0.23692307
17115,0,USIllinoisMacon,Illinois,Macon,2021-04-04 12:16:05.850534,2020-06-14 00:00:00.000000,0.03186390,0.06656491,0.12982045,33,69,135,17,41,83,0.01692978,0.04001360,0.08050108,0.11069886,0.18431048,0.24356909
17115,0,USIllinoisMacon,Illinois,Macon,2021-04-04 12:16:05.850534,2020-06-15 00:00:00.000000,0.03117870,0.06726103,0.12878883,32,69,133,17,41,81,0.01654124,0.03985715,0.07876808,0.11732457,0.19055982,0.25040091
17115,0,USIllinoisMacon,Illinois,Macon,2021-04-04 12:16:05.850534,2020-06-16 00:00:00.000000,0.03064541,0.06770672,0.12782754,31,70,132,16,41,80,0.01618160,0.04006680,0.07704059,0.12660385,0.19758589,0.26963042
17115,0,USIllinoisMacon,Illinois,Macon,2021-04-04 12:16:05.850534,2020-06-17 00:00:00.000000,0.03029181,0.06918189,0.12699166,31,71,132,16,42,78,0.01586901,0.04061312,0.07568730,0.13101016,0.20418399,0.28196092
17115,0,USIllinoisMacon,Illinois,Macon,2021-04-04 12:16:05.850534,2020-06-18 00:00:00.000000,0.03018089,0.07004125,0.12626145,31,72,131,17,43,78,0.01646942,0.04143590,0.07525746,0.13540342,0.21286127,0.29635686
17115,0,USIllinoisMacon,Illinois,Macon,2021-04-04 12:16:05.850534,2020-06-19 00:00:00.000000,0.03033625,0.07120211,0.12563002,31,74,130,17,42,80,0.01730333,0.04115810,0.07701019,0.13704504,0.22788259,0.31202602
17115,0,USIllinoisMacon,Illinois,Macon,2021-04-04 12:16:05.850534,2020-06-20 00:00:00.000000,0.03097991,0.07266189,0.12789599,32,75,133,18,42,82,0.01794393,0.04112554,0.07900826,0.13774952,0.23937093,0.31790823
17115,0,USIllinoisMacon,Illinois,Macon,2021-04-04 12:16:05.850534,2020-06-21 00:00:00.000000,0.03200083,0.07451289,0.13144027,33,77,136,18,43,84,0.01760186,0.04193472,0.08114712,0.14609544,0.24850223,0.32566008
17115,0,USIllinoisMacon,Illinois,Macon,2021-04-04 12:16:05.850534,2020-06-22 00:00:00.000000,0.03322407,0.07657306,0.13739164,34,79,142,18,43,86,0.01730991,0.04225387,0.08336213,0.15623462,0.25104011,0.35709461
17115,0,USIllinoisMacon,Illinois,Macon,2021-04-04 12:16:05.850534,2020-06-23 00:00:00.000000,0.03469087,0.07742880,0.14332696,36,80,149,18,44,89,0.01755119,0.04293986,0.08636011,0.17040026,0.26194027,0.35991636
17115,0,USIllinoisMacon,Illinois,Macon,2021-04-04 12:16:05.850534,2020-06-24 00:00:00.000000,0.03653499,0.07939122,0.14932630,37,82,155,18,45,93,0.01812895,0.04393875,0.08979144,0.17697925,0.27111497,0.36062693
17115,0,USIllinoisMacon,Illinois,Macon,2021-04-04 12:16:05.850534,2020-06-25 00:00:00.000000,0.03871310,0.08229535,0.15534018,40,85,161,19,46,97,0.01895607,0.04504633,0.09345655,0.18061275,0.27675855,0.36878011
17115,0,USIllinoisMacon,Illinois,Macon,2021-04-04 12:16:05.850534,2020-06-26 00:00:00.000000,0.04117357,0.08572584,0.16135696,42,89,167,20,48,101,0.01998788,0.04621384,0.09724181,0.18602735,0.28915760,0.39036519
17115,0,USIllinoisMacon,Illinois,Macon,2021-04-04 12:16:05.850534,2020-06-27 00:00:00.000000,0.04387331,0.08860203,0.16750190,45,92,174,22,49,105,0.02119172,0.04785441,0.10108671,0.19731646,0.29793532,0.41074909
17115,0,USIllinoisMacon,Illinois,Macon,2021-04-04 12:16:05.850534,2020-06-28 00:00:00.000000,0.04677608,0.09094551,0.17448955,48,94,181,23,51,109,0.02254090,0.04940202,0.10499755,0.20563192,0.31058937,0.42447124
17115,0,USIllinoisMacon,Illinois,Macon,2021-04-04 12:16:05.850534,2020-06-29 00:00:00.000000,0.04899433,0.09843482,0.18139990,50,102,188,24,53,113,0.02401323,0.05126779,0.10920971,0.21133664,0.32808856,0.43039049
17115,0,USIllinoisMacon,Illinois,Macon,2021-04-04 12:16:05.850534,2020-06-30 00:00:00.000000,0.05137386,0.10339267,0.18849505,53,107,196,26,56,118,0.02533071,0.05407453,0.11353792,0.21533401,0.34727808,0.46265706
17115,0,USIllinoisMacon,Illinois,Macon,2021-04-04 12:16:05.850534,2020-07-01 00:00:00.000000,0.05387049,0.10855233,0.19566005,56,112,203,27,59,122,0.02661208,0.05707606,0.11799230,0.22171786,0.37195198,0.47640680
17115,0,USIllinoisMacon,Illinois,Macon,2021-04-04 12:16:05.850534,2020-07-02 00:00:00.000000,0.05722940,0.11722709,0.20291016,59,121,211,29,61,127,0.02793322,0.05954584,0.12254686,0.23154782,0.39180271,0.53761575
17115,0,USIllinoisMacon,Illinois,Macon,2021-04-04 12:16:05.850534,2020-07-03 00:00:00.000000,0.06530269,0.12567201,0.21041385,67,130,218,30,66,132,0.02934583,0.06355797,0.12717724,0.24565440,0.40081243,0.55898623
17115,0,USIllinoisMacon,Illinois,Macon,2021-04-04 12:16:05.850534,2020-07-04 00:00:00.000000,0.07050053,0.13349822,0.21921455,73,138,228,33,70,137,0.03202869,0.06749828,0.13192322,0.26429666,0.40550343,0.62968006
17115,0,USIllinoisMacon,Illinois,Macon,2021-04-04 12:16:05.850534,2020-07-05 00:00:00.000000,0.07837499,0.14183724,0.23088550,81,147,240,37,74,142,0.03574032,0.07149753,0.13713152,0.28516702,0.41762907,0.64951201
17115,0,USIllinoisMacon,Illinois,Macon,2021-04-04 12:16:05.850534,2020-07-06 00:00:00.000000,0.08526383,0.15014763,0.25211233,88,156,262,38,79,149,0.03694584,0.07628835,0.14348376,0.30490004,0.44687778,0.65253285
17115,0,USIllinoisMacon,Illinois,Macon,2021-04-04 12:16:05.850534,2020-07-07 00:00:00.000000,0.09312600,0.16075215,0.27658400,96,167,287,42,83,155,0.04040390,0.08018157,0.14927712,0.32174554,0.46429214,0.65836188
17115,0,USIllinoisMacon,Illinois,Macon,2021-04-04 12:16:05.850534,2020-07-08 00:00:00.000000,0.10101623,0.17295089,0.30296398,105,179,315,46,89,161,0.04445050,0.08610326,0.15491993,0.33245602,0.48292830,0.66301131
17115,0,USIllinoisMacon,Illinois,Macon,2021-04-04 12:16:05.850534,2020-07-09 00:00:00.000000,0.10638083,0.18869722,0.32252234,110,196,335,50,97,168,0.04861580,0.09396458,0.16181694,0.34552187,0.50097808,0.70747522
17115,0,USIllinoisMacon,Illinois,Macon,2021-04-04 12:16:05.850534,2020-07-10 00:00:00.000000,0.11764028,0.20725428,0.34222796,122,215,355,55,105,184,0.05317844,0.10106077,0.17724779,0.35505680,0.52342460,0.73770015
17115,0,USIllinoisMacon,Illinois,Macon,2021-04-04 12:16:05.850534,2020-07-11 00:00:00.000000,0.12820713,0.22819383,0.36454822,133,237,379,58,114,201,0.05634034,0.11018121,0.19388575,0.38453448,0.53561586,0.77437682
17115,0,USIllinoisMacon,Illinois,Macon,2021-04-04 12:16:05.850534,2020-07-12 00:00:00.000000,0.14018470,0.24952956,0.38933626,145,259,404,62,124,215,0.05992766,0.12005673,0.20703567,0.39691039,0.54188313,0.80242132
17115,0,USIllinoisMacon,Illinois,Macon,2021-04-04 12:16:05.850534,2020-07-13 00:00:00.000000,0.15319488,0.27497457,0.41615076,159,285,432,66,137,228,0.06433574,0.13172824,0.21996458,0.40230920,0.54870426,0.81593160
17115,0,USIllinoisMacon,Illinois,Macon,2021-04-04 12:16:05.850534,2020-07-14 00:00:00.000000,0.16903751,0.29977304,0.44494216,175,311,462,73,147,243,0.07103259,0.14224980,0.23423803,0.40491596,0.55666522,0.82062063
17115,0,USIllinoisMacon,Illinois,Macon,2021-04-04 12:16:05.850534,2020-07-15 00:00:00.000000,0.18858679,0.32801112,0.47595961,196,341,495,83,161,259,0.07981391,0.15515471,0.24981797,0.40798577,0.57088618,0.81888900
17115,0,USIllinoisMacon,Illinois,Macon,2021-04-04 12:16:05.850534,2020-07-16 00:00:00.000000,0.20749499,0.35961863,0.50988865,215,374,530,93,177,277,0.08989441,0.17105328,0.26673346,0.41729797,0.57758330,0.82296973
17115,0,USIllinoisMacon,Illinois,Macon,2021-04-04 12:16:05.850534,2020-07-17 00:00:00.000000,0.22709910,0.39668393,0.56001246,236,412,582,105,195,296,0.10109780,0.18807348,0.28515277,0.42705674,0.57464383,0.82086103
17115,0,USIllinoisMacon,Illinois,Macon,2021-04-04 12:16:05.850534,2020-07-18 00:00:00.000000,0.25374640,0.43934364,0.62903966,263,456,654,118,215,326,0.11348844,0.20737227,0.31402775,0.44374240,0.57968106,0.81301876
17115,0,USIllinoisMacon,Illinois,Macon,2021-04-04 12:16:05.850534,2020-07-19 00:00:00.000000,0.28712460,0.47986580,0.70400680,298,499,732,132,239,360,0.12744153,0.23004808,0.34678047,0.44516934,0.58371837,0.79868412
17115,0,USIllinoisMacon,Illinois,Macon,2021-04-04 12:16:05.850534,2020-07-20 00:00:00.000000,0.32100521,0.52402088,0.78157956,333,545,812,149,263,397,0.14373108,0.25377230,0.38178312,0.44009385,0.57823142,0.79078145
17115,0,USIllinoisMacon,Illinois,Macon,2021-04-04 12:16:05.850534,2020-07-21 00:00:00.000000,0.36268592,0.57466623,0.86132723,377,597,895,167,292,435,0.16140680,0.28106256,0.41895143,0.43759049,0.57426427,0.78394182
17115,0,USIllinoisMacon,Illinois,Macon,2021-04-04 12:16:05.850534,2020-07-22 00:00:00.000000,0.41112007,0.62703491,0.94492331,427,652,982,189,324,476,0.18184856,0.31179912,0.45774330,0.43568893,0.56984558,0.78496637
17115,0,USIllinoisMacon,Illinois,Macon,2021-04-04 12:16:05.850534,2020-07-23 00:00:00.000000,0.46628154,0.68528343,1.03342677,484,712,1074,213,356,517,0.20559701,0.34288935,0.49784740,0.42455828,0.56336409,0.76934545
17115,0,USIllinoisMacon,Illinois,Macon,2021-04-04 12:16:05.850534,2020-07-24 00:00:00.000000,0.51935581,0.74083561,1.12496792,540,770,1170,242,386,560,0.23288919,0.37120768,0.53908630,0.41411747,0.54984506,0.76621936
17115,0,USIllinoisMacon,Illinois,Macon,2021-04-04 12:16:05.850534,2020-07-25 00:00:00.000000,0.55854316,0.80407893,1.21316329,580,836,1261,274,418,604,0.26380987,0.40243479,0.58106709,0.40008892,0.53267555,0.72447508
17115,0,USIllinoisMacon,Illinois,Macon,2021-04-04 12:16:05.850534,2020-07-26 00:00:00.000000,0.59912086,0.86258176,1.28797919,623,897,1339,297,451,651,0.28556170,0.43390436,0.62610663,0.36909203,0.51300714,0.65207259
17115,0,USIllinoisMacon,Illinois,Macon,2021-04-04 12:16:05.850534,2020-07-27 00:00:00.000000,0.64251998,0.91441996,1.33416178,668,951,1387,319,484,694,0.30685649,0.46575124,0.66751817,0.33353560,0.48483714,0.62620616
17115,0,USIllinoisMacon,Illinois,Macon,2021-04-04 12:16:05.850534,2020-07-28 00:00:00.000000,0.68996987,0.98195072,1.36757226,717,1021,1422,345,519,734,0.33176067,0.49942416,0.70637951,0.32763585,0.45840245,0.62342767
17115,0,USIllinoisMacon,Illinois,Macon,2021-04-04 12:16:05.850534,2020-07-29 00:00:00.000000,0.73566220,1.03690102,1.39663637,765,1078,1452,374,551,777,0.35962849,0.52990697,0.74790211,0.32459966,0.44374470,0.61624582
17115,0,USIllinoisMacon,Illinois,Macon,2021-04-04 12:16:05.850534,2020-07-30 00:00:00.000000,0.78461222,1.09847102,1.44318035,816,1142,1501,392,584,833,0.37730056,0.56226706,0.80156527,0.31027499,0.41420084,0.57843577
17115,0,USIllinoisMacon,Illinois,Macon,2021-04-04 12:16:05.850534,2020-07-31 00:00:00.000000,0.83418749,1.14293322,1.48796858,867,1188,1547,418,616,867,0.40280396,0.59242200,0.83424814,0.27633243,0.39542384,0.56820088
17115,0,USIllinoisMacon,Illinois,Macon,2021-04-04 12:16:05.850534,2020-08-01 00:00:00.000000,0.88295916,1.16448730,1.60175968,918,1211,1665,446,651,905,0.42896518,0.62663633,0.87015557,0.26347006,0.37265182,0.52719047
17115,0,USIllinoisMacon,Illinois,Macon,2021-04-04 12:16:05.850534,2020-08-02 00:00:00.000000,0.89898378,1.19934186,1.64536980,935,1247,1711,473,681,939,0.45493230,0.65568323,0.90311063,0.24913614,0.35795047,0.49422344
17115,0,USIllinoisMacon,Illinois,Macon,2021-04-04 12:16:05.850534,2020-08-03 00:00:00.000000,0.90379392,1.22241626,1.68055111,940,1271,1747,489,705,966,0.47074572,0.67788567,0.92923028,0.23667773,0.33827527,0.46129867
17115,0,USIllinoisMacon,Illinois,Macon,2021-04-04 12:16:05.850534,2020-08-04 00:00:00.000000,0.90426041,1.25530488,1.74944895,940,1305,1819,500,734,1015,0.48097724,0.70661350,0.97658334,0.23403406,0.32990139,0.43751395
17115,0,USIllinoisMacon,Illinois,Macon,2021-04-04 12:16:05.850534,2020-08-05 00:00:00.000000,0.90160991,1.28977518,1.82055341,937,1341,1893,508,756,1060,0.48882515,0.72715235,1.01974582,0.23497960,0.31967053,0.42518031
17115,0,USIllinoisMacon,Illinois,Macon,2021-04-04 12:16:05.850534,2020-08-06 00:00:00.000000,0.90332673,1.31825841,1.89377490,939,1371,1969,514,761,1100,0.49501636,0.73223855,1.05777597,0.22543956,0.31357082,0.41228471
17115,0,USIllinoisMacon,Illinois,Macon,2021-04-04 12:16:05.850534,2020-08-07 00:00:00.000000,0.91680227,1.33706991,1.94810573,953,1390,2026,515,777,1135,0.49535602,0.74751262,1.09195809,0.21826734,0.30419414,0.40428697
17115,0,USIllinoisMacon,Illinois,Macon,2021-04-04 12:16:05.850534,2020-08-08 00:00:00.000000,0.92957241,1.33717388,1.98738056,966,1390,2067,512,793,1167,0.49309327,0.76296677,1.12261680,0.21524980,0.29459246,0.37784223
17115,0,USIllinoisMacon,Illinois,Macon,2021-04-04 12:16:05.850534,2020-08-09 00:00:00.000000,0.94191629,1.34206108,2.02285305,979,1395,2103,510,804,1196,0.49035038,0.77341296,1.15070625,0.20252917,0.28335388,0.36492481
17115,0,USIllinoisMacon,Illinois,Macon,2021-04-04 12:16:05.850534,2020-08-10 00:00:00.000000,0.95352316,1.35184814,2.05186147,991,1406,2134,507,805,1223,0.48787400,0.77415744,1.17594895,0.20241256,0.27908744,0.35520142
17115,0,USIllinoisMacon,Illinois,Macon,2021-04-04 12:16:05.850534,2020-08-11 00:00:00.000000,0.96424828,1.33810218,2.05053705,1002,1391,2132,505,813,1247,0.48557808,0.78178051,1.19895715,0.20244753,0.27643219,0.34977664
17115,0,USIllinoisMacon,Illinois,Macon,2021-04-04 12:16:05.850534,2020-08-12 00:00:00.000000,0.97148055,1.34188510,2.05029762,1010,1395,2132,510,816,1271,0.49126790,0.78545624,1.22229899,0.20259592,0.27630987,0.35042567
17115,0,USIllinoisMacon,Illinois,Macon,2021-04-04 12:16:05.850534,2020-08-13 00:00:00.000000,0.96027579,1.34497448,2.04964207,998,1398,2131,516,822,1280,0.49627251,0.79115894,1.23119209,0.20293962,0.27672952,0.35032928
17115,0,USIllinoisMacon,Illinois,Macon,2021-04-04 12:16:05.850534,2020-08-14 00:00:00.000000,0.94944525,1.34677107,2.04238495,987,1400,2124,520,828,1284,0.50034768,0.79621288,1.23465396,0.20087984,0.27542824,0.34928900
17115,0,USIllinoisMacon,Illinois,Macon,2021-04-04 12:16:05.850534,2020-08-15 00:00:00.000000,0.94033454,1.35436240,2.01647388,978,1408,2097,523,827,1284,0.50345979,0.79572932,1.23490522,0.19930320,0.27643365,0.34934762
17115,0,USIllinoisMacon,Illinois,Macon,2021-04-04 12:16:05.850534,2020-08-16 00:00:00.000000,0.93393413,1.36614634,2.03495467,971,1420,2116,526,831,1285,0.50577772,0.79959928,1.23625057,0.19953685,0.27206504,0.34844826
17115,0,USIllinoisMacon,Illinois,Macon,2021-04-04 12:16:05.850534,2020-08-17 00:00:00.000000,0.92970030,1.37197778,2.04303874,966,1426,2124,527,828,1286,0.50758175,0.79697075,1.23684802,0.20085929,0.27280876,0.36159260
17115,0,USIllinoisMacon,Illinois,Macon,2021-04-04 12:16:05.850534,2020-08-18 00:00:00.000000,0.92361257,1.37143145,2.04046067,960,1426,2122,528,832,1286,0.50846276,0.80038624,1.23674406,0.20030534,0.27515571,0.36095967
17115,0,USIllinoisMacon,Illinois,Macon,2021-04-04 12:16:05.850534,2020-08-19 00:00:00.000000,0.92396907,1.36951120,2.03750843,961,1424,2119,522,827,1285,0.50233162,0.79548673,1.23611621,0.20199528,0.27404297,0.36124859
17115,0,USIllinoisMacon,Illinois,Macon,2021-04-04 12:16:05.850534,2020-08-20 00:00:00.000000,0.92545663,1.37725104,2.03418844,962,1432,2115,518,818,1284,0.49822904,0.78730748,1.23507786,0.20545779,0.27687051,0.37342285
17115,0,USIllinoisMacon,Illinois,Macon,2021-04-04 12:16:05.850534,2020-08-21 00:00:00.000000,0.93476261,1.37860728,2.03047116,972,1433,2111,518,827,1283,0.49868184,0.79593658,1.23369779,0.21177967,0.28156367,0.38465300
17115,0,USIllinoisMacon,Illinois,Macon,2021-04-04 12:16:05.850534,2020-08-22 00:00:00.000000,0.95337653,1.39551487,2.02629015,991,1451,2107,522,836,1281,0.50243664,0.80406809,1.23200951,0.21451413,0.28411586,0.38737734
17115,0,USIllinoisMacon,Illinois,Macon,2021-04-04 12:16:05.850534,2020-08-23 00:00:00.000000,0.97773472,1.40727280,2.02158387,1016,1463,2102,524,845,1283,0.50398400,0.81302683,1.23437655,0.21641890,0.28832721,0.39256344
17115,0,USIllinoisMacon,Illinois,Macon,2021-04-04 12:16:05.850534,2020-08-24 00:00:00.000000,0.99648675,1.42063515,2.01597840,1036,1477,2096,523,852,1299,0.50292147,0.81999805,1.24943857,0.21926071,0.28967329,0.40611810
17115,0,USIllinoisMacon,Illinois,Macon,2021-04-04 12:16:05.850534,2020-08-25 00:00:00.000000,1.00155538,1.44609801,2.00994381,1041,1504,2090,522,860,1317,0.50270591,0.82771029,1.26650839,0.22192054,0.29104574,0.39829357
17115,0,USIllinoisMacon,Illinois,Macon,2021-04-04 12:16:05.850534,2020-08-26 00:00:00.000000,1.00784860,1.45537603,2.00351966,1048,1513,2083,523,869,1336,0.50378606,0.83600224,1.28542743,0.22362644,0.29506491,0.40935505
17115,0,USIllinoisMacon,Illinois,Macon,2021-04-04 12:16:05.850534,2020-08-27 00:00:00.000000,1.01417715,1.43498048,2.02561353,1054,1492,2106,526,876,1358,0.50583629,0.84276411,1.30583962,0.22798922,0.29779418,0.41799900
17115,0,USIllinoisMacon,Illinois,Macon,2021-04-04 12:16:05.850534,2020-08-28 00:00:00.000000,1.01884991,1.43074972,2.07055067,1059,1488,2153,529,878,1380,0.50883509,0.84494706,1.32729660,0.22793462,0.29795892,0.40439369
17115,0,USIllinoisMacon,Illinois,Macon,2021-04-04 12:16:05.850534,2020-08-29 00:00:00.000000,1.02480498,1.45779429,2.09832910,1065,1516,2182,537,883,1402,0.51639607,0.84958422,1.34890383,0.22754239,0.29641274,0.40274117
17115,0,USIllinoisMacon,Illinois,Macon,2021-04-04 12:16:05.850534,2020-08-30 00:00:00.000000,1.04392578,1.47635106,2.10379352,1085,1535,2188,543,890,1424,0.52211827,0.85624756,1.37003609,0.21864491,0.29390631,0.40906218
17115,0,USIllinoisMacon,Illinois,Macon,2021-04-04 12:16:05.850534,2020-08-31 00:00:00.000000,1.06340624,1.49216347,2.13715404,1106,1551,2222,546,903,1441,0.52544359,0.86830096,1.38597339,0.21498523,0.29516701,0.41532463
17115,0,USIllinoisMacon,Illinois,Macon,2021-04-04 12:16:05.850534,2020-09-01 00:00:00.000000,1.08074650,1.49664682,2.13658058,1124,1556,2222,554,914,1436,0.53307010,0.87929619,1.38085794,0.19442431,0.29072606,0.40952040
17115,0,USIllinoisMacon,Illinois,Macon,2021-04-04 12:16:05.850534,2020-09-02 00:00:00.000000,1.09372661,1.49060539,2.10306834,1137,1550,2187,563,925,1426,0.54135691,0.88975668,1.37199053,0.19104579,0.28897054,0.41353531
17115,0,USIllinoisMacon,Illinois,Macon,2021-04-04 12:16:05.850534,2020-09-03 00:00:00.000000,1.11129626,1.50461575,2.09816673,1155,1564,2182,573,932,1414,0.55091823,0.89613852,1.36018517,0.19063427,0.28853084,0.41356940
17115,0,USIllinoisMacon,Illinois,Macon,2021-04-04 12:16:05.850534,2020-09-04 00:00:00.000000,1.12802939,1.50579290,2.13639864,1173,1566,2222,584,933,1400,0.56171127,0.89744184,1.34653841,0.19075715,0.28834761,0.40671574
17115,0,USIllinoisMacon,Illinois,Macon,2021-04-04 12:16:05.850534,2020-09-05 00:00:00.000000,1.13120940,1.51906195,2.17730827,1176,1579,2264,595,932,1385,0.57238959,0.89670948,1.33182126,0.18598066,0.28397284,0.39840920
17115,0,USIllinoisMacon,Illinois,Macon,2021-04-04 12:16:05.850534,2020-09-06 00:00:00.000000,1.12645707,1.51404031,2.21948356,1171,1574,2308,600,935,1379,0.57755342,0.89904968,1.32594859,0.18885437,0.28226030,0.38076995
17115,0,USIllinoisMacon,Illinois,Macon,2021-04-04 12:16:05.850534,2020-09-07 00:00:00.000000,1.11660961,1.51239925,2.26268860,1161,1573,2353,609,933,1385,0.58568369,0.89753016,1.33178838,0.19327638,0.29102061,0.38854077
17115,0,USIllinoisMacon,Illinois,Macon,2021-04-04 12:16:05.850534,2020-09-08 00:00:00.000000,1.10816825,1.51701714,2.30652159,1152,1577,2398,614,931,1394,0.59081934,0.89556874,1.34066523,0.19596016,0.29071303,0.38337720
17115,0,USIllinoisMacon,Illinois,Macon,2021-04-04 12:16:05.850534,2020-09-09 00:00:00.000000,1.10199348,1.52407974,2.35080456,1146,1585,2445,616,934,1407,0.59237137,0.89802549,1.35285322,0.19672925,0.28391809,0.37876037
17115,0,USIllinoisMacon,Illinois,Macon,2021-04-04 12:16:05.850534,2020-09-10 00:00:00.000000,1.09863968,1.53006469,2.39543601,1142,1591,2491,616,931,1430,0.59283877,0.89554194,1.37563500,0.19856211,0.29006491,0.38700325
17115,0,USIllinoisMacon,Illinois,Macon,2021-04-04 12:16:05.850534,2020-09-11 00:00:00.000000,1.09855510,1.53508131,2.44032957,1142,1596,2538,616,936,1458,0.59256465,0.90073611,1.40192389,0.20905420,0.29719331,0.39968800
17115,0,USIllinoisMacon,Illinois,Macon,2021-04-04 12:16:05.850534,2020-09-12 00:00:00.000000,1.10206614,1.55031008,2.48502569,1146,1612,2584,615,939,1485,0.59148529,0.90334601,1.42848019,0.21780740,0.30107023,0.40744162
17115,0,USIllinoisMacon,Illinois,Macon,2021-04-04 12:16:05.850534,2020-09-13 00:00:00.000000,1.10895763,1.58232612,2.52270613,1153,1645,2623,612,941,1513,0.58894786,0.90560801,1.45514419,0.22408972,0.30497253,0.41001688
17115,0,USIllinoisMacon,Illinois,Macon,2021-04-04 12:16:05.850534,2020-09-14 00:00:00.000000,1.11672633,1.59155009,2.54403541,1161,1655,2646,607,948,1539,0.58390073,0.91158492,1.48017668,0.23228270,0.31747275,0.41062204
17115,0,USIllinoisMacon,Illinois,Macon,2021-04-04 12:16:05.850534,2020-09-15 00:00:00.000000,1.12577951,1.59632940,2.56154159,1170,1660,2664,599,956,1560,0.57650337,0.91933147,1.50023849,0.23138767,0.32098967,0.42789828
17115,0,USIllinoisMacon,Illinois,Macon,2021-04-04 12:16:05.850534,2020-09-16 00:00:00.000000,1.13287426,1.59846651,2.57267806,1178,1662,2675,590,956,1577,0.56753449,0.91980042,1.51645520,0.23118089,0.32048779,0.45214895
17115,0,USIllinoisMacon,Illinois,Macon,2021-04-04 12:16:05.850534,2020-09-17 00:00:00.000000,1.14657976,1.61002207,2.58255425,1192,1674,2686,593,960,1591,0.57019124,0.92357479,1.53013340,0.23527051,0.32405545,0.47196371
17115,0,USIllinoisMacon,Illinois,Macon,2021-04-04 12:16:05.850534,2020-09-18 00:00:00.000000,1.16144880,1.63382270,2.59159898,1208,1699,2695,611,974,1603,0.58768670,0.93714746,1.54211322,0.23534108,0.33095190,0.49632384
17115,0,USIllinoisMacon,Illinois,Macon,2021-04-04 12:16:05.850534,2020-09-19 00:00:00.000000,1.17999634,1.67162851,2.60197869,1227,1738,2706,627,987,1615,0.60314727,0.94943584,1.55291453,0.23567540,0.34268967,0.48174015
17115,0,USIllinoisMacon,Illinois,Macon,2021-04-04 12:16:05.850534,2020-09-20 00:00:00.000000,1.19712687,1.70771550,2.63790340,1245,1776,2743,640,990,1625,0.61599064,0.95195673,1.56286853,0.23718157,0.35001384,0.46679826
17115,0,USIllinoisMacon,Illinois,Macon,2021-04-04 12:16:05.850534,2020-09-21 00:00:00.000000,1.21504198,1.74872550,2.65217337,1263,1818,2758,651,1003,1635,0.62630868,0.96496182,1.57235068,0.24277635,0.35893162,0.48201265
17115,0,USIllinoisMacon,Illinois,Macon,2021-04-04 12:16:05.850534,2020-09-22 00:00:00.000000,1.23572696,1.78527538,2.66398500,1285,1856,2770,661,1029,1644,0.63562628,0.99014470,1.58105518,0.26594546,0.36638066,0.51435989
17115,0,USIllinoisMacon,Illinois,Macon,2021-04-04 12:16:05.850534,2020-09-23 00:00:00.000000,1.26129536,1.82788471,2.67512914,1311,1901,2782,669,1052,1665,0.64375694,1.01146093,1.60128397,0.26925313,0.37414829,0.54696642
17115,0,USIllinoisMacon,Illinois,Macon,2021-04-04 12:16:05.850534,2020-09-24 00:00:00.000000,1.29351915,1.88903242,2.71991788,1345,1964,2828,677,1071,1693,0.65102188,1.03026597,1.62845628,0.27311428,0.38646177,0.54376513
17115,0,USIllinoisMacon,Illinois,Macon,2021-04-04 12:16:05.850534,2020-09-25 00:00:00.000000,1.30861780,1.95095696,2.77670668,1361,2029,2888,684,1099,1724,0.65788867,1.05744595,1.65757514,0.27853064,0.40009939,0.56469265
17115,0,USIllinoisMacon,Illinois,Macon,2021-04-04 12:16:05.850534,2020-09-26 00:00:00.000000,1.33221784,2.02258133,2.84026763,1385,2103,2954,691,1131,1756,0.66526153,1.08749462,1.68898420,0.28638385,0.41112388,0.56551382
17115,0,USIllinoisMacon,Illinois,Macon,2021-04-04 12:16:05.850534,2020-09-27 00:00:00.000000,1.38928921,2.08761995,2.91306739,1444,2171,3029,702,1165,1792,0.67567518,1.12091714,1.72335396,0.29662592,0.41860960,0.54444611
17115,0,USIllinoisMacon,Illinois,Macon,2021-04-04 12:16:05.850534,2020-09-28 00:00:00.000000,1.45089584,2.17585022,2.99652781,1509,2263,3116,719,1210,1832,0.69194457,1.16415990,1.76166564,0.30257713,0.42656927,0.55026470
17115,0,USIllinoisMacon,Illinois,Macon,2021-04-04 12:16:05.850534,2020-09-29 00:00:00.000000,1.51576171,2.26918192,3.09528609,1576,2360,3219,745,1243,1877,0.71655164,1.19538897,1.80488394,0.30418945,0.43982916,0.55741951
17115,0,USIllinoisMacon,Illinois,Macon,2021-04-04 12:16:05.850534,2020-09-30 00:00:00.000000,1.58354395,2.33164184,3.21151413,1647,2425,3340,781,1282,1928,0.75135101,1.23347805,1.85462811,0.33241057,0.44572391,0.55634561
17115,0,USIllinoisMacon,Illinois,Macon,2021-04-04 12:16:05.850534,2020-10-01 00:00:00.000000,1.66278779,2.44297041,3.34532442,1729,2540,3479,819,1334,1989,0.78816731,1.28332690,1.91244090,0.33390939,0.45871036,0.59393820
17115,0,USIllinoisMacon,Illinois,Macon,2021-04-04 12:16:05.850534,2020-10-02 00:00:00.000000,1.76690870,2.55105596,3.49514066,1837,2653,3635,860,1384,2058,0.82769630,1.33127019,1.97935538,0.33593115,0.47352622,0.61446591
17115,0,USIllinoisMacon,Illinois,Macon,2021-04-04 12:16:05.850534,2020-10-03 00:00:00.000000,1.87928323,2.68210626,3.65990203,1954,2789,3806,906,1460,2138,0.87155226,1.40447068,2.05569970,0.34047506,0.48368233,0.65194715
17115,0,USIllinoisMacon,Illinois,Macon,2021-04-04 12:16:05.850534,2020-10-04 00:00:00.000000,1.99482160,2.83343469,3.83913618,2074,2947,3993,957,1543,2227,0.92015257,1.48439408,2.14123693,0.34723300,0.49784894,0.65739913
17115,0,USIllinoisMacon,Illinois,Macon,2021-04-04 12:16:05.850534,2020-10-05 00:00:00.000000,2.09500702,3.00715609,4.03275699,2178,3127,4194,1011,1617,2325,0.97289602,1.55547655,2.23552893,0.38141534,0.49866242,0.65918164
17115,0,USIllinoisMacon,Illinois,Macon,2021-04-04 12:16:05.850534,2020-10-06 00:00:00.000000,2.26021627,3.15528875,4.27419274,2350,3281,4445,1070,1709,2465,1.02959072,1.64388705,2.37001150,0.38843140,0.50119889,0.65983092
17115,0,USIllinoisMacon,Illinois,Macon,2021-04-04 12:16:05.850534,2020-10-07 00:00:00.000000,2.40595231,3.34068789,4.55313947,2502,3474,4735,1133,1807,2619,1.08986094,1.73812108,2.51897084,0.38835990,0.50787064,0.68349791
17115,0,USIllinoisMacon,Illinois,Macon,2021-04-04 12:16:05.850534,2020-10-08 00:00:00.000000,2.56241789,3.53392366,4.82137477,2665,3675,5014,1199,1908,2787,1.15355215,1.83487561,2.67966150,0.38914120,0.50634183,0.68910296
17115,0,USIllinoisMacon,Illinois,Macon,2021-04-04 12:16:05.850534,2020-10-09 00:00:00.000000,2.72911825,3.73747943,5.03304049,2838,3887,5234,1269,2023,2958,1.22062681,1.94550685,2.84451319,0.37150401,0.50626791,0.69188228
17115,0,USIllinoisMacon,Illinois,Macon,2021-04-04 12:16:05.850534,2020-10-10 00:00:00.000000,2.90566568,3.91312259,5.24914411,3022,4069,5459,1342,2128,3117,1.29110579,2.04621505,2.99704361,0.36088158,0.50316936,0.65961138
17115,0,USIllinoisMacon,Illinois,Macon,2021-04-04 12:16:05.850534,2020-10-11 00:00:00.000000,3.09194575,4.09617886,5.55026240,3215,4260,5772,1419,2234,3267,1.36503185,2.14834071,3.14118231,0.34654748,0.50270600,0.64692611
17115,0,USIllinoisMacon,Illinois,Macon,2021-04-04 12:16:05.850534,2020-10-12 00:00:00.000000,3.20208843,4.30544685,5.85895314,3330,4478,6093,1500,2352,3413,1.44242265,2.26211633,3.28164457,0.34988650,0.50002620,0.65087309
17115,0,USIllinoisMacon,Illinois,Macon,2021-04-04 12:16:05.850534,2020-10-13 00:00:00.000000,3.30782803,4.49679529,6.17092180,3440,4677,6418,1585,2466,3558,1.52444767,2.37109125,3.42099049,0.35352696,0.49046554,0.65007998
17115,0,USIllinoisMacon,Illinois,Macon,2021-04-04 12:16:05.850534,2020-10-14 00:00:00.000000,3.41565633,4.71303905,6.48018808,3552,4901,6739,1686,2588,3703,1.62104297,2.48896236,3.56074638,0.35720675,0.48905519,0.64131730
17115,0,USIllinoisMacon,Illinois,Macon,2021-04-04 12:16:05.850534,2020-10-15 00:00:00.000000,3.52472710,5.02787275,6.77640135,3666,5229,7048,1791,2703,3893,1.72249769,2.59887591,3.74303778,0.36068434,0.48575642,0.63644848
17115,0,USIllinoisMacon,Illinois,Macon,2021-04-04 12:16:05.850534,2020-10-16 00:00:00.000000,3.68828260,5.23851988,6.98203437,3836,5448,7261,1902,2831,4104,1.82878505,2.72280977,3.94607417,0.35965922,0.47748231,0.64322823
17115,0,USIllinoisMacon,Illinois,Macon,2021-04-04 12:16:05.850534,2020-10-17 00:00:00.000000,3.85179100,5.41014814,7.33969405,4006,5627,7633,2017,2969,4322,1.93985654,2.85460641,4.15567360,0.35614713,0.46776984,0.64536415
17115,0,USIllinoisMacon,Illinois,Macon,2021-04-04 12:16:05.850534,2020-10-18 00:00:00.000000,4.01432673,5.58352601,7.62182358,4175,5807,7927,2090,3096,4545,2.00983717,2.97701707,4.37017998,0.35524093,0.45911464,0.64460650
17115,0,USIllinoisMacon,Illinois,Macon,2021-04-04 12:16:05.850534,2020-10-19 00:00:00.000000,4.17674468,5.78547924,7.90225078,4344,6017,8219,2154,3206,4769,2.07103827,3.08291313,4.58608325,0.36340688,0.45523279,0.63907444
17115,0,USIllinoisMacon,Illinois,Macon,2021-04-04 12:16:05.850534,2020-10-20 00:00:00.000000,4.33469130,6.02424321,8.18304743,4508,6265,8511,2218,3330,4975,2.13304470,3.20260422,4.78326801,0.36328520,0.45406043,0.60757298
17115,0,USIllinoisMacon,Illinois,Macon,2021-04-04 12:16:05.850534,2020-10-21 00:00:00.000000,4.48558123,6.18286717,8.46234358,4665,6430,8801,2300,3453,5178,2.21134719,3.32033335,4.97894960,0.36507219,0.45352553,0.56641543
17115,0,USIllinoisMacon,Illinois,Macon,2021-04-04 12:16:05.850534,2020-10-22 00:00:00.000000,4.62665541,6.32397224,8.73736088,4812,6577,9087,2386,3567,5393,2.29417969,3.42977464,5.18590764,0.36986339,0.45129694,0.53794948
17115,0,USIllinoisMacon,Illinois,Macon,2021-04-04 12:16:05.850534,2020-10-23 00:00:00.000000,4.75110410,6.49266877,9.00373488,4941,6752,9364,2468,3682,5581,2.37325695,3.54077102,5.36588213,0.36829258,0.44932524,0.53178394
17115,0,USIllinoisMacon,Illinois,Macon,2021-04-04 12:16:05.850534,2020-10-24 00:00:00.000000,4.81830080,6.64696175,9.25441523,5011,6913,9625,2545,3809,5755,2.44739006,3.66225205,5.53319832,0.36364471,0.45092353,0.53535961
17115,0,USIllinoisMacon,Illinois,Macon,2021-04-04 12:16:05.850534,2020-10-25 00:00:00.000000,4.88881257,6.85557211,9.48214517,5084,7130,9862,2616,3910,5920,2.51601490,3.76005380,5.69195067,0.35975628,0.45217536,0.54713262
17115,0,USIllinoisMacon,Illinois,Macon,2021-04-04 12:16:05.850534,2020-10-26 00:00:00.000000,5.00596628,7.06507624,9.68362099,5206,7348,10071,2683,4013,6076,2.57973967,3.85851357,5.84251286,0.35651770,0.45070671,0.55767284
17115,0,USIllinoisMacon,Illinois,Macon,2021-04-04 12:16:05.850534,2020-10-27 00:00:00.000000,5.20130901,7.26551376,9.86433532,5409,7556,10259,2746,4102,6224,2.64022964,3.94472875,5.98443572,0.35601395,0.45629314,0.56605653
17115,0,USIllinoisMacon,Illinois,Macon,2021-04-04 12:16:05.850534,2020-10-28 00:00:00.000000,5.31315166,7.40622704,10.03002842,5526,7703,10432,2793,4205,6364,2.68619116,4.04310580,6.11892567,0.35674029,0.45818437,0.57109547
17115,0,USIllinoisMacon,Illinois,Macon,2021-04-04 12:16:05.850534,2020-10-29 00:00:00.000000,5.42145416,7.58703587,10.18353882,5638,7891,10591,2868,4313,6498,2.75801584,4.14713243,6.24761779,0.35917736,0.46069052,0.57454690
17115,0,USIllinoisMacon,Illinois,Macon,2021-04-04 12:16:05.850534,2020-10-30 00:00:00.000000,5.52271004,7.73982097,10.37588820,5744,8050,10791,2928,4419,6627,2.81566318,4.24905793,6.37237042,0.37492754,0.45876082,0.58651272
17115,0,USIllinoisMacon,Illinois,Macon,2021-04-04 12:16:05.850534,2020-10-31 00:00:00.000000,5.71369363,7.89760740,10.62607084,5942,8214,11052,2986,4521,6755,2.87114259,4.34716144,6.49498265,0.38173725,0.45950998,0.59705535
17115,0,USIllinoisMacon,Illinois,Macon,2021-04-04 12:16:05.850534,2020-11-01 00:00:00.000000,5.84503530,8.04509867,10.87263828,6079,8367,11308,3040,4625,6882,2.92307884,4.44719927,6.61683746,0.38435402,0.46133409,0.60610450
17115,0,USIllinoisMacon,Illinois,Macon,2021-04-04 12:16:05.850534,2020-11-02 00:00:00.000000,6.00508825,8.16777815,11.11539827,6245,8495,11561,3089,4721,7099,2.97063386,4.53916124,6.82630496,0.38290840,0.45879077,0.58941072
17115,0,USIllinoisMacon,Illinois,Macon,2021-04-04 12:16:05.850534,2020-11-03 00:00:00.000000,6.20378739,8.26320116,11.34787344,6452,8594,11802,3134,4820,7305,3.01368811,4.63501845,7.02363057,0.37479588,0.45795172,0.58361142
17115,0,USIllinoisMacon,Illinois,Macon,2021-04-04 12:16:05.850534,2020-11-04 00:00:00.000000,6.36818380,8.40562142,11.56719483,6623,8742,12030,3174,4922,7491,3.05194697,4.73233280,7.20262472,0.36583356,0.45425459,0.58368584
17115,0,USIllinoisMacon,Illinois,Macon,2021-04-04 12:16:05.850534,2020-11-05 00:00:00.000000,6.40527783,8.60388848,11.76810409,6662,8948,12239,3209,4999,7656,3.08542560,4.80694105,7.36108918,0.36079305,0.44700889,0.58334944
17115,0,USIllinoisMacon,Illinois,Macon,2021-04-04 12:16:05.850534,2020-11-06 00:00:00.000000,6.44155128,8.67980606,11.94084925,6699,9027,12419,3239,5083,7796,3.11426363,4.88757068,7.49582834,0.33633669,0.44015287,0.58187692
17115,0,USIllinoisMacon,Illinois,Macon,2021-04-04 12:16:05.850534,2020-11-07 00:00:00.000000,6.48167299,8.75279587,12.14354437,6741,9103,12630,3264,5149,7908,3.13845119,4.95094562,7.60368814,0.32075812,0.42957511,0.55855046
17115,0,USIllinoisMacon,Illinois,Macon,2021-04-04 12:16:05.850534,2020-11-08 00:00:00.000000,6.53650382,8.86754885,12.27740777,6798,9223,12769,3306,5198,8030,3.17935711,4.99788898,7.72139018,0.30591393,0.42608862,0.55328828
17115,0,USIllinoisMacon,Illinois,Macon,2021-04-04 12:16:05.850534,2020-11-09 00:00:00.000000,6.56278335,8.92006781,12.32947157,6825,9277,12823,3395,5232,8121,3.26431132,5.03085234,7.80866157,0.29494028,0.41904674,0.55166029
17115,0,USIllinoisMacon,Illinois,Macon,2021-04-04 12:16:05.850534,2020-11-10 00:00:00.000000,6.62512435,8.90045542,12.32531143,6890,9257,12819,3459,5253,8160,3.32639030,5.05124920,7.84626764,0.28986656,0.41102879,0.54554969
17115,0,USIllinoisMacon,Illinois,Macon,2021-04-04 12:16:05.850534,2020-11-11 00:00:00.000000,6.65706067,8.84441661,12.28668986,6923,9198,12779,3504,5243,8160,3.36938892,5.04125747,7.84566866,0.28188433,0.39937941,0.52548867
17115,0,USIllinoisMacon,Illinois,Macon,2021-04-04 12:16:05.850534,2020-11-12 00:00:00.000000,6.64675858,8.80874323,12.20154047,6913,9161,12690,3532,5258,8156,3.39618872,5.05624078,7.84234866,0.27744441,0.39615351,0.51834119
17115,0,USIllinoisMacon,Illinois,Macon,2021-04-04 12:16:05.850534,2020-11-13 00:00:00.000000,6.55541186,8.73176975,12.04306177,6818,9081,12525,3539,5278,8155,3.40341705,5.07513537,7.84105371,0.27669032,0.38546488,0.51363568
17115,0,USIllinoisMacon,Illinois,Macon,2021-04-04 12:16:05.850534,2020-11-14 00:00:00.000000,6.36028479,8.57837420,11.92424267,6615,8922,12402,3508,5257,8130,3.37350113,5.05485253,7.81726454,0.26669812,0.37558529,0.46573793
17115,0,USIllinoisMacon,Illinois,Macon,2021-04-04 12:16:05.850534,2020-11-15 00:00:00.000000,6.10250204,8.36368235,11.77758402,6347,8698,12249,3442,5196,8075,3.30999098,4.99656103,7.76434840,0.24615237,0.36264631,0.44435019
17115,0,USIllinoisMacon,Illinois,Macon,2021-04-04 12:16:05.850534,2020-11-16 00:00:00.000000,6.01368592,8.15837895,11.55980581,6254,8485,12023,3383,5120,7989,3.25288723,4.92318066,7.68113815,0.22938584,0.35448058,0.43917041
17115,0,USIllinoisMacon,Illinois,Macon,2021-04-04 12:16:05.850534,2020-11-17 00:00:00.000000,5.95236159,8.00719552,11.32966164,6190,8328,11783,3346,5022,7878,3.21731232,4.82877618,7.57492472,0.22905150,0.35119165,0.43843374
17115,0,USIllinoisMacon,Illinois,Macon,2021-04-04 12:16:05.850534,2020-11-18 00:00:00.000000,5.88571560,7.81223377,11.09148639,6121,8125,11536,3319,4907,7751,3.19203028,4.71832908,7.45244238,0.22902678,0.34065500,0.43390457
17115,0,USIllinoisMacon,Illinois,Macon,2021-04-04 12:16:05.850534,2020-11-19 00:00:00.000000,5.73491031,7.61853889,10.84625965,5964,7923,11281,3271,4809,7611,3.14506624,4.62418189,7.31828668,0.22904296,0.33782089,0.42895044
17115,0,USIllinoisMacon,Illinois,Macon,2021-04-04 12:16:05.850534,2020-11-20 00:00:00.000000,5.57167497,7.40612091,10.59238373,5795,7703,11017,3166,4684,7532,3.04463863,4.50430208,7.24201827,0.22907614,0.33965539,0.42798775
17115,0,USIllinoisMacon,Illinois,Macon,2021-04-04 12:16:05.850534,2020-11-21 00:00:00.000000,5.41097098,7.21302997,10.32184899,5627,7502,10735,3087,4571,7423,2.96825868,4.39518335,7.13708244,0.22910819,0.33461068,0.42715588
17115,0,USIllinoisMacon,Illinois,Macon,2021-04-04 12:16:05.850534,2020-11-22 00:00:00.000000,5.25249791,7.01291846,10.02224724,5463,7294,10424,3021,4463,7240,2.90482234,4.29108895,6.96119828,0.22887071,0.32864774,0.42340367
17115,0,USIllinoisMacon,Illinois,Macon,2021-04-04 12:16:05.850534,2020-11-23 00:00:00.000000,5.07178053,6.80989664,9.69072567,5275,7082,10079,2946,4332,7001,2.83282038,4.16586328,6.73179150,0.22845387,0.32569273,0.40943003
17115,0,USIllinoisMacon,Illinois,Macon,2021-04-04 12:16:05.850534,2020-11-24 00:00:00.000000,4.86744004,6.59901037,9.43961000,5062,6863,9818,2860,4209,6765,2.75035123,4.04712692,6.50489964,0.21554327,0.32394319,0.41217229
17115,0,USIllinoisMacon,Illinois,Macon,2021-04-04 12:16:05.850534,2020-11-25 00:00:00.000000,4.66611519,6.40061316,9.10533093,4853,6657,9470,2767,4097,6555,2.66097788,3.93987666,6.30234395,0.21353571,0.32874237,0.41814152
17115,0,USIllinoisMacon,Illinois,Macon,2021-04-04 12:16:05.850534,2020-11-26 00:00:00.000000,4.46916741,6.20365422,8.78503442,4648,6452,9137,2671,3967,6336,2.56831948,3.81470748,6.09244603,0.21442140,0.33064567,0.40800047
17115,0,USIllinoisMacon,Illinois,Macon,2021-04-04 12:16:05.850534,2020-11-27 00:00:00.000000,4.27748481,5.99878828,8.48771334,4448,6239,8827,2562,3814,6120,2.46344474,3.66739131,5.88502159,0.21747216,0.32481264,0.40795879
17115,0,USIllinoisMacon,Illinois,Macon,2021-04-04 12:16:05.850534,2020-11-28 00:00:00.000000,4.09218313,5.78328960,8.21975222,4256,6015,8549,2453,3684,5919,2.35873553,3.54222004,5.69139589,0.21625172,0.32387579,0.42065566
17115,0,USIllinoisMacon,Illinois,Macon,2021-04-04 12:16:05.850534,2020-11-29 00:00:00.000000,3.91654577,5.56815602,7.97704470,4073,5791,8296,2347,3554,5824,2.25710494,3.41752605,5.59962355,0.21207096,0.32182375,0.43213367
17115,0,USIllinoisMacon,Illinois,Macon,2021-04-04 12:16:05.850534,2020-11-30 00:00:00.000000,3.75833151,5.35993561,7.74766848,3909,5574,8058,2246,3434,5723,2.15995710,3.30243612,5.50260097,0.20957231,0.32099086,0.43833609
17115,0,USIllinoisMacon,Illinois,Macon,2021-04-04 12:16:05.850534,2020-12-01 00:00:00.000000,3.60969664,5.14483071,7.52590527,3754,5351,7827,2153,3318,5605,2.07018713,3.19025098,5.38919232,0.20853043,0.32562002,0.43925971
17115,0,USIllinoisMacon,Illinois,Macon,2021-04-04 12:16:05.850534,2020-12-02 00:00:00.000000,3.47646447,4.94047017,7.30951520,3615,5138,7602,2066,3209,5460,1.98672901,3.08573780,5.25009547,0.20957270,0.33028858,0.43968735
17115,0,USIllinoisMacon,Illinois,Macon,2021-04-04 12:16:05.850534,2020-12-03 00:00:00.000000,3.35085569,4.74412631,7.09772474,3485,4934,7382,1984,3071,5294,1.90793322,2.95265443,5.09070452,0.21413105,0.32983166,0.43946559
17115,0,USIllinoisMacon,Illinois,Macon,2021-04-04 12:16:05.850534,2020-12-04 00:00:00.000000,3.23079218,4.56950053,6.89049173,3360,4752,7166,1906,2946,5117,1.83279603,2.83332108,4.92042131,0.22180884,0.33327058,0.43755436
17115,0,USIllinoisMacon,Illinois,Macon,2021-04-04 12:16:05.850534,2020-12-05 00:00:00.000000,3.11722400,4.38276317,6.68856444,3242,4558,6956,1822,2838,4937,1.75192975,2.72930855,4.74731861,0.23513542,0.33287656,0.45364973
17115,0,USIllinoisMacon,Illinois,Macon,2021-04-04 12:16:05.850534,2020-12-06 00:00:00.000000,3.01128091,4.23190815,6.49355892,3132,4401,6753,1741,2736,4760,1.67456451,2.63095176,4.57742286,0.24998754,0.33658187,0.46046979
17115,0,USIllinoisMacon,Illinois,Macon,2021-04-04 12:16:05.850534,2020-12-07 00:00:00.000000,2.89844011,4.06721242,6.31135167,3014,4230,6564,1666,2634,4591,1.60233876,2.53338082,4.41470043,0.24322836,0.34477756,0.46313336
17115,0,USIllinoisMacon,Illinois,Macon,2021-04-04 12:16:05.850534,2020-12-08 00:00:00.000000,2.77780770,3.91483346,6.13868568,2889,4071,6384,1598,2534,4431,1.53731544,2.43652232,4.26095414,0.24539001,0.34466137,0.46404564
17115,0,USIllinoisMacon,Illinois,Macon,2021-04-04 12:16:05.850534,2020-12-09 00:00:00.000000,2.66431082,3.77840964,5.97356029,2771,3929,6213,1550,2431,4281,1.49056365,2.33764627,4.11667234,0.24381397,0.35194467,0.47807117
17115,0,USIllinoisMacon,Illinois,Macon,2021-04-04 12:16:05.850534,2020-12-10 00:00:00.000000,2.57906053,3.67475690,5.81271300,2682,3822,6045,1503,2338,4140,1.44582654,2.24812621,3.98131746,0.24509085,0.35803762,0.47985528
17115,0,USIllinoisMacon,Illinois,Macon,2021-04-04 12:16:05.850534,2020-12-11 00:00:00.000000,2.49705906,3.56567846,5.65392425,2597,3708,5880,1459,2264,4008,1.40317153,2.17747329,3.85395210,0.24314553,0.36685578,0.48849617
17115,0,USIllinoisMacon,Illinois,Macon,2021-04-04 12:16:05.850534,2020-12-12 00:00:00.000000,2.40310563,3.45761531,5.49641664,2499,3596,5716,1417,2194,3883,1.36288189,2.11000204,3.73373340,0.25187094,0.38157682,0.52787401
17115,0,USIllinoisMacon,Illinois,Macon,2021-04-04 12:16:05.850534,2020-12-13 00:00:00.000000,2.31381749,3.35710968,5.34035224,2406,3491,5554,1376,2127,3765,1.32311928,2.04590452,3.62021213,0.25832040,0.39320324,0.54854010
17115,0,USIllinoisMacon,Illinois,Macon,2021-04-04 12:16:05.850534,2020-12-14 00:00:00.000000,2.26051923,3.27225261,5.18218154,2351,3403,5389,1332,2066,3654,1.28082107,1.98720397,3.51337136,0.26834339,0.40843748,0.55980206
17115,0,USIllinoisMacon,Illinois,Macon,2021-04-04 12:16:05.850534,2020-12-15 00:00:00.000000,2.18814977,3.20508634,5.02687022,2275,3333,5228,1288,2005,3549,1.23919905,1.92832451,3.41310785,0.28302272,0.42073733,0.56785837
17115,0,USIllinoisMacon,Illinois,Macon,2021-04-04 12:16:05.850534,2020-12-16 00:00:00.000000,2.12976816,3.12643332,4.88253837,2215,3251,5078,1246,1944,3452,1.19875632,1.86968312,3.31927377,0.29029262,0.42914231,0.59303240
17115,0,USIllinoisMacon,Illinois,Macon,2021-04-04 12:16:05.850534,2020-12-17 00:00:00.000000,2.08884089,3.04777118,4.79400240,2172,3169,4986,1206,1886,3360,1.16018362,1.81349847,3.23119299,0.30132492,0.43672268,0.63889266
17115,0,USIllinoisMacon,Illinois,Macon,2021-04-04 12:16:05.850534,2020-12-18 00:00:00.000000,2.02031173,2.98091639,4.70705318,2101,3100,4895,1178,1834,3274,1.13328746,1.76349975,3.14789842,0.31563704,0.44848713,0.67927938
17115,0,USIllinoisMacon,Illinois,Macon,2021-04-04 12:16:05.850534,2020-12-19 00:00:00.000000,1.97462875,2.95321452,4.62258466,2053,3071,4807,1183,1807,3203,1.13785153,1.73756382,3.08030151,0.31791463,0.47638103,0.70621007
17115,0,USIllinoisMacon,Illinois,Macon,2021-04-04 12:16:05.850534,2020-12-20 00:00:00.000000,1.96179488,2.91618966,4.54367385,2040,3033,4725,1156,1772,3143,1.11185601,1.70434201,3.02186287,0.32406239,0.51012594,0.72094510
17115,0,USIllinoisMacon,Illinois,Macon,2021-04-04 12:16:05.850534,2020-12-21 00:00:00.000000,1.96685987,2.89370469,4.51564001,2045,3009,4696,1119,1735,3098,1.07656632,1.66875005,2.97934250,0.33967172,0.53059504,0.76846014
17115,0,USIllinoisMacon,Illinois,Macon,2021-04-04 12:16:05.850534,2020-12-22 00:00:00.000000,1.98537186,2.85040326,4.56018848,2064,2964,4743,1098,1720,3095,1.05624820,1.65408519,2.97628318,0.37134278,0.54891566,0.79641067
17115,0,USIllinoisMacon,Illinois,Macon,2021-04-04 12:16:05.850534,2020-12-23 00:00:00.000000,2.01826296,2.85432576,4.57966215,2099,2968,4763,1103,1730,3025,1.06071894,1.66416281,2.90904268,0.39935689,0.58124569,0.79162101
17115,0,USIllinoisMacon,Illinois,Macon,2021-04-04 12:16:05.850534,2020-12-24 00:00:00.000000,2.06515955,2.90669550,4.61425399,2147,3023,4799,1116,1751,2962,1.07301783,1.68371713,2.84841813,0.40567848,0.62519000,0.80659663
17115,0,USIllinoisMacon,Illinois,Macon,2021-04-04 12:16:05.850534,2020-12-25 00:00:00.000000,2.11637345,2.95865386,4.66321230,2201,3077,4850,1136,1768,2954,1.09293946,1.70029934,2.84039193,0.41684709,0.66866278,0.82044665
17115,0,USIllinoisMacon,Illinois,Macon,2021-04-04 12:16:05.850534,2020-12-26 00:00:00.000000,2.12665042,3.01036069,4.72102869,2211,3131,4910,1148,1801,2966,1.10411201,1.73184551,2.85177605,0.44759781,0.68752430,0.87135413
17115,0,USIllinoisMacon,Illinois,Macon,2021-04-04 12:16:05.850534,2020-12-27 00:00:00.000000,2.15977064,3.07832376,4.78216500,2246,3201,4973,1154,1822,2987,1.11004987,1.75239920,2.87200561,0.48829372,0.70090837,0.89281258
17115,0,USIllinoisMacon,Illinois,Macon,2021-04-04 12:16:05.850534,2020-12-28 00:00:00.000000,2.22386342,3.13975303,4.83508781,2313,3265,5028,1165,1843,3014,1.12096263,1.77255727,2.89848980,0.51417399,0.71664365,0.92234093
17115,0,USIllinoisMacon,Illinois,Macon,2021-04-04 12:16:05.850534,2020-12-29 00:00:00.000000,2.31280031,3.20531637,4.88605249,2405,3333,5081,1185,1868,3044,1.13960880,1.79614764,2.92697103,0.51647226,0.71315697,0.93851057
17115,0,USIllinoisMacon,Illinois,Macon,2021-04-04 12:16:05.850534,2020-12-30 00:00:00.000000,2.41570270,3.26181419,4.93372300,2512,3392,5131,1229,1906,3074,1.18165090,1.83264797,2.95618906,0.51489919,0.71405407,0.94720343
17115,0,USIllinoisMacon,Illinois,Macon,2021-04-04 12:16:05.850534,2020-12-31 00:00:00.000000,2.48980756,3.32195620,4.97702890,2589,3455,5176,1274,1946,3104,1.22545053,1.87106100,2.98513350,0.51352421,0.71034662,0.95518935
17115,0,USIllinoisMacon,Illinois,Macon,2021-04-04 12:16:05.850534,2021-01-01 00:00:00.000000,2.52657981,3.35420383,5.01239831,2627,3488,5213,1312,1979,3133,1.26221984,1.90286558,3.01293525,0.49874720,0.70426524,0.95705338
17115,0,USIllinoisMacon,Illinois,Macon,2021-04-04 12:16:05.850534,2021-01-02 00:00:00.000000,2.56165227,3.40625648,5.02938039,2664,3542,5231,1331,2007,3160,1.28064140,1.93016408,3.03823484,0.48325988,0.68830149,0.92394300
17115,0,USIllinoisMacon,Illinois,Macon,2021-04-04 12:16:05.850534,2021-01-03 00:00:00.000000,2.61425426,3.45004174,5.02271167,2719,3588,5224,1351,2021,3180,1.29918628,1.94368131,3.05777366,0.45860871,0.68165492,0.91929351
17115,0,USIllinoisMacon,Illinois,Macon,2021-04-04 12:16:05.850534,2021-01-04 00:00:00.000000,2.67415378,3.49669656,5.00396235,2781,3636,5204,1370,2062,3191,1.31787530,1.98283590,3.06826679,0.44385447,0.67162042,0.86173554
17115,0,USIllinoisMacon,Illinois,Macon,2021-04-04 12:16:05.850534,2021-01-05 00:00:00.000000,2.70324181,3.52873677,4.97878779,2811,3670,5178,1390,2070,3193,1.33712396,1.99106883,3.07031699,0.42568009,0.66485431,0.83415703
17115,0,USIllinoisMacon,Illinois,Macon,2021-04-04 12:16:05.850534,2021-01-06 00:00:00.000000,2.69862320,3.57078031,4.94887597,2806,3713,5147,1410,2099,3188,1.35658452,2.01876904,3.06568703,0.41560553,0.62030413,0.82608013
17115,0,USIllinoisMacon,Illinois,Macon,2021-04-04 12:16:05.850534,2021-01-07 00:00:00.000000,2.66400851,3.54751667,4.91450882,2770,3689,5111,1431,2105,3178,1.37596885,2.02417173,3.05586715,0.41538601,0.60264073,0.81868444
17115,0,USIllinoisMacon,Illinois,Macon,2021-04-04 12:16:05.850534,2021-01-08 00:00:00.000000,2.66144577,3.50959820,4.87402965,2768,3650,5069,1450,2105,3188,1.39502642,2.02390306,3.06529513,0.41517772,0.57657446,0.79895283
17115,0,USIllinoisMacon,Illinois,Macon,2021-04-04 12:16:05.850534,2021-01-09 00:00:00.000000,2.64113927,3.44259596,4.86176638,2747,3580,5056,1460,2095,3235,1.40446866,2.01513106,3.11074394,0.39965814,0.54650091,0.74679357
17115,0,USIllinoisMacon,Illinois,Macon,2021-04-04 12:16:05.850534,2021-01-10 00:00:00.000000,2.57851036,3.36478770,4.86564679,2681,3499,5060,1438,2090,3267,1.38283331,2.00954670,3.14198004,0.36749640,0.51218351,0.68442392
17115,0,USIllinoisMacon,Illinois,Macon,2021-04-04 12:16:05.850534,2021-01-11 00:00:00.000000,2.48722674,3.27569212,4.81618814,2586,3407,5009,1407,2058,3278,1.35296117,1.97949431,3.15222850,0.35060091,0.48837028,0.65191786
17115,0,USIllinoisMacon,Illinois,Macon,2021-04-04 12:16:05.850534,2021-01-12 00:00:00.000000,2.39304855,3.18100796,4.70830074,2488,3308,4897,1374,2017,3267,1.32147161,1.94015097,3.14160020,0.32086175,0.47202869,0.61197465
17115,0,USIllinoisMacon,Illinois,Macon,2021-04-04 12:16:05.850534,2021-01-13 00:00:00.000000,2.30639575,3.08352652,4.56614772,2398,3207,4749,1340,1967,3238,1.28909635,1.89213826,3.11345481,0.30505765,0.46433774,0.59392508
17115,0,USIllinoisMacon,Illinois,Macon,2021-04-04 12:16:05.850534,2021-01-14 00:00:00.000000,2.24072869,2.97872321,4.40646549,2330,3098,4583,1302,1918,3194,1.25188875,1.84419689,3.07097447,0.29496932,0.45032393,0.59327873
17115,0,USIllinoisMacon,Illinois,Macon,2021-04-04 12:16:05.850534,2021-01-15 00:00:00.000000,2.16333297,2.87250512,4.23739892,2250,2987,4407,1255,1866,3131,1.20728695,1.79466854,3.01113020,0.28738190,0.43829911,0.59297290
17115,0,USIllinoisMacon,Illinois,Macon,2021-04-04 12:16:05.850534,2021-01-16 00:00:00.000000,2.07212707,2.76371888,4.06439902,2155,2874,4227,1208,1817,3046,1.16222943,1.74721475,2.92918493,0.28135700,0.43272982,0.57072483
17115,0,USIllinoisMacon,Illinois,Macon,2021-04-04 12:16:05.850534,2021-01-17 00:00:00.000000,1.97755261,2.65994311,3.89144627,2056,2766,4047,1162,1755,2944,1.11751186,1.68786692,2.83057742,0.26886607,0.42216311,0.55958915
17115,0,USIllinoisMacon,Illinois,Macon,2021-04-04 12:16:05.850534,2021-01-18 00:00:00.000000,1.88257450,2.56137794,3.71644149,1958,2664,3865,1106,1679,2831,1.06419874,1.61513131,2.72245060,0.25466910,0.40448890,0.55026183
17115,0,USIllinoisMacon,Illinois,Macon,2021-04-04 12:16:05.850534,2021-01-19 00:00:00.000000,1.79029832,2.45533137,3.54657534,1862,2553,3688,1046,1617,2714,1.00576866,1.55474983,2.61021942,0.24835198,0.38967214,0.53706801
17115,0,USIllinoisMacon,Illinois,Macon,2021-04-04 12:16:05.850534,2021-01-20 00:00:00.000000,1.70165858,2.35345454,3.38340479,1769,2447,3519,986,1556,2597,0.94852006,1.49671277,2.49723222,0.24618718,0.38847532,0.53623198
17115,0,USIllinoisMacon,Illinois,Macon,2021-04-04 12:16:05.850534,2021-01-21 00:00:00.000000,1.61740067,2.24990310,3.25019187,1682,2340,3380,929,1498,2481,0.89354042,1.44052122,2.38565638,0.24604175,0.37834826,0.52697776
17115,0,USIllinoisMacon,Illinois,Macon,2021-04-04 12:16:05.850534,2021-01-22 00:00:00.000000,1.53804998,2.15078580,3.12999525,1599,2237,3255,876,1443,2368,0.84224676,1.38794453,2.27691547,0.25030499,0.37429737,0.52614566
17115,0,USIllinoisMacon,Illinois,Macon,2021-04-04 12:16:05.850534,2021-01-23 00:00:00.000000,1.46390646,2.04483244,2.97381144,1522,2126,3093,827,1388,2259,0.79583152,1.33544420,2.17200872,0.26830162,0.37351275,0.52998604
17115,0,USIllinoisMacon,Illinois,Macon,2021-04-04 12:16:05.850534,2021-01-24 00:00:00.000000,1.38879550,1.95720632,2.84644426,1444,2035,2960,784,1325,2154,0.75409617,1.27411607,2.07175589,0.25913282,0.38225502,0.54020273
17115,0,USIllinoisMacon,Illinois,Macon,2021-04-04 12:16:05.850534,2021-01-25 00:00:00.000000,1.29735603,1.88300509,2.72071928,1349,1958,2829,744,1273,2056,0.71613282,1.22426244,1.97698093,0.25445644,0.38976081,0.55305209
17115,0,USIllinoisMacon,Illinois,Macon,2021-04-04 12:16:05.850534,2021-01-26 00:00:00.000000,1.21709194,1.80027738,2.60189024,1265,1872,2706,708,1226,1970,0.68110992,1.17918142,1.89475722,0.25021166,0.39378679,0.55981994
17115,0,USIllinoisMacon,Illinois,Macon,2021-04-04 12:16:05.850534,2021-01-27 00:00:00.000000,1.14703599,1.72769936,2.50323721,1193,1796,2603,674,1166,1877,0.64840970,1.12145386,1.80545150,0.25225888,0.39492855,0.56290672
17115,0,USIllinoisMacon,Illinois,Macon,2021-04-04 12:16:05.850534,2021-01-28 00:00:00.000000,1.08555648,1.66734757,2.40994958,1129,1734,2506,642,1114,1799,0.61760705,1.07169482,1.73035005,0.25018030,0.40009294,0.58049493
17115,0,USIllinoisMacon,Illinois,Macon,2021-04-04 12:16:05.850534,2021-01-29 00:00:00.000000,1.03107152,1.59395836,2.32111132,1072,1657,2414,611,1070,1728,0.58840591,1.02881754,1.66209917,0.24853234,0.40335530,0.57718842
17115,0,USIllinoisMacon,Illinois,Macon,2021-04-04 12:16:05.850534,2021-01-30 00:00:00.000000,0.98243355,1.52690623,2.23631391,1021,1588,2325,583,1018,1664,0.56064380,0.97943074,1.60002269,0.25270410,0.40985443,0.56616505
17115,0,USIllinoisMacon,Illinois,Macon,2021-04-04 12:16:05.850534,2021-01-31 00:00:00.000000,0.93903346,1.46192650,2.15522270,976,1520,2241,555,973,1605,0.53421680,0.93566195,1.54336055,0.24880954,0.41471936,0.57680172
17115,0,USIllinoisMacon,Illinois,Macon,2021-04-04 12:16:05.850534,2021-02-01 00:00:00.000000,0.89154064,1.39735782,2.07295770,927,1453,2156,529,933,1546,0.50904446,0.89722345,1.48671414,0.24542054,0.41780563,0.58643384
17115,0,USIllinoisMacon,Illinois,Macon,2021-04-04 12:16:05.850534,2021-02-02 00:00:00.000000,0.85715001,1.32772121,1.98363925,891,1380,2063,504,896,1481,0.48521530,0.86212958,1.42467949,0.25003260,0.42323417,0.58746035
17115,0,USIllinoisMacon,Illinois,Macon,2021-04-04 12:16:05.850534,2021-02-03 00:00:00.000000,0.82526304,1.27668060,1.91217510,858,1327,1988,481,861,1419,0.46260347,0.82853549,1.36496972,0.24719828,0.42527476,0.58754605
17115,0,USIllinoisMacon,Illinois,Macon,2021-04-04 12:16:05.850534,2021-02-04 00:00:00.000000,0.78908823,1.22899519,1.85496131,820,1278,1929,459,827,1368,0.44139031,0.79538710,1.31541125,0.24919321,0.42448392,0.58761889
17115,0,USIllinoisMacon,Illinois,Macon,2021-04-04 12:16:05.850534,2021-02-05 00:00:00.000000,0.75350046,1.17656595,1.79568564,783,1223,1867,438,792,1318,0.42127300,0.76153631,1.26808464,0.25113236,0.43705171,0.58770182
17115,0,USIllinoisMacon,Illinois,Macon,2021-04-04 12:16:05.850534,2021-02-06 00:00:00.000000,0.72391454,1.12155159,1.73694461,752,1166,1806,427,757,1272,0.41112014,0.72806167,1.22319998,0.25280111,0.44658639,0.58831493
17115,0,USIllinoisMacon,Illinois,Macon,2021-04-04 12:16:05.850534,2021-02-07 00:00:00.000000,0.69960117,1.08000957,1.68478110,727,1123,1752,417,726,1228,0.40173045,0.69840185,1.18115086,0.26217640,0.46185824,0.61870561
17115,0,USIllinoisMacon,Illinois,Macon,2021-04-04 12:16:05.850534,2021-02-08 00:00:00.000000,0.68019815,1.05052611,1.63875283,707,1092,1704,402,699,1188,0.38657588,0.67292051,1.14250507,0.27194502,0.47765483,0.63866257
17115,0,USIllinoisMacon,Illinois,Macon,2021-04-04 12:16:05.850534,2021-02-09 00:00:00.000000,0.66302004,1.01425599,1.60034784,689,1054,1664,386,674,1151,0.37165598,0.64831121,1.10748828,0.27203417,0.48004662,0.64230756
17115,0,USIllinoisMacon,Illinois,Macon,2021-04-04 12:16:05.850534,2021-02-10 00:00:00.000000,0.64015962,0.98280016,1.56868512,665,1022,1631,373,655,1119,0.35869556,0.62982790,1.07660705,0.27250056,0.49361314,0.65694573
17115,0,USIllinoisMacon,Illinois,Macon,2021-04-04 12:16:05.850534,2021-02-11 00:00:00.000000,0.62147426,0.95806893,1.54271588,646,996,1604,361,631,1092,0.34758120,0.60700828,1.04994246,0.27441057,0.50462559,0.67550113
17115,0,USIllinoisMacon,Illinois,Macon,2021-04-04 12:16:05.850534,2021-02-12 00:00:00.000000,0.59718979,0.92874671,1.50720362,621,965,1567,351,611,1068,0.33839304,0.58754335,1.02730472,0.28193900,0.52463434,0.73129978
17115,0,USIllinoisMacon,Illinois,Macon,2021-04-04 12:16:05.850534,2021-02-13 00:00:00.000000,0.59034232,0.90649429,1.47379026,614,942,1532,344,590,1048,0.33128864,0.56730304,1.00847946,0.30770686,0.53008819,0.80463516
17115,0,USIllinoisMacon,Illinois,Macon,2021-04-04 12:16:05.850534,2021-02-14 00:00:00.000000,0.57781475,0.89162934,1.44269344,600,927,1500,336,570,1033,0.32330052,0.54849307,0.99368824,0.33858529,0.56426101,0.84857142
17115,0,USIllinoisMacon,Illinois,Macon,2021-04-04 12:16:05.850534,2021-02-15 00:00:00.000000,0.57391594,0.87800694,1.41471183,596,913,1471,328,559,1020,0.31552384,0.53762069,0.98121343,0.35789502,0.61073990,0.85850740
17115,0,USIllinoisMacon,Illinois,Macon,2021-04-04 12:16:05.850534,2021-02-16 00:00:00.000000,0.55797475,0.87374747,1.39117491,580,908,1446,321,552,1010,0.30872201,0.53078266,0.97140589,0.38319368,0.63153718,0.91496411
17115,0,USIllinoisMacon,Illinois,Macon,2021-04-04 12:16:05.850534,2021-02-17 00:00:00.000000,0.54692506,0.85842948,1.37305318,568,892,1428,314,541,1001,0.30268669,0.52047798,0.96320841,0.39530811,0.63834740,0.96471214
17115,0,USIllinoisMacon,Illinois,Macon,2021-04-04 12:16:05.850534,2021-02-18 00:00:00.000000,0.54043286,0.85773388,1.35904633,562,892,1413,308,528,986,0.29671260,0.50849289,0.94854397,0.41628791,0.65366333,0.97363058
17115,0,USIllinoisMacon,Illinois,Macon,2021-04-04 12:16:05.850534,2021-02-19 00:00:00.000000,0.53852054,0.85204421,1.34713209,560,886,1401,304,518,972,0.29286478,0.49831221,0.93526942,0.44198161,0.70178095,1.05048433
17115,0,USIllinoisMacon,Illinois,Macon,2021-04-04 12:16:05.850534,2021-02-20 00:00:00.000000,0.54003078,0.84875407,1.33610927,561,882,1389,301,513,961,0.29021932,0.49370095,0.92423667,0.46330767,0.73868048,1.09765988
17115,0,USIllinoisMacon,Illinois,Macon,2021-04-04 12:16:05.850534,2021-02-21 00:00:00.000000,0.54011519,0.85364857,1.32543071,561,887,1378,301,515,951,0.28943601,0.49519319,0.91473262,0.47797848,0.76448512,1.12002627
17115,0,USIllinoisMacon,Illinois,Macon,2021-04-04 12:16:05.850534,2021-02-22 00:00:00.000000,0.54437637,0.85911657,1.31393745,566,893,1366,301,513,942,0.29004607,0.49324703,0.90618980,0.50402155,0.79604021,1.18203546
17115,0,USIllinoisMacon,Illinois,Macon,2021-04-04 12:16:05.850534,2021-02-23 00:00:00.000000,0.54711130,0.86167614,1.30247661,569,896,1354,304,513,933,0.29291627,0.49385964,0.89795540,0.50412171,0.81866737,1.21131163
17115,0,USIllinoisMacon,Illinois,Macon,2021-04-04 12:16:05.850534,2021-02-24 00:00:00.000000,0.55442442,0.86878857,1.29113854,576,903,1342,309,517,925,0.29761786,0.49774124,0.88989576,0.50423189,0.83119458,1.28143056
17115,0,USIllinoisMacon,Illinois,Macon,2021-04-04 12:16:05.850534,2021-02-25 00:00:00.000000,0.56457444,0.87598737,1.28045484,587,911,1331,314,521,917,0.30271811,0.50187750,0.88197532,0.50454730,0.84650770,1.31641310
17115,0,USIllinoisMacon,Illinois,Macon,2021-04-04 12:16:05.850534,2021-02-26 00:00:00.000000,0.56978332,0.88595917,1.27364532,592,921,1324,321,526,909,0.30898879,0.50629455,0.87432752,0.52335688,0.86537346,1.33257942
17115,0,USIllinoisMacon,Illinois,Macon,2021-04-04 12:16:05.850534,2021-02-27 00:00:00.000000,0.57864711,0.89355691,1.28055636,601,929,1331,326,530,902,0.31350083,0.50972031,0.86745079,0.51278236,0.87427719,1.38272631
17115,0,USIllinoisMacon,Illinois,Macon,2021-04-04 12:16:05.850534,2021-02-28 00:00:00.000000,0.59004804,0.90536911,1.29560269,613,941,1347,328,535,910,0.31631404,0.51438822,0.87555781,0.51175375,0.88556297,1.40374211
17115,0,USIllinoisMacon,Illinois,Macon,2021-04-04 12:16:05.850534,2021-03-01 00:00:00.000000,0.60348598,0.91694795,1.30992401,627,953,1362,333,540,908,0.32067774,0.51922441,0.87384639,0.52126937,0.89382721,1.40419995
17115,0,USIllinoisMacon,Illinois,Macon,2021-04-04 12:16:05.850534,2021-03-02 00:00:00.000000,0.61692968,0.93219251,1.32394079,641,969,1377,339,545,901,0.32639020,0.52434056,0.86636044,0.52750914,0.90066855,1.43166029
17115,0,USIllinoisMacon,Illinois,Macon,2021-04-04 12:16:05.850534,2021-03-03 00:00:00.000000,0.62891158,0.93225408,1.32860326,654,969,1381,346,554,903,0.33283758,0.53283719,0.86896117,0.52801099,0.90262707,1.46948383
17115,0,USIllinoisMacon,Illinois,Macon,2021-04-04 12:16:05.850534,2021-03-04 00:00:00.000000,0.63877554,0.93799869,1.34215192,664,975,1395,352,563,911,0.33930961,0.54145465,0.87658751,0.52809270,0.90772369,1.56188783
17115,0,USIllinoisMacon,Illinois,Macon,2021-04-04 12:16:05.850534,2021-03-05 00:00:00.000000,0.64755281,0.94678433,1.35562329,673,984,1409,355,572,920,0.34203280,0.55006159,0.88536801,0.53091599,0.92706568,1.61073619
17115,0,USIllinoisMacon,Illinois,Macon,2021-04-04 12:16:05.850534,2021-03-06 00:00:00.000000,0.65592985,0.95648609,1.36919918,682,994,1424,357,582,930,0.34326402,0.56007022,0.89473710,0.53930882,0.94837808,1.64768233
17115,0,USIllinoisMacon,Illinois,Macon,2021-04-04 12:16:05.850534,2021-03-07 00:00:00.000000,0.66412472,0.96675174,1.38265966,690,1005,1438,358,587,940,0.34435331,0.56524104,0.90419907,0.51895798,0.94665239,1.64517079
17115,0,USIllinoisMacon,Illinois,Macon,2021-04-04 12:16:05.850534,2021-03-08 00:00:00.000000,0.67255597,0.97583557,1.39140265,699,1014,1447,359,592,949,0.34533437,0.56954237,0.91306789,0.51325543,0.95837651,1.69338677
17115,0,USIllinoisMacon,Illinois,Macon,2021-04-04 12:16:05.850534,2021-03-09 00:00:00.000000,0.68092079,0.97818167,1.39583000,708,1017,1451,361,595,956,0.34765478,0.57250348,0.91959045,0.50068491,0.97108016,1.71051344
17115,0,USIllinoisMacon,Illinois,Macon,2021-04-04 12:16:05.850534,2021-03-10 00:00:00.000000,0.68921526,0.98865047,1.39915703,716,1028,1455,364,598,960,0.35064855,0.57550970,0.92390988,0.48309269,0.96663021,1.71646289
17115,0,USIllinoisMacon,Illinois,Macon,2021-04-04 12:16:05.850534,2021-03-11 00:00:00.000000,0.69750558,0.99601866,1.40162658,725,1035,1457,368,601,963,0.35396429,0.57879483,0.92653815,0.47841842,0.95294086,1.71933971
17115,0,USIllinoisMacon,Illinois,Macon,2021-04-04 12:16:05.850534,2021-03-12 00:00:00.000000,0.70587810,1.00133832,1.40316513,734,1041,1459,371,604,965,0.35741732,0.58154123,0.92796192,0.46082094,0.93104240,1.72190671
17115,0,USIllinoisMacon,Illinois,Macon,2021-04-04 12:16:05.850534,2021-03-13 00:00:00.000000,0.71460446,1.00896726,1.41447645,743,1049,1471,375,607,965,0.36092150,0.58443249,0.92851844,0.44488508,0.92035437,1.72542078
17115,0,USIllinoisMacon,Illinois,Macon,2021-04-04 12:16:05.850534,2021-03-14 00:00:00.000000,0.72399194,1.01100840,1.42884939,753,1051,1486,379,610,965,0.36447119,0.58669458,0.92840602,0.44101583,0.90095037,1.73197205
17115,0,USIllinoisMacon,Illinois,Macon,2021-04-04 12:16:05.850534,2021-03-15 00:00:00.000000,0.72892009,1.00365888,1.43989643,758,1043,1497,382,609,964,0.36804835,0.58621653,0.92770473,0.44040372,0.90682870,1.74487177
17115,0,USIllinoisMacon,Illinois,Macon,2021-04-04 12:16:05.850534,2021-03-16 00:00:00.000000,0.71556777,1.00214171,1.45058659,744,1042,1508,391,611,966,0.37615892,0.58762663,0.92896603,0.44023122,0.90897444,1.75530228
17115,0,USIllinoisMacon,Illinois,Macon,2021-04-04 12:16:05.850534,2021-03-17 00:00:00.000000,0.73020013,1.00721184,1.46080223,759,1047,1519,395,614,970,0.38063220,0.59060434,0.93351351,0.43936875,0.90978301,1.76277145
17115,0,USIllinoisMacon,Illinois,Macon,2021-04-04 12:16:05.850534,2021-03-18 00:00:00.000000,0.74162857,1.01679753,1.47054894,771,1057,1529,395,617,975,0.37979519,0.59380033,0.93763261,0.43111570,0.91555423,1.76984106
17115,0,USIllinoisMacon,Illinois,Macon,2021-04-04 12:16:05.850534,2021-03-19 00:00:00.000000,0.74571635,1.01186539,1.47982619,775,1052,1539,394,619,972,0.37887542,0.59569501,0.93468473,0.42611798,0.90450287,1.77792174
17115,0,USIllinoisMacon,Illinois,Macon,2021-04-04 12:16:05.850534,2021-03-20 00:00:00.000000,0.74346406,1.01680046,1.48700360,773,1057,1546,393,622,961,0.37787882,0.59870869,0.92473405,0.43717570,0.93795310,1.78520186
17115,0,USIllinoisMacon,Illinois,Macon,2021-04-04 12:16:05.850534,2021-03-21 00:00:00.000000,0.74106355,1.01694782,1.49104334,770,1057,1550,391,623,958,0.37680913,0.59948469,0.92141881,0.43006563,0.93798462,1.88799736
17115,0,USIllinoisMacon,Illinois,Macon,2021-04-04 12:16:05.850534,2021-03-22 00:00:00.000000,0.73838237,1.01711990,1.49540490,767,1057,1555,390,620,960,0.37566885,0.59613293,0.92331940,0.43123466,0.93941938,2.01760327
17115,0,USIllinoisMacon,Illinois,Macon,2021-04-04 12:16:05.850534,2021-03-23 00:00:00.000000,0.73556898,1.00674903,1.49922671,765,1047,1559,389,617,961,0.37443405,0.59333439,0.92473677,0.42834195,0.92783114,2.11822600
17115,0,USIllinoisMacon,Illinois,Macon,2021-04-04 12:16:05.850534,2021-03-24 00:00:00.000000,0.72973473,1.00950895,1.50253330,758,1049,1562,388,617,962,0.37311667,0.59353634,0.92572673,0.42397477,0.92100324,2.17039096
17115,0,USIllinoisMacon,Illinois,Macon,2021-04-04 12:16:05.850534,2021-03-25 00:00:00.000000,0.70587051,1.01304205,1.50531160,734,1053,1565,386,617,963,0.37172432,0.59388701,0.92631417,0.42133093,0.93530426,2.16789537
17115,0,USIllinoisMacon,Illinois,Macon,2021-04-04 12:16:05.850534,2021-03-26 00:00:00.000000,0.67934630,1.01285628,1.50755303,706,1053,1567,385,617,966,0.37057550,0.59337926,0.92901524,0.42357615,0.94983908,2.08338965
17115,0,USIllinoisMacon,Illinois,Macon,2021-04-04 12:16:05.850534,2021-03-27 00:00:00.000000,0.66165250,1.01719416,1.50925216,688,1057,1569,383,616,970,0.36841929,0.59303667,0.93326787,0.41614620,0.94767103,1.99491931
17115,0,USIllinoisMacon,Illinois,Macon,2021-04-04 12:16:05.850534,2021-03-28 00:00:00.000000,0.65915914,1.01710094,1.51040569,685,1057,1570,381,616,974,0.36671470,0.59294326,0.93721195,0.41151590,0.94204151,1.96746343
17115,0,USIllinoisMacon,Illinois,Macon,2021-04-04 12:16:05.850534,2021-03-29 00:00:00.000000,0.65116758,1.01121473,1.52117348,677,1051,1582,379,619,978,0.36461579,0.59547192,0.94084123,0.40572670,0.92321832,2.00054090
17115,0,USIllinoisMacon,Illinois,Macon,2021-04-04 12:16:05.850534,2021-03-30 00:00:00.000000,0.63246843,1.01107663,1.53302861,657,1051,1594,375,625,981,0.36147842,0.60109107,0.94375599,0.40602608,0.90960193,2.02394266
17115,0,USIllinoisMacon,Illinois,Macon,2021-04-04 12:16:05.850534,2021-03-31 00:00:00.000000,0.61459150,1.00532488,1.54432850,639,1045,1606,371,624,984,0.35746533,0.60090784,0.94609152,0.41083541,0.92266708,2.05086873
17115,0,USIllinoisMacon,Illinois,Macon,2021-04-04 12:16:05.850534,2021-04-01 00:00:00.000000,0.59721138,1.01247888,1.55222124,621,1053,1614,366,624,985,0.35283494,0.59999221,0.94793356,0.41455274,0.92387918,2.09224125
17115,0,USIllinoisMacon,Illinois,Macon,2021-04-04 12:16:05.850534,2021-04-02 00:00:00.000000,0.58033285,1.01133477,1.55307235,603,1051,1615,361,620,987,0.34779598,0.59629955,0.94933652,0.40292991,0.91814245,2.15016106
17115,0,USIllinoisMacon,Illinois,Macon,2021-04-04 12:16:05.850534,2021-04-03 00:00:00.000000,0.57049010,1.00651424,1.55335851,593,1046,1615,356,618,988,0.34232354,0.59423230,0.95033510,0.39739037,0.94205808,2.25388011
17115,0,USIllinoisMacon,Illinois,Macon,2021-04-04 12:16:05.850534,2021-04-04 00:00:00.000000,0.55666848,1.00185172,1.57005053,578,1042,1632,343,607,989,0.33028872,0.58397010,0.95095163,0.39536973,0.91367997,2.36705448
17115,0,USIllinoisMacon,Illinois,Macon,2021-04-04 12:16:05.850534,2021-04-05 00:00:00.000000,0.53742728,0.99712597,1.58753295,558,1037,1651,331,604,989,0.31914681,0.58143459,0.95120071,0.39468353,0.89374574,2.47494767
17115,0,USIllinoisMacon,Illinois,Macon,2021-04-04 12:16:05.850534,2021-04-06 00:00:00.000000,0.51932641,0.99663116,1.60189748,540,1036,1666,322,598,989,0.30997202,0.57515185,0.95109217,0.39445670,0.88530193,2.55781511
17115,0,USIllinoisMacon,Illinois,Macon,2021-04-04 12:16:05.850534,2021-04-07 00:00:00.000000,0.50231439,0.99476084,1.60973364,522,1034,1674,313,595,988,0.30109801,0.57260148,0.95063293,0.39438238,0.88949216,2.56176976
17115,0,USIllinoisMacon,Illinois,Macon,2021-04-04 12:16:05.850534,2021-04-08 00:00:00.000000,0.48793861,0.98729150,1.61697260,507,1026,1681,304,592,987,0.29251216,0.56988931,0.94930890,0.39435809,0.88688231,2.56159032
17115,0,USIllinoisMacon,Illinois,Macon,2021-04-04 12:16:05.850534,2021-04-09 00:00:00.000000,0.47057397,0.97730601,1.62314412,489,1016,1688,295,589,983,0.28419806,0.56701990,0.94561786,0.39435015,0.88615286,2.56143829
17115,0,USIllinoisMacon,Illinois,Macon,2021-04-04 12:16:05.850534,2021-04-10 00:00:00.000000,0.45358958,0.97358680,1.61728602,471,1012,1682,287,586,979,0.27613856,0.56399742,0.94160543,0.39434756,0.88595178,2.56138800
17115,0,USIllinoisMacon,Illinois,Macon,2021-04-04 12:16:05.850534,2021-04-11 00:00:00.000000,0.43710303,0.96987435,1.59891946,454,1008,1663,278,583,981,0.26771486,0.56095991,0.94370548,0.39434671,0.88589656,2.56137146
17115,0,USIllinoisMacon,Illinois,Macon,2021-04-04 12:16:05.850534,2021-04-12 00:00:00.000000,0.42118139,0.96620874,1.58026726,438,1004,1643,263,582,981,0.25368599,0.56013356,0.94374492,0.39434644,0.88588141,2.56136604
17115,0,USIllinoisMacon,Illinois,Macon,2021-04-04 12:16:05.850534,2021-04-13 00:00:00.000000,0.40581303,0.96889911,1.56135095,422,1007,1623,252,581,979,0.24251338,0.55914711,0.94161726,0.39434635,0.88587725,2.56136428
17115,0,USIllinoisMacon,Illinois,Macon,2021-04-04 12:16:05.850534,2021-04-14 00:00:00.000000,0.39116183,0.96344057,1.56797201,406,1002,1630,244,578,976,0.23464039,0.55573062,0.93916788,0.39434632,0.88587612,2.56136371
17115,0,USIllinoisMacon,Illinois,Macon,2021-04-04 12:16:05.850534,2021-04-15 00:00:00.000000,0.37662909,0.95778359,1.58340531,391,996,1646,236,571,973,0.22703356,0.54969649,0.93640077,0.39434631,0.88587580,2.56136353
17115,0,USIllinoisMacon,Illinois,Macon,2021-04-04 12:16:05.850534,2021-04-16 00:00:00.000000,0.36050710,0.95193492,1.59827809,374,990,1662,228,566,976,0.21967691,0.54452039,0.93908474,0.39434630,0.88587572,2.56136347
