FIPS,HR_UID,nameid,province,region,analysisTime,dates,pointprevalence_025,pointprevalence_50,pointprevalence_975,pointinfections_025,pointinfections_50,pointinfections_975,pointinfectious_025,pointinfectious_50,pointinfectious_975,pointinfectiousprevalence_05,pointinfectiousprevalence_50,pointinfectiousprevalence_95,infectrate_025,infectrate_50,infectrate_975
5011,0,USArkansasBradley,Arkansas,Bradley,2021-04-04 13:48:35.149300,2020-03-09 00:00:00.000000,0.00289743,0.02202011,0.12860785,0,2,13,0,1,8,0.00167866,0.01230401,0.07688069,0.35487156,0.48011531,0.76113418
5011,0,USArkansasBradley,Arkansas,Bradley,2021-04-04 13:48:35.149300,2020-03-10 00:00:00.000000,0.00321718,0.02489082,0.14207816,0,2,15,0,1,7,0.00160517,0.01238457,0.07370281,0.35483068,0.48009661,0.76113204
5011,0,USArkansasBradley,Arkansas,Bradley,2021-04-04 13:48:35.149300,2020-03-11 00:00:00.000000,0.00353612,0.02738857,0.15404076,0,2,16,0,1,8,0.00163413,0.01249896,0.07435212,0.35475440,0.48003509,0.76112636
5011,0,USArkansasBradley,Arkansas,Bradley,2021-04-04 13:48:35.149300,2020-03-12 00:00:00.000000,0.00386266,0.02995501,0.16403323,0,3,17,0,1,8,0.00172309,0.01322338,0.07743938,0.35461214,0.47983304,0.76111129
5011,0,USArkansasBradley,Arkansas,Bradley,2021-04-04 13:48:35.149300,2020-03-13 00:00:00.000000,0.00420254,0.03257122,0.17443531,0,3,18,0,1,8,0.00184881,0.01446744,0.08189940,0.35434705,0.47955041,0.76107132
5011,0,USArkansasBradley,Arkansas,Bradley,2021-04-04 13:48:35.149300,2020-03-14 00:00:00.000000,0.00455975,0.03519511,0.18520698,0,3,19,0,1,9,0.00199885,0.01586699,0.08552808,0.35385365,0.47954996,0.76096535
5011,0,USArkansasBradley,Arkansas,Bradley,2021-04-04 13:48:35.149300,2020-03-15 00:00:00.000000,0.00493675,0.03824645,0.19593255,0,4,21,0,1,9,0.00216678,0.01730073,0.08985562,0.35293587,0.47540693,0.76068454
5011,0,USArkansasBradley,Arkansas,Bradley,2021-04-04 13:48:35.149300,2020-03-16 00:00:00.000000,0.01065102,0.05068507,0.21503624,1,5,23,0,2,10,0.00234935,0.01874610,0.09464794,0.32740534,0.47444059,0.75994160
5011,0,USArkansasBradley,Arkansas,Bradley,2021-04-04 13:48:35.149300,2020-03-17 00:00:00.000000,0.01606442,0.06062210,0.23205537,1,6,24,0,2,10,0.00330565,0.02183799,0.10120308,0.30991084,0.46978613,0.75798427
5011,0,USArkansasBradley,Arkansas,Bradley,2021-04-04 13:48:35.149300,2020-03-18 00:00:00.000000,0.02129796,0.07549515,0.24741671,2,8,26,0,2,11,0.00495362,0.02639667,0.10860191,0.28680773,0.46284415,0.75288379
5011,0,USArkansasBradley,Arkansas,Bradley,2021-04-04 13:48:35.149300,2020-03-19 00:00:00.000000,0.02779344,0.08889707,0.26198165,2,9,28,0,3,12,0.00748813,0.03178814,0.11624627,0.26435799,0.45760983,0.73155917
5011,0,USArkansasBradley,Arkansas,Bradley,2021-04-04 13:48:35.149300,2020-03-20 00:00:00.000000,0.03457674,0.10212513,0.27637090,3,10,29,1,4,13,0.01004307,0.03791851,0.12390215,0.24408292,0.42982782,0.65359416
5011,0,USArkansasBradley,Arkansas,Bradley,2021-04-04 13:48:35.149300,2020-03-21 00:00:00.000000,0.04168547,0.11641661,0.29084356,4,12,31,1,4,14,0.01262869,0.04532757,0.13153351,0.23890848,0.41030715,0.60243285
5011,0,USArkansasBradley,Arkansas,Bradley,2021-04-04 13:48:35.149300,2020-03-22 00:00:00.000000,0.04839637,0.13030643,0.31944864,5,14,34,1,5,14,0.01592525,0.05254332,0.13916651,0.23083863,0.38502871,0.57059257
5011,0,USArkansasBradley,Arkansas,Bradley,2021-04-04 13:48:35.149300,2020-03-23 00:00:00.000000,0.05740641,0.14554667,0.32512248,6,15,34,2,6,15,0.01944493,0.05980822,0.14683293,0.22821179,0.36096916,0.55756203
5011,0,USArkansasBradley,Arkansas,Bradley,2021-04-04 13:48:35.149300,2020-03-24 00:00:00.000000,0.06651609,0.15859267,0.33047856,7,17,35,2,7,16,0.02387332,0.06722801,0.15397044,0.22453030,0.34585886,0.53662563
5011,0,USArkansasBradley,Arkansas,Bradley,2021-04-04 13:48:35.149300,2020-03-25 00:00:00.000000,0.07918917,0.17116059,0.34006688,8,18,36,2,8,17,0.02747027,0.07555966,0.16222317,0.21005991,0.32136221,0.51033686
5011,0,USArkansasBradley,Arkansas,Bradley,2021-04-04 13:48:35.149300,2020-03-26 00:00:00.000000,0.09439560,0.18886906,0.37715806,10,20,40,3,9,19,0.03294188,0.08364639,0.17805070,0.19495116,0.30271845,0.48394072
5011,0,USArkansasBradley,Arkansas,Bradley,2021-04-04 13:48:35.149300,2020-03-27 00:00:00.000000,0.10914242,0.20864515,0.41649815,11,22,44,4,9,20,0.04039663,0.09245474,0.19430705,0.17946561,0.28924038,0.45798873
5011,0,USArkansasBradley,Arkansas,Bradley,2021-04-04 13:48:35.149300,2020-03-28 00:00:00.000000,0.11808802,0.22312960,0.45665732,12,24,49,5,11,22,0.04660196,0.10336660,0.21034818,0.17494336,0.27774625,0.42790105
5011,0,USArkansasBradley,Arkansas,Bradley,2021-04-04 13:48:35.149300,2020-03-29 00:00:00.000000,0.12623226,0.24061955,0.49781544,13,25,53,5,11,24,0.05293604,0.11125287,0.22618441,0.15545771,0.25801377,0.40691224
5011,0,USArkansasBradley,Arkansas,Bradley,2021-04-04 13:48:35.149300,2020-03-30 00:00:00.000000,0.13466111,0.25557657,0.53820874,14,27,57,6,13,26,0.05931756,0.12155874,0.24846676,0.14897785,0.24644070,0.39052439
5011,0,USArkansasBradley,Arkansas,Bradley,2021-04-04 13:48:35.149300,2020-03-31 00:00:00.000000,0.14441561,0.27649131,0.55691810,15,29,59,6,14,29,0.06448345,0.13164784,0.27097862,0.14758365,0.24006962,0.37957160
5011,0,USArkansasBradley,Arkansas,Bradley,2021-04-04 13:48:35.149300,2020-04-01 00:00:00.000000,0.15096364,0.28698918,0.55020399,16,30,59,7,15,31,0.06876363,0.14061162,0.29340175,0.14681116,0.23732582,0.36017565
5011,0,USArkansasBradley,Arkansas,Bradley,2021-04-04 13:48:35.149300,2020-04-02 00:00:00.000000,0.15768248,0.30329034,0.54292640,16,32,58,8,15,34,0.07549788,0.14761453,0.31621708,0.14429359,0.23322206,0.34831155
5011,0,USArkansasBradley,Arkansas,Bradley,2021-04-04 13:48:35.149300,2020-04-03 00:00:00.000000,0.16308305,0.30813800,0.53463545,17,33,57,8,16,33,0.07968973,0.15403168,0.31437949,0.14076501,0.23171788,0.32899418
5011,0,USArkansasBradley,Arkansas,Bradley,2021-04-04 13:48:35.149300,2020-04-04 00:00:00.000000,0.16786651,0.32814387,0.56403279,18,35,60,9,17,33,0.08403683,0.16109746,0.31053131,0.13625605,0.22628082,0.32370986
5011,0,USArkansasBradley,Arkansas,Bradley,2021-04-04 13:48:35.149300,2020-04-05 00:00:00.000000,0.17236895,0.34430700,0.59482713,18,37,64,9,18,32,0.08778690,0.16739025,0.30584315,0.13219094,0.21868529,0.32195677
5011,0,USArkansasBradley,Arkansas,Bradley,2021-04-04 13:48:35.149300,2020-04-06 00:00:00.000000,0.18890520,0.35211533,0.59399480,20,37,63,9,18,32,0.09091098,0.17431086,0.30022529,0.12877429,0.21226862,0.31786696
5011,0,USArkansasBradley,Arkansas,Bradley,2021-04-04 13:48:35.149300,2020-04-07 00:00:00.000000,0.20600516,0.36294328,0.59220103,22,39,63,10,19,31,0.09730681,0.17982026,0.29465254,0.12486271,0.20209153,0.30577160
5011,0,USArkansasBradley,Arkansas,Bradley,2021-04-04 13:48:35.149300,2020-04-08 00:00:00.000000,0.22413800,0.37363509,0.58913248,24,40,63,11,19,31,0.10495172,0.18551109,0.28910691,0.12457707,0.19201537,0.29642529
5011,0,USArkansasBradley,Arkansas,Bradley,2021-04-04 13:48:35.149300,2020-04-09 00:00:00.000000,0.22942295,0.38815916,0.58503625,24,41,62,11,20,31,0.10653885,0.19285689,0.29190556,0.11547978,0.18459389,0.28798223
5011,0,USArkansasBradley,Arkansas,Bradley,2021-04-04 13:48:35.149300,2020-04-10 00:00:00.000000,0.22771417,0.39621364,0.58633219,24,42,63,12,21,31,0.11561677,0.19822566,0.29644876,0.10531252,0.18228647,0.28242211
5011,0,USArkansasBradley,Arkansas,Bradley,2021-04-04 13:48:35.149300,2020-04-11 00:00:00.000000,0.22486489,0.40168217,0.64445032,24,43,69,13,22,32,0.12366415,0.20543798,0.30032494,0.10263301,0.17642957,0.26886728
5011,0,USArkansasBradley,Arkansas,Bradley,2021-04-04 13:48:35.149300,2020-04-12 00:00:00.000000,0.23562986,0.39838108,0.70034232,25,42,75,13,22,32,0.12650456,0.20931402,0.30381402,0.10154978,0.17344801,0.25813255
5011,0,USArkansasBradley,Arkansas,Bradley,2021-04-04 13:48:35.149300,2020-04-13 00:00:00.000000,0.23403841,0.39974633,0.70866268,25,43,76,13,22,33,0.12900468,0.21123237,0.30719450,0.10116061,0.16834363,0.25837985
5011,0,USArkansasBradley,Arkansas,Bradley,2021-04-04 13:48:35.149300,2020-04-14 00:00:00.000000,0.23198289,0.40995444,0.71461553,24,44,76,14,23,33,0.13261883,0.21515849,0.31431055,0.10103893,0.16457153,0.25760793
5011,0,USArkansasBradley,Arkansas,Bradley,2021-04-04 13:48:35.149300,2020-04-15 00:00:00.000000,0.23428481,0.41830884,0.71728450,25,45,77,14,23,34,0.13687944,0.22205310,0.32178556,0.09939765,0.16269087,0.25518058
5011,0,USArkansasBradley,Arkansas,Bradley,2021-04-04 13:48:35.149300,2020-04-16 00:00:00.000000,0.23876164,0.41886613,0.71701267,25,45,77,15,24,35,0.14148791,0.22403841,0.32832481,0.10101997,0.16147025,0.25023543
5011,0,USArkansasBradley,Arkansas,Bradley,2021-04-04 13:48:35.149300,2020-04-17 00:00:00.000000,0.24348343,0.41982000,0.71417064,26,45,76,15,24,35,0.14296632,0.22687134,0.33412118,0.10098511,0.16069775,0.24892089
5011,0,USArkansasBradley,Arkansas,Bradley,2021-04-04 13:48:35.149300,2020-04-18 00:00:00.000000,0.24856643,0.41950772,0.70913282,26,45,76,15,25,36,0.14296913,0.23290028,0.34015005,0.10077415,0.16014797,0.23926891
5011,0,USArkansasBradley,Arkansas,Bradley,2021-04-04 13:48:35.149300,2020-04-19 00:00:00.000000,0.25414811,0.42141587,0.70243767,27,45,75,15,25,37,0.14309528,0.23549439,0.35123779,0.09591368,0.15861684,0.22691327
5011,0,USArkansasBradley,Arkansas,Bradley,2021-04-04 13:48:35.149300,2020-04-20 00:00:00.000000,0.26366519,0.42160204,0.69130505,28,45,74,15,25,38,0.14334162,0.23791161,0.36124335,0.09577706,0.15663578,0.21720252
5011,0,USArkansasBradley,Arkansas,Bradley,2021-04-04 13:48:35.149300,2020-04-21 00:00:00.000000,0.27316789,0.42188263,0.68862019,29,45,74,15,25,40,0.14498865,0.23676784,0.37335534,0.09344693,0.15542648,0.21480858
5011,0,USArkansasBradley,Arkansas,Bradley,2021-04-04 13:48:35.149300,2020-04-22 00:00:00.000000,0.28229071,0.42343012,0.71011821,30,45,76,15,25,40,0.14759802,0.23882943,0.38089572,0.09151308,0.15475920,0.21517194
5011,0,USArkansasBradley,Arkansas,Bradley,2021-04-04 13:48:35.149300,2020-04-23 00:00:00.000000,0.28735578,0.42839742,0.73079035,30,46,78,16,25,41,0.15085623,0.23828694,0.38320319,0.09040673,0.15158584,0.21896570
5011,0,USArkansasBradley,Arkansas,Bradley,2021-04-04 13:48:35.149300,2020-04-24 00:00:00.000000,0.27833874,0.43018380,0.75061043,29,46,80,16,25,41,0.15347858,0.23800389,0.38174921,0.08997900,0.14983171,0.22483385
5011,0,USArkansasBradley,Arkansas,Bradley,2021-04-04 13:48:35.149300,2020-04-25 00:00:00.000000,0.28583679,0.43275906,0.76646498,30,46,82,16,25,41,0.14998969,0.23894468,0.38207865,0.09042375,0.14749916,0.22241238
5011,0,USArkansasBradley,Arkansas,Bradley,2021-04-04 13:48:35.149300,2020-04-26 00:00:00.000000,0.28167994,0.43410342,0.76061887,30,46,81,16,26,42,0.15608075,0.24324203,0.39402577,0.08948663,0.14580078,0.22280598
5011,0,USArkansasBradley,Arkansas,Bradley,2021-04-04 13:48:35.149300,2020-04-27 00:00:00.000000,0.27307883,0.43198103,0.75968012,29,46,81,17,26,43,0.16225129,0.24247683,0.40540435,0.09042427,0.14462494,0.22173767
5011,0,USArkansasBradley,Arkansas,Bradley,2021-04-04 13:48:35.149300,2020-04-28 00:00:00.000000,0.26481019,0.43115868,0.74967107,28,46,80,18,25,44,0.16729231,0.24079423,0.41329746,0.09267318,0.14298274,0.22043499
5011,0,USArkansasBradley,Arkansas,Bradley,2021-04-04 13:48:35.149300,2020-04-29 00:00:00.000000,0.25684235,0.43475753,0.74022503,27,46,79,17,25,43,0.16213357,0.24013966,0.40671667,0.09577489,0.14351907,0.21904883
5011,0,USArkansasBradley,Arkansas,Bradley,2021-04-04 13:48:35.149300,2020-04-30 00:00:00.000000,0.25092785,0.43096696,0.73119414,27,46,78,16,25,43,0.15719181,0.24034811,0.40784267,0.09583822,0.14262185,0.21752071
5011,0,USArkansasBradley,Arkansas,Bradley,2021-04-04 13:48:35.149300,2020-05-01 00:00:00.000000,0.24946708,0.43037760,0.72212178,26,46,77,16,25,43,0.15238976,0.23971240,0.40228176,0.09553971,0.14234495,0.21606816
5011,0,USArkansasBradley,Arkansas,Bradley,2021-04-04 13:48:35.149300,2020-05-02 00:00:00.000000,0.24846172,0.42461138,0.72681451,26,45,78,15,25,43,0.14759968,0.24018147,0.40607808,0.09244543,0.13861444,0.21558519
5011,0,USArkansasBradley,Arkansas,Bradley,2021-04-04 13:48:35.149300,2020-05-03 00:00:00.000000,0.24786112,0.41852875,0.73518384,26,45,79,15,25,44,0.14276060,0.24073810,0.41320153,0.09046363,0.13269679,0.21502099
5011,0,USArkansasBradley,Arkansas,Bradley,2021-04-04 13:48:35.149300,2020-05-04 00:00:00.000000,0.24602225,0.41943177,0.74491343,26,45,80,14,25,45,0.13794126,0.23941566,0.41973350,0.09256946,0.13539452,0.21441659
5011,0,USArkansasBradley,Arkansas,Bradley,2021-04-04 13:48:35.149300,2020-05-05 00:00:00.000000,0.24437594,0.41771183,0.75400879,26,44,81,14,25,45,0.13601196,0.23737795,0.42604834,0.09282705,0.13646255,0.21429767
5011,0,USArkansasBradley,Arkansas,Bradley,2021-04-04 13:48:35.149300,2020-05-06 00:00:00.000000,0.24289752,0.41702860,0.76225354,26,44,82,14,25,46,0.13574511,0.23491224,0.43211625,0.09288355,0.13603384,0.21679675
5011,0,USArkansasBradley,Arkansas,Bradley,2021-04-04 13:48:35.149300,2020-05-07 00:00:00.000000,0.24163695,0.42273574,0.76929550,26,45,82,14,25,47,0.13643095,0.23495972,0.43786600,0.09522080,0.13997957,0.21521689
5011,0,USArkansasBradley,Arkansas,Bradley,2021-04-04 13:48:35.149300,2020-05-08 00:00:00.000000,0.24077347,0.42985720,0.77492985,25,46,83,14,25,47,0.13766407,0.23957565,0.44318751,0.09629125,0.14116845,0.21068348
5011,0,USArkansasBradley,Arkansas,Bradley,2021-04-04 13:48:35.149300,2020-05-09 00:00:00.000000,0.24380187,0.43311586,0.77926166,26,46,83,14,25,48,0.13911642,0.24001431,0.44796681,0.09432975,0.13991178,0.21073140
5011,0,USArkansasBradley,Arkansas,Bradley,2021-04-04 13:48:35.149300,2020-05-10 00:00:00.000000,0.23999169,0.43487687,0.79507067,25,46,85,14,25,48,0.13881383,0.23931195,0.45213848,0.09339245,0.14024293,0.21482018
5011,0,USArkansasBradley,Arkansas,Bradley,2021-04-04 13:48:35.149300,2020-05-11 00:00:00.000000,0.23811234,0.44584300,0.81310933,25,47,87,14,25,48,0.13506361,0.23927143,0.45204424,0.09369904,0.14382913,0.22257873
5011,0,USArkansasBradley,Arkansas,Bradley,2021-04-04 13:48:35.149300,2020-05-12 00:00:00.000000,0.23713294,0.45477719,0.82994030,25,48,89,15,25,48,0.14102622,0.24011456,0.45258830,0.09717485,0.14395953,0.22178129
5011,0,USArkansasBradley,Arkansas,Bradley,2021-04-04 13:48:35.149300,2020-05-13 00:00:00.000000,0.23702842,0.45255568,0.83853704,25,48,90,14,26,48,0.13851442,0.24204049,0.45367558,0.10148669,0.14618998,0.21920494
5011,0,USArkansasBradley,Arkansas,Bradley,2021-04-04 13:48:35.149300,2020-05-14 00:00:00.000000,0.23796802,0.45838494,0.84161623,25,49,90,14,26,48,0.13571253,0.24413678,0.45494880,0.10335209,0.14807798,0.22216940
5011,0,USArkansasBradley,Arkansas,Bradley,2021-04-04 13:48:35.149300,2020-05-15 00:00:00.000000,0.23980745,0.45413826,0.84473707,25,48,90,14,26,49,0.13242322,0.24622086,0.45633190,0.10223366,0.14958335,0.22813571
5011,0,USArkansasBradley,Arkansas,Bradley,2021-04-04 13:48:35.149300,2020-05-16 00:00:00.000000,0.23868086,0.45674355,0.84786459,25,49,91,13,26,49,0.12910179,0.25003912,0.45780428,0.10086681,0.15327200,0.22944755
5011,0,USArkansasBradley,Arkansas,Bradley,2021-04-04 13:48:35.149300,2020-05-17 00:00:00.000000,0.24159674,0.45672894,0.85093091,26,49,91,13,27,49,0.12588676,0.25193549,0.45935127,0.09946896,0.15757446,0.22955145
5011,0,USArkansasBradley,Arkansas,Bradley,2021-04-04 13:48:35.149300,2020-05-18 00:00:00.000000,0.24172387,0.46387065,0.85090146,26,49,91,13,27,49,0.12391579,0.25325972,0.46095162,0.09930033,0.15862616,0.22936318
5011,0,USArkansasBradley,Arkansas,Bradley,2021-04-04 13:48:35.149300,2020-05-19 00:00:00.000000,0.24161414,0.46362525,0.85080405,26,49,91,13,27,49,0.12677537,0.25479406,0.46208963,0.10096005,0.15963848,0.22882245
5011,0,USArkansasBradley,Arkansas,Bradley,2021-04-04 13:48:35.149300,2020-05-20 00:00:00.000000,0.24828868,0.46733224,0.85065319,26,50,91,13,27,49,0.12898168,0.25796785,0.46288474,0.10281897,0.16022928,0.22756313
5011,0,USArkansasBradley,Arkansas,Bradley,2021-04-04 13:48:35.149300,2020-05-21 00:00:00.000000,0.25648208,0.47654192,0.83963133,27,51,90,14,28,49,0.13153614,0.26512942,0.46343513,0.10285628,0.16639433,0.22479457
5011,0,USArkansasBradley,Arkansas,Bradley,2021-04-04 13:48:35.149300,2020-05-22 00:00:00.000000,0.26542511,0.48937431,0.82734569,28,52,89,14,28,49,0.13731654,0.26926113,0.46388537,0.10285842,0.16955791,0.23618646
5011,0,USArkansasBradley,Arkansas,Bradley,2021-04-04 13:48:35.149300,2020-05-23 00:00:00.000000,0.27249625,0.49217933,0.82115942,29,52,88,15,29,50,0.14419422,0.27504351,0.46481550,0.10674196,0.17433702,0.22782999
5011,0,USArkansasBradley,Arkansas,Bradley,2021-04-04 13:48:35.149300,2020-05-24 00:00:00.000000,0.27870947,0.51429921,0.82584849,29,55,88,16,30,50,0.15061015,0.28318594,0.46784307,0.11368772,0.17792902,0.22947950
5011,0,USArkansasBradley,Arkansas,Bradley,2021-04-04 13:48:35.149300,2020-05-25 00:00:00.000000,0.28842424,0.52442534,0.86491479,31,56,93,16,31,50,0.15559497,0.28981859,0.47354118,0.11739934,0.17890726,0.24169150
5011,0,USArkansasBradley,Arkansas,Bradley,2021-04-04 13:48:35.149300,2020-05-26 00:00:00.000000,0.29831469,0.53369370,0.90375483,32,57,97,16,31,51,0.15675620,0.29527006,0.48035413,0.11523723,0.17406849,0.24146346
5011,0,USArkansasBradley,Arkansas,Bradley,2021-04-04 13:48:35.149300,2020-05-27 00:00:00.000000,0.30827547,0.54512037,0.92847780,33,58,99,17,32,52,0.16407321,0.29851569,0.48770529,0.12120687,0.17579869,0.24736194
5011,0,USArkansasBradley,Arkansas,Bradley,2021-04-04 13:48:35.149300,2020-05-28 00:00:00.000000,0.30964790,0.55661670,0.92848343,33,59,99,17,32,54,0.16302075,0.30070539,0.50343552,0.12031140,0.17407613,0.25506374
5011,0,USArkansasBradley,Arkansas,Bradley,2021-04-04 13:48:35.149300,2020-05-29 00:00:00.000000,0.31041313,0.55507959,0.95438836,33,59,102,17,32,55,0.15835698,0.30428552,0.51642374,0.12124873,0.17578542,0.25114034
5011,0,USArkansasBradley,Arkansas,Bradley,2021-04-04 13:48:35.149300,2020-05-30 00:00:00.000000,0.30792435,0.55625468,0.97851681,33,59,105,16,33,57,0.15477542,0.30917878,0.53099568,0.12806200,0.17702926,0.23750233
5011,0,USArkansasBradley,Arkansas,Bradley,2021-04-04 13:48:35.149300,2020-05-31 00:00:00.000000,0.30006252,0.55676714,0.97796924,32,59,105,16,33,58,0.15390886,0.31471880,0.54643527,0.13133127,0.18307079,0.26209135
5011,0,USArkansasBradley,Arkansas,Bradley,2021-04-04 13:48:35.149300,2020-06-01 00:00:00.000000,0.32552843,0.55996433,0.98855445,35,60,106,16,33,58,0.14985059,0.31548773,0.54634094,0.12991386,0.18758162,0.27479624
5011,0,USArkansasBradley,Arkansas,Bradley,2021-04-04 13:48:35.149300,2020-06-02 00:00:00.000000,0.36496397,0.57782020,1.00045551,39,62,107,16,34,58,0.15419345,0.31906295,0.54732777,0.13060658,0.18786586,0.28617165
5011,0,USArkansasBradley,Arkansas,Bradley,2021-04-04 13:48:35.149300,2020-06-03 00:00:00.000000,0.37645030,0.59246545,1.05379549,40,63,113,17,34,60,0.16466247,0.32277551,0.55885505,0.13159660,0.18991184,0.29620576
5011,0,USArkansasBradley,Arkansas,Bradley,2021-04-04 13:48:35.149300,2020-06-04 00:00:00.000000,0.38155707,0.62460585,1.10860283,41,67,119,19,36,62,0.18010726,0.33594910,0.58479889,0.13280905,0.19762342,0.29885175
5011,0,USArkansasBradley,Arkansas,Bradley,2021-04-04 13:48:35.149300,2020-06-05 00:00:00.000000,0.39240517,0.64839151,1.14373767,42,69,123,21,37,65,0.19941121,0.35055563,0.61279760,0.13298130,0.20126590,0.30261062
5011,0,USArkansasBradley,Arkansas,Bradley,2021-04-04 13:48:35.149300,2020-06-06 00:00:00.000000,0.40354208,0.67267951,1.15966822,43,72,124,22,38,69,0.21064295,0.35606387,0.64266894,0.13145273,0.20462233,0.30702409
5011,0,USArkansasBradley,Arkansas,Bradley,2021-04-04 13:48:35.149300,2020-06-07 00:00:00.000000,0.41482973,0.69854034,1.17610305,44,75,126,23,39,70,0.21610764,0.36587613,0.65663680,0.14166570,0.20719339,0.31082345
5011,0,USArkansasBradley,Arkansas,Bradley,2021-04-04 13:48:35.149300,2020-06-08 00:00:00.000000,0.44080392,0.72234586,1.16786171,47,77,125,23,40,71,0.22180672,0.37280764,0.66650989,0.15160781,0.20860355,0.31325465
5011,0,USArkansasBradley,Arkansas,Bradley,2021-04-04 13:48:35.149300,2020-06-09 00:00:00.000000,0.46125197,0.73619371,1.16060007,49,79,124,24,40,72,0.23145765,0.37659065,0.67118627,0.15375854,0.21286432,0.32429201
5011,0,USArkansasBradley,Arkansas,Bradley,2021-04-04 13:48:35.149300,2020-06-10 00:00:00.000000,0.47483672,0.74085891,1.18221889,51,79,127,26,41,72,0.24341708,0.38279295,0.67246098,0.15606570,0.21405241,0.32418621
5011,0,USArkansasBradley,Arkansas,Bradley,2021-04-04 13:48:35.149300,2020-06-11 00:00:00.000000,0.48147196,0.77007033,1.20584235,51,82,129,27,42,72,0.25652015,0.39179876,0.67228379,0.15822494,0.21644749,0.32240940
5011,0,USArkansasBradley,Arkansas,Bradley,2021-04-04 13:48:35.149300,2020-06-12 00:00:00.000000,0.48805784,0.78821715,1.22380164,52,84,131,28,44,73,0.26237839,0.40944450,0.68580410,0.16094442,0.23519426,0.32010449
5011,0,USArkansasBradley,Arkansas,Bradley,2021-04-04 13:48:35.149300,2020-06-13 00:00:00.000000,0.49708265,0.80726387,1.25509626,53,86,135,28,44,75,0.26629315,0.41539386,0.69997581,0.16534046,0.23298079,0.32942772
5011,0,USArkansasBradley,Arkansas,Bradley,2021-04-04 13:48:35.149300,2020-06-14 00:00:00.000000,0.51184693,0.85131791,1.29861441,55,91,139,29,45,76,0.27008325,0.42607141,0.71114278,0.16834318,0.24144982,0.33973308
5011,0,USArkansasBradley,Arkansas,Bradley,2021-04-04 13:48:35.149300,2020-06-15 00:00:00.000000,0.53007444,0.87332733,1.34095139,57,93,144,29,47,77,0.27382782,0.43987081,0.72301513,0.16459425,0.25041582,0.34603682
5011,0,USArkansasBradley,Arkansas,Bradley,2021-04-04 13:48:35.149300,2020-06-16 00:00:00.000000,0.55125528,0.89780513,1.39583521,59,96,150,30,49,79,0.27984601,0.45923462,0.73596046,0.16170829,0.25765541,0.35814647
5011,0,USArkansasBradley,Arkansas,Bradley,2021-04-04 13:48:35.149300,2020-06-17 00:00:00.000000,0.57161469,0.92849918,1.45421807,61,99,156,30,50,80,0.28582564,0.46897311,0.74847089,0.16204598,0.26799595,0.37846207
5011,0,USArkansasBradley,Arkansas,Bradley,2021-04-04 13:48:35.149300,2020-06-18 00:00:00.000000,0.59617776,0.95874123,1.52650938,64,103,164,31,51,81,0.29570895,0.48099479,0.76155898,0.17297337,0.27507199,0.38788600
5011,0,USArkansasBradley,Arkansas,Bradley,2021-04-04 13:48:35.149300,2020-06-19 00:00:00.000000,0.62075689,0.99321754,1.59939520,66,106,172,32,53,83,0.30266322,0.49244190,0.77613903,0.18829872,0.28183494,0.39397141
5011,0,USArkansasBradley,Arkansas,Bradley,2021-04-04 13:48:35.149300,2020-06-20 00:00:00.000000,0.64550833,1.03554835,1.66505721,69,111,179,33,55,85,0.30739867,0.51109337,0.79422177,0.19682093,0.28750974,0.40204311
5011,0,USArkansasBradley,Arkansas,Bradley,2021-04-04 13:48:35.149300,2020-06-21 00:00:00.000000,0.66608937,1.06502754,1.75191540,71,114,188,33,57,89,0.31361962,0.53786068,0.83306677,0.19617433,0.29496569,0.41017098
5011,0,USArkansasBradley,Arkansas,Bradley,2021-04-04 13:48:35.149300,2020-06-22 00:00:00.000000,0.68848702,1.11074839,1.83517279,74,119,197,34,60,97,0.32136945,0.56176825,0.90194553,0.20688926,0.29764580,0.42429447
5011,0,USArkansasBradley,Arkansas,Bradley,2021-04-04 13:48:35.149300,2020-06-23 00:00:00.000000,0.74323400,1.17074037,1.91066986,79,126,205,36,63,103,0.34326583,0.59051056,0.96230982,0.21283717,0.30500814,0.43326232
5011,0,USArkansasBradley,Arkansas,Bradley,2021-04-04 13:48:35.149300,2020-06-24 00:00:00.000000,0.78113042,1.21352253,1.97390286,84,130,212,40,65,109,0.37468653,0.60595562,1.01547034,0.21452018,0.30941779,0.43815206
5011,0,USArkansasBradley,Arkansas,Bradley,2021-04-04 13:48:35.149300,2020-06-25 00:00:00.000000,0.82067104,1.28072111,2.02322859,88,137,217,44,68,114,0.41254883,0.63310740,1.06178308,0.21934684,0.31332699,0.44081089
5011,0,USArkansasBradley,Arkansas,Bradley,2021-04-04 13:48:35.149300,2020-06-26 00:00:00.000000,0.85619279,1.36420464,2.07820355,92,146,223,47,72,118,0.44167066,0.67571151,1.10198083,0.22822292,0.31522931,0.45136324
5011,0,USArkansasBradley,Arkansas,Bradley,2021-04-04 13:48:35.149300,2020-06-27 00:00:00.000000,0.88015141,1.42523530,2.15724420,94,153,232,48,76,122,0.45215226,0.70876912,1.13727715,0.23360871,0.31944297,0.45439954
5011,0,USArkansasBradley,Arkansas,Bradley,2021-04-04 13:48:35.149300,2020-06-28 00:00:00.000000,0.90844730,1.49428516,2.22326158,97,160,239,49,79,125,0.45982817,0.73587593,1.16896652,0.23644488,0.32669780,0.46549553
5011,0,USArkansasBradley,Arkansas,Bradley,2021-04-04 13:48:35.149300,2020-06-29 00:00:00.000000,0.99302764,1.57721236,2.29272051,106,169,246,50,82,128,0.47017115,0.76203326,1.19815160,0.23925881,0.33637962,0.46689511
5011,0,USArkansasBradley,Arkansas,Bradley,2021-04-04 13:48:35.149300,2020-06-30 00:00:00.000000,1.04167989,1.65596272,2.37423807,112,178,255,54,86,131,0.51022195,0.79959811,1.22321425,0.23964510,0.33816677,0.46688497
5011,0,USArkansasBradley,Arkansas,Bradley,2021-04-04 13:48:35.149300,2020-07-01 00:00:00.000000,1.09402184,1.71262780,2.47386753,117,184,266,60,90,134,0.56411387,0.83824743,1.24541935,0.24148154,0.33999734,0.46208416
5011,0,USArkansasBradley,Arkansas,Bradley,2021-04-04 13:48:35.149300,2020-07-02 00:00:00.000000,1.14394265,1.78603307,2.57644676,123,192,277,64,94,139,0.59537702,0.87589724,1.29982389,0.24579268,0.34105197,0.46651243
5011,0,USArkansasBradley,Arkansas,Bradley,2021-04-04 13:48:35.149300,2020-07-03 00:00:00.000000,1.19938587,1.87257970,2.68095699,129,201,288,67,98,149,0.62421886,0.91195893,1.38734180,0.25178738,0.34316080,0.47256734
5011,0,USArkansasBradley,Arkansas,Bradley,2021-04-04 13:48:35.149300,2020-07-04 00:00:00.000000,1.25703149,1.92946734,2.81684154,135,207,303,71,102,158,0.66528433,0.94865966,1.46958696,0.25732674,0.34096690,0.47442087
5011,0,USArkansasBradley,Arkansas,Bradley,2021-04-04 13:48:35.149300,2020-07-05 00:00:00.000000,1.31661370,2.01138450,2.95260497,141,216,317,75,106,166,0.70607959,0.98749879,1.54556088,0.25564030,0.34248220,0.46746080
5011,0,USArkansasBradley,Arkansas,Bradley,2021-04-04 13:48:35.149300,2020-07-06 00:00:00.000000,1.42046038,2.08574022,3.07395945,152,224,330,80,109,173,0.74673114,1.02123275,1.61635805,0.25905401,0.34814951,0.47094778
5011,0,USArkansasBradley,Arkansas,Bradley,2021-04-04 13:48:35.149300,2020-07-07 00:00:00.000000,1.52739407,2.14415265,3.19653466,164,230,344,85,113,181,0.79456372,1.05610341,1.68222605,0.26039968,0.34716279,0.46963749
5011,0,USArkansasBradley,Arkansas,Bradley,2021-04-04 13:48:35.149300,2020-07-08 00:00:00.000000,1.63384960,2.22465282,3.32127194,175,239,357,90,118,187,0.84310446,1.10148485,1.74501206,0.26029535,0.34548280,0.46209462
5011,0,USArkansasBradley,Arkansas,Bradley,2021-04-04 13:48:35.149300,2020-07-09 00:00:00.000000,1.72260995,2.30776948,3.44975986,185,248,371,93,123,194,0.87192656,1.14853896,1.80959111,0.26149886,0.33950814,0.44755277
5011,0,USArkansasBradley,Arkansas,Bradley,2021-04-04 13:48:35.149300,2020-07-10 00:00:00.000000,1.76583815,2.38535099,3.58293529,190,256,385,100,127,204,0.93007051,1.18603779,1.90288961,0.26494444,0.33042390,0.42944034
5011,0,USArkansasBradley,Arkansas,Bradley,2021-04-04 13:48:35.149300,2020-07-11 00:00:00.000000,1.80707416,2.48892685,3.72354560,194,267,400,103,132,212,0.96027513,1.22704885,1.97740764,0.27269506,0.33438939,0.42187871
5011,0,USArkansasBradley,Arkansas,Bradley,2021-04-04 13:48:35.149300,2020-07-12 00:00:00.000000,1.84885642,2.58638775,3.87264567,198,278,416,104,135,221,0.97501538,1.26214835,2.05353218,0.26708398,0.33663269,0.41869404
5011,0,USArkansasBradley,Arkansas,Bradley,2021-04-04 13:48:35.149300,2020-07-13 00:00:00.000000,1.90392447,2.65974357,4.01646538,204,286,432,106,142,229,0.99032927,1.32782440,2.13136222,0.26575074,0.33560161,0.41550641
5011,0,USArkansasBradley,Arkansas,Bradley,2021-04-04 13:48:35.149300,2020-07-14 00:00:00.000000,1.95889711,2.73040934,4.15671878,210,293,447,107,147,237,1.00343206,1.37299974,2.21081683,0.26564471,0.33631503,0.42531355
5011,0,USArkansasBradley,Arkansas,Bradley,2021-04-04 13:48:35.149300,2020-07-15 00:00:00.000000,2.01438408,2.81116031,4.27075056,216,302,459,110,151,245,1.02321709,1.40518161,2.28552077,0.26545465,0.34132525,0.43032299
5011,0,USArkansasBradley,Arkansas,Bradley,2021-04-04 13:48:35.149300,2020-07-16 00:00:00.000000,2.06965681,2.91135555,4.38891910,222,313,472,113,156,251,1.05236695,1.45711381,2.33298197,0.26836003,0.34095621,0.43299521
5011,0,USArkansasBradley,Arkansas,Bradley,2021-04-04 13:48:35.149300,2020-07-17 00:00:00.000000,2.12371875,2.98964975,4.59329760,228,321,494,116,162,255,1.08281164,1.50883017,2.37703727,0.25880147,0.33981247,0.43470397
5011,0,USArkansasBradley,Arkansas,Bradley,2021-04-04 13:48:35.149300,2020-07-18 00:00:00.000000,2.17580918,3.10573905,4.76464490,234,334,512,119,168,260,1.11433961,1.56905096,2.41712128,0.25485272,0.34486501,0.43627634
5011,0,USArkansasBradley,Arkansas,Bradley,2021-04-04 13:48:35.149300,2020-07-19 00:00:00.000000,2.22624795,3.23196952,4.89427017,239,347,526,123,175,263,1.14675347,1.63155181,2.45112611,0.25166599,0.34715635,0.43662313
5011,0,USArkansasBradley,Arkansas,Bradley,2021-04-04 13:48:35.149300,2020-07-20 00:00:00.000000,2.31767272,3.36071160,5.03458263,249,361,541,126,181,269,1.17930932,1.68316424,2.50115108,0.25090045,0.35508107,0.43725260
5011,0,USArkansasBradley,Arkansas,Bradley,2021-04-04 13:48:35.149300,2020-07-21 00:00:00.000000,2.39203967,3.50348331,5.15811458,257,377,555,129,187,276,1.20734865,1.74099766,2.57092385,0.25078412,0.35394715,0.46326592
5011,0,USArkansasBradley,Arkansas,Bradley,2021-04-04 13:48:35.149300,2020-07-22 00:00:00.000000,2.48552712,3.59799358,5.26724847,267,387,566,135,193,284,1.25742941,1.79561389,2.63918274,0.25118587,0.35359989,0.45654095
5011,0,USArkansasBradley,Arkansas,Bradley,2021-04-04 13:48:35.149300,2020-07-23 00:00:00.000000,2.54864134,3.70354622,5.36319751,274,398,577,141,198,291,1.31392240,1.84693634,2.70885954,0.25565378,0.35624054,0.44212722
5011,0,USArkansasBradley,Arkansas,Bradley,2021-04-04 13:48:35.149300,2020-07-24 00:00:00.000000,2.57764313,3.78981189,5.47301489,277,407,589,147,204,304,1.37231154,1.90323103,2.82921940,0.26093070,0.35074327,0.43118442
5011,0,USArkansasBradley,Arkansas,Bradley,2021-04-04 13:48:35.149300,2020-07-25 00:00:00.000000,2.64806821,3.90764156,5.58901971,285,420,601,149,211,317,1.39004913,1.96649235,2.94944022,0.26207081,0.34941863,0.43912389
5011,0,USArkansasBradley,Arkansas,Bradley,2021-04-04 13:48:35.149300,2020-07-26 00:00:00.000000,2.80040835,4.04617194,5.70561338,301,435,614,151,216,329,1.40326775,2.01317960,3.06243901,0.26743184,0.34694215,0.44575121
5011,0,USArkansasBradley,Arkansas,Bradley,2021-04-04 13:48:35.149300,2020-07-27 00:00:00.000000,2.87441551,4.19935112,5.87322478,309,451,632,152,222,340,1.41681546,2.06795488,3.16448033,0.26368945,0.34593570,0.45118614
5011,0,USArkansasBradley,Arkansas,Bradley,2021-04-04 13:48:35.149300,2020-07-28 00:00:00.000000,2.94749630,4.31197121,6.03853645,317,464,649,154,230,350,1.43973671,2.13850737,3.25342122,0.26085377,0.34351306,0.45268422
5011,0,USArkansasBradley,Arkansas,Bradley,2021-04-04 13:48:35.149300,2020-07-29 00:00:00.000000,3.01897858,4.41032937,6.19723654,324,474,667,158,239,358,1.46919663,2.22199442,3.33248176,0.25794287,0.33971796,0.45163021
5011,0,USArkansasBradley,Arkansas,Bradley,2021-04-04 13:48:35.149300,2020-07-30 00:00:00.000000,3.08371148,4.50724769,6.34578562,331,485,682,161,247,366,1.50229434,2.30353164,3.40413838,0.25283666,0.33515036,0.44445730
5011,0,USArkansasBradley,Arkansas,Bradley,2021-04-04 13:48:35.149300,2020-07-31 00:00:00.000000,3.13711906,4.59835825,6.48502697,337,494,697,165,257,373,1.53576594,2.39437809,3.47014206,0.24676393,0.32885621,0.42719443
5011,0,USArkansasBradley,Arkansas,Bradley,2021-04-04 13:48:35.149300,2020-08-01 00:00:00.000000,3.17931311,4.66883884,6.65253171,342,502,716,168,263,380,1.56690055,2.44669169,3.53120687,0.24026109,0.32335721,0.41130590
5011,0,USArkansasBradley,Arkansas,Bradley,2021-04-04 13:48:35.149300,2020-08-02 00:00:00.000000,3.21245121,4.72917401,6.73943890,345,509,725,171,269,385,1.59396689,2.50523806,3.58265541,0.20824861,0.31361635,0.39754740
5011,0,USArkansasBradley,Arkansas,Bradley,2021-04-04 13:48:35.149300,2020-08-03 00:00:00.000000,3.32627638,4.77662692,6.84120806,358,514,736,176,276,389,1.63874455,2.56847907,3.61647134,0.19535804,0.30168871,0.39200585
5011,0,USArkansasBradley,Arkansas,Bradley,2021-04-04 13:48:35.149300,2020-08-04 00:00:00.000000,3.41455840,4.82659145,6.93947856,367,519,746,182,282,391,1.69952646,2.62571125,3.63978447,0.19433250,0.29709714,0.38559040
5011,0,USArkansasBradley,Arkansas,Bradley,2021-04-04 13:48:35.149300,2020-08-05 00:00:00.000000,3.42851733,4.86412139,7.03145021,369,523,756,189,287,393,1.76272535,2.67225476,3.65479253,0.19259002,0.29340910,0.37976567
5011,0,USArkansasBradley,Arkansas,Bradley,2021-04-04 13:48:35.149300,2020-08-06 00:00:00.000000,3.50842934,4.92267937,7.11296679,377,529,765,195,292,394,1.81313396,2.72168585,3.66311392,0.18983828,0.28941988,0.37162001
5011,0,USArkansasBradley,Arkansas,Bradley,2021-04-04 13:48:35.149300,2020-08-07 00:00:00.000000,3.60151178,4.96296493,7.17070562,387,534,771,196,295,398,1.82913198,2.74413080,3.70085747,0.18172995,0.28205094,0.35739278
5011,0,USArkansasBradley,Arkansas,Bradley,2021-04-04 13:48:35.149300,2020-08-08 00:00:00.000000,3.70428092,4.95756268,7.20302179,398,533,775,198,295,402,1.84008929,2.74454652,3.73540380,0.18084332,0.27378967,0.34681992
5011,0,USArkansasBradley,Arkansas,Bradley,2021-04-04 13:48:35.149300,2020-08-09 00:00:00.000000,3.68997126,4.94085452,7.13072344,397,531,767,198,296,404,1.84102942,2.75278068,3.76264137,0.16663071,0.26501373,0.34915092
5011,0,USArkansasBradley,Arkansas,Bradley,2021-04-04 13:48:35.149300,2020-08-10 00:00:00.000000,3.66350339,4.91571367,7.01713195,394,529,755,203,295,406,1.88743422,2.74449804,3.78089029,0.15829718,0.25435821,0.35031229
5011,0,USArkansasBradley,Arkansas,Bradley,2021-04-04 13:48:35.149300,2020-08-11 00:00:00.000000,3.63419920,4.87310004,6.90081267,391,524,742,207,293,408,1.92333416,2.72686405,3.79168113,0.15594309,0.24544332,0.32372054
5011,0,USArkansasBradley,Arkansas,Bradley,2021-04-04 13:48:35.149300,2020-08-12 00:00:00.000000,3.60199893,4.83057264,6.80526224,387,519,732,209,292,409,1.94965117,2.71799430,3.80366768,0.15377794,0.23952906,0.31605907
5011,0,USArkansasBradley,Arkansas,Bradley,2021-04-04 13:48:35.149300,2020-08-13 00:00:00.000000,3.55896121,4.74576516,6.76039137,383,510,727,211,289,411,1.96839792,2.69397441,3.81999399,0.15154535,0.23334984,0.30520337
5011,0,USArkansasBradley,Arkansas,Bradley,2021-04-04 13:48:35.149300,2020-08-14 00:00:00.000000,3.47074036,4.69681884,6.71284231,373,505,722,211,287,412,1.96521428,2.66900160,3.82843927,0.14726004,0.23134282,0.30028260
5011,0,USArkansasBradley,Arkansas,Bradley,2021-04-04 13:48:35.149300,2020-08-15 00:00:00.000000,3.37948900,4.57979917,6.66176407,363,492,717,206,282,412,1.91699454,2.62678764,3.83052147,0.14003825,0.21728433,0.29310322
5011,0,USArkansasBradley,Arkansas,Bradley,2021-04-04 13:48:35.149300,2020-08-16 00:00:00.000000,3.28784873,4.46815610,6.59919034,353,480,710,200,277,411,1.86021017,2.57736159,3.82725766,0.13258607,0.21044546,0.29241363
5011,0,USArkansasBradley,Arkansas,Bradley,2021-04-04 13:48:35.149300,2020-08-17 00:00:00.000000,3.18665200,4.43612248,6.48839357,342,477,698,193,272,411,1.80186402,2.53031433,3.81874613,0.12923994,0.19872901,0.28223877
5011,0,USArkansasBradley,Arkansas,Bradley,2021-04-04 13:48:35.149300,2020-08-18 00:00:00.000000,3.08784729,4.36952209,6.33365479,332,470,681,187,268,408,1.74325446,2.49086827,3.79909472,0.12585482,0.19247115,0.27931756
5011,0,USArkansasBradley,Arkansas,Bradley,2021-04-04 13:48:35.149300,2020-08-19 00:00:00.000000,2.99237635,4.28938034,6.16566279,322,461,663,181,264,399,1.68443574,2.45736619,3.70732202,0.12045024,0.18934209,0.27963607
5011,0,USArkansasBradley,Arkansas,Bradley,2021-04-04 13:48:35.149300,2020-08-20 00:00:00.000000,2.89896791,4.19199078,5.99282293,312,451,645,174,261,388,1.62564640,2.42929040,3.61243287,0.11733972,0.18493329,0.27979479
5011,0,USArkansasBradley,Arkansas,Bradley,2021-04-04 13:48:35.149300,2020-08-21 00:00:00.000000,2.81150044,4.05713805,5.81549057,302,436,625,168,256,378,1.56696807,2.38249534,3.51583102,0.11043397,0.18172690,0.27954601
5011,0,USArkansasBradley,Arkansas,Bradley,2021-04-04 13:48:35.149300,2020-08-22 00:00:00.000000,2.72245328,3.93036298,5.63276887,293,423,606,162,251,369,1.50845420,2.33691852,3.43407503,0.10615985,0.17887612,0.27181421
5011,0,USArkansasBradley,Arkansas,Bradley,2021-04-04 13:48:35.149300,2020-08-23 00:00:00.000000,2.62617826,3.77648430,5.44618855,282,406,586,156,245,360,1.45023196,2.28267596,3.35042434,0.09517038,0.17380908,0.24831418
5011,0,USArkansasBradley,Arkansas,Bradley,2021-04-04 13:48:35.149300,2020-08-24 00:00:00.000000,2.55671430,3.63840301,5.25020388,275,391,565,149,239,351,1.39253473,2.22564724,3.26152794,0.09028420,0.17024492,0.23480792
5011,0,USArkansasBradley,Arkansas,Bradley,2021-04-04 13:48:35.149300,2020-08-25 00:00:00.000000,2.48729633,3.51587286,5.05623410,267,378,544,144,232,341,1.34304055,2.16191598,3.17175610,0.08859159,0.16560374,0.23280039
5011,0,USArkansasBradley,Arkansas,Bradley,2021-04-04 13:48:35.149300,2020-08-26 00:00:00.000000,2.41898635,3.37125928,4.86595973,260,362,523,140,224,331,1.30543435,2.08684152,3.07928598,0.08771845,0.16137152,0.23123544
5011,0,USArkansasBradley,Arkansas,Bradley,2021-04-04 13:48:35.149300,2020-08-27 00:00:00.000000,2.33811019,3.26493877,4.68052372,251,351,503,136,216,319,1.26920661,2.01160567,2.97311155,0.08696328,0.15884169,0.23019015
5011,0,USArkansasBradley,Arkansas,Bradley,2021-04-04 13:48:35.149300,2020-08-28 00:00:00.000000,2.24221728,3.11686365,4.45313728,241,335,479,132,208,309,1.23421761,1.93696576,2.87467704,0.08466170,0.15370900,0.22337470
5011,0,USArkansasBradley,Arkansas,Bradley,2021-04-04 13:48:35.149300,2020-08-29 00:00:00.000000,2.14859248,2.99802273,4.18433932,231,322,450,129,200,298,1.20050574,1.86330925,2.77647624,0.08151845,0.15088473,0.22495705
5011,0,USArkansasBradley,Arkansas,Bradley,2021-04-04 13:48:35.149300,2020-08-30 00:00:00.000000,2.01979627,2.90963712,3.97052864,217,313,427,125,192,288,1.16813408,1.79089627,2.67928381,0.08035813,0.14221759,0.22972008
5011,0,USArkansasBradley,Arkansas,Bradley,2021-04-04 13:48:35.149300,2020-08-31 00:00:00.000000,1.89474759,2.78318949,3.88193764,203,299,417,121,185,278,1.13301863,1.72005296,2.58364574,0.07946586,0.13930274,0.23219733
5011,0,USArkansasBradley,Arkansas,Bradley,2021-04-04 13:48:35.149300,2020-09-01 00:00:00.000000,1.82992210,2.65969098,3.80144197,196,286,409,116,176,268,1.08258444,1.64419210,2.49056880,0.07918084,0.13766366,0.23286486
5011,0,USArkansasBradley,Arkansas,Bradley,2021-04-04 13:48:35.149300,2020-09-02 00:00:00.000000,1.70597476,2.53316976,3.71412805,183,272,399,111,169,258,1.03253316,1.57307350,2.40013566,0.07910052,0.13563427,0.23168073
5011,0,USArkansasBradley,Arkansas,Bradley,2021-04-04 13:48:35.149300,2020-09-03 00:00:00.000000,1.59256560,2.41524052,3.57585316,171,259,384,105,163,248,0.98299143,1.51579510,2.31241471,0.07907634,0.13344654,0.22738685
5011,0,USArkansasBradley,Arkansas,Bradley,2021-04-04 13:48:35.149300,2020-09-04 00:00:00.000000,1.50246838,2.29559944,3.44210937,161,247,370,100,156,239,0.93332851,1.45824882,2.22743693,0.07906035,0.13255969,0.21752541
5011,0,USArkansasBradley,Arkansas,Bradley,2021-04-04 13:48:35.149300,2020-09-05 00:00:00.000000,1.41719465,2.19477112,3.31290167,152,236,356,95,151,230,0.88469761,1.40383649,2.14518647,0.07700884,0.12859066,0.20167634
5011,0,USArkansasBradley,Arkansas,Bradley,2021-04-04 13:48:35.149300,2020-09-06 00:00:00.000000,1.33464731,2.08547362,3.18808309,143,224,343,90,145,222,0.83777237,1.34797869,2.06560839,0.07407792,0.12645675,0.19306463
5011,0,USArkansasBradley,Arkansas,Bradley,2021-04-04 13:48:35.149300,2020-09-07 00:00:00.000000,1.26292611,1.98602958,3.06948828,135,213,330,87,138,214,0.81213478,1.28349622,1.99120726,0.07852069,0.12455539,0.19499438
5011,0,USArkansasBradley,Arkansas,Bradley,2021-04-04 13:48:35.149300,2020-09-08 00:00:00.000000,1.19467676,1.89118624,2.91429669,128,203,313,82,131,206,0.76899046,1.21977465,1.91920832,0.07818503,0.12395502,0.19603966
5011,0,USArkansasBradley,Arkansas,Bradley,2021-04-04 13:48:35.149300,2020-09-09 00:00:00.000000,1.13024894,1.81968114,2.76290803,121,195,297,78,125,198,0.72505213,1.17037008,1.84493922,0.07805643,0.12363103,0.20434762
5011,0,USArkansasBradley,Arkansas,Bradley,2021-04-04 13:48:35.149300,2020-09-10 00:00:00.000000,1.06975352,1.74608786,2.61713498,115,187,281,72,121,191,0.67680892,1.12574360,1.77779086,0.07800866,0.12172067,0.21244100
5011,0,USArkansasBradley,Arkansas,Bradley,2021-04-04 13:48:35.149300,2020-09-11 00:00:00.000000,1.01368014,1.66626669,2.48682756,109,179,267,68,115,184,0.63322398,1.07002542,1.71355856,0.07791198,0.11997375,0.21394256
5011,0,USArkansasBradley,Arkansas,Bradley,2021-04-04 13:48:35.149300,2020-09-12 00:00:00.000000,0.96920127,1.57879831,2.40080847,104,169,258,64,109,177,0.59715923,1.01585646,1.65210490,0.07622003,0.12091686,0.20694432
5011,0,USArkansasBradley,Arkansas,Bradley,2021-04-04 13:48:35.149300,2020-09-13 00:00:00.000000,0.93417696,1.50478419,2.32855521,100,161,250,60,103,171,0.55937790,0.96191148,1.59330833,0.07495415,0.12081198,0.19911951
5011,0,USArkansasBradley,Arkansas,Bradley,2021-04-04 13:48:35.149300,2020-09-14 00:00:00.000000,0.88950709,1.43824565,2.25000999,95,154,242,56,98,165,0.52528279,0.91566464,1.53707436,0.07034360,0.12186263,0.18973343
5011,0,USArkansasBradley,Arkansas,Bradley,2021-04-04 13:48:35.149300,2020-09-15 00:00:00.000000,0.85606301,1.37917076,2.17439827,92,148,234,53,94,159,0.49531529,0.87567035,1.48162958,0.06772926,0.12078412,0.18687890
5011,0,USArkansasBradley,Arkansas,Bradley,2021-04-04 13:48:35.149300,2020-09-16 00:00:00.000000,0.80669993,1.32801433,2.10154273,86,142,226,50,90,153,0.46883148,0.84250808,1.42732495,0.06757911,0.12048599,0.18657856
5011,0,USArkansasBradley,Arkansas,Bradley,2021-04-04 13:48:35.149300,2020-09-17 00:00:00.000000,0.76458254,1.28088794,2.03150369,82,137,218,47,87,144,0.44525527,0.81285917,1.34473972,0.06893938,0.12363582,0.18269700
5011,0,USArkansasBradley,Arkansas,Bradley,2021-04-04 13:48:35.149300,2020-09-18 00:00:00.000000,0.72877488,1.23731370,1.96427301,78,133,211,45,84,136,0.42135357,0.78529800,1.26495104,0.07221254,0.12461833,0.17396279
5011,0,USArkansasBradley,Arkansas,Bradley,2021-04-04 13:48:35.149300,2020-09-19 00:00:00.000000,0.69228324,1.19392625,1.89977862,74,128,204,43,81,128,0.39964099,0.75292306,1.18929484,0.07583141,0.13082636,0.19439586
5011,0,USArkansasBradley,Arkansas,Bradley,2021-04-04 13:48:35.149300,2020-09-20 00:00:00.000000,0.66451211,1.15098747,1.83785030,71,123,197,40,77,121,0.38046291,0.71752632,1.12493445,0.07489110,0.13457219,0.19706430
5011,0,USArkansasBradley,Arkansas,Bradley,2021-04-04 13:48:35.149300,2020-09-21 00:00:00.000000,0.64078726,1.10637102,1.76699998,68,119,190,39,73,116,0.36332313,0.68304589,1.08281071,0.07710727,0.13833014,0.19680119
5011,0,USArkansasBradley,Arkansas,Bradley,2021-04-04 13:48:35.149300,2020-09-22 00:00:00.000000,0.61944993,1.06222992,1.69303491,66,114,182,37,70,113,0.34810665,0.65441425,1.05277221,0.07524422,0.14038946,0.19802283
5011,0,USArkansasBradley,Arkansas,Bradley,2021-04-04 13:48:35.149300,2020-09-23 00:00:00.000000,0.60012640,1.02845508,1.64050173,64,110,176,35,67,111,0.33443218,0.62874460,1.03239018,0.07719368,0.14229525,0.19815699
5011,0,USArkansasBradley,Arkansas,Bradley,2021-04-04 13:48:35.149300,2020-09-24 00:00:00.000000,0.59049606,0.98658153,1.56643232,63,106,168,34,65,109,0.32204262,0.60421578,1.01718342,0.07997245,0.14574855,0.20517856
5011,0,USArkansasBradley,Arkansas,Bradley,2021-04-04 13:48:35.149300,2020-09-25 00:00:00.000000,0.58249726,0.95187481,1.50104144,62,102,161,33,62,106,0.31089639,0.57971684,0.99375481,0.08286071,0.14686571,0.20871711
5011,0,USArkansasBradley,Arkansas,Bradley,2021-04-04 13:48:35.149300,2020-09-26 00:00:00.000000,0.57574902,0.92657425,1.45308092,61,99,156,32,60,102,0.30084664,0.56093013,0.95091530,0.08731004,0.14997403,0.22127942
5011,0,USArkansasBradley,Arkansas,Bradley,2021-04-04 13:48:35.149300,2020-09-27 00:00:00.000000,0.56919906,0.90500939,1.41686559,61,97,152,31,58,97,0.29187366,0.54342506,0.90945739,0.08957289,0.15153015,0.22657330
5011,0,USArkansasBradley,Arkansas,Bradley,2021-04-04 13:48:35.149300,2020-09-28 00:00:00.000000,0.54959134,0.88329366,1.41280788,59,95,152,30,56,94,0.28398854,0.52392855,0.87748863,0.09065264,0.15769476,0.23881768
5011,0,USArkansasBradley,Arkansas,Bradley,2021-04-04 13:48:35.149300,2020-09-29 00:00:00.000000,0.54230995,0.86308541,1.41349880,58,92,152,30,54,91,0.27891471,0.50355328,0.84875043,0.08997443,0.16208739,0.24535298
5011,0,USArkansasBradley,Arkansas,Bradley,2021-04-04 13:48:35.149300,2020-09-30 00:00:00.000000,0.53207031,0.83909595,1.40989051,57,90,151,29,52,88,0.27592294,0.48985546,0.81919948,0.09026295,0.16524835,0.25093186
5011,0,USArkansasBradley,Arkansas,Bradley,2021-04-04 13:48:35.149300,2020-10-01 00:00:00.000000,0.52020056,0.81717190,1.35695459,55,87,146,29,52,84,0.27444102,0.48816698,0.78951664,0.09070620,0.16855940,0.25868142
5011,0,USArkansasBradley,Arkansas,Bradley,2021-04-04 13:48:35.149300,2020-10-02 00:00:00.000000,0.51053895,0.80628913,1.30473379,54,86,140,29,51,82,0.27402898,0.47768639,0.76874679,0.09101690,0.17088560,0.26882169
5011,0,USArkansasBradley,Arkansas,Bradley,2021-04-04 13:48:35.149300,2020-10-03 00:00:00.000000,0.49773567,0.78646966,1.25521862,53,84,135,29,50,82,0.27435837,0.46543270,0.77113589,0.09170382,0.17501473,0.27817566
5011,0,USArkansasBradley,Arkansas,Bradley,2021-04-04 13:48:35.149300,2020-10-04 00:00:00.000000,0.48374712,0.77095651,1.21001364,52,82,130,29,49,83,0.27519077,0.45691064,0.77467769,0.09573583,0.17652388,0.28635117
5011,0,USArkansasBradley,Arkansas,Bradley,2021-04-04 13:48:35.149300,2020-10-05 00:00:00.000000,0.48772362,0.76611437,1.16586690,52,82,125,29,48,82,0.27637344,0.44715078,0.76532272,0.10654673,0.18065505,0.28429524
5011,0,USArkansasBradley,Arkansas,Bradley,2021-04-04 13:48:35.149300,2020-10-06 00:00:00.000000,0.49332173,0.76930476,1.14661769,53,82,123,29,47,79,0.27443780,0.44251274,0.73774995,0.11219712,0.19176828,0.28589336
5011,0,USArkansasBradley,Arkansas,Bradley,2021-04-04 13:48:35.149300,2020-10-07 00:00:00.000000,0.50087104,0.77963115,1.13766571,53,83,122,29,46,76,0.27196799,0.43313724,0.71220931,0.11423573,0.19573947,0.29251812
5011,0,USArkansasBradley,Arkansas,Bradley,2021-04-04 13:48:35.149300,2020-10-08 00:00:00.000000,0.49819033,0.77993154,1.13564267,53,83,122,28,46,74,0.26861174,0.42853341,0.68872905,0.11508811,0.20088955,0.29692722
5011,0,USArkansasBradley,Arkansas,Bradley,2021-04-04 13:48:35.149300,2020-10-09 00:00:00.000000,0.50197748,0.77517468,1.14122235,54,83,122,29,45,71,0.26997622,0.42393966,0.66747672,0.11628299,0.20641185,0.30762111
5011,0,USArkansasBradley,Arkansas,Bradley,2021-04-04 13:48:35.149300,2020-10-10 00:00:00.000000,0.50207302,0.78267887,1.14861992,54,84,123,28,45,71,0.26927917,0.42687061,0.66272097,0.11711287,0.20838230,0.32346435
5011,0,USArkansasBradley,Arkansas,Bradley,2021-04-04 13:48:35.149300,2020-10-11 00:00:00.000000,0.50220775,0.78794572,1.15811301,54,84,124,28,46,70,0.26823514,0.43012624,0.65797676,0.13099257,0.21784090,0.32733629
5011,0,USArkansasBradley,Arkansas,Bradley,2021-04-04 13:48:35.149300,2020-10-12 00:00:00.000000,0.52650256,0.79457731,1.20409027,56,85,129,28,47,70,0.26831085,0.43735315,0.65338151,0.13982689,0.22507840,0.33224011
5011,0,USArkansasBradley,Arkansas,Bradley,2021-04-04 13:48:35.149300,2020-10-13 00:00:00.000000,0.53868777,0.81266689,1.25153161,57,87,134,29,47,69,0.27071008,0.43807915,0.64897205,0.14606896,0.22964564,0.33352946
5011,0,USArkansasBradley,Arkansas,Bradley,2021-04-04 13:48:35.149300,2020-10-14 00:00:00.000000,0.52565766,0.81436754,1.30090453,56,87,140,29,48,69,0.27079607,0.44638530,0.64484997,0.14846143,0.23289027,0.34746595
5011,0,USArkansasBradley,Arkansas,Bradley,2021-04-04 13:48:35.149300,2020-10-15 00:00:00.000000,0.51333422,0.81722863,1.33648368,55,87,143,30,48,69,0.27900514,0.45001812,0.64177798,0.15665219,0.23923319,0.34495525
5011,0,USArkansasBradley,Arkansas,Bradley,2021-04-04 13:48:35.149300,2020-10-16 00:00:00.000000,0.51761415,0.82510352,1.35747874,55,88,146,30,48,68,0.28392415,0.44938830,0.64074359,0.15668991,0.25302066,0.35076481
5011,0,USArkansasBradley,Arkansas,Bradley,2021-04-04 13:48:35.149300,2020-10-17 00:00:00.000000,0.52648786,0.82800923,1.37914989,56,89,148,31,48,69,0.28930622,0.45522805,0.64219448,0.15670889,0.25948920,0.36183281
5011,0,USArkansasBradley,Arkansas,Bradley,2021-04-04 13:48:35.149300,2020-10-18 00:00:00.000000,0.52943657,0.83229828,1.40239316,56,89,150,31,49,71,0.29393309,0.46275470,0.66689162,0.15675024,0.26530222,0.36427471
5011,0,USArkansasBradley,Arkansas,Bradley,2021-04-04 13:48:35.149300,2020-10-19 00:00:00.000000,0.54484824,0.83849723,1.40163434,58,90,150,31,49,75,0.29268900,0.45847858,0.70419613,0.15705520,0.27075703,0.38797460
5011,0,USArkansasBradley,Arkansas,Bradley,2021-04-04 13:48:35.149300,2020-10-20 00:00:00.000000,0.56341350,0.84128093,1.41156645,60,90,151,32,49,79,0.29760147,0.46167534,0.73635631,0.15987443,0.27846509,0.40031713
5011,0,USArkansasBradley,Arkansas,Bradley,2021-04-04 13:48:35.149300,2020-10-21 00:00:00.000000,0.57656292,0.84802269,1.44440630,62,91,155,32,49,82,0.30306857,0.46354805,0.76491528,0.17496533,0.28829788,0.40819347
5011,0,USArkansasBradley,Arkansas,Bradley,2021-04-04 13:48:35.149300,2020-10-22 00:00:00.000000,0.59011834,0.86368299,1.47801916,63,92,159,34,50,85,0.31941288,0.46489883,0.79090003,0.18083342,0.29722226,0.41476955
5011,0,USArkansasBradley,Arkansas,Bradley,2021-04-04 13:48:35.149300,2020-10-23 00:00:00.000000,0.60410876,0.91445336,1.51427467,65,98,162,35,50,87,0.33023125,0.46994127,0.81513917,0.18713627,0.30804190,0.43294835
5011,0,USArkansasBradley,Arkansas,Bradley,2021-04-04 13:48:35.149300,2020-10-24 00:00:00.000000,0.61905329,0.93313392,1.56431572,66,100,168,36,51,90,0.33730910,0.47757891,0.83854519,0.18739980,0.32371496,0.48230148
5011,0,USArkansasBradley,Arkansas,Bradley,2021-04-04 13:48:35.149300,2020-10-25 00:00:00.000000,0.63614754,0.95690369,1.60357584,68,102,172,36,53,92,0.34343693,0.49315212,0.85978702,0.21192426,0.33350317,0.50440455
5011,0,USArkansasBradley,Arkansas,Bradley,2021-04-04 13:48:35.149300,2020-10-26 00:00:00.000000,0.65417521,0.98697934,1.66455761,70,106,179,37,54,94,0.35080935,0.50354535,0.87814980,0.22987105,0.34296951,0.52916924
5011,0,USArkansasBradley,Arkansas,Bradley,2021-04-04 13:48:35.149300,2020-10-27 00:00:00.000000,0.67428319,1.03306193,1.72865036,72,111,186,39,55,98,0.36459789,0.51595284,0.91206406,0.23064641,0.35718382,0.53940442
5011,0,USArkansasBradley,Arkansas,Bradley,2021-04-04 13:48:35.149300,2020-10-28 00:00:00.000000,0.69537445,1.06141279,1.79586849,74,114,193,40,56,101,0.37522305,0.52583124,0.94460069,0.23776149,0.36708035,0.54548257
5011,0,USArkansasBradley,Arkansas,Bradley,2021-04-04 13:48:35.149300,2020-10-29 00:00:00.000000,0.71743551,1.10654059,1.86695613,77,119,200,41,59,105,0.38672805,0.54921866,0.97666210,0.24752643,0.37946915,0.55060519
5011,0,USArkansasBradley,Arkansas,Bradley,2021-04-04 13:48:35.149300,2020-10-30 00:00:00.000000,0.74033477,1.15148594,1.94321390,79,123,209,42,61,108,0.39890419,0.56814350,1.01131545,0.26549919,0.40235680,0.56296453
5011,0,USArkansasBradley,Arkansas,Bradley,2021-04-04 13:48:35.149300,2020-10-31 00:00:00.000000,0.76448352,1.19597360,2.02628367,82,128,218,44,62,113,0.41161701,0.57898052,1.05413483,0.28454832,0.42006980,0.60401643
5011,0,USArkansasBradley,Arkansas,Bradley,2021-04-04 13:48:35.149300,2020-11-01 00:00:00.000000,0.79189045,1.23963967,2.11781344,85,133,227,45,64,118,0.42484483,0.60232046,1.09772872,0.29889535,0.44751922,0.62488144
5011,0,USArkansasBradley,Arkansas,Bradley,2021-04-04 13:48:35.149300,2020-11-02 00:00:00.000000,0.82686947,1.31567555,2.21790021,88,141,238,48,67,123,0.44882784,0.62652911,1.14326721,0.32478364,0.46434267,0.65932475
5011,0,USArkansasBradley,Arkansas,Bradley,2021-04-04 13:48:35.149300,2020-11-03 00:00:00.000000,0.87613939,1.39525197,2.33645295,94,150,251,51,70,128,0.47545655,0.65578482,1.19363166,0.33467066,0.48536362,0.68552870
5011,0,USArkansasBradley,Arkansas,Bradley,2021-04-04 13:48:35.149300,2020-11-04 00:00:00.000000,0.93753154,1.48413967,2.47509228,100,159,266,53,74,134,0.50144230,0.68859921,1.24912447,0.35666904,0.50941212,0.69285842
5011,0,USArkansasBradley,Arkansas,Bradley,2021-04-04 13:48:35.149300,2020-11-05 00:00:00.000000,1.00834664,1.56227735,2.61712592,108,168,281,56,78,140,0.52487223,0.73286294,1.30900486,0.38616639,0.52749052,0.70679186
5011,0,USArkansasBradley,Arkansas,Bradley,2021-04-04 13:48:35.149300,2020-11-06 00:00:00.000000,1.09050609,1.67124062,2.75448666,117,179,296,59,83,147,0.55265970,0.77524175,1.37415854,0.38844240,0.55285958,0.73590929
5011,0,USArkansasBradley,Arkansas,Bradley,2021-04-04 13:48:35.149300,2020-11-07 00:00:00.000000,1.18129308,1.77998737,2.89433684,127,191,311,63,88,155,0.58860629,0.82534963,1.44472585,0.42462383,0.58550031,0.76262830
5011,0,USArkansasBradley,Arkansas,Bradley,2021-04-04 13:48:35.149300,2020-11-08 00:00:00.000000,1.26930747,1.91883040,3.15282505,136,206,339,67,94,163,0.63128499,0.87789074,1.51839865,0.44403884,0.60530776,0.79198005
5011,0,USArkansasBradley,Arkansas,Bradley,2021-04-04 13:48:35.149300,2020-11-09 00:00:00.000000,1.39770581,2.08367810,3.45118624,150,224,371,72,101,171,0.67810953,0.94394413,1.59671372,0.45931892,0.62081889,0.81723548
5011,0,USArkansasBradley,Arkansas,Bradley,2021-04-04 13:48:35.149300,2020-11-10 00:00:00.000000,1.54253993,2.22998561,3.77692759,166,240,406,79,110,180,0.74109078,1.02434149,1.68167940,0.48269598,0.63286145,0.82863867
5011,0,USArkansasBradley,Arkansas,Bradley,2021-04-04 13:48:35.149300,2020-11-11 00:00:00.000000,1.70770746,2.41342052,4.11438546,183,259,442,87,118,191,0.80945094,1.10274583,1.77754962,0.48472842,0.65168209,0.85917657
5011,0,USArkansasBradley,Arkansas,Bradley,2021-04-04 13:48:35.149300,2020-11-12 00:00:00.000000,1.93073275,2.60161553,4.46070830,207,280,480,94,129,205,0.88085569,1.20202671,1.91310353,0.49324867,0.67337048,0.85311398
5011,0,USArkansasBradley,Arkansas,Bradley,2021-04-04 13:48:35.149300,2020-11-13 00:00:00.000000,2.12938536,2.85381570,4.83241376,229,307,520,102,142,219,0.94918390,1.32234444,2.03623486,0.50916400,0.70002029,0.87695129
5011,0,USArkansasBradley,Arkansas,Bradley,2021-04-04 13:48:35.149300,2020-11-14 00:00:00.000000,2.32846991,3.10405480,5.23285652,250,334,563,110,154,228,1.02300173,1.43581733,2.12751994,0.51355629,0.72278407,0.89155811
5011,0,USArkansasBradley,Arkansas,Bradley,2021-04-04 13:48:35.149300,2020-11-15 00:00:00.000000,2.53093900,3.38069570,5.66310782,272,363,609,119,165,251,1.11433771,1.53682969,2.33268168,0.52601375,0.73672839,0.92257853
5011,0,USArkansasBradley,Arkansas,Bradley,2021-04-04 13:48:35.149300,2020-11-16 00:00:00.000000,2.76600125,3.71984652,6.06967722,297,400,653,131,178,271,1.22490379,1.65629955,2.52138131,0.55888967,0.74831222,0.93738195
5011,0,USArkansasBradley,Arkansas,Bradley,2021-04-04 13:48:35.149300,2020-11-17 00:00:00.000000,2.99724606,4.04090362,6.50282488,322,434,699,141,192,291,1.31112188,1.79043196,2.70605369,0.60936432,0.76578603,0.94426321
5011,0,USArkansasBradley,Arkansas,Bradley,2021-04-04 13:48:35.149300,2020-11-18 00:00:00.000000,3.25205343,4.38897083,6.95773096,350,472,748,150,215,312,1.40220130,2.00265558,2.90351241,0.61294057,0.76466052,0.94661968
5011,0,USArkansasBradley,Arkansas,Bradley,2021-04-04 13:48:35.149300,2020-11-19 00:00:00.000000,3.53974358,4.75045634,7.42796134,380,511,799,161,236,335,1.50506259,2.19664453,3.11580673,0.61558538,0.77033779,0.93682023
5011,0,USArkansasBradley,Arkansas,Bradley,2021-04-04 13:48:35.149300,2020-11-20 00:00:00.000000,3.86078679,5.15921081,7.90271254,415,555,850,175,255,360,1.62769433,2.37343597,3.34534518,0.61625632,0.76637126,0.90905975
5011,0,USArkansasBradley,Arkansas,Bradley,2021-04-04 13:48:35.149300,2020-11-21 00:00:00.000000,4.21077002,5.63138318,8.36941991,453,606,900,190,277,387,1.77131965,2.57855976,3.59652727,0.61455896,0.75799835,0.90322945
5011,0,USArkansasBradley,Arkansas,Bradley,2021-04-04 13:48:35.149300,2020-11-22 00:00:00.000000,4.58808853,6.06782068,8.82429950,493,653,949,208,302,416,1.93609430,2.81472820,3.87196259,0.61981907,0.74382966,0.91376484
5011,0,USArkansasBradley,Arkansas,Bradley,2021-04-04 13:48:35.149300,2020-11-23 00:00:00.000000,4.98556104,6.56529366,9.27328418,536,706,998,228,326,452,2.12193689,3.03724838,4.20667421,0.60907811,0.74378458,0.92382742
5011,0,USArkansasBradley,Arkansas,Bradley,2021-04-04 13:48:35.149300,2020-11-24 00:00:00.000000,5.35227622,7.04682778,9.95904826,576,758,1071,250,352,483,2.32411208,3.27384783,4.49643769,0.60223925,0.73650256,0.92751375
5011,0,USArkansasBradley,Arkansas,Bradley,2021-04-04 13:48:35.149300,2020-11-25 00:00:00.000000,5.69245751,7.49675152,10.63738496,612,806,1144,273,379,521,2.54383365,3.52175929,4.84347735,0.57916527,0.71895719,0.92083582
5011,0,USArkansasBradley,Arkansas,Bradley,2021-04-04 13:48:35.149300,2020-11-26 00:00:00.000000,6.09092750,8.01089721,11.18899492,655,862,1204,299,408,560,2.78177331,3.79672393,5.21102861,0.56598902,0.70540815,0.90719872
5011,0,USArkansasBradley,Arkansas,Bradley,2021-04-04 13:48:35.149300,2020-11-27 00:00:00.000000,6.53103007,8.57537576,11.87628007,702,922,1278,327,440,602,3.03861168,4.09586413,5.59740761,0.56029092,0.69723951,0.89888923
5011,0,USArkansasBradley,Arkansas,Bradley,2021-04-04 13:48:35.149300,2020-11-28 00:00:00.000000,6.95306200,9.12937074,12.65306543,748,982,1361,353,473,634,3.28646157,4.39743210,5.89272389,0.52954186,0.69054742,0.88998742
5011,0,USArkansasBradley,Arkansas,Bradley,2021-04-04 13:48:35.149300,2020-11-29 00:00:00.000000,7.34151495,9.61007758,13.42734793,790,1034,1445,376,504,665,3.49942776,4.69119583,6.18625013,0.52400277,0.66982709,0.89050296
5011,0,USArkansasBradley,Arkansas,Bradley,2021-04-04 13:48:35.149300,2020-11-30 00:00:00.000000,7.82372606,10.08774462,14.18223683,842,1085,1526,399,541,709,3.71295021,5.03344030,6.59361906,0.49887079,0.65801932,0.87818259
5011,0,USArkansasBradley,Arkansas,Bradley,2021-04-04 13:48:35.149300,2020-12-01 00:00:00.000000,8.28702309,10.58007133,14.91978099,891,1138,1605,422,576,751,3.92839706,5.35990325,6.97928394,0.49455662,0.65544670,0.82341038
5011,0,USArkansasBradley,Arkansas,Bradley,2021-04-04 13:48:35.149300,2020-12-02 00:00:00.000000,8.76958403,11.12818878,15.60975337,943,1197,1680,446,604,790,4.14673639,5.61498370,7.34799210,0.47532222,0.63625460,0.80103257
5011,0,USArkansasBradley,Arkansas,Bradley,2021-04-04 13:48:35.149300,2020-12-03 00:00:00.000000,9.25576261,11.52001983,16.18232738,996,1239,1741,463,634,829,4.30852620,5.89250053,7.70394629,0.46818429,0.62913892,0.77203722
5011,0,USArkansasBradley,Arkansas,Bradley,2021-04-04 13:48:35.149300,2020-12-04 00:00:00.000000,9.67601374,11.97108045,16.74521278,1041,1288,1802,479,660,866,4.45474249,6.13316618,8.04979301,0.46866406,0.61887176,0.75081842
5011,0,USArkansasBradley,Arkansas,Bradley,2021-04-04 13:48:35.149300,2020-12-05 00:00:00.000000,9.97169968,12.38915393,17.40013807,1073,1333,1872,494,682,905,4.59817748,6.34281921,8.41430807,0.46981051,0.60749231,0.74073542
5011,0,USArkansasBradley,Arkansas,Bradley,2021-04-04 13:48:35.149300,2020-12-06 00:00:00.000000,10.19554487,12.75910481,18.04108139,1097,1373,1941,509,707,949,4.73816274,6.57334330,8.81866048,0.47030032,0.59968192,0.69093718
5011,0,USArkansasBradley,Arkansas,Bradley,2021-04-04 13:48:35.149300,2020-12-07 00:00:00.000000,10.50982534,13.09782365,18.55811126,1131,1409,1997,524,731,991,4.87399391,6.79941140,9.21598239,0.46938370,0.58632512,0.67470951
5011,0,USArkansasBradley,Arkansas,Bradley,2021-04-04 13:48:35.149300,2020-12-08 00:00:00.000000,10.79328359,13.32407474,18.88836384,1161,1434,2032,532,753,1035,4.94707417,6.99857940,9.61649953,0.45374971,0.58004667,0.67700043
5011,0,USArkansasBradley,Arkansas,Bradley,2021-04-04 13:48:35.149300,2020-12-09 00:00:00.000000,10.96607171,13.58707775,19.24626140,1180,1462,2071,540,773,1074,5.02236324,7.18638427,9.97950944,0.43805138,0.57551900,0.66740486
5011,0,USArkansasBradley,Arkansas,Bradley,2021-04-04 13:48:35.149300,2020-12-10 00:00:00.000000,10.94331658,13.71664878,19.43859247,1177,1476,2092,549,786,1082,5.10124702,7.30540052,10.05511511,0.40737091,0.56424648,0.65472026
5011,0,USArkansasBradley,Arkansas,Bradley,2021-04-04 13:48:35.149300,2020-12-11 00:00:00.000000,10.83358691,13.91374486,19.57919205,1166,1497,2107,558,801,1100,5.18596168,7.44863194,10.22822288,0.40597531,0.56005126,0.65405668
5011,0,USArkansasBradley,Arkansas,Bradley,2021-04-04 13:48:35.149300,2020-12-12 00:00:00.000000,10.67667662,14.01194435,19.67590636,1149,1508,2117,568,814,1128,5.27794892,7.57152935,10.48404976,0.40969496,0.54377369,0.64859101
5011,0,USArkansasBradley,Arkansas,Bradley,2021-04-04 13:48:35.149300,2020-12-13 00:00:00.000000,10.49364441,14.06129380,19.76060039,1129,1513,2126,578,825,1152,5.37665406,7.67017643,10.71162686,0.41632895,0.53887093,0.66062390
5011,0,USArkansasBradley,Arkansas,Bradley,2021-04-04 13:48:35.149300,2020-12-14 00:00:00.000000,10.28838897,14.06353279,19.96053035,1107,1513,2148,589,833,1173,5.47979755,7.74478379,10.90722537,0.41380688,0.53247975,0.67396011
5011,0,USArkansasBradley,Arkansas,Bradley,2021-04-04 13:48:35.149300,2020-12-15 00:00:00.000000,10.07250220,14.02276138,20.13265770,1084,1509,2166,600,839,1191,5.58235594,7.79929956,11.06703410,0.40652558,0.53024600,0.68258645
5011,0,USArkansasBradley,Arkansas,Bradley,2021-04-04 13:48:35.149300,2020-12-16 00:00:00.000000,10.03535978,13.90833251,20.26902044,1080,1496,2181,604,839,1204,5.61619443,7.80157760,11.18969438,0.40193536,0.53048517,0.66934865
5011,0,USArkansasBradley,Arkansas,Bradley,2021-04-04 13:48:35.149300,2020-12-17 00:00:00.000000,10.03870594,13.79723122,20.36598601,1080,1484,2191,602,836,1213,5.60117474,7.77232295,11.27585785,0.39947875,0.53678003,0.67385064
5011,0,USArkansasBradley,Arkansas,Bradley,2021-04-04 13:48:35.149300,2020-12-18 00:00:00.000000,10.12217235,13.70531520,20.42212279,1089,1475,2198,600,833,1219,5.57649456,7.74255960,11.32751156,0.39734029,0.53640281,0.65534396
5011,0,USArkansasBradley,Arkansas,Bradley,2021-04-04 13:48:35.149300,2020-12-19 00:00:00.000000,10.18437445,13.54354054,20.34944371,1096,1457,2190,597,829,1221,5.54899153,7.70966481,11.34733186,0.39523215,0.54408476,0.67230054
5011,0,USArkansasBradley,Arkansas,Bradley,2021-04-04 13:48:35.149300,2020-12-20 00:00:00.000000,10.22444077,13.34962520,20.17958185,1100,1436,2171,586,821,1220,5.44900147,7.63280681,11.33859895,0.39491628,0.55444020,0.69500378
5011,0,USArkansasBradley,Arkansas,Bradley,2021-04-04 13:48:35.149300,2020-12-21 00:00:00.000000,10.08686583,13.36648420,20.06943427,1085,1438,2160,573,813,1216,5.33101414,7.55793197,11.30704380,0.41885009,0.56710292,0.69874141
5011,0,USArkansasBradley,Arkansas,Bradley,2021-04-04 13:48:35.149300,2020-12-22 00:00:00.000000,10.07547716,13.42798186,20.04147181,1084,1445,2157,564,810,1212,5.24247694,7.53204154,11.26758317,0.43113166,0.59150261,0.73442021
5011,0,USArkansasBradley,Arkansas,Bradley,2021-04-04 13:48:35.149300,2020-12-23 00:00:00.000000,10.11523576,13.51573338,20.01840787,1088,1454,2154,558,803,1209,5.18918289,7.46138748,11.23459883,0.44163109,0.60797320,0.81770274
5011,0,USArkansasBradley,Arkansas,Bradley,2021-04-04 13:48:35.149300,2020-12-24 00:00:00.000000,10.17909709,13.41229715,19.96291989,1095,1443,2148,558,797,1206,5.19245525,7.41290642,11.20725738,0.44640364,0.62494706,0.87843568
5011,0,USArkansasBradley,Arkansas,Bradley,2021-04-04 13:48:35.149300,2020-12-25 00:00:00.000000,9.99663694,13.36951421,19.84180554,1075,1438,2135,560,794,1203,5.20848393,7.38098387,11.17922898,0.46668423,0.66694102,0.91478650
5011,0,USArkansasBradley,Arkansas,Bradley,2021-04-04 13:48:35.149300,2020-12-26 00:00:00.000000,9.85082731,13.40356729,19.66317070,1060,1442,2116,556,790,1199,5.16834265,7.34910052,11.14498987,0.48749019,0.70594621,0.97099818
5011,0,USArkansasBradley,Arkansas,Bradley,2021-04-04 13:48:35.149300,2020-12-27 00:00:00.000000,9.72413490,13.25968333,19.49206122,1046,1427,2097,555,788,1194,5.16401759,7.32525577,11.10077997,0.49032014,0.74267087,1.06340873
5011,0,USArkansasBradley,Arkansas,Bradley,2021-04-04 13:48:35.149300,2020-12-28 00:00:00.000000,9.61190984,13.22038642,19.34518903,1034,1422,2082,554,789,1188,5.15645900,7.33074670,11.04461265,0.49114830,0.75641499,1.08341445
5011,0,USArkansasBradley,Arkansas,Bradley,2021-04-04 13:48:35.149300,2020-12-29 00:00:00.000000,9.53258561,13.18539632,19.20422632,1025,1419,2066,553,788,1181,5.14557558,7.32802307,10.97510388,0.50470699,0.77773862,1.12211315
5011,0,USArkansasBradley,Arkansas,Bradley,2021-04-04 13:48:35.149300,2020-12-30 00:00:00.000000,9.53865605,13.07210621,19.05138969,1026,1406,2050,552,790,1172,5.13082916,7.34490813,10.89687493,0.51097268,0.78725019,1.15639441
5011,0,USArkansasBradley,Arkansas,Bradley,2021-04-04 13:48:35.149300,2020-12-31 00:00:00.000000,9.64092481,13.09253656,18.90233180,1037,1409,2034,550,792,1164,5.11126165,7.36188437,10.81689041,0.52945056,0.79392107,1.17537036
5011,0,USArkansasBradley,Arkansas,Bradley,2021-04-04 13:48:35.149300,2021-01-01 00:00:00.000000,9.77412119,12.96849109,18.72551231,1051,1395,2015,547,792,1155,5.08522845,7.36284128,10.73626125,0.52554281,0.82043910,1.22987952
5011,0,USArkansasBradley,Arkansas,Bradley,2021-04-04 13:48:35.149300,2021-01-02 00:00:00.000000,9.77143320,12.77566609,18.51135214,1051,1375,1992,543,790,1146,5.05334955,7.34242805,10.65106329,0.53081947,0.84399750,1.29674935
5011,0,USArkansasBradley,Arkansas,Bradley,2021-04-04 13:48:35.149300,2021-01-03 00:00:00.000000,9.63822446,12.65242712,18.25946905,1037,1361,1965,540,784,1136,5.02128077,7.28870170,10.55692910,0.53320800,0.85160826,1.31572018
5011,0,USArkansasBradley,Arkansas,Bradley,2021-04-04 13:48:35.149300,2021-01-04 00:00:00.000000,9.48063503,12.67230177,17.98551656,1020,1363,1935,536,776,1124,4.98510415,7.21863448,10.45059249,0.53178886,0.85617089,1.40201739
5011,0,USArkansasBradley,Arkansas,Bradley,2021-04-04 13:48:35.149300,2021-01-05 00:00:00.000000,9.31016058,12.54982941,17.68052885,1002,1350,1902,532,771,1112,4.94882083,7.16766821,10.33197661,0.52988232,0.85867105,1.41209054
5011,0,USArkansasBradley,Arkansas,Bradley,2021-04-04 13:48:35.149300,2021-01-06 00:00:00.000000,9.02118071,12.39094195,17.35125566,970,1333,1867,528,764,1097,4.91089613,7.10459440,10.19975728,0.52235543,0.85955459,1.41097717
5011,0,USArkansasBradley,Arkansas,Bradley,2021-04-04 13:48:35.149300,2021-01-07 00:00:00.000000,8.65572129,12.20265046,17.00765551,931,1313,1830,524,756,1082,4.86981194,7.02624399,10.05393745,0.51735271,0.85846516,1.40869542
5011,0,USArkansasBradley,Arkansas,Bradley,2021-04-04 13:48:35.149300,2021-01-08 00:00:00.000000,8.27833774,11.98903252,16.66099531,890,1290,1793,510,746,1065,4.74108877,6.93204554,9.89600461,0.51414519,0.86665043,1.40027753
5011,0,USArkansasBradley,Arkansas,Bradley,2021-04-04 13:48:35.149300,2021-01-09 00:00:00.000000,8.04453230,11.74651778,16.31504470,865,1264,1755,495,734,1047,4.60415814,6.82074361,9.72873105,0.50645916,0.87750823,1.36851578
5011,0,USArkansasBradley,Arkansas,Bradley,2021-04-04 13:48:35.149300,2021-01-10 00:00:00.000000,7.89897114,11.43125824,15.96262954,850,1230,1718,481,720,1028,4.47272932,6.69465935,9.55472721,0.50376984,0.88698324,1.35938909
5011,0,USArkansasBradley,Arkansas,Bradley,2021-04-04 13:48:35.149300,2021-01-11 00:00:00.000000,7.55045594,11.05493640,15.58029815,812,1189,1676,468,706,1009,4.35044551,6.56110154,9.37485308,0.50312941,0.89809093,1.44476958
5011,0,USArkansasBradley,Arkansas,Bradley,2021-04-04 13:48:35.149300,2021-01-12 00:00:00.000000,7.20823889,10.67221012,15.17540844,775,1148,1633,447,686,988,4.15380436,6.37921799,9.18625641,0.50297012,0.91342757,1.47438114
5011,0,USArkansasBradley,Arkansas,Bradley,2021-04-04 13:48:35.149300,2021-01-13 00:00:00.000000,6.87844544,10.41972173,14.64699343,740,1121,1576,425,666,967,3.95505263,6.18959296,8.98805310,0.50292720,0.92387877,1.48219995
5011,0,USArkansasBradley,Arkansas,Bradley,2021-04-04 13:48:35.149300,2021-01-14 00:00:00.000000,6.56007823,10.13937046,14.11216243,706,1091,1518,404,649,944,3.76046163,6.03449715,8.78007076,0.49987913,0.93246625,1.48353489
5011,0,USArkansasBradley,Arkansas,Bradley,2021-04-04 13:48:35.149300,2021-01-15 00:00:00.000000,6.25759330,9.71734455,13.57439530,673,1045,1461,384,632,921,3.57145332,5.87520699,8.56265171,0.48591269,0.92285496,1.48303868
5011,0,USArkansasBradley,Arkansas,Bradley,2021-04-04 13:48:35.149300,2021-01-16 00:00:00.000000,5.98939151,9.33254458,13.03690972,644,1004,1403,369,610,897,3.43458299,5.67182108,8.33650454,0.47245451,0.92665048,1.43428703
5011,0,USArkansasBradley,Arkansas,Bradley,2021-04-04 13:48:35.149300,2021-01-17 00:00:00.000000,5.72380701,8.94367845,12.50267094,616,962,1345,357,585,872,3.31741503,5.44352131,8.10259083,0.43750757,0.92713048,1.49119520
5011,0,USArkansasBradley,Arkansas,Bradley,2021-04-04 13:48:35.149300,2021-01-18 00:00:00.000000,5.50151065,8.62197903,12.00818267,592,927,1292,342,561,846,3.18021347,5.21965060,7.86184476,0.44972000,0.93823859,1.51440576
5011,0,USArkansasBradley,Arkansas,Bradley,2021-04-04 13:48:35.149300,2021-01-19 00:00:00.000000,5.29328861,8.21072000,11.52117142,569,883,1240,327,539,819,3.03922577,5.01198455,7.61376230,0.44119067,0.94154741,1.52315470
5011,0,USArkansasBradley,Arkansas,Bradley,2021-04-04 13:48:35.149300,2021-01-20 00:00:00.000000,5.09518973,7.85999425,11.04332043,548,845,1188,311,517,792,2.89840666,4.80916738,7.35891149,0.43356294,0.94635320,1.52700510
5011,0,USArkansasBradley,Arkansas,Bradley,2021-04-04 13:48:35.149300,2021-01-21 00:00:00.000000,4.90543895,7.51670136,10.57565419,527,809,1138,297,497,763,2.76028071,4.62226424,7.09804879,0.42349870,0.94779499,1.53381833
5011,0,USArkansasBradley,Arkansas,Bradley,2021-04-04 13:48:35.149300,2021-01-22 00:00:00.000000,4.72407214,7.19218204,10.11920378,508,774,1089,282,475,735,2.62639600,4.41914760,6.83233092,0.41847748,0.95600186,1.60030659
5011,0,USArkansasBradley,Arkansas,Bradley,2021-04-04 13:48:35.149300,2021-01-23 00:00:00.000000,4.55241493,6.91148107,9.67488345,489,743,1041,271,452,706,2.52043826,4.20655841,6.56854162,0.41763324,0.94998967,1.64022078
5011,0,USArkansasBradley,Arkansas,Bradley,2021-04-04 13:48:35.149300,2021-01-24 00:00:00.000000,4.38998021,6.60628790,9.24321467,472,711,994,261,433,682,2.42720030,4.02803731,6.33873252,0.41750093,0.95185334,1.61077233
5011,0,USArkansasBradley,Arkansas,Bradley,2021-04-04 13:48:35.149300,2021-01-25 00:00:00.000000,4.21674420,6.27860214,8.79876587,453,675,947,251,415,657,2.33887995,3.85794247,6.10809699,0.41738239,0.95292441,1.61206653
5011,0,USArkansasBradley,Arkansas,Bradley,2021-04-04 13:48:35.149300,2021-01-26 00:00:00.000000,4.04106815,5.93994208,8.36841342,434,639,900,242,395,631,2.25104453,3.67668034,5.86705097,0.41732507,0.95312732,1.61773676
5011,0,USArkansasBradley,Arkansas,Bradley,2021-04-04 13:48:35.149300,2021-01-27 00:00:00.000000,3.85816711,5.62372476,7.95287573,415,605,855,232,377,604,2.16284902,3.50751539,5.62099812,0.41677809,0.94881393,1.61814417
5011,0,USArkansasBradley,Arkansas,Bradley,2021-04-04 13:48:35.149300,2021-01-28 00:00:00.000000,3.66698695,5.32846871,7.55317232,394,573,812,223,358,578,2.07292578,3.33364834,5.37381752,0.39671825,0.94229028,1.62051638
5011,0,USArkansasBradley,Arkansas,Bradley,2021-04-04 13:48:35.149300,2021-01-29 00:00:00.000000,3.47110901,5.06690670,7.17002411,373,545,771,213,338,551,1.98023165,3.14840665,5.12827816,0.36938752,0.94731723,1.62219108
5011,0,USArkansasBradley,Arkansas,Bradley,2021-04-04 13:48:35.149300,2021-01-30 00:00:00.000000,3.27587031,4.81474276,6.80338168,352,518,732,202,320,525,1.88489681,2.97501177,4.88624409,0.35772163,0.93876200,1.75238404
5011,0,USArkansasBradley,Arkansas,Bradley,2021-04-04 13:48:35.149300,2021-01-31 00:00:00.000000,3.08531060,4.56689024,6.45263065,332,491,694,192,303,501,1.78813588,2.81595010,4.66067502,0.35651262,0.92397687,1.75078558
5011,0,USArkansasBradley,Arkansas,Bradley,2021-04-04 13:48:35.149300,2021-02-01 00:00:00.000000,2.90819335,4.28707192,6.12840565,313,461,659,182,287,478,1.69153581,2.66677156,4.45040714,0.34579413,0.91465716,1.79430981
5011,0,USArkansasBradley,Arkansas,Bradley,2021-04-04 13:48:35.149300,2021-02-02 00:00:00.000000,2.73859089,4.01968536,5.81911045,294,432,626,171,271,455,1.59784991,2.51951424,4.23111363,0.33149752,0.93129433,1.79619687
5011,0,USArkansasBradley,Arkansas,Bradley,2021-04-04 13:48:35.149300,2021-02-03 00:00:00.000000,2.57676410,3.78682861,5.52451210,277,407,594,162,256,432,1.50753364,2.38685999,4.02167636,0.32552883,0.93071656,1.79740034
5011,0,USArkansasBradley,Arkansas,Bradley,2021-04-04 13:48:35.149300,2021-02-04 00:00:00.000000,2.42240138,3.55536960,5.24428891,260,382,564,153,242,411,1.42858061,2.25629563,3.82170891,0.31843061,0.93580845,1.79746626
5011,0,USArkansasBradley,Arkansas,Bradley,2021-04-04 13:48:35.149300,2021-02-05 00:00:00.000000,2.27556595,3.33588226,4.97841365,244,359,535,146,228,390,1.36099684,2.12733252,3.63088474,0.31163609,0.95510442,1.82274283
5011,0,USArkansasBradley,Arkansas,Bradley,2021-04-04 13:48:35.149300,2021-02-06 00:00:00.000000,2.13663938,3.12376757,4.72742831,229,336,508,139,215,371,1.29680728,2.00479092,3.44898441,0.30383873,0.98033270,1.89262158
5011,0,USArkansasBradley,Arkansas,Bradley,2021-04-04 13:48:35.149300,2021-02-07 00:00:00.000000,2.02327375,2.90774176,4.49188768,217,312,483,133,203,352,1.23597367,1.88869444,3.27596508,0.29291186,0.98653413,1.95933343
5011,0,USArkansasBradley,Arkansas,Bradley,2021-04-04 13:48:35.149300,2021-02-08 00:00:00.000000,1.90227902,2.72832266,4.25307767,204,293,457,126,191,334,1.17848165,1.77897977,3.11190053,0.29209389,0.99176642,1.97068209
5011,0,USArkansasBradley,Arkansas,Bradley,2021-04-04 13:48:35.149300,2021-02-09 00:00:00.000000,1.78701766,2.55711354,4.01620700,192,275,432,119,180,317,1.11020827,1.67848939,2.95381102,0.29145835,0.96874363,1.99048661
5011,0,USArkansasBradley,Arkansas,Bradley,2021-04-04 13:48:35.149300,2021-02-10 00:00:00.000000,1.67689932,2.39705595,3.79062358,180,257,407,111,170,301,1.03458703,1.58385875,2.80199334,0.29121673,0.94709560,2.02303826
5011,0,USArkansasBradley,Arkansas,Bradley,2021-04-04 13:48:35.149300,2021-02-11 00:00:00.000000,1.57232728,2.24701817,3.58055167,169,241,385,103,160,285,0.96137540,1.49263636,2.65648079,0.29100091,0.91989248,2.07181647
5011,0,USArkansasBradley,Arkansas,Bradley,2021-04-04 13:48:35.149300,2021-02-12 00:00:00.000000,1.47339620,2.11066318,3.38229759,158,227,364,96,151,270,0.89345785,1.40536070,2.51706745,0.29040713,0.88828370,2.13572158
5011,0,USArkansasBradley,Arkansas,Bradley,2021-04-04 13:48:35.149300,2021-02-13 00:00:00.000000,1.37953218,1.98742450,3.19476931,148,213,343,89,141,256,0.83062522,1.31906099,2.38334402,0.28633917,0.87195312,2.19402596
5011,0,USArkansasBradley,Arkansas,Bradley,2021-04-04 13:48:35.149300,2021-02-14 00:00:00.000000,1.28791448,1.88233942,3.01746823,138,202,324,83,132,242,0.77262709,1.23059994,2.25510723,0.26439937,0.86519851,2.11244662
5011,0,USArkansasBradley,Arkansas,Bradley,2021-04-04 13:48:35.149300,2021-02-15 00:00:00.000000,1.22848821,1.78153976,2.85422999,132,191,307,77,124,229,0.71918893,1.15575701,2.13238576,0.23097018,0.86437641,2.03505828
5011,0,USArkansasBradley,Arkansas,Bradley,2021-04-04 13:48:35.149300,2021-02-16 00:00:00.000000,1.13380558,1.68664609,2.70026299,122,181,290,71,116,217,0.66852362,1.08274902,2.01754734,0.22133271,0.87276038,2.07597917
5011,0,USArkansasBradley,Arkansas,Bradley,2021-04-04 13:48:35.149300,2021-02-17 00:00:00.000000,1.04301323,1.59171044,2.55498395,112,171,274,66,109,204,0.62071030,1.02169022,1.90175639,0.22182204,0.87073772,2.13882713
5011,0,USArkansasBradley,Arkansas,Bradley,2021-04-04 13:48:35.149300,2021-02-18 00:00:00.000000,0.96281875,1.50142531,2.41721887,103,161,260,62,103,192,0.57792358,0.96441751,1.79147385,0.22491839,0.86091616,2.17409351
5011,0,USArkansasBradley,Arkansas,Bradley,2021-04-04 13:48:35.149300,2021-02-19 00:00:00.000000,0.89252340,1.41723071,2.28491544,96,152,245,57,98,181,0.53886283,0.91225672,1.68774924,0.22973530,0.87078971,2.18471503
5011,0,USArkansasBradley,Arkansas,Bradley,2021-04-04 13:48:35.149300,2021-02-20 00:00:00.000000,0.82368397,1.33872698,2.15780584,88,144,232,53,92,171,0.50136517,0.86147964,1.59035987,0.21288213,0.87647174,2.18752972
5011,0,USArkansasBradley,Arkansas,Bradley,2021-04-04 13:48:35.149300,2021-02-21 00:00:00.000000,0.75949292,1.27325373,2.03733918,81,137,219,50,88,161,0.46506247,0.81915658,1.49931338,0.23198537,0.86972935,2.18766710
5011,0,USArkansasBradley,Arkansas,Bradley,2021-04-04 13:48:35.149300,2021-02-22 00:00:00.000000,0.73105121,1.20340316,1.93753011,78,129,208,46,83,152,0.43040657,0.77779849,1.41481445,0.23641523,0.89240486,2.18716853
5011,0,USArkansasBradley,Arkansas,Bradley,2021-04-04 13:48:35.149300,2021-02-23 00:00:00.000000,0.69515928,1.13841388,1.84807578,74,122,198,43,79,143,0.40120648,0.73545756,1.33726829,0.23690435,0.92506234,2.18679545
5011,0,USArkansasBradley,Arkansas,Bradley,2021-04-04 13:48:35.149300,2021-02-24 00:00:00.000000,0.64613828,1.06981698,1.76738297,69,115,190,40,75,136,0.37633711,0.69818267,1.26571371,0.23701110,0.95412128,2.18663665
5011,0,USArkansasBradley,Arkansas,Bradley,2021-04-04 13:48:35.149300,2021-02-25 00:00:00.000000,0.61331071,1.01184183,1.69157108,66,108,182,38,70,129,0.35495855,0.65723978,1.19904911,0.23727109,0.96307478,2.18668572
5011,0,USArkansasBradley,Arkansas,Bradley,2021-04-04 13:48:35.149300,2021-02-26 00:00:00.000000,0.58576206,0.96260333,1.62036049,63,103,174,36,67,122,0.33536629,0.62252140,1.13619016,0.23793984,0.96636468,2.18714352
5011,0,USArkansasBradley,Arkansas,Bradley,2021-04-04 13:48:35.149300,2021-02-27 00:00:00.000000,0.54241125,0.91441836,1.55348976,58,98,167,34,63,115,0.31843355,0.59005636,1.07655846,0.23938789,0.99770247,2.18853464
5011,0,USArkansasBradley,Arkansas,Bradley,2021-04-04 13:48:35.149300,2021-02-28 00:00:00.000000,0.51121998,0.87968282,1.49071129,55,94,160,32,59,109,0.30235751,0.55444479,1.02003192,0.24122804,1.03156102,2.19080419
5011,0,USArkansasBradley,Arkansas,Bradley,2021-04-04 13:48:35.149300,2021-03-01 00:00:00.000000,0.47352797,0.85277684,1.44351856,50,91,155,30,57,104,0.28158010,0.53344687,0.96657001,0.24067583,1.04171019,2.30143164
5011,0,USArkansasBradley,Arkansas,Bradley,2021-04-04 13:48:35.149300,2021-03-02 00:00:00.000000,0.43782350,0.82186625,1.39203730,47,88,149,28,55,98,0.26194869,0.51137692,0.91843840,0.24294461,1.01682079,2.40520016
5011,0,USArkansasBradley,Arkansas,Bradley,2021-04-04 13:48:35.149300,2021-03-03 00:00:00.000000,0.40631563,0.82362193,1.34424728,43,88,144,26,53,96,0.24537001,0.49376357,0.89702307,0.25019719,1.00220871,2.43140938
5011,0,USArkansasBradley,Arkansas,Bradley,2021-04-04 13:48:35.149300,2021-03-04 00:00:00.000000,0.37839957,0.80279345,1.29990244,40,86,139,24,51,94,0.23030390,0.47767293,0.88177680,0.26859919,0.99744329,2.51266594
5011,0,USArkansasBradley,Arkansas,Bradley,2021-04-04 13:48:35.149300,2021-03-05 00:00:00.000000,0.35717476,0.76432035,1.25879139,38,82,135,23,49,93,0.21622317,0.45866978,0.86749307,0.26418751,0.98558851,2.61547186
5011,0,USArkansasBradley,Arkansas,Bradley,2021-04-04 13:48:35.149300,2021-03-06 00:00:00.000000,0.33163117,0.73256323,1.22069129,35,78,131,21,47,89,0.20305320,0.44166959,0.83540780,0.26077090,0.94681330,2.66467668
5011,0,USArkansasBradley,Arkansas,Bradley,2021-04-04 13:48:35.149300,2021-03-07 00:00:00.000000,0.31144316,0.70098523,1.18539341,33,75,127,20,46,86,0.19073659,0.43322776,0.80589964,0.25009885,0.95498847,2.68263167
5011,0,USArkansasBradley,Arkansas,Bradley,2021-04-04 13:48:35.149300,2021-03-08 00:00:00.000000,0.33793696,0.69474941,1.20385932,36,74,129,19,45,83,0.17924861,0.42075291,0.77871337,0.24928339,0.92504494,2.68506603
5011,0,USArkansasBradley,Arkansas,Bradley,2021-04-04 13:48:35.149300,2021-03-09 00:00:00.000000,0.37104399,0.68228920,1.22488215,39,73,131,19,44,82,0.17656998,0.41217122,0.76195949,0.24746361,0.93478771,2.60121961
5011,0,USArkansasBradley,Arkansas,Bradley,2021-04-04 13:48:35.149300,2021-03-10 00:00:00.000000,0.37733259,0.67142955,1.24860554,40,72,134,19,42,81,0.18006219,0.39727743,0.75332380,0.24033912,0.95752143,2.43591124
5011,0,USArkansasBradley,Arkansas,Bradley,2021-04-04 13:48:35.149300,2021-03-11 00:00:00.000000,0.38631801,0.66152714,1.26152699,41,71,135,21,42,80,0.19519392,0.39074525,0.75098751,0.24903990,0.92995875,2.38897276
5011,0,USArkansasBradley,Arkansas,Bradley,2021-04-04 13:48:35.149300,2021-03-12 00:00:00.000000,0.40187766,0.64476264,1.21603400,43,69,130,23,41,81,0.21552458,0.38679625,0.75353109,0.24911924,0.92959120,2.41659667
5011,0,USArkansasBradley,Arkansas,Bradley,2021-04-04 13:48:35.149300,2021-03-13 00:00:00.000000,0.41462631,0.65064919,1.17227865,44,70,126,24,40,81,0.22511767,0.37863102,0.75350090,0.25012695,0.92793663,2.41915838
5011,0,USArkansasBradley,Arkansas,Bradley,2021-04-04 13:48:35.149300,2021-03-14 00:00:00.000000,0.40242300,0.66194564,1.19513428,43,71,128,23,39,78,0.22231995,0.36760782,0.72844916,0.25390826,0.92499846,2.45407263
5011,0,USArkansasBradley,Arkansas,Bradley,2021-04-04 13:48:35.149300,2021-03-15 00:00:00.000000,0.38664741,0.64057259,1.14538461,41,68,123,23,39,75,0.22056163,0.36793228,0.70367401,0.25092544,0.91964871,2.50674592
5011,0,USArkansasBradley,Arkansas,Bradley,2021-04-04 13:48:35.149300,2021-03-16 00:00:00.000000,0.37092185,0.62462709,1.09336790,39,67,117,23,39,73,0.22084128,0.36684001,0.68060400,0.24995501,0.91061209,2.50789609
5011,0,USArkansasBradley,Arkansas,Bradley,2021-04-04 13:48:35.149300,2021-03-17 00:00:00.000000,0.35606844,0.62221840,1.03832649,38,66,111,24,39,70,0.22329692,0.36491070,0.65907923,0.24654910,0.90082115,2.52926663
5011,0,USArkansasBradley,Arkansas,Bradley,2021-04-04 13:48:35.149300,2021-03-18 00:00:00.000000,0.34223652,0.61718786,1.00403440,36,66,108,23,38,68,0.21870578,0.35705239,0.63896924,0.23695781,0.90747225,2.61568587
5011,0,USArkansasBradley,Arkansas,Bradley,2021-04-04 13:48:35.149300,2021-03-19 00:00:00.000000,0.32955471,0.60873562,1.05607524,35,65,113,22,37,66,0.21218963,0.35074663,0.62016368,0.22779294,0.91915167,2.70814427
5011,0,USArkansasBradley,Arkansas,Bradley,2021-04-04 13:48:35.149300,2021-03-20 00:00:00.000000,0.31811164,0.59380757,1.10736927,34,63,119,22,37,64,0.20558707,0.34505071,0.60256713,0.22064318,0.92793538,2.75553150
5011,0,USArkansasBradley,Arkansas,Bradley,2021-04-04 13:48:35.149300,2021-03-21 00:00:00.000000,0.30415756,0.58144897,1.09065199,32,62,117,21,36,64,0.19806929,0.33647161,0.60005501,0.21601319,0.93207523,2.81642177
5011,0,USArkansasBradley,Arkansas,Bradley,2021-04-04 13:48:35.149300,2021-03-22 00:00:00.000000,0.31172564,0.56415821,1.05252432,33,60,113,20,35,67,0.19113631,0.33068057,0.62878787,0.21312258,0.93379451,2.86789361
5011,0,USArkansasBradley,Arkansas,Bradley,2021-04-04 13:48:35.149300,2021-03-23 00:00:00.000000,0.31780657,0.56210230,1.01561075,34,60,109,20,34,68,0.18686472,0.32349574,0.63964810,0.21157817,0.94438458,2.89304257
5011,0,USArkansasBradley,Arkansas,Bradley,2021-04-04 13:48:35.149300,2021-03-24 00:00:00.000000,0.30035719,0.55438076,0.98421645,32,59,105,19,34,68,0.17859278,0.31813481,0.63777682,0.21053110,0.95075730,2.90062665
5011,0,USArkansasBradley,Arkansas,Bradley,2021-04-04 13:48:35.149300,2021-03-25 00:00:00.000000,0.28516402,0.54918577,0.96427410,30,59,103,18,33,67,0.17001912,0.31402713,0.62712342,0.20894439,0.95040342,2.83920563
5011,0,USArkansasBradley,Arkansas,Bradley,2021-04-04 13:48:35.149300,2021-03-26 00:00:00.000000,0.29646483,0.53475512,0.94233584,31,57,101,18,33,65,0.17142858,0.31079078,0.61060634,0.20627348,0.96475054,2.84099312
5011,0,USArkansasBradley,Arkansas,Bradley,2021-04-04 13:48:35.149300,2021-03-27 00:00:00.000000,0.30829564,0.52571346,0.91363367,33,56,98,18,32,63,0.17489089,0.30341276,0.59034963,0.20435679,0.99734226,2.90276924
5011,0,USArkansasBradley,Arkansas,Bradley,2021-04-04 13:48:35.149300,2021-03-28 00:00:00.000000,0.31507035,0.51625711,0.90647522,33,55,97,19,32,61,0.17912244,0.30291475,0.56788908,0.20617216,1.01636158,2.91279907
5011,0,USArkansasBradley,Arkansas,Bradley,2021-04-04 13:48:35.149300,2021-03-29 00:00:00.000000,0.28941968,0.48554421,0.86050478,31,52,92,18,32,58,0.17259666,0.29979945,0.54433976,0.21262353,1.00308219,2.91708790
5011,0,USArkansasBradley,Arkansas,Bradley,2021-04-04 13:48:35.149300,2021-03-30 00:00:00.000000,0.26537565,0.45575395,0.81526472,28,49,87,17,31,55,0.16066225,0.28890220,0.51813171,0.21966320,0.98179172,2.92109263
5011,0,USArkansasBradley,Arkansas,Bradley,2021-04-04 13:48:35.149300,2021-03-31 00:00:00.000000,0.24293660,0.42667448,0.77071332,26,45,82,16,30,53,0.14886989,0.27876551,0.49626261,0.22701538,0.97130410,2.92028850
5011,0,USArkansasBradley,Arkansas,Bradley,2021-04-04 13:48:35.149300,2021-04-01 00:00:00.000000,0.22215434,0.39868067,0.72272301,23,42,77,14,28,51,0.13744197,0.26330102,0.47800551,0.22793784,0.96119155,2.91667065
5011,0,USArkansasBradley,Arkansas,Bradley,2021-04-04 13:48:35.149300,2021-04-02 00:00:00.000000,0.20297293,0.37177529,0.67519962,21,40,72,13,26,49,0.12653064,0.24803834,0.45818821,0.22829326,0.97576516,2.90270651
5011,0,USArkansasBradley,Arkansas,Bradley,2021-04-04 13:48:35.149300,2021-04-03 00:00:00.000000,0.18469845,0.34341021,0.62952627,19,36,67,12,25,47,0.11651633,0.23282536,0.43744614,0.22918330,0.95997481,2.86880949
5011,0,USArkansasBradley,Arkansas,Bradley,2021-04-04 13:48:35.149300,2021-04-04 00:00:00.000000,0.16527564,0.31782647,0.58601991,17,34,63,11,23,44,0.10817620,0.21761269,0.41627800,0.23717857,0.94961495,2.83479969
5011,0,USArkansasBradley,Arkansas,Bradley,2021-04-04 13:48:35.149300,2021-04-05 00:00:00.000000,0.14776616,0.29420305,0.55443465,15,31,59,10,21,42,0.10021823,0.20173266,0.39461647,0.23976590,0.96059262,2.82078232
5011,0,USArkansasBradley,Arkansas,Bradley,2021-04-04 13:48:35.149300,2021-04-06 00:00:00.000000,0.13342244,0.27279068,0.52729374,14,29,56,9,20,40,0.09173967,0.18609391,0.37197556,0.23961368,0.96766525,2.81718064
5011,0,USArkansasBradley,Arkansas,Bradley,2021-04-04 13:48:35.149300,2021-04-07 00:00:00.000000,0.12292109,0.25141434,0.50047620,13,27,53,8,18,37,0.08328130,0.17137114,0.35009690,0.23598012,1.00646286,2.81638534
5011,0,USArkansasBradley,Arkansas,Bradley,2021-04-04 13:48:35.149300,2021-04-08 00:00:00.000000,0.11321441,0.23246794,0.47312797,12,25,50,8,17,35,0.07550238,0.15934847,0.33351582,0.23883690,1.03471568,2.81621735
5011,0,USArkansasBradley,Arkansas,Bradley,2021-04-04 13:48:35.149300,2021-04-09 00:00:00.000000,0.10331488,0.21540150,0.44405158,11,23,47,7,15,33,0.06837275,0.14755066,0.31527413,0.23883776,1.04962611,2.81618266
5011,0,USArkansasBradley,Arkansas,Bradley,2021-04-04 13:48:35.149300,2021-04-10 00:00:00.000000,0.09297238,0.19952246,0.41658006,10,21,44,6,14,31,0.06166968,0.13610446,0.29714299,0.23879667,1.05165645,2.81617567
5011,0,USArkansasBradley,Arkansas,Bradley,2021-04-04 13:48:35.149300,2021-04-11 00:00:00.000000,0.08365076,0.18446106,0.39065918,9,19,42,6,13,30,0.05588678,0.12600280,0.27980026,0.23878481,1.05167243,2.81617432
5011,0,USArkansasBradley,Arkansas,Bradley,2021-04-04 13:48:35.149300,2021-04-12 00:00:00.000000,0.07525560,0.17050354,0.37328899,8,18,40,5,12,28,0.05045961,0.11665380,0.26326286,0.23878144,1.05167732,2.81617407
5011,0,USArkansasBradley,Arkansas,Bradley,2021-04-04 13:48:35.149300,2021-04-13 00:00:00.000000,0.06769882,0.15787109,0.35754238,7,16,38,4,11,26,0.04553264,0.10805004,0.24753433,0.23878049,1.05167882,2.81617403
5011,0,USArkansasBradley,Arkansas,Bradley,2021-04-04 13:48:35.149300,2021-04-14 00:00:00.000000,0.06089915,0.14633391,0.33168981,6,15,35,4,10,25,0.04106609,0.10034167,0.23260794,0.23878022,1.05167928,2.81617402
5011,0,USArkansasBradley,Arkansas,Bradley,2021-04-04 13:48:35.149300,2021-04-15 00:00:00.000000,0.05478220,0.13538805,0.30721479,5,14,33,3,10,23,0.03702180,0.09316653,0.21846923,0.23878014,1.05167942,2.81617402
5011,0,USArkansasBradley,Arkansas,Bradley,2021-04-04 13:48:35.149300,2021-04-16 00:00:00.000000,0.04928024,0.12512311,0.28449693,5,13,30,3,9,22,0.03336356,0.08626615,0.20509799,0.23878012,1.05167946,2.81617402
