FIPS,HR_UID,nameid,province,region,analysisTime,dates,pointprevalence_025,pointprevalence_50,pointprevalence_975,pointinfections_025,pointinfections_50,pointinfections_975,pointinfectious_025,pointinfectious_50,pointinfectious_975,pointinfectiousprevalence_05,pointinfectiousprevalence_50,pointinfectiousprevalence_95,infectrate_025,infectrate_50,infectrate_975
29177,0,USMissouriRay,Missouri,Ray,2021-04-04 07:50:47.945890,2020-03-09 00:00:00.000000,0.00188780,0.01300197,0.03501833,0,2,8,0,1,5,0.00124007,0.00753624,0.02378140,0.34008302,0.45105256,0.62091488
29177,0,USMissouriRay,Missouri,Ray,2021-04-04 07:50:47.945890,2020-03-10 00:00:00.000000,0.00208170,0.01364195,0.03560074,0,3,8,0,1,5,0.00126468,0.00777692,0.02348431,0.34006170,0.45104249,0.62088396
29177,0,USMissouriRay,Missouri,Ray,2021-04-04 07:50:47.945890,2020-03-11 00:00:00.000000,0.00229703,0.01442662,0.03679074,0,3,8,0,1,5,0.00135711,0.00844255,0.02423098,0.34002221,0.45101699,0.62082865
29177,0,USMissouriRay,Missouri,Ray,2021-04-04 07:50:47.945890,2020-03-12 00:00:00.000000,0.00253257,0.01527309,0.03818104,0,3,8,0,2,5,0.00148365,0.00908428,0.02525388,0.33994913,0.45095129,0.62073094
29177,0,USMissouriRay,Missouri,Ray,2021-04-04 07:50:47.945890,2020-03-13 00:00:00.000000,0.00278675,0.01624554,0.03966487,0,3,9,0,2,6,0.00163149,0.01000699,0.02635628,0.33981394,0.45078015,0.62056206
29177,0,USMissouriRay,Missouri,Ray,2021-04-04 07:50:47.945890,2020-03-14 00:00:00.000000,0.00305649,0.01772410,0.04140408,0,4,9,0,2,6,0.00179531,0.01091781,0.02749153,0.33651087,0.45052346,0.62028087
29177,0,USMissouriRay,Missouri,Ray,2021-04-04 07:50:47.945890,2020-03-15 00:00:00.000000,0.00333662,0.01944107,0.04590891,0,4,10,0,2,6,0.00197198,0.01186836,0.02865160,0.33614163,0.45045352,0.61984062
29177,0,USMissouriRay,Missouri,Ray,2021-04-04 07:50:47.945890,2020-03-16 00:00:00.000000,0.00775192,0.02545901,0.05446956,1,5,12,0,2,6,0.00215828,0.01286642,0.02983748,0.33517349,0.44211276,0.59952820
29177,0,USMissouriRay,Missouri,Ray,2021-04-04 07:50:47.945890,2020-03-17 00:00:00.000000,0.01210629,0.03093036,0.07029498,2,7,16,0,3,8,0.00390059,0.01604196,0.03549972,0.31902114,0.43789014,0.59857618
29177,0,USMissouriRay,Missouri,Ray,2021-04-04 07:50:47.945890,2020-03-18 00:00:00.000000,0.01680041,0.03728797,0.08160098,3,8,18,1,4,9,0.00675849,0.01989218,0.04258022,0.30416625,0.42847405,0.59606747
29177,0,USMissouriRay,Missouri,Ray,2021-04-04 07:50:47.945890,2020-03-19 00:00:00.000000,0.02102140,0.04220688,0.09822376,4,9,22,2,5,11,0.01016431,0.02409550,0.05109172,0.29285006,0.41514534,0.58905620
29177,0,USMissouriRay,Missouri,Ray,2021-04-04 07:50:47.945890,2020-03-20 00:00:00.000000,0.02475882,0.04831472,0.11522657,5,11,26,2,6,14,0.01266068,0.02771030,0.06359753,0.26508539,0.39995597,0.56909676
29177,0,USMissouriRay,Missouri,Ray,2021-04-04 07:50:47.945890,2020-03-21 00:00:00.000000,0.02840388,0.05615110,0.13511875,6,12,31,3,7,17,0.01589898,0.03208248,0.07489991,0.24181381,0.35952749,0.52562212
29177,0,USMissouriRay,Missouri,Ray,2021-04-04 07:50:47.945890,2020-03-22 00:00:00.000000,0.03229921,0.06183586,0.15303176,7,14,35,4,8,19,0.01895885,0.03592580,0.08617949,0.24046617,0.33405409,0.49775243
29177,0,USMissouriRay,Missouri,Ray,2021-04-04 07:50:47.945890,2020-03-23 00:00:00.000000,0.03891939,0.06869071,0.16018064,8,15,36,5,9,22,0.02176524,0.04056918,0.09744809,0.22720449,0.30791973,0.47732878
29177,0,USMissouriRay,Missouri,Ray,2021-04-04 07:50:47.945890,2020-03-24 00:00:00.000000,0.04403765,0.07653619,0.16439220,10,17,37,5,10,24,0.02516365,0.04572748,0.10445239,0.19828241,0.29040603,0.43977744
29177,0,USMissouriRay,Missouri,Ray,2021-04-04 07:50:47.945890,2020-03-25 00:00:00.000000,0.05007138,0.08634069,0.16933254,11,19,38,6,11,25,0.02839840,0.05165902,0.11000752,0.18674660,0.28212418,0.42682130
29177,0,USMissouriRay,Missouri,Ray,2021-04-04 07:50:47.945890,2020-03-26 00:00:00.000000,0.05702143,0.09554528,0.17615324,13,21,40,7,13,26,0.03250757,0.05743332,0.11508059,0.17420732,0.27300205,0.39443999
29177,0,USMissouriRay,Missouri,Ray,2021-04-04 07:50:47.945890,2020-03-27 00:00:00.000000,0.06161840,0.10279846,0.18308037,14,23,42,8,14,27,0.03627740,0.06276197,0.12002043,0.15008523,0.25799848,0.38902112
29177,0,USMissouriRay,Missouri,Ray,2021-04-04 07:50:47.945890,2020-03-28 00:00:00.000000,0.06502400,0.10917186,0.19026793,14,25,43,9,15,28,0.04093610,0.06767299,0.12497633,0.14430809,0.24155492,0.37777879
29177,0,USMissouriRay,Missouri,Ray,2021-04-04 07:50:47.945890,2020-03-29 00:00:00.000000,0.06814214,0.11349513,0.19801796,15,26,45,9,16,29,0.04328966,0.07277726,0.12651517,0.14169756,0.23431415,0.37202863
29177,0,USMissouriRay,Missouri,Ray,2021-04-04 07:50:47.945890,2020-03-30 00:00:00.000000,0.07255462,0.12326438,0.20727784,16,28,47,10,17,31,0.04544289,0.07721461,0.13515443,0.14118596,0.22061759,0.34821818
29177,0,USMissouriRay,Missouri,Ray,2021-04-04 07:50:47.945890,2020-03-31 00:00:00.000000,0.07536484,0.12680450,0.21278783,17,29,48,11,18,32,0.04792562,0.08219429,0.14034226,0.13847520,0.20982312,0.31846502
29177,0,USMissouriRay,Missouri,Ray,2021-04-04 07:50:47.945890,2020-04-01 00:00:00.000000,0.07709356,0.13167747,0.21606634,17,30,49,12,20,33,0.05217414,0.08750919,0.14439236,0.13047892,0.20087477,0.31210761
29177,0,USMissouriRay,Missouri,Ray,2021-04-04 07:50:47.945890,2020-04-02 00:00:00.000000,0.07678992,0.13298661,0.22027273,17,30,50,12,20,34,0.05215065,0.08972887,0.14817796,0.12695586,0.18967494,0.31051925
29177,0,USMissouriRay,Missouri,Ray,2021-04-04 07:50:47.945890,2020-04-03 00:00:00.000000,0.07635976,0.13303130,0.22197390,17,30,51,12,20,34,0.05270936,0.09050218,0.15099532,0.11909860,0.18605528,0.30819910
29177,0,USMissouriRay,Missouri,Ray,2021-04-04 07:50:47.945890,2020-04-04 00:00:00.000000,0.07587761,0.13303995,0.23079580,17,30,53,12,21,35,0.05256580,0.09208641,0.15421678,0.11374059,0.18020941,0.30103407
29177,0,USMissouriRay,Missouri,Ray,2021-04-04 07:50:47.945890,2020-04-05 00:00:00.000000,0.07535800,0.13529375,0.24394620,17,31,56,12,21,36,0.05235063,0.09325306,0.15647495,0.10885642,0.17497949,0.28110640
29177,0,USMissouriRay,Missouri,Ray,2021-04-04 07:50:47.945890,2020-04-06 00:00:00.000000,0.08025900,0.14265243,0.25238302,18,32,58,11,21,36,0.05208323,0.09406858,0.16007854,0.10490212,0.16541747,0.25422856
29177,0,USMissouriRay,Missouri,Ray,2021-04-04 07:50:47.945890,2020-04-07 00:00:00.000000,0.08243231,0.14484402,0.25577281,18,33,58,12,22,38,0.05436160,0.09780902,0.16842368,0.10181627,0.16086387,0.24903022
29177,0,USMissouriRay,Missouri,Ray,2021-04-04 07:50:47.945890,2020-04-08 00:00:00.000000,0.08356372,0.14615671,0.25718588,19,33,59,12,23,40,0.05588725,0.10114685,0.17599005,0.09558905,0.15319118,0.24638805
29177,0,USMissouriRay,Missouri,Ray,2021-04-04 07:50:47.945890,2020-04-09 00:00:00.000000,0.08447170,0.14521505,0.25928299,19,33,59,13,23,40,0.05790426,0.10132291,0.17730054,0.09017318,0.14930821,0.24260962
29177,0,USMissouriRay,Missouri,Ray,2021-04-04 07:50:47.945890,2020-04-10 00:00:00.000000,0.08526952,0.14581345,0.26989595,19,33,62,13,23,41,0.05692086,0.10239838,0.18183067,0.08573519,0.14587585,0.23793732
29177,0,USMissouriRay,Missouri,Ray,2021-04-04 07:50:47.945890,2020-04-11 00:00:00.000000,0.08468332,0.14666601,0.27911037,19,33,64,13,23,43,0.05660651,0.10159361,0.18964235,0.08028604,0.14238851,0.23323597
29177,0,USMissouriRay,Missouri,Ray,2021-04-04 07:50:47.945890,2020-04-12 00:00:00.000000,0.08416296,0.14703772,0.28678825,19,33,66,13,23,45,0.05737899,0.10202296,0.19652615,0.07565326,0.13662794,0.22801047
29177,0,USMissouriRay,Missouri,Ray,2021-04-04 07:50:47.945890,2020-04-13 00:00:00.000000,0.08284092,0.14724208,0.29599898,19,33,68,12,23,46,0.05583356,0.10333505,0.20235818,0.07293385,0.13249736,0.22486155
29177,0,USMissouriRay,Missouri,Ray,2021-04-04 07:50:47.945890,2020-04-14 00:00:00.000000,0.08134320,0.14600910,0.30048887,18,33,69,12,23,48,0.05448678,0.10302118,0.20876771,0.07161576,0.12956006,0.22074979
29177,0,USMissouriRay,Missouri,Ray,2021-04-04 07:50:47.945890,2020-04-15 00:00:00.000000,0.07858060,0.14485661,0.29489560,18,33,67,12,23,48,0.05330001,0.10205427,0.21132735,0.07130962,0.12524968,0.21378528
29177,0,USMissouriRay,Missouri,Ray,2021-04-04 07:50:47.945890,2020-04-16 00:00:00.000000,0.07468222,0.14340828,0.28909903,17,33,66,12,23,47,0.05227220,0.10311258,0.20776844,0.07271451,0.12292417,0.19519777
29177,0,USMissouriRay,Missouri,Ray,2021-04-04 07:50:47.945890,2020-04-17 00:00:00.000000,0.07114709,0.14182640,0.28498075,16,32,65,11,23,47,0.05064252,0.10245282,0.20809106,0.07005535,0.12022339,0.17980242
29177,0,USMissouriRay,Missouri,Ray,2021-04-04 07:50:47.945890,2020-04-18 00:00:00.000000,0.06879591,0.14318775,0.28848840,15,32,66,11,23,48,0.04825223,0.10182494,0.21161540,0.07240413,0.11751057,0.17565862
29177,0,USMissouriRay,Missouri,Ray,2021-04-04 07:50:47.945890,2020-04-19 00:00:00.000000,0.06838324,0.14277266,0.29077140,15,32,66,10,23,49,0.04750969,0.10106449,0.21460076,0.07552947,0.11248683,0.17544040
29177,0,USMissouriRay,Missouri,Ray,2021-04-04 07:50:47.945890,2020-04-20 00:00:00.000000,0.06950988,0.14317096,0.29747113,15,32,68,10,23,49,0.04722283,0.10141610,0.21681054,0.07504454,0.11181169,0.17341351
29177,0,USMissouriRay,Missouri,Ray,2021-04-04 07:50:47.945890,2020-04-21 00:00:00.000000,0.06976394,0.14129251,0.28996486,16,32,66,10,23,49,0.04739359,0.10071931,0.21416384,0.07316011,0.10876686,0.16501807
29177,0,USMissouriRay,Missouri,Ray,2021-04-04 07:50:47.945890,2020-04-22 00:00:00.000000,0.07045981,0.13760563,0.28944280,16,31,66,11,22,48,0.04830573,0.09923574,0.20901745,0.07048594,0.10789050,0.16216594
29177,0,USMissouriRay,Missouri,Ray,2021-04-04 07:50:47.945890,2020-04-23 00:00:00.000000,0.06973933,0.13342840,0.28810700,16,30,66,11,22,47,0.04782214,0.09734422,0.20472277,0.06797388,0.10306936,0.15797920
29177,0,USMissouriRay,Missouri,Ray,2021-04-04 07:50:47.945890,2020-04-24 00:00:00.000000,0.06885016,0.13052687,0.28648385,15,30,65,10,21,47,0.04722682,0.09532773,0.20423203,0.06393170,0.10098379,0.15614520
29177,0,USMissouriRay,Missouri,Ray,2021-04-04 07:50:47.945890,2020-04-25 00:00:00.000000,0.06607100,0.12666254,0.28471270,15,29,65,10,21,46,0.04569264,0.09404886,0.20341627,0.06238546,0.09814448,0.14459024
29177,0,USMissouriRay,Missouri,Ray,2021-04-04 07:50:47.945890,2020-04-26 00:00:00.000000,0.06360762,0.12681415,0.28289036,14,29,65,10,21,46,0.04569283,0.09249088,0.20240373,0.06160582,0.09589747,0.13858971
29177,0,USMissouriRay,Missouri,Ray,2021-04-04 07:50:47.945890,2020-04-27 00:00:00.000000,0.06584428,0.12563183,0.27046863,15,28,62,10,20,46,0.04466460,0.09007693,0.20128191,0.05668228,0.09481928,0.13608454
29177,0,USMissouriRay,Missouri,Ray,2021-04-04 07:50:47.945890,2020-04-28 00:00:00.000000,0.06828339,0.12423970,0.26970821,15,28,62,10,20,45,0.04476801,0.08785841,0.19584127,0.05606422,0.09205171,0.13513111
29177,0,USMissouriRay,Missouri,Ray,2021-04-04 07:50:47.945890,2020-04-29 00:00:00.000000,0.07096887,0.12352982,0.26300375,16,28,60,10,19,44,0.04545367,0.08653025,0.19149301,0.05599895,0.09224585,0.13474359
29177,0,USMissouriRay,Missouri,Ray,2021-04-04 07:50:47.945890,2020-04-30 00:00:00.000000,0.07232051,0.12025488,0.25586139,16,27,58,10,19,43,0.04641864,0.08616196,0.18682053,0.05597602,0.09218146,0.13443558
29177,0,USMissouriRay,Missouri,Ray,2021-04-04 07:50:47.945890,2020-05-01 00:00:00.000000,0.06904857,0.11820723,0.24787598,15,27,57,10,19,41,0.04749135,0.08526971,0.18201032,0.05406709,0.09000086,0.13365203
29177,0,USMissouriRay,Missouri,Ray,2021-04-04 07:50:47.945890,2020-05-02 00:00:00.000000,0.06503149,0.11800255,0.23936365,14,27,55,11,19,40,0.04858284,0.08373324,0.17692259,0.05362032,0.08910637,0.13089953
29177,0,USMissouriRay,Missouri,Ray,2021-04-04 07:50:47.945890,2020-05-03 00:00:00.000000,0.06591935,0.11614519,0.23080701,15,26,53,10,19,39,0.04587537,0.08366237,0.17147228,0.05269618,0.08736936,0.12876320
29177,0,USMissouriRay,Missouri,Ray,2021-04-04 07:50:47.945890,2020-05-04 00:00:00.000000,0.06606207,0.11789696,0.22125904,15,27,50,9,18,38,0.04295428,0.08241785,0.16563782,0.05177611,0.08617323,0.12688615
29177,0,USMissouriRay,Missouri,Ray,2021-04-04 07:50:47.945890,2020-05-05 00:00:00.000000,0.06575554,0.11742366,0.21201650,15,27,48,9,18,36,0.04194596,0.08137445,0.15938547,0.05147091,0.08568391,0.12728056
29177,0,USMissouriRay,Missouri,Ray,2021-04-04 07:50:47.945890,2020-05-06 00:00:00.000000,0.06531603,0.11942717,0.21057452,15,27,48,9,19,35,0.04337641,0.08304574,0.15303769,0.05081182,0.08512172,0.12284151
29177,0,USMissouriRay,Missouri,Ray,2021-04-04 07:50:47.945890,2020-05-07 00:00:00.000000,0.06477785,0.12004579,0.21287860,14,27,49,10,19,33,0.04531944,0.08398979,0.14705932,0.04815413,0.08388684,0.12171925
29177,0,USMissouriRay,Missouri,Ray,2021-04-04 07:50:47.945890,2020-05-08 00:00:00.000000,0.06304711,0.11766322,0.21520933,14,27,49,10,19,33,0.04432947,0.08484012,0.14522385,0.04473773,0.08388635,0.12353336
29177,0,USMissouriRay,Missouri,Ray,2021-04-04 07:50:47.945890,2020-05-09 00:00:00.000000,0.06144070,0.11594361,0.22151922,14,26,50,9,19,34,0.04319610,0.08257178,0.14978808,0.04588470,0.08244106,0.12176834
29177,0,USMissouriRay,Missouri,Ray,2021-04-04 07:50:47.945890,2020-05-10 00:00:00.000000,0.05995681,0.11742243,0.22709577,13,27,52,9,18,35,0.04223400,0.08195924,0.15416584,0.04531238,0.07867317,0.11932151
29177,0,USMissouriRay,Missouri,Ray,2021-04-04 07:50:47.945890,2020-05-11 00:00:00.000000,0.06119750,0.11505850,0.22006809,14,26,50,9,18,36,0.04127232,0.08022116,0.15831227,0.04229337,0.07701911,0.11216912
29177,0,USMissouriRay,Missouri,Ray,2021-04-04 07:50:47.945890,2020-05-12 00:00:00.000000,0.06221265,0.11507118,0.21242858,14,26,48,9,18,36,0.04154810,0.07918528,0.15795780,0.04232818,0.07689069,0.11180112
29177,0,USMissouriRay,Missouri,Ray,2021-04-04 07:50:47.945890,2020-05-13 00:00:00.000000,0.06023709,0.11339367,0.20394287,13,26,46,9,18,35,0.04236177,0.07854572,0.15502962,0.04254058,0.07649261,0.11224817
29177,0,USMissouriRay,Missouri,Ray,2021-04-04 07:50:47.945890,2020-05-14 00:00:00.000000,0.05838034,0.10998554,0.19727006,13,25,45,9,17,34,0.04224998,0.07679836,0.15062478,0.04312482,0.07424099,0.11474651
29177,0,USMissouriRay,Missouri,Ray,2021-04-04 07:50:47.945890,2020-05-15 00:00:00.000000,0.05836612,0.10919971,0.19223801,13,25,44,9,17,33,0.04096661,0.07699232,0.14679207,0.04448073,0.07214350,0.11530326
29177,0,USMissouriRay,Missouri,Ray,2021-04-04 07:50:47.945890,2020-05-16 00:00:00.000000,0.05815727,0.10851411,0.18743294,13,24,43,9,17,33,0.03976087,0.07579576,0.14338767,0.04476869,0.07377809,0.11456654
29177,0,USMissouriRay,Missouri,Ray,2021-04-04 07:50:47.945890,2020-05-17 00:00:00.000000,0.05643621,0.10766570,0.18265466,12,24,42,9,17,32,0.03921965,0.07558336,0.14003356,0.04248442,0.07173250,0.11356964
29177,0,USMissouriRay,Missouri,Ray,2021-04-04 07:50:47.945890,2020-05-18 00:00:00.000000,0.05755145,0.10800987,0.17598895,13,24,40,9,17,31,0.03995196,0.07603651,0.13670687,0.04083870,0.07057908,0.11289003
29177,0,USMissouriRay,Missouri,Ray,2021-04-04 07:50:47.945890,2020-05-19 00:00:00.000000,0.05848924,0.10943433,0.16946896,13,25,39,9,17,30,0.03974672,0.07438401,0.13251537,0.03942220,0.06996651,0.11476637
29177,0,USMissouriRay,Missouri,Ray,2021-04-04 07:50:47.945890,2020-05-20 00:00:00.000000,0.05729373,0.10749678,0.16601383,13,24,38,9,17,29,0.03915045,0.07454553,0.12801478,0.03932257,0.07021446,0.11474738
29177,0,USMissouriRay,Missouri,Ray,2021-04-04 07:50:47.945890,2020-05-21 00:00:00.000000,0.05729833,0.10829171,0.16360898,13,24,37,8,17,28,0.03841804,0.07632433,0.12348543,0.03929402,0.07065578,0.11351679
29177,0,USMissouriRay,Missouri,Ray,2021-04-04 07:50:47.945890,2020-05-22 00:00:00.000000,0.05569371,0.10885044,0.16634359,12,25,38,8,17,27,0.03787252,0.07610208,0.12057297,0.03918112,0.07061930,0.11556891
29177,0,USMissouriRay,Missouri,Ray,2021-04-04 07:50:47.945890,2020-05-23 00:00:00.000000,0.05398030,0.10788789,0.16683696,12,24,38,8,17,27,0.03749777,0.07547911,0.11899777,0.03545920,0.06863133,0.11557338
29177,0,USMissouriRay,Missouri,Ray,2021-04-04 07:50:47.945890,2020-05-24 00:00:00.000000,0.05274130,0.10786392,0.16948030,12,24,39,8,17,27,0.03647548,0.07437912,0.12055027,0.03489830,0.06725627,0.11563355
29177,0,USMissouriRay,Missouri,Ray,2021-04-04 07:50:47.945890,2020-05-25 00:00:00.000000,0.05381296,0.10809749,0.16398157,12,24,37,8,16,27,0.03557717,0.07360320,0.12078212,0.03487592,0.06751180,0.11566963
29177,0,USMissouriRay,Missouri,Ray,2021-04-04 07:50:47.945890,2020-05-26 00:00:00.000000,0.05476620,0.10602825,0.16058175,12,24,36,8,17,27,0.03752664,0.07424624,0.11957516,0.03485420,0.06673434,0.11571910
29177,0,USMissouriRay,Missouri,Ray,2021-04-04 07:50:47.945890,2020-05-27 00:00:00.000000,0.05587363,0.10537473,0.15725802,12,24,36,8,16,27,0.03874163,0.07305243,0.11771041,0.03480932,0.06770300,0.11566199
29177,0,USMissouriRay,Missouri,Ray,2021-04-04 07:50:47.945890,2020-05-28 00:00:00.000000,0.05693274,0.10467483,0.15419133,13,24,35,9,16,26,0.04022176,0.07258985,0.11554871,0.03585724,0.06747359,0.11555802
29177,0,USMissouriRay,Missouri,Ray,2021-04-04 07:50:47.945890,2020-05-29 00:00:00.000000,0.05788816,0.10209299,0.15086350,13,23,34,9,16,26,0.03960155,0.07193320,0.11327791,0.03836558,0.06688939,0.11527232
29177,0,USMissouriRay,Missouri,Ray,2021-04-04 07:50:47.945890,2020-05-30 00:00:00.000000,0.05873075,0.10089628,0.15582493,13,23,35,8,16,25,0.03883814,0.07016789,0.11197700,0.03928712,0.06514311,0.11407213
29177,0,USMissouriRay,Missouri,Ray,2021-04-04 07:50:47.945890,2020-05-31 00:00:00.000000,0.05640545,0.09871746,0.16164784,12,22,37,8,15,25,0.03816533,0.06901681,0.10885371,0.03922414,0.06358389,0.11281336
29177,0,USMissouriRay,Missouri,Ray,2021-04-04 07:50:47.945890,2020-06-01 00:00:00.000000,0.06010184,0.10246233,0.15368878,13,23,35,8,15,25,0.03762722,0.06899977,0.11094585,0.03924095,0.06320575,0.11646229
29177,0,USMissouriRay,Missouri,Ray,2021-04-04 07:50:47.945890,2020-06-02 00:00:00.000000,0.06060327,0.10155904,0.16328203,13,23,37,9,15,25,0.04084265,0.06826208,0.11276714,0.03926708,0.06265984,0.11876181
29177,0,USMissouriRay,Missouri,Ray,2021-04-04 07:50:47.945890,2020-06-03 00:00:00.000000,0.06104332,0.10096377,0.16300007,14,23,37,9,16,24,0.04241206,0.07025738,0.10805167,0.03924158,0.06237729,0.11949344
29177,0,USMissouriRay,Missouri,Ray,2021-04-04 07:50:47.945890,2020-06-04 00:00:00.000000,0.06035316,0.09928357,0.16202926,13,22,37,9,16,26,0.04144742,0.07004445,0.11308687,0.03910125,0.06328248,0.11802166
29177,0,USMissouriRay,Missouri,Ray,2021-04-04 07:50:47.945890,2020-06-05 00:00:00.000000,0.05680744,0.09654884,0.17204876,13,22,39,9,15,25,0.04072000,0.06926315,0.11292729,0.03879015,0.06335919,0.11379583
29177,0,USMissouriRay,Missouri,Ray,2021-04-04 07:50:47.945890,2020-06-06 00:00:00.000000,0.05270454,0.09411224,0.18470485,12,21,42,8,15,26,0.03906242,0.06796470,0.11309059,0.03831383,0.06411964,0.11365200
29177,0,USMissouriRay,Missouri,Ray,2021-04-04 07:50:47.945890,2020-06-07 00:00:00.000000,0.04897770,0.09319738,0.19614301,11,21,45,8,15,28,0.03719638,0.06625092,0.12205392,0.03779006,0.06170115,0.11562476
29177,0,USMissouriRay,Missouri,Ray,2021-04-04 07:50:47.945890,2020-06-08 00:00:00.000000,0.04473839,0.08684605,0.18480211,10,19,42,8,15,29,0.03486003,0.06642308,0.13031809,0.03736111,0.06179698,0.11661505
29177,0,USMissouriRay,Missouri,Ray,2021-04-04 07:50:47.945890,2020-06-09 00:00:00.000000,0.04029684,0.08055420,0.17242000,9,18,39,7,14,29,0.03193330,0.06282077,0.12902728,0.03656062,0.06022148,0.11704286
29177,0,USMissouriRay,Missouri,Ray,2021-04-04 07:50:47.945890,2020-06-10 00:00:00.000000,0.03616862,0.07421422,0.15889475,8,17,36,6,13,28,0.02874008,0.05772872,0.12310060,0.03605621,0.05969440,0.11725028
29177,0,USMissouriRay,Missouri,Ray,2021-04-04 07:50:47.945890,2020-06-11 00:00:00.000000,0.03228665,0.06814447,0.14553825,7,15,33,5,12,26,0.02542447,0.05270968,0.11516610,0.03545824,0.06000579,0.11742750
29177,0,USMissouriRay,Missouri,Ray,2021-04-04 07:50:47.945890,2020-06-12 00:00:00.000000,0.02875742,0.06245399,0.13294088,6,14,30,5,11,24,0.02287199,0.04851828,0.10660816,0.03486248,0.06157672,0.11766972
29177,0,USMissouriRay,Missouri,Ray,2021-04-04 07:50:47.945890,2020-06-13 00:00:00.000000,0.02560274,0.05626607,0.12131394,5,12,27,4,10,22,0.02049840,0.04459768,0.09812877,0.03472269,0.06284381,0.11818959
29177,0,USMissouriRay,Missouri,Ray,2021-04-04 07:50:47.945890,2020-06-14 00:00:00.000000,0.02279431,0.05155658,0.11068947,5,11,25,4,9,20,0.01834213,0.04097084,0.09005675,0.03505036,0.06314194,0.11905644
29177,0,USMissouriRay,Missouri,Ray,2021-04-04 07:50:47.945890,2020-06-15 00:00:00.000000,0.02599173,0.05372942,0.11130940,5,12,25,3,8,18,0.01639747,0.03717803,0.08252507,0.03440852,0.06431088,0.11920810
29177,0,USMissouriRay,Missouri,Ray,2021-04-04 07:50:47.945890,2020-06-16 00:00:00.000000,0.02941452,0.05703686,0.11514468,6,13,26,4,8,18,0.01758204,0.03646439,0.07943202,0.03607887,0.06328656,0.11927713
29177,0,USMissouriRay,Missouri,Ray,2021-04-04 07:50:47.945890,2020-06-17 00:00:00.000000,0.03181382,0.06024538,0.12001961,7,13,27,4,8,18,0.01808896,0.03813640,0.07862911,0.03567705,0.06418823,0.11924766
29177,0,USMissouriRay,Missouri,Ray,2021-04-04 07:50:47.945890,2020-06-18 00:00:00.000000,0.03278771,0.06431841,0.13865903,7,14,31,4,9,18,0.01973218,0.04095534,0.07896868,0.03266686,0.06440484,0.12090181
29177,0,USMissouriRay,Missouri,Ray,2021-04-04 07:50:47.945890,2020-06-19 00:00:00.000000,0.03304533,0.06674276,0.13929380,7,15,32,4,10,21,0.02143515,0.04379663,0.09186283,0.03264973,0.06473818,0.12601127
29177,0,USMissouriRay,Missouri,Ray,2021-04-04 07:50:47.945890,2020-06-20 00:00:00.000000,0.03260153,0.06801127,0.13951903,7,15,32,5,10,22,0.02226509,0.04529493,0.09712536,0.03025285,0.06671187,0.13208466
29177,0,USMissouriRay,Missouri,Ray,2021-04-04 07:50:47.945890,2020-06-21 00:00:00.000000,0.03220962,0.06974950,0.14750112,7,16,33,5,10,22,0.02191481,0.04728216,0.09699096,0.02930343,0.06747624,0.13177678
29177,0,USMissouriRay,Missouri,Ray,2021-04-04 07:50:47.945890,2020-06-22 00:00:00.000000,0.03906471,0.07234260,0.14026305,8,16,32,4,11,22,0.02161031,0.04973090,0.09693762,0.02903768,0.06725984,0.13139753
29177,0,USMissouriRay,Missouri,Ray,2021-04-04 07:50:47.945890,2020-06-23 00:00:00.000000,0.04438626,0.07378790,0.14146439,10,16,32,5,11,22,0.02516134,0.05073234,0.09957067,0.02873073,0.06676278,0.13116606
29177,0,USMissouriRay,Missouri,Ray,2021-04-04 07:50:47.945890,2020-06-24 00:00:00.000000,0.04494564,0.07669342,0.14413200,10,17,33,7,11,23,0.03091195,0.05135689,0.10097952,0.02821476,0.06595315,0.13082675
29177,0,USMissouriRay,Missouri,Ray,2021-04-04 07:50:47.945890,2020-06-25 00:00:00.000000,0.04424204,0.07645489,0.14693431,10,17,33,7,11,23,0.03158775,0.05152965,0.10166145,0.02747570,0.06657318,0.13002248
29177,0,USMissouriRay,Missouri,Ray,2021-04-04 07:50:47.945890,2020-06-26 00:00:00.000000,0.04365874,0.07814283,0.14960033,10,17,34,7,12,24,0.03103268,0.05250981,0.10692421,0.02666919,0.06650043,0.13263712
29177,0,USMissouriRay,Missouri,Ray,2021-04-04 07:50:47.945890,2020-06-27 00:00:00.000000,0.04320676,0.07947930,0.15146020,9,18,34,7,12,24,0.03056505,0.05379262,0.10610465,0.02602102,0.06765398,0.13447350
29177,0,USMissouriRay,Missouri,Ray,2021-04-04 07:50:47.945890,2020-06-28 00:00:00.000000,0.04288194,0.07926060,0.15921514,9,18,36,6,12,24,0.03019028,0.05574180,0.10833004,0.02675319,0.06684900,0.13269454
29177,0,USMissouriRay,Missouri,Ray,2021-04-04 07:50:47.945890,2020-06-29 00:00:00.000000,0.04463557,0.07994923,0.15631227,10,18,35,6,12,25,0.02952141,0.05538595,0.11195584,0.02846294,0.06566636,0.13402475
29177,0,USMissouriRay,Missouri,Ray,2021-04-04 07:50:47.945890,2020-06-30 00:00:00.000000,0.04447247,0.08203690,0.15469677,10,18,35,7,12,25,0.03131885,0.05476005,0.11054218,0.02843405,0.06574546,0.13499493
29177,0,USMissouriRay,Missouri,Ray,2021-04-04 07:50:47.945890,2020-07-01 00:00:00.000000,0.04439794,0.08490443,0.15108638,10,19,34,7,12,24,0.03117247,0.05620608,0.10777643,0.02842184,0.06487655,0.13468702
29177,0,USMissouriRay,Missouri,Ray,2021-04-04 07:50:47.945890,2020-07-02 00:00:00.000000,0.04442758,0.08532393,0.15706808,10,19,36,7,13,24,0.03108468,0.05850951,0.10853172,0.02841559,0.06530969,0.13401692
29177,0,USMissouriRay,Missouri,Ray,2021-04-04 07:50:47.945890,2020-07-03 00:00:00.000000,0.04448297,0.08600817,0.16543955,10,19,38,7,13,24,0.03102693,0.05919409,0.10626937,0.02841251,0.06632854,0.13702955
29177,0,USMissouriRay,Missouri,Ray,2021-04-04 07:50:47.945890,2020-07-04 00:00:00.000000,0.04410800,0.08915078,0.17314462,10,20,39,7,13,25,0.03091783,0.05905907,0.11095189,0.02840953,0.06550675,0.13818055
29177,0,USMissouriRay,Missouri,Ray,2021-04-04 07:50:47.945890,2020-07-05 00:00:00.000000,0.04391662,0.09053145,0.18050162,10,20,41,7,13,26,0.03084570,0.05975082,0.11653326,0.02757212,0.06596239,0.13872197
29177,0,USMissouriRay,Missouri,Ray,2021-04-04 07:50:47.945890,2020-07-06 00:00:00.000000,0.04542736,0.08910800,0.17163512,10,20,39,7,13,28,0.03070411,0.06045787,0.12184829,0.02712201,0.06576681,0.13928663
29177,0,USMissouriRay,Missouri,Ray,2021-04-04 07:50:47.945890,2020-07-07 00:00:00.000000,0.05033108,0.09326888,0.16311885,11,21,37,6,14,27,0.03018794,0.06101822,0.12028730,0.02791384,0.06683963,0.14008528
29177,0,USMissouriRay,Missouri,Ray,2021-04-04 07:50:47.945890,2020-07-08 00:00:00.000000,0.04959119,0.09548139,0.15625345,11,21,35,7,14,26,0.03440982,0.06326180,0.11557152,0.02730813,0.06793049,0.14103506
29177,0,USMissouriRay,Missouri,Ray,2021-04-04 07:50:47.945890,2020-07-09 00:00:00.000000,0.04889230,0.09901637,0.16231726,11,22,37,7,14,26,0.03392768,0.06478175,0.11402065,0.02963767,0.06919614,0.14185082
29177,0,USMissouriRay,Missouri,Ray,2021-04-04 07:50:47.945890,2020-07-10 00:00:00.000000,0.04825821,0.09608589,0.17185259,11,22,39,7,15,26,0.03346613,0.06643247,0.11610845,0.03092395,0.07038781,0.14439377
29177,0,USMissouriRay,Missouri,Ray,2021-04-04 07:50:47.945890,2020-07-11 00:00:00.000000,0.04769109,0.09527367,0.18389866,10,21,42,7,14,26,0.03294072,0.06509867,0.11702964,0.03272634,0.07042921,0.14381000
29177,0,USMissouriRay,Missouri,Ray,2021-04-04 07:50:47.945890,2020-07-12 00:00:00.000000,0.04718788,0.09539056,0.19964728,10,21,45,7,15,29,0.03194615,0.06598440,0.12984466,0.03400116,0.07025882,0.14337148
29177,0,USMissouriRay,Missouri,Ray,2021-04-04 07:50:47.945890,2020-07-13 00:00:00.000000,0.05553561,0.09989944,0.19236039,12,22,44,7,15,31,0.03101407,0.06724596,0.13629305,0.03413802,0.06944779,0.14992403
29177,0,USMissouriRay,Missouri,Ray,2021-04-04 07:50:47.945890,2020-07-14 00:00:00.000000,0.05742382,0.10291194,0.19117143,13,23,44,7,16,31,0.03434440,0.06957458,0.13656996,0.03465839,0.07119491,0.15661308
29177,0,USMissouriRay,Missouri,Ray,2021-04-04 07:50:47.945890,2020-07-15 00:00:00.000000,0.05854950,0.10922545,0.19924003,13,25,45,9,16,30,0.03910489,0.07208004,0.13421411,0.03433162,0.07175608,0.15837294
29177,0,USMissouriRay,Missouri,Ray,2021-04-04 07:50:47.945890,2020-07-16 00:00:00.000000,0.05653999,0.10953023,0.21644994,13,25,49,9,16,30,0.04036860,0.07325327,0.13112543,0.03454052,0.07312953,0.15786234
29177,0,USMissouriRay,Missouri,Ray,2021-04-04 07:50:47.945890,2020-07-17 00:00:00.000000,0.05473030,0.11166531,0.22258676,12,25,51,9,17,32,0.03974805,0.07654489,0.13983722,0.03446312,0.07416911,0.16607175
29177,0,USMissouriRay,Missouri,Ray,2021-04-04 07:50:47.945890,2020-07-18 00:00:00.000000,0.05348969,0.11401339,0.23661869,12,26,54,8,17,35,0.03895266,0.07674002,0.15479786,0.03449473,0.07403891,0.16763744
29177,0,USMissouriRay,Missouri,Ray,2021-04-04 07:50:47.945890,2020-07-19 00:00:00.000000,0.05505659,0.11411729,0.24940847,12,26,57,8,17,36,0.03801736,0.07749392,0.15933132,0.03436955,0.07545462,0.16772159
29177,0,USMissouriRay,Missouri,Ray,2021-04-04 07:50:47.945890,2020-07-20 00:00:00.000000,0.06993621,0.13614785,0.26099143,16,31,60,8,18,38,0.03774999,0.07863693,0.16877210,0.03424632,0.07740472,0.16772999
29177,0,USMissouriRay,Missouri,Ray,2021-04-04 07:50:47.945890,2020-07-21 00:00:00.000000,0.08724910,0.15488540,0.26617042,20,35,61,10,21,39,0.04606197,0.09188757,0.17274762,0.03416684,0.07879741,0.16771599
29177,0,USMissouriRay,Missouri,Ray,2021-04-04 07:50:47.945890,2020-07-22 00:00:00.000000,0.10480917,0.18183619,0.28650543,24,41,65,12,23,43,0.05606050,0.10180851,0.18763639,0.03406811,0.07986345,0.16767758
29177,0,USMissouriRay,Missouri,Ray,2021-04-04 07:50:47.945890,2020-07-23 00:00:00.000000,0.11577551,0.20403596,0.32454852,26,46,74,15,27,44,0.06705223,0.11859067,0.19381601,0.03395203,0.08060038,0.16778869
29177,0,USMissouriRay,Missouri,Ray,2021-04-04 07:50:47.945890,2020-07-24 00:00:00.000000,0.12048636,0.22822847,0.36081159,27,52,83,17,30,50,0.07798268,0.13464144,0.22075328,0.03790977,0.08143067,0.17636467
29177,0,USMissouriRay,Missouri,Ray,2021-04-04 07:50:47.945890,2020-07-25 00:00:00.000000,0.12137309,0.24048758,0.38305631,27,55,88,19,34,56,0.08307369,0.15087875,0.24670059,0.04025420,0.08173829,0.17467089
29177,0,USMissouriRay,Missouri,Ray,2021-04-04 07:50:47.945890,2020-07-26 00:00:00.000000,0.11836977,0.24818021,0.39954622,27,57,91,19,37,59,0.08530327,0.16335728,0.25663981,0.04057008,0.08198786,0.17370604
29177,0,USMissouriRay,Missouri,Ray,2021-04-04 07:50:47.945890,2020-07-27 00:00:00.000000,0.13911821,0.26470121,0.41407922,32,60,95,19,38,61,0.08667434,0.16808192,0.26587394,0.04070676,0.08269986,0.17399210
29177,0,USMissouriRay,Missouri,Ray,2021-04-04 07:50:47.945890,2020-07-28 00:00:00.000000,0.14571035,0.27478144,0.42813383,33,63,98,22,41,63,0.09635944,0.18018334,0.27371694,0.04216270,0.08258025,0.17315692
29177,0,USMissouriRay,Missouri,Ray,2021-04-04 07:50:47.945890,2020-07-29 00:00:00.000000,0.14694398,0.26630972,0.44063328,33,61,101,23,43,67,0.09999604,0.18753418,0.29121104,0.04323070,0.08123139,0.17160312
29177,0,USMissouriRay,Missouri,Ray,2021-04-04 07:50:47.945890,2020-07-30 00:00:00.000000,0.14786442,0.26366147,0.45183194,34,60,104,23,43,67,0.10113503,0.18811915,0.29330922,0.04447431,0.07963613,0.16930374
29177,0,USMissouriRay,Missouri,Ray,2021-04-04 07:50:47.945890,2020-07-31 00:00:00.000000,0.14830110,0.26255285,0.46205433,34,60,106,23,42,67,0.10198911,0.18515329,0.29484149,0.04562370,0.07930105,0.16582163
29177,0,USMissouriRay,Missouri,Ray,2021-04-04 07:50:47.945890,2020-08-01 00:00:00.000000,0.14294264,0.26116884,0.47114228,32,60,108,23,42,69,0.10241616,0.18664890,0.30255551,0.04476848,0.07875591,0.16127068
29177,0,USMissouriRay,Missouri,Ray,2021-04-04 07:50:47.945890,2020-08-02 00:00:00.000000,0.13879860,0.25692587,0.47978400,31,59,110,23,42,71,0.10263274,0.18445469,0.30963950,0.04382078,0.07919099,0.15616212
29177,0,USMissouriRay,Missouri,Ray,2021-04-04 07:50:47.945890,2020-08-03 00:00:00.000000,0.13370511,0.24612839,0.45875079,30,56,105,23,41,72,0.10087427,0.17934758,0.31596380,0.04786857,0.08039264,0.15507946
29177,0,USMissouriRay,Missouri,Ray,2021-04-04 07:50:47.945890,2020-08-04 00:00:00.000000,0.12919126,0.23773230,0.43751915,29,54,100,22,40,71,0.09764135,0.17697122,0.31090391,0.04480199,0.07891250,0.16256696
29177,0,USMissouriRay,Missouri,Ray,2021-04-04 07:50:47.945890,2020-08-05 00:00:00.000000,0.12622191,0.22937653,0.41534067,29,52,95,21,39,69,0.09501671,0.17168078,0.30043845,0.04599698,0.07928377,0.16205775
29177,0,USMissouriRay,Missouri,Ray,2021-04-04 07:50:47.945890,2020-08-06 00:00:00.000000,0.12739686,0.22425080,0.39359267,29,51,90,21,38,66,0.09275617,0.16517897,0.28765540,0.04733662,0.07985232,0.16095112
29177,0,USMissouriRay,Missouri,Ray,2021-04-04 07:50:47.945890,2020-08-07 00:00:00.000000,0.12895622,0.21400491,0.37292800,29,49,85,20,36,63,0.09076504,0.15843150,0.27414989,0.04769290,0.07862153,0.14802398
29177,0,USMissouriRay,Missouri,Ray,2021-04-04 07:50:47.945890,2020-08-08 00:00:00.000000,0.12412457,0.20459601,0.35366362,28,47,81,19,35,60,0.08618615,0.15399371,0.26074327,0.04986969,0.07833386,0.14880463
29177,0,USMissouriRay,Missouri,Ray,2021-04-04 07:50:47.945890,2020-08-09 00:00:00.000000,0.11725279,0.20136847,0.33591297,26,46,77,19,33,57,0.08443472,0.14746505,0.24786784,0.05030785,0.08033940,0.15231873
29177,0,USMissouriRay,Missouri,Ray,2021-04-04 07:50:47.945890,2020-08-10 00:00:00.000000,0.11505267,0.19228005,0.32375270,26,44,74,18,32,54,0.08151619,0.14198748,0.23574219,0.05060491,0.08050864,0.15820179
29177,0,USMissouriRay,Missouri,Ray,2021-04-04 07:50:47.945890,2020-08-11 00:00:00.000000,0.11163924,0.18469216,0.32184407,25,42,74,17,31,52,0.07711640,0.13576911,0.22634873,0.05138802,0.08108386,0.15709914
29177,0,USMissouriRay,Missouri,Ray,2021-04-04 07:50:47.945890,2020-08-12 00:00:00.000000,0.10610371,0.18324355,0.31945049,24,42,73,16,29,51,0.07333877,0.13010059,0.22417346,0.05087214,0.08029692,0.15699677
29177,0,USMissouriRay,Missouri,Ray,2021-04-04 07:50:47.945890,2020-08-13 00:00:00.000000,0.09971625,0.17834074,0.32426885,22,41,74,16,29,51,0.07014635,0.12738378,0.22419208,0.05215229,0.07971010,0.16358292
29177,0,USMissouriRay,Missouri,Ray,2021-04-04 07:50:47.945890,2020-08-14 00:00:00.000000,0.09462490,0.17395728,0.33075963,21,40,76,15,28,52,0.06760881,0.12395517,0.22967375,0.05177206,0.08176448,0.17160353
29177,0,USMissouriRay,Missouri,Ray,2021-04-04 07:50:47.945890,2020-08-15 00:00:00.000000,0.09169480,0.16858399,0.32451462,21,38,74,15,27,54,0.06583803,0.12068575,0.23516361,0.05306265,0.08469976,0.17623334
29177,0,USMissouriRay,Missouri,Ray,2021-04-04 07:50:47.945890,2020-08-16 00:00:00.000000,0.08789186,0.16307798,0.31882574,20,37,73,14,27,55,0.06374266,0.11886654,0.24058022,0.05475210,0.08567590,0.17765843
29177,0,USMissouriRay,Missouri,Ray,2021-04-04 07:50:47.945890,2020-08-17 00:00:00.000000,0.08643923,0.16152611,0.30629389,19,37,70,14,26,54,0.06124900,0.11547599,0.23583120,0.05509578,0.08732788,0.17778706
29177,0,USMissouriRay,Missouri,Ray,2021-04-04 07:50:47.945890,2020-08-18 00:00:00.000000,0.08546090,0.16239323,0.29415932,19,37,67,13,25,52,0.05863766,0.11255838,0.22890845,0.05600638,0.08838042,0.17726211
29177,0,USMissouriRay,Missouri,Ray,2021-04-04 07:50:47.945890,2020-08-19 00:00:00.000000,0.08554490,0.15948398,0.28701223,19,36,66,13,26,50,0.05753417,0.11399415,0.22108795,0.05813812,0.08920315,0.17600293
29177,0,USMissouriRay,Missouri,Ray,2021-04-04 07:50:47.945890,2020-08-20 00:00:00.000000,0.08427076,0.15641005,0.28582286,19,36,65,13,26,48,0.05727763,0.11385134,0.21285110,0.05972407,0.09053639,0.17369042
29177,0,USMissouriRay,Missouri,Ray,2021-04-04 07:50:47.945890,2020-08-21 00:00:00.000000,0.08303698,0.15291500,0.28454382,19,35,65,13,25,47,0.05744203,0.11118991,0.20462944,0.06110237,0.09128962,0.17129052
29177,0,USMissouriRay,Missouri,Ray,2021-04-04 07:50:47.945890,2020-08-22 00:00:00.000000,0.08173004,0.15113569,0.28312662,18,34,65,13,25,46,0.05698456,0.11044764,0.20365522,0.06150565,0.09277199,0.19208901
29177,0,USMissouriRay,Missouri,Ray,2021-04-04 07:50:47.945890,2020-08-23 00:00:00.000000,0.07827737,0.14888324,0.28134159,18,34,64,12,24,46,0.05619971,0.10776427,0.20275785,0.06032219,0.09399980,0.21210374
29177,0,USMissouriRay,Missouri,Ray,2021-04-04 07:50:47.945890,2020-08-24 00:00:00.000000,0.08141293,0.14718040,0.28110790,18,33,64,12,24,46,0.05465455,0.10538155,0.20162611,0.06198841,0.09503935,0.21352883
29177,0,USMissouriRay,Missouri,Ray,2021-04-04 07:50:47.945890,2020-08-25 00:00:00.000000,0.08193801,0.14536962,0.27989410,18,33,64,12,23,46,0.05533058,0.10290747,0.20122798,0.06329279,0.09444471,0.21388148
29177,0,USMissouriRay,Missouri,Ray,2021-04-04 07:50:47.945890,2020-08-26 00:00:00.000000,0.08263516,0.14198999,0.27797427,19,32,63,12,23,46,0.05578636,0.10143763,0.20056365,0.06414370,0.09712781,0.21426008
29177,0,USMissouriRay,Missouri,Ray,2021-04-04 07:50:47.945890,2020-08-27 00:00:00.000000,0.08322866,0.14020581,0.28056268,19,32,64,12,23,45,0.05621495,0.10015721,0.19937896,0.06503920,0.09786044,0.21574289
29177,0,USMissouriRay,Missouri,Ray,2021-04-04 07:50:47.945890,2020-08-28 00:00:00.000000,0.08298410,0.13921461,0.28456279,19,32,65,13,22,45,0.05674423,0.09832628,0.19780421,0.06680778,0.10107842,0.22167626
29177,0,USMissouriRay,Missouri,Ray,2021-04-04 07:50:47.945890,2020-08-29 00:00:00.000000,0.08382094,0.13876009,0.28837229,19,31,66,13,22,45,0.05737625,0.09760934,0.19604771,0.06675707,0.10555795,0.23303552
29177,0,USMissouriRay,Missouri,Ray,2021-04-04 07:50:47.945890,2020-08-30 00:00:00.000000,0.08056079,0.13716478,0.29199095,18,31,67,13,22,45,0.05725210,0.09668705,0.19768139,0.06688646,0.10752349,0.23503114
29177,0,USMissouriRay,Missouri,Ray,2021-04-04 07:50:47.945890,2020-08-31 00:00:00.000000,0.08360595,0.13894755,0.28688951,19,31,66,13,21,46,0.05751185,0.09551803,0.20016694,0.06934023,0.10922261,0.23590655
29177,0,USMissouriRay,Missouri,Ray,2021-04-04 07:50:47.945890,2020-09-01 00:00:00.000000,0.08417867,0.14227819,0.28956911,19,32,66,13,22,45,0.05818936,0.09572696,0.19890239,0.06879801,0.11171412,0.23593777
29177,0,USMissouriRay,Missouri,Ray,2021-04-04 07:50:47.945890,2020-09-02 00:00:00.000000,0.08300983,0.14378039,0.29259361,19,33,67,13,22,48,0.05822770,0.09753031,0.21010165,0.06848487,0.11641737,0.23501350
29177,0,USMissouriRay,Missouri,Ray,2021-04-04 07:50:47.945890,2020-09-03 00:00:00.000000,0.08217197,0.14964582,0.29574124,18,34,68,13,22,48,0.05761075,0.09933476,0.20862483,0.06832558,0.11922770,0.23233379
29177,0,USMissouriRay,Missouri,Ray,2021-04-04 07:50:47.945890,2020-09-04 00:00:00.000000,0.08157229,0.15288730,0.30276604,18,35,69,13,23,47,0.05696749,0.10150619,0.20600022,0.07128977,0.12081657,0.22949644
29177,0,USMissouriRay,Missouri,Ray,2021-04-04 07:50:47.945890,2020-09-05 00:00:00.000000,0.08053118,0.15745682,0.30891697,18,36,71,12,23,46,0.05539595,0.10264546,0.20377673,0.07365749,0.12219272,0.21663868
29177,0,USMissouriRay,Missouri,Ray,2021-04-04 07:50:47.945890,2020-09-06 00:00:00.000000,0.07854171,0.15660246,0.31219456,18,36,71,12,24,47,0.05502624,0.10524649,0.20569995,0.07472914,0.12403749,0.22279515
29177,0,USMissouriRay,Missouri,Ray,2021-04-04 07:50:47.945890,2020-09-07 00:00:00.000000,0.08101733,0.16075004,0.30971290,18,37,71,12,24,47,0.05470790,0.10819511,0.20775190,0.07604144,0.12844591,0.21976028
29177,0,USMissouriRay,Missouri,Ray,2021-04-04 07:50:47.945890,2020-09-08 00:00:00.000000,0.08395722,0.16136159,0.30718978,19,37,70,12,25,48,0.05570929,0.10936003,0.20892434,0.08222329,0.13158454,0.21704902
29177,0,USMissouriRay,Missouri,Ray,2021-04-04 07:50:47.945890,2020-09-09 00:00:00.000000,0.08785668,0.16252152,0.32076376,20,37,73,13,25,48,0.05755199,0.11139768,0.20975735,0.08627524,0.13319785,0.21863868
29177,0,USMissouriRay,Missouri,Ray,2021-04-04 07:50:47.945890,2020-09-10 00:00:00.000000,0.09089236,0.16283153,0.33715090,20,37,77,13,25,49,0.05987235,0.11217615,0.21550257,0.09151903,0.13753959,0.23120498
29177,0,USMissouriRay,Missouri,Ray,2021-04-04 07:50:47.945890,2020-09-11 00:00:00.000000,0.09492306,0.16787625,0.33174364,21,38,76,14,25,54,0.06112828,0.11239007,0.23720641,0.09248580,0.14152026,0.23574423
29177,0,USMissouriRay,Missouri,Ray,2021-04-04 07:50:47.945890,2020-09-12 00:00:00.000000,0.09505014,0.16917269,0.33639359,21,38,77,14,26,55,0.06278347,0.11614685,0.24003724,0.09457569,0.14424115,0.23874858
29177,0,USMissouriRay,Missouri,Ray,2021-04-04 07:50:47.945890,2020-09-13 00:00:00.000000,0.09093379,0.17405247,0.35469218,20,40,81,13,26,55,0.05992055,0.11679627,0.23944729,0.09475892,0.14659930,0.24140509
29177,0,USMissouriRay,Missouri,Ray,2021-04-04 07:50:47.945890,2020-09-14 00:00:00.000000,0.09525319,0.18182713,0.35378544,21,41,81,13,27,56,0.05730214,0.11895122,0.24645710,0.09476244,0.15000167,0.24397363
29177,0,USMissouriRay,Missouri,Ray,2021-04-04 07:50:47.945890,2020-09-15 00:00:00.000000,0.09402773,0.18594806,0.36359741,21,42,83,13,28,56,0.06070943,0.12238237,0.24625430,0.09475185,0.15235188,0.24645108
29177,0,USMissouriRay,Missouri,Ray,2021-04-04 07:50:47.945890,2020-09-16 00:00:00.000000,0.09331484,0.19118865,0.37633419,21,44,86,14,28,58,0.06417374,0.12493666,0.25366493,0.09754519,0.15741408,0.25357028
29177,0,USMissouriRay,Missouri,Ray,2021-04-04 07:50:47.945890,2020-09-17 00:00:00.000000,0.09449407,0.20032723,0.38456614,21,46,88,14,30,60,0.06342606,0.13063341,0.26340642,0.10312197,0.16192960,0.30412876
29177,0,USMissouriRay,Missouri,Ray,2021-04-04 07:50:47.945890,2020-09-18 00:00:00.000000,0.09563402,0.20480427,0.39569502,22,47,91,14,30,63,0.06256704,0.13463241,0.27421519,0.10338704,0.16426766,0.31815163
29177,0,USMissouriRay,Missouri,Ray,2021-04-04 07:50:47.945890,2020-09-19 00:00:00.000000,0.09672215,0.20991177,0.40680821,22,48,93,14,31,62,0.06162456,0.13899450,0.27177867,0.10715344,0.16893115,0.31949824
29177,0,USMissouriRay,Missouri,Ray,2021-04-04 07:50:47.945890,2020-09-20 00:00:00.000000,0.09779835,0.21487399,0.41783215,22,49,96,13,33,63,0.06076460,0.14384498,0.27462418,0.11002498,0.18092561,0.31984757
29177,0,USMissouriRay,Missouri,Ray,2021-04-04 07:50:47.945890,2020-09-21 00:00:00.000000,0.09873913,0.22435108,0.41790537,22,51,96,13,33,64,0.06061524,0.14760694,0.28221640,0.11374960,0.19236454,0.32036320
29177,0,USMissouriRay,Missouri,Ray,2021-04-04 07:50:47.945890,2020-09-22 00:00:00.000000,0.10142444,0.22881975,0.42433943,23,52,97,14,35,65,0.06396386,0.15381182,0.28570338,0.11813748,0.19333038,0.32177986
29177,0,USMissouriRay,Missouri,Ray,2021-04-04 07:50:47.945890,2020-09-23 00:00:00.000000,0.10349312,0.23490891,0.43970215,23,54,101,15,36,66,0.06895106,0.16052400,0.29075553,0.12497440,0.19686853,0.32630075
29177,0,USMissouriRay,Missouri,Ray,2021-04-04 07:50:47.945890,2020-09-24 00:00:00.000000,0.10619479,0.24224473,0.44278178,24,55,101,15,37,70,0.06919187,0.16175998,0.30577686,0.12738288,0.20033340,0.32505586
29177,0,USMissouriRay,Missouri,Ray,2021-04-04 07:50:47.945890,2020-09-25 00:00:00.000000,0.10923664,0.24986535,0.45008054,25,57,103,16,38,72,0.06970662,0.16791695,0.31519422,0.12858314,0.20424366,0.31275033
29177,0,USMissouriRay,Missouri,Ray,2021-04-04 07:50:47.945890,2020-09-26 00:00:00.000000,0.11231318,0.25933553,0.45686331,25,59,105,16,39,71,0.07073244,0.17376853,0.31071195,0.13012609,0.21432130,0.33601414
29177,0,USMissouriRay,Missouri,Ray,2021-04-04 07:50:47.945890,2020-09-27 00:00:00.000000,0.11529540,0.27022768,0.46348721,26,62,106,16,41,70,0.07221178,0.17948813,0.30788734,0.14929622,0.21987253,0.33447202
29177,0,USMissouriRay,Missouri,Ray,2021-04-04 07:50:47.945890,2020-09-28 00:00:00.000000,0.11325302,0.28342484,0.47550205,26,65,109,17,42,72,0.07392451,0.18377404,0.31462174,0.15199883,0.22489391,0.33826908
29177,0,USMissouriRay,Missouri,Ray,2021-04-04 07:50:47.945890,2020-09-29 00:00:00.000000,0.11943142,0.29466530,0.50182881,27,67,115,17,43,76,0.07752400,0.18942834,0.33345924,0.15844851,0.22731686,0.36234407
29177,0,USMissouriRay,Missouri,Ray,2021-04-04 07:50:47.945890,2020-09-30 00:00:00.000000,0.12590643,0.30938461,0.52811690,28,71,121,18,45,81,0.08170654,0.19942659,0.35210429,0.16942114,0.23602722,0.37321270
29177,0,USMissouriRay,Missouri,Ray,2021-04-04 07:50:47.945890,2020-10-01 00:00:00.000000,0.13269505,0.32236589,0.55340451,30,74,127,19,48,85,0.08607694,0.21040107,0.37075364,0.17287502,0.24364379,0.37621090
29177,0,USMissouriRay,Missouri,Ray,2021-04-04 07:50:47.945890,2020-10-02 00:00:00.000000,0.14016421,0.34062269,0.56229875,32,78,129,20,51,89,0.09072206,0.22319165,0.38887409,0.17627262,0.25000235,0.37228097
29177,0,USMissouriRay,Missouri,Ray,2021-04-04 07:50:47.945890,2020-10-03 00:00:00.000000,0.14859394,0.35810320,0.57717713,34,82,132,22,53,92,0.09573893,0.23351697,0.40388749,0.18180218,0.26346104,0.36366769
29177,0,USMissouriRay,Missouri,Ray,2021-04-04 07:50:47.945890,2020-10-04 00:00:00.000000,0.15837023,0.37743576,0.61536954,36,86,141,23,56,93,0.10134692,0.24569464,0.40806552,0.18876005,0.26904517,0.36846646
29177,0,USMissouriRay,Missouri,Ray,2021-04-04 07:50:47.945890,2020-10-05 00:00:00.000000,0.16779223,0.39539837,0.62816317,38,91,144,24,60,95,0.10782464,0.26177080,0.41421393,0.19267709,0.27760540,0.37917395
29177,0,USMissouriRay,Missouri,Ray,2021-04-04 07:50:47.945890,2020-10-06 00:00:00.000000,0.18836491,0.41338775,0.65780708,43,95,151,26,61,101,0.11433824,0.26862326,0.43893049,0.19376394,0.28338328,0.38095143
29177,0,USMissouriRay,Missouri,Ray,2021-04-04 07:50:47.945890,2020-10-07 00:00:00.000000,0.21131532,0.42972322,0.69847115,48,98,160,27,63,104,0.12133210,0.27799734,0.45238907,0.20830486,0.28894275,0.38118120
29177,0,USMissouriRay,Missouri,Ray,2021-04-04 07:50:47.945890,2020-10-08 00:00:00.000000,0.21969126,0.45052857,0.73600327,50,103,169,31,67,110,0.13625571,0.29271126,0.48006119,0.21990817,0.29273941,0.38344249
29177,0,USMissouriRay,Missouri,Ray,2021-04-04 07:50:47.945890,2020-10-09 00:00:00.000000,0.22959972,0.47444684,0.78779125,52,109,181,33,70,116,0.14575044,0.30588125,0.50541790,0.22663198,0.29961480,0.40043231
29177,0,USMissouriRay,Missouri,Ray,2021-04-04 07:50:47.945890,2020-10-10 00:00:00.000000,0.24143773,0.50513133,0.82654197,55,116,190,34,73,121,0.15194513,0.31923079,0.52722966,0.23372284,0.30815978,0.41982633
29177,0,USMissouriRay,Missouri,Ray,2021-04-04 07:50:47.945890,2020-10-11 00:00:00.000000,0.25556879,0.53919971,0.86396366,58,124,198,36,78,124,0.15928042,0.34157465,0.54065294,0.24113882,0.31688873,0.44535982
29177,0,USMissouriRay,Missouri,Ray,2021-04-04 07:50:47.945890,2020-10-12 00:00:00.000000,0.29245897,0.56944887,0.91753639,67,131,211,38,83,132,0.16800641,0.36278017,0.57547492,0.24230231,0.32450998,0.45088922
29177,0,USMissouriRay,Missouri,Ray,2021-04-04 07:50:47.945890,2020-10-13 00:00:00.000000,0.32827288,0.60566198,0.97421511,75,139,224,44,87,139,0.19396920,0.38150568,0.60760107,0.24897606,0.32847369,0.46391269
29177,0,USMissouriRay,Missouri,Ray,2021-04-04 07:50:47.945890,2020-10-14 00:00:00.000000,0.34529581,0.62319734,1.03310967,79,143,237,48,92,148,0.20888247,0.40293692,0.64424940,0.25058855,0.34006705,0.46649024
29177,0,USMissouriRay,Missouri,Ray,2021-04-04 07:50:47.945890,2020-10-15 00:00:00.000000,0.36403694,0.64354160,1.09072106,83,148,251,50,96,155,0.21959190,0.41995573,0.67526266,0.25152007,0.34376562,0.47960753
29177,0,USMissouriRay,Missouri,Ray,2021-04-04 07:50:47.945890,2020-10-16 00:00:00.000000,0.38461681,0.66900039,1.13636794,88,153,261,53,100,162,0.23134800,0.43722634,0.70523158,0.25474803,0.34701624,0.47890348
29177,0,USMissouriRay,Missouri,Ray,2021-04-04 07:50:47.945890,2020-10-17 00:00:00.000000,0.40697032,0.71693315,1.18230982,93,165,272,56,106,169,0.24426534,0.46070096,0.73541199,0.26694865,0.35883007,0.47762854
29177,0,USMissouriRay,Missouri,Ray,2021-04-04 07:50:47.945890,2020-10-18 00:00:00.000000,0.43397766,0.76960522,1.22932221,99,177,282,59,112,176,0.25938439,0.48754875,0.76602589,0.27564455,0.36531307,0.50567269
29177,0,USMissouriRay,Missouri,Ray,2021-04-04 07:50:47.945890,2020-10-19 00:00:00.000000,0.48312567,0.82302396,1.27429464,111,189,293,64,119,183,0.28077361,0.51963170,0.79721938,0.27973945,0.36858112,0.51308550
29177,0,USMissouriRay,Missouri,Ray,2021-04-04 07:50:47.945890,2020-10-20 00:00:00.000000,0.53469786,0.86985011,1.32774878,123,200,305,71,127,194,0.31085245,0.55220594,0.84451734,0.28369275,0.37417388,0.51856410
29177,0,USMissouriRay,Missouri,Ray,2021-04-04 07:50:47.945890,2020-10-21 00:00:00.000000,0.57090848,0.91643935,1.39588579,131,210,321,79,136,207,0.34598226,0.59342610,0.90105918,0.28806760,0.37570851,0.52185342
29177,0,USMissouriRay,Missouri,Ray,2021-04-04 07:50:47.945890,2020-10-22 00:00:00.000000,0.61645364,0.96580945,1.44820608,141,222,333,88,145,215,0.38541182,0.63393277,0.93579565,0.29371666,0.38565546,0.52214493
29177,0,USMissouriRay,Missouri,Ray,2021-04-04 07:50:47.945890,2020-10-23 00:00:00.000000,0.67780179,1.02937729,1.55582380,156,236,358,98,151,231,0.42960603,0.66006340,1.00505822,0.30254886,0.39537232,0.52589732
29177,0,USMissouriRay,Missouri,Ray,2021-04-04 07:50:47.945890,2020-10-24 00:00:00.000000,0.72586387,1.09924064,1.67238446,167,253,384,101,160,248,0.44238142,0.69774796,1.07965739,0.32533340,0.40470157,0.53661373
29177,0,USMissouriRay,Missouri,Ray,2021-04-04 07:50:47.945890,2020-10-25 00:00:00.000000,0.74552583,1.18161405,1.79890167,171,271,414,103,168,267,0.45145222,0.73213508,1.16037707,0.33888899,0.40517315,0.54236402
29177,0,USMissouriRay,Missouri,Ray,2021-04-04 07:50:47.945890,2020-10-26 00:00:00.000000,0.80569439,1.27780157,1.93898264,185,294,446,107,180,287,0.46876273,0.78338200,1.24795980,0.34433140,0.41391275,0.54866690
29177,0,USMissouriRay,Missouri,Ray,2021-04-04 07:50:47.945890,2020-10-27 00:00:00.000000,0.87034972,1.36392693,2.08889986,200,313,480,116,194,307,0.50677471,0.84653772,1.33480273,0.34569330,0.41846619,0.55162045
29177,0,USMissouriRay,Missouri,Ray,2021-04-04 07:50:47.945890,2020-10-28 00:00:00.000000,0.93942660,1.45283873,2.24978011,216,334,517,126,211,327,0.54749320,0.91733870,1.42186335,0.34565413,0.41718352,0.55247808
29177,0,USMissouriRay,Missouri,Ray,2021-04-04 07:50:47.945890,2020-10-29 00:00:00.000000,1.01318551,1.55986370,2.41886201,233,359,556,136,229,351,0.59105669,0.99605717,1.52869386,0.34538509,0.42120635,0.54945585
29177,0,USMissouriRay,Missouri,Ray,2021-04-04 07:50:47.945890,2020-10-30 00:00:00.000000,1.09197474,1.67966356,2.59422827,251,386,597,146,248,386,0.63760482,1.08010954,1.67885876,0.34582079,0.42745809,0.55082391
29177,0,USMissouriRay,Missouri,Ray,2021-04-04 07:50:47.945890,2020-10-31 00:00:00.000000,1.17628574,1.81061887,2.76957416,270,416,637,158,269,414,0.68733621,1.17031955,1.80116238,0.34015028,0.42871696,0.54667212
29177,0,USMissouriRay,Missouri,Ray,2021-04-04 07:50:47.945890,2020-11-01 00:00:00.000000,1.23682976,1.91832086,2.94057752,284,441,676,170,286,443,0.74053624,1.24558818,1.92468663,0.32921527,0.42613136,0.53642270
29177,0,USMissouriRay,Missouri,Ray,2021-04-04 07:50:47.945890,2020-11-02 00:00:00.000000,1.29112292,2.06360117,3.11648589,297,474,717,183,301,470,0.79757257,1.30945398,2.04619689,0.31402518,0.42862799,0.52265681
29177,0,USMissouriRay,Missouri,Ray,2021-04-04 07:50:47.945890,2020-11-03 00:00:00.000000,1.40037820,2.14910402,3.28241407,322,494,755,192,322,499,0.83797870,1.39937083,2.16972110,0.29565302,0.42404731,0.52323837
29177,0,USMissouriRay,Missouri,Ray,2021-04-04 07:50:47.945890,2020-11-04 00:00:00.000000,1.51510756,2.28712291,3.44027598,348,526,791,201,340,527,0.87411683,1.47961269,2.29360048,0.29554895,0.40890795,0.51512006
29177,0,USMissouriRay,Missouri,Ray,2021-04-04 07:50:47.945890,2020-11-05 00:00:00.000000,1.63525331,2.41943778,3.62763616,376,556,835,211,357,564,0.91943076,1.55476465,2.45196648,0.30152888,0.40137516,0.51297504
29177,0,USMissouriRay,Missouri,Ray,2021-04-04 07:50:47.945890,2020-11-06 00:00:00.000000,1.75338888,2.54350795,3.82505818,403,585,880,228,385,601,0.99298272,1.67509310,2.61312152,0.28860809,0.39435930,0.51156796
29177,0,USMissouriRay,Missouri,Ray,2021-04-04 07:50:47.945890,2020-11-07 00:00:00.000000,1.83551787,2.67679445,3.97625486,422,616,915,245,408,636,1.06648938,1.77431755,2.76609996,0.28887508,0.37567065,0.49188796
29177,0,USMissouriRay,Missouri,Ray,2021-04-04 07:50:47.945890,2020-11-08 00:00:00.000000,1.88867348,2.79552226,4.01499951,434,643,924,258,426,648,1.12315539,1.85441038,2.81678557,0.27703089,0.36691409,0.48230436
29177,0,USMissouriRay,Missouri,Ray,2021-04-04 07:50:47.945890,2020-11-09 00:00:00.000000,1.91566072,2.89390145,4.09126300,440,666,941,267,442,656,1.16086467,1.92141632,2.85074648,0.26449972,0.35227934,0.44824762
29177,0,USMissouriRay,Missouri,Ray,2021-04-04 07:50:47.945890,2020-11-10 00:00:00.000000,1.93789791,3.00500264,4.25645679,446,691,979,272,457,661,1.18170788,1.98917871,2.87423234,0.25895522,0.34543336,0.44278964
29177,0,USMissouriRay,Missouri,Ray,2021-04-04 07:50:47.945890,2020-11-11 00:00:00.000000,1.95584727,3.11441084,4.37464101,450,716,1006,275,471,665,1.19636542,2.04678271,2.89255317,0.25188736,0.33288576,0.43952353
29177,0,USMissouriRay,Missouri,Ray,2021-04-04 07:50:47.945890,2020-11-12 00:00:00.000000,1.97092966,3.18528008,4.46554281,453,733,1027,278,487,688,1.20840818,2.11593752,2.98994582,0.23492717,0.31973469,0.43617971
29177,0,USMissouriRay,Missouri,Ray,2021-04-04 07:50:47.945890,2020-11-13 00:00:00.000000,1.98154930,3.23175864,4.55260387,456,743,1047,280,502,714,1.21869236,2.18269171,3.10225609,0.22863526,0.30461325,0.41168661
29177,0,USMissouriRay,Missouri,Ray,2021-04-04 07:50:47.945890,2020-11-14 00:00:00.000000,1.98365067,3.30179389,4.55621017,456,760,1048,282,512,736,1.22646093,2.22599326,3.20054845,0.21833352,0.28875765,0.37647100
29177,0,USMissouriRay,Missouri,Ray,2021-04-04 07:50:47.945890,2020-11-15 00:00:00.000000,1.97582309,3.32836816,4.60022124,454,766,1058,283,516,750,1.22953752,2.24353301,3.26092900,0.21723492,0.27783077,0.36028646
29177,0,USMissouriRay,Missouri,Ray,2021-04-04 07:50:47.945890,2020-11-16 00:00:00.000000,1.95982223,3.30316330,4.64330239,451,760,1068,287,528,744,1.25010944,2.29479760,3.23306706,0.21695359,0.27042033,0.35614017
29177,0,USMissouriRay,Missouri,Ray,2021-04-04 07:50:47.945890,2020-11-17 00:00:00.000000,2.00146996,3.27919876,4.65764670,460,754,1072,294,524,732,1.27963707,2.27768209,3.18311475,0.21708374,0.26623279,0.35343929
29177,0,USMissouriRay,Missouri,Ray,2021-04-04 07:50:47.945890,2020-11-18 00:00:00.000000,2.05320385,3.26309399,4.65180718,472,751,1070,301,520,727,1.31140367,2.26240248,3.15925434,0.21785008,0.26394301,0.35493764
29177,0,USMissouriRay,Missouri,Ray,2021-04-04 07:50:47.945890,2020-11-19 00:00:00.000000,2.06646349,3.28371839,4.62793365,475,755,1065,309,518,735,1.34506222,2.25471367,3.19556013,0.21613692,0.26373995,0.35493526
29177,0,USMissouriRay,Missouri,Ray,2021-04-04 07:50:47.945890,2020-11-20 00:00:00.000000,2.03900988,3.26761354,4.60889991,469,752,1060,317,525,743,1.38093999,2.28213391,3.22969373,0.20404154,0.25998233,0.35132068
29177,0,USMissouriRay,Missouri,Ray,2021-04-04 07:50:47.945890,2020-11-21 00:00:00.000000,2.03127009,3.26739932,4.67418333,467,752,1075,326,527,751,1.41950599,2.29275089,3.26494440,0.20329075,0.25898202,0.34350118
29177,0,USMissouriRay,Missouri,Ray,2021-04-04 07:50:47.945890,2020-11-22 00:00:00.000000,2.03933053,3.25768446,4.75899442,469,749,1095,334,527,761,1.45404000,2.29067389,3.30631971,0.20376106,0.25987459,0.33668504
29177,0,USMissouriRay,Missouri,Ray,2021-04-04 07:50:47.945890,2020-11-23 00:00:00.000000,2.06014805,3.27842492,4.79749898,474,754,1104,335,519,770,1.45811236,2.25664880,3.34919432,0.20494821,0.26023864,0.33683115
29177,0,USMissouriRay,Missouri,Ray,2021-04-04 07:50:47.945890,2020-11-24 00:00:00.000000,2.08431441,3.27497153,4.78240323,479,753,1100,338,516,769,1.47136901,2.24599207,3.34376550,0.20598428,0.25957519,0.33691888
29177,0,USMissouriRay,Missouri,Ray,2021-04-04 07:50:47.945890,2020-11-25 00:00:00.000000,2.10996445,3.22072532,4.75993362,485,741,1095,342,517,767,1.48794550,2.24991393,3.33577243,0.20137187,0.25882962,0.33722089
29177,0,USMissouriRay,Missouri,Ray,2021-04-04 07:50:47.945890,2020-11-26 00:00:00.000000,2.13570930,3.19482182,4.72620023,491,735,1087,344,520,765,1.49541409,2.26176616,3.32359989,0.20373594,0.26113470,0.33860881
29177,0,USMissouriRay,Missouri,Ray,2021-04-04 07:50:47.945890,2020-11-27 00:00:00.000000,2.16111563,3.22624856,4.67725967,497,742,1076,343,519,760,1.49197321,2.25679339,3.30501287,0.20881532,0.26133554,0.34159573
29177,0,USMissouriRay,Missouri,Ray,2021-04-04 07:50:47.945890,2020-11-28 00:00:00.000000,2.18619739,3.21432408,4.61422032,503,739,1062,343,515,754,1.49060660,2.24026004,3.27810873,0.21470283,0.26689437,0.35292887
29177,0,USMissouriRay,Missouri,Ray,2021-04-04 07:50:47.945890,2020-11-29 00:00:00.000000,2.20884588,3.17264699,4.54384509,508,730,1045,343,509,746,1.49127758,2.21325083,3.24269576,0.22069353,0.26660244,0.34737063
29177,0,USMissouriRay,Missouri,Ray,2021-04-04 07:50:47.945890,2020-11-30 00:00:00.000000,2.17959456,3.16534873,4.49148904,501,728,1033,343,503,736,1.49373412,2.18632856,3.19999130,0.21889786,0.26663748,0.34377121
29177,0,USMissouriRay,Missouri,Ray,2021-04-04 07:50:47.945890,2020-12-01 00:00:00.000000,2.15219913,3.15400139,4.43693882,495,725,1021,344,501,727,1.49598696,2.17840345,3.16179810,0.22115883,0.27211282,0.35099486
29177,0,USMissouriRay,Missouri,Ray,2021-04-04 07:50:47.945890,2020-12-02 00:00:00.000000,2.12735327,3.14929632,4.38282986,489,724,1008,345,506,729,1.49997547,2.19953292,3.17103326,0.22161080,0.27594034,0.35654102
29177,0,USMissouriRay,Missouri,Ray,2021-04-04 07:50:47.945890,2020-12-03 00:00:00.000000,2.17148018,3.12485553,4.33024883,499,719,996,343,502,731,1.49039394,2.18492169,3.17898924,0.22087092,0.27786744,0.36550739
29177,0,USMissouriRay,Missouri,Ray,2021-04-04 07:50:47.945890,2020-12-04 00:00:00.000000,2.13905977,3.11920897,4.33700820,492,717,998,339,501,733,1.47560999,2.17682602,3.18568399,0.22673960,0.28173525,0.37437372
29177,0,USMissouriRay,Missouri,Ray,2021-04-04 07:50:47.945890,2020-12-05 00:00:00.000000,2.09761499,3.10179651,4.36150688,482,713,1003,337,501,734,1.46681266,2.17697924,3.19130426,0.23729638,0.28815158,0.37062453
29177,0,USMissouriRay,Missouri,Ray,2021-04-04 07:50:47.945890,2020-12-06 00:00:00.000000,2.10638033,3.09830416,4.39841958,484,713,1012,332,501,735,1.44650741,2.17910903,3.19593437,0.23790942,0.29224424,0.37861559
29177,0,USMissouriRay,Missouri,Ray,2021-04-04 07:50:47.945890,2020-12-07 00:00:00.000000,2.12788489,3.07739809,4.44846579,489,708,1023,329,499,736,1.42936730,2.16889100,3.19947681,0.23933512,0.29611121,0.38469714
29177,0,USMissouriRay,Missouri,Ray,2021-04-04 07:50:47.945890,2020-12-08 00:00:00.000000,2.15196714,3.10504303,4.51251010,495,714,1038,326,501,737,1.41894727,2.18080563,3.20362913,0.23669105,0.29619153,0.38139856
29177,0,USMissouriRay,Missouri,Ray,2021-04-04 07:50:47.945890,2020-12-09 00:00:00.000000,2.14456652,3.13666131,4.59071139,493,721,1056,326,504,746,1.42061282,2.19017818,3.24154040,0.23418312,0.29683370,0.37568878
29177,0,USMissouriRay,Missouri,Ray,2021-04-04 07:50:47.945890,2020-12-10 00:00:00.000000,2.13636525,3.14986736,4.68118832,491,725,1077,329,506,757,1.43239434,2.20154848,3.28903518,0.22812414,0.29758894,0.36974142
29177,0,USMissouriRay,Missouri,Ray,2021-04-04 07:50:47.945890,2020-12-11 00:00:00.000000,2.16676367,3.16524209,4.78101842,498,728,1100,333,509,770,1.44931709,2.21332381,3.34568334,0.22642879,0.30033330,0.36022339
29177,0,USMissouriRay,Missouri,Ray,2021-04-04 07:50:47.945890,2020-12-12 00:00:00.000000,2.19919958,3.17421585,4.88721730,506,730,1124,338,509,784,1.46859687,2.21504173,3.41014417,0.22098243,0.29650704,0.36639054
29177,0,USMissouriRay,Missouri,Ray,2021-04-04 07:50:47.945890,2020-12-13 00:00:00.000000,2.23334580,3.20573669,4.99675968,514,737,1150,340,512,801,1.48086370,2.22435500,3.48066201,0.22071171,0.29197851,0.36668389
29177,0,USMissouriRay,Missouri,Ray,2021-04-04 07:50:47.945890,2020-12-14 00:00:00.000000,2.24842742,3.20323195,5.00781475,517,737,1152,340,510,818,1.48138960,2.21740104,3.55528589,0.21986548,0.28729492,0.36695205
29177,0,USMissouriRay,Missouri,Ray,2021-04-04 07:50:47.945890,2020-12-15 00:00:00.000000,2.19330394,3.21788635,4.94759330,504,740,1138,340,512,836,1.48140377,2.22800370,3.63247784,0.21956695,0.28551080,0.36702264
29177,0,USMissouriRay,Missouri,Ray,2021-04-04 07:50:47.945890,2020-12-16 00:00:00.000000,2.15451248,3.20948296,4.88567015,495,738,1124,340,511,853,1.48074279,2.22097254,3.70851017,0.21407943,0.28568832,0.36591486
29177,0,USMissouriRay,Missouri,Ray,2021-04-04 07:50:47.945890,2020-12-17 00:00:00.000000,2.12587783,3.18103439,4.82189371,489,732,1109,340,510,853,1.47882112,2.21677073,3.70824112,0.21236655,0.28485627,0.36598804
29177,0,USMissouriRay,Missouri,Ray,2021-04-04 07:50:47.945890,2020-12-18 00:00:00.000000,2.12005076,3.17594051,4.75551207,487,731,1094,339,514,842,1.47528653,2.23609538,3.66153160,0.21075371,0.27695696,0.35461030
29177,0,USMissouriRay,Missouri,Ray,2021-04-04 07:50:47.945890,2020-12-19 00:00:00.000000,2.11541235,3.14434917,4.68699640,486,723,1078,339,517,831,1.47463429,2.25006891,3.61315915,0.20579541,0.27350833,0.34979428
29177,0,USMissouriRay,Missouri,Ray,2021-04-04 07:50:47.945890,2020-12-20 00:00:00.000000,2.10391358,3.13732721,4.61792601,484,722,1062,335,512,820,1.45569093,2.22785973,3.56318881,0.20461792,0.26867281,0.35422257
29177,0,USMissouriRay,Missouri,Ray,2021-04-04 07:50:47.945890,2020-12-21 00:00:00.000000,2.08217313,3.09360186,4.55055161,479,712,1047,330,505,808,1.43741611,2.19723035,3.51225802,0.20429478,0.26475280,0.36290170
29177,0,USMissouriRay,Missouri,Ray,2021-04-04 07:50:47.945890,2020-12-22 00:00:00.000000,2.05083398,3.03409005,4.48253516,472,698,1031,333,502,796,1.44976224,2.18142212,3.46170709,0.19910529,0.26366798,0.36664538
29177,0,USMissouriRay,Missouri,Ray,2021-04-04 07:50:47.945890,2020-12-23 00:00:00.000000,2.01077407,3.00325183,4.43698801,462,691,1021,331,502,785,1.44039327,2.18316444,3.41099300,0.19418004,0.26223240,0.37704455
29177,0,USMissouriRay,Missouri,Ray,2021-04-04 07:50:47.945890,2020-12-24 00:00:00.000000,1.97389859,2.99613252,4.46955145,454,689,1028,329,496,773,1.42981762,2.15686589,3.35969726,0.19105456,0.26520127,0.37749951
29177,0,USMissouriRay,Missouri,Ray,2021-04-04 07:50:47.945890,2020-12-25 00:00:00.000000,1.93330058,2.97661602,4.48812681,445,685,1033,324,484,761,1.41028157,2.10589330,3.30721839,0.18484887,0.26174487,0.36319640
29177,0,USMissouriRay,Missouri,Ray,2021-04-04 07:50:47.945890,2020-12-26 00:00:00.000000,1.89299210,2.93270726,4.48669038,435,675,1032,318,477,748,1.38188646,2.07660205,3.25245740,0.18298746,0.26120990,0.35300486
29177,0,USMissouriRay,Missouri,Ray,2021-04-04 07:50:47.945890,2020-12-27 00:00:00.000000,1.85386334,2.86264255,4.42580350,426,658,1018,311,474,740,1.35353714,2.06331027,3.21691920,0.18008250,0.26063223,0.34960337
29177,0,USMissouriRay,Missouri,Ray,2021-04-04 07:50:47.945890,2020-12-28 00:00:00.000000,1.82584909,2.80745109,4.27742698,420,646,984,305,467,737,1.32582087,2.03097388,3.20584294,0.17417988,0.25748428,0.34894521
29177,0,USMissouriRay,Missouri,Ray,2021-04-04 07:50:47.945890,2020-12-29 00:00:00.000000,1.81078014,2.75736181,4.13012350,416,634,950,300,460,727,1.30417385,1.99869108,3.16232031,0.16812832,0.25594502,0.34915847
29177,0,USMissouriRay,Missouri,Ray,2021-04-04 07:50:47.945890,2020-12-30 00:00:00.000000,1.79943422,2.70060703,3.98550564,414,621,917,297,448,712,1.29123139,1.94746176,3.09450404,0.16526696,0.25531507,0.34978405
29177,0,USMissouriRay,Missouri,Ray,2021-04-04 07:50:47.945890,2020-12-31 00:00:00.000000,1.79110613,2.64340541,3.84351113,412,608,884,286,441,688,1.24662760,1.91879301,2.99076132,0.16432609,0.25097984,0.35076544
29177,0,USMissouriRay,Missouri,Ray,2021-04-04 07:50:47.945890,2021-01-01 00:00:00.000000,1.73331342,2.57786948,3.75212249,398,593,863,274,429,664,1.19324020,1.86809536,2.88793567,0.16400706,0.24967251,0.34762172
29177,0,USMissouriRay,Missouri,Ray,2021-04-04 07:50:47.945890,2021-01-02 00:00:00.000000,1.66973536,2.51724636,3.69829486,384,579,851,263,419,642,1.14327218,1.82406191,2.79340815,0.16385001,0.24904566,0.34271377
29177,0,USMissouriRay,Missouri,Ray,2021-04-04 07:50:47.945890,2021-01-03 00:00:00.000000,1.62046999,2.48730932,3.56210227,372,572,819,253,409,621,1.09983567,1.78001100,2.70107699,0.16172727,0.24677954,0.33380831
29177,0,USMissouriRay,Missouri,Ray,2021-04-04 07:50:47.945890,2021-01-04 00:00:00.000000,1.58153701,2.43995161,3.59622910,364,561,827,245,400,609,1.06496400,1.74016201,2.64671508,0.16028311,0.24242847,0.32098470
29177,0,USMissouriRay,Missouri,Ray,2021-04-04 07:50:47.945890,2021-01-05 00:00:00.000000,1.54873182,2.39112238,3.58903588,356,550,826,238,392,590,1.03736032,1.70415521,2.56556964,0.16325224,0.23969330,0.32382622
29177,0,USMissouriRay,Missouri,Ray,2021-04-04 07:50:47.945890,2021-01-06 00:00:00.000000,1.51852653,2.33298399,3.52780453,349,537,812,233,383,593,1.01451338,1.66526541,2.57681502,0.16115936,0.23697463,0.32218110
29177,0,USMissouriRay,Missouri,Ray,2021-04-04 07:50:47.945890,2021-01-07 00:00:00.000000,1.49572893,2.28124175,3.45738557,344,525,795,228,376,593,0.99403881,1.63416861,2.57699377,0.15797406,0.23343269,0.31646957
29177,0,USMissouriRay,Missouri,Ray,2021-04-04 07:50:47.945890,2021-01-08 00:00:00.000000,1.45244029,2.22177016,3.37558268,334,511,776,224,368,582,0.97398494,1.60052740,2.53157106,0.15447697,0.22793229,0.31483656
29177,0,USMissouriRay,Missouri,Ray,2021-04-04 07:50:47.945890,2021-01-09 00:00:00.000000,1.41014805,2.15187242,3.28912620,324,495,757,219,360,570,0.95228205,1.56416468,2.48053475,0.15074523,0.22801078,0.31744233
29177,0,USMissouriRay,Missouri,Ray,2021-04-04 07:50:47.945890,2021-01-10 00:00:00.000000,1.36227906,2.05966940,3.20100745,313,474,736,215,350,557,0.93716348,1.52302920,2.42352778,0.14609993,0.22360811,0.30861667
29177,0,USMissouriRay,Missouri,Ray,2021-04-04 07:50:47.945890,2021-01-11 00:00:00.000000,1.32014717,2.02479955,3.10940886,303,466,715,211,341,543,0.92064956,1.48195079,2.36287890,0.14155160,0.22253871,0.30581083
29177,0,USMissouriRay,Missouri,Ray,2021-04-04 07:50:47.945890,2021-01-12 00:00:00.000000,1.27873852,1.99239810,3.01954019,294,458,695,200,330,529,0.86939405,1.43686947,2.29971444,0.14181467,0.22233635,0.30793093
29177,0,USMissouriRay,Missouri,Ray,2021-04-04 07:50:47.945890,2021-01-13 00:00:00.000000,1.23867649,1.95145071,2.93257058,285,449,675,193,322,514,0.84120894,1.40166209,2.23611145,0.14405116,0.21788579,0.30351871
29177,0,USMissouriRay,Missouri,Ray,2021-04-04 07:50:47.945890,2021-01-14 00:00:00.000000,1.20013178,1.90131575,2.85057460,276,437,656,187,313,500,0.81458354,1.36195114,2.17348832,0.14532236,0.21611856,0.30332757
29177,0,USMissouriRay,Missouri,Ray,2021-04-04 07:50:47.945890,2021-01-15 00:00:00.000000,1.16260035,1.83418061,2.77649031,267,422,639,183,306,486,0.79672897,1.32961540,2.11323817,0.14575682,0.21883827,0.30237537
29177,0,USMissouriRay,Missouri,Ray,2021-04-04 07:50:47.945890,2021-01-16 00:00:00.000000,1.12685761,1.77030207,2.71274462,259,407,624,182,298,473,0.79247393,1.29561202,2.05716430,0.15048703,0.21929923,0.29874285
29177,0,USMissouriRay,Missouri,Ray,2021-04-04 07:50:47.945890,2021-01-17 00:00:00.000000,1.09506350,1.71002938,2.65841705,252,393,611,175,290,461,0.76310345,1.26160232,2.00703086,0.15124292,0.22018244,0.29810592
29177,0,USMissouriRay,Missouri,Ray,2021-04-04 07:50:47.945890,2021-01-18 00:00:00.000000,1.06743580,1.65959327,2.60651965,245,382,599,166,280,451,0.72239468,1.22009853,1.96314578,0.14919542,0.21835839,0.29096501
29177,0,USMissouriRay,Missouri,Ray,2021-04-04 07:50:47.945890,2021-01-19 00:00:00.000000,1.04513456,1.60249451,2.55709128,240,368,588,161,271,442,0.70114579,1.18112216,1.92258993,0.14823533,0.22333053,0.28715884
29177,0,USMissouriRay,Missouri,Ray,2021-04-04 07:50:47.945890,2021-01-20 00:00:00.000000,1.02584000,1.54273031,2.50777395,236,355,577,157,264,433,0.68543021,1.14749202,1.88431808,0.14991429,0.22629869,0.28932767
29177,0,USMissouriRay,Missouri,Ray,2021-04-04 07:50:47.945890,2021-01-21 00:00:00.000000,1.00000015,1.49473627,2.45748745,230,344,565,154,253,425,0.67206081,1.10297483,1.84709291,0.15178874,0.22690414,0.28862731
29177,0,USMissouriRay,Missouri,Ray,2021-04-04 07:50:47.945890,2021-01-22 00:00:00.000000,0.97387429,1.44006552,2.40890321,224,331,554,151,248,416,0.65990097,1.07886458,1.80996802,0.14667144,0.22772691,0.28796566
29177,0,USMissouriRay,Missouri,Ray,2021-04-04 07:50:47.945890,2021-01-23 00:00:00.000000,0.95571681,1.37491197,2.37785882,219,316,547,148,239,407,0.64566398,1.04139345,1.77229177,0.14812325,0.22893643,0.29257625
29177,0,USMissouriRay,Missouri,Ray,2021-04-04 07:50:47.945890,2021-01-24 00:00:00.000000,0.91453418,1.33333349,2.34651727,210,306,540,145,230,399,0.63292635,1.00330369,1.73364090,0.15177934,0.23123604,0.30220034
29177,0,USMissouriRay,Missouri,Ray,2021-04-04 07:50:47.945890,2021-01-25 00:00:00.000000,0.87274518,1.30189681,2.30464011,200,299,530,141,223,389,0.61344468,0.97138587,1.69378703,0.15788226,0.23985266,0.31312420
29177,0,USMissouriRay,Missouri,Ray,2021-04-04 07:50:47.945890,2021-01-26 00:00:00.000000,0.83181790,1.29316318,2.24183323,191,297,516,136,217,381,0.59496173,0.94407674,1.65580362,0.15569830,0.24161786,0.33491069
29177,0,USMissouriRay,Missouri,Ray,2021-04-04 07:50:47.945890,2021-01-27 00:00:00.000000,0.79083543,1.26623518,2.20712690,182,291,508,132,214,372,0.57441348,0.93075303,1.61793066,0.15487327,0.24631212,0.33805886
29177,0,USMissouriRay,Missouri,Ray,2021-04-04 07:50:47.945890,2021-01-28 00:00:00.000000,0.75179340,1.23789067,2.16541145,173,284,498,125,208,363,0.54735368,0.90509782,1.57952504,0.15535598,0.25144838,0.33565392
29177,0,USMissouriRay,Missouri,Ray,2021-04-04 07:50:47.945890,2021-01-29 00:00:00.000000,0.73172878,1.22318976,2.09953398,168,281,483,119,204,354,0.52109370,0.88798366,1.54042181,0.15949491,0.25893193,0.33460424
29177,0,USMissouriRay,Missouri,Ray,2021-04-04 07:50:47.945890,2021-01-30 00:00:00.000000,0.71682395,1.18521371,2.04167560,164,272,469,114,200,345,0.49626617,0.87301620,1.50065922,0.17092144,0.26589548,0.34551264
29177,0,USMissouriRay,Missouri,Ray,2021-04-04 07:50:47.945890,2021-01-31 00:00:00.000000,0.70450247,1.17244065,2.00621205,162,269,461,112,195,337,0.48813869,0.84920272,1.46689310,0.18020870,0.26980204,0.35710895
29177,0,USMissouriRay,Missouri,Ray,2021-04-04 07:50:47.945890,2021-02-01 00:00:00.000000,0.69605467,1.15356596,1.98039389,160,265,455,110,191,330,0.48051408,0.83063439,1.43553881,0.19053278,0.27127376,0.37086175
29177,0,USMissouriRay,Missouri,Ray,2021-04-04 07:50:47.945890,2021-02-02 00:00:00.000000,0.68928692,1.15396428,1.93645922,158,265,445,108,188,323,0.47048190,0.82056898,1.40366496,0.19424216,0.28046342,0.38820009
29177,0,USMissouriRay,Missouri,Ray,2021-04-04 07:50:47.945890,2021-02-03 00:00:00.000000,0.68610758,1.16105318,1.89771743,157,267,436,106,187,315,0.46381191,0.81298660,1.37254359,0.19658945,0.28329156,0.40047661
29177,0,USMissouriRay,Missouri,Ray,2021-04-04 07:50:47.945890,2021-02-04 00:00:00.000000,0.68950071,1.14734403,1.87009527,158,264,430,105,184,309,0.45882320,0.80127487,1.34374808,0.19988446,0.29977263,0.41351580
29177,0,USMissouriRay,Missouri,Ray,2021-04-04 07:50:47.945890,2021-02-05 00:00:00.000000,0.69376045,1.15252254,1.86341675,159,265,428,104,186,303,0.45487392,0.80873287,1.32021508,0.21950164,0.32203538,0.42941207
29177,0,USMissouriRay,Missouri,Ray,2021-04-04 07:50:47.945890,2021-02-06 00:00:00.000000,0.69119755,1.15510361,1.88523397,159,265,433,103,187,300,0.45177741,0.81530501,1.30700173,0.22908936,0.32742304,0.45568508
29177,0,USMissouriRay,Missouri,Ray,2021-04-04 07:50:47.945890,2021-02-07 00:00:00.000000,0.70425950,1.15842944,1.93193912,162,266,444,103,187,301,0.44964343,0.81384659,1.30932368,0.24502462,0.34485653,0.46653515
29177,0,USMissouriRay,Missouri,Ray,2021-04-04 07:50:47.945890,2021-02-08 00:00:00.000000,0.70670766,1.17829598,1.99535918,162,271,459,104,188,305,0.45412427,0.81751355,1.32823259,0.25083357,0.35464002,0.49446911
29177,0,USMissouriRay,Missouri,Ray,2021-04-04 07:50:47.945890,2021-02-09 00:00:00.000000,0.71586387,1.21000993,2.02360481,164,278,465,106,189,313,0.46311151,0.82389138,1.36099271,0.25711939,0.36921825,0.52026439
29177,0,USMissouriRay,Missouri,Ray,2021-04-04 07:50:47.945890,2021-02-10 00:00:00.000000,0.72893403,1.25043310,2.04839437,167,287,471,108,191,323,0.47164627,0.83152166,1.40329926,0.27317000,0.39788354,0.53894007
29177,0,USMissouriRay,Missouri,Ray,2021-04-04 07:50:47.945890,2021-02-11 00:00:00.000000,0.74518004,1.29519618,2.07433351,171,298,477,110,195,334,0.48037908,0.84978468,1.45212160,0.29732864,0.43065051,0.58597018
29177,0,USMissouriRay,Missouri,Ray,2021-04-04 07:50:47.945890,2021-02-12 00:00:00.000000,0.76727859,1.35327310,2.10283989,176,311,484,112,202,339,0.49002942,0.88066602,1.47462833,0.30494194,0.45085619,0.65841564
29177,0,USMissouriRay,Missouri,Ray,2021-04-04 07:50:47.945890,2021-02-13 00:00:00.000000,0.80270493,1.41006614,2.20856665,184,324,508,115,210,343,0.50190050,0.91487049,1.49239989,0.31961438,0.47898072,0.70396741
29177,0,USMissouriRay,Missouri,Ray,2021-04-04 07:50:47.945890,2021-02-14 00:00:00.000000,0.85096906,1.49485782,2.33249052,195,344,536,120,219,352,0.52441859,0.95143685,1.53021582,0.35110912,0.52011728,0.73454275
29177,0,USMissouriRay,Missouri,Ray,2021-04-04 07:50:47.945890,2021-02-15 00:00:00.000000,0.91104515,1.60320482,2.47822395,209,369,570,127,234,374,0.55220461,1.01972529,1.62557608,0.37976010,0.56045968,0.76551237
29177,0,USMissouriRay,Missouri,Ray,2021-04-04 07:50:47.945890,2021-02-16 00:00:00.000000,0.98765899,1.72015993,2.72791443,227,395,627,139,251,407,0.60772243,1.09217079,1.77065648,0.41003110,0.59640627,0.82203603
29177,0,USMissouriRay,Missouri,Ray,2021-04-04 07:50:47.945890,2021-02-17 00:00:00.000000,1.08316422,1.86971409,2.94435165,249,430,677,152,271,442,0.66204175,1.18078478,1.92267079,0.43192833,0.61655906,0.83724367
29177,0,USMissouriRay,Missouri,Ray,2021-04-04 07:50:47.945890,2021-02-18 00:00:00.000000,1.19525863,2.03026884,3.15952840,275,467,727,164,291,468,0.71556112,1.26741359,2.03432201,0.46170748,0.64774642,0.88087672
29177,0,USMissouriRay,Missouri,Ray,2021-04-04 07:50:47.945890,2021-02-19 00:00:00.000000,1.30173606,2.21082213,3.42315648,299,508,787,180,315,490,0.78224463,1.36878359,2.12940094,0.49255436,0.67332683,0.91565797
29177,0,USMissouriRay,Missouri,Ray,2021-04-04 07:50:47.945890,2021-02-20 00:00:00.000000,1.43851183,2.40664337,3.75419198,331,553,864,202,345,522,0.87997554,1.49908917,2.27188527,0.54975421,0.72481333,0.93995584
29177,0,USMissouriRay,Missouri,Ray,2021-04-04 07:50:47.945890,2021-02-21 00:00:00.000000,1.62871653,2.64337429,4.19258652,374,608,965,228,378,567,0.99228693,1.64347499,2.46403587,0.58000645,0.77286809,1.00982364
29177,0,USMissouriRay,Missouri,Ray,2021-04-04 07:50:47.945890,2021-02-22 00:00:00.000000,1.84473939,2.90838359,4.74724876,424,669,1092,254,414,628,1.10619444,1.80090620,2.72871110,0.63062846,0.80809500,1.04728277
29177,0,USMissouriRay,Missouri,Ray,2021-04-04 07:50:47.945890,2021-02-23 00:00:00.000000,2.09023119,3.18920676,5.35095374,481,734,1231,281,459,704,1.22199903,1.99661614,3.06134024,0.65699403,0.82794982,1.04508995
29177,0,USMissouriRay,Missouri,Ray,2021-04-04 07:50:47.945890,2021-02-24 00:00:00.000000,2.39025863,3.52745508,5.98663006,550,811,1378,319,503,789,1.38748889,2.18586408,3.43140928,0.68217532,0.83688133,1.03486280
29177,0,USMissouriRay,Missouri,Ray,2021-04-04 07:50:47.945890,2021-02-25 00:00:00.000000,2.72778584,3.96679875,6.68248401,627,913,1538,367,553,884,1.59480663,2.40567102,3.84081103,0.70305135,0.86466773,1.02210674
29177,0,USMissouriRay,Missouri,Ray,2021-04-04 07:50:47.945890,2021-02-26 00:00:00.000000,3.11049318,4.45868349,7.44066922,715,1026,1712,421,615,987,1.83164412,2.67475338,4.29148628,0.72468714,0.88940643,1.03488953
29177,0,USMissouriRay,Missouri,Ray,2021-04-04 07:50:47.945890,2021-02-27 00:00:00.000000,3.54127686,5.02145020,8.26238466,815,1155,1901,477,689,1101,2.07443453,2.99494081,4.78514101,0.75842590,0.90903544,1.03975338
29177,0,USMissouriRay,Missouri,Ray,2021-04-04 07:50:47.945890,2021-02-28 00:00:00.000000,4.02429154,5.63542309,9.14759701,926,1297,2105,540,775,1225,2.34632707,3.37078915,5.32303177,0.81676948,0.91918079,1.04066228
29177,0,USMissouriRay,Missouri,Ray,2021-04-04 07:50:47.945890,2021-03-01 00:00:00.000000,4.56663712,6.30256398,10.11118339,1051,1450,2327,609,869,1359,2.64991651,3.77709471,5.90576397,0.84896929,0.92504430,1.04838018
29177,0,USMissouriRay,Missouri,Ray,2021-04-04 07:50:47.945890,2021-03-02 00:00:00.000000,5.16508357,7.03893205,11.13329578,1188,1620,2562,689,980,1505,2.99621337,4.25948751,6.53884597,0.87246240,0.92759096,1.05805336
29177,0,USMissouriRay,Missouri,Ray,2021-04-04 07:50:47.945890,2021-03-03 00:00:00.000000,5.83583036,7.92843216,12.20999611,1343,1824,2810,779,1092,1661,3.38461199,4.74445809,7.21821924,0.87973626,0.92849122,1.06341915
29177,0,USMissouriRay,Missouri,Ray,2021-04-04 07:50:47.945890,2021-03-04 00:00:00.000000,6.52662127,8.83093550,13.33325055,1502,2032,3069,878,1218,1827,3.81532592,5.29172400,7.94018536,0.87973920,0.92919045,1.06565204
29177,0,USMissouriRay,Missouri,Ray,2021-04-04 07:50:47.945890,2021-03-05 00:00:00.000000,7.30083957,9.82941601,14.49239718,1680,2262,3335,987,1356,2002,4.28935987,5.89430322,8.70018958,0.87976358,0.93064656,1.06580074
29177,0,USMissouriRay,Missouri,Ray,2021-04-04 07:50:47.945890,2021-03-06 00:00:00.000000,8.14332607,10.83575208,15.67405212,1874,2494,3607,1115,1510,2184,4.84800007,6.56251631,9.49225234,0.88040776,0.93037272,1.05194130
29177,0,USMissouriRay,Missouri,Ray,2021-04-04 07:50:47.945890,2021-03-07 00:00:00.000000,9.05157697,11.79072168,16.86198077,2083,2713,3881,1263,1661,2372,5.48995117,7.21781718,10.30869642,0.87777499,0.92961596,1.04147542
29177,0,USMissouriRay,Missouri,Ray,2021-04-04 07:50:47.945890,2021-03-08 00:00:00.000000,10.01437309,12.84852187,18.03287472,2305,2957,4150,1395,1822,2564,6.06467464,7.91582289,11.13997562,0.84807748,0.91261060,1.03654961
29177,0,USMissouriRay,Missouri,Ray,2021-04-04 07:50:47.945890,2021-03-09 00:00:00.000000,11.16504243,13.85335713,19.28710521,2569,3188,4439,1530,1994,2751,6.64826089,8.66628642,11.95198471,0.72771353,0.88056800,0.97169852
29177,0,USMissouriRay,Missouri,Ray,2021-04-04 07:50:47.945890,2021-03-10 00:00:00.000000,11.80645088,14.30848033,19.39408817,2717,3293,4464,1668,2163,2909,7.24996813,9.39788854,12.64018432,0.42525997,0.75007557,0.91339748
29177,0,USMissouriRay,Missouri,Ray,2021-04-04 07:50:47.945890,2021-03-11 00:00:00.000000,11.75296844,14.21480842,19.11536843,2705,3271,4399,1790,2263,3033,7.77702149,9.83338992,13.17971815,0.21586709,0.48364430,0.78898635
29177,0,USMissouriRay,Missouri,Ray,2021-04-04 07:50:47.945890,2021-03-12 00:00:00.000000,10.95981721,13.93458858,18.73735035,2522,3207,4312,1821,2311,3072,7.91539705,10.03998212,13.34789345,0.16618237,0.31066224,0.51442783
29177,0,USMissouriRay,Missouri,Ray,2021-04-04 07:50:47.945890,2021-03-13 00:00:00.000000,10.11535877,13.19826021,18.13967087,2328,3037,4175,1762,2255,3071,7.65662232,9.79887027,13.34581709,0.14742877,0.23824984,0.40340611
29177,0,USMissouriRay,Missouri,Ray,2021-04-04 07:50:47.945890,2021-03-14 00:00:00.000000,9.28893444,12.34291498,17.50260440,2138,2841,4028,1674,2151,3042,7.27353338,9.34798948,13.21974049,0.13224355,0.20839554,0.32982282
29177,0,USMissouriRay,Missouri,Ray,2021-04-04 07:50:47.945890,2021-03-15 00:00:00.000000,8.50863150,11.45248970,16.50686771,1958,2636,3799,1548,2014,3010,6.72870629,8.75266705,13.07713545,0.12925840,0.19522532,0.29181631
29177,0,USMissouriRay,Missouri,Ray,2021-04-04 07:50:47.945890,2021-03-16 00:00:00.000000,7.76362807,10.55793869,15.49247722,1787,2430,3566,1377,1879,2864,5.98474980,8.16490495,12.44538462,0.12063725,0.18640918,0.28430566
29177,0,USMissouriRay,Missouri,Ray,2021-04-04 07:50:47.945890,2021-03-17 00:00:00.000000,6.85516052,9.69796407,14.60202478,1577,2232,3361,1221,1751,2733,5.30548356,7.61027833,11.87639764,0.11564943,0.17393365,0.27602751
29177,0,USMissouriRay,Missouri,Ray,2021-04-04 07:50:47.945890,2021-03-18 00:00:00.000000,6.05088166,8.99348653,13.70761832,1392,2070,3155,1080,1624,2594,4.69592267,7.05869221,11.27115911,0.10645173,0.16895437,0.26459745
29177,0,USMissouriRay,Missouri,Ray,2021-04-04 07:50:47.945890,2021-03-19 00:00:00.000000,5.32238009,8.33864235,12.79114163,1225,1919,2944,956,1498,2416,4.15351800,6.50826299,10.49776714,0.09789309,0.16269043,0.25261040
29177,0,USMissouriRay,Missouri,Ray,2021-04-04 07:50:47.945890,2021-03-20 00:00:00.000000,4.66687338,7.65415177,11.88075546,1074,1761,2734,845,1375,2247,3.67283400,5.97607405,9.76322612,0.09636313,0.15549642,0.24446374
29177,0,USMissouriRay,Missouri,Ray,2021-04-04 07:50:47.945890,2021-03-21 00:00:00.000000,4.09468752,6.97537232,11.00521751,942,1605,2533,747,1265,2088,3.24744811,5.49767398,9.07204842,0.09131904,0.15257932,0.24181155
29177,0,USMissouriRay,Missouri,Ray,2021-04-04 07:50:47.945890,2021-03-22 00:00:00.000000,3.59405751,6.31880364,10.19376742,827,1454,2346,660,1154,1938,2.86896581,5.01759667,8.42304628,0.09077658,0.15003675,0.23940384
29177,0,USMissouriRay,Missouri,Ray,2021-04-04 07:50:47.945890,2021-03-23 00:00:00.000000,3.15772877,5.72547886,9.43620482,726,1317,2172,580,1057,1799,2.52108762,4.59408337,7.81656088,0.09073973,0.14801423,0.23728261
29177,0,USMissouriRay,Missouri,Ray,2021-04-04 07:50:47.945890,2021-03-24 00:00:00.000000,2.77799701,5.17002065,8.73253914,639,1190,2010,510,964,1669,2.21672136,4.19008034,7.25199423,0.08830620,0.14689093,0.23532617
29177,0,USMissouriRay,Missouri,Ray,2021-04-04 07:50:47.945890,2021-03-25 00:00:00.000000,2.44643652,4.70035290,8.08054043,563,1081,1859,448,880,1548,1.95061669,3.82364194,6.72749461,0.08096411,0.14622916,0.23894961
29177,0,USMissouriRay,Missouri,Ray,2021-04-04 07:50:47.945890,2021-03-26 00:00:00.000000,2.16022870,4.28492965,7.47729441,497,986,1721,394,803,1436,1.71171561,3.48943416,6.24074062,0.07458078,0.14689268,0.24342575
29177,0,USMissouriRay,Missouri,Ray,2021-04-04 07:50:47.945890,2021-03-27 00:00:00.000000,1.90165777,3.91716654,6.91882719,437,901,1592,345,733,1332,1.50015090,3.18580353,5.78922831,0.07117878,0.14359739,0.23601884
29177,0,USMissouriRay,Missouri,Ray,2021-04-04 07:50:47.945890,2021-03-28 00:00:00.000000,1.67927137,3.58178731,6.39773515,386,824,1472,302,668,1236,1.31368727,2.90299046,5.37028477,0.06979478,0.13956743,0.23052814
29177,0,USMissouriRay,Missouri,Ray,2021-04-04 07:50:47.945890,2021-03-29 00:00:00.000000,1.47220683,3.27182108,5.88091134,338,753,1353,264,607,1146,1.14984353,2.63756499,4.98123607,0.06928725,0.13808176,0.23994441
29177,0,USMissouriRay,Missouri,Ray,2021-04-04 07:50:47.945890,2021-03-30 00:00:00.000000,1.28943166,2.97985656,5.38431856,296,685,1239,231,550,1063,1.00364524,2.39174303,4.61815036,0.06906868,0.13521214,0.25556230
29177,0,USMissouriRay,Missouri,Ray,2021-04-04 07:50:47.945890,2021-03-31 00:00:00.000000,1.14598420,2.69325032,4.95526424,263,619,1140,201,498,985,0.87465046,2.16652642,4.27957889,0.06884684,0.13432265,0.25467587
29177,0,USMissouriRay,Missouri,Ray,2021-04-04 07:50:47.945890,2021-04-01 00:00:00.000000,1.01896371,2.44335360,4.69771088,234,562,1081,176,453,911,0.76639987,1.97063092,3.96209376,0.06831985,0.13423926,0.26154896
29177,0,USMissouriRay,Missouri,Ray,2021-04-04 07:50:47.945890,2021-04-02 00:00:00.000000,0.90298919,2.23075278,4.45454963,207,513,1025,156,414,842,0.68089128,1.80103180,3.65989995,0.06697589,0.13418452,0.27718200
29177,0,USMissouriRay,Missouri,Ray,2021-04-04 07:50:47.945890,2021-04-03 00:00:00.000000,0.78943881,2.05073029,4.22393044,181,472,972,139,379,798,0.60572132,1.64925352,3.46825501,0.06835264,0.13296444,0.28504583
29177,0,USMissouriRay,Missouri,Ray,2021-04-04 07:50:47.945890,2021-04-04 00:00:00.000000,0.68963478,1.87581629,4.00477863,158,431,921,121,346,756,0.52792805,1.50615479,3.28757596,0.06852818,0.13446708,0.28588600
29177,0,USMissouriRay,Missouri,Ray,2021-04-04 07:50:47.945890,2021-04-05 00:00:00.000000,0.60191082,1.70713992,3.79638007,138,392,873,105,315,717,0.45956998,1.37281946,3.11635363,0.06853897,0.13591441,0.28639102
29177,0,USMissouriRay,Missouri,Ray,2021-04-04 07:50:47.945890,2021-04-06 00:00:00.000000,0.52483495,1.55340211,3.59820018,120,357,828,92,289,679,0.39994192,1.25778572,2.95384757,0.06692514,0.13556404,0.28678200
29177,0,USMissouriRay,Missouri,Ray,2021-04-04 07:50:47.945890,2021-04-07 00:00:00.000000,0.45719875,1.41766341,3.40979148,105,326,784,80,263,644,0.34800127,1.14691737,2.79951555,0.06718874,0.13524311,0.28706375
29177,0,USMissouriRay,Missouri,Ray,2021-04-04 07:50:47.945890,2021-04-08 00:00:00.000000,0.39795868,1.29770763,3.23074547,91,298,743,69,241,610,0.30279204,1.04943643,2.65292497,0.06721842,0.13420908,0.28725055
29177,0,USMissouriRay,Missouri,Ray,2021-04-04 07:50:47.945890,2021-04-09 00:00:00.000000,0.34617970,1.17953724,3.06067027,79,271,704,60,220,578,0.26345763,0.96007010,2.51370215,0.06721859,0.13350809,0.28736742
29177,0,USMissouriRay,Missouri,Ray,2021-04-04 07:50:47.945890,2021-04-10 00:00:00.000000,0.30100588,1.07515339,2.89918213,69,247,667,52,201,548,0.22924095,0.87649683,2.38150540,0.06721618,0.13307227,0.28743793
29177,0,USMissouriRay,Missouri,Ray,2021-04-04 07:50:47.945890,2021-04-11 00:00:00.000000,0.26165216,0.98120267,2.74590349,60,225,632,45,184,519,0.19947793,0.80159583,2.25601201,0.06721421,0.13281563,0.28747954
29177,0,USMissouriRay,Missouri,Ray,2021-04-04 07:50:47.945890,2021-04-12 00:00:00.000000,0.22740466,0.89545403,2.60046374,52,206,598,39,169,491,0.17358862,0.73638649,2.13691246,0.06721279,0.13266928,0.28750378
29177,0,USMissouriRay,Missouri,Ray,2021-04-04 07:50:47.945890,2021-04-13 00:00:00.000000,0.19762167,0.81736301,2.45924462,45,188,566,34,155,465,0.15106773,0.67371954,2.02390826,0.06721178,0.13258736,0.28751780
29177,0,USMissouriRay,Missouri,Ray,2021-04-04 07:50:47.945890,2021-04-14 00:00:00.000000,0.17173242,0.74743928,2.28486373,39,172,525,30,141,437,0.13147568,0.61522840,1.90087250,0.06721105,0.13254197,0.28752587
29177,0,USMissouriRay,Missouri,Ray,2021-04-04 07:50:47.945890,2021-04-15 00:00:00.000000,0.14923342,0.68148531,2.12270636,34,156,488,26,129,406,0.11443028,0.56121808,1.76647052,0.06721054,0.13251696,0.28753050
29177,0,USMissouriRay,Missouri,Ray,2021-04-04 07:50:47.945890,2021-04-16 00:00:00.000000,0.12968319,0.61889911,1.97194741,29,142,453,22,117,377,0.09959937,0.51194502,1.64142123,0.06721017,0.13250323,0.28753315
