FIPS,HR_UID,nameid,province,region,analysisTime,dates,pointprevalence_025,pointprevalence_50,pointprevalence_975,pointinfections_025,pointinfections_50,pointinfections_975,pointinfectious_025,pointinfectious_50,pointinfectious_975,pointinfectiousprevalence_05,pointinfectiousprevalence_50,pointinfectiousprevalence_95,infectrate_025,infectrate_50,infectrate_975
0,0,AustraliaNorthernTerritory,Northern Territory,,2021-04-04 00:24:29.768208,2020-03-09 00:00:00.000000,0.00106232,0.00250790,0.00458177,2,6,11,0,2,4,0.00017886,0.00081993,0.00192356,0.40810965,0.52361828,0.66500259
0,0,AustraliaNorthernTerritory,Northern Territory,,2021-04-04 00:24:29.768208,2020-03-10 00:00:00.000000,0.00131946,0.00369918,0.00648325,3,9,15,1,2,5,0.00043771,0.00110393,0.00210962,0.40804339,0.52361595,0.66500264
0,0,AustraliaNorthernTerritory,Northern Territory,,2021-04-04 00:24:29.768208,2020-03-11 00:00:00.000000,0.00156737,0.00470947,0.00906361,3,11,22,1,3,7,0.00065893,0.00156657,0.00301180,0.40793560,0.52361160,0.66500268
0,0,AustraliaNorthernTerritory,Northern Territory,,2021-04-04 00:24:29.768208,2020-03-12 00:00:00.000000,0.00183374,0.00597765,0.01184320,4,14,29,1,5,9,0.00080821,0.00211974,0.00381217,0.40775538,0.52360336,0.66500262
0,0,AustraliaNorthernTerritory,Northern Territory,,2021-04-04 00:24:29.768208,2020-03-13 00:00:00.000000,0.00211569,0.00718066,0.01482666,5,17,36,2,6,12,0.00095240,0.00279953,0.00519110,0.40744067,0.52358459,0.66500210
0,0,AustraliaNorthernTerritory,Northern Territory,,2021-04-04 00:24:29.768208,2020-03-14 00:00:00.000000,0.00241255,0.00851244,0.01815668,5,20,44,2,8,16,0.00110593,0.00349116,0.00677127,0.40685530,0.52346753,0.66499947
0,0,AustraliaNorthernTerritory,Northern Territory,,2021-04-04 00:24:29.768208,2020-03-15 00:00:00.000000,0.00272452,0.00985896,0.02187611,6,24,53,3,10,20,0.00126796,0.00421290,0.00854520,0.40567514,0.52261171,0.66498760
0,0,AustraliaNorthernTerritory,Northern Territory,,2021-04-04 00:24:29.768208,2020-03-16 00:00:00.000000,0.00512599,0.01259375,0.02571506,12,30,63,3,12,25,0.00143842,0.00502611,0.01047843,0.40308243,0.51942547,0.66493561
0,0,AustraliaNorthernTerritory,Northern Territory,,2021-04-04 00:24:29.768208,2020-03-17 00:00:00.000000,0.00797201,0.01591832,0.02989826,19,39,73,5,14,30,0.00223517,0.00605451,0.01252569,0.37006929,0.51828453,0.66113578
0,0,AustraliaNorthernTerritory,Northern Territory,,2021-04-04 00:24:29.768208,2020-03-18 00:00:00.000000,0.01066378,0.01923712,0.03443607,26,47,84,8,18,36,0.00363773,0.00744760,0.01472347,0.33860391,0.50633795,0.65586574
0,0,AustraliaNorthernTerritory,Northern Territory,,2021-04-04 00:24:29.768208,2020-03-19 00:00:00.000000,0.01288999,0.02210985,0.03935765,31,54,96,10,22,41,0.00441547,0.00929536,0.01709696,0.31895170,0.49258061,0.64444997
0,0,AustraliaNorthernTerritory,Northern Territory,,2021-04-04 00:24:29.768208,2020-03-20 00:00:00.000000,0.01497143,0.02600784,0.04467464,36,63,109,12,27,48,0.00527098,0.01101099,0.01966647,0.31163831,0.47007742,0.64102052
0,0,AustraliaNorthernTerritory,Northern Territory,,2021-04-04 00:24:29.768208,2020-03-21 00:00:00.000000,0.01694003,0.02936184,0.05031706,41,72,123,15,31,55,0.00625742,0.01291083,0.02244918,0.27178391,0.43159813,0.61738402
0,0,AustraliaNorthernTerritory,Northern Territory,,2021-04-04 00:24:29.768208,2020-03-22 00:00:00.000000,0.01884873,0.03266475,0.05492868,46,80,134,18,36,62,0.00738296,0.01477501,0.02544770,0.25629898,0.39945169,0.57845907
0,0,AustraliaNorthernTerritory,Northern Territory,,2021-04-04 00:24:29.768208,2020-03-23 00:00:00.000000,0.02134762,0.03432137,0.05607371,52,84,137,20,40,70,0.00842669,0.01667571,0.02851223,0.24932939,0.36628953,0.51257253
0,0,AustraliaNorthernTerritory,Northern Territory,,2021-04-04 00:24:29.768208,2020-03-24 00:00:00.000000,0.02391582,0.03615531,0.05670000,58,88,139,24,44,75,0.00992166,0.01830513,0.03081706,0.23215448,0.33562186,0.50287659
0,0,AustraliaNorthernTerritory,Northern Territory,,2021-04-04 00:24:29.768208,2020-03-25 00:00:00.000000,0.02636864,0.03811031,0.05784440,64,93,142,28,48,79,0.01160276,0.01966565,0.03247007,0.20747016,0.32124437,0.42290725
0,0,AustraliaNorthernTerritory,Northern Territory,,2021-04-04 00:24:29.768208,2020-03-26 00:00:00.000000,0.02770078,0.03983418,0.05864408,68,97,144,32,50,82,0.01333619,0.02066236,0.03372404,0.16781985,0.29238662,0.41134766
0,0,AustraliaNorthernTerritory,Northern Territory,,2021-04-04 00:24:29.768208,2020-03-27 00:00:00.000000,0.02879856,0.04059568,0.05858607,70,99,143,34,52,84,0.01401056,0.02144068,0.03448337,0.13910580,0.26389503,0.38649591
0,0,AustraliaNorthernTerritory,Northern Territory,,2021-04-04 00:24:29.768208,2020-03-28 00:00:00.000000,0.02869458,0.04149481,0.05806622,70,101,142,34,55,84,0.01391033,0.02254954,0.03451647,0.13609958,0.23770016,0.36373298
0,0,AustraliaNorthernTerritory,Northern Territory,,2021-04-04 00:24:29.768208,2020-03-29 00:00:00.000000,0.02843220,0.04139509,0.05728714,69,101,140,36,56,84,0.01504565,0.02311878,0.03442588,0.13593645,0.22190736,0.32780347
0,0,AustraliaNorthernTerritory,Northern Territory,,2021-04-04 00:24:29.768208,2020-03-30 00:00:00.000000,0.02793110,0.04089841,0.05735903,68,100,140,38,57,84,0.01584717,0.02342558,0.03447809,0.13553552,0.20791059,0.31050331
0,0,AustraliaNorthernTerritory,Northern Territory,,2021-04-04 00:24:29.768208,2020-03-31 00:00:00.000000,0.02737335,0.03996219,0.05727034,67,98,140,38,57,84,0.01561566,0.02332726,0.03452836,0.13149128,0.19366716,0.28008644
0,0,AustraliaNorthernTerritory,Northern Territory,,2021-04-04 00:24:29.768208,2020-04-01 00:00:00.000000,0.02621430,0.03924770,0.05700558,64,96,140,37,56,84,0.01528327,0.02302888,0.03439707,0.12687320,0.17937693,0.25363558
0,0,AustraliaNorthernTerritory,Northern Territory,,2021-04-04 00:24:29.768208,2020-04-02 00:00:00.000000,0.02547048,0.03840745,0.05642980,62,94,138,35,55,83,0.01456934,0.02266043,0.03407592,0.11487349,0.16388339,0.23861730
0,0,AustraliaNorthernTerritory,Northern Territory,,2021-04-04 00:24:29.768208,2020-04-03 00:00:00.000000,0.02443836,0.03712312,0.05545381,60,91,136,33,54,82,0.01360798,0.02230670,0.03346236,0.10067091,0.15169928,0.21426681
0,0,AustraliaNorthernTerritory,Northern Territory,,2021-04-04 00:24:29.768208,2020-04-04 00:00:00.000000,0.02236128,0.03557862,0.05316196,54,87,130,31,53,79,0.01268878,0.02185281,0.03250793,0.09327681,0.14047732,0.20094256
0,0,AustraliaNorthernTerritory,Northern Territory,,2021-04-04 00:24:29.768208,2020-04-05 00:00:00.000000,0.02040218,0.03403653,0.05045583,50,83,123,29,52,77,0.01180914,0.02140676,0.03167364,0.08600319,0.12697311,0.18803569
0,0,AustraliaNorthernTerritory,Northern Territory,,2021-04-04 00:24:29.768208,2020-04-06 00:00:00.000000,0.01845652,0.03171650,0.04790476,45,77,117,27,50,75,0.01121901,0.02048210,0.03090231,0.08049315,0.12400632,0.18221040
0,0,AustraliaNorthernTerritory,Northern Territory,,2021-04-04 00:24:29.768208,2020-04-07 00:00:00.000000,0.01665764,0.02952346,0.04536611,40,72,111,25,47,73,0.01051359,0.01948360,0.02980072,0.08032225,0.12142312,0.17968342
0,0,AustraliaNorthernTerritory,Northern Territory,,2021-04-04 00:24:29.768208,2020-04-08 00:00:00.000000,0.01499566,0.02745652,0.04275830,36,67,105,23,44,70,0.00970457,0.01820605,0.02855218,0.07818785,0.11849949,0.17705226
0,0,AustraliaNorthernTerritory,Northern Territory,,2021-04-04 00:24:29.768208,2020-04-09 00:00:00.000000,0.01346254,0.02544227,0.04044382,33,62,99,21,41,66,0.00887680,0.01696638,0.02721297,0.07507046,0.11608916,0.17310892
0,0,AustraliaNorthernTerritory,Northern Territory,,2021-04-04 00:24:29.768208,2020-04-10 00:00:00.000000,0.01205065,0.02343285,0.03812569,29,57,93,19,38,63,0.00806885,0.01573027,0.02584009,0.07115972,0.11292194,0.16303736
0,0,AustraliaNorthernTerritory,Northern Territory,,2021-04-04 00:24:29.768208,2020-04-11 00:00:00.000000,0.01076305,0.02145929,0.03589966,26,52,88,17,35,60,0.00729300,0.01449368,0.02447912,0.06859871,0.10792615,0.15226297
0,0,AustraliaNorthernTerritory,Northern Territory,,2021-04-04 00:24:29.768208,2020-04-12 00:00:00.000000,0.00959971,0.01964576,0.03422636,23,48,84,16,32,57,0.00654907,0.01342541,0.02329292,0.06916138,0.10268922,0.14496068
0,0,AustraliaNorthernTerritory,Northern Territory,,2021-04-04 00:24:29.768208,2020-04-13 00:00:00.000000,0.00855639,0.01789910,0.03258887,21,43,80,14,30,54,0.00583782,0.01234960,0.02214589,0.06693117,0.09909924,0.14381384
0,0,AustraliaNorthernTerritory,Northern Territory,,2021-04-04 00:24:29.768208,2020-04-14 00:00:00.000000,0.00762241,0.01633479,0.03098583,18,40,76,12,27,51,0.00516784,0.01129474,0.02107601,0.06511029,0.09840401,0.14331604
0,0,AustraliaNorthernTerritory,Northern Territory,,2021-04-04 00:24:29.768208,2020-04-15 00:00:00.000000,0.00678798,0.01501316,0.02942079,16,36,72,11,25,49,0.00455064,0.01031528,0.02010747,0.06308836,0.09797883,0.14302464
0,0,AustraliaNorthernTerritory,Northern Territory,,2021-04-04 00:24:29.768208,2020-04-16 00:00:00.000000,0.00604251,0.01377763,0.02787006,14,33,68,9,23,47,0.00399422,0.00952851,0.01915071,0.06354713,0.09729811,0.14261190
0,0,AustraliaNorthernTerritory,Northern Territory,,2021-04-04 00:24:29.768208,2020-04-17 00:00:00.000000,0.00537384,0.01267393,0.02630121,13,31,64,8,21,44,0.00350062,0.00879269,0.01820368,0.05861343,0.09476846,0.14032811
0,0,AustraliaNorthernTerritory,Northern Territory,,2021-04-04 00:24:29.768208,2020-04-18 00:00:00.000000,0.00477350,0.01164660,0.02471535,11,28,60,7,19,42,0.00306681,0.00809631,0.01725666,0.05698046,0.09144891,0.13378114
0,0,AustraliaNorthernTerritory,Northern Territory,,2021-04-04 00:24:29.768208,2020-04-19 00:00:00.000000,0.00423750,0.01064317,0.02315128,10,26,56,6,18,40,0.00268706,0.00733169,0.01629595,0.05561901,0.09066961,0.13163543
0,0,AustraliaNorthernTerritory,Northern Territory,,2021-04-04 00:24:29.768208,2020-04-20 00:00:00.000000,0.00397913,0.01019753,0.02178950,9,25,53,5,16,37,0.00235497,0.00662229,0.01542431,0.05495685,0.08736074,0.14084853
0,0,AustraliaNorthernTerritory,Northern Territory,,2021-04-04 00:24:29.768208,2020-04-21 00:00:00.000000,0.00399906,0.00984777,0.02134946,9,24,52,5,15,36,0.00215157,0.00619077,0.01486777,0.05308057,0.08659281,0.13933713
0,0,AustraliaNorthernTerritory,Northern Territory,,2021-04-04 00:24:29.768208,2020-04-22 00:00:00.000000,0.00399099,0.00970883,0.02061207,9,23,50,4,14,35,0.00202460,0.00588097,0.01447396,0.05122566,0.08417827,0.13829856
0,0,AustraliaNorthernTerritory,Northern Territory,,2021-04-04 00:24:29.768208,2020-04-23 00:00:00.000000,0.00388459,0.00927599,0.01951794,9,22,47,4,14,33,0.00195914,0.00573973,0.01374264,0.04907183,0.08409540,0.14254116
0,0,AustraliaNorthernTerritory,Northern Territory,,2021-04-04 00:24:29.768208,2020-04-24 00:00:00.000000,0.00378052,0.00900755,0.01851602,9,22,45,4,13,31,0.00202383,0.00558048,0.01296511,0.04914306,0.08384847,0.15435070
0,0,AustraliaNorthernTerritory,Northern Territory,,2021-04-04 00:24:29.768208,2020-04-25 00:00:00.000000,0.00370161,0.00877708,0.01759805,9,21,43,5,13,30,0.00205758,0.00548080,0.01226131,0.04729410,0.08287557,0.15785665
0,0,AustraliaNorthernTerritory,Northern Territory,,2021-04-04 00:24:29.768208,2020-04-26 00:00:00.000000,0.00364057,0.00871579,0.01675464,8,21,41,4,13,28,0.00200579,0.00530941,0.01161467,0.04606785,0.08224231,0.15651787
0,0,AustraliaNorthernTerritory,Northern Territory,,2021-04-04 00:24:29.768208,2020-04-27 00:00:00.000000,0.00368335,0.00880704,0.01627265,9,21,39,4,12,27,0.00196388,0.00514796,0.01102468,0.04511548,0.08097641,0.15196253
0,0,AustraliaNorthernTerritory,Northern Territory,,2021-04-04 00:24:29.768208,2020-04-28 00:00:00.000000,0.00381051,0.00876415,0.01584894,9,21,38,5,12,25,0.00206352,0.00512083,0.01056188,0.04244076,0.07918498,0.13908667
0,0,AustraliaNorthernTerritory,Northern Territory,,2021-04-04 00:24:29.768208,2020-04-29 00:00:00.000000,0.00411059,0.00886812,0.01547847,10,21,38,5,12,25,0.00218312,0.00507505,0.01018912,0.04185355,0.07865879,0.13384181
0,0,AustraliaNorthernTerritory,Northern Territory,,2021-04-04 00:24:29.768208,2020-04-30 00:00:00.000000,0.00440409,0.00883399,0.01514586,10,21,37,5,12,24,0.00226644,0.00523241,0.00988031,0.04266386,0.07804781,0.13639646
0,0,AustraliaNorthernTerritory,Northern Territory,,2021-04-04 00:24:29.768208,2020-05-01 00:00:00.000000,0.00462571,0.00881839,0.01484189,11,21,36,5,12,23,0.00225116,0.00522212,0.00961709,0.04453536,0.07769731,0.13906300
0,0,AustraliaNorthernTerritory,Northern Territory,,2021-04-04 00:24:29.768208,2020-05-02 00:00:00.000000,0.00459745,0.00865593,0.01514076,11,21,37,5,12,23,0.00223637,0.00521576,0.00938693,0.04465291,0.07640180,0.14131461
0,0,AustraliaNorthernTerritory,Northern Territory,,2021-04-04 00:24:29.768208,2020-05-03 00:00:00.000000,0.00448457,0.00857834,0.01584155,11,21,38,5,12,22,0.00222232,0.00518867,0.00918175,0.04360117,0.07426999,0.14309383
0,0,AustraliaNorthernTerritory,Northern Territory,,2021-04-04 00:24:29.768208,2020-05-04 00:00:00.000000,0.00406658,0.00805171,0.01488982,9,19,36,5,12,22,0.00220983,0.00520301,0.00907146,0.04209793,0.07267113,0.14437107
0,0,AustraliaNorthernTerritory,Northern Territory,,2021-04-04 00:24:29.768208,2020-05-05 00:00:00.000000,0.00366386,0.00751324,0.01387595,8,18,34,5,12,22,0.00211275,0.00495106,0.00896307,0.04077115,0.07273516,0.14521974
0,0,AustraliaNorthernTerritory,Northern Territory,,2021-04-04 00:24:29.768208,2020-05-06 00:00:00.000000,0.00327103,0.00692566,0.01277224,8,17,31,4,11,21,0.00197508,0.00464885,0.00856197,0.03994018,0.07248761,0.14732531
0,0,AustraliaNorthernTerritory,Northern Territory,,2021-04-04 00:24:29.768208,2020-05-07 00:00:00.000000,0.00290066,0.00639298,0.01165449,7,15,28,4,10,19,0.00182169,0.00432327,0.00801280,0.04102137,0.07218049,0.14900482
0,0,AustraliaNorthernTerritory,Northern Territory,,2021-04-04 00:24:29.768208,2020-05-08 00:00:00.000000,0.00255883,0.00579212,0.01056962,6,14,25,4,9,18,0.00166641,0.00399355,0.00739904,0.04080875,0.07079696,0.15011169
0,0,AustraliaNorthernTerritory,Northern Territory,,2021-04-04 00:24:29.768208,2020-05-09 00:00:00.000000,0.00224934,0.00527377,0.00954648,5,12,23,3,8,16,0.00150699,0.00364500,0.00677003,0.04074768,0.06998439,0.15514467
0,0,AustraliaNorthernTerritory,Northern Territory,,2021-04-04 00:24:29.768208,2020-05-10 00:00:00.000000,0.00197264,0.00482305,0.00859929,4,11,21,3,8,15,0.00132728,0.00332489,0.00615557,0.03843612,0.06989141,0.16885470
0,0,AustraliaNorthernTerritory,Northern Territory,,2021-04-04 00:24:29.768208,2020-05-11 00:00:00.000000,0.00172659,0.00433959,0.00773259,4,10,18,2,7,13,0.00116784,0.00304083,0.00558215,0.03803075,0.06930954,0.16724513
0,0,AustraliaNorthernTerritory,Northern Territory,,2021-04-04 00:24:29.768208,2020-05-12 00:00:00.000000,0.00150935,0.00387648,0.00694538,3,9,17,2,6,12,0.00102749,0.00273620,0.00511587,0.03761199,0.06874661,0.16415704
0,0,AustraliaNorthernTerritory,Northern Territory,,2021-04-04 00:24:29.768208,2020-05-13 00:00:00.000000,0.00131977,0.00351905,0.00623371,3,8,15,2,6,11,0.00090420,0.00247452,0.00467587,0.03806578,0.06863703,0.16240092
0,0,AustraliaNorthernTerritory,Northern Territory,,2021-04-04 00:24:29.768208,2020-05-14 00:00:00.000000,0.00115801,0.00313697,0.00559218,2,7,13,1,5,10,0.00079656,0.00224056,0.00426519,0.03944577,0.06932565,0.16073506
0,0,AustraliaNorthernTerritory,Northern Territory,,2021-04-04 00:24:29.768208,2020-05-15 00:00:00.000000,0.00101885,0.00283525,0.00504784,2,6,12,1,4,9,0.00070191,0.00203485,0.00388457,0.03922134,0.07017160,0.15853063
0,0,AustraliaNorthernTerritory,Northern Territory,,2021-04-04 00:24:29.768208,2020-05-16 00:00:00.000000,0.00087326,0.00256286,0.00468196,2,6,11,1,4,8,0.00061859,0.00184970,0.00355646,0.03845272,0.06887661,0.15551014
0,0,AustraliaNorthernTerritory,Northern Territory,,2021-04-04 00:24:29.768208,2020-05-17 00:00:00.000000,0.00076014,0.00231515,0.00434710,1,5,10,1,4,8,0.00054041,0.00169062,0.00329946,0.03833225,0.06809991,0.15165897
0,0,AustraliaNorthernTerritory,Northern Territory,,2021-04-04 00:24:29.768208,2020-05-18 00:00:00.000000,0.00068284,0.00209577,0.00404420,1,5,9,1,3,7,0.00046178,0.00153524,0.00306218,0.03767789,0.06712509,0.14722943
0,0,AustraliaNorthernTerritory,Northern Territory,,2021-04-04 00:24:29.768208,2020-05-19 00:00:00.000000,0.00059626,0.00187800,0.00377165,1,4,9,0,3,6,0.00039427,0.00138125,0.00284487,0.03748914,0.06650407,0.14261485
0,0,AustraliaNorthernTerritory,Northern Territory,,2021-04-04 00:24:29.768208,2020-05-20 00:00:00.000000,0.00051325,0.00168765,0.00352455,1,4,8,0,3,6,0.00033641,0.00125670,0.00264721,0.03734694,0.06594201,0.13822191
0,0,AustraliaNorthernTerritory,Northern Territory,,2021-04-04 00:24:29.768208,2020-05-21 00:00:00.000000,0.00044166,0.00151652,0.00329793,1,3,8,0,2,6,0.00028686,0.00113741,0.00246768,0.03709000,0.06577330,0.12926922
0,0,AustraliaNorthernTerritory,Northern Territory,,2021-04-04 00:24:29.768208,2020-05-22 00:00:00.000000,0.00038019,0.00136849,0.00308842,0,3,7,0,2,5,0.00024447,0.00101958,0.00230398,0.03618483,0.06565182,0.12764026
0,0,AustraliaNorthernTerritory,Northern Territory,,2021-04-04 00:24:29.768208,2020-05-23 00:00:00.000000,0.00032808,0.00123414,0.00289400,0,3,7,0,2,5,0.00021466,0.00092043,0.00215388,0.03437794,0.06692186,0.12728125
0,0,AustraliaNorthernTerritory,Northern Territory,,2021-04-04 00:24:29.768208,2020-05-24 00:00:00.000000,0.00028429,0.00111215,0.00271314,0,2,6,0,2,4,0.00018853,0.00082731,0.00201555,0.03308787,0.06723937,0.12767196
0,0,AustraliaNorthernTerritory,Northern Territory,,2021-04-04 00:24:29.768208,2020-05-25 00:00:00.000000,0.00024692,0.00100159,0.00254427,0,2,6,0,1,4,0.00016523,0.00074167,0.00188757,0.03211755,0.06744039,0.12828150
0,0,AustraliaNorthernTerritory,Northern Territory,,2021-04-04 00:24:29.768208,2020-05-26 00:00:00.000000,0.00021474,0.00090015,0.00238531,0,2,5,0,1,4,0.00014459,0.00066140,0.00176870,0.03111685,0.06690833,0.12806196
0,0,AustraliaNorthernTerritory,Northern Territory,,2021-04-04 00:24:29.768208,2020-05-27 00:00:00.000000,0.00018689,0.00081148,0.00223352,0,1,5,0,1,4,0.00012632,0.00059001,0.00165769,0.03139160,0.06661585,0.12811361
0,0,AustraliaNorthernTerritory,Northern Territory,,2021-04-04 00:24:29.768208,2020-05-28 00:00:00.000000,0.00016270,0.00073236,0.00208720,0,1,5,0,1,3,0.00011003,0.00052835,0.00155307,0.03144567,0.06620069,0.13208604
0,0,AustraliaNorthernTerritory,Northern Territory,,2021-04-04 00:24:29.768208,2020-05-29 00:00:00.000000,0.00014163,0.00066350,0.00194719,0,1,4,0,1,3,0.00009540,0.00047712,0.00145353,0.03149985,0.06358215,0.13836441
0,0,AustraliaNorthernTerritory,Northern Territory,,2021-04-04 00:24:29.768208,2020-05-30 00:00:00.000000,0.00012326,0.00059690,0.00181479,0,1,4,0,1,3,0.00008229,0.00043232,0.00135858,0.03177666,0.06274178,0.13892270
0,0,AustraliaNorthernTerritory,Northern Territory,,2021-04-04 00:24:29.768208,2020-05-31 00:00:00.000000,0.00010723,0.00053424,0.00169044,0,1,4,0,0,3,0.00007069,0.00039145,0.00126832,0.03202247,0.06319634,0.13917636
0,0,AustraliaNorthernTerritory,Northern Territory,,2021-04-04 00:24:29.768208,2020-06-01 00:00:00.000000,0.00009190,0.00048356,0.00157404,0,1,3,0,0,2,0.00006054,0.00035174,0.00118295,0.03210081,0.06360683,0.13913257
0,0,AustraliaNorthernTerritory,Northern Territory,,2021-04-04 00:24:29.768208,2020-06-02 00:00:00.000000,0.00007801,0.00043854,0.00146530,0,1,3,0,0,2,0.00005174,0.00031608,0.00110257,0.03191328,0.06194549,0.13371201
0,0,AustraliaNorthernTerritory,Northern Territory,,2021-04-04 00:24:29.768208,2020-06-03 00:00:00.000000,0.00006604,0.00039848,0.00136386,0,0,3,0,0,2,0.00004416,0.00028407,0.00102714,0.03173182,0.06203246,0.13184721
0,0,AustraliaNorthernTerritory,Northern Territory,,2021-04-04 00:24:29.768208,2020-06-04 00:00:00.000000,0.00005575,0.00036280,0.00126931,0,0,3,0,0,2,0.00003766,0.00025776,0.00095653,0.03174359,0.06330260,0.13170217
0,0,AustraliaNorthernTerritory,Northern Territory,,2021-04-04 00:24:29.768208,2020-06-05 00:00:00.000000,0.00004699,0.00033084,0.00118126,0,0,2,0,0,2,0.00003213,0.00023404,0.00089055,0.03160339,0.06388120,0.13303241
0,0,AustraliaNorthernTerritory,Northern Territory,,2021-04-04 00:24:29.768208,2020-06-06 00:00:00.000000,0.00003955,0.00029602,0.00109949,0,0,2,0,0,2,0.00002743,0.00021264,0.00082898,0.03195209,0.06398066,0.13555065
0,0,AustraliaNorthernTerritory,Northern Territory,,2021-04-04 00:24:29.768208,2020-06-07 00:00:00.000000,0.00003325,0.00026438,0.00102501,0,0,2,0,0,1,0.00002346,0.00019333,0.00077165,0.03229427,0.06445258,0.13222127
0,0,AustraliaNorthernTerritory,Northern Territory,,2021-04-04 00:24:29.768208,2020-06-08 00:00:00.000000,0.00002794,0.00023599,0.00095926,0,0,2,0,0,1,0.00002012,0.00017391,0.00071871,0.03115088,0.06488634,0.12699545
0,0,AustraliaNorthernTerritory,Northern Territory,,2021-04-04 00:24:29.768208,2020-06-09 00:00:00.000000,0.00002347,0.00021058,0.00089928,0,0,2,0,0,1,0.00001730,0.00015715,0.00067070,0.03046108,0.06574484,0.12886904
0,0,AustraliaNorthernTerritory,Northern Territory,,2021-04-04 00:24:29.768208,2020-06-10 00:00:00.000000,0.00001971,0.00018712,0.00084360,0,0,2,0,0,1,0.00001474,0.00014192,0.00062707,0.02985980,0.06627664,0.13518660
0,0,AustraliaNorthernTerritory,Northern Territory,,2021-04-04 00:24:29.768208,2020-06-11 00:00:00.000000,0.00001655,0.00016556,0.00079154,0,0,1,0,0,1,0.00001239,0.00012561,0.00058710,0.02893853,0.06595831,0.13692806
0,0,AustraliaNorthernTerritory,Northern Territory,,2021-04-04 00:24:29.768208,2020-06-12 00:00:00.000000,0.00001389,0.00014755,0.00074088,0,0,1,0,0,1,0.00001040,0.00011244,0.00055018,0.02824821,0.06508787,0.13539081
0,0,AustraliaNorthernTerritory,Northern Territory,,2021-04-04 00:24:29.768208,2020-06-13 00:00:00.000000,0.00001166,0.00013254,0.00068871,0,0,1,0,0,1,0.00000874,0.00010090,0.00051534,0.02806034,0.06165899,0.13037742
0,0,AustraliaNorthernTerritory,Northern Territory,,2021-04-04 00:24:29.768208,2020-06-14 00:00:00.000000,0.00000978,0.00011910,0.00063881,0,0,1,0,0,1,0.00000734,0.00009058,0.00048123,0.02832500,0.06142658,0.12606700
0,0,AustraliaNorthernTerritory,Northern Territory,,2021-04-04 00:24:29.768208,2020-06-15 00:00:00.000000,0.00021495,0.00064084,0.00120421,0,1,2,0,0,1,0.00000616,0.00008066,0.00044812,0.02811188,0.06093513,0.13071395
0,0,AustraliaNorthernTerritory,Northern Territory,,2021-04-04 00:24:29.768208,2020-06-16 00:00:00.000000,0.00040525,0.00116014,0.00200201,0,2,4,0,0,1,0.00009097,0.00022849,0.00058572,0.02711347,0.06095710,0.13746741
0,0,AustraliaNorthernTerritory,Northern Territory,,2021-04-04 00:24:29.768208,2020-06-17 00:00:00.000000,0.00053247,0.00168494,0.00290161,1,4,7,0,1,2,0.00014463,0.00047075,0.00082720,0.02705894,0.06126918,0.13540552
0,0,AustraliaNorthernTerritory,Northern Territory,,2021-04-04 00:24:29.768208,2020-06-18 00:00:00.000000,0.00067857,0.00211050,0.00377562,1,5,9,0,1,3,0.00020864,0.00074909,0.00128244,0.02753514,0.06179805,0.13183503
0,0,AustraliaNorthernTerritory,Northern Territory,,2021-04-04 00:24:29.768208,2020-06-19 00:00:00.000000,0.00084119,0.00254990,0.00460512,2,6,11,0,2,4,0.00029033,0.00102823,0.00178298,0.02801046,0.06136650,0.12672443
0,0,AustraliaNorthernTerritory,Northern Territory,,2021-04-04 00:24:29.768208,2020-06-20 00:00:00.000000,0.00099744,0.00297231,0.00538027,2,7,13,0,3,5,0.00037098,0.00126821,0.00229119,0.02857379,0.06099960,0.12328307
0,0,AustraliaNorthernTerritory,Northern Territory,,2021-04-04 00:24:29.768208,2020-06-21 00:00:00.000000,0.00114648,0.00337246,0.00609711,2,8,14,1,3,6,0.00044926,0.00148839,0.00274546,0.02917128,0.06031720,0.12326800
0,0,AustraliaNorthernTerritory,Northern Territory,,2021-04-04 00:24:29.768208,2020-06-22 00:00:00.000000,0.00156646,0.00385734,0.00607945,3,9,14,1,4,7,0.00052434,0.00172637,0.00311079,0.02974357,0.06086264,0.12201758
0,0,AustraliaNorthernTerritory,Northern Territory,,2021-04-04 00:24:29.768208,2020-06-23 00:00:00.000000,0.00211049,0.00429532,0.00688855,5,10,16,1,4,8,0.00067954,0.00197528,0.00332349,0.03024149,0.05899432,0.12080787
0,0,AustraliaNorthernTerritory,Northern Territory,,2021-04-04 00:24:29.768208,2020-06-24 00:00:00.000000,0.00238769,0.00456132,0.00803622,5,11,19,2,5,8,0.00088433,0.00230728,0.00361060,0.03063729,0.05729521,0.12022590
0,0,AustraliaNorthernTerritory,Northern Territory,,2021-04-04 00:24:29.768208,2020-06-25 00:00:00.000000,0.00248820,0.00464628,0.00913911,6,11,22,2,6,10,0.00106588,0.00248180,0.00408635,0.03091871,0.05670880,0.11995311
0,0,AustraliaNorthernTerritory,Northern Territory,,2021-04-04 00:24:29.768208,2020-06-26 00:00:00.000000,0.00250173,0.00487591,0.01009265,6,11,24,2,6,11,0.00120220,0.00259599,0.00477373,0.02973368,0.05654278,0.12004326
0,0,AustraliaNorthernTerritory,Northern Territory,,2021-04-04 00:24:29.768208,2020-06-27 00:00:00.000000,0.00251443,0.00522600,0.01068340,6,12,26,3,6,13,0.00125254,0.00269845,0.00544436,0.02678781,0.05701743,0.12310363
0,0,AustraliaNorthernTerritory,Northern Territory,,2021-04-04 00:24:29.768208,2020-06-28 00:00:00.000000,0.00257055,0.00529844,0.01122272,6,13,27,3,6,14,0.00129587,0.00274516,0.00608423,0.02648945,0.05585879,0.12595463
0,0,AustraliaNorthernTerritory,Northern Territory,,2021-04-04 00:24:29.768208,2020-06-29 00:00:00.000000,0.00314634,0.00542426,0.01154574,7,13,28,3,7,16,0.00133317,0.00287284,0.00668511,0.02642371,0.05770219,0.13030987
0,0,AustraliaNorthernTerritory,Northern Territory,,2021-04-04 00:24:29.768208,2020-06-30 00:00:00.000000,0.00322199,0.00563445,0.01175543,7,13,28,3,7,17,0.00151692,0.00298759,0.00694217,0.02457641,0.05919566,0.13318870
0,0,AustraliaNorthernTerritory,Northern Territory,,2021-04-04 00:24:29.768208,2020-07-01 00:00:00.000000,0.00327896,0.00593992,0.01138404,8,14,27,4,7,17,0.00177184,0.00310080,0.00698837,0.02343086,0.06047770,0.13559051
0,0,AustraliaNorthernTerritory,Northern Territory,,2021-04-04 00:24:29.768208,2020-07-02 00:00:00.000000,0.00333497,0.00607215,0.01103156,8,14,27,4,7,16,0.00180451,0.00320287,0.00690583,0.02289927,0.05993090,0.14051678
0,0,AustraliaNorthernTerritory,Northern Territory,,2021-04-04 00:24:29.768208,2020-07-03 00:00:00.000000,0.00340265,0.00618998,0.01099079,8,15,26,4,8,16,0.00183851,0.00330799,0.00674732,0.02297383,0.05939210,0.14984248
0,0,AustraliaNorthernTerritory,Northern Territory,,2021-04-04 00:24:29.768208,2020-07-04 00:00:00.000000,0.00346535,0.00622340,0.01190949,8,15,29,4,8,16,0.00184910,0.00336708,0.00654535,0.02281109,0.05925722,0.14980114
0,0,AustraliaNorthernTerritory,Northern Territory,,2021-04-04 00:24:29.768208,2020-07-05 00:00:00.000000,0.00352628,0.00635929,0.01274464,8,15,31,4,8,15,0.00190714,0.00338979,0.00648747,0.02226532,0.05950002,0.14792231
0,0,AustraliaNorthernTerritory,Northern Territory,,2021-04-04 00:24:29.768208,2020-07-06 00:00:00.000000,0.00331274,0.00581289,0.01190694,8,14,29,4,8,17,0.00199336,0.00355909,0.00700700,0.02341983,0.05971600,0.14798947
0,0,AustraliaNorthernTerritory,Northern Territory,,2021-04-04 00:24:29.768208,2020-07-07 00:00:00.000000,0.00309634,0.00532092,0.01098637,7,13,26,4,8,17,0.00193671,0.00346377,0.00699104,0.02251839,0.05979116,0.14806062
0,0,AustraliaNorthernTerritory,Northern Territory,,2021-04-04 00:24:29.768208,2020-07-08 00:00:00.000000,0.00280451,0.00483228,0.00997573,6,11,24,4,8,16,0.00181458,0.00328310,0.00667299,0.02186067,0.05986993,0.14802826
0,0,AustraliaNorthernTerritory,Northern Territory,,2021-04-04 00:24:29.768208,2020-07-09 00:00:00.000000,0.00251772,0.00437817,0.00895824,6,10,22,4,7,15,0.00170451,0.00307955,0.00619791,0.02171054,0.06004025,0.14770220
0,0,AustraliaNorthernTerritory,Northern Territory,,2021-04-04 00:24:29.768208,2020-07-10 00:00:00.000000,0.00221584,0.00399265,0.00798097,5,9,19,3,6,13,0.00158534,0.00284334,0.00565536,0.02166006,0.06038313,0.14599288
0,0,AustraliaNorthernTerritory,Northern Territory,,2021-04-04 00:24:29.768208,2020-07-11 00:00:00.000000,0.00194311,0.00366064,0.00727663,4,8,17,3,6,12,0.00141510,0.00256507,0.00521228,0.02140357,0.06042162,0.14350913
0,0,AustraliaNorthernTerritory,Northern Territory,,2021-04-04 00:24:29.768208,2020-07-12 00:00:00.000000,0.00169896,0.00334923,0.00697294,4,8,17,3,5,11,0.00122745,0.00233785,0.00477415,0.02085048,0.06037088,0.14340859
0,0,AustraliaNorthernTerritory,Northern Territory,,2021-04-04 00:24:29.768208,2020-07-13 00:00:00.000000,0.00189940,0.00355110,0.00706771,4,8,17,2,5,10,0.00106159,0.00208343,0.00435417,0.02072053,0.06011895,0.15027806
0,0,AustraliaNorthernTerritory,Northern Territory,,2021-04-04 00:24:29.768208,2020-07-14 00:00:00.000000,0.00201414,0.00367843,0.00734191,4,9,18,2,4,10,0.00108150,0.00202471,0.00412867,0.02073868,0.06001376,0.15341775
0,0,AustraliaNorthernTerritory,Northern Territory,,2021-04-04 00:24:29.768208,2020-07-15 00:00:00.000000,0.00204702,0.00395909,0.00764965,5,9,18,2,4,10,0.00110491,0.00201509,0.00414236,0.02099887,0.05941098,0.15474387
0,0,AustraliaNorthernTerritory,Northern Territory,,2021-04-04 00:24:29.768208,2020-07-16 00:00:00.000000,0.00209391,0.00425604,0.00797345,5,10,19,2,5,10,0.00116331,0.00217836,0.00425366,0.02175215,0.06109924,0.15702947
0,0,AustraliaNorthernTerritory,Northern Territory,,2021-04-04 00:24:29.768208,2020-07-17 00:00:00.000000,0.00206962,0.00446026,0.00860852,5,10,21,3,5,10,0.00123037,0.00230888,0.00440053,0.02321037,0.06100221,0.16255641
0,0,AustraliaNorthernTerritory,Northern Territory,,2021-04-04 00:24:29.768208,2020-07-18 00:00:00.000000,0.00208159,0.00477931,0.00943450,5,11,23,3,6,11,0.00125304,0.00250614,0.00456985,0.02482514,0.06127049,0.16868148
0,0,AustraliaNorthernTerritory,Northern Territory,,2021-04-04 00:24:29.768208,2020-07-19 00:00:00.000000,0.00214238,0.00499625,0.01018255,5,12,25,3,6,11,0.00127536,0.00262977,0.00479978,0.02584810,0.06315025,0.15824020
0,0,AustraliaNorthernTerritory,Northern Territory,,2021-04-04 00:24:29.768208,2020-07-20 00:00:00.000000,0.00263131,0.00518449,0.01001142,6,12,24,3,6,12,0.00128545,0.00281024,0.00522813,0.02585307,0.06343055,0.14388940
0,0,AustraliaNorthernTerritory,Northern Territory,,2021-04-04 00:24:29.768208,2020-07-21 00:00:00.000000,0.00258121,0.00579082,0.00993860,6,14,24,3,7,13,0.00136093,0.00292936,0.00532423,0.02559405,0.06353766,0.14008148
0,0,AustraliaNorthernTerritory,Northern Territory,,2021-04-04 00:24:29.768208,2020-07-22 00:00:00.000000,0.00250826,0.00600799,0.01041133,6,14,25,3,7,13,0.00133883,0.00313127,0.00539439,0.02544136,0.06362401,0.14000825
0,0,AustraliaNorthernTerritory,Northern Territory,,2021-04-04 00:24:29.768208,2020-07-23 00:00:00.000000,0.00243976,0.00623724,0.01087462,5,15,26,3,8,13,0.00131389,0.00328219,0.00565042,0.02534015,0.06455703,0.13966096
0,0,AustraliaNorthernTerritory,Northern Territory,,2021-04-04 00:24:29.768208,2020-07-24 00:00:00.000000,0.00237971,0.00642816,0.01143911,5,15,28,3,8,15,0.00129370,0.00354793,0.00619449,0.02526046,0.06454823,0.14234541
0,0,AustraliaNorthernTerritory,Northern Territory,,2021-04-04 00:24:29.768208,2020-07-25 00:00:00.000000,0.00232930,0.00664229,0.01228835,5,16,30,3,9,16,0.00129075,0.00373045,0.00683770,0.02519049,0.06532454,0.13756769
0,0,AustraliaNorthernTerritory,Northern Territory,,2021-04-04 00:24:29.768208,2020-07-26 00:00:00.000000,0.00228625,0.00688736,0.01212069,5,16,29,3,9,18,0.00128724,0.00386892,0.00744232,0.02515914,0.06511372,0.13625933
0,0,AustraliaNorthernTerritory,Northern Territory,,2021-04-04 00:24:29.768208,2020-07-27 00:00:00.000000,0.00208834,0.00643160,0.01167196,5,15,28,3,9,19,0.00128340,0.00386426,0.00789493,0.02597665,0.06486086,0.13655548
0,0,AustraliaNorthernTerritory,Northern Territory,,2021-04-04 00:24:29.768208,2020-07-28 00:00:00.000000,0.00189214,0.00586266,0.01119518,4,14,27,2,9,18,0.00122123,0.00374342,0.00745879,0.02654773,0.06451988,0.13753963
0,0,AustraliaNorthernTerritory,Northern Territory,,2021-04-04 00:24:29.768208,2020-07-29 00:00:00.000000,0.00169586,0.00535476,0.01061389,4,13,26,2,8,17,0.00113230,0.00354033,0.00699291,0.02654358,0.06442102,0.13844803
0,0,AustraliaNorthernTerritory,Northern Territory,,2021-04-04 00:24:29.768208,2020-07-30 00:00:00.000000,0.00150925,0.00489672,0.00966954,3,12,23,2,7,16,0.00103390,0.00325417,0.00690694,0.02653692,0.06486375,0.13904941
0,0,AustraliaNorthernTerritory,Northern Territory,,2021-04-04 00:24:29.768208,2020-07-31 00:00:00.000000,0.00133709,0.00443001,0.00876361,3,10,21,2,7,16,0.00093527,0.00302388,0.00668152,0.02707681,0.06495412,0.13936018
0,0,AustraliaNorthernTerritory,Northern Territory,,2021-04-04 00:24:29.768208,2020-08-01 00:00:00.000000,0.00118115,0.00400472,0.00797498,2,9,19,2,6,15,0.00084113,0.00281556,0.00612213,0.02702494,0.06420558,0.13954066
0,0,AustraliaNorthernTerritory,Northern Territory,,2021-04-04 00:24:29.768208,2020-08-02 00:00:00.000000,0.00104148,0.00359304,0.00730736,2,8,17,1,6,13,0.00075367,0.00259693,0.00557543,0.02641736,0.06293293,0.13967725
0,0,AustraliaNorthernTerritory,Northern Territory,,2021-04-04 00:24:29.768208,2020-08-03 00:00:00.000000,0.00091728,0.00321689,0.00669244,2,7,16,1,5,12,0.00067368,0.00236167,0.00526886,0.02638477,0.06194569,0.13979133
0,0,AustraliaNorthernTerritory,Northern Territory,,2021-04-04 00:24:29.768208,2020-08-04 00:00:00.000000,0.00080730,0.00288501,0.00626770,1,7,15,1,5,11,0.00060111,0.00214238,0.00487737,0.02636840,0.06035172,0.13987909
0,0,AustraliaNorthernTerritory,Northern Territory,,2021-04-04 00:24:29.768208,2020-08-05 00:00:00.000000,0.00071017,0.00256808,0.00595500,1,6,14,1,4,10,0.00053525,0.00191951,0.00447403,0.02635507,0.06039179,0.13991600
0,0,AustraliaNorthernTerritory,Northern Territory,,2021-04-04 00:24:29.768208,2020-08-06 00:00:00.000000,0.00062455,0.00223680,0.00566644,1,5,13,1,4,10,0.00046630,0.00168047,0.00410125,0.02633467,0.06111100,0.14703544
0,0,AustraliaNorthernTerritory,Northern Territory,,2021-04-04 00:24:29.768208,2020-08-07 00:00:00.000000,0.00054194,0.00199589,0.00540092,1,4,13,0,3,9,0.00040417,0.00148054,0.00375766,0.02629407,0.06187481,0.16126436
0,0,AustraliaNorthernTerritory,Northern Territory,,2021-04-04 00:24:29.768208,2020-08-08 00:00:00.000000,0.00046927,0.00177514,0.00515731,1,4,12,0,3,8,0.00035025,0.00130411,0.00346027,0.02620748,0.06367731,0.17645692
0,0,AustraliaNorthernTerritory,Northern Territory,,2021-04-04 00:24:29.768208,2020-08-09 00:00:00.000000,0.00040638,0.00161972,0.00493361,0,3,12,0,2,8,0.00030348,0.00115031,0.00330511,0.02602689,0.06429322,0.16352197
0,0,AustraliaNorthernTerritory,Northern Territory,,2021-04-04 00:24:29.768208,2020-08-10 00:00:00.000000,0.00035196,0.00145172,0.00472631,0,3,11,0,2,7,0.00025736,0.00106233,0.00315447,0.02575063,0.06486115,0.16279713
0,0,AustraliaNorthernTerritory,Northern Territory,,2021-04-04 00:24:29.768208,2020-08-11 00:00:00.000000,0.00030488,0.00130067,0.00453001,0,3,11,0,2,7,0.00021461,0.00097919,0.00300903,0.02541279,0.06563544,0.16329225
0,0,AustraliaNorthernTerritory,Northern Territory,,2021-04-04 00:24:29.768208,2020-08-12 00:00:00.000000,0.00026414,0.00116507,0.00423434,0,2,10,0,2,7,0.00017905,0.00089539,0.00286920,0.02506294,0.06571533,0.16405067
0,0,AustraliaNorthernTerritory,Northern Territory,,2021-04-04 00:24:29.768208,2020-08-13 00:00:00.000000,0.00022887,0.00104786,0.00401388,0,2,9,0,1,6,0.00014953,0.00080011,0.00267201,0.02596451,0.06561808,0.16523386
0,0,AustraliaNorthernTerritory,Northern Territory,,2021-04-04 00:24:29.768208,2020-08-14 00:00:00.000000,0.00019831,0.00095883,0.00382559,0,2,9,0,1,6,0.00012650,0.00071133,0.00247698,0.02970998,0.06643734,0.16697952
0,0,AustraliaNorthernTerritory,Northern Territory,,2021-04-04 00:24:29.768208,2020-08-15 00:00:00.000000,0.00016638,0.00086630,0.00363833,0,2,8,0,1,5,0.00010952,0.00063293,0.00232172,0.03193932,0.06730979,0.16932801
0,0,AustraliaNorthernTerritory,Northern Territory,,2021-04-04 00:24:29.768208,2020-08-16 00:00:00.000000,0.00013898,0.00077103,0.00343086,0,1,8,0,1,5,0.00009479,0.00056375,0.00220469,0.03178539,0.06596293,0.16912203
0,0,AustraliaNorthernTerritory,Northern Territory,,2021-04-04 00:24:29.768208,2020-08-17 00:00:00.000000,0.00011599,0.00068481,0.00321880,0,1,7,0,1,5,0.00008202,0.00050265,0.00209628,0.03183255,0.06583736,0.16245062
0,0,AustraliaNorthernTerritory,Northern Territory,,2021-04-04 00:24:29.768208,2020-08-18 00:00:00.000000,0.00009670,0.00061243,0.00301346,0,1,7,0,1,4,0.00007095,0.00044765,0.00199622,0.03184588,0.06591988,0.15820576
0,0,AustraliaNorthernTerritory,Northern Territory,,2021-04-04 00:24:29.768208,2020-08-19 00:00:00.000000,0.00008149,0.00054287,0.00283010,0,1,6,0,0,4,0.00006134,0.00040085,0.00190064,0.03185935,0.06605436,0.15585823
0,0,AustraliaNorthernTerritory,Northern Territory,,2021-04-04 00:24:29.768208,2020-08-20 00:00:00.000000,0.00007020,0.00048149,0.00267173,0,1,6,0,0,4,0.00005298,0.00035831,0.00180638,0.03187194,0.06629723,0.16017895
0,0,AustraliaNorthernTerritory,Northern Territory,,2021-04-04 00:24:29.768208,2020-08-21 00:00:00.000000,0.00006044,0.00042743,0.00251439,0,1,6,0,0,4,0.00004571,0.00031598,0.00171203,0.03187271,0.06688814,0.16337940
0,0,AustraliaNorthernTerritory,Northern Territory,,2021-04-04 00:24:29.768208,2020-08-22 00:00:00.000000,0.00005204,0.00037923,0.00236156,0,0,5,0,0,3,0.00003941,0.00028056,0.00161785,0.03187107,0.06428373,0.16425576
0,0,AustraliaNorthernTerritory,Northern Territory,,2021-04-04 00:24:29.768208,2020-08-23 00:00:00.000000,0.00004481,0.00033460,0.00221521,0,0,5,0,0,3,0.00003396,0.00025262,0.00152497,0.03180470,0.06437237,0.16471966
0,0,AustraliaNorthernTerritory,Northern Territory,,2021-04-04 00:24:29.768208,2020-08-24 00:00:00.000000,0.00003861,0.00029671,0.00207626,0,0,5,0,0,3,0.00002926,0.00022788,0.00142089,0.03138562,0.06559772,0.16544370
0,0,AustraliaNorthernTerritory,Northern Territory,,2021-04-04 00:24:29.768208,2020-08-25 00:00:00.000000,0.00003327,0.00026707,0.00194509,0,0,4,0,0,3,0.00002522,0.00020477,0.00132116,0.03062108,0.06508503,0.16699580
0,0,AustraliaNorthernTerritory,Northern Territory,,2021-04-04 00:24:29.768208,2020-08-26 00:00:00.000000,0.00002869,0.00024035,0.00182190,0,0,4,0,0,3,0.00002174,0.00018179,0.00122750,0.03023438,0.06469828,0.17451519
0,0,AustraliaNorthernTerritory,Northern Territory,,2021-04-04 00:24:29.768208,2020-08-27 00:00:00.000000,0.00002478,0.00021474,0.00170711,0,0,4,0,0,2,0.00001874,0.00016102,0.00113987,0.02920930,0.06445411,0.17708582
0,0,AustraliaNorthernTerritory,Northern Territory,,2021-04-04 00:24:29.768208,2020-08-28 00:00:00.000000,0.00002142,0.00019164,0.00160156,0,0,3,0,0,2,0.00001618,0.00014263,0.00105815,0.02804151,0.06472527,0.18755127
0,0,AustraliaNorthernTerritory,Northern Territory,,2021-04-04 00:24:29.768208,2020-08-29 00:00:00.000000,0.00001854,0.00017100,0.00150555,0,0,3,0,0,2,0.00001398,0.00012636,0.00098224,0.02730304,0.06471356,0.18186465
0,0,AustraliaNorthernTerritory,Northern Territory,,2021-04-04 00:24:29.768208,2020-08-30 00:00:00.000000,0.00001605,0.00015148,0.00141815,0,0,3,0,0,2,0.00001209,0.00011196,0.00091209,0.02728842,0.06479181,0.17635590
0,0,AustraliaNorthernTerritory,Northern Territory,,2021-04-04 00:24:29.768208,2020-08-31 00:00:00.000000,0.00001390,0.00013603,0.00133870,0,0,3,0,0,2,0.00001046,0.00009922,0.00084750,0.02883869,0.06534261,0.19627646
0,0,AustraliaNorthernTerritory,Northern Territory,,2021-04-04 00:24:29.768208,2020-09-01 00:00:00.000000,0.00001205,0.00012152,0.00126745,0,0,3,0,0,1,0.00000906,0.00008829,0.00078804,0.02906984,0.06542537,0.21573804
0,0,AustraliaNorthernTerritory,Northern Territory,,2021-04-04 00:24:29.768208,2020-09-02 00:00:00.000000,0.00001044,0.00010866,0.00120502,0,0,2,0,0,1,0.00000784,0.00007883,0.00073321,0.02909145,0.06559112,0.21815865
0,0,AustraliaNorthernTerritory,Northern Territory,,2021-04-04 00:24:29.768208,2020-09-03 00:00:00.000000,0.00000906,0.00009815,0.00113333,0,0,2,0,0,1,0.00000680,0.00007032,0.00068261,0.02909298,0.06559501,0.21704718
0,0,AustraliaNorthernTerritory,Northern Territory,,2021-04-04 00:24:29.768208,2020-09-04 00:00:00.000000,0.00000786,0.00008994,0.00106091,0,0,2,0,0,1,0.00000589,0.00006324,0.00063590,0.02913942,0.06597055,0.21536610
0,0,AustraliaNorthernTerritory,Northern Territory,,2021-04-04 00:24:29.768208,2020-09-05 00:00:00.000000,0.00000684,0.00008259,0.00099229,0,0,2,0,0,1,0.00000511,0.00005772,0.00059278,0.02912720,0.06650779,0.21294572
0,0,AustraliaNorthernTerritory,Northern Territory,,2021-04-04 00:24:29.768208,2020-09-06 00:00:00.000000,0.00000595,0.00007486,0.00094640,0,0,2,0,0,1,0.00000444,0.00005266,0.00055293,0.02919555,0.06789237,0.20984198
0,0,AustraliaNorthernTerritory,Northern Territory,,2021-04-04 00:24:29.768208,2020-09-07 00:00:00.000000,0.00000519,0.00006786,0.00092824,0,0,2,0,0,1,0.00000386,0.00004835,0.00053921,0.02920757,0.06930891,0.20635051
0,0,AustraliaNorthernTerritory,Northern Territory,,2021-04-04 00:24:29.768208,2020-09-08 00:00:00.000000,0.00000452,0.00006160,0.00090972,0,0,2,0,0,1,0.00000336,0.00004448,0.00052879,0.02924600,0.07016304,0.21692527
0,0,AustraliaNorthernTerritory,Northern Territory,,2021-04-04 00:24:29.768208,2020-09-09 00:00:00.000000,0.00000395,0.00005578,0.00089059,0,0,2,0,0,1,0.00000293,0.00004096,0.00051841,0.02931205,0.07209853,0.21414363
0,0,AustraliaNorthernTerritory,Northern Territory,,2021-04-04 00:24:29.768208,2020-09-10 00:00:00.000000,0.00000344,0.00005029,0.00087081,0,0,2,0,0,1,0.00000256,0.00003688,0.00050791,0.02945279,0.07226845,0.21064337
0,0,AustraliaNorthernTerritory,Northern Territory,,2021-04-04 00:24:29.768208,2020-09-11 00:00:00.000000,0.00000285,0.00004541,0.00085055,0,0,2,0,0,1,0.00000212,0.00003321,0.00049720,0.02976933,0.07182501,0.20757074
0,0,AustraliaNorthernTerritory,Northern Territory,,2021-04-04 00:24:29.768208,2020-09-12 00:00:00.000000,0.00000236,0.00004154,0.00083007,0,0,2,0,0,1,0.00000176,0.00002997,0.00048626,0.03044003,0.07156681,0.20439307
0,0,AustraliaNorthernTerritory,Northern Territory,,2021-04-04 00:24:29.768208,2020-09-13 00:00:00.000000,0.00000197,0.00003808,0.00080962,0,0,1,0,0,1,0.00000146,0.00002709,0.00047512,0.03060654,0.07397873,0.21047983
0,0,AustraliaNorthernTerritory,Northern Territory,,2021-04-04 00:24:29.768208,2020-09-14 00:00:00.000000,0.00000164,0.00003483,0.00078936,0,0,1,0,0,1,0.00000121,0.00002445,0.00046389,0.03066327,0.07398202,0.21833478
0,0,AustraliaNorthernTerritory,Northern Territory,,2021-04-04 00:24:29.768208,2020-09-15 00:00:00.000000,0.00000137,0.00003187,0.00076939,0,0,1,0,0,1,0.00000101,0.00002205,0.00045266,0.03069427,0.07418668,0.22113086
0,0,AustraliaNorthernTerritory,Northern Territory,,2021-04-04 00:24:29.768208,2020-09-16 00:00:00.000000,0.00000115,0.00002914,0.00074780,0,0,1,0,0,1,0.00000084,0.00002003,0.00044149,0.03070909,0.07407984,0.22233590
0,0,AustraliaNorthernTerritory,Northern Territory,,2021-04-04 00:24:29.768208,2020-09-17 00:00:00.000000,0.00000097,0.00002663,0.00072266,0,0,1,0,0,1,0.00000071,0.00001831,0.00043044,0.03071386,0.07395159,0.22283695
0,0,AustraliaNorthernTerritory,Northern Territory,,2021-04-04 00:24:29.768208,2020-09-18 00:00:00.000000,0.00000081,0.00002432,0.00069745,0,0,1,0,0,1,0.00000059,0.00001673,0.00041953,0.03073946,0.07385098,0.22361944
0,0,AustraliaNorthernTerritory,Northern Territory,,2021-04-04 00:24:29.768208,2020-09-19 00:00:00.000000,0.00000068,0.00002221,0.00067127,0,0,1,0,0,1,0.00000050,0.00001529,0.00040875,0.03253099,0.07446028,0.22959015
0,0,AustraliaNorthernTerritory,Northern Territory,,2021-04-04 00:24:29.768208,2020-09-20 00:00:00.000000,0.00000058,0.00002027,0.00064408,0,0,1,0,0,0,0.00000042,0.00001396,0.00039805,0.03432003,0.07511259,0.22812560
0,0,AustraliaNorthernTerritory,Northern Territory,,2021-04-04 00:24:29.768208,2020-09-21 00:00:00.000000,0.00000049,0.00001851,0.00061679,0,0,1,0,0,0,0.00000035,0.00001274,0.00038735,0.03505714,0.07617260,0.22450132
0,0,AustraliaNorthernTerritory,Northern Territory,,2021-04-04 00:24:29.768208,2020-09-22 00:00:00.000000,0.00000041,0.00001689,0.00059005,0,0,1,0,0,0,0.00000030,0.00001163,0.00037659,0.03529811,0.07649017,0.22462274
0,0,AustraliaNorthernTerritory,Northern Territory,,2021-04-04 00:24:29.768208,2020-09-23 00:00:00.000000,0.00000034,0.00001542,0.00056417,0,0,1,0,0,0,0.00000025,0.00001061,0.00036574,0.03538341,0.07715163,0.22133956
0,0,AustraliaNorthernTerritory,Northern Territory,,2021-04-04 00:24:29.768208,2020-09-24 00:00:00.000000,0.00000029,0.00001407,0.00053954,0,0,1,0,0,0,0.00000021,0.00000969,0.00035486,0.03545005,0.07771038,0.21317993
0,0,AustraliaNorthernTerritory,Northern Territory,,2021-04-04 00:24:29.768208,2020-09-25 00:00:00.000000,0.00000024,0.00001285,0.00051778,0,0,1,0,0,0,0.00000018,0.00000884,0.00033984,0.03564397,0.08049946,0.20535210
0,0,AustraliaNorthernTerritory,Northern Territory,,2021-04-04 00:24:29.768208,2020-09-26 00:00:00.000000,0.00000021,0.00001174,0.00049810,0,0,1,0,0,0,0.00000015,0.00000807,0.00032564,0.03619370,0.08068199,0.20872583
0,0,AustraliaNorthernTerritory,Northern Territory,,2021-04-04 00:24:29.768208,2020-09-27 00:00:00.000000,0.00000017,0.00001071,0.00047921,0,0,1,0,0,0,0.00000013,0.00000737,0.00031255,0.03739026,0.07989773,0.20391073
0,0,AustraliaNorthernTerritory,Northern Territory,,2021-04-04 00:24:29.768208,2020-09-28 00:00:00.000000,0.00000015,0.00000978,0.00046082,0,0,1,0,0,0,0.00000011,0.00000673,0.00030029,0.03871249,0.08041946,0.20093904
0,0,AustraliaNorthernTerritory,Northern Territory,,2021-04-04 00:24:29.768208,2020-09-29 00:00:00.000000,0.00000012,0.00000893,0.00044269,0,0,1,0,0,0,0.00000009,0.00000615,0.00028862,0.03960886,0.07897743,0.19946541
0,0,AustraliaNorthernTerritory,Northern Territory,,2021-04-04 00:24:29.768208,2020-09-30 00:00:00.000000,0.00000010,0.00000816,0.00042447,0,0,1,0,0,0,0.00000007,0.00000562,0.00027736,0.04023698,0.07995574,0.19885234
0,0,AustraliaNorthernTerritory,Northern Territory,,2021-04-04 00:24:29.768208,2020-10-01 00:00:00.000000,0.00000009,0.00000745,0.00040594,0,0,0,0,0,0,0.00000006,0.00000513,0.00026630,0.04091377,0.08367567,0.19871201
0,0,AustraliaNorthernTerritory,Northern Territory,,2021-04-04 00:24:29.768208,2020-10-02 00:00:00.000000,0.00000007,0.00000681,0.00038720,0,0,0,0,0,0,0.00000005,0.00000468,0.00025527,0.03998419,0.08692460,0.19910560
0,0,AustraliaNorthernTerritory,Northern Territory,,2021-04-04 00:24:29.768208,2020-10-03 00:00:00.000000,0.00000006,0.00000623,0.00036858,0,0,0,0,0,0,0.00000004,0.00000428,0.00024420,0.03940471,0.08829205,0.20075930
0,0,AustraliaNorthernTerritory,Northern Territory,,2021-04-04 00:24:29.768208,2020-10-04 00:00:00.000000,0.00000005,0.00000569,0.00035039,0,0,0,0,0,0,0.00000004,0.00000391,0.00023315,0.03820782,0.08826575,0.20337596
0,0,AustraliaNorthernTerritory,Northern Territory,,2021-04-04 00:24:29.768208,2020-10-05 00:00:00.000000,0.00000005,0.00000520,0.00033283,0,0,0,0,0,0,0.00000003,0.00000358,0.00022213,0.03792041,0.09169346,0.20375257
0,0,AustraliaNorthernTerritory,Northern Territory,,2021-04-04 00:24:29.768208,2020-10-06 00:00:00.000000,0.00000004,0.00000476,0.00031602,0,0,0,0,0,0,0.00000003,0.00000328,0.00021095,0.03771191,0.09243779,0.19827325
0,0,AustraliaNorthernTerritory,Northern Territory,,2021-04-04 00:24:29.768208,2020-10-07 00:00:00.000000,0.00000004,0.00000436,0.00030007,0,0,0,0,0,0,0.00000003,0.00000300,0.00020041,0.03742062,0.09417866,0.20019806
0,0,AustraliaNorthernTerritory,Northern Territory,,2021-04-04 00:24:29.768208,2020-10-08 00:00:00.000000,0.00000003,0.00000400,0.00028516,0,0,0,0,0,0,0.00000002,0.00000275,0.00019048,0.03647767,0.09345541,0.20273926
0,0,AustraliaNorthernTerritory,Northern Territory,,2021-04-04 00:24:29.768208,2020-10-09 00:00:00.000000,0.00000003,0.00000367,0.00027139,0,0,0,0,0,0,0.00000002,0.00000253,0.00018113,0.03453581,0.09297384,0.20285860
0,0,AustraliaNorthernTerritory,Northern Territory,,2021-04-04 00:24:29.768208,2020-10-10 00:00:00.000000,0.00000003,0.00000338,0.00025857,0,0,0,0,0,0,0.00000002,0.00000233,0.00017229,0.03809647,0.09218728,0.20044563
0,0,AustraliaNorthernTerritory,Northern Territory,,2021-04-04 00:24:29.768208,2020-10-11 00:00:00.000000,0.00000002,0.00000311,0.00024647,0,0,0,0,0,0,0.00000002,0.00000214,0.00016388,0.03852952,0.09090720,0.19165032
0,0,AustraliaNorthernTerritory,Northern Territory,,2021-04-04 00:24:29.768208,2020-10-12 00:00:00.000000,0.00021298,0.00064211,0.00136182,0,1,3,0,0,0,0.00000001,0.00000197,0.00015567,0.03854440,0.09071198,0.18536947
0,0,AustraliaNorthernTerritory,Northern Territory,,2021-04-04 00:24:29.768208,2020-10-13 00:00:00.000000,0.00042588,0.00125758,0.00272340,1,3,6,0,0,1,0.00006405,0.00019282,0.00041656,0.03683104,0.09077148,0.18556610
0,0,AustraliaNorthernTerritory,Northern Territory,,2021-04-04 00:24:29.768208,2020-10-14 00:00:00.000000,0.00064157,0.00185408,0.00409909,1,4,10,0,1,2,0.00015669,0.00045232,0.00096918,0.03630628,0.09134909,0.18594858
0,0,AustraliaNorthernTerritory,Northern Territory,,2021-04-04 00:24:29.768208,2020-10-15 00:00:00.000000,0.00084555,0.00240871,0.00542876,2,5,13,0,1,4,0.00025817,0.00073993,0.00165099,0.03619990,0.09272791,0.18615960
0,0,AustraliaNorthernTerritory,Northern Territory,,2021-04-04 00:24:29.768208,2020-10-16 00:00:00.000000,0.00103181,0.00297577,0.00672250,2,7,16,0,2,5,0.00035796,0.00104965,0.00232580,0.03588103,0.09462250,0.18688290
0,0,AustraliaNorthernTerritory,Northern Territory,,2021-04-04 00:24:29.768208,2020-10-17 00:00:00.000000,0.00119900,0.00350714,0.00800549,2,8,19,1,3,7,0.00045641,0.00137540,0.00300802,0.03637100,0.09815592,0.19223720
0,0,AustraliaNorthernTerritory,Northern Territory,,2021-04-04 00:24:29.768208,2020-10-18 00:00:00.000000,0.00134785,0.00399954,0.00925207,3,9,22,1,4,9,0.00056246,0.00169587,0.00369815,0.03687615,0.09904300,0.19633274
0,0,AustraliaNorthernTerritory,Northern Territory,,2021-04-04 00:24:29.768208,2020-10-19 00:00:00.000000,0.00277853,0.00558804,0.01012335,6,13,24,1,4,10,0.00066358,0.00200595,0.00435621,0.03842672,0.09949180,0.20276457
0,0,AustraliaNorthernTerritory,Northern Territory,,2021-04-04 00:24:29.768208,2020-10-20 00:00:00.000000,0.00399000,0.00725273,0.01251497,9,17,30,2,6,12,0.00116243,0.00260547,0.00510449,0.03883651,0.10061764,0.20359015
0,0,AustraliaNorthernTerritory,Northern Territory,,2021-04-04 00:24:29.768208,2020-10-21 00:00:00.000000,0.00477522,0.00893749,0.01469008,11,21,36,4,8,14,0.00171692,0.00347173,0.00588740,0.03921638,0.10080150,0.20355633
0,0,AustraliaNorthernTerritory,Northern Territory,,2021-04-04 00:24:29.768208,2020-10-22 00:00:00.000000,0.00551572,0.01015730,0.01716727,13,24,42,5,10,16,0.00236628,0.00433476,0.00690917,0.03951193,0.10307488,0.20329455
0,0,AustraliaNorthernTerritory,Northern Territory,,2021-04-04 00:24:29.768208,2020-10-23 00:00:00.000000,0.00620491,0.01125155,0.01948856,15,27,47,6,12,20,0.00279630,0.00505156,0.00839906,0.03962572,0.10454635,0.20258169
0,0,AustraliaNorthernTerritory,Northern Territory,,2021-04-04 00:24:29.768208,2020-10-24 00:00:00.000000,0.00683796,0.01228105,0.02237885,16,30,54,7,13,24,0.00319535,0.00564801,0.00988082,0.03926025,0.10339080,0.21085545
0,0,AustraliaNorthernTerritory,Northern Territory,,2021-04-04 00:24:29.768208,2020-10-25 00:00:00.000000,0.00741516,0.01313987,0.02508378,18,32,61,8,15,27,0.00356869,0.00631195,0.01135737,0.03904024,0.10483969,0.21565469
0,0,AustraliaNorthernTerritory,Northern Territory,,2021-04-04 00:24:29.768208,2020-10-26 00:00:00.000000,0.00780528,0.01390453,0.02491187,19,34,61,9,16,30,0.00391466,0.00682273,0.01261532,0.03895793,0.10730084,0.21785928
0,0,AustraliaNorthernTerritory,Northern Territory,,2021-04-04 00:24:29.768208,2020-10-27 00:00:00.000000,0.00814468,0.01452887,0.02455742,20,35,60,10,17,33,0.00412229,0.00731760,0.01351693,0.03900229,0.10683531,0.21916639
0,0,AustraliaNorthernTerritory,Northern Territory,,2021-04-04 00:24:29.768208,2020-10-28 00:00:00.000000,0.00863430,0.01474099,0.02547523,21,36,62,11,19,34,0.00461522,0.00786296,0.01391562,0.03918175,0.10743582,0.22044683
0,0,AustraliaNorthernTerritory,Northern Territory,,2021-04-04 00:24:29.768208,2020-10-29 00:00:00.000000,0.00906483,0.01479250,0.02632018,22,36,64,12,20,35,0.00490274,0.00823862,0.01429008,0.03955288,0.10836390,0.22192444
0,0,AustraliaNorthernTerritory,Northern Territory,,2021-04-04 00:24:29.768208,2020-10-30 00:00:00.000000,0.00849612,0.01478196,0.02710287,20,36,66,12,20,36,0.00500254,0.00830474,0.01492637,0.03913093,0.10781932,0.21868854
0,0,AustraliaNorthernTerritory,Northern Territory,,2021-04-04 00:24:29.768208,2020-10-31 00:00:00.000000,0.00788372,0.01493458,0.02786442,19,36,68,12,20,37,0.00492756,0.00854910,0.01533483,0.03737092,0.11231609,0.21741358
0,0,AustraliaNorthernTerritory,Northern Territory,,2021-04-04 00:24:29.768208,2020-11-01 00:00:00.000000,0.00784021,0.01541723,0.02860048,19,37,70,11,20,38,0.00457971,0.00854026,0.01555549,0.03731523,0.11464361,0.22042722
0,0,AustraliaNorthernTerritory,Northern Territory,,2021-04-04 00:24:29.768208,2020-11-02 00:00:00.000000,0.00881372,0.01582666,0.02839399,21,38,69,10,21,38,0.00440653,0.00864577,0.01576081,0.03674971,0.11147230,0.22282454
0,0,AustraliaNorthernTerritory,Northern Territory,,2021-04-04 00:24:29.768208,2020-11-03 00:00:00.000000,0.00929349,0.01615457,0.02810250,22,39,69,11,21,38,0.00472027,0.00877615,0.01580396,0.03653008,0.10998189,0.22427230
0,0,AustraliaNorthernTerritory,Northern Territory,,2021-04-04 00:24:29.768208,2020-11-04 00:00:00.000000,0.00944946,0.01639828,0.02809436,23,40,68,12,22,39,0.00517961,0.00913590,0.01612286,0.03661050,0.11082736,0.22501096
0,0,AustraliaNorthernTerritory,Northern Territory,,2021-04-04 00:24:29.768208,2020-11-05 00:00:00.000000,0.01021790,0.01709489,0.02794864,25,41,68,13,22,38,0.00544442,0.00932173,0.01584550,0.03683426,0.11212179,0.22537778
0,0,AustraliaNorthernTerritory,Northern Territory,,2021-04-04 00:24:29.768208,2020-11-06 00:00:00.000000,0.00997916,0.01735067,0.02788632,24,42,68,13,23,40,0.00551432,0.00965081,0.01667892,0.03784140,0.11384326,0.22565344
0,0,AustraliaNorthernTerritory,Northern Territory,,2021-04-04 00:24:29.768208,2020-11-07 00:00:00.000000,0.00971642,0.01754221,0.03012732,23,43,73,13,23,40,0.00536945,0.00962073,0.01656084,0.03855846,0.11304376,0.22471853
0,0,AustraliaNorthernTerritory,Northern Territory,,2021-04-04 00:24:29.768208,2020-11-08 00:00:00.000000,0.01013962,0.01759475,0.03229676,24,43,79,13,24,41,0.00537373,0.01005747,0.01678556,0.04032662,0.11284686,0.23095688
0,0,AustraliaNorthernTerritory,Northern Territory,,2021-04-04 00:24:29.768208,2020-11-09 00:00:00.000000,0.01007140,0.01810836,0.03202316,24,44,78,12,25,43,0.00517913,0.01032610,0.01786013,0.04203152,0.11384580,0.24115545
0,0,AustraliaNorthernTerritory,Northern Territory,,2021-04-04 00:24:29.768208,2020-11-10 00:00:00.000000,0.01081281,0.01826498,0.03269825,26,44,80,13,25,45,0.00542074,0.01020058,0.01844666,0.04487609,0.11456384,0.25910892
0,0,AustraliaNorthernTerritory,Northern Territory,,2021-04-04 00:24:29.768208,2020-11-11 00:00:00.000000,0.01074583,0.01849595,0.03557732,26,45,87,14,24,45,0.00571530,0.01009780,0.01862364,0.04499412,0.11512075,0.26576258
0,0,AustraliaNorthernTerritory,Northern Territory,,2021-04-04 00:24:29.768208,2020-11-12 00:00:00.000000,0.01085934,0.01836332,0.03857789,26,45,94,14,24,45,0.00595256,0.01013875,0.01857079,0.04519282,0.11586766,0.26576168
0,0,AustraliaNorthernTerritory,Northern Territory,,2021-04-04 00:24:29.768208,2020-11-13 00:00:00.000000,0.01106595,0.01826748,0.04163106,27,44,102,14,25,49,0.00590792,0.01024135,0.02010621,0.04475020,0.11740042,0.26499360
0,0,AustraliaNorthernTerritory,Northern Territory,,2021-04-04 00:24:29.768208,2020-11-14 00:00:00.000000,0.01126982,0.01838914,0.04469442,27,45,109,14,25,53,0.00588326,0.01040571,0.02173534,0.04524854,0.11825604,0.25994619
0,0,AustraliaNorthernTerritory,Northern Territory,,2021-04-04 00:24:29.768208,2020-11-15 00:00:00.000000,0.01147100,0.01851010,0.04736859,28,45,116,14,26,57,0.00585618,0.01064653,0.02340642,0.04577565,0.11885247,0.25381372
0,0,AustraliaNorthernTerritory,Northern Territory,,2021-04-04 00:24:29.768208,2020-11-16 00:00:00.000000,0.01111421,0.01816506,0.04656157,27,44,114,13,26,61,0.00569188,0.01075098,0.02509246,0.04623552,0.12194616,0.25597730
0,0,AustraliaNorthernTerritory,Northern Territory,,2021-04-04 00:24:29.768208,2020-11-17 00:00:00.000000,0.01107738,0.01786350,0.04570394,27,43,112,13,26,63,0.00568016,0.01074868,0.02595655,0.04616737,0.12254198,0.25618647
0,0,AustraliaNorthernTerritory,Northern Territory,,2021-04-04 00:24:29.768208,2020-11-18 00:00:00.000000,0.01082920,0.01770021,0.04476444,26,43,109,14,26,63,0.00597918,0.01065856,0.02583846,0.04612396,0.12084689,0.25538458
0,0,AustraliaNorthernTerritory,Northern Territory,,2021-04-04 00:24:29.768208,2020-11-19 00:00:00.000000,0.01037925,0.01718178,0.04382584,25,42,107,15,25,62,0.00615091,0.01054385,0.02551487,0.04610746,0.11944605,0.25493209
0,0,AustraliaNorthernTerritory,Northern Territory,,2021-04-04 00:24:29.768208,2020-11-20 00:00:00.000000,0.00983814,0.01673356,0.04304550,24,41,105,15,25,61,0.00626976,0.01040025,0.02509881,0.04613409,0.12220740,0.25725584
0,0,AustraliaNorthernTerritory,Northern Territory,,2021-04-04 00:24:29.768208,2020-11-21 00:00:00.000000,0.00898862,0.01688794,0.04262571,22,41,104,14,25,60,0.00608256,0.01030691,0.02467348,0.04766802,0.11684873,0.26062242
0,0,AustraliaNorthernTerritory,Northern Territory,,2021-04-04 00:24:29.768208,2020-11-22 00:00:00.000000,0.00848628,0.01703154,0.04246266,20,41,104,13,25,60,0.00568916,0.01020703,0.02460572,0.04857080,0.11483110,0.26403599
0,0,AustraliaNorthernTerritory,Northern Territory,,2021-04-04 00:24:29.768208,2020-11-23 00:00:00.000000,0.01137751,0.01923785,0.04312332,27,47,105,12,24,63,0.00526888,0.01016514,0.02589915,0.05072664,0.11474910,0.26701557
0,0,AustraliaNorthernTerritory,Northern Territory,,2021-04-04 00:24:29.768208,2020-11-24 00:00:00.000000,0.01462248,0.02162099,0.04410597,35,53,108,15,26,66,0.00616075,0.01091406,0.02690828,0.05206769,0.11808027,0.26929075
0,0,AustraliaNorthernTerritory,Northern Territory,,2021-04-04 00:24:29.768208,2020-11-25 00:00:00.000000,0.01737792,0.02460650,0.04514849,42,60,110,18,29,67,0.00756318,0.01201135,0.02743775,0.05239013,0.11751976,0.27194915
0,0,AustraliaNorthernTerritory,Northern Territory,,2021-04-04 00:24:29.768208,2020-11-26 00:00:00.000000,0.01914592,0.02749091,0.04641398,47,67,113,20,32,68,0.00848784,0.01314851,0.02787487,0.05292434,0.11643775,0.27046097
0,0,AustraliaNorthernTerritory,Northern Territory,,2021-04-04 00:24:29.768208,2020-11-27 00:00:00.000000,0.02080850,0.02938413,0.04881945,51,72,119,23,35,69,0.00938991,0.01462976,0.02833856,0.05390145,0.11506468,0.26515864
0,0,AustraliaNorthernTerritory,Northern Territory,,2021-04-04 00:24:29.768208,2020-11-28 00:00:00.000000,0.02178736,0.03168882,0.05100252,53,77,125,24,39,70,0.00996584,0.01596310,0.02881957,0.05554107,0.11436318,0.26049456
0,0,AustraliaNorthernTerritory,Northern Territory,,2021-04-04 00:24:29.768208,2020-11-29 00:00:00.000000,0.02255235,0.03402035,0.05423167,55,83,133,26,42,72,0.01075648,0.01724365,0.02961919,0.05742075,0.11540590,0.26133892
0,0,AustraliaNorthernTerritory,Northern Territory,,2021-04-04 00:24:29.768208,2020-11-30 00:00:00.000000,0.02288902,0.03353623,0.05423514,56,82,133,28,44,75,0.01163739,0.01823399,0.03072883,0.05866493,0.11449248,0.26157169
0,0,AustraliaNorthernTerritory,Northern Territory,,2021-04-04 00:24:29.768208,2020-12-01 00:00:00.000000,0.02318482,0.03260590,0.05417082,56,80,133,29,46,75,0.01212965,0.01906371,0.03092855,0.05775607,0.11502641,0.25385252
0,0,AustraliaNorthernTerritory,Northern Territory,,2021-04-04 00:24:29.768208,2020-12-02 00:00:00.000000,0.02256778,0.03124014,0.05395092,55,76,132,29,46,76,0.01220584,0.01891080,0.03131343,0.05736712,0.11458581,0.25387586
0,0,AustraliaNorthernTerritory,Northern Territory,,2021-04-04 00:24:29.768208,2020-12-03 00:00:00.000000,0.02155653,0.02990733,0.05364701,52,73,131,28,45,78,0.01167121,0.01851715,0.03210718,0.05706937,0.11635043,0.25393904
0,0,AustraliaNorthernTerritory,Northern Territory,,2021-04-04 00:24:29.768208,2020-12-04 00:00:00.000000,0.01944840,0.02851868,0.05329744,47,70,130,27,44,80,0.01108600,0.01817907,0.03289163,0.05707218,0.11594768,0.25412811
0,0,AustraliaNorthernTerritory,Northern Territory,,2021-04-04 00:24:29.768208,2020-12-05 00:00:00.000000,0.01798887,0.02768492,0.05291407,44,67,129,25,43,82,0.01040473,0.01779332,0.03363743,0.05968653,0.11318925,0.25213133
0,0,AustraliaNorthernTerritory,Northern Territory,,2021-04-04 00:24:29.768208,2020-12-06 00:00:00.000000,0.01728736,0.02751547,0.05246599,42,67,128,24,42,84,0.00994319,0.01727341,0.03429736,0.05897759,0.11333404,0.24586119
0,0,AustraliaNorthernTerritory,Northern Territory,,2021-04-04 00:24:29.768208,2020-12-07 00:00:00.000000,0.01686910,0.02711998,0.05221619,41,66,128,23,40,83,0.00944202,0.01640090,0.03414038,0.05704111,0.10979886,0.24916765
0,0,AustraliaNorthernTerritory,Northern Territory,,2021-04-04 00:24:29.768208,2020-12-08 00:00:00.000000,0.01781690,0.02595826,0.05185586,43,63,127,22,39,83,0.00915484,0.01589080,0.03399208,0.05669837,0.10844511,0.24994739
0,0,AustraliaNorthernTerritory,Northern Territory,,2021-04-04 00:24:29.768208,2020-12-09 00:00:00.000000,0.01725940,0.02619332,0.05147288,42,64,126,21,37,83,0.00880821,0.01533615,0.03381824,0.05437746,0.10958992,0.24891710
0,0,AustraliaNorthernTerritory,Northern Territory,,2021-04-04 00:24:29.768208,2020-12-10 00:00:00.000000,0.01679653,0.02623800,0.05109614,41,64,125,20,37,82,0.00849152,0.01524860,0.03362017,0.05097478,0.10776723,0.24594980
0,0,AustraliaNorthernTerritory,Northern Territory,,2021-04-04 00:24:29.768208,2020-12-11 00:00:00.000000,0.01640295,0.02658548,0.05074208,40,65,124,20,37,82,0.00820286,0.01517381,0.03340822,0.04977640,0.11166802,0.24195113
0,0,AustraliaNorthernTerritory,Northern Territory,,2021-04-04 00:24:29.768208,2020-12-12 00:00:00.000000,0.01607225,0.02688593,0.05042550,39,66,123,19,37,81,0.00794386,0.01519707,0.03319336,0.04849688,0.11395029,0.24046575
0,0,AustraliaNorthernTerritory,Northern Territory,,2021-04-04 00:24:29.768208,2020-12-13 00:00:00.000000,0.01546003,0.02713067,0.05150293,37,66,126,18,37,81,0.00771271,0.01541642,0.03298607,0.04706429,0.11511587,0.23255010
0,0,AustraliaNorthernTerritory,Northern Territory,,2021-04-04 00:24:29.768208,2020-12-14 00:00:00.000000,0.01538814,0.02638292,0.05030870,37,64,123,18,38,80,0.00750294,0.01566145,0.03279214,0.04698864,0.11389371,0.23012301
0,0,AustraliaNorthernTerritory,Northern Territory,,2021-04-04 00:24:29.768208,2020-12-15 00:00:00.000000,0.01497107,0.02556372,0.04904350,36,62,120,18,38,79,0.00733141,0.01561676,0.03253152,0.04648984,0.11505623,0.22669941
0,0,AustraliaNorthernTerritory,Northern Territory,,2021-04-04 00:24:29.768208,2020-12-16 00:00:00.000000,0.01441501,0.02465260,0.04930066,35,60,121,17,37,79,0.00718697,0.01524046,0.03223163,0.04350456,0.11548951,0.22068809
0,0,AustraliaNorthernTerritory,Northern Territory,,2021-04-04 00:24:29.768208,2020-12-17 00:00:00.000000,0.01391442,0.02478217,0.05066384,34,60,124,17,36,78,0.00706247,0.01490978,0.03190726,0.04346930,0.11694088,0.22610453
0,0,AustraliaNorthernTerritory,Northern Territory,,2021-04-04 00:24:29.768208,2020-12-18 00:00:00.000000,0.01286793,0.02407328,0.05204725,31,59,127,17,36,77,0.00695303,0.01467821,0.03156604,0.04533095,0.11085243,0.23190358
0,0,AustraliaNorthernTerritory,Northern Territory,,2021-04-04 00:24:29.768208,2020-12-19 00:00:00.000000,0.01194014,0.02340270,0.05344715,29,57,131,16,35,76,0.00685423,0.01453550,0.03121480,0.04401594,0.10898967,0.23356082
0,0,AustraliaNorthernTerritory,Northern Territory,,2021-04-04 00:24:29.768208,2020-12-20 00:00:00.000000,0.01119311,0.02261104,0.05486097,27,55,134,16,34,75,0.00672661,0.01414223,0.03086057,0.04447392,0.10840390,0.23535260
0,0,AustraliaNorthernTerritory,Northern Territory,,2021-04-04 00:24:29.768208,2020-12-21 00:00:00.000000,0.01236874,0.02193002,0.05491949,30,53,134,15,33,74,0.00641224,0.01371507,0.03050949,0.04658786,0.10742793,0.23703087
0,0,AustraliaNorthernTerritory,Northern Territory,,2021-04-04 00:24:29.768208,2020-12-22 00:00:00.000000,0.01329504,0.02231568,0.05400549,32,54,132,15,32,74,0.00629436,0.01327736,0.03042914,0.04794276,0.10758550,0.23856070
0,0,AustraliaNorthernTerritory,Northern Territory,,2021-04-04 00:24:29.768208,2020-12-23 00:00:00.000000,0.01326507,0.02215311,0.05322245,32,54,130,15,31,74,0.00642558,0.01295351,0.03051315,0.05009175,0.10680880,0.24013304
0,0,AustraliaNorthernTerritory,Northern Territory,,2021-04-04 00:24:29.768208,2020-12-24 00:00:00.000000,0.01297668,0.02278222,0.05256625,31,55,129,15,31,75,0.00636065,0.01301416,0.03066684,0.05156547,0.10541348,0.24203915
0,0,AustraliaNorthernTerritory,Northern Territory,,2021-04-04 00:24:29.768208,2020-12-25 00:00:00.000000,0.01211853,0.02304989,0.05201689,29,56,127,15,31,75,0.00651406,0.01291539,0.03091718,0.04767237,0.10700185,0.24474544
0,0,AustraliaNorthernTerritory,Northern Territory,,2021-04-04 00:24:29.768208,2020-12-26 00:00:00.000000,0.01142531,0.02320904,0.05156787,28,57,126,15,31,76,0.00650697,0.01298282,0.03121280,0.04775186,0.10762358,0.24869564
0,0,AustraliaNorthernTerritory,Northern Territory,,2021-04-04 00:24:29.768208,2020-12-27 00:00:00.000000,0.01072324,0.02309688,0.05120807,26,56,125,15,31,77,0.00644404,0.01293910,0.03154207,0.04790518,0.10816693,0.25354944
0,0,AustraliaNorthernTerritory,Northern Territory,,2021-04-04 00:24:29.768208,2020-12-28 00:00:00.000000,0.01387960,0.02566871,0.05315870,34,63,130,15,32,78,0.00618919,0.01341002,0.03189787,0.04620525,0.10846040,0.25651647
0,0,AustraliaNorthernTerritory,Northern Territory,,2021-04-04 00:24:29.768208,2020-12-29 00:00:00.000000,0.01709121,0.02804819,0.05637350,41,68,138,17,34,80,0.00695818,0.01417568,0.03296484,0.04715141,0.10641403,0.25617220
0,0,AustraliaNorthernTerritory,Northern Territory,,2021-04-04 00:24:29.768208,2020-12-30 00:00:00.000000,0.02046795,0.03062816,0.05965143,50,75,146,20,37,84,0.00823818,0.01512264,0.03446034,0.04613478,0.10550038,0.25460315
0,0,AustraliaNorthernTerritory,Northern Territory,,2021-04-04 00:24:29.768208,2020-12-31 00:00:00.000000,0.02375969,0.03340445,0.06291799,58,82,154,24,39,88,0.00978896,0.01617086,0.03620799,0.04602655,0.10089292,0.25000314
0,0,AustraliaNorthernTerritory,Northern Territory,,2021-04-04 00:24:29.768208,2021-01-01 00:00:00.000000,0.02667026,0.03582615,0.06608877,65,87,162,27,42,93,0.01112733,0.01746433,0.03809414,0.04578553,0.09866678,0.23894830
0,0,AustraliaNorthernTerritory,Northern Territory,,2021-04-04 00:24:29.768208,2021-01-02 00:00:00.000000,0.02923193,0.03819959,0.06911784,71,93,169,30,46,98,0.01235021,0.01894098,0.04004012,0.04519738,0.09784909,0.22658310
0,0,AustraliaNorthernTerritory,Northern Territory,,2021-04-04 00:24:29.768208,2021-01-03 00:00:00.000000,0.03151332,0.04037602,0.07197828,77,99,176,33,50,103,0.01372218,0.02058573,0.04198525,0.04383692,0.09792949,0.20112485
0,0,AustraliaNorthernTerritory,Northern Territory,,2021-04-04 00:24:29.768208,2021-01-04 00:00:00.000000,0.02936845,0.03901928,0.07154323,72,95,175,37,54,107,0.01518944,0.02199373,0.04388141,0.04234713,0.09691860,0.20043151
0,0,AustraliaNorthernTerritory,Northern Territory,,2021-04-04 00:24:29.768208,2021-01-05 00:00:00.000000,0.02719029,0.03781212,0.07084649,66,92,173,37,54,109,0.01545595,0.02217299,0.04440600,0.04181340,0.09511227,0.20005411
0,0,AustraliaNorthernTerritory,Northern Territory,,2021-04-04 00:24:29.768208,2021-01-06 00:00:00.000000,0.02547463,0.03613625,0.06977514,62,88,171,37,53,107,0.01507159,0.02172384,0.04395530,0.04179789,0.09334700,0.19930903
0,0,AustraliaNorthernTerritory,Northern Territory,,2021-04-04 00:24:29.768208,2021-01-07 00:00:00.000000,0.02367207,0.03449686,0.06835329,58,84,167,34,52,105,0.01408979,0.02136942,0.04301239,0.04189935,0.09165093,0.19782729
0,0,AustraliaNorthernTerritory,Northern Territory,,2021-04-04 00:24:29.768208,2021-01-08 00:00:00.000000,0.02190479,0.03305804,0.06664583,53,81,163,31,51,102,0.01265733,0.02098373,0.04172874,0.04211793,0.08925934,0.19217296
0,0,AustraliaNorthernTerritory,Northern Territory,,2021-04-04 00:24:29.768208,2021-01-09 00:00:00.000000,0.02024467,0.03127315,0.06473868,49,76,158,27,50,98,0.01127790,0.02049202,0.04021367,0.04251384,0.08701489,0.16794803
0,0,AustraliaNorthernTerritory,Northern Territory,,2021-04-04 00:24:29.768208,2021-01-10 00:00:00.000000,0.01861304,0.02954037,0.06176623,45,72,151,25,48,94,0.01030901,0.01962688,0.03855838,0.04298461,0.08613467,0.14448895
0,0,AustraliaNorthernTerritory,Northern Territory,,2021-04-04 00:24:29.768208,2021-01-11 00:00:00.000000,0.01705838,0.02801356,0.05897045,41,68,144,23,46,90,0.00943812,0.01878194,0.03685277,0.04346076,0.08532022,0.13919922
0,0,AustraliaNorthernTerritory,Northern Territory,,2021-04-04 00:24:29.768208,2021-01-12 00:00:00.000000,0.01569174,0.02669432,0.05632361,38,65,138,21,44,86,0.00865769,0.01793972,0.03524922,0.04179071,0.08155709,0.13705378
0,0,AustraliaNorthernTerritory,Northern Territory,,2021-04-04 00:24:29.768208,2021-01-13 00:00:00.000000,0.01457189,0.02514913,0.05383575,35,61,132,19,41,83,0.00810906,0.01698208,0.03410031,0.03988186,0.07652500,0.13366653
0,0,AustraliaNorthernTerritory,Northern Territory,,2021-04-04 00:24:29.768208,2021-01-14 00:00:00.000000,0.01388232,0.02381394,0.05143696,34,58,126,19,39,80,0.00806907,0.01605898,0.03296754,0.03983922,0.07720091,0.13376218
0,0,AustraliaNorthernTerritory,Northern Territory,,2021-04-04 00:24:29.768208,2021-01-15 00:00:00.000000,0.01272047,0.02247710,0.04893591,31,55,120,19,37,78,0.00797955,0.01517451,0.03186533,0.04017461,0.07700848,0.13371554
0,0,AustraliaNorthernTerritory,Northern Territory,,2021-04-04 00:24:29.768208,2021-01-16 00:00:00.000000,0.01168389,0.02140167,0.04652063,28,52,114,17,34,75,0.00732485,0.01406404,0.03080547,0.03944916,0.07239625,0.13344338
0,0,AustraliaNorthernTerritory,Northern Territory,,2021-04-04 00:24:29.768208,2021-01-17 00:00:00.000000,0.01081251,0.02026717,0.04425202,26,49,108,16,32,73,0.00674803,0.01320640,0.02980061,0.03899117,0.06993884,0.13264009
0,0,AustraliaNorthernTerritory,Northern Territory,,2021-04-04 00:24:29.768208,2021-01-18 00:00:00.000000,0.01016945,0.01924948,0.04200730,24,47,103,15,30,70,0.00624533,0.01249139,0.02886212,0.03830921,0.06832275,0.13050271
0,0,AustraliaNorthernTerritory,Northern Territory,,2021-04-04 00:24:29.768208,2021-01-19 00:00:00.000000,0.00960759,0.01819302,0.04012050,23,44,98,14,29,68,0.00576487,0.01186488,0.02801867,0.03729221,0.06901234,0.12917920
0,0,AustraliaNorthernTerritory,Northern Territory,,2021-04-04 00:24:29.768208,2021-01-20 00:00:00.000000,0.00936043,0.01727503,0.03797549,22,42,93,13,27,65,0.00532138,0.01113482,0.02651340,0.03598843,0.06826932,0.13050475
0,0,AustraliaNorthernTerritory,Northern Territory,,2021-04-04 00:24:29.768208,2021-01-21 00:00:00.000000,0.00872836,0.01619227,0.03617082,21,39,88,12,25,61,0.00491869,0.01056618,0.02503368,0.03464879,0.06630667,0.12850281
0,0,AustraliaNorthernTerritory,Northern Territory,,2021-04-04 00:24:29.768208,2021-01-22 00:00:00.000000,0.00832331,0.01535106,0.03448368,20,37,84,11,25,58,0.00463643,0.01020835,0.02362834,0.03358933,0.06559984,0.12753921
0,0,AustraliaNorthernTerritory,Northern Territory,,2021-04-04 00:24:29.768208,2021-01-23 00:00:00.000000,0.00774162,0.01510558,0.03291728,19,37,80,10,23,54,0.00430071,0.00964720,0.02230114,0.03297962,0.06320567,0.12751623
0,0,AustraliaNorthernTerritory,Northern Territory,,2021-04-04 00:24:29.768208,2021-01-24 00:00:00.000000,0.00720055,0.01449770,0.03222486,17,35,79,9,22,51,0.00395582,0.00911550,0.02105200,0.03278583,0.06337343,0.12752312
0,0,AustraliaNorthernTerritory,Northern Territory,,2021-04-04 00:24:29.768208,2021-01-25 00:00:00.000000,0.00736134,0.01383533,0.03129940,18,33,76,9,21,48,0.00372508,0.00891227,0.01986571,0.03299511,0.06310256,0.12945703
0,0,AustraliaNorthernTerritory,Northern Territory,,2021-04-04 00:24:29.768208,2021-01-26 00:00:00.000000,0.00725609,0.01349096,0.03038292,17,33,74,8,21,46,0.00363710,0.00866318,0.01879689,0.03301794,0.06285207,0.13855216
0,0,AustraliaNorthernTerritory,Northern Territory,,2021-04-04 00:24:29.768208,2021-01-27 00:00:00.000000,0.00703489,0.01319866,0.02946343,17,32,72,8,20,43,0.00346152,0.00839253,0.01782063,0.03212366,0.06228096,0.14094752
0,0,AustraliaNorthernTerritory,Northern Territory,,2021-04-04 00:24:29.768208,2021-01-28 00:00:00.000000,0.00687521,0.01262907,0.02856612,16,31,70,8,19,41,0.00336407,0.00807621,0.01691593,0.03162745,0.06181453,0.14039410
0,0,AustraliaNorthernTerritory,Northern Territory,,2021-04-04 00:24:29.768208,2021-01-29 00:00:00.000000,0.00679873,0.01222774,0.02770207,16,30,68,8,18,40,0.00332547,0.00772552,0.01642045,0.03140898,0.06112199,0.13886313
0,0,AustraliaNorthernTerritory,Northern Territory,,2021-04-04 00:24:29.768208,2021-01-30 00:00:00.000000,0.00676945,0.01203769,0.02687038,16,29,65,8,18,39,0.00330968,0.00747505,0.01599477,0.03119957,0.05921839,0.13626476
0,0,AustraliaNorthernTerritory,Northern Territory,,2021-04-04 00:24:29.768208,2021-01-31 00:00:00.000000,0.00674962,0.01191676,0.02608504,16,29,64,8,17,38,0.00330864,0.00727241,0.01558952,0.03066708,0.05878384,0.13336388
0,0,AustraliaNorthernTerritory,Northern Territory,,2021-04-04 00:24:29.768208,2021-02-01 00:00:00.000000,0.00656103,0.01173419,0.02491930,16,28,61,8,17,37,0.00331694,0.00706841,0.01520433,0.02987003,0.05926036,0.13140709
0,0,AustraliaNorthernTerritory,Northern Territory,,2021-04-04 00:24:29.768208,2021-02-02 00:00:00.000000,0.00637565,0.01146781,0.02381521,15,28,58,8,16,36,0.00329907,0.00683349,0.01477674,0.02914184,0.06041825,0.13037716
0,0,AustraliaNorthernTerritory,Northern Territory,,2021-04-04 00:24:29.768208,2021-02-03 00:00:00.000000,0.00621436,0.01143332,0.02274092,15,28,55,7,16,35,0.00318659,0.00678357,0.01433356,0.02859274,0.06021666,0.12980537
0,0,AustraliaNorthernTerritory,Northern Territory,,2021-04-04 00:24:29.768208,2021-02-04 00:00:00.000000,0.00610208,0.01142874,0.02156658,14,28,52,7,16,34,0.00302623,0.00678537,0.01389281,0.02830737,0.05861605,0.12782624
0,0,AustraliaNorthernTerritory,Northern Territory,,2021-04-04 00:24:29.768208,2021-02-05 00:00:00.000000,0.00600079,0.01136313,0.02095741,14,27,51,7,16,33,0.00293818,0.00673592,0.01347189,0.02639595,0.05784113,0.12709863
0,0,AustraliaNorthernTerritory,Northern Territory,,2021-04-04 00:24:29.768208,2021-02-06 00:00:00.000000,0.00590994,0.01126745,0.02119612,14,27,52,7,16,32,0.00285718,0.00659056,0.01307931,0.02601114,0.05834365,0.12822619
0,0,AustraliaNorthernTerritory,Northern Territory,,2021-04-04 00:24:29.768208,2021-02-07 00:00:00.000000,0.00562609,0.01104641,0.02142404,13,27,52,6,16,33,0.00278491,0.00655799,0.01349304,0.02599782,0.05666731,0.12830125
0,0,AustraliaNorthernTerritory,Northern Territory,,2021-04-04 00:24:29.768208,2021-02-08 00:00:00.000000,0.00529067,0.01072798,0.02049247,12,26,50,6,16,31,0.00272032,0.00661891,0.01294618,0.02599114,0.05652337,0.12816843
0,0,AustraliaNorthernTerritory,Northern Territory,,2021-04-04 00:24:29.768208,2021-02-09 00:00:00.000000,0.00500674,0.01035691,0.01954878,12,25,48,6,15,31,0.00261351,0.00646298,0.01277716,0.02600232,0.05687136,0.12796174
0,0,AustraliaNorthernTerritory,Northern Territory,,2021-04-04 00:24:29.768208,2021-02-10 00:00:00.000000,0.00473647,0.01002235,0.01930234,11,24,47,6,15,30,0.00255844,0.00626916,0.01243227,0.02612377,0.05520068,0.12768190
0,0,AustraliaNorthernTerritory,Northern Territory,,2021-04-04 00:24:29.768208,2021-02-11 00:00:00.000000,0.00448959,0.00964278,0.01944240,11,23,47,6,14,30,0.00256160,0.00605591,0.01226990,0.02670707,0.05489698,0.12770814
0,0,AustraliaNorthernTerritory,Northern Territory,,2021-04-04 00:24:29.768208,2021-02-12 00:00:00.000000,0.00427010,0.00940564,0.01958818,10,23,48,6,14,30,0.00257122,0.00581170,0.01231336,0.02619764,0.05629640,0.12774334
0,0,AustraliaNorthernTerritory,Northern Territory,,2021-04-04 00:24:29.768208,2021-02-13 00:00:00.000000,0.00407863,0.00916388,0.01917213,10,22,47,6,13,30,0.00253327,0.00565899,0.01237900,0.02406671,0.05583767,0.12753174
0,0,AustraliaNorthernTerritory,Northern Territory,,2021-04-04 00:24:29.768208,2021-02-14 00:00:00.000000,0.00391392,0.00906644,0.01818032,9,22,44,5,13,30,0.00241373,0.00561812,0.01245662,0.02300487,0.05395577,0.12748393
0,0,AustraliaNorthernTerritory,Northern Territory,,2021-04-04 00:24:29.768208,2021-02-15 00:00:00.000000,0.00450928,0.00887279,0.01773229,11,21,43,5,13,30,0.00231201,0.00536813,0.01253954,0.02433953,0.05256176,0.12582329
0,0,AustraliaNorthernTerritory,Northern Territory,,2021-04-04 00:24:29.768208,2021-02-16 00:00:00.000000,0.00490964,0.00885033,0.01735011,12,21,42,5,12,30,0.00238563,0.00522362,0.01234676,0.02561583,0.05255423,0.12514090
0,0,AustraliaNorthernTerritory,Northern Territory,,2021-04-04 00:24:29.768208,2021-02-17 00:00:00.000000,0.00483837,0.00861261,0.01703278,11,21,41,5,12,29,0.00236438,0.00516339,0.01194575,0.02617086,0.05054182,0.12487399
0,0,AustraliaNorthernTerritory,Northern Territory,,2021-04-04 00:24:29.768208,2021-02-18 00:00:00.000000,0.00489352,0.00842687,0.01676025,12,20,41,6,12,28,0.00258545,0.00520007,0.01162465,0.02644170,0.05032723,0.12472072
0,0,AustraliaNorthernTerritory,Northern Territory,,2021-04-04 00:24:29.768208,2021-02-19 00:00:00.000000,0.00468964,0.00827191,0.01651910,11,20,40,6,12,27,0.00269503,0.00507686,0.01136050,0.02696267,0.04931139,0.12454239
0,0,AustraliaNorthernTerritory,Northern Territory,,2021-04-04 00:24:29.768208,2021-02-20 00:00:00.000000,0.00480577,0.00823812,0.01629943,11,20,40,6,12,27,0.00261202,0.00496814,0.01113736,0.02739953,0.04785124,0.12429957
0,0,AustraliaNorthernTerritory,Northern Territory,,2021-04-04 00:24:29.768208,2021-02-21 00:00:00.000000,0.00467867,0.00817696,0.01609371,11,20,39,6,11,26,0.00266301,0.00487306,0.01094390,0.02660634,0.04825163,0.12401213
0,0,AustraliaNorthernTerritory,Northern Territory,,2021-04-04 00:24:29.768208,2021-02-22 00:00:00.000000,0.00418759,0.00746773,0.01506681,10,18,37,6,11,26,0.00256171,0.00479360,0.01077191,0.02598765,0.04935050,0.12372226
0,0,AustraliaNorthernTerritory,Northern Territory,,2021-04-04 00:24:29.768208,2021-02-23 00:00:00.000000,0.00371713,0.00685857,0.01398302,9,16,34,5,11,25,0.00233756,0.00459184,0.01033469,0.02653381,0.04794064,0.12343878
0,0,AustraliaNorthernTerritory,Northern Territory,,2021-04-04 00:24:29.768208,2021-02-24 00:00:00.000000,0.00326419,0.00620403,0.01258689,8,15,30,5,10,23,0.00215663,0.00424791,0.00942282,0.02602140,0.04738099,0.12310123
0,0,AustraliaNorthernTerritory,Northern Territory,,2021-04-04 00:24:29.768208,2021-02-25 00:00:00.000000,0.00282355,0.00555572,0.01154342,6,13,28,4,9,20,0.00193561,0.00387230,0.00854293,0.02623246,0.04782894,0.12321021
0,0,AustraliaNorthernTerritory,Northern Territory,,2021-04-04 00:24:29.768208,2021-02-26 00:00:00.000000,0.00238707,0.00499431,0.01076784,5,12,26,4,8,18,0.00165831,0.00354949,0.00771418,0.02622716,0.04698813,0.12183097
0,0,AustraliaNorthernTerritory,Northern Territory,,2021-04-04 00:24:29.768208,2021-02-27 00:00:00.000000,0.00200918,0.00448482,0.01000544,4,11,24,3,7,17,0.00143257,0.00319352,0.00694638,0.02669137,0.04655993,0.12070749
0,0,AustraliaNorthernTerritory,Northern Territory,,2021-04-04 00:24:29.768208,2021-02-28 00:00:00.000000,0.00168546,0.00402939,0.00925754,4,9,22,3,7,15,0.00123736,0.00288355,0.00624327,0.02660776,0.04752515,0.11909795
0,0,AustraliaNorthernTerritory,Northern Territory,,2021-04-04 00:24:29.768208,2021-03-01 00:00:00.000000,0.00173172,0.00409262,0.00889387,4,10,21,2,6,13,0.00104439,0.00262181,0.00560473,0.02536562,0.04812861,0.11842319
0,0,AustraliaNorthernTerritory,Northern Territory,,2021-04-04 00:24:29.768208,2021-03-02 00:00:00.000000,0.00172661,0.00429613,0.00855538,4,10,21,2,6,12,0.00099166,0.00250413,0.00512553,0.02478020,0.04893720,0.12022750
0,0,AustraliaNorthernTerritory,Northern Territory,,2021-04-04 00:24:29.768208,2021-03-03 00:00:00.000000,0.00176767,0.00453382,0.00845034,4,11,20,2,6,12,0.00099038,0.00246675,0.00506187,0.02459449,0.04993003,0.12384016
0,0,AustraliaNorthernTerritory,Northern Territory,,2021-04-04 00:24:29.768208,2021-03-04 00:00:00.000000,0.00187697,0.00490116,0.00871544,4,12,21,2,6,12,0.00103920,0.00253023,0.00508629,0.02448899,0.05001232,0.11918799
0,0,AustraliaNorthernTerritory,Northern Territory,,2021-04-04 00:24:29.768208,2021-03-05 00:00:00.000000,0.00198367,0.00516441,0.00917713,4,12,22,2,6,12,0.00110030,0.00264073,0.00514941,0.02544406,0.05088740,0.12294855
0,0,AustraliaNorthernTerritory,Northern Territory,,2021-04-04 00:24:29.768208,2021-03-06 00:00:00.000000,0.00208247,0.00527395,0.00992281,5,12,24,2,7,13,0.00113595,0.00285555,0.00548375,0.02504441,0.04993546,0.12885705
0,0,AustraliaNorthernTerritory,Northern Territory,,2021-04-04 00:24:29.768208,2021-03-07 00:00:00.000000,0.00211393,0.00551699,0.01061671,5,13,26,2,7,14,0.00114711,0.00305859,0.00575945,0.02509571,0.04999234,0.13856092
0,0,AustraliaNorthernTerritory,Northern Territory,,2021-04-04 00:24:29.768208,2021-03-08 00:00:00.000000,0.00230226,0.00568152,0.01068964,5,13,26,2,7,14,0.00116057,0.00310044,0.00600739,0.02572946,0.05097931,0.14662413
0,0,AustraliaNorthernTerritory,Northern Territory,,2021-04-04 00:24:29.768208,2021-03-09 00:00:00.000000,0.00248853,0.00589556,0.01070930,6,14,26,3,7,15,0.00122789,0.00320298,0.00626698,0.02566269,0.05122811,0.15270696
0,0,AustraliaNorthernTerritory,Northern Territory,,2021-04-04 00:24:29.768208,2021-03-10 00:00:00.000000,0.00267358,0.00601561,0.01058531,6,14,25,3,8,15,0.00131955,0.00329666,0.00640881,0.02564348,0.05144511,0.15689759
0,0,AustraliaNorthernTerritory,Northern Territory,,2021-04-04 00:24:29.768208,2021-03-11 00:00:00.000000,0.00287148,0.00610072,0.01044163,7,14,25,3,8,15,0.00142900,0.00334390,0.00646751,0.02564844,0.05196236,0.15941452
0,0,AustraliaNorthernTerritory,Northern Territory,,2021-04-04 00:24:29.768208,2021-03-12 00:00:00.000000,0.00304799,0.00634792,0.01052239,7,15,25,3,8,15,0.00154245,0.00341348,0.00647470,0.02500080,0.05189782,0.16062793
0,0,AustraliaNorthernTerritory,Northern Territory,,2021-04-04 00:24:29.768208,2021-03-13 00:00:00.000000,0.00320181,0.00644748,0.01082533,7,15,26,4,8,15,0.00164511,0.00359106,0.00646406,0.02485825,0.05119435,0.15971994
0,0,AustraliaNorthernTerritory,Northern Territory,,2021-04-04 00:24:29.768208,2021-03-14 00:00:00.000000,0.00325996,0.00654466,0.01171284,8,16,28,4,9,16,0.00173558,0.00372181,0.00657591,0.02401899,0.05164600,0.15704267
0,0,AustraliaNorthernTerritory,Northern Territory,,2021-04-04 00:24:29.768208,2021-03-15 00:00:00.000000,0.00342964,0.00660208,0.01190906,8,16,29,4,9,16,0.00181408,0.00378276,0.00685350,0.02386500,0.05216727,0.15329806
0,0,AustraliaNorthernTerritory,Northern Territory,,2021-04-04 00:24:29.768208,2021-03-16 00:00:00.000000,0.00351320,0.00667733,0.01265253,8,16,31,4,9,17,0.00187507,0.00382373,0.00709731,0.02382024,0.05229693,0.15253073
0,0,AustraliaNorthernTerritory,Northern Territory,,2021-04-04 00:24:29.768208,2021-03-17 00:00:00.000000,0.00349741,0.00674705,0.01260601,8,16,30,4,9,17,0.00192336,0.00387058,0.00709283,0.02421344,0.05230740,0.15230102
0,0,AustraliaNorthernTerritory,Northern Territory,,2021-04-04 00:24:29.768208,2021-03-18 00:00:00.000000,0.00344202,0.00692772,0.01264294,8,17,31,4,9,18,0.00194247,0.00383734,0.00752804,0.02378047,0.05214570,0.15185315
0,0,AustraliaNorthernTerritory,Northern Territory,,2021-04-04 00:24:29.768208,2021-03-19 00:00:00.000000,0.00340213,0.00686072,0.01450777,8,16,35,4,9,18,0.00194708,0.00388979,0.00745518,0.02399256,0.05138697,0.14880357
0,0,AustraliaNorthernTerritory,Northern Territory,,2021-04-04 00:24:29.768208,2021-03-20 00:00:00.000000,0.00338623,0.00678038,0.01612696,8,16,39,4,9,18,0.00191920,0.00383906,0.00734469,0.02382881,0.05147820,0.14566682
0,0,AustraliaNorthernTerritory,Northern Territory,,2021-04-04 00:24:29.768208,2021-03-21 00:00:00.000000,0.00340481,0.00687790,0.01686235,8,16,41,4,9,19,0.00189867,0.00391103,0.00786874,0.02372282,0.05172458,0.14809698
0,0,AustraliaNorthernTerritory,Northern Territory,,2021-04-04 00:24:29.768208,2021-03-22 00:00:00.000000,0.00433300,0.00737288,0.01738919,10,18,42,4,9,21,0.00188317,0.00395034,0.00873383,0.02365931,0.05178946,0.14961726
0,0,AustraliaNorthernTerritory,Northern Territory,,2021-04-04 00:24:29.768208,2021-03-23 00:00:00.000000,0.00486803,0.00819166,0.01786854,11,20,43,5,10,23,0.00220007,0.00407238,0.00940854,0.02355326,0.05114369,0.15001911
0,0,AustraliaNorthernTerritory,Northern Territory,,2021-04-04 00:24:29.768208,2021-03-24 00:00:00.000000,0.00495135,0.00886588,0.01830328,12,21,44,6,10,24,0.00246582,0.00435907,0.00986994,0.02358117,0.04979672,0.14975507
0,0,AustraliaNorthernTerritory,Northern Territory,,2021-04-04 00:24:29.768208,2021-03-25 00:00:00.000000,0.00501868,0.00956568,0.01877133,12,23,46,6,11,25,0.00275487,0.00481831,0.01018047,0.02361315,0.05084763,0.14954570
0,0,AustraliaNorthernTerritory,Northern Territory,,2021-04-04 00:24:29.768208,2021-03-26 00:00:00.000000,0.00529173,0.01021342,0.01909776,12,25,46,6,13,25,0.00281147,0.00533182,0.01038063,0.02342711,0.05001044,0.14918645
0,0,AustraliaNorthernTerritory,Northern Territory,,2021-04-04 00:24:29.768208,2021-03-27 00:00:00.000000,0.00518981,0.01097187,0.01947503,12,26,47,6,14,27,0.00280905,0.00570590,0.01123764,0.02334974,0.05053493,0.16167191
0,0,AustraliaNorthernTerritory,Northern Territory,,2021-04-04 00:24:29.768208,2021-03-28 00:00:00.000000,0.00509525,0.01143154,0.02059276,12,28,50,6,15,29,0.00274713,0.00612966,0.01205091,0.02331610,0.04927971,0.17241856
0,0,AustraliaNorthernTerritory,Northern Territory,,2021-04-04 00:24:29.768208,2021-03-29 00:00:00.000000,0.00466956,0.01072634,0.01982168,11,26,48,6,15,30,0.00269123,0.00651256,0.01248227,0.02333398,0.04912924,0.17602482
0,0,AustraliaNorthernTerritory,Northern Territory,,2021-04-04 00:24:29.768208,2021-03-30 00:00:00.000000,0.00425382,0.00988785,0.01898034,10,24,46,6,15,30,0.00255611,0.00638302,0.01234017,0.02346861,0.04918294,0.17706122
0,0,AustraliaNorthernTerritory,Northern Territory,,2021-04-04 00:24:29.768208,2021-03-31 00:00:00.000000,0.00384384,0.00891816,0.01802164,9,21,44,5,14,29,0.00238194,0.00609701,0.01195345,0.02345027,0.04919633,0.17735511
0,0,AustraliaNorthernTerritory,Northern Territory,,2021-04-04 00:24:29.768208,2021-04-01 00:00:00.000000,0.00345372,0.00803409,0.01702059,8,19,41,5,13,28,0.00218996,0.00565154,0.01142443,0.02343981,0.04920454,0.17744518
0,0,AustraliaNorthernTerritory,Northern Territory,,2021-04-04 00:24:29.768208,2021-04-02 00:00:00.000000,0.00321458,0.00718199,0.01670316,7,17,41,4,12,26,0.00199454,0.00506454,0.01083905,0.02343392,0.04920971,0.17747599
0,0,AustraliaNorthernTerritory,Northern Territory,,2021-04-04 00:24:29.768208,2021-04-03 00:00:00.000000,0.00300320,0.00633477,0.01639643,7,15,40,4,11,25,0.00184004,0.00451781,0.01026992,0.02343065,0.04921263,0.17748776
0,0,AustraliaNorthernTerritory,Northern Territory,,2021-04-04 00:24:29.768208,2021-04-04 00:00:00.000000,0.00280455,0.00566409,0.01556652,6,13,38,4,9,24,0.00172132,0.00406431,0.00991907,0.02342883,0.04921418,0.17749267
0,0,AustraliaNorthernTerritory,Northern Territory,,2021-04-04 00:24:29.768208,2021-04-05 00:00:00.000000,0.00249107,0.00508173,0.01411277,6,12,34,3,8,23,0.00160896,0.00357961,0.00975010,0.02342782,0.04921496,0.17749485
0,0,AustraliaNorthernTerritory,Northern Territory,,2021-04-04 00:24:29.768208,2021-04-06 00:00:00.000000,0.00218362,0.00455910,0.01277433,5,11,31,3,7,23,0.00145955,0.00324609,0.00948916,0.02342727,0.04921535,0.17749584
0,0,AustraliaNorthernTerritory,Northern Territory,,2021-04-04 00:24:29.768208,2021-04-07 00:00:00.000000,0.00188658,0.00407815,0.01159174,4,10,28,3,7,21,0.00128480,0.00299268,0.00865336,0.02342696,0.04921554,0.17749631
0,0,AustraliaNorthernTerritory,Northern Territory,,2021-04-04 00:24:29.768208,2021-04-08 00:00:00.000000,0.00160841,0.00361115,0.01084788,3,8,26,2,6,19,0.00112796,0.00267929,0.00787112,0.02342679,0.04921564,0.17749653
0,0,AustraliaNorthernTerritory,Northern Territory,,2021-04-04 00:24:29.768208,2021-04-09 00:00:00.000000,0.00137026,0.00317835,0.01014991,3,7,24,2,5,17,0.00098820,0.00239834,0.00714435,0.02342670,0.04921568,0.17749664
0,0,AustraliaNorthernTerritory,Northern Territory,,2021-04-04 00:24:29.768208,2021-04-10 00:00:00.000000,0.00116639,0.00281553,0.00949567,2,6,23,2,5,16,0.00084930,0.00215874,0.00658669,0.02342665,0.04921571,0.17749669
0,0,AustraliaNorthernTerritory,Northern Territory,,2021-04-04 00:24:29.768208,2021-04-11 00:00:00.000000,0.00099111,0.00249009,0.00910784,2,6,22,1,4,15,0.00071856,0.00188635,0.00616416,0.02342662,0.04921572,0.17749671
0,0,AustraliaNorthernTerritory,Northern Territory,,2021-04-04 00:24:29.768208,2021-04-12 00:00:00.000000,0.00084198,0.00219854,0.00889827,2,5,21,1,4,14,0.00060582,0.00164934,0.00594405,0.02342660,0.04921572,0.17749672
0,0,AustraliaNorthernTerritory,Northern Territory,,2021-04-04 00:24:29.768208,2021-04-13 00:00:00.000000,0.00071519,0.00194104,0.00869353,1,4,21,1,3,14,0.00049251,0.00146837,0.00580804,0.02342660,0.04921572,0.17749673
0,0,AustraliaNorthernTerritory,Northern Territory,,2021-04-04 00:24:29.768208,2021-04-14 00:00:00.000000,0.00060746,0.00171553,0.00849354,1,4,20,0,3,13,0.00040008,0.00128397,0.00567503,0.02342659,0.04921572,0.17749673
0,0,AustraliaNorthernTerritory,Northern Territory,,2021-04-04 00:24:29.768208,2021-04-15 00:00:00.000000,0.00049512,0.00151301,0.00829821,1,3,20,0,2,13,0.00032481,0.00112659,0.00554499,0.02342659,0.04921573,0.17749673
0,0,AustraliaNorthernTerritory,Northern Territory,,2021-04-04 00:24:29.768208,2021-04-16 00:00:00.000000,0.00040154,0.00133583,0.00810743,0,3,19,0,2,13,0.00026566,0.00100162,0.00541790,0.02342659,0.04921573,0.17749673
0,0,AustraliaNorthernTerritory,Northern Territory,,2021-04-04 00:24:29.768208,2021-04-17 00:00:00.000000,0.00032556,0.00116728,0.00792112,0,2,19,0,2,13,0.00021819,0.00089044,0.00529372,0.02342659,0.04921573,0.17749673
