FIPS,HR_UID,nameid,province,region,analysisTime,dates,pointprevalence_025,pointprevalence_50,pointprevalence_975,pointinfections_025,pointinfections_50,pointinfections_975,pointinfectious_025,pointinfectious_50,pointinfectious_975,pointinfectiousprevalence_05,pointinfectiousprevalence_50,pointinfectiousprevalence_95,infectrate_025,infectrate_50,infectrate_975
12009,0,USFloridaBrevard,Florida,Brevard,2021-04-04 13:31:56.852727,2020-03-09 00:00:00.000000,0.00040853,0.00108087,0.00240705,2,6,14,0,1,5,0.00008070,0.00032911,0.00096602,0.45478687,0.68224731,0.93573119
12009,0,USFloridaBrevard,Florida,Brevard,2021-04-04 13:31:56.852727,2020-03-10 00:00:00.000000,0.00068035,0.00156634,0.00309992,4,9,18,0,2,7,0.00014898,0.00043393,0.00119008,0.45478687,0.68181451,0.93572897
12009,0,USFloridaBrevard,Florida,Brevard,2021-04-04 13:31:56.852727,2020-03-11 00:00:00.000000,0.00098360,0.00207378,0.00388105,5,12,23,1,3,8,0.00024463,0.00064815,0.00148588,0.45478687,0.68149043,0.93572335
12009,0,USFloridaBrevard,Florida,Brevard,2021-04-04 13:31:56.852727,2020-03-12 00:00:00.000000,0.00122570,0.00266927,0.00475524,7,16,28,2,5,11,0.00039616,0.00084550,0.00183838,0.45478687,0.68146887,0.93570828
12009,0,USFloridaBrevard,Florida,Brevard,2021-04-04 13:31:56.852727,2020-03-13 00:00:00.000000,0.00146804,0.00335976,0.00598376,8,20,36,3,6,13,0.00057040,0.00113387,0.00224343,0.45478684,0.68140661,0.93566420
12009,0,USFloridaBrevard,Florida,Brevard,2021-04-04 13:31:56.852727,2020-03-14 00:00:00.000000,0.00177354,0.00405731,0.00740564,10,24,44,4,8,16,0.00072357,0.00142100,0.00270476,0.45478669,0.68121934,0.93551666
12009,0,USFloridaBrevard,Florida,Brevard,2021-04-04 13:31:56.852727,2020-03-15 00:00:00.000000,0.00210431,0.00484978,0.00899442,12,29,54,5,10,20,0.00087537,0.00177551,0.00348052,0.45478597,0.68029080,0.93492595
12009,0,USFloridaBrevard,Florida,Brevard,2021-04-04 13:31:56.852727,2020-03-16 00:00:00.000000,0.00297332,0.00584660,0.01017399,17,35,61,6,13,26,0.00104232,0.00216341,0.00435687,0.45478236,0.67732510,0.92035348
12009,0,USFloridaBrevard,Florida,Brevard,2021-04-04 13:31:56.852727,2020-03-17 00:00:00.000000,0.00381217,0.00676781,0.01156229,22,40,69,7,15,30,0.00130357,0.00259092,0.00503947,0.45476439,0.67217385,0.90653657
12009,0,USFloridaBrevard,Florida,Brevard,2021-04-04 13:31:56.852727,2020-03-18 00:00:00.000000,0.00475935,0.00767192,0.01310832,28,46,78,9,18,34,0.00163478,0.00311610,0.00578361,0.45467473,0.66264183,0.87539134
12009,0,USFloridaBrevard,Florida,Brevard,2021-04-04 13:31:56.852727,2020-03-19 00:00:00.000000,0.00583367,0.00889854,0.01480294,35,53,89,12,21,41,0.00206552,0.00360706,0.00691994,0.45422786,0.65760796,0.85338903
12009,0,USFloridaBrevard,Florida,Brevard,2021-04-04 13:31:56.852727,2020-03-20 00:00:00.000000,0.00699206,0.01017148,0.01671766,42,61,100,14,25,48,0.00245602,0.00423266,0.00800293,0.44316880,0.64291755,0.83343059
12009,0,USFloridaBrevard,Florida,Brevard,2021-04-04 13:31:56.852727,2020-03-21 00:00:00.000000,0.00780355,0.01170780,0.01994460,46,70,120,17,30,55,0.00296470,0.00498805,0.00915683,0.42083690,0.63045359,0.82041141
12009,0,USFloridaBrevard,Florida,Brevard,2021-04-04 13:31:56.852727,2020-03-22 00:00:00.000000,0.00848925,0.01334962,0.02295333,51,80,138,21,34,62,0.00355936,0.00574467,0.01044743,0.39479411,0.60760515,0.81790601
12009,0,USFloridaBrevard,Florida,Brevard,2021-04-04 13:31:56.852727,2020-03-23 00:00:00.000000,0.00936101,0.01526461,0.02644723,56,91,159,24,39,71,0.00414248,0.00652798,0.01188459,0.38178167,0.60099097,0.80781678
12009,0,USFloridaBrevard,Florida,Brevard,2021-04-04 13:31:56.852727,2020-03-24 00:00:00.000000,0.01026060,0.01694786,0.03028864,61,102,182,28,45,81,0.00466925,0.00747830,0.01359300,0.37876596,0.57890043,0.76595856
12009,0,USFloridaBrevard,Florida,Brevard,2021-04-04 13:31:56.852727,2020-03-25 00:00:00.000000,0.01119254,0.01874536,0.03451652,67,112,207,31,50,93,0.00529082,0.00846798,0.01555023,0.35678738,0.56368456,0.77017049
12009,0,USFloridaBrevard,Florida,Brevard,2021-04-04 13:31:56.852727,2020-03-26 00:00:00.000000,0.01214052,0.02088486,0.03865243,73,125,232,34,57,106,0.00578355,0.00958233,0.01774699,0.34180769,0.54933299,0.74907729
12009,0,USFloridaBrevard,Florida,Brevard,2021-04-04 13:31:56.852727,2020-03-27 00:00:00.000000,0.01308369,0.02351647,0.04173837,78,141,251,37,64,116,0.00630180,0.01066049,0.01936847,0.31963393,0.52859955,0.73296211
12009,0,USFloridaBrevard,Florida,Brevard,2021-04-04 13:31:56.852727,2020-03-28 00:00:00.000000,0.01400102,0.02555203,0.04499261,84,153,270,41,71,126,0.00686562,0.01188272,0.02096543,0.30985077,0.51407752,0.70301840
12009,0,USFloridaBrevard,Florida,Brevard,2021-04-04 13:31:56.852727,2020-03-29 00:00:00.000000,0.01488146,0.02845468,0.04844796,89,171,291,45,79,141,0.00748113,0.01320421,0.02350581,0.30506545,0.49535246,0.68934882
12009,0,USFloridaBrevard,Florida,Brevard,2021-04-04 13:31:56.852727,2020-03-30 00:00:00.000000,0.01672052,0.03078686,0.05300950,100,185,319,48,87,156,0.00802669,0.01458747,0.02607729,0.30264679,0.46994052,0.67640747
12009,0,USFloridaBrevard,Florida,Brevard,2021-04-04 13:31:56.852727,2020-03-31 00:00:00.000000,0.01852694,0.03297447,0.05801527,111,198,349,53,96,170,0.00881596,0.01600802,0.02831234,0.30100091,0.45387381,0.67574393
12009,0,USFloridaBrevard,Florida,Brevard,2021-04-04 13:31:56.852727,2020-04-01 00:00:00.000000,0.02037695,0.03555349,0.06124395,122,214,368,58,105,182,0.00974436,0.01759225,0.03036670,0.29150894,0.43907012,0.66848135
12009,0,USFloridaBrevard,Florida,Brevard,2021-04-04 13:31:56.852727,2020-04-02 00:00:00.000000,0.02226463,0.03861439,0.06391573,134,232,384,64,115,194,0.01070117,0.01913420,0.03233000,0.28116420,0.42885124,0.64818205
12009,0,USFloridaBrevard,Florida,Brevard,2021-04-04 13:31:56.852727,2020-04-03 00:00:00.000000,0.02419198,0.04151794,0.06889066,145,249,414,70,124,213,0.01166197,0.02062589,0.03541617,0.25233480,0.41151108,0.62764661
12009,0,USFloridaBrevard,Florida,Brevard,2021-04-04 13:31:56.852727,2020-04-04 00:00:00.000000,0.02611908,0.04395495,0.07613669,157,264,458,75,132,235,0.01260392,0.02196344,0.03908199,0.24300761,0.39425181,0.58610413
12009,0,USFloridaBrevard,Florida,Brevard,2021-04-04 13:31:56.852727,2020-04-05 00:00:00.000000,0.02742341,0.04658742,0.08253153,165,280,496,81,139,256,0.01352149,0.02321274,0.04253880,0.23711984,0.37043782,0.55820970
12009,0,USFloridaBrevard,Florida,Brevard,2021-04-04 13:31:56.852727,2020-04-06 00:00:00.000000,0.02859178,0.04799351,0.08450529,172,288,508,86,147,276,0.01443358,0.02451141,0.04590091,0.23498789,0.35709489,0.51259753
12009,0,USFloridaBrevard,Florida,Brevard,2021-04-04 13:31:56.852727,2020-04-07 00:00:00.000000,0.02974330,0.04960681,0.08618166,179,298,518,92,154,292,0.01535488,0.02571805,0.04860558,0.22729410,0.35521341,0.51343410
12009,0,USFloridaBrevard,Florida,Brevard,2021-04-04 13:31:56.852727,2020-04-08 00:00:00.000000,0.03070129,0.05116710,0.08763820,184,307,527,98,162,299,0.01628706,0.02691328,0.04979976,0.20189729,0.33222018,0.51113442
12009,0,USFloridaBrevard,Florida,Brevard,2021-04-04 13:31:56.852727,2020-04-09 00:00:00.000000,0.03156188,0.05279827,0.09349835,189,317,562,102,171,305,0.01696502,0.02857098,0.05082256,0.19059031,0.32264774,0.49206970
12009,0,USFloridaBrevard,Florida,Brevard,2021-04-04 13:31:56.852727,2020-04-10 00:00:00.000000,0.03240781,0.05489360,0.09947535,195,330,598,105,179,314,0.01747514,0.02984332,0.05223621,0.18134581,0.31213191,0.47741905
12009,0,USFloridaBrevard,Florida,Brevard,2021-04-04 13:31:56.852727,2020-04-11 00:00:00.000000,0.03324032,0.05733606,0.10105156,200,345,608,108,183,330,0.01796459,0.03053770,0.05482669,0.17095970,0.28782098,0.44461395
12009,0,USFloridaBrevard,Florida,Brevard,2021-04-04 13:31:56.852727,2020-04-12 00:00:00.000000,0.03406754,0.05879476,0.10082944,205,353,606,111,189,345,0.01844447,0.03155867,0.05737481,0.16458005,0.26393881,0.42419427
12009,0,USFloridaBrevard,Florida,Brevard,2021-04-04 13:31:56.852727,2020-04-13 00:00:00.000000,0.03463597,0.05982888,0.10094148,208,360,607,114,194,360,0.01898253,0.03224662,0.05981507,0.16265469,0.25406573,0.41527524
12009,0,USFloridaBrevard,Florida,Brevard,2021-04-04 13:31:56.852727,2020-04-14 00:00:00.000000,0.03466349,0.06072231,0.10373829,208,365,624,116,199,373,0.01929877,0.03322008,0.06200936,0.16164042,0.24690750,0.40785685
12009,0,USFloridaBrevard,Florida,Brevard,2021-04-04 13:31:56.852727,2020-04-15 00:00:00.000000,0.03572830,0.06208496,0.10638154,215,373,640,118,203,385,0.01962972,0.03379892,0.06401042,0.15284830,0.23990056,0.40618294
12009,0,USFloridaBrevard,Florida,Brevard,2021-04-04 13:31:56.852727,2020-04-16 00:00:00.000000,0.03627477,0.06254948,0.10717154,218,376,645,120,209,390,0.01993971,0.03484273,0.06495619,0.15072589,0.23002272,0.38559244
12009,0,USFloridaBrevard,Florida,Brevard,2021-04-04 13:31:56.852727,2020-04-17 00:00:00.000000,0.03671204,0.06372940,0.10596172,220,383,637,120,217,388,0.02007299,0.03609841,0.06451039,0.15307873,0.22271952,0.38059049
12009,0,USFloridaBrevard,Florida,Brevard,2021-04-04 13:31:56.852727,2020-04-18 00:00:00.000000,0.03727523,0.06474894,0.10465935,224,389,629,123,221,384,0.02054164,0.03684178,0.06394913,0.14099877,0.21593640,0.36729484
12009,0,USFloridaBrevard,Florida,Brevard,2021-04-04 13:31:56.852727,2020-04-19 00:00:00.000000,0.03772662,0.06588918,0.10724809,227,396,645,125,223,386,0.02081804,0.03720605,0.06424419,0.13993364,0.20744312,0.34264223
12009,0,USFloridaBrevard,Florida,Brevard,2021-04-04 13:31:56.852727,2020-04-20 00:00:00.000000,0.03794197,0.06544641,0.11001322,228,393,662,126,225,393,0.02108356,0.03744134,0.06533832,0.13933005,0.20937967,0.31589803
12009,0,USFloridaBrevard,Florida,Brevard,2021-04-04 13:31:56.852727,2020-04-21 00:00:00.000000,0.03809447,0.06514992,0.10981757,229,392,661,128,228,398,0.02127228,0.03797645,0.06618057,0.13898999,0.20384854,0.30634761
12009,0,USFloridaBrevard,Florida,Brevard,2021-04-04 13:31:56.852727,2020-04-22 00:00:00.000000,0.03764849,0.06491475,0.10958180,226,390,659,128,229,402,0.02140635,0.03804554,0.06683107,0.13843560,0.20175029,0.29221736
12009,0,USFloridaBrevard,Florida,Brevard,2021-04-04 13:31:56.852727,2020-04-23 00:00:00.000000,0.03720409,0.06468423,0.10923119,223,389,657,129,228,405,0.02149356,0.03793465,0.06734294,0.14034385,0.19656400,0.29106217
12009,0,USFloridaBrevard,Florida,Brevard,2021-04-04 13:31:56.852727,2020-04-24 00:00:00.000000,0.03655473,0.06429313,0.10885581,220,387,655,129,226,407,0.02153027,0.03768116,0.06775196,0.14154204,0.18927742,0.28860595
12009,0,USFloridaBrevard,Florida,Brevard,2021-04-04 13:31:56.852727,2020-04-25 00:00:00.000000,0.03527293,0.06332495,0.10844865,212,381,652,127,225,409,0.02119206,0.03742301,0.06807271,0.14064457,0.18735591,0.28820567
12009,0,USFloridaBrevard,Florida,Brevard,2021-04-04 13:31:56.852727,2020-04-26 00:00:00.000000,0.03399824,0.06237497,0.10798772,204,375,650,123,223,411,0.02045917,0.03714561,0.06829502,0.13520414,0.18743863,0.28807153
12009,0,USFloridaBrevard,Florida,Brevard,2021-04-04 13:31:56.852727,2020-04-27 00:00:00.000000,0.03290295,0.06138949,0.10711005,198,369,644,118,221,411,0.01973733,0.03674273,0.06838625,0.13198575,0.18762567,0.28795389
12009,0,USFloridaBrevard,Florida,Brevard,2021-04-04 13:31:56.852727,2020-04-28 00:00:00.000000,0.03182041,0.06100114,0.10607612,191,367,638,114,219,411,0.01906611,0.03639983,0.06834686,0.13190188,0.18627688,0.28657172
12009,0,USFloridaBrevard,Florida,Brevard,2021-04-04 13:31:56.852727,2020-04-29 00:00:00.000000,0.03077747,0.05960011,0.10491023,185,358,631,110,216,410,0.01842755,0.03600244,0.06816148,0.12889330,0.18585917,0.28599506
12009,0,USFloridaBrevard,Florida,Brevard,2021-04-04 13:31:56.852727,2020-04-30 00:00:00.000000,0.03040931,0.05903810,0.10360870,183,355,623,107,215,408,0.01781612,0.03580061,0.06785090,0.12842392,0.18645036,0.28578199
12009,0,USFloridaBrevard,Florida,Brevard,2021-04-04 13:31:56.852727,2020-05-01 00:00:00.000000,0.03047088,0.05767621,0.10216185,183,347,614,103,212,406,0.01723098,0.03538351,0.06745481,0.12997922,0.18694528,0.28528116
12009,0,USFloridaBrevard,Florida,Brevard,2021-04-04 13:31:56.852727,2020-05-02 00:00:00.000000,0.03063751,0.05717300,0.10057104,184,344,605,100,212,405,0.01667254,0.03526583,0.06732598,0.13067955,0.18701004,0.28478011
12009,0,USFloridaBrevard,Florida,Brevard,2021-04-04 13:31:56.852727,2020-05-03 00:00:00.000000,0.02973985,0.05668919,0.09885293,179,341,595,97,210,401,0.01616996,0.03489321,0.06664472,0.13472833,0.18635600,0.28452379
12009,0,USFloridaBrevard,Florida,Brevard,2021-04-04 13:31:56.852727,2020-05-04 00:00:00.000000,0.02883594,0.05603691,0.09699909,173,337,583,97,206,398,0.01622742,0.03424435,0.06628025,0.13355323,0.18734217,0.28475992
12009,0,USFloridaBrevard,Florida,Brevard,2021-04-04 13:31:56.852727,2020-05-05 00:00:00.000000,0.02854277,0.05565403,0.09508654,171,335,572,98,202,396,0.01631413,0.03357495,0.06591222,0.13437512,0.19094242,0.28615810
12009,0,USFloridaBrevard,Florida,Brevard,2021-04-04 13:31:56.852727,2020-05-06 00:00:00.000000,0.02749400,0.05526625,0.09316225,165,332,560,98,200,394,0.01641716,0.03330755,0.06556275,0.13661756,0.19428140,0.28433635
12009,0,USFloridaBrevard,Florida,Brevard,2021-04-04 13:31:56.852727,2020-05-07 00:00:00.000000,0.02651191,0.05484917,0.09205828,159,330,554,99,198,392,0.01654049,0.03303969,0.06525117,0.14235390,0.19738024,0.28440520
12009,0,USFloridaBrevard,Florida,Brevard,2021-04-04 13:31:56.852727,2020-05-08 00:00:00.000000,0.02658384,0.05481323,0.09170955,160,329,552,96,195,391,0.01609277,0.03253908,0.06497947,0.14410044,0.19747623,0.28760447
12009,0,USFloridaBrevard,Florida,Brevard,2021-04-04 13:31:56.852727,2020-05-09 00:00:00.000000,0.02707825,0.05500034,0.08987660,162,331,541,96,192,386,0.01597944,0.03196407,0.06427597,0.14412453,0.20419975,0.29635131
12009,0,USFloridaBrevard,Florida,Brevard,2021-04-04 13:31:56.852727,2020-05-10 00:00:00.000000,0.02700551,0.05528191,0.08796242,162,332,529,94,193,379,0.01568091,0.03214932,0.06310306,0.14288584,0.21049736,0.30699865
12009,0,USFloridaBrevard,Florida,Brevard,2021-04-04 13:31:56.852727,2020-05-11 00:00:00.000000,0.02661679,0.05493868,0.08854309,160,330,532,93,194,373,0.01546070,0.03227236,0.06205849,0.13886488,0.22273171,0.32131815
12009,0,USFloridaBrevard,Florida,Brevard,2021-04-04 13:31:56.852727,2020-05-12 00:00:00.000000,0.02633747,0.05528925,0.08974013,158,332,540,93,191,368,0.01551679,0.03186954,0.06117993,0.13891468,0.22920479,0.32378081
12009,0,USFloridaBrevard,Florida,Brevard,2021-04-04 13:31:56.852727,2020-05-13 00:00:00.000000,0.02647872,0.05543490,0.09096237,159,333,547,95,189,364,0.01590520,0.03144335,0.06047406,0.14370729,0.23835695,0.32942850
12009,0,USFloridaBrevard,Florida,Brevard,2021-04-04 13:31:56.852727,2020-05-14 00:00:00.000000,0.02727239,0.05534412,0.09220731,164,333,555,97,186,360,0.01623996,0.03098490,0.05992361,0.15098840,0.24180193,0.34162175
12009,0,USFloridaBrevard,Florida,Brevard,2021-04-04 13:31:56.852727,2020-05-15 00:00:00.000000,0.02815485,0.05541310,0.09347849,169,333,562,100,184,358,0.01665870,0.03072709,0.05949928,0.15638735,0.24652688,0.36574463
12009,0,USFloridaBrevard,Florida,Brevard,2021-04-04 13:31:56.852727,2020-05-16 00:00:00.000000,0.02914152,0.05723293,0.09546112,175,344,574,103,186,356,0.01714533,0.03095287,0.05917297,0.16075858,0.25164879,0.40492020
12009,0,USFloridaBrevard,Florida,Brevard,2021-04-04 13:31:56.852727,2020-05-17 00:00:00.000000,0.03020989,0.05919434,0.09865368,181,356,593,106,189,354,0.01769797,0.03141545,0.05892968,0.16707789,0.25940236,0.43748683
12009,0,USFloridaBrevard,Florida,Brevard,2021-04-04 13:31:56.852727,2020-05-18 00:00:00.000000,0.03018246,0.06052198,0.10169443,181,364,612,110,190,353,0.01829716,0.03163100,0.05879035,0.17272974,0.26710755,0.45820231
12009,0,USFloridaBrevard,Florida,Brevard,2021-04-04 13:31:56.852727,2020-05-19 00:00:00.000000,0.03017270,0.06162305,0.10486287,181,370,631,112,194,355,0.01861069,0.03228703,0.05901924,0.17862903,0.27348724,0.46601047
12009,0,USFloridaBrevard,Florida,Brevard,2021-04-04 13:31:56.852727,2020-05-20 00:00:00.000000,0.03015259,0.06276755,0.10814019,181,377,650,112,196,360,0.01874566,0.03266356,0.05986703,0.18347961,0.29028239,0.46522433
12009,0,USFloridaBrevard,Florida,Brevard,2021-04-04 13:31:56.852727,2020-05-21 00:00:00.000000,0.03031785,0.06460537,0.11159075,182,388,671,113,202,370,0.01880013,0.03360962,0.06156630,0.18737673,0.30145524,0.45702123
12009,0,USFloridaBrevard,Florida,Brevard,2021-04-04 13:31:56.852727,2020-05-22 00:00:00.000000,0.03088240,0.06673518,0.11546126,185,401,695,113,210,386,0.01887518,0.03494499,0.06419232,0.19234829,0.31382489,0.45004825
12009,0,USFloridaBrevard,Florida,Brevard,2021-04-04 13:31:56.852727,2020-05-23 00:00:00.000000,0.03212758,0.06925506,0.12159535,193,416,731,114,219,407,0.01908593,0.03638975,0.06775085,0.20741883,0.32967428,0.45387883
12009,0,USFloridaBrevard,Florida,Brevard,2021-04-04 13:31:56.852727,2020-05-24 00:00:00.000000,0.03440384,0.07207258,0.13049416,207,433,785,116,228,434,0.01941669,0.03796639,0.07218224,0.22895077,0.34963568,0.52373387
12009,0,USFloridaBrevard,Florida,Brevard,2021-04-04 13:31:56.852727,2020-05-25 00:00:00.000000,0.03492519,0.07508649,0.14120759,210,451,849,119,237,465,0.01983664,0.03948154,0.07738684,0.23533434,0.36108629,0.55545309
12009,0,USFloridaBrevard,Florida,Brevard,2021-04-04 13:31:56.852727,2020-05-26 00:00:00.000000,0.03609570,0.07854505,0.15334717,217,472,923,125,248,491,0.02085223,0.04131151,0.08158451,0.24554611,0.38461112,0.56981107
12009,0,USFloridaBrevard,Florida,Brevard,2021-04-04 13:31:56.852727,2020-05-27 00:00:00.000000,0.03765675,0.08312132,0.16659520,226,500,1002,128,259,500,0.02129321,0.04313039,0.08319215,0.27566920,0.39705995,0.57626411
12009,0,USFloridaBrevard,Florida,Brevard,2021-04-04 13:31:56.852727,2020-05-28 00:00:00.000000,0.03935758,0.08763700,0.17999594,236,527,1083,131,271,512,0.02187522,0.04512854,0.08519456,0.28370984,0.41145067,0.59695442
12009,0,USFloridaBrevard,Florida,Brevard,2021-04-04 13:31:56.852727,2020-05-29 00:00:00.000000,0.04128919,0.09392223,0.18718142,248,565,1126,135,287,530,0.02257142,0.04770843,0.08819019,0.29703171,0.43556512,0.60236329
12009,0,USFloridaBrevard,Florida,Brevard,2021-04-04 13:31:56.852727,2020-05-30 00:00:00.000000,0.04372682,0.10141041,0.19582179,263,610,1178,140,306,556,0.02335770,0.05098631,0.09250837,0.29987670,0.46194579,0.62572819
12009,0,USFloridaBrevard,Florida,Brevard,2021-04-04 13:31:56.852727,2020-05-31 00:00:00.000000,0.04716811,0.10925416,0.20641426,283,657,1242,146,327,590,0.02435594,0.05440490,0.09809509,0.31413393,0.49068679,0.66523836
12009,0,USFloridaBrevard,Florida,Brevard,2021-04-04 13:31:56.852727,2020-06-01 00:00:00.000000,0.05192345,0.11963778,0.22045129,312,720,1326,159,352,643,0.02648538,0.05855753,0.10698615,0.36633792,0.51404722,0.71422268
12009,0,USFloridaBrevard,Florida,Brevard,2021-04-04 13:31:56.852727,2020-06-02 00:00:00.000000,0.05774539,0.13142652,0.23847377,347,791,1435,176,376,706,0.02932146,0.06246699,0.11740652,0.38507374,0.54022153,0.74999674
12009,0,USFloridaBrevard,Florida,Brevard,2021-04-04 13:31:56.852727,2020-06-03 00:00:00.000000,0.06490241,0.14396735,0.25751166,390,866,1550,197,403,780,0.03275545,0.06711114,0.12963774,0.39871930,0.55686150,0.76427029
12009,0,USFloridaBrevard,Florida,Brevard,2021-04-04 13:31:56.852727,2020-06-04 00:00:00.000000,0.07311191,0.15829935,0.27787931,440,952,1672,221,440,863,0.03674080,0.07321034,0.14351763,0.41034591,0.58438965,0.80973995
12009,0,USFloridaBrevard,Florida,Brevard,2021-04-04 13:31:56.852727,2020-06-05 00:00:00.000000,0.08305417,0.17568445,0.29978342,499,1057,1804,248,484,946,0.04129283,0.08040699,0.15720138,0.41449469,0.60626408,0.88734642
12009,0,USFloridaBrevard,Florida,Brevard,2021-04-04 13:31:56.852727,2020-06-06 00:00:00.000000,0.09520148,0.19421046,0.32339380,573,1169,1946,280,536,1038,0.04655900,0.08920824,0.17259605,0.42646637,0.63148536,0.91897932
12009,0,USFloridaBrevard,Florida,Brevard,2021-04-04 13:31:56.852727,2020-06-07 00:00:00.000000,0.11205163,0.21278706,0.35188433,674,1280,2118,311,589,1144,0.05170920,0.09796799,0.19010138,0.44952470,0.65859072,0.92798435
12009,0,USFloridaBrevard,Florida,Brevard,2021-04-04 13:31:56.852727,2020-06-08 00:00:00.000000,0.12609268,0.23357550,0.39601024,759,1405,2383,341,655,1266,0.05674873,0.10890315,0.21033226,0.47252538,0.69229024,0.92712384
12009,0,USFloridaBrevard,Florida,Brevard,2021-04-04 13:31:56.852727,2020-06-09 00:00:00.000000,0.14386656,0.26314342,0.44737169,865,1583,2692,383,740,1407,0.06377705,0.12294564,0.23381708,0.51136320,0.70381339,0.93319170
12009,0,USFloridaBrevard,Florida,Brevard,2021-04-04 13:31:56.852727,2020-06-10 00:00:00.000000,0.16736515,0.29848915,0.51149452,1007,1796,3078,426,835,1570,0.07092145,0.13887221,0.26093466,0.52370899,0.72815595,0.94964480
12009,0,USFloridaBrevard,Florida,Brevard,2021-04-04 13:31:56.852727,2020-06-11 00:00:00.000000,0.19118579,0.33763124,0.58196749,1150,2032,3503,478,929,1730,0.07944217,0.15434683,0.28755499,0.53270000,0.74804205,0.96431720
12009,0,USFloridaBrevard,Florida,Brevard,2021-04-04 13:31:56.852727,2020-06-12 00:00:00.000000,0.21621634,0.38596859,0.66032740,1301,2323,3974,541,1033,1907,0.08990364,0.17172651,0.31695863,0.55170737,0.77177360,0.98377177
12009,0,USFloridaBrevard,Florida,Brevard,2021-04-04 13:31:56.852727,2020-06-13 00:00:00.000000,0.25089307,0.44148948,0.74915104,1510,2657,4509,612,1157,2118,0.10182012,0.19236848,0.35194700,0.57792684,0.77688267,0.98194733
12009,0,USFloridaBrevard,Florida,Brevard,2021-04-04 13:31:56.852727,2020-06-14 00:00:00.000000,0.28522426,0.50430879,0.84962378,1716,3035,5114,702,1306,2373,0.11676097,0.21704379,0.39423132,0.58930400,0.78284537,0.98307665
12009,0,USFloridaBrevard,Florida,Brevard,2021-04-04 13:31:56.852727,2020-06-15 00:00:00.000000,0.32123985,0.57797500,0.96317747,1933,3479,5797,811,1497,2677,0.13479104,0.24873181,0.44476089,0.60033758,0.78784875,0.98307984
12009,0,USFloridaBrevard,Florida,Brevard,2021-04-04 13:31:56.852727,2020-06-16 00:00:00.000000,0.36299795,0.66397170,1.09028416,2185,3996,6562,938,1715,3049,0.15587973,0.28497482,0.50663297,0.61043985,0.78162094,0.99589880
12009,0,USFloridaBrevard,Florida,Brevard,2021-04-04 13:31:56.852727,2020-06-17 00:00:00.000000,0.41279631,0.75669567,1.26042716,2484,4554,7587,1071,1956,3472,0.17800957,0.32500630,0.57681031,0.59435111,0.77362312,0.98726588
12009,0,USFloridaBrevard,Florida,Brevard,2021-04-04 13:31:56.852727,2020-06-18 00:00:00.000000,0.46820130,0.85490101,1.47159410,2818,5146,8858,1220,2225,3906,0.20270739,0.36977641,0.64904143,0.59345110,0.76908636,0.97735623
12009,0,USFloridaBrevard,Florida,Brevard,2021-04-04 13:31:56.852727,2020-06-19 00:00:00.000000,0.52509635,0.95865155,1.70907074,3160,5770,10287,1387,2537,4436,0.23048623,0.42147847,0.73709612,0.59210770,0.75824018,0.96736517
12009,0,USFloridaBrevard,Florida,Brevard,2021-04-04 13:31:56.852727,2020-06-20 00:00:00.000000,0.59294179,1.07595379,1.90094684,3569,6476,11442,1626,2862,5069,0.27022529,0.47554143,0.84211550,0.57159979,0.72114801,0.94553040
12009,0,USFloridaBrevard,Florida,Brevard,2021-04-04 13:31:56.852727,2020-06-21 00:00:00.000000,0.65981027,1.20566447,2.09812593,3971,7257,12629,1818,3213,5715,0.30207988,0.53382885,0.94948852,0.54096154,0.68590291,0.90182376
12009,0,USFloridaBrevard,Florida,Brevard,2021-04-04 13:31:56.852727,2020-06-22 00:00:00.000000,0.72962620,1.33204265,2.26355488,4391,8018,13625,2025,3585,6357,0.33645604,0.59563583,1.05618883,0.49795125,0.65107770,0.88122304
12009,0,USFloridaBrevard,Florida,Brevard,2021-04-04 13:31:56.852727,2020-06-23 00:00:00.000000,0.80247724,1.45393347,2.38966161,4830,8751,14384,2253,4043,6993,0.37431062,0.67182219,1.16181595,0.43144835,0.61313741,0.83267538
12009,0,USFloridaBrevard,Florida,Brevard,2021-04-04 13:31:56.852727,2020-06-24 00:00:00.000000,0.88475120,1.59137510,2.51772281,5325,9579,15155,2501,4470,7628,0.41559593,0.74271812,1.26733468,0.37317092,0.57149752,0.76726231
12009,0,USFloridaBrevard,Florida,Brevard,2021-04-04 13:31:56.852727,2020-06-25 00:00:00.000000,0.97280497,1.71659935,2.72553887,5855,10332,16406,2770,4835,8330,0.46019095,0.80328253,1.38396178,0.33998878,0.52663490,0.67280159
12009,0,USFloridaBrevard,Florida,Brevard,2021-04-04 13:31:56.852727,2020-06-26 00:00:00.000000,1.06615810,1.81716768,2.90582998,6417,10938,17491,3057,5264,8836,0.50794913,0.87456905,1.46794737,0.31168323,0.48091816,0.64112699
12009,0,USFloridaBrevard,Florida,Brevard,2021-04-04 13:31:56.852727,2020-06-27 00:00:00.000000,1.16366750,1.92408802,3.02806409,7004,11581,18227,3363,5743,9451,0.55872816,0.95419832,1.57021191,0.29564740,0.41532141,0.56477431
12009,0,USFloridaBrevard,Florida,Brevard,2021-04-04 13:31:56.852727,2020-06-28 00:00:00.000000,1.24441724,2.01143771,3.11262019,7490,12107,18736,3685,6186,10286,0.61220840,1.02773559,1.70885039,0.27617688,0.36969170,0.49998752
12009,0,USFloridaBrevard,Florida,Brevard,2021-04-04 13:31:56.852727,2020-06-29 00:00:00.000000,1.28695747,2.08517641,3.23392432,7746,12551,19466,4017,6510,11041,0.66736714,1.08155806,1.83425241,0.25604734,0.34319397,0.45174376
12009,0,USFloridaBrevard,Florida,Brevard,2021-04-04 13:31:56.852727,2020-06-30 00:00:00.000000,1.31863670,2.17536262,3.32450295,7937,13094,20011,4188,6809,11689,0.69578798,1.13132813,1.94201603,0.25227596,0.31873924,0.41993386
12009,0,USFloridaBrevard,Florida,Brevard,2021-04-04 13:31:56.852727,2020-07-01 00:00:00.000000,1.34377256,2.25289003,3.37824148,8088,13561,20335,4294,7109,12208,0.71340749,1.18113527,2.02822883,0.23625456,0.29967479,0.41700242
12009,0,USFloridaBrevard,Florida,Brevard,2021-04-04 13:31:56.852727,2020-07-02 00:00:00.000000,1.36289392,2.28528343,3.41461063,8203,13756,20553,4397,7360,12592,0.73048267,1.22277774,2.09199599,0.21466199,0.28571772,0.41561497
12009,0,USFloridaBrevard,Florida,Brevard,2021-04-04 13:31:56.852727,2020-07-03 00:00:00.000000,1.39500199,2.30498305,3.44384152,8397,13874,20729,4498,7611,12871,0.74726069,1.26451580,2.13833558,0.20930372,0.27286253,0.40397528
12009,0,USFloridaBrevard,Florida,Brevard,2021-04-04 13:31:56.852727,2020-07-04 00:00:00.000000,1.42878982,2.30896700,3.41838417,8600,13898,20576,4598,7820,13079,0.76388335,1.29919964,2.17295847,0.18929425,0.26408888,0.37854140
12009,0,USFloridaBrevard,Florida,Brevard,2021-04-04 13:31:56.852727,2020-07-05 00:00:00.000000,1.45620786,2.31540363,3.44676503,8765,13937,20747,4697,8002,13242,0.78043465,1.32946543,2.19999846,0.18151020,0.25359707,0.35333565
12009,0,USFloridaBrevard,Florida,Brevard,2021-04-04 13:31:56.852727,2020-07-06 00:00:00.000000,1.47880750,2.30661148,3.47836835,8901,13884,20937,4797,8094,13375,0.79697981,1.34479065,2.22201540,0.17998256,0.24332690,0.34145797
12009,0,USFloridaBrevard,Florida,Brevard,2021-04-04 13:31:56.852727,2020-07-07 00:00:00.000000,1.49730297,2.27894735,3.51189548,9012,13717,21139,4833,8080,13486,0.80302806,1.34238664,2.24056219,0.17636080,0.24234635,0.33133896
12009,0,USFloridaBrevard,Florida,Brevard,2021-04-04 13:31:56.852727,2020-07-08 00:00:00.000000,1.49905038,2.25347373,3.54047499,9023,13564,21311,4859,8169,13580,0.80728783,1.35713265,2.25608259,0.15993735,0.23922355,0.31913120
12009,0,USFloridaBrevard,Florida,Brevard,2021-04-04 13:31:56.852727,2020-07-09 00:00:00.000000,1.46586991,2.23300425,3.54886945,8823,13441,21362,4877,8181,13654,0.81028038,1.35923495,2.26833341,0.15721243,0.23358153,0.31271599
12009,0,USFloridaBrevard,Florida,Brevard,2021-04-04 13:31:56.852727,2020-07-10 00:00:00.000000,1.43125873,2.20134661,3.51483962,8615,13250,21157,4888,8157,13700,0.81210640,1.35513606,2.27612147,0.15711366,0.22534753,0.30159517
12009,0,USFloridaBrevard,Florida,Brevard,2021-04-04 13:31:56.852727,2020-07-11 00:00:00.000000,1.39560298,2.18900379,3.47786086,8400,13176,20934,4872,8136,13717,0.80939438,1.35173938,2.27887552,0.15312697,0.21794637,0.30026365
12009,0,USFloridaBrevard,Florida,Brevard,2021-04-04 13:31:56.852727,2020-07-12 00:00:00.000000,1.35939573,2.18416530,3.43801627,8182,13147,20694,4846,8119,13699,0.80514578,1.34891874,2.27592945,0.14946032,0.21458742,0.29880090
12009,0,USFloridaBrevard,Florida,Brevard,2021-04-04 13:31:56.852727,2020-07-13 00:00:00.000000,1.33471442,2.16025477,3.41081896,8034,13003,20531,4738,8076,13646,0.78718103,1.34166809,2.26712170,0.14652164,0.21181811,0.29530637
12009,0,USFloridaBrevard,Florida,Brevard,2021-04-04 13:31:56.852727,2020-07-14 00:00:00.000000,1.33770167,2.14188405,3.39397949,8052,12892,20429,4686,8013,13559,0.77855618,1.33122288,2.25262000,0.14607752,0.20831569,0.29083233
12009,0,USFloridaBrevard,Florida,Brevard,2021-04-04 13:31:56.852727,2020-07-15 00:00:00.000000,1.34039829,2.11937474,3.33611414,8068,12757,20081,4622,7909,13442,0.76789339,1.31397894,2.23313482,0.14608255,0.20241419,0.28566961
12009,0,USFloridaBrevard,Florida,Brevard,2021-04-04 13:31:56.852727,2020-07-16 00:00:00.000000,1.34242786,2.08206658,3.28283817,8080,12532,19760,4549,7780,13298,0.75576244,1.29260634,2.20929874,0.14552589,0.19628101,0.27621478
12009,0,USFloridaBrevard,Florida,Brevard,2021-04-04 13:31:56.852727,2020-07-17 00:00:00.000000,1.34168568,2.04083226,3.24067869,8076,12284,19507,4468,7667,13131,0.74241906,1.27379538,2.18155983,0.13883614,0.19566799,0.26640507
12009,0,USFloridaBrevard,Florida,Brevard,2021-04-04 13:31:56.852727,2020-07-18 00:00:00.000000,1.31086234,1.99862044,3.18783617,7890,12030,19188,4382,7527,12942,0.72802924,1.25052612,2.15020378,0.12907984,0.19425935,0.26838949
12009,0,USFloridaBrevard,Florida,Brevard,2021-04-04 13:31:56.852727,2020-07-19 00:00:00.000000,1.28004533,1.94513270,3.14960195,7705,11708,18958,4291,7421,12733,0.71288083,1.23300039,2.11544611,0.12404825,0.19236625,0.26998710
12009,0,USFloridaBrevard,Florida,Brevard,2021-04-04 13:31:56.852727,2020-07-20 00:00:00.000000,1.25014773,1.89399138,3.08897963,7525,11400,18593,4197,7262,12505,0.69729303,1.20655301,2.07753920,0.12256402,0.18951547,0.25750233
12009,0,USFloridaBrevard,Florida,Brevard,2021-04-04 13:31:56.852727,2020-07-21 00:00:00.000000,1.22073253,1.85184820,3.01819107,7348,11147,18167,4102,7095,12262,0.68158202,1.17871103,2.03708968,0.12216420,0.18854522,0.25483734
12009,0,USFloridaBrevard,Florida,Brevard,2021-04-04 13:31:56.852727,2020-07-22 00:00:00.000000,1.18916110,1.81410067,2.94425081,7158,10919,17722,4008,6952,12005,0.66592995,1.15506787,1.99439027,0.12204690,0.18531940,0.25470298
12009,0,USFloridaBrevard,Florida,Brevard,2021-04-04 13:31:56.852727,2020-07-23 00:00:00.000000,1.14800951,1.77226356,2.86598285,6910,10667,17251,3916,6833,11730,0.65058166,1.13526510,1.94874023,0.12199948,0.18482535,0.25482788
12009,0,USFloridaBrevard,Florida,Brevard,2021-04-04 13:31:56.852727,2020-07-24 00:00:00.000000,1.10809313,1.73705861,2.78331209,6670,10456,16753,3824,6712,11465,0.63542216,1.11511436,1.90476823,0.12196883,0.18602555,0.25463435
12009,0,USFloridaBrevard,Florida,Brevard,2021-04-04 13:31:56.852727,2020-07-25 00:00:00.000000,1.06977456,1.70135109,2.70006838,6439,10241,16252,3734,6523,11228,0.62049153,1.08380578,1.86534143,0.12204338,0.18400699,0.25425859
12009,0,USFloridaBrevard,Florida,Brevard,2021-04-04 13:31:56.852727,2020-07-26 00:00:00.000000,1.03955534,1.64786900,2.61750309,6257,9919,15755,3646,6305,10986,0.60580954,1.04760841,1.82514655,0.12102569,0.18214665,0.25250617
12009,0,USFloridaBrevard,Florida,Brevard,2021-04-04 13:31:56.852727,2020-07-27 00:00:00.000000,1.01490538,1.59206413,2.53551848,6109,9583,15262,3559,6140,10742,0.59137986,1.02006078,1.78462233,0.12209832,0.18235942,0.24934013
12009,0,USFloridaBrevard,Florida,Brevard,2021-04-04 13:31:56.852727,2020-07-28 00:00:00.000000,0.98972540,1.55282524,2.46819150,5957,9347,14857,3473,5993,10498,0.57711680,0.99573700,1.74409603,0.12152814,0.18279072,0.24794940
12009,0,USFloridaBrevard,Florida,Brevard,2021-04-04 13:31:56.852727,2020-07-29 00:00:00.000000,0.95403534,1.51446467,2.43268541,5742,9116,14643,3389,5822,10259,0.56305447,0.96722310,1.70436150,0.12408220,0.18375052,0.25455655
12009,0,USFloridaBrevard,Florida,Brevard,2021-04-04 13:31:56.852727,2020-07-30 00:00:00.000000,0.92147756,1.48009724,2.39771891,5546,8909,14432,3306,5690,10042,0.54924568,0.94530781,1.66843098,0.12031919,0.18371467,0.26194171
12009,0,USFloridaBrevard,Florida,Brevard,2021-04-04 13:31:56.852727,2020-07-31 00:00:00.000000,0.89252550,1.45327168,2.36386641,5372,8747,14229,3225,5523,9779,0.53578191,0.91762916,1.62459771,0.11829726,0.17898473,0.26664329
12009,0,USFloridaBrevard,Florida,Brevard,2021-04-04 13:31:56.852727,2020-08-01 00:00:00.000000,0.86713225,1.41740355,2.33236098,5219,8531,14039,3146,5382,9540,0.52278140,0.89413848,1.58499996,0.11757862,0.18487586,0.27150347
12009,0,USFloridaBrevard,Florida,Brevard,2021-04-04 13:31:56.852727,2020-08-02 00:00:00.000000,0.84480349,1.38140154,2.30518383,5085,8315,13875,3072,5256,9295,0.51038875,0.87320692,1.54417033,0.11673525,0.18948898,0.27677349
12009,0,USFloridaBrevard,Florida,Brevard,2021-04-04 13:31:56.852727,2020-08-03 00:00:00.000000,0.82517635,1.35750825,2.23030625,4967,8171,13425,3002,5119,9038,0.49874850,0.85044075,1.50154520,0.11360123,0.19203104,0.28223159
12009,0,USFloridaBrevard,Florida,Brevard,2021-04-04 13:31:56.852727,2020-08-04 00:00:00.000000,0.80770386,1.33400278,2.20589817,4861,8029,13278,2937,4973,8772,0.48794146,0.82624226,1.45743701,0.11232012,0.19387168,0.28380016
12009,0,USFloridaBrevard,Florida,Brevard,2021-04-04 13:31:56.852727,2020-08-05 00:00:00.000000,0.79221745,1.30937121,2.12757274,4768,7881,12806,2874,4835,8502,0.47761896,0.80332750,1.41248364,0.11731564,0.19644179,0.28339696
12009,0,USFloridaBrevard,Florida,Brevard,2021-04-04 13:31:56.852727,2020-08-06 00:00:00.000000,0.77863393,1.28308104,2.05687159,4686,7723,12381,2806,4731,8239,0.46630846,0.78597458,1.36887334,0.11734898,0.19980068,0.28071777
12009,0,USFloridaBrevard,Florida,Brevard,2021-04-04 13:31:56.852727,2020-08-07 00:00:00.000000,0.76686704,1.26309362,2.02009209,4616,7603,12159,2746,4645,8015,0.45623325,0.77177641,1.33163243,0.11743362,0.20326001,0.28250187
12009,0,USFloridaBrevard,Florida,Brevard,2021-04-04 13:31:56.852727,2020-08-08 00:00:00.000000,0.75677046,1.24813335,1.99126839,4555,7513,11986,2685,4567,7797,0.44611951,0.75878246,1.29538104,0.11766127,0.20471678,0.28263585
12009,0,USFloridaBrevard,Florida,Brevard,2021-04-04 13:31:56.852727,2020-08-09 00:00:00.000000,0.74822265,1.22585678,1.94991217,4503,7378,11737,2615,4468,7585,0.43443383,0.74234764,1.26021529,0.11838391,0.20530516,0.28781145
12009,0,USFloridaBrevard,Florida,Brevard,2021-04-04 13:31:56.852727,2020-08-10 00:00:00.000000,0.74146868,1.20388349,1.91820976,4463,7246,11546,2549,4380,7383,0.42350847,0.72774665,1.22664243,0.12417988,0.20592763,0.28700595
12009,0,USFloridaBrevard,Florida,Brevard,2021-04-04 13:31:56.852727,2020-08-11 00:00:00.000000,0.73564453,1.17605043,1.88862584,4428,7079,11368,2489,4281,7197,0.41351729,0.71121888,1.19577829,0.12979400,0.20514120,0.28631502
12009,0,USFloridaBrevard,Florida,Brevard,2021-04-04 13:31:56.852727,2020-08-12 00:00:00.000000,0.71803018,1.14627303,1.85990007,4322,6899,11195,2435,4191,7030,0.40463051,0.69640463,1.16795835,0.12453132,0.20574262,0.28492482
12009,0,USFloridaBrevard,Florida,Brevard,2021-04-04 13:31:56.852727,2020-08-13 00:00:00.000000,0.69818532,1.11828592,1.83024778,4202,6731,11017,2388,4119,6997,0.39683868,0.68439316,1.16255314,0.12444990,0.20799484,0.28982804
12009,0,USFloridaBrevard,Florida,Brevard,2021-04-04 13:31:56.852727,2020-08-14 00:00:00.000000,0.68270864,1.09815381,1.79889487,4109,6610,10828,2347,4077,6966,0.38998755,0.67742660,1.15737269,0.12435796,0.20637007,0.29885022
12009,0,USFloridaBrevard,Florida,Brevard,2021-04-04 13:31:56.852727,2020-08-15 00:00:00.000000,0.67160665,1.06977843,1.76634711,4042,6439,10632,2310,4039,6823,0.38388734,0.67113645,1.13356945,0.12413189,0.21196565,0.30960510
12009,0,USFloridaBrevard,Florida,Brevard,2021-04-04 13:31:56.852727,2020-08-16 00:00:00.000000,0.66345772,1.04672790,1.73807375,3993,6300,10462,2277,4008,6705,0.37841561,0.66599572,1.11398974,0.12366257,0.21308905,0.31322605
12009,0,USFloridaBrevard,Florida,Brevard,2021-04-04 13:31:56.852727,2020-08-17 00:00:00.000000,0.65646798,1.03117944,1.70745867,3951,6207,10277,2249,3958,6606,0.37365062,0.65762651,1.09744862,0.12865282,0.21307278,0.31593671
12009,0,USFloridaBrevard,Florida,Brevard,2021-04-04 13:31:56.852727,2020-08-18 00:00:00.000000,0.65034940,1.02635005,1.67525431,3914,6178,10084,2226,3851,6519,0.36995981,0.63984848,1.08300117,0.13725884,0.21444095,0.32140900
12009,0,USFloridaBrevard,Florida,Brevard,2021-04-04 13:31:56.852727,2020-08-19 00:00:00.000000,0.64554518,1.01756328,1.64177065,3885,6125,9882,2212,3765,6440,0.36753376,0.62551914,1.06998768,0.14318549,0.21714303,0.32391041
12009,0,USFloridaBrevard,Florida,Brevard,2021-04-04 13:31:56.852727,2020-08-20 00:00:00.000000,0.64242292,1.00243362,1.61015101,3867,6034,9692,2203,3702,6367,0.36612607,0.61516932,1.05790851,0.14572684,0.22019405,0.32132701
12009,0,USFloridaBrevard,Florida,Brevard,2021-04-04 13:31:56.852727,2020-08-21 00:00:00.000000,0.63519121,0.99319868,1.57857318,3823,5978,9502,2198,3648,6298,0.36531307,0.60609170,1.04637053,0.14628110,0.22495216,0.31756545
12009,0,USFloridaBrevard,Florida,Brevard,2021-04-04 13:31:56.852727,2020-08-22 00:00:00.000000,0.62910943,0.98126949,1.55119264,3786,5906,9337,2192,3600,6230,0.36426629,0.59815021,1.03507243,0.14756154,0.22731127,0.31326277
12009,0,USFloridaBrevard,Florida,Brevard,2021-04-04 13:31:56.852727,2020-08-23 00:00:00.000000,0.62441908,0.96892928,1.54164312,3758,5832,9279,2171,3561,6137,0.36082073,0.59169897,1.01967766,0.14880709,0.23816502,0.30895236
12009,0,USFloridaBrevard,Florida,Brevard,2021-04-04 13:31:56.852727,2020-08-24 00:00:00.000000,0.62074767,0.95822197,1.54418336,3736,5767,9295,2149,3533,6055,0.35701883,0.58703873,1.00598960,0.14987821,0.23960016,0.31825975
12009,0,USFloridaBrevard,Florida,Brevard,2021-04-04 13:31:56.852727,2020-08-25 00:00:00.000000,0.61781787,0.95736477,1.53023857,3718,5762,9211,2129,3484,6016,0.35381787,0.57882678,0.99955403,0.15180249,0.24125635,0.34120885
12009,0,USFloridaBrevard,Florida,Brevard,2021-04-04 13:31:56.852727,2020-08-26 00:00:00.000000,0.60996682,0.95270251,1.52006309,3671,5734,9149,2113,3432,5964,0.35114239,0.57027898,0.99079443,0.15465275,0.24275007,0.34257596
12009,0,USFloridaBrevard,Florida,Brevard,2021-04-04 13:31:56.852727,2020-08-27 00:00:00.000000,0.60584620,0.93831983,1.50905552,3646,5648,9083,2099,3385,5898,0.34881904,0.56239596,0.97994399,0.15650819,0.24601428,0.34705195
12009,0,USFloridaBrevard,Florida,Brevard,2021-04-04 13:31:56.852727,2020-08-28 00:00:00.000000,0.60217035,0.93142692,1.49596325,3624,5606,9004,2086,3363,5833,0.34666749,0.55869810,0.96918986,0.15750674,0.24894813,0.35132663
12009,0,USFloridaBrevard,Florida,Brevard,2021-04-04 13:31:56.852727,2020-08-29 00:00:00.000000,0.59889840,0.93096677,1.48099022,3605,5603,8914,2074,3368,5769,0.34461163,0.55963507,0.95850787,0.16084701,0.25174393,0.35745722
12009,0,USFloridaBrevard,Florida,Brevard,2021-04-04 13:31:56.852727,2020-08-30 00:00:00.000000,0.59597010,0.93127038,1.46447345,3587,5605,8815,2062,3375,5707,0.34266168,0.56082503,0.94811203,0.16615802,0.25009443,0.35899449
12009,0,USFloridaBrevard,Florida,Brevard,2021-04-04 13:31:56.852727,2020-08-31 00:00:00.000000,0.59353536,0.93441676,1.44675437,3572,5624,8708,2051,3367,5651,0.34088521,0.55944429,0.93882192,0.16501245,0.25355704,0.35887880
12009,0,USFloridaBrevard,Florida,Brevard,2021-04-04 13:31:56.852727,2020-09-01 00:00:00.000000,0.59132560,0.92945593,1.43296068,3559,5594,8625,2043,3348,5603,0.33944066,0.55623271,0.93097994,0.16437987,0.25440111,0.36177010
12009,0,USFloridaBrevard,Florida,Brevard,2021-04-04 13:31:56.852727,2020-09-02 00:00:00.000000,0.58854703,0.92339996,1.43162357,3542,5558,8617,2026,3332,5564,0.33672130,0.55355388,0.92442881,0.16437379,0.25387463,0.36683687
12009,0,USFloridaBrevard,Florida,Brevard,2021-04-04 13:31:56.852727,2020-09-03 00:00:00.000000,0.58525161,0.92091613,1.43033564,3522,5543,8609,2011,3317,5533,0.33423565,0.55120064,0.91920817,0.16905411,0.25719705,0.36961526
12009,0,USFloridaBrevard,Florida,Brevard,2021-04-04 13:31:56.852727,2020-09-04 00:00:00.000000,0.58265178,0.91921035,1.42925622,3507,5533,8603,1998,3304,5516,0.33196170,0.54899810,0.91641936,0.17518452,0.26035219,0.37068804
12009,0,USFloridaBrevard,Florida,Brevard,2021-04-04 13:31:56.852727,2020-09-05 00:00:00.000000,0.58161248,0.92305131,1.45136010,3500,5556,8736,1986,3291,5527,0.32995757,0.54683084,0.91832150,0.18163948,0.26556167,0.37123193
12009,0,USFloridaBrevard,Florida,Brevard,2021-04-04 13:31:56.852727,2020-09-06 00:00:00.000000,0.58309175,0.92597310,1.46567808,3509,5573,8822,1976,3278,5571,0.32842583,0.54463611,0.92560571,0.18962009,0.27482347,0.37483701
12009,0,USFloridaBrevard,Florida,Brevard,2021-04-04 13:31:56.852727,2020-09-07 00:00:00.000000,0.58151428,0.93661500,1.47985808,3500,5637,8907,1972,3277,5640,0.32772595,0.54449444,0.93712491,0.19693262,0.27770085,0.38063060
12009,0,USFloridaBrevard,Florida,Brevard,2021-04-04 13:31:56.852727,2020-09-08 00:00:00.000000,0.58009701,0.94909316,1.50905356,3491,5712,9083,1976,3303,5717,0.32828124,0.54872479,0.94984977,0.19715168,0.28125542,0.39848068
12009,0,USFloridaBrevard,Florida,Brevard,2021-04-04 13:31:56.852727,2020-09-09 00:00:00.000000,0.57956328,0.95607721,1.51110383,3488,5755,9095,1986,3294,5728,0.33008793,0.54730306,0.95159675,0.19739199,0.28334331,0.39381003
12009,0,USFloridaBrevard,Florida,Brevard,2021-04-04 13:31:56.852727,2020-09-10 00:00:00.000000,0.58627431,0.96167519,1.52798887,3529,5788,9197,2004,3275,5743,0.33296115,0.54413396,0.95416120,0.20042329,0.28472325,0.38577032
12009,0,USFloridaBrevard,Florida,Brevard,2021-04-04 13:31:56.852727,2020-09-11 00:00:00.000000,0.59382490,0.96847497,1.55330679,3574,5829,9350,2026,3263,5763,0.33670915,0.54214782,0.95740713,0.20439325,0.28820035,0.40747922
12009,0,USFloridaBrevard,Florida,Brevard,2021-04-04 13:31:56.852727,2020-09-12 00:00:00.000000,0.60245522,0.97028343,1.57710343,3626,5840,9493,2053,3274,5786,0.34119386,0.54402418,0.96135413,0.20909124,0.29544956,0.40754485
12009,0,USFloridaBrevard,Florida,Brevard,2021-04-04 13:31:56.852727,2020-09-13 00:00:00.000000,0.61227513,0.97044498,1.59537387,3685,5841,9603,2084,3303,5769,0.34628670,0.54878595,0.95842125,0.21357702,0.30462302,0.40613849
12009,0,USFloridaBrevard,Florida,Brevard,2021-04-04 13:31:56.852727,2020-09-14 00:00:00.000000,0.62302116,0.97125833,1.60676231,3750,5846,9671,2109,3345,5801,0.35039361,0.55582941,0.96376407,0.21668713,0.30840856,0.40781602
12009,0,USFloridaBrevard,Florida,Brevard,2021-04-04 13:31:56.852727,2020-09-15 00:00:00.000000,0.63470042,0.98265686,1.61202064,3820,5915,9703,2109,3396,5915,0.35044443,0.56422070,0.98273707,0.21648727,0.31353679,0.40601420
12009,0,USFloridaBrevard,Florida,Brevard,2021-04-04 13:31:56.852727,2020-09-16 00:00:00.000000,0.64710676,1.00258920,1.61948559,3895,6035,9748,2110,3443,5977,0.35063757,0.57207605,0.99304789,0.22089758,0.31865633,0.40200714
12009,0,USFloridaBrevard,Florida,Brevard,2021-04-04 13:31:56.852727,2020-09-17 00:00:00.000000,0.66020496,1.02894657,1.62872613,3974,6193,9803,2112,3509,6040,0.35093096,0.58299413,1.00343583,0.22077535,0.31754840,0.39539931
12009,0,USFloridaBrevard,Florida,Brevard,2021-04-04 13:31:56.852727,2020-09-18 00:00:00.000000,0.67422741,1.04762681,1.63399116,4058,6306,9835,2114,3592,6105,0.35130953,0.59676072,1.01428513,0.21686723,0.31819992,0.40044948
12009,0,USFloridaBrevard,Florida,Brevard,2021-04-04 13:31:56.852727,2020-09-19 00:00:00.000000,0.68676580,1.05628733,1.66235440,4133,6358,10006,2118,3680,6171,0.35187010,0.61136744,1.02523657,0.21460520,0.31878432,0.41065747
12009,0,USFloridaBrevard,Florida,Brevard,2021-04-04 13:31:56.852727,2020-09-20 00:00:00.000000,0.69557489,1.06493918,1.69709886,4186,6410,10215,2134,3721,6234,0.35456072,0.61819130,1.03577136,0.21745139,0.31687276,0.41153566
12009,0,USFloridaBrevard,Florida,Brevard,2021-04-04 13:31:56.852727,2020-09-21 00:00:00.000000,0.70713613,1.08526882,1.73001629,4256,6532,10413,2183,3758,6292,0.36280204,0.62443666,1.04542454,0.21790239,0.31710881,0.42553478
12009,0,USFloridaBrevard,Florida,Brevard,2021-04-04 13:31:56.852727,2020-09-22 00:00:00.000000,0.72078850,1.10416248,1.76212778,4338,6646,10606,2240,3835,6345,0.37225162,0.63711549,1.05413421,0.21681925,0.31809333,0.43253338
12009,0,USFloridaBrevard,Florida,Brevard,2021-04-04 13:31:56.852727,2020-09-23 00:00:00.000000,0.73569455,1.12215947,1.79382759,4428,6754,10797,2304,3924,6392,0.38285422,0.65191451,1.06203721,0.21667521,0.32049744,0.43889292
12009,0,USFloridaBrevard,Florida,Brevard,2021-04-04 13:31:56.852727,2020-09-24 00:00:00.000000,0.75140194,1.13339548,1.82529881,4523,6822,10987,2370,3977,6437,0.39373272,0.66078271,1.06949207,0.21667842,0.32548119,0.44218121
12009,0,USFloridaBrevard,Florida,Brevard,2021-04-04 13:31:56.852727,2020-09-25 00:00:00.000000,0.76782407,1.14202109,1.85255576,4621,6874,11151,2426,4033,6483,0.40307876,0.67001121,1.07701849,0.21670778,0.32290846,0.43162177
12009,0,USFloridaBrevard,Florida,Brevard,2021-04-04 13:31:56.852727,2020-09-26 00:00:00.000000,0.78514132,1.15295892,1.86614941,4726,6940,11233,2469,4091,6524,0.41023301,0.67967954,1.08386793,0.21858788,0.32050242,0.42403746
12009,0,USFloridaBrevard,Florida,Brevard,2021-04-04 13:31:56.852727,2020-09-27 00:00:00.000000,0.80348321,1.17262263,1.88203145,4836,7058,11328,2502,4168,6565,0.41571902,0.69244771,1.09069005,0.22076280,0.32158071,0.42889321
12009,0,USFloridaBrevard,Florida,Brevard,2021-04-04 13:31:56.852727,2020-09-28 00:00:00.000000,0.81261253,1.20374333,1.89799050,4891,7245,11424,2529,4224,6609,0.42017478,0.70179296,1.09801122,0.21731101,0.31742284,0.42781423
12009,0,USFloridaBrevard,Florida,Brevard,2021-04-04 13:31:56.852727,2020-09-29 00:00:00.000000,0.81802667,1.23837787,1.91262004,4924,7454,11512,2552,4285,6660,0.42408071,0.71200162,1.10657715,0.21791884,0.31709970,0.43181999
12009,0,USFloridaBrevard,Florida,Brevard,2021-04-04 13:31:56.852727,2020-09-30 00:00:00.000000,0.82366391,1.25441224,1.92000177,4957,7550,11557,2616,4358,6724,0.43472244,0.72404564,1.11705515,0.21582978,0.31623494,0.42101189
12009,0,USFloridaBrevard,Florida,Brevard,2021-04-04 13:31:56.852727,2020-10-01 00:00:00.000000,0.82979873,1.26722179,1.93783097,4994,7627,11664,2703,4428,6799,0.44920799,0.73562219,1.12960176,0.22337253,0.32374709,0.39993732
12009,0,USFloridaBrevard,Florida,Brevard,2021-04-04 13:31:56.852727,2020-10-02 00:00:00.000000,0.83663802,1.26994017,1.94655793,5036,7644,11717,2785,4506,6885,0.46275026,0.74863346,1.14395945,0.22997035,0.32156942,0.40161510
12009,0,USFloridaBrevard,Florida,Brevard,2021-04-04 13:31:56.852727,2020-10-03 00:00:00.000000,0.84391171,1.28344007,1.96569732,5079,7725,11832,2855,4582,6981,0.47436812,0.76124921,1.15985226,0.23304454,0.31188002,0.40512548
12009,0,USFloridaBrevard,Florida,Brevard,2021-04-04 13:31:56.852727,2020-10-04 00:00:00.000000,0.85141844,1.29911975,1.98969064,5125,7819,11976,2912,4656,7086,0.48389758,0.77353795,1.17725778,0.23057819,0.31137817,0.41016494
12009,0,USFloridaBrevard,Florida,Brevard,2021-04-04 13:31:56.852727,2020-10-05 00:00:00.000000,0.85990873,1.32968692,2.00376257,5176,8003,12061,2960,4733,7200,0.49178561,0.78629466,1.19627447,0.22892649,0.31106161,0.41404556
12009,0,USFloridaBrevard,Florida,Brevard,2021-04-04 13:31:56.852727,2020-10-06 00:00:00.000000,0.86848227,1.36215007,2.03800426,5227,8199,12267,3003,4799,7324,0.49896880,0.79726651,1.21681325,0.22805285,0.30944170,0.42398163
12009,0,USFloridaBrevard,Florida,Brevard,2021-04-04 13:31:56.852727,2020-10-07 00:00:00.000000,0.87720540,1.39634243,2.07316184,5280,8405,12479,3042,4847,7455,0.50552062,0.80525221,1.23855169,0.22071829,0.30954441,0.43381327
12009,0,USFloridaBrevard,Florida,Brevard,2021-04-04 13:31:56.852727,2020-10-08 00:00:00.000000,0.88617562,1.42078274,2.09329542,5334,8552,12600,3077,4900,7591,0.51128937,0.81411671,1.26120127,0.21787958,0.31019439,0.43120712
12009,0,USFloridaBrevard,Florida,Brevard,2021-04-04 13:31:56.852727,2020-10-09 00:00:00.000000,0.89164959,1.43709586,2.11297691,5367,8650,12718,3109,4983,7732,0.51653546,0.82784503,1.28455245,0.22523655,0.31753275,0.43138588
12009,0,USFloridaBrevard,Florida,Brevard,2021-04-04 13:31:56.852727,2020-10-10 00:00:00.000000,0.89452491,1.45368778,2.13220699,5384,8750,12834,3139,5038,7876,0.52151386,0.83701825,1.30846272,0.22864963,0.31733419,0.43143801
12009,0,USFloridaBrevard,Florida,Brevard,2021-04-04 13:31:56.852727,2020-10-11 00:00:00.000000,0.89945278,1.45321071,2.20663735,5414,8747,13282,3168,5131,8022,0.52630368,0.85244807,1.33271412,0.22975762,0.31552356,0.44034783
12009,0,USFloridaBrevard,Florida,Brevard,2021-04-04 13:31:56.852727,2020-10-12 00:00:00.000000,0.90625472,1.45022683,2.23273209,5455,8729,13439,3196,5202,8167,0.53097458,0.86434469,1.35692251,0.23075157,0.31385235,0.45528312
12009,0,USFloridaBrevard,Florida,Brevard,2021-04-04 13:31:56.852727,2020-10-13 00:00:00.000000,0.91603407,1.46651128,2.25752195,5513,8827,13588,3221,5262,8314,0.53517753,0.87418929,1.38132074,0.23178792,0.31536701,0.45758022
12009,0,USFloridaBrevard,Florida,Brevard,2021-04-04 13:31:56.852727,2020-10-14 00:00:00.000000,0.93055073,1.49930265,2.30604509,5601,9024,13881,3245,5305,8375,0.53909845,0.88139326,1.39133262,0.23307712,0.32145122,0.45886981
12009,0,USFloridaBrevard,Florida,Brevard,2021-04-04 13:31:56.852727,2020-10-15 00:00:00.000000,0.94678699,1.52153474,2.36468542,5699,9158,14234,3267,5303,8429,0.54284470,0.88101992,1.40034577,0.23495771,0.32689655,0.46372334
12009,0,USFloridaBrevard,Florida,Brevard,2021-04-04 13:31:56.852727,2020-10-16 00:00:00.000000,0.95505226,1.53457744,2.42343079,5748,9237,14587,3289,5309,8509,0.54648071,0.88203044,1.41373816,0.23565906,0.32848622,0.46955213
12009,0,USFloridaBrevard,Florida,Brevard,2021-04-04 13:31:56.852727,2020-10-17 00:00:00.000000,0.96386227,1.55629173,2.48095061,5801,9367,14933,3310,5341,8630,0.55005246,0.88729801,1.43380633,0.23368233,0.32994616,0.47278886
12009,0,USFloridaBrevard,Florida,Brevard,2021-04-04 13:31:56.852727,2020-10-18 00:00:00.000000,0.97512492,1.58323837,2.53650091,5869,9530,15268,3320,5419,8784,0.55162213,0.90027378,1.45931670,0.23182874,0.33151471,0.46639994
12009,0,USFloridaBrevard,Florida,Brevard,2021-04-04 13:31:56.852727,2020-10-19 00:00:00.000000,0.99094112,1.61048556,2.58983019,5964,9694,15589,3335,5509,8959,0.55405752,0.91526772,1.48835774,0.23018543,0.33939623,0.47043090
12009,0,USFloridaBrevard,Florida,Brevard,2021-04-04 13:31:56.852727,2020-10-20 00:00:00.000000,1.00906384,1.64327224,2.64281038,6073,9891,15908,3359,5606,9146,0.55819196,0.93146756,1.51953399,0.22949553,0.34877154,0.45814793
12009,0,USFloridaBrevard,Florida,Brevard,2021-04-04 13:31:56.852727,2020-10-21 00:00:00.000000,1.02796874,1.68358103,2.69607138,6187,10134,16228,3391,5688,9342,0.56338955,0.94506762,1.55202913,0.22886559,0.34942353,0.45826141
12009,0,USFloridaBrevard,Florida,Brevard,2021-04-04 13:31:56.852727,2020-10-22 00:00:00.000000,1.04699578,1.71501078,2.75009401,6302,10323,16553,3426,5782,9472,0.56924926,0.96062395,1.57360492,0.23061620,0.35558102,0.46675499
12009,0,USFloridaBrevard,Florida,Brevard,2021-04-04 13:31:56.852727,2020-10-23 00:00:00.000000,1.06548034,1.74692209,2.80511410,6413,10515,16885,3464,5921,9553,0.57552258,0.98377538,1.58719504,0.23400814,0.35384237,0.45803909
12009,0,USFloridaBrevard,Florida,Brevard,2021-04-04 13:31:56.852727,2020-10-24 00:00:00.000000,1.08369144,1.77832965,2.86104966,6523,10704,17221,3503,6006,9630,0.58206188,0.99792679,1.59993812,0.24010489,0.35338057,0.47518997
12009,0,USFloridaBrevard,Florida,Brevard,2021-04-04 13:31:56.852727,2020-10-25 00:00:00.000000,1.10402559,1.80483738,2.91767711,6645,10864,17562,3544,6113,9730,0.58887138,1.01563979,1.61644736,0.24954815,0.35505589,0.47690439
12009,0,USFloridaBrevard,Florida,Brevard,2021-04-04 13:31:56.852727,2020-10-26 00:00:00.000000,1.15684060,1.82548258,2.97499326,6963,10988,17907,3589,6220,9865,0.59627037,1.03338895,1.63889553,0.25362084,0.35539744,0.47806053
12009,0,USFloridaBrevard,Florida,Brevard,2021-04-04 13:31:56.852727,2020-10-27 00:00:00.000000,1.19939634,1.84512283,3.04039918,7219,11106,18301,3693,6307,10080,0.61359515,1.04785829,1.67465425,0.24441548,0.35517745,0.47869103
12009,0,USFloridaBrevard,Florida,Brevard,2021-04-04 13:31:56.852727,2020-10-28 00:00:00.000000,1.22545973,1.86170780,3.09495195,7376,11206,18629,3862,6372,10389,0.64171934,1.05867639,1.72596789,0.22782201,0.35278070,0.47420947
12009,0,USFloridaBrevard,Florida,Brevard,2021-04-04 13:31:56.852727,2020-10-29 00:00:00.000000,1.25408397,1.87941731,3.15982264,7548,11313,19020,3976,6497,10706,0.66064692,1.07935513,1.77865997,0.22225883,0.34682176,0.47259421
12009,0,USFloridaBrevard,Florida,Brevard,2021-04-04 13:31:56.852727,2020-10-30 00:00:00.000000,1.28772115,1.90655674,3.22887929,7751,11476,19435,4057,6659,11027,0.67411952,1.10629516,1.83207008,0.22144198,0.33942259,0.46934282
12009,0,USFloridaBrevard,Florida,Brevard,2021-04-04 13:31:56.852727,2020-10-31 00:00:00.000000,1.30844761,1.94843484,3.30113769,7876,11728,19870,4149,6789,11313,0.68933659,1.12785747,1.87958044,0.22535947,0.33672459,0.46977659
12009,0,USFloridaBrevard,Florida,Brevard,2021-04-04 13:31:56.852727,2020-11-01 00:00:00.000000,1.33345571,1.98967634,3.37476493,8026,11976,20314,4253,6887,11507,0.70659304,1.14423897,1.91179027,0.22790554,0.33305422,0.47511229
12009,0,USFloridaBrevard,Florida,Brevard,2021-04-04 13:31:56.852727,2020-11-02 00:00:00.000000,1.35045745,2.02835756,3.41272074,8128,12209,20542,4355,6991,11698,0.72357891,1.16141289,1.94341933,0.22112832,0.34066937,0.48476464
12009,0,USFloridaBrevard,Florida,Brevard,2021-04-04 13:31:56.852727,2020-11-03 00:00:00.000000,1.36753517,2.06920842,3.41119311,8231,12455,20533,4413,7115,11882,0.73325328,1.18210722,1.97404383,0.22000910,0.33998034,0.48878755
12009,0,USFloridaBrevard,Florida,Brevard,2021-04-04 13:31:56.852727,2020-11-04 00:00:00.000000,1.38463291,2.10491895,3.40534348,8334,12670,20498,4468,7248,12056,0.74239280,1.20414638,2.00296427,0.21994486,0.33905109,0.44664382
12009,0,USFloridaBrevard,Florida,Brevard,2021-04-04 13:31:56.852727,2020-11-05 00:00:00.000000,1.40164097,2.13838497,3.39742423,8437,12871,20450,4521,7380,12133,0.75117530,1.22603180,2.01577804,0.22506230,0.33557730,0.44577007
12009,0,USFloridaBrevard,Florida,Brevard,2021-04-04 13:31:56.852727,2020-11-06 00:00:00.000000,1.41831093,2.17014734,3.42928099,8537,13063,20642,4572,7526,12306,0.75965363,1.25031671,2.04453666,0.23558493,0.33801132,0.44708329
12009,0,USFloridaBrevard,Florida,Brevard,2021-04-04 13:31:56.852727,2020-11-07 00:00:00.000000,1.43405070,2.20840668,3.45616846,8632,13293,20804,4621,7699,12406,0.76768633,1.27905135,2.06115868,0.24268172,0.32858684,0.45192141
12009,0,USFloridaBrevard,Florida,Brevard,2021-04-04 13:31:56.852727,2020-11-08 00:00:00.000000,1.44765250,2.23899964,3.52297586,8714,13477,21206,4663,7821,12442,0.77474135,1.29935883,2.06713066,0.23345662,0.32919481,0.46771010
12009,0,USFloridaBrevard,Florida,Brevard,2021-04-04 13:31:56.852727,2020-11-09 00:00:00.000000,1.45712454,2.27345510,3.61639904,8771,13684,21768,4694,7893,12450,0.77993555,1.31141190,2.06835752,0.23269730,0.32373374,0.47435405
12009,0,USFloridaBrevard,Florida,Brevard,2021-04-04 13:31:56.852727,2020-11-10 00:00:00.000000,1.44487748,2.28897717,3.71186511,8697,13778,22343,4712,8006,12439,0.78284323,1.33003633,2.06651152,0.22997987,0.32883494,0.47954066
12009,0,USFloridaBrevard,Florida,Brevard,2021-04-04 13:31:56.852727,2020-11-11 00:00:00.000000,1.43043910,2.31555302,3.80873365,8610,13938,22926,4718,8098,12421,0.78383876,1.34546233,2.06349026,0.22912035,0.32891679,0.48459842
12009,0,USFloridaBrevard,Florida,Brevard,2021-04-04 13:31:56.852727,2020-11-12 00:00:00.000000,1.41722541,2.34129827,3.89979443,8530,14093,23474,4716,8138,12571,0.78352219,1.35205649,2.08844666,0.22886477,0.32915376,0.46727730
12009,0,USFloridaBrevard,Florida,Brevard,2021-04-04 13:31:56.852727,2020-11-13 00:00:00.000000,1.40737274,2.36632135,3.94487602,8471,14243,23745,4726,8184,12730,0.78522865,1.35975677,2.11496187,0.22882040,0.33076123,0.45011257
12009,0,USFloridaBrevard,Florida,Brevard,2021-04-04 13:31:56.852727,2020-11-14 00:00:00.000000,1.41564666,2.39468036,3.97424442,8521,14414,23922,4754,8292,12877,0.78983723,1.37769957,2.13928966,0.22891927,0.32912945,0.45898307
12009,0,USFloridaBrevard,Florida,Brevard,2021-04-04 13:31:56.852727,2020-11-15 00:00:00.000000,1.42864255,2.41907050,4.00030866,8599,14561,24079,4775,8403,13006,0.79326691,1.39611178,2.16080271,0.22927989,0.32579743,0.47305138
12009,0,USFloridaBrevard,Florida,Brevard,2021-04-04 13:31:56.852727,2020-11-16 00:00:00.000000,1.43354379,2.44337253,4.02469355,8629,14707,24226,4791,8512,13193,0.79602448,1.41423481,2.19189362,0.23021283,0.32825625,0.48159337
12009,0,USFloridaBrevard,Florida,Brevard,2021-04-04 13:31:56.852727,2020-11-17 00:00:00.000000,1.45791172,2.46407153,4.04922676,8775,14832,24373,4807,8553,13413,0.79862472,1.42100616,2.22843223,0.23180819,0.32820030,0.47261265
12009,0,USFloridaBrevard,Florida,Brevard,2021-04-04 13:31:56.852727,2020-11-18 00:00:00.000000,1.47266766,2.47760264,4.08069609,8864,14913,24563,4822,8633,13615,0.80119357,1.43435732,2.26192752,0.23057826,0.32987194,0.46413245
12009,0,USFloridaBrevard,Florida,Brevard,2021-04-04 13:31:56.852727,2020-11-19 00:00:00.000000,1.48862048,2.49622547,4.12882572,8960,15025,24853,4837,8692,13786,0.80371812,1.44409534,2.29025968,0.22611986,0.33560104,0.46397519
12009,0,USFloridaBrevard,Florida,Brevard,2021-04-04 13:31:56.852727,2020-11-20 00:00:00.000000,1.50499542,2.50750123,4.18833609,9059,15093,25211,4857,8739,13923,0.80693411,1.45180299,2.31310240,0.21788549,0.33689436,0.46388866
12009,0,USFloridaBrevard,Florida,Brevard,2021-04-04 13:31:56.852727,2020-11-21 00:00:00.000000,1.52225231,2.52201061,4.25061872,9163,15181,25586,4885,8795,14027,0.81170232,1.46126067,2.33032941,0.21857556,0.33677967,0.46914370
12009,0,USFloridaBrevard,Florida,Brevard,2021-04-04 13:31:56.852727,2020-11-22 00:00:00.000000,1.54872899,2.53533088,4.31287215,9322,15261,25960,4931,8842,14101,0.81918380,1.46893291,2.34271568,0.22171157,0.33948562,0.47737073
12009,0,USFloridaBrevard,Florida,Brevard,2021-04-04 13:31:56.852727,2020-11-23 00:00:00.000000,1.58135393,2.54912374,4.37410292,9518,15344,26329,4998,8842,14212,0.83045139,1.46900918,2.36109962,0.22529865,0.33643587,0.48171614
12009,0,USFloridaBrevard,Florida,Brevard,2021-04-04 13:31:56.852727,2020-11-24 00:00:00.000000,1.61430091,2.56322396,4.43418600,9717,15429,26691,5090,8919,14407,0.84563965,1.48171129,2.39344539,0.22556130,0.33609168,0.48312876
12009,0,USFloridaBrevard,Florida,Brevard,2021-04-04 13:31:56.852727,2020-11-25 00:00:00.000000,1.64792901,2.58877202,4.49276849,9919,15582,27043,5201,9028,14579,0.86408094,1.49987827,2.42213022,0.22647904,0.33617646,0.48168299
12009,0,USFloridaBrevard,Florida,Brevard,2021-04-04 13:31:56.852727,2020-11-26 00:00:00.000000,1.66291895,2.60737426,4.54928471,10009,15694,27384,5287,9147,14726,0.87848621,1.51972424,2.44648818,0.22885595,0.33543566,0.47181535
12009,0,USFloridaBrevard,Florida,Brevard,2021-04-04 13:31:56.852727,2020-11-27 00:00:00.000000,1.67739091,2.61336058,4.60286714,10096,15730,27706,5360,9248,14838,0.89061272,1.53645783,2.46512448,0.22743152,0.32938602,0.48136980
12009,0,USFloridaBrevard,Florida,Brevard,2021-04-04 13:31:56.852727,2020-11-28 00:00:00.000000,1.70589083,2.62743261,4.57475197,10268,15815,27537,5455,9311,14914,0.90635817,1.54689492,2.47777035,0.22552857,0.33081630,0.47147722
12009,0,USFloridaBrevard,Florida,Brevard,2021-04-04 13:31:56.852727,2020-11-29 00:00:00.000000,1.73126708,2.64822351,4.52475050,10421,15940,27236,5556,9463,15089,0.92316496,1.57212980,2.50686610,0.22630829,0.33396895,0.46616736
12009,0,USFloridaBrevard,Florida,Brevard,2021-04-04 13:31:56.852727,2020-11-30 00:00:00.000000,1.75260684,2.64161357,4.48775615,10549,15900,27013,5652,9646,15297,0.93899068,1.60257356,2.54135931,0.22554462,0.33496492,0.47854421
12009,0,USFloridaBrevard,Florida,Brevard,2021-04-04 13:31:56.852727,2020-12-01 00:00:00.000000,1.76963975,2.66607263,4.51386859,10652,16048,27170,5738,9688,15482,0.95330065,1.60953545,2.57208121,0.22144000,0.33567526,0.48538384
12009,0,USFloridaBrevard,Florida,Brevard,2021-04-04 13:31:56.852727,2020-12-02 00:00:00.000000,1.78219388,2.70017587,4.53767294,10727,16253,27314,5812,9631,15643,0.96569003,1.59999851,2.59882432,0.22969115,0.32776464,0.47869536
12009,0,USFloridaBrevard,Florida,Brevard,2021-04-04 13:31:56.852727,2020-12-03 00:00:00.000000,1.79712472,2.73215060,4.55823344,10817,16445,27437,5875,9589,15783,0.97602881,1.59309746,2.62205834,0.22709508,0.32226183,0.46040558
12009,0,USFloridaBrevard,Florida,Brevard,2021-04-04 13:31:56.852727,2020-12-04 00:00:00.000000,1.81252858,2.74939392,4.57669402,10910,16549,27549,5924,9558,15906,0.98422711,1.58791633,2.64255788,0.22712712,0.32700002,0.46758785
12009,0,USFloridaBrevard,Florida,Brevard,2021-04-04 13:31:56.852727,2020-12-05 00:00:00.000000,1.82794575,2.76325796,4.59329894,11003,16633,27648,5969,9657,16018,0.99178204,1.60435501,2.66111377,0.22708151,0.33317636,0.47011354
12009,0,USFloridaBrevard,Florida,Brevard,2021-04-04 13:31:56.852727,2020-12-06 00:00:00.000000,1.84335210,2.77748761,4.60828825,11095,16718,27739,6036,9745,16124,1.00279534,1.61908965,2.67866736,0.22685176,0.33333681,0.47000419
12009,0,USFloridaBrevard,Florida,Brevard,2021-04-04 13:31:56.852727,2020-12-07 00:00:00.000000,1.85335909,2.79926560,4.62210039,11156,16849,27822,6100,9724,16212,1.01345503,1.61554420,2.69342905,0.22664899,0.33997935,0.47337925
12009,0,USFloridaBrevard,Florida,Brevard,2021-04-04 13:31:56.852727,2020-12-08 00:00:00.000000,1.86967128,2.82858774,4.63559091,11254,17026,27903,6164,9802,16288,1.02402814,1.62842803,2.70593407,0.22684612,0.34325513,0.48330488
12009,0,USFloridaBrevard,Florida,Brevard,2021-04-04 13:31:56.852727,2020-12-09 00:00:00.000000,1.88841225,2.85115775,4.65952422,11367,17162,28047,6227,9985,16340,1.03464523,1.65887271,2.71465413,0.22449677,0.34575449,0.48811635
12009,0,USFloridaBrevard,Florida,Brevard,2021-04-04 13:31:56.852727,2020-12-10 00:00:00.000000,1.90278682,2.88167238,4.71705834,11453,17345,28393,6291,10178,16375,1.04516543,1.69093232,2.72036583,0.22323167,0.35429959,0.48327864
12009,0,USFloridaBrevard,Florida,Brevard,2021-04-04 13:31:56.852727,2020-12-11 00:00:00.000000,1.91724455,2.90748380,4.75758971,11540,17501,28637,6350,10309,16467,1.05493915,1.71269379,2.73573174,0.22414045,0.35672079,0.48943840
12009,0,USFloridaBrevard,Florida,Brevard,2021-04-04 13:31:56.852727,2020-12-12 00:00:00.000000,1.93225195,2.95032213,4.79833117,11631,17759,28883,6447,10438,16559,1.07115810,1.73408146,2.75106218,0.23367940,0.35056353,0.49745740
12009,0,USFloridaBrevard,Florida,Brevard,2021-04-04 13:31:56.852727,2020-12-13 00:00:00.000000,1.94839631,2.97691631,4.85133854,11728,17919,29202,6570,10517,16782,1.09154210,1.74728152,2.78806665,0.24862336,0.35460680,0.49871630
12009,0,USFloridaBrevard,Florida,Brevard,2021-04-04 13:31:56.852727,2020-12-14 00:00:00.000000,1.99160795,3.00980202,4.95938257,11988,18117,29852,6704,10542,17036,1.11373778,1.75146067,2.83031672,0.24935491,0.36131899,0.51481739
12009,0,USFloridaBrevard,Florida,Brevard,2021-04-04 13:31:56.852727,2020-12-15 00:00:00.000000,2.00866154,3.07150101,5.05238944,12090,18488,30412,6845,10692,17299,1.13731579,1.77641126,2.87402792,0.25665266,0.37004920,0.53554068
12009,0,USFloridaBrevard,Florida,Brevard,2021-04-04 13:31:56.852727,2020-12-16 00:00:00.000000,1.99910023,3.13680485,5.05609012,12033,18881,30434,6994,10848,17575,1.16195593,1.80228757,2.91985989,0.26446711,0.36555682,0.56140251
12009,0,USFloridaBrevard,Florida,Brevard,2021-04-04 13:31:56.852727,2020-12-17 00:00:00.000000,2.00713816,3.22398080,5.05859468,12081,19406,30449,7148,11090,17919,1.18755208,1.84246148,2.97694866,0.26939274,0.38623549,0.57598355
12009,0,USFloridaBrevard,Florida,Brevard,2021-04-04 13:31:56.852727,2020-12-18 00:00:00.000000,2.02069269,3.27827882,5.08469475,12163,19733,30606,7253,11376,18280,1.20501880,1.88999463,3.03693757,0.27622806,0.40590319,0.60260327
12009,0,USFloridaBrevard,Florida,Brevard,2021-04-04 13:31:56.852727,2020-12-19 00:00:00.000000,2.03395035,3.34460819,5.23998297,12243,20132,31541,7304,11648,18648,1.21346493,1.93513256,3.09803645,0.28604087,0.42045377,0.61808477
12009,0,USFloridaBrevard,Florida,Brevard,2021-04-04 13:31:56.852727,2020-12-20 00:00:00.000000,2.04707108,3.43348447,5.47736543,12322,20667,32970,7354,11897,19021,1.22173787,1.97653265,3.16006079,0.29015816,0.42216290,0.64377787
12009,0,USFloridaBrevard,Florida,Brevard,2021-04-04 13:31:56.852727,2020-12-21 00:00:00.000000,2.06086359,3.52436289,5.73109934,12405,21214,34497,7403,12163,19405,1.22987537,2.02070244,3.22387719,0.27872341,0.42222499,0.66358391
12009,0,USFloridaBrevard,Florida,Brevard,2021-04-04 13:31:56.852727,2020-12-22 00:00:00.000000,2.08291633,3.58512868,5.96260533,12537,21580,35891,7453,12457,19904,1.23820417,2.06957999,3.30678084,0.27811012,0.43522784,0.66886049
12009,0,USFloridaBrevard,Florida,Brevard,2021-04-04 13:31:56.852727,2020-12-23 00:00:00.000000,2.13694855,3.64794490,6.08795950,12863,21958,36645,7520,12783,20453,1.24933148,2.12376781,3.39783685,0.28092648,0.44348206,0.67742110
12009,0,USFloridaBrevard,Florida,Brevard,2021-04-04 13:31:56.852727,2020-12-24 00:00:00.000000,2.21966611,3.75657560,6.21093914,13361,22612,37386,7647,13140,21078,1.27042553,2.18303602,3.50176565,0.29191857,0.45318105,0.70485430
12009,0,USFloridaBrevard,Florida,Brevard,2021-04-04 13:31:56.852727,2020-12-25 00:00:00.000000,2.31135587,3.89179414,6.33083424,13913,23426,38107,7855,13469,21524,1.30507313,2.23768872,3.57577033,0.31067427,0.47219941,0.70508681
12009,0,USFloridaBrevard,Florida,Brevard,2021-04-04 13:31:56.852727,2020-12-26 00:00:00.000000,2.40832745,4.01894579,6.44726476,14496,24191,38808,8001,13833,21965,1.32929984,2.29822351,3.64902829,0.32071654,0.49012727,0.71671530
12009,0,USFloridaBrevard,Florida,Brevard,2021-04-04 13:31:56.852727,2020-12-27 00:00:00.000000,2.51209025,4.18552291,6.56186339,15121,25194,39498,8156,14274,22426,1.35496962,2.37133278,3.72568775,0.32978313,0.49986680,0.74295966
12009,0,USFloridaBrevard,Florida,Brevard,2021-04-04 13:31:56.852727,2020-12-28 00:00:00.000000,2.62716920,4.30799649,6.87735845,15814,25931,41397,8378,14739,23201,1.39190436,2.44868130,3.85448700,0.34105635,0.50748061,0.76240734
12009,0,USFloridaBrevard,Florida,Brevard,2021-04-04 13:31:56.852727,2020-12-29 00:00:00.000000,2.75679485,4.44844604,7.27286028,16594,26777,43778,8649,15161,24012,1.43685766,2.51874768,3.98913605,0.34737081,0.52452194,0.78536584
12009,0,USFloridaBrevard,Florida,Brevard,2021-04-04 13:31:56.852727,2020-12-30 00:00:00.000000,2.90475964,4.61308068,7.45582403,17484,27768,44879,8952,15766,24843,1.48725933,2.61923540,4.12729664,0.34923929,0.52878259,0.80107667
12009,0,USFloridaBrevard,Florida,Brevard,2021-04-04 13:31:56.852727,2020-12-31 00:00:00.000000,3.05866152,4.77858839,7.57788591,18411,28764,45614,9278,16381,25681,1.54148289,2.72150997,4.26651512,0.34953335,0.52790819,0.80070460
12009,0,USFloridaBrevard,Florida,Brevard,2021-04-04 13:31:56.852727,2021-01-01 00:00:00.000000,3.19667713,4.93580272,7.68893050,19242,29710,46282,9699,16944,26507,1.61136560,2.81504292,4.40367536,0.33995252,0.50700022,0.79888159
12009,0,USFloridaBrevard,Florida,Brevard,2021-04-04 13:31:56.852727,2021-01-02 00:00:00.000000,3.29332207,5.06146093,7.89317729,19823,30467,47512,10194,17482,27299,1.69361948,2.90429557,4.53517115,0.30662222,0.47691635,0.77001936
12009,0,USFloridaBrevard,Florida,Brevard,2021-04-04 13:31:56.852727,2021-01-03 00:00:00.000000,3.34041618,5.18441673,8.16663782,20107,31207,49158,10589,17951,27803,1.75914025,2.98225075,4.61901638,0.29028995,0.44768273,0.72876868
12009,0,USFloridaBrevard,Florida,Brevard,2021-04-04 13:31:56.852727,2021-01-04 00:00:00.000000,3.40667853,5.28910536,8.24858423,20506,31837,49651,10809,18519,28184,1.79572141,3.07667916,4.68232049,0.28391493,0.43139309,0.71804647
12009,0,USFloridaBrevard,Florida,Brevard,2021-04-04 13:31:56.852727,2021-01-05 00:00:00.000000,3.46838553,5.35355635,8.18706803,20877,32225,49281,11023,18962,28391,1.83126381,3.15024940,4.71669677,0.27712730,0.40919550,0.70132914
12009,0,USFloridaBrevard,Florida,Brevard,2021-04-04 13:31:56.852727,2021-01-06 00:00:00.000000,3.51005518,5.39234706,8.37933245,21128,32458,50438,11291,19230,28529,1.87577938,3.19481755,4.73956750,0.26186888,0.38468571,0.69421102
12009,0,USFloridaBrevard,Florida,Brevard,2021-04-04 13:31:56.852727,2021-01-07 00:00:00.000000,3.49993867,5.45194635,8.53763039,21067,32817,51391,11494,19490,29186,1.90958093,3.23790638,4.84865012,0.24894862,0.36793706,0.67776094
12009,0,USFloridaBrevard,Florida,Brevard,2021-04-04 13:31:56.852727,2021-01-08 00:00:00.000000,3.45918518,5.42954106,8.63964464,20822,32682,52005,11641,19590,29804,1.93397853,3.25452220,4.95131388,0.24316239,0.35207941,0.63575439
12009,0,USFloridaBrevard,Florida,Brevard,2021-04-04 13:31:56.852727,2021-01-09 00:00:00.000000,3.40879289,5.34833434,8.65768823,20518,32193,52114,11737,19559,30336,1.94986801,3.24947458,5.03977115,0.23427088,0.34265499,0.57585138
12009,0,USFloridaBrevard,Florida,Brevard,2021-04-04 13:31:56.852727,2021-01-10 00:00:00.000000,3.36147977,5.29874316,8.59110518,20234,31895,51713,11676,19647,30734,1.93975298,3.26395847,5.10584119,0.23339557,0.33997899,0.56087377
12009,0,USFloridaBrevard,Florida,Brevard,2021-04-04 13:31:56.852727,2021-01-11 00:00:00.000000,3.33278605,5.24648336,8.46711434,20061,31580,50967,11517,19700,30959,1.91334848,3.27288102,5.14320310,0.23296447,0.32520670,0.55309301
12009,0,USFloridaBrevard,Florida,Brevard,2021-04-04 13:31:56.852727,2021-01-12 00:00:00.000000,3.30229137,5.19265316,8.31087629,19877,31256,50026,11336,19701,31000,1.88329808,3.27297920,5.15006808,0.23247985,0.31800682,0.53491540
12009,0,USFloridaBrevard,Florida,Brevard,2021-04-04 13:31:56.852727,2021-01-13 00:00:00.000000,3.27045812,5.13790795,8.13674298,19686,30927,48978,11144,19439,30700,1.85140444,3.22946764,5.10028881,0.23089837,0.31239439,0.51653376
12009,0,USFloridaBrevard,Florida,Brevard,2021-04-04 13:31:56.852727,2021-01-14 00:00:00.000000,3.23072159,5.08284237,7.95213955,19447,30595,47867,10948,19120,30320,1.81891812,3.17651157,5.03713734,0.22174199,0.31325310,0.53691522
12009,0,USFloridaBrevard,Florida,Brevard,2021-04-04 13:31:56.852727,2021-01-15 00:00:00.000000,3.15799377,5.02166563,7.76146119,19009,30227,46719,10756,18899,29911,1.78702304,3.13976455,4.96909117,0.21479354,0.31539717,0.50790576
12009,0,USFloridaBrevard,Florida,Brevard,2021-04-04 13:31:56.852727,2021-01-16 00:00:00.000000,3.08304376,4.94976734,7.63320024,18558,29794,45947,10576,18718,29488,1.75710861,3.10970626,4.89881990,0.20866343,0.31142952,0.51959281
12009,0,USFloridaBrevard,Florida,Brevard,2021-04-04 13:31:56.852727,2021-01-17 00:00:00.000000,3.00589631,4.86961646,7.52040115,18093,29312,45268,10416,18505,29062,1.73054156,3.07434041,4.82807682,0.20340354,0.31695252,0.54749585
12009,0,USFloridaBrevard,Florida,Brevard,2021-04-04 13:31:56.852727,2021-01-18 00:00:00.000000,2.96275318,4.78477004,7.40443166,17834,28801,44570,10280,18250,28640,1.70793160,3.03201160,4.75799019,0.20285095,0.32576713,0.55984443
12009,0,USFloridaBrevard,Florida,Brevard,2021-04-04 13:31:56.852727,2021-01-19 00:00:00.000000,2.93532265,4.69811165,7.33050813,17668,28279,44125,10165,17999,28178,1.68878532,2.99016230,4.68126759,0.20273269,0.32699342,0.56921124
12009,0,USFloridaBrevard,Florida,Brevard,2021-04-04 13:31:56.852727,2021-01-20 00:00:00.000000,2.90922034,4.61184830,7.25071090,17511,27760,43645,10065,17757,27645,1.67211001,2.95006146,4.59269561,0.20274054,0.33204381,0.57370774
12009,0,USFloridaBrevard,Florida,Brevard,2021-04-04 13:31:56.852727,2021-01-21 00:00:00.000000,2.88371881,4.52815414,7.16326682,17358,27256,43118,9973,17497,27125,1.65692736,2.90676271,4.50633159,0.21175410,0.33641041,0.56890552
12009,0,USFloridaBrevard,Florida,Brevard,2021-04-04 13:31:56.852727,2021-01-22 00:00:00.000000,2.85884140,4.44973523,7.06619216,17208,26784,42534,9887,17132,26617,1.64252750,2.84624242,4.42190612,0.21652128,0.34316968,0.56063030
12009,0,USFloridaBrevard,Florida,Brevard,2021-04-04 13:31:56.852727,2021-01-23 00:00:00.000000,2.83467275,4.37920264,6.95927718,17063,26360,41890,9802,16759,26119,1.62848681,2.78421408,4.33922340,0.21081947,0.34336559,0.56058678
12009,0,USFloridaBrevard,Florida,Brevard,2021-04-04 13:31:56.852727,2021-01-24 00:00:00.000000,2.81089114,4.31730795,6.84472919,16919,25987,41201,9718,16411,25635,1.61459976,2.72645856,4.25872859,0.20185791,0.34962446,0.55969053
12009,0,USFloridaBrevard,Florida,Brevard,2021-04-04 13:31:56.852727,2021-01-25 00:00:00.000000,2.78862532,4.27746430,6.72507398,16785,25747,40481,9635,16138,25334,1.60079183,2.68111669,4.20876486,0.20109516,0.35799643,0.55507255
12009,0,USFloridaBrevard,Florida,Brevard,2021-04-04 13:31:56.852727,2021-01-26 00:00:00.000000,2.76675257,4.25078898,6.64658930,16654,25587,40008,9555,15890,25113,1.58740756,2.63993906,4.17208351,0.20100890,0.35820429,0.55128826
12009,0,USFloridaBrevard,Florida,Brevard,2021-04-04 13:31:56.852727,2021-01-27 00:00:00.000000,2.72459736,4.22914533,6.58088966,16400,25457,39613,9476,15660,24890,1.57432229,2.60158172,4.13501539,0.20100544,0.35702017,0.55741824
12009,0,USFloridaBrevard,Florida,Brevard,2021-04-04 13:31:56.852727,2021-01-28 00:00:00.000000,2.67019291,4.16943194,6.51276731,16073,25097,39203,9399,15452,24697,1.56147180,2.56717986,4.10294577,0.20099668,0.35513972,0.57903599
12009,0,USFloridaBrevard,Florida,Brevard,2021-04-04 13:31:56.852727,2021-01-29 00:00:00.000000,2.61588704,4.09696021,6.44193405,15746,24661,38776,9321,15170,24496,1.54861216,2.52027251,4.06955227,0.20099244,0.35299010,0.58715524
12009,0,USFloridaBrevard,Florida,Brevard,2021-04-04 13:31:56.852727,2021-01-30 00:00:00.000000,2.56188005,4.02168126,6.35466853,15421,24208,38251,9133,14829,24261,1.51734140,2.46364174,4.03046322,0.20096019,0.35131823,0.61692260
12009,0,USFloridaBrevard,Florida,Brevard,2021-04-04 13:31:56.852727,2021-01-31 00:00:00.000000,2.51768897,3.93560436,6.21273945,15155,23690,37397,8944,14516,23990,1.48599964,2.41164264,3.98548992,0.20079326,0.34403744,0.62883051
12009,0,USFloridaBrevard,Florida,Brevard,2021-04-04 13:31:56.852727,2021-02-01 00:00:00.000000,2.49047036,3.84261288,6.06982340,14991,23130,36536,8771,14257,23690,1.45717354,2.36862987,3.93564499,0.20013255,0.33682058,0.63222485
12009,0,USFloridaBrevard,Florida,Brevard,2021-04-04 13:31:56.852727,2021-02-02 00:00:00.000000,2.45291593,3.76446294,5.92596429,14765,22659,35670,8612,13997,23405,1.43082796,2.32544276,3.88834587,0.19785555,0.33241060,0.63301031
12009,0,USFloridaBrevard,Florida,Brevard,2021-04-04 13:31:56.852727,2021-02-03 00:00:00.000000,2.39951644,3.67248699,5.81940665,14443,22106,35029,8452,13735,23116,1.40424072,2.28187453,3.84034664,0.19193544,0.33170740,0.63309869
12009,0,USFloridaBrevard,Florida,Brevard,2021-04-04 13:31:56.852727,2021-02-04 00:00:00.000000,2.34219807,3.57876790,5.72135386,14098,21542,34439,8275,13471,22804,1.37486583,2.23799658,3.78841140,0.18760182,0.33354269,0.63275947
12009,0,USFloridaBrevard,Florida,Brevard,2021-04-04 13:31:56.852727,2021-02-05 00:00:00.000000,2.31027208,3.49484674,5.62398416,13906,21036,33853,8096,13205,22411,1.34509798,2.19378433,3.72315043,0.18399944,0.34248170,0.63165053
12009,0,USFloridaBrevard,Florida,Brevard,2021-04-04 13:31:56.852727,2021-02-06 00:00:00.000000,2.26123747,3.42097013,5.52112547,13611,20592,33233,7909,12945,22020,1.31407059,2.15063808,3.65829121,0.18236745,0.33046892,0.62670269
12009,0,USFloridaBrevard,Florida,Brevard,2021-04-04 13:31:56.852727,2021-02-07 00:00:00.000000,2.20544911,3.34953240,5.40134653,13275,20162,32512,7709,12753,21635,1.28071263,2.11869523,3.59428365,0.18926930,0.32816694,0.62034087
12009,0,USFloridaBrevard,Florida,Brevard,2021-04-04 13:31:56.852727,2021-02-08 00:00:00.000000,2.15008200,3.28317844,5.27488454,12942,19762,31751,7493,12512,21257,1.24480778,2.07863401,3.53152877,0.18914158,0.32819882,0.61143447
12009,0,USFloridaBrevard,Florida,Brevard,2021-04-04 13:31:56.852727,2021-02-09 00:00:00.000000,2.09541143,3.21766466,5.14483141,12613,19368,30968,7267,12217,20889,1.20727262,2.02972325,3.47033225,0.18917313,0.32466506,0.61985655
12009,0,USFloridaBrevard,Florida,Brevard,2021-04-04 13:31:56.852727,2021-02-10 00:00:00.000000,2.04162214,3.15292909,5.01894858,12289,18978,30211,7080,11852,20526,1.17628166,1.96908173,3.41008631,0.18932688,0.33109686,0.64612233
12009,0,USFloridaBrevard,Florida,Brevard,2021-04-04 13:31:56.852727,2021-02-11 00:00:00.000000,1.98885479,3.08785428,4.92876019,11971,18587,29668,6979,11515,20165,1.15951024,1.91307396,3.35010664,0.19123683,0.33101157,0.64888087
12009,0,USFloridaBrevard,Florida,Brevard,2021-04-04 13:31:56.852727,2021-02-12 00:00:00.000000,1.93733494,3.01306352,4.81536057,11661,18136,28985,6876,11204,19799,1.14237414,1.86132088,3.28930351,0.19154137,0.32676149,0.65211437
12009,0,USFloridaBrevard,Florida,Brevard,2021-04-04 13:31:56.852727,2021-02-13 00:00:00.000000,1.88820552,2.95520811,4.71103757,11365,17788,28357,6757,10904,19419,1.12260405,1.81161852,3.22608863,0.19977723,0.32656273,0.65456440
12009,0,USFloridaBrevard,Florida,Brevard,2021-04-04 13:31:56.852727,2021-02-14 00:00:00.000000,1.82454738,2.90005416,4.59697845,10982,17456,27671,6591,10649,19013,1.09496172,1.76925570,3.15874544,0.20620296,0.33344840,0.64816496
12009,0,USFloridaBrevard,Florida,Brevard,2021-04-04 13:31:56.852727,2021-02-15 00:00:00.000000,1.76109902,2.84693040,4.47630924,10600,17136,26944,6373,10426,18578,1.05888572,1.73210268,3.08646723,0.20558850,0.33275285,0.64442877
12009,0,USFloridaBrevard,Florida,Brevard,2021-04-04 13:31:56.852727,2021-02-16 00:00:00.000000,1.69848687,2.79462199,4.35991404,10223,16822,26244,6156,10185,18114,1.02271946,1.69214847,3.00940474,0.19223134,0.33670307,0.65872841
12009,0,USFloridaBrevard,Florida,Brevard,2021-04-04 13:31:56.852727,2021-02-17 00:00:00.000000,1.65078570,2.72951119,4.29020630,9936,16430,25824,5939,9926,17632,0.98676337,1.64909698,2.92923334,0.19178463,0.34101168,0.67337094
12009,0,USFloridaBrevard,Florida,Brevard,2021-04-04 13:31:56.852727,2021-02-18 00:00:00.000000,1.63135899,2.68340740,4.18258442,9819,16152,25176,5727,9675,17141,0.95143093,1.60745600,2.84771201,0.19508090,0.35080269,0.67411175
12009,0,USFloridaBrevard,Florida,Brevard,2021-04-04 13:31:56.852727,2021-02-19 00:00:00.000000,1.61338368,2.62981766,4.08986131,9711,15829,24618,5520,9439,16711,0.91718604,1.56813420,2.77634254,0.19741906,0.35543170,0.70995630
12009,0,USFloridaBrevard,Florida,Brevard,2021-04-04 13:31:56.852727,2021-02-20 00:00:00.000000,1.57420005,2.57690533,4.03639991,9475,15511,24296,5321,9226,16350,0.88404998,1.53277557,2.71627256,0.17878321,0.35476383,0.71562540
12009,0,USFloridaBrevard,Florida,Brevard,2021-04-04 13:31:56.852727,2021-02-21 00:00:00.000000,1.54051130,2.52432176,3.98147969,9272,15194,23966,5130,9061,16027,0.85228782,1.50532334,2.66269285,0.18102834,0.35731053,0.71678837
12009,0,USFloridaBrevard,Florida,Brevard,2021-04-04 13:31:56.852727,2021-02-22 00:00:00.000000,1.51463341,2.46996811,3.89549958,9117,14867,23448,5023,8918,15727,0.83450374,1.48159578,2.61277051,0.18446188,0.35595297,0.71573872
12009,0,USFloridaBrevard,Florida,Brevard,2021-04-04 13:31:56.852727,2021-02-23 00:00:00.000000,1.45392533,2.41462205,3.80113920,8751,14534,22880,4941,8758,15439,0.82098032,1.45504213,2.56492688,0.18796221,0.35748482,0.75739236
12009,0,USFloridaBrevard,Florida,Brevard,2021-04-04 13:31:56.852727,2021-02-24 00:00:00.000000,1.40272140,2.36527006,3.70769138,8443,14237,22318,4861,8636,15157,0.80762585,1.43477011,2.51808466,0.19140575,0.35967391,0.83852181
12009,0,USFloridaBrevard,Florida,Brevard,2021-04-04 13:31:56.852727,2021-02-25 00:00:00.000000,1.37517858,2.31183110,3.61569834,8277,13915,21764,4696,8498,14877,0.78017677,1.41185642,2.47153137,0.19469008,0.36572236,0.87159928
12009,0,USFloridaBrevard,Florida,Brevard,2021-04-04 13:31:56.852727,2021-02-26 00:00:00.000000,1.34736188,2.28912263,3.52624748,8110,13779,21225,4663,8429,14596,0.77470890,1.40037733,2.42484280,0.19840241,0.37508837,0.90915574
12009,0,USFloridaBrevard,Florida,Brevard,2021-04-04 13:31:56.852727,2021-02-27 00:00:00.000000,1.31940785,2.26332904,3.44414843,7942,13623,20731,4598,8356,14313,0.76397574,1.38822202,2.37792190,0.20165990,0.38499827,0.94872216
12009,0,USFloridaBrevard,Florida,Brevard,2021-04-04 13:31:56.852727,2021-02-28 00:00:00.000000,1.29134283,2.23787336,3.41179901,7773,13470,20537,4506,8280,14030,0.74863729,1.37568148,2.33095092,0.20588426,0.39266971,0.97064883
12009,0,USFloridaBrevard,Florida,Brevard,2021-04-04 13:31:56.852727,2021-03-01 00:00:00.000000,1.26320372,2.20894582,3.37956325,7603,13296,20343,4413,8164,13750,0.73318618,1.35628537,2.28429178,0.21273177,0.40767163,1.01975655
12009,0,USFloridaBrevard,Florida,Brevard,2021-04-04 13:31:56.852727,2021-03-02 00:00:00.000000,1.23528073,2.19482365,3.31933058,7435,13211,19980,4320,8092,13473,0.71772787,1.34440646,2.23839858,0.22166370,0.42229352,1.02811544
12009,0,USFloridaBrevard,Florida,Brevard,2021-04-04 13:31:56.852727,2021-03-03 00:00:00.000000,1.20772496,2.18385084,3.24169426,7269,13145,19513,4227,8104,13207,0.70226174,1.34641176,2.19422710,0.22839491,0.43002334,1.03888621
12009,0,USFloridaBrevard,Florida,Brevard,2021-04-04 13:31:56.852727,2021-03-04 00:00:00.000000,1.18073452,2.17268943,3.21197144,7107,13078,19334,4134,8043,12961,0.68688259,1.33619221,2.15320040,0.23228290,0.43752941,1.04503306
12009,0,USFloridaBrevard,Florida,Brevard,2021-04-04 13:31:56.852727,2021-03-05 00:00:00.000000,1.15493103,2.15211016,3.19018195,6952,12954,19203,4043,7922,12741,0.67168323,1.31622774,2.11680510,0.23071486,0.44406255,1.06588040
12009,0,USFloridaBrevard,Florida,Brevard,2021-04-04 13:31:56.852727,2021-03-06 00:00:00.000000,1.14942409,2.14283964,3.16674083,6918,12898,19061,3953,7807,12554,0.65678242,1.29710387,2.08564497,0.20982605,0.44113874,1.08068959
12009,0,USFloridaBrevard,Florida,Brevard,2021-04-04 13:31:56.852727,2021-03-07 00:00:00.000000,1.14734091,2.12817625,3.14161814,6906,12810,18910,3866,7709,12394,0.64237208,1.28075213,2.05911510,0.20060621,0.44326526,1.12112957
12009,0,USFloridaBrevard,Florida,Brevard,2021-04-04 13:31:56.852727,2021-03-08 00:00:00.000000,1.14707235,2.12058953,3.11472802,6904,12764,18748,3784,7625,12255,0.62874916,1.26685766,2.03602670,0.19918971,0.44537565,1.15407895
12009,0,USFloridaBrevard,Florida,Brevard,2021-04-04 13:31:56.852727,2021-03-09 00:00:00.000000,1.14780562,2.11473512,3.10363302,6909,12729,18682,3709,7537,12131,0.61632045,1.25220800,2.01541693,0.20717728,0.44404846,1.17203119
12009,0,USFloridaBrevard,Florida,Brevard,2021-04-04 13:31:56.852727,2021-03-10 00:00:00.000000,1.14949835,2.10839237,3.13189599,6919,12691,18852,3662,7444,12016,0.60851000,1.23670310,1.99623864,0.20993302,0.44267051,1.21919380
12009,0,USFloridaBrevard,Florida,Brevard,2021-04-04 13:31:56.852727,2021-03-11 00:00:00.000000,1.15245621,2.08935526,3.16257020,6937,12576,19036,3661,7402,11899,0.60824058,1.22976523,1.97686099,0.24113533,0.44388301,1.22233767
12009,0,USFloridaBrevard,Florida,Brevard,2021-04-04 13:31:56.852727,2021-03-12 00:00:00.000000,1.15730573,2.06576854,3.15496174,6966,12434,18991,3664,7390,11782,0.60875637,1.22778434,1.95741206,0.25028818,0.45082463,1.24989810
12009,0,USFloridaBrevard,Florida,Brevard,2021-04-04 13:31:56.852727,2021-03-13 00:00:00.000000,1.16494610,2.04582347,3.11671748,7012,12314,18760,3672,7351,11662,0.61012474,1.22125380,1.93750815,0.25288033,0.45016729,1.27044758
12009,0,USFloridaBrevard,Florida,Brevard,2021-04-04 13:31:56.852727,2021-03-14 00:00:00.000000,1.17540167,2.03284728,3.07254293,7075,12236,18494,3687,7257,11538,0.61261068,1.20566957,1.91694919,0.24860302,0.45223551,1.28294493
12009,0,USFloridaBrevard,Florida,Brevard,2021-04-04 13:31:56.852727,2021-03-15 00:00:00.000000,1.18775141,2.01783777,3.02536303,7149,12146,18210,3719,7202,11413,0.61791986,1.19648420,1.89603712,0.24240567,0.45351972,1.28956724
12009,0,USFloridaBrevard,Florida,Brevard,2021-04-04 13:31:56.852727,2021-03-16 00:00:00.000000,1.20109736,2.00371918,3.01704272,7229,12061,18160,3768,7167,11290,0.62611964,1.19076464,1.87575063,0.24129899,0.45332856,1.29265054
12009,0,USFloridaBrevard,Florida,Brevard,2021-04-04 13:31:56.852727,2021-03-17 00:00:00.000000,1.20202071,1.98186198,3.03815829,7235,11929,18287,3821,7128,11206,0.63479901,1.18426056,1.86167770,0.24146940,0.45010033,1.29238364
12009,0,USFloridaBrevard,Florida,Brevard,2021-04-04 13:31:56.852727,2021-03-18 00:00:00.000000,1.18844912,1.95583945,3.04833472,7153,11773,18349,3874,7084,11168,0.64361794,1.17696869,1.85542109,0.24127615,0.44672807,1.29149928
12009,0,USFloridaBrevard,Florida,Brevard,2021-04-04 13:31:56.852727,2021-03-19 00:00:00.000000,1.17782220,1.92160371,3.04975970,7089,11566,18357,3925,6996,11122,0.65208215,1.16227182,1.84781932,0.24111439,0.44509861,1.28702003
12009,0,USFloridaBrevard,Florida,Brevard,2021-04-04 13:31:56.852727,2021-03-20 00:00:00.000000,1.17980486,1.88715340,3.04456681,7101,11359,18326,3967,6893,11088,0.65917257,1.14517757,1.84205015,0.24107279,0.44915269,1.26011978
12009,0,USFloridaBrevard,Florida,Brevard,2021-04-04 13:31:56.852727,2021-03-21 00:00:00.000000,1.16400173,1.85352653,3.03441056,7006,11157,18265,3979,6778,11107,0.66110722,1.12618069,1.84535735,0.23624352,0.47173044,1.27280399
12009,0,USFloridaBrevard,Florida,Brevard,2021-04-04 13:31:56.852727,2021-03-22 00:00:00.000000,1.15980376,1.83445736,3.02044024,6981,11042,18181,3962,6708,11149,0.65836860,1.11441719,1.85230725,0.23629040,0.47001294,1.38885346
12009,0,USFloridaBrevard,Florida,Brevard,2021-04-04 13:31:56.852727,2021-03-23 00:00:00.000000,1.15721703,1.81668259,3.00149123,6965,10935,18067,3937,6650,11222,0.65419040,1.10486650,1.86443099,0.23829909,0.45649057,1.43685039
12009,0,USFloridaBrevard,Florida,Brevard,2021-04-04 13:31:56.852727,2021-03-24 00:00:00.000000,1.14862213,1.80721362,2.94574925,6914,10878,17731,3919,6591,11336,0.65119087,1.09509653,1.88329820,0.23816667,0.46624621,1.45012305
12009,0,USFloridaBrevard,Florida,Brevard,2021-04-04 13:31:56.852727,2021-03-25 00:00:00.000000,1.13509200,1.78278896,2.91276081,6832,10731,17533,3907,6531,11488,0.64917197,1.08511427,1.90864912,0.23805136,0.47074265,1.45641459
12009,0,USFloridaBrevard,Florida,Brevard,2021-04-04 13:31:56.852727,2021-03-26 00:00:00.000000,1.11958097,1.75612306,2.92637731,6739,10570,17615,3898,6474,11670,0.64771413,1.07563632,1.93880130,0.23308264,0.47124361,1.46057427
12009,0,USFloridaBrevard,Florida,Brevard,2021-04-04 13:31:56.852727,2021-03-27 00:00:00.000000,1.10144937,1.72522455,2.91345707,6630,10384,17537,3850,6378,11869,0.63974721,1.05972158,1.97193276,0.22878248,0.45682814,1.46109971
12009,0,USFloridaBrevard,Florida,Brevard,2021-04-04 13:31:56.852727,2021-03-28 00:00:00.000000,1.10656173,1.73864596,2.96537345,6660,10465,17849,3792,6315,12078,0.63009735,1.04911744,2.00665463,0.23000973,0.44839401,1.43965417
12009,0,USFloridaBrevard,Florida,Brevard,2021-04-04 13:31:56.852727,2021-03-29 00:00:00.000000,1.12179940,1.72453995,2.97998311,6752,10380,17937,3726,6271,12291,0.61909053,1.04185422,2.04204615,0.22637283,0.44394686,1.50529430
12009,0,USFloridaBrevard,Florida,Brevard,2021-04-04 13:31:56.852727,2021-03-30 00:00:00.000000,1.12077168,1.71317419,2.89434730,6746,10312,17422,3699,6239,12182,0.61451702,1.03651073,2.02379874,0.22561631,0.43546342,1.55886332
12009,0,USFloridaBrevard,Florida,Brevard,2021-04-04 13:31:56.852727,2021-03-31 00:00:00.000000,1.08705033,1.68855104,2.93468725,6543,10164,17665,3748,6155,12052,0.62273236,1.02257780,2.00226323,0.22467787,0.43756991,1.56000810
12009,0,USFloridaBrevard,Florida,Brevard,2021-04-04 13:31:56.852727,2021-04-01 00:00:00.000000,1.05105112,1.67272482,2.98759526,6326,10068,17983,3643,6065,11863,0.60523048,1.00761264,1.97088250,0.22281449,0.44147381,1.55003956
12009,0,USFloridaBrevard,Florida,Brevard,2021-04-04 13:31:56.852727,2021-04-02 00:00:00.000000,1.01211090,1.67068544,3.01495759,6092,10056,18148,3533,5995,11428,0.58701940,0.99602428,1.89861512,0.21850063,0.44698088,1.54221874
12009,0,USFloridaBrevard,Florida,Brevard,2021-04-04 13:31:56.852727,2021-04-03 00:00:00.000000,0.97103686,1.65845804,3.01975120,5845,9982,18177,3417,6030,10969,0.56771234,1.00187757,1.82237517,0.20901492,0.44911936,1.53856641
12009,0,USFloridaBrevard,Florida,Brevard,2021-04-04 13:31:56.852727,2021-04-04 00:00:00.000000,0.92949020,1.64001770,3.02247632,5594,9871,18193,3355,5976,10790,0.55738608,0.99279515,1.79266063,0.19904158,0.44923625,1.53032675
12009,0,USFloridaBrevard,Florida,Brevard,2021-04-04 13:31:56.852727,2021-04-05 00:00:00.000000,0.88818262,1.60003703,3.02312968,5346,9631,18197,3307,5880,10972,0.54951503,0.97685653,1.82292983,0.19866322,0.44282343,1.49954716
12009,0,USFloridaBrevard,Florida,Brevard,2021-04-04 13:31:56.852727,2021-04-06 00:00:00.000000,0.85253322,1.57360188,3.02147530,5131,9472,18187,3264,5751,11155,0.54237697,0.95556477,1.85332572,0.19662036,0.42417064,1.50249194
12009,0,USFloridaBrevard,Florida,Brevard,2021-04-04 13:31:56.852727,2021-04-07 00:00:00.000000,0.81237289,1.55804601,3.01741249,4890,9378,18163,3136,5660,11024,0.52113973,0.94045032,1.83153446,0.17812743,0.42467856,1.51897969
12009,0,USFloridaBrevard,Florida,Brevard,2021-04-04 13:31:56.852727,2021-04-08 00:00:00.000000,0.77384632,1.53506576,3.01123004,4658,9240,18125,2996,5586,10868,0.49772857,0.92802395,1.80557265,0.17109581,0.42474381,1.52316992
12009,0,USFloridaBrevard,Florida,Brevard,2021-04-04 13:31:56.852727,2021-04-09 00:00:00.000000,0.73695442,1.51735628,3.00300027,4436,9133,18076,2858,5473,10710,0.47495986,0.90936999,1.77938461,0.17011814,0.42466485,1.52426874
12009,0,USFloridaBrevard,Florida,Brevard,2021-04-04 13:31:56.852727,2021-04-10 00:00:00.000000,0.70167662,1.48899140,2.99276594,4223,8962,18014,2726,5361,10552,0.45293297,0.89072444,1.75310384,0.16968535,0.42457132,1.52466298
12009,0,USFloridaBrevard,Florida,Brevard,2021-04-04 13:31:56.852727,2021-04-11 00:00:00.000000,0.66797792,1.46856333,3.01208478,4020,8839,18131,2598,5249,10394,0.43170709,0.87211012,1.72682667,0.16949396,0.42449928,1.52486360
12009,0,USFloridaBrevard,Florida,Brevard,2021-04-04 13:31:56.852727,2021-04-12 00:00:00.000000,0.63581375,1.44036639,3.13314145,3827,8670,18859,2475,5257,10510,0.41131294,0.87341446,1.74617961,0.16940974,0.42445122,1.52498436
12009,0,USFloridaBrevard,Florida,Brevard,2021-04-04 13:31:56.852727,2021-04-13 00:00:00.000000,0.60513355,1.40106349,3.25635076,3642,8433,19601,2358,5260,10943,0.39176105,0.87389376,1.81796600,0.16937277,0.42442126,1.52505974
12009,0,USFloridaBrevard,Florida,Brevard,2021-04-04 13:31:56.852727,2021-04-14 00:00:00.000000,0.57588321,1.36637966,3.38147332,3466,8224,20354,2245,5127,11384,0.37304795,0.85180227,1.89122308,0.16935656,0.42440326,1.52510653
12009,0,USFloridaBrevard,Florida,Brevard,2021-04-04 13:31:56.852727,2021-04-15 00:00:00.000000,0.54800685,1.34327390,3.50824161,3298,8085,21117,2137,4996,11833,0.35516045,0.83011591,1.96581655,0.16934945,0.42439267,1.52513521
12009,0,USFloridaBrevard,Florida,Brevard,2021-04-04 13:31:56.852727,2021-04-16 00:00:00.000000,0.52144803,1.32188344,3.63635927,3138,7956,21888,2035,4862,12289,0.33807883,0.80775552,2.04159943,0.16934634,0.42438652,1.52515262
