FIPS,HR_UID,nameid,province,region,analysisTime,dates,pointprevalence_025,pointprevalence_50,pointprevalence_975,pointinfections_025,pointinfections_50,pointinfections_975,pointinfectious_025,pointinfectious_50,pointinfectious_975,pointinfectiousprevalence_05,pointinfectiousprevalence_50,pointinfectiousprevalence_95,infectrate_025,infectrate_50,infectrate_975
13037,0,USGeorgiaCalhoun,Georgia,Calhoun,2021-04-04 12:38:24.482930,2020-03-09 00:00:00.000000,0.02350199,0.12870623,0.28836724,1,7,17,0,3,9,0.01393999,0.06250759,0.15140607,0.52066679,0.67113099,0.92926006
13037,0,USGeorgiaCalhoun,Georgia,Calhoun,2021-04-04 12:38:24.482930,2020-03-10 00:00:00.000000,0.02791711,0.15085102,0.32094198,1,9,19,0,4,10,0.01453565,0.07020603,0.16184115,0.52066668,0.67112563,0.92925566
13037,0,USGeorgiaCalhoun,Georgia,Calhoun,2021-04-04 12:38:24.482930,2020-03-11 00:00:00.000000,0.03269399,0.17179384,0.35664789,2,10,22,1,4,11,0.01621316,0.07848394,0.17992917,0.52066632,0.67111359,0.92924821
13037,0,USGeorgiaCalhoun,Georgia,Calhoun,2021-04-04 12:38:24.482930,2020-03-12 00:00:00.000000,0.03806717,0.19299837,0.39589922,2,11,24,1,5,12,0.01857553,0.08621807,0.19513628,0.52066500,0.67108651,0.92923460
13037,0,USGeorgiaCalhoun,Georgia,Calhoun,2021-04-04 12:38:24.482930,2020-03-13 00:00:00.000000,0.04420992,0.21632590,0.44655018,2,13,27,1,5,13,0.02148370,0.09624292,0.21094843,0.52065940,0.67102562,0.92920694
13037,0,USGeorgiaCalhoun,Georgia,Calhoun,2021-04-04 12:38:24.482930,2020-03-14 00:00:00.000000,0.05127996,0.24159528,0.50085619,3,14,30,1,6,14,0.02491695,0.11118072,0.22948087,0.52063430,0.67088869,0.92914377
13037,0,USGeorgiaCalhoun,Georgia,Calhoun,2021-04-04 12:38:24.482930,2020-03-15 00:00:00.000000,0.05944150,0.27460882,0.55205013,3,16,34,1,7,15,0.02891966,0.12885432,0.25064593,0.52051923,0.67058086,0.92898387
13037,0,USGeorgiaCalhoun,Georgia,Calhoun,2021-04-04 12:38:24.482930,2020-03-16 00:00:00.000000,0.10316526,0.34532366,0.66954171,6,21,41,2,9,17,0.03356014,0.14682149,0.28135278,0.51999305,0.66988967,0.92853985
13037,0,USGeorgiaCalhoun,Georgia,Calhoun,2021-04-04 12:38:24.482930,2020-03-17 00:00:00.000000,0.14837545,0.43379209,0.77616376,9,26,48,3,10,20,0.04871278,0.17567443,0.32826465,0.51770843,0.66834244,0.92519194
13037,0,USGeorgiaCalhoun,Georgia,Calhoun,2021-04-04 12:38:24.482930,2020-03-18 00:00:00.000000,0.19950522,0.53555852,0.92908710,12,33,57,4,13,23,0.07057643,0.21290382,0.38354131,0.50975799,0.67096499,0.91998426
13037,0,USGeorgiaCalhoun,Georgia,Calhoun,2021-04-04 12:38:24.482930,2020-03-19 00:00:00.000000,0.25818996,0.64437632,1.07491851,15,39,66,6,16,27,0.09782734,0.26430263,0.44907841,0.49517630,0.66215284,0.91139733
13037,0,USGeorgiaCalhoun,Georgia,Calhoun,2021-04-04 12:38:24.482930,2020-03-20 00:00:00.000000,0.30497542,0.75340915,1.25875856,18,46,77,7,19,33,0.12613565,0.31893058,0.54592380,0.48463325,0.65083876,0.88956642
13037,0,USGeorgiaCalhoun,Georgia,Calhoun,2021-04-04 12:38:24.482930,2020-03-21 00:00:00.000000,0.35786995,0.87589479,1.50043993,22,54,92,9,24,41,0.14993367,0.38817511,0.66317527,0.45666377,0.62538234,0.84564936
13037,0,USGeorgiaCalhoun,Georgia,Calhoun,2021-04-04 12:38:24.482930,2020-03-22 00:00:00.000000,0.41433455,0.99245699,1.78002095,25,61,110,10,27,49,0.17714838,0.45169001,0.79652477,0.44303592,0.62176722,0.79786036
13037,0,USGeorgiaCalhoun,Georgia,Calhoun,2021-04-04 12:38:24.482930,2020-03-23 00:00:00.000000,0.57160901,1.16295568,2.09039008,35,71,129,12,32,58,0.20735916,0.52566398,0.94570696,0.44200000,0.61510908,0.79786659
13037,0,USGeorgiaCalhoun,Georgia,Calhoun,2021-04-04 12:38:24.482930,2020-03-24 00:00:00.000000,0.73533172,1.34048198,2.43245231,45,82,150,16,37,68,0.26238918,0.60346309,1.10147043,0.43413349,0.59851908,0.79168649
13037,0,USGeorgiaCalhoun,Georgia,Calhoun,2021-04-04 12:38:24.482930,2020-03-25 00:00:00.000000,0.91504483,1.55283227,2.76862892,56,96,171,20,43,77,0.33518534,0.70329986,1.25724046,0.40530605,0.58643473,0.75818340
13037,0,USGeorgiaCalhoun,Georgia,Calhoun,2021-04-04 12:38:24.482930,2020-03-26 00:00:00.000000,1.11074161,1.75712382,3.02018310,68,108,186,26,49,84,0.42269346,0.80494455,1.35730642,0.39325945,0.57960708,0.75473441
13037,0,USGeorgiaCalhoun,Georgia,Calhoun,2021-04-04 12:38:24.482930,2020-03-27 00:00:00.000000,1.24926959,1.99687526,3.17106305,77,123,196,32,57,89,0.52388201,0.93677340,1.44616053,0.39023683,0.56242950,0.74386357
13037,0,USGeorgiaCalhoun,Georgia,Calhoun,2021-04-04 12:38:24.482930,2020-03-28 00:00:00.000000,1.39889732,2.21644651,3.43260783,86,137,212,39,65,97,0.63883007,1.06308799,1.56749829,0.36067628,0.54522617,0.73146425
13037,0,USGeorgiaCalhoun,Georgia,Calhoun,2021-04-04 12:38:24.482930,2020-03-29 00:00:00.000000,1.55975078,2.47703225,3.76606145,96,153,233,44,75,106,0.71816031,1.22488517,1.71499335,0.33816934,0.51865792,0.71877173
13037,0,USGeorgiaCalhoun,Georgia,Calhoun,2021-04-04 12:38:24.482930,2020-03-30 00:00:00.000000,1.76343636,2.68755790,4.08067681,109,166,252,48,83,115,0.78157457,1.34322256,1.86214928,0.33421810,0.50319284,0.69277124
13037,0,USGeorgiaCalhoun,Georgia,Calhoun,2021-04-04 12:38:24.482930,2020-03-31 00:00:00.000000,1.89825809,2.93439620,4.42124442,117,181,273,52,92,130,0.84723189,1.49693175,2.10740734,0.33368479,0.49323512,0.67744266
13037,0,USGeorgiaCalhoun,Georgia,Calhoun,2021-04-04 12:38:24.482930,2020-04-01 00:00:00.000000,2.03900931,3.18621002,4.85213104,126,197,300,56,103,149,0.91558633,1.67124625,2.41724511,0.32872712,0.48480510,0.67443044
13037,0,USGeorgiaCalhoun,Georgia,Calhoun,2021-04-04 12:38:24.482930,2020-04-02 00:00:00.000000,2.18341701,3.47122687,5.47123815,135,214,338,61,113,170,0.98684939,1.83648119,2.75956513,0.32249303,0.46613660,0.65387361
13037,0,USGeorgiaCalhoun,Georgia,Calhoun,2021-04-04 12:38:24.482930,2020-04-03 00:00:00.000000,2.32416653,3.81163926,6.01758238,143,235,372,65,123,187,1.06066382,2.00039645,3.03326618,0.31658363,0.44660818,0.59490505
13037,0,USGeorgiaCalhoun,Georgia,Calhoun,2021-04-04 12:38:24.482930,2020-04-04 00:00:00.000000,2.45082235,4.10277705,6.35367394,151,253,393,70,133,201,1.13525549,2.15196185,3.26358142,0.29346615,0.42147501,0.55908592
13037,0,USGeorgiaCalhoun,Georgia,Calhoun,2021-04-04 12:38:24.482930,2020-04-05 00:00:00.000000,2.56393288,4.40714256,6.90938631,158,272,427,74,143,214,1.20727668,2.32545196,3.46199866,0.28326883,0.40047474,0.53030389
13037,0,USGeorgiaCalhoun,Georgia,Calhoun,2021-04-04 12:38:24.482930,2020-04-06 00:00:00.000000,2.64258557,4.66542978,7.28523494,163,288,450,79,154,238,1.28729163,2.49293974,3.84722306,0.27032501,0.39017778,0.52984452
13037,0,USGeorgiaCalhoun,Georgia,Calhoun,2021-04-04 12:38:24.482930,2020-04-07 00:00:00.000000,2.72009220,4.96673956,7.65591355,168,307,473,85,167,262,1.38096175,2.71294429,4.24901388,0.26091808,0.37639938,0.49464953
13037,0,USGeorgiaCalhoun,Georgia,Calhoun,2021-04-04 12:38:24.482930,2020-04-08 00:00:00.000000,2.79397105,5.19900683,8.01644412,172,321,496,91,178,284,1.47046926,2.87877880,4.59011042,0.23333344,0.34915348,0.48577998
13037,0,USGeorgiaCalhoun,Georgia,Calhoun,2021-04-04 12:38:24.482930,2020-04-09 00:00:00.000000,2.85692798,5.44267658,8.09468232,176,336,500,96,190,299,1.55835925,3.07617151,4.84321717,0.22540734,0.33022002,0.48165373
13037,0,USGeorgiaCalhoun,Georgia,Calhoun,2021-04-04 12:38:24.482930,2020-04-10 00:00:00.000000,2.89998101,5.72748022,8.22498288,179,354,509,101,198,310,1.64515795,3.21463336,5.00943688,0.21759985,0.31478520,0.44324782
13037,0,USGeorgiaCalhoun,Georgia,Calhoun,2021-04-04 12:38:24.482930,2020-04-11 00:00:00.000000,2.92849856,5.96059805,8.34175676,181,368,516,106,209,316,1.72692145,3.38054548,5.10736676,0.21427986,0.29113532,0.43738143
13037,0,USGeorgiaCalhoun,Georgia,Calhoun,2021-04-04 12:38:24.482930,2020-04-12 00:00:00.000000,2.96188762,6.15992329,8.50725315,183,381,526,110,216,323,1.79345558,3.50540363,5.22632303,0.20732863,0.27377602,0.43157371
13037,0,USGeorgiaCalhoun,Georgia,Calhoun,2021-04-04 12:38:24.482930,2020-04-13 00:00:00.000000,2.97933352,6.28164306,8.78103419,184,388,543,113,225,324,1.83886094,3.64420332,5.24580831,0.19821878,0.26008785,0.39891572
13037,0,USGeorgiaCalhoun,Georgia,Calhoun,2021-04-04 12:38:24.482930,2020-04-14 00:00:00.000000,3.00679209,6.38619138,9.03103381,186,395,558,115,231,325,1.86753422,3.74536583,5.26633759,0.18561156,0.25162003,0.36809334
13037,0,USGeorgiaCalhoun,Georgia,Calhoun,2021-04-04 12:38:24.482930,2020-04-15 00:00:00.000000,3.03237901,6.43230088,9.01620662,187,398,558,116,235,337,1.88425810,3.80347084,5.45976105,0.17674844,0.24728175,0.35964196
13037,0,USGeorgiaCalhoun,Georgia,Calhoun,2021-04-04 12:38:24.482930,2020-04-16 00:00:00.000000,3.05316222,6.42482910,8.90193856,188,397,550,117,240,348,1.89136148,3.88208499,5.63428481,0.16286644,0.24219539,0.34708964
13037,0,USGeorgiaCalhoun,Georgia,Calhoun,2021-04-04 12:38:24.482930,2020-04-17 00:00:00.000000,3.06286931,6.41037261,8.91799318,189,396,551,116,240,358,1.88752260,3.88413862,5.79191224,0.14622273,0.23337802,0.31991986
13037,0,USGeorgiaCalhoun,Georgia,Calhoun,2021-04-04 12:38:24.482930,2020-04-18 00:00:00.000000,3.06681575,6.46172858,9.16349567,189,399,567,115,246,367,1.87154171,3.97521225,5.93087332,0.13539497,0.22034743,0.31413513
13037,0,USGeorgiaCalhoun,Georgia,Calhoun,2021-04-04 12:38:24.482930,2020-04-19 00:00:00.000000,3.06851201,6.40832181,9.27569694,189,396,574,114,249,370,1.84497839,4.02662119,5.98199797,0.13318156,0.21024187,0.28701121
13037,0,USGeorgiaCalhoun,Georgia,Calhoun,2021-04-04 12:38:24.482930,2020-04-20 00:00:00.000000,3.07958995,6.34279211,9.22709294,190,392,571,112,247,364,1.81102358,4.00654004,5.88442926,0.13348925,0.19794562,0.26308804
13037,0,USGeorgiaCalhoun,Georgia,Calhoun,2021-04-04 12:38:24.482930,2020-04-21 00:00:00.000000,3.08752806,6.26048960,9.12135547,191,387,564,110,247,356,1.77965851,4.00347636,5.76816202,0.13474494,0.19227461,0.25884133
13037,0,USGeorgiaCalhoun,Georgia,Calhoun,2021-04-04 12:38:24.482930,2020-04-22 00:00:00.000000,3.08826535,6.15572196,8.96477141,191,380,554,108,244,359,1.74999528,3.94991238,5.80574016,0.13089268,0.17907758,0.25152963
13037,0,USGeorgiaCalhoun,Georgia,Calhoun,2021-04-04 12:38:24.482930,2020-04-23 00:00:00.000000,3.07514460,6.06003308,8.77545392,190,375,543,106,243,359,1.72176386,3.93162896,5.80432771,0.12175773,0.17186540,0.23829757
13037,0,USGeorgiaCalhoun,Georgia,Calhoun,2021-04-04 12:38:24.482930,2020-04-24 00:00:00.000000,3.04945892,5.98616940,8.57080891,188,370,530,104,241,356,1.69523329,3.89947759,5.76335097,0.11690223,0.16609598,0.23342305
13037,0,USGeorgiaCalhoun,Georgia,Calhoun,2021-04-04 12:38:24.482930,2020-04-25 00:00:00.000000,3.01725589,5.89926565,8.35934996,186,365,517,103,237,352,1.67133547,3.83338377,5.69263937,0.10693421,0.16221111,0.23285508
13037,0,USGeorgiaCalhoun,Georgia,Calhoun,2021-04-04 12:38:24.482930,2020-04-26 00:00:00.000000,2.98131026,5.72101939,8.20364243,184,354,507,102,235,346,1.65130324,3.79941438,5.60058357,0.10146548,0.15815094,0.22022695
13037,0,USGeorgiaCalhoun,Georgia,Calhoun,2021-04-04 12:38:24.482930,2020-04-27 00:00:00.000000,2.92287141,5.61023255,8.05694625,180,347,498,101,228,340,1.63513465,3.68891893,5.49372965,0.10094988,0.15025486,0.21990505
13037,0,USGeorgiaCalhoun,Georgia,Calhoun,2021-04-04 12:38:24.482930,2020-04-28 00:00:00.000000,2.85843567,5.53825106,7.89154515,176,342,488,99,223,332,1.61255722,3.61578028,5.37627424,0.10141217,0.14759673,0.21965837
13037,0,USGeorgiaCalhoun,Georgia,Calhoun,2021-04-04 12:38:24.482930,2020-04-29 00:00:00.000000,2.77280355,5.37909602,7.69771368,171,332,476,98,218,325,1.58658987,3.53055133,5.25188521,0.10351231,0.14150528,0.21924540
13037,0,USGeorgiaCalhoun,Georgia,Calhoun,2021-04-04 12:38:24.482930,2020-04-30 00:00:00.000000,2.58589416,5.19096305,7.47642252,160,321,462,96,214,317,1.55881326,3.46230569,5.12300143,0.10544183,0.13724676,0.21670052
13037,0,USGeorgiaCalhoun,Georgia,Calhoun,2021-04-04 12:38:24.482930,2020-05-01 00:00:00.000000,2.41002670,5.00152344,7.23903178,149,309,448,94,208,308,1.53002495,3.37203986,4.99103105,0.09953506,0.13118572,0.21124659
13037,0,USGeorgiaCalhoun,Georgia,Calhoun,2021-04-04 12:38:24.482930,2020-05-02 00:00:00.000000,2.24605338,4.82487673,6.99378619,139,298,432,92,202,300,1.50047935,3.26535354,4.85658984,0.09468248,0.12590550,0.20575445
13037,0,USGeorgiaCalhoun,Georgia,Calhoun,2021-04-04 12:38:24.482930,2020-05-03 00:00:00.000000,2.17119370,4.64761620,6.75557775,134,287,418,90,196,292,1.46647385,3.17332453,4.71995891,0.09187267,0.12138807,0.20818442
13037,0,USGeorgiaCalhoun,Georgia,Calhoun,2021-04-04 12:38:24.482930,2020-05-04 00:00:00.000000,2.11773509,4.52906297,6.51655707,131,280,403,85,191,283,1.37690805,3.09494266,4.58161754,0.08486759,0.12134735,0.21222417
13037,0,USGeorgiaCalhoun,Georgia,Calhoun,2021-04-04 12:38:24.482930,2020-05-05 00:00:00.000000,2.05976017,4.40027407,6.22863229,127,272,385,82,186,274,1.33957842,3.01915090,4.44143613,0.08210361,0.12033967,0.21293943
13037,0,USGeorgiaCalhoun,Georgia,Calhoun,2021-04-04 12:38:24.482930,2020-05-06 00:00:00.000000,2.00050614,4.26367341,5.97464080,123,263,369,80,180,266,1.30758118,2.91317301,4.30073899,0.08155724,0.11794105,0.21437674
13037,0,USGeorgiaCalhoun,Georgia,Calhoun,2021-04-04 12:38:24.482930,2020-05-07 00:00:00.000000,1.94145171,4.07771219,5.76386105,120,252,356,79,173,257,1.27948701,2.80992767,4.16383834,0.08090730,0.11550832,0.21285957
13037,0,USGeorgiaCalhoun,Georgia,Calhoun,2021-04-04 12:38:24.482930,2020-05-08 00:00:00.000000,1.88332682,3.91069572,5.55609046,116,242,343,77,168,249,1.25431192,2.71710112,4.02329307,0.07988865,0.11169109,0.20824974
13037,0,USGeorgiaCalhoun,Georgia,Calhoun,2021-04-04 12:38:24.482930,2020-05-09 00:00:00.000000,1.82638666,3.80418591,5.32425127,113,235,329,76,162,240,1.23139108,2.61914016,3.88694443,0.07872095,0.11157678,0.20547862
13037,0,USGeorgiaCalhoun,Georgia,Calhoun,2021-04-04 12:38:24.482930,2020-05-10 00:00:00.000000,1.77050069,3.66671300,5.14186240,109,226,318,74,156,230,1.21026452,2.52653994,3.71766776,0.07884837,0.11218537,0.19539147
13037,0,USGeorgiaCalhoun,Georgia,Calhoun,2021-04-04 12:38:24.482930,2020-05-11 00:00:00.000000,1.70247723,3.56993547,4.94512291,105,220,306,73,149,221,1.18398481,2.42002564,3.57085607,0.07866220,0.11145792,0.18364175
13037,0,USGeorgiaCalhoun,Georgia,Calhoun,2021-04-04 12:38:24.482930,2020-05-12 00:00:00.000000,1.63548752,3.41719455,4.74736901,101,211,293,70,144,212,1.14425148,2.32985617,3.44027408,0.07741778,0.11226746,0.18060889
13037,0,USGeorgiaCalhoun,Georgia,Calhoun,2021-04-04 12:38:24.482930,2020-05-13 00:00:00.000000,1.56956144,3.26609605,4.55239956,97,202,281,68,140,205,1.09961433,2.27100880,3.31577273,0.07668344,0.11137149,0.18073576
13037,0,USGeorgiaCalhoun,Georgia,Calhoun,2021-04-04 12:38:24.482930,2020-05-14 00:00:00.000000,1.50542590,3.14062311,4.41474197,93,194,273,64,137,197,1.04947962,2.22266648,3.19631703,0.07601369,0.11357559,0.17827484
13037,0,USGeorgiaCalhoun,Georgia,Calhoun,2021-04-04 12:38:24.482930,2020-05-15 00:00:00.000000,1.44351980,3.04394263,4.31897396,89,188,267,62,133,191,1.00529677,2.15777357,3.08940484,0.07523555,0.11269869,0.17877377
13037,0,USGeorgiaCalhoun,Georgia,Calhoun,2021-04-04 12:38:24.482930,2020-05-16 00:00:00.000000,1.40672984,2.96466839,4.22964033,87,183,261,59,128,183,0.96619129,2.08047042,2.97020777,0.07472670,0.11134251,0.17684999
13037,0,USGeorgiaCalhoun,Georgia,Calhoun,2021-04-04 12:38:24.482930,2020-05-17 00:00:00.000000,1.37442200,2.86739143,4.14495867,85,177,256,57,123,176,0.93139657,1.99813766,2.85522279,0.07268344,0.10826006,0.16752155
13037,0,USGeorgiaCalhoun,Georgia,Calhoun,2021-04-04 12:38:24.482930,2020-05-18 00:00:00.000000,1.34182301,2.74523297,4.03843584,83,169,249,55,118,170,0.90027155,1.91851344,2.75565637,0.07246054,0.10850819,0.17913452
13037,0,USGeorgiaCalhoun,Georgia,Calhoun,2021-04-04 12:38:24.482930,2020-05-19 00:00:00.000000,1.31126860,2.63252643,3.90258449,81,162,241,53,114,166,0.86298505,1.84835320,2.69205013,0.07188496,0.10948342,0.17920015
13037,0,USGeorgiaCalhoun,Georgia,Calhoun,2021-04-04 12:38:24.482930,2020-05-20 00:00:00.000000,1.28245110,2.53947995,3.77456187,79,157,233,50,109,162,0.82241033,1.77652716,2.62786073,0.07420918,0.10816230,0.17907255
13037,0,USGeorgiaCalhoun,Georgia,Calhoun,2021-04-04 12:38:24.482930,2020-05-21 00:00:00.000000,1.25526609,2.44777653,3.65608071,77,151,226,49,105,158,0.79746629,1.70697342,2.56409553,0.07434997,0.11130641,0.17914277
13037,0,USGeorgiaCalhoun,Georgia,Calhoun,2021-04-04 12:38:24.482930,2020-05-22 00:00:00.000000,1.21293405,2.35724761,3.55026089,75,145,219,48,101,154,0.77950284,1.63687736,2.50122166,0.07442898,0.10722856,0.17951720
13037,0,USGeorgiaCalhoun,Georgia,Calhoun,2021-04-04 12:38:24.482930,2020-05-23 00:00:00.000000,1.14153352,2.28198073,3.46064559,70,141,214,47,97,150,0.76249302,1.58058095,2.42704746,0.07410678,0.10640425,0.18102701
13037,0,USGeorgiaCalhoun,Georgia,Calhoun,2021-04-04 12:38:24.482930,2020-05-24 00:00:00.000000,1.07463001,2.19224768,3.39061865,66,135,209,45,94,145,0.73825312,1.52465860,2.35443202,0.07214978,0.10831942,0.18044918
13037,0,USGeorgiaCalhoun,Georgia,Calhoun,2021-04-04 12:38:24.482930,2020-05-25 00:00:00.000000,1.12248129,2.12460651,3.31384313,69,131,205,44,90,141,0.71440935,1.45614141,2.28993684,0.06654563,0.10966846,0.19011708
13037,0,USGeorgiaCalhoun,Georgia,Calhoun,2021-04-04 12:38:24.482930,2020-05-26 00:00:00.000000,1.07604517,2.04243113,3.22770353,66,126,199,42,87,138,0.68662152,1.40731344,2.23064356,0.06712926,0.11171373,0.19177044
13037,0,USGeorgiaCalhoun,Georgia,Calhoun,2021-04-04 12:38:24.482930,2020-05-27 00:00:00.000000,1.03359808,1.99434830,3.13104957,63,123,193,40,84,134,0.65674070,1.36251084,2.17649321,0.06739044,0.11347273,0.19186293
13037,0,USGeorgiaCalhoun,Georgia,Calhoun,2021-04-04 12:38:24.482930,2020-05-28 00:00:00.000000,0.99478758,1.96223733,3.03609157,61,121,187,38,81,130,0.62638204,1.32096651,2.10928760,0.06783930,0.11447431,0.19192202
13037,0,USGeorgiaCalhoun,Georgia,Calhoun,2021-04-04 12:38:24.482930,2020-05-29 00:00:00.000000,0.95874077,1.95219057,2.92870679,59,120,181,36,80,126,0.59631436,1.30072196,2.04503225,0.06396293,0.11509998,0.19199712
13037,0,USGeorgiaCalhoun,Georgia,Calhoun,2021-04-04 12:38:24.482930,2020-05-30 00:00:00.000000,0.91741338,1.92236343,2.82252030,56,118,174,35,78,122,0.56684909,1.27511864,1.98444351,0.06507434,0.11474649,0.19216110
13037,0,USGeorgiaCalhoun,Georgia,Calhoun,2021-04-04 12:38:24.482930,2020-05-31 00:00:00.000000,0.88002396,1.84268902,2.81161949,54,114,174,33,77,118,0.53838565,1.25662016,1.92053564,0.06144801,0.11368687,0.19255766
13037,0,USGeorgiaCalhoun,Georgia,Calhoun,2021-04-04 12:38:24.482930,2020-06-01 00:00:00.000000,0.87422726,1.79859536,2.74972979,54,111,170,31,75,116,0.51115780,1.22674696,1.87637516,0.06157197,0.11372325,0.19378579
13037,0,USGeorgiaCalhoun,Georgia,Calhoun,2021-04-04 12:38:24.482930,2020-06-02 00:00:00.000000,0.87102454,1.79017945,2.69333550,53,110,166,31,73,113,0.50125989,1.19243512,1.82984125,0.06193628,0.11408343,0.19576761
13037,0,USGeorgiaCalhoun,Georgia,Calhoun,2021-04-04 12:38:24.482930,2020-06-03 00:00:00.000000,0.87042610,1.76773796,2.64064604,53,109,163,30,72,110,0.50084169,1.16708007,1.78709314,0.06264267,0.11296793,0.19744941
13037,0,USGeorgiaCalhoun,Georgia,Calhoun,2021-04-04 12:38:24.482930,2020-06-04 00:00:00.000000,0.89721072,1.71563987,2.60386212,55,106,161,31,70,108,0.50150861,1.14685921,1.75927641,0.06382071,0.11326488,0.19837368
13037,0,USGeorgiaCalhoun,Georgia,Calhoun,2021-04-04 12:38:24.482930,2020-06-05 00:00:00.000000,0.89609056,1.69912086,2.57702981,55,105,159,30,69,108,0.50082953,1.12457391,1.74649382,0.06073260,0.11439355,0.20431257
13037,0,USGeorgiaCalhoun,Georgia,Calhoun,2021-04-04 12:38:24.482930,2020-06-06 00:00:00.000000,0.89455162,1.68118021,2.57642840,55,104,159,30,68,107,0.49096405,1.10937641,1.73292870,0.06020232,0.11365681,0.20860332
13037,0,USGeorgiaCalhoun,Georgia,Calhoun,2021-04-04 12:38:24.482930,2020-06-07 00:00:00.000000,0.87531108,1.63759324,2.59416990,54,101,160,30,67,106,0.48983214,1.09586150,1.71886833,0.05953308,0.11455855,0.20880470
13037,0,USGeorgiaCalhoun,Georgia,Calhoun,2021-04-04 12:38:24.482930,2020-06-08 00:00:00.000000,0.86304027,1.59600722,2.52692836,53,98,156,31,65,105,0.51191175,1.06235607,1.70430692,0.05787254,0.11635161,0.20432153
13037,0,USGeorgiaCalhoun,Georgia,Calhoun,2021-04-04 12:38:24.482930,2020-06-09 00:00:00.000000,0.84029917,1.55868983,2.48362383,52,96,153,31,63,103,0.50967000,1.03325639,1.67672322,0.05549411,0.11657476,0.20348569
13037,0,USGeorgiaCalhoun,Georgia,Calhoun,2021-04-04 12:38:24.482930,2020-06-10 00:00:00.000000,0.82051595,1.52684391,2.51382651,50,94,155,31,62,101,0.50391316,1.00200925,1.64019196,0.05520297,0.11611968,0.20446453
13037,0,USGeorgiaCalhoun,Georgia,Calhoun,2021-04-04 12:38:24.482930,2020-06-11 00:00:00.000000,0.80345868,1.50808337,2.57867833,49,93,159,30,61,99,0.49587220,0.98629025,1.61278864,0.05494611,0.11743596,0.20373189
13037,0,USGeorgiaCalhoun,Georgia,Calhoun,2021-04-04 12:38:24.482930,2020-06-12 00:00:00.000000,0.78923896,1.48600093,2.59032444,48,91,160,30,60,98,0.48643932,0.97850624,1.59008745,0.05428950,0.11887349,0.20232612
13037,0,USGeorgiaCalhoun,Georgia,Calhoun,2021-04-04 12:38:24.482930,2020-06-13 00:00:00.000000,0.77749177,1.45929965,2.60941214,48,90,161,29,59,100,0.47612945,0.96788982,1.62537333,0.05367929,0.11864370,0.19991248
13037,0,USGeorgiaCalhoun,Georgia,Calhoun,2021-04-04 12:38:24.482930,2020-06-14 00:00:00.000000,0.76735797,1.43607518,2.65088047,47,88,164,28,60,99,0.46474619,0.98044298,1.61377369,0.05608699,0.11783329,0.19626136
13037,0,USGeorgiaCalhoun,Georgia,Calhoun,2021-04-04 12:38:24.482930,2020-06-15 00:00:00.000000,0.75061910,1.38931025,2.55882599,46,85,158,27,58,100,0.45215794,0.94831965,1.61912831,0.05707763,0.11824503,0.19569563
13037,0,USGeorgiaCalhoun,Georgia,Calhoun,2021-04-04 12:38:24.482930,2020-06-16 00:00:00.000000,0.72324361,1.37314718,2.53471123,44,84,156,27,57,99,0.43871792,0.92389721,1.61340560,0.05703542,0.11719345,0.18938484
13037,0,USGeorgiaCalhoun,Georgia,Calhoun,2021-04-04 12:38:24.482930,2020-06-17 00:00:00.000000,0.69147448,1.36990857,2.42727303,42,84,150,26,55,98,0.42489393,0.90044516,1.58751223,0.05660665,0.11686071,0.19508647
13037,0,USGeorgiaCalhoun,Georgia,Calhoun,2021-04-04 12:38:24.482930,2020-06-18 00:00:00.000000,0.66171780,1.35053060,2.31641822,40,83,143,25,55,95,0.41100959,0.89660795,1.54402537,0.05409214,0.11566259,0.20599586
13037,0,USGeorgiaCalhoun,Georgia,Calhoun,2021-04-04 12:38:24.482930,2020-06-19 00:00:00.000000,0.63454674,1.31952384,2.20661996,39,81,136,24,54,93,0.39728891,0.88396741,1.50358449,0.05411432,0.11526277,0.20951942
13037,0,USGeorgiaCalhoun,Georgia,Calhoun,2021-04-04 12:38:24.482930,2020-06-20 00:00:00.000000,0.61057757,1.27386311,2.16421639,37,78,133,23,53,91,0.38390737,0.86831551,1.47527619,0.05443433,0.11645270,0.20382306
13037,0,USGeorgiaCalhoun,Georgia,Calhoun,2021-04-04 12:38:24.482930,2020-06-21 00:00:00.000000,0.58938521,1.26038231,2.14900384,36,78,133,22,52,89,0.37099363,0.84634551,1.44537440,0.05744475,0.11593586,0.19515697
13037,0,USGeorgiaCalhoun,Georgia,Calhoun,2021-04-04 12:38:24.482930,2020-06-22 00:00:00.000000,0.59007826,1.22615737,2.07727538,36,75,128,22,50,86,0.35863041,0.82351056,1.39385556,0.05731223,0.11593122,0.19297129
13037,0,USGeorgiaCalhoun,Georgia,Calhoun,2021-04-04 12:38:24.482930,2020-06-23 00:00:00.000000,0.58495017,1.18486176,2.00424374,36,73,124,21,49,82,0.34840409,0.79449092,1.33698827,0.05720223,0.11529011,0.19966000
13037,0,USGeorgiaCalhoun,Georgia,Calhoun,2021-04-04 12:38:24.482930,2020-06-24 00:00:00.000000,0.57470798,1.17104968,1.92969734,35,72,119,21,48,80,0.33976588,0.77913512,1.30293560,0.05713107,0.11591030,0.20423988
13037,0,USGeorgiaCalhoun,Georgia,Calhoun,2021-04-04 12:38:24.482930,2020-06-25 00:00:00.000000,0.56527338,1.19198319,1.85537469,34,73,114,20,47,78,0.33232579,0.76632862,1.26406995,0.05796263,0.11585967,0.20765744
13037,0,USGeorgiaCalhoun,Georgia,Calhoun,2021-04-04 12:38:24.482930,2020-06-26 00:00:00.000000,0.55599427,1.19908449,1.78833844,34,74,110,20,47,76,0.32577248,0.76078290,1.24071448,0.05889803,0.11496903,0.21056946
13037,0,USGeorgiaCalhoun,Georgia,Calhoun,2021-04-04 12:38:24.482930,2020-06-27 00:00:00.000000,0.54595295,1.18535875,1.79360299,33,73,111,19,47,75,0.31977928,0.76613696,1.21963881,0.05903882,0.11490218,0.21335381
13037,0,USGeorgiaCalhoun,Georgia,Calhoun,2021-04-04 12:38:24.482930,2020-06-28 00:00:00.000000,0.53714956,1.17146540,1.79762040,33,72,111,19,47,73,0.31456477,0.76003645,1.19289589,0.06001837,0.11575734,0.21627205
13037,0,USGeorgiaCalhoun,Georgia,Calhoun,2021-04-04 12:38:24.482930,2020-06-29 00:00:00.000000,0.54686936,1.17506917,1.79452102,33,72,111,19,45,72,0.32025699,0.73987774,1.17096401,0.06086107,0.12055941,0.21962718
13037,0,USGeorgiaCalhoun,Georgia,Calhoun,2021-04-04 12:38:24.482930,2020-06-30 00:00:00.000000,0.53829618,1.15619046,1.78846563,33,71,110,20,45,71,0.32606503,0.72819882,1.15364780,0.06137894,0.12337423,0.22388752
13037,0,USGeorgiaCalhoun,Georgia,Calhoun,2021-04-04 12:38:24.482930,2020-07-01 00:00:00.000000,0.52949464,1.13829242,1.77882395,32,70,110,20,44,70,0.33189966,0.72261042,1.13919163,0.06166824,0.12644747,0.22976667
13037,0,USGeorgiaCalhoun,Georgia,Calhoun,2021-04-04 12:38:24.482930,2020-07-02 00:00:00.000000,0.52185722,1.11595219,1.76577662,32,69,109,20,44,69,0.33769523,0.71325296,1.12626233,0.06180303,0.12691762,0.21866500
13037,0,USGeorgiaCalhoun,Georgia,Calhoun,2021-04-04 12:38:24.482930,2020-07-03 00:00:00.000000,0.51506044,1.10393924,1.76901350,31,68,109,21,44,68,0.33955005,0.71298272,1.11378004,0.05637645,0.12409713,0.21475092
13037,0,USGeorgiaCalhoun,Georgia,Calhoun,2021-04-04 12:38:24.482930,2020-07-04 00:00:00.000000,0.50888161,1.08113176,1.77184231,31,66,109,20,44,68,0.33899802,0.71881775,1.10084850,0.05453539,0.12382336,0.22165978
13037,0,USGeorgiaCalhoun,Georgia,Calhoun,2021-04-04 12:38:24.482930,2020-07-05 00:00:00.000000,0.50248793,1.05778443,1.74387179,31,65,107,20,43,68,0.33404996,0.71056269,1.10213767,0.05392936,0.12787546,0.22740092
13037,0,USGeorgiaCalhoun,Georgia,Calhoun,2021-04-04 12:38:24.482930,2020-07-06 00:00:00.000000,0.49829335,1.03968392,1.75374631,30,64,108,20,43,68,0.32963225,0.70072709,1.11321537,0.05356547,0.12959044,0.23245132
13037,0,USGeorgiaCalhoun,Georgia,Calhoun,2021-04-04 12:38:24.482930,2020-07-07 00:00:00.000000,0.49371767,1.03225022,1.79576570,30,63,111,20,43,69,0.32573491,0.69677182,1.12650342,0.05346072,0.13006758,0.23725161
13037,0,USGeorgiaCalhoun,Georgia,Calhoun,2021-04-04 12:38:24.482930,2020-07-08 00:00:00.000000,0.48942550,1.03354707,1.83914246,30,63,113,19,42,70,0.32222597,0.68849959,1.14215734,0.05342768,0.13081035,0.24222805
13037,0,USGeorgiaCalhoun,Georgia,Calhoun,2021-04-04 12:38:24.482930,2020-07-09 00:00:00.000000,0.48535074,1.02829968,1.88232410,30,63,116,19,41,71,0.31901323,0.66943144,1.15525618,0.05339036,0.13026642,0.24769664
13037,0,USGeorgiaCalhoun,Georgia,Calhoun,2021-04-04 12:38:24.482930,2020-07-10 00:00:00.000000,0.48144492,1.02874451,1.86353584,29,63,115,19,40,71,0.31602895,0.65996603,1.14912121,0.05332975,0.12990289,0.25357819
13037,0,USGeorgiaCalhoun,Georgia,Calhoun,2021-04-04 12:38:24.482930,2020-07-11 00:00:00.000000,0.47768218,1.04662045,1.87754643,29,64,116,19,40,71,0.31322277,0.65678720,1.14749936,0.05354542,0.13026482,0.25933553
13037,0,USGeorgiaCalhoun,Georgia,Calhoun,2021-04-04 12:38:24.482930,2020-07-12 00:00:00.000000,0.47405932,1.06717353,1.91541838,29,66,118,19,40,71,0.31055992,0.65902324,1.15781441,0.05768323,0.13014655,0.26427926
13037,0,USGeorgiaCalhoun,Georgia,Calhoun,2021-04-04 12:38:24.482930,2020-07-13 00:00:00.000000,0.48391563,1.09589836,1.93207967,29,67,119,19,41,72,0.30802057,0.67211421,1.16743349,0.05758416,0.13016516,0.26790058
13037,0,USGeorgiaCalhoun,Georgia,Calhoun,2021-04-04 12:38:24.482930,2020-07-14 00:00:00.000000,0.49393566,1.11281300,1.94774319,30,68,120,19,41,71,0.30955528,0.67786662,1.16077035,0.05728639,0.13074756,0.26976969
13037,0,USGeorgiaCalhoun,Georgia,Calhoun,2021-04-04 12:38:24.482930,2020-07-15 00:00:00.000000,0.49416351,1.13581573,1.91222890,30,70,118,19,42,72,0.30928905,0.69086055,1.17435745,0.05648560,0.12881082,0.27983091
13037,0,USGeorgiaCalhoun,Georgia,Calhoun,2021-04-04 12:38:24.482930,2020-07-16 00:00:00.000000,0.47628483,1.16238983,1.87655784,29,71,116,18,43,73,0.30642606,0.69640430,1.18962259,0.05489487,0.13111609,0.27834586
13037,0,USGeorgiaCalhoun,Georgia,Calhoun,2021-04-04 12:38:24.482930,2020-07-17 00:00:00.000000,0.47967171,1.18672503,1.87674454,29,73,116,18,43,74,0.30362989,0.70625754,1.20547680,0.05304817,0.13268490,0.26140858
13037,0,USGeorgiaCalhoun,Georgia,Calhoun,2021-04-04 12:38:24.482930,2020-07-18 00:00:00.000000,0.48198831,1.20367532,1.91046210,29,74,118,18,44,75,0.29362195,0.71612208,1.22125033,0.05190080,0.13388855,0.25122653
13037,0,USGeorgiaCalhoun,Georgia,Calhoun,2021-04-04 12:38:24.482930,2020-07-19 00:00:00.000000,0.47895251,1.20362171,2.02244550,29,74,125,17,45,77,0.28131770,0.73546129,1.25116201,0.05157570,0.13399343,0.24705476
13037,0,USGeorgiaCalhoun,Georgia,Calhoun,2021-04-04 12:38:24.482930,2020-07-20 00:00:00.000000,0.50554634,1.22724333,2.03208325,31,75,125,16,45,81,0.26982062,0.73674616,1.31619675,0.05173888,0.13483876,0.24585971
13037,0,USGeorgiaCalhoun,Georgia,Calhoun,2021-04-04 12:38:24.482930,2020-07-21 00:00:00.000000,0.52228075,1.26890177,2.03813232,32,78,126,17,46,83,0.29028622,0.75923013,1.34142472,0.05223309,0.13402557,0.24533311
13037,0,USGeorgiaCalhoun,Georgia,Calhoun,2021-04-04 12:38:24.482930,2020-07-22 00:00:00.000000,0.54055699,1.30796588,2.07005965,33,80,128,20,47,84,0.32870664,0.77172538,1.36722946,0.05370167,0.13654148,0.25014996
13037,0,USGeorgiaCalhoun,Georgia,Calhoun,2021-04-04 12:38:24.482930,2020-07-23 00:00:00.000000,0.59098185,1.32273029,2.11244227,36,81,130,20,48,86,0.32980249,0.78344252,1.39334192,0.05932042,0.13693236,0.25732288
13037,0,USGeorgiaCalhoun,Georgia,Calhoun,2021-04-04 12:38:24.482930,2020-07-24 00:00:00.000000,0.58584207,1.35501582,2.15149510,36,83,133,19,49,87,0.32135726,0.80683274,1.41944385,0.06287997,0.13799546,0.26569553
13037,0,USGeorgiaCalhoun,Georgia,Calhoun,2021-04-04 12:38:24.482930,2020-07-25 00:00:00.000000,0.58832800,1.37074650,2.18846390,36,84,135,19,51,89,0.31248111,0.82628107,1.44481231,0.06197640,0.13756434,0.26996127
13037,0,USGeorgiaCalhoun,Georgia,Calhoun,2021-04-04 12:38:24.482930,2020-07-26 00:00:00.000000,0.57833997,1.38657457,2.24425057,35,85,138,20,51,89,0.33249146,0.83799753,1.45165149,0.06240934,0.13634791,0.27705285
13037,0,USGeorgiaCalhoun,Georgia,Calhoun,2021-04-04 12:38:24.482930,2020-07-27 00:00:00.000000,0.63752343,1.38309202,2.27157132,39,85,140,21,53,89,0.35510349,0.85825321,1.43889050,0.06409807,0.13816783,0.28344717
13037,0,USGeorgiaCalhoun,Georgia,Calhoun,2021-04-04 12:38:24.482930,2020-07-28 00:00:00.000000,0.70601770,1.40660188,2.33066624,43,87,144,22,54,88,0.36825205,0.87385773,1.43529018,0.06489288,0.13933932,0.28413146
13037,0,USGeorgiaCalhoun,Georgia,Calhoun,2021-04-04 12:38:24.482930,2020-07-29 00:00:00.000000,0.75951874,1.40788320,2.39832622,47,87,148,24,53,88,0.38847466,0.86557748,1.43713480,0.06495213,0.14133504,0.28412843
13037,0,USGeorgiaCalhoun,Georgia,Calhoun,2021-04-04 12:38:24.482930,2020-07-30 00:00:00.000000,0.80415590,1.41284427,2.45545660,49,87,151,25,54,89,0.41970686,0.87808566,1.44532293,0.06445395,0.14630430,0.28411974
13037,0,USGeorgiaCalhoun,Georgia,Calhoun,2021-04-04 12:38:24.482930,2020-07-31 00:00:00.000000,0.81061774,1.40136524,2.46670838,50,86,152,27,54,91,0.43715111,0.88255380,1.47817299,0.06378383,0.14548852,0.28441328
13037,0,USGeorgiaCalhoun,Georgia,Calhoun,2021-04-04 12:38:24.482930,2020-08-01 00:00:00.000000,0.81198327,1.39528019,2.47645985,50,86,153,27,54,93,0.43859893,0.88086975,1.51769371,0.06332453,0.14540594,0.28205992
13037,0,USGeorgiaCalhoun,Georgia,Calhoun,2021-04-04 12:38:24.482930,2020-08-02 00:00:00.000000,0.81370113,1.38815603,2.48528374,50,85,153,27,54,96,0.44352596,0.87544035,1.55754108,0.06311221,0.14520673,0.26892395
13037,0,USGeorgiaCalhoun,Georgia,Calhoun,2021-04-04 12:38:24.482930,2020-08-03 00:00:00.000000,0.80301703,1.39677353,2.58349151,49,86,159,28,54,97,0.45784716,0.87782025,1.56791547,0.06303353,0.14676725,0.26031221
13037,0,USGeorgiaCalhoun,Georgia,Calhoun,2021-04-04 12:38:24.482930,2020-08-04 00:00:00.000000,0.86757278,1.40510410,2.66448145,53,86,164,29,54,98,0.47186673,0.88851652,1.59496523,0.06300553,0.14840191,0.24539513
13037,0,USGeorgiaCalhoun,Georgia,Calhoun,2021-04-04 12:38:24.482930,2020-08-05 00:00:00.000000,0.87865774,1.40172726,2.65724062,54,86,164,30,55,101,0.50002312,0.89539100,1.63481327,0.06293502,0.14774325,0.23144397
13037,0,USGeorgiaCalhoun,Georgia,Calhoun,2021-04-04 12:38:24.482930,2020-08-06 00:00:00.000000,0.88946724,1.40479479,2.64718082,55,86,163,32,55,102,0.51846798,0.89829232,1.65060496,0.06651532,0.14360516,0.23764484
13037,0,USGeorgiaCalhoun,Georgia,Calhoun,2021-04-04 12:38:24.482930,2020-08-07 00:00:00.000000,0.86196249,1.42742351,2.63549208,53,88,163,33,55,102,0.53815345,0.89656717,1.65505470,0.07073857,0.14297573,0.24215784
13037,0,USGeorgiaCalhoun,Georgia,Calhoun,2021-04-04 12:38:24.482930,2020-08-08 00:00:00.000000,0.83303882,1.41526472,2.62261496,51,87,162,32,55,102,0.52941556,0.89548210,1.65557599,0.07306332,0.14192072,0.24195520
13037,0,USGeorgiaCalhoun,Georgia,Calhoun,2021-04-04 12:38:24.482930,2020-08-09 00:00:00.000000,0.80514724,1.40984403,2.60702125,49,87,161,32,55,102,0.52055780,0.90372716,1.65312395,0.07415460,0.14194356,0.22745248
13037,0,USGeorgiaCalhoun,Georgia,Calhoun,2021-04-04 12:38:24.482930,2020-08-10 00:00:00.000000,0.77713049,1.41171058,2.59900463,48,87,160,31,55,101,0.51073849,0.90238952,1.64805891,0.07490268,0.14187476,0.21695938
13037,0,USGeorgiaCalhoun,Georgia,Calhoun,2021-04-04 12:38:24.482930,2020-08-11 00:00:00.000000,0.78703106,1.41091627,2.59026284,48,87,160,30,55,101,0.49489398,0.89007887,1.64311603,0.07442961,0.14142890,0.21708883
13037,0,USGeorgiaCalhoun,Georgia,Calhoun,2021-04-04 12:38:24.482930,2020-08-12 00:00:00.000000,0.80133234,1.38642138,2.58162681,49,85,159,30,54,101,0.48606298,0.88333969,1.63812677,0.07368834,0.13735212,0.21708571
13037,0,USGeorgiaCalhoun,Georgia,Calhoun,2021-04-04 12:38:24.482930,2020-08-13 00:00:00.000000,0.78804775,1.36112953,2.57402819,48,84,159,30,54,101,0.48629448,0.88035724,1.63309879,0.07285902,0.13581840,0.21845517
13037,0,USGeorgiaCalhoun,Georgia,Calhoun,2021-04-04 12:38:24.482930,2020-08-14 00:00:00.000000,0.77670561,1.34825501,2.56867714,48,83,158,29,54,100,0.47786633,0.88337805,1.62824971,0.07191596,0.13475108,0.21664135
13037,0,USGeorgiaCalhoun,Georgia,Calhoun,2021-04-04 12:38:24.482930,2020-08-15 00:00:00.000000,0.76685726,1.36312728,2.51969519,47,84,155,29,53,100,0.47003863,0.87185417,1.62399121,0.07092788,0.13378915,0.21922585
13037,0,USGeorgiaCalhoun,Georgia,Calhoun,2021-04-04 12:38:24.482930,2020-08-16 00:00:00.000000,0.74350555,1.37352099,2.41977692,46,85,149,28,52,100,0.46290077,0.85546813,1.62082395,0.07011035,0.13106833,0.22123767
13037,0,USGeorgiaCalhoun,Georgia,Calhoun,2021-04-04 12:38:24.482930,2020-08-17 00:00:00.000000,0.72128596,1.35037394,2.34137805,44,83,144,27,53,99,0.44969933,0.87113640,1.60549120,0.06941459,0.13149615,0.22161705
13037,0,USGeorgiaCalhoun,Georgia,Calhoun,2021-04-04 12:38:24.482930,2020-08-18 00:00:00.000000,0.70159189,1.32192585,2.26685390,43,81,140,26,52,96,0.43092750,0.85583480,1.55261317,0.06886431,0.13687743,0.22483049
13037,0,USGeorgiaCalhoun,Georgia,Calhoun,2021-04-04 12:38:24.482930,2020-08-19 00:00:00.000000,0.68432915,1.29894267,2.19663943,42,80,135,25,52,92,0.41535304,0.84804060,1.50211258,0.06865735,0.13681131,0.22924621
13037,0,USGeorgiaCalhoun,Georgia,Calhoun,2021-04-04 12:38:24.482930,2020-08-20 00:00:00.000000,0.66899561,1.26948730,2.13041513,41,78,131,24,52,89,0.40220288,0.84135024,1.45403151,0.06854350,0.13683535,0.23057523
13037,0,USGeorgiaCalhoun,Georgia,Calhoun,2021-04-04 12:38:24.482930,2020-08-21 00:00:00.000000,0.65542653,1.22306143,2.09164200,40,75,129,24,51,87,0.39091323,0.82887633,1.40864812,0.07089583,0.13868362,0.23044283
13037,0,USGeorgiaCalhoun,Georgia,Calhoun,2021-04-04 12:38:24.482930,2020-08-22 00:00:00.000000,0.64323751,1.20574617,2.09489072,39,74,129,23,49,85,0.38106424,0.80637881,1.37912252,0.07394555,0.14088392,0.22922832
13037,0,USGeorgiaCalhoun,Georgia,Calhoun,2021-04-04 12:38:24.482930,2020-08-23 00:00:00.000000,0.63668366,1.19059753,2.10935900,39,73,130,23,48,85,0.37843705,0.78365523,1.38740896,0.07514783,0.14050048,0.22278423
13037,0,USGeorgiaCalhoun,Georgia,Calhoun,2021-04-04 12:38:24.482930,2020-08-24 00:00:00.000000,0.63795289,1.18276472,2.06637828,39,73,127,23,47,83,0.38483645,0.77422142,1.34395898,0.07311421,0.14037367,0.22343091
13037,0,USGeorgiaCalhoun,Georgia,Calhoun,2021-04-04 12:38:24.482930,2020-08-25 00:00:00.000000,0.63875510,1.17200654,2.02254869,39,72,125,23,47,82,0.38524057,0.76784456,1.33671653,0.07175929,0.14203382,0.22348306
13037,0,USGeorgiaCalhoun,Georgia,Calhoun,2021-04-04 12:38:24.482930,2020-08-26 00:00:00.000000,0.62386223,1.16128230,1.97732791,38,71,122,23,47,83,0.37286722,0.75964605,1.34177734,0.07092407,0.14031291,0.22422487
13037,0,USGeorgiaCalhoun,Georgia,Calhoun,2021-04-04 12:38:24.482930,2020-08-27 00:00:00.000000,0.59225844,1.14598917,1.93233790,36,70,119,21,46,83,0.35412973,0.75053070,1.34215976,0.07055977,0.14077780,0.25061875
13037,0,USGeorgiaCalhoun,Georgia,Calhoun,2021-04-04 12:38:24.482930,2020-08-28 00:00:00.000000,0.56287494,1.14401883,1.88868006,34,70,116,20,45,81,0.33626926,0.73299167,1.31885416,0.07147810,0.14171810,0.25685784
13037,0,USGeorgiaCalhoun,Georgia,Calhoun,2021-04-04 12:38:24.482930,2020-08-29 00:00:00.000000,0.54219864,1.13361576,1.84652246,33,70,114,20,45,79,0.32462155,0.72824768,1.29141686,0.07943175,0.14308672,0.26148680
13037,0,USGeorgiaCalhoun,Georgia,Calhoun,2021-04-04 12:38:24.482930,2020-08-30 00:00:00.000000,0.52992895,1.12431602,1.81668889,32,69,112,19,44,78,0.31576999,0.72407206,1.26373595,0.07983537,0.14411932,0.26393179
13037,0,USGeorgiaCalhoun,Georgia,Calhoun,2021-04-04 12:38:24.482930,2020-08-31 00:00:00.000000,0.52545283,1.10510070,1.77305608,32,68,109,19,44,76,0.30732070,0.71943411,1.23630699,0.07722760,0.14658736,0.26460547
13037,0,USGeorgiaCalhoun,Georgia,Calhoun,2021-04-04 12:38:24.482930,2020-09-01 00:00:00.000000,0.56562846,1.08446974,1.74613127,35,67,108,19,44,74,0.31184379,0.71975472,1.20878505,0.07625142,0.14756911,0.26365571
13037,0,USGeorgiaCalhoun,Georgia,Calhoun,2021-04-04 12:38:24.482930,2020-09-02 00:00:00.000000,0.59778338,1.06371832,1.74159163,36,65,107,20,44,73,0.32464478,0.71665176,1.18152463,0.07604697,0.14999169,0.25703201
13037,0,USGeorgiaCalhoun,Georgia,Calhoun,2021-04-04 12:38:24.482930,2020-09-03 00:00:00.000000,0.58449961,1.06937258,1.73651449,36,66,107,21,43,71,0.34251588,0.70254640,1.15473963,0.07606884,0.15153558,0.24931175
13037,0,USGeorgiaCalhoun,Georgia,Calhoun,2021-04-04 12:38:24.482930,2020-09-04 00:00:00.000000,0.57188130,1.06530711,1.72942016,35,65,107,22,42,70,0.36331101,0.68807146,1.13502314,0.07620407,0.15268101,0.25456375
13037,0,USGeorgiaCalhoun,Georgia,Calhoun,2021-04-04 12:38:24.482930,2020-09-05 00:00:00.000000,0.56000159,1.05415961,1.76098996,34,65,108,22,41,69,0.35935896,0.67505114,1.13058687,0.07643946,0.15663758,0.24981389
13037,0,USGeorgiaCalhoun,Georgia,Calhoun,2021-04-04 12:38:24.482930,2020-09-06 00:00:00.000000,0.54889779,1.04598676,1.79643083,33,64,111,21,41,69,0.35180374,0.66889785,1.12562256,0.07560257,0.15920652,0.25087399
13037,0,USGeorgiaCalhoun,Georgia,Calhoun,2021-04-04 12:38:24.482930,2020-09-07 00:00:00.000000,0.52555476,1.06113184,1.76903331,32,65,109,21,41,69,0.34461979,0.66423117,1.12857412,0.07488938,0.16085917,0.25802435
13037,0,USGeorgiaCalhoun,Georgia,Calhoun,2021-04-04 12:38:24.482930,2020-09-08 00:00:00.000000,0.59385263,1.07262617,1.82755395,36,66,113,20,41,69,0.33387563,0.66376873,1.12887097,0.07580579,0.16151485,0.26837137
13037,0,USGeorgiaCalhoun,Georgia,Calhoun,2021-04-04 12:38:24.482930,2020-09-09 00:00:00.000000,0.60760228,1.07187626,1.82664864,37,66,113,19,41,71,0.32134960,0.66501260,1.14743422,0.08010844,0.15919098,0.26917456
13037,0,USGeorgiaCalhoun,Georgia,Calhoun,2021-04-04 12:38:24.482930,2020-09-10 00:00:00.000000,0.59627226,1.07377269,1.77727248,36,66,109,19,41,72,0.30893217,0.67101593,1.17268952,0.08143229,0.15991253,0.27492298
13037,0,USGeorgiaCalhoun,Georgia,Calhoun,2021-04-04 12:38:24.482930,2020-09-11 00:00:00.000000,0.58581568,1.08620252,1.73092331,36,67,107,21,41,72,0.34086553,0.67744891,1.17884634,0.08205103,0.16179556,0.28173971
13037,0,USGeorgiaCalhoun,Georgia,Calhoun,2021-04-04 12:38:24.482930,2020-09-12 00:00:00.000000,0.57232312,1.09622816,1.68848399,35,67,104,22,41,71,0.36008059,0.67069793,1.14923482,0.08282524,0.16136533,0.29658521
13037,0,USGeorgiaCalhoun,Georgia,Calhoun,2021-04-04 12:38:24.482930,2020-09-13 00:00:00.000000,0.55608658,1.10702874,1.65878042,34,68,102,21,41,70,0.35346053,0.67667780,1.13768898,0.08390667,0.16516393,0.31470070
13037,0,USGeorgiaCalhoun,Georgia,Calhoun,2021-04-04 12:38:24.482930,2020-09-14 00:00:00.000000,0.57728456,1.14816902,1.65216144,35,71,102,21,42,70,0.34774383,0.68502455,1.14514295,0.09076372,0.16630157,0.32929811
13037,0,USGeorgiaCalhoun,Georgia,Calhoun,2021-04-04 12:38:24.482930,2020-09-15 00:00:00.000000,0.58827870,1.15805577,1.68667444,36,71,104,21,42,71,0.34663847,0.69401828,1.14770505,0.09486194,0.16916959,0.32966113
13037,0,USGeorgiaCalhoun,Georgia,Calhoun,2021-04-04 12:38:24.482930,2020-09-16 00:00:00.000000,0.60176253,1.15672742,1.75889261,37,71,108,21,43,70,0.34888150,0.70822360,1.14530437,0.09851814,0.17104622,0.32851818
13037,0,USGeorgiaCalhoun,Georgia,Calhoun,2021-04-04 12:38:24.482930,2020-09-17 00:00:00.000000,0.61441896,1.16426150,1.74668181,38,72,108,21,44,70,0.35364285,0.71220793,1.13517403,0.10296819,0.17954957,0.32569090
13037,0,USGeorgiaCalhoun,Georgia,Calhoun,2021-04-04 12:38:24.482930,2020-09-18 00:00:00.000000,0.61231640,1.18460458,1.73667245,37,73,107,22,44,69,0.36041897,0.72407228,1.12541512,0.10329310,0.19183311,0.32110538
13037,0,USGeorgiaCalhoun,Georgia,Calhoun,2021-04-04 12:38:24.482930,2020-09-19 00:00:00.000000,0.59812604,1.21495201,1.79491309,37,75,111,22,45,69,0.36890723,0.73347269,1.11644592,0.10074503,0.19767544,0.32668073
13037,0,USGeorgiaCalhoun,Georgia,Calhoun,2021-04-04 12:38:24.482930,2020-09-20 00:00:00.000000,0.59038417,1.23392191,1.90657933,36,76,117,23,45,70,0.37664406,0.74055274,1.13695020,0.09935816,0.20136985,0.32885768
13037,0,USGeorgiaCalhoun,Georgia,Calhoun,2021-04-04 12:38:24.482930,2020-09-21 00:00:00.000000,0.62479205,1.25137492,1.91156031,38,77,118,22,47,70,0.36955964,0.76173104,1.14254706,0.09895523,0.20401860,0.32907684
13037,0,USGeorgiaCalhoun,Georgia,Calhoun,2021-04-04 12:38:24.482930,2020-09-22 00:00:00.000000,0.65981122,1.25734366,1.92534719,40,77,119,22,47,71,0.36241014,0.77110775,1.15378662,0.09896352,0.20324762,0.34341042
13037,0,USGeorgiaCalhoun,Georgia,Calhoun,2021-04-04 12:38:24.482930,2020-09-23 00:00:00.000000,0.69652789,1.28029555,1.91674406,43,79,118,23,48,72,0.37243741,0.78298942,1.17798896,0.09926850,0.20439550,0.35763278
13037,0,USGeorgiaCalhoun,Georgia,Calhoun,2021-04-04 12:38:24.482930,2020-09-24 00:00:00.000000,0.71607662,1.30150591,1.93881384,44,80,119,24,49,74,0.38933802,0.79513944,1.20279204,0.09981145,0.20658387,0.36481442
13037,0,USGeorgiaCalhoun,Georgia,Calhoun,2021-04-04 12:38:24.482930,2020-09-25 00:00:00.000000,0.71352891,1.31239903,1.97000872,44,81,121,23,49,76,0.38688965,0.80604331,1.23019402,0.10030659,0.20806093,0.37037433
13037,0,USGeorgiaCalhoun,Georgia,Calhoun,2021-04-04 12:38:24.482930,2020-09-26 00:00:00.000000,0.71134664,1.35978523,2.01521401,44,84,124,23,50,76,0.38487442,0.81768917,1.24201277,0.10056019,0.21301051,0.36235646
13037,0,USGeorgiaCalhoun,Georgia,Calhoun,2021-04-04 12:38:24.482930,2020-09-27 00:00:00.000000,0.70943482,1.38800166,2.07907033,43,85,128,23,50,78,0.38319633,0.82193896,1.26348552,0.10064715,0.22299214,0.35637248
13037,0,USGeorgiaCalhoun,Georgia,Calhoun,2021-04-04 12:38:24.482930,2020-09-28 00:00:00.000000,0.68774899,1.43388099,2.10548868,42,88,130,23,51,79,0.38177778,0.83604722,1.28663644,0.10064769,0.22961267,0.35407569
13037,0,USGeorgiaCalhoun,Georgia,Calhoun,2021-04-04 12:38:24.482930,2020-09-29 00:00:00.000000,0.66621443,1.47387441,2.12776696,41,91,131,23,52,80,0.37647186,0.85313017,1.30574355,0.10056662,0.23416650,0.35353529
13037,0,USGeorgiaCalhoun,Georgia,Calhoun,2021-04-04 12:38:24.482930,2020-09-30 00:00:00.000000,0.71271127,1.47639239,2.14733044,44,91,132,22,54,82,0.36868792,0.87600215,1.33313986,0.09792030,0.23486998,0.35658346
13037,0,USGeorgiaCalhoun,Georgia,Calhoun,2021-04-04 12:38:24.482930,2020-10-01 00:00:00.000000,0.71617671,1.49382263,2.17741241,44,92,134,23,55,83,0.38671603,0.89067813,1.34893592,0.09832201,0.23458620,0.36305650
13037,0,USGeorgiaCalhoun,Georgia,Calhoun,2021-04-04 12:38:24.482930,2020-10-02 00:00:00.000000,0.71046824,1.51188173,2.20693531,43,93,136,23,55,84,0.38419302,0.90423493,1.36308215,0.09969967,0.23835817,0.37934905
13037,0,USGeorgiaCalhoun,Georgia,Calhoun,2021-04-04 12:38:24.482930,2020-10-03 00:00:00.000000,0.75691306,1.52882968,2.23577831,46,94,138,24,56,85,0.40378419,0.91846509,1.37841389,0.09927604,0.25040509,0.37735604
13037,0,USGeorgiaCalhoun,Georgia,Calhoun,2021-04-04 12:38:24.482930,2020-10-04 00:00:00.000000,0.77127808,1.55704502,2.26441503,47,96,140,26,57,86,0.43370107,0.93338713,1.39909830,0.09889407,0.26341360,0.40213380
13037,0,USGeorgiaCalhoun,Georgia,Calhoun,2021-04-04 12:38:24.482930,2020-10-05 00:00:00.000000,0.77427706,1.58464708,2.28272473,47,98,141,28,58,88,0.45692288,0.94614398,1.42195113,0.10119097,0.26674338,0.44361801
13037,0,USGeorgiaCalhoun,Georgia,Calhoun,2021-04-04 12:38:24.482930,2020-10-06 00:00:00.000000,0.76829007,1.64399117,2.33882349,47,101,144,28,59,90,0.45725946,0.96875868,1.46280114,0.10651598,0.27007396,0.45612342
13037,0,USGeorgiaCalhoun,Georgia,Calhoun,2021-04-04 12:38:24.482930,2020-10-07 00:00:00.000000,0.76266427,1.68717714,2.45895886,47,104,152,28,60,93,0.45558868,0.98270512,1.51514980,0.10643685,0.27462032,0.46399933
13037,0,USGeorgiaCalhoun,Georgia,Calhoun,2021-04-04 12:38:24.482930,2020-10-08 00:00:00.000000,0.78436844,1.75320869,2.61070315,48,108,161,28,61,97,0.45289949,0.99662079,1.57642246,0.10726077,0.27889431,0.46230420
13037,0,USGeorgiaCalhoun,Georgia,Calhoun,2021-04-04 12:38:24.482930,2020-10-09 00:00:00.000000,0.80657689,1.81524748,2.75210743,49,112,170,27,63,101,0.44986934,1.03296038,1.64388017,0.11088775,0.28564418,0.46187847
13037,0,USGeorgiaCalhoun,Georgia,Calhoun,2021-04-04 12:38:24.482930,2020-10-10 00:00:00.000000,0.82927584,1.86358106,2.88805280,51,115,178,27,66,106,0.44714775,1.06798266,1.71591084,0.11864281,0.30425488,0.44944816
13037,0,USGeorgiaCalhoun,Georgia,Calhoun,2021-04-04 12:38:24.482930,2020-10-11 00:00:00.000000,0.83607383,1.90396862,3.02489301,51,117,187,27,68,111,0.44548056,1.10501477,1.79536193,0.12402944,0.30736796,0.48138075
13037,0,USGeorgiaCalhoun,Georgia,Calhoun,2021-04-04 12:38:24.482930,2020-10-12 00:00:00.000000,0.85792787,1.95808337,3.13067042,53,121,193,27,71,116,0.44547158,1.14842162,1.88661001,0.12560271,0.31597887,0.49057812
13037,0,USGeorgiaCalhoun,Georgia,Calhoun,2021-04-04 12:38:24.482930,2020-10-13 00:00:00.000000,0.86981387,2.06950055,3.23660302,53,128,200,28,73,122,0.45413628,1.18457546,1.97473635,0.12596526,0.31960155,0.49627127
13037,0,USGeorgiaCalhoun,Georgia,Calhoun,2021-04-04 12:38:24.482930,2020-10-14 00:00:00.000000,0.88164196,2.16242844,3.33956576,54,133,206,28,75,127,0.46818477,1.21551598,2.06341125,0.12614516,0.32560660,0.49079736
13037,0,USGeorgiaCalhoun,Georgia,Calhoun,2021-04-04 12:38:24.482930,2020-10-15 00:00:00.000000,0.89325886,2.21302462,3.43846461,55,136,212,30,77,132,0.48553508,1.24721882,2.13745305,0.12661140,0.33159436,0.48912008
13037,0,USGeorgiaCalhoun,Georgia,Calhoun,2021-04-04 12:38:24.482930,2020-10-16 00:00:00.000000,0.92881194,2.26766239,3.53283251,57,140,218,31,79,136,0.50496923,1.28094661,2.20759503,0.13191388,0.34176951,0.48858189
13037,0,USGeorgiaCalhoun,Georgia,Calhoun,2021-04-04 12:38:24.482930,2020-10-17 00:00:00.000000,0.96870167,2.31981742,3.71484336,59,143,229,32,83,140,0.52589011,1.34383503,2.27446477,0.14351533,0.34853221,0.48475705
13037,0,USGeorgiaCalhoun,Georgia,Calhoun,2021-04-04 12:38:24.482930,2020-10-18 00:00:00.000000,1.01077483,2.37699470,3.89690586,62,147,241,33,86,144,0.54812062,1.39790996,2.33833811,0.15033304,0.36168534,0.47867715
13037,0,USGeorgiaCalhoun,Georgia,Calhoun,2021-04-04 12:38:24.482930,2020-10-19 00:00:00.000000,1.05188788,2.49082221,4.04914129,65,154,250,34,89,148,0.55928168,1.44389135,2.39966131,0.15023065,0.36293290,0.48938454
13037,0,USGeorgiaCalhoun,Georgia,Calhoun,2021-04-04 12:38:24.482930,2020-10-20 00:00:00.000000,1.17695263,2.62146438,4.19437362,72,162,259,36,92,152,0.58556644,1.49158112,2.46979524,0.15212645,0.36806670,0.49085069
13037,0,USGeorgiaCalhoun,Georgia,Calhoun,2021-04-04 12:38:24.482930,2020-10-21 00:00:00.000000,1.28827716,2.73090126,4.40211774,79,169,272,39,96,157,0.63295480,1.56097054,2.54451816,0.15299945,0.37610742,0.49163321
13037,0,USGeorgiaCalhoun,Georgia,Calhoun,2021-04-04 12:38:24.482930,2020-10-22 00:00:00.000000,1.41649741,2.89032393,4.40821263,87,178,272,41,99,162,0.66852238,1.61483654,2.61861923,0.16062367,0.37717036,0.49958461
13037,0,USGeorgiaCalhoun,Georgia,Calhoun,2021-04-04 12:38:24.482930,2020-10-23 00:00:00.000000,1.54233056,3.04085801,4.41081331,95,188,272,43,104,166,0.69634864,1.69654464,2.69324304,0.16783757,0.38277154,0.51388139
13037,0,USGeorgiaCalhoun,Georgia,Calhoun,2021-04-04 12:38:24.482930,2020-10-24 00:00:00.000000,1.66450207,3.20678760,4.48139618,103,198,277,46,108,171,0.75663202,1.76103863,2.76427299,0.16848068,0.37848751,0.52337412
13037,0,USGeorgiaCalhoun,Georgia,Calhoun,2021-04-04 12:38:24.482930,2020-10-25 00:00:00.000000,1.78229376,3.33756913,4.62737884,110,206,286,50,114,175,0.81899313,1.84539703,2.84177801,0.16866526,0.37880276,0.51949485
13037,0,USGeorgiaCalhoun,Georgia,Calhoun,2021-04-04 12:38:24.482930,2020-10-26 00:00:00.000000,1.87268815,3.46108671,4.80524976,115,214,297,54,119,180,0.88225559,1.92917833,2.92209984,0.16866271,0.37629926,0.51326233
13037,0,USGeorgiaCalhoun,Georgia,Calhoun,2021-04-04 12:38:24.482930,2020-10-27 00:00:00.000000,1.93752356,3.60790764,4.97513568,119,223,307,58,124,185,0.94384814,2.01760236,2.99286821,0.16685195,0.37344148,0.52491482
13037,0,USGeorgiaCalhoun,Georgia,Calhoun,2021-04-04 12:38:24.482930,2020-10-28 00:00:00.000000,1.99630289,3.73763309,5.16761238,123,231,319,62,130,190,1.00414518,2.11148716,3.07926771,0.16586361,0.36968737,0.52216964
13037,0,USGeorgiaCalhoun,Georgia,Calhoun,2021-04-04 12:38:24.482930,2020-10-29 00:00:00.000000,2.04992602,3.91679502,5.31545640,126,242,328,65,136,196,1.06337938,2.20179764,3.16842947,0.16595785,0.36440093,0.51496335
13037,0,USGeorgiaCalhoun,Georgia,Calhoun,2021-04-04 12:38:24.482930,2020-10-30 00:00:00.000000,2.09872804,4.07767251,5.50960316,129,252,340,69,142,203,1.12168888,2.30967484,3.28064051,0.16508435,0.35635845,0.50396922
13037,0,USGeorgiaCalhoun,Georgia,Calhoun,2021-04-04 12:38:24.482930,2020-10-31 00:00:00.000000,2.19971059,4.22162419,5.63159134,136,261,348,72,148,211,1.17920894,2.39409919,3.42102132,0.16710222,0.33761654,0.49360124
13037,0,USGeorgiaCalhoun,Georgia,Calhoun,2021-04-04 12:38:24.482930,2020-11-01 00:00:00.000000,2.30474133,4.30107615,5.73397448,142,266,354,76,153,220,1.23649318,2.48410710,3.56975428,0.16920117,0.32248649,0.46767509
13037,0,USGeorgiaCalhoun,Georgia,Calhoun,2021-04-04 12:38:24.482930,2020-11-02 00:00:00.000000,2.28604525,4.40360472,5.74467986,141,272,355,80,158,230,1.29290417,2.55753711,3.72183695,0.16899751,0.30459010,0.43034272
13037,0,USGeorgiaCalhoun,Georgia,Calhoun,2021-04-04 12:38:24.482930,2020-11-03 00:00:00.000000,2.26475743,4.42479874,5.86878126,140,273,363,80,160,235,1.30607982,2.59322971,3.81196415,0.16896406,0.29867197,0.40305371
13037,0,USGeorgiaCalhoun,Georgia,Calhoun,2021-04-04 12:38:24.482930,2020-11-04 00:00:00.000000,2.23820809,4.37733727,6.10351065,138,270,377,79,163,241,1.28181972,2.63973014,3.90466523,0.16920252,0.29271921,0.38579845
13037,0,USGeorgiaCalhoun,Georgia,Calhoun,2021-04-04 12:38:24.482930,2020-11-05 00:00:00.000000,2.20862344,4.35817196,6.25013268,136,269,386,77,166,246,1.24801473,2.69024500,3.98440207,0.17454446,0.28793241,0.37254127
13037,0,USGeorgiaCalhoun,Georgia,Calhoun,2021-04-04 12:38:24.482930,2020-11-06 00:00:00.000000,2.17762537,4.41264219,6.24242935,134,273,386,75,168,250,1.22322396,2.72505817,4.04222418,0.17618798,0.28206003,0.36212054
13037,0,USGeorgiaCalhoun,Georgia,Calhoun,2021-04-04 12:38:24.482930,2020-11-07 00:00:00.000000,2.14736733,4.39191276,6.21401123,132,271,384,74,169,252,1.20323902,2.74667986,4.07752322,0.17872676,0.27268244,0.35709736
13037,0,USGeorgiaCalhoun,Georgia,Calhoun,2021-04-04 12:38:24.482930,2020-11-08 00:00:00.000000,2.11962783,4.37983311,6.17555659,131,271,382,73,169,253,1.18139353,2.73643439,4.09364839,0.17705566,0.26962178,0.36304712
13037,0,USGeorgiaCalhoun,Georgia,Calhoun,2021-04-04 12:38:24.482930,2020-11-09 00:00:00.000000,2.12411773,4.38813968,6.12966703,131,271,379,71,168,254,1.15898537,2.72647225,4.10699088,0.17884168,0.26958343,0.37232444
13037,0,USGeorgiaCalhoun,Georgia,Calhoun,2021-04-04 12:38:24.482930,2020-11-10 00:00:00.000000,2.13907936,4.38995969,6.11628899,132,271,378,71,168,255,1.14872280,2.72194751,4.12545271,0.17884644,0.26604135,0.38157910
13037,0,USGeorgiaCalhoun,Georgia,Calhoun,2021-04-04 12:38:24.482930,2020-11-11 00:00:00.000000,2.16660742,4.37720585,6.00469841,134,270,371,71,168,255,1.14761337,2.71737601,4.13483533,0.17888718,0.26638127,0.38298317
13037,0,USGeorgiaCalhoun,Georgia,Calhoun,2021-04-04 12:38:24.482930,2020-11-12 00:00:00.000000,2.20410765,4.38046986,5.88977761,136,271,364,71,167,256,1.15285506,2.70303586,4.13680095,0.18051100,0.26559115,0.38348702
13037,0,USGeorgiaCalhoun,Georgia,Calhoun,2021-04-04 12:38:24.482930,2020-11-13 00:00:00.000000,2.24852697,4.34854361,5.77748777,139,269,357,72,167,255,1.16404944,2.69908837,4.13217842,0.18109700,0.26751447,0.37983018
13037,0,USGeorgiaCalhoun,Georgia,Calhoun,2021-04-04 12:38:24.482930,2020-11-14 00:00:00.000000,2.29749582,4.30735426,5.75642102,142,266,356,73,167,255,1.18030151,2.70492986,4.12069000,0.18317667,0.27037257,0.37096763
13037,0,USGeorgiaCalhoun,Georgia,Calhoun,2021-04-04 12:38:24.482930,2020-11-15 00:00:00.000000,2.28033252,4.28105166,5.73758805,141,264,355,74,168,253,1.20056004,2.72639439,4.10156333,0.18363794,0.27453376,0.36580592
13037,0,USGeorgiaCalhoun,Georgia,Calhoun,2021-04-04 12:38:24.482930,2020-11-16 00:00:00.000000,2.29925148,4.26592025,5.72686394,142,264,354,75,168,252,1.22378494,2.72445666,4.07509405,0.18394994,0.27902414,0.37007456
13037,0,USGeorgiaCalhoun,Georgia,Calhoun,2021-04-04 12:38:24.482930,2020-11-17 00:00:00.000000,2.28927500,4.27229028,5.71162154,141,264,353,76,167,251,1.24155994,2.70970928,4.05609119,0.18846207,0.28603873,0.37451271
13037,0,USGeorgiaCalhoun,Georgia,Calhoun,2021-04-04 12:38:24.482930,2020-11-18 00:00:00.000000,2.28323962,4.26175894,5.69238657,141,263,352,77,166,250,1.25586802,2.69711888,4.04152565,0.18853154,0.29033912,0.37747064
13037,0,USGeorgiaCalhoun,Georgia,Calhoun,2021-04-04 12:38:24.482930,2020-11-19 00:00:00.000000,2.28093546,4.25561989,5.69963861,141,263,352,78,166,249,1.26794624,2.68388621,4.03044568,0.18882427,0.29329219,0.38667577
13037,0,USGeorgiaCalhoun,Georgia,Calhoun,2021-04-04 12:38:24.482930,2020-11-20 00:00:00.000000,2.28243479,4.23062228,5.75310194,141,261,356,79,164,249,1.27861587,2.65753884,4.02327087,0.18975601,0.30054861,0.39286849
13037,0,USGeorgiaCalhoun,Georgia,Calhoun,2021-04-04 12:38:24.482930,2020-11-21 00:00:00.000000,2.28785268,4.20437126,5.81485917,141,260,359,79,165,248,1.28850204,2.66645432,4.02099395,0.20292107,0.30485628,0.40999039
13037,0,USGeorgiaCalhoun,Georgia,Calhoun,2021-04-04 12:38:24.482930,2020-11-22 00:00:00.000000,2.29721098,4.24018504,5.88199412,142,262,364,80,165,249,1.29818237,2.67693540,4.02409368,0.20630544,0.30975514,0.42178511
13037,0,USGeorgiaCalhoun,Georgia,Calhoun,2021-04-04 12:38:24.482930,2020-11-23 00:00:00.000000,2.30057849,4.28543855,5.96685192,142,265,369,80,165,249,1.29790456,2.67440492,4.03202391,0.21304548,0.31465169,0.42943394
13037,0,USGeorgiaCalhoun,Georgia,Calhoun,2021-04-04 12:38:24.482930,2020-11-24 00:00:00.000000,2.30478439,4.33198821,6.04792201,142,268,374,80,164,250,1.29317676,2.66574875,4.04027939,0.21442249,0.32181470,0.43910221
13037,0,USGeorgiaCalhoun,Georgia,Calhoun,2021-04-04 12:38:24.482930,2020-11-25 00:00:00.000000,2.31560197,4.37492603,6.18518056,143,270,382,79,165,249,1.29145856,2.67485883,4.02673138,0.22407600,0.32600361,0.44710721
13037,0,USGeorgiaCalhoun,Georgia,Calhoun,2021-04-04 12:38:24.482930,2020-11-26 00:00:00.000000,2.36063252,4.48912729,6.30803305,146,277,390,81,166,247,1.31355743,2.69046931,3.99989227,0.23045157,0.33404407,0.44853513
13037,0,USGeorgiaCalhoun,Georgia,Calhoun,2021-04-04 12:38:24.482930,2020-11-27 00:00:00.000000,2.52452733,4.57727225,6.42022717,156,283,397,83,168,248,1.34766854,2.72563162,4.01643898,0.23377769,0.34305231,0.45501895
13037,0,USGeorgiaCalhoun,Georgia,Calhoun,2021-04-04 12:38:24.482930,2020-11-28 00:00:00.000000,2.62095764,4.65453913,6.51573065,162,288,403,84,171,250,1.36620635,2.77231565,4.04377492,0.23534214,0.34831432,0.46140881
13037,0,USGeorgiaCalhoun,Georgia,Calhoun,2021-04-04 12:38:24.482930,2020-11-29 00:00:00.000000,2.60176267,4.72394532,6.56847284,161,292,406,85,174,254,1.38520576,2.81867039,4.11021827,0.23610038,0.35662299,0.46756440
13037,0,USGeorgiaCalhoun,Georgia,Calhoun,2021-04-04 12:38:24.482930,2020-11-30 00:00:00.000000,2.61771958,4.76499838,6.55793749,162,294,405,85,176,257,1.37452233,2.85736671,4.15485002,0.23652402,0.36225281,0.48974725
13037,0,USGeorgiaCalhoun,Georgia,Calhoun,2021-04-04 12:38:24.482930,2020-12-01 00:00:00.000000,2.63381405,4.81607826,6.49228521,163,298,401,84,179,260,1.37119032,2.89378439,4.21253260,0.23678432,0.36274104,0.49403550
13037,0,USGeorgiaCalhoun,Georgia,Calhoun,2021-04-04 12:38:24.482930,2020-12-02 00:00:00.000000,2.65096896,4.89610878,6.65826097,164,303,412,84,181,264,1.37261421,2.93218234,4.27393737,0.23564324,0.36440044,0.48849903
13037,0,USGeorgiaCalhoun,Georgia,Calhoun,2021-04-04 12:38:24.482930,2020-12-03 00:00:00.000000,2.66878485,4.97124192,6.81129627,165,307,421,85,183,267,1.37709215,2.96758507,4.31557950,0.23557302,0.36566881,0.48249190
13037,0,USGeorgiaCalhoun,Georgia,Calhoun,2021-04-04 12:38:24.482930,2020-12-04 00:00:00.000000,2.68704792,5.02324361,6.84907575,166,310,423,85,185,269,1.38352589,2.99794968,4.35170174,0.23695505,0.36402590,0.46200730
13037,0,USGeorgiaCalhoun,Georgia,Calhoun,2021-04-04 12:38:24.482930,2020-12-05 00:00:00.000000,2.70574064,5.05295262,6.95851306,167,312,430,86,187,271,1.39121522,3.03486532,4.38149188,0.24037896,0.37709831,0.46090285
13037,0,USGeorgiaCalhoun,Georgia,Calhoun,2021-04-04 12:38:24.482930,2020-12-06 00:00:00.000000,2.72503601,5.06391581,6.95742366,168,313,430,86,190,272,1.39995785,3.07000684,4.39972031,0.24244621,0.37292500,0.46280653
13037,0,USGeorgiaCalhoun,Georgia,Calhoun,2021-04-04 12:38:24.482930,2020-12-07 00:00:00.000000,2.71008270,5.09130022,6.91142119,167,315,427,87,192,269,1.40992881,3.10973965,4.34918496,0.24377319,0.37922945,0.47618526
13037,0,USGeorgiaCalhoun,Georgia,Calhoun,2021-04-04 12:38:24.482930,2020-12-08 00:00:00.000000,2.69645876,5.15788046,6.93146296,166,319,428,88,194,265,1.42994781,3.14736445,4.29079838,0.24471830,0.37944168,0.48187920
13037,0,USGeorgiaCalhoun,Georgia,Calhoun,2021-04-04 12:38:24.482930,2020-12-09 00:00:00.000000,2.68625538,5.16321703,6.94642327,166,319,429,89,197,268,1.44609620,3.19086024,4.33295292,0.24555808,0.37907604,0.51361966
13037,0,USGeorgiaCalhoun,Georgia,Calhoun,2021-04-04 12:38:24.482930,2020-12-10 00:00:00.000000,2.69168672,5.23260983,6.96644596,166,323,431,90,199,270,1.45996774,3.22073171,4.37305483,0.24669698,0.38500132,0.53646942
13037,0,USGeorgiaCalhoun,Georgia,Calhoun,2021-04-04 12:38:24.482930,2020-12-11 00:00:00.000000,2.73954582,5.25930512,7.13232285,169,325,441,91,200,272,1.47265054,3.24720197,4.41101066,0.25369789,0.38804006,0.54885506
13037,0,USGeorgiaCalhoun,Georgia,Calhoun,2021-04-04 12:38:24.482930,2020-12-12 00:00:00.000000,2.84310103,5.30510184,7.30911712,175,328,452,91,203,275,1.48539298,3.28482017,4.44674060,0.26516470,0.39690256,0.57042125
13037,0,USGeorgiaCalhoun,Georgia,Calhoun,2021-04-04 12:38:24.482930,2020-12-13 00:00:00.000000,2.97929647,5.33519506,7.49323283,184,330,463,92,205,277,1.50047254,3.32808221,4.48020913,0.26795812,0.40980297,0.58298031
13037,0,USGeorgiaCalhoun,Georgia,Calhoun,2021-04-04 12:38:24.482930,2020-12-14 00:00:00.000000,3.14176793,5.34482058,7.53470052,194,330,466,94,208,277,1.52188503,3.37263397,4.48856368,0.27567080,0.42244857,0.63374488
13037,0,USGeorgiaCalhoun,Georgia,Calhoun,2021-04-04 12:38:24.482930,2020-12-15 00:00:00.000000,3.25501464,5.39343352,7.53845911,201,333,466,96,210,281,1.55932384,3.40512609,4.55590567,0.27137867,0.43264094,0.65286816
13037,0,USGeorgiaCalhoun,Georgia,Calhoun,2021-04-04 12:38:24.482930,2020-12-16 00:00:00.000000,3.22984513,5.51500694,7.55528681,199,341,467,100,212,285,1.62318206,3.43289424,4.60842329,0.27498108,0.44741749,0.66334465
13037,0,USGeorgiaCalhoun,Georgia,Calhoun,2021-04-04 12:38:24.482930,2020-12-17 00:00:00.000000,3.19445835,5.55027061,7.60458963,197,343,470,105,213,290,1.70293933,3.45637475,4.69937247,0.27784202,0.46461863,0.66866634
13037,0,USGeorgiaCalhoun,Georgia,Calhoun,2021-04-04 12:38:24.482930,2020-12-18 00:00:00.000000,3.16132066,5.64044934,7.85999802,195,349,486,110,215,298,1.78803074,3.48665150,4.82109694,0.28692126,0.49131181,0.72131687
13037,0,USGeorgiaCalhoun,Georgia,Calhoun,2021-04-04 12:38:24.482930,2020-12-19 00:00:00.000000,3.28169990,5.78496397,8.17462048,203,358,505,116,220,306,1.87671552,3.56281839,4.94788645,0.29880740,0.51142593,0.87782512
13037,0,USGeorgiaCalhoun,Georgia,Calhoun,2021-04-04 12:38:24.482930,2020-12-20 00:00:00.000000,3.32838892,5.88686492,8.53431976,205,364,528,121,223,314,1.95812143,3.61221979,5.08555672,0.30635118,0.53225313,0.81820230
13037,0,USGeorgiaCalhoun,Georgia,Calhoun,2021-04-04 12:38:24.482930,2020-12-21 00:00:00.000000,3.46988829,6.10148523,8.87073840,214,377,549,127,226,323,2.05530905,3.66712134,5.22917808,0.31225293,0.56315634,0.83413581
13037,0,USGeorgiaCalhoun,Georgia,Calhoun,2021-04-04 12:38:24.482930,2020-12-22 00:00:00.000000,3.60641468,6.41536017,9.21864121,223,397,570,132,230,331,2.13722530,3.73107328,5.35997874,0.33137877,0.57815442,0.85240824
13037,0,USGeorgiaCalhoun,Georgia,Calhoun,2021-04-04 12:38:24.482930,2020-12-23 00:00:00.000000,3.64461558,6.67919547,9.56798049,225,413,592,133,236,342,2.15852511,3.82247589,5.54002445,0.33504012,0.61332845,0.88484484
13037,0,USGeorgiaCalhoun,Georgia,Calhoun,2021-04-04 12:38:24.482930,2020-12-24 00:00:00.000000,3.82472243,6.90357963,9.91571869,236,427,613,134,243,352,2.18042198,3.92702725,5.70272031,0.35141613,0.63110931,1.02135390
13037,0,USGeorgiaCalhoun,Georgia,Calhoun,2021-04-04 12:38:24.482930,2020-12-25 00:00:00.000000,4.02969643,7.15545997,10.25956467,249,442,634,138,253,364,2.24012665,4.09189558,5.88335762,0.36859086,0.68053070,1.10610354
13037,0,USGeorgiaCalhoun,Georgia,Calhoun,2021-04-04 12:38:24.482930,2020-12-26 00:00:00.000000,4.23918445,7.51350747,10.59667907,262,465,655,145,268,376,2.34509615,4.33116401,6.08946355,0.41902311,0.70838835,1.11430171
13037,0,USGeorgiaCalhoun,Georgia,Calhoun,2021-04-04 12:38:24.482930,2020-12-27 00:00:00.000000,4.44507611,7.94950610,10.92472572,275,491,676,152,280,391,2.45852686,4.53711923,6.32074704,0.43030665,0.73036438,1.11477599
13037,0,USGeorgiaCalhoun,Georgia,Calhoun,2021-04-04 12:38:24.482930,2020-12-28 00:00:00.000000,4.61154011,8.33835700,11.25822259,285,516,696,159,294,406,2.57965467,4.75223256,6.57134405,0.43718339,0.74658495,1.11400271
13037,0,USGeorgiaCalhoun,Georgia,Calhoun,2021-04-04 12:38:24.482930,2020-12-29 00:00:00.000000,4.80948520,8.77986580,11.58506178,297,543,716,167,308,422,2.70659596,4.98212483,6.82914716,0.44532977,0.78505513,1.10831303
13037,0,USGeorgiaCalhoun,Georgia,Calhoun,2021-04-04 12:38:24.482930,2020-12-30 00:00:00.000000,5.02794547,9.10034838,12.40803549,311,563,767,175,322,438,2.83875315,5.21103900,7.09310933,0.45355611,0.80153202,1.11151908
13037,0,USGeorgiaCalhoun,Georgia,Calhoun,2021-04-04 12:38:24.482930,2020-12-31 00:00:00.000000,5.26556833,9.51326703,13.23403845,325,588,819,184,334,455,2.97352392,5.41195925,7.36110628,0.45659396,0.81622588,1.14401037
13037,0,USGeorgiaCalhoun,Georgia,Calhoun,2021-04-04 12:38:24.482930,2021-01-01 00:00:00.000000,5.52127190,9.96674744,14.05169693,341,616,869,192,350,471,3.10943156,5.66505769,7.62571823,0.46206036,0.83309375,1.20416117
13037,0,USGeorgiaCalhoun,Georgia,Calhoun,2021-04-04 12:38:24.482930,2021-01-02 00:00:00.000000,5.79159359,10.39396926,14.85362887,358,643,919,200,368,489,3.24546175,5.94709039,7.90339477,0.44733709,0.83569908,1.25040321
13037,0,USGeorgiaCalhoun,Georgia,Calhoun,2021-04-04 12:38:24.482930,2021-01-03 00:00:00.000000,6.07392115,10.83687308,15.62867404,375,670,967,209,386,510,3.38250559,6.24300609,8.24097213,0.45468752,0.84385237,1.26574662
13037,0,USGeorgiaCalhoun,Georgia,Calhoun,2021-04-04 12:38:24.482930,2021-01-04 00:00:00.000000,6.42014007,11.21660361,16.32324871,397,694,1010,220,400,530,3.56370698,6.47904239,8.56754754,0.44127809,0.85730022,1.27326370
13037,0,USGeorgiaCalhoun,Georgia,Calhoun,2021-04-04 12:38:24.482930,2021-01-05 00:00:00.000000,6.76418946,11.58071007,16.95838065,418,716,1049,229,415,549,3.70765626,6.71270390,8.88335929,0.42443249,0.86232769,1.27622186
13037,0,USGeorgiaCalhoun,Georgia,Calhoun,2021-04-04 12:38:24.482930,2021-01-06 00:00:00.000000,7.10236136,11.86819697,17.29518745,439,734,1070,236,432,568,3.82312284,6.98773705,9.18496354,0.41850502,0.86430246,1.27728170
13037,0,USGeorgiaCalhoun,Georgia,Calhoun,2021-04-04 12:38:24.482930,2021-01-07 00:00:00.000000,7.25657610,12.29482248,17.59168714,449,760,1088,242,443,586,3.92424773,7.16125546,9.46909683,0.41444506,0.85699164,1.27730445
13037,0,USGeorgiaCalhoun,Georgia,Calhoun,2021-04-04 12:38:24.482930,2021-01-08 00:00:00.000000,7.34457722,12.62612009,17.84703255,454,781,1104,247,453,602,3.99893878,7.32991805,9.73516587,0.40873896,0.84531992,1.27658465
13037,0,USGeorgiaCalhoun,Georgia,Calhoun,2021-04-04 12:38:24.482930,2021-01-09 00:00:00.000000,7.41878484,12.88345857,18.06121003,459,797,1117,252,466,619,4.07180603,7.53709150,10.00717092,0.39852617,0.82425165,1.27538452
13037,0,USGeorgiaCalhoun,Georgia,Calhoun,2021-04-04 12:38:24.482930,2021-01-10 00:00:00.000000,7.47792067,13.11772858,18.23418754,462,811,1128,256,479,633,4.13942441,7.74936646,10.23988310,0.38101127,0.80116820,1.27383691
13037,0,USGeorgiaCalhoun,Georgia,Calhoun,2021-04-04 12:38:24.482930,2021-01-11 00:00:00.000000,7.51950665,13.13393622,18.34533051,465,812,1135,260,484,652,4.20338899,7.83334242,10.54145361,0.36066859,0.79752521,1.29501475
13037,0,USGeorgiaCalhoun,Georgia,Calhoun,2021-04-04 12:38:24.482930,2021-01-12 00:00:00.000000,7.46017025,13.02834067,18.40980274,461,806,1139,264,494,666,4.27147536,7.99341917,10.76239005,0.34242381,0.78823411,1.32148062
13037,0,USGeorgiaCalhoun,Georgia,Calhoun,2021-04-04 12:38:24.482930,2021-01-13 00:00:00.000000,7.34470426,12.95272295,18.42485091,454,801,1140,268,502,675,4.33734841,8.12710950,10.91873734,0.32997464,0.78100056,1.32677578
13037,0,USGeorgiaCalhoun,Georgia,Calhoun,2021-04-04 12:38:24.482930,2021-01-14 00:00:00.000000,7.22341604,12.83322006,18.38988921,447,794,1138,264,505,682,4.27232757,8.17090468,11.02014484,0.31696257,0.77366321,1.31236278
13037,0,USGeorgiaCalhoun,Georgia,Calhoun,2021-04-04 12:38:24.482930,2021-01-15 00:00:00.000000,7.10078922,12.84712332,18.30535488,439,795,1132,259,504,685,4.19608862,8.15891228,11.07237005,0.30541755,0.77036472,1.29593335
13037,0,USGeorgiaCalhoun,Georgia,Calhoun,2021-04-04 12:38:24.482930,2021-01-16 00:00:00.000000,6.97309424,12.78537947,18.17177121,431,791,1124,258,500,685,4.18277613,8.08211541,11.07373227,0.29985238,0.77728042,1.32318906
13037,0,USGeorgiaCalhoun,Georgia,Calhoun,2021-04-04 12:38:24.482930,2021-01-17 00:00:00.000000,6.83947517,12.61222378,17.87786324,423,780,1106,257,499,686,4.16063220,8.07085202,11.09251621,0.29734590,0.80720035,1.26423506
13037,0,USGeorgiaCalhoun,Georgia,Calhoun,2021-04-04 12:38:24.482930,2021-01-18 00:00:00.000000,6.72187475,12.40866015,17.63140706,416,767,1091,254,498,687,4.11447378,8.04972367,11.11558304,0.29145291,0.82425384,1.30208843
13037,0,USGeorgiaCalhoun,Georgia,Calhoun,2021-04-04 12:38:24.482930,2021-01-19 00:00:00.000000,6.60103301,12.13394744,17.33014798,408,750,1072,249,491,687,4.03838267,7.94887499,11.10977031,0.28888495,0.82788650,1.31878175
13037,0,USGeorgiaCalhoun,Georgia,Calhoun,2021-04-04 12:38:24.482930,2021-01-20 00:00:00.000000,6.47754589,11.88468414,16.97820326,400,735,1050,243,484,685,3.94037168,7.83180195,11.07309671,0.28729384,0.82961929,1.30999198
13037,0,USGeorgiaCalhoun,Georgia,Calhoun,2021-04-04 12:38:24.482930,2021-01-21 00:00:00.000000,6.34710646,11.63165623,16.58126573,392,719,1026,237,476,681,3.82938516,7.69939537,11.00392451,0.27925370,0.83763914,1.33295938
13037,0,USGeorgiaCalhoun,Georgia,Calhoun,2021-04-04 12:38:24.482930,2021-01-22 00:00:00.000000,6.19687809,11.35331524,16.21448400,383,702,1003,229,467,674,3.71303673,7.55878542,10.89963675,0.26718337,0.83710860,1.36162521
13037,0,USGeorgiaCalhoun,Georgia,Calhoun,2021-04-04 12:38:24.482930,2021-01-23 00:00:00.000000,5.97873540,11.06366379,15.87458391,370,684,982,222,456,655,3.59500582,7.37037907,10.59882773,0.24834637,0.83515232,1.41011727
13037,0,USGeorgiaCalhoun,Georgia,Calhoun,2021-04-04 12:38:24.482930,2021-01-24 00:00:00.000000,5.73334063,10.76064403,15.50272412,354,665,959,215,447,633,3.47728941,7.23126176,10.23286416,0.22357541,0.82803565,1.49878880
13037,0,USGeorgiaCalhoun,Georgia,Calhoun,2021-04-04 12:38:24.482930,2021-01-25 00:00:00.000000,5.50240312,10.39561417,15.06632960,340,643,932,208,438,620,3.36086129,7.08917287,10.02700963,0.20940535,0.82482536,1.61552159
13037,0,USGeorgiaCalhoun,Georgia,Calhoun,2021-04-04 12:38:24.482930,2021-01-26 00:00:00.000000,5.18350749,10.09194993,14.60579460,320,624,903,200,429,605,3.24515672,6.93869565,9.78740595,0.19684942,0.80031016,1.70434045
13037,0,USGeorgiaCalhoun,Georgia,Calhoun,2021-04-04 12:38:24.482930,2021-01-27 00:00:00.000000,4.86908661,9.78061725,14.12637668,301,605,874,193,418,589,3.13118137,6.76031623,9.52134691,0.18955224,0.81684932,1.74723034
13037,0,USGeorgiaCalhoun,Georgia,Calhoun,2021-04-04 12:38:24.482930,2021-01-28 00:00:00.000000,4.57157354,9.38385474,13.63282996,282,580,843,186,403,571,3.01953961,6.51961254,9.23476097,0.18574378,0.81252476,1.76158043
13037,0,USGeorgiaCalhoun,Georgia,Calhoun,2021-04-04 12:38:24.482930,2021-01-29 00:00:00.000000,4.36869475,9.02203640,13.12937464,270,558,812,180,388,553,2.91055352,6.28070813,8.94522245,0.18649891,0.81794980,1.69169080
13037,0,USGeorgiaCalhoun,Georgia,Calhoun,2021-04-04 12:38:24.482930,2021-01-30 00:00:00.000000,4.20111499,8.65473623,12.61841561,260,535,780,173,372,535,2.80427524,6.01324962,8.64836722,0.19466778,0.81075591,1.46841720
13037,0,USGeorgiaCalhoun,Georgia,Calhoun,2021-04-04 12:38:24.482930,2021-01-31 00:00:00.000000,4.03451489,8.36306907,12.10118771,249,517,748,167,355,516,2.69904029,5.74630417,8.34316264,0.19676108,0.80044760,1.47222004
13037,0,USGeorgiaCalhoun,Georgia,Calhoun,2021-04-04 12:38:24.482930,2021-02-01 00:00:00.000000,3.85257741,8.00560755,11.54987202,238,495,714,160,340,497,2.59460411,5.50011658,8.03216149,0.19719688,0.79607235,1.47804016
13037,0,USGeorgiaCalhoun,Georgia,Calhoun,2021-04-04 12:38:24.482930,2021-02-02 00:00:00.000000,3.62005672,7.64841416,10.98683284,224,473,679,154,326,477,2.49511592,5.27903714,7.71722989,0.19824465,0.79608301,1.48268855
13037,0,USGeorgiaCalhoun,Georgia,Calhoun,2021-04-04 12:38:24.482930,2021-02-03 00:00:00.000000,3.40677559,7.27290469,10.43863893,210,450,646,148,313,460,2.39930845,5.05742909,7.43339129,0.19737795,0.78617149,1.48437978
13037,0,USGeorgiaCalhoun,Georgia,Calhoun,2021-04-04 12:38:24.482930,2021-02-04 00:00:00.000000,3.21662575,6.90083596,9.90477822,199,427,613,142,299,442,2.29529160,4.83760847,7.15596683,0.19725544,0.78839524,1.48245901
13037,0,USGeorgiaCalhoun,Georgia,Calhoun,2021-04-04 12:38:24.482930,2021-02-05 00:00:00.000000,3.04142784,6.67340593,9.38666649,188,413,580,133,288,425,2.16287737,4.65843015,6.87646481,0.19665478,0.79714851,1.46660963
13037,0,USGeorgiaCalhoun,Georgia,Calhoun,2021-04-04 12:38:24.482930,2021-02-06 00:00:00.000000,2.87794377,6.38867470,8.97604494,178,395,555,126,274,408,2.04145443,4.43572699,6.59885308,0.19223853,0.78093438,1.44991024
13037,0,USGeorgiaCalhoun,Georgia,Calhoun,2021-04-04 12:38:24.482930,2021-02-07 00:00:00.000000,2.72503597,6.05678355,8.64238905,168,374,534,119,261,391,1.92923128,4.22560282,6.32645340,0.17944504,0.78007761,1.44673157
13037,0,USGeorgiaCalhoun,Georgia,Calhoun,2021-04-04 12:38:24.482930,2021-02-08 00:00:00.000000,2.61479033,5.79425976,8.29442789,161,358,513,112,250,375,1.82486848,4.05504428,6.06127727,0.17179060,0.78661787,1.45370568
13037,0,USGeorgiaCalhoun,Georgia,Calhoun,2021-04-04 12:38:24.482930,2021-02-09 00:00:00.000000,2.51312270,5.51996806,7.87884767,155,341,487,107,237,358,1.73694029,3.83522018,5.79869857,0.15603786,0.79017680,1.43818409
13037,0,USGeorgiaCalhoun,Georgia,Calhoun,2021-04-04 12:38:24.482930,2021-02-10 00:00:00.000000,2.41976933,5.26622585,7.47777874,149,325,462,102,225,342,1.66138431,3.65132083,5.54059748,0.14342041,0.79333864,1.46816917
13037,0,USGeorgiaCalhoun,Georgia,Calhoun,2021-04-04 12:38:24.482930,2021-02-11 00:00:00.000000,2.33343558,5.01723528,7.09162657,144,310,438,98,215,327,1.59441158,3.48081080,5.28883011,0.13985313,0.79728622,1.49781382
13037,0,USGeorgiaCalhoun,Georgia,Calhoun,2021-04-04 12:38:24.482930,2021-02-12 00:00:00.000000,2.23958308,4.77336204,6.72065376,138,295,415,94,206,312,1.53377031,3.33058390,5.04340424,0.13679757,0.81450329,1.50284752
13037,0,USGeorgiaCalhoun,Georgia,Calhoun,2021-04-04 12:38:24.482930,2021-02-13 00:00:00.000000,2.12712410,4.55610152,6.51723692,131,281,403,91,196,297,1.47824515,3.17602155,4.80449551,0.13456106,0.82643958,1.48535969
13037,0,USGeorgiaCalhoun,Georgia,Calhoun,2021-04-04 12:38:24.482930,2021-02-14 00:00:00.000000,2.02057415,4.32723843,6.35235693,125,267,393,88,184,282,1.42710195,2.98212830,4.57235606,0.13333086,0.83558042,1.49586710
13037,0,USGeorgiaCalhoun,Georgia,Calhoun,2021-04-04 12:38:24.482930,2021-02-15 00:00:00.000000,1.94523471,4.09272447,6.10806625,120,253,378,85,176,269,1.37977890,2.85059232,4.34725662,0.13278187,0.83165324,1.54886950
13037,0,USGeorgiaCalhoun,Georgia,Calhoun,2021-04-04 12:38:24.482930,2021-02-16 00:00:00.000000,1.87625569,3.86472288,5.86018912,116,239,362,82,168,256,1.33303113,2.72402019,4.14831796,0.13264186,0.83006291,1.57707944
13037,0,USGeorgiaCalhoun,Georgia,Calhoun,2021-04-04 12:38:24.482930,2021-02-17 00:00:00.000000,1.81390184,3.64870177,5.58705704,112,225,345,79,160,246,1.27911592,2.59286245,3.98069918,0.12975970,0.82805162,1.59023299
13037,0,USGeorgiaCalhoun,Georgia,Calhoun,2021-04-04 12:38:24.482930,2021-02-18 00:00:00.000000,1.75712844,3.44564792,5.29144434,108,213,327,76,152,236,1.23141968,2.46245867,3.82691097,0.12960124,0.82542428,1.59564147
13037,0,USGeorgiaCalhoun,Georgia,Calhoun,2021-04-04 12:38:24.482930,2021-02-19 00:00:00.000000,1.70518874,3.28218791,5.01557969,105,203,310,71,144,227,1.15980497,2.33046455,3.68190879,0.12948047,0.82257435,1.59571140
13037,0,USGeorgiaCalhoun,Georgia,Calhoun,2021-04-04 12:38:24.482930,2021-02-20 00:00:00.000000,1.65754827,3.12735895,4.76367639,102,193,294,67,136,218,1.08814106,2.20352950,3.53834556,0.12907962,0.81815818,1.48636622
13037,0,USGeorgiaCalhoun,Georgia,Calhoun,2021-04-04 12:38:24.482930,2021-02-21 00:00:00.000000,1.60778129,2.97161592,4.53576867,99,183,280,63,129,210,1.02205508,2.08909285,3.39776974,0.12684210,0.80724683,1.48396172
13037,0,USGeorgiaCalhoun,Georgia,Calhoun,2021-04-04 12:38:24.482930,2021-02-22 00:00:00.000000,1.51423068,2.81719050,4.32979094,93,174,267,61,122,201,0.99142996,1.98055134,3.26046762,0.12279089,0.82256399,1.52306509
13037,0,USGeorgiaCalhoun,Georgia,Calhoun,2021-04-04 12:38:24.482930,2021-02-23 00:00:00.000000,1.41591127,2.67230649,4.13711207,87,165,256,58,115,192,0.94885231,1.86637342,3.11143951,0.12141290,0.84449135,1.52579276
13037,0,USGeorgiaCalhoun,Georgia,Calhoun,2021-04-04 12:38:24.482930,2021-02-24 00:00:00.000000,1.32449913,2.53776574,3.95576523,81,157,244,55,109,183,0.90059825,1.77540530,2.96276756,0.12119000,0.83885859,1.54585864
13037,0,USGeorgiaCalhoun,Georgia,Calhoun,2021-04-04 12:38:24.482930,2021-02-25 00:00:00.000000,1.24193989,2.41303796,3.78333078,76,149,234,52,104,174,0.85048913,1.69036911,2.82014506,0.12057873,0.81875649,1.54456441
13037,0,USGeorgiaCalhoun,Georgia,Calhoun,2021-04-04 12:38:24.482930,2021-02-26 00:00:00.000000,1.16582136,2.32330690,3.61945925,72,143,224,49,99,165,0.80080797,1.60571976,2.67620206,0.11992822,0.79358177,1.52140806
13037,0,USGeorgiaCalhoun,Georgia,Calhoun,2021-04-04 12:38:24.482930,2021-02-27 00:00:00.000000,1.09470268,2.20788432,3.44159103,67,136,213,46,94,156,0.75322433,1.53395275,2.53673288,0.11937337,0.76881010,1.52793078
13037,0,USGeorgiaCalhoun,Georgia,Calhoun,2021-04-04 12:38:24.482930,2021-02-28 00:00:00.000000,1.04185896,2.10993550,3.27285874,64,130,202,43,91,148,0.70833836,1.47563087,2.40244180,0.12160388,0.76381682,1.60961476
13037,0,USGeorgiaCalhoun,Georgia,Calhoun,2021-04-04 12:38:24.482930,2021-03-01 00:00:00.000000,1.00567737,2.00838331,3.10635095,62,124,192,41,87,140,0.66685371,1.40997055,2.27358218,0.12343166,0.80389306,1.61586834
13037,0,USGeorgiaCalhoun,Georgia,Calhoun,2021-04-04 12:38:24.482930,2021-03-02 00:00:00.000000,0.95959170,1.90425536,2.94915609,59,117,182,40,83,135,0.64720444,1.34160174,2.18853907,0.12482723,0.76056701,1.61307503
13037,0,USGeorgiaCalhoun,Georgia,Calhoun,2021-04-04 12:38:24.482930,2021-03-03 00:00:00.000000,0.89744921,1.81744107,2.80133244,55,112,173,38,78,128,0.62797891,1.27031274,2.06985457,0.12329439,0.76988486,1.59933625
13037,0,USGeorgiaCalhoun,Georgia,Calhoun,2021-04-04 12:38:24.482930,2021-03-04 00:00:00.000000,0.83977048,1.74329832,2.69276070,51,107,166,36,75,120,0.59270395,1.21323628,1.95260569,0.11691804,0.79841550,1.56606612
13037,0,USGeorgiaCalhoun,Georgia,Calhoun,2021-04-04 12:38:24.482930,2021-03-05 00:00:00.000000,0.78666992,1.65464264,2.60565312,48,102,161,34,72,114,0.55492411,1.16420650,1.84396420,0.11055304,0.80941732,1.52226938
13037,0,USGeorgiaCalhoun,Georgia,Calhoun,2021-04-04 12:38:24.482930,2021-03-06 00:00:00.000000,0.73794236,1.58092088,2.52333806,45,97,156,32,68,108,0.51967926,1.11361606,1.75317516,0.10795377,0.81369756,1.55698197
13037,0,USGeorgiaCalhoun,Georgia,Calhoun,2021-04-04 12:38:24.482930,2021-03-07 00:00:00.000000,0.69326070,1.51249638,2.44549700,42,93,151,30,65,103,0.48706755,1.06381041,1.67784272,0.10230974,0.82838154,1.69777821
13037,0,USGeorgiaCalhoun,Georgia,Calhoun,2021-04-04 12:38:24.482930,2021-03-08 00:00:00.000000,0.66871882,1.44659082,2.35398755,41,89,145,28,62,100,0.45702716,1.01751841,1.62165810,0.10054638,0.82873377,1.62250812
13037,0,USGeorgiaCalhoun,Georgia,Calhoun,2021-04-04 12:38:24.482930,2021-03-09 00:00:00.000000,0.64554771,1.37341642,2.26635170,39,85,140,26,59,96,0.43445354,0.96551663,1.56543089,0.10188626,0.81922714,1.58968096
13037,0,USGeorgiaCalhoun,Georgia,Calhoun,2021-04-04 12:38:24.482930,2021-03-10 00:00:00.000000,0.61652562,1.32143493,2.18225137,38,81,135,25,56,93,0.41710472,0.91790845,1.50987626,0.10639847,0.81574389,1.58988486
13037,0,USGeorgiaCalhoun,Georgia,Calhoun,2021-04-04 12:38:24.482930,2021-03-11 00:00:00.000000,0.61896959,1.27144945,2.10214025,38,78,130,24,54,90,0.39870812,0.87373642,1.45550526,0.10784711,0.81655136,1.59380283
13037,0,USGeorgiaCalhoun,Georgia,Calhoun,2021-04-04 12:38:24.482930,2021-03-12 00:00:00.000000,0.60773458,1.20341060,2.02880136,37,74,125,23,51,86,0.37534082,0.83347246,1.40274520,0.10823606,0.82041836,1.58357952
13037,0,USGeorgiaCalhoun,Georgia,Calhoun,2021-04-04 12:38:24.482930,2021-03-13 00:00:00.000000,0.59569431,1.17883319,1.96922199,36,72,121,21,49,83,0.35357789,0.80639930,1.35242631,0.10868434,0.82054203,1.59676048
13037,0,USGeorgiaCalhoun,Georgia,Calhoun,2021-04-04 12:38:24.482930,2021-03-14 00:00:00.000000,0.55318436,1.14195704,1.89577563,34,70,117,21,48,80,0.34103507,0.78131018,1.30648564,0.10904950,0.82185076,1.54857088
13037,0,USGeorgiaCalhoun,Georgia,Calhoun,2021-04-04 12:38:24.482930,2021-03-15 00:00:00.000000,0.53564550,1.11570599,1.81054651,33,69,112,21,46,78,0.34557986,0.74625362,1.26543136,0.10921964,0.81077910,1.59357404
13037,0,USGeorgiaCalhoun,Georgia,Calhoun,2021-04-04 12:38:24.482930,2021-03-16 00:00:00.000000,0.52090409,1.08757027,1.72950726,32,67,107,21,44,75,0.34135732,0.72448128,1.22695945,0.10778488,0.81352136,1.61768568
13037,0,USGeorgiaCalhoun,Georgia,Calhoun,2021-04-04 12:38:24.482930,2021-03-17 00:00:00.000000,0.50558272,1.06035599,1.71592662,31,65,106,20,43,73,0.33123091,0.69682855,1.19069516,0.10673896,0.82519416,1.62281182
13037,0,USGeorgiaCalhoun,Georgia,Calhoun,2021-04-04 12:38:24.482930,2021-03-18 00:00:00.000000,0.47910786,1.06801328,1.72216835,29,66,106,19,42,71,0.31727671,0.68663814,1.15635075,0.10635110,0.81652454,1.65265585
13037,0,USGeorgiaCalhoun,Georgia,Calhoun,2021-04-04 12:38:24.482930,2021-03-19 00:00:00.000000,0.45411695,1.05782808,1.68072076,28,65,104,18,41,69,0.30104440,0.67239659,1.12269189,0.10610809,0.77538720,1.74698390
13037,0,USGeorgiaCalhoun,Georgia,Calhoun,2021-04-04 12:38:24.482930,2021-03-20 00:00:00.000000,0.43453738,1.02005901,1.72552120,26,63,106,17,41,67,0.28368887,0.67047247,1.09543188,0.10566959,0.76683008,1.75040064
13037,0,USGeorgiaCalhoun,Georgia,Calhoun,2021-04-04 12:38:24.482930,2021-03-21 00:00:00.000000,0.41574310,0.98577714,1.78466697,25,61,110,16,40,66,0.27218105,0.65479112,1.06876085,0.10479209,0.75047207,1.74941824
13037,0,USGeorgiaCalhoun,Georgia,Calhoun,2021-04-04 12:38:24.482930,2021-03-22 00:00:00.000000,0.43090219,0.96402954,1.76414579,26,59,109,16,39,65,0.26412158,0.64496403,1.06078816,0.10375249,0.74636647,1.74352796
13037,0,USGeorgiaCalhoun,Georgia,Calhoun,2021-04-04 12:38:24.482930,2021-03-23 00:00:00.000000,0.44838759,0.94798667,1.72790562,27,58,106,15,38,65,0.25570400,0.62342649,1.06345569,0.10277097,0.75980461,1.75799210
13037,0,USGeorgiaCalhoun,Georgia,Calhoun,2021-04-04 12:38:24.482930,2021-03-24 00:00:00.000000,0.46872234,0.93635702,1.69338946,29,57,104,15,37,65,0.24759174,0.60355704,1.06242722,0.10167381,0.77098166,1.82076841
13037,0,USGeorgiaCalhoun,Georgia,Calhoun,2021-04-04 12:38:24.482930,2021-03-25 00:00:00.000000,0.49051889,0.92192847,1.67166354,30,57,103,15,37,65,0.24457082,0.61111275,1.05687606,0.10081813,0.78064713,1.91577945
13037,0,USGeorgiaCalhoun,Georgia,Calhoun,2021-04-04 12:38:24.482930,2021-03-26 00:00:00.000000,0.49342851,0.90391306,1.65113892,30,55,102,15,37,64,0.25170790,0.60041077,1.04974425,0.10042382,0.78919835,1.98367859
13037,0,USGeorgiaCalhoun,Georgia,Calhoun,2021-04-04 12:38:24.482930,2021-03-27 00:00:00.000000,0.48540889,0.89581123,1.63161378,30,55,100,16,36,64,0.26087201,0.58640343,1.04018678,0.10022791,0.79566201,2.00054828
13037,0,USGeorgiaCalhoun,Georgia,Calhoun,2021-04-04 12:38:24.482930,2021-03-28 00:00:00.000000,0.47816110,0.88200575,1.62647315,29,54,100,16,35,63,0.27102942,0.57658609,1.02882879,0.10004555,0.79610314,2.00495479
13037,0,USGeorgiaCalhoun,Georgia,Calhoun,2021-04-04 12:38:24.482930,2021-03-29 00:00:00.000000,0.44858084,0.83038831,1.55356854,27,51,96,17,35,62,0.28160518,0.57545864,1.01573892,0.09992519,0.80216267,2.00967640
13037,0,USGeorgiaCalhoun,Georgia,Calhoun,2021-04-04 12:38:24.482930,2021-03-30 00:00:00.000000,0.41956672,0.78664169,1.48301376,25,48,91,17,34,61,0.28117178,0.56118300,0.99199733,0.09667034,0.82025967,2.04367518
13037,0,USGeorgiaCalhoun,Georgia,Calhoun,2021-04-04 12:38:24.482930,2021-03-31 00:00:00.000000,0.39440160,0.73785795,1.41824469,24,45,87,16,33,59,0.26968388,0.54029209,0.96134066,0.09179665,0.80215915,2.06607627
13037,0,USGeorgiaCalhoun,Georgia,Calhoun,2021-04-04 12:38:24.482930,2021-04-01 00:00:00.000000,0.36902375,0.68649559,1.34635084,22,42,83,15,31,57,0.25455042,0.51349112,0.92819019,0.08848899,0.80395099,2.16897610
13037,0,USGeorgiaCalhoun,Georgia,Calhoun,2021-04-04 12:38:24.482930,2021-04-02 00:00:00.000000,0.33609204,0.63717152,1.27078395,20,39,78,14,29,55,0.24097341,0.48218284,0.89229998,0.08607205,0.80278325,2.21508930
13037,0,USGeorgiaCalhoun,Georgia,Calhoun,2021-04-04 12:38:24.482930,2021-04-03 00:00:00.000000,0.31077393,0.59322158,1.19766824,19,36,74,13,27,52,0.22368554,0.45106940,0.85544212,0.08491175,0.79549575,2.38168364
13037,0,USGeorgiaCalhoun,Georgia,Calhoun,2021-04-04 12:38:24.482930,2021-04-04 00:00:00.000000,0.28705463,0.55539361,1.14735063,17,34,71,12,26,50,0.20677195,0.42284711,0.81275276,0.08489314,0.79436767,2.58005252
13037,0,USGeorgiaCalhoun,Georgia,Calhoun,2021-04-04 12:38:24.482930,2021-04-05 00:00:00.000000,0.26494192,0.51963239,1.08997635,16,32,67,11,24,47,0.19179460,0.39534769,0.76685439,0.08498544,0.76573921,2.60462763
13037,0,USGeorgiaCalhoun,Georgia,Calhoun,2021-04-04 12:38:24.482930,2021-04-06 00:00:00.000000,0.24371071,0.48265558,1.01070359,15,29,62,10,22,45,0.17760370,0.36888057,0.72907246,0.08581453,0.76211396,2.60719597
13037,0,USGeorgiaCalhoun,Georgia,Calhoun,2021-04-04 12:38:24.482930,2021-04-07 00:00:00.000000,0.22254798,0.45035232,0.93690155,13,27,57,10,21,43,0.16337515,0.34241037,0.70593493,0.08760752,0.74698841,2.68462199
13037,0,USGeorgiaCalhoun,Georgia,Calhoun,2021-04-04 12:38:24.482930,2021-04-08 00:00:00.000000,0.20308163,0.41955995,0.87748838,12,25,54,9,19,42,0.14888543,0.31732285,0.67888196,0.08704307,0.74194026,2.69032069
13037,0,USGeorgiaCalhoun,Georgia,Calhoun,2021-04-04 12:38:24.482930,2021-04-09 00:00:00.000000,0.18522016,0.38985417,0.82299282,11,24,50,8,18,40,0.13552113,0.29542613,0.64695624,0.08665507,0.74046264,2.69139096
13037,0,USGeorgiaCalhoun,Georgia,Calhoun,2021-04-04 12:38:24.482930,2021-04-10 00:00:00.000000,0.16888704,0.36063444,0.77158018,10,22,47,7,16,38,0.12328903,0.27279309,0.61626371,0.08639252,0.74004752,2.69158490
13037,0,USGeorgiaCalhoun,Georgia,Calhoun,2021-04-04 12:38:24.482930,2021-04-11 00:00:00.000000,0.15405385,0.33269150,0.72833545,9,20,45,6,15,36,0.11214078,0.25220333,0.58637221,0.08621675,0.73993249,2.69162652
13037,0,USGeorgiaCalhoun,Georgia,Calhoun,2021-04-04 12:38:24.482930,2021-04-12 00:00:00.000000,0.14049687,0.30396308,0.69804358,8,18,43,6,14,34,0.10201251,0.23235317,0.55751417,0.08609990,0.73990089,2.69163699
13037,0,USGeorgiaCalhoun,Georgia,Calhoun,2021-04-04 12:38:24.482930,2021-04-13 00:00:00.000000,0.12811633,0.28145574,0.66896126,7,17,41,5,13,32,0.09286847,0.21445596,0.51726385,0.08602261,0.73989231,2.69163990
13037,0,USGeorgiaCalhoun,Georgia,Calhoun,2021-04-04 12:38:24.482930,2021-04-14 00:00:00.000000,0.11681683,0.26051508,0.64104810,7,16,39,5,12,29,0.08455240,0.19850056,0.47993008,0.08597163,0.73989003,2.69164075
13037,0,USGeorgiaCalhoun,Georgia,Calhoun,2021-04-04 12:38:24.482930,2021-04-15 00:00:00.000000,0.10650839,0.24179160,0.61426330,6,14,38,4,11,27,0.07698810,0.18404330,0.44833688,0.08593808,0.74022532,2.69164100
13037,0,USGeorgiaCalhoun,Georgia,Calhoun,2021-04-04 12:38:24.482930,2021-04-16 00:00:00.000000,0.09710696,0.22441146,0.58856615,6,13,36,4,10,26,0.07010604,0.17091600,0.42976628,0.08591603,0.74077541,2.69164107
