FIPS,HR_UID,nameid,province,region,analysisTime,dates,pointprevalence_025,pointprevalence_50,pointprevalence_975,pointinfections_025,pointinfections_50,pointinfections_975,pointinfectious_025,pointinfectious_50,pointinfectious_975,pointinfectiousprevalence_05,pointinfectiousprevalence_50,pointinfectiousprevalence_95,infectrate_025,infectrate_50,infectrate_975
8111,0,USColoradoSanJuan,Colorado,San Juan,2021-04-04 13:00:01.978061,2020-03-09 00:00:00.000000,0.02796256,0.30933203,1.29099914,0,2,9,0,1,5,0.01523514,0.15892542,0.80006910,0.38458740,0.51474927,0.78351229
8111,0,USColoradoSanJuan,Colorado,San Juan,2021-04-04 13:00:01.978061,2020-03-10 00:00:00.000000,0.03132045,0.35985763,1.32972895,0,2,9,0,1,5,0.01663123,0.15884269,0.72230291,0.38456588,0.51456711,0.78350641
8111,0,USColoradoSanJuan,Colorado,San Juan,2021-04-04 13:00:01.978061,2020-03-11 00:00:00.000000,0.03492637,0.40102103,1.36856284,0,2,9,0,1,4,0.01827544,0.16823019,0.68458728,0.38453333,0.51427153,0.78349085
8111,0,USColoradoSanJuan,Colorado,San Juan,2021-04-04 13:00:01.978061,2020-03-12 00:00:00.000000,0.03869746,0.44329512,1.42822209,0,3,10,0,1,4,0.02035487,0.18736434,0.67270992,0.38448420,0.51379037,0.78344960
8111,0,USColoradoSanJuan,Colorado,San Juan,2021-04-04 13:00:01.978061,2020-03-13 00:00:00.000000,0.04263566,0.48418063,1.50455347,0,3,10,0,1,5,0.02279129,0.21046174,0.72719567,0.38441020,0.51300568,0.78334030
8111,0,USColoradoSanJuan,Colorado,San Juan,2021-04-04 13:00:01.978061,2020-03-14 00:00:00.000000,0.04677013,0.52955395,1.61483834,0,3,11,0,1,5,0.02549616,0.23307682,0.78945576,0.38429919,0.51172647,0.78305087
8111,0,USColoradoSanJuan,Colorado,San Juan,2021-04-04 13:00:01.978061,2020-03-15 00:00:00.000000,0.05113819,0.56012501,1.73091846,0,4,12,0,1,6,0.02842698,0.25601127,0.83989182,0.38413358,0.50844712,0.78228572
8111,0,USColoradoSanJuan,Colorado,San Juan,2021-04-04 13:00:01.978061,2020-03-16 00:00:00.000000,0.05577913,0.59490886,1.83902173,0,4,13,0,2,6,0.03156581,0.27696568,0.88717238,0.38402214,0.50743498,0.78027244
8111,0,USColoradoSanJuan,Colorado,San Juan,2021-04-04 13:00:01.978061,2020-03-17 00:00:00.000000,0.06073163,0.63099233,1.86550031,0,4,13,0,2,6,0.03490430,0.29653796,0.93893280,0.36475070,0.50312407,0.77504270
8111,0,USColoradoSanJuan,Colorado,San Juan,2021-04-04 13:00:01.978061,2020-03-18 00:00:00.000000,0.06602728,0.66816419,1.88678851,0,4,13,0,2,7,0.03843153,0.31909049,0.98118269,0.36395264,0.49862881,0.76191093
8111,0,USColoradoSanJuan,Colorado,San Juan,2021-04-04 13:00:01.978061,2020-03-19 00:00:00.000000,0.07165386,0.70475570,1.90048590,0,5,13,0,2,7,0.04212457,0.34218026,0.99515606,0.36231854,0.49268928,0.73167944
8111,0,USColoradoSanJuan,Colorado,San Juan,2021-04-04 13:00:01.978061,2020-03-20 00:00:00.000000,0.07737993,0.75193860,1.90577679,0,5,13,0,2,7,0.04594698,0.36887964,1.00745322,0.34703084,0.47958383,0.67027948
8111,0,USColoradoSanJuan,Colorado,San Juan,2021-04-04 13:00:01.978061,2020-03-21 00:00:00.000000,0.08260498,0.79503712,1.93550306,0,5,14,0,2,7,0.04985782,0.39562781,1.08775707,0.34414732,0.44614880,0.66466584
8111,0,USColoradoSanJuan,Colorado,San Juan,2021-04-04 13:00:01.978061,2020-03-22 00:00:00.000000,0.09026137,0.81974788,2.03258003,0,5,14,0,3,8,0.05382862,0.41570345,1.16389355,0.28996689,0.41676492,0.65181406
8111,0,USColoradoSanJuan,Colorado,San Juan,2021-04-04 13:00:01.978061,2020-03-23 00:00:00.000000,0.10137094,0.84671529,2.14763674,0,6,15,0,3,8,0.05731479,0.44967639,1.23275350,0.27779522,0.40237680,0.65180814
8111,0,USColoradoSanJuan,Colorado,San Juan,2021-04-04 13:00:01.978061,2020-03-24 00:00:00.000000,0.11265457,0.86961784,2.27181586,0,6,16,0,3,9,0.06052923,0.47369745,1.29490309,0.27398473,0.38878156,0.65117284
8111,0,USColoradoSanJuan,Colorado,San Juan,2021-04-04 13:00:01.978061,2020-03-25 00:00:00.000000,0.12389990,0.89875004,2.40155358,0,6,17,0,3,9,0.06374176,0.49115389,1.33969603,0.27181036,0.37703118,0.60084716
8111,0,USColoradoSanJuan,Colorado,San Juan,2021-04-04 13:00:01.978061,2020-03-26 00:00:00.000000,0.13580371,0.93528595,2.52316175,0,6,18,0,3,10,0.06701692,0.50389297,1.38182956,0.23439312,0.37103820,0.57937878
8111,0,USColoradoSanJuan,Colorado,San Juan,2021-04-04 13:00:01.978061,2020-03-27 00:00:00.000000,0.14879161,0.95887135,2.56839509,1,6,18,0,3,10,0.07035301,0.50938688,1.42214427,0.22806488,0.35551776,0.57370578
8111,0,USColoradoSanJuan,Colorado,San Juan,2021-04-04 13:00:01.978061,2020-03-28 00:00:00.000000,0.15741741,0.98461001,2.58224654,1,7,18,0,3,10,0.07709802,0.52118111,1.45983732,0.21791020,0.33581057,0.57099351
8111,0,USColoradoSanJuan,Colorado,San Juan,2021-04-04 13:00:01.978061,2020-03-29 00:00:00.000000,0.16502813,1.00655830,2.59035402,1,7,18,0,4,10,0.08284845,0.55121057,1.49437098,0.20442163,0.32415100,0.53132992
8111,0,USColoradoSanJuan,Colorado,San Juan,2021-04-04 13:00:01.978061,2020-03-30 00:00:00.000000,0.17290006,1.02052214,2.59359265,1,7,18,0,4,11,0.08710275,0.56613120,1.52567648,0.20312994,0.31129562,0.50935581
8111,0,USColoradoSanJuan,Colorado,San Juan,2021-04-04 13:00:01.978061,2020-03-31 00:00:00.000000,0.18108467,1.03528121,2.59159032,1,7,18,0,4,11,0.09144939,0.57882311,1.55406422,0.20265036,0.30622646,0.47706888
8111,0,USColoradoSanJuan,Colorado,San Juan,2021-04-04 13:00:01.978061,2020-04-01 00:00:00.000000,0.18961094,1.04533348,2.58369186,1,7,18,0,4,11,0.09592149,0.58380034,1.58004575,0.20139283,0.29843575,0.46000615
8111,0,USColoradoSanJuan,Colorado,San Juan,2021-04-04 13:00:01.978061,2020-04-02 00:00:00.000000,0.19846858,1.05568269,2.56951658,1,7,18,0,4,11,0.10054754,0.58740079,1.60414437,0.19740726,0.29333334,0.45454801
8111,0,USColoradoSanJuan,Colorado,San Juan,2021-04-04 13:00:01.978061,2020-04-03 00:00:00.000000,0.20756954,1.06097955,2.54937721,1,7,18,0,4,11,0.10534472,0.59110572,1.62674313,0.18206778,0.27611106,0.43817785
8111,0,USColoradoSanJuan,Colorado,San Juan,2021-04-04 13:00:01.978061,2020-04-04 00:00:00.000000,0.21676558,1.04862976,2.52417798,1,7,18,0,4,11,0.11030620,0.61234347,1.64786748,0.16391323,0.26370795,0.42401870
8111,0,USColoradoSanJuan,Colorado,San Juan,2021-04-04 13:00:01.978061,2020-04-05 00:00:00.000000,0.22602089,1.03529820,2.49739925,1,7,18,0,4,12,0.11539599,0.62258293,1.66660434,0.15860758,0.25362985,0.41807314
8111,0,USColoradoSanJuan,Colorado,San Juan,2021-04-04 13:00:01.978061,2020-04-06 00:00:00.000000,0.23543108,1.04001163,2.54685674,1,7,18,0,4,12,0.12058104,0.62036796,1.68095851,0.15346668,0.25128260,0.41733878
8111,0,USColoradoSanJuan,Colorado,San Juan,2021-04-04 13:00:01.978061,2020-04-07 00:00:00.000000,0.24321578,1.00227821,2.64034758,1,7,19,0,4,12,0.12585775,0.60580981,1.69008112,0.14628031,0.24721261,0.40477109
8111,0,USColoradoSanJuan,Colorado,San Juan,2021-04-04 13:00:01.978061,2020-04-08 00:00:00.000000,0.24208281,0.97013064,2.71801420,1,7,19,0,4,12,0.13122664,0.60082695,1.69466082,0.14148837,0.24300472,0.39702572
8111,0,USColoradoSanJuan,Colorado,San Juan,2021-04-04 13:00:01.978061,2020-04-09 00:00:00.000000,0.24094955,0.96006418,2.75320435,1,6,20,0,4,12,0.13498410,0.58594826,1.69568302,0.13744157,0.23928720,0.39400187
8111,0,USColoradoSanJuan,Colorado,San Juan,2021-04-04 13:00:01.978061,2020-04-10 00:00:00.000000,0.23976521,0.94474456,2.74719504,1,6,19,0,4,12,0.13478195,0.58239466,1.69394445,0.13453453,0.23213301,0.38074616
8111,0,USColoradoSanJuan,Colorado,San Juan,2021-04-04 13:00:01.978061,2020-04-11 00:00:00.000000,0.23846105,0.93074790,2.72688728,1,6,19,1,4,12,0.14191044,0.57871085,1.67152336,0.13250037,0.22110809,0.36463045
8111,0,USColoradoSanJuan,Colorado,San Juan,2021-04-04 13:00:01.978061,2020-04-12 00:00:00.000000,0.23694155,0.91281220,2.70124622,1,6,19,1,4,11,0.14097280,0.56491630,1.64008466,0.12661777,0.21429117,0.34914590
8111,0,USColoradoSanJuan,Colorado,San Juan,2021-04-04 13:00:01.978061,2020-04-13 00:00:00.000000,0.37292488,1.12805770,2.73326917,2,8,19,1,3,11,0.13818927,0.54938699,1.60727458,0.12451653,0.20544687,0.34444687
8111,0,USColoradoSanJuan,Colorado,San Juan,2021-04-04 13:00:01.978061,2020-04-14 00:00:00.000000,0.48728363,1.36354383,3.09106134,3,9,22,1,4,12,0.17521471,0.59487656,1.71755779,0.12387184,0.19912384,0.33694173
8111,0,USColoradoSanJuan,Colorado,San Juan,2021-04-04 13:00:01.978061,2020-04-15 00:00:00.000000,0.59537692,1.57628070,3.50148330,4,11,25,1,4,13,0.21168320,0.67686648,1.79265266,0.12370765,0.19206293,0.32500961
8111,0,USColoradoSanJuan,Colorado,San Juan,2021-04-04 13:00:01.978061,2020-04-16 00:00:00.000000,0.70341725,1.72791984,3.70450154,5,12,26,1,5,13,0.26756273,0.77401144,1.88589166,0.12217762,0.18770849,0.31173940
8111,0,USColoradoSanJuan,Colorado,San Juan,2021-04-04 13:00:01.978061,2020-04-17 00:00:00.000000,0.78856746,1.88053600,3.97535613,5,13,28,2,6,14,0.30870298,0.86720953,1.99265033,0.11968137,0.18410175,0.29661273
8111,0,USColoradoSanJuan,Colorado,San Juan,2021-04-04 13:00:01.978061,2020-04-18 00:00:00.000000,0.83272157,2.09779218,4.49882243,6,15,32,2,6,15,0.36370977,0.93588881,2.19040109,0.11635783,0.17683262,0.29143820
8111,0,USColoradoSanJuan,Colorado,San Juan,2021-04-04 13:00:01.978061,2020-04-19 00:00:00.000000,0.85867256,2.25261726,5.07214871,6,16,36,2,7,17,0.39455103,1.05187245,2.40457062,0.11309398,0.17387268,0.27863512
8111,0,USColoradoSanJuan,Colorado,San Juan,2021-04-04 13:00:01.978061,2020-04-20 00:00:00.000000,0.98040914,2.43405255,5.12667143,7,17,37,2,8,19,0.40948999,1.15425482,2.68173585,0.10774872,0.17311610,0.26440101
8111,0,USColoradoSanJuan,Colorado,San Juan,2021-04-04 13:00:01.978061,2020-04-21 00:00:00.000000,1.03844306,2.62247292,5.18993929,7,19,37,3,9,21,0.43642596,1.24209287,2.89052586,0.10708627,0.17191566,0.25845357
8111,0,USColoradoSanJuan,Colorado,San Juan,2021-04-04 13:00:01.978061,2020-04-22 00:00:00.000000,1.10535403,2.76182598,5.47864088,8,20,39,3,9,22,0.49112077,1.32838224,3.05338320,0.10516660,0.16779748,0.25771380
8111,0,USColoradoSanJuan,Colorado,San Juan,2021-04-04 13:00:01.978061,2020-04-23 00:00:00.000000,1.14656243,2.88669322,5.75751079,8,21,41,4,10,23,0.56295301,1.43008322,3.18341340,0.10065398,0.16575499,0.25456697
8111,0,USColoradoSanJuan,Colorado,San Juan,2021-04-04 13:00:01.978061,2020-04-24 00:00:00.000000,1.18292690,3.08136543,6.17132174,8,22,44,4,11,23,0.59274055,1.51711541,3.29273400,0.09401098,0.16101601,0.24860341
8111,0,USColoradoSanJuan,Colorado,San Juan,2021-04-04 13:00:01.978061,2020-04-25 00:00:00.000000,1.21508305,3.23554784,6.30904158,8,23,45,4,11,24,0.61428864,1.60995272,3.30201677,0.08864320,0.15624810,0.24812823
8111,0,USColoradoSanJuan,Colorado,San Juan,2021-04-04 13:00:01.978061,2020-04-26 00:00:00.000000,1.24398935,3.33502651,6.49134393,9,24,47,4,12,25,0.63336378,1.69629067,3.47294171,0.08344503,0.14826696,0.25276960
8111,0,USColoradoSanJuan,Colorado,San Juan,2021-04-04 13:00:01.978061,2020-04-27 00:00:00.000000,1.41729185,3.42742639,6.77963143,10,24,49,4,12,26,0.66856933,1.76403234,3.59227136,0.08302537,0.14624875,0.24959466
8111,0,USColoradoSanJuan,Colorado,San Juan,2021-04-04 13:00:01.978061,2020-04-28 00:00:00.000000,1.54006559,3.52092049,7.01746031,11,25,51,5,13,26,0.71772843,1.85667922,3.65848765,0.07849712,0.14002450,0.25125447
8111,0,USColoradoSanJuan,Colorado,San Juan,2021-04-04 13:00:01.978061,2020-04-29 00:00:00.000000,1.66546391,3.65845357,7.08546288,12,26,51,5,13,26,0.81409558,1.92064465,3.68261266,0.07793425,0.13589097,0.24758500
8111,0,USColoradoSanJuan,Colorado,San Juan,2021-04-04 13:00:01.978061,2020-04-30 00:00:00.000000,1.69448631,3.70593931,6.96766533,12,26,50,6,14,27,0.89051903,1.98031008,3.76815092,0.07517618,0.13368405,0.23397136
8111,0,USColoradoSanJuan,Colorado,San Juan,2021-04-04 13:00:01.978061,2020-05-01 00:00:00.000000,1.68735592,3.66813762,6.84886036,12,26,49,7,14,27,0.96582238,2.01653008,3.75364462,0.07380482,0.13043862,0.22978329
8111,0,USColoradoSanJuan,Colorado,San Juan,2021-04-04 13:00:01.978061,2020-05-02 00:00:00.000000,1.73282802,3.71985775,6.72901123,12,27,48,7,14,27,1.03971794,2.05654393,3.71747299,0.07287952,0.12939231,0.22829045
8111,0,USColoradoSanJuan,Colorado,San Juan,2021-04-04 13:00:01.978061,2020-05-03 00:00:00.000000,1.77686021,3.86635429,6.60752208,12,28,48,7,14,27,1.04907055,2.05933669,3.71921690,0.07150809,0.12930106,0.21551124
8111,0,USColoradoSanJuan,Colorado,San Juan,2021-04-04 13:00:01.978061,2020-05-04 00:00:00.000000,2.05516660,3.84649952,6.48580467,14,28,47,7,15,27,1.05363947,2.08431847,3.80325571,0.06911948,0.12863042,0.20822675
8111,0,USColoradoSanJuan,Colorado,San Juan,2021-04-04 13:00:01.978061,2020-05-05 00:00:00.000000,2.29651261,3.88038704,6.36411382,16,28,46,7,15,28,1.06644332,2.07799940,3.85283766,0.06649063,0.12803024,0.19389707
8111,0,USColoradoSanJuan,Colorado,San Juan,2021-04-04 13:00:01.978061,2020-05-06 00:00:00.000000,2.29791144,3.88948768,6.26507038,16,28,45,7,15,27,1.08455747,2.08837007,3.82225084,0.06468524,0.12851762,0.19280621
8111,0,USColoradoSanJuan,Colorado,San Juan,2021-04-04 13:00:01.978061,2020-05-07 00:00:00.000000,2.30174748,3.92269477,6.12888015,16,28,44,8,15,27,1.12002824,2.09806005,3.75775518,0.06326118,0.12634678,0.18919268
8111,0,USColoradoSanJuan,Colorado,San Juan,2021-04-04 13:00:01.978061,2020-05-08 00:00:00.000000,2.30754155,3.97755144,5.98388253,16,28,43,9,15,26,1.26029015,2.11117734,3.69207862,0.06190732,0.12284423,0.18755355
8111,0,USColoradoSanJuan,Colorado,San Juan,2021-04-04 13:00:01.978061,2020-05-09 00:00:00.000000,2.28877822,3.99074925,5.81183706,16,29,42,9,15,26,1.28413656,2.12769101,3.61768656,0.06074890,0.12079285,0.18498835
8111,0,USColoradoSanJuan,Colorado,San Juan,2021-04-04 13:00:01.978061,2020-05-10 00:00:00.000000,2.24894100,4.02825816,5.86580149,16,29,42,9,15,25,1.25391358,2.17129455,3.53153999,0.06054734,0.12098473,0.18011389
8111,0,USColoradoSanJuan,Colorado,San Juan,2021-04-04 13:00:01.978061,2020-05-11 00:00:00.000000,2.26125785,4.03246562,5.92225143,16,29,43,8,16,25,1.22447165,2.22742433,3.50814205,0.06186200,0.12204906,0.17880119
8111,0,USColoradoSanJuan,Colorado,San Juan,2021-04-04 13:00:01.978061,2020-05-12 00:00:00.000000,2.25959620,4.03789009,6.12737463,16,29,44,8,16,26,1.22014082,2.26526481,3.57920106,0.06231417,0.11827972,0.17505526
8111,0,USColoradoSanJuan,Colorado,San Juan,2021-04-04 13:00:01.978061,2020-05-13 00:00:00.000000,2.30831803,4.14878909,6.31768420,16,30,45,9,16,26,1.24860026,2.25352004,3.63918357,0.06205315,0.11715524,0.17117539
8111,0,USColoradoSanJuan,Colorado,San Juan,2021-04-04 13:00:01.978061,2020-05-14 00:00:00.000000,2.34179561,4.16243241,6.47246837,17,30,47,9,16,26,1.27840505,2.30219334,3.62628727,0.06112621,0.11619161,0.16853500
8111,0,USColoradoSanJuan,Colorado,San Juan,2021-04-04 13:00:01.978061,2020-05-15 00:00:00.000000,2.37726224,4.10722001,6.67934457,17,29,48,9,16,25,1.28196043,2.31042394,3.52941878,0.05943385,0.11101291,0.16633279
8111,0,USColoradoSanJuan,Colorado,San Juan,2021-04-04 13:00:01.978061,2020-05-16 00:00:00.000000,2.41265291,4.01365485,6.84521956,17,29,49,9,16,25,1.24978138,2.31160825,3.52705403,0.05692768,0.10866885,0.18260097
8111,0,USColoradoSanJuan,Colorado,San Juan,2021-04-04 13:00:01.978061,2020-05-17 00:00:00.000000,2.44703402,3.97706219,6.98799844,17,28,50,9,16,26,1.32914980,2.30579966,3.69303950,0.05394169,0.10657934,0.17067378
8111,0,USColoradoSanJuan,Colorado,San Juan,2021-04-04 13:00:01.978061,2020-05-18 00:00:00.000000,2.35119122,3.81152045,6.71116803,17,27,48,10,16,26,1.39294845,2.31153474,3.63230448,0.05103681,0.10657026,0.16687008
8111,0,USColoradoSanJuan,Colorado,San Juan,2021-04-04 13:00:01.978061,2020-05-19 00:00:00.000000,2.17218148,3.63009002,6.42218691,15,26,46,10,16,26,1.37682292,2.27431363,3.59746908,0.05053211,0.10556605,0.16677253
8111,0,USColoradoSanJuan,Colorado,San Juan,2021-04-04 13:00:01.978061,2020-05-20 00:00:00.000000,1.97243971,3.40494189,6.11778817,14,24,44,9,16,25,1.27123528,2.21421909,3.57113367,0.04995189,0.10399254,0.16653049
8111,0,USColoradoSanJuan,Colorado,San Juan,2021-04-04 13:00:01.978061,2020-05-21 00:00:00.000000,1.78583560,3.17010877,5.80768872,13,23,42,8,15,25,1.16593822,2.13165740,3.52167240,0.04917323,0.10416846,0.16618936
8111,0,USColoradoSanJuan,Colorado,San Juan,2021-04-04 13:00:01.978061,2020-05-22 00:00:00.000000,1.61309832,2.99544729,5.49879489,11,21,40,7,14,24,1.06395880,2.02246988,3.40075905,0.04846433,0.10145019,0.16746565
8111,0,USColoradoSanJuan,Colorado,San Juan,2021-04-04 13:00:01.978061,2020-05-23 00:00:00.000000,1.45428513,2.78253004,5.16683433,10,20,37,7,13,23,0.96710769,1.92207749,3.25250661,0.04799057,0.10027429,0.17307086
8111,0,USColoradoSanJuan,Colorado,San Juan,2021-04-04 13:00:01.978061,2020-05-24 00:00:00.000000,1.30920796,2.56968159,4.90726793,9,18,35,6,13,23,0.87637162,1.79198677,3.17305292,0.04774543,0.10004046,0.17433078
8111,0,USColoradoSanJuan,Colorado,San Juan,2021-04-04 13:00:01.978061,2020-05-25 00:00:00.000000,1.17729738,2.39230063,4.63053727,8,17,33,5,12,22,0.79220880,1.69638470,3.08647576,0.04843224,0.09942537,0.17452601
8111,0,USColoradoSanJuan,Colorado,San Juan,2021-04-04 13:00:01.978061,2020-05-26 00:00:00.000000,1.06325318,2.24215859,4.36797314,7,16,31,5,11,21,0.72372429,1.59076949,2.99536345,0.04871941,0.10284786,0.17477362
8111,0,USColoradoSanJuan,Colorado,San Juan,2021-04-04 13:00:01.978061,2020-05-27 00:00:00.000000,0.99439930,2.07670930,4.12280174,7,15,30,4,10,21,0.67340449,1.47144505,2.90169851,0.04852863,0.10288164,0.17557599
8111,0,USColoradoSanJuan,Colorado,San Juan,2021-04-04 13:00:01.978061,2020-05-28 00:00:00.000000,0.92416732,1.93575887,3.96915649,6,14,28,4,9,20,0.62636105,1.35461783,2.80642507,0.04747862,0.10349521,0.17812612
8111,0,USColoradoSanJuan,Colorado,San Juan,2021-04-04 13:00:01.978061,2020-05-29 00:00:00.000000,0.83867430,1.81969123,3.84598782,6,13,27,4,9,19,0.58273575,1.25632171,2.70878315,0.04742920,0.10466690,0.18481672
8111,0,USColoradoSanJuan,Colorado,San Juan,2021-04-04 13:00:01.978061,2020-05-30 00:00:00.000000,0.77829859,1.70753010,3.72669705,5,12,27,3,8,18,0.52250965,1.16445751,2.60806727,0.04741718,0.10291213,0.19661127
8111,0,USColoradoSanJuan,Colorado,San Juan,2021-04-04 13:00:01.978061,2020-05-31 00:00:00.000000,0.72135748,1.55528584,3.59160031,5,11,26,3,7,18,0.47950210,1.09020435,2.50549254,0.04747343,0.10130661,0.20618744
8111,0,USColoradoSanJuan,Colorado,San Juan,2021-04-04 13:00:01.978061,2020-06-01 00:00:00.000000,0.66644411,1.43891287,3.41682709,4,10,24,3,7,17,0.44620771,1.01793294,2.40265371,0.04791630,0.09949132,0.21086425
8111,0,USColoradoSanJuan,Colorado,San Juan,2021-04-04 13:00:01.978061,2020-06-02 00:00:00.000000,0.59906624,1.33507711,3.24766814,4,9,23,2,6,16,0.39937825,0.93942786,2.30081615,0.04814327,0.09800474,0.21251185
8111,0,USColoradoSanJuan,Colorado,San Juan,2021-04-04 13:00:01.978061,2020-06-03 00:00:00.000000,0.53338643,1.22585167,3.11571037,3,8,22,2,6,15,0.35685582,0.87313876,2.19476877,0.04808880,0.09707780,0.21294426
8111,0,USColoradoSanJuan,Colorado,San Juan,2021-04-04 13:00:01.978061,2020-06-04 00:00:00.000000,0.47370954,1.15145233,3.01259934,3,8,21,2,5,15,0.31813443,0.81068112,2.10428111,0.04806077,0.09539872,0.21291273
8111,0,USColoradoSanJuan,Colorado,San Juan,2021-04-04 13:00:01.978061,2020-06-05 00:00:00.000000,0.41990815,1.07870179,2.91290406,3,7,21,2,5,14,0.28291451,0.75501722,2.01063620,0.04806116,0.09306198,0.21256415
8111,0,USColoradoSanJuan,Colorado,San Juan,2021-04-04 13:00:01.978061,2020-06-06 00:00:00.000000,0.37174658,1.01326615,2.81713124,2,7,20,1,5,13,0.25113708,0.70242929,1.92015017,0.04807735,0.09108134,0.21173181
8111,0,USColoradoSanJuan,Colorado,San Juan,2021-04-04 13:00:01.978061,2020-06-07 00:00:00.000000,0.32884379,0.96235460,2.72558336,2,7,19,1,4,13,0.22258529,0.65360565,1.83299649,0.04725679,0.09232127,0.20991302
8111,0,USColoradoSanJuan,Colorado,San Juan,2021-04-04 13:00:01.978061,2020-06-08 00:00:00.000000,0.29323043,0.89532052,2.63826355,2,6,19,1,4,12,0.19705376,0.60708931,1.74926923,0.04668126,0.09161324,0.20600980
8111,0,USColoradoSanJuan,Colorado,San Juan,2021-04-04 13:00:01.978061,2020-06-09 00:00:00.000000,0.26842660,0.83789249,2.55486145,1,6,18,1,4,12,0.17546672,0.56450251,1.66898745,0.04638747,0.09326380,0.19926397
8111,0,USColoradoSanJuan,Colorado,San Juan,2021-04-04 13:00:01.978061,2020-06-10 00:00:00.000000,0.24591880,0.78837880,2.47319359,1,5,18,1,3,11,0.16023376,0.52819876,1.59130165,0.04624990,0.09362971,0.18999324
8111,0,USColoradoSanJuan,Colorado,San Juan,2021-04-04 13:00:01.978061,2020-06-11 00:00:00.000000,0.22540128,0.73861062,2.36359739,1,5,17,1,3,11,0.14652374,0.49384649,1.51659929,0.04618821,0.09403236,0.18443600
8111,0,USColoradoSanJuan,Colorado,San Juan,2021-04-04 13:00:01.978061,2020-06-12 00:00:00.000000,0.20659606,0.68427635,2.21767203,1,4,16,0,3,10,0.13412006,0.46389920,1.44528330,0.04616109,0.09269037,0.18459581
8111,0,USColoradoSanJuan,Colorado,San Juan,2021-04-04 13:00:01.978061,2020-06-13 00:00:00.000000,0.18929413,0.63592681,2.07932890,1,4,15,0,3,10,0.12290447,0.43707132,1.37734615,0.04473853,0.09282977,0.18490458
8111,0,USColoradoSanJuan,Colorado,San Juan,2021-04-04 13:00:01.978061,2020-06-14 00:00:00.000000,0.17325135,0.59396179,1.94671360,1,4,14,0,2,9,0.11264163,0.41177223,1.31283002,0.04375054,0.09249714,0.18137779
8111,0,USColoradoSanJuan,Colorado,San Juan,2021-04-04 13:00:01.978061,2020-06-15 00:00:00.000000,0.30179768,0.75778145,2.19253153,2,5,15,0,2,9,0.10318403,0.38578920,1.24636446,0.04341853,0.09210679,0.18039998
8111,0,USColoradoSanJuan,Colorado,San Juan,2021-04-04 13:00:01.978061,2020-06-16 00:00:00.000000,0.38220128,0.94929799,2.45571292,2,6,17,1,3,8,0.15414807,0.42265796,1.23398220,0.04332833,0.09158526,0.18019267
8111,0,USColoradoSanJuan,Colorado,San Juan,2021-04-04 13:00:01.978061,2020-06-17 00:00:00.000000,0.42664123,1.06631132,2.73014052,3,7,19,1,3,9,0.18985991,0.46376806,1.24654042,0.04333392,0.09118302,0.17993790
8111,0,USColoradoSanJuan,Colorado,San Juan,2021-04-04 13:00:01.978061,2020-06-18 00:00:00.000000,0.45898791,1.21451503,3.00276965,3,8,21,1,3,10,0.22181429,0.53797879,1.38594279,0.04347933,0.09225793,0.17956012
8111,0,USColoradoSanJuan,Colorado,San Juan,2021-04-04 13:00:01.978061,2020-06-19 00:00:00.000000,0.50167918,1.36122373,3.27175906,3,9,23,1,4,10,0.25232697,0.60099416,1.44202484,0.04375814,0.09435240,0.17928875
8111,0,USColoradoSanJuan,Colorado,San Juan,2021-04-04 13:00:01.978061,2020-06-20 00:00:00.000000,0.54550334,1.49744428,3.53327132,3,10,25,1,4,10,0.27267422,0.68210071,1.50818557,0.04315248,0.09364718,0.17662446
8111,0,USColoradoSanJuan,Colorado,San Juan,2021-04-04 13:00:01.978061,2020-06-21 00:00:00.000000,0.56010269,1.62346636,3.91579425,4,11,28,2,5,12,0.28947781,0.74243945,1.69555868,0.04396715,0.09286356,0.17482544
8111,0,USColoradoSanJuan,Colorado,San Juan,2021-04-04 13:00:01.978061,2020-06-22 00:00:00.000000,0.67183710,1.78738610,4.13833799,4,13,30,2,6,13,0.30611548,0.82903838,1.88605990,0.04292382,0.09353559,0.17649146
8111,0,USColoradoSanJuan,Colorado,San Juan,2021-04-04 13:00:01.978061,2020-06-23 00:00:00.000000,0.79364601,1.92724150,4.33837084,5,14,31,2,6,14,0.34795996,0.91879995,1.96651727,0.04267196,0.09616437,0.17512973
8111,0,USColoradoSanJuan,Colorado,San Juan,2021-04-04 13:00:01.978061,2020-06-24 00:00:00.000000,0.88524616,2.07311064,4.65181408,6,15,33,2,7,14,0.40225279,1.00234450,2.00685864,0.04260487,0.09533397,0.17893890
8111,0,USColoradoSanJuan,Colorado,San Juan,2021-04-04 13:00:01.978061,2020-06-25 00:00:00.000000,0.96797771,2.24687714,5.40391113,7,16,39,3,7,15,0.44987588,1.07208084,2.08826423,0.04243490,0.09344032,0.17928854
8111,0,USColoradoSanJuan,Colorado,San Juan,2021-04-04 13:00:01.978061,2020-06-26 00:00:00.000000,1.00438299,2.44047498,6.12087413,7,17,44,3,8,16,0.48907897,1.17133561,2.25842953,0.04146611,0.09414399,0.18017923
8111,0,USColoradoSanJuan,Colorado,San Juan,2021-04-04 13:00:01.978061,2020-06-27 00:00:00.000000,1.09674579,2.51678600,6.36778883,7,18,46,3,9,17,0.52735872,1.28973380,2.40524214,0.04025105,0.09413074,0.18319092
8111,0,USColoradoSanJuan,Colorado,San Juan,2021-04-04 13:00:01.978061,2020-06-28 00:00:00.000000,1.14543911,2.59726430,6.50224894,8,18,47,3,10,18,0.54517557,1.38338719,2.55869982,0.03963601,0.09564605,0.19088430
8111,0,USColoradoSanJuan,Colorado,San Juan,2021-04-04 13:00:01.978061,2020-06-29 00:00:00.000000,1.08614216,2.52929719,6.33551759,7,18,46,4,10,19,0.55944076,1.46547542,2.70275538,0.03991503,0.09515280,0.19128241
8111,0,USColoradoSanJuan,Colorado,San Juan,2021-04-04 13:00:01.978061,2020-06-30 00:00:00.000000,1.02436380,2.43735666,6.16194188,7,17,44,4,10,19,0.56070916,1.44781432,2.74195429,0.03642253,0.09573398,0.19009625
8111,0,USColoradoSanJuan,Colorado,San Juan,2021-04-04 13:00:01.978061,2020-07-01 00:00:00.000000,0.95918503,2.30960865,5.87231245,6,16,42,3,10,19,0.54236355,1.40165494,2.71219092,0.03726505,0.09508675,0.18926596
8111,0,USColoradoSanJuan,Colorado,San Juan,2021-04-04 13:00:01.978061,2020-07-02 00:00:00.000000,0.89345710,2.17759531,5.50338037,6,15,40,3,9,19,0.52064134,1.34834032,2.63747180,0.03822401,0.09498569,0.19113211
8111,0,USColoradoSanJuan,Colorado,San Juan,2021-04-04 13:00:01.978061,2020-07-03 00:00:00.000000,0.82900972,2.03684451,5.14246169,6,14,37,3,9,18,0.49490809,1.30649017,2.53359766,0.03875042,0.09633091,0.19155786
8111,0,USColoradoSanJuan,Colorado,San Juan,2021-04-04 13:00:01.978061,2020-07-04 00:00:00.000000,0.76695430,1.87448613,4.78939917,5,13,34,3,8,17,0.46694273,1.23508662,2.41217449,0.03985633,0.09677179,0.19160831
8111,0,USColoradoSanJuan,Colorado,San Juan,2021-04-04 13:00:01.978061,2020-07-05 00:00:00.000000,0.70786544,1.70275920,4.45242557,5,12,32,3,8,16,0.44206801,1.16122618,2.28141994,0.04028374,0.09682524,0.19148567
8111,0,USColoradoSanJuan,Colorado,San Juan,2021-04-04 13:00:01.978061,2020-07-06 00:00:00.000000,0.65778074,1.56550993,4.13315033,4,11,30,3,8,16,0.41862006,1.10421241,2.22285859,0.04055954,0.09482387,0.19359197
8111,0,USColoradoSanJuan,Colorado,San Juan,2021-04-04 13:00:01.978061,2020-07-07 00:00:00.000000,0.61458837,1.47348107,3.83229406,4,10,27,2,7,15,0.39494798,1.05419550,2.16665372,0.04076729,0.09569521,0.19654319
8111,0,USColoradoSanJuan,Colorado,San Juan,2021-04-04 13:00:01.978061,2020-07-08 00:00:00.000000,0.56469114,1.38625356,3.54998440,4,10,25,2,7,15,0.36439765,0.97685340,2.10794451,0.04102569,0.09612750,0.18997077
8111,0,USColoradoSanJuan,Colorado,San Juan,2021-04-04 13:00:01.978061,2020-07-09 00:00:00.000000,0.51775083,1.28175542,3.28595167,3,9,23,2,6,14,0.33525741,0.90811512,2.04772026,0.04160552,0.09546419,0.18622581
8111,0,USColoradoSanJuan,Colorado,San Juan,2021-04-04 13:00:01.978061,2020-07-10 00:00:00.000000,0.47407297,1.20180707,3.04255937,3,8,22,2,6,13,0.30769007,0.84248851,1.91231275,0.04257586,0.09470368,0.18475536
8111,0,USColoradoSanJuan,Colorado,San Juan,2021-04-04 13:00:01.978061,2020-07-11 00:00:00.000000,0.43370546,1.11293704,2.81797467,3,8,20,2,5,12,0.28182170,0.78624196,1.77657102,0.04391401,0.09502486,0.18488551
8111,0,USColoradoSanJuan,Colorado,San Juan,2021-04-04 13:00:01.978061,2020-07-12 00:00:00.000000,0.39211053,1.02120267,2.60928987,2,7,18,1,5,12,0.25939729,0.73500843,1.68389464,0.04344447,0.09581007,0.18512701
8111,0,USColoradoSanJuan,Colorado,San Juan,2021-04-04 13:00:01.978061,2020-07-13 00:00:00.000000,0.35092883,0.95342941,2.41557071,2,6,17,1,4,11,0.23940271,0.67845568,1.59593313,0.04238841,0.09540600,0.18539071
8111,0,USColoradoSanJuan,Colorado,San Juan,2021-04-04 13:00:01.978061,2020-07-14 00:00:00.000000,0.31407388,0.88907158,2.23579178,2,6,16,1,4,10,0.22083349,0.62608019,1.45380763,0.04015548,0.09680624,0.18555821
8111,0,USColoradoSanJuan,Colorado,San Juan,2021-04-04 13:00:01.978061,2020-07-15 00:00:00.000000,0.28509957,0.83022987,2.06685030,2,6,15,1,4,9,0.20363377,0.57782520,1.33774539,0.03912703,0.09632131,0.18560869
8111,0,USColoradoSanJuan,Colorado,San Juan,2021-04-04 13:00:01.978061,2020-07-16 00:00:00.000000,0.25896325,0.77445004,2.03353279,1,5,14,1,3,9,0.18692111,0.53345885,1.31993260,0.03909117,0.09698265,0.18558411
8111,0,USColoradoSanJuan,Colorado,San Juan,2021-04-04 13:00:01.978061,2020-07-17 00:00:00.000000,0.23519584,0.73107842,2.00020828,1,5,14,1,3,9,0.16733621,0.49915825,1.30150817,0.03947344,0.09683703,0.18560195
8111,0,USColoradoSanJuan,Colorado,San Juan,2021-04-04 13:00:01.978061,2020-07-18 00:00:00.000000,0.21360729,0.68269991,1.96660313,1,4,14,1,3,9,0.14981972,0.45864369,1.28236648,0.04092302,0.09809335,0.18892928
8111,0,USColoradoSanJuan,Colorado,San Juan,2021-04-04 13:00:01.978061,2020-07-19 00:00:00.000000,0.19397507,0.63744438,1.93325723,1,4,14,0,3,9,0.13416793,0.42769601,1.26267916,0.04130413,0.09895138,0.19360529
8111,0,USColoradoSanJuan,Colorado,San Juan,2021-04-04 13:00:01.978061,2020-07-20 00:00:00.000000,0.17603359,0.59489897,1.90082829,1,4,13,0,2,9,0.12131141,0.40069870,1.24267724,0.04264137,0.09628370,0.19890373
8111,0,USColoradoSanJuan,Colorado,San Juan,2021-04-04 13:00:01.978061,2020-07-21 00:00:00.000000,0.15969993,0.55187961,1.87167598,1,4,13,0,2,8,0.11016316,0.37320445,1.22265066,0.04367939,0.09620069,0.20531692
8111,0,USColoradoSanJuan,Colorado,San Juan,2021-04-04 13:00:01.978061,2020-07-22 00:00:00.000000,0.14495193,0.51635909,1.85288748,1,3,13,0,2,8,0.10004773,0.34481542,1.20327183,0.04449764,0.09637424,0.23033633
8111,0,USColoradoSanJuan,Colorado,San Juan,2021-04-04 13:00:01.978061,2020-07-23 00:00:00.000000,0.12862780,0.47973475,1.84966918,0,3,13,0,2,8,0.09085555,0.31872913,1.18640697,0.04563226,0.09606805,0.23379434
8111,0,USColoradoSanJuan,Colorado,San Juan,2021-04-04 13:00:01.978061,2020-07-24 00:00:00.000000,0.11160443,0.44372652,1.85464433,0,3,13,0,2,8,0.08252845,0.29481461,1.17412477,0.04652495,0.09599609,0.23775987
8111,0,USColoradoSanJuan,Colorado,San Juan,2021-04-04 13:00:01.978061,2020-07-25 00:00:00.000000,0.09686226,0.40842798,1.86200258,0,2,13,0,1,8,0.07481738,0.27294084,1.13522786,0.04686536,0.09610142,0.23856384
8111,0,USColoradoSanJuan,Colorado,San Juan,2021-04-04 13:00:01.978061,2020-07-26 00:00:00.000000,0.08792245,0.37696154,1.87007040,0,2,13,0,1,7,0.06807413,0.25296696,1.08892588,0.04763249,0.09694039,0.23864867
8111,0,USColoradoSanJuan,Colorado,San Juan,2021-04-04 13:00:01.978061,2020-07-27 00:00:00.000000,0.07995683,0.34950770,1.87824776,0,2,13,0,1,7,0.06186634,0.23473551,1.04376067,0.04719959,0.09586158,0.23850172
8111,0,USColoradoSanJuan,Colorado,San Juan,2021-04-04 13:00:01.978061,2020-07-28 00:00:00.000000,0.07262678,0.32601333,1.83576516,0,2,13,0,1,7,0.05628012,0.21791881,0.99978659,0.04637464,0.09568935,0.24034808
8111,0,USColoradoSanJuan,Colorado,San Juan,2021-04-04 13:00:01.978061,2020-07-29 00:00:00.000000,0.06589056,0.30716295,1.75791538,0,2,12,0,1,6,0.05121653,0.20411602,0.95706226,0.04601217,0.09558736,0.24844988
8111,0,USColoradoSanJuan,Colorado,San Juan,2021-04-04 13:00:01.978061,2020-07-30 00:00:00.000000,0.05971690,0.28635522,1.68189033,0,2,12,0,1,6,0.04659529,0.19143686,0.91566902,0.04586173,0.09563123,0.24455210
8111,0,USColoradoSanJuan,Colorado,San Juan,2021-04-04 13:00:01.978061,2020-07-31 00:00:00.000000,0.05407815,0.26691627,1.60652680,0,1,11,0,1,6,0.04225948,0.18154035,0.87566980,0.04580805,0.09565466,0.23132713
8111,0,USColoradoSanJuan,Colorado,San Juan,2021-04-04 13:00:01.978061,2020-08-01 00:00:00.000000,0.04894634,0.24733051,1.53414185,0,1,11,0,1,6,0.03829156,0.16841152,0.83710138,0.04580998,0.09567246,0.21487516
8111,0,USColoradoSanJuan,Colorado,San Juan,2021-04-04 13:00:01.978061,2020-08-02 00:00:00.000000,0.04429056,0.22778490,1.46685278,0,1,10,0,1,5,0.03379031,0.15757611,0.79998135,0.04540288,0.09523412,0.21826553
8111,0,USColoradoSanJuan,Colorado,San Juan,2021-04-04 13:00:01.978061,2020-08-03 00:00:00.000000,0.04007331,0.20996585,1.40499093,0,1,10,0,1,5,0.02994317,0.14555427,0.76431670,0.04276796,0.09509397,0.21818651
8111,0,USColoradoSanJuan,Colorado,San Juan,2021-04-04 13:00:01.978061,2020-08-04 00:00:00.000000,0.03624958,0.19625212,1.34691288,0,1,9,0,0,5,0.02666806,0.13559213,0.73010120,0.04117247,0.09464746,0.21235777
8111,0,USColoradoSanJuan,Colorado,San Juan,2021-04-04 13:00:01.978061,2020-08-05 00:00:00.000000,0.03277655,0.18671108,1.29175161,0,1,9,0,0,5,0.02383285,0.12653956,0.69733479,0.04038453,0.09377255,0.21265741
8111,0,USColoradoSanJuan,Colorado,San Juan,2021-04-04 13:00:01.978061,2020-08-06 00:00:00.000000,0.02962277,0.17727865,1.23925040,0,1,9,0,0,4,0.02133718,0.11827935,0.66631816,0.04012090,0.09257200,0.21151363
8111,0,USColoradoSanJuan,Colorado,San Juan,2021-04-04 13:00:01.978061,2020-08-07 00:00:00.000000,0.02676330,0.16514177,1.18934385,0,1,8,0,0,4,0.01908342,0.11077474,0.63734473,0.04012417,0.09178302,0.20663667
8111,0,USColoradoSanJuan,Colorado,San Juan,2021-04-04 13:00:01.978061,2020-08-08 00:00:00.000000,0.02417424,0.15379801,1.14240376,0,1,8,0,0,4,0.01703421,0.10410742,0.61425147,0.04087832,0.09098216,0.20885817
8111,0,USColoradoSanJuan,Colorado,San Juan,2021-04-04 13:00:01.978061,2020-08-09 00:00:00.000000,0.02183221,0.14362523,1.09894896,0,1,8,0,0,4,0.01518345,0.09681878,0.59354215,0.04044316,0.09260625,0.21080626
8111,0,USColoradoSanJuan,Colorado,San Juan,2021-04-04 13:00:01.978061,2020-08-10 00:00:00.000000,0.14037147,0.40180143,1.22799025,1,2,8,0,0,4,0.01352113,0.08988595,0.57276204,0.04206409,0.09372777,0.19799804
8111,0,USColoradoSanJuan,Colorado,San Juan,2021-04-04 13:00:01.978061,2020-08-11 00:00:00.000000,0.21212385,0.63875020,1.36140044,1,4,9,0,1,4,0.05410716,0.14723201,0.56137307,0.04229614,0.09448526,0.18836068
8111,0,USColoradoSanJuan,Colorado,San Juan,2021-04-04 13:00:01.978061,2020-08-12 00:00:00.000000,0.28465243,0.88280611,1.75411309,2,6,12,0,1,4,0.09116354,0.24353609,0.59232890,0.04308613,0.09369886,0.18310946
8111,0,USColoradoSanJuan,Colorado,San Juan,2021-04-04 13:00:01.978061,2020-08-13 00:00:00.000000,0.35612793,1.04216474,2.30475972,2,7,16,0,2,6,0.12968636,0.36696323,0.84551684,0.04474802,0.09414536,0.18276185
8111,0,USColoradoSanJuan,Colorado,San Juan,2021-04-04 13:00:01.978061,2020-08-14 00:00:00.000000,0.40195600,1.23779756,2.84268520,2,9,20,1,3,8,0.17064930,0.49623328,1.16865712,0.04431057,0.09627080,0.17755002
8111,0,USColoradoSanJuan,Colorado,San Juan,2021-04-04 13:00:01.978061,2020-08-15 00:00:00.000000,0.44410943,1.42626253,3.23715734,3,10,23,1,4,10,0.19781111,0.56320421,1.47511870,0.04427542,0.09536142,0.17619425
8111,0,USColoradoSanJuan,Colorado,San Juan,2021-04-04 13:00:01.978061,2020-08-16 00:00:00.000000,0.49830827,1.61097129,3.70290199,3,11,26,1,4,12,0.23396540,0.65600394,1.75608277,0.04424083,0.09587632,0.17610941
8111,0,USColoradoSanJuan,Colorado,San Juan,2021-04-04 13:00:01.978061,2020-08-17 00:00:00.000000,0.81839734,2.05096191,3.90635812,5,14,28,1,5,14,0.26682714,0.76784631,2.01849407,0.04421313,0.09730147,0.17625304
8111,0,USColoradoSanJuan,Colorado,San Juan,2021-04-04 13:00:01.978061,2020-08-18 00:00:00.000000,1.08573330,2.29082692,4.15043017,7,16,30,2,6,15,0.34029760,0.91729723,2.11803876,0.04426573,0.09473438,0.17661984
8111,0,USColoradoSanJuan,Colorado,San Juan,2021-04-04 13:00:01.978061,2020-08-19 00:00:00.000000,1.13991246,2.47201356,4.78519120,8,17,34,3,7,16,0.44966036,1.00972847,2.25498930,0.04463161,0.09514724,0.17722651
8111,0,USColoradoSanJuan,Colorado,San Juan,2021-04-04 13:00:01.978061,2020-08-20 00:00:00.000000,1.24762387,2.62911015,5.15456306,9,19,37,4,8,18,0.56873407,1.14916617,2.48774986,0.04617542,0.09667783,0.17806781
8111,0,USColoradoSanJuan,Colorado,San Juan,2021-04-04 13:00:01.978061,2020-08-21 00:00:00.000000,1.42150664,2.77464434,5.51167565,10,20,40,4,9,20,0.64660276,1.27090406,2.75769287,0.04809640,0.09895102,0.18510428
8111,0,USColoradoSanJuan,Colorado,San Juan,2021-04-04 13:00:01.978061,2020-08-22 00:00:00.000000,1.58143034,2.93398646,5.85582148,11,21,42,5,10,21,0.70154844,1.42922214,3.01978648,0.05099248,0.10071562,0.18774552
8111,0,USColoradoSanJuan,Colorado,San Juan,2021-04-04 13:00:01.978061,2020-08-23 00:00:00.000000,1.68237673,3.16972619,6.18501602,12,23,45,5,10,23,0.75498390,1.49232843,3.16969636,0.05212094,0.10233280,0.18147670
8111,0,USColoradoSanJuan,Colorado,San Juan,2021-04-04 13:00:01.978061,2020-08-24 00:00:00.000000,1.89272487,3.33486137,6.07464115,13,24,44,6,11,24,0.83475183,1.56441274,3.37292310,0.05189197,0.10243682,0.18246783
8111,0,USColoradoSanJuan,Colorado,San Juan,2021-04-04 13:00:01.978061,2020-08-25 00:00:00.000000,1.97593558,3.49370447,5.97915082,14,25,43,6,12,25,0.91279982,1.66816608,3.48016493,0.05096267,0.10291677,0.18327750
8111,0,USColoradoSanJuan,Colorado,San Juan,2021-04-04 13:00:01.978061,2020-08-26 00:00:00.000000,2.04741413,3.57651156,6.80346189,14,26,49,7,13,25,1.00433523,1.80586339,3.51656524,0.04987118,0.10407694,0.18381806
8111,0,USColoradoSanJuan,Colorado,San Juan,2021-04-04 13:00:01.978061,2020-08-27 00:00:00.000000,2.11711955,3.72255706,7.63953720,15,27,55,7,13,25,1.05271175,1.88156882,3.52684440,0.04864283,0.10305694,0.18055819
8111,0,USColoradoSanJuan,Colorado,San Juan,2021-04-04 13:00:01.978061,2020-08-28 00:00:00.000000,2.18455042,3.98825172,8.39201856,15,29,61,8,14,28,1.11785296,1.96259267,3.85154203,0.04756185,0.10193220,0.17892336
8111,0,USColoradoSanJuan,Colorado,San Juan,2021-04-04 13:00:01.978061,2020-08-29 00:00:00.000000,2.24972856,4.11553443,9.20586683,16,29,67,8,15,31,1.15712256,2.06581175,4.34703278,0.04685577,0.10199758,0.18481759
8111,0,USColoradoSanJuan,Colorado,San Juan,2021-04-04 13:00:01.978061,2020-08-30 00:00:00.000000,2.30224017,4.18167661,10.06605856,16,30,73,8,15,33,1.19373202,2.16876189,4.60993030,0.04647309,0.10352094,0.19449914
8111,0,USColoradoSanJuan,Colorado,San Juan,2021-04-04 13:00:01.978061,2020-08-31 00:00:00.000000,2.21082706,3.97931030,9.84887656,16,28,71,8,16,37,1.22959922,2.23675259,5.20144579,0.04581288,0.10343210,0.19674303
8111,0,USColoradoSanJuan,Colorado,San Juan,2021-04-04 13:00:01.978061,2020-09-01 00:00:00.000000,2.09833375,3.76717694,9.39365336,15,27,68,8,16,37,1.22737312,2.22361540,5.16366732,0.04465732,0.10550266,0.19865664
8111,0,USColoradoSanJuan,Colorado,San Juan,2021-04-04 13:00:01.978061,2020-09-02 00:00:00.000000,1.99499221,3.58750730,8.84461822,14,26,64,8,15,37,1.20201749,2.15239994,5.17575144,0.04423290,0.10730424,0.20029218
8111,0,USColoradoSanJuan,Colorado,San Juan,2021-04-04 13:00:01.978061,2020-09-03 00:00:00.000000,1.89233124,3.42684889,8.24620035,13,24,60,8,15,36,1.16332320,2.06096238,5.08091622,0.04420499,0.10670407,0.20137797
8111,0,USColoradoSanJuan,Colorado,San Juan,2021-04-04 13:00:01.978061,2020-09-04 00:00:00.000000,1.76464753,3.23084339,7.63001592,12,23,55,8,14,35,1.11751435,1.95696760,4.88832532,0.04446016,0.10796833,0.19107537
8111,0,USColoradoSanJuan,Colorado,San Juan,2021-04-04 13:00:01.978061,2020-09-05 00:00:00.000000,1.64072325,3.06819711,7.08648074,11,22,51,7,13,33,1.06490322,1.86379791,4.63536390,0.04548084,0.10941166,0.18590875
8111,0,USColoradoSanJuan,Colorado,San Juan,2021-04-04 13:00:01.978061,2020-09-06 00:00:00.000000,1.49444809,2.90402649,6.56348375,10,21,47,7,12,32,0.97784908,1.74254085,4.43321726,0.04925650,0.11073118,0.20887446
8111,0,USColoradoSanJuan,Colorado,San Juan,2021-04-04 13:00:01.978061,2020-09-07 00:00:00.000000,1.33249801,2.75595691,6.06142762,9,20,44,6,11,30,0.91037221,1.64495713,4.12723460,0.05058448,0.11133415,0.21405958
8111,0,USColoradoSanJuan,Colorado,San Juan,2021-04-04 13:00:01.978061,2020-09-08 00:00:00.000000,1.18762987,2.61383420,5.59650371,8,19,40,6,11,27,0.83244662,1.57640711,3.82967064,0.05062796,0.11163411,0.22083918
8111,0,USColoradoSanJuan,Colorado,San Juan,2021-04-04 13:00:01.978061,2020-09-09 00:00:00.000000,1.05832225,2.43061552,5.16771002,7,17,37,5,11,25,0.74424949,1.51853027,3.54660800,0.05157972,0.11116506,0.22433446
8111,0,USColoradoSanJuan,Colorado,San Juan,2021-04-04 13:00:01.978061,2020-09-10 00:00:00.000000,0.94314421,2.26889835,4.82949651,6,16,35,4,10,23,0.66907931,1.43121303,3.28094871,0.05374127,0.11206552,0.22465052
8111,0,USColoradoSanJuan,Colorado,San Juan,2021-04-04 13:00:01.978061,2020-09-11 00:00:00.000000,0.84080283,2.11228243,4.60802054,6,15,33,4,9,22,0.60814812,1.34144088,3.10361442,0.05345215,0.11174504,0.22479531
8111,0,USColoradoSanJuan,Colorado,San Juan,2021-04-04 13:00:01.978061,2020-09-12 00:00:00.000000,0.75008128,1.96507014,4.40098711,5,14,32,4,9,21,0.55266176,1.25680020,2.97574960,0.05238063,0.11387102,0.22683884
8111,0,USColoradoSanJuan,Colorado,San Juan,2021-04-04 13:00:01.978061,2020-09-13 00:00:00.000000,0.67000855,1.82693943,4.20884015,4,13,30,3,8,20,0.49567032,1.17154963,2.84853868,0.05215069,0.11672412,0.23273136
8111,0,USColoradoSanJuan,Colorado,San Juan,2021-04-04 13:00:01.978061,2020-09-14 00:00:00.000000,0.61743572,1.69746652,4.03245066,4,12,29,3,8,19,0.45067521,1.10599621,2.72327898,0.05222391,0.11890567,0.23433725
8111,0,USColoradoSanJuan,Colorado,San Juan,2021-04-04 13:00:01.978061,2020-09-15 00:00:00.000000,0.55486491,1.57878836,3.87305892,4,11,28,2,7,18,0.41206202,1.03250531,2.60090092,0.05531015,0.12096006,0.23462066
8111,0,USColoradoSanJuan,Colorado,San Juan,2021-04-04 13:00:01.978061,2020-09-16 00:00:00.000000,0.48831906,1.48843693,3.73141800,3,10,27,2,7,18,0.37267447,0.96693745,2.48203575,0.05436548,0.12324625,0.23426997
8111,0,USColoradoSanJuan,Colorado,San Juan,2021-04-04 13:00:01.978061,2020-09-17 00:00:00.000000,0.44104077,1.40882375,3.60663380,3,10,26,2,6,17,0.33698948,0.90544463,2.36709254,0.05322171,0.12470171,0.23246681
8111,0,USColoradoSanJuan,Colorado,San Juan,2021-04-04 13:00:01.978061,2020-09-18 00:00:00.000000,0.39842661,1.31978827,3.50038473,2,9,25,2,6,16,0.30460934,0.85319067,2.25631732,0.05197635,0.12223682,0.22754997
8111,0,USColoradoSanJuan,Colorado,San Juan,2021-04-04 13:00:01.978061,2020-09-19 00:00:00.000000,0.35992384,1.24265781,3.42761722,2,9,24,2,5,15,0.27527641,0.80445137,2.18506082,0.05076468,0.12013487,0.21720805
8111,0,USColoradoSanJuan,Colorado,San Juan,2021-04-04 13:00:01.978061,2020-09-20 00:00:00.000000,0.32516100,1.17386517,3.30611863,2,8,24,1,5,15,0.24873526,0.75855442,2.14070412,0.05123349,0.11994502,0.23088121
8111,0,USColoradoSanJuan,Colorado,San Juan,2021-04-04 13:00:01.978061,2020-09-21 00:00:00.000000,0.29381069,1.10700713,3.22382272,2,8,23,1,5,15,0.22474308,0.71816906,2.09631458,0.05311987,0.12143108,0.24583622
8111,0,USColoradoSanJuan,Colorado,San Juan,2021-04-04 13:00:01.978061,2020-09-22 00:00:00.000000,0.26559284,1.04749272,3.14824324,1,7,22,1,4,14,0.20307722,0.68057012,2.03451429,0.05414024,0.12203202,0.24912912
8111,0,USColoradoSanJuan,Colorado,San Juan,2021-04-04 13:00:01.978061,2020-09-23 00:00:00.000000,0.24026629,0.99484652,3.08069265,1,7,22,1,4,14,0.18353992,0.64265856,1.92769966,0.05473098,0.12256626,0.25015693
8111,0,USColoradoSanJuan,Colorado,San Juan,2021-04-04 13:00:01.978061,2020-09-24 00:00:00.000000,0.21761398,0.94535972,3.02149495,1,6,21,1,4,13,0.16595823,0.60933039,1.85944487,0.05540442,0.12359566,0.27012364
8111,0,USColoradoSanJuan,Colorado,San Juan,2021-04-04 13:00:01.978061,2020-09-25 00:00:00.000000,0.19743162,0.89871649,2.95643499,1,6,21,1,4,13,0.15017938,0.57804558,1.81520345,0.05547823,0.12625581,0.28872005
8111,0,USColoradoSanJuan,Colorado,San Juan,2021-04-04 13:00:01.978061,2020-09-26 00:00:00.000000,0.17951286,0.85144729,2.88361800,1,6,20,0,3,12,0.13606455,0.54853162,1.77547833,0.05558157,0.12820353,0.28185738
8111,0,USColoradoSanJuan,Colorado,San Juan,2021-04-04 13:00:01.978061,2020-09-27 00:00:00.000000,0.16363500,0.79177946,2.81593359,1,5,20,0,3,12,0.12348098,0.52049041,1.73964615,0.05576344,0.13160397,0.27244534
8111,0,USColoradoSanJuan,Colorado,San Juan,2021-04-04 13:00:01.978061,2020-09-28 00:00:00.000000,0.14955738,0.72307218,2.75305237,1,5,20,0,3,12,0.11229360,0.48948693,1.70719905,0.05596080,0.13700536,0.28860824
8111,0,USColoradoSanJuan,Colorado,San Juan,2021-04-04 13:00:01.978061,2020-09-29 00:00:00.000000,0.13703607,0.68040623,2.69567716,0,4,19,0,3,12,0.10236029,0.46359864,1.67801585,0.05626037,0.14105418,0.30577478
8111,0,USColoradoSanJuan,Colorado,San Juan,2021-04-04 13:00:01.978061,2020-09-30 00:00:00.000000,0.12584528,0.63964613,2.64418134,0,4,19,0,3,12,0.09353404,0.43408875,1.65216543,0.05687312,0.14244712,0.31883332
8111,0,USColoradoSanJuan,Colorado,San Juan,2021-04-04 13:00:01.978061,2020-10-01 00:00:00.000000,0.11579245,0.60701338,2.59848412,0,4,18,0,2,11,0.08567094,0.40172570,1.62939223,0.05815474,0.13819443,0.33248764
8111,0,USColoradoSanJuan,Colorado,San Juan,2021-04-04 13:00:01.978061,2020-10-02 00:00:00.000000,0.10672057,0.57805697,2.55805477,0,4,18,0,2,11,0.07863906,0.37833568,1.60912257,0.05524694,0.14068765,0.34211780
8111,0,USColoradoSanJuan,Colorado,San Juan,2021-04-04 13:00:01.978061,2020-10-03 00:00:00.000000,0.09849994,0.54993519,2.52204684,0,4,18,0,2,11,0.07232381,0.35816942,1.59075659,0.05421790,0.14459591,0.34908743
8111,0,USColoradoSanJuan,Colorado,San Juan,2021-04-04 13:00:01.978061,2020-10-04 00:00:00.000000,0.09101831,0.52289998,2.48951888,0,3,18,0,2,11,0.06662806,0.33916035,1.56554315,0.05904875,0.14635769,0.35073383
8111,0,USColoradoSanJuan,Colorado,San Juan,2021-04-04 13:00:01.978061,2020-10-05 00:00:00.000000,0.20428241,0.84479130,2.70255074,1,6,19,0,2,11,0.06146901,0.32196610,1.53968736,0.05895464,0.14629873,0.35128283
8111,0,USColoradoSanJuan,Colorado,San Juan,2021-04-04 13:00:01.978061,2020-10-06 00:00:00.000000,0.31422653,1.09698242,3.09710602,2,7,22,0,2,11,0.10642848,0.39522085,1.55653814,0.06016940,0.14500269,0.35137580
8111,0,USColoradoSanJuan,Colorado,San Juan,2021-04-04 13:00:01.978061,2020-10-07 00:00:00.000000,0.37987664,1.32406129,4.10619516,2,9,29,1,3,11,0.15746284,0.49372701,1.58611487,0.06215231,0.14512636,0.35112166
8111,0,USColoradoSanJuan,Colorado,San Juan,2021-04-04 13:00:01.978061,2020-10-08 00:00:00.000000,0.42395682,1.61425758,4.74614668,3,11,34,1,4,12,0.19873530,0.65367311,1.68051205,0.06633684,0.14646147,0.35027616
8111,0,USColoradoSanJuan,Colorado,San Juan,2021-04-04 13:00:01.978061,2020-10-09 00:00:00.000000,0.46802135,1.90260696,5.77266738,3,13,42,1,5,14,0.24059508,0.77676062,2.04614962,0.07001759,0.14906156,0.36685593
8111,0,USColoradoSanJuan,Colorado,San Juan,2021-04-04 13:00:01.978061,2020-10-10 00:00:00.000000,0.51550535,2.12859932,6.74282666,3,15,49,2,6,18,0.28165660,0.90130321,2.60312760,0.07031895,0.15663404,0.37916024
8111,0,USColoradoSanJuan,Colorado,San Juan,2021-04-04 13:00:01.978061,2020-10-11 00:00:00.000000,0.57049928,2.32743548,7.65061236,4,16,55,2,7,21,0.31997213,1.05215743,2.94251380,0.07103722,0.16425358,0.38394683
8111,0,USColoradoSanJuan,Colorado,San Juan,2021-04-04 13:00:01.978061,2020-10-12 00:00:00.000000,1.23286011,3.22136551,8.37443299,8,23,60,2,8,25,0.34292849,1.18136918,3.48515618,0.07268010,0.16644358,0.38582053
8111,0,USColoradoSanJuan,Colorado,San Juan,2021-04-04 13:00:01.978061,2020-10-13 00:00:00.000000,1.65770884,4.24607707,9.03400293,12,30,65,3,10,28,0.49428135,1.40764555,3.90978663,0.07620858,0.15982162,0.39151375
8111,0,USColoradoSanJuan,Colorado,San Juan,2021-04-04 13:00:01.978061,2020-10-14 00:00:00.000000,1.86511149,5.28136646,9.63063666,13,38,70,4,12,31,0.68437426,1.74384536,4.32274045,0.07631765,0.16020755,0.39361263
8111,0,USColoradoSanJuan,Colorado,San Juan,2021-04-04 13:00:01.978061,2020-10-15 00:00:00.000000,2.08158128,6.19436493,10.17277085,15,45,74,6,16,33,0.93131082,2.22205555,4.64066271,0.07352536,0.16165470,0.39605294
8111,0,USColoradoSanJuan,Colorado,San Juan,2021-04-04 13:00:01.978061,2020-10-16 00:00:00.000000,2.21540864,6.98402220,11.05842880,16,50,80,8,19,35,1.19128980,2.62089533,4.90163404,0.07195242,0.16181581,0.39872740
8111,0,USColoradoSanJuan,Colorado,San Juan,2021-04-04 13:00:01.978061,2020-10-17 00:00:00.000000,2.35274737,7.58368218,12.06352772,17,55,87,9,22,37,1.29502262,3.03572323,5.12500952,0.07135494,0.16290857,0.39809131
8111,0,USColoradoSanJuan,Colorado,San Juan,2021-04-04 13:00:01.978061,2020-10-18 00:00:00.000000,2.44910065,8.14217750,12.79627965,17,59,93,9,25,40,1.34597173,3.46705537,5.62861465,0.07119125,0.17092393,0.39661668
8111,0,USColoradoSanJuan,Colorado,San Juan,2021-04-04 13:00:01.978061,2020-10-19 00:00:00.000000,3.51055206,8.78609126,13.17408523,25,63,95,10,28,43,1.45924782,3.88322998,6.00059104,0.06955363,0.16994283,0.39775171
8111,0,USColoradoSanJuan,Colorado,San Juan,2021-04-04 13:00:01.978061,2020-10-20 00:00:00.000000,4.54314085,9.42455338,13.77527396,33,68,100,13,31,47,1.86269328,4.32763100,6.46467790,0.06878897,0.16953177,0.39542359
8111,0,USColoradoSanJuan,Colorado,San Juan,2021-04-04 13:00:01.978061,2020-10-21 00:00:00.000000,5.30987277,9.99953297,13.87889964,38,72,101,16,33,49,2.30505284,4.66740260,6.76123715,0.06837798,0.16968144,0.39512448
8111,0,USColoradoSanJuan,Colorado,San Juan,2021-04-04 13:00:01.978061,2020-10-22 00:00:00.000000,6.17289485,10.49015720,14.84428818,44,76,108,19,36,52,2.69786272,4.96588057,7.25594102,0.06803629,0.17535080,0.39484710
8111,0,USColoradoSanJuan,Colorado,San Juan,2021-04-04 13:00:01.978061,2020-10-23 00:00:00.000000,6.76887150,10.90337177,15.33302252,49,79,111,23,39,57,3.17354139,5.37082167,7.85287479,0.06767295,0.17663621,0.39147589
8111,0,USColoradoSanJuan,Colorado,San Juan,2021-04-04 13:00:01.978061,2020-10-24 00:00:00.000000,7.16006158,11.44925848,16.18441749,52,83,117,27,41,61,3.71813785,5.67873037,8.38711769,0.06732021,0.17881249,0.37664713
8111,0,USColoradoSanJuan,Colorado,San Juan,2021-04-04 13:00:01.978061,2020-10-25 00:00:00.000000,7.57585144,11.90645913,17.13703968,55,86,124,27,42,64,3.78898013,5.90653256,8.92547732,0.06763097,0.17751134,0.36339510
8111,0,USColoradoSanJuan,Colorado,San Juan,2021-04-04 13:00:01.978061,2020-10-26 00:00:00.000000,7.91774067,12.09168469,16.81506175,57,88,122,27,45,68,3.83093280,6.22923467,9.45487802,0.06869670,0.17734512,0.34883664
8111,0,USColoradoSanJuan,Colorado,San Juan,2021-04-04 13:00:01.978061,2020-10-27 00:00:00.000000,7.99802996,12.11978534,16.69676343,58,88,121,28,47,71,3.94943054,6.45662317,9.80255750,0.07032722,0.17983714,0.34607912
8111,0,USColoradoSanJuan,Colorado,San Juan,2021-04-04 13:00:01.978061,2020-10-28 00:00:00.000000,8.05885742,12.03347378,16.81392755,58,87,122,29,48,73,4.06595038,6.62427048,10.02794549,0.07188020,0.18249676,0.36114998
8111,0,USColoradoSanJuan,Colorado,San Juan,2021-04-04 13:00:01.978061,2020-10-29 00:00:00.000000,7.64754776,11.98053835,16.98500335,55,87,123,30,48,74,4.13889555,6.66824984,10.16735416,0.07285764,0.18054901,0.36028338
8111,0,USColoradoSanJuan,Colorado,San Juan,2021-04-04 13:00:01.978061,2020-10-30 00:00:00.000000,7.48158160,11.87616346,17.35237090,54,86,126,30,48,73,4.22525247,6.65858577,10.14464920,0.07343170,0.18117973,0.35756717
8111,0,USColoradoSanJuan,Colorado,San Juan,2021-04-04 13:00:01.978061,2020-10-31 00:00:00.000000,7.60044637,11.74454925,17.80199365,55,85,129,30,49,73,4.17622086,6.74681585,10.12522978,0.07400255,0.18119428,0.35249245
8111,0,USColoradoSanJuan,Colorado,San Juan,2021-04-04 13:00:01.978061,2020-11-01 00:00:00.000000,7.66480340,11.69707104,18.09240035,55,85,131,30,48,72,4.14302265,6.72334085,9.95436790,0.07495952,0.18450826,0.34421223
8111,0,USColoradoSanJuan,Colorado,San Juan,2021-04-04 13:00:01.978061,2020-11-02 00:00:00.000000,7.46576350,11.44742164,18.42617080,54,83,134,29,48,72,4.08665481,6.61517579,9.99659493,0.07764649,0.18671278,0.33336375
8111,0,USColoradoSanJuan,Colorado,San Juan,2021-04-04 13:00:01.978061,2020-11-03 00:00:00.000000,7.22229679,11.36489183,18.31876158,52,82,133,29,47,74,4.00878582,6.58739970,10.25552121,0.07821938,0.18734743,0.33121090
8111,0,USColoradoSanJuan,Colorado,San Juan,2021-04-04 13:00:01.978061,2020-11-04 00:00:00.000000,6.96960522,11.26932540,18.17971836,50,82,132,28,47,74,3.91621171,6.47049900,10.21802590,0.07970070,0.19027879,0.33022783
8111,0,USColoradoSanJuan,Colorado,San Juan,2021-04-04 13:00:01.978061,2020-11-05 00:00:00.000000,6.85106181,11.20570031,18.00866340,49,81,131,27,46,74,3.81483038,6.41324857,10.22610415,0.08059549,0.19774954,0.32751071
8111,0,USColoradoSanJuan,Colorado,San Juan,2021-04-04 13:00:01.978061,2020-11-06 00:00:00.000000,6.62951685,11.23603889,18.33788014,48,81,133,27,46,77,3.82636374,6.37057055,10.61122709,0.08107793,0.20008219,0.32721740
8111,0,USColoradoSanJuan,Colorado,San Juan,2021-04-04 13:00:01.978061,2020-11-07 00:00:00.000000,6.41699862,10.98121963,18.21043536,46,79,132,27,46,76,3.83843498,6.36183546,10.55503564,0.08140815,0.20108698,0.32702192
8111,0,USColoradoSanJuan,Colorado,San Juan,2021-04-04 13:00:01.978061,2020-11-08 00:00:00.000000,6.04492826,10.85106756,18.01206077,44,78,131,26,45,76,3.61055941,6.28747166,10.46931781,0.08175542,0.19974975,0.32909681
8111,0,USColoradoSanJuan,Colorado,San Juan,2021-04-04 13:00:01.978061,2020-11-09 00:00:00.000000,6.46788325,10.88502088,17.85153846,47,79,129,24,45,75,3.39569137,6.22413416,10.37122558,0.08530736,0.19852681,0.32687455
8111,0,USColoradoSanJuan,Colorado,San Juan,2021-04-04 13:00:01.978061,2020-11-10 00:00:00.000000,6.60227078,10.93033181,17.68314305,48,79,128,24,44,74,3.38984079,6.16792988,10.27539889,0.08804921,0.20090041,0.33122691
8111,0,USColoradoSanJuan,Colorado,San Juan,2021-04-04 13:00:01.978061,2020-11-11 00:00:00.000000,6.38098925,11.05439187,17.49829892,46,80,127,25,44,74,3.48749027,6.10463569,10.18117260,0.08927637,0.20383407,0.33730345
8111,0,USColoradoSanJuan,Colorado,San Juan,2021-04-04 13:00:01.978061,2020-11-12 00:00:00.000000,6.25210601,10.98500197,17.29754715,45,79,125,26,44,74,3.63016052,6.09837629,10.16740869,0.08974966,0.20155769,0.34458603
8111,0,USColoradoSanJuan,Colorado,San Juan,2021-04-04 13:00:01.978061,2020-11-13 00:00:00.000000,6.33013263,11.13228327,17.07085046,46,81,124,26,44,74,3.66996258,6.06292776,10.28701088,0.09005007,0.20392933,0.35208394
8111,0,USColoradoSanJuan,Colorado,San Juan,2021-04-04 13:00:01.978061,2020-11-14 00:00:00.000000,6.41380836,11.17244859,16.80845570,46,81,122,25,44,75,3.54906330,6.07273149,10.41970809,0.09055751,0.20357142,0.35873434
8111,0,USColoradoSanJuan,Colorado,San Juan,2021-04-04 13:00:01.978061,2020-11-15 00:00:00.000000,6.49301768,11.16551734,17.03805542,47,81,124,24,44,76,3.43368611,6.09000131,10.56057573,0.09146433,0.20244719,0.36395178
8111,0,USColoradoSanJuan,Colorado,San Juan,2021-04-04 13:00:01.978061,2020-11-16 00:00:00.000000,6.30524091,11.02040866,16.71424921,45,80,121,24,44,77,3.35764103,6.05499582,10.70592371,0.09241086,0.20254085,0.36776408
8111,0,USColoradoSanJuan,Colorado,San Juan,2021-04-04 13:00:01.978061,2020-11-17 00:00:00.000000,5.93304413,10.90633970,16.37996486,43,79,119,24,44,78,3.30599878,6.09820231,10.73701494,0.09330841,0.20244701,0.37082036
8111,0,USColoradoSanJuan,Colorado,San Juan,2021-04-04 13:00:01.978061,2020-11-18 00:00:00.000000,5.59828348,10.78241781,16.02762809,40,78,116,23,44,77,3.20364154,6.04852122,10.68810424,0.09468712,0.20246961,0.37653408
8111,0,USColoradoSanJuan,Colorado,San Juan,2021-04-04 13:00:01.978061,2020-11-19 00:00:00.000000,5.30440390,10.62897526,15.66558512,38,77,114,22,43,77,3.07424063,5.97820501,10.58294733,0.09464756,0.20393893,0.39418524
8111,0,USColoradoSanJuan,Colorado,San Juan,2021-04-04 13:00:01.978061,2020-11-20 00:00:00.000000,5.03048160,10.48224763,15.32799642,36,76,111,21,43,75,2.92978775,5.92069024,10.43827347,0.09173124,0.20764091,0.41621768
8111,0,USColoradoSanJuan,Colorado,San Juan,2021-04-04 13:00:01.978061,2020-11-21 00:00:00.000000,4.86749992,10.32428098,15.45242193,35,75,112,20,42,74,2.78484091,5.83402455,10.26642596,0.09089090,0.20953188,0.43470351
8111,0,USColoradoSanJuan,Colorado,San Juan,2021-04-04 13:00:01.978061,2020-11-22 00:00:00.000000,4.80515744,10.13839691,15.72926806,34,73,114,19,42,73,2.64559506,5.77422840,10.07624545,0.09506560,0.21340157,0.45021215
8111,0,USColoradoSanJuan,Colorado,San Juan,2021-04-04 13:00:01.978061,2020-11-23 00:00:00.000000,4.91887437,10.13752937,15.88601653,35,73,115,18,41,74,2.51288393,5.71520916,10.17161148,0.09456138,0.21434223,0.47075301
8111,0,USColoradoSanJuan,Colorado,San Juan,2021-04-04 13:00:01.978061,2020-11-24 00:00:00.000000,4.94656478,10.00508024,15.78905170,36,72,114,17,41,73,2.42773953,5.66137950,10.03985405,0.09432156,0.21511828,0.46662289
8111,0,USColoradoSanJuan,Colorado,San Juan,2021-04-04 13:00:01.978061,2020-11-25 00:00:00.000000,4.82020157,9.96231132,15.73224923,35,72,114,17,41,71,2.37412760,5.65853578,9.86039622,0.09418406,0.21934114,0.45653190
8111,0,USColoradoSanJuan,Colorado,San Juan,2021-04-04 13:00:01.978061,2020-11-26 00:00:00.000000,4.69554918,9.88457209,15.67465236,34,71,114,17,40,70,2.34131073,5.57718895,9.69451120,0.09407354,0.22440649,0.44474949
8111,0,USColoradoSanJuan,Colorado,San Juan,2021-04-04 13:00:01.978061,2020-11-27 00:00:00.000000,4.57116556,10.01502419,15.61466030,33,72,113,16,40,73,2.32214612,5.58666211,10.04165656,0.09398985,0.23859354,0.43797729
8111,0,USColoradoSanJuan,Colorado,San Juan,2021-04-04 13:00:01.978061,2020-11-28 00:00:00.000000,4.44817750,9.98264422,15.55149361,32,72,113,16,40,74,2.31198099,5.60508578,10.19999644,0.09739620,0.25031781,0.43715956
8111,0,USColoradoSanJuan,Colorado,San Juan,2021-04-04 13:00:01.978061,2020-11-29 00:00:00.000000,4.32476870,9.83387337,15.48486599,31,71,112,16,40,73,2.30783628,5.55822296,10.15540937,0.10528649,0.25299897,0.44804697
8111,0,USColoradoSanJuan,Colorado,San Juan,2021-04-04 13:00:01.978061,2020-11-30 00:00:00.000000,5.30053150,10.70158525,15.68082110,38,77,114,16,40,73,2.30766725,5.51863193,10.11393126,0.10492464,0.25340239,0.49002759
8111,0,USColoradoSanJuan,Colorado,San Juan,2021-04-04 13:00:01.978061,2020-12-01 00:00:00.000000,6.18105595,11.40700099,16.53557960,44,83,120,18,41,73,2.52257826,5.64661565,10.13375125,0.10590679,0.25413815,0.50692275
8111,0,USColoradoSanJuan,Colorado,San Juan,2021-04-04 13:00:01.978061,2020-12-02 00:00:00.000000,7.06584302,12.13249282,17.72612102,51,88,129,20,42,74,2.86126198,5.87122826,10.18455295,0.10178199,0.25425177,0.50870906
8111,0,USColoradoSanJuan,Colorado,San Juan,2021-04-04 13:00:01.978061,2020-12-03 00:00:00.000000,7.92560967,12.95489954,18.83790280,57,94,137,23,45,74,3.26441871,6.21868176,10.24595469,0.10098793,0.25715820,0.50828052
8111,0,USColoradoSanJuan,Colorado,San Juan,2021-04-04 13:00:01.978061,2020-12-04 00:00:00.000000,8.43131811,13.67023949,19.07119726,61,99,138,26,48,76,3.65507227,6.65609236,10.47437520,0.10039345,0.25878043,0.50561122
8111,0,USColoradoSanJuan,Colorado,San Juan,2021-04-04 13:00:01.978061,2020-12-05 00:00:00.000000,8.93938658,14.28795871,20.05866343,65,104,146,30,51,79,4.14710357,7.11270564,10.98107162,0.09962191,0.26380471,0.50580468
8111,0,USColoradoSanJuan,Colorado,San Juan,2021-04-04 13:00:01.978061,2020-12-06 00:00:00.000000,9.26687395,14.88928222,21.06720750,67,108,153,33,55,84,4.58895565,7.55691144,11.59368432,0.09852814,0.26680892,0.53355735
8111,0,USColoradoSanJuan,Colorado,San Juan,2021-04-04 13:00:01.978061,2020-12-07 00:00:00.000000,9.21710550,14.91180859,21.08836766,67,108,153,35,57,89,4.92600389,7.88534437,12.23431691,0.09757871,0.26911054,0.54344580
8111,0,USColoradoSanJuan,Colorado,San Juan,2021-04-04 13:00:01.978061,2020-12-08 00:00:00.000000,9.17232916,14.57807612,21.08723482,66,106,153,37,58,90,5.10861163,8.03170638,12.48388290,0.09733755,0.27335917,0.53513647
8111,0,USColoradoSanJuan,Colorado,San Juan,2021-04-04 13:00:01.978061,2020-12-09 00:00:00.000000,8.85352062,14.28605192,21.04780027,64,104,153,37,58,91,5.15645870,8.09958054,12.63711400,0.09711785,0.27533474,0.53183578
8111,0,USColoradoSanJuan,Colorado,San Juan,2021-04-04 13:00:01.978061,2020-12-10 00:00:00.000000,8.36980014,14.11168737,20.97855477,60,102,152,36,59,92,5.02581540,8.16658067,12.72809302,0.09668291,0.27897070,0.53964559
8111,0,USColoradoSanJuan,Colorado,San Juan,2021-04-04 13:00:01.978061,2020-12-11 00:00:00.000000,8.21908502,13.98080854,20.94293506,59,101,152,34,59,92,4.77737776,8.15171091,12.74146417,0.09630037,0.28531427,0.54587794
8111,0,USColoradoSanJuan,Colorado,San Juan,2021-04-04 13:00:01.978061,2020-12-12 00:00:00.000000,8.11891716,13.78041056,21.22262546,59,100,154,34,58,92,4.71230312,8.03897051,12.69859353,0.09529218,0.29924244,0.54112615
8111,0,USColoradoSanJuan,Colorado,San Juan,2021-04-04 13:00:01.978061,2020-12-13 00:00:00.000000,7.72909345,13.66035567,21.44904903,56,99,156,33,57,91,4.61105769,7.84845384,12.61431659,0.09366138,0.29696589,0.53558513
8111,0,USColoradoSanJuan,Colorado,San Juan,2021-04-04 13:00:01.978061,2020-12-14 00:00:00.000000,7.51941684,13.63441915,21.54111232,54,99,156,32,56,91,4.39679510,7.71025620,12.50149921,0.09439372,0.30411388,0.53020866
8111,0,USColoradoSanJuan,Colorado,San Juan,2021-04-04 13:00:01.978061,2020-12-15 00:00:00.000000,7.26475421,13.47118402,21.92272905,52,98,159,30,55,90,4.20136232,7.62415676,12.41415838,0.09598329,0.30930012,0.52538186
8111,0,USColoradoSanJuan,Colorado,San Juan,2021-04-04 13:00:01.978061,2020-12-16 00:00:00.000000,6.83171558,13.29885119,22.29051448,49,96,162,29,55,89,4.02479052,7.58694553,12.34762576,0.09369032,0.31371079,0.56386310
8111,0,USColoradoSanJuan,Colorado,San Juan,2021-04-04 13:00:01.978061,2020-12-17 00:00:00.000000,6.48125367,13.31842473,22.63565268,47,96,164,28,54,89,3.86223058,7.52992393,12.29872946,0.09360639,0.32114243,0.63619928
8111,0,USColoradoSanJuan,Colorado,San Juan,2021-04-04 13:00:01.978061,2020-12-18 00:00:00.000000,6.03798823,13.28285441,22.95566409,43,96,167,26,54,89,3.69329874,7.43685589,12.26416896,0.09367334,0.34425628,0.67957162
8111,0,USColoradoSanJuan,Colorado,San Juan,2021-04-04 13:00:01.978061,2020-12-19 00:00:00.000000,5.62812609,13.11915705,23.28326328,40,95,169,25,54,89,3.56595311,7.45948601,12.25308906,0.09410075,0.35604977,0.69625511
8111,0,USColoradoSanJuan,Colorado,San Juan,2021-04-04 13:00:01.978061,2020-12-20 00:00:00.000000,5.25422536,12.98660487,23.59315312,38,94,171,24,54,90,3.43112475,7.44504167,12.40239752,0.09609891,0.36304483,0.70440113
8111,0,USColoradoSanJuan,Colorado,San Juan,2021-04-04 13:00:01.978061,2020-12-21 00:00:00.000000,5.31601865,12.89986885,23.51200428,38,93,171,23,54,91,3.20609551,7.55402269,12.62503990,0.10135039,0.36534901,0.70776683
8111,0,USColoradoSanJuan,Colorado,San Juan,2021-04-04 13:00:01.978061,2020-12-22 00:00:00.000000,5.68056454,12.91168358,23.45329614,41,93,170,22,55,92,3.15681153,7.56267235,12.77214999,0.10593768,0.37929889,0.70898669
8111,0,USColoradoSanJuan,Colorado,San Juan,2021-04-04 13:00:01.978061,2020-12-23 00:00:00.000000,5.86157538,13.28510279,23.33032824,42,96,169,21,55,93,3.00257591,7.57572824,12.84972258,0.10904490,0.38136795,0.71993631
8111,0,USColoradoSanJuan,Colorado,San Juan,2021-04-04 13:00:01.978061,2020-12-24 00:00:00.000000,5.57693106,13.38416477,23.07629868,40,97,167,20,55,93,2.85213868,7.56156163,12.88146168,0.11341167,0.40236510,0.72017870
8111,0,USColoradoSanJuan,Colorado,San Juan,2021-04-04 13:00:01.978061,2020-12-25 00:00:00.000000,5.32247487,13.32873769,22.70777458,38,97,165,19,55,93,2.71125570,7.59186668,12.88097818,0.11870605,0.42775907,0.71638686
8111,0,USColoradoSanJuan,Colorado,San Juan,2021-04-04 13:00:01.978061,2020-12-26 00:00:00.000000,5.09517223,13.57646869,23.12253735,37,98,168,18,55,93,2.58255234,7.66062827,12.88318233,0.11501374,0.43671930,0.71013049
8111,0,USColoradoSanJuan,Colorado,San Juan,2021-04-04 13:00:01.978061,2020-12-27 00:00:00.000000,4.89069180,13.50139290,23.55657255,35,98,171,17,56,94,2.46640065,7.72612454,12.92027682,0.11252978,0.44038165,0.74595647
8111,0,USColoradoSanJuan,Colorado,San Juan,2021-04-04 13:00:01.978061,2020-12-28 00:00:00.000000,5.75231029,14.11201974,24.25046769,41,102,176,17,57,94,2.40921594,7.92225197,12.96529011,0.12490692,0.45439972,0.76531170
8111,0,USColoradoSanJuan,Colorado,San Juan,2021-04-04 13:00:01.978061,2020-12-29 00:00:00.000000,6.41774182,14.68207566,24.21390985,46,106,176,19,58,94,2.61756128,7.96783302,13.02012210,0.12507637,0.47393670,0.77560705
8111,0,USColoradoSanJuan,Colorado,San Juan,2021-04-04 13:00:01.978061,2020-12-30 00:00:00.000000,7.26062811,15.28895063,24.10492899,52,111,175,21,59,95,2.97115670,8.11885876,13.06407421,0.12498587,0.48872312,0.85290397
8111,0,USColoradoSanJuan,Colorado,San Juan,2021-04-04 13:00:01.978061,2020-12-31 00:00:00.000000,7.12935794,15.51641105,24.62203515,51,112,179,24,60,95,3.40227588,8.36668119,13.12616213,0.12450270,0.48127782,0.88924022
8111,0,USColoradoSanJuan,Colorado,San Juan,2021-04-04 13:00:01.978061,2021-01-01 00:00:00.000000,7.00301092,15.97036951,25.37209694,50,116,184,26,61,96,3.63916711,8.50884157,13.27115595,0.12316551,0.49168056,0.92971596
8111,0,USColoradoSanJuan,Colorado,San Juan,2021-04-04 13:00:01.978061,2021-01-02 00:00:00.000000,6.87926252,16.17364396,26.06058501,50,117,189,28,62,100,3.95164191,8.65153114,13.77409855,0.12059459,0.50955767,0.97233036
8111,0,USColoradoSanJuan,Colorado,San Juan,2021-04-04 13:00:01.978061,2021-01-03 00:00:00.000000,7.07297782,16.65012889,27.11743278,51,121,197,29,64,103,4.06395746,8.87367374,14.19497187,0.11777259,0.50957071,1.00789670
8111,0,USColoradoSanJuan,Colorado,San Juan,2021-04-04 13:00:01.978061,2021-01-04 00:00:00.000000,8.04342198,17.09508700,27.10441799,58,124,197,30,66,106,4.18518034,9.12353442,14.57796727,0.11629169,0.52000352,1.03097095
8111,0,USColoradoSanJuan,Colorado,San Juan,2021-04-04 13:00:01.978061,2021-01-05 00:00:00.000000,9.00022122,17.52294087,27.04795694,65,127,196,31,67,109,4.30568854,9.32235812,15.06378537,0.11680582,0.52653386,1.04365275
8111,0,USColoradoSanJuan,Colorado,San Juan,2021-04-04 13:00:01.978061,2021-01-06 00:00:00.000000,9.72427073,17.94100659,26.93045973,70,130,196,34,68,112,4.72650779,9.46881135,15.52105501,0.11983529,0.53197959,1.05580424
8111,0,USColoradoSanJuan,Colorado,San Juan,2021-04-04 13:00:01.978061,2021-01-07 00:00:00.000000,10.72560438,18.29224741,26.66238859,78,133,194,37,69,115,5.21326579,9.51504770,15.80650938,0.12326473,0.53243706,1.06681017
8111,0,USColoradoSanJuan,Colorado,San Juan,2021-04-04 13:00:01.978061,2021-01-08 00:00:00.000000,10.96421502,18.42192657,26.60805140,79,134,193,38,71,115,5.34345639,9.80676875,15.81506371,0.12645539,0.54115373,1.11714398
8111,0,USColoradoSanJuan,Colorado,San Juan,2021-04-04 13:00:01.978061,2021-01-09 00:00:00.000000,11.29594882,18.49207001,26.76918806,82,134,194,40,73,115,5.61196573,10.09945027,15.89736884,0.12961150,0.54464251,1.16093799
8111,0,USColoradoSanJuan,Colorado,San Juan,2021-04-04 13:00:01.978061,2021-01-10 00:00:00.000000,11.31439427,18.70267454,26.80733312,82,136,195,43,74,118,6.01914657,10.17846405,16.28581327,0.13086210,0.54690690,1.17662047
8111,0,USColoradoSanJuan,Colorado,San Juan,2021-04-04 13:00:01.978061,2021-01-11 00:00:00.000000,11.19662401,18.41776494,26.41258680,81,134,192,44,73,117,6.08314535,10.14325914,16.10559213,0.12791076,0.54705757,1.18069270
8111,0,USColoradoSanJuan,Colorado,San Juan,2021-04-04 13:00:01.978061,2021-01-12 00:00:00.000000,10.71059899,18.04352891,25.62633334,77,131,186,43,74,115,5.99176660,10.17223637,15.81626056,0.12351748,0.54592603,1.17991195
8111,0,USColoradoSanJuan,Colorado,San Juan,2021-04-04 13:00:01.978061,2021-01-13 00:00:00.000000,10.64873688,17.92172777,24.61781860,77,130,179,42,74,114,5.87394771,10.17311270,15.76355962,0.11974791,0.54353315,1.17617070
8111,0,USColoradoSanJuan,Colorado,San Juan,2021-04-04 13:00:01.978061,2021-01-14 00:00:00.000000,10.22892196,18.10010409,23.90103971,74,131,173,41,73,114,5.72365300,10.15762397,15.73133618,0.11026806,0.53928826,1.16902842
8111,0,USColoradoSanJuan,Colorado,San Juan,2021-04-04 13:00:01.978061,2021-01-15 00:00:00.000000,9.78418805,17.89033524,23.53227586,71,130,171,40,73,113,5.57651477,10.06019182,15.64880199,0.10146276,0.54278022,1.15833378
8111,0,USColoradoSanJuan,Colorado,San Juan,2021-04-04 13:00:01.978061,2021-01-16 00:00:00.000000,9.37004309,18.00070770,23.02113204,68,131,167,40,73,112,5.61059660,10.04463992,15.51798041,0.09911487,0.51764389,1.14527324
8111,0,USColoradoSanJuan,Colorado,San Juan,2021-04-04 13:00:01.978061,2021-01-17 00:00:00.000000,8.98836017,17.69378396,22.92336265,65,128,166,39,72,111,5.39535376,9.94200967,15.34419656,0.09827531,0.50876095,1.13235227
8111,0,USColoradoSanJuan,Colorado,San Juan,2021-04-04 13:00:01.978061,2021-01-18 00:00:00.000000,9.19026968,17.16142092,23.05224725,66,124,167,37,73,110,5.17823601,10.04110733,15.13283922,0.09796800,0.50670976,1.12498488
8111,0,USColoradoSanJuan,Colorado,San Juan,2021-04-04 13:00:01.978061,2021-01-19 00:00:00.000000,9.71681321,16.77364848,22.97659626,70,122,167,37,71,107,5.13555043,9.77882242,14.74569682,0.09652783,0.50604848,1.14992800
8111,0,USColoradoSanJuan,Colorado,San Juan,2021-04-04 13:00:01.978061,2021-01-20 00:00:00.000000,10.13669743,16.28825669,22.99304842,73,118,167,38,69,104,5.33401796,9.54580071,14.31641739,0.08589973,0.51673404,1.19917061
8111,0,USColoradoSanJuan,Colorado,San Juan,2021-04-04 13:00:01.978061,2021-01-21 00:00:00.000000,10.42351308,15.85254710,22.89140171,75,115,166,38,67,101,5.33823925,9.29496543,13.95116408,0.08577226,0.52366219,1.27157654
8111,0,USColoradoSanJuan,Colorado,San Juan,2021-04-04 13:00:01.978061,2021-01-22 00:00:00.000000,10.15541205,15.38875675,22.75733205,73,112,165,38,66,102,5.34466584,9.08032656,14.05344480,0.08573502,0.52427191,1.35953849
8111,0,USColoradoSanJuan,Colorado,San Juan,2021-04-04 13:00:01.978061,2021-01-23 00:00:00.000000,10.09405631,15.11018797,22.89047565,73,110,166,38,64,103,5.31908188,8.87008482,14.19023191,0.08577255,0.52704212,1.33786902
8111,0,USColoradoSanJuan,Colorado,San Juan,2021-04-04 13:00:01.978061,2021-01-24 00:00:00.000000,9.79857938,14.67391614,23.01351296,71,106,167,38,63,102,5.30069051,8.67674675,14.03944035,0.08603581,0.52243780,1.28062698
8111,0,USColoradoSanJuan,Colorado,San Juan,2021-04-04 13:00:01.978061,2021-01-25 00:00:00.000000,9.33174655,14.04835168,22.13769016,67,102,161,38,61,102,5.24951966,8.47946166,14.11034158,0.08682118,0.51293075,1.37432142
8111,0,USColoradoSanJuan,Colorado,San Juan,2021-04-04 13:00:01.978061,2021-01-26 00:00:00.000000,8.75504702,13.28767591,21.22758269,63,96,154,36,59,101,5.06898402,8.23078547,13.95367201,0.08826658,0.48943188,1.39711107
8111,0,USColoradoSanJuan,Colorado,San Juan,2021-04-04 13:00:01.978061,2021-01-27 00:00:00.000000,8.18769825,12.54794806,20.27914983,59,91,147,35,57,99,4.87780473,7.91140933,13.60148822,0.08963687,0.48189731,1.40135295
8111,0,USColoradoSanJuan,Colorado,San Juan,2021-04-04 13:00:01.978061,2021-01-28 00:00:00.000000,7.65291397,11.89688129,19.31972156,55,86,140,33,55,95,4.58027975,7.62111357,13.13232229,0.08947064,0.46646446,1.40204054
8111,0,USColoradoSanJuan,Colorado,San Juan,2021-04-04 13:00:01.978061,2021-01-29 00:00:00.000000,7.15176760,11.18553027,18.36931448,52,81,133,30,52,91,4.25696489,7.27575153,12.59797898,0.08843587,0.46859947,1.40214049
8111,0,USColoradoSanJuan,Colorado,San Juan,2021-04-04 13:00:01.978061,2021-01-30 00:00:00.000000,6.67882583,10.50054660,17.44198348,48,76,126,28,49,87,3.92572355,6.86031550,12.03274793,0.08857667,0.46597408,1.41688555
8111,0,USColoradoSanJuan,Colorado,San Juan,2021-04-04 13:00:01.978061,2021-01-31 00:00:00.000000,6.23600410,9.87783129,16.54713062,45,71,120,26,47,83,3.64618553,6.51455400,11.46009278,0.08758841,0.46169399,1.54384600
8111,0,USColoradoSanJuan,Colorado,San Juan,2021-04-04 13:00:01.978061,2021-02-01 00:00:00.000000,5.92251761,9.26981317,15.58008314,43,67,113,24,44,79,3.43041943,6.17249928,10.89652142,0.08751425,0.45376937,1.53868332
8111,0,USColoradoSanJuan,Colorado,San Juan,2021-04-04 13:00:01.978061,2021-02-02 00:00:00.000000,5.39754821,8.75652841,14.70171202,39,63,107,23,42,76,3.19281713,5.82057303,10.46114455,0.08804658,0.43548243,1.53854668
8111,0,USColoradoSanJuan,Colorado,San Juan,2021-04-04 13:00:01.978061,2021-02-03 00:00:00.000000,4.92593833,8.38248275,13.85825704,35,61,100,21,40,72,2.92148410,5.49933401,9.99406451,0.09084513,0.43192690,1.54748999
8111,0,USColoradoSanJuan,Colorado,San Juan,2021-04-04 13:00:01.978061,2021-02-04 00:00:00.000000,4.60576710,8.01686039,13.14726470,33,58,95,19,37,70,2.69259468,5.20657344,9.62033225,0.09514414,0.43110239,1.56782910
8111,0,USColoradoSanJuan,Colorado,San Juan,2021-04-04 13:00:01.978061,2021-02-05 00:00:00.000000,4.34297728,7.54241657,12.79143635,31,54,93,18,35,67,2.49843244,4.89058888,9.28028740,0.09518644,0.42259331,1.59746474
8111,0,USColoradoSanJuan,Colorado,San Juan,2021-04-04 13:00:01.978061,2021-02-06 00:00:00.000000,4.10338400,7.17573342,12.44963472,29,52,90,17,33,65,2.34088943,4.60702437,8.96653945,0.09512056,0.41510208,1.62746078
8111,0,USColoradoSanJuan,Colorado,San Juan,2021-04-04 13:00:01.978061,2021-02-07 00:00:00.000000,3.89106066,6.84062078,12.11789882,28,49,88,16,31,63,2.24668676,4.33816743,8.67381518,0.09521673,0.41994512,1.64915753
8111,0,USColoradoSanJuan,Colorado,San Juan,2021-04-04 13:00:01.978061,2021-02-08 00:00:00.000000,3.63546036,6.54765872,11.67889984,26,47,85,15,30,61,2.16256390,4.16219691,8.39843058,0.09551178,0.41896077,1.66068538
8111,0,USColoradoSanJuan,Colorado,San Juan,2021-04-04 13:00:01.978061,2021-02-09 00:00:00.000000,3.39909544,6.19012322,11.24598497,24,45,81,15,28,58,2.08515256,3.95315748,8.09923262,0.09561597,0.41918840,1.66592811
8111,0,USColoradoSanJuan,Colorado,San Juan,2021-04-04 13:00:01.978061,2021-02-10 00:00:00.000000,3.17656109,5.91934904,10.82439760,23,43,78,14,27,56,1.99430517,3.76654985,7.79009040,0.09561601,0.41904624,1.69592906
8111,0,USColoradoSanJuan,Colorado,San Juan,2021-04-04 13:00:01.978061,2021-02-11 00:00:00.000000,3.03522784,5.66472825,10.42802001,22,41,75,13,26,54,1.86662035,3.59660854,7.48049844,0.09553081,0.42061788,1.68991320
8111,0,USColoradoSanJuan,Colorado,San Juan,2021-04-04 13:00:01.978061,2021-02-12 00:00:00.000000,2.96821518,5.46895751,10.07560015,21,39,73,12,25,52,1.74469219,3.44719505,7.17703708,0.09531537,0.43550647,1.67624876
8111,0,USColoradoSanJuan,Colorado,San Juan,2021-04-04 13:00:01.978061,2021-02-13 00:00:00.000000,2.91142694,5.32883686,9.76080744,21,38,71,11,24,50,1.63058816,3.31231037,6.88435429,0.09076972,0.43406361,1.68282995
8111,0,USColoradoSanJuan,Colorado,San Juan,2021-04-04 13:00:01.978061,2021-02-14 00:00:00.000000,2.86192720,5.17477556,9.46587482,20,37,68,11,23,48,1.52348347,3.18836361,6.60561553,0.07996323,0.43698968,1.71231862
8111,0,USColoradoSanJuan,Colorado,San Juan,2021-04-04 13:00:01.978061,2021-02-15 00:00:00.000000,2.76509942,5.08156513,9.26579450,20,36,67,10,22,46,1.42220967,3.02524162,6.34271658,0.07149462,0.44606858,1.75644671
8111,0,USColoradoSanJuan,Colorado,San Juan,2021-04-04 13:00:01.978061,2021-02-16 00:00:00.000000,2.65822703,4.83943407,9.07836091,19,35,66,9,21,44,1.37173826,2.94369339,6.06511294,0.07005184,0.45352157,1.91142830
8111,0,USColoradoSanJuan,Colorado,San Juan,2021-04-04 13:00:01.978061,2021-02-17 00:00:00.000000,2.54538176,4.72224146,8.70596313,18,34,63,9,20,42,1.35467889,2.87481506,5.78498666,0.07074765,0.45371244,1.93968200
8111,0,USColoradoSanJuan,Colorado,San Juan,2021-04-04 13:00:01.978061,2021-02-18 00:00:00.000000,2.49452456,4.54249658,8.47498443,18,33,61,9,20,40,1.35925538,2.79392971,5.58775222,0.07462393,0.44120029,1.90864506
8111,0,USColoradoSanJuan,Colorado,San Juan,2021-04-04 13:00:01.978061,2021-02-19 00:00:00.000000,2.41570909,4.45514835,8.38095800,17,32,61,10,20,40,1.37807360,2.76176320,5.49803621,0.08163561,0.42398779,1.95445245
8111,0,USColoradoSanJuan,Colorado,San Juan,2021-04-04 13:00:01.978061,2021-02-20 00:00:00.000000,2.43917673,4.43203995,8.29344949,17,32,60,9,19,39,1.30441939,2.65211835,5.41835448,0.07743226,0.41519336,2.01998010
8111,0,USColoradoSanJuan,Colorado,San Juan,2021-04-04 13:00:01.978061,2021-02-21 00:00:00.000000,2.42284710,4.41192985,8.21150473,17,32,59,9,18,38,1.32008456,2.60497947,5.34673772,0.07429501,0.40787398,2.02481035
8111,0,USColoradoSanJuan,Colorado,San Juan,2021-04-04 13:00:01.978061,2021-02-22 00:00:00.000000,2.35930868,4.25773214,7.90574601,17,30,57,9,18,38,1.33058843,2.57981283,5.29722768,0.07238063,0.39749303,1.99099918
8111,0,USColoradoSanJuan,Colorado,San Juan,2021-04-04 13:00:01.978061,2021-02-23 00:00:00.000000,2.40727956,4.15309442,7.60421639,17,30,55,9,18,38,1.27659136,2.49900134,5.24183343,0.07145205,0.39066298,1.96441906
8111,0,USColoradoSanJuan,Colorado,San Juan,2021-04-04 13:00:01.978061,2021-02-24 00:00:00.000000,2.39342827,4.08305025,7.42139069,17,29,54,8,18,37,1.22586820,2.47319529,5.17539896,0.07444473,0.38367120,1.95687652
8111,0,USColoradoSanJuan,Colorado,San Juan,2021-04-04 13:00:01.978061,2021-02-25 00:00:00.000000,2.33800170,3.96902385,7.29368538,17,28,53,8,17,37,1.17858062,2.40793745,5.10203547,0.07494157,0.37622636,1.95949014
8111,0,USColoradoSanJuan,Colorado,San Juan,2021-04-04 13:00:01.978061,2021-02-26 00:00:00.000000,2.28546268,3.88770580,7.15650028,16,28,52,8,17,36,1.16170231,2.36492596,5.02364277,0.07495188,0.37255871,1.95070379
8111,0,USColoradoSanJuan,Colorado,San Juan,2021-04-04 13:00:01.978061,2021-02-27 00:00:00.000000,2.24757691,3.85015132,7.02037375,16,28,51,8,16,35,1.19493996,2.33269482,4.93979648,0.07502145,0.37313029,1.92976851
8111,0,USColoradoSanJuan,Colorado,San Juan,2021-04-04 13:00:01.978061,2021-02-28 00:00:00.000000,2.20349176,3.80503137,6.91161231,16,27,50,8,16,35,1.22822512,2.26991390,4.84923162,0.08345425,0.37482043,1.90582643
8111,0,USColoradoSanJuan,Colorado,San Juan,2021-04-04 13:00:01.978061,2021-03-01 00:00:00.000000,2.21316755,3.79120668,6.99801977,16,27,50,8,16,34,1.22750247,2.22103263,4.75275610,0.08521736,0.37516943,1.88535971
8111,0,USColoradoSanJuan,Colorado,San Juan,2021-04-04 13:00:01.978061,2021-03-02 00:00:00.000000,2.21513652,3.76490789,6.92709110,16,27,50,9,16,34,1.23818827,2.20140182,4.73134549,0.08652236,0.37345403,1.87368474
8111,0,USColoradoSanJuan,Colorado,San Juan,2021-04-04 13:00:01.978061,2021-03-03 00:00:00.000000,2.23174629,3.92598094,6.69799074,16,28,48,8,15,34,1.20257096,2.17349398,4.75547563,0.08665026,0.36865707,1.86660499
8111,0,USColoradoSanJuan,Colorado,San Juan,2021-04-04 13:00:01.978061,2021-03-04 00:00:00.000000,2.22090190,3.93850210,7.13861817,16,28,51,8,15,33,1.19379804,2.18243428,4.66489663,0.08588732,0.36255918,1.86403277
8111,0,USColoradoSanJuan,Colorado,San Juan,2021-04-04 13:00:01.978061,2021-03-05 00:00:00.000000,2.22794504,3.80543551,7.56116143,16,27,55,8,15,32,1.18702662,2.18179434,4.49897965,0.08404500,0.36212225,1.86450107
8111,0,USColoradoSanJuan,Colorado,San Juan,2021-04-04 13:00:01.978061,2021-03-06 00:00:00.000000,2.23287569,3.75128699,7.81027657,16,27,56,8,15,32,1.18278416,2.14955203,4.42495863,0.08321027,0.36456933,1.86960193
8111,0,USColoradoSanJuan,Colorado,San Juan,2021-04-04 13:00:01.978061,2021-03-07 00:00:00.000000,2.13541892,3.77487502,7.96439335,15,27,57,8,16,32,1.17588940,2.21916457,4.41627773,0.08271570,0.35892878,1.89031652
8111,0,USColoradoSanJuan,Colorado,San Juan,2021-04-04 13:00:01.978061,2021-03-08 00:00:00.000000,2.11625687,3.81890396,7.73148091,15,27,56,8,15,32,1.10689211,2.14391665,4.40237088,0.08435973,0.34553113,1.92019443
8111,0,USColoradoSanJuan,Colorado,San Juan,2021-04-04 13:00:01.978061,2021-03-09 00:00:00.000000,2.09730863,3.68886349,7.49066660,15,26,54,7,15,32,1.07261378,2.14397614,4.40384236,0.08514675,0.33524291,1.81042468
8111,0,USColoradoSanJuan,Colorado,San Juan,2021-04-04 13:00:01.978061,2021-03-10 00:00:00.000000,2.07791716,3.68401001,7.23914878,15,26,52,8,15,31,1.11729138,2.12582383,4.38767703,0.08310085,0.32752946,1.85656712
8111,0,USColoradoSanJuan,Colorado,San Juan,2021-04-04 13:00:01.978061,2021-03-11 00:00:00.000000,2.06077819,3.70387937,6.98541198,15,26,50,7,15,31,1.06980435,2.11703174,4.30787134,0.07966396,0.32727835,1.88732724
8111,0,USColoradoSanJuan,Colorado,San Juan,2021-04-04 13:00:01.978061,2021-03-12 00:00:00.000000,2.03381102,3.70077228,6.73484533,14,26,49,7,15,30,1.08065158,2.12844539,4.18704924,0.07765300,0.32811819,1.90478914
8111,0,USColoradoSanJuan,Colorado,San Juan,2021-04-04 13:00:01.978061,2021-03-13 00:00:00.000000,1.98553864,3.63275610,6.49001015,14,26,47,8,15,29,1.10197298,2.08507969,4.10503690,0.07634021,0.32949017,1.91245161
8111,0,USColoradoSanJuan,Colorado,San Juan,2021-04-04 13:00:01.978061,2021-03-14 00:00:00.000000,1.97611666,3.64097111,6.35938700,14,26,46,8,15,29,1.11090175,2.08837426,4.03781674,0.07589472,0.33813144,1.94723657
8111,0,USColoradoSanJuan,Colorado,San Juan,2021-04-04 13:00:01.978061,2021-03-15 00:00:00.000000,2.13297147,3.63706289,6.22688134,15,26,45,7,15,28,1.08359360,2.12525458,3.97327497,0.07576387,0.33994160,1.99849233
8111,0,USColoradoSanJuan,Colorado,San Juan,2021-04-04 13:00:01.978061,2021-03-16 00:00:00.000000,2.34355474,3.65124097,6.15872444,17,26,44,7,15,28,1.07993525,2.16601071,3.89360047,0.07570810,0.34192892,1.90669162
8111,0,USColoradoSanJuan,Colorado,San Juan,2021-04-04 13:00:01.978061,2021-03-17 00:00:00.000000,2.29129301,3.90492944,6.11296264,16,28,44,8,15,27,1.16484429,2.11500973,3.83320953,0.07567507,0.34475929,1.82732587
8111,0,USColoradoSanJuan,Colorado,San Juan,2021-04-04 13:00:01.978061,2021-03-18 00:00:00.000000,2.24583239,3.95435272,6.03258828,16,28,43,8,15,27,1.18887190,2.09395208,3.77264797,0.07569269,0.33970156,1.84017525
8111,0,USColoradoSanJuan,Colorado,San Juan,2021-04-04 13:00:01.978061,2021-03-19 00:00:00.000000,2.20607527,3.87737289,6.03163695,16,28,43,8,15,27,1.20227905,2.15465922,3.71293854,0.07590105,0.33909394,1.83780834
8111,0,USColoradoSanJuan,Colorado,San Juan,2021-04-04 13:00:01.978061,2021-03-20 00:00:00.000000,2.17142215,3.84985455,6.01339342,15,28,43,8,15,26,1.20441931,2.12120689,3.65481478,0.07618045,0.34081100,1.81118166
8111,0,USColoradoSanJuan,Colorado,San Juan,2021-04-04 13:00:01.978061,2021-03-21 00:00:00.000000,2.16626275,3.80316077,6.16254871,15,27,44,8,15,27,1.20515213,2.12413925,3.79360199,0.06890654,0.33706478,1.85209350
8111,0,USColoradoSanJuan,Colorado,San Juan,2021-04-04 13:00:01.978061,2021-03-22 00:00:00.000000,2.24626679,3.75786929,6.10493728,16,27,44,8,15,28,1.20502013,2.14716073,3.97031165,0.06521167,0.33819834,1.82161979
8111,0,USColoradoSanJuan,Colorado,San Juan,2021-04-04 13:00:01.978061,2021-03-23 00:00:00.000000,2.27665633,3.73988325,6.07802731,16,27,44,8,15,28,1.21799404,2.15657135,3.93002891,0.06447865,0.33547336,1.81580987
8111,0,USColoradoSanJuan,Colorado,San Juan,2021-04-04 13:00:01.978061,2021-03-24 00:00:00.000000,2.28618228,3.87511865,5.96411616,16,28,43,9,15,27,1.23934271,2.12116532,3.78546904,0.06696839,0.32989401,1.81683010
8111,0,USColoradoSanJuan,Colorado,San Juan,2021-04-04 13:00:01.978061,2021-03-25 00:00:00.000000,2.26509631,3.85478418,5.95063762,16,28,43,9,15,26,1.26994333,2.06542089,3.62778750,0.07142685,0.32839297,1.82265235
8111,0,USColoradoSanJuan,Colorado,San Juan,2021-04-04 13:00:01.978061,2021-03-26 00:00:00.000000,2.23325854,3.83113751,6.14450380,16,27,44,9,15,26,1.29357497,2.09395957,3.66788669,0.06785488,0.32714573,1.83915708
8111,0,USColoradoSanJuan,Colorado,San Juan,2021-04-04 13:00:01.978061,2021-03-27 00:00:00.000000,2.23069943,3.78176749,6.22339840,16,27,45,9,15,26,1.32179378,2.13872850,3.70332602,0.06542643,0.32664288,1.88178721
8111,0,USColoradoSanJuan,Colorado,San Juan,2021-04-04 13:00:01.978061,2021-03-28 00:00:00.000000,2.21964927,3.76930846,6.47688595,16,27,47,9,15,27,1.27822215,2.17096850,3.79616141,0.06408848,0.32938164,1.96917792
8111,0,USColoradoSanJuan,Colorado,San Juan,2021-04-04 13:00:01.978061,2021-03-29 00:00:00.000000,2.07393601,3.44438994,6.21021160,15,25,45,8,15,27,1.21043712,2.12891300,3.73061458,0.06345356,0.32796283,2.08343768
8111,0,USColoradoSanJuan,Colorado,San Juan,2021-04-04 13:00:01.978061,2021-03-30 00:00:00.000000,1.92948689,3.19568121,5.93367253,14,23,43,8,15,26,1.12718670,2.08875308,3.62684679,0.06315930,0.32558158,2.17002156
8111,0,USColoradoSanJuan,Colorado,San Juan,2021-04-04 13:00:01.978061,2021-03-31 00:00:00.000000,1.78596826,2.92424623,5.68400412,13,21,41,7,14,25,1.05897151,1.99850333,3.50088991,0.06298351,0.32314545,2.21085352
8111,0,USColoradoSanJuan,Colorado,San Juan,2021-04-04 13:00:01.978061,2021-04-01 00:00:00.000000,1.64685156,2.65541533,5.50611335,11,19,40,7,13,24,0.98346805,1.87072910,3.36223299,0.06278914,0.32372580,2.22558259
8111,0,USColoradoSanJuan,Colorado,San Juan,2021-04-04 13:00:01.978061,2021-04-02 00:00:00.000000,1.46716500,2.40396509,5.31251420,10,17,38,6,12,23,0.90505359,1.74148635,3.21576562,0.06244487,0.32753567,2.38436689
8111,0,USColoradoSanJuan,Colorado,San Juan,2021-04-04 13:00:01.978061,2021-04-03 00:00:00.000000,1.28148401,2.17910747,4.99771226,9,15,36,6,11,22,0.82705927,1.61556622,3.06619483,0.06177593,0.32937892,2.41643599
8111,0,USColoradoSanJuan,Colorado,San Juan,2021-04-04 13:00:01.978061,2021-04-04 00:00:00.000000,1.11350431,1.99716132,4.69322072,8,14,34,5,10,21,0.75197914,1.47054341,2.91751850,0.06060892,0.31193511,2.43025925
8111,0,USColoradoSanJuan,Colorado,San Juan,2021-04-04 13:00:01.978061,2021-04-05 00:00:00.000000,0.96365031,1.81374770,4.39339210,7,13,31,4,9,20,0.68078320,1.31787131,2.77165147,0.05909320,0.31709601,2.44292333
8111,0,USColoradoSanJuan,Colorado,San Juan,2021-04-04 13:00:01.978061,2021-04-06 00:00:00.000000,0.85200813,1.62043218,3.95988854,6,11,28,4,8,19,0.61417563,1.19588042,2.63093501,0.05756818,0.31516768,2.45324180
8111,0,USColoradoSanJuan,Colorado,San Juan,2021-04-04 13:00:01.978061,2021-04-07 00:00:00.000000,0.76881484,1.45131079,3.70753195,5,10,26,4,7,18,0.55249492,1.09142828,2.49321751,0.05735576,0.31402946,2.46044743
8111,0,USColoradoSanJuan,Colorado,San Juan,2021-04-04 13:00:01.978061,2021-04-08 00:00:00.000000,0.69311585,1.30608402,3.46652024,5,9,25,3,7,17,0.49582818,0.98607437,2.36494666,0.05782131,0.31350709,2.46492474
8111,0,USColoradoSanJuan,Colorado,San Juan,2021-04-04 13:00:01.978061,2021-04-09 00:00:00.000000,0.60807613,1.17278728,3.23723556,4,8,23,3,6,16,0.44409350,0.88110306,2.24167107,0.05796204,0.31326722,2.46750615
8111,0,USColoradoSanJuan,Colorado,San Juan,2021-04-04 13:00:01.978061,2021-04-10 00:00:00.000000,0.51254645,1.05379809,3.01983306,3,7,21,2,5,15,0.37781632,0.80134472,2.12365370,0.05800294,0.31315726,2.46893052
8111,0,USColoradoSanJuan,Colorado,San Juan,2021-04-04 13:00:01.978061,2021-04-11 00:00:00.000000,0.43180263,0.94805611,2.81429009,3,6,20,2,5,14,0.32137607,0.72762682,2.01099812,0.05801455,0.31310693,2.46969746
8111,0,USColoradoSanJuan,Colorado,San Juan,2021-04-04 13:00:01.978061,2021-04-12 00:00:00.000000,0.38596213,0.85163377,2.62044641,2,6,19,2,4,13,0.28767831,0.65978303,1.90369363,0.05801777,0.31308392,2.47010496
8111,0,USColoradoSanJuan,Colorado,San Juan,2021-04-04 13:00:01.978061,2021-04-13 00:00:00.000000,0.34535799,0.76180907,2.43803687,2,5,17,1,4,13,0.25750899,0.59399535,1.80165184,0.05801862,0.31307341,2.47031996
8111,0,USColoradoSanJuan,Colorado,San Juan,2021-04-04 13:00:01.978061,2021-04-14 00:00:00.000000,0.30904730,0.68127883,2.26671800,2,4,16,1,3,12,0.23050404,0.53338923,1.70383573,0.05801883,0.31306861,2.47043298
8111,0,USColoradoSanJuan,Colorado,San Juan,2021-04-04 13:00:01.978061,2021-04-15 00:00:00.000000,0.27657400,0.61677498,2.10608958,2,4,15,1,3,11,0.20633455,0.47851748,1.61057665,0.05801887,0.31306642,2.47049226
8111,0,USColoradoSanJuan,Colorado,San Juan,2021-04-04 13:00:01.978061,2021-04-16 00:00:00.000000,0.24753025,0.55458813,1.95571203,1,4,14,1,3,11,0.18470427,0.42894905,1.52221763,0.05801888,0.31306542,2.47052333
