FIPS,HR_UID,nameid,province,region,analysisTime,dates,pointprevalence_025,pointprevalence_50,pointprevalence_975,pointinfections_025,pointinfections_50,pointinfections_975,pointinfectious_025,pointinfectious_50,pointinfectious_975,pointinfectiousprevalence_05,pointinfectiousprevalence_50,pointinfectiousprevalence_95,infectrate_025,infectrate_50,infectrate_975
13269,0,USGeorgiaTaylor,Georgia,Taylor,2021-04-04 12:25:54.975133,2020-03-09 00:00:00.000000,0.00433758,0.04121719,0.14814898,0,3,11,0,1,7,0.00209032,0.02150481,0.09229589,0.35090491,0.46885232,0.71240062
13269,0,USGeorgiaTaylor,Georgia,Taylor,2021-04-04 12:25:54.975133,2020-03-10 00:00:00.000000,0.00460482,0.04391101,0.16052763,0,3,12,0,1,7,0.00204425,0.02106058,0.08865434,0.34906789,0.46879896,0.71239793
13269,0,USGeorgiaTaylor,Georgia,Taylor,2021-04-04 12:25:54.975133,2020-03-11 00:00:00.000000,0.00485614,0.04685207,0.17341819,0,3,13,0,1,7,0.00217378,0.02222454,0.09180542,0.34877121,0.46864378,0.71239208
13269,0,USGeorgiaTaylor,Georgia,Taylor,2021-04-04 12:25:54.975133,2020-03-12 00:00:00.000000,0.00514814,0.05018359,0.18704092,0,4,15,0,1,7,0.00236786,0.02348358,0.09715768,0.34865948,0.46819317,0.71237916
13269,0,USGeorgiaTaylor,Georgia,Taylor,2021-04-04 12:25:54.975133,2020-03-13 00:00:00.000000,0.00546865,0.05447302,0.20155139,0,4,16,0,2,8,0.00258550,0.02527843,0.10383616,0.34849204,0.46692750,0.71235005
13269,0,USGeorgiaTaylor,Georgia,Taylor,2021-04-04 12:25:54.975133,2020-03-14 00:00:00.000000,0.00581334,0.05771316,0.21699323,0,4,17,0,2,8,0.00280922,0.02785138,0.11154025,0.34824694,0.46551408,0.71228253
13269,0,USGeorgiaTaylor,Georgia,Taylor,2021-04-04 12:25:54.975133,2020-03-15 00:00:00.000000,0.00618467,0.06206821,0.23353309,0,4,18,0,2,9,0.00303581,0.03061296,0.12007726,0.34789282,0.46431853,0.71211807
13269,0,USGeorgiaTaylor,Georgia,Taylor,2021-04-04 12:25:54.975133,2020-03-16 00:00:00.000000,0.02271066,0.07550018,0.26530441,1,6,21,0,2,10,0.00326612,0.03311746,0.12936657,0.29756888,0.46414711,0.71168247
13269,0,USGeorgiaTaylor,Georgia,Taylor,2021-04-04 12:25:54.975133,2020-03-17 00:00:00.000000,0.03812970,0.09475121,0.29831885,3,7,23,0,3,11,0.00894579,0.03817765,0.14307894,0.27642059,0.45841582,0.71037070
13269,0,USGeorgiaTaylor,Georgia,Taylor,2021-04-04 12:25:54.975133,2020-03-18 00:00:00.000000,0.05442410,0.11386120,0.33370132,4,9,26,1,3,12,0.01585861,0.04457120,0.15955430,0.25615448,0.45315506,0.70576730
13269,0,USGeorgiaTaylor,Georgia,Taylor,2021-04-04 12:25:54.975133,2020-03-19 00:00:00.000000,0.07223511,0.12803351,0.36359410,5,10,29,1,4,14,0.02147630,0.05206336,0.17809109,0.23712396,0.43004405,0.65331602
13269,0,USGeorgiaTaylor,Georgia,Taylor,2021-04-04 12:25:54.975133,2020-03-20 00:00:00.000000,0.08750048,0.15039163,0.38304518,7,12,30,2,4,15,0.02717170,0.06138521,0.19786734,0.22099105,0.42364182,0.63670636
13269,0,USGeorgiaTaylor,Georgia,Taylor,2021-04-04 12:25:54.975133,2020-03-21 00:00:00.000000,0.09867854,0.17112255,0.42681782,7,13,34,2,6,17,0.03690794,0.07550302,0.22061313,0.20838418,0.39166396,0.59285242
13269,0,USGeorgiaTaylor,Georgia,Taylor,2021-04-04 12:25:54.975133,2020-03-22 00:00:00.000000,0.10967221,0.19070684,0.47133273,8,15,37,3,6,19,0.04671923,0.08580529,0.24349805,0.19873075,0.37505751,0.55041261
13269,0,USGeorgiaTaylor,Georgia,Taylor,2021-04-04 12:25:54.975133,2020-03-23 00:00:00.000000,0.11816265,0.21720201,0.52002808,9,17,41,4,8,21,0.05373889,0.10022226,0.26656897,0.18916910,0.36217922,0.52159819
13269,0,USGeorgiaTaylor,Georgia,Taylor,2021-04-04 12:25:54.975133,2020-03-24 00:00:00.000000,0.12651475,0.23826778,0.55417603,10,19,44,4,8,23,0.06069680,0.11163382,0.28914369,0.18301195,0.34477898,0.50897258
13269,0,USGeorgiaTaylor,Georgia,Taylor,2021-04-04 12:25:54.975133,2020-03-25 00:00:00.000000,0.13876065,0.26052966,0.58797948,11,20,47,5,9,24,0.06583355,0.12375436,0.31126820,0.17262630,0.32455707,0.49725069
13269,0,USGeorgiaTaylor,Georgia,Taylor,2021-04-04 12:25:54.975133,2020-03-26 00:00:00.000000,0.15302500,0.28950639,0.62244623,12,23,49,5,10,26,0.07071229,0.13664003,0.33311495,0.16060847,0.31712676,0.47790287
13269,0,USGeorgiaTaylor,Georgia,Taylor,2021-04-04 12:25:54.975133,2020-03-27 00:00:00.000000,0.16101707,0.31088677,0.65775518,12,24,52,6,11,28,0.07544753,0.14903343,0.35457783,0.14569676,0.29789424,0.46659069
13269,0,USGeorgiaTaylor,Georgia,Taylor,2021-04-04 12:25:54.975133,2020-03-28 00:00:00.000000,0.16871768,0.33999651,0.69374341,13,27,55,6,12,30,0.08011166,0.16113711,0.37625588,0.14553049,0.28734288,0.46485716
13269,0,USGeorgiaTaylor,Georgia,Taylor,2021-04-04 12:25:54.975133,2020-03-29 00:00:00.000000,0.17595884,0.36083923,0.73477523,14,28,58,6,14,32,0.08474612,0.17660706,0.40060048,0.14545462,0.27474105,0.43228558
13269,0,USGeorgiaTaylor,Georgia,Taylor,2021-04-04 12:25:54.975133,2020-03-30 00:00:00.000000,0.19663702,0.37690635,0.75154194,15,30,60,7,15,35,0.08936908,0.18965920,0.44809956,0.14539035,0.26648786,0.39808632
13269,0,USGeorgiaTaylor,Georgia,Taylor,2021-04-04 12:25:54.975133,2020-03-31 00:00:00.000000,0.21263259,0.39844441,0.75930201,17,31,60,7,16,37,0.09571094,0.20449878,0.47016947,0.13802307,0.25333699,0.37502473
13269,0,USGeorgiaTaylor,Georgia,Taylor,2021-04-04 12:25:54.975133,2020-04-01 00:00:00.000000,0.21749059,0.41922009,0.76325165,17,33,61,8,17,38,0.10360157,0.21863225,0.48145998,0.12644192,0.23381388,0.35989982
13269,0,USGeorgiaTaylor,Georgia,Taylor,2021-04-04 12:25:54.975133,2020-04-02 00:00:00.000000,0.22647740,0.44228216,0.76627400,18,35,61,8,18,39,0.11086024,0.23351898,0.48770275,0.12143083,0.21967383,0.35369679
13269,0,USGeorgiaTaylor,Georgia,Taylor,2021-04-04 12:25:54.975133,2020-04-03 00:00:00.000000,0.23714707,0.45733162,0.76540907,19,36,61,9,19,39,0.11896048,0.24240629,0.49087364,0.11608914,0.20725744,0.34475257
13269,0,USGeorgiaTaylor,Georgia,Taylor,2021-04-04 12:25:54.975133,2020-04-04 00:00:00.000000,0.24274039,0.46984284,0.76102146,19,37,61,10,19,39,0.12715118,0.24801213,0.49166665,0.11336430,0.19834650,0.33776432
13269,0,USGeorgiaTaylor,Georgia,Taylor,2021-04-04 12:25:54.975133,2020-04-05 00:00:00.000000,0.24806232,0.47019038,0.76960281,19,37,61,10,20,39,0.13530321,0.26110906,0.49020158,0.11052857,0.19346786,0.33799776
13269,0,USGeorgiaTaylor,Georgia,Taylor,2021-04-04 12:25:54.975133,2020-04-06 00:00:00.000000,0.26411637,0.47909367,0.77720250,21,38,62,11,21,39,0.14324765,0.26509144,0.48674276,0.10781890,0.19000847,0.32543143
13269,0,USGeorgiaTaylor,Georgia,Taylor,2021-04-04 12:25:54.975133,2020-04-07 00:00:00.000000,0.28866503,0.48284018,0.78355567,23,38,62,12,21,38,0.14970124,0.26811778,0.48425667,0.10763293,0.18513216,0.32730974
13269,0,USGeorgiaTaylor,Georgia,Taylor,2021-04-04 12:25:54.975133,2020-04-08 00:00:00.000000,0.31512688,0.48724547,0.78885347,25,39,63,12,21,38,0.15004105,0.27183521,0.48148087,0.10459907,0.17859652,0.33149749
13269,0,USGeorgiaTaylor,Georgia,Taylor,2021-04-04 12:25:54.975133,2020-04-09 00:00:00.000000,0.31749417,0.48759675,0.79357265,25,39,63,12,21,38,0.15816145,0.27327615,0.47791415,0.10246415,0.17371067,0.31766480
13269,0,USGeorgiaTaylor,Georgia,Taylor,2021-04-04 12:25:54.975133,2020-04-10 00:00:00.000000,0.31121639,0.49710016,0.79787323,24,39,63,13,22,38,0.16886571,0.27634526,0.48473306,0.10201805,0.16560558,0.32270726
13269,0,USGeorgiaTaylor,Georgia,Taylor,2021-04-04 12:25:54.975133,2020-04-11 00:00:00.000000,0.30493129,0.50868480,0.80370546,24,40,64,13,22,39,0.17345667,0.27951053,0.49358690,0.10002237,0.15974673,0.32498896
13269,0,USGeorgiaTaylor,Georgia,Taylor,2021-04-04 12:25:54.975133,2020-04-12 00:00:00.000000,0.29886842,0.51818157,0.83514696,23,41,66,13,22,40,0.17404665,0.28640094,0.50040194,0.09317494,0.15037901,0.32489845
13269,0,USGeorgiaTaylor,Georgia,Taylor,2021-04-04 12:25:54.975133,2020-04-13 00:00:00.000000,0.30362055,0.51014949,0.82770732,24,40,66,13,23,39,0.17430635,0.29034079,0.49856653,0.08836390,0.14616245,0.32329888
13269,0,USGeorgiaTaylor,Georgia,Taylor,2021-04-04 12:25:54.975133,2020-04-14 00:00:00.000000,0.30872268,0.50179068,0.82388523,24,40,66,14,23,40,0.17653422,0.29422290,0.50284963,0.08341525,0.14238307,0.31932880
13269,0,USGeorgiaTaylor,Georgia,Taylor,2021-04-04 12:25:54.975133,2020-04-15 00:00:00.000000,0.31441521,0.50980230,0.81055152,25,40,65,14,24,40,0.17959812,0.29982179,0.50461988,0.08133699,0.14173031,0.30763423
13269,0,USGeorgiaTaylor,Georgia,Taylor,2021-04-04 12:25:54.975133,2020-04-16 00:00:00.000000,0.31204488,0.50483350,0.79749584,25,40,63,14,24,40,0.18316627,0.30009305,0.50475524,0.08146585,0.14006912,0.28727383
13269,0,USGeorgiaTaylor,Georgia,Taylor,2021-04-04 12:25:54.975133,2020-04-17 00:00:00.000000,0.31323696,0.50914806,0.81231089,25,40,65,14,23,40,0.18644761,0.29613598,0.50817089,0.08233688,0.13582013,0.26618515
13269,0,USGeorgiaTaylor,Georgia,Taylor,2021-04-04 12:25:54.975133,2020-04-18 00:00:00.000000,0.32664811,0.51780964,0.82958295,26,41,66,14,23,41,0.18686665,0.29361963,0.51387567,0.08019581,0.13143303,0.25204348
13269,0,USGeorgiaTaylor,Georgia,Taylor,2021-04-04 12:25:54.975133,2020-04-19 00:00:00.000000,0.31317013,0.52526394,0.84394501,25,42,67,14,24,41,0.18340762,0.30123022,0.51532195,0.07991374,0.13063210,0.24467616
13269,0,USGeorgiaTaylor,Georgia,Taylor,2021-04-04 12:25:54.975133,2020-04-20 00:00:00.000000,0.32243202,0.51893384,0.82708185,25,41,66,14,24,41,0.18003891,0.30300020,0.51648537,0.07936678,0.12845651,0.24257108
13269,0,USGeorgiaTaylor,Georgia,Taylor,2021-04-04 12:25:54.975133,2020-04-21 00:00:00.000000,0.31263396,0.52335903,0.80906321,25,41,64,14,24,41,0.17772727,0.30445016,0.51250279,0.07881452,0.12706359,0.24077640
13269,0,USGeorgiaTaylor,Georgia,Taylor,2021-04-04 12:25:54.975133,2020-04-22 00:00:00.000000,0.30235352,0.51896887,0.79097761,24,41,63,14,24,41,0.17614699,0.30257742,0.51442804,0.07857598,0.12339560,0.23887426
13269,0,USGeorgiaTaylor,Georgia,Taylor,2021-04-04 12:25:54.975133,2020-04-23 00:00:00.000000,0.29222475,0.51031231,0.79392793,23,40,63,13,24,40,0.17311700,0.30530451,0.50063996,0.07579217,0.12058155,0.23648874
13269,0,USGeorgiaTaylor,Georgia,Taylor,2021-04-04 12:25:54.975133,2020-04-24 00:00:00.000000,0.28259197,0.50671211,0.79815074,22,40,64,13,24,40,0.16820147,0.30301162,0.50142765,0.07152980,0.11797140,0.23318550
13269,0,USGeorgiaTaylor,Georgia,Taylor,2021-04-04 12:25:54.975133,2020-04-25 00:00:00.000000,0.27362549,0.49988029,0.80143276,21,40,64,12,24,40,0.16199570,0.30082728,0.50140946,0.07147744,0.11630099,0.21800049
13269,0,USGeorgiaTaylor,Georgia,Taylor,2021-04-04 12:25:54.975133,2020-04-26 00:00:00.000000,0.26298146,0.48318984,0.80383170,21,38,64,12,23,40,0.15447609,0.29197618,0.50072337,0.06932324,0.11571190,0.20482767
13269,0,USGeorgiaTaylor,Georgia,Taylor,2021-04-04 12:25:54.975133,2020-04-27 00:00:00.000000,0.25399456,0.47903864,0.81179542,20,38,65,11,23,40,0.14707457,0.28789417,0.49959000,0.06729009,0.11580818,0.19607636
13269,0,USGeorgiaTaylor,Georgia,Taylor,2021-04-04 12:25:54.975133,2020-04-28 00:00:00.000000,0.24977622,0.46800429,0.78082295,20,37,62,11,22,39,0.14057845,0.27943450,0.49438761,0.06575804,0.11659585,0.19106058
13269,0,USGeorgiaTaylor,Georgia,Taylor,2021-04-04 12:25:54.975133,2020-04-29 00:00:00.000000,0.24477268,0.45805212,0.76621684,19,36,61,11,21,39,0.13996376,0.27210033,0.49433052,0.06454120,0.11374788,0.18815426
13269,0,USGeorgiaTaylor,Georgia,Taylor,2021-04-04 12:25:54.975133,2020-04-30 00:00:00.000000,0.23404967,0.44893611,0.79983792,18,36,64,10,21,38,0.13387788,0.26860056,0.48131275,0.06319273,0.11277662,0.18717253
13269,0,USGeorgiaTaylor,Georgia,Taylor,2021-04-04 12:25:54.975133,2020-05-01 00:00:00.000000,0.22280173,0.44546754,0.84665951,17,35,67,10,21,37,0.12805823,0.26843596,0.46943682,0.06165374,0.11085458,0.18657722
13269,0,USGeorgiaTaylor,Georgia,Taylor,2021-04-04 12:25:54.975133,2020-05-02 00:00:00.000000,0.21183617,0.43518034,0.89248979,16,34,71,9,20,37,0.12218743,0.26126821,0.46284054,0.06048244,0.11058321,0.18614928
13269,0,USGeorgiaTaylor,Georgia,Taylor,2021-04-04 12:25:54.975133,2020-05-03 00:00:00.000000,0.20152240,0.42553832,0.92028598,16,34,73,9,21,36,0.11635615,0.26454177,0.45542822,0.06158025,0.11029459,0.18573327
13269,0,USGeorgiaTaylor,Georgia,Taylor,2021-04-04 12:25:54.975133,2020-05-04 00:00:00.000000,0.21735959,0.41962211,0.91952693,17,33,73,8,20,35,0.11073244,0.26055182,0.44833208,0.06207591,0.10920826,0.18539050
13269,0,USGeorgiaTaylor,Georgia,Taylor,2021-04-04 12:25:54.975133,2020-05-05 00:00:00.000000,0.21370096,0.42236361,0.90163391,17,33,72,8,20,36,0.11075880,0.25470486,0.45450523,0.06226940,0.10940389,0.18505353
13269,0,USGeorgiaTaylor,Georgia,Taylor,2021-04-04 12:25:54.975133,2020-05-06 00:00:00.000000,0.21197576,0.42979725,0.88088081,17,34,70,9,19,36,0.11811118,0.24655870,0.45786473,0.06244993,0.10887227,0.18449215
13269,0,USGeorgiaTaylor,Georgia,Taylor,2021-04-04 12:25:54.975133,2020-05-07 00:00:00.000000,0.21231491,0.43925304,0.85887102,17,35,68,9,19,36,0.12094451,0.23979430,0.45675485,0.06296017,0.10750707,0.18342984
13269,0,USGeorgiaTaylor,Georgia,Taylor,2021-04-04 12:25:54.975133,2020-05-08 00:00:00.000000,0.21436318,0.43755081,0.83634922,17,35,67,9,19,36,0.12047293,0.24151061,0.45197876,0.06184087,0.10431785,0.18175507
13269,0,USGeorgiaTaylor,Georgia,Taylor,2021-04-04 12:25:54.975133,2020-05-09 00:00:00.000000,0.21692022,0.43293676,0.81386530,17,34,65,9,20,35,0.12023133,0.25437064,0.44472024,0.05883310,0.10406155,0.17730952
13269,0,USGeorgiaTaylor,Georgia,Taylor,2021-04-04 12:25:54.975133,2020-05-10 00:00:00.000000,0.21732826,0.43000298,0.79184731,17,34,63,9,20,34,0.12012650,0.25167077,0.43586266,0.05961995,0.10382015,0.17555300
13269,0,USGeorgiaTaylor,Georgia,Taylor,2021-04-04 12:25:54.975133,2020-05-11 00:00:00.000000,0.20671468,0.42573736,0.78653491,16,34,63,9,20,35,0.12010194,0.25105046,0.43811501,0.06102936,0.10404665,0.16698850
13269,0,USGeorgiaTaylor,Georgia,Taylor,2021-04-04 12:25:54.975133,2020-05-12 00:00:00.000000,0.20323094,0.42827538,0.78228224,16,34,62,9,20,35,0.11631677,0.25015108,0.44526241,0.06083614,0.10359201,0.16215175
13269,0,USGeorgiaTaylor,Georgia,Taylor,2021-04-04 12:25:54.975133,2020-05-13 00:00:00.000000,0.19936357,0.41863557,0.77941678,15,33,62,8,19,35,0.11060892,0.24568859,0.44254801,0.06048094,0.10349057,0.16322457
13269,0,USGeorgiaTaylor,Georgia,Taylor,2021-04-04 12:25:54.975133,2020-05-14 00:00:00.000000,0.19542045,0.41606836,0.77773901,15,33,62,8,19,34,0.10829286,0.24172054,0.43519881,0.05983553,0.10569452,0.16339184
13269,0,USGeorgiaTaylor,Georgia,Taylor,2021-04-04 12:25:54.975133,2020-05-15 00:00:00.000000,0.18954122,0.41996698,0.77758758,15,33,62,8,19,35,0.10637291,0.24410106,0.43895957,0.05873660,0.10655588,0.16024032
13269,0,USGeorgiaTaylor,Georgia,Taylor,2021-04-04 12:25:54.975133,2020-05-16 00:00:00.000000,0.17436862,0.40981182,0.78095977,13,32,62,8,19,35,0.10436897,0.24268513,0.44249609,0.05706202,0.10817427,0.15790271
13269,0,USGeorgiaTaylor,Georgia,Taylor,2021-04-04 12:25:54.975133,2020-05-17 00:00:00.000000,0.16076508,0.41427144,0.80260156,12,33,64,8,19,35,0.10239900,0.24242140,0.44664160,0.05726482,0.10999251,0.15835003
13269,0,USGeorgiaTaylor,Georgia,Taylor,2021-04-04 12:25:54.975133,2020-05-18 00:00:00.000000,0.19220263,0.40508530,0.78882428,15,32,63,8,19,36,0.10054039,0.24167068,0.45849760,0.05847642,0.11094761,0.15998832
13269,0,USGeorgiaTaylor,Georgia,Taylor,2021-04-04 12:25:54.975133,2020-05-19 00:00:00.000000,0.19783597,0.39329706,0.77437120,15,31,62,8,19,37,0.10180788,0.23776122,0.46323680,0.05955241,0.11106642,0.16434123
13269,0,USGeorgiaTaylor,Georgia,Taylor,2021-04-04 12:25:54.975133,2020-05-20 00:00:00.000000,0.20860825,0.39489653,0.77158548,16,31,61,8,18,37,0.10484344,0.23456429,0.46311870,0.06028107,0.11163359,0.16616824
13269,0,USGeorgiaTaylor,Georgia,Taylor,2021-04-04 12:25:54.975133,2020-05-21 00:00:00.000000,0.21710410,0.39797627,0.76281113,17,31,61,8,18,36,0.11044027,0.22973809,0.46039976,0.06139189,0.11413472,0.16726465
13269,0,USGeorgiaTaylor,Georgia,Taylor,2021-04-04 12:25:54.975133,2020-05-22 00:00:00.000000,0.22552292,0.39823452,0.74794495,18,31,59,9,18,37,0.11301113,0.23253826,0.46453266,0.06201080,0.11098154,0.16812870
13269,0,USGeorgiaTaylor,Georgia,Taylor,2021-04-04 12:25:54.975133,2020-05-23 00:00:00.000000,0.22343653,0.39372275,0.74372739,17,31,59,9,18,37,0.11738761,0.22803654,0.46865700,0.06260657,0.11388036,0.17243620
13269,0,USGeorgiaTaylor,Georgia,Taylor,2021-04-04 12:25:54.975133,2020-05-24 00:00:00.000000,0.22260040,0.39141075,0.75662000,17,31,60,9,18,38,0.12168664,0.23003488,0.47818880,0.06324846,0.11291491,0.18074008
13269,0,USGeorgiaTaylor,Georgia,Taylor,2021-04-04 12:25:54.975133,2020-05-25 00:00:00.000000,0.21761922,0.37894801,0.74761964,17,30,59,10,18,38,0.12567149,0.22901151,0.47725728,0.06186572,0.11320249,0.17549579
13269,0,USGeorgiaTaylor,Georgia,Taylor,2021-04-04 12:25:54.975133,2020-05-26 00:00:00.000000,0.21258977,0.38279367,0.74892502,17,30,60,9,17,38,0.12398803,0.22366527,0.47716723,0.05985391,0.11352736,0.18691198
13269,0,USGeorgiaTaylor,Georgia,Taylor,2021-04-04 12:25:54.975133,2020-05-27 00:00:00.000000,0.20965141,0.38819951,0.74550499,16,31,59,9,17,38,0.12201475,0.22306878,0.47417818,0.05922155,0.11456676,0.18914522
13269,0,USGeorgiaTaylor,Georgia,Taylor,2021-04-04 12:25:54.975133,2020-05-28 00:00:00.000000,0.20695622,0.39202855,0.74207002,16,31,59,9,17,37,0.12023086,0.22437548,0.46218573,0.06071039,0.11414500,0.18754769
13269,0,USGeorgiaTaylor,Georgia,Taylor,2021-04-04 12:25:54.975133,2020-05-29 00:00:00.000000,0.20289109,0.39726097,0.73795358,16,31,59,9,18,37,0.11859939,0.23401420,0.46335836,0.06315585,0.11683867,0.18423938
13269,0,USGeorgiaTaylor,Georgia,Taylor,2021-04-04 12:25:54.975133,2020-05-30 00:00:00.000000,0.19845631,0.39327569,0.73314078,15,31,58,9,18,38,0.11709953,0.23595081,0.47810896,0.06519107,0.11854975,0.17908343
13269,0,USGeorgiaTaylor,Georgia,Taylor,2021-04-04 12:25:54.975133,2020-05-31 00:00:00.000000,0.19424698,0.38882899,0.74901050,15,31,60,9,19,38,0.11443364,0.24182329,0.47918228,0.06583297,0.11955949,0.17890714
13269,0,USGeorgiaTaylor,Georgia,Taylor,2021-04-04 12:25:54.975133,2020-06-01 00:00:00.000000,0.20993965,0.39091486,0.75893435,16,31,60,8,19,38,0.11143548,0.23743513,0.47581100,0.06659183,0.11959080,0.19078678
13269,0,USGeorgiaTaylor,Georgia,Taylor,2021-04-04 12:25:54.975133,2020-06-02 00:00:00.000000,0.22017403,0.39898607,0.77591396,17,31,62,9,19,37,0.11682664,0.24339550,0.47306772,0.06683856,0.12041865,0.19980271
13269,0,USGeorgiaTaylor,Georgia,Taylor,2021-04-04 12:25:54.975133,2020-06-03 00:00:00.000000,0.23093220,0.40950075,0.81178923,18,32,65,9,18,37,0.12106063,0.23637146,0.47125738,0.06739876,0.12188535,0.20486976
13269,0,USGeorgiaTaylor,Georgia,Taylor,2021-04-04 12:25:54.975133,2020-06-04 00:00:00.000000,0.23756229,0.40939521,0.85107615,19,32,68,9,18,37,0.12439128,0.22837394,0.47124020,0.06803287,0.12294094,0.22000603
13269,0,USGeorgiaTaylor,Georgia,Taylor,2021-04-04 12:25:54.975133,2020-06-05 00:00:00.000000,0.23096580,0.41327477,0.88163453,18,33,70,9,17,38,0.12428849,0.22384769,0.47418136,0.06872265,0.12432749,0.22130150
13269,0,USGeorgiaTaylor,Georgia,Taylor,2021-04-04 12:25:54.975133,2020-06-06 00:00:00.000000,0.22569917,0.42260460,0.91633252,18,33,73,10,18,38,0.12897742,0.22620004,0.47977096,0.06892745,0.12356472,0.22294617
13269,0,USGeorgiaTaylor,Georgia,Taylor,2021-04-04 12:25:54.975133,2020-06-07 00:00:00.000000,0.21848295,0.42606734,0.95767716,17,34,76,10,18,39,0.13066169,0.23194121,0.49774519,0.06946272,0.12627968,0.22662363
13269,0,USGeorgiaTaylor,Georgia,Taylor,2021-04-04 12:25:54.975133,2020-06-08 00:00:00.000000,0.22630827,0.43401687,0.94869764,18,34,76,10,19,43,0.12783535,0.23714062,0.54394062,0.06930219,0.12956892,0.23239995
13269,0,USGeorgiaTaylor,Georgia,Taylor,2021-04-04 12:25:54.975133,2020-06-09 00:00:00.000000,0.23497092,0.43717904,0.93759709,18,35,75,10,19,45,0.12781320,0.23811761,0.56139171,0.06931754,0.13104784,0.22789278
13269,0,USGeorgiaTaylor,Georgia,Taylor,2021-04-04 12:25:54.975133,2020-06-10 00:00:00.000000,0.23566906,0.43617844,0.92395871,18,34,74,10,19,45,0.13089905,0.24493041,0.56523298,0.06945775,0.13146255,0.22552000
13269,0,USGeorgiaTaylor,Georgia,Taylor,2021-04-04 12:25:54.975133,2020-06-11 00:00:00.000000,0.23310230,0.43563557,0.90940163,18,34,72,10,20,45,0.13542024,0.25217823,0.56445794,0.06992145,0.13498553,0.23076845
13269,0,USGeorgiaTaylor,Georgia,Taylor,2021-04-04 12:25:54.975133,2020-06-12 00:00:00.000000,0.23072660,0.43587300,0.89488180,18,34,71,10,20,44,0.13596493,0.25618902,0.56065238,0.07137324,0.13667643,0.22544005
13269,0,USGeorgiaTaylor,Georgia,Taylor,2021-04-04 12:25:54.975133,2020-06-13 00:00:00.000000,0.22873767,0.43919738,0.88099435,18,35,70,10,20,44,0.13453945,0.25308865,0.55518407,0.07562182,0.13841586,0.22416915
13269,0,USGeorgiaTaylor,Georgia,Taylor,2021-04-04 12:25:54.975133,2020-06-14 00:00:00.000000,0.22702937,0.44140458,0.86833837,18,35,69,10,20,44,0.13326601,0.25272958,0.54881343,0.08365134,0.14216813,0.24398284
13269,0,USGeorgiaTaylor,Georgia,Taylor,2021-04-04 12:25:54.975133,2020-06-15 00:00:00.000000,0.23095983,0.44159442,0.86780362,18,35,69,10,20,44,0.13216175,0.25357680,0.55479062,0.08911676,0.14455521,0.25668583
13269,0,USGeorgiaTaylor,Georgia,Taylor,2021-04-04 12:25:54.975133,2020-06-16 00:00:00.000000,0.23048620,0.44207456,0.86910990,18,35,69,11,20,44,0.13953850,0.25716139,0.56058378,0.09320441,0.14987738,0.25539838
13269,0,USGeorgiaTaylor,Georgia,Taylor,2021-04-04 12:25:54.975133,2020-06-17 00:00:00.000000,0.23314370,0.45293133,0.87294589,18,36,70,11,20,45,0.14650369,0.26059790,0.56542015,0.09949664,0.15439739,0.25001928
13269,0,USGeorgiaTaylor,Georgia,Taylor,2021-04-04 12:25:54.975133,2020-06-18 00:00:00.000000,0.24254212,0.46688081,0.87785397,19,37,70,11,20,45,0.14835683,0.26130540,0.56754303,0.10225211,0.15634263,0.24370690
13269,0,USGeorgiaTaylor,Georgia,Taylor,2021-04-04 12:25:54.975133,2020-06-19 00:00:00.000000,0.25195078,0.47830550,0.90613160,20,38,72,11,21,44,0.14840709,0.26550094,0.55654435,0.10617785,0.15992294,0.25474020
13269,0,USGeorgiaTaylor,Georgia,Taylor,2021-04-04 12:25:54.975133,2020-06-20 00:00:00.000000,0.26101055,0.48206196,0.92328409,20,38,74,11,21,43,0.14859759,0.26917751,0.54565985,0.10998222,0.16646799,0.26524804
13269,0,USGeorgiaTaylor,Georgia,Taylor,2021-04-04 12:25:54.975133,2020-06-21 00:00:00.000000,0.26487789,0.51086920,0.94424925,21,40,75,11,21,43,0.14891642,0.26724420,0.54702395,0.11108216,0.17157853,0.26953007
13269,0,USGeorgiaTaylor,Georgia,Taylor,2021-04-04 12:25:54.975133,2020-06-22 00:00:00.000000,0.28460376,0.50789268,0.96974043,22,40,77,11,22,45,0.14844393,0.27634470,0.56955463,0.11365232,0.17311033,0.28871555
13269,0,USGeorgiaTaylor,Georgia,Taylor,2021-04-04 12:25:54.975133,2020-06-23 00:00:00.000000,0.29913933,0.50306228,0.99297575,23,40,79,12,22,46,0.15679266,0.28118880,0.58274288,0.11218697,0.17281499,0.30571865
13269,0,USGeorgiaTaylor,Georgia,Taylor,2021-04-04 12:25:54.975133,2020-06-24 00:00:00.000000,0.31326346,0.50438041,1.02123691,25,40,81,13,23,46,0.16773740,0.28739598,0.58572149,0.11248742,0.17447742,0.30645363
13269,0,USGeorgiaTaylor,Georgia,Taylor,2021-04-04 12:25:54.975133,2020-06-25 00:00:00.000000,0.32736456,0.51538816,1.05020738,26,41,84,14,22,46,0.17830255,0.28308724,0.58309265,0.11511037,0.18028207,0.30676615
13269,0,USGeorgiaTaylor,Georgia,Taylor,2021-04-04 12:25:54.975133,2020-06-26 00:00:00.000000,0.34126127,0.52611017,1.08084858,27,42,86,15,23,46,0.18717538,0.29191029,0.58358838,0.12042260,0.18276881,0.30677370
13269,0,USGeorgiaTaylor,Georgia,Taylor,2021-04-04 12:25:54.975133,2020-06-27 00:00:00.000000,0.34152758,0.54534691,1.11245108,27,43,89,14,23,47,0.18646874,0.29758536,0.59789213,0.12695920,0.18610898,0.33463089
13269,0,USGeorgiaTaylor,Georgia,Taylor,2021-04-04 12:25:54.975133,2020-06-28 00:00:00.000000,0.35053010,0.55300331,1.14250645,28,44,91,14,24,49,0.18602909,0.30273003,0.61424616,0.12862895,0.18868497,0.34186061
13269,0,USGeorgiaTaylor,Georgia,Taylor,2021-04-04 12:25:54.975133,2020-06-29 00:00:00.000000,0.37583201,0.59546035,1.16446632,30,47,93,14,25,50,0.18576767,0.31601923,0.62719030,0.13115816,0.19545110,0.34488586
13269,0,USGeorgiaTaylor,Georgia,Taylor,2021-04-04 12:25:54.975133,2020-06-30 00:00:00.000000,0.41627289,0.62868860,1.17723807,33,50,94,15,26,51,0.19730945,0.33480516,0.64748129,0.13910868,0.19964659,0.35093951
13269,0,USGeorgiaTaylor,Georgia,Taylor,2021-04-04 12:25:54.975133,2020-07-01 00:00:00.000000,0.43824445,0.65326757,1.22429059,35,52,98,17,28,53,0.21242943,0.35176567,0.67008447,0.13890659,0.20212261,0.36008832
13269,0,USGeorgiaTaylor,Georgia,Taylor,2021-04-04 12:25:54.975133,2020-07-02 00:00:00.000000,0.45847857,0.68698856,1.28384132,36,55,102,17,29,55,0.22211219,0.36345474,0.69431228,0.14242077,0.21081409,0.36396571
13269,0,USGeorgiaTaylor,Georgia,Taylor,2021-04-04 12:25:54.975133,2020-07-03 00:00:00.000000,0.47499960,0.73432298,1.34387729,38,58,107,18,30,58,0.23235154,0.38544787,0.72773485,0.14543619,0.22117949,0.35791082
13269,0,USGeorgiaTaylor,Georgia,Taylor,2021-04-04 12:25:54.975133,2020-07-04 00:00:00.000000,0.47753742,0.77766581,1.40369768,38,62,112,19,32,62,0.24280085,0.40379467,0.77423066,0.14985928,0.22674495,0.36103192
13269,0,USGeorgiaTaylor,Georgia,Taylor,2021-04-04 12:25:54.975133,2020-07-05 00:00:00.000000,0.48094105,0.83079482,1.44385935,38,66,115,20,34,63,0.25331132,0.42472698,0.79428600,0.15800237,0.23270483,0.36145010
13269,0,USGeorgiaTaylor,Georgia,Taylor,2021-04-04 12:25:54.975133,2020-07-06 00:00:00.000000,0.51030579,0.84734829,1.49241270,40,67,119,20,36,64,0.25946156,0.45324292,0.80328367,0.16080710,0.23048006,0.36652474
13269,0,USGeorgiaTaylor,Georgia,Taylor,2021-04-04 12:25:54.975133,2020-07-07 00:00:00.000000,0.52413146,0.85922913,1.54650742,42,68,124,21,37,65,0.26278426,0.47083060,0.82131083,0.16211080,0.23468564,0.36662800
13269,0,USGeorgiaTaylor,Georgia,Taylor,2021-04-04 12:25:54.975133,2020-07-08 00:00:00.000000,0.52488105,0.88553911,1.61904147,42,71,129,21,38,68,0.26454064,0.48129756,0.86001068,0.16299254,0.23733596,0.36517812
13269,0,USGeorgiaTaylor,Georgia,Taylor,2021-04-04 12:25:54.975133,2020-07-09 00:00:00.000000,0.52679640,0.89910529,1.69205191,42,72,135,21,39,70,0.27393890,0.49109578,0.88492221,0.16468837,0.24141777,0.36177248
13269,0,USGeorgiaTaylor,Georgia,Taylor,2021-04-04 12:25:54.975133,2020-07-10 00:00:00.000000,0.53042462,0.92166276,1.76374918,42,73,141,22,40,73,0.27495719,0.50182624,0.92073294,0.16503641,0.24432546,0.35450360
13269,0,USGeorgiaTaylor,Georgia,Taylor,2021-04-04 12:25:54.975133,2020-07-11 00:00:00.000000,0.53616905,0.95482014,1.83632209,43,76,147,22,41,76,0.27644291,0.51743566,0.95731427,0.16201346,0.25375419,0.35498154
13269,0,USGeorgiaTaylor,Georgia,Taylor,2021-04-04 12:25:54.975133,2020-07-12 00:00:00.000000,0.54258229,0.98368616,1.90196754,43,78,152,22,42,79,0.27897722,0.53051727,0.99412773,0.16275806,0.25622262,0.35176563
13269,0,USGeorgiaTaylor,Georgia,Taylor,2021-04-04 12:25:54.975133,2020-07-13 00:00:00.000000,0.56903651,1.00862753,1.94381075,45,80,155,22,43,82,0.28601761,0.54029433,1.02827866,0.16379026,0.25831463,0.35575986
13269,0,USGeorgiaTaylor,Georgia,Taylor,2021-04-04 12:25:54.975133,2020-07-14 00:00:00.000000,0.59726343,1.04887577,1.97317467,47,84,158,23,44,85,0.29073151,0.55820189,1.06261744,0.16505680,0.26318295,0.35507407
13269,0,USGeorgiaTaylor,Georgia,Taylor,2021-04-04 12:25:54.975133,2020-07-15 00:00:00.000000,0.62960621,1.06524281,1.98733608,50,85,159,24,46,88,0.30276815,0.57607802,1.09968128,0.16560972,0.26847036,0.36368490
13269,0,USGeorgiaTaylor,Georgia,Taylor,2021-04-04 12:25:54.975133,2020-07-16 00:00:00.000000,0.66007575,1.08590525,2.00835884,52,87,161,25,47,91,0.31770029,0.59109405,1.14429637,0.16938273,0.26563400,0.39525987
13269,0,USGeorgiaTaylor,Georgia,Taylor,2021-04-04 12:25:54.975133,2020-07-17 00:00:00.000000,0.67264662,1.12688730,2.02330115,53,90,162,26,48,95,0.33564193,0.60971464,1.18606810,0.16415952,0.26504697,0.40139437
13269,0,USGeorgiaTaylor,Georgia,Taylor,2021-04-04 12:25:54.975133,2020-07-18 00:00:00.000000,0.68268947,1.14956752,2.04032608,54,92,163,28,50,96,0.35662951,0.62611655,1.20905134,0.16455876,0.26275529,0.40490820
13269,0,USGeorgiaTaylor,Georgia,Taylor,2021-04-04 12:25:54.975133,2020-07-19 00:00:00.000000,0.68566250,1.17817867,2.10612314,54,94,168,29,51,97,0.37041240,0.63993547,1.22078047,0.17823230,0.26418896,0.40507029
13269,0,USGeorgiaTaylor,Georgia,Taylor,2021-04-04 12:25:54.975133,2020-07-20 00:00:00.000000,0.72539264,1.20516830,2.17136627,58,96,174,29,52,98,0.37390213,0.65865984,1.22802545,0.17867417,0.27435539,0.40752475
13269,0,USGeorgiaTaylor,Georgia,Taylor,2021-04-04 12:25:54.975133,2020-07-21 00:00:00.000000,0.75251795,1.25690333,2.24646418,60,100,180,30,54,102,0.38578219,0.67931655,1.27521020,0.17854575,0.27895209,0.40825123
13269,0,USGeorgiaTaylor,Georgia,Taylor,2021-04-04 12:25:54.975133,2020-07-22 00:00:00.000000,0.76278008,1.27919878,2.32324224,61,102,186,33,56,105,0.41166782,0.70842914,1.30966980,0.17842026,0.28192007,0.40761745
13269,0,USGeorgiaTaylor,Georgia,Taylor,2021-04-04 12:25:54.975133,2020-07-23 00:00:00.000000,0.77398570,1.31922602,2.40057886,62,105,192,33,59,105,0.41723278,0.74035285,1.31845565,0.17831735,0.28166581,0.38798001
13269,0,USGeorgiaTaylor,Georgia,Taylor,2021-04-04 12:25:54.975133,2020-07-24 00:00:00.000000,0.78961949,1.38806424,2.47520744,63,111,198,33,62,107,0.42172522,0.78111174,1.34201642,0.18706631,0.29157115,0.36211925
13269,0,USGeorgiaTaylor,Georgia,Taylor,2021-04-04 12:25:54.975133,2020-07-25 00:00:00.000000,0.84065511,1.44172790,2.54850357,67,115,204,34,64,111,0.42731954,0.80312336,1.38691158,0.19555493,0.29007594,0.38989100
13269,0,USGeorgiaTaylor,Georgia,Taylor,2021-04-04 12:25:54.975133,2020-07-26 00:00:00.000000,0.88011440,1.48572571,2.59360647,70,119,208,34,65,114,0.43353312,0.82052594,1.43146374,0.19583106,0.29390499,0.43996263
13269,0,USGeorgiaTaylor,Georgia,Taylor,2021-04-04 12:25:54.975133,2020-07-27 00:00:00.000000,0.92589204,1.52091116,2.65054889,74,121,212,36,67,118,0.45042000,0.84293848,1.47206881,0.19549936,0.29955061,0.44932243
13269,0,USGeorgiaTaylor,Georgia,Taylor,2021-04-04 12:25:54.975133,2020-07-28 00:00:00.000000,0.96969016,1.56485137,2.68488914,77,125,215,37,70,120,0.47353799,0.87524499,1.49689312,0.19538475,0.30498845,0.45603485
13269,0,USGeorgiaTaylor,Georgia,Taylor,2021-04-04 12:25:54.975133,2020-07-29 00:00:00.000000,1.01378212,1.60268986,2.71599123,81,128,217,39,71,122,0.49301520,0.88976204,1.52596023,0.19556242,0.30619191,0.45895928
13269,0,USGeorgiaTaylor,Georgia,Taylor,2021-04-04 12:25:54.975133,2020-07-30 00:00:00.000000,1.05668216,1.63831848,2.74656963,84,131,220,41,74,124,0.51481971,0.92601564,1.55758112,0.19866863,0.30941231,0.45804991
13269,0,USGeorgiaTaylor,Georgia,Taylor,2021-04-04 12:25:54.975133,2020-07-31 00:00:00.000000,1.09473831,1.68069017,2.83847679,87,134,227,43,76,127,0.53716309,0.96002554,1.59069550,0.20525955,0.30859649,0.45450547
13269,0,USGeorgiaTaylor,Georgia,Taylor,2021-04-04 12:25:54.975133,2020-08-01 00:00:00.000000,1.11189409,1.72518842,2.94848633,89,138,236,44,78,129,0.55923451,0.98135776,1.61775971,0.20891336,0.30906330,0.45065412
13269,0,USGeorgiaTaylor,Georgia,Taylor,2021-04-04 12:25:54.975133,2020-08-02 00:00:00.000000,1.13163892,1.77898624,3.03353286,90,142,243,46,80,131,0.58085903,1.00835173,1.63940918,0.21588870,0.31391111,0.44823087
13269,0,USGeorgiaTaylor,Georgia,Taylor,2021-04-04 12:25:54.975133,2020-08-03 00:00:00.000000,1.17406812,1.85647936,3.13464264,94,148,251,48,83,133,0.60397906,1.04242872,1.66619402,0.22004906,0.31846845,0.44700010
13269,0,USGeorgiaTaylor,Georgia,Taylor,2021-04-04 12:25:54.975133,2020-08-04 00:00:00.000000,1.21894056,1.94220220,3.24666092,97,155,260,50,86,138,0.63500844,1.08272593,1.72196849,0.21430656,0.33062556,0.44634292
13269,0,USGeorgiaTaylor,Georgia,Taylor,2021-04-04 12:25:54.975133,2020-08-05 00:00:00.000000,1.26188861,2.02655251,3.36679910,101,162,270,53,89,141,0.66325969,1.11941820,1.76985776,0.21439366,0.33670781,0.44585268
13269,0,USGeorgiaTaylor,Georgia,Taylor,2021-04-04 12:25:54.975133,2020-08-06 00:00:00.000000,1.31380202,2.12467466,3.49230211,105,170,280,55,93,148,0.69261243,1.17088030,1.85343434,0.22098802,0.34090435,0.44531031
13269,0,USGeorgiaTaylor,Georgia,Taylor,2021-04-04 12:25:54.975133,2020-08-07 00:00:00.000000,1.36423143,2.19251629,3.62168469,109,175,290,57,97,155,0.71704317,1.21435218,1.93467224,0.22133983,0.34426588,0.44582284
13269,0,USGeorgiaTaylor,Georgia,Taylor,2021-04-04 12:25:54.975133,2020-08-08 00:00:00.000000,1.40992492,2.29562238,3.78411651,113,184,303,60,100,160,0.74858647,1.25866019,2.00671390,0.22358022,0.34410344,0.44741382
13269,0,USGeorgiaTaylor,Georgia,Taylor,2021-04-04 12:25:54.975133,2020-08-09 00:00:00.000000,1.46737159,2.37817102,3.88677785,117,190,311,62,103,166,0.77718265,1.29410178,2.08225458,0.22039477,0.34531818,0.45340412
13269,0,USGeorgiaTaylor,Georgia,Taylor,2021-04-04 12:25:54.975133,2020-08-10 00:00:00.000000,1.50638207,2.45392428,4.01583031,120,196,322,64,107,173,0.80748233,1.33809162,2.16164522,0.21986244,0.34381261,0.45752019
13269,0,USGeorgiaTaylor,Georgia,Taylor,2021-04-04 12:25:54.975133,2020-08-11 00:00:00.000000,1.56566877,2.53267516,4.11597484,125,203,330,67,110,179,0.84122674,1.38234670,2.23609912,0.22005194,0.34385936,0.45744154
13269,0,USGeorgiaTaylor,Georgia,Taylor,2021-04-04 12:25:54.975133,2020-08-12 00:00:00.000000,1.64207003,2.61166672,4.18569818,131,209,335,69,115,185,0.86963432,1.43917522,2.30698862,0.22766249,0.34344590,0.45779124
13269,0,USGeorgiaTaylor,Georgia,Taylor,2021-04-04 12:25:54.975133,2020-08-13 00:00:00.000000,1.72307530,2.71668705,4.24071017,138,217,340,71,120,190,0.89565138,1.49781246,2.37384759,0.23141193,0.34291756,0.45954034
13269,0,USGeorgiaTaylor,Georgia,Taylor,2021-04-04 12:25:54.975133,2020-08-14 00:00:00.000000,1.80055414,2.81518084,4.28630753,144,225,343,74,123,195,0.92400972,1.54386842,2.43979483,0.22999101,0.34018276,0.45906736
13269,0,USGeorgiaTaylor,Georgia,Taylor,2021-04-04 12:25:54.975133,2020-08-15 00:00:00.000000,1.87605492,2.89561266,4.43590638,150,232,355,77,126,195,0.96680811,1.58251835,2.43591710,0.22969436,0.34099321,0.45795864
13269,0,USGeorgiaTaylor,Georgia,Taylor,2021-04-04 12:25:54.975133,2020-08-16 00:00:00.000000,1.95527267,2.97354029,4.60625569,156,238,369,79,130,204,0.99337298,1.62557122,2.54477526,0.23767047,0.33648934,0.46321460
13269,0,USGeorgiaTaylor,Georgia,Taylor,2021-04-04 12:25:54.975133,2020-08-17 00:00:00.000000,1.99536612,3.03787650,4.75181586,160,243,381,81,134,211,1.01765235,1.67180374,2.64121195,0.23634822,0.34165651,0.47333759
13269,0,USGeorgiaTaylor,Georgia,Taylor,2021-04-04 12:25:54.975133,2020-08-18 00:00:00.000000,2.04378358,3.13186924,4.87205723,163,251,390,84,137,217,1.05641836,1.71469015,2.71112703,0.23406564,0.33915358,0.48994913
13269,0,USGeorgiaTaylor,Georgia,Taylor,2021-04-04 12:25:54.975133,2020-08-19 00:00:00.000000,2.08136523,3.21624033,4.97655468,166,257,399,88,139,223,1.10181831,1.74015279,2.78157518,0.23161866,0.33870214,0.48632387
13269,0,USGeorgiaTaylor,Georgia,Taylor,2021-04-04 12:25:54.975133,2020-08-20 00:00:00.000000,2.11920990,3.29543335,5.02250973,169,264,402,90,144,228,1.12766672,1.80504635,2.85200727,0.22719638,0.33760093,0.46732617
13269,0,USGeorgiaTaylor,Georgia,Taylor,2021-04-04 12:25:54.975133,2020-08-21 00:00:00.000000,2.15710026,3.39343172,5.09106834,172,272,408,92,150,234,1.14747136,1.87431761,2.92228648,0.22270417,0.33919616,0.46413735
13269,0,USGeorgiaTaylor,Georgia,Taylor,2021-04-04 12:25:54.975133,2020-08-22 00:00:00.000000,2.19475480,3.48080484,5.25813126,176,279,421,93,155,239,1.16775093,1.93479484,2.99165307,0.21576298,0.33400167,0.46279086
13269,0,USGeorgiaTaylor,Georgia,Taylor,2021-04-04 12:25:54.975133,2020-08-23 00:00:00.000000,2.23167957,3.58790049,5.34040357,178,287,428,95,162,245,1.18828573,2.02059327,3.05931859,0.20938320,0.33169159,0.45981543
13269,0,USGeorgiaTaylor,Georgia,Taylor,2021-04-04 12:25:54.975133,2020-08-24 00:00:00.000000,2.35734932,3.67523998,5.40071682,189,294,433,96,163,247,1.20884439,2.04413140,3.09147500,0.20622943,0.32749511,0.44719300
13269,0,USGeorgiaTaylor,Georgia,Taylor,2021-04-04 12:25:54.975133,2020-08-25 00:00:00.000000,2.48101542,3.70948385,5.45051849,198,297,437,100,166,248,1.24945185,2.07144397,3.09819601,0.20429109,0.31973871,0.42248272
13269,0,USGeorgiaTaylor,Georgia,Taylor,2021-04-04 12:25:54.975133,2020-08-26 00:00:00.000000,2.60887927,3.76244110,5.54284367,209,301,444,104,170,256,1.30315805,2.12558327,3.19285230,0.20083780,0.30557305,0.41347096
13269,0,USGeorgiaTaylor,Georgia,Taylor,2021-04-04 12:25:54.975133,2020-08-27 00:00:00.000000,2.68108791,3.81559678,5.70200278,215,306,457,109,172,264,1.36401313,2.15052962,3.29882692,0.19459200,0.29845220,0.39570921
13269,0,USGeorgiaTaylor,Georgia,Taylor,2021-04-04 12:25:54.975133,2020-08-28 00:00:00.000000,2.68689448,3.84470310,5.78414196,215,308,463,112,176,268,1.40589934,2.19973608,3.35056647,0.19095776,0.28718982,0.38614870
13269,0,USGeorgiaTaylor,Georgia,Taylor,2021-04-04 12:25:54.975133,2020-08-29 00:00:00.000000,2.68829455,3.85908459,5.78948684,215,309,464,119,179,271,1.49463708,2.23587442,3.38892125,0.16947994,0.27820126,0.37345105
13269,0,USGeorgiaTaylor,Georgia,Taylor,2021-04-04 12:25:54.975133,2020-08-30 00:00:00.000000,2.82251123,3.89251836,5.75952504,226,312,461,120,181,270,1.50745416,2.26640357,3.37362100,0.16633196,0.26697027,0.36774879
13269,0,USGeorgiaTaylor,Georgia,Taylor,2021-04-04 12:25:54.975133,2020-08-31 00:00:00.000000,2.86451389,3.85157564,5.74780185,229,308,460,120,181,271,1.50772807,2.25783193,3.38376045,0.15204189,0.26108306,0.36453371
13269,0,USGeorgiaTaylor,Georgia,Taylor,2021-04-04 12:25:54.975133,2020-09-01 00:00:00.000000,2.84945472,3.82885593,5.64358592,228,307,452,120,180,272,1.49756681,2.24851921,3.40044882,0.14975226,0.25537526,0.36378292
13269,0,USGeorgiaTaylor,Georgia,Taylor,2021-04-04 12:25:54.975133,2020-09-02 00:00:00.000000,2.81751491,3.79555700,5.47586012,225,304,439,118,179,272,1.47920672,2.24383800,3.39910315,0.14777418,0.25256681,0.36125107
13269,0,USGeorgiaTaylor,Georgia,Taylor,2021-04-04 12:25:54.975133,2020-09-03 00:00:00.000000,2.75513056,3.74239180,5.31535224,220,300,426,116,179,268,1.45510331,2.23933868,3.34739803,0.14634367,0.25013428,0.34287863
13269,0,USGeorgiaTaylor,Georgia,Taylor,2021-04-04 12:25:54.975133,2020-09-04 00:00:00.000000,2.68146543,3.72747023,5.16212533,215,298,414,114,179,263,1.42728512,2.24332069,3.28423239,0.14311619,0.24676746,0.34032543
13269,0,USGeorgiaTaylor,Georgia,Taylor,2021-04-04 12:25:54.975133,2020-09-05 00:00:00.000000,2.58862219,3.65273845,5.00814344,207,292,401,112,178,257,1.39711251,2.22089234,3.21266079,0.13653020,0.24034209,0.33417163
13269,0,USGeorgiaTaylor,Georgia,Taylor,2021-04-04 12:25:54.975133,2020-09-06 00:00:00.000000,2.49130102,3.57979704,5.01033762,199,287,401,109,175,251,1.36522862,2.18546527,3.13524037,0.12768569,0.22854235,0.33298705
13269,0,USGeorgiaTaylor,Georgia,Taylor,2021-04-04 12:25:54.975133,2020-09-07 00:00:00.000000,2.39367212,3.50471891,5.08755188,191,281,408,106,172,245,1.33216561,2.15634027,3.06290543,0.12739802,0.22553376,0.33075225
13269,0,USGeorgiaTaylor,Georgia,Taylor,2021-04-04 12:25:54.975133,2020-09-08 00:00:00.000000,2.29394051,3.47923618,5.00991707,183,279,401,104,171,250,1.30191158,2.13395659,3.11864684,0.12741039,0.22084273,0.32785895
13269,0,USGeorgiaTaylor,Georgia,Taylor,2021-04-04 12:25:54.975133,2020-09-09 00:00:00.000000,2.23082657,3.44435291,4.85628601,178,276,389,102,169,252,1.27231719,2.10937178,3.14368197,0.12743178,0.21720573,0.33285688
13269,0,USGeorgiaTaylor,Georgia,Taylor,2021-04-04 12:25:54.975133,2020-09-10 00:00:00.000000,2.16928935,3.41301015,4.69645253,173,273,376,97,166,248,1.22002990,2.07721747,3.09380500,0.12748286,0.21894304,0.32732565
13269,0,USGeorgiaTaylor,Georgia,Taylor,2021-04-04 12:25:54.975133,2020-09-11 00:00:00.000000,2.10166595,3.37426180,4.65748124,168,270,373,93,163,244,1.16887043,2.03437133,3.04501175,0.13903073,0.21386164,0.31759785
13269,0,USGeorgiaTaylor,Georgia,Taylor,2021-04-04 12:25:54.975133,2020-09-12 00:00:00.000000,2.03346613,3.24460570,4.58263696,163,260,367,90,160,240,1.12765785,1.99863979,2.99599423,0.13076639,0.20889309,0.30296023
13269,0,USGeorgiaTaylor,Georgia,Taylor,2021-04-04 12:25:54.975133,2020-09-13 00:00:00.000000,1.96672684,3.16816276,4.47556912,157,254,358,87,157,236,1.09276834,1.96157146,2.94721872,0.13201622,0.20683348,0.28307194
13269,0,USGeorgiaTaylor,Georgia,Taylor,2021-04-04 12:25:54.975133,2020-09-14 00:00:00.000000,1.89881037,3.09189351,4.36670702,152,247,350,84,154,232,1.05776137,1.92494145,2.90065936,0.13122150,0.20701153,0.26734683
13269,0,USGeorgiaTaylor,Georgia,Taylor,2021-04-04 12:25:54.975133,2020-09-15 00:00:00.000000,1.83311771,3.00222293,4.25431164,147,240,341,81,150,228,1.02243293,1.87533890,2.84784084,0.13084040,0.20705192,0.26676718
13269,0,USGeorgiaTaylor,Georgia,Taylor,2021-04-04 12:25:54.975133,2020-09-16 00:00:00.000000,1.76946387,2.91483956,4.14118179,141,233,332,79,144,223,0.98756841,1.80775960,2.79098455,0.13110398,0.20388951,0.26509086
13269,0,USGeorgiaTaylor,Georgia,Taylor,2021-04-04 12:25:54.975133,2020-09-17 00:00:00.000000,1.70757439,2.81897915,4.02794236,136,226,323,76,140,216,0.95353604,1.75543733,2.70267140,0.13192041,0.20240190,0.26106145
13269,0,USGeorgiaTaylor,Georgia,Taylor,2021-04-04 12:25:54.975133,2020-09-18 00:00:00.000000,1.64680346,2.72072942,4.02852948,132,218,323,73,137,214,0.92040616,1.71560612,2.67348651,0.13236512,0.20139717,0.25990153
13269,0,USGeorgiaTaylor,Georgia,Taylor,2021-04-04 12:25:54.975133,2020-09-19 00:00:00.000000,1.58856219,2.63089917,4.01286646,127,210,321,71,133,209,0.88775655,1.66139159,2.61492721,0.13249286,0.19898353,0.26710202
13269,0,USGeorgiaTaylor,Georgia,Taylor,2021-04-04 12:25:54.975133,2020-09-20 00:00:00.000000,1.52573683,2.56579524,3.91970369,122,205,314,68,129,204,0.85504192,1.61506301,2.55400849,0.13314727,0.19735351,0.26798658
13269,0,USGeorgiaTaylor,Georgia,Taylor,2021-04-04 12:25:54.975133,2020-09-21 00:00:00.000000,1.47338604,2.46526407,3.82303128,118,197,306,66,126,200,0.82359840,1.57163892,2.50196569,0.13176374,0.19533650,0.27233049
13269,0,USGeorgiaTaylor,Georgia,Taylor,2021-04-04 12:25:54.975133,2020-09-22 00:00:00.000000,1.42484862,2.38595814,3.73213529,114,191,299,63,122,196,0.79446195,1.52165777,2.44487512,0.13068314,0.19493539,0.28564983
13269,0,USGeorgiaTaylor,Georgia,Taylor,2021-04-04 12:25:54.975133,2020-09-23 00:00:00.000000,1.35190496,2.32367130,3.64350971,108,186,292,62,117,191,0.77365271,1.46882236,2.38247691,0.13010739,0.19558613,0.29535399
13269,0,USGeorgiaTaylor,Georgia,Taylor,2021-04-04 12:25:54.975133,2020-09-24 00:00:00.000000,1.29946047,2.24836337,3.58501145,104,180,287,60,113,186,0.75227755,1.41703642,2.32850561,0.13048060,0.19793259,0.30389065
13269,0,USGeorgiaTaylor,Georgia,Taylor,2021-04-04 12:25:54.975133,2020-09-25 00:00:00.000000,1.26146286,2.21843524,3.53877091,101,177,283,57,109,182,0.71787637,1.37151783,2.27833641,0.13138406,0.19939063,0.31502617
13269,0,USGeorgiaTaylor,Georgia,Taylor,2021-04-04 12:25:54.975133,2020-09-26 00:00:00.000000,1.22411885,2.15281367,3.51256535,98,172,281,56,106,180,0.70209716,1.32535184,2.25515995,0.13496894,0.20305203,0.32034228
13269,0,USGeorgiaTaylor,Georgia,Taylor,2021-04-04 12:25:54.975133,2020-09-27 00:00:00.000000,1.18762597,2.10236832,3.50312298,95,168,280,55,103,179,0.68922972,1.28930558,2.24351115,0.13613422,0.21183369,0.32342903
13269,0,USGeorgiaTaylor,Georgia,Taylor,2021-04-04 12:25:54.975133,2020-09-28 00:00:00.000000,1.15479976,2.05003443,3.51031297,92,164,281,53,100,179,0.66864679,1.25116722,2.23836877,0.13607031,0.21598599,0.32519699
13269,0,USGeorgiaTaylor,Georgia,Taylor,2021-04-04 12:25:54.975133,2020-09-29 00:00:00.000000,1.12339702,2.00927413,3.47891417,90,161,279,52,97,174,0.64952867,1.21714287,2.18108857,0.14464870,0.22381435,0.32643543
13269,0,USGeorgiaTaylor,Georgia,Taylor,2021-04-04 12:25:54.975133,2020-09-30 00:00:00.000000,1.09390102,1.96143313,3.45804857,87,157,277,50,95,172,0.63155665,1.18838013,2.14808811,0.14493844,0.23318568,0.32959547
13269,0,USGeorgiaTaylor,Georgia,Taylor,2021-04-04 12:25:54.975133,2020-10-01 00:00:00.000000,1.06700650,1.96122124,3.47073513,85,157,278,49,93,172,0.61463241,1.16527537,2.14848013,0.14667607,0.23782871,0.33522550
13269,0,USGeorgiaTaylor,Georgia,Taylor,2021-04-04 12:25:54.975133,2020-10-02 00:00:00.000000,1.04460947,1.96540099,3.49810306,83,157,280,48,91,172,0.59897948,1.14501549,2.15571557,0.15117616,0.25242734,0.36033740
13269,0,USGeorgiaTaylor,Georgia,Taylor,2021-04-04 12:25:54.975133,2020-10-03 00:00:00.000000,1.03109350,1.95738807,3.53869295,82,156,283,46,90,171,0.58547817,1.13052821,2.13800949,0.16032649,0.26310229,0.38565801
13269,0,USGeorgiaTaylor,Georgia,Taylor,2021-04-04 12:25:54.975133,2020-10-04 00:00:00.000000,1.03086977,1.95767637,3.58338127,82,157,287,46,89,172,0.57558593,1.12064144,2.14627904,0.16127214,0.27502328,0.42454956
13269,0,USGeorgiaTaylor,Georgia,Taylor,2021-04-04 12:25:54.975133,2020-10-05 00:00:00.000000,1.02824003,1.98354912,3.66148819,82,159,293,45,90,174,0.57156677,1.12466080,2.18045658,0.17638166,0.28388987,0.44472971
13269,0,USGeorgiaTaylor,Georgia,Taylor,2021-04-04 12:25:54.975133,2020-10-06 00:00:00.000000,1.04256214,2.01833790,3.74636325,83,161,300,46,89,177,0.57646138,1.12152225,2.21849477,0.18107030,0.29651750,0.45097833
13269,0,USGeorgiaTaylor,Georgia,Taylor,2021-04-04 12:25:54.975133,2020-10-07 00:00:00.000000,1.04387578,2.02074331,3.84001537,83,162,307,46,90,181,0.57481749,1.12501021,2.26093229,0.18421672,0.31005974,0.51082162
13269,0,USGeorgiaTaylor,Georgia,Taylor,2021-04-04 12:25:54.975133,2020-10-08 00:00:00.000000,1.06550609,2.03325239,3.94173262,85,163,316,46,90,185,0.57867687,1.13187894,2.30694008,0.19284062,0.32846565,0.51531534
13269,0,USGeorgiaTaylor,Georgia,Taylor,2021-04-04 12:25:54.975133,2020-10-09 00:00:00.000000,1.07400312,2.03750164,4.05118684,86,163,324,46,90,188,0.57665722,1.12832361,2.35547798,0.22548493,0.34540340,0.52678760
13269,0,USGeorgiaTaylor,Georgia,Taylor,2021-04-04 12:25:54.975133,2020-10-10 00:00:00.000000,1.09082013,2.08645821,4.16785965,87,167,334,46,92,192,0.58132121,1.15212522,2.39832787,0.24686770,0.36859323,0.56963012
13269,0,USGeorgiaTaylor,Georgia,Taylor,2021-04-04 12:25:54.975133,2020-10-11 00:00:00.000000,1.11055166,2.14975873,4.29035545,89,172,344,50,95,195,0.63395205,1.18547543,2.44231781,0.26376861,0.40157520,0.59990072
13269,0,USGeorgiaTaylor,Georgia,Taylor,2021-04-04 12:25:54.975133,2020-10-12 00:00:00.000000,1.19156852,2.31375814,4.42286851,95,185,354,53,98,199,0.66750457,1.22616914,2.48872051,0.27903489,0.42558626,0.62004711
13269,0,USGeorgiaTaylor,Georgia,Taylor,2021-04-04 12:25:54.975133,2020-10-13 00:00:00.000000,1.27237453,2.43805576,4.58935447,102,195,368,54,103,203,0.67794991,1.28600846,2.53759762,0.29380280,0.45515534,0.65373284
13269,0,USGeorgiaTaylor,Georgia,Taylor,2021-04-04 12:25:54.975133,2020-10-14 00:00:00.000000,1.36658040,2.51328735,4.78260816,109,201,383,55,107,207,0.69385781,1.33850590,2.58955915,0.31180494,0.46673212,0.68792990
13269,0,USGeorgiaTaylor,Georgia,Taylor,2021-04-04 12:25:54.975133,2020-10-15 00:00:00.000000,1.47228155,2.64373406,4.98923638,118,212,400,60,111,212,0.75200776,1.39418040,2.64659975,0.33725154,0.49769451,0.71141473
13269,0,USGeorgiaTaylor,Georgia,Taylor,2021-04-04 12:25:54.975133,2020-10-16 00:00:00.000000,1.59616907,2.79886806,5.22237698,128,224,418,66,118,217,0.82754686,1.47617560,2.71344093,0.35359858,0.54872025,0.78526201
13269,0,USGeorgiaTaylor,Georgia,Taylor,2021-04-04 12:25:54.975133,2020-10-17 00:00:00.000000,1.74920455,3.06742139,5.49958439,140,246,441,71,127,224,0.89136920,1.58437587,2.79784160,0.35696919,0.60747468,0.85327694
13269,0,USGeorgiaTaylor,Georgia,Taylor,2021-04-04 12:25:54.975133,2020-10-18 00:00:00.000000,1.93843604,3.32567913,5.82770006,155,266,467,77,136,233,0.96890963,1.69675956,2.90706381,0.36964458,0.63765370,0.89586500
13269,0,USGeorgiaTaylor,Georgia,Taylor,2021-04-04 12:25:54.975133,2020-10-19 00:00:00.000000,2.09724995,3.63196321,6.19432842,168,291,496,85,147,244,1.06417625,1.83495331,3.04362768,0.41401226,0.65412807,0.91069213
13269,0,USGeorgiaTaylor,Georgia,Taylor,2021-04-04 12:25:54.975133,2020-10-20 00:00:00.000000,2.26970956,3.97339238,6.58942350,182,318,528,93,159,258,1.16825820,1.98458339,3.21705624,0.46309298,0.67125245,0.91564053
13269,0,USGeorgiaTaylor,Georgia,Taylor,2021-04-04 12:25:54.975133,2020-10-21 00:00:00.000000,2.48282443,4.39805403,7.00050235,199,352,561,103,170,274,1.29176729,2.12949028,3.42101344,0.50535022,0.69486783,0.92147810
13269,0,USGeorgiaTaylor,Georgia,Taylor,2021-04-04 12:25:54.975133,2020-10-22 00:00:00.000000,2.74927790,4.74351327,7.42646430,220,380,595,115,187,292,1.44202171,2.33767647,3.65052123,0.52767767,0.72832023,0.94726438
13269,0,USGeorgiaTaylor,Georgia,Taylor,2021-04-04 12:25:54.975133,2020-10-23 00:00:00.000000,3.07143408,5.20223257,7.94494437,246,417,637,129,207,312,1.61669164,2.59115123,3.90182092,0.54094594,0.74132900,0.95572266
13269,0,USGeorgiaTaylor,Georgia,Taylor,2021-04-04 12:25:54.975133,2020-10-24 00:00:00.000000,3.44671044,5.68860068,8.48366969,276,456,680,142,227,334,1.78011232,2.84056986,4.17218569,0.54980316,0.75105164,0.94445361
13269,0,USGeorgiaTaylor,Georgia,Taylor,2021-04-04 12:25:54.975133,2020-10-25 00:00:00.000000,3.87319200,6.18658551,9.03996754,310,496,725,157,249,358,1.96629662,3.10901661,4.46415745,0.56661801,0.76452367,0.94364299
13269,0,USGeorgiaTaylor,Georgia,Taylor,2021-04-04 12:25:54.975133,2020-10-26 00:00:00.000000,4.44370300,6.82671740,9.65531744,356,547,774,175,274,383,2.18300797,3.41996832,4.77816812,0.56407852,0.77919005,0.98014354
13269,0,USGeorgiaTaylor,Georgia,Taylor,2021-04-04 12:25:54.975133,2020-10-27 00:00:00.000000,5.06453362,7.45285244,10.34816449,406,597,829,196,295,414,2.45604687,3.68287857,5.16706558,0.56200414,0.78373219,1.01183166
13269,0,USGeorgiaTaylor,Georgia,Taylor,2021-04-04 12:25:54.975133,2020-10-28 00:00:00.000000,5.66274607,8.18720363,11.01878741,454,656,883,220,320,447,2.74809322,3.99445328,5.58197978,0.55957984,0.77981777,1.02092883
13269,0,USGeorgiaTaylor,Georgia,Taylor,2021-04-04 12:25:54.975133,2020-10-29 00:00:00.000000,6.30260701,8.83269436,11.72800694,505,708,940,242,344,482,3.02595500,4.29976368,6.02077024,0.55474773,0.77946820,1.02413348
13269,0,USGeorgiaTaylor,Georgia,Taylor,2021-04-04 12:25:54.975133,2020-10-30 00:00:00.000000,6.92892903,9.34762882,12.38558424,555,749,993,266,377,528,3.32424880,4.70274778,6.58358078,0.54076694,0.76074079,0.98429022
13269,0,USGeorgiaTaylor,Georgia,Taylor,2021-04-04 12:25:54.975133,2020-10-31 00:00:00.000000,7.42709315,9.97328887,12.91608482,595,799,1035,291,409,560,3.63344702,5.10689200,6.99370429,0.48599529,0.70720458,0.93800883
13269,0,USGeorgiaTaylor,Georgia,Taylor,2021-04-04 12:25:54.975133,2020-11-01 00:00:00.000000,7.57316324,10.43184352,13.33199613,607,836,1069,309,436,598,3.85361909,5.44579049,7.46877127,0.43873934,0.58377131,0.87886331
13269,0,USGeorgiaTaylor,Georgia,Taylor,2021-04-04 12:25:54.975133,2020-11-02 00:00:00.000000,7.90615785,10.60821006,14.01203440,634,850,1123,320,458,628,3.99963915,5.71521726,7.83306201,0.36901482,0.49466379,0.76511076
13269,0,USGeorgiaTaylor,Georgia,Taylor,2021-04-04 12:25:54.975133,2020-11-03 00:00:00.000000,8.23300097,10.67793740,14.23391775,660,856,1141,335,477,667,4.18530387,5.95004905,8.31717415,0.30185413,0.44296683,0.62471209
13269,0,USGeorgiaTaylor,Georgia,Taylor,2021-04-04 12:25:54.975133,2020-11-04 00:00:00.000000,8.19323684,10.72906929,14.26548641,657,860,1144,342,492,692,4.27134724,6.14437724,8.63067118,0.27666536,0.38912230,0.51342472
13269,0,USGeorgiaTaylor,Georgia,Taylor,2021-04-04 12:25:54.975133,2020-11-05 00:00:00.000000,8.02986012,10.61410604,14.10296724,643,851,1131,343,499,698,4.27890126,6.22284437,8.71138446,0.27092136,0.35066568,0.46091493
13269,0,USGeorgiaTaylor,Georgia,Taylor,2021-04-04 12:25:54.975133,2020-11-06 00:00:00.000000,7.83037290,10.52634226,13.93520722,627,844,1117,339,498,691,4.22880611,6.21943967,8.62596345,0.26644832,0.32727543,0.44100848
13269,0,USGeorgiaTaylor,Georgia,Taylor,2021-04-04 12:25:54.975133,2020-11-07 00:00:00.000000,7.53230304,10.22530734,13.73308994,604,820,1101,337,493,699,4.20317365,6.15642630,8.72636053,0.25549343,0.32473788,0.42198416
13269,0,USGeorgiaTaylor,Georgia,Taylor,2021-04-04 12:25:54.975133,2020-11-08 00:00:00.000000,7.32949774,10.09418113,13.50939729,587,809,1083,329,490,703,4.11100442,6.11127597,8.77007920,0.24796805,0.31937939,0.42664851
13269,0,USGeorgiaTaylor,Georgia,Taylor,2021-04-04 12:25:54.975133,2020-11-09 00:00:00.000000,7.00542916,9.86358038,13.30699000,561,791,1067,316,483,700,3.94578415,6.03061515,8.73402247,0.24537710,0.31784588,0.39681185
13269,0,USGeorgiaTaylor,Georgia,Taylor,2021-04-04 12:25:54.975133,2020-11-10 00:00:00.000000,6.64926418,9.65492941,13.11225881,533,774,1051,308,470,695,3.84756068,5.87179143,8.67761440,0.24386298,0.31667693,0.39074235
13269,0,USGeorgiaTaylor,Georgia,Taylor,2021-04-04 12:25:54.975133,2020-11-11 00:00:00.000000,6.32659990,9.40133265,12.90558186,507,753,1035,300,462,689,3.74612294,5.76544628,8.59271227,0.24405937,0.31609024,0.38749807
13269,0,USGeorgiaTaylor,Georgia,Taylor,2021-04-04 12:25:54.975133,2020-11-12 00:00:00.000000,6.05329847,9.11823858,12.69559782,485,731,1018,292,453,680,3.64292550,5.65002510,8.48645736,0.24795304,0.31511557,0.38681326
13269,0,USGeorgiaTaylor,Georgia,Taylor,2021-04-04 12:25:54.975133,2020-11-13 00:00:00.000000,5.83694770,8.88876631,12.48563262,468,712,1001,283,440,670,3.53932298,5.49741557,8.36569257,0.25346704,0.31934929,0.39280227
13269,0,USGeorgiaTaylor,Georgia,Taylor,2021-04-04 12:25:54.975133,2020-11-14 00:00:00.000000,5.66898435,8.70585675,12.27605762,454,698,984,275,431,663,3.43670193,5.38290600,8.26792664,0.25897047,0.32354625,0.42277880
13269,0,USGeorgiaTaylor,Georgia,Taylor,2021-04-04 12:25:54.975133,2020-11-15 00:00:00.000000,5.53439618,8.49083887,12.14670687,443,680,974,265,424,652,3.31455042,5.28938476,8.13409153,0.27154092,0.32987636,0.43669528
13269,0,USGeorgiaTaylor,Georgia,Taylor,2021-04-04 12:25:54.975133,2020-11-16 00:00:00.000000,5.28781796,8.28138053,12.02004659,424,664,964,255,412,640,3.18469734,5.14463779,7.99240380,0.28254998,0.34612382,0.44244955
13269,0,USGeorgiaTaylor,Georgia,Taylor,2021-04-04 12:25:54.975133,2020-11-17 00:00:00.000000,5.16685681,8.08302324,11.89517189,414,648,953,246,399,633,3.07330567,4.98548026,7.89917304,0.28165038,0.35331508,0.46356931
13269,0,USGeorgiaTaylor,Georgia,Taylor,2021-04-04 12:25:54.975133,2020-11-18 00:00:00.000000,5.03515989,7.89465681,11.76869410,403,633,943,238,388,627,2.97985857,4.84370545,7.82113822,0.27869309,0.36106384,0.48620589
13269,0,USGeorgiaTaylor,Georgia,Taylor,2021-04-04 12:25:54.975133,2020-11-19 00:00:00.000000,4.86708402,7.79404200,11.64018535,390,625,933,232,378,621,2.90145121,4.71379812,7.75201145,0.27662082,0.36783955,0.51801788
13269,0,USGeorgiaTaylor,Georgia,Taylor,2021-04-04 12:25:54.975133,2020-11-20 00:00:00.000000,4.72761278,7.70322977,11.51597605,379,617,923,227,368,616,2.84269327,4.59222202,7.68901166,0.27513985,0.38648811,0.52206338
13269,0,USGeorgiaTaylor,Georgia,Taylor,2021-04-04 12:25:54.975133,2020-11-21 00:00:00.000000,4.61945944,7.59964320,11.42278873,370,609,916,223,359,607,2.78724812,4.47704921,7.57438035,0.29863844,0.39642595,0.54820292
13269,0,USGeorgiaTaylor,Georgia,Taylor,2021-04-04 12:25:54.975133,2020-11-22 00:00:00.000000,4.54452182,7.49350461,11.38662215,364,600,913,219,350,595,2.74079776,4.36758404,7.42041369,0.31463752,0.40724579,0.55381846
13269,0,USGeorgiaTaylor,Georgia,Taylor,2021-04-04 12:25:54.975133,2020-11-23 00:00:00.000000,4.51802952,7.33953229,11.36987275,362,588,911,214,341,582,2.67032697,4.26426176,7.25819935,0.31452517,0.42146634,0.56432014
13269,0,USGeorgiaTaylor,Georgia,Taylor,2021-04-04 12:25:54.975133,2020-11-24 00:00:00.000000,4.51431334,7.21533626,11.35063261,362,578,910,210,335,568,2.62878834,4.17903261,7.08926178,0.31448242,0.43334540,0.57243590
13269,0,USGeorgiaTaylor,Georgia,Taylor,2021-04-04 12:25:54.975133,2020-11-25 00:00:00.000000,4.52694654,7.15322485,11.32356940,363,573,908,208,334,554,2.60235908,4.17216980,6.91675062,0.31506590,0.43962663,0.57119708
13269,0,USGeorgiaTaylor,Georgia,Taylor,2021-04-04 12:25:54.975133,2020-11-26 00:00:00.000000,4.54944372,7.01777833,11.24399479,364,562,901,207,332,551,2.58353306,4.14170320,6.88171319,0.31663661,0.44677554,0.57885991
13269,0,USGeorgiaTaylor,Georgia,Taylor,2021-04-04 12:25:54.975133,2020-11-27 00:00:00.000000,4.57900658,6.86312886,11.11281638,367,550,891,205,327,549,2.56819158,4.08479555,6.85538935,0.30588249,0.45063204,0.58618175
13269,0,USGeorgiaTaylor,Georgia,Taylor,2021-04-04 12:25:54.975133,2020-11-28 00:00:00.000000,4.61862695,6.72658488,10.99260525,370,539,881,206,325,545,2.57315962,4.06362581,6.79744925,0.30992265,0.45048959,0.59898579
13269,0,USGeorgiaTaylor,Georgia,Taylor,2021-04-04 12:25:54.975133,2020-11-29 00:00:00.000000,4.66589403,6.63484803,10.87058938,374,532,871,207,323,536,2.58794207,4.03335831,6.68516518,0.32110466,0.44444603,0.60205417
13269,0,USGeorgiaTaylor,Georgia,Taylor,2021-04-04 12:25:54.975133,2020-11-30 00:00:00.000000,4.61409851,6.61436856,10.79136022,370,530,865,208,318,529,2.60514389,3.96934212,6.60270036,0.32254552,0.44500849,0.61052176
13269,0,USGeorgiaTaylor,Georgia,Taylor,2021-04-04 12:25:54.975133,2020-12-01 00:00:00.000000,4.49246898,6.55846185,10.71496915,360,525,859,208,311,530,2.60181723,3.87905005,6.61072869,0.30680342,0.44361730,0.61190605
13269,0,USGeorgiaTaylor,Georgia,Taylor,2021-04-04 12:25:54.975133,2020-12-02 00:00:00.000000,4.37650597,6.43362064,10.62780339,350,515,852,203,307,530,2.53188785,3.83989443,6.61358219,0.30926906,0.45567464,0.61235397
13269,0,USGeorgiaTaylor,Georgia,Taylor,2021-04-04 12:25:54.975133,2020-12-03 00:00:00.000000,4.29299732,6.26507036,10.53161963,344,502,844,197,307,529,2.46488264,3.83327323,6.60630480,0.31786204,0.46173302,0.61235308
13269,0,USGeorgiaTaylor,Georgia,Taylor,2021-04-04 12:25:54.975133,2020-12-04 00:00:00.000000,4.28479449,6.15856507,10.35547308,343,493,830,193,300,528,2.40815746,3.74966921,6.58374634,0.32438920,0.45688201,0.61178274
13269,0,USGeorgiaTaylor,Georgia,Taylor,2021-04-04 12:25:54.975133,2020-12-05 00:00:00.000000,4.21526240,6.07321257,10.15628791,338,487,814,188,294,524,2.35064622,3.67039406,6.54174125,0.33434894,0.46150646,0.60970421
13269,0,USGeorgiaTaylor,Georgia,Taylor,2021-04-04 12:25:54.975133,2020-12-06 00:00:00.000000,4.14993814,5.93351911,9.97362513,332,475,799,184,285,519,2.30174740,3.55861266,6.47893490,0.33236573,0.46784343,0.61648479
13269,0,USGeorgiaTaylor,Georgia,Taylor,2021-04-04 12:25:54.975133,2020-12-07 00:00:00.000000,4.09976135,5.81072019,9.79738899,328,466,785,183,281,513,2.28218413,3.51469361,6.39670197,0.33268368,0.48274322,0.62202255
13269,0,USGeorgiaTaylor,Georgia,Taylor,2021-04-04 12:25:54.975133,2020-12-08 00:00:00.000000,4.06503760,5.71515270,9.64462005,326,458,773,183,278,505,2.28226272,3.47591636,6.29890655,0.33421983,0.49242752,0.63640259
13269,0,USGeorgiaTaylor,Georgia,Taylor,2021-04-04 12:25:54.975133,2020-12-09 00:00:00.000000,4.04697864,5.60240048,9.50009060,324,449,761,182,272,496,2.28063100,3.39933550,6.18994535,0.33760188,0.49594037,0.64371941
13269,0,USGeorgiaTaylor,Georgia,Taylor,2021-04-04 12:25:54.975133,2020-12-10 00:00:00.000000,4.04563599,5.53093629,9.35179215,324,443,750,181,268,487,2.26633346,3.34845876,6.07272357,0.34477415,0.50734564,0.67222037
13269,0,USGeorgiaTaylor,Georgia,Taylor,2021-04-04 12:25:54.975133,2020-12-11 00:00:00.000000,3.93369063,5.50401717,9.15213901,315,441,734,176,264,477,2.19751888,3.30091616,5.94956415,0.35741332,0.51672640,0.70130995
13269,0,USGeorgiaTaylor,Georgia,Taylor,2021-04-04 12:25:54.975133,2020-12-12 00:00:00.000000,3.83348116,5.43388708,8.97199455,307,435,719,174,260,466,2.17809707,3.25356200,5.82224100,0.37097896,0.52413178,0.72845900
13269,0,USGeorgiaTaylor,Georgia,Taylor,2021-04-04 12:25:54.975133,2020-12-13 00:00:00.000000,3.76497901,5.43690804,8.86432296,301,436,710,175,257,456,2.18536498,3.20949928,5.69220429,0.37687154,0.54419314,0.76968550
13269,0,USGeorgiaTaylor,Georgia,Taylor,2021-04-04 12:25:54.975133,2020-12-14 00:00:00.000000,3.77323045,5.47136928,8.72445020,302,438,699,176,255,445,2.20038103,3.18920737,5.56094398,0.39962636,0.56783794,0.79595836
13269,0,USGeorgiaTaylor,Georgia,Taylor,2021-04-04 12:25:54.975133,2020-12-15 00:00:00.000000,3.79627528,5.47504666,8.59270956,304,439,689,178,252,435,2.23019849,3.15299360,5.42784813,0.40778296,0.58500671,0.80872615
13269,0,USGeorgiaTaylor,Georgia,Taylor,2021-04-04 12:25:54.975133,2020-12-16 00:00:00.000000,3.80684849,5.51068415,8.51103284,305,441,682,174,251,428,2.17337608,3.13508223,5.34687474,0.41097019,0.61353126,0.84050568
13269,0,USGeorgiaTaylor,Georgia,Taylor,2021-04-04 12:25:54.975133,2020-12-17 00:00:00.000000,3.69934030,5.52401977,8.49519163,296,443,681,167,252,425,2.09093906,3.15420818,5.30580600,0.41486497,0.61689063,0.87984801
13269,0,USGeorgiaTaylor,Georgia,Taylor,2021-04-04 12:25:54.975133,2020-12-18 00:00:00.000000,3.76582324,5.54587183,8.48636753,302,444,680,162,256,422,2.03166162,3.19233367,5.27223403,0.42742066,0.62778257,0.89711213
13269,0,USGeorgiaTaylor,Georgia,Taylor,2021-04-04 12:25:54.975133,2020-12-19 00:00:00.000000,3.85417036,5.58003268,8.47695570,309,447,679,164,258,420,2.05208840,3.22912752,5.24328135,0.46284303,0.65367882,0.90828033
13269,0,USGeorgiaTaylor,Georgia,Taylor,2021-04-04 12:25:54.975133,2020-12-20 00:00:00.000000,3.95684171,5.64518453,8.46805037,317,452,679,166,261,418,2.07699131,3.26039606,5.21728963,0.46519863,0.66114083,0.91555412
13269,0,USGeorgiaTaylor,Georgia,Taylor,2021-04-04 12:25:54.975133,2020-12-21 00:00:00.000000,4.03652639,5.73607579,8.47068160,323,460,679,169,262,416,2.11074121,3.27525233,5.19567399,0.47320088,0.67109236,0.92477072
13269,0,USGeorgiaTaylor,Georgia,Taylor,2021-04-04 12:25:54.975133,2020-12-22 00:00:00.000000,4.06919255,5.73572378,8.47951890,326,460,680,171,262,414,2.14202294,3.27436106,5.17193095,0.47767524,0.67987270,0.93534138
13269,0,USGeorgiaTaylor,Georgia,Taylor,2021-04-04 12:25:54.975133,2020-12-23 00:00:00.000000,4.09945994,5.81143146,8.49712935,328,466,681,174,265,412,2.17930771,3.30978455,5.14778328,0.48359827,0.69487575,0.96795618
13269,0,USGeorgiaTaylor,Georgia,Taylor,2021-04-04 12:25:54.975133,2020-12-24 00:00:00.000000,4.03327071,5.82314205,8.36800075,323,467,671,179,265,411,2.23402163,3.30451601,5.12516262,0.50225909,0.71986345,0.98425185
13269,0,USGeorgiaTaylor,Georgia,Taylor,2021-04-04 12:25:54.975133,2020-12-25 00:00:00.000000,4.03255211,5.89664346,8.36079912,323,472,670,184,268,415,2.29766619,3.34790346,5.17923373,0.53151423,0.72626090,1.01078055
13269,0,USGeorgiaTaylor,Georgia,Taylor,2021-04-04 12:25:54.975133,2020-12-26 00:00:00.000000,4.03587072,5.96119522,8.46395657,323,478,678,185,271,414,2.30951789,3.39129372,5.17113188,0.53515784,0.74091125,1.00544027
13269,0,USGeorgiaTaylor,Georgia,Taylor,2021-04-04 12:25:54.975133,2020-12-27 00:00:00.000000,4.03919401,5.98648860,8.52763816,323,480,683,186,276,424,2.33158116,3.44702610,5.29658361,0.55321108,0.76710692,1.05926714
13269,0,USGeorgiaTaylor,Georgia,Taylor,2021-04-04 12:25:54.975133,2020-12-28 00:00:00.000000,3.98156263,5.99592826,8.55312803,319,480,685,185,277,427,2.31096382,3.45969020,5.33652450,0.59028907,0.79192830,1.09110716
13269,0,USGeorgiaTaylor,Georgia,Taylor,2021-04-04 12:25:54.975133,2020-12-29 00:00:00.000000,3.89050098,5.96483518,8.65214862,312,478,693,184,280,428,2.29709572,3.50203787,5.33693667,0.61515165,0.80550267,1.12278916
13269,0,USGeorgiaTaylor,Georgia,Taylor,2021-04-04 12:25:54.975133,2020-12-30 00:00:00.000000,3.79595693,5.93217083,8.70164401,304,475,697,180,286,427,2.25596615,3.56882521,5.33157403,0.61447124,0.83881870,1.14338747
13269,0,USGeorgiaTaylor,Georgia,Taylor,2021-04-04 12:25:54.975133,2020-12-31 00:00:00.000000,3.80225692,5.93587938,8.71129917,304,476,698,180,291,426,2.25058285,3.63983575,5.32266463,0.61424409,0.84781193,1.17567683
13269,0,USGeorgiaTaylor,Georgia,Taylor,2021-04-04 12:25:54.975133,2021-01-01 00:00:00.000000,3.83822866,5.94357552,8.78683562,307,476,704,180,294,425,2.25508740,3.66754993,5.30981911,0.61554106,0.85719158,1.19188349
13269,0,USGeorgiaTaylor,Georgia,Taylor,2021-04-04 12:25:54.975133,2021-01-02 00:00:00.000000,3.93379794,5.98960456,8.88504528,315,480,712,179,293,424,2.24356951,3.66386195,5.29228720,0.61332515,0.86238959,1.20707827
13269,0,USGeorgiaTaylor,Georgia,Taylor,2021-04-04 12:25:54.975133,2021-01-03 00:00:00.000000,4.02993287,6.04018202,8.97276313,323,484,719,177,297,422,2.21635200,3.70634886,5.26945384,0.59578762,0.86794609,1.21642550
13269,0,USGeorgiaTaylor,Georgia,Taylor,2021-04-04 12:25:54.975133,2021-01-04 00:00:00.000000,4.04402239,6.10306986,9.05579367,324,489,726,172,299,425,2.15361931,3.74006872,5.30972551,0.60216383,0.87058556,1.21053616
13269,0,USGeorgiaTaylor,Georgia,Taylor,2021-04-04 12:25:54.975133,2021-01-05 00:00:00.000000,4.05238005,6.18914049,9.12386399,325,496,731,172,299,429,2.15091671,3.74052841,5.35228990,0.60085425,0.88892070,1.23554794
13269,0,USGeorgiaTaylor,Georgia,Taylor,2021-04-04 12:25:54.975133,2021-01-06 00:00:00.000000,4.07478304,6.21015078,9.17659381,326,498,735,173,298,432,2.16213960,3.72673151,5.38964294,0.59985584,0.89782057,1.24579524
13269,0,USGeorgiaTaylor,Georgia,Taylor,2021-04-04 12:25:54.975133,2021-01-07 00:00:00.000000,4.11120335,6.23540509,9.16176996,329,500,734,173,297,434,2.16482548,3.70866983,5.42006929,0.60057857,0.91258909,1.23671753
13269,0,USGeorgiaTaylor,Georgia,Taylor,2021-04-04 12:25:54.975133,2021-01-08 00:00:00.000000,4.01990969,6.26129332,9.10003211,322,502,729,173,294,436,2.16190250,3.67209027,5.44241000,0.62213256,0.90710097,1.26491875
13269,0,USGeorgiaTaylor,Georgia,Taylor,2021-04-04 12:25:54.975133,2021-01-09 00:00:00.000000,3.99428446,6.25240431,9.00516736,320,501,722,172,291,437,2.15485074,3.63410123,5.45590487,0.63653687,0.91461213,1.28300116
13269,0,USGeorgiaTaylor,Georgia,Taylor,2021-04-04 12:25:54.975133,2021-01-10 00:00:00.000000,3.96370501,6.19377537,8.95312901,317,496,718,171,287,437,2.14445933,3.58983062,5.46010461,0.62543119,0.92448616,1.28945222
13269,0,USGeorgiaTaylor,Georgia,Taylor,2021-04-04 12:25:54.975133,2021-01-11 00:00:00.000000,3.91042256,6.20392067,8.89790587,313,497,713,170,283,438,2.13120852,3.53977737,5.46517773,0.62312724,0.91799514,1.30582725
13269,0,USGeorgiaTaylor,Georgia,Taylor,2021-04-04 12:25:54.975133,2021-01-12 00:00:00.000000,3.85297529,6.19043966,8.83050330,309,496,708,169,280,437,2.11027983,3.49930367,5.45795765,0.62738377,0.91766582,1.31602594
13269,0,USGeorgiaTaylor,Georgia,Taylor,2021-04-04 12:25:54.975133,2021-01-13 00:00:00.000000,3.79065624,6.10344165,8.75131912,304,489,701,169,277,435,2.11167709,3.46153068,5.42989714,0.63951454,0.91476385,1.28583639
13269,0,USGeorgiaTaylor,Georgia,Taylor,2021-04-04 12:25:54.975133,2021-01-14 00:00:00.000000,3.72440063,5.99380297,8.75617768,298,480,702,169,272,431,2.11248970,3.40260938,5.38335083,0.64593697,0.90600234,1.25656967
13269,0,USGeorgiaTaylor,Georgia,Taylor,2021-04-04 12:25:54.975133,2021-01-15 00:00:00.000000,3.65483695,5.94219456,8.62585244,293,476,691,167,273,426,2.08674867,3.41012936,5.32371038,0.64879466,0.90395509,1.27189375
13269,0,USGeorgiaTaylor,Georgia,Taylor,2021-04-04 12:25:54.975133,2021-01-16 00:00:00.000000,3.58245780,5.82766161,8.50547864,287,467,682,164,275,421,2.05211372,3.42966712,5.25751243,0.64970588,0.90479484,1.28029976
13269,0,USGeorgiaTaylor,Georgia,Taylor,2021-04-04 12:25:54.975133,2021-01-17 00:00:00.000000,3.50769214,5.68082307,8.41753170,281,455,675,161,276,416,2.01835204,3.44677127,5.18894884,0.65261555,0.92375885,1.31417932
13269,0,USGeorgiaTaylor,Georgia,Taylor,2021-04-04 12:25:54.975133,2021-01-18 00:00:00.000000,3.44815642,5.54661816,8.33572464,276,444,668,159,271,411,1.98523422,3.37932941,5.12999835,0.65918095,0.93068120,1.33967965
13269,0,USGeorgiaTaylor,Georgia,Taylor,2021-04-04 12:25:54.975133,2021-01-19 00:00:00.000000,3.38705852,5.41680613,8.24437376,271,434,661,156,267,411,1.95455147,3.33179594,5.13394333,0.64737123,0.92960357,1.37445525
13269,0,USGeorgiaTaylor,Georgia,Taylor,2021-04-04 12:25:54.975133,2021-01-20 00:00:00.000000,3.32567607,5.31082798,8.14440905,266,425,653,154,265,407,1.92668196,3.30732078,5.07560728,0.63796962,0.92454692,1.37551468
13269,0,USGeorgiaTaylor,Georgia,Taylor,2021-04-04 12:25:54.975133,2021-01-21 00:00:00.000000,3.26369974,5.23835581,8.03646133,261,420,644,152,262,397,1.90316783,3.27694522,4.95341285,0.63905205,0.90100878,1.37534471
13269,0,USGeorgiaTaylor,Georgia,Taylor,2021-04-04 12:25:54.975133,2021-01-22 00:00:00.000000,3.20848010,5.17991515,7.92110609,257,415,635,151,258,388,1.88594899,3.22327322,4.84523162,0.64352594,0.89451332,1.37473801
13269,0,USGeorgiaTaylor,Georgia,Taylor,2021-04-04 12:25:54.975133,2021-01-23 00:00:00.000000,3.13580997,5.09089064,7.79879460,251,408,625,150,253,383,1.87587951,3.15872086,4.78449218,0.63109510,0.88198767,1.37182618
13269,0,USGeorgiaTaylor,Georgia,Taylor,2021-04-04 12:25:54.975133,2021-01-24 00:00:00.000000,3.06294912,4.99820124,7.67001529,245,400,615,146,246,379,1.82466942,3.06999465,4.73655251,0.62741096,0.87412172,1.36545358
13269,0,USGeorgiaTaylor,Georgia,Taylor,2021-04-04 12:25:54.975133,2021-01-25 00:00:00.000000,3.00108746,4.86530160,7.50162480,240,390,601,140,240,374,1.75774476,3.00208205,4.67309737,0.61645250,0.86571341,1.42295124
13269,0,USGeorgiaTaylor,Georgia,Taylor,2021-04-04 12:25:54.975133,2021-01-26 00:00:00.000000,2.94789610,4.76100274,7.32539846,236,381,587,140,234,368,1.74971804,2.92593844,4.59787851,0.59382998,0.88531824,1.47596075
13269,0,USGeorgiaTaylor,Georgia,Taylor,2021-04-04 12:25:54.975133,2021-01-27 00:00:00.000000,2.93230003,4.62926797,7.14393696,235,371,572,143,227,361,1.78924783,2.83618354,4.51262791,0.58887120,0.89543036,1.48548885
13269,0,USGeorgiaTaylor,Georgia,Taylor,2021-04-04 12:25:54.975133,2021-01-28 00:00:00.000000,2.88572627,4.48394965,6.95879692,231,359,558,140,220,354,1.75648696,2.75364583,4.41914883,0.58735110,0.88681803,1.46566548
13269,0,USGeorgiaTaylor,Georgia,Taylor,2021-04-04 12:25:54.975133,2021-01-29 00:00:00.000000,2.82152436,4.33742156,6.77093950,226,347,543,138,215,346,1.72539187,2.69029964,4.31894686,0.57101181,0.87741222,1.40206551
13269,0,USGeorgiaTaylor,Georgia,Taylor,2021-04-04 12:25:54.975133,2021-01-30 00:00:00.000000,2.74413840,4.20581862,6.58124122,220,337,527,135,209,337,1.68516940,2.60806361,4.21320876,0.54877389,0.85466985,1.37711281
13269,0,USGeorgiaTaylor,Georgia,Taylor,2021-04-04 12:25:54.975133,2021-01-31 00:00:00.000000,2.69083536,4.05939731,6.39050235,215,325,512,131,200,329,1.63611212,2.50018723,4.10306106,0.52700897,0.82575602,1.38203596
13269,0,USGeorgiaTaylor,Georgia,Taylor,2021-04-04 12:25:54.975133,2021-02-01 00:00:00.000000,2.61889380,3.92942587,6.19189966,210,315,496,127,192,319,1.58630465,2.39779786,3.98974159,0.50500498,0.81147747,1.39790425
13269,0,USGeorgiaTaylor,Georgia,Taylor,2021-04-04 12:25:54.975133,2021-02-02 00:00:00.000000,2.54580110,3.81407980,5.99365233,204,305,480,122,186,310,1.52733954,2.32215763,3.87211646,0.49467092,0.79822492,1.43958564
13269,0,USGeorgiaTaylor,Georgia,Taylor,2021-04-04 12:25:54.975133,2021-02-03 00:00:00.000000,2.45274111,3.67269586,5.79628085,196,294,464,117,181,300,1.46344008,2.26731691,3.75223226,0.48648811,0.77816721,1.45625430
13269,0,USGeorgiaTaylor,Georgia,Taylor,2021-04-04 12:25:54.975133,2021-02-04 00:00:00.000000,2.33713691,3.55343689,5.57671225,187,284,447,112,177,291,1.39747030,2.21682065,3.63159968,0.47286864,0.75404080,1.44778284
13269,0,USGeorgiaTaylor,Georgia,Taylor,2021-04-04 12:25:54.975133,2021-02-05 00:00:00.000000,2.21591123,3.39323265,5.33226537,177,272,427,106,173,281,1.33102379,2.16264476,3.51137327,0.46498488,0.73937976,1.40847585
13269,0,USGeorgiaTaylor,Georgia,Taylor,2021-04-04 12:25:54.975133,2021-02-06 00:00:00.000000,2.09577663,3.22681077,5.15484492,168,258,413,101,166,272,1.26435568,2.07504752,3.39256946,0.47054065,0.72233769,1.35404562
13269,0,USGeorgiaTaylor,Georgia,Taylor,2021-04-04 12:25:54.975133,2021-02-07 00:00:00.000000,1.97922723,3.09933425,4.98422810,158,248,399,96,160,263,1.19807091,2.00342391,3.28744740,0.42216900,0.71364242,1.31855005
13269,0,USGeorgiaTaylor,Georgia,Taylor,2021-04-04 12:25:54.975133,2021-02-08 00:00:00.000000,1.87350198,2.97836780,4.79465397,150,238,384,90,154,255,1.13330706,1.92648497,3.18577600,0.42686184,0.71082006,1.29838545
13269,0,USGeorgiaTaylor,Georgia,Taylor,2021-04-04 12:25:54.975133,2021-02-09 00:00:00.000000,1.77324010,2.83697021,4.60708197,142,227,369,86,147,247,1.07381855,1.83593177,3.08043017,0.42645707,0.70075006,1.27026881
13269,0,USGeorgiaTaylor,Georgia,Taylor,2021-04-04 12:25:54.975133,2021-02-10 00:00:00.000000,1.68067964,2.71499295,4.42227872,134,217,354,81,139,238,1.01892102,1.73758035,2.97295462,0.40797228,0.69265576,1.25316904
13269,0,USGeorgiaTaylor,Georgia,Taylor,2021-04-04 12:25:54.975133,2021-02-11 00:00:00.000000,1.61103099,2.60850892,4.24057552,129,209,340,77,132,229,0.96815619,1.65259758,2.86398832,0.40399884,0.68697174,1.27841574
13269,0,USGeorgiaTaylor,Georgia,Taylor,2021-04-04 12:25:54.975133,2021-02-12 00:00:00.000000,1.54682060,2.47931958,4.06180305,124,198,325,73,127,220,0.92127993,1.58995692,2.75474170,0.41024877,0.67450025,1.31122725
13269,0,USGeorgiaTaylor,Georgia,Taylor,2021-04-04 12:25:54.975133,2021-02-13 00:00:00.000000,1.48808974,2.36110124,3.92150110,119,189,314,70,122,212,0.87825091,1.53318733,2.64611020,0.41758517,0.66608965,1.25397224
13269,0,USGeorgiaTaylor,Georgia,Taylor,2021-04-04 12:25:54.975133,2021-02-14 00:00:00.000000,1.43378936,2.24518355,3.79770905,114,180,304,67,117,203,0.83925795,1.46247560,2.53841043,0.40126925,0.65899316,1.23908075
13269,0,USGeorgiaTaylor,Georgia,Taylor,2021-04-04 12:25:54.975133,2021-02-15 00:00:00.000000,1.34926221,2.13385377,3.70549783,108,171,297,64,110,195,0.80479559,1.38183165,2.43225211,0.38270697,0.65896774,1.25095028
13269,0,USGeorgiaTaylor,Georgia,Taylor,2021-04-04 12:25:54.975133,2021-02-16 00:00:00.000000,1.27152728,2.05563761,3.61564259,101,164,289,61,105,188,0.77140717,1.30994040,2.34496474,0.35498390,0.65948819,1.22302898
13269,0,USGeorgiaTaylor,Georgia,Taylor,2021-04-04 12:25:54.975133,2021-02-17 00:00:00.000000,1.21050414,1.94935573,3.46960652,97,156,278,59,99,181,0.73802364,1.24486212,2.26262776,0.34086239,0.64958027,1.21802017
13269,0,USGeorgiaTaylor,Georgia,Taylor,2021-04-04 12:25:54.975133,2021-02-18 00:00:00.000000,1.15247116,1.85251584,3.36267990,92,148,269,56,94,175,0.70729427,1.17935820,2.18284857,0.33531929,0.61977154,1.20796547
13269,0,USGeorgiaTaylor,Georgia,Taylor,2021-04-04 12:25:54.975133,2021-02-19 00:00:00.000000,1.09760629,1.76088793,3.26013835,88,141,261,54,89,168,0.67829575,1.11840210,2.10557636,0.33215584,0.59692251,1.22473600
13269,0,USGeorgiaTaylor,Georgia,Taylor,2021-04-04 12:25:54.975133,2021-02-20 00:00:00.000000,1.04564332,1.68295281,3.15918730,83,134,253,52,84,162,0.65094099,1.05546491,2.03077178,0.32825236,0.58446735,1.22655541
13269,0,USGeorgiaTaylor,Georgia,Taylor,2021-04-04 12:25:54.975133,2021-02-21 00:00:00.000000,0.96110065,1.61057673,3.04582544,77,129,244,48,80,157,0.60846795,1.00576017,1.96211023,0.31222900,0.57759229,1.27578029
13269,0,USGeorgiaTaylor,Georgia,Taylor,2021-04-04 12:25:54.975133,2021-02-22 00:00:00.000000,0.89367913,1.53316529,2.94675559,71,122,236,46,77,151,0.57937352,0.96039147,1.89496360,0.31186350,0.57664176,1.27966128
13269,0,USGeorgiaTaylor,Georgia,Taylor,2021-04-04 12:25:54.975133,2021-02-23 00:00:00.000000,0.87520583,1.46239357,2.83448379,70,117,227,43,73,146,0.54053791,0.91448802,1.82257917,0.30104096,0.56228370,1.28039896
13269,0,USGeorgiaTaylor,Georgia,Taylor,2021-04-04 12:25:54.975133,2021-02-24 00:00:00.000000,0.84605738,1.40807943,2.72444892,67,112,218,40,69,141,0.50245376,0.86944816,1.76052709,0.29169087,0.56193819,1.28021943
13269,0,USGeorgiaTaylor,Georgia,Taylor,2021-04-04 12:25:54.975133,2021-02-25 00:00:00.000000,0.80101620,1.35296442,2.61713089,64,108,209,37,66,136,0.46739058,0.82975835,1.69745510,0.28506205,0.56142511,1.27844789
13269,0,USGeorgiaTaylor,Georgia,Taylor,2021-04-04 12:25:54.975133,2021-02-26 00:00:00.000000,0.75882848,1.27764269,2.51277234,60,102,201,36,63,131,0.45991993,0.79440730,1.63421465,0.27950855,0.55362206,1.27284038
13269,0,USGeorgiaTaylor,Georgia,Taylor,2021-04-04 12:25:54.975133,2021-02-27 00:00:00.000000,0.71231020,1.21673347,2.41153814,57,97,193,35,60,126,0.44441896,0.75700019,1.57179221,0.27294363,0.54261133,1.26207605
13269,0,USGeorgiaTaylor,Georgia,Taylor,2021-04-04 12:25:54.975133,2021-02-28 00:00:00.000000,0.65615218,1.16864194,2.31353385,52,93,185,33,57,121,0.42115490,0.72085068,1.50991563,0.25836774,0.53891085,1.28068939
13269,0,USGeorgiaTaylor,Georgia,Taylor,2021-04-04 12:25:54.975133,2021-03-01 00:00:00.000000,0.61002820,1.12911822,2.23247412,48,90,179,32,55,116,0.39940712,0.69205660,1.44877844,0.24532051,0.55265131,1.32902808
13269,0,USGeorgiaTaylor,Georgia,Taylor,2021-04-04 12:25:54.975133,2021-03-02 00:00:00.000000,0.56809624,1.09284357,2.15472965,45,87,172,30,53,111,0.38126121,0.66369584,1.38509171,0.23853571,0.53496563,1.38069406
13269,0,USGeorgiaTaylor,Georgia,Taylor,2021-04-04 12:25:54.975133,2021-03-03 00:00:00.000000,0.53030876,1.06046156,2.08045828,42,85,166,29,51,105,0.36595077,0.63604737,1.32090847,0.23642312,0.54375878,1.40475582
13269,0,USGeorgiaTaylor,Georgia,Taylor,2021-04-04 12:25:54.975133,2021-03-04 00:00:00.000000,0.49620699,1.01067456,2.00941726,39,81,161,27,49,101,0.34699751,0.61768931,1.26274135,0.23696477,0.54205900,1.40334318
13269,0,USGeorgiaTaylor,Georgia,Taylor,2021-04-04 12:25:54.975133,2021-03-05 00:00:00.000000,0.46540080,0.98426562,1.94141059,37,78,155,25,48,97,0.32382434,0.60002980,1.21547778,0.23737164,0.53022982,1.38226067
13269,0,USGeorgiaTaylor,Georgia,Taylor,2021-04-04 12:25:54.975133,2021-03-06 00:00:00.000000,0.43755527,0.93304519,1.87627607,35,74,150,24,45,93,0.30291126,0.56422828,1.16653704,0.22949845,0.50872299,1.33672806
13269,0,USGeorgiaTaylor,Georgia,Taylor,2021-04-04 12:25:54.975133,2021-03-07 00:00:00.000000,0.41792237,0.89876902,1.81387607,33,72,145,22,43,89,0.28401527,0.54255516,1.11751422,0.22447331,0.52275858,1.50188982
13269,0,USGeorgiaTaylor,Georgia,Taylor,2021-04-04 12:25:54.975133,2021-03-08 00:00:00.000000,0.40832393,0.85547309,1.75708183,32,68,140,21,42,88,0.26692697,0.52464098,1.10079258,0.22132600,0.51363561,1.52916361
13269,0,USGeorgiaTaylor,Georgia,Taylor,2021-04-04 12:25:54.975133,2021-03-09 00:00:00.000000,0.40010291,0.81249453,1.70279534,32,65,136,20,40,86,0.25334909,0.50508435,1.08062262,0.21949441,0.51660505,1.55895706
13269,0,USGeorgiaTaylor,Georgia,Taylor,2021-04-04 12:25:54.975133,2021-03-10 00:00:00.000000,0.38714997,0.78329899,1.65095423,31,62,132,19,38,84,0.23868353,0.48583624,1.05688406,0.22470784,0.52916174,1.56513714
13269,0,USGeorgiaTaylor,Georgia,Taylor,2021-04-04 12:25:54.975133,2021-03-11 00:00:00.000000,0.35612414,0.76483804,1.60141866,28,61,128,17,37,82,0.21926015,0.47095730,1.03136834,0.23084834,0.52931414,1.57576105
13269,0,USGeorgiaTaylor,Georgia,Taylor,2021-04-04 12:25:54.975133,2021-03-12 00:00:00.000000,0.34503234,0.75032456,1.55406852,27,60,124,16,36,80,0.20496297,0.45742008,1.00514742,0.23313437,0.51234808,1.62661031
13269,0,USGeorgiaTaylor,Georgia,Taylor,2021-04-04 12:25:54.975133,2021-03-13 00:00:00.000000,0.32543076,0.71848203,1.50879831,26,57,121,15,35,77,0.18934434,0.44129813,0.97162763,0.22871109,0.50588416,1.79099159
13269,0,USGeorgiaTaylor,Georgia,Taylor,2021-04-04 12:25:54.975133,2021-03-14 00:00:00.000000,0.30111904,0.69867543,1.46551351,24,56,117,14,33,74,0.17500207,0.42308014,0.93398560,0.24187693,0.51081697,1.92451277
13269,0,USGeorgiaTaylor,Georgia,Taylor,2021-04-04 12:25:54.975133,2021-03-15 00:00:00.000000,0.29401779,0.68281606,1.42211018,23,54,114,13,33,71,0.16514981,0.41501296,0.89749616,0.25009823,0.51647370,1.96628284
13269,0,USGeorgiaTaylor,Georgia,Taylor,2021-04-04 12:25:54.975133,2021-03-16 00:00:00.000000,0.28912982,0.66999469,1.37211328,23,53,110,12,32,69,0.15705723,0.40658110,0.86275259,0.22175737,0.51672078,1.98736308
13269,0,USGeorgiaTaylor,Georgia,Taylor,2021-04-04 12:25:54.975133,2021-03-17 00:00:00.000000,0.28662658,0.66130193,1.32778750,22,53,106,11,32,67,0.14879530,0.40244929,0.83553626,0.20561378,0.51246098,2.00512800
13269,0,USGeorgiaTaylor,Georgia,Taylor,2021-04-04 12:25:54.975133,2021-03-18 00:00:00.000000,0.27816114,0.64626650,1.28267610,22,51,102,11,31,65,0.14427284,0.38861407,0.82222238,0.19539496,0.50680057,2.03491865
13269,0,USGeorgiaTaylor,Georgia,Taylor,2021-04-04 12:25:54.975133,2021-03-19 00:00:00.000000,0.26244608,0.63093515,1.23652658,21,50,99,11,30,63,0.14225973,0.38114917,0.79300079,0.19631158,0.50324332,2.01758557
13269,0,USGeorgiaTaylor,Georgia,Taylor,2021-04-04 12:25:54.975133,2021-03-20 00:00:00.000000,0.24820088,0.62054718,1.19261334,19,49,95,11,29,61,0.14125685,0.36317362,0.76490603,0.19912616,0.49433667,1.95924836
13269,0,USGeorgiaTaylor,Georgia,Taylor,2021-04-04 12:25:54.975133,2021-03-21 00:00:00.000000,0.23529943,0.58876846,1.15162407,18,47,92,11,27,59,0.13987855,0.34610546,0.73819070,0.20575378,0.49366806,1.83840348
13269,0,USGeorgiaTaylor,Georgia,Taylor,2021-04-04 12:25:54.975133,2021-03-22 00:00:00.000000,0.25868940,0.55802760,1.12194633,20,44,89,10,26,57,0.13190472,0.32904050,0.71277243,0.21896444,0.48199617,1.72466055
13269,0,USGeorgiaTaylor,Georgia,Taylor,2021-04-04 12:25:54.975133,2021-03-23 00:00:00.000000,0.27096061,0.55712313,1.09047671,21,44,87,11,26,55,0.13928997,0.33510775,0.69140729,0.22747317,0.46676469,1.67489710
13269,0,USGeorgiaTaylor,Georgia,Taylor,2021-04-04 12:25:54.975133,2021-03-24 00:00:00.000000,0.26734226,0.56450776,1.08528412,21,45,87,10,27,53,0.13647889,0.34582261,0.67318477,0.23182143,0.45846836,1.69265453
13269,0,USGeorgiaTaylor,Georgia,Taylor,2021-04-04 12:25:54.975133,2021-03-25 00:00:00.000000,0.27003410,0.58115730,1.09909980,21,46,88,11,27,54,0.14847958,0.34810096,0.68567245,0.23929225,0.44392008,1.71264410
13269,0,USGeorgiaTaylor,Georgia,Taylor,2021-04-04 12:25:54.975133,2021-03-26 00:00:00.000000,0.26657576,0.58387524,1.11010433,21,46,89,12,27,57,0.15809276,0.34659187,0.71498039,0.23709674,0.44632266,1.73148932
13269,0,USGeorgiaTaylor,Georgia,Taylor,2021-04-04 12:25:54.975133,2021-03-27 00:00:00.000000,0.24327140,0.57173575,1.16897244,19,45,93,11,27,59,0.14439960,0.34685089,0.74466212,0.23211980,0.44333717,1.74506669
13269,0,USGeorgiaTaylor,Georgia,Taylor,2021-04-04 12:25:54.975133,2021-03-28 00:00:00.000000,0.23014958,0.55443398,1.24087706,18,44,99,11,27,61,0.14474279,0.33840955,0.76525177,0.22275523,0.44292552,1.75035317
13269,0,USGeorgiaTaylor,Georgia,Taylor,2021-04-04 12:25:54.975133,2021-03-29 00:00:00.000000,0.21213111,0.52340190,1.18380372,17,41,94,10,26,62,0.13283425,0.33171412,0.77346955,0.21673329,0.43293568,1.75150649
13269,0,USGeorgiaTaylor,Georgia,Taylor,2021-04-04 12:25:54.975133,2021-03-30 00:00:00.000000,0.19479366,0.49247634,1.12240478,15,39,90,9,25,61,0.11894397,0.32123356,0.76266363,0.21316032,0.43394590,1.78235830
13269,0,USGeorgiaTaylor,Georgia,Taylor,2021-04-04 12:25:54.975133,2021-03-31 00:00:00.000000,0.17791066,0.46276113,1.05610715,14,37,84,8,24,59,0.10567778,0.30286771,0.74125970,0.20826477,0.43524035,1.79047261
13269,0,USGeorgiaTaylor,Georgia,Taylor,2021-04-04 12:25:54.975133,2021-04-01 00:00:00.000000,0.16187312,0.42902121,0.98840266,12,34,79,7,22,57,0.09567392,0.28659258,0.71223866,0.20479206,0.43386874,1.78560238
13269,0,USGeorgiaTaylor,Georgia,Taylor,2021-04-04 12:25:54.975133,2021-04-02 00:00:00.000000,0.14689078,0.39395780,0.92169714,11,31,73,7,21,53,0.08781477,0.26883123,0.67025436,0.20228412,0.44013967,1.76963473
13269,0,USGeorgiaTaylor,Georgia,Taylor,2021-04-04 12:25:54.975133,2021-04-03 00:00:00.000000,0.13303673,0.36319378,0.86622724,10,29,69,6,20,50,0.08019425,0.25200870,0.62819571,0.20008572,0.45786729,1.74886954
13269,0,USGeorgiaTaylor,Georgia,Taylor,2021-04-04 12:25:54.975133,2021-04-04 00:00:00.000000,0.12031529,0.33242189,0.81759323,9,26,65,5,18,47,0.07296931,0.23520963,0.58740856,0.19677896,0.46848138,1.73408361
13269,0,USGeorgiaTaylor,Georgia,Taylor,2021-04-04 12:25:54.975133,2021-04-05 00:00:00.000000,0.10869495,0.30444977,0.77354452,8,24,62,5,17,43,0.06622001,0.21858079,0.54852226,0.19285750,0.47490881,1.73486727
13269,0,USGeorgiaTaylor,Georgia,Taylor,2021-04-04 12:25:54.975133,2021-04-06 00:00:00.000000,0.09812139,0.27865965,0.73135204,7,22,58,4,16,41,0.05997885,0.20354401,0.51177318,0.18821378,0.47734154,1.78856104
13269,0,USGeorgiaTaylor,Georgia,Taylor,2021-04-04 12:25:54.975133,2021-04-07 00:00:00.000000,0.08852751,0.25495045,0.69109723,7,20,55,4,15,38,0.05424899,0.18926899,0.47720933,0.18249649,0.47700588,1.82784489
13269,0,USGeorgiaTaylor,Georgia,Taylor,2021-04-04 12:25:54.975133,2021-04-08 00:00:00.000000,0.07984053,0.23439195,0.65279155,6,18,52,3,14,35,0.04901571,0.17579059,0.44479466,0.17803129,0.47799143,1.84653583
13269,0,USGeorgiaTaylor,Georgia,Taylor,2021-04-04 12:25:54.975133,2021-04-09 00:00:00.000000,0.07070265,0.21284415,0.61640628,5,17,49,3,12,33,0.04425390,0.16090068,0.41600360,0.17535214,0.47916411,1.85357750
13269,0,USGeorgiaTaylor,Georgia,Taylor,2021-04-04 12:25:54.975133,2021-04-10 00:00:00.000000,0.06206554,0.19323655,0.58166158,4,15,46,3,11,31,0.03993298,0.14309551,0.39005461,0.17399231,0.47915499,1.85596996
13269,0,USGeorgiaTaylor,Georgia,Taylor,2021-04-04 12:25:54.975133,2021-04-11 00:00:00.000000,0.05447939,0.17666762,0.54864088,4,14,44,2,10,29,0.03601999,0.12810003,0.36534535,0.17335986,0.47915199,1.85674306
13269,0,USGeorgiaTaylor,Georgia,Taylor,2021-04-04 12:25:54.975133,2021-04-12 00:00:00.000000,0.04781760,0.16080126,0.51739097,3,12,41,2,9,27,0.03193587,0.11643152,0.34180595,0.17307720,0.47915097,1.85698315
13269,0,USGeorgiaTaylor,Georgia,Taylor,2021-04-04 12:25:54.975133,2021-04-13 00:00:00.000000,0.04196839,0.14736103,0.48656714,3,11,39,2,8,25,0.02803354,0.10505691,0.31950791,0.17295286,0.47915062,1.85705368
13269,0,USGeorgiaTaylor,Georgia,Taylor,2021-04-04 12:25:54.975133,2021-04-14 00:00:00.000000,0.03683324,0.13415857,0.45268854,2,10,36,1,7,23,0.02460639,0.09631596,0.29853522,0.17289838,0.47915050,1.85707228
13269,0,USGeorgiaTaylor,Georgia,Taylor,2021-04-04 12:25:54.975133,2021-04-15 00:00:00.000000,0.03232538,0.12224852,0.42116237,2,9,33,1,7,22,0.02159706,0.08797970,0.27884914,0.17287448,0.47915045,1.85707594
13269,0,USGeorgiaTaylor,Georgia,Taylor,2021-04-04 12:25:54.975133,2021-04-16 00:00:00.000000,0.02836847,0.11251038,0.39182854,2,9,31,1,6,20,0.01895495,0.08096557,0.26039838,0.17286393,0.47915043,1.85707585
