FIPS,HR_UID,nameid,province,region,analysisTime,dates,pointprevalence_025,pointprevalence_50,pointprevalence_975,pointinfections_025,pointinfections_50,pointinfections_975,pointinfectious_025,pointinfectious_50,pointinfectious_975,pointinfectiousprevalence_05,pointinfectiousprevalence_50,pointinfectiousprevalence_95,infectrate_025,infectrate_50,infectrate_975
55047,0,USWisconsinGreenLake,Wisconsin,Green Lake,2021-04-04 01:47:00.487635,2020-03-09 00:00:00.000000,0.00076626,0.01137928,0.03679068,0,2,6,0,1,4,0.00045519,0.00628924,0.02559517,0.34978629,0.51146249,0.67054926
55047,0,USWisconsinGreenLake,Wisconsin,Green Lake,2021-04-04 01:47:00.487635,2020-03-10 00:00:00.000000,0.00085762,0.01277540,0.04010094,0,2,7,0,1,4,0.00047995,0.00639847,0.02434103,0.34978617,0.51107131,0.67054685
55047,0,USWisconsinGreenLake,Wisconsin,Green Lake,2021-04-04 01:47:00.487635,2020-03-11 00:00:00.000000,0.00095505,0.01410334,0.04360685,0,2,8,0,1,4,0.00051985,0.00658729,0.02363592,0.34978600,0.51085366,0.67053976
55047,0,USWisconsinGreenLake,Wisconsin,Green Lake,2021-04-04 01:47:00.487635,2020-03-12 00:00:00.000000,0.00106084,0.01551094,0.04727443,0,2,8,0,1,4,0.00057062,0.00708720,0.02349568,0.34978567,0.51085065,0.67051892
55047,0,USWisconsinGreenLake,Wisconsin,Green Lake,2021-04-04 01:47:00.487635,2020-03-13 00:00:00.000000,0.00117663,0.01701988,0.05119898,0,3,9,0,1,4,0.00063025,0.00772398,0.02385704,0.34978490,0.51084213,0.67045763
55047,0,USWisconsinGreenLake,Wisconsin,Green Lake,2021-04-04 01:47:00.487635,2020-03-14 00:00:00.000000,0.00130321,0.01864507,0.05541900,0,3,10,0,1,4,0.00069794,0.00845530,0.02557144,0.34978239,0.51081798,0.67027761
55047,0,USWisconsinGreenLake,Wisconsin,Green Lake,2021-04-04 01:47:00.487635,2020-03-15 00:00:00.000000,0.00143828,0.01992598,0.05990928,0,3,11,0,1,5,0.00077341,0.00912384,0.02775328,0.34977220,0.50643184,0.66975038
55047,0,USWisconsinGreenLake,Wisconsin,Green Lake,2021-04-04 01:47:00.487635,2020-03-16 00:00:00.000000,0.00157002,0.02128275,0.06403801,0,4,12,0,1,5,0.00085594,0.00985923,0.03014761,0.34972660,0.50432253,0.66821913
55047,0,USWisconsinGreenLake,Wisconsin,Green Lake,2021-04-04 01:47:00.487635,2020-03-17 00:00:00.000000,0.00168534,0.02252787,0.06844891,0,4,12,0,2,6,0.00094215,0.01079701,0.03275074,0.34388456,0.49532853,0.66387857
55047,0,USWisconsinGreenLake,Wisconsin,Green Lake,2021-04-04 01:47:00.487635,2020-03-18 00:00:00.000000,0.00184587,0.02368896,0.07315880,0,4,13,0,2,6,0.00102654,0.01163811,0.03557274,0.33215786,0.49245580,0.65487242
55047,0,USWisconsinGreenLake,Wisconsin,Green Lake,2021-04-04 01:47:00.487635,2020-03-19 00:00:00.000000,0.00202407,0.02485101,0.07891076,0,4,14,0,2,7,0.00110782,0.01270520,0.03862306,0.30568213,0.48464861,0.65281730
55047,0,USWisconsinGreenLake,Wisconsin,Green Lake,2021-04-04 01:47:00.487635,2020-03-20 00:00:00.000000,0.00221881,0.02598639,0.08527218,0,4,16,0,2,7,0.00118749,0.01359333,0.04190945,0.28565955,0.46116123,0.64438265
55047,0,USWisconsinGreenLake,Wisconsin,Green Lake,2021-04-04 01:47:00.487635,2020-03-21 00:00:00.000000,0.00243269,0.02704779,0.09086835,0,5,17,0,2,8,0.00126695,0.01461818,0.04528935,0.27767582,0.42727357,0.62723098
55047,0,USWisconsinGreenLake,Wisconsin,Green Lake,2021-04-04 01:47:00.487635,2020-03-22 00:00:00.000000,0.00267076,0.02886042,0.09504873,0,5,17,0,2,8,0.00134672,0.01559832,0.04745739,0.26872645,0.39047073,0.59128520
55047,0,USWisconsinGreenLake,Wisconsin,Green Lake,2021-04-04 01:47:00.487635,2020-03-23 00:00:00.000000,0.00294423,0.03063478,0.09866741,0,5,18,0,3,9,0.00145867,0.01630812,0.05112493,0.25593078,0.36590270,0.58227040
55047,0,USWisconsinGreenLake,Wisconsin,Green Lake,2021-04-04 01:47:00.487635,2020-03-24 00:00:00.000000,0.00327102,0.03229053,0.10167719,0,6,19,0,3,10,0.00160500,0.01684818,0.05459990,0.22961519,0.36131031,0.56298732
55047,0,USWisconsinGreenLake,Wisconsin,Green Lake,2021-04-04 01:47:00.487635,2020-03-25 00:00:00.000000,0.00366124,0.03439525,0.10394187,0,6,19,0,3,10,0.00177369,0.01783733,0.05734861,0.19638124,0.35406023,0.55288266
55047,0,USWisconsinGreenLake,Wisconsin,Green Lake,2021-04-04 01:47:00.487635,2020-03-26 00:00:00.000000,0.00411167,0.03585132,0.10767380,0,6,20,0,3,11,0.00197135,0.01852341,0.05947693,0.17962140,0.33509885,0.54263291
55047,0,USWisconsinGreenLake,Wisconsin,Green Lake,2021-04-04 01:47:00.487635,2020-03-27 00:00:00.000000,0.00461921,0.03697877,0.11153173,0,6,21,0,3,11,0.00220134,0.01942250,0.06121792,0.17354281,0.32314021,0.53314718
55047,0,USWisconsinGreenLake,Wisconsin,Green Lake,2021-04-04 01:47:00.487635,2020-03-28 00:00:00.000000,0.00517710,0.03812892,0.11402334,0,7,21,0,3,11,0.00246494,0.02029327,0.06321346,0.17154325,0.30193061,0.50661460
55047,0,USWisconsinGreenLake,Wisconsin,Green Lake,2021-04-04 01:47:00.487635,2020-03-29 00:00:00.000000,0.00573651,0.03960314,0.11489096,1,7,21,0,3,12,0.00276132,0.02094389,0.06534092,0.17060378,0.29308805,0.49801402
55047,0,USWisconsinGreenLake,Wisconsin,Green Lake,2021-04-04 01:47:00.487635,2020-03-30 00:00:00.000000,0.01051831,0.04504727,0.12388113,1,8,23,0,4,12,0.00307845,0.02165034,0.06735893,0.16425421,0.28177033,0.47632075
55047,0,USWisconsinGreenLake,Wisconsin,Green Lake,2021-04-04 01:47:00.487635,2020-03-31 00:00:00.000000,0.01616251,0.05079174,0.13761403,3,9,26,0,4,13,0.00418294,0.02362840,0.07085354,0.15798590,0.26950789,0.44983697
55047,0,USWisconsinGreenLake,Wisconsin,Green Lake,2021-04-04 01:47:00.487635,2020-04-01 00:00:00.000000,0.02019442,0.05824462,0.15158068,3,11,28,1,4,14,0.00607563,0.02622276,0.07526495,0.14502423,0.26327977,0.42060479
55047,0,USWisconsinGreenLake,Wisconsin,Green Lake,2021-04-04 01:47:00.487635,2020-04-02 00:00:00.000000,0.02478131,0.06449609,0.16499250,4,12,31,1,5,14,0.00800910,0.02845751,0.07928773,0.12270194,0.25599284,0.42055412
55047,0,USWisconsinGreenLake,Wisconsin,Green Lake,2021-04-04 01:47:00.487635,2020-04-03 00:00:00.000000,0.02987834,0.07194088,0.17724200,5,13,33,1,6,16,0.01024594,0.03239214,0.08494778,0.11482635,0.24336027,0.42040504
55047,0,USWisconsinGreenLake,Wisconsin,Green Lake,2021-04-04 01:47:00.487635,2020-04-04 00:00:00.000000,0.03516509,0.07801897,0.18876818,6,14,35,2,6,17,0.01271970,0.03590776,0.09154181,0.11141795,0.23663448,0.42003582
55047,0,USWisconsinGreenLake,Wisconsin,Green Lake,2021-04-04 01:47:00.487635,2020-04-05 00:00:00.000000,0.04061808,0.08295487,0.20014525,7,15,37,2,7,18,0.01531882,0.03913955,0.09756152,0.10971239,0.22752747,0.41906622
55047,0,USWisconsinGreenLake,Wisconsin,Green Lake,2021-04-04 01:47:00.487635,2020-04-06 00:00:00.000000,0.04919057,0.09067998,0.20528580,9,17,38,3,7,19,0.01764163,0.04212117,0.10373487,0.10879448,0.22230300,0.41468882
55047,0,USWisconsinGreenLake,Wisconsin,Green Lake,2021-04-04 01:47:00.487635,2020-04-07 00:00:00.000000,0.05319928,0.09993530,0.20989174,10,18,39,4,8,20,0.02160804,0.04648064,0.10861133,0.10808703,0.21564192,0.38829014
55047,0,USWisconsinGreenLake,Wisconsin,Green Lake,2021-04-04 01:47:00.487635,2020-04-08 00:00:00.000000,0.05623709,0.10796958,0.21400655,10,20,40,4,9,20,0.02474901,0.05040358,0.11014030,0.10709140,0.21215415,0.34954918
55047,0,USWisconsinGreenLake,Wisconsin,Green Lake,2021-04-04 01:47:00.487635,2020-04-09 00:00:00.000000,0.05923549,0.11551104,0.21711101,11,21,41,5,10,21,0.02820759,0.05509640,0.11356515,0.10525553,0.20812128,0.33906474
55047,0,USWisconsinGreenLake,Wisconsin,Green Lake,2021-04-04 01:47:00.487635,2020-04-10 00:00:00.000000,0.06254334,0.12351807,0.23646068,11,23,44,6,11,22,0.03182076,0.05954259,0.11936129,0.10197030,0.20006476,0.33830250
55047,0,USWisconsinGreenLake,Wisconsin,Green Lake,2021-04-04 01:47:00.487635,2020-04-11 00:00:00.000000,0.06656284,0.13164644,0.25311255,12,24,47,6,12,23,0.03536641,0.06410554,0.12475518,0.10125941,0.19513311,0.33722643
55047,0,USWisconsinGreenLake,Wisconsin,Green Lake,2021-04-04 01:47:00.487635,2020-04-12 00:00:00.000000,0.07049645,0.14191320,0.26308394,13,26,49,7,12,24,0.03769992,0.06848727,0.12969057,0.09381555,0.19001746,0.31388708
55047,0,USWisconsinGreenLake,Wisconsin,Green Lake,2021-04-04 01:47:00.487635,2020-04-13 00:00:00.000000,0.07580286,0.14819743,0.26994019,14,28,51,7,14,26,0.03828091,0.07479341,0.13866655,0.09170762,0.18342836,0.28444351
55047,0,USWisconsinGreenLake,Wisconsin,Green Lake,2021-04-04 01:47:00.487635,2020-04-14 00:00:00.000000,0.08370529,0.15687375,0.27337937,15,29,51,7,15,26,0.03990663,0.07945619,0.14260452,0.09014924,0.17442774,0.27082149
55047,0,USWisconsinGreenLake,Wisconsin,Green Lake,2021-04-04 01:47:00.487635,2020-04-15 00:00:00.000000,0.09161737,0.16144386,0.27481183,17,30,51,7,16,27,0.04221443,0.08570895,0.14604843,0.08882604,0.16778273,0.26935132
55047,0,USWisconsinGreenLake,Wisconsin,Green Lake,2021-04-04 01:47:00.487635,2020-04-16 00:00:00.000000,0.09923095,0.16903963,0.27744896,18,31,52,8,16,28,0.04495038,0.08906613,0.14919460,0.08840046,0.16308954,0.27196316
55047,0,USWisconsinGreenLake,Wisconsin,Green Lake,2021-04-04 01:47:00.487635,2020-04-17 00:00:00.000000,0.10158921,0.17516399,0.28897744,19,33,54,9,17,28,0.04793617,0.09279337,0.15211049,0.08361854,0.16247414,0.26556580
55047,0,USWisconsinGreenLake,Wisconsin,Green Lake,2021-04-04 01:47:00.487635,2020-04-18 00:00:00.000000,0.10163801,0.18051728,0.31646757,19,34,59,9,18,29,0.05104697,0.09564881,0.15483562,0.07815496,0.16067880,0.25796405
55047,0,USWisconsinGreenLake,Wisconsin,Green Lake,2021-04-04 01:47:00.487635,2020-04-19 00:00:00.000000,0.10077999,0.18379401,0.33842594,19,34,64,10,18,31,0.05419916,0.09983562,0.16678712,0.07807436,0.15385143,0.24665221
55047,0,USWisconsinGreenLake,Wisconsin,Green Lake,2021-04-04 01:47:00.487635,2020-04-20 00:00:00.000000,0.10109772,0.18639855,0.33925184,19,35,64,10,19,34,0.05680451,0.10471753,0.18284693,0.07456721,0.15253606,0.24575536
55047,0,USWisconsinGreenLake,Wisconsin,Green Lake,2021-04-04 01:47:00.487635,2020-04-21 00:00:00.000000,0.10193344,0.18654017,0.33849919,19,35,64,10,19,36,0.05759521,0.10520919,0.19135608,0.07318204,0.14480260,0.24292300
55047,0,USWisconsinGreenLake,Wisconsin,Green Lake,2021-04-04 01:47:00.487635,2020-04-22 00:00:00.000000,0.11162916,0.19017106,0.33627238,21,35,63,11,20,36,0.05820133,0.10585659,0.19293217,0.07375863,0.14150936,0.23621580
55047,0,USWisconsinGreenLake,Wisconsin,Green Lake,2021-04-04 01:47:00.487635,2020-04-23 00:00:00.000000,0.12089086,0.19297117,0.34231226,22,36,64,11,20,36,0.05868120,0.10656551,0.19328168,0.07511582,0.14045090,0.23402356
55047,0,USWisconsinGreenLake,Wisconsin,Green Lake,2021-04-04 01:47:00.487635,2020-04-24 00:00:00.000000,0.12047846,0.19310223,0.35323035,22,36,66,11,20,36,0.06091977,0.10676343,0.19264869,0.06927917,0.13549281,0.22269815
55047,0,USWisconsinGreenLake,Wisconsin,Green Lake,2021-04-04 01:47:00.487635,2020-04-25 00:00:00.000000,0.11993710,0.19352588,0.36206987,22,36,68,11,20,37,0.06292218,0.10887087,0.19712987,0.06356466,0.13178209,0.20743470
55047,0,USWisconsinGreenLake,Wisconsin,Green Lake,2021-04-04 01:47:00.487635,2020-04-26 00:00:00.000000,0.11928234,0.19206512,0.36805177,22,36,69,11,21,39,0.06305256,0.11440462,0.20924222,0.05774719,0.12933980,0.20236375
55047,0,USWisconsinGreenLake,Wisconsin,Green Lake,2021-04-04 01:47:00.487635,2020-04-27 00:00:00.000000,0.11728454,0.19955310,0.37146293,22,37,70,12,22,41,0.06653703,0.11693348,0.22119480,0.05422873,0.12765086,0.20109287
55047,0,USWisconsinGreenLake,Wisconsin,Green Lake,2021-04-04 01:47:00.487635,2020-04-28 00:00:00.000000,0.11529018,0.20407323,0.37525437,21,38,70,13,22,43,0.06899871,0.11878426,0.22796029,0.05294502,0.12491254,0.20057349
55047,0,USWisconsinGreenLake,Wisconsin,Green Lake,2021-04-04 01:47:00.487635,2020-04-29 00:00:00.000000,0.11327958,0.20840065,0.37863239,21,39,71,13,22,43,0.07016091,0.11791411,0.23148661,0.05220218,0.12204442,0.19980352
55047,0,USWisconsinGreenLake,Wisconsin,Green Lake,2021-04-04 01:47:00.487635,2020-04-30 00:00:00.000000,0.11125635,0.21118567,0.38106413,21,39,72,13,22,44,0.07155338,0.11870135,0.23292207,0.05154578,0.12154766,0.19858700
55047,0,USWisconsinGreenLake,Wisconsin,Green Lake,2021-04-04 01:47:00.487635,2020-05-01 00:00:00.000000,0.11259540,0.21591511,0.38223189,21,40,72,13,22,44,0.07100567,0.12024386,0.23293774,0.05079477,0.12060199,0.19663887
55047,0,USWisconsinGreenLake,Wisconsin,Green Lake,2021-04-04 01:47:00.487635,2020-05-02 00:00:00.000000,0.10952771,0.21863018,0.38415860,20,41,72,12,23,43,0.06770141,0.12283326,0.23202337,0.04995743,0.11677001,0.18742182
55047,0,USWisconsinGreenLake,Wisconsin,Green Lake,2021-04-04 01:47:00.487635,2020-05-03 00:00:00.000000,0.10476496,0.21801567,0.39599300,19,41,74,12,23,43,0.06450868,0.12318899,0.23051520,0.04916702,0.11394377,0.18319279
55047,0,USWisconsinGreenLake,Wisconsin,Green Lake,2021-04-04 01:47:00.487635,2020-05-04 00:00:00.000000,0.10733878,0.22305918,0.39750459,20,42,75,11,23,43,0.06144934,0.12572397,0.22862858,0.04852929,0.11439315,0.18079635
55047,0,USWisconsinGreenLake,Wisconsin,Green Lake,2021-04-04 01:47:00.487635,2020-05-05 00:00:00.000000,0.11000150,0.22502935,0.39857871,20,42,75,11,24,43,0.05915928,0.12880202,0.23074848,0.04817269,0.11123212,0.17737010
55047,0,USWisconsinGreenLake,Wisconsin,Green Lake,2021-04-04 01:47:00.487635,2020-05-06 00:00:00.000000,0.11289828,0.22658740,0.39620460,21,42,74,10,25,44,0.05741258,0.13256452,0.23525747,0.04788675,0.11098750,0.17562482
55047,0,USWisconsinGreenLake,Wisconsin,Green Lake,2021-04-04 01:47:00.487635,2020-05-07 00:00:00.000000,0.11586116,0.22401468,0.38073829,21,42,72,10,25,45,0.05790609,0.13507642,0.24113840,0.04704742,0.11046459,0.17569592
55047,0,USWisconsinGreenLake,Wisconsin,Green Lake,2021-04-04 01:47:00.487635,2020-05-08 00:00:00.000000,0.11880770,0.22278121,0.37863772,22,42,71,11,25,45,0.05896970,0.13629632,0.24039564,0.04566642,0.10948031,0.17114832
55047,0,USWisconsinGreenLake,Wisconsin,Green Lake,2021-04-04 01:47:00.487635,2020-05-09 00:00:00.000000,0.11972368,0.22240154,0.38858422,22,42,73,11,25,44,0.06023876,0.13558068,0.23272061,0.04142641,0.10828665,0.16442604
55047,0,USWisconsinGreenLake,Wisconsin,Green Lake,2021-04-04 01:47:00.487635,2020-05-10 00:00:00.000000,0.12003564,0.22405603,0.39293571,22,42,74,11,25,42,0.06160022,0.13504101,0.22452013,0.04143525,0.10560210,0.15771842
55047,0,USWisconsinGreenLake,Wisconsin,Green Lake,2021-04-04 01:47:00.487635,2020-05-11 00:00:00.000000,0.11910413,0.22839622,0.38910610,22,43,73,11,25,42,0.06300197,0.13428849,0.22636900,0.04146048,0.10161031,0.15861621
55047,0,USWisconsinGreenLake,Wisconsin,Green Lake,2021-04-04 01:47:00.487635,2020-05-12 00:00:00.000000,0.11878014,0.22724437,0.38376818,22,42,72,12,25,43,0.06407448,0.13398771,0.23133547,0.04075646,0.10157680,0.15937720
55047,0,USWisconsinGreenLake,Wisconsin,Green Lake,2021-04-04 01:47:00.487635,2020-05-13 00:00:00.000000,0.12710404,0.22625288,0.37775757,24,42,71,12,25,42,0.06490337,0.13449956,0.22713758,0.03995808,0.10154987,0.16048266
55047,0,USWisconsinGreenLake,Wisconsin,Green Lake,2021-04-04 01:47:00.487635,2020-05-14 00:00:00.000000,0.12665436,0.22352507,0.37213320,23,42,70,12,25,42,0.06557084,0.13462287,0.22242892,0.03933804,0.10114678,0.15661910
55047,0,USWisconsinGreenLake,Wisconsin,Green Lake,2021-04-04 01:47:00.487635,2020-05-15 00:00:00.000000,0.12567176,0.22155700,0.36724360,23,41,69,12,25,42,0.06597857,0.13371427,0.22675856,0.03857267,0.10236124,0.15607925
55047,0,USWisconsinGreenLake,Wisconsin,Green Lake,2021-04-04 01:47:00.487635,2020-05-16 00:00:00.000000,0.12457284,0.21876572,0.36654418,23,41,69,12,25,44,0.06520785,0.13279741,0.23307699,0.03771518,0.09954913,0.15645485
55047,0,USWisconsinGreenLake,Wisconsin,Green Lake,2021-04-04 01:47:00.487635,2020-05-17 00:00:00.000000,0.12219186,0.21652954,0.37882581,23,40,71,12,25,45,0.06529978,0.13229626,0.23959301,0.03836718,0.09853030,0.15759624
55047,0,USWisconsinGreenLake,Wisconsin,Green Lake,2021-04-04 01:47:00.487635,2020-05-18 00:00:00.000000,0.12345875,0.21925946,0.37344997,23,41,70,12,24,46,0.06352386,0.13009109,0.24522634,0.03892140,0.09764203,0.16263448
55047,0,USWisconsinGreenLake,Wisconsin,Green Lake,2021-04-04 01:47:00.487635,2020-05-19 00:00:00.000000,0.12315577,0.21808856,0.36733937,23,41,69,11,24,45,0.06252481,0.12880314,0.24022251,0.03942081,0.09723623,0.16319997
55047,0,USWisconsinGreenLake,Wisconsin,Green Lake,2021-04-04 01:47:00.487635,2020-05-20 00:00:00.000000,0.12289892,0.21852271,0.36237081,23,41,68,12,24,44,0.06371801,0.12731090,0.23583813,0.04001441,0.09680228,0.16023706
55047,0,USWisconsinGreenLake,Wisconsin,Green Lake,2021-04-04 01:47:00.487635,2020-05-21 00:00:00.000000,0.12267726,0.22844227,0.36672696,23,43,69,12,24,43,0.06525320,0.12844070,0.23189945,0.04091295,0.09720342,0.15565954
55047,0,USWisconsinGreenLake,Wisconsin,Green Lake,2021-04-04 01:47:00.487635,2020-05-22 00:00:00.000000,0.12248329,0.23004918,0.38180540,23,43,72,12,24,45,0.06505721,0.12891067,0.23986324,0.04232836,0.09636630,0.15546337
55047,0,USWisconsinGreenLake,Wisconsin,Green Lake,2021-04-04 01:47:00.487635,2020-05-23 00:00:00.000000,0.11935564,0.23457111,0.39653370,22,44,74,12,24,47,0.06488285,0.13096248,0.24859324,0.04432252,0.09549325,0.15605586
55047,0,USWisconsinGreenLake,Wisconsin,Green Lake,2021-04-04 01:47:00.487635,2020-05-24 00:00:00.000000,0.11879050,0.23609516,0.41029557,22,44,77,12,24,46,0.06475091,0.13023718,0.24630762,0.04667271,0.09518301,0.15622483
55047,0,USWisconsinGreenLake,Wisconsin,Green Lake,2021-04-04 01:47:00.487635,2020-05-25 00:00:00.000000,0.11708914,0.23076617,0.40766672,22,43,77,11,25,46,0.06340062,0.13226962,0.24335783,0.04751758,0.09532081,0.15630816
55047,0,USWisconsinGreenLake,Wisconsin,Green Lake,2021-04-04 01:47:00.487635,2020-05-26 00:00:00.000000,0.11545861,0.22863701,0.40445239,21,43,76,11,25,45,0.06109456,0.13510321,0.24110233,0.04736545,0.09453446,0.15647246
55047,0,USWisconsinGreenLake,Wisconsin,Green Lake,2021-04-04 01:47:00.487635,2020-05-27 00:00:00.000000,0.11385734,0.22598737,0.40053156,21,42,75,11,25,45,0.06123868,0.13621522,0.23936190,0.04700412,0.09440604,0.15664304
55047,0,USWisconsinGreenLake,Wisconsin,Green Lake,2021-04-04 01:47:00.487635,2020-05-28 00:00:00.000000,0.11305771,0.23097798,0.39618054,21,43,74,11,25,45,0.06266139,0.13620993,0.23996555,0.04640870,0.09439724,0.15668602
55047,0,USWisconsinGreenLake,Wisconsin,Green Lake,2021-04-04 01:47:00.487635,2020-05-29 00:00:00.000000,0.11069279,0.23220441,0.39156916,20,43,74,11,25,45,0.06204499,0.13651863,0.24206370,0.04559419,0.09492394,0.15672744
55047,0,USWisconsinGreenLake,Wisconsin,Green Lake,2021-04-04 01:47:00.487635,2020-05-30 00:00:00.000000,0.10917213,0.23452688,0.38662274,20,44,73,11,25,45,0.06138212,0.13440329,0.24277881,0.04469320,0.09413082,0.15686576
55047,0,USWisconsinGreenLake,Wisconsin,Green Lake,2021-04-04 01:47:00.487635,2020-05-31 00:00:00.000000,0.10774905,0.23241284,0.38161890,20,43,72,11,24,45,0.06042079,0.13206580,0.24248302,0.04389045,0.09122972,0.16431929
55047,0,USWisconsinGreenLake,Wisconsin,Green Lake,2021-04-04 01:47:00.487635,2020-06-01 00:00:00.000000,0.10934867,0.23065415,0.37901877,20,43,71,11,24,45,0.05960732,0.13167421,0.24143281,0.04329864,0.09214309,0.17103539
55047,0,USWisconsinGreenLake,Wisconsin,Green Lake,2021-04-04 01:47:00.487635,2020-06-02 00:00:00.000000,0.11107718,0.23034442,0.37608370,21,43,71,11,25,45,0.05952137,0.13234859,0.23924034,0.04292075,0.09349929,0.16383174
55047,0,USWisconsinGreenLake,Wisconsin,Green Lake,2021-04-04 01:47:00.487635,2020-06-03 00:00:00.000000,0.11349388,0.22970936,0.37811366,21,43,71,11,24,44,0.05990258,0.13172906,0.23613527,0.04270259,0.09363377,0.16149630
55047,0,USWisconsinGreenLake,Wisconsin,Green Lake,2021-04-04 01:47:00.487635,2020-06-04 00:00:00.000000,0.11763530,0.23092685,0.37539597,22,43,70,11,25,44,0.06058255,0.13307879,0.23333227,0.04258664,0.09259678,0.16121101
55047,0,USWisconsinGreenLake,Wisconsin,Green Lake,2021-04-04 01:47:00.487635,2020-06-05 00:00:00.000000,0.12170309,0.22640405,0.38616595,23,42,73,11,25,46,0.06144681,0.13475800,0.24395703,0.04253353,0.09292343,0.15853983
55047,0,USWisconsinGreenLake,Wisconsin,Green Lake,2021-04-04 01:47:00.487635,2020-06-06 00:00:00.000000,0.12560115,0.22765159,0.39345089,23,43,74,11,25,48,0.06336992,0.13284385,0.25497236,0.04265450,0.09302560,0.16250693
55047,0,USWisconsinGreenLake,Wisconsin,Green Lake,2021-04-04 01:47:00.487635,2020-06-07 00:00:00.000000,0.12871051,0.22605214,0.39803647,24,42,75,12,24,47,0.06536965,0.13063328,0.25269926,0.04339311,0.09124962,0.16525897
55047,0,USWisconsinGreenLake,Wisconsin,Green Lake,2021-04-04 01:47:00.487635,2020-06-08 00:00:00.000000,0.12647819,0.22446848,0.39384585,23,42,74,12,25,47,0.06616247,0.13230644,0.24901473,0.04318084,0.09248404,0.16632066
55047,0,USWisconsinGreenLake,Wisconsin,Green Lake,2021-04-04 01:47:00.487635,2020-06-09 00:00:00.000000,0.12344825,0.22573803,0.38882719,23,42,73,12,24,46,0.06496230,0.13150422,0.24675828,0.04355631,0.09313023,0.16689211
55047,0,USWisconsinGreenLake,Wisconsin,Green Lake,2021-04-04 01:47:00.487635,2020-06-10 00:00:00.000000,0.12012708,0.22231456,0.38307186,22,42,72,12,24,46,0.06371771,0.13106523,0.24540838,0.04499118,0.09181694,0.16765997
55047,0,USWisconsinGreenLake,Wisconsin,Green Lake,2021-04-04 01:47:00.487635,2020-06-11 00:00:00.000000,0.11669956,0.22287745,0.37694438,22,42,71,11,24,46,0.06257708,0.13016665,0.24463168,0.04658283,0.09360261,0.16880072
55047,0,USWisconsinGreenLake,Wisconsin,Green Lake,2021-04-04 01:47:00.487635,2020-06-12 00:00:00.000000,0.11328546,0.22358300,0.37077980,21,42,70,11,24,46,0.06156330,0.13119132,0.24421206,0.04726448,0.09208716,0.17043746
55047,0,USWisconsinGreenLake,Wisconsin,Green Lake,2021-04-04 01:47:00.487635,2020-06-13 00:00:00.000000,0.10996166,0.22098524,0.36483136,20,41,69,11,24,46,0.06066854,0.13185333,0.24400413,0.04705375,0.09235877,0.17173313
55047,0,USWisconsinGreenLake,Wisconsin,Green Lake,2021-04-04 01:47:00.487635,2020-06-14 00:00:00.000000,0.10677944,0.21977164,0.35893390,20,41,67,11,24,46,0.05987577,0.13109708,0.24390826,0.04679535,0.09448122,0.16734254
55047,0,USWisconsinGreenLake,Wisconsin,Green Lake,2021-04-04 01:47:00.487635,2020-06-15 00:00:00.000000,0.10608605,0.22409997,0.34742804,20,42,65,11,24,46,0.05916878,0.13182806,0.24385966,0.04803950,0.09502772,0.15868129
55047,0,USWisconsinGreenLake,Wisconsin,Green Lake,2021-04-04 01:47:00.487635,2020-06-16 00:00:00.000000,0.10352959,0.22675931,0.33923921,19,42,64,11,25,45,0.05841022,0.13246475,0.24182452,0.04927868,0.09500915,0.15912960
55047,0,USWisconsinGreenLake,Wisconsin,Green Lake,2021-04-04 01:47:00.487635,2020-06-17 00:00:00.000000,0.10123112,0.22786913,0.33391184,19,43,63,10,24,45,0.05686709,0.13096996,0.23846010,0.05041013,0.09582612,0.15918573
55047,0,USWisconsinGreenLake,Wisconsin,Green Lake,2021-04-04 01:47:00.487635,2020-06-18 00:00:00.000000,0.09915594,0.22690297,0.34553711,18,42,65,10,24,44,0.05549382,0.13110250,0.23423196,0.05113825,0.09688366,0.15933605
55047,0,USWisconsinGreenLake,Wisconsin,Green Lake,2021-04-04 01:47:00.487635,2020-06-19 00:00:00.000000,0.10022121,0.22841540,0.36356622,18,43,68,10,25,43,0.05426314,0.13345838,0.23143895,0.05118669,0.09755938,0.16039781
55047,0,USWisconsinGreenLake,Wisconsin,Green Lake,2021-04-04 01:47:00.487635,2020-06-20 00:00:00.000000,0.10800427,0.22781420,0.36843548,20,43,69,10,25,43,0.05315489,0.13333164,0.22989014,0.04674968,0.09732373,0.16310195
55047,0,USWisconsinGreenLake,Wisconsin,Green Lake,2021-04-04 01:47:00.487635,2020-06-21 00:00:00.000000,0.11551736,0.22634061,0.37970561,21,42,71,10,25,43,0.05353776,0.13225016,0.22809993,0.04488299,0.09704497,0.16339881
55047,0,USWisconsinGreenLake,Wisconsin,Green Lake,2021-04-04 01:47:00.487635,2020-06-22 00:00:00.000000,0.11613410,0.22334774,0.37779881,21,42,71,10,24,42,0.05770134,0.13175071,0.22507870,0.04471193,0.09620264,0.16120263
55047,0,USWisconsinGreenLake,Wisconsin,Green Lake,2021-04-04 01:47:00.487635,2020-06-23 00:00:00.000000,0.11633988,0.22495227,0.39069599,22,42,73,11,24,42,0.06058000,0.13049848,0.22417502,0.04505102,0.09558398,0.16024837
55047,0,USWisconsinGreenLake,Wisconsin,Green Lake,2021-04-04 01:47:00.487635,2020-06-24 00:00:00.000000,0.11638673,0.22716051,0.39017987,22,42,73,11,24,43,0.06260630,0.13082304,0.22796214,0.04838146,0.09517048,0.16062971
55047,0,USWisconsinGreenLake,Wisconsin,Green Lake,2021-04-04 01:47:00.487635,2020-06-25 00:00:00.000000,0.11629221,0.22732947,0.38665599,21,42,73,11,24,43,0.06279752,0.13018021,0.22890207,0.05206205,0.09529269,0.16183908
55047,0,USWisconsinGreenLake,Wisconsin,Green Lake,2021-04-04 01:47:00.487635,2020-06-26 00:00:00.000000,0.11606911,0.22892054,0.38289709,21,43,72,11,24,43,0.06288405,0.12815497,0.22843520,0.05205667,0.09533000,0.16401492
55047,0,USWisconsinGreenLake,Wisconsin,Green Lake,2021-04-04 01:47:00.487635,2020-06-27 00:00:00.000000,0.11573208,0.23089796,0.37901644,21,43,71,11,24,43,0.06288167,0.12846970,0.22932199,0.05209234,0.09434177,0.16390050
55047,0,USWisconsinGreenLake,Wisconsin,Green Lake,2021-04-04 01:47:00.487635,2020-06-28 00:00:00.000000,0.11591079,0.23156288,0.37511102,21,43,70,11,24,43,0.06280246,0.13163949,0.22958681,0.05211900,0.09478289,0.16189088
55047,0,USWisconsinGreenLake,Wisconsin,Green Lake,2021-04-04 01:47:00.487635,2020-06-29 00:00:00.000000,0.11923773,0.23086232,0.37600295,22,43,71,11,25,43,0.06265801,0.13466816,0.23090929,0.05435386,0.09530383,0.15517184
55047,0,USWisconsinGreenLake,Wisconsin,Green Lake,2021-04-04 01:47:00.487635,2020-06-30 00:00:00.000000,0.12239430,0.22954567,0.37702504,23,43,71,11,25,44,0.06308774,0.13352557,0.23425202,0.05352218,0.09612374,0.15946604
55047,0,USWisconsinGreenLake,Wisconsin,Green Lake,2021-04-04 01:47:00.487635,2020-07-01 00:00:00.000000,0.13472034,0.22870218,0.37583243,25,43,71,12,24,43,0.06460756,0.13187316,0.23236159,0.05285999,0.09764534,0.16152869
55047,0,USWisconsinGreenLake,Wisconsin,Green Lake,2021-04-04 01:47:00.487635,2020-07-02 00:00:00.000000,0.13290845,0.22951371,0.37478573,25,43,70,12,24,43,0.06622982,0.12961919,0.22941384,0.05227673,0.09820699,0.16169156
55047,0,USWisconsinGreenLake,Wisconsin,Green Lake,2021-04-04 01:47:00.487635,2020-07-03 00:00:00.000000,0.13116293,0.23018337,0.37417364,24,43,70,14,24,43,0.07407932,0.12915605,0.22824389,0.05170500,0.09876715,0.15719965
55047,0,USWisconsinGreenLake,Wisconsin,Green Lake,2021-04-04 01:47:00.487635,2020-07-04 00:00:00.000000,0.13359935,0.23143483,0.38533757,25,43,72,15,24,43,0.08213783,0.13217989,0.22900466,0.05112375,0.09916555,0.15534126
55047,0,USWisconsinGreenLake,Wisconsin,Green Lake,2021-04-04 01:47:00.487635,2020-07-05 00:00:00.000000,0.13597539,0.23145371,0.39876063,25,43,75,15,25,44,0.08060734,0.13430668,0.23551833,0.05052991,0.10317041,0.16512102
55047,0,USWisconsinGreenLake,Wisconsin,Green Lake,2021-04-04 01:47:00.487635,2020-07-06 00:00:00.000000,0.13716613,0.23264297,0.39602923,25,43,74,14,25,45,0.07819099,0.13668664,0.24087323,0.05017577,0.10623753,0.17404866
55047,0,USWisconsinGreenLake,Wisconsin,Green Lake,2021-04-04 01:47:00.487635,2020-07-07 00:00:00.000000,0.13817668,0.23141745,0.39263441,26,43,74,14,25,45,0.07553044,0.13608027,0.23857123,0.05076509,0.10749615,0.17865121
55047,0,USWisconsinGreenLake,Wisconsin,Green Lake,2021-04-04 01:47:00.487635,2020-07-08 00:00:00.000000,0.13900095,0.23287915,0.38830577,26,44,73,14,25,44,0.07415129,0.13505622,0.23539354,0.05207199,0.10766969,0.17370052
55047,0,USWisconsinGreenLake,Wisconsin,Green Lake,2021-04-04 01:47:00.487635,2020-07-09 00:00:00.000000,0.13533262,0.22985288,0.38485839,25,43,72,14,25,44,0.07471531,0.13371039,0.23778402,0.05366159,0.11086934,0.17543453
55047,0,USWisconsinGreenLake,Wisconsin,Green Lake,2021-04-04 01:47:00.487635,2020-07-10 00:00:00.000000,0.13661715,0.23096407,0.39331875,25,43,74,14,25,45,0.07524230,0.13282410,0.23842116,0.05413766,0.11284339,0.17951237
55047,0,USWisconsinGreenLake,Wisconsin,Green Lake,2021-04-04 01:47:00.487635,2020-07-11 00:00:00.000000,0.13912871,0.23418777,0.41472992,26,44,78,14,25,47,0.07567696,0.13423944,0.24915388,0.05449920,0.11708188,0.18484639
55047,0,USWisconsinGreenLake,Wisconsin,Green Lake,2021-04-04 01:47:00.487635,2020-07-12 00:00:00.000000,0.13864468,0.23690368,0.43545281,26,44,82,14,25,50,0.07603972,0.13452328,0.26599989,0.05479091,0.11765045,0.18825689
55047,0,USWisconsinGreenLake,Wisconsin,Green Lake,2021-04-04 01:47:00.487635,2020-07-13 00:00:00.000000,0.14591139,0.23772376,0.43344390,27,44,81,14,25,53,0.07634770,0.13682477,0.28263766,0.05786965,0.12018074,0.18987479
55047,0,USWisconsinGreenLake,Wisconsin,Green Lake,2021-04-04 01:47:00.487635,2020-07-14 00:00:00.000000,0.14288183,0.23875990,0.43230253,27,45,81,14,26,54,0.07847536,0.14009816,0.28986119,0.05883390,0.12069628,0.19122476
55047,0,USWisconsinGreenLake,Wisconsin,Green Lake,2021-04-04 01:47:00.487635,2020-07-15 00:00:00.000000,0.13992544,0.24002300,0.43770711,26,45,82,15,27,54,0.08155660,0.14285407,0.28743620,0.05906986,0.12221208,0.19327105
55047,0,USWisconsinGreenLake,Wisconsin,Green Lake,2021-04-04 01:47:00.487635,2020-07-16 00:00:00.000000,0.13756600,0.23996196,0.42643393,26,45,80,16,26,53,0.08507061,0.14184442,0.28240673,0.05936695,0.12515273,0.19614493
55047,0,USWisconsinGreenLake,Wisconsin,Green Lake,2021-04-04 01:47:00.487635,2020-07-17 00:00:00.000000,0.14071612,0.23889392,0.41498010,26,45,78,16,26,52,0.08850708,0.14157038,0.27650285,0.06080328,0.12726594,0.19887872
55047,0,USWisconsinGreenLake,Wisconsin,Green Lake,2021-04-04 01:47:00.487635,2020-07-18 00:00:00.000000,0.14387233,0.23773882,0.40836567,27,44,77,16,27,51,0.08791730,0.14302387,0.27245221,0.06614020,0.12800788,0.20195053
55047,0,USWisconsinGreenLake,Wisconsin,Green Lake,2021-04-04 01:47:00.487635,2020-07-19 00:00:00.000000,0.14699545,0.23885253,0.40156714,27,45,75,16,26,52,0.08653045,0.14165579,0.27600463,0.06841952,0.13188163,0.21324267
55047,0,USWisconsinGreenLake,Wisconsin,Green Lake,2021-04-04 01:47:00.487635,2020-07-20 00:00:00.000000,0.14384996,0.24821894,0.40119369,27,46,75,16,26,51,0.08542856,0.14115592,0.27301739,0.07427420,0.13470533,0.21461335
55047,0,USWisconsinGreenLake,Wisconsin,Green Lake,2021-04-04 01:47:00.487635,2020-07-21 00:00:00.000000,0.14060713,0.25075352,0.40313470,26,47,76,16,26,50,0.08509178,0.14247499,0.26931825,0.07600593,0.13660124,0.21902833
55047,0,USWisconsinGreenLake,Wisconsin,Green Lake,2021-04-04 01:47:00.487635,2020-07-22 00:00:00.000000,0.13718268,0.25446942,0.40532752,25,48,76,16,27,50,0.08507709,0.14398299,0.26620262,0.07546999,0.13936988,0.22108458
55047,0,USWisconsinGreenLake,Wisconsin,Green Lake,2021-04-04 01:47:00.487635,2020-07-23 00:00:00.000000,0.13749689,0.25945307,0.40899552,26,49,77,16,27,49,0.08532923,0.14544134,0.26362888,0.07512549,0.14049251,0.23052388
55047,0,USWisconsinGreenLake,Wisconsin,Green Lake,2021-04-04 01:47:00.487635,2020-07-24 00:00:00.000000,0.13932362,0.26535776,0.41259694,26,50,78,16,27,49,0.08586594,0.14757044,0.26141531,0.07493715,0.14292356,0.23585466
55047,0,USWisconsinGreenLake,Wisconsin,Green Lake,2021-04-04 01:47:00.487635,2020-07-25 00:00:00.000000,0.14153644,0.27329995,0.41596313,26,51,78,16,28,49,0.08577085,0.15167123,0.25947530,0.07496071,0.14337631,0.24374269
55047,0,USWisconsinGreenLake,Wisconsin,Green Lake,2021-04-04 01:47:00.487635,2020-07-26 00:00:00.000000,0.14395650,0.27883112,0.41926258,27,52,79,15,29,48,0.08392002,0.15610191,0.25773799,0.07553144,0.14589253,0.25064613
55047,0,USWisconsinGreenLake,Wisconsin,Green Lake,2021-04-04 01:47:00.487635,2020-07-27 00:00:00.000000,0.14831019,0.28495170,0.42198741,28,53,79,15,30,48,0.08224489,0.15895743,0.25617008,0.07782485,0.14817371,0.25597341
55047,0,USWisconsinGreenLake,Wisconsin,Green Lake,2021-04-04 01:47:00.487635,2020-07-28 00:00:00.000000,0.15269539,0.29209299,0.42461300,28,55,80,16,30,48,0.08491004,0.16188617,0.25551298,0.08410319,0.15602584,0.25908398
55047,0,USWisconsinGreenLake,Wisconsin,Green Lake,2021-04-04 01:47:00.487635,2020-07-29 00:00:00.000000,0.16406930,0.29210698,0.43261384,31,55,81,16,31,48,0.08477470,0.16544563,0.25556774,0.08618725,0.15894898,0.26175226
55047,0,USWisconsinGreenLake,Wisconsin,Green Lake,2021-04-04 01:47:00.487635,2020-07-30 00:00:00.000000,0.16213377,0.29977102,0.44310716,30,56,83,16,31,48,0.08831240,0.16763400,0.25642566,0.08733852,0.16180064,0.26464901
55047,0,USWisconsinGreenLake,Wisconsin,Green Lake,2021-04-04 01:47:00.487635,2020-07-31 00:00:00.000000,0.16517664,0.30482235,0.45114190,31,57,85,17,32,48,0.09246232,0.17069346,0.25842566,0.09052904,0.16947578,0.26431514
55047,0,USWisconsinGreenLake,Wisconsin,Green Lake,2021-04-04 01:47:00.487635,2020-08-01 00:00:00.000000,0.17218150,0.31640658,0.46460497,32,59,87,18,32,50,0.09715609,0.17367508,0.26747019,0.09862678,0.17707122,0.26383793
55047,0,USWisconsinGreenLake,Wisconsin,Green Lake,2021-04-04 01:47:00.487635,2020-08-02 00:00:00.000000,0.18503613,0.31951311,0.46775351,34,60,88,19,33,52,0.10204895,0.17821180,0.27563612,0.11078705,0.18342371,0.26920447
55047,0,USWisconsinGreenLake,Wisconsin,Green Lake,2021-04-04 01:47:00.487635,2020-08-03 00:00:00.000000,0.19135051,0.33530904,0.47264004,36,63,89,20,34,52,0.10698075,0.18148327,0.27504172,0.11585684,0.18876949,0.28363291
55047,0,USWisconsinGreenLake,Wisconsin,Green Lake,2021-04-04 01:47:00.487635,2020-08-04 00:00:00.000000,0.19804343,0.33997663,0.47767419,37,64,90,21,35,53,0.11197541,0.18641312,0.28495865,0.11984555,0.19033822,0.29304588
55047,0,USWisconsinGreenLake,Wisconsin,Green Lake,2021-04-04 01:47:00.487635,2020-08-05 00:00:00.000000,0.20472177,0.35212554,0.48485129,38,66,91,22,35,56,0.11739949,0.19025800,0.29811318,0.12047302,0.19706868,0.30220781
55047,0,USWisconsinGreenLake,Wisconsin,Green Lake,2021-04-04 01:47:00.487635,2020-08-06 00:00:00.000000,0.21187777,0.36076403,0.49455531,40,68,93,23,37,57,0.12192181,0.19635176,0.30173833,0.12141181,0.21002226,0.30793048
55047,0,USWisconsinGreenLake,Wisconsin,Green Lake,2021-04-04 01:47:00.487635,2020-08-07 00:00:00.000000,0.21957954,0.37003888,0.51267611,41,69,96,23,38,57,0.12578672,0.20296669,0.30474892,0.12828068,0.21907840,0.31404671
55047,0,USWisconsinGreenLake,Wisconsin,Green Lake,2021-04-04 01:47:00.487635,2020-08-08 00:00:00.000000,0.22778147,0.38479763,0.53917672,43,72,101,23,39,59,0.12597252,0.20971497,0.31572810,0.13331821,0.22672145,0.34134305
55047,0,USWisconsinGreenLake,Wisconsin,Green Lake,2021-04-04 01:47:00.487635,2020-08-09 00:00:00.000000,0.23635065,0.40413866,0.57648333,44,76,109,23,40,61,0.12664732,0.21571520,0.32708405,0.13620236,0.23055908,0.36045166
55047,0,USWisconsinGreenLake,Wisconsin,Green Lake,2021-04-04 01:47:00.487635,2020-08-10 00:00:00.000000,0.24324196,0.42046261,0.59552451,46,79,112,24,42,64,0.12948978,0.22282308,0.34184905,0.13810628,0.23580109,0.36670088
55047,0,USWisconsinGreenLake,Wisconsin,Green Lake,2021-04-04 01:47:00.487635,2020-08-11 00:00:00.000000,0.25131537,0.44004045,0.61606317,47,83,116,25,43,67,0.13278503,0.23060657,0.35798643,0.14263970,0.24425845,0.36845123
55047,0,USWisconsinGreenLake,Wisconsin,Green Lake,2021-04-04 01:47:00.487635,2020-08-12 00:00:00.000000,0.26048373,0.45900523,0.64332307,49,86,121,25,45,71,0.13662274,0.24204763,0.37542598,0.15336201,0.25157692,0.38724513
55047,0,USWisconsinGreenLake,Wisconsin,Green Lake,2021-04-04 01:47:00.487635,2020-08-13 00:00:00.000000,0.27071228,0.47607951,0.68546049,51,90,129,26,47,74,0.14235177,0.24937651,0.39413067,0.15434949,0.25828637,0.38909938
55047,0,USWisconsinGreenLake,Wisconsin,Green Lake,2021-04-04 01:47:00.487635,2020-08-14 00:00:00.000000,0.28223952,0.50208061,0.72992233,53,94,138,28,48,78,0.14979028,0.25576815,0.41424628,0.15514985,0.26942279,0.39013381
55047,0,USWisconsinGreenLake,Wisconsin,Green Lake,2021-04-04 01:47:00.487635,2020-08-15 00:00:00.000000,0.29547898,0.52184810,0.76189180,55,98,144,29,49,82,0.15744800,0.26363623,0.43576869,0.15646348,0.28283491,0.39116773
55047,0,USWisconsinGreenLake,Wisconsin,Green Lake,2021-04-04 01:47:00.487635,2020-08-16 00:00:00.000000,0.31070389,0.54074578,0.79011023,58,102,149,31,52,88,0.16514712,0.27760976,0.46820833,0.15922698,0.29215241,0.40001768
55047,0,USWisconsinGreenLake,Wisconsin,Green Lake,2021-04-04 01:47:00.487635,2020-08-17 00:00:00.000000,0.34140444,0.56051013,0.82290499,64,106,155,32,55,95,0.17281808,0.29389012,0.50434274,0.17478130,0.29786317,0.42316033
55047,0,USWisconsinGreenLake,Wisconsin,Green Lake,2021-04-04 01:47:00.487635,2020-08-18 00:00:00.000000,0.37393195,0.58091960,0.87368167,70,109,165,34,58,100,0.18366087,0.31072950,0.53166505,0.19410495,0.30204072,0.43360699
55047,0,USWisconsinGreenLake,Wisconsin,Green Lake,2021-04-04 01:47:00.487635,2020-08-19 00:00:00.000000,0.39693697,0.60616461,0.92629382,75,114,175,37,61,105,0.19630058,0.32696809,0.55556984,0.19456985,0.30782907,0.45481803
55047,0,USWisconsinGreenLake,Wisconsin,Green Lake,2021-04-04 01:47:00.487635,2020-08-20 00:00:00.000000,0.39850612,0.63301786,0.98735206,75,119,186,39,64,108,0.21006675,0.34125850,0.57289367,0.19690916,0.32003777,0.45796490
55047,0,USWisconsinGreenLake,Wisconsin,Green Lake,2021-04-04 01:47:00.487635,2020-08-21 00:00:00.000000,0.41183671,0.67048138,1.05501853,77,126,199,42,67,114,0.22523555,0.35713869,0.60443653,0.20813945,0.33009262,0.45747101
55047,0,USWisconsinGreenLake,Wisconsin,Green Lake,2021-04-04 01:47:00.487635,2020-08-22 00:00:00.000000,0.44792836,0.70445832,1.10945290,84,133,209,45,70,121,0.24180597,0.37209258,0.63982826,0.20841482,0.33619224,0.47331268
55047,0,USWisconsinGreenLake,Wisconsin,Green Lake,2021-04-04 01:47:00.487635,2020-08-23 00:00:00.000000,0.48950818,0.74878767,1.16574461,92,141,220,49,72,128,0.25923633,0.38458181,0.67718241,0.21111811,0.34594736,0.49993224
55047,0,USWisconsinGreenLake,Wisconsin,Green Lake,2021-04-04 01:47:00.487635,2020-08-24 00:00:00.000000,0.51396101,0.80037655,1.23549838,97,151,233,51,75,135,0.27087331,0.40051502,0.71692235,0.23671152,0.35443758,0.50474231
55047,0,USWisconsinGreenLake,Wisconsin,Green Lake,2021-04-04 01:47:00.487635,2020-08-25 00:00:00.000000,0.55306129,0.85524275,1.30829131,104,161,247,53,79,142,0.28387647,0.42229508,0.75593877,0.23687338,0.35764810,0.50536306
55047,0,USWisconsinGreenLake,Wisconsin,Green Lake,2021-04-04 01:47:00.487635,2020-08-26 00:00:00.000000,0.59448890,0.91586348,1.37380661,112,173,259,57,85,150,0.30563098,0.45121191,0.79562826,0.23474982,0.36491936,0.50477659
55047,0,USWisconsinGreenLake,Wisconsin,Green Lake,2021-04-04 01:47:00.487635,2020-08-27 00:00:00.000000,0.63638472,0.96138042,1.43588641,120,181,271,61,91,158,0.32319350,0.48288139,0.83673594,0.25120322,0.36556018,0.50321328
55047,0,USWisconsinGreenLake,Wisconsin,Green Lake,2021-04-04 01:47:00.487635,2020-08-28 00:00:00.000000,0.67918599,1.00376993,1.49968754,128,189,283,65,95,166,0.34406660,0.50567996,0.87968466,0.25903128,0.37469271,0.50985140
55047,0,USWisconsinGreenLake,Wisconsin,Green Lake,2021-04-04 01:47:00.487635,2020-08-29 00:00:00.000000,0.72372220,1.05183905,1.56547660,136,198,296,67,101,174,0.35542269,0.53452783,0.92475994,0.28213716,0.37759940,0.52872988
55047,0,USWisconsinGreenLake,Wisconsin,Green Lake,2021-04-04 01:47:00.487635,2020-08-30 00:00:00.000000,0.78883279,1.11757981,1.63603708,149,211,309,70,106,183,0.37220751,0.56380167,0.97205308,0.29548330,0.38091313,0.53439469
55047,0,USWisconsinGreenLake,Wisconsin,Green Lake,2021-04-04 01:47:00.487635,2020-08-31 00:00:00.000000,0.86059029,1.18807214,1.74348725,162,224,329,74,111,193,0.39436507,0.58897492,1.02181181,0.29717578,0.39316497,0.53901183
55047,0,USWisconsinGreenLake,Wisconsin,Green Lake,2021-04-04 01:47:00.487635,2020-09-01 00:00:00.000000,0.90954874,1.26535780,1.85424390,172,239,350,78,117,204,0.41586985,0.62165386,1.07905180,0.29710698,0.40290497,0.56515479
55047,0,USWisconsinGreenLake,Wisconsin,Green Lake,2021-04-04 01:47:00.487635,2020-09-02 00:00:00.000000,0.96131355,1.34229732,1.96741356,181,253,372,82,124,216,0.43825345,0.65779688,1.14228395,0.30070781,0.40788946,0.57330674
55047,0,USWisconsinGreenLake,Wisconsin,Green Lake,2021-04-04 01:47:00.487635,2020-09-03 00:00:00.000000,1.01619983,1.41918961,2.06169655,192,268,389,88,131,227,0.46767579,0.69727208,1.20496183,0.30269076,0.41937566,0.58461531
55047,0,USWisconsinGreenLake,Wisconsin,Green Lake,2021-04-04 01:47:00.487635,2020-09-04 00:00:00.000000,1.07408473,1.50890297,2.16256222,203,285,409,93,138,236,0.49445679,0.73477153,1.25173397,0.30379297,0.42719716,0.63045329
55047,0,USWisconsinGreenLake,Wisconsin,Green Lake,2021-04-04 01:47:00.487635,2020-09-05 00:00:00.000000,1.13500528,1.62203096,2.26944813,214,306,429,98,149,248,0.52259298,0.78896503,1.31525738,0.30829681,0.43281239,0.65501715
55047,0,USWisconsinGreenLake,Wisconsin,Green Lake,2021-04-04 01:47:00.487635,2020-09-06 00:00:00.000000,1.22013563,1.74514287,2.41037375,230,330,455,104,160,267,0.55503515,0.84714652,1.41250501,0.30969305,0.45633633,0.67526185
55047,0,USWisconsinGreenLake,Wisconsin,Green Lake,2021-04-04 01:47:00.487635,2020-09-07 00:00:00.000000,1.33192115,1.87089461,2.56364807,251,353,484,111,170,286,0.59163630,0.90410088,1.51255695,0.31016875,0.46181266,0.67610943
55047,0,USWisconsinGreenLake,Wisconsin,Green Lake,2021-04-04 01:47:00.487635,2020-09-08 00:00:00.000000,1.43529867,1.99839602,2.69498150,271,377,509,119,183,303,0.63196089,0.97183507,1.60365571,0.31043552,0.46407975,0.67380108
55047,0,USWisconsinGreenLake,Wisconsin,Green Lake,2021-04-04 01:47:00.487635,2020-09-09 00:00:00.000000,1.51518140,2.15143637,2.88663560,286,406,545,127,199,318,0.67608869,1.05425791,1.68559073,0.31074176,0.46785682,0.66657971
55047,0,USWisconsinGreenLake,Wisconsin,Green Lake,2021-04-04 01:47:00.487635,2020-09-10 00:00:00.000000,1.62619229,2.30527337,3.06086340,307,435,578,136,211,334,0.72413991,1.12089630,1.76885001,0.31136146,0.47204341,0.65863484
55047,0,USWisconsinGreenLake,Wisconsin,Green Lake,2021-04-04 01:47:00.487635,2020-09-11 00:00:00.000000,1.75094549,2.46217196,3.29681337,331,465,623,146,228,351,0.77633546,1.20716888,1.85744852,0.31314587,0.47525555,0.68005472
55047,0,USWisconsinGreenLake,Wisconsin,Green Lake,2021-04-04 01:47:00.487635,2020-09-12 00:00:00.000000,1.87988183,2.63532199,3.51295794,355,498,664,157,245,370,0.83331547,1.29670745,1.95736932,0.32350545,0.47494673,0.69980584
55047,0,USWisconsinGreenLake,Wisconsin,Green Lake,2021-04-04 01:47:00.487635,2020-09-13 00:00:00.000000,2.02106572,2.84510956,3.77621398,382,538,714,170,261,391,0.90288886,1.38208111,2.06776358,0.32480284,0.48346151,0.70547579
55047,0,USWisconsinGreenLake,Wisconsin,Green Lake,2021-04-04 01:47:00.487635,2020-09-14 00:00:00.000000,2.16862969,3.04701944,4.05759863,410,576,767,184,280,413,0.97349728,1.48314279,2.18744500,0.32598156,0.48197224,0.70493827
55047,0,USWisconsinGreenLake,Wisconsin,Green Lake,2021-04-04 01:47:00.487635,2020-09-15 00:00:00.000000,2.32621226,3.27713966,4.36021021,439,619,824,196,298,438,1.03888800,1.57603780,2.31716003,0.32699660,0.48123834,0.70181213
55047,0,USWisconsinGreenLake,Wisconsin,Green Lake,2021-04-04 01:47:00.487635,2020-09-16 00:00:00.000000,2.49788331,3.53344658,4.77583536,472,668,903,210,320,464,1.11277586,1.69356810,2.45616312,0.32786554,0.47993446,0.69493857
55047,0,USWisconsinGreenLake,Wisconsin,Green Lake,2021-04-04 01:47:00.487635,2020-09-17 00:00:00.000000,2.70240341,3.76265734,5.05978644,511,711,956,227,343,496,1.20045515,1.81779807,2.62287633,0.32873325,0.46993190,0.66589586
55047,0,USWisconsinGreenLake,Wisconsin,Green Lake,2021-04-04 01:47:00.487635,2020-09-18 00:00:00.000000,2.88536704,4.00546630,5.35551420,545,757,1012,245,368,530,1.29886303,1.94774418,2.80504482,0.33009700,0.46468935,0.64324130
55047,0,USWisconsinGreenLake,Wisconsin,Green Lake,2021-04-04 01:47:00.487635,2020-09-19 00:00:00.000000,3.05416163,4.27484098,5.66878083,577,808,1072,266,397,567,1.40923853,2.10396037,2.99852478,0.33139197,0.47226885,0.63016404
55047,0,USWisconsinGreenLake,Wisconsin,Green Lake,2021-04-04 01:47:00.487635,2020-09-20 00:00:00.000000,3.23084428,4.60343986,5.99897736,611,870,1134,289,430,605,1.53165412,2.27778106,3.20337208,0.32314813,0.46031047,0.61449981
55047,0,USWisconsinGreenLake,Wisconsin,Green Lake,2021-04-04 01:47:00.487635,2020-09-21 00:00:00.000000,3.40700707,4.87123725,6.39916996,644,921,1210,315,461,643,1.66603601,2.44051991,3.40430990,0.31832458,0.45827568,0.66132490
55047,0,USWisconsinGreenLake,Wisconsin,Green Lake,2021-04-04 01:47:00.487635,2020-09-22 00:00:00.000000,3.55851641,5.15698341,6.78671673,673,975,1283,336,492,677,1.77902338,2.60516873,3.58467254,0.31470784,0.45582666,0.65755128
55047,0,USWisconsinGreenLake,Wisconsin,Green Lake,2021-04-04 01:47:00.487635,2020-09-23 00:00:00.000000,3.72388962,5.45155904,7.19917841,704,1031,1361,355,524,712,1.87966828,2.77369498,3.76735574,0.31379021,0.45318670,0.65343751
55047,0,USWisconsinGreenLake,Wisconsin,Green Lake,2021-04-04 01:47:00.487635,2020-09-24 00:00:00.000000,3.92593431,5.74065273,7.80253973,742,1085,1475,375,558,747,1.98556710,2.95093156,3.95349467,0.31572739,0.45380381,0.64422273
55047,0,USWisconsinGreenLake,Wisconsin,Green Lake,2021-04-04 01:47:00.487635,2020-09-25 00:00:00.000000,4.13935446,6.11903343,8.28729360,782,1157,1567,401,593,783,2.12054281,3.13794619,4.14457169,0.32042932,0.45973915,0.62251209
55047,0,USWisconsinGreenLake,Wisconsin,Green Lake,2021-04-04 01:47:00.487635,2020-09-26 00:00:00.000000,4.40546212,6.46230032,8.78077500,833,1222,1660,422,625,830,2.23193781,3.30959027,4.39038442,0.32289799,0.45942772,0.67315284
55047,0,USWisconsinGreenLake,Wisconsin,Green Lake,2021-04-04 01:47:00.487635,2020-09-27 00:00:00.000000,4.60188374,6.78792993,9.28908634,870,1283,1756,436,659,883,2.30781734,3.48856255,4.67204002,0.32222212,0.46116373,0.63782089
55047,0,USWisconsinGreenLake,Wisconsin,Green Lake,2021-04-04 01:47:00.487635,2020-09-28 00:00:00.000000,4.83086736,7.17059889,9.88325106,913,1356,1869,451,698,938,2.38664115,3.69517681,4.96178282,0.31821617,0.46586825,0.64997527
55047,0,USWisconsinGreenLake,Wisconsin,Green Lake,2021-04-04 01:47:00.487635,2020-09-29 00:00:00.000000,5.03339103,7.50463221,10.48768756,951,1419,1983,468,740,992,2.47599202,3.91428552,5.24816592,0.31899525,0.47190612,0.67163801
55047,0,USWisconsinGreenLake,Wisconsin,Green Lake,2021-04-04 01:47:00.487635,2020-09-30 00:00:00.000000,5.24410338,7.94141353,11.07071973,991,1501,2093,488,781,1045,2.58160357,4.13083001,5.52788503,0.31978846,0.47632010,0.67619863
55047,0,USWisconsinGreenLake,Wisconsin,Green Lake,2021-04-04 01:47:00.487635,2020-10-01 00:00:00.000000,5.46961181,8.45184611,11.74727296,1034,1598,2221,508,821,1096,2.69083291,4.34270730,5.79557918,0.31698709,0.48420942,0.66999244
55047,0,USWisconsinGreenLake,Wisconsin,Green Lake,2021-04-04 01:47:00.487635,2020-10-02 00:00:00.000000,5.74013415,9.01193998,12.43995430,1085,1704,2352,530,861,1161,2.80551967,4.55613024,6.13983891,0.32029525,0.49838496,0.65784764
55047,0,USWisconsinGreenLake,Wisconsin,Green Lake,2021-04-04 01:47:00.487635,2020-10-03 00:00:00.000000,6.09327591,9.56036809,13.14327051,1152,1808,2485,554,907,1217,2.93357420,4.79679158,6.43987146,0.32323425,0.51132497,0.68698638
55047,0,USWisconsinGreenLake,Wisconsin,Green Lake,2021-04-04 01:47:00.487635,2020-10-04 00:00:00.000000,6.46946180,10.16653574,13.82422980,1223,1922,2614,584,953,1270,3.08826629,5.04040339,6.71502333,0.32541468,0.52755503,0.73181608
55047,0,USWisconsinGreenLake,Wisconsin,Green Lake,2021-04-04 01:47:00.487635,2020-10-05 00:00:00.000000,6.87810283,10.79648935,14.59020113,1300,2041,2759,618,1014,1323,3.27276487,5.36252500,6.99859109,0.32664253,0.53724132,0.70597544
55047,0,USWisconsinGreenLake,Wisconsin,Green Lake,2021-04-04 01:47:00.487635,2020-10-06 00:00:00.000000,7.38006209,11.47879900,15.32689883,1395,2170,2898,659,1075,1396,3.48766634,5.68617446,7.38350974,0.33884536,0.54258492,0.70741516
55047,0,USWisconsinGreenLake,Wisconsin,Green Lake,2021-04-04 01:47:00.487635,2020-10-07 00:00:00.000000,7.98752202,12.29529332,16.15990912,1510,2325,3056,706,1148,1483,3.73564360,6.07151130,7.84137761,0.35572869,0.55388364,0.72060491
55047,0,USWisconsinGreenLake,Wisconsin,Green Lake,2021-04-04 01:47:00.487635,2020-10-08 00:00:00.000000,8.68908460,13.01300137,16.83348013,1643,2461,3183,760,1217,1577,4.01937478,6.43873225,8.34246727,0.36723071,0.55292567,0.72728166
55047,0,USWisconsinGreenLake,Wisconsin,Green Lake,2021-04-04 01:47:00.487635,2020-10-09 00:00:00.000000,9.46636900,13.77107460,17.47458917,1790,2604,3304,820,1295,1674,4.33651645,6.85218068,8.85555399,0.37623169,0.56170097,0.72979741
55047,0,USWisconsinGreenLake,Wisconsin,Green Lake,2021-04-04 01:47:00.487635,2020-10-10 00:00:00.000000,10.26353122,14.54516814,18.36659567,1941,2750,3473,885,1373,1778,4.68268952,7.26393022,9.40326926,0.38446152,0.55983723,0.73980297
55047,0,USWisconsinGreenLake,Wisconsin,Green Lake,2021-04-04 01:47:00.487635,2020-10-11 00:00:00.000000,11.04342271,15.39363496,19.22817578,2088,2911,3636,955,1459,1887,5.05393270,7.71762865,9.97842936,0.39235926,0.56780972,0.74330667
55047,0,USWisconsinGreenLake,Wisconsin,Green Lake,2021-04-04 01:47:00.487635,2020-10-12 00:00:00.000000,11.84675788,16.07687561,19.73090156,2240,3040,3731,1030,1541,1987,5.44676849,8.15117771,10.50759588,0.39681747,0.56362845,0.73941842
55047,0,USWisconsinGreenLake,Wisconsin,Green Lake,2021-04-04 01:47:00.487635,2020-10-13 00:00:00.000000,12.64880175,16.78220325,20.72153549,2392,3174,3919,1107,1617,2111,5.85740079,8.55008426,11.16249637,0.38884806,0.55197555,0.71840121
55047,0,USWisconsinGreenLake,Wisconsin,Green Lake,2021-04-04 01:47:00.487635,2020-10-14 00:00:00.000000,13.41383097,17.50287011,21.78281180,2536,3310,4119,1191,1731,2237,6.30043037,9.15722993,11.83012504,0.38252760,0.53270100,0.70408454
55047,0,USWisconsinGreenLake,Wisconsin,Green Lake,2021-04-04 01:47:00.487635,2020-10-15 00:00:00.000000,14.07955479,18.21741623,22.41399210,2662,3445,4239,1286,1829,2341,6.80376293,9.67258711,12.37890910,0.36573007,0.49807487,0.67020465
55047,0,USWisconsinGreenLake,Wisconsin,Green Lake,2021-04-04 01:47:00.487635,2020-10-16 00:00:00.000000,14.35570413,18.86309536,23.01551453,2715,3567,4352,1340,1900,2437,7.08777860,10.05086076,12.88646558,0.33476086,0.46764241,0.63518609
55047,0,USWisconsinGreenLake,Wisconsin,Green Lake,2021-04-04 01:47:00.487635,2020-10-17 00:00:00.000000,14.58746992,19.05086124,23.61805850,2758,3603,4466,1403,1966,2521,7.42002797,10.39685370,13.32975437,0.29087583,0.41259305,0.59316683
55047,0,USWisconsinGreenLake,Wisconsin,Green Lake,2021-04-04 01:47:00.487635,2020-10-18 00:00:00.000000,14.54163716,19.12430935,23.90174367,2750,3616,4520,1451,2018,2598,7.67307598,10.67387139,13.73662422,0.25654755,0.37803068,0.53602826
55047,0,USWisconsinGreenLake,Wisconsin,Green Lake,2021-04-04 01:47:00.487635,2020-10-19 00:00:00.000000,14.46282982,19.14187152,23.83648931,2735,3620,4508,1482,2041,2680,7.84091733,10.79519943,14.17495766,0.24720291,0.34230389,0.46743350
55047,0,USWisconsinGreenLake,Wisconsin,Green Lake,2021-04-04 01:47:00.487635,2020-10-20 00:00:00.000000,14.35578445,19.03308473,23.79161594,2715,3599,4499,1499,2053,2746,7.93050223,10.86010736,14.52297172,0.24441121,0.32384123,0.42474792
55047,0,USWisconsinGreenLake,Wisconsin,Green Lake,2021-04-04 01:47:00.487635,2020-10-21 00:00:00.000000,14.22564670,18.83103184,23.87370756,2690,3561,4515,1505,2064,2821,7.96222537,10.91768854,14.91651092,0.23298804,0.30540413,0.40476425
55047,0,USWisconsinGreenLake,Wisconsin,Green Lake,2021-04-04 01:47:00.487635,2020-10-22 00:00:00.000000,14.06651573,18.60756701,23.72914815,2660,3519,4487,1481,2075,2883,7.83468424,10.97311872,15.24571037,0.23136693,0.29687640,0.39856946
55047,0,USWisconsinGreenLake,Wisconsin,Green Lake,2021-04-04 01:47:00.487635,2020-10-23 00:00:00.000000,13.71148383,18.37151063,23.38604603,2593,3474,4423,1448,2066,2920,7.65798385,10.92756543,15.44405349,0.22091267,0.28979952,0.39680909
55047,0,USWisconsinGreenLake,Wisconsin,Green Lake,2021-04-04 01:47:00.487635,2020-10-24 00:00:00.000000,13.41476500,18.01632631,23.01360331,2537,3407,4352,1414,2049,2936,7.47665756,10.83761181,15.52846917,0.20979498,0.28781717,0.39269592
55047,0,USWisconsinGreenLake,Wisconsin,Green Lake,2021-04-04 01:47:00.487635,2020-10-25 00:00:00.000000,13.14930821,17.58257803,22.61962336,2486,3325,4278,1381,2012,2935,7.30493559,10.63841985,15.52198890,0.21024976,0.28989392,0.38518808
55047,0,USWisconsinGreenLake,Wisconsin,Green Lake,2021-04-04 01:47:00.487635,2020-10-26 00:00:00.000000,12.75072462,17.16235725,22.21393130,2411,3245,4201,1351,1967,2922,7.14594058,10.40189512,15.45229728,0.21026237,0.28979211,0.38750864
55047,0,USWisconsinGreenLake,Wisconsin,Green Lake,2021-04-04 01:47:00.487635,2020-10-27 00:00:00.000000,12.24331909,16.71068843,21.79351866,2315,3160,4121,1323,1925,2900,6.99609184,10.18011293,15.33540828,0.20920636,0.29091419,0.38049458
55047,0,USWisconsinGreenLake,Wisconsin,Green Lake,2021-04-04 01:47:00.487635,2020-10-28 00:00:00.000000,11.68958366,16.21681239,21.36093287,2210,3067,4039,1295,1890,2872,6.85128652,9.99397461,15.18625221,0.20897580,0.29288666,0.39278487
55047,0,USWisconsinGreenLake,Wisconsin,Green Lake,2021-04-04 01:47:00.487635,2020-10-29 00:00:00.000000,11.27812990,15.74496032,20.91849923,2133,2977,3956,1268,1850,2839,6.70865713,9.78534725,15.01433006,0.20950333,0.30161823,0.41272125
55047,0,USWisconsinGreenLake,Wisconsin,Green Lake,2021-04-04 01:47:00.487635,2020-10-30 00:00:00.000000,10.93078627,15.37666893,20.70408463,2067,2908,3915,1236,1797,2804,6.53823414,9.50560732,14.83038178,0.21671988,0.31658733,0.42509485
55047,0,USWisconsinGreenLake,Wisconsin,Green Lake,2021-04-04 01:47:00.487635,2020-10-31 00:00:00.000000,10.66381628,15.02454758,20.72656603,2016,2841,3920,1180,1755,2775,6.24087270,9.28046280,14.67576187,0.21972591,0.32713421,0.44420963
55047,0,USWisconsinGreenLake,Wisconsin,Green Lake,2021-04-04 01:47:00.487635,2020-11-01 00:00:00.000000,10.31135838,14.72365701,20.55566624,1950,2784,3887,1125,1717,2756,5.95100851,9.07958299,14.57241781,0.22205907,0.33510598,0.46206195
55047,0,USWisconsinGreenLake,Wisconsin,Green Lake,2021-04-04 01:47:00.487635,2020-11-02 00:00:00.000000,10.03738941,14.46926256,20.08380528,1898,2736,3798,1072,1690,2741,5.67176986,8.93927756,14.49638266,0.22685920,0.35048662,0.48357420
55047,0,USWisconsinGreenLake,Wisconsin,Green Lake,2021-04-04 01:47:00.487635,2020-11-03 00:00:00.000000,9.90104417,14.21659301,19.61415638,1872,2688,3709,1023,1657,2729,5.41042259,8.76351847,14.43041173,0.23410489,0.36845951,0.49933665
55047,0,USWisconsinGreenLake,Wisconsin,Green Lake,2021-04-04 01:47:00.487635,2020-11-04 00:00:00.000000,9.77683049,13.92992317,19.15845698,1849,2634,3623,994,1619,2689,5.25744882,8.56312324,14.22140967,0.24170901,0.37963258,0.50825787
55047,0,USWisconsinGreenLake,Wisconsin,Green Lake,2021-04-04 01:47:00.487635,2020-11-05 00:00:00.000000,9.48463042,13.64770786,18.72233306,1793,2581,3540,984,1581,2682,5.20798157,8.36433149,14.18217142,0.25256241,0.38450200,0.52910450
55047,0,USWisconsinGreenLake,Wisconsin,Green Lake,2021-04-04 01:47:00.487635,2020-11-06 00:00:00.000000,9.21281322,13.50067150,18.31114284,1742,2553,3463,976,1557,2684,5.16430725,8.23633698,14.19538893,0.26745465,0.39477366,0.54424504
55047,0,USWisconsinGreenLake,Wisconsin,Green Lake,2021-04-04 01:47:00.487635,2020-11-07 00:00:00.000000,8.96186934,13.26085311,18.12197811,1694,2508,3427,969,1527,2658,5.12471814,8.07602849,14.05520307,0.27450780,0.40428162,0.54866501
55047,0,USWisconsinGreenLake,Wisconsin,Green Lake,2021-04-04 01:47:00.487635,2020-11-08 00:00:00.000000,8.73680910,12.93653983,18.02293269,1652,2446,3408,957,1502,2614,5.06382123,7.94207621,13.82268592,0.27951930,0.41266573,0.57397047
55047,0,USWisconsinGreenLake,Wisconsin,Green Lake,2021-04-04 01:47:00.487635,2020-11-09 00:00:00.000000,8.55017542,12.59623979,17.92186426,1617,2382,3389,931,1481,2571,4.92585096,7.83398878,13.59734162,0.28274024,0.42345791,0.59020392
55047,0,USWisconsinGreenLake,Wisconsin,Green Lake,2021-04-04 01:47:00.487635,2020-11-10 00:00:00.000000,8.38525072,12.39545627,17.81262199,1585,2344,3368,908,1452,2530,4.80346663,7.67917183,13.37850275,0.29090129,0.43198817,0.60319071
55047,0,USWisconsinGreenLake,Wisconsin,Green Lake,2021-04-04 01:47:00.487635,2020-11-11 00:00:00.000000,8.23817277,12.23734106,17.69093387,1558,2314,3345,887,1424,2489,4.69516837,7.52922812,13.16520167,0.29579793,0.43495515,0.61555218
55047,0,USWisconsinGreenLake,Wisconsin,Green Lake,2021-04-04 01:47:00.487635,2020-11-12 00:00:00.000000,8.11082012,12.04475587,17.55439854,1533,2278,3320,869,1403,2450,4.59903668,7.41859759,12.95551535,0.29656862,0.44254379,0.61250660
55047,0,USWisconsinGreenLake,Wisconsin,Green Lake,2021-04-04 01:47:00.487635,2020-11-13 00:00:00.000000,8.03531552,11.73179948,17.40205553,1519,2218,3291,853,1368,2411,4.51437186,7.23510730,12.74859719,0.29034093,0.44362658,0.60329215
55047,0,USWisconsinGreenLake,Wisconsin,Green Lake,2021-04-04 01:47:00.487635,2020-11-14 00:00:00.000000,8.01926650,11.43005646,17.23377804,1516,2161,3259,841,1325,2372,4.44880592,7.00858472,12.54289443,0.28777998,0.44517950,0.62998911
55047,0,USWisconsinGreenLake,Wisconsin,Green Lake,2021-04-04 01:47:00.487635,2020-11-15 00:00:00.000000,7.99412643,11.22170767,17.04985540,1511,2122,3224,839,1294,2333,4.44096553,6.84364299,12.33742009,0.29038843,0.44943109,0.63983084
55047,0,USWisconsinGreenLake,Wisconsin,Green Lake,2021-04-04 01:47:00.487635,2020-11-16 00:00:00.000000,7.89626463,11.09594117,16.85910779,1493,2098,3188,829,1266,2294,4.38631761,6.69811271,12.13190101,0.29281183,0.45514278,0.64228404
55047,0,USWisconsinGreenLake,Wisconsin,Green Lake,2021-04-04 01:47:00.487635,2020-11-17 00:00:00.000000,7.82230486,10.96760271,16.65414008,1479,2074,3149,815,1243,2255,4.31024291,6.57609088,11.92769170,0.30741091,0.46175506,0.64684081
55047,0,USWisconsinGreenLake,Wisconsin,Green Lake,2021-04-04 01:47:00.487635,2020-11-18 00:00:00.000000,7.77597486,10.76980835,16.43637673,1470,2036,3108,809,1224,2217,4.27920062,6.47299777,11.72661651,0.32008743,0.46137322,0.64280358
55047,0,USWisconsinGreenLake,Wisconsin,Green Lake,2021-04-04 01:47:00.487635,2020-11-19 00:00:00.000000,7.66399573,10.53564796,16.20715189,1449,1992,3065,797,1205,2181,4.21464192,6.37523949,11.53184332,0.32129097,0.47658780,0.64989883
55047,0,USWisconsinGreenLake,Wisconsin,Green Lake,2021-04-04 01:47:00.487635,2020-11-20 00:00:00.000000,7.45388887,10.30918327,15.96884998,1409,1949,3020,778,1185,2146,4.11872048,6.26944505,11.34747508,0.32287202,0.48427716,0.66304245
55047,0,USWisconsinGreenLake,Wisconsin,Green Lake,2021-04-04 01:47:00.487635,2020-11-21 00:00:00.000000,7.23040937,10.11398284,15.72540674,1367,1912,2974,761,1167,2121,4.02451307,6.17245962,11.21510928,0.32595886,0.50216578,0.70399575
55047,0,USWisconsinGreenLake,Wisconsin,Green Lake,2021-04-04 01:47:00.487635,2020-11-22 00:00:00.000000,7.01366485,9.92214024,15.48208335,1326,1876,2928,743,1145,2094,3.93244278,6.05420523,11.07680859,0.33144653,0.50980553,0.72604541
55047,0,USWisconsinGreenLake,Wisconsin,Green Lake,2021-04-04 01:47:00.487635,2020-11-23 00:00:00.000000,6.80540953,9.73722598,15.24059048,1287,1841,2882,730,1126,2067,3.86198855,5.95368001,10.93392629,0.33927095,0.51975729,0.73354436
55047,0,USWisconsinGreenLake,Wisconsin,Green Lake,2021-04-04 01:47:00.487635,2020-11-24 00:00:00.000000,6.60363122,9.51204853,15.00288073,1248,1799,2837,710,1110,2040,3.75536326,5.87172509,10.78716449,0.34828373,0.53699830,0.77038542
55047,0,USWisconsinGreenLake,Wisconsin,Green Lake,2021-04-04 01:47:00.487635,2020-11-25 00:00:00.000000,6.41904753,9.28932266,14.79264965,1214,1756,2797,694,1094,2011,3.67209669,5.78859389,10.63681156,0.35888671,0.54765032,0.77471319
55047,0,USWisconsinGreenLake,Wisconsin,Green Lake,2021-04-04 01:47:00.487635,2020-11-26 00:00:00.000000,6.27873951,9.08376908,14.59231441,1187,1718,2759,679,1069,1982,3.59105517,5.65706110,10.48301291,0.36535857,0.55259519,0.82604091
55047,0,USWisconsinGreenLake,Wisconsin,Green Lake,2021-04-04 01:47:00.487635,2020-11-27 00:00:00.000000,6.14601569,8.87966544,14.37600548,1162,1679,2718,664,1048,1952,3.51213886,5.54311311,10.32592030,0.36850022,0.56438898,0.79845112
55047,0,USWisconsinGreenLake,Wisconsin,Green Lake,2021-04-04 01:47:00.487635,2020-11-28 00:00:00.000000,6.02602828,8.70729871,14.15228082,1139,1646,2676,649,1029,1922,3.43620276,5.44383498,10.16575080,0.37405399,0.58270437,0.81617094
55047,0,USWisconsinGreenLake,Wisconsin,Green Lake,2021-04-04 01:47:00.487635,2020-11-29 00:00:00.000000,5.92312598,8.61927100,13.91230364,1120,1630,2631,636,1012,1885,3.36497465,5.35374149,9.96786265,0.37228241,0.59409746,0.82849995
55047,0,USWisconsinGreenLake,Wisconsin,Green Lake,2021-04-04 01:47:00.487635,2020-11-30 00:00:00.000000,5.82413639,8.56582967,13.67336561,1101,1620,2586,624,994,1858,3.30048486,5.25943176,9.82416060,0.36583530,0.60443028,0.84695923
55047,0,USWisconsinGreenLake,Wisconsin,Green Lake,2021-04-04 01:47:00.487635,2020-12-01 00:00:00.000000,5.73887797,8.45232867,13.42268290,1085,1598,2538,612,978,1830,3.24079325,5.17541288,9.67761977,0.36093838,0.61766751,0.87689336
55047,0,USWisconsinGreenLake,Wisconsin,Green Lake,2021-04-04 01:47:00.487635,2020-12-02 00:00:00.000000,5.66321047,8.36825423,13.16139302,1071,1582,2489,602,971,1799,3.18696984,5.13586700,9.51515496,0.36084001,0.62615237,0.86595376
55047,0,USWisconsinGreenLake,Wisconsin,Green Lake,2021-04-04 01:47:00.487635,2020-12-03 00:00:00.000000,5.59758147,8.29400578,12.89007994,1058,1568,2437,593,960,1768,3.13876104,5.07782571,9.35262240,0.38059565,0.64817942,0.90322916
55047,0,USWisconsinGreenLake,Wisconsin,Green Lake,2021-04-04 01:47:00.487635,2020-12-04 00:00:00.000000,5.54464874,8.22038825,12.60837677,1048,1554,2384,585,948,1738,3.09607944,5.01378120,9.18998470,0.42100559,0.66383690,0.94405533
55047,0,USWisconsinGreenLake,Wisconsin,Green Lake,2021-04-04 01:47:00.487635,2020-12-05 00:00:00.000000,5.48676174,8.14750309,12.31660838,1037,1540,2329,578,936,1707,3.05950796,4.95348978,9.02728152,0.43843866,0.68888141,0.97441472
55047,0,USWisconsinGreenLake,Wisconsin,Green Lake,2021-04-04 01:47:00.487635,2020-12-06 00:00:00.000000,5.41331230,8.02821926,12.01609892,1023,1518,2272,572,924,1676,3.02921725,4.88708765,8.86463579,0.44768394,0.69835659,0.99428700
55047,0,USWisconsinGreenLake,Wisconsin,Green Lake,2021-04-04 01:47:00.487635,2020-12-07 00:00:00.000000,5.35567195,7.89068478,11.70911163,1012,1492,2214,567,908,1645,3.00282913,4.80212281,8.70225805,0.45162495,0.72112729,1.03954947
55047,0,USWisconsinGreenLake,Wisconsin,Green Lake,2021-04-04 01:47:00.487635,2020-12-08 00:00:00.000000,5.29943929,7.73498442,11.39794212,1002,1462,2155,563,888,1615,2.97830456,4.70013980,8.54156652,0.45533986,0.72458942,1.06406127
55047,0,USWisconsinGreenLake,Wisconsin,Green Lake,2021-04-04 01:47:00.487635,2020-12-09 00:00:00.000000,5.24533692,7.57657600,11.12541252,992,1432,2104,558,868,1585,2.95414115,4.59136550,8.38247500,0.45985160,0.73025930,1.19811018
55047,0,USWisconsinGreenLake,Wisconsin,Green Lake,2021-04-04 01:47:00.487635,2020-12-10 00:00:00.000000,5.19327204,7.48512501,10.90890541,982,1415,2063,554,846,1555,2.92949647,4.47622846,8.22493665,0.46484684,0.73829879,1.20767358
55047,0,USWisconsinGreenLake,Wisconsin,Green Lake,2021-04-04 01:47:00.487635,2020-12-11 00:00:00.000000,5.14308720,7.37039996,10.69955555,972,1393,2023,549,830,1526,2.90405507,4.39091676,8.06904935,0.46301959,0.75871469,1.21148185
55047,0,USWisconsinGreenLake,Wisconsin,Green Lake,2021-04-04 01:47:00.487635,2020-12-12 00:00:00.000000,5.09348753,7.22240285,10.51439336,963,1365,1988,541,813,1497,2.86103706,4.29993276,7.91579738,0.46025316,0.76432450,1.21053033
55047,0,USWisconsinGreenLake,Wisconsin,Green Lake,2021-04-04 01:47:00.487635,2020-12-13 00:00:00.000000,5.04329111,7.06618115,10.36986673,953,1336,1961,529,800,1469,2.80116882,4.23079667,7.76942787,0.45761202,0.78076819,1.17385154
55047,0,USWisconsinGreenLake,Wisconsin,Green Lake,2021-04-04 01:47:00.487635,2020-12-14 00:00:00.000000,4.96872286,6.95822216,10.25502210,939,1316,1939,512,788,1444,2.71119610,4.16708451,7.63634418,0.45448186,0.78870728,1.13748642
55047,0,USWisconsinGreenLake,Wisconsin,Green Lake,2021-04-04 01:47:00.487635,2020-12-15 00:00:00.000000,4.86695205,6.80225701,10.14325805,920,1286,1918,497,771,1418,2.62871637,4.08093132,7.49962944,0.45203709,0.77816006,1.14025525
55047,0,USWisconsinGreenLake,Wisconsin,Green Lake,2021-04-04 01:47:00.487635,2020-12-16 00:00:00.000000,4.78312518,6.65876607,10.02941580,904,1259,1896,491,758,1390,2.59721979,4.01294849,7.35088409,0.45016631,0.77379067,1.18831917
55047,0,USWisconsinGreenLake,Wisconsin,Green Lake,2021-04-04 01:47:00.487635,2020-12-17 00:00:00.000000,4.69526236,6.53357770,9.90802595,888,1235,1873,484,751,1362,2.56286349,3.97229403,7.20583039,0.44853855,0.78459120,1.21321896
55047,0,USWisconsinGreenLake,Wisconsin,Green Lake,2021-04-04 01:47:00.487635,2020-12-18 00:00:00.000000,4.60350473,6.40236097,9.76001342,870,1210,1845,474,741,1335,2.50786093,3.92118075,7.06267870,0.44596808,0.79833567,1.25836920
55047,0,USWisconsinGreenLake,Wisconsin,Green Lake,2021-04-04 01:47:00.487635,2020-12-19 00:00:00.000000,4.50663336,6.25044483,9.58848996,852,1182,1813,462,730,1308,2.44553026,3.86190919,6.91990298,0.44214848,0.80135103,1.29154362
55047,0,USWisconsinGreenLake,Wisconsin,Green Lake,2021-04-04 01:47:00.487635,2020-12-20 00:00:00.000000,4.35623368,6.12988023,9.41154416,823,1159,1780,450,718,1281,2.38266797,3.79966238,6.77620042,0.43687171,0.79171703,1.35403381
55047,0,USWisconsinGreenLake,Wisconsin,Green Lake,2021-04-04 01:47:00.487635,2020-12-21 00:00:00.000000,4.20291081,5.94967415,9.20837016,794,1125,1741,438,703,1254,2.31947024,3.71880737,6.63044073,0.43016379,0.79667976,1.35974044
55047,0,USWisconsinGreenLake,Wisconsin,Green Lake,2021-04-04 01:47:00.487635,2020-12-22 00:00:00.000000,4.05291911,5.79786038,8.95670015,766,1096,1693,427,684,1225,2.25783069,3.61829417,6.48090535,0.42377905,0.79238270,1.36145858
55047,0,USWisconsinGreenLake,Wisconsin,Green Lake,2021-04-04 01:47:00.487635,2020-12-23 00:00:00.000000,3.91368862,5.63441930,8.70073403,740,1065,1645,415,664,1196,2.19726987,3.51384123,6.32735151,0.42011711,0.79946661,1.36412206
55047,0,USWisconsinGreenLake,Wisconsin,Green Lake,2021-04-04 01:47:00.487635,2020-12-24 00:00:00.000000,3.80411773,5.49086264,8.44382040,719,1038,1596,404,644,1166,2.13751545,3.40696773,6.17014851,0.42192102,0.81705678,1.34224770
55047,0,USWisconsinGreenLake,Wisconsin,Green Lake,2021-04-04 01:47:00.487635,2020-12-25 00:00:00.000000,3.66954152,5.35721383,8.18939850,694,1013,1548,393,625,1136,2.07842951,3.30704080,6.01013516,0.43278642,0.81548891,1.34470509
55047,0,USWisconsinGreenLake,Wisconsin,Green Lake,2021-04-04 01:47:00.487635,2020-12-26 00:00:00.000000,3.54387045,5.21033162,7.94335567,670,985,1502,382,609,1106,2.01996037,3.22458895,5.84853239,0.44073891,0.82213007,1.35467986
55047,0,USWisconsinGreenLake,Wisconsin,Green Lake,2021-04-04 01:47:00.487635,2020-12-27 00:00:00.000000,3.42277909,5.06120207,7.71105996,647,957,1458,371,590,1075,1.96232923,3.12474194,5.68748034,0.43849386,0.84228953,1.37772999
55047,0,USWisconsinGreenLake,Wisconsin,Green Lake,2021-04-04 01:47:00.487635,2020-12-28 00:00:00.000000,3.33815456,4.91599095,7.53122906,631,929,1424,360,572,1045,1.90537609,3.02545395,5.52917510,0.41941510,0.84659221,1.34359841
55047,0,USWisconsinGreenLake,Wisconsin,Green Lake,2021-04-04 01:47:00.487635,2020-12-29 00:00:00.000000,3.24398937,4.78309689,7.35525655,613,904,1391,349,556,1017,1.84969939,2.94311695,5.38173033,0.41433410,0.85978259,1.32175892
55047,0,USWisconsinGreenLake,Wisconsin,Green Lake,2021-04-04 01:47:00.487635,2020-12-30 00:00:00.000000,3.14708677,4.66134812,7.18321567,595,881,1358,334,541,991,1.76714184,2.86512396,5.24289509,0.42725597,0.86077856,1.39181672
55047,0,USWisconsinGreenLake,Wisconsin,Green Lake,2021-04-04 01:47:00.487635,2020-12-31 00:00:00.000000,3.04248845,4.54953580,7.00611985,575,860,1325,319,528,966,1.69157754,2.79633313,5.11092890,0.44466321,0.86727992,1.39295943
55047,0,USWisconsinGreenLake,Wisconsin,Green Lake,2021-04-04 01:47:00.487635,2021-01-01 00:00:00.000000,2.92374859,4.44500384,6.80060624,552,840,1286,312,515,942,1.65001243,2.72555802,4.98460041,0.44327518,0.89770885,1.45523452
55047,0,USWisconsinGreenLake,Wisconsin,Green Lake,2021-04-04 01:47:00.487635,2021-01-02 00:00:00.000000,2.80052864,4.31651433,6.60255241,529,816,1248,304,498,919,1.61018741,2.63522574,4.86338494,0.44303494,0.92147602,1.54262075
55047,0,USWisconsinGreenLake,Wisconsin,Green Lake,2021-04-04 01:47:00.487635,2021-01-03 00:00:00.000000,2.67856293,4.19291864,6.41233184,506,793,1212,297,482,898,1.57235585,2.54984443,4.74820776,0.44306199,0.91533545,1.62597146
55047,0,USWisconsinGreenLake,Wisconsin,Green Lake,2021-04-04 01:47:00.487635,2021-01-04 00:00:00.000000,2.56674160,4.07286511,6.21147041,485,770,1174,290,467,877,1.53509426,2.47182415,4.64019020,0.44316663,0.91489695,1.66532133
55047,0,USWisconsinGreenLake,Wisconsin,Green Lake,2021-04-04 01:47:00.487635,2021-01-05 00:00:00.000000,2.45839493,3.94972604,6.01704292,464,747,1138,278,455,856,1.47441433,2.40978268,4.53124062,0.44339172,0.91733048,1.63681980
55047,0,USWisconsinGreenLake,Wisconsin,Green Lake,2021-04-04 01:47:00.487635,2021-01-06 00:00:00.000000,2.38293286,3.80363639,5.82877807,450,719,1102,267,443,836,1.41337966,2.34657580,4.42191965,0.44436695,0.91925485,1.60018354
55047,0,USWisconsinGreenLake,Wisconsin,Green Lake,2021-04-04 01:47:00.487635,2021-01-07 00:00:00.000000,2.33628972,3.67540405,5.64661462,441,695,1067,256,431,815,1.35430050,2.28401572,4.31254450,0.45008966,0.92494750,1.53498555
55047,0,USWisconsinGreenLake,Wisconsin,Green Lake,2021-04-04 01:47:00.487635,2021-01-08 00:00:00.000000,2.29145866,3.55456081,5.52959695,433,672,1045,245,421,794,1.29726281,2.22749346,4.20323363,0.46440401,0.93327772,1.50145771
55047,0,USWisconsinGreenLake,Wisconsin,Green Lake,2021-04-04 01:47:00.487635,2021-01-09 00:00:00.000000,2.24800527,3.43464114,5.42405897,425,649,1025,236,408,774,1.25237589,2.16016166,4.09349574,0.46506943,0.94134467,1.45828287
55047,0,USWisconsinGreenLake,Wisconsin,Green Lake,2021-04-04 01:47:00.487635,2021-01-10 00:00:00.000000,2.20569560,3.32705135,5.32535933,417,629,1007,231,393,753,1.22166080,2.08283560,3.98424625,0.46636225,0.94260319,1.49074288
55047,0,USWisconsinGreenLake,Wisconsin,Green Lake,2021-04-04 01:47:00.487635,2021-01-11 00:00:00.000000,2.11724406,3.21238047,5.23991956,400,607,991,221,379,732,1.17143768,2.00781549,3.87558776,0.46089273,0.92846190,1.50923187
55047,0,USWisconsinGreenLake,Wisconsin,Green Lake,2021-04-04 01:47:00.487635,2021-01-12 00:00:00.000000,2.02975751,3.11261685,5.13271072,383,588,970,213,365,713,1.12799291,1.93514555,3.77068421,0.45991109,0.92224717,1.50501863
55047,0,USWisconsinGreenLake,Wisconsin,Green Lake,2021-04-04 01:47:00.487635,2021-01-13 00:00:00.000000,1.94259529,3.01789114,4.99483597,367,570,944,206,353,693,1.08950869,1.87108153,3.66883508,0.45983834,0.92304790,1.48443991
55047,0,USWisconsinGreenLake,Wisconsin,Green Lake,2021-04-04 01:47:00.487635,2021-01-14 00:00:00.000000,1.85659243,2.91085622,4.85886219,351,550,918,199,346,675,1.05496439,1.83290446,3.56954483,0.45987799,0.91530925,1.47144633
55047,0,USWisconsinGreenLake,Wisconsin,Green Lake,2021-04-04 01:47:00.487635,2021-01-15 00:00:00.000000,1.77275848,2.80204248,4.72503058,335,529,893,193,337,656,1.02353190,1.78197181,3.47248101,0.44963799,0.90989370,1.47177630
55047,0,USWisconsinGreenLake,Wisconsin,Green Lake,2021-04-04 01:47:00.487635,2021-01-16 00:00:00.000000,1.69152837,2.69540085,4.59368656,319,509,868,186,327,638,0.98477060,1.72933642,3.37744800,0.43112594,0.90410268,1.46954602
55047,0,USWisconsinGreenLake,Wisconsin,Green Lake,2021-04-04 01:47:00.487635,2021-01-17 00:00:00.000000,1.61317744,2.59122012,4.46515761,305,490,844,178,317,623,0.94207224,1.67745449,3.29429211,0.41157619,0.89331320,1.44862041
55047,0,USWisconsinGreenLake,Wisconsin,Green Lake,2021-04-04 01:47:00.487635,2021-01-18 00:00:00.000000,1.55846935,2.48134804,4.32316936,294,469,817,170,306,611,0.90209811,1.61838920,3.23513314,0.40890890,0.88552828,1.36050293
55047,0,USWisconsinGreenLake,Wisconsin,Green Lake,2021-04-04 01:47:00.487635,2021-01-19 00:00:00.000000,1.51142686,2.37378345,4.18434694,285,448,791,162,296,600,0.86131482,1.56580162,3.17485033,0.40834196,0.87152345,1.36821675
55047,0,USWisconsinGreenLake,Wisconsin,Green Lake,2021-04-04 01:47:00.487635,2021-01-20 00:00:00.000000,1.46494218,2.28263503,4.04825780,277,431,765,155,286,580,0.82399285,1.51482337,3.06902182,0.40750709,0.85984902,1.39309882
55047,0,USWisconsinGreenLake,Wisconsin,Green Lake,2021-04-04 01:47:00.487635,2021-01-21 00:00:00.000000,1.41932187,2.19473418,3.91507221,268,415,740,149,277,560,0.78858254,1.46496524,2.96613174,0.40565055,0.85632438,1.42954267
55047,0,USWisconsinGreenLake,Wisconsin,Green Lake,2021-04-04 01:47:00.487635,2021-01-22 00:00:00.000000,1.37475881,2.12259838,3.78511257,260,401,715,142,264,542,0.75494202,1.39753386,2.86626211,0.40104796,0.84933690,1.47862835
55047,0,USWisconsinGreenLake,Wisconsin,Green Lake,2021-04-04 01:47:00.487635,2021-01-23 00:00:00.000000,1.33137138,2.03703105,3.65852272,251,385,691,136,253,523,0.72292656,1.33984669,2.76929074,0.37953644,0.83583930,1.51211234
55047,0,USWisconsinGreenLake,Wisconsin,Green Lake,2021-04-04 01:47:00.487635,2021-01-24 00:00:00.000000,1.27504160,1.93521885,3.53532245,241,366,668,130,244,505,0.69158272,1.29248901,2.67512986,0.37628113,0.79035742,1.48004733
55047,0,USWisconsinGreenLake,Wisconsin,Green Lake,2021-04-04 01:47:00.487635,2021-01-25 00:00:00.000000,1.20876055,1.85339819,3.41771492,228,350,646,125,233,488,0.66092496,1.23686147,2.58375974,0.37380925,0.79550446,1.50560098
55047,0,USWisconsinGreenLake,Wisconsin,Green Lake,2021-04-04 01:47:00.487635,2021-01-26 00:00:00.000000,1.14544732,1.77333585,3.30304563,216,335,624,119,224,471,0.63065646,1.18710519,2.49334774,0.36449091,0.78559472,1.61810171
55047,0,USWisconsinGreenLake,Wisconsin,Green Lake,2021-04-04 01:47:00.487635,2021-01-27 00:00:00.000000,1.08493137,1.69795086,3.19052595,205,321,603,113,215,454,0.60093542,1.13835759,2.40555185,0.33817914,0.77257363,1.62392494
55047,0,USWisconsinGreenLake,Wisconsin,Green Lake,2021-04-04 01:47:00.487635,2021-01-28 00:00:00.000000,1.04150582,1.62930597,3.07875555,196,308,582,110,204,440,0.58394218,1.08185398,2.33020271,0.30720262,0.76728937,1.62022367
55047,0,USWisconsinGreenLake,Wisconsin,Green Lake,2021-04-04 01:47:00.487635,2021-01-29 00:00:00.000000,1.01646276,1.54995814,2.96658834,192,293,561,107,196,428,0.56987967,1.04144693,2.26552369,0.29872041,0.76273600,1.59816584
55047,0,USWisconsinGreenLake,Wisconsin,Green Lake,2021-04-04 01:47:00.487635,2021-01-30 00:00:00.000000,0.95791243,1.47653396,2.85454413,181,279,539,105,189,416,0.55718346,1.00085963,2.19997159,0.28786971,0.74474223,1.53310374
55047,0,USWisconsinGreenLake,Wisconsin,Green Lake,2021-04-04 01:47:00.487635,2021-01-31 00:00:00.000000,0.90276074,1.41092686,2.74422830,170,266,519,101,181,403,0.53823986,0.95767030,2.13345266,0.28327585,0.72371112,1.54569920
55047,0,USWisconsinGreenLake,Wisconsin,Green Lake,2021-04-04 01:47:00.487635,2021-02-01 00:00:00.000000,0.83762473,1.35220880,2.63198075,158,255,497,96,173,390,0.50797963,0.91776492,2.06626283,0.28127066,0.71560769,1.55599548
55047,0,USWisconsinGreenLake,Wisconsin,Green Lake,2021-04-04 01:47:00.487635,2021-02-02 00:00:00.000000,0.77606442,1.28732562,2.52336986,146,243,477,90,165,378,0.47815049,0.87258137,1.99977372,0.28046096,0.69777042,1.56086567
55047,0,USWisconsinGreenLake,Wisconsin,Green Lake,2021-04-04 01:47:00.487635,2021-02-03 00:00:00.000000,0.71800537,1.21256360,2.42195955,135,229,458,84,157,365,0.44898369,0.83098227,1.93431040,0.27848412,0.69239179,1.56254528
55047,0,USWisconsinGreenLake,Wisconsin,Green Lake,2021-04-04 01:47:00.487635,2021-02-04 00:00:00.000000,0.66406485,1.15650724,2.33775397,125,218,442,79,149,355,0.42087392,0.79100720,1.87724767,0.27096800,0.68799436,1.56317464
55047,0,USWisconsinGreenLake,Wisconsin,Green Lake,2021-04-04 01:47:00.487635,2021-02-05 00:00:00.000000,0.61601328,1.11439335,2.25542384,116,210,426,74,142,345,0.39409878,0.75274403,1.82622651,0.25760511,0.68421513,1.58580263
55047,0,USWisconsinGreenLake,Wisconsin,Green Lake,2021-04-04 01:47:00.487635,2021-02-06 00:00:00.000000,0.57565478,1.07583264,2.17430083,108,203,411,69,135,335,0.36882024,0.71672056,1.77592025,0.23306841,0.66578370,1.64123025
55047,0,USWisconsinGreenLake,Wisconsin,Green Lake,2021-04-04 01:47:00.487635,2021-02-07 00:00:00.000000,0.53823500,1.03714942,2.09400287,101,196,396,65,129,326,0.34511228,0.68658634,1.72540416,0.21533780,0.66031417,1.68153959
55047,0,USWisconsinGreenLake,Wisconsin,Green Lake,2021-04-04 01:47:00.487635,2021-02-08 00:00:00.000000,0.50370125,0.99064560,2.01431618,95,187,380,61,124,316,0.32274946,0.65618720,1.67480387,0.20852036,0.65486471,1.70873140
55047,0,USWisconsinGreenLake,Wisconsin,Green Lake,2021-04-04 01:47:00.487635,2021-02-09 00:00:00.000000,0.47441432,0.94257554,1.94382261,89,178,367,57,119,307,0.30187679,0.63419628,1.62330859,0.20425581,0.65481025,1.72231441
55047,0,USWisconsinGreenLake,Wisconsin,Green Lake,2021-04-04 01:47:00.487635,2021-02-10 00:00:00.000000,0.45437122,0.89691953,1.87862989,85,169,355,53,114,297,0.28243129,0.60484594,1.57180057,0.19833353,0.65014248,1.72239773
55047,0,USWisconsinGreenLake,Wisconsin,Green Lake,2021-04-04 01:47:00.487635,2021-02-11 00:00:00.000000,0.43692425,0.85795095,1.81467182,82,162,343,50,108,287,0.26667661,0.57517199,1.52077523,0.19290070,0.64389103,1.72149246
55047,0,USWisconsinGreenLake,Wisconsin,Green Lake,2021-04-04 01:47:00.487635,2021-02-12 00:00:00.000000,0.42171969,0.81681331,1.75172749,79,154,331,47,103,276,0.25368462,0.54670052,1.46020636,0.19028666,0.63520463,1.71854959
55047,0,USWisconsinGreenLake,Wisconsin,Green Lake,2021-04-04 01:47:00.487635,2021-02-13 00:00:00.000000,0.40839288,0.77170606,1.68956789,77,145,319,45,98,264,0.24253685,0.52144313,1.39715865,0.18931228,0.61344448,1.70475450
55047,0,USWisconsinGreenLake,Wisconsin,Green Lake,2021-04-04 01:47:00.487635,2021-02-14 00:00:00.000000,0.39660335,0.74125285,1.62812970,75,140,307,44,94,252,0.23291417,0.49955133,1.33619591,0.18891179,0.60926042,1.64298120
55047,0,USWisconsinGreenLake,Wisconsin,Green Lake,2021-04-04 01:47:00.487635,2021-02-15 00:00:00.000000,0.37483163,0.71501961,1.57050672,70,135,297,42,89,241,0.22455018,0.47569217,1.27737683,0.18804094,0.59513014,1.60641642
55047,0,USWisconsinGreenLake,Wisconsin,Green Lake,2021-04-04 01:47:00.487635,2021-02-16 00:00:00.000000,0.35413705,0.68006475,1.51410680,66,128,286,40,85,230,0.21505572,0.45332832,1.22056364,0.18223789,0.58046424,1.62412793
55047,0,USWisconsinGreenLake,Wisconsin,Green Lake,2021-04-04 01:47:00.487635,2021-02-17 00:00:00.000000,0.33428645,0.64624099,1.45929402,63,122,275,38,81,220,0.20498528,0.43260056,1.16555950,0.18029763,0.57856964,1.61522008
55047,0,USWisconsinGreenLake,Wisconsin,Green Lake,2021-04-04 01:47:00.487635,2021-02-18 00:00:00.000000,0.31541622,0.61678174,1.40616725,59,116,265,36,78,210,0.19472771,0.41405577,1.11251132,0.17975411,0.57507735,1.60834663
55047,0,USWisconsinGreenLake,Wisconsin,Green Lake,2021-04-04 01:47:00.487635,2021-02-19 00:00:00.000000,0.29759208,0.59093569,1.35165271,56,111,255,34,75,200,0.18455174,0.39810916,1.06161201,0.17984670,0.57558990,1.60853061
55047,0,USWisconsinGreenLake,Wisconsin,Green Lake,2021-04-04 01:47:00.487635,2021-02-20 00:00:00.000000,0.28079424,0.56641460,1.29026150,53,107,244,33,72,192,0.17463740,0.38228510,1.01781995,0.18091585,0.58697580,1.60771319
55047,0,USWisconsinGreenLake,Wisconsin,Green Lake,2021-04-04 01:47:00.487635,2021-02-21 00:00:00.000000,0.26493787,0.54867193,1.24383091,50,103,235,31,69,185,0.16509279,0.36661123,0.97916347,0.18404937,0.58969657,1.60437874
55047,0,USWisconsinGreenLake,Wisconsin,Green Lake,2021-04-04 01:47:00.487635,2021-02-22 00:00:00.000000,0.25097317,0.52549851,1.20805755,47,99,228,29,66,178,0.15596825,0.35220608,0.94243899,0.18667743,0.58248467,1.59380843
55047,0,USWisconsinGreenLake,Wisconsin,Green Lake,2021-04-04 01:47:00.487635,2021-02-23 00:00:00.000000,0.23811046,0.50683323,1.16096898,45,95,219,27,64,171,0.14747488,0.34037673,0.90738710,0.18752960,0.58752418,1.56679090
55047,0,USWisconsinGreenLake,Wisconsin,Green Lake,2021-04-04 01:47:00.487635,2021-02-24 00:00:00.000000,0.22655047,0.48929164,1.11533027,42,92,210,26,61,165,0.13960245,0.32591482,0.87395389,0.18629022,0.58366271,1.52229266
55047,0,USWisconsinGreenLake,Wisconsin,Green Lake,2021-04-04 01:47:00.487635,2021-02-25 00:00:00.000000,0.21638980,0.47344790,1.07131623,40,89,202,25,59,159,0.13237689,0.31325862,0.84205834,0.17915852,0.58213211,1.48376470
55047,0,USWisconsinGreenLake,Wisconsin,Green Lake,2021-04-04 01:47:00.487635,2021-02-26 00:00:00.000000,0.20727929,0.46117952,1.02901005,39,87,194,23,56,155,0.12583423,0.30060931,0.82231428,0.17660442,0.57333874,1.46532258
55047,0,USWisconsinGreenLake,Wisconsin,Green Lake,2021-04-04 01:47:00.487635,2021-02-27 00:00:00.000000,0.19897575,0.45251696,0.98839855,37,85,186,22,54,152,0.11993020,0.29026794,0.80409597,0.17622863,0.56618535,1.46068621
55047,0,USWisconsinGreenLake,Wisconsin,Green Lake,2021-04-04 01:47:00.487635,2021-02-28 00:00:00.000000,0.19136426,0.43744351,0.94939347,36,82,179,21,53,148,0.11458724,0.28246540,0.78699047,0.17617448,0.56133851,1.46178220
55047,0,USWisconsinGreenLake,Wisconsin,Green Lake,2021-04-04 01:47:00.487635,2021-03-01 00:00:00.000000,0.19159066,0.42932030,0.91881005,36,81,173,20,52,145,0.10973261,0.27511971,0.77082909,0.17614611,0.55311958,1.45748235
55047,0,USWisconsinGreenLake,Wisconsin,Green Lake,2021-04-04 01:47:00.487635,2021-03-02 00:00:00.000000,0.18889392,0.41280161,0.88970886,35,78,168,20,50,141,0.10670138,0.26467433,0.74884951,0.17607751,0.55943451,1.43971075
55047,0,USWisconsinGreenLake,Wisconsin,Green Lake,2021-04-04 01:47:00.487635,2021-03-03 00:00:00.000000,0.17845532,0.39719598,0.86214684,33,75,163,19,48,136,0.10497115,0.25631314,0.72314791,0.17587694,0.56036633,1.40978647
55047,0,USWisconsinGreenLake,Wisconsin,Green Lake,2021-04-04 01:47:00.487635,2021-03-04 00:00:00.000000,0.16894490,0.38534091,0.83587685,31,72,158,19,47,132,0.10152299,0.24916239,0.69934026,0.16733495,0.56643103,1.40338739
55047,0,USWisconsinGreenLake,Wisconsin,Green Lake,2021-04-04 01:47:00.487635,2021-03-05 00:00:00.000000,0.16030406,0.37483314,0.81035859,30,70,153,18,45,128,0.09819991,0.24209796,0.67702334,0.16795602,0.56690303,1.40577926
55047,0,USWisconsinGreenLake,Wisconsin,Green Lake,2021-04-04 01:47:00.487635,2021-03-06 00:00:00.000000,0.15837235,0.36259295,0.78591705,29,68,148,18,44,124,0.09542367,0.23675972,0.65593175,0.16975807,0.56781610,1.40831470
55047,0,USWisconsinGreenLake,Wisconsin,Green Lake,2021-04-04 01:47:00.487635,2021-03-07 00:00:00.000000,0.15677051,0.35124436,0.76247257,29,66,144,17,43,120,0.09313040,0.22960665,0.63588337,0.16397601,0.55798698,1.40996210
55047,0,USWisconsinGreenLake,Wisconsin,Green Lake,2021-04-04 01:47:00.487635,2021-03-08 00:00:00.000000,0.15892124,0.34258530,0.72935166,30,64,137,17,42,116,0.09122487,0.22289093,0.61675416,0.16141104,0.55347252,1.41046997
55047,0,USWisconsinGreenLake,Wisconsin,Green Lake,2021-04-04 01:47:00.487635,2021-03-09 00:00:00.000000,0.16118009,0.33994348,0.69719282,30,64,131,17,41,112,0.09150899,0.21869888,0.59474460,0.16153541,0.55372695,1.41000838
55047,0,USWisconsinGreenLake,Wisconsin,Green Lake,2021-04-04 01:47:00.487635,2021-03-10 00:00:00.000000,0.16359394,0.33559579,0.66592191,30,63,125,16,40,108,0.08849036,0.21422532,0.57140050,0.16190254,0.55320279,1.40951626
55047,0,USWisconsinGreenLake,Wisconsin,Green Lake,2021-04-04 01:47:00.487635,2021-03-11 00:00:00.000000,0.16606509,0.33122769,0.63579622,31,62,120,16,39,103,0.08771185,0.20868163,0.54765099,0.16250193,0.55834319,1.40934150
55047,0,USWisconsinGreenLake,Wisconsin,Green Lake,2021-04-04 01:47:00.487635,2021-03-12 00:00:00.000000,0.16722170,0.33099911,0.60699205,31,62,114,16,38,99,0.08544702,0.20530524,0.52397919,0.16325010,0.55908270,1.44861662
55047,0,USWisconsinGreenLake,Wisconsin,Green Lake,2021-04-04 01:47:00.487635,2021-03-13 00:00:00.000000,0.16181921,0.32705176,0.59157642,30,61,111,15,38,94,0.08306424,0.20143365,0.50089574,0.16397597,0.56125328,1.54286304
55047,0,USWisconsinGreenLake,Wisconsin,Green Lake,2021-04-04 01:47:00.487635,2021-03-14 00:00:00.000000,0.15689942,0.31984255,0.58286549,29,60,110,15,37,90,0.08167196,0.19793995,0.47858924,0.16453959,0.56174036,1.54474184
55047,0,USWisconsinGreenLake,Wisconsin,Green Lake,2021-04-04 01:47:00.487635,2021-03-15 00:00:00.000000,0.16762347,0.31632231,0.56552705,31,59,106,15,37,86,0.08203683,0.19642953,0.45714410,0.16623035,0.55561396,1.54526778
55047,0,USWisconsinGreenLake,Wisconsin,Green Lake,2021-04-04 01:47:00.487635,2021-03-16 00:00:00.000000,0.16653612,0.31377778,0.55936666,31,59,105,16,36,83,0.08469635,0.19364099,0.44260391,0.16785402,0.56255305,1.54544710
55047,0,USWisconsinGreenLake,Wisconsin,Green Lake,2021-04-04 01:47:00.487635,2021-03-17 00:00:00.000000,0.17252869,0.30450484,0.55505790,32,57,104,16,35,81,0.08663238,0.19006784,0.43227371,0.16515842,0.57527375,1.75729198
55047,0,USWisconsinGreenLake,Wisconsin,Green Lake,2021-04-04 01:47:00.487635,2021-03-18 00:00:00.000000,0.17603797,0.30103855,0.55122036,33,56,104,16,35,80,0.08632998,0.18669491,0.42432894,0.16271636,0.59019769,1.82028665
55047,0,USWisconsinGreenLake,Wisconsin,Green Lake,2021-04-04 01:47:00.487635,2021-03-19 00:00:00.000000,0.17916475,0.30759854,0.54774984,33,58,103,16,35,78,0.08658481,0.18596143,0.41770075,0.17183046,0.60288313,1.93387035
55047,0,USWisconsinGreenLake,Wisconsin,Green Lake,2021-04-04 01:47:00.487635,2021-03-20 00:00:00.000000,0.18233447,0.31170448,0.54457305,34,58,102,16,34,77,0.08734466,0.18083802,0.41188543,0.17897639,0.61033803,2.07511227
55047,0,USWisconsinGreenLake,Wisconsin,Green Lake,2021-04-04 01:47:00.487635,2021-03-21 00:00:00.000000,0.18540265,0.30282119,0.54163817,35,57,102,16,33,76,0.08847840,0.17733814,0.40663419,0.18764627,0.60173506,2.15808281
55047,0,USWisconsinGreenLake,Wisconsin,Green Lake,2021-04-04 01:47:00.487635,2021-03-22 00:00:00.000000,0.17988494,0.30856411,0.56112186,34,58,106,16,33,75,0.08978863,0.17472006,0.40181670,0.18945489,0.60874829,2.18717021
55047,0,USWisconsinGreenLake,Wisconsin,Green Lake,2021-04-04 01:47:00.487635,2021-03-23 00:00:00.000000,0.17319560,0.30722364,0.55395194,32,58,104,17,33,74,0.09056150,0.17478078,0.39250280,0.18927336,0.60531091,2.19555972
55047,0,USWisconsinGreenLake,Wisconsin,Green Lake,2021-04-04 01:47:00.487635,2021-03-24 00:00:00.000000,0.17361070,0.30183088,0.54401089,32,57,102,17,32,72,0.09092719,0.17191732,0.38074387,0.18915253,0.60080332,2.19810451
55047,0,USWisconsinGreenLake,Wisconsin,Green Lake,2021-04-04 01:47:00.487635,2021-03-25 00:00:00.000000,0.17705439,0.30174204,0.53410674,33,57,101,17,32,74,0.09098753,0.17155334,0.39427229,0.18920339,0.60278826,2.20039966
55047,0,USWisconsinGreenLake,Wisconsin,Green Lake,2021-04-04 01:47:00.487635,2021-03-26 00:00:00.000000,0.17679259,0.30032349,0.52470456,33,56,99,17,32,75,0.09061490,0.17362598,0.39969008,0.18951367,0.59493333,2.24765824
55047,0,USWisconsinGreenLake,Wisconsin,Green Lake,2021-04-04 01:47:00.487635,2021-03-27 00:00:00.000000,0.17252672,0.29769272,0.52644681,32,56,99,16,33,74,0.08749404,0.17623550,0.39168090,0.19013221,0.59130406,2.35561365
55047,0,USWisconsinGreenLake,Wisconsin,Green Lake,2021-04-04 01:47:00.487635,2021-03-28 00:00:00.000000,0.16792970,0.29632387,0.53432983,31,56,101,16,33,72,0.08910442,0.17449974,0.38392042,0.19114353,0.61054936,2.36288790
55047,0,USWisconsinGreenLake,Wisconsin,Green Lake,2021-04-04 01:47:00.487635,2021-03-29 00:00:00.000000,0.15812171,0.28215037,0.51378531,29,53,97,16,32,71,0.08899633,0.17317967,0.37661670,0.19235844,0.61407273,2.36361057
55047,0,USWisconsinGreenLake,Wisconsin,Green Lake,2021-04-04 01:47:00.487635,2021-03-30 00:00:00.000000,0.14856066,0.26665454,0.49266396,28,50,93,15,31,69,0.08354503,0.16804304,0.36718417,0.18830614,0.61666534,2.36402244
55047,0,USWisconsinGreenLake,Wisconsin,Green Lake,2021-04-04 01:47:00.487635,2021-03-31 00:00:00.000000,0.13923819,0.25014395,0.47094859,26,47,89,14,30,67,0.07796655,0.16111739,0.35850763,0.19133309,0.61032183,2.36432388
55047,0,USWisconsinGreenLake,Wisconsin,Green Lake,2021-04-04 01:47:00.487635,2021-04-01 00:00:00.000000,0.13018209,0.23383618,0.44926135,24,44,84,13,29,66,0.07241712,0.15560271,0.34897966,0.19329862,0.60137387,2.36474913
55047,0,USWisconsinGreenLake,Wisconsin,Green Lake,2021-04-04 01:47:00.487635,2021-04-02 00:00:00.000000,0.12136485,0.21835385,0.42800380,22,41,80,12,28,63,0.06700135,0.14853780,0.33743129,0.19403889,0.61767436,2.36614096
55047,0,USWisconsinGreenLake,Wisconsin,Green Lake,2021-04-04 01:47:00.487635,2021-04-03 00:00:00.000000,0.11280479,0.20470525,0.40742182,21,38,77,11,26,61,0.06178565,0.14005512,0.32471040,0.19420473,0.60519464,2.37203639
55047,0,USWisconsinGreenLake,Wisconsin,Green Lake,2021-04-04 01:47:00.487635,2021-04-04 00:00:00.000000,0.10458893,0.19071811,0.38765411,19,36,73,10,25,58,0.05681195,0.13234921,0.31141223,0.19614628,0.61583082,2.39590609
55047,0,USWisconsinGreenLake,Wisconsin,Green Lake,2021-04-04 01:47:00.487635,2021-04-05 00:00:00.000000,0.09602152,0.17955935,0.36876620,18,33,69,9,23,56,0.05212849,0.12596677,0.29794713,0.19468190,0.60097320,2.46691850
55047,0,USWisconsinGreenLake,Wisconsin,Green Lake,2021-04-04 01:47:00.487635,2021-04-06 00:00:00.000000,0.08806469,0.17003728,0.35077511,16,32,66,9,22,53,0.04860516,0.11786411,0.28459112,0.19424570,0.59592222,2.56872984
55047,0,USWisconsinGreenLake,Wisconsin,Green Lake,2021-04-04 01:47:00.487635,2021-04-07 00:00:00.000000,0.08069990,0.15960025,0.33366770,15,30,63,8,21,51,0.04522273,0.11184268,0.27228783,0.19412096,0.60080784,2.62669160
55047,0,USWisconsinGreenLake,Wisconsin,Green Lake,2021-04-04 01:47:00.487635,2021-04-08 00:00:00.000000,0.07372462,0.14867309,0.32022639,13,28,60,7,20,49,0.04199278,0.10598277,0.26174552,0.19408595,0.59691835,2.64397428
55047,0,USWisconsinGreenLake,Wisconsin,Green Lake,2021-04-04 01:47:00.487635,2021-04-09 00:00:00.000000,0.06645875,0.13913650,0.30801586,12,26,58,7,18,47,0.03892891,0.10007301,0.25169988,0.19407628,0.59160121,2.64799288
55047,0,USWisconsinGreenLake,Wisconsin,Green Lake,2021-04-04 01:47:00.487635,2021-04-10 00:00:00.000000,0.05985583,0.13144418,0.29631515,11,24,56,6,17,45,0.03603818,0.09418179,0.24211019,0.19407366,0.58784337,2.64887621
55047,0,USWisconsinGreenLake,Wisconsin,Green Lake,2021-04-04 01:47:00.487635,2021-04-11 00:00:00.000000,0.05386802,0.12348832,0.28508913,10,23,53,6,16,44,0.03332272,0.08833098,0.23289213,0.19407297,0.58490712,2.64906884
55047,0,USWisconsinGreenLake,Wisconsin,Green Lake,2021-04-04 01:47:00.487635,2021-04-12 00:00:00.000000,0.04844770,0.11536414,0.27135719,9,21,51,5,15,42,0.03078110,0.08266850,0.22399814,0.19407279,0.58252006,2.64911092
55047,0,USWisconsinGreenLake,Wisconsin,Green Lake,2021-04-04 01:47:00.487635,2021-04-13 00:00:00.000000,0.04354848,0.10789413,0.25400450,8,20,48,5,14,40,0.02840923,0.07733541,0.21547525,0.19407275,0.58056154,2.64912016
55047,0,USWisconsinGreenLake,Wisconsin,Green Lake,2021-04-04 01:47:00.487635,2021-04-14 00:00:00.000000,0.03912594,0.10077629,0.24472608,7,19,46,4,13,38,0.02620126,0.07166247,0.20228342,0.19407274,0.57895846,2.64912220
55047,0,USWisconsinGreenLake,Wisconsin,Green Lake,2021-04-04 01:47:00.487635,2021-04-15 00:00:00.000000,0.03513806,0.09412061,0.23664481,6,17,44,4,12,35,0.02415009,0.06749276,0.18952559,0.19407273,0.57765394,2.64912266
55047,0,USWisconsinGreenLake,Wisconsin,Green Lake,2021-04-04 01:47:00.487635,2021-04-16 00:00:00.000000,0.03154548,0.08789738,0.22881841,5,16,43,4,11,33,0.02224790,0.06319083,0.17754191,0.19407273,0.57659897,2.64912277
