FIPS,HR_UID,nameid,province,region,analysisTime,dates,pointprevalence_025,pointprevalence_50,pointprevalence_975,pointinfections_025,pointinfections_50,pointinfections_975,pointinfectious_025,pointinfectious_50,pointinfectious_975,pointinfectiousprevalence_05,pointinfectiousprevalence_50,pointinfectiousprevalence_95,infectrate_025,infectrate_50,infectrate_975
19101,0,USIowaJefferson,Iowa,Jefferson,2021-04-04 11:07:01.862033,2020-03-09 00:00:00.000000,0.00231925,0.01644480,0.05111282,0,3,9,0,1,4,0.00137811,0.00886874,0.02587622,0.40964237,0.51855153,0.70615917
19101,0,USIowaJefferson,Iowa,Jefferson,2021-04-04 11:07:01.862033,2020-03-10 00:00:00.000000,0.00258670,0.01813126,0.05365324,0,3,9,0,1,4,0.00138071,0.00881822,0.02679467,0.40963774,0.51855128,0.70609539
19101,0,USIowaJefferson,Iowa,Jefferson,2021-04-04 11:07:01.862033,2020-03-11 00:00:00.000000,0.00286801,0.02005407,0.05710573,0,3,10,0,1,5,0.00146361,0.00900152,0.02910978,0.40962667,0.51855068,0.70594209
19101,0,USIowaJefferson,Iowa,Jefferson,2021-04-04 11:07:01.862033,2020-03-12 00:00:00.000000,0.00316990,0.02212729,0.06080671,0,4,11,0,1,5,0.00159188,0.00974433,0.03015975,0.40960020,0.51854925,0.70557394
19101,0,USIowaJefferson,Iowa,Jefferson,2021-04-04 11:07:01.862033,2020-03-13 00:00:00.000000,0.00349722,0.02429921,0.06476795,0,4,11,0,1,5,0.00174938,0.01060599,0.03152268,0.40953688,0.51854577,0.70469173
19101,0,USIowaJefferson,Iowa,Jefferson,2021-04-04 11:07:01.862033,2020-03-14 00:00:00.000000,0.00385401,0.02663075,0.06900275,0,4,12,0,2,6,0.00192919,0.01173944,0.03353271,0.40938546,0.51853708,0.70258833
19101,0,USIowaJefferson,Iowa,Jefferson,2021-04-04 11:07:01.862033,2020-03-15 00:00:00.000000,0.00424388,0.02912436,0.07633760,0,5,13,0,2,6,0.00212895,0.01268339,0.03614700,0.40902395,0.51600906,0.69763369
19101,0,USIowaJefferson,Iowa,Jefferson,2021-04-04 11:07:01.862033,2020-03-16 00:00:00.000000,0.00921530,0.03511970,0.09113049,1,6,16,0,2,7,0.00234856,0.01368759,0.03962214,0.40775739,0.51473039,0.68628863
19101,0,USIowaJefferson,Iowa,Jefferson,2021-04-04 11:07:01.862033,2020-03-17 00:00:00.000000,0.01399438,0.04437244,0.10675219,2,8,19,0,3,8,0.00382655,0.01640531,0.04549538,0.38879222,0.51247037,0.68428329
19101,0,USIowaJefferson,Iowa,Jefferson,2021-04-04 11:07:01.862033,2020-03-18 00:00:00.000000,0.01951935,0.05408486,0.12373865,3,9,22,1,3,9,0.00619839,0.02039112,0.05279181,0.36419107,0.50606029,0.68334277
19101,0,USIowaJefferson,Iowa,Jefferson,2021-04-04 11:07:01.862033,2020-03-19 00:00:00.000000,0.02514633,0.06361759,0.14188540,4,11,25,1,4,11,0.00864155,0.02529576,0.06125239,0.32953744,0.49294509,0.68044672
19101,0,USIowaJefferson,Iowa,Jefferson,2021-04-04 11:07:01.862033,2020-03-20 00:00:00.000000,0.02758835,0.07375558,0.15997506,5,13,29,2,5,12,0.01133739,0.03052065,0.07068781,0.31339920,0.46449356,0.67615214
19101,0,USIowaJefferson,Iowa,Jefferson,2021-04-04 11:07:01.862033,2020-03-21 00:00:00.000000,0.03072814,0.08392099,0.17631186,5,15,32,2,6,14,0.01446893,0.03534052,0.07936463,0.30572182,0.43306922,0.66171343
19101,0,USIowaJefferson,Iowa,Jefferson,2021-04-04 11:07:01.862033,2020-03-22 00:00:00.000000,0.03587120,0.09369859,0.19087343,6,17,34,3,7,15,0.01644792,0.04057940,0.08612765,0.28570909,0.40794160,0.60341588
19101,0,USIowaJefferson,Iowa,Jefferson,2021-04-04 11:07:01.862033,2020-03-23 00:00:00.000000,0.04551556,0.10555322,0.21020946,8,19,38,3,8,17,0.01948600,0.04535983,0.09707838,0.27504338,0.38527021,0.50966959
19101,0,USIowaJefferson,Iowa,Jefferson,2021-04-04 11:07:01.862033,2020-03-24 00:00:00.000000,0.05530342,0.11632324,0.22235728,10,21,40,4,9,19,0.02397038,0.05139648,0.10811762,0.27075467,0.37001720,0.48890380
19101,0,USIowaJefferson,Iowa,Jefferson,2021-04-04 11:07:01.862033,2020-03-25 00:00:00.000000,0.06356216,0.12694120,0.23215805,11,23,42,5,10,21,0.02746266,0.05581805,0.11682799,0.24018760,0.36384250,0.47106999
19101,0,USIowaJefferson,Iowa,Jefferson,2021-04-04 11:07:01.862033,2020-03-26 00:00:00.000000,0.07417734,0.13682284,0.25995657,13,25,47,5,11,22,0.03043243,0.06386171,0.12376016,0.22454825,0.34868485,0.45240185
19101,0,USIowaJefferson,Iowa,Jefferson,2021-04-04 11:07:01.862033,2020-03-27 00:00:00.000000,0.08473023,0.14801246,0.27424549,15,27,50,6,12,23,0.03618019,0.06981310,0.13039933,0.21943193,0.33177033,0.44748974
19101,0,USIowaJefferson,Iowa,Jefferson,2021-04-04 11:07:01.862033,2020-03-28 00:00:00.000000,0.09439632,0.16048114,0.29234754,17,29,53,7,13,25,0.04170279,0.07528846,0.13869415,0.21441578,0.31887915,0.43997209
19101,0,USIowaJefferson,Iowa,Jefferson,2021-04-04 11:07:01.862033,2020-03-29 00:00:00.000000,0.09991292,0.16916472,0.30932046,18,30,56,8,15,27,0.04529539,0.08340765,0.14814428,0.20228982,0.31127197,0.41016545
19101,0,USIowaJefferson,Iowa,Jefferson,2021-04-04 11:07:01.862033,2020-03-30 00:00:00.000000,0.10519887,0.17884121,0.31963233,19,32,58,8,16,28,0.04900766,0.08860926,0.15513311,0.19817623,0.29455630,0.40980447
19101,0,USIowaJefferson,Iowa,Jefferson,2021-04-04 11:07:01.862033,2020-03-31 00:00:00.000000,0.10944548,0.18971424,0.32986823,20,34,60,9,17,29,0.05220199,0.09408598,0.16326283,0.19151437,0.28576481,0.40590650
19101,0,USIowaJefferson,Iowa,Jefferson,2021-04-04 11:07:01.862033,2020-04-01 00:00:00.000000,0.11253241,0.20214935,0.33998696,20,36,62,9,18,31,0.05463023,0.10022943,0.17237115,0.18909281,0.28030403,0.39734588
19101,0,USIowaJefferson,Iowa,Jefferson,2021-04-04 11:07:01.862033,2020-04-02 00:00:00.000000,0.11482835,0.20945010,0.35176664,21,38,64,10,19,33,0.05693471,0.10705023,0.18164410,0.19274561,0.26861595,0.39164591
19101,0,USIowaJefferson,Iowa,Jefferson,2021-04-04 11:07:01.862033,2020-04-03 00:00:00.000000,0.11673423,0.21522733,0.36067807,21,39,65,10,20,34,0.05915147,0.11457263,0.19093393,0.18231100,0.25776275,0.37164787
19101,0,USIowaJefferson,Iowa,Jefferson,2021-04-04 11:07:01.862033,2020-04-04 00:00:00.000000,0.11843726,0.22297263,0.37110058,21,40,67,11,22,36,0.06255042,0.12027511,0.20018689,0.16710485,0.25047858,0.36466954
19101,0,USIowaJefferson,Iowa,Jefferson,2021-04-04 11:07:01.862033,2020-04-05 00:00:00.000000,0.12326960,0.23165263,0.38472959,22,42,70,11,23,38,0.06412177,0.12586579,0.20939775,0.15785298,0.24483983,0.34954319
19101,0,USIowaJefferson,Iowa,Jefferson,2021-04-04 11:07:01.862033,2020-04-06 00:00:00.000000,0.14490665,0.24321554,0.39414949,26,44,72,11,24,39,0.06523435,0.13182801,0.21485600,0.15241652,0.23103325,0.34901759
19101,0,USIowaJefferson,Iowa,Jefferson,2021-04-04 11:07:01.862033,2020-04-07 00:00:00.000000,0.15184649,0.25579608,0.39990164,27,46,73,13,25,39,0.07311323,0.13687917,0.21837716,0.14991457,0.22751213,0.34562177
19101,0,USIowaJefferson,Iowa,Jefferson,2021-04-04 11:07:01.862033,2020-04-08 00:00:00.000000,0.15101653,0.26705534,0.40842147,27,48,74,13,25,40,0.07318367,0.14000372,0.22164599,0.14697940,0.21901695,0.34211500
19101,0,USIowaJefferson,Iowa,Jefferson,2021-04-04 11:07:01.862033,2020-04-09 00:00:00.000000,0.15804363,0.27688066,0.41542847,28,50,76,13,26,42,0.07474508,0.14568640,0.22981508,0.14459784,0.21403078,0.33797748
19101,0,USIowaJefferson,Iowa,Jefferson,2021-04-04 11:07:01.862033,2020-04-10 00:00:00.000000,0.16593039,0.28614775,0.42164323,30,52,77,14,27,43,0.07830624,0.15032550,0.23876659,0.13699890,0.21031434,0.31512366
19101,0,USIowaJefferson,Iowa,Jefferson,2021-04-04 11:07:01.862033,2020-04-11 00:00:00.000000,0.17356091,0.29321797,0.44036269,31,53,80,14,28,44,0.08184750,0.15495829,0.24479553,0.13340999,0.20694573,0.30961651
19101,0,USIowaJefferson,Iowa,Jefferson,2021-04-04 11:07:01.862033,2020-04-12 00:00:00.000000,0.17455795,0.29939073,0.48683895,31,54,89,15,28,45,0.08537282,0.15810952,0.24675416,0.12444236,0.20015452,0.30481322
19101,0,USIowaJefferson,Iowa,Jefferson,2021-04-04 11:07:01.862033,2020-04-13 00:00:00.000000,0.18043215,0.30780014,0.49075864,33,56,89,16,29,47,0.08877301,0.16151458,0.25758743,0.12208795,0.19405324,0.29741469
19101,0,USIowaJefferson,Iowa,Jefferson,2021-04-04 11:07:01.862033,2020-04-14 00:00:00.000000,0.18226274,0.31344800,0.49259596,33,57,90,16,30,49,0.09186430,0.16620150,0.26850896,0.12153001,0.19233190,0.28943615
19101,0,USIowaJefferson,Iowa,Jefferson,2021-04-04 11:07:01.862033,2020-04-15 00:00:00.000000,0.18426114,0.30789111,0.49963222,33,56,91,17,30,50,0.09457887,0.16851613,0.27450935,0.12062887,0.18822235,0.28738032
19101,0,USIowaJefferson,Iowa,Jefferson,2021-04-04 11:07:01.862033,2020-04-16 00:00:00.000000,0.18728933,0.32428218,0.51179527,34,59,93,17,31,50,0.09692413,0.17254958,0.27764169,0.12010155,0.18580927,0.28426989
19101,0,USIowaJefferson,Iowa,Jefferson,2021-04-04 11:07:01.862033,2020-04-17 00:00:00.000000,0.18742861,0.33041162,0.52283798,34,60,95,18,32,51,0.09895923,0.17633465,0.27983665,0.11977335,0.18377451,0.28023411
19101,0,USIowaJefferson,Iowa,Jefferson,2021-04-04 11:07:01.862033,2020-04-18 00:00:00.000000,0.18749664,0.33695818,0.51910295,34,61,94,18,33,51,0.10075071,0.18195698,0.28136362,0.11791976,0.18517952,0.28072432
19101,0,USIowaJefferson,Iowa,Jefferson,2021-04-04 11:07:01.862033,2020-04-19 00:00:00.000000,0.18435010,0.34220623,0.52846854,33,62,96,18,34,52,0.10222131,0.18811289,0.28581020,0.11481157,0.17916648,0.27750568
19101,0,USIowaJefferson,Iowa,Jefferson,2021-04-04 11:07:01.862033,2020-04-20 00:00:00.000000,0.17472966,0.34153189,0.52924360,31,62,96,18,35,53,0.10352708,0.19580940,0.29297417,0.10925438,0.17966681,0.28285273
19101,0,USIowaJefferson,Iowa,Jefferson,2021-04-04 11:07:01.862033,2020-04-21 00:00:00.000000,0.17101402,0.33488587,0.52978360,31,61,96,18,36,54,0.10180619,0.19729811,0.29625914,0.10374262,0.17980153,0.28499735
19101,0,USIowaJefferson,Iowa,Jefferson,2021-04-04 11:07:01.862033,2020-04-22 00:00:00.000000,0.16665544,0.32840649,0.53002850,30,60,96,18,36,54,0.09842580,0.19704955,0.29660459,0.10085755,0.17778227,0.28706951
19101,0,USIowaJefferson,Iowa,Jefferson,2021-04-04 11:07:01.862033,2020-04-23 00:00:00.000000,0.15888165,0.32306592,0.52519802,29,59,96,17,35,53,0.09463658,0.19352532,0.29482457,0.09835035,0.17714116,0.28817027
19101,0,USIowaJefferson,Iowa,Jefferson,2021-04-04 11:07:01.862033,2020-04-24 00:00:00.000000,0.15032891,0.31466909,0.53050321,27,57,97,16,35,53,0.09075690,0.19333631,0.29415607,0.09719881,0.17603226,0.28822512
19101,0,USIowaJefferson,Iowa,Jefferson,2021-04-04 11:07:01.862033,2020-04-25 00:00:00.000000,0.14172288,0.30954035,0.53011929,25,56,96,15,34,54,0.08704948,0.18936294,0.29996718,0.09431213,0.17334650,0.29137329
19101,0,USIowaJefferson,Iowa,Jefferson,2021-04-04 11:07:01.862033,2020-04-26 00:00:00.000000,0.13340787,0.30478351,0.52572093,24,55,96,15,33,55,0.08417920,0.18538204,0.30098871,0.09102851,0.17003979,0.29180121
19101,0,USIowaJefferson,Iowa,Jefferson,2021-04-04 11:07:01.862033,2020-04-27 00:00:00.000000,0.13622295,0.30344488,0.52786027,24,55,96,15,33,55,0.08492682,0.18089421,0.30478351,0.08795512,0.17174411,0.29187166
19101,0,USIowaJefferson,Iowa,Jefferson,2021-04-04 11:07:01.862033,2020-04-28 00:00:00.000000,0.13609105,0.30454562,0.52976396,24,55,96,15,33,56,0.08392390,0.18045377,0.31084026,0.08640566,0.17327806,0.29156918
19101,0,USIowaJefferson,Iowa,Jefferson,2021-04-04 11:07:01.862033,2020-04-29 00:00:00.000000,0.13649084,0.30622642,0.53218145,24,56,97,14,32,58,0.08125650,0.17817318,0.31847618,0.08629358,0.17549794,0.29066779
19101,0,USIowaJefferson,Iowa,Jefferson,2021-04-04 11:07:01.862033,2020-04-30 00:00:00.000000,0.13808693,0.30709212,0.54556004,25,56,99,14,32,59,0.08012664,0.17649391,0.32723404,0.08614416,0.17321194,0.28870064
19101,0,USIowaJefferson,Iowa,Jefferson,2021-04-04 11:07:01.862033,2020-05-01 00:00:00.000000,0.13461704,0.31359083,0.56271965,24,57,102,14,32,60,0.08162235,0.17638522,0.33295523,0.08598476,0.17115216,0.28507171
19101,0,USIowaJefferson,Iowa,Jefferson,2021-04-04 11:07:01.862033,2020-05-02 00:00:00.000000,0.13015904,0.31865424,0.58867616,23,58,107,15,32,61,0.08350045,0.17663725,0.33530993,0.08735997,0.17261874,0.27965570
19101,0,USIowaJefferson,Iowa,Jefferson,2021-04-04 11:07:01.862033,2020-05-03 00:00:00.000000,0.12608242,0.31765260,0.61468571,23,58,112,15,32,62,0.08421428,0.17640934,0.34256118,0.09170495,0.17227764,0.27419158
19101,0,USIowaJefferson,Iowa,Jefferson,2021-04-04 11:07:01.862033,2020-05-04 00:00:00.000000,0.12289358,0.32555279,0.62666541,22,59,114,15,32,63,0.08246644,0.17892583,0.34737792,0.09609516,0.17414151,0.27433887
19101,0,USIowaJefferson,Iowa,Jefferson,2021-04-04 11:07:01.862033,2020-05-05 00:00:00.000000,0.13090860,0.33021726,0.63859261,23,60,116,15,32,64,0.08422739,0.17912739,0.35155474,0.09637856,0.17268958,0.27447312
19101,0,USIowaJefferson,Iowa,Jefferson,2021-04-04 11:07:01.862033,2020-05-06 00:00:00.000000,0.14161728,0.32888595,0.65006537,25,60,118,15,33,64,0.08432149,0.18255457,0.35528663,0.09392617,0.17003824,0.27451069
19101,0,USIowaJefferson,Iowa,Jefferson,2021-04-04 11:07:01.862033,2020-05-07 00:00:00.000000,0.15219511,0.32999393,0.66115393,27,60,120,15,33,65,0.08244194,0.18486671,0.35873513,0.09412073,0.17034724,0.27431265
19101,0,USIowaJefferson,Iowa,Jefferson,2021-04-04 11:07:01.862033,2020-05-08 00:00:00.000000,0.15741418,0.33844292,0.67194052,28,61,122,14,34,66,0.08089394,0.18764714,0.36204765,0.09555422,0.17094167,0.27329352
19101,0,USIowaJefferson,Iowa,Jefferson,2021-04-04 11:07:01.862033,2020-05-09 00:00:00.000000,0.15940774,0.35050681,0.68246903,29,64,124,14,34,66,0.07974429,0.18918259,0.36535281,0.09609555,0.17116853,0.26923383
19101,0,USIowaJefferson,Iowa,Jefferson,2021-04-04 11:07:01.862033,2020-05-10 00:00:00.000000,0.16135644,0.36305603,0.69272019,29,66,126,15,35,67,0.08485517,0.19312100,0.36873997,0.09568092,0.17415913,0.26885150
19101,0,USIowaJefferson,Iowa,Jefferson,2021-04-04 11:07:01.862033,2020-05-11 00:00:00.000000,0.16094272,0.37696659,0.69650035,29,68,127,16,36,70,0.08976900,0.19699671,0.38474018,0.09571586,0.17463255,0.27912601
19101,0,USIowaJefferson,Iowa,Jefferson,2021-04-04 11:07:01.862033,2020-05-12 00:00:00.000000,0.16043105,0.39084699,0.69963030,29,71,127,16,36,72,0.09187935,0.20166796,0.39656638,0.09632175,0.17307536,0.28531267
19101,0,USIowaJefferson,Iowa,Jefferson,2021-04-04 11:07:01.862033,2020-05-13 00:00:00.000000,0.15977067,0.39923172,0.70148608,29,73,128,16,38,73,0.09220545,0.21050502,0.40359096,0.09723544,0.17461135,0.28557191
19101,0,USIowaJefferson,Iowa,Jefferson,2021-04-04 11:07:01.862033,2020-05-14 00:00:00.000000,0.15911443,0.40025674,0.70144851,29,73,128,16,39,74,0.09138302,0.21755269,0.40734777,0.09723861,0.17630421,0.28519656
19101,0,USIowaJefferson,Iowa,Jefferson,2021-04-04 11:07:01.862033,2020-05-15 00:00:00.000000,0.15851242,0.39961964,0.71962706,28,73,131,16,40,74,0.09048008,0.22020520,0.40876965,0.09923586,0.17530684,0.28448523
19101,0,USIowaJefferson,Iowa,Jefferson,2021-04-04 11:07:01.862033,2020-05-16 00:00:00.000000,0.15790538,0.40425132,0.74896671,28,73,137,17,41,74,0.09437732,0.22588764,0.40849682,0.09941155,0.17600108,0.28489058
19101,0,USIowaJefferson,Iowa,Jefferson,2021-04-04 11:07:01.862033,2020-05-17 00:00:00.000000,0.15385770,0.41114395,0.74705815,28,75,136,17,41,74,0.09409115,0.22892984,0.40974307,0.09722185,0.18096720,0.27925462
19101,0,USIowaJefferson,Iowa,Jefferson,2021-04-04 11:07:01.862033,2020-05-18 00:00:00.000000,0.15716400,0.42028881,0.75118732,28,76,137,17,42,76,0.09361562,0.23174315,0.41710742,0.09597622,0.18120625,0.27595856
19101,0,USIowaJefferson,Iowa,Jefferson,2021-04-04 11:07:01.862033,2020-05-19 00:00:00.000000,0.15697511,0.43311766,0.75521498,28,79,138,17,43,79,0.09350020,0.23872704,0.43351428,0.09542269,0.18097251,0.27916368
19101,0,USIowaJefferson,Iowa,Jefferson,2021-04-04 11:07:01.862033,2020-05-20 00:00:00.000000,0.15687069,0.44692629,0.77251470,28,81,141,17,44,81,0.09808128,0.24316605,0.44358462,0.09536552,0.18227174,0.27867307
19101,0,USIowaJefferson,Iowa,Jefferson,2021-04-04 11:07:01.862033,2020-05-21 00:00:00.000000,0.15685393,0.46093272,0.79102984,28,84,144,18,46,83,0.10078661,0.25247303,0.45807326,0.09570537,0.17974762,0.27634941
19101,0,USIowaJefferson,Iowa,Jefferson,2021-04-04 11:07:01.862033,2020-05-22 00:00:00.000000,0.15686565,0.48483708,0.80922813,28,88,148,18,47,86,0.09927491,0.26056280,0.47295624,0.09639677,0.17599856,0.27304630
19101,0,USIowaJefferson,Iowa,Jefferson,2021-04-04 11:07:01.862033,2020-05-23 00:00:00.000000,0.15689519,0.50175791,0.83545973,28,91,152,17,49,89,0.09769175,0.27074710,0.48802953,0.09884146,0.17663439,0.27187537
19101,0,USIowaJefferson,Iowa,Jefferson,2021-04-04 11:07:01.862033,2020-05-24 00:00:00.000000,0.15693931,0.50628973,0.86127972,28,92,157,17,51,91,0.09614535,0.28169065,0.50259830,0.09862038,0.17882060,0.27237057
19101,0,USIowaJefferson,Iowa,Jefferson,2021-04-04 11:07:01.862033,2020-05-25 00:00:00.000000,0.15799634,0.51534458,0.89672191,28,94,164,17,53,93,0.09470445,0.29512398,0.51298916,0.09959026,0.17556803,0.27191639
19101,0,USIowaJefferson,Iowa,Jefferson,2021-04-04 11:07:01.862033,2020-05-26 00:00:00.000000,0.18712195,0.52366803,0.90426649,34,95,165,18,54,95,0.10130343,0.29785037,0.51989559,0.10069725,0.17693700,0.26067842
19101,0,USIowaJefferson,Iowa,Jefferson,2021-04-04 11:07:01.862033,2020-05-27 00:00:00.000000,0.18851442,0.54343803,0.89812976,34,99,164,20,55,95,0.11163854,0.30208962,0.52335530,0.10279319,0.17625403,0.26104890
19101,0,USIowaJefferson,Iowa,Jefferson,2021-04-04 11:07:01.862033,2020-05-28 00:00:00.000000,0.20581313,0.56281614,0.94433954,37,102,172,22,55,95,0.12100062,0.30571985,0.52244472,0.10621888,0.17320098,0.25346519
19101,0,USIowaJefferson,Iowa,Jefferson,2021-04-04 11:07:01.862033,2020-05-29 00:00:00.000000,0.21183796,0.57758703,0.96056408,38,105,175,21,56,95,0.11643012,0.31070673,0.52455041,0.10826687,0.17026011,0.25240530
19101,0,USIowaJefferson,Iowa,Jefferson,2021-04-04 11:07:01.862033,2020-05-30 00:00:00.000000,0.20352788,0.58670678,0.97609545,37,107,178,20,58,97,0.11194353,0.31953197,0.53070239,0.10836417,0.16959282,0.25130108
19101,0,USIowaJefferson,Iowa,Jefferson,2021-04-04 11:07:01.862033,2020-05-31 00:00:00.000000,0.19565116,0.58209996,0.99066725,35,106,181,19,59,97,0.10759665,0.32695272,0.53540805,0.10813399,0.16969210,0.24789896
19101,0,USIowaJefferson,Iowa,Jefferson,2021-04-04 11:07:01.862033,2020-06-01 00:00:00.000000,0.20111889,0.58112315,0.98455270,36,106,180,18,61,102,0.10342588,0.33412737,0.56156402,0.10810261,0.17015944,0.24270461
19101,0,USIowaJefferson,Iowa,Jefferson,2021-04-04 11:07:01.862033,2020-06-02 00:00:00.000000,0.21021016,0.57231503,0.97157409,38,104,177,19,62,105,0.10664378,0.33910615,0.57499877,0.10859069,0.16504186,0.24835697
19101,0,USIowaJefferson,Iowa,Jefferson,2021-04-04 11:07:01.862033,2020-06-03 00:00:00.000000,0.22810547,0.57146870,0.95383849,41,104,174,20,62,106,0.11454453,0.34352963,0.58026020,0.11016636,0.16651453,0.24950160
19101,0,USIowaJefferson,Iowa,Jefferson,2021-04-04 11:07:01.862033,2020-06-04 00:00:00.000000,0.22457510,0.56655781,0.93470305,41,103,171,22,62,106,0.12498761,0.34212707,0.58023075,0.10961495,0.16673709,0.23978992
19101,0,USIowaJefferson,Iowa,Jefferson,2021-04-04 11:07:01.862033,2020-06-05 00:00:00.000000,0.22194596,0.55988917,0.91511058,40,102,167,23,62,105,0.12985934,0.34146629,0.57670717,0.10800489,0.16286670,0.23801060
19101,0,USIowaJefferson,Iowa,Jefferson,2021-04-04 11:07:01.862033,2020-06-06 00:00:00.000000,0.21682739,0.55343029,0.89537762,39,101,163,23,61,104,0.12753044,0.33795554,0.57078371,0.10401934,0.15909300,0.23000463
19101,0,USIowaJefferson,Iowa,Jefferson,2021-04-04 11:07:01.862033,2020-06-07 00:00:00.000000,0.21293840,0.56062754,0.87564852,38,102,160,22,60,102,0.12526750,0.33049461,0.56240673,0.10449547,0.15952083,0.23409834
19101,0,USIowaJefferson,Iowa,Jefferson,2021-04-04 11:07:01.862033,2020-06-08 00:00:00.000000,0.24384447,0.55269133,0.86522671,44,101,158,22,58,101,0.12317460,0.32131870,0.55269949,0.10205058,0.15740413,0.23026726
19101,0,USIowaJefferson,Iowa,Jefferson,2021-04-04 11:07:01.862033,2020-06-09 00:00:00.000000,0.25516523,0.54827661,0.85372894,46,100,156,22,58,99,0.12396611,0.31755991,0.54317799,0.09681939,0.15728117,0.23240442
19101,0,USIowaJefferson,Iowa,Jefferson,2021-04-04 11:07:01.862033,2020-06-10 00:00:00.000000,0.27455454,0.54526852,0.84193619,50,99,154,23,57,97,0.12974690,0.31672726,0.53187721,0.09319384,0.15683232,0.23330269
19101,0,USIowaJefferson,Iowa,Jefferson,2021-04-04 11:07:01.862033,2020-06-11 00:00:00.000000,0.27101441,0.54158385,0.85934680,49,99,157,24,57,98,0.13286206,0.31696293,0.53853281,0.09217771,0.15893834,0.23346921
19101,0,USIowaJefferson,Iowa,Jefferson,2021-04-04 11:07:01.862033,2020-06-12 00:00:00.000000,0.27923220,0.53655137,0.84945200,51,98,155,24,58,97,0.13517576,0.32070187,0.53267593,0.09213527,0.15847457,0.23289990
19101,0,USIowaJefferson,Iowa,Jefferson,2021-04-04 11:07:01.862033,2020-06-13 00:00:00.000000,0.28210185,0.53659594,0.85372596,51,98,156,25,58,95,0.14022498,0.32164443,0.52112580,0.09210460,0.15606513,0.23102517
19101,0,USIowaJefferson,Iowa,Jefferson,2021-04-04 11:07:01.862033,2020-06-14 00:00:00.000000,0.27867677,0.52934483,0.83246796,50,96,152,26,57,96,0.14552111,0.31678385,0.52779449,0.09203972,0.15230268,0.22814409
19101,0,USIowaJefferson,Iowa,Jefferson,2021-04-04 11:07:01.862033,2020-06-15 00:00:00.000000,0.27590995,0.52378165,0.81116894,50,95,148,26,56,95,0.14384168,0.30961829,0.52310228,0.09178379,0.15232972,0.22494994
19101,0,USIowaJefferson,Iowa,Jefferson,2021-04-04 11:07:01.862033,2020-06-16 00:00:00.000000,0.27328731,0.52037294,0.80423687,49,95,147,27,55,94,0.15061726,0.30508216,0.51706006,0.09049762,0.15216905,0.22243519
19101,0,USIowaJefferson,Iowa,Jefferson,2021-04-04 11:07:01.862033,2020-06-17 00:00:00.000000,0.27104690,0.51567398,0.79786652,49,94,145,28,55,93,0.15440008,0.30270109,0.51016350,0.09042881,0.15195117,0.22109254
19101,0,USIowaJefferson,Iowa,Jefferson,2021-04-04 11:07:01.862033,2020-06-18 00:00:00.000000,0.26882841,0.51009766,0.79310890,49,93,145,28,55,91,0.15427965,0.30092482,0.50276333,0.08840568,0.15347853,0.21886778
19101,0,USIowaJefferson,Iowa,Jefferson,2021-04-04 11:07:01.862033,2020-06-19 00:00:00.000000,0.26657015,0.50245391,0.79230962,48,91,144,28,54,90,0.15347389,0.29981899,0.49510253,0.08243017,0.15272862,0.21521636
19101,0,USIowaJefferson,Iowa,Jefferson,2021-04-04 11:07:01.862033,2020-06-20 00:00:00.000000,0.26422895,0.49405574,0.79688987,48,90,145,27,54,89,0.15230740,0.29778613,0.48724062,0.08152157,0.15421876,0.21871397
19101,0,USIowaJefferson,Iowa,Jefferson,2021-04-04 11:07:01.862033,2020-06-21 00:00:00.000000,0.26179530,0.48997589,0.81347960,47,89,148,27,54,87,0.15086463,0.29581816,0.47936528,0.08115505,0.15311557,0.21749331
19101,0,USIowaJefferson,Iowa,Jefferson,2021-04-04 11:07:01.862033,2020-06-22 00:00:00.000000,0.28273080,0.48426763,0.82055132,51,88,150,27,53,86,0.14855011,0.29174472,0.47168310,0.08134384,0.15342645,0.22090018
19101,0,USIowaJefferson,Iowa,Jefferson,2021-04-04 11:07:01.862033,2020-06-23 00:00:00.000000,0.29485669,0.48236330,0.82687529,53,88,151,27,53,85,0.14830450,0.29000815,0.46783536,0.08206963,0.15377011,0.23332987
19101,0,USIowaJefferson,Iowa,Jefferson,2021-04-04 11:07:01.862033,2020-06-24 00:00:00.000000,0.28726614,0.48402727,0.82912313,52,88,151,27,52,85,0.14940732,0.28683562,0.46672922,0.08330905,0.15195660,0.23436830
19101,0,USIowaJefferson,Iowa,Jefferson,2021-04-04 11:07:01.862033,2020-06-25 00:00:00.000000,0.28106721,0.47960289,0.83608447,51,87,152,27,51,85,0.15140244,0.28198514,0.46747299,0.08502127,0.14955423,0.21996854
19101,0,USIowaJefferson,Iowa,Jefferson,2021-04-04 11:07:01.862033,2020-06-26 00:00:00.000000,0.27680931,0.47501506,0.82304747,50,86,150,28,50,85,0.15412703,0.27802935,0.46934356,0.08684522,0.14846388,0.22621742
19101,0,USIowaJefferson,Iowa,Jefferson,2021-04-04 11:07:01.862033,2020-06-27 00:00:00.000000,0.28899308,0.47867625,0.81893203,52,87,149,28,50,86,0.15721820,0.27710207,0.47173094,0.08595223,0.15080902,0.23078658
19101,0,USIowaJefferson,Iowa,Jefferson,2021-04-04 11:07:01.862033,2020-06-28 00:00:00.000000,0.28697264,0.47610181,0.82083081,52,87,150,29,51,86,0.16073993,0.27902262,0.47404033,0.08510054,0.15066240,0.22468392
19101,0,USIowaJefferson,Iowa,Jefferson,2021-04-04 11:07:01.862033,2020-06-29 00:00:00.000000,0.27769894,0.46585807,0.81263368,50,85,148,30,51,87,0.16551059,0.27981459,0.47579040,0.08322378,0.14977131,0.22510511
19101,0,USIowaJefferson,Iowa,Jefferson,2021-04-04 11:07:01.862033,2020-06-30 00:00:00.000000,0.28112216,0.46339742,0.80389378,51,84,147,30,51,86,0.16552110,0.27987010,0.47334274,0.08212037,0.14952793,0.22484037
19101,0,USIowaJefferson,Iowa,Jefferson,2021-04-04 11:07:01.862033,2020-07-01 00:00:00.000000,0.28646453,0.45904588,0.79986263,52,83,146,30,50,85,0.16651374,0.27540612,0.46811664,0.08343275,0.14892985,0.22362242
19101,0,USIowaJefferson,Iowa,Jefferson,2021-04-04 11:07:01.862033,2020-07-02 00:00:00.000000,0.28733581,0.45166211,0.79890102,52,82,146,29,50,84,0.16367263,0.27493980,0.46312197,0.08694567,0.14931154,0.22233418
19101,0,USIowaJefferson,Iowa,Jefferson,2021-04-04 11:07:01.862033,2020-07-03 00:00:00.000000,0.27661305,0.44470117,0.79804968,50,81,146,28,49,83,0.15760531,0.27306106,0.45853191,0.08526986,0.14644013,0.22301149
19101,0,USIowaJefferson,Iowa,Jefferson,2021-04-04 11:07:01.862033,2020-07-04 00:00:00.000000,0.26695218,0.44847352,0.79725967,48,82,145,27,49,82,0.15174239,0.27168560,0.45268713,0.08699880,0.14911960,0.22584304
19101,0,USIowaJefferson,Iowa,Jefferson,2021-04-04 11:07:01.862033,2020-07-05 00:00:00.000000,0.25854154,0.44960253,0.79653901,47,82,145,26,49,81,0.14623958,0.27051389,0.44591195,0.09085931,0.15151924,0.22725468
19101,0,USIowaJefferson,Iowa,Jefferson,2021-04-04 11:07:01.862033,2020-07-06 00:00:00.000000,0.25127774,0.44397997,0.79246987,45,81,144,25,48,80,0.14122702,0.26781063,0.44113241,0.09150243,0.15576555,0.23619965
19101,0,USIowaJefferson,Iowa,Jefferson,2021-04-04 11:07:01.862033,2020-07-07 00:00:00.000000,0.24459661,0.44034304,0.78847063,44,80,144,25,48,80,0.13675566,0.26502124,0.44092079,0.09202405,0.15655779,0.23951711
19101,0,USIowaJefferson,Iowa,Jefferson,2021-04-04 11:07:01.862033,2020-07-08 00:00:00.000000,0.23837688,0.43732260,0.78444655,43,80,143,24,47,81,0.13339988,0.26222146,0.44422552,0.09239864,0.15781734,0.24144954
19101,0,USIowaJefferson,Iowa,Jefferson,2021-04-04 11:07:01.862033,2020-07-09 00:00:00.000000,0.23606425,0.43262676,0.78042712,43,79,142,24,47,81,0.13268672,0.25945890,0.44467746,0.09267431,0.15812900,0.24247877
19101,0,USIowaJefferson,Iowa,Jefferson,2021-04-04 11:07:01.862033,2020-07-10 00:00:00.000000,0.23736828,0.42541342,0.77616785,43,77,141,24,46,80,0.13248418,0.25675772,0.44264735,0.09299215,0.15688059,0.24298017
19101,0,USIowaJefferson,Iowa,Jefferson,2021-04-04 11:07:01.862033,2020-07-11 00:00:00.000000,0.23914699,0.42266372,0.77784201,43,77,142,24,46,80,0.13267967,0.25392440,0.43880935,0.09406656,0.15925377,0.24251920
19101,0,USIowaJefferson,Iowa,Jefferson,2021-04-04 11:07:01.862033,2020-07-12 00:00:00.000000,0.24138485,0.42342384,0.77878311,44,77,142,23,45,79,0.13051933,0.25022728,0.43374336,0.09671262,0.15981148,0.23010992
19101,0,USIowaJefferson,Iowa,Jefferson,2021-04-04 11:07:01.862033,2020-07-13 00:00:00.000000,0.24388338,0.41999778,0.77226689,44,76,141,23,44,79,0.12702722,0.24578259,0.43258735,0.09948930,0.16068116,0.23524434
19101,0,USIowaJefferson,Iowa,Jefferson,2021-04-04 11:07:01.862033,2020-07-14 00:00:00.000000,0.24000269,0.42281364,0.76664465,43,77,140,22,44,79,0.12533608,0.24271769,0.43195406,0.10011295,0.16142991,0.25387838
19101,0,USIowaJefferson,Iowa,Jefferson,2021-04-04 11:07:01.862033,2020-07-15 00:00:00.000000,0.23661814,0.42396893,0.76628589,43,77,140,22,44,78,0.12477478,0.24249271,0.43131089,0.10125048,0.16126375,0.26430119
19101,0,USIowaJefferson,Iowa,Jefferson,2021-04-04 11:07:01.862033,2020-07-16 00:00:00.000000,0.23398852,0.42381316,0.76648170,42,77,140,22,44,78,0.12495633,0.24239429,0.43065348,0.10126832,0.16320667,0.26703879
19101,0,USIowaJefferson,Iowa,Jefferson,2021-04-04 11:07:01.862033,2020-07-17 00:00:00.000000,0.22868883,0.42264220,0.76738303,41,77,140,22,44,78,0.12568956,0.24272616,0.42990738,0.09909345,0.16401220,0.26564519
19101,0,USIowaJefferson,Iowa,Jefferson,2021-04-04 11:07:01.862033,2020-07-18 00:00:00.000000,0.22386366,0.42125302,0.76916786,40,77,140,23,44,78,0.12671745,0.24081000,0.42863215,0.09822964,0.16264236,0.26370022
19101,0,USIowaJefferson,Iowa,Jefferson,2021-04-04 11:07:01.862033,2020-07-19 00:00:00.000000,0.21884673,0.42502139,0.77416827,40,77,141,23,44,78,0.12790337,0.24212345,0.43045823,0.09791486,0.16134977,0.26266554
19101,0,USIowaJefferson,Iowa,Jefferson,2021-04-04 11:07:01.862033,2020-07-20 00:00:00.000000,0.22029379,0.42740695,0.77360593,40,78,141,23,44,79,0.12724079,0.24240484,0.43439935,0.09774637,0.16138301,0.26992045
19101,0,USIowaJefferson,Iowa,Jefferson,2021-04-04 11:07:01.862033,2020-07-21 00:00:00.000000,0.22107786,0.42684809,0.77643023,40,78,142,23,44,80,0.12661634,0.24125150,0.43841890,0.09750811,0.16156103,0.27290074
19101,0,USIowaJefferson,Iowa,Jefferson,2021-04-04 11:07:01.862033,2020-07-22 00:00:00.000000,0.22201385,0.42449183,0.78039027,40,77,142,23,44,80,0.12611009,0.24132176,0.44118695,0.09692714,0.16314550,0.27185670
19101,0,USIowaJefferson,Iowa,Jefferson,2021-04-04 11:07:01.862033,2020-07-23 00:00:00.000000,0.22348424,0.43589638,0.78530638,40,79,143,23,44,80,0.12585382,0.24213159,0.43966761,0.09548771,0.16875063,0.27156232
19101,0,USIowaJefferson,Iowa,Jefferson,2021-04-04 11:07:01.862033,2020-07-24 00:00:00.000000,0.22502732,0.44473759,0.79062693,41,81,144,23,44,80,0.12653302,0.24352064,0.43821286,0.09575248,0.16796020,0.26780866
19101,0,USIowaJefferson,Iowa,Jefferson,2021-04-04 11:07:01.862033,2020-07-25 00:00:00.000000,0.22660588,0.45345962,0.79478622,41,82,145,23,44,81,0.12703209,0.24480363,0.44319566,0.10197674,0.16875784,0.26116011
19101,0,USIowaJefferson,Iowa,Jefferson,2021-04-04 11:07:01.862033,2020-07-26 00:00:00.000000,0.22824177,0.45961341,0.80038296,41,84,146,23,45,82,0.12760939,0.24664053,0.45002562,0.10022222,0.17101625,0.25713395
19101,0,USIowaJefferson,Iowa,Jefferson,2021-04-04 11:07:01.862033,2020-07-27 00:00:00.000000,0.23902354,0.46244806,0.80215885,43,84,146,23,45,81,0.12782745,0.25102550,0.44446606,0.09636499,0.16951353,0.26304812
19101,0,USIowaJefferson,Iowa,Jefferson,2021-04-04 11:07:01.862033,2020-07-28 00:00:00.000000,0.24148002,0.46861722,0.80810542,44,85,147,23,46,82,0.12776841,0.25401481,0.45202288,0.09346586,0.17371853,0.26373320
19101,0,USIowaJefferson,Iowa,Jefferson,2021-04-04 11:07:01.862033,2020-07-29 00:00:00.000000,0.24422615,0.47831628,0.81918262,44,87,149,23,47,84,0.12754557,0.25736096,0.46085760,0.09266184,0.18035011,0.26477224
19101,0,USIowaJefferson,Iowa,Jefferson,2021-04-04 11:07:01.862033,2020-07-30 00:00:00.000000,0.24729329,0.48519776,0.83630059,45,88,153,23,47,84,0.12983123,0.26037523,0.46182937,0.09357214,0.18178368,0.26987756
19101,0,USIowaJefferson,Iowa,Jefferson,2021-04-04 11:07:01.862033,2020-07-31 00:00:00.000000,0.25539833,0.49200122,0.84276181,46,90,154,24,48,85,0.13611493,0.26484263,0.46861921,0.09513735,0.18359060,0.27822485
19101,0,USIowaJefferson,Iowa,Jefferson,2021-04-04 11:07:01.862033,2020-08-01 00:00:00.000000,0.26451926,0.49871398,0.85729573,48,91,156,26,49,88,0.14303955,0.26903771,0.48101074,0.09650485,0.18854551,0.28267351
19101,0,USIowaJefferson,Iowa,Jefferson,2021-04-04 11:07:01.862033,2020-08-02 00:00:00.000000,0.26448343,0.50495943,0.87393052,48,92,159,27,49,89,0.14789098,0.27236165,0.48895435,0.09745717,0.19115637,0.28192246
19101,0,USIowaJefferson,Iowa,Jefferson,2021-04-04 11:07:01.862033,2020-08-03 00:00:00.000000,0.28939900,0.51169490,0.87699294,52,93,160,27,50,89,0.14762357,0.27573448,0.49134863,0.09811349,0.19235181,0.27758502
19101,0,USIowaJefferson,Iowa,Jefferson,2021-04-04 11:07:01.862033,2020-08-04 00:00:00.000000,0.30230183,0.51250225,0.87809415,55,93,160,27,50,92,0.15225580,0.27799788,0.50441388,0.09853282,0.19256378,0.27415134
19101,0,USIowaJefferson,Iowa,Jefferson,2021-04-04 11:07:01.862033,2020-08-05 00:00:00.000000,0.30107901,0.51280137,0.91543981,55,93,167,29,51,95,0.16023349,0.28085069,0.52068791,0.09876139,0.19507415,0.27557005
19101,0,USIowaJefferson,Iowa,Jefferson,2021-04-04 11:07:01.862033,2020-08-06 00:00:00.000000,0.29972963,0.51563291,0.94434412,54,94,172,31,52,95,0.17036532,0.28927177,0.52459877,0.09910910,0.19753750,0.27627533
19101,0,USIowaJefferson,Iowa,Jefferson,2021-04-04 11:07:01.862033,2020-08-07 00:00:00.000000,0.29382059,0.52553779,0.96303829,53,96,176,31,53,100,0.17206519,0.29336910,0.54750353,0.10007870,0.19652383,0.27667162
19101,0,USIowaJefferson,Iowa,Jefferson,2021-04-04 11:07:01.862033,2020-08-08 00:00:00.000000,0.28267943,0.53739289,0.98539583,51,98,180,31,54,102,0.17143567,0.29794000,0.56087744,0.10219139,0.19587450,0.27900048
19101,0,USIowaJefferson,Iowa,Jefferson,2021-04-04 11:07:01.862033,2020-08-09 00:00:00.000000,0.27439480,0.53904768,1.02100566,50,98,186,30,56,104,0.16718831,0.30765393,0.57003638,0.10786700,0.19366151,0.28792022
19101,0,USIowaJefferson,Iowa,Jefferson,2021-04-04 11:07:01.862033,2020-08-10 00:00:00.000000,0.28373305,0.54676079,1.03913343,51,100,190,29,57,106,0.16137225,0.31382036,0.57948511,0.11342661,0.19281837,0.29577660
19101,0,USIowaJefferson,Iowa,Jefferson,2021-04-04 11:07:01.862033,2020-08-11 00:00:00.000000,0.29305658,0.56257280,1.05870714,53,102,193,29,58,107,0.15875260,0.32116323,0.59001147,0.11480241,0.19246965,0.30051693
19101,0,USIowaJefferson,Iowa,Jefferson,2021-04-04 11:07:01.862033,2020-08-12 00:00:00.000000,0.30258142,0.58451065,1.08435044,55,106,198,28,59,109,0.15820262,0.32687415,0.60125363,0.11518786,0.18988163,0.30113253
19101,0,USIowaJefferson,Iowa,Jefferson,2021-04-04 11:07:01.862033,2020-08-13 00:00:00.000000,0.31262038,0.59116751,1.10711897,57,108,202,29,61,112,0.15914160,0.33564815,0.61293577,0.11623579,0.18999243,0.29606408
19101,0,USIowaJefferson,Iowa,Jefferson,2021-04-04 11:07:01.862033,2020-08-14 00:00:00.000000,0.33534696,0.60184040,1.11355768,61,110,203,29,62,114,0.16184245,0.34217988,0.62479100,0.11855453,0.19115839,0.29342718
19101,0,USIowaJefferson,Iowa,Jefferson,2021-04-04 11:07:01.862033,2020-08-15 00:00:00.000000,0.34220665,0.61599380,1.11800891,62,112,204,32,63,116,0.17686527,0.34892231,0.63658764,0.11952267,0.19399826,0.28615405
19101,0,USIowaJefferson,Iowa,Jefferson,2021-04-04 11:07:01.862033,2020-08-16 00:00:00.000000,0.34060812,0.62522284,1.13048466,62,114,206,35,65,118,0.19240619,0.35761557,0.64819677,0.12041730,0.19173710,0.29607845
19101,0,USIowaJefferson,Iowa,Jefferson,2021-04-04 11:07:01.862033,2020-08-17 00:00:00.000000,0.36557497,0.62508936,1.14734090,66,114,209,37,65,120,0.20609471,0.35708774,0.65957519,0.11758749,0.19307643,0.29449173
19101,0,USIowaJefferson,Iowa,Jefferson,2021-04-04 11:07:01.862033,2020-08-18 00:00:00.000000,0.36934032,0.62238527,1.14916150,67,113,210,38,66,122,0.21126601,0.36085567,0.67048205,0.11747124,0.19277986,0.28898673
19101,0,USIowaJefferson,Iowa,Jefferson,2021-04-04 11:07:01.862033,2020-08-19 00:00:00.000000,0.37330995,0.62209360,1.13620644,68,113,207,39,66,124,0.21386623,0.36301552,0.68102949,0.11759620,0.19422399,0.28501960
19101,0,USIowaJefferson,Iowa,Jefferson,2021-04-04 11:07:01.862033,2020-08-20 00:00:00.000000,0.37734555,0.63274163,1.12202108,69,115,205,38,67,126,0.21303790,0.36639629,0.69128275,0.11808712,0.19445307,0.28667293
19101,0,USIowaJefferson,Iowa,Jefferson,2021-04-04 11:07:01.862033,2020-08-21 00:00:00.000000,0.38120685,0.65859006,1.11159715,69,120,203,38,67,128,0.21042564,0.37072517,0.70120825,0.11358884,0.19291938,0.27563026
19101,0,USIowaJefferson,Iowa,Jefferson,2021-04-04 11:07:01.862033,2020-08-22 00:00:00.000000,0.38510746,0.65943727,1.10451467,70,120,202,38,68,128,0.20962937,0.37494833,0.70323554,0.11647905,0.19192664,0.27227121
19101,0,USIowaJefferson,Iowa,Jefferson,2021-04-04 11:07:01.862033,2020-08-23 00:00:00.000000,0.38896938,0.67206815,1.09632365,71,122,200,38,69,128,0.21265473,0.37831888,0.70118912,0.12273049,0.19091369,0.27054827
19101,0,USIowaJefferson,Iowa,Jefferson,2021-04-04 11:07:01.862033,2020-08-24 00:00:00.000000,0.38280409,0.66731305,1.08030336,70,122,197,38,68,127,0.21138901,0.37655291,0.69817249,0.12319277,0.18877407,0.27089658
19101,0,USIowaJefferson,Iowa,Jefferson,2021-04-04 11:07:01.862033,2020-08-25 00:00:00.000000,0.38456454,0.67204097,1.06425340,70,122,194,38,69,126,0.20923891,0.37889429,0.69283658,0.12336164,0.18833200,0.27636889
19101,0,USIowaJefferson,Iowa,Jefferson,2021-04-04 11:07:01.862033,2020-08-26 00:00:00.000000,0.38999416,0.66910872,1.04843770,71,122,191,37,69,125,0.20659353,0.38118236,0.68591641,0.12390966,0.18883038,0.27469550
19101,0,USIowaJefferson,Iowa,Jefferson,2021-04-04 11:07:01.862033,2020-08-27 00:00:00.000000,0.38200137,0.66517628,1.03393727,69,121,189,38,70,124,0.20914912,0.38416885,0.67800252,0.12762817,0.19115699,0.27721463
19101,0,USIowaJefferson,Iowa,Jefferson,2021-04-04 11:07:01.862033,2020-08-28 00:00:00.000000,0.37380782,0.66113904,1.02255063,68,120,187,39,70,122,0.21396603,0.38781502,0.66971433,0.12995238,0.19583446,0.27064017
19101,0,USIowaJefferson,Iowa,Jefferson,2021-04-04 11:07:01.862033,2020-08-29 00:00:00.000000,0.36557701,0.65811738,1.01460002,66,120,185,40,70,121,0.21935123,0.38643787,0.66183598,0.12735640,0.19084346,0.26987251
19101,0,USIowaJefferson,Iowa,Jefferson,2021-04-04 11:07:01.862033,2020-08-30 00:00:00.000000,0.35740330,0.66017678,1.01459247,65,120,185,41,70,119,0.22506551,0.38502632,0.65482333,0.12582912,0.18710425,0.26649440
19101,0,USIowaJefferson,Iowa,Jefferson,2021-04-04 11:07:01.862033,2020-08-31 00:00:00.000000,0.35441632,0.65992666,1.02061967,64,120,186,41,70,119,0.22706787,0.38761263,0.65330837,0.12482614,0.18854043,0.26061375
19101,0,USIowaJefferson,Iowa,Jefferson,2021-04-04 11:07:01.862033,2020-09-01 00:00:00.000000,0.35707566,0.65922058,1.02320229,65,120,187,40,71,120,0.22363787,0.39095720,0.65874258,0.12488195,0.19415462,0.27263083
19101,0,USIowaJefferson,Iowa,Jefferson,2021-04-04 11:07:01.862033,2020-09-02 00:00:00.000000,0.36069364,0.65161734,1.02475800,65,119,187,40,71,121,0.22040943,0.39279034,0.66282942,0.12535351,0.19610375,0.27927976
19101,0,USIowaJefferson,Iowa,Jefferson,2021-04-04 11:07:01.862033,2020-09-03 00:00:00.000000,0.36451541,0.65029287,1.03334468,66,118,189,39,71,121,0.21733676,0.39261730,0.66580843,0.12625785,0.19652573,0.28616985
19101,0,USIowaJefferson,Iowa,Jefferson,2021-04-04 11:07:01.862033,2020-09-04 00:00:00.000000,0.36852480,0.64872478,1.02752277,67,118,187,39,70,119,0.21438126,0.38706762,0.65471610,0.12786307,0.19857632,0.28925397
19101,0,USIowaJefferson,Iowa,Jefferson,2021-04-04 11:07:01.862033,2020-09-05 00:00:00.000000,0.37342127,0.64910709,1.04607750,68,118,191,38,70,118,0.21145570,0.38696106,0.64585394,0.14173465,0.20325469,0.30794202
19101,0,USIowaJefferson,Iowa,Jefferson,2021-04-04 11:07:01.862033,2020-09-06 00:00:00.000000,0.38135714,0.66925009,1.03385210,69,122,189,38,71,119,0.20826582,0.38980750,0.65388613,0.15085548,0.20556514,0.33169053
19101,0,USIowaJefferson,Iowa,Jefferson,2021-04-04 11:07:01.862033,2020-09-07 00:00:00.000000,0.38427221,0.68107270,1.04025832,70,124,190,37,72,120,0.20460777,0.39756087,0.66115046,0.15345731,0.21392381,0.33778303
19101,0,USIowaJefferson,Iowa,Jefferson,2021-04-04 11:07:01.862033,2020-09-08 00:00:00.000000,0.38755866,0.69675507,1.04977123,70,127,192,37,72,122,0.20341648,0.39683032,0.66778502,0.15441877,0.21597528,0.33731180
19101,0,USIowaJefferson,Iowa,Jefferson,2021-04-04 11:07:01.862033,2020-09-09 00:00:00.000000,0.38887104,0.70526067,1.06154013,71,129,194,37,72,121,0.20557415,0.39630882,0.66594380,0.15816674,0.21854308,0.34129541
19101,0,USIowaJefferson,Iowa,Jefferson,2021-04-04 11:07:01.862033,2020-09-10 00:00:00.000000,0.38610558,0.71167445,1.07783760,70,130,197,37,72,121,0.20639068,0.39725815,0.66386812,0.16041269,0.22172376,0.34571602
19101,0,USIowaJefferson,Iowa,Jefferson,2021-04-04 11:07:01.862033,2020-09-11 00:00:00.000000,0.38358103,0.72455078,1.10787792,70,132,202,36,73,121,0.20201908,0.40307999,0.66455149,0.16053889,0.22582458,0.35243488
19101,0,USIowaJefferson,Iowa,Jefferson,2021-04-04 11:07:01.862033,2020-09-12 00:00:00.000000,0.38157039,0.73983552,1.11693716,69,135,204,36,73,122,0.19811575,0.40395795,0.66766030,0.16912595,0.22912220,0.35493017
19101,0,USIowaJefferson,Iowa,Jefferson,2021-04-04 11:07:01.862033,2020-09-13 00:00:00.000000,0.38055243,0.75893403,1.14093434,69,138,208,35,73,123,0.19538588,0.40328752,0.67295736,0.17033191,0.24419873,0.36106717
19101,0,USIowaJefferson,Iowa,Jefferson,2021-04-04 11:07:01.862033,2020-09-14 00:00:00.000000,0.39022206,0.76605387,1.16964894,71,140,213,35,73,124,0.19430443,0.40404009,0.67998572,0.18047986,0.25530850,0.36346948
19101,0,USIowaJefferson,Iowa,Jefferson,2021-04-04 11:07:01.862033,2020-09-15 00:00:00.000000,0.39084921,0.78269560,1.19938486,71,143,219,36,75,125,0.19871708,0.41123294,0.68601304,0.18447907,0.25648000,0.37360984
19101,0,USIowaJefferson,Iowa,Jefferson,2021-04-04 11:07:01.862033,2020-09-16 00:00:00.000000,0.39173290,0.79142990,1.22992951,71,144,225,37,76,128,0.20623019,0.41849613,0.70327505,0.18445396,0.26113354,0.37387360
19101,0,USIowaJefferson,Iowa,Jefferson,2021-04-04 11:07:01.862033,2020-09-17 00:00:00.000000,0.39316772,0.80491936,1.26094688,71,147,230,39,78,131,0.21539171,0.42853213,0.72087912,0.18453226,0.26841328,0.37411558
19101,0,USIowaJefferson,Iowa,Jefferson,2021-04-04 11:07:01.862033,2020-09-18 00:00:00.000000,0.40659000,0.82041785,1.29176131,74,150,236,40,80,134,0.22187675,0.43971819,0.73400570,0.18617338,0.27465720,0.38240998
19101,0,USIowaJefferson,Iowa,Jefferson,2021-04-04 11:07:01.862033,2020-09-19 00:00:00.000000,0.41012983,0.82550826,1.31697587,75,151,240,40,82,137,0.22253125,0.45359079,0.75156313,0.19936830,0.28949576,0.38811981
19101,0,USIowaJefferson,Iowa,Jefferson,2021-04-04 11:07:01.862033,2020-09-20 00:00:00.000000,0.41993939,0.84903798,1.35217436,76,155,247,41,84,141,0.22828755,0.46091568,0.77442659,0.20107819,0.31051658,0.40723307
19101,0,USIowaJefferson,Iowa,Jefferson,2021-04-04 11:07:01.862033,2020-09-21 00:00:00.000000,0.44261068,0.87867785,1.41533580,80,160,258,43,86,146,0.23775189,0.47292149,0.80225495,0.20746178,0.31983294,0.41589815
19101,0,USIowaJefferson,Iowa,Jefferson,2021-04-04 11:07:01.862033,2020-09-22 00:00:00.000000,0.46099636,0.91556989,1.46374066,84,167,267,44,89,151,0.24517237,0.48767016,0.82742313,0.21870881,0.33033201,0.42765522
19101,0,USIowaJefferson,Iowa,Jefferson,2021-04-04 11:07:01.862033,2020-09-23 00:00:00.000000,0.47646830,0.94981072,1.51328000,87,173,276,46,91,154,0.25212544,0.50222490,0.84387179,0.22376277,0.33555407,0.44204469
19101,0,USIowaJefferson,Iowa,Jefferson,2021-04-04 11:07:01.862033,2020-09-24 00:00:00.000000,0.49120771,0.97574784,1.56322488,89,178,285,47,94,158,0.25906654,0.51573672,0.86383052,0.22769910,0.34192717,0.45114764
19101,0,USIowaJefferson,Iowa,Jefferson,2021-04-04 11:07:01.862033,2020-09-25 00:00:00.000000,0.50782442,1.02798000,1.61203027,92,188,294,49,97,166,0.26905214,0.53166098,0.90754904,0.24948321,0.35393572,0.47438068
19101,0,USIowaJefferson,Iowa,Jefferson,2021-04-04 11:07:01.862033,2020-09-26 00:00:00.000000,0.52722293,1.07936536,1.66541842,96,197,304,50,101,174,0.27747300,0.55285688,0.95354730,0.26299764,0.36981167,0.49243131
19101,0,USIowaJefferson,Iowa,Jefferson,2021-04-04 11:07:01.862033,2020-09-27 00:00:00.000000,0.55049379,1.14574116,1.75841980,100,209,321,52,105,180,0.28710244,0.57885304,0.98420444,0.26824947,0.37635422,0.50021983
19101,0,USIowaJefferson,Iowa,Jefferson,2021-04-04 11:07:01.862033,2020-09-28 00:00:00.000000,0.58075286,1.21216980,1.84460096,106,221,337,54,111,185,0.29840719,0.60833534,1.01292755,0.26844410,0.38731063,0.51928265
19101,0,USIowaJefferson,Iowa,Jefferson,2021-04-04 11:07:01.862033,2020-09-29 00:00:00.000000,0.62456078,1.26262897,1.93637809,114,230,354,57,116,191,0.31186899,0.63589030,1.04685655,0.26854473,0.39976945,0.53141296
19101,0,USIowaJefferson,Iowa,Jefferson,2021-04-04 11:07:01.862033,2020-09-30 00:00:00.000000,0.67114068,1.32314907,2.04788701,122,242,374,60,120,198,0.32811976,0.65966631,1.08439625,0.26884212,0.40687736,0.53861188
19101,0,USIowaJefferson,Iowa,Jefferson,2021-04-04 11:07:01.862033,2020-10-01 00:00:00.000000,0.72094420,1.40823454,2.20892400,131,257,404,64,127,205,0.35094510,0.69461433,1.12473549,0.27010164,0.41122272,0.54812154
19101,0,USIowaJefferson,Iowa,Jefferson,2021-04-04 11:07:01.862033,2020-10-02 00:00:00.000000,0.75416532,1.50083839,2.37066325,137,274,433,69,134,215,0.38178456,0.73695039,1.17736305,0.28119680,0.42206456,0.54606262
19101,0,USIowaJefferson,Iowa,Jefferson,2021-04-04 11:07:01.862033,2020-10-03 00:00:00.000000,0.79515694,1.59755861,2.49735685,145,292,456,74,143,227,0.40947187,0.78426475,1.24101461,0.29212728,0.42904212,0.55344714
19101,0,USIowaJefferson,Iowa,Jefferson,2021-04-04 11:07:01.862033,2020-10-04 00:00:00.000000,0.86473126,1.66022110,2.60283175,158,303,476,79,152,239,0.43569346,0.83530251,1.30963240,0.30497236,0.43973223,0.55017192
19101,0,USIowaJefferson,Iowa,Jefferson,2021-04-04 11:07:01.862033,2020-10-05 00:00:00.000000,0.94194153,1.77337314,2.71935936,172,324,497,85,163,255,0.46641500,0.89121020,1.39760553,0.31628905,0.44977285,0.56809055
19101,0,USIowaJefferson,Iowa,Jefferson,2021-04-04 11:07:01.862033,2020-10-06 00:00:00.000000,1.02749871,1.90293538,2.84058916,187,348,519,92,174,270,0.50448983,0.95319094,1.47915142,0.32430796,0.45542038,0.59986690
19101,0,USIowaJefferson,Iowa,Jefferson,2021-04-04 11:07:01.862033,2020-10-07 00:00:00.000000,1.11318595,2.02800687,2.96670954,203,371,542,98,185,284,0.53840558,1.01460402,1.55705503,0.33080521,0.45796489,0.60352664
19101,0,USIowaJefferson,Iowa,Jefferson,2021-04-04 11:07:01.862033,2020-10-08 00:00:00.000000,1.21168768,2.12166420,3.12252343,221,388,571,107,199,298,0.58798757,1.08810964,1.63354456,0.33093709,0.46270093,0.62770070
19101,0,USIowaJefferson,Iowa,Jefferson,2021-04-04 11:07:01.862033,2020-10-09 00:00:00.000000,1.31940206,2.25063531,3.25974389,241,411,596,113,212,314,0.61953165,1.16112975,1.71733692,0.33057787,0.46925655,0.63583265
19101,0,USIowaJefferson,Iowa,Jefferson,2021-04-04 11:07:01.862033,2020-10-10 00:00:00.000000,1.43708402,2.39114053,3.44866445,262,437,630,119,226,332,0.65490697,1.23579973,1.81778607,0.34051708,0.48063950,0.63837737
19101,0,USIowaJefferson,Iowa,Jefferson,2021-04-04 11:07:01.862033,2020-10-11 00:00:00.000000,1.56543211,2.55743209,3.63212840,286,467,664,128,239,350,0.70084717,1.30940875,1.91578900,0.33705930,0.48862923,0.63992799
19101,0,USIowaJefferson,Iowa,Jefferson,2021-04-04 11:07:01.862033,2020-10-12 00:00:00.000000,1.69084190,2.73024852,3.82008056,309,499,698,137,250,364,0.75219816,1.36649822,1.99323031,0.35272324,0.49747478,0.64406372
19101,0,USIowaJefferson,Iowa,Jefferson,2021-04-04 11:07:01.862033,2020-10-13 00:00:00.000000,1.79348942,2.88725431,4.02804582,328,528,736,148,266,381,0.81319065,1.45620055,2.08460286,0.35588147,0.49654389,0.65214724
19101,0,USIowaJefferson,Iowa,Jefferson,2021-04-04 11:07:01.862033,2020-10-14 00:00:00.000000,1.90503842,3.05914321,4.26014807,348,559,779,161,283,403,0.88161900,1.54818728,2.20314639,0.36102057,0.50246499,0.65346054
19101,0,USIowaJefferson,Iowa,Jefferson,2021-04-04 11:07:01.862033,2020-10-15 00:00:00.000000,2.02654171,3.25295297,4.52907916,370,595,828,174,299,429,0.95606790,1.63743165,2.34673922,0.37090879,0.50758624,0.65300152
19101,0,USIowaJefferson,Iowa,Jefferson,2021-04-04 11:07:01.862033,2020-10-16 00:00:00.000000,2.16055661,3.49004826,4.85783183,395,638,888,187,316,456,1.02510857,1.72940969,2.49595848,0.38410095,0.51677814,0.65222551
19101,0,USIowaJefferson,Iowa,Jefferson,2021-04-04 11:07:01.862033,2020-10-17 00:00:00.000000,2.29507881,3.70708914,5.24871200,419,678,960,201,335,485,1.10161993,1.83582981,2.65156199,0.37854601,0.51286900,0.64558449
19101,0,USIowaJefferson,Iowa,Jefferson,2021-04-04 11:07:01.862033,2020-10-18 00:00:00.000000,2.44092371,3.92204376,5.67788929,446,717,1038,216,353,514,1.18605310,1.93373915,2.81410779,0.37387159,0.51040514,0.66080012
19101,0,USIowaJefferson,Iowa,Jefferson,2021-04-04 11:07:01.862033,2020-10-19 00:00:00.000000,2.64172909,4.18891618,6.03291401,483,766,1103,234,375,545,1.27909600,2.05200898,2.98402131,0.37693808,0.51607865,0.68723890
19101,0,USIowaJefferson,Iowa,Jefferson,2021-04-04 11:07:01.862033,2020-10-20 00:00:00.000000,2.87428795,4.45378630,6.40562301,525,814,1171,252,402,578,1.38227984,2.19848011,3.16212163,0.38177175,0.51975874,0.69719710
19101,0,USIowaJefferson,Iowa,Jefferson,2021-04-04 11:07:01.862033,2020-10-21 00:00:00.000000,3.05489347,4.73331568,6.79634006,558,865,1243,274,430,623,1.49855301,2.35460192,3.40881903,0.39009395,0.52943882,0.70401265
19101,0,USIowaJefferson,Iowa,Jefferson,2021-04-04 11:07:01.862033,2020-10-22 00:00:00.000000,3.24110133,5.02455303,7.20595329,592,919,1318,295,458,662,1.61679189,2.50504559,3.61933810,0.40300528,0.53024319,0.70510785
19101,0,USIowaJefferson,Iowa,Jefferson,2021-04-04 11:07:01.862033,2020-10-23 00:00:00.000000,3.43304556,5.39910870,7.63624784,628,987,1397,319,489,696,1.74691948,2.67412953,3.80845779,0.40918301,0.52947538,0.69155420
19101,0,USIowaJefferson,Iowa,Jefferson,2021-04-04 11:07:01.862033,2020-10-24 00:00:00.000000,3.64293525,5.82385407,8.08968360,666,1065,1480,341,515,733,1.86807823,2.82030452,4.00904770,0.41137827,0.52989708,0.68219084
19101,0,USIowaJefferson,Iowa,Jefferson,2021-04-04 11:07:01.862033,2020-10-25 00:00:00.000000,3.89368502,6.22246106,8.56704013,712,1138,1567,364,544,775,1.99310447,2.97719053,4.23784286,0.42227523,0.53081065,0.67253823
19101,0,USIowaJefferson,Iowa,Jefferson,2021-04-04 11:07:01.862033,2020-10-26 00:00:00.000000,4.13675577,6.59533557,9.07140675,756,1206,1659,388,575,823,2.12139519,3.14692682,4.50014185,0.42613192,0.53111816,0.68577161
19101,0,USIowaJefferson,Iowa,Jefferson,2021-04-04 11:07:01.862033,2020-10-27 00:00:00.000000,4.39817882,6.97586094,9.61689896,804,1276,1759,415,614,875,2.27334604,3.35853779,4.78791900,0.43254568,0.53504576,0.69180453
19101,0,USIowaJefferson,Iowa,Jefferson,2021-04-04 11:07:01.862033,2020-10-28 00:00:00.000000,4.67550759,7.38914924,10.19806476,855,1351,1865,447,652,933,2.44595411,3.56593187,5.10259124,0.44131214,0.53740796,0.69372911
19101,0,USIowaJefferson,Iowa,Jefferson,2021-04-04 11:07:01.862033,2020-10-29 00:00:00.000000,4.96659248,7.77983510,10.79904648,908,1423,1975,482,694,992,2.63641934,3.79617716,5.42414147,0.44843294,0.53759893,0.69293249
19101,0,USIowaJefferson,Iowa,Jefferson,2021-04-04 11:07:01.862033,2020-10-30 00:00:00.000000,5.27019372,8.21281500,11.41546237,964,1502,2088,518,735,1055,2.83228082,4.02228036,5.76806454,0.44021812,0.54498030,0.68926071
19101,0,USIowaJefferson,Iowa,Jefferson,2021-04-04 11:07:01.862033,2020-10-31 00:00:00.000000,5.57597726,8.67797263,12.03350178,1020,1587,2201,557,776,1120,3.04590551,4.24252400,6.12685669,0.45518399,0.54778083,0.68158879
19101,0,USIowaJefferson,Iowa,Jefferson,2021-04-04 11:07:01.862033,2020-11-01 00:00:00.000000,5.86993733,9.20010064,12.63863317,1073,1683,2312,599,826,1189,3.27924445,4.51667237,6.49933406,0.45089733,0.54787726,0.67228202
19101,0,USIowaJefferson,Iowa,Jefferson,2021-04-04 11:07:01.862033,2020-11-02 00:00:00.000000,6.18532556,9.84370502,13.22504090,1131,1800,2419,633,878,1259,3.46121861,4.80180115,6.88418092,0.44018187,0.55530200,0.67736346
19101,0,USIowaJefferson,Iowa,Jefferson,2021-04-04 11:07:01.862033,2020-11-03 00:00:00.000000,6.60001665,10.39682951,13.80635130,1207,1902,2525,666,929,1332,3.64334625,5.08067344,7.28462643,0.43021287,0.55165967,0.66908585
19101,0,USIowaJefferson,Iowa,Jefferson,2021-04-04 11:07:01.862033,2020-11-04 00:00:00.000000,7.05650762,10.98306373,14.63706353,1290,2009,2677,700,996,1412,3.82756715,5.44556098,7.71810343,0.42518272,0.54774601,0.66915053
19101,0,USIowaJefferson,Iowa,Jefferson,2021-04-04 11:07:01.862033,2020-11-05 00:00:00.000000,7.52936656,11.52678901,15.58253111,1377,2108,2850,734,1066,1494,4.01388274,5.83095304,8.16837798,0.42486823,0.54112284,0.66919779
19101,0,USIowaJefferson,Iowa,Jefferson,2021-04-04 11:07:01.862033,2020-11-06 00:00:00.000000,8.01037509,11.98535979,16.37547074,1465,2192,2995,768,1132,1565,4.20136270,6.18855716,8.55660347,0.42343643,0.53644102,0.66333344
19101,0,USIowaJefferson,Iowa,Jefferson,2021-04-04 11:07:01.862033,2020-11-07 00:00:00.000000,8.47804632,12.50234671,16.59526857,1551,2287,3036,802,1176,1643,4.38683040,6.43124034,8.98496334,0.41104103,0.51903882,0.65252945
19101,0,USIowaJefferson,Iowa,Jefferson,2021-04-04 11:07:01.862033,2020-11-08 00:00:00.000000,8.86900419,13.04242306,16.77607831,1622,2386,3069,835,1231,1721,4.56445869,6.72980934,9.41093616,0.38804927,0.50218364,0.63203606
19101,0,USIowaJefferson,Iowa,Jefferson,2021-04-04 11:07:01.862033,2020-11-09 00:00:00.000000,9.08928546,13.46759588,16.94958644,1662,2463,3100,865,1282,1798,4.72983797,7.01112630,9.83275634,0.37818170,0.47332843,0.61842734
19101,0,USIowaJefferson,Iowa,Jefferson,2021-04-04 11:07:01.862033,2020-11-10 00:00:00.000000,9.27870639,13.73505111,17.42334941,1697,2512,3187,893,1332,1865,4.88158123,7.28410301,10.19600389,0.37134288,0.45433025,0.58884707
19101,0,USIowaJefferson,Iowa,Jefferson,2021-04-04 11:07:01.862033,2020-11-11 00:00:00.000000,9.44503000,14.08821096,17.91827401,1727,2577,3278,918,1389,1933,5.02228872,7.59398339,10.57038223,0.32089965,0.43630582,0.56481271
19101,0,USIowaJefferson,Iowa,Jefferson,2021-04-04 11:07:01.862033,2020-11-12 00:00:00.000000,9.59215192,14.26943889,18.19009989,1754,2610,3327,942,1428,1994,5.15376869,7.81071153,10.90104416,0.31444002,0.41812148,0.53988303
19101,0,USIowaJefferson,Iowa,Jefferson,2021-04-04 11:07:01.862033,2020-11-13 00:00:00.000000,9.72073393,14.35196141,18.43149298,1778,2625,3372,965,1456,2046,5.27597613,7.96353684,11.18638636,0.31094140,0.40257714,0.50643183
19101,0,USIowaJefferson,Iowa,Jefferson,2021-04-04 11:07:01.862033,2020-11-14 00:00:00.000000,9.82765651,14.31152396,18.76620791,1797,2618,3433,985,1481,2090,5.38619590,8.10010214,11.42795571,0.30719315,0.38764284,0.47752777
19101,0,USIowaJefferson,Iowa,Jefferson,2021-04-04 11:07:01.862033,2020-11-15 00:00:00.000000,9.90504812,14.28983531,18.99891423,1812,2614,3475,996,1509,2127,5.44550671,8.25033667,11.62923240,0.28707926,0.37125271,0.46929299
19101,0,USIowaJefferson,Iowa,Jefferson,2021-04-04 11:07:01.862033,2020-11-16 00:00:00.000000,9.94441683,14.21025260,18.91686003,1819,2599,3460,1003,1513,2177,5.48252177,8.27425160,11.90049589,0.27486078,0.36258790,0.45647917
19101,0,USIowaJefferson,Iowa,Jefferson,2021-04-04 11:07:01.862033,2020-11-17 00:00:00.000000,9.87634052,14.06204664,18.64421778,1806,2572,3410,984,1513,2197,5.38086066,8.27172510,12.01036489,0.27305872,0.35174502,0.44591283
19101,0,USIowaJefferson,Iowa,Jefferson,2021-04-04 11:07:01.862033,2020-11-18 00:00:00.000000,9.72450372,13.86427723,18.45806101,1779,2536,3376,959,1506,2203,5.24733377,8.23538642,12.04381689,0.26519610,0.34586630,0.44129712
19101,0,USIowaJefferson,Iowa,Jefferson,2021-04-04 11:07:01.862033,2020-11-19 00:00:00.000000,9.53105487,13.69758673,18.48711429,1743,2505,3382,935,1490,2191,5.11435397,8.14765270,11.97745932,0.26420666,0.33689336,0.42712254
19101,0,USIowaJefferson,Iowa,Jefferson,2021-04-04 11:07:01.862033,2020-11-20 00:00:00.000000,9.30771770,13.52552501,18.35300345,1702,2474,3357,911,1475,2164,4.98230820,8.06529998,11.83233606,0.26466131,0.32932590,0.40994688
19101,0,USIowaJefferson,Iowa,Jefferson,2021-04-04 11:07:01.862033,2020-11-21 00:00:00.000000,9.06500378,13.26361351,17.95139538,1658,2426,3284,887,1457,2148,4.85029523,7.96434742,11.74099376,0.24707590,0.31785694,0.40599512
19101,0,USIowaJefferson,Iowa,Jefferson,2021-04-04 11:07:01.862033,2020-11-22 00:00:00.000000,8.80775644,12.89279190,17.50103205,1611,2358,3201,863,1426,2144,4.71726732,7.79811985,11.72400688,0.23726358,0.31035800,0.40269546
19101,0,USIowaJefferson,Iowa,Jefferson,2021-04-04 11:07:01.862033,2020-11-23 00:00:00.000000,8.53017154,12.55958319,17.15785583,1560,2297,3139,838,1393,2135,4.58244374,7.61914708,11.67483085,0.23552133,0.30729393,0.40662789
19101,0,USIowaJefferson,Iowa,Jefferson,2021-04-04 11:07:01.862033,2020-11-24 00:00:00.000000,8.25118299,12.15368208,16.79878109,1509,2223,3073,813,1359,2121,4.44584981,7.43064988,11.59409998,0.23539889,0.30279553,0.40716295
19101,0,USIowaJefferson,Iowa,Jefferson,2021-04-04 11:07:01.862033,2020-11-25 00:00:00.000000,7.97335909,11.81957484,16.41031873,1458,2162,3002,788,1323,2072,4.30814239,7.23623235,11.32690508,0.23554757,0.30324674,0.40775437
19101,0,USIowaJefferson,Iowa,Jefferson,2021-04-04 11:07:01.862033,2020-11-26 00:00:00.000000,7.69938495,11.49803749,16.00583073,1408,2103,2928,762,1289,2029,4.17024396,7.04873051,11.09535277,0.23613126,0.30983595,0.40945243
19101,0,USIowaJefferson,Iowa,Jefferson,2021-04-04 11:07:01.862033,2020-11-27 00:00:00.000000,7.44230821,11.19284153,15.65618796,1361,2047,2864,737,1260,1973,4.03324133,6.88779746,10.78696156,0.23707399,0.31253078,0.41747503
19101,0,USIowaJefferson,Iowa,Jefferson,2021-04-04 11:07:01.862033,2020-11-28 00:00:00.000000,7.21700577,10.92607260,15.20005926,1320,1998,2780,713,1231,1919,3.89979280,6.73122854,10.49031084,0.23770533,0.32142118,0.41797251
19101,0,USIowaJefferson,Iowa,Jefferson,2021-04-04 11:07:01.862033,2020-11-29 00:00:00.000000,7.00889298,10.62640556,14.89401510,1282,1944,2724,696,1204,1888,3.80779391,6.58225722,10.32481416,0.23944107,0.32793546,0.42591074
19101,0,USIowaJefferson,Iowa,Jefferson,2021-04-04 11:07:01.862033,2020-11-30 00:00:00.000000,6.81748101,10.33102399,14.61595850,1247,1890,2673,684,1171,1854,3.74323089,6.40433842,10.13788098,0.24950921,0.34332808,0.44401050
19101,0,USIowaJefferson,Iowa,Jefferson,2021-04-04 11:07:01.862033,2020-12-01 00:00:00.000000,6.63435554,10.06214010,14.33975892,1213,1840,2623,673,1140,1811,3.68372377,6.23594791,9.90245537,0.27032062,0.35444388,0.45743278
19101,0,USIowaJefferson,Iowa,Jefferson,2021-04-04 11:07:01.862033,2020-12-02 00:00:00.000000,6.46404814,9.86968001,14.07897194,1182,1805,2575,664,1117,1776,3.62978011,6.10909703,9.71060012,0.26861694,0.36145536,0.50643246
19101,0,USIowaJefferson,Iowa,Jefferson,2021-04-04 11:07:01.862033,2020-12-03 00:00:00.000000,6.31411285,9.72118608,13.85411602,1155,1778,2534,655,1101,1740,3.58276760,6.02118672,9.51491922,0.26835253,0.37189317,0.56626135
19101,0,USIowaJefferson,Iowa,Jefferson,2021-04-04 11:07:01.862033,2020-12-04 00:00:00.000000,6.19405281,9.58464147,13.68565474,1133,1753,2503,648,1080,1705,3.54385739,5.90428217,9.31952037,0.27790460,0.37820500,0.59418781
19101,0,USIowaJefferson,Iowa,Jefferson,2021-04-04 11:07:01.862033,2020-12-05 00:00:00.000000,6.10864272,9.41785375,13.57743600,1117,1722,2483,642,1054,1672,3.51288070,5.76120488,9.14324627,0.28362309,0.39709454,0.63552688
19101,0,USIowaJefferson,Iowa,Jefferson,2021-04-04 11:07:01.862033,2020-12-06 00:00:00.000000,6.05478727,9.26024852,13.51915632,1107,1694,2473,638,1030,1650,3.48834380,5.63119937,9.02102490,0.29371087,0.41431706,0.66684801
19101,0,USIowaJefferson,Iowa,Jefferson,2021-04-04 11:07:01.862033,2020-12-07 00:00:00.000000,6.04962988,9.11325919,13.51854431,1106,1667,2473,632,1010,1637,3.45747036,5.52607135,8.95174998,0.30795149,0.44664072,0.69632982
19101,0,USIowaJefferson,Iowa,Jefferson,2021-04-04 11:07:01.862033,2020-12-08 00:00:00.000000,6.02050687,9.11015498,13.55024166,1101,1666,2479,623,1005,1630,3.40651762,5.49669556,8.91475195,0.33145098,0.46926117,0.72777055
19101,0,USIowaJefferson,Iowa,Jefferson,2021-04-04 11:07:01.862033,2020-12-09 00:00:00.000000,5.99026524,9.16535453,13.51336513,1095,1676,2472,619,1001,1620,3.38434275,5.47435771,8.85594432,0.35009711,0.48942460,0.75072824
19101,0,USIowaJefferson,Iowa,Jefferson,2021-04-04 11:07:01.862033,2020-12-10 00:00:00.000000,5.96243814,9.15971410,13.54327571,1090,1675,2477,618,994,1579,3.38003759,5.43406421,8.63162810,0.35432853,0.52508341,0.78564780
19101,0,USIowaJefferson,Iowa,Jefferson,2021-04-04 11:07:01.862033,2020-12-11 00:00:00.000000,5.95035312,9.26859115,13.61944054,1088,1695,2491,619,998,1540,3.38510613,5.45672188,8.41765659,0.36236404,0.56504715,0.89690216
19101,0,USIowaJefferson,Iowa,Jefferson,2021-04-04 11:07:01.862033,2020-12-12 00:00:00.000000,5.96877899,9.31833878,13.79391670,1091,1704,2523,620,998,1503,3.39137357,5.46031619,8.21952225,0.40058631,0.60900692,0.94521498
19101,0,USIowaJefferson,Iowa,Jefferson,2021-04-04 11:07:01.862033,2020-12-13 00:00:00.000000,6.02906139,9.47648601,14.00204268,1103,1733,2561,620,988,1471,3.39418177,5.40232368,8.04530985,0.43198498,0.62744006,0.96229110
19101,0,USIowaJefferson,Iowa,Jefferson,2021-04-04 11:07:01.862033,2020-12-14 00:00:00.000000,6.06460244,9.56594570,14.19542535,1109,1750,2597,625,984,1477,3.42084465,5.38258121,8.07343672,0.47805545,0.64715396,0.96967200
19101,0,USIowaJefferson,Iowa,Jefferson,2021-04-04 11:07:01.862033,2020-12-15 00:00:00.000000,6.11721799,9.67048761,14.36964379,1119,1769,2628,628,986,1493,3.43391478,5.39084163,8.16446396,0.51467089,0.67097683,0.98065494
19101,0,USIowaJefferson,Iowa,Jefferson,2021-04-04 11:07:01.862033,2020-12-16 00:00:00.000000,6.17344117,9.78472932,14.51809490,1129,1790,2656,641,999,1512,3.50612831,5.46201466,8.26512093,0.52153470,0.70393651,0.99075537
19101,0,USIowaJefferson,Iowa,Jefferson,2021-04-04 11:07:01.862033,2020-12-17 00:00:00.000000,6.22771989,9.93685465,14.64778194,1139,1817,2679,654,1011,1531,3.57559187,5.52707170,8.36878196,0.52479377,0.73370112,1.03899456
19101,0,USIowaJefferson,Iowa,Jefferson,2021-04-04 11:07:01.862033,2020-12-18 00:00:00.000000,6.27754283,10.07707186,14.79558793,1148,1843,2706,667,1027,1548,3.64650637,5.61529817,8.46576371,0.53610758,0.74083778,1.09893850
19101,0,USIowaJefferson,Iowa,Jefferson,2021-04-04 11:07:01.862033,2020-12-19 00:00:00.000000,6.32179321,10.23032672,14.94696644,1156,1871,2734,681,1044,1540,3.72620303,5.70927131,8.41993106,0.52563552,0.76404957,1.14790505
19101,0,USIowaJefferson,Iowa,Jefferson,2021-04-04 11:07:01.862033,2020-12-20 00:00:00.000000,6.36041685,10.41038018,15.06583158,1163,1904,2756,694,1062,1536,3.79824637,5.80845738,8.39764629,0.52674610,0.77828185,1.22254593
19101,0,USIowaJefferson,Iowa,Jefferson,2021-04-04 11:07:01.862033,2020-12-21 00:00:00.000000,6.40367929,10.58425526,14.96837299,1171,1936,2738,695,1083,1536,3.80225761,5.92320337,8.40075654,0.53484420,0.78446735,1.26391461
19101,0,USIowaJefferson,Iowa,Jefferson,2021-04-04 11:07:01.862033,2020-12-22 00:00:00.000000,6.48267145,10.71118835,14.76179603,1186,1959,2700,697,1090,1557,3.81036547,5.96054837,8.51089095,0.53735898,0.79850615,1.27744945
19101,0,USIowaJefferson,Iowa,Jefferson,2021-04-04 11:07:01.862033,2020-12-23 00:00:00.000000,6.61626911,10.72924905,14.72289520,1210,1962,2693,699,1102,1583,3.82520619,6.02812913,8.65720807,0.57000838,0.79905552,1.28357900
19101,0,USIowaJefferson,Iowa,Jefferson,2021-04-04 11:07:01.862033,2020-12-24 00:00:00.000000,6.61612640,10.81555460,14.54370048,1210,1978,2660,702,1122,1608,3.83934396,6.13788756,8.79034603,0.56937706,0.80318415,1.28998663
19101,0,USIowaJefferson,Iowa,Jefferson,2021-04-04 11:07:01.862033,2020-12-25 00:00:00.000000,6.52070835,10.76925003,14.34878972,1192,1970,2625,695,1130,1618,3.80113344,6.17920585,8.84557581,0.56704290,0.80644794,1.24242159
19101,0,USIowaJefferson,Iowa,Jefferson,2021-04-04 11:07:01.862033,2020-12-26 00:00:00.000000,6.41930926,10.71454583,14.14139954,1174,1960,2587,687,1132,1621,3.75634398,6.19214546,8.86146931,0.56647449,0.80565090,1.31869697
19101,0,USIowaJefferson,Iowa,Jefferson,2021-04-04 11:07:01.862033,2020-12-27 00:00:00.000000,6.41946306,10.78533040,14.18436786,1174,1973,2595,678,1131,1623,3.70636586,6.18514622,8.87446819,0.54675737,0.79827986,1.33589186
19101,0,USIowaJefferson,Iowa,Jefferson,2021-04-04 11:07:01.862033,2020-12-28 00:00:00.000000,6.45443378,10.74062554,14.19780933,1180,1964,2597,668,1141,1624,3.65156190,6.24092915,8.88125528,0.51923592,0.79948622,1.34637642
19101,0,USIowaJefferson,Iowa,Jefferson,2021-04-04 11:07:01.862033,2020-12-29 00:00:00.000000,6.47717479,10.73263473,14.08056827,1184,1963,2576,670,1140,1624,3.66692258,6.23400515,8.87716318,0.48667019,0.79839312,1.35510890
19101,0,USIowaJefferson,Iowa,Jefferson,2021-04-04 11:07:01.862033,2020-12-30 00:00:00.000000,6.48785959,10.73221729,13.84866230,1186,1963,2533,674,1134,1625,3.68778737,6.20110340,8.88758641,0.47723079,0.79671874,1.42821734
19101,0,USIowaJefferson,Iowa,Jefferson,2021-04-04 11:07:01.862033,2020-12-31 00:00:00.000000,6.48602528,10.62025681,13.46891089,1186,1942,2464,677,1126,1630,3.70112420,6.15927183,8.91233110,0.46879556,0.79720680,1.45322378
19101,0,USIowaJefferson,Iowa,Jefferson,2021-04-04 11:07:01.862033,2021-01-01 00:00:00.000000,6.46618152,10.55060911,13.28791894,1182,1930,2431,678,1119,1630,3.70717869,6.11906116,8.91336612,0.45410276,0.78011768,1.46905362
19101,0,USIowaJefferson,Iowa,Jefferson,2021-04-04 11:07:01.862033,2021-01-02 00:00:00.000000,6.39045578,10.36890436,13.16017531,1169,1896,2407,677,1111,1623,3.70389485,6.07736936,8.87258440,0.42685562,0.74481416,1.52243468
19101,0,USIowaJefferson,Iowa,Jefferson,2021-04-04 11:07:01.862033,2021-01-03 00:00:00.000000,6.20843764,10.10783955,12.95940459,1135,1849,2370,670,1087,1602,3.66348148,5.94307946,8.75761194,0.40641443,0.74027445,1.66250320
19101,0,USIowaJefferson,Iowa,Jefferson,2021-04-04 11:07:01.862033,2021-01-04 00:00:00.000000,5.95315772,9.84617335,12.69499478,1089,1801,2322,657,1074,1582,3.59236621,5.87084017,8.65233597,0.35590756,0.71784279,1.80156813
19101,0,USIowaJefferson,Iowa,Jefferson,2021-04-04 11:07:01.862033,2021-01-05 00:00:00.000000,5.67738588,9.46982844,12.39782084,1038,1732,2268,642,1049,1554,3.50936890,5.73454998,8.49561399,0.32510410,0.65647566,1.83889989
19101,0,USIowaJefferson,Iowa,Jefferson,2021-04-04 11:07:01.862033,2021-01-06 00:00:00.000000,5.39632051,9.02270225,12.07410551,987,1650,2208,617,1021,1519,3.37687867,5.58077591,8.30343459,0.31558207,0.62365491,1.85449999
19101,0,USIowaJefferson,Iowa,Jefferson,2021-04-04 11:07:01.862033,2021-01-07 00:00:00.000000,5.11804126,8.59913334,11.72529367,936,1573,2145,591,995,1480,3.23060770,5.44170194,8.09390649,0.27980037,0.57590695,1.86330595
19101,0,USIowaJefferson,Iowa,Jefferson,2021-04-04 11:07:01.862033,2021-01-08 00:00:00.000000,4.90820065,8.20051396,11.34841480,897,1500,2076,563,967,1446,3.07880022,5.28674161,7.90830291,0.27608159,0.54345270,1.86868362
19101,0,USIowaJefferson,Iowa,Jefferson,2021-04-04 11:07:01.862033,2021-01-09 00:00:00.000000,4.75944709,7.89277383,10.93779758,870,1443,2001,535,922,1409,2.92608708,5.04504707,7.70197469,0.27571527,0.52551307,1.85776106
19101,0,USIowaJefferson,Iowa,Jefferson,2021-04-04 11:07:01.862033,2021-01-10 00:00:00.000000,4.60736083,7.57926412,10.49096113,842,1386,1919,513,880,1367,2.80555111,4.81391663,7.47449289,0.27413125,0.50070007,1.87467316
19101,0,USIowaJefferson,Iowa,Jefferson,2021-04-04 11:07:01.862033,2021-01-11 00:00:00.000000,4.46749067,7.17622759,10.03952410,817,1312,1836,491,844,1321,2.68854024,4.61841962,7.22476966,0.25367752,0.49345856,1.87640228
19101,0,USIowaJefferson,Iowa,Jefferson,2021-04-04 11:07:01.862033,2021-01-12 00:00:00.000000,4.15130910,6.75581753,9.57346306,759,1235,1751,462,809,1273,2.52650299,4.42225097,6.95973000,0.24990738,0.48512199,1.87753380
19101,0,USIowaJefferson,Iowa,Jefferson,2021-04-04 11:07:01.862033,2021-01-13 00:00:00.000000,3.79028476,6.34513767,9.18337189,693,1160,1680,433,773,1222,2.36835673,4.22657303,6.68085182,0.24874143,0.47779934,1.87784126
19101,0,USIowaJefferson,Iowa,Jefferson,2021-04-04 11:07:01.862033,2021-01-14 00:00:00.000000,3.45700260,5.96376249,8.81613162,632,1091,1612,405,738,1169,2.21602373,4.03570499,6.39200146,0.24250572,0.46334450,1.87726836
19101,0,USIowaJefferson,Iowa,Jefferson,2021-04-04 11:07:01.862033,2021-01-15 00:00:00.000000,3.15003036,5.62688818,8.45732834,576,1029,1547,378,703,1115,2.07068751,3.84588457,6.09728257,0.24066555,0.45789624,1.87555733
19101,0,USIowaJefferson,Iowa,Jefferson,2021-04-04 11:07:01.862033,2021-01-16 00:00:00.000000,2.86774419,5.30097461,8.10680122,524,969,1483,353,667,1061,1.93273542,3.64709856,5.80186881,0.23206682,0.46154790,1.87135582
19101,0,USIowaJefferson,Iowa,Jefferson,2021-04-04 11:07:01.862033,2021-01-17 00:00:00.000000,2.60854667,4.98784694,7.74210701,477,912,1416,322,629,1008,1.76350500,3.44310823,5.51022221,0.23120454,0.45870635,1.83740861
19101,0,USIowaJefferson,Iowa,Jefferson,2021-04-04 11:07:01.862033,2021-01-18 00:00:00.000000,2.39661408,4.69022449,7.40620619,438,858,1354,294,593,956,1.60733913,3.24634486,5.22552680,0.22759782,0.45495337,1.80352988
19101,0,USIowaJefferson,Iowa,Jefferson,2021-04-04 11:07:01.862033,2021-01-19 00:00:00.000000,2.20534903,4.40694444,7.05583500,403,806,1290,268,558,904,1.46892550,3.05099709,4.94543646,0.21562097,0.45686834,1.69646493
19101,0,USIowaJefferson,Iowa,Jefferson,2021-04-04 11:07:01.862033,2021-01-20 00:00:00.000000,2.03418949,4.13805048,6.70792206,372,757,1227,246,524,855,1.34573751,2.86537727,4.67503030,0.21334348,0.45502681,1.59491464
19101,0,USIowaJefferson,Iowa,Jefferson,2021-04-04 11:07:01.862033,2021-01-21 00:00:00.000000,1.88175270,3.90651126,6.36457863,344,714,1164,226,492,811,1.23589588,2.69061630,4.43435668,0.21301616,0.44896631,1.58558501
19101,0,USIowaJefferson,Iowa,Jefferson,2021-04-04 11:07:01.862033,2021-01-22 00:00:00.000000,1.74670089,3.69212557,6.02765779,319,675,1102,208,463,768,1.13798524,2.53600835,4.20011356,0.21334009,0.46064855,1.58360000
19101,0,USIowaJefferson,Iowa,Jefferson,2021-04-04 11:07:01.862033,2021-01-23 00:00:00.000000,1.62721448,3.49049410,5.69958724,297,638,1042,192,436,727,1.05087972,2.38545081,3.97403715,0.23181040,0.46191493,1.58153103
19101,0,USIowaJefferson,Iowa,Jefferson,2021-04-04 11:07:01.862033,2021-01-24 00:00:00.000000,1.52106774,3.31070039,5.38257373,278,605,984,178,410,690,0.97352742,2.24259145,3.77283061,0.23196149,0.48304385,1.57791428
19101,0,USIowaJefferson,Iowa,Jefferson,2021-04-04 11:07:01.862033,2021-01-25 00:00:00.000000,1.40430859,3.12443783,5.09131111,256,571,931,165,383,656,0.90483019,2.09708040,3.58999172,0.23262365,0.48948037,1.56765221
19101,0,USIowaJefferson,Iowa,Jefferson,2021-04-04 11:07:01.862033,2021-01-26 00:00:00.000000,1.29718280,2.94385238,4.81357609,237,538,880,153,361,630,0.83914702,1.97442799,3.44798235,0.23557613,0.49021023,1.51061910
19101,0,USIowaJefferson,Iowa,Jefferson,2021-04-04 11:07:01.862033,2021-01-27 00:00:00.000000,1.19826111,2.76855371,4.54979973,219,506,832,142,339,605,0.77711174,1.85730658,3.31237839,0.24578861,0.47867210,1.48049074
19101,0,USIowaJefferson,Iowa,Jefferson,2021-04-04 11:07:01.862033,2021-01-28 00:00:00.000000,1.11047505,2.58589676,4.29965136,203,473,786,131,322,582,0.71916460,1.76448477,3.18198501,0.24312356,0.47303509,1.45808939
19101,0,USIowaJefferson,Iowa,Jefferson,2021-04-04 11:07:01.862033,2021-01-29 00:00:00.000000,1.05709170,2.43816130,4.06178424,193,446,743,124,306,550,0.67790801,1.67276795,3.00757301,0.23589343,0.47998891,1.44530738
19101,0,USIowaJefferson,Iowa,Jefferson,2021-04-04 11:07:01.862033,2021-01-30 00:00:00.000000,1.01286335,2.29987099,3.83225569,185,420,701,117,290,518,0.64192420,1.58519097,2.83189890,0.22730573,0.49636215,1.48333968
19101,0,USIowaJefferson,Iowa,Jefferson,2021-04-04 11:07:01.862033,2021-01-31 00:00:00.000000,0.97581683,2.18958198,3.65617853,178,400,668,111,275,487,0.61111705,1.50367719,2.66593140,0.22057218,0.50987428,1.53998712
19101,0,USIowaJefferson,Iowa,Jefferson,2021-04-04 11:07:01.862033,2021-02-01 00:00:00.000000,0.92280162,2.10323755,3.49689819,168,384,639,107,259,460,0.58498147,1.42019405,2.51615044,0.21686713,0.50428027,1.57601420
19101,0,USIowaJefferson,Iowa,Jefferson,2021-04-04 11:07:01.862033,2021-02-02 00:00:00.000000,0.87318132,2.00816796,3.34272530,159,367,611,101,245,440,0.55669379,1.34108776,2.40925965,0.21523935,0.52753674,1.58116278
19101,0,USIowaJefferson,Iowa,Jefferson,2021-04-04 11:07:01.862033,2021-02-03 00:00:00.000000,0.82564407,1.92639719,3.20915224,151,352,587,96,233,422,0.52800609,1.27588876,2.30960144,0.21469134,0.53016829,1.58327924
19101,0,USIowaJefferson,Iowa,Jefferson,2021-04-04 11:07:01.862033,2021-02-04 00:00:00.000000,0.78047138,1.83776142,3.05862550,142,336,559,91,221,405,0.49982347,1.20884929,2.21741229,0.21493291,0.52819842,1.57796084
19101,0,USIowaJefferson,Iowa,Jefferson,2021-04-04 11:07:01.862033,2021-02-05 00:00:00.000000,0.75561180,1.76503228,2.91345565,138,322,533,86,213,390,0.47264240,1.16901789,2.13293882,0.21673762,0.53596608,1.55560984
19101,0,USIowaJefferson,Iowa,Jefferson,2021-04-04 11:07:01.862033,2021-02-06 00:00:00.000000,0.73665015,1.69192994,2.78123132,134,309,508,81,204,375,0.44695217,1.11635250,2.05495093,0.22194239,0.55293466,1.52776990
19101,0,USIowaJefferson,Iowa,Jefferson,2021-04-04 11:07:01.862033,2021-02-07 00:00:00.000000,0.72060951,1.62675766,2.65283254,131,297,485,77,193,362,0.42265296,1.05981328,1.98131990,0.22913766,0.56533539,1.49634409
19101,0,USIowaJefferson,Iowa,Jefferson,2021-04-04 11:07:01.862033,2021-02-08 00:00:00.000000,0.69920602,1.55796588,2.53432764,127,285,463,73,184,349,0.39983673,1.01035204,1.91159655,0.23867700,0.59268017,1.48812035
19101,0,USIowaJefferson,Iowa,Jefferson,2021-04-04 11:07:01.862033,2021-02-09 00:00:00.000000,0.67936627,1.48391350,2.41397755,124,271,441,70,177,335,0.38457976,0.96953845,1.83182617,0.24492674,0.60240377,1.46590181
19101,0,USIowaJefferson,Iowa,Jefferson,2021-04-04 11:07:01.862033,2021-02-10 00:00:00.000000,0.66074942,1.41079844,2.27462468,120,258,416,68,170,316,0.37415971,0.93214876,1.72922143,0.25109863,0.61476788,1.45691836
19101,0,USIowaJefferson,Iowa,Jefferson,2021-04-04 11:07:01.862033,2021-02-11 00:00:00.000000,0.62346369,1.33103117,2.14332023,114,243,392,65,162,298,0.36008601,0.88853029,1.63175157,0.25844842,0.61871329,1.44937132
19101,0,USIowaJefferson,Iowa,Jefferson,2021-04-04 11:07:01.862033,2021-02-12 00:00:00.000000,0.61868975,1.25529324,2.03886971,113,229,373,61,154,281,0.33779124,0.84434332,1.53935087,0.26671320,0.62170637,1.43301940
19101,0,USIowaJefferson,Iowa,Jefferson,2021-04-04 11:07:01.862033,2021-02-13 00:00:00.000000,0.61482729,1.19229851,1.96672258,112,218,359,57,146,265,0.31693253,0.80228065,1.45163709,0.27033930,0.63249652,1.40092772
19101,0,USIowaJefferson,Iowa,Jefferson,2021-04-04 11:07:01.862033,2021-02-14 00:00:00.000000,0.60443756,1.13909850,1.89695305,110,208,347,55,140,250,0.30590011,0.76536004,1.36876448,0.27149488,0.62162043,1.61226186
19101,0,USIowaJefferson,Iowa,Jefferson,2021-04-04 11:07:01.862033,2021-02-15 00:00:00.000000,0.59089027,1.10586680,1.82539054,108,202,333,54,135,238,0.29943106,0.74008043,1.30237403,0.27350809,0.61969704,1.59076014
19101,0,USIowaJefferson,Iowa,Jefferson,2021-04-04 11:07:01.862033,2021-02-16 00:00:00.000000,0.57933737,1.07664325,1.75903744,105,196,321,53,129,230,0.29297164,0.70884906,1.26118864,0.27573184,0.62265570,1.61628052
19101,0,USIowaJefferson,Iowa,Jefferson,2021-04-04 11:07:01.862033,2021-02-17 00:00:00.000000,0.55756941,1.05197942,1.69691836,102,192,310,52,123,222,0.28688755,0.67523563,1.21815826,0.27790826,0.63682906,1.65632282
19101,0,USIowaJefferson,Iowa,Jefferson,2021-04-04 11:07:01.862033,2021-02-18 00:00:00.000000,0.52030475,1.02419354,1.63546173,95,187,299,51,118,214,0.28153100,0.64825337,1.17462078,0.28023600,0.63488060,1.65534275
19101,0,USIowaJefferson,Iowa,Jefferson,2021-04-04 11:07:01.862033,2021-02-19 00:00:00.000000,0.48553411,0.99728150,1.59901393,88,182,292,50,116,207,0.27715531,0.63454859,1.13465540,0.28237962,0.64024929,1.63230220
19101,0,USIowaJefferson,Iowa,Jefferson,2021-04-04 11:07:01.862033,2021-02-20 00:00:00.000000,0.50859423,0.96315704,1.56376221,93,176,286,50,114,202,0.27374965,0.62737511,1.10749277,0.28410073,0.62698654,1.60578617
19101,0,USIowaJefferson,Iowa,Jefferson,2021-04-04 11:07:01.862033,2021-02-21 00:00:00.000000,0.50149044,0.93280708,1.52964322,91,170,279,48,111,197,0.26588250,0.61039458,1.08148874,0.28461398,0.62364187,1.58346245
19101,0,USIowaJefferson,Iowa,Jefferson,2021-04-04 11:07:01.862033,2021-02-22 00:00:00.000000,0.48499847,0.89828851,1.48171526,88,164,271,48,107,193,0.26337767,0.58491083,1.05651450,0.28033708,0.62771083,1.57461618
19101,0,USIowaJefferson,Iowa,Jefferson,2021-04-04 11:07:01.862033,2021-02-23 00:00:00.000000,0.47076671,0.86537592,1.43482854,86,158,262,48,102,186,0.26618012,0.56194576,1.01870135,0.27646891,0.63135153,1.59173051
19101,0,USIowaJefferson,Iowa,Jefferson,2021-04-04 11:07:01.862033,2021-02-24 00:00:00.000000,0.45871822,0.83412040,1.38877476,83,152,254,47,98,179,0.25771438,0.54064330,0.97849239,0.27421555,0.64183278,1.63387827
19101,0,USIowaJefferson,Iowa,Jefferson,2021-04-04 11:07:01.862033,2021-02-25 00:00:00.000000,0.45236581,0.80779412,1.34376660,82,147,245,45,95,174,0.25059928,0.52063613,0.95217224,0.27396653,0.64781584,1.63565333
19101,0,USIowaJefferson,Iowa,Jefferson,2021-04-04 11:07:01.862033,2021-02-26 00:00:00.000000,0.44594719,0.77766472,1.30922622,81,142,239,44,92,169,0.24433192,0.50403835,0.92586652,0.27380044,0.65484770,1.63522324
19101,0,USIowaJefferson,Iowa,Jefferson,2021-04-04 11:07:01.862033,2021-02-27 00:00:00.000000,0.43065386,0.76232797,1.28320870,78,139,234,43,89,164,0.23874511,0.48790200,0.89979105,0.27368183,0.64194933,1.66146735
19101,0,USIowaJefferson,Iowa,Jefferson,2021-04-04 11:07:01.862033,2021-02-28 00:00:00.000000,0.42327269,0.74078912,1.25639482,77,135,229,42,85,159,0.23378651,0.46926115,0.87407848,0.27359699,0.62639708,1.66830766
19101,0,USIowaJefferson,Iowa,Jefferson,2021-04-04 11:07:01.862033,2021-03-01 00:00:00.000000,0.40489779,0.71678632,1.22982985,74,131,224,41,83,155,0.22944941,0.45527254,0.84878088,0.27335606,0.63861012,1.71691757
19101,0,USIowaJefferson,Iowa,Jefferson,2021-04-04 11:07:01.862033,2021-03-02 00:00:00.000000,0.38734175,0.68709319,1.20392851,70,125,220,41,80,151,0.22547909,0.43997297,0.82569903,0.26965461,0.63580697,1.75682659
19101,0,USIowaJefferson,Iowa,Jefferson,2021-04-04 11:07:01.862033,2021-03-03 00:00:00.000000,0.37043541,0.65906186,1.17856003,67,120,215,40,77,146,0.22193384,0.42182570,0.80178147,0.24711937,0.63328149,1.78445160
19101,0,USIowaJefferson,Iowa,Jefferson,2021-04-04 11:07:01.862033,2021-03-04 00:00:00.000000,0.35448747,0.64161167,1.15343192,64,117,211,39,73,142,0.21485154,0.40389351,0.77623568,0.24616344,0.63502556,1.81010957
19101,0,USIowaJefferson,Iowa,Jefferson,2021-04-04 11:07:01.862033,2021-03-05 00:00:00.000000,0.33965518,0.62085178,1.12326848,62,113,205,37,69,137,0.20607655,0.38192611,0.75107752,0.24519111,0.62126439,1.84671414
19101,0,USIowaJefferson,Iowa,Jefferson,2021-04-04 11:07:01.862033,2021-03-06 00:00:00.000000,0.32598400,0.59634248,1.09038610,59,109,199,36,66,132,0.19756902,0.36255600,0.72627411,0.24306494,0.61646843,1.90363381
19101,0,USIowaJefferson,Iowa,Jefferson,2021-04-04 11:07:01.862033,2021-03-07 00:00:00.000000,0.31344660,0.57225775,1.05800217,57,104,193,34,63,128,0.18949325,0.34727282,0.70152628,0.23763584,0.59873152,1.96734191
19101,0,USIowaJefferson,Iowa,Jefferson,2021-04-04 11:07:01.862033,2021-03-08 00:00:00.000000,0.29949753,0.55320486,1.02239676,54,101,187,33,62,123,0.18193355,0.34055577,0.67664350,0.22861845,0.59563389,1.94459046
19101,0,USIowaJefferson,Iowa,Jefferson,2021-04-04 11:07:01.862033,2021-03-09 00:00:00.000000,0.28804793,0.53241765,1.00037384,52,97,183,31,60,119,0.17391523,0.33101629,0.65362832,0.23076627,0.57458378,1.96892987
19101,0,USIowaJefferson,Iowa,Jefferson,2021-04-04 11:07:01.862033,2021-03-10 00:00:00.000000,0.27751943,0.52425989,0.96358043,50,95,176,30,58,115,0.16582565,0.31872125,0.63215085,0.23797326,0.58428355,1.97898877
19101,0,USIowaJefferson,Iowa,Jefferson,2021-04-04 11:07:01.862033,2021-03-11 00:00:00.000000,0.26793437,0.51556017,0.92822579,49,94,169,28,56,111,0.15790821,0.30980095,0.61196040,0.24592542,0.57491069,1.97687176
19101,0,USIowaJefferson,Iowa,Jefferson,2021-04-04 11:07:01.862033,2021-03-12 00:00:00.000000,0.25925861,0.50219331,0.89620757,47,91,163,27,55,108,0.15031029,0.30373475,0.59275485,0.25366679,0.56738823,1.95805717
19101,0,USIowaJefferson,Iowa,Jefferson,2021-04-04 11:07:01.862033,2021-03-13 00:00:00.000000,0.25141575,0.49771538,0.86834764,45,91,158,26,54,105,0.14480906,0.29626287,0.57441826,0.25570657,0.56723803,1.96180604
19101,0,USIowaJefferson,Iowa,Jefferson,2021-04-04 11:07:01.862033,2021-03-14 00:00:00.000000,0.24276881,0.48683292,0.84269151,44,89,154,25,52,101,0.14003229,0.28596003,0.55693130,0.25583956,0.57626638,2.07154899
19101,0,USIowaJefferson,Iowa,Jefferson,2021-04-04 11:07:01.862033,2021-03-15 00:00:00.000000,0.24467875,0.48508327,0.82951271,44,88,151,24,51,98,0.13566971,0.28312295,0.54023133,0.25619809,0.56789059,2.22841951
19101,0,USIowaJefferson,Iowa,Jefferson,2021-04-04 11:07:01.862033,2021-03-16 00:00:00.000000,0.24560885,0.47446486,0.81736198,44,86,149,24,50,95,0.13223400,0.27748855,0.52344131,0.25786097,0.56499663,2.24593983
19101,0,USIowaJefferson,Iowa,Jefferson,2021-04-04 11:07:01.862033,2021-03-17 00:00:00.000000,0.24385290,0.46364905,0.80621280,44,84,147,23,50,93,0.12988448,0.27522427,0.50857049,0.26333951,0.56930389,2.24793324
19101,0,USIowaJefferson,Iowa,Jefferson,2021-04-04 11:07:01.862033,2021-03-18 00:00:00.000000,0.23032478,0.45696751,0.79531075,42,83,145,23,49,90,0.12850666,0.26960379,0.49621857,0.26972315,0.56022476,2.24860237
19101,0,USIowaJefferson,Iowa,Jefferson,2021-04-04 11:07:01.862033,2021-03-19 00:00:00.000000,0.22688430,0.43842314,0.78442658,41,80,143,23,48,88,0.12778925,0.26277162,0.48351165,0.26495646,0.55782321,2.24875770
19101,0,USIowaJefferson,Iowa,Jefferson,2021-04-04 11:07:01.862033,2021-03-20 00:00:00.000000,0.23603049,0.42651929,0.77290789,43,78,141,23,47,86,0.12762512,0.25892306,0.47063964,0.25113211,0.56444496,2.25069678
19101,0,USIowaJefferson,Iowa,Jefferson,2021-04-04 11:07:01.862033,2021-03-21 00:00:00.000000,0.23870307,0.42492186,0.76047473,43,77,139,22,46,83,0.12133747,0.25565552,0.45777042,0.23837908,0.56278302,2.26115055
19101,0,USIowaJefferson,Iowa,Jefferson,2021-04-04 11:07:01.862033,2021-03-22 00:00:00.000000,0.22863227,0.41908652,0.73963963,41,76,135,22,45,81,0.12185939,0.24750830,0.44504030,0.23418017,0.54919153,2.33958032
19101,0,USIowaJefferson,Iowa,Jefferson,2021-04-04 11:07:01.862033,2021-03-23 00:00:00.000000,0.21914174,0.41625266,0.71856007,40,76,131,21,43,79,0.11709671,0.23937099,0.43478124,0.23219909,0.55527288,2.73998682
19101,0,USIowaJefferson,Iowa,Jefferson,2021-04-04 11:07:01.862033,2021-03-24 00:00:00.000000,0.20991988,0.40405749,0.69757821,38,73,127,20,42,78,0.11240592,0.23120068,0.42637316,0.22987491,0.55051803,2.85974878
19101,0,USIowaJefferson,Iowa,Jefferson,2021-04-04 11:07:01.862033,2021-03-25 00:00:00.000000,0.20178348,0.39707382,0.67731147,36,72,123,20,41,76,0.11090199,0.22753368,0.41942827,0.23066620,0.55880216,2.98035775
19101,0,USIowaJefferson,Iowa,Jefferson,2021-04-04 11:07:01.862033,2021-03-26 00:00:00.000000,0.19388672,0.39360667,0.65965215,35,72,120,20,41,75,0.11225672,0.22414068,0.41374359,0.23149759,0.56734824,3.14935019
19101,0,USIowaJefferson,Iowa,Jefferson,2021-04-04 11:07:01.862033,2021-03-27 00:00:00.000000,0.18668076,0.38727894,0.66058649,34,70,120,20,41,74,0.10978625,0.22593389,0.40921963,0.24315062,0.58675550,3.12017560
19101,0,USIowaJefferson,Iowa,Jefferson,2021-04-04 11:07:01.862033,2021-03-28 00:00:00.000000,0.18005403,0.37915999,0.66804681,32,69,122,19,41,74,0.10516789,0.22918103,0.40574800,0.25758241,0.60698069,3.04773392
19101,0,USIowaJefferson,Iowa,Jefferson,2021-04-04 11:07:01.862033,2021-03-29 00:00:00.000000,0.16794546,0.36352581,0.67383582,30,66,123,18,41,73,0.10062892,0.22795257,0.40315828,0.24498682,0.61967862,3.00556367
19101,0,USIowaJefferson,Iowa,Jefferson,2021-04-04 11:07:01.862033,2021-03-30 00:00:00.000000,0.15582247,0.34845751,0.66855669,28,63,122,17,40,71,0.09496812,0.22395264,0.39206446,0.24349938,0.62189947,2.98424242
19101,0,USIowaJefferson,Iowa,Jefferson,2021-04-04 11:07:01.862033,2021-03-31 00:00:00.000000,0.14273331,0.33507839,0.64339650,26,61,117,16,39,69,0.08872399,0.21729860,0.38167638,0.25359634,0.62296556,2.97334767
19101,0,USIowaJefferson,Iowa,Jefferson,2021-04-04 11:07:01.862033,2021-04-01 00:00:00.000000,0.12993787,0.31800954,0.61854277,23,58,113,15,38,69,0.08226526,0.21303839,0.38260593,0.26679345,0.61968975,2.96560384
19101,0,USIowaJefferson,Iowa,Jefferson,2021-04-04 11:07:01.862033,2021-04-02 00:00:00.000000,0.11705560,0.29928507,0.59419155,21,54,108,13,37,68,0.07583904,0.20550461,0.37392229,0.26612331,0.61995050,2.95988484
19101,0,USIowaJefferson,Iowa,Jefferson,2021-04-04 11:07:01.862033,2021-04-03 00:00:00.000000,0.10726770,0.28159626,0.57047042,19,51,104,12,35,66,0.06960623,0.19609809,0.36483736,0.26458153,0.59227350,2.95988865
19101,0,USIowaJefferson,Iowa,Jefferson,2021-04-04 11:07:01.862033,2021-04-04 00:00:00.000000,0.09797596,0.26478234,0.54746144,17,48,100,11,34,64,0.06366735,0.18732848,0.35526603,0.26173672,0.59523179,2.97513293
19101,0,USIowaJefferson,Iowa,Jefferson,2021-04-04 11:07:01.862033,2021-04-05 00:00:00.000000,0.08885188,0.24885021,0.52521451,16,45,96,10,32,63,0.05808175,0.17522526,0.34561074,0.25840090,0.59373691,3.00602836
19101,0,USIowaJefferson,Iowa,Jefferson,2021-04-04 11:07:01.862033,2021-04-06 00:00:00.000000,0.08058877,0.23378939,0.50375292,14,42,92,9,30,61,0.05288315,0.16810977,0.33620251,0.25618149,0.59430615,3.01708467
19101,0,USIowaJefferson,Iowa,Jefferson,2021-04-04 11:07:01.862033,2021-04-07 00:00:00.000000,0.07319262,0.22024407,0.48307809,13,40,88,8,29,59,0.04852651,0.16004165,0.32718277,0.25537218,0.59115510,3.01858720
19101,0,USIowaJefferson,Iowa,Jefferson,2021-04-04 11:07:01.862033,2021-04-08 00:00:00.000000,0.06658499,0.20642066,0.46317868,12,37,84,8,27,58,0.04463627,0.15062988,0.31860941,0.25523515,0.58707386,3.01874485
19101,0,USIowaJefferson,Iowa,Jefferson,2021-04-04 11:07:01.862033,2021-04-09 00:00:00.000000,0.06062293,0.19361782,0.44403811,11,35,81,7,25,56,0.04101427,0.14171943,0.31046654,0.25522779,0.58642581,3.01875664
19101,0,USIowaJefferson,Iowa,Jefferson,2021-04-04 11:07:01.862033,2021-04-10 00:00:00.000000,0.05521870,0.18282005,0.42563740,10,33,77,6,24,54,0.03765597,0.13329988,0.30016053,0.25522556,0.58627949,3.01875544
19101,0,USIowaJefferson,Iowa,Jefferson,2021-04-04 11:07:01.862033,2021-04-11 00:00:00.000000,0.05030964,0.17381269,0.40795601,9,31,74,6,22,52,0.03427623,0.12535523,0.28783714,0.25522280,0.58624586,3.01875421
19101,0,USIowaJefferson,Iowa,Jefferson,2021-04-04 11:07:01.862033,2021-04-12 00:00:00.000000,0.04584550,0.16448245,0.39097237,8,30,71,5,21,50,0.03064778,0.11786628,0.27596847,0.25522105,0.58623770,3.01875358
19101,0,USIowaJefferson,Iowa,Jefferson,2021-04-04 11:07:01.862033,2021-04-13 00:00:00.000000,0.04178319,0.15426188,0.37466418,7,28,68,5,20,48,0.02738436,0.11081211,0.26454829,0.25522020,0.58623548,3.01875330
19101,0,USIowaJefferson,Iowa,Jefferson,2021-04-04 11:07:01.862033,2021-04-14 00:00:00.000000,0.03808478,0.14464757,0.35900887,6,26,65,4,19,46,0.02484028,0.10446727,0.25356742,0.25521984,0.58623474,3.01875317
19101,0,USIowaJefferson,Iowa,Jefferson,2021-04-04 11:07:01.862033,2021-04-15 00:00:00.000000,0.03471647,0.13561035,0.34398382,6,24,62,4,17,44,0.02263468,0.09818434,0.24301481,0.25521970,0.58651701,3.01875311
19101,0,USIowaJefferson,Iowa,Jefferson,2021-04-04 11:07:01.862033,2021-04-16 00:00:00.000000,0.03164795,0.12712101,0.32956663,5,23,60,3,16,42,0.02062803,0.09204204,0.23287824,0.25521964,0.58682546,3.01875309
