FIPS,HR_UID,nameid,province,region,analysisTime,dates,pointprevalence_025,pointprevalence_50,pointprevalence_975,pointinfections_025,pointinfections_50,pointinfections_975,pointinfectious_025,pointinfectious_50,pointinfectious_975,pointinfectiousprevalence_05,pointinfectiousprevalence_50,pointinfectiousprevalence_95,infectrate_025,infectrate_50,infectrate_975
5073,0,USArkansasLafayette,Arkansas,Lafayette,2021-04-04 13:45:09.781738,2020-03-09 00:00:00.000000,0.01150945,0.04457743,0.18545517,0,2,12,0,1,6,0.00629716,0.02446475,0.09913012,0.34363795,0.47850981,0.69609190
5073,0,USArkansasLafayette,Arkansas,Lafayette,2021-04-04 13:45:09.781738,2020-03-10 00:00:00.000000,0.01163212,0.04753432,0.18831061,0,3,12,0,1,6,0.00609848,0.02425760,0.09551704,0.34363790,0.47850728,0.69609010
5073,0,USArkansasLafayette,Arkansas,Lafayette,2021-04-04 13:45:09.781738,2020-03-11 00:00:00.000000,0.01186523,0.05145215,0.19166409,0,3,12,0,1,6,0.00634676,0.02605431,0.09789220,0.34363780,0.47850015,0.69608695
5073,0,USArkansasLafayette,Arkansas,Lafayette,2021-04-04 13:45:09.781738,2020-03-12 00:00:00.000000,0.01238059,0.05634465,0.19531118,0,3,12,0,1,6,0.00675754,0.02754914,0.10094916,0.34363754,0.47847919,0.69608101
5073,0,USArkansasLafayette,Arkansas,Lafayette,2021-04-04 13:45:09.781738,2020-03-13 00:00:00.000000,0.01346127,0.06071097,0.20057429,0,4,13,0,1,6,0.00729217,0.03005688,0.09992076,0.34363691,0.47841575,0.69606869
5073,0,USArkansasLafayette,Arkansas,Lafayette,2021-04-04 13:45:09.781738,2020-03-14 00:00:00.000000,0.01462586,0.06554516,0.20465669,0,4,13,0,2,6,0.00791136,0.03281520,0.10095252,0.34363535,0.47771115,0.69604038
5073,0,USArkansasLafayette,Arkansas,Lafayette,2021-04-04 13:45:09.781738,2020-03-15 00:00:00.000000,0.01588054,0.07022261,0.20879897,1,4,13,0,2,7,0.00859852,0.03552452,0.10731015,0.34363135,0.47715826,0.69596927
5073,0,USArkansasLafayette,Arkansas,Lafayette,2021-04-04 13:45:09.781738,2020-03-16 00:00:00.000000,0.02326359,0.08702529,0.23878449,1,5,15,0,2,7,0.00934766,0.03812553,0.11385162,0.34362080,0.47548079,0.69577852
5073,0,USArkansasLafayette,Arkansas,Lafayette,2021-04-04 13:45:09.781738,2020-03-17 00:00:00.000000,0.03145353,0.10822083,0.27785481,2,7,18,0,2,8,0.01193704,0.04463074,0.12430212,0.33058873,0.46901102,0.68693454
5073,0,USArkansasLafayette,Arkansas,Lafayette,2021-04-04 13:45:09.781738,2020-03-18 00:00:00.000000,0.04510920,0.13181875,0.31615808,2,8,20,1,3,9,0.01567432,0.05240752,0.13931860,0.32801637,0.45759860,0.65773953
5073,0,USArkansasLafayette,Arkansas,Lafayette,2021-04-04 13:45:09.781738,2020-03-19 00:00:00.000000,0.05390684,0.15420970,0.34813540,3,10,23,1,4,10,0.02010183,0.06385651,0.15803861,0.28630484,0.43284239,0.62350895
5073,0,USArkansasLafayette,Arkansas,Lafayette,2021-04-04 13:45:09.781738,2020-03-20 00:00:00.000000,0.06330701,0.17861859,0.38222625,4,11,25,1,4,11,0.02492404,0.07447399,0.17389023,0.26801467,0.40581689,0.62124445
5073,0,USArkansasLafayette,Arkansas,Lafayette,2021-04-04 13:45:09.781738,2020-03-21 00:00:00.000000,0.07335909,0.20854351,0.41682874,4,13,27,1,5,13,0.03001558,0.08701243,0.19733362,0.25374897,0.38310783,0.61287969
5073,0,USArkansasLafayette,Arkansas,Lafayette,2021-04-04 13:45:09.781738,2020-03-22 00:00:00.000000,0.08401068,0.24245632,0.43939303,5,16,29,2,6,14,0.03527591,0.10142449,0.21839440,0.24861148,0.37099644,0.57508888
5073,0,USArkansasLafayette,Arkansas,Lafayette,2021-04-04 13:45:09.781738,2020-03-23 00:00:00.000000,0.12045080,0.26409363,0.47175299,7,17,31,2,7,15,0.04068181,0.11702957,0.23318647,0.24153105,0.35212128,0.52714527
5073,0,USArkansasLafayette,Arkansas,Lafayette,2021-04-04 13:45:09.781738,2020-03-24 00:00:00.000000,0.15208536,0.28671983,0.54305914,10,18,35,3,8,17,0.04934713,0.13090510,0.25729391,0.23868800,0.33803764,0.50708733
5073,0,USArkansasLafayette,Arkansas,Lafayette,2021-04-04 13:45:09.781738,2020-03-25 00:00:00.000000,0.18083667,0.30427154,0.59251102,11,20,39,4,9,18,0.06211036,0.14485201,0.28662667,0.22429390,0.32556067,0.49338502
5073,0,USArkansasLafayette,Arkansas,Lafayette,2021-04-04 13:45:09.781738,2020-03-26 00:00:00.000000,0.19763780,0.34127966,0.61787776,13,22,40,4,10,20,0.07489161,0.15942081,0.30282090,0.21065813,0.31328049,0.47631374
5073,0,USArkansasLafayette,Arkansas,Lafayette,2021-04-04 13:45:09.781738,2020-03-27 00:00:00.000000,0.21360402,0.37278858,0.64765052,14,24,42,5,11,21,0.08087034,0.17657652,0.31806673,0.20189960,0.29361557,0.46290810
5073,0,USArkansasLafayette,Arkansas,Lafayette,2021-04-04 13:45:09.781738,2020-03-28 00:00:00.000000,0.22899275,0.38795291,0.69652753,15,25,46,5,12,22,0.08670869,0.19269418,0.34282004,0.19434397,0.27822930,0.45093118
5073,0,USArkansasLafayette,Arkansas,Lafayette,2021-04-04 13:45:09.781738,2020-03-29 00:00:00.000000,0.24400198,0.41786720,0.74551308,16,27,49,6,13,24,0.09247687,0.20541198,0.37177876,0.19072505,0.26107029,0.43465550
5073,0,USArkansasLafayette,Arkansas,Lafayette,2021-04-04 13:45:09.781738,2020-03-30 00:00:00.000000,0.25986547,0.45340608,0.77829009,17,30,51,6,14,26,0.09887761,0.22106887,0.40088495,0.18214213,0.25140935,0.39687485
5073,0,USArkansasLafayette,Arkansas,Lafayette,2021-04-04 13:45:09.781738,2020-03-31 00:00:00.000000,0.27450526,0.46232129,0.80914837,18,30,53,7,15,28,0.10823332,0.23713126,0.42633378,0.17672937,0.24783018,0.37133533
5073,0,USArkansasLafayette,Arkansas,Lafayette,2021-04-04 13:45:09.781738,2020-04-01 00:00:00.000000,0.28647169,0.47371211,0.83777113,18,31,55,7,16,29,0.11800706,0.25356288,0.44900759,0.17237715,0.23256044,0.36374728
5073,0,USArkansasLafayette,Arkansas,Lafayette,2021-04-04 13:45:09.781738,2020-04-02 00:00:00.000000,0.29680201,0.50017073,0.86403875,19,33,57,8,17,31,0.12830105,0.26348219,0.46950760,0.16854709,0.22555964,0.35338603
5073,0,USArkansasLafayette,Arkansas,Lafayette,2021-04-04 13:45:09.781738,2020-04-03 00:00:00.000000,0.30575274,0.51494030,0.88708317,20,34,58,9,18,32,0.13965678,0.27487155,0.48828426,0.15677620,0.21641564,0.33532621
5073,0,USArkansasLafayette,Arkansas,Lafayette,2021-04-04 13:45:09.781738,2020-04-04 00:00:00.000000,0.31259977,0.54163382,0.90553221,20,35,59,9,19,33,0.15088863,0.29046959,0.50502496,0.14499891,0.21089709,0.31828345
5073,0,USArkansasLafayette,Arkansas,Lafayette,2021-04-04 13:45:09.781738,2020-04-05 00:00:00.000000,0.31938488,0.56707702,0.95219499,21,37,63,10,20,34,0.16170021,0.30241864,0.51953201,0.13673215,0.20530907,0.30993999
5073,0,USArkansasLafayette,Arkansas,Lafayette,2021-04-04 13:45:09.781738,2020-04-06 00:00:00.000000,0.32619564,0.58087336,0.96405917,21,38,63,11,20,35,0.16817852,0.31313075,0.53207127,0.13469528,0.20421399,0.30393522
5073,0,USArkansasLafayette,Arkansas,Lafayette,2021-04-04 13:45:09.781738,2020-04-07 00:00:00.000000,0.33365734,0.60853046,0.99352792,22,40,65,11,21,36,0.17416371,0.32445666,0.54955883,0.11976581,0.19741080,0.30039023
5073,0,USArkansasLafayette,Arkansas,Lafayette,2021-04-04 13:45:09.781738,2020-04-08 00:00:00.000000,0.34077803,0.61151004,1.01229988,22,40,67,11,21,37,0.18074646,0.32775783,0.57006790,0.11525080,0.19376896,0.29698170
5073,0,USArkansasLafayette,Arkansas,Lafayette,2021-04-04 13:45:09.781738,2020-04-09 00:00:00.000000,0.35590811,0.61696163,0.99776875,23,40,66,12,21,39,0.18671398,0.33208742,0.59059267,0.11294237,0.18808737,0.29128342
5073,0,USArkansasLafayette,Arkansas,Lafayette,2021-04-04 13:45:09.781738,2020-04-10 00:00:00.000000,0.35704118,0.62594874,1.00641017,23,41,66,12,22,38,0.19286657,0.33497307,0.58834941,0.10954296,0.17954851,0.28427327
5073,0,USArkansasLafayette,Arkansas,Lafayette,2021-04-04 13:45:09.781738,2020-04-11 00:00:00.000000,0.36050426,0.63521274,1.01493756,23,42,67,13,22,39,0.19890554,0.33859128,0.59776530,0.10371302,0.17491129,0.27791077
5073,0,USArkansasLafayette,Arkansas,Lafayette,2021-04-04 13:45:09.781738,2020-04-12 00:00:00.000000,0.36655684,0.64554387,1.02214002,24,42,67,13,22,40,0.19917967,0.34400920,0.60510348,0.10024569,0.16856377,0.27338807
5073,0,USArkansasLafayette,Arkansas,Lafayette,2021-04-04 13:45:09.781738,2020-04-13 00:00:00.000000,0.36188610,0.64397472,1.01502429,23,42,67,12,23,39,0.19170798,0.34917481,0.60085934,0.09779821,0.16352395,0.27080242
5073,0,USArkansasLafayette,Arkansas,Lafayette,2021-04-04 13:45:09.781738,2020-04-14 00:00:00.000000,0.35614378,0.64037522,1.00658233,23,42,66,12,23,39,0.18610008,0.35238109,0.59292007,0.09489889,0.16103288,0.26944247
5073,0,USArkansasLafayette,Arkansas,Lafayette,2021-04-04 13:45:09.781738,2020-04-15 00:00:00.000000,0.35100939,0.63846959,0.98719835,23,42,65,12,23,40,0.18195559,0.35438999,0.60683685,0.08880293,0.15676306,0.26836373
5073,0,USArkansasLafayette,Arkansas,Lafayette,2021-04-04 13:45:09.781738,2020-04-16 00:00:00.000000,0.34630086,0.63619022,0.99367347,22,42,65,11,23,40,0.17868215,0.35343153,0.61127629,0.08736568,0.15124561,0.26480926
5073,0,USArkansasLafayette,Arkansas,Lafayette,2021-04-04 13:45:09.781738,2020-04-17 00:00:00.000000,0.34198116,0.64015348,1.01291643,22,42,67,11,23,40,0.17594164,0.35563299,0.60684402,0.08667756,0.14691892,0.24794034
5073,0,USArkansasLafayette,Arkansas,Lafayette,2021-04-04 13:45:09.781738,2020-04-18 00:00:00.000000,0.33805726,0.63730248,1.02753165,22,42,68,11,23,39,0.17421766,0.35078804,0.59968765,0.08642064,0.14216350,0.24018725
5073,0,USArkansasLafayette,Arkansas,Lafayette,2021-04-04 13:45:09.781738,2020-04-19 00:00:00.000000,0.33109020,0.63145773,1.03914761,21,41,68,11,23,41,0.17582021,0.35329517,0.62067838,0.08645000,0.13781602,0.23811244
5073,0,USArkansasLafayette,Arkansas,Lafayette,2021-04-04 13:45:09.781738,2020-04-20 00:00:00.000000,0.32624302,0.62972852,1.03987741,21,41,68,11,23,42,0.17689802,0.35236918,0.64560998,0.08641847,0.13429061,0.23258127
5073,0,USArkansasLafayette,Arkansas,Lafayette,2021-04-04 13:45:09.781738,2020-04-21 00:00:00.000000,0.32228418,0.62923405,1.07031616,21,41,70,11,23,43,0.17875490,0.35480253,0.65736376,0.08550304,0.12967863,0.22132325
5073,0,USArkansasLafayette,Arkansas,Lafayette,2021-04-04 13:45:09.781738,2020-04-22 00:00:00.000000,0.32626113,0.63444714,1.09753115,21,42,72,11,23,43,0.18098029,0.35347322,0.66046575,0.08493789,0.12539829,0.21813591
5073,0,USArkansasLafayette,Arkansas,Lafayette,2021-04-04 13:45:09.781738,2020-04-23 00:00:00.000000,0.32397109,0.63109529,1.08022481,21,41,71,12,23,43,0.18280883,0.35649502,0.66397854,0.08431937,0.12368308,0.21780207
5073,0,USArkansasLafayette,Arkansas,Lafayette,2021-04-04 13:45:09.781738,2020-04-24 00:00:00.000000,0.30950226,0.62472051,1.05747210,20,41,70,11,23,43,0.17869212,0.35789622,0.66202875,0.08090341,0.12382265,0.21690726
5073,0,USArkansasLafayette,Arkansas,Lafayette,2021-04-04 13:45:09.781738,2020-04-25 00:00:00.000000,0.30577038,0.62642932,1.04945700,20,41,69,11,23,43,0.17250453,0.35473807,0.65103594,0.07892879,0.12546274,0.21482812
5073,0,USArkansasLafayette,Arkansas,Lafayette,2021-04-04 13:45:09.781738,2020-04-26 00:00:00.000000,0.30497796,0.61877753,1.04948791,20,40,69,11,23,42,0.16975352,0.34727834,0.63808171,0.07839496,0.12095987,0.21314791
5073,0,USArkansasLafayette,Arkansas,Lafayette,2021-04-04 13:45:09.781738,2020-04-27 00:00:00.000000,0.30153654,0.61642346,1.00822917,19,40,66,11,22,41,0.16824824,0.34573506,0.62828645,0.07173650,0.12061473,0.21220911
5073,0,USArkansasLafayette,Arkansas,Lafayette,2021-04-04 13:45:09.781738,2020-04-28 00:00:00.000000,0.29814157,0.61782015,0.98749178,19,40,65,11,22,41,0.16818416,0.34274132,0.62355474,0.07163844,0.11981352,0.21030225
5073,0,USArkansasLafayette,Arkansas,Lafayette,2021-04-04 13:45:09.781738,2020-04-29 00:00:00.000000,0.29447235,0.61203423,0.97941704,19,40,64,10,22,40,0.16587057,0.34432176,0.61470252,0.07184615,0.11560356,0.21011911
5073,0,USArkansasLafayette,Arkansas,Lafayette,2021-04-04 13:45:09.781738,2020-04-30 00:00:00.000000,0.29017604,0.61069231,0.97169596,19,40,64,10,22,40,0.16183986,0.34418388,0.61328595,0.07038250,0.11316538,0.20995069
5073,0,USArkansasLafayette,Arkansas,Lafayette,2021-04-04 13:45:09.781738,2020-05-01 00:00:00.000000,0.28518635,0.61218426,0.96450513,18,40,63,10,22,40,0.15973161,0.34339747,0.60761517,0.06772290,0.10924946,0.20945025
5073,0,USArkansasLafayette,Arkansas,Lafayette,2021-04-04 13:45:09.781738,2020-05-02 00:00:00.000000,0.28190245,0.59709024,0.95782351,18,39,63,10,22,39,0.15781604,0.34380963,0.59763814,0.06644136,0.10927462,0.20871694
5073,0,USArkansasLafayette,Arkansas,Lafayette,2021-04-04 13:45:09.781738,2020-05-03 00:00:00.000000,0.27447262,0.59019209,0.95160584,18,39,63,10,22,38,0.15552821,0.33979851,0.58796979,0.06613163,0.10799364,0.20518824
5073,0,USArkansasLafayette,Arkansas,Lafayette,2021-04-04 13:45:09.781738,2020-05-04 00:00:00.000000,0.25801590,0.56453320,0.90389702,17,37,59,10,22,38,0.15364745,0.33715254,0.58008577,0.06614517,0.10709052,0.20544955
5073,0,USArkansasLafayette,Arkansas,Lafayette,2021-04-04 13:45:09.781738,2020-05-05 00:00:00.000000,0.24420320,0.53805969,0.85656287,16,35,56,9,21,37,0.14928970,0.32750114,0.57008706,0.06570751,0.10677237,0.20590589
5073,0,USArkansasLafayette,Arkansas,Lafayette,2021-04-04 13:45:09.781738,2020-05-06 00:00:00.000000,0.22980081,0.50299099,0.80911552,15,33,53,9,20,36,0.14344417,0.31034451,0.55433496,0.06556115,0.10724069,0.20694558
5073,0,USArkansasLafayette,Arkansas,Lafayette,2021-04-04 13:45:09.781738,2020-05-07 00:00:00.000000,0.21436618,0.47658596,0.76780787,14,31,50,9,19,35,0.13643654,0.29605035,0.53590472,0.06497305,0.10615228,0.20603650
5073,0,USArkansasLafayette,Arkansas,Lafayette,2021-04-04 13:45:09.781738,2020-05-08 00:00:00.000000,0.19956372,0.44814331,0.75164241,13,29,49,8,18,34,0.12870964,0.28298265,0.51619253,0.06435150,0.10412986,0.19950423
5073,0,USArkansasLafayette,Arkansas,Lafayette,2021-04-04 13:45:09.781738,2020-05-09 00:00:00.000000,0.18548572,0.42329023,0.73702651,12,28,48,8,17,32,0.12084940,0.26630069,0.49583188,0.06462488,0.10338824,0.19606858
5073,0,USArkansasLafayette,Arkansas,Lafayette,2021-04-04 13:45:09.781738,2020-05-10 00:00:00.000000,0.17112695,0.39929507,0.72399126,11,26,47,7,16,31,0.11306610,0.25309947,0.47517059,0.06455071,0.10594475,0.19492392
5073,0,USArkansasLafayette,Arkansas,Lafayette,2021-04-04 13:45:09.781738,2020-05-11 00:00:00.000000,0.15652760,0.36919506,0.71207488,10,24,47,6,15,30,0.10549773,0.23804645,0.45448524,0.06549156,0.10589214,0.19460623
5073,0,USArkansasLafayette,Arkansas,Lafayette,2021-04-04 13:45:09.781738,2020-05-12 00:00:00.000000,0.14324377,0.34605555,0.70082921,9,22,46,6,14,28,0.09823118,0.22314416,0.43403089,0.06571193,0.10579291,0.19480300
5073,0,USArkansasLafayette,Arkansas,Lafayette,2021-04-04 13:45:09.781738,2020-05-13 00:00:00.000000,0.13287307,0.32421339,0.68999497,8,21,45,6,13,27,0.09131771,0.20896651,0.41402359,0.06494170,0.10544164,0.19629836
5073,0,USArkansasLafayette,Arkansas,Lafayette,2021-04-04 13:45:09.781738,2020-05-14 00:00:00.000000,0.12346005,0.30422346,0.67326257,8,20,44,5,13,26,0.08478400,0.19717043,0.39462094,0.06458451,0.10531149,0.20043093
5073,0,USArkansasLafayette,Arkansas,Lafayette,2021-04-04 13:45:09.781738,2020-05-15 00:00:00.000000,0.11476868,0.28505908,0.64186937,7,18,42,5,12,24,0.07863982,0.18305932,0.37591804,0.06445367,0.10417435,0.20245488
5073,0,USArkansasLafayette,Arkansas,Lafayette,2021-04-04 13:45:09.781738,2020-05-16 00:00:00.000000,0.10676278,0.26580698,0.61193671,7,17,40,4,11,23,0.07288349,0.16985596,0.35794817,0.06460599,0.10460866,0.20356279
5073,0,USArkansasLafayette,Arkansas,Lafayette,2021-04-04 13:45:09.781738,2020-05-17 00:00:00.000000,0.09942024,0.24855816,0.58361878,6,16,38,4,10,22,0.06750578,0.15691871,0.34637576,0.06538341,0.10438055,0.20431354
5073,0,USArkansasLafayette,Arkansas,Lafayette,2021-04-04 13:45:09.781738,2020-05-18 00:00:00.000000,0.09270412,0.23400766,0.55805730,6,15,36,4,9,22,0.06212619,0.14554883,0.34077000,0.06563839,0.10341930,0.20491526
5073,0,USArkansasLafayette,Arkansas,Lafayette,2021-04-04 13:45:09.781738,2020-05-19 00:00:00.000000,0.08567296,0.21778364,0.53506728,5,14,35,3,9,22,0.05620179,0.13632718,0.33525126,0.06569488,0.10329340,0.20520091
5073,0,USArkansasLafayette,Arkansas,Lafayette,2021-04-04 13:45:09.781738,2020-05-20 00:00:00.000000,0.07874330,0.20294634,0.51417956,5,13,34,3,8,21,0.05082943,0.12737787,0.32576021,0.06582285,0.10333132,0.20527241
5073,0,USArkansasLafayette,Arkansas,Lafayette,2021-04-04 13:45:09.781738,2020-05-21 00:00:00.000000,0.07117184,0.18915765,0.49506471,4,12,32,3,7,20,0.04596293,0.11899074,0.31236450,0.06611391,0.10336078,0.20514964
5073,0,USArkansasLafayette,Arkansas,Lafayette,2021-04-04 13:45:09.781738,2020-05-22 00:00:00.000000,0.06434221,0.17791867,0.47711972,4,11,31,2,7,19,0.04155911,0.11149861,0.30011346,0.06682157,0.10339478,0.20433620
5073,0,USArkansasLafayette,Arkansas,Lafayette,2021-04-04 13:45:09.781738,2020-05-23 00:00:00.000000,0.05819551,0.16775566,0.46003442,3,11,30,2,6,19,0.03757860,0.10467257,0.28878393,0.06824840,0.10352111,0.20134946
5073,0,USArkansasLafayette,Arkansas,Lafayette,2021-04-04 13:45:09.781738,2020-05-24 00:00:00.000000,0.05268298,0.15611045,0.44367570,3,10,29,2,6,18,0.03398644,0.09885322,0.27816813,0.06937342,0.10501208,0.19030078
5073,0,USArkansasLafayette,Arkansas,Lafayette,2021-04-04 13:45:09.781738,2020-05-25 00:00:00.000000,0.06940088,0.16776369,0.44444149,4,11,29,2,6,17,0.03075253,0.09391843,0.26812444,0.06735777,0.10447021,0.18744130
5073,0,USArkansasLafayette,Arkansas,Lafayette,2021-04-04 13:45:09.781738,2020-05-26 00:00:00.000000,0.07629866,0.18422384,0.44580106,5,12,29,2,6,17,0.03358841,0.09316367,0.26254695,0.06607073,0.10650292,0.19371688
5073,0,USArkansasLafayette,Arkansas,Lafayette,2021-04-04 13:45:09.781738,2020-05-27 00:00:00.000000,0.08496650,0.19951343,0.44809409,5,13,29,2,6,17,0.03473311,0.09673178,0.25982810,0.06536223,0.10490537,0.19951811
5073,0,USArkansasLafayette,Arkansas,Lafayette,2021-04-04 13:45:09.781738,2020-05-28 00:00:00.000000,0.09108816,0.21183561,0.45140548,6,14,29,2,6,17,0.04030308,0.10564088,0.25892985,0.06508973,0.10468379,0.20213825
5073,0,USArkansasLafayette,Arkansas,Lafayette,2021-04-04 13:45:09.781738,2020-05-29 00:00:00.000000,0.09800814,0.22469535,0.47426845,6,14,31,3,7,17,0.04720976,0.11399732,0.25917844,0.06520625,0.11256977,0.20466647
5073,0,USArkansasLafayette,Arkansas,Lafayette,2021-04-04 13:45:09.781738,2020-05-30 00:00:00.000000,0.10473983,0.23777035,0.52112595,6,15,34,3,8,17,0.05438091,0.12180590,0.26012320,0.06576957,0.11138373,0.20550222
5073,0,USArkansasLafayette,Arkansas,Lafayette,2021-04-04 13:45:09.781738,2020-05-31 00:00:00.000000,0.11001517,0.24968134,0.54779773,7,16,36,3,8,18,0.06036015,0.13273086,0.28468245,0.06493524,0.10810766,0.20573099
5073,0,USArkansasLafayette,Arkansas,Lafayette,2021-04-04 13:45:09.781738,2020-06-01 00:00:00.000000,0.13564636,0.26493941,0.54522776,8,17,36,4,9,18,0.06288662,0.14087995,0.28349280,0.06352975,0.11051191,0.20573043
5073,0,USArkansasLafayette,Arkansas,Lafayette,2021-04-04 13:45:09.781738,2020-06-02 00:00:00.000000,0.14678278,0.28358412,0.53994927,9,18,35,4,9,18,0.07018681,0.15081602,0.28220019,0.06250608,0.11283739,0.20555016
5073,0,USArkansasLafayette,Arkansas,Lafayette,2021-04-04 13:45:09.781738,2020-06-03 00:00:00.000000,0.15576449,0.30336266,0.53793447,10,20,35,5,10,18,0.08086702,0.15519296,0.28077824,0.06185149,0.11171708,0.20505716
5073,0,USArkansasLafayette,Arkansas,Lafayette,2021-04-04 13:45:09.781738,2020-06-04 00:00:00.000000,0.17731655,0.31172611,0.54999048,11,20,36,5,10,19,0.08399517,0.16314009,0.28795544,0.06147006,0.11231484,0.20397826
5073,0,USArkansasLafayette,Arkansas,Lafayette,2021-04-04 13:45:09.781738,2020-06-05 00:00:00.000000,0.19527726,0.32073530,0.62531327,12,21,41,5,11,19,0.08697098,0.17330112,0.29517213,0.06122258,0.11264059,0.21747690
5073,0,USArkansasLafayette,Arkansas,Lafayette,2021-04-04 13:45:09.781738,2020-06-06 00:00:00.000000,0.19734736,0.32827431,0.67965377,13,21,45,6,11,20,0.09358859,0.18069305,0.30525682,0.06106099,0.11535809,0.23597343
5073,0,USArkansasLafayette,Arkansas,Lafayette,2021-04-04 13:45:09.781738,2020-06-07 00:00:00.000000,0.19351817,0.33694370,0.74264793,12,22,49,6,12,21,0.09739325,0.18286054,0.32472067,0.06037541,0.11540584,0.24115593
5073,0,USArkansasLafayette,Arkansas,Lafayette,2021-04-04 13:45:09.781738,2020-06-08 00:00:00.000000,0.20711647,0.34911329,0.74110663,13,23,49,6,12,23,0.09896498,0.18382024,0.35309750,0.05742444,0.11478078,0.24403921
5073,0,USArkansasLafayette,Arkansas,Lafayette,2021-04-04 13:45:09.781738,2020-06-09 00:00:00.000000,0.21249094,0.36759205,0.73678962,14,24,48,6,12,24,0.10107736,0.19277881,0.36765338,0.05617675,0.11513428,0.23975837
5073,0,USArkansasLafayette,Arkansas,Lafayette,2021-04-04 13:45:09.781738,2020-06-10 00:00:00.000000,0.21754402,0.38574802,0.72929495,14,25,48,6,13,24,0.10345981,0.20221055,0.37003692,0.05582675,0.11633294,0.23854464
5073,0,USArkansasLafayette,Arkansas,Lafayette,2021-04-04 13:45:09.781738,2020-06-11 00:00:00.000000,0.22235418,0.40437110,0.72843304,14,26,48,6,13,25,0.10412380,0.20785718,0.37874591,0.05574233,0.11746527,0.22980086
5073,0,USArkansasLafayette,Arkansas,Lafayette,2021-04-04 13:45:09.781738,2020-06-12 00:00:00.000000,0.22684139,0.41642336,0.72666316,15,27,48,7,14,25,0.10728510,0.21728943,0.38262688,0.05572560,0.11552775,0.20930961
5073,0,USArkansasLafayette,Arkansas,Lafayette,2021-04-04 13:45:09.781738,2020-06-13 00:00:00.000000,0.22156181,0.42926736,0.74670799,14,28,49,7,14,25,0.11078080,0.22189230,0.38336515,0.05573450,0.11723775,0.22650543
5073,0,USArkansasLafayette,Arkansas,Lafayette,2021-04-04 13:45:09.781738,2020-06-14 00:00:00.000000,0.21235438,0.43974991,0.79320674,14,29,52,7,15,25,0.11301611,0.22992069,0.38469522,0.05649000,0.11549105,0.23564771
5073,0,USArkansasLafayette,Arkansas,Lafayette,2021-04-04 13:45:09.781738,2020-06-15 00:00:00.000000,0.22836193,0.44670159,0.76857254,15,29,50,7,15,26,0.11508864,0.23167316,0.40327136,0.06053721,0.11844355,0.23763422
5073,0,USArkansasLafayette,Arkansas,Lafayette,2021-04-04 13:45:09.781738,2020-06-16 00:00:00.000000,0.22345656,0.46226942,0.80514819,14,30,53,7,16,27,0.11492786,0.24257828,0.41752837,0.06364106,0.12248059,0.23799141
5073,0,USArkansasLafayette,Arkansas,Lafayette,2021-04-04 13:45:09.781738,2020-06-17 00:00:00.000000,0.21727719,0.47801931,0.83032038,14,31,55,7,16,28,0.11342417,0.25480700,0.43435446,0.06463390,0.12269164,0.23805338
5073,0,USArkansasLafayette,Arkansas,Lafayette,2021-04-04 13:45:09.781738,2020-06-18 00:00:00.000000,0.21103437,0.49410971,0.86696223,13,32,57,7,17,30,0.11115322,0.26900940,0.45385576,0.06488978,0.12335311,0.23807088
5073,0,USArkansasLafayette,Arkansas,Lafayette,2021-04-04 13:45:09.781738,2020-06-19 00:00:00.000000,0.20503482,0.49677400,0.90494771,13,32,59,7,18,31,0.10848392,0.27573255,0.47296308,0.06507549,0.12493166,0.23864913
5073,0,USArkansasLafayette,Arkansas,Lafayette,2021-04-04 13:45:09.781738,2020-06-20 00:00:00.000000,0.19950522,0.50888889,0.94165256,13,33,62,6,18,31,0.10480521,0.27982142,0.47645615,0.06553483,0.12564679,0.25468156
5073,0,USArkansasLafayette,Arkansas,Lafayette,2021-04-04 13:45:09.781738,2020-06-21 00:00:00.000000,0.19468468,0.51463878,0.97658382,12,34,64,6,19,32,0.10278089,0.28973814,0.48479766,0.06622024,0.13001045,0.26408074
5073,0,USArkansasLafayette,Arkansas,Lafayette,2021-04-04 13:45:09.781738,2020-06-22 00:00:00.000000,0.21981681,0.54291920,0.97395817,14,35,64,6,19,34,0.10008145,0.29538441,0.52349895,0.06558579,0.13039094,0.26438347
5073,0,USArkansasLafayette,Arkansas,Lafayette,2021-04-04 13:45:09.781738,2020-06-23 00:00:00.000000,0.26054615,0.57539073,0.96841192,17,38,64,6,19,34,0.10274488,0.29898504,0.52755337,0.06557285,0.12860331,0.26466652
5073,0,USArkansasLafayette,Arkansas,Lafayette,2021-04-04 13:45:09.781738,2020-06-24 00:00:00.000000,0.30182619,0.60513800,0.96268037,19,40,63,7,20,34,0.11014257,0.30649008,0.51929026,0.06602618,0.13180290,0.26531541
5073,0,USArkansasLafayette,Arkansas,Lafayette,2021-04-04 13:45:09.781738,2020-06-25 00:00:00.000000,0.34256994,0.62142026,0.97660458,22,41,64,8,20,33,0.12952862,0.31041256,0.50882550,0.06623638,0.13458268,0.26164876
5073,0,USArkansasLafayette,Arkansas,Lafayette,2021-04-04 13:45:09.781738,2020-06-26 00:00:00.000000,0.34992739,0.64168433,0.98835558,23,42,65,9,22,33,0.15078963,0.33423693,0.50589500,0.06612490,0.13507336,0.24471994
5073,0,USArkansasLafayette,Arkansas,Lafayette,2021-04-04 13:45:09.781738,2020-06-27 00:00:00.000000,0.34090972,0.65235391,0.99830677,22,43,66,11,23,34,0.17263756,0.35973283,0.51962048,0.06632458,0.13381544,0.23529983
5073,0,USArkansasLafayette,Arkansas,Lafayette,2021-04-04 13:45:09.781738,2020-06-28 00:00:00.000000,0.33253823,0.65507997,1.04676690,22,43,69,12,24,35,0.19427688,0.36515643,0.53810645,0.06689910,0.13467533,0.23155008
5073,0,USArkansasLafayette,Arkansas,Lafayette,2021-04-04 13:45:09.781738,2020-06-29 00:00:00.000000,0.36815153,0.68099433,1.04318247,24,45,69,12,25,36,0.19624507,0.37786827,0.55219687,0.06600133,0.13536295,0.25344481
5073,0,USArkansasLafayette,Arkansas,Lafayette,2021-04-04 13:45:09.781738,2020-06-30 00:00:00.000000,0.37256698,0.68831812,1.12095688,24,45,74,12,25,37,0.19502101,0.38465603,0.56752497,0.06547083,0.13541164,0.27236616
5073,0,USArkansasLafayette,Arkansas,Lafayette,2021-04-04 13:45:09.781738,2020-07-01 00:00:00.000000,0.36019614,0.70873256,1.14310511,23,46,75,12,25,38,0.18739948,0.38651139,0.57814594,0.06548546,0.13343829,0.27430832
5073,0,USArkansasLafayette,Arkansas,Lafayette,2021-04-04 13:45:09.781738,2020-07-02 00:00:00.000000,0.35597763,0.70545681,1.15216473,23,46,76,13,25,38,0.20385282,0.39123846,0.58545256,0.06550091,0.13323630,0.27082473
5073,0,USArkansasLafayette,Arkansas,Lafayette,2021-04-04 13:45:09.781738,2020-07-03 00:00:00.000000,0.35173887,0.71930383,1.16153625,23,47,76,13,26,40,0.20144414,0.40566558,0.60676113,0.06544231,0.13400989,0.26501516
5073,0,USArkansasLafayette,Arkansas,Lafayette,2021-04-04 13:45:09.781738,2020-07-04 00:00:00.000000,0.34730576,0.74110293,1.18611473,23,49,78,13,26,41,0.19907042,0.40550779,0.62047279,0.06538716,0.13525630,0.25604158
5073,0,USArkansasLafayette,Arkansas,Lafayette,2021-04-04 13:45:09.781738,2020-07-05 00:00:00.000000,0.34269355,0.73841515,1.22800971,22,48,81,13,26,41,0.19666309,0.40574151,0.63350946,0.06536634,0.13606544,0.24053989
5073,0,USArkansasLafayette,Arkansas,Lafayette,2021-04-04 13:45:09.781738,2020-07-06 00:00:00.000000,0.40825131,0.76379291,1.27828960,27,50,84,12,27,44,0.19418756,0.40774148,0.67120573,0.06541377,0.13589462,0.22405743
5073,0,USArkansasLafayette,Arkansas,Lafayette,2021-04-04 13:45:09.781738,2020-07-07 00:00:00.000000,0.46398117,0.79114806,1.32557765,30,52,87,13,28,46,0.20821482,0.42387359,0.70570229,0.06605922,0.13654428,0.22418946
5073,0,USArkansasLafayette,Arkansas,Lafayette,2021-04-04 13:45:09.781738,2020-07-08 00:00:00.000000,0.51822580,0.80742735,1.35187385,34,53,89,15,28,48,0.22704257,0.43633927,0.73239525,0.06610884,0.13693981,0.23124102
5073,0,USArkansasLafayette,Arkansas,Lafayette,2021-04-04 13:45:09.781738,2020-07-09 00:00:00.000000,0.50512762,0.83200536,1.33662465,33,55,88,16,29,49,0.24519243,0.44763457,0.75398912,0.06628905,0.13479227,0.23564060
5073,0,USArkansasLafayette,Arkansas,Lafayette,2021-04-04 13:45:09.781738,2020-07-10 00:00:00.000000,0.49448890,0.85937884,1.34572193,32,56,89,17,30,51,0.26570814,0.45447914,0.77115850,0.06659334,0.13428050,0.23079737
5073,0,USArkansasLafayette,Arkansas,Lafayette,2021-04-04 13:45:09.781738,2020-07-11 00:00:00.000000,0.48345238,0.86369895,1.38787866,32,57,91,17,30,51,0.26215254,0.46412342,0.78420663,0.06703711,0.13419863,0.23586843
5073,0,USArkansasLafayette,Arkansas,Lafayette,2021-04-04 13:45:09.781738,2020-07-12 00:00:00.000000,0.47329945,0.85208211,1.48570640,31,56,98,17,31,52,0.25910900,0.47233542,0.79327733,0.06762251,0.13078875,0.24267358
5073,0,USArkansasLafayette,Arkansas,Lafayette,2021-04-04 13:45:09.781738,2020-07-13 00:00:00.000000,0.47487113,0.85680620,1.48781251,31,56,98,17,31,52,0.25691741,0.47771027,0.79859918,0.06885318,0.13086555,0.24465289
5073,0,USArkansasLafayette,Arkansas,Lafayette,2021-04-04 13:45:09.781738,2020-07-14 00:00:00.000000,0.47730537,0.86128708,1.48330958,31,57,98,17,31,53,0.25812932,0.48139916,0.81031667,0.06958455,0.12980989,0.24478173
5073,0,USArkansasLafayette,Arkansas,Lafayette,2021-04-04 13:45:09.781738,2020-07-15 00:00:00.000000,0.46490098,0.87625651,1.46796577,30,58,97,17,32,54,0.26039174,0.49788700,0.82972837,0.06945460,0.12716284,0.24483559
5073,0,USArkansasLafayette,Arkansas,Lafayette,2021-04-04 13:45:09.781738,2020-07-16 00:00:00.000000,0.43887947,0.87919422,1.45325634,29,58,96,17,33,55,0.26100664,0.50503014,0.83519577,0.06991789,0.12642456,0.24483658
5073,0,USArkansasLafayette,Arkansas,Lafayette,2021-04-04 13:45:09.781738,2020-07-17 00:00:00.000000,0.43341998,0.87494082,1.43448569,28,57,95,16,33,55,0.25349775,0.50795976,0.83414294,0.07019038,0.12640495,0.24476832
5073,0,USArkansasLafayette,Arkansas,Lafayette,2021-04-04 13:45:09.781738,2020-07-18 00:00:00.000000,0.42840673,0.86966217,1.44209358,28,57,95,15,33,55,0.23930167,0.50645454,0.83966221,0.07117040,0.12573024,0.24451806
5073,0,USArkansasLafayette,Arkansas,Lafayette,2021-04-04 13:45:09.781738,2020-07-19 00:00:00.000000,0.42438179,0.86857552,1.43841441,28,57,95,14,33,55,0.22551090,0.50746598,0.83581413,0.07363822,0.12626197,0.24364817
5073,0,USArkansasLafayette,Arkansas,Lafayette,2021-04-04 13:45:09.781738,2020-07-20 00:00:00.000000,0.42702044,0.85034486,1.40872229,28,56,93,14,33,56,0.22054316,0.50852725,0.85153037,0.07889354,0.12734755,0.23478004
5073,0,USArkansasLafayette,Arkansas,Lafayette,2021-04-04 13:45:09.781738,2020-07-21 00:00:00.000000,0.43069712,0.85015297,1.37896530,28,56,91,14,33,54,0.21963001,0.50020871,0.82669908,0.08168546,0.12712847,0.23166360
5073,0,USArkansasLafayette,Arkansas,Lafayette,2021-04-04 13:45:09.781738,2020-07-22 00:00:00.000000,0.41885993,0.85342295,1.41329780,27,56,93,14,32,55,0.22039024,0.49662931,0.83275031,0.08300231,0.12815867,0.21826014
5073,0,USArkansasLafayette,Arkansas,Lafayette,2021-04-04 13:45:09.781738,2020-07-23 00:00:00.000000,0.39368977,0.84630347,1.46147321,26,56,96,14,32,56,0.22246796,0.49726560,0.85643730,0.08380689,0.13171755,0.21857014
5073,0,USArkansasLafayette,Arkansas,Lafayette,2021-04-04 13:45:09.781738,2020-07-24 00:00:00.000000,0.37830272,0.83754230,1.51085882,25,55,100,14,32,56,0.22595512,0.48901598,0.84893298,0.08479616,0.13582052,0.21817940
5073,0,USArkansasLafayette,Arkansas,Lafayette,2021-04-04 13:45:09.781738,2020-07-25 00:00:00.000000,0.37725715,0.82831311,1.56329503,24,54,103,14,32,57,0.21515831,0.49041232,0.86858187,0.08709582,0.13884407,0.21786267
5073,0,USArkansasLafayette,Arkansas,Lafayette,2021-04-04 13:45:09.781738,2020-07-26 00:00:00.000000,0.37749350,0.83022586,1.62032404,25,54,107,13,31,57,0.20248489,0.47842944,0.87482323,0.08819734,0.13935628,0.21999022
5073,0,USArkansasLafayette,Arkansas,Lafayette,2021-04-04 13:45:09.781738,2020-07-27 00:00:00.000000,0.37889004,0.82236353,1.62750368,25,54,107,12,31,59,0.19039109,0.46920801,0.89692594,0.09012292,0.14351270,0.22297756
5073,0,USArkansasLafayette,Arkansas,Lafayette,2021-04-04 13:45:09.781738,2020-07-28 00:00:00.000000,0.38114668,0.82398959,1.63422401,25,54,108,12,31,60,0.18706805,0.47457167,0.91391167,0.09067809,0.14570087,0.22435187
5073,0,USArkansasLafayette,Arkansas,Lafayette,2021-04-04 13:45:09.781738,2020-07-29 00:00:00.000000,0.38374680,0.81385669,1.63939430,25,53,108,12,31,61,0.19403814,0.47759859,0.92739521,0.09094714,0.14882920,0.22894436
5073,0,USArkansasLafayette,Arkansas,Lafayette,2021-04-04 13:45:09.781738,2020-07-30 00:00:00.000000,0.37656575,0.80477645,1.63469870,24,53,108,13,31,62,0.20598520,0.48208155,0.93846079,0.09151338,0.15050137,0.22943416
5073,0,USArkansasLafayette,Arkansas,Lafayette,2021-04-04 13:45:09.781738,2020-07-31 00:00:00.000000,0.36579353,0.79869679,1.59443983,24,52,105,13,32,62,0.20671342,0.48357365,0.94783867,0.09216785,0.15202109,0.23018111
5073,0,USArkansasLafayette,Arkansas,Lafayette,2021-04-04 13:45:09.781738,2020-08-01 00:00:00.000000,0.35874966,0.79893223,1.56880238,23,52,103,13,32,63,0.20167773,0.48478287,0.95602147,0.09583248,0.15502960,0.23124921
5073,0,USArkansasLafayette,Arkansas,Lafayette,2021-04-04 13:45:09.781738,2020-08-02 00:00:00.000000,0.35373450,0.79272733,1.59362429,23,52,105,13,31,63,0.19735152,0.48048041,0.96334115,0.09811731,0.15769588,0.23264081
5073,0,USArkansasLafayette,Arkansas,Lafayette,2021-04-04 13:45:09.781738,2020-08-03 00:00:00.000000,0.36591475,0.79564213,1.60722710,24,52,106,12,31,64,0.19390862,0.47679367,0.97001627,0.09754140,0.15850383,0.23423105
5073,0,USArkansasLafayette,Arkansas,Lafayette,2021-04-04 13:45:09.781738,2020-08-04 00:00:00.000000,0.37874727,0.78749695,1.61957090,25,52,107,12,31,64,0.19606637,0.47413367,0.97086527,0.09763155,0.16251437,0.23422523
5073,0,USArkansasLafayette,Arkansas,Lafayette,2021-04-04 13:45:09.781738,2020-08-05 00:00:00.000000,0.39717379,0.81110943,1.59303144,26,53,105,13,31,64,0.19933775,0.47218081,0.96773805,0.09768928,0.16411661,0.23699514
5073,0,USArkansasLafayette,Arkansas,Lafayette,2021-04-04 13:45:09.781738,2020-08-06 00:00:00.000000,0.41265761,0.81541415,1.56227023,27,54,103,13,30,63,0.20493032,0.46543528,0.96143301,0.09816582,0.16391345,0.23602459
5073,0,USArkansasLafayette,Arkansas,Lafayette,2021-04-04 13:45:09.781738,2020-08-07 00:00:00.000000,0.42672500,0.81394226,1.53602967,28,53,101,14,30,63,0.21616315,0.45577094,0.95265874,0.10273499,0.16276491,0.23217213
5073,0,USArkansasLafayette,Arkansas,Lafayette,2021-04-04 13:45:09.781738,2020-08-08 00:00:00.000000,0.44089552,0.81928036,1.51526585,29,54,100,14,29,62,0.22171614,0.45189022,0.94644381,0.10671729,0.16169953,0.23414949
5073,0,USArkansasLafayette,Arkansas,Lafayette,2021-04-04 13:45:09.781738,2020-08-09 00:00:00.000000,0.44279475,0.82243294,1.49912188,29,54,99,14,29,62,0.22528743,0.44842817,0.94039098,0.11508104,0.15868019,0.23687352
5073,0,USArkansasLafayette,Arkansas,Lafayette,2021-04-04 13:45:09.781738,2020-08-10 00:00:00.000000,0.44596576,0.83269697,1.51535086,29,55,100,15,30,61,0.23215559,0.45745938,0.93533255,0.11330070,0.15966769,0.24658100
5073,0,USArkansasLafayette,Arkansas,Lafayette,2021-04-04 13:45:09.781738,2020-08-11 00:00:00.000000,0.43685515,0.84043831,1.53323814,28,55,101,15,30,62,0.22987403,0.46078736,0.94253729,0.11167902,0.16346641,0.25867202
5073,0,USArkansasLafayette,Arkansas,Lafayette,2021-04-04 13:45:09.781738,2020-08-12 00:00:00.000000,0.42314146,0.84117956,1.55257070,28,55,102,15,30,62,0.22692984,0.45930073,0.94999593,0.11175860,0.16436072,0.24629587
5073,0,USArkansasLafayette,Arkansas,Lafayette,2021-04-04 13:45:09.781738,2020-08-13 00:00:00.000000,0.41046628,0.83937925,1.57274742,27,55,104,14,30,63,0.22420575,0.46149753,0.95766304,0.11067787,0.17061843,0.24962913
5073,0,USArkansasLafayette,Arkansas,Lafayette,2021-04-04 13:45:09.781738,2020-08-14 00:00:00.000000,0.39937552,0.82229788,1.59382722,26,54,105,14,30,63,0.22200842,0.46054269,0.96552847,0.11075240,0.17264396,0.25370061
5073,0,USArkansasLafayette,Arkansas,Lafayette,2021-04-04 13:45:09.781738,2020-08-15 00:00:00.000000,0.38936213,0.82062880,1.61615928,25,54,107,14,30,64,0.22613651,0.46240466,0.97360291,0.11095755,0.17080721,0.25813752
5073,0,USArkansasLafayette,Arkansas,Lafayette,2021-04-04 13:45:09.781738,2020-08-16 00:00:00.000000,0.38022226,0.83027879,1.66227374,25,54,110,14,31,65,0.22503509,0.46993999,0.98189750,0.11111342,0.17709402,0.26063647
5073,0,USArkansasLafayette,Arkansas,Lafayette,2021-04-04 13:45:09.781738,2020-08-17 00:00:00.000000,0.38265966,0.83645892,1.66963058,25,55,110,14,30,65,0.21958649,0.46699709,0.99040309,0.11122535,0.18194086,0.26519485
5073,0,USArkansasLafayette,Arkansas,Lafayette,2021-04-04 13:45:09.781738,2020-08-18 00:00:00.000000,0.38589996,0.83715565,1.64546424,25,55,108,14,31,66,0.22567602,0.47571422,0.99693518,0.11138380,0.18472648,0.26735735
5073,0,USArkansasLafayette,Arkansas,Lafayette,2021-04-04 13:45:09.781738,2020-08-19 00:00:00.000000,0.39037616,0.84081588,1.61811609,25,55,107,15,32,66,0.23635113,0.48754905,1.00201965,0.11492847,0.18685411,0.26809306
5073,0,USArkansasLafayette,Arkansas,Lafayette,2021-04-04 13:45:09.781738,2020-08-20 00:00:00.000000,0.39577400,0.86606690,1.62758514,26,57,107,15,32,66,0.23475602,0.48865606,1.00604162,0.11984488,0.19085250,0.26747901
5073,0,USArkansasLafayette,Arkansas,Lafayette,2021-04-04 13:45:09.781738,2020-08-21 00:00:00.000000,0.40216050,0.87528366,1.66823701,26,57,110,15,32,66,0.23256420,0.48952734,1.00930804,0.12564683,0.19452824,0.26467733
5073,0,USArkansasLafayette,Arkansas,Lafayette,2021-04-04 13:45:09.781738,2020-08-22 00:00:00.000000,0.40975709,0.88550723,1.70936657,27,58,113,15,32,67,0.23019826,0.48930026,1.01243776,0.12672434,0.19532165,0.27258358
5073,0,USArkansasLafayette,Arkansas,Lafayette,2021-04-04 13:45:09.781738,2020-08-23 00:00:00.000000,0.41873405,0.89986476,1.72323637,27,59,114,15,32,67,0.22795222,0.48745618,1.01589594,0.13086469,0.20100075,0.27869886
5073,0,USArkansasLafayette,Arkansas,Lafayette,2021-04-04 13:45:09.781738,2020-08-24 00:00:00.000000,0.43202458,0.90637134,1.76835865,28,60,117,14,32,67,0.22582483,0.49444330,1.01954209,0.14157135,0.20612502,0.28227733
5073,0,USArkansasLafayette,Arkansas,Lafayette,2021-04-04 13:45:09.781738,2020-08-25 00:00:00.000000,0.44301042,0.92984987,1.78781024,29,61,118,16,33,67,0.24398618,0.50249832,1.02136985,0.14474824,0.20970165,0.29550114
5073,0,USArkansasLafayette,Arkansas,Lafayette,2021-04-04 13:45:09.781738,2020-08-26 00:00:00.000000,0.45530181,0.95747775,1.78519477,30,63,118,17,33,68,0.26304027,0.50220878,1.03301327,0.14479904,0.21141583,0.30078110
5073,0,USArkansasLafayette,Arkansas,Lafayette,2021-04-04 13:45:09.781738,2020-08-27 00:00:00.000000,0.46871219,0.99305141,1.78941855,31,65,118,18,34,69,0.27269633,0.51906041,1.05181719,0.14477197,0.21696416,0.31140433
5073,0,USArkansasLafayette,Arkansas,Lafayette,2021-04-04 13:45:09.781738,2020-08-28 00:00:00.000000,0.48268109,1.01685154,1.87148137,31,67,123,18,35,71,0.27241359,0.52913325,1.08058319,0.14445062,0.22306657,0.32782167
5073,0,USArkansasLafayette,Arkansas,Lafayette,2021-04-04 13:45:09.781738,2020-08-29 00:00:00.000000,0.50366930,1.05286457,1.92249847,33,69,127,18,36,74,0.27297470,0.54908533,1.11806596,0.14392700,0.23360837,0.32722248
5073,0,USArkansasLafayette,Arkansas,Lafayette,2021-04-04 13:45:09.781738,2020-08-30 00:00:00.000000,0.51200109,1.08995919,1.97011479,33,72,130,18,37,76,0.27455520,0.57026750,1.16189963,0.14154945,0.24176592,0.34171344
5073,0,USArkansasLafayette,Arkansas,Lafayette,2021-04-04 13:45:09.781738,2020-08-31 00:00:00.000000,0.53514462,1.12361067,2.04912354,35,74,135,18,39,80,0.27718646,0.59281450,1.21038250,0.13838546,0.24622787,0.35191642
5073,0,USArkansasLafayette,Arkansas,Lafayette,2021-04-04 13:45:09.781738,2020-09-01 00:00:00.000000,0.55962147,1.15688885,2.12951017,37,76,141,19,40,82,0.29145443,0.60632646,1.24875234,0.13771527,0.24822034,0.35947346
5073,0,USArkansasLafayette,Arkansas,Lafayette,2021-04-04 13:45:09.781738,2020-09-02 00:00:00.000000,0.58502194,1.17383522,2.21316401,38,77,146,20,40,85,0.30251188,0.61566212,1.29005916,0.13888180,0.24844757,0.36531725
5073,0,USArkansasLafayette,Arkansas,Lafayette,2021-04-04 13:45:09.781738,2020-09-03 00:00:00.000000,0.61064356,1.19817208,2.30154116,40,79,152,20,41,88,0.31431732,0.62389409,1.33610363,0.14197276,0.24961050,0.37810336
5073,0,USArkansasLafayette,Arkansas,Lafayette,2021-04-04 13:45:09.781738,2020-09-04 00:00:00.000000,0.63627062,1.23541610,2.38227604,42,81,157,21,41,91,0.32744021,0.63171862,1.38560158,0.14834802,0.25396084,0.38994979
5073,0,USArkansasLafayette,Arkansas,Lafayette,2021-04-04 13:45:09.781738,2020-09-05 00:00:00.000000,0.66272435,1.27060689,2.43233581,43,84,161,22,42,95,0.34131351,0.63965468,1.43955480,0.15814131,0.26427665,0.42324238
5073,0,USArkansasLafayette,Arkansas,Lafayette,2021-04-04 13:45:09.781738,2020-09-06 00:00:00.000000,0.69723728,1.30967831,2.47932642,46,86,164,23,43,98,0.35946380,0.65541759,1.48817745,0.17209952,0.26776157,0.41754014
5073,0,USArkansasLafayette,Arkansas,Lafayette,2021-04-04 13:45:09.781738,2020-09-07 00:00:00.000000,0.74892961,1.35808334,2.51050063,49,89,166,25,44,100,0.37755015,0.67493159,1.52164839,0.17998389,0.27196435,0.41330219
5073,0,USArkansasLafayette,Arkansas,Lafayette,2021-04-04 13:45:09.781738,2020-09-08 00:00:00.000000,0.78105735,1.42590421,2.54119260,51,94,168,25,46,102,0.38629640,0.70152399,1.55063166,0.18003948,0.27663905,0.41667970
5073,0,USArkansasLafayette,Arkansas,Lafayette,2021-04-04 13:45:09.781738,2020-09-09 00:00:00.000000,0.78464902,1.48946279,2.57111407,51,98,170,27,49,104,0.42046728,0.73995384,1.57648181,0.17982798,0.27875933,0.41874637
5073,0,USArkansasLafayette,Arkansas,Lafayette,2021-04-04 13:45:09.781738,2020-09-10 00:00:00.000000,0.81295402,1.53531162,2.60048479,53,101,172,28,51,105,0.43733653,0.77162638,1.60011724,0.17994869,0.28044436,0.42004683
5073,0,USArkansasLafayette,Arkansas,Lafayette,2021-04-04 13:45:09.781738,2020-09-11 00:00:00.000000,0.84259555,1.58004089,2.64530006,55,104,175,29,53,107,0.45158978,0.81061313,1.62217854,0.18904900,0.28292275,0.42054345
5073,0,USArkansasLafayette,Arkansas,Lafayette,2021-04-04 13:45:09.781738,2020-09-12 00:00:00.000000,0.87351276,1.67209666,2.80081299,57,110,185,30,55,108,0.46423062,0.83264111,1.64316501,0.19712957,0.28615793,0.44015621
5073,0,USArkansasLafayette,Arkansas,Lafayette,2021-04-04 13:45:09.781738,2020-09-13 00:00:00.000000,0.90540463,1.74346170,2.95366965,59,115,195,31,57,110,0.47497418,0.86364929,1.66352352,0.20055118,0.28831017,0.44765920
5073,0,USArkansasLafayette,Arkansas,Lafayette,2021-04-04 13:45:09.781738,2020-09-14 00:00:00.000000,1.04182575,1.79345572,2.99548929,69,118,198,32,59,111,0.48575839,0.90258742,1.68367256,0.20181232,0.28881925,0.44534646
5073,0,USArkansasLafayette,Arkansas,Lafayette,2021-04-04 13:45:09.781738,2020-09-15 00:00:00.000000,1.12705421,1.85529168,3.03609312,74,122,201,33,62,113,0.50676878,0.94585959,1.71534059,0.20234380,0.29253258,0.44349871
5073,0,USArkansasLafayette,Arkansas,Lafayette,2021-04-04 13:45:09.781738,2020-09-16 00:00:00.000000,1.15531487,1.91561672,3.07240957,76,126,203,36,65,116,0.54524918,0.98371430,1.75505266,0.20264603,0.29384236,0.44478214
5073,0,USArkansasLafayette,Arkansas,Lafayette,2021-04-04 13:45:09.781738,2020-09-17 00:00:00.000000,1.18416545,1.99805301,3.27653903,78,132,217,38,68,119,0.58522441,1.02800840,1.80035222,0.20307827,0.29970897,0.45063773
5073,0,USArkansasLafayette,Arkansas,Lafayette,2021-04-04 13:45:09.781738,2020-09-18 00:00:00.000000,1.27748695,2.07468910,3.50554933,84,137,232,39,71,122,0.59121517,1.07678230,1.85060932,0.20484145,0.30443941,0.45067320
5073,0,USArkansasLafayette,Arkansas,Lafayette,2021-04-04 13:45:09.781738,2020-09-19 00:00:00.000000,1.30827746,2.16220999,3.63785994,86,143,240,39,74,127,0.60078971,1.12458571,1.92233679,0.20618313,0.31360387,0.44578417
5073,0,USArkansasLafayette,Arkansas,Lafayette,2021-04-04 13:45:09.781738,2020-09-20 00:00:00.000000,1.34330644,2.24326377,3.71700618,88,148,246,42,77,132,0.64391729,1.17479484,1.99551309,0.20696671,0.30875645,0.43875179
5073,0,USArkansasLafayette,Arkansas,Lafayette,2021-04-04 13:45:09.781738,2020-09-21 00:00:00.000000,1.38582708,2.25703497,3.80798641,91,149,252,45,80,136,0.69371641,1.21520869,2.06780632,0.20924053,0.30890401,0.43243433
5073,0,USArkansasLafayette,Arkansas,Lafayette,2021-04-04 13:45:09.781738,2020-09-22 00:00:00.000000,1.49048369,2.32692202,3.88642115,98,154,257,47,83,141,0.71402434,1.25302451,2.13695123,0.21121445,0.31664235,0.42814320
5073,0,USArkansasLafayette,Arkansas,Lafayette,2021-04-04 13:45:09.781738,2020-09-23 00:00:00.000000,1.56716034,2.37507751,3.96570566,103,157,262,48,84,145,0.73464618,1.28036529,2.19944348,0.20403048,0.32212091,0.42576532
5073,0,USArkansasLafayette,Arkansas,Lafayette,2021-04-04 13:45:09.781738,2020-09-24 00:00:00.000000,1.55019744,2.44273761,4.04528003,102,161,267,50,87,149,0.75660686,1.32036524,2.25305590,0.19966241,0.32363327,0.42473766
5073,0,USArkansasLafayette,Arkansas,Lafayette,2021-04-04 13:45:09.781738,2020-09-25 00:00:00.000000,1.57984643,2.52833091,4.12418296,104,167,273,53,89,154,0.80426402,1.35552081,2.33356839,0.20263778,0.32050014,0.41837195
5073,0,USArkansasLafayette,Arkansas,Lafayette,2021-04-04 13:45:09.781738,2020-09-26 00:00:00.000000,1.65654437,2.58746009,4.19891424,109,171,278,53,92,159,0.80820979,1.39068587,2.41240431,0.19551447,0.32194884,0.42106324
5073,0,USArkansasLafayette,Arkansas,Lafayette,2021-04-04 13:45:09.781738,2020-09-27 00:00:00.000000,1.73782348,2.64588540,4.26186327,115,175,282,55,93,164,0.84247882,1.41340923,2.48793083,0.19372836,0.32110301,0.41748645
5073,0,USArkansasLafayette,Arkansas,Lafayette,2021-04-04 13:45:09.781738,2020-09-28 00:00:00.000000,1.75069238,2.70001763,4.28462847,115,178,283,58,95,169,0.88131466,1.44833985,2.56103414,0.19669286,0.31764827,0.41431158
5073,0,USArkansasLafayette,Arkansas,Lafayette,2021-04-04 13:45:09.781738,2020-09-29 00:00:00.000000,1.74831284,2.75021705,4.30619198,115,182,285,60,98,174,0.91648858,1.48757816,2.62860084,0.20401797,0.31663048,0.41423200
5073,0,USArkansasLafayette,Arkansas,Lafayette,2021-04-04 13:45:09.781738,2020-09-30 00:00:00.000000,1.73451150,2.77539617,4.33372344,114,183,287,62,100,176,0.94949383,1.52291489,2.66552612,0.20905805,0.31551472,0.42139204
5073,0,USArkansasLafayette,Arkansas,Lafayette,2021-04-04 13:45:09.781738,2020-10-01 00:00:00.000000,1.72394010,2.80205670,4.46257304,114,185,295,64,103,178,0.96692197,1.55936620,2.68721415,0.21155814,0.31437595,0.42536738
5073,0,USArkansasLafayette,Arkansas,Lafayette,2021-04-04 13:45:09.781738,2020-10-02 00:00:00.000000,1.80110389,2.85868797,4.59946667,119,189,304,63,106,179,0.95936906,1.60252961,2.71129744,0.21332068,0.31722900,0.43191709
5073,0,USArkansasLafayette,Arkansas,Lafayette,2021-04-04 13:45:09.781738,2020-10-03 00:00:00.000000,1.83579927,2.91823200,4.73624591,121,193,313,63,108,183,0.96092481,1.64464185,2.76970091,0.21451938,0.31833413,0.44671054
5073,0,USArkansasLafayette,Arkansas,Lafayette,2021-04-04 13:45:09.781738,2020-10-04 00:00:00.000000,1.86561167,3.00480871,4.86458074,123,199,322,66,111,189,1.00359342,1.67733482,2.85411158,0.22138985,0.32166825,0.45980206
5073,0,USArkansasLafayette,Arkansas,Lafayette,2021-04-04 13:45:09.781738,2020-10-05 00:00:00.000000,1.94255575,3.05057999,4.95018819,128,202,327,67,112,194,1.01394991,1.70024325,2.93778376,0.22144526,0.32328375,0.46566530
5073,0,USArkansasLafayette,Arkansas,Lafayette,2021-04-04 13:45:09.781738,2020-10-06 00:00:00.000000,1.98810325,3.11392899,5.02351053,131,206,332,67,114,199,1.02413457,1.72195017,3.01219331,0.22149450,0.32289743,0.47675581
5073,0,USArkansasLafayette,Arkansas,Lafayette,2021-04-04 13:45:09.781738,2020-10-07 00:00:00.000000,2.02146081,3.16103659,5.09438247,133,209,337,68,115,202,1.03540237,1.73671849,3.06279701,0.22168749,0.32560033,0.48746003
5073,0,USArkansasLafayette,Arkansas,Lafayette,2021-04-04 13:45:09.781738,2020-10-08 00:00:00.000000,2.04040243,3.22585133,5.16455592,135,213,342,69,118,205,1.04694785,1.79166468,3.10966673,0.22265918,0.33233662,0.48101177
5073,0,USArkansasLafayette,Arkansas,Lafayette,2021-04-04 13:45:09.781738,2020-10-09 00:00:00.000000,2.07851150,3.30000259,5.38723846,137,218,356,70,121,209,1.05840932,1.83074231,3.15533216,0.23362767,0.33866569,0.47033145
5073,0,USArkansasLafayette,Arkansas,Lafayette,2021-04-04 13:45:09.781738,2020-10-10 00:00:00.000000,2.16437314,3.39042092,5.50817847,143,224,364,70,124,212,1.06964507,1.87330469,3.20316116,0.24463787,0.33688894,0.46384206
5073,0,USArkansasLafayette,Arkansas,Lafayette,2021-04-04 13:45:09.781738,2020-10-11 00:00:00.000000,2.18510211,3.49850022,5.57788978,144,231,369,71,126,215,1.08625210,1.91028410,3.25881586,0.25211430,0.33531183,0.47611235
5073,0,USArkansasLafayette,Arkansas,Lafayette,2021-04-04 13:45:09.781738,2020-10-12 00:00:00.000000,2.24563108,3.60939284,5.65882855,148,239,374,75,127,220,1.13988249,1.93040954,3.32348557,0.25936543,0.34023127,0.49279613
5073,0,USArkansasLafayette,Arkansas,Lafayette,2021-04-04 13:45:09.781738,2020-10-13 00:00:00.000000,2.30734504,3.72787089,5.73915544,152,246,380,78,130,224,1.17936969,1.96971156,3.39250366,0.26114010,0.34494773,0.49596156
5073,0,USArkansasLafayette,Arkansas,Lafayette,2021-04-04 13:45:09.781738,2020-10-14 00:00:00.000000,2.37274012,3.80854475,5.81786907,157,252,385,80,134,228,1.21126104,2.03173194,3.44751094,0.25791248,0.34882673,0.49458011
5073,0,USArkansasLafayette,Arkansas,Lafayette,2021-04-04 13:45:09.781738,2020-10-15 00:00:00.000000,2.46819676,3.88007716,5.89345891,163,257,390,83,138,231,1.25685578,2.09076787,3.50231949,0.25323693,0.35297789,0.48873493
5073,0,USArkansasLafayette,Arkansas,Lafayette,2021-04-04 13:45:09.781738,2020-10-16 00:00:00.000000,2.51298618,3.98476926,5.96435020,166,263,395,86,140,235,1.29969648,2.12370438,3.55766378,0.24554125,0.35695053,0.51464956
5073,0,USArkansasLafayette,Arkansas,Lafayette,2021-04-04 13:45:09.781738,2020-10-17 00:00:00.000000,2.62895332,4.08682786,6.02915735,174,270,399,88,141,239,1.34067450,2.13532077,3.61667966,0.24067524,0.35483292,0.51985236
5073,0,USArkansasLafayette,Arkansas,Lafayette,2021-04-04 13:45:09.781738,2020-10-18 00:00:00.000000,2.67844240,4.19404684,6.13618934,177,277,406,93,143,244,1.40597131,2.17147213,3.68852291,0.24204169,0.35944220,0.51384293
5073,0,USArkansasLafayette,Arkansas,Lafayette,2021-04-04 13:45:09.781738,2020-10-19 00:00:00.000000,2.79241196,4.28237623,6.29784851,184,283,417,97,147,249,1.47136752,2.22093159,3.76023147,0.24190229,0.35229615,0.51380000
5073,0,USArkansasLafayette,Arkansas,Lafayette,2021-04-04 13:45:09.781738,2020-10-20 00:00:00.000000,2.83120952,4.40455652,6.44626769,187,291,427,100,151,253,1.51598251,2.29458705,3.82884427,0.23652927,0.35190526,0.51392140
5073,0,USArkansasLafayette,Arkansas,Lafayette,2021-04-04 13:45:09.781738,2020-10-21 00:00:00.000000,2.90963984,4.51222604,6.59493971,192,298,436,101,156,257,1.53587247,2.36509431,3.88822031,0.23545856,0.35254497,0.50251281
5073,0,USArkansasLafayette,Arkansas,Lafayette,2021-04-04 13:45:09.781738,2020-10-22 00:00:00.000000,2.98756775,4.61720620,6.73332397,197,305,446,102,161,258,1.54827269,2.44369044,3.90984435,0.23619151,0.34799325,0.47899947
5073,0,USArkansasLafayette,Arkansas,Lafayette,2021-04-04 13:45:09.781738,2020-10-23 00:00:00.000000,3.06460615,4.71146949,6.85524510,202,312,454,103,165,260,1.56031047,2.49688151,3.92534404,0.23803460,0.34262313,0.47909492
5073,0,USArkansasLafayette,Arkansas,Lafayette,2021-04-04 13:45:09.781738,2020-10-24 00:00:00.000000,3.13910740,4.77496102,6.96787293,207,316,461,104,168,264,1.57209236,2.54675944,3.98711954,0.23714961,0.34358815,0.48282266
5073,0,USArkansasLafayette,Arkansas,Lafayette,2021-04-04 13:45:09.781738,2020-10-25 00:00:00.000000,3.21096548,4.87941076,7.10599388,212,323,470,105,171,268,1.58766382,2.59049118,4.05877050,0.23321345,0.33653287,0.49434489
5073,0,USArkansasLafayette,Arkansas,Lafayette,2021-04-04 13:45:09.781738,2020-10-26 00:00:00.000000,3.23247759,4.96804913,7.22375113,214,329,478,107,173,273,1.61652172,2.62653494,4.12144820,0.23326941,0.33073117,0.49043916
5073,0,USArkansasLafayette,Arkansas,Lafayette,2021-04-04 13:45:09.781738,2020-10-27 00:00:00.000000,3.24165942,5.03148664,7.20552152,214,333,477,109,176,276,1.65689652,2.66053346,4.16975073,0.23279830,0.32406262,0.48989426
5073,0,USArkansasLafayette,Arkansas,Lafayette,2021-04-04 13:45:09.781738,2020-10-28 00:00:00.000000,3.21416673,5.09490624,7.16381846,212,337,474,112,178,278,1.70325598,2.70130479,4.20523960,0.23234465,0.32265200,0.49352926
5073,0,USArkansasLafayette,Arkansas,Lafayette,2021-04-04 13:45:09.781738,2020-10-29 00:00:00.000000,3.24058116,5.13771109,7.10862355,214,340,470,116,182,280,1.75246194,2.75122438,4.22963444,0.23185650,0.31731094,0.47821098
5073,0,USArkansasLafayette,Arkansas,Lafayette,2021-04-04 13:45:09.781738,2020-10-30 00:00:00.000000,3.25875143,5.20248934,7.09629483,215,344,470,118,184,284,1.79093454,2.78269848,4.30114234,0.22528024,0.30453749,0.45766305
5073,0,USArkansasLafayette,Arkansas,Lafayette,2021-04-04 13:45:09.781738,2020-10-31 00:00:00.000000,3.25089319,5.28838064,7.11417701,215,350,471,118,185,289,1.78361425,2.80028189,4.36844007,0.21244528,0.29979341,0.43978205
5073,0,USArkansasLafayette,Arkansas,Lafayette,2021-04-04 13:45:09.781738,2020-11-01 00:00:00.000000,3.24614861,5.23290671,7.12451601,215,346,471,117,187,293,1.77827998,2.82325551,4.42917809,0.20701514,0.28899217,0.40321085
5073,0,USArkansasLafayette,Arkansas,Lafayette,2021-04-04 13:45:09.781738,2020-11-02 00:00:00.000000,3.23754064,5.21365787,7.04215240,214,345,466,117,188,291,1.77440311,2.84167776,4.40738279,0.20720052,0.27996803,0.39414314
5073,0,USArkansasLafayette,Arkansas,Lafayette,2021-04-04 13:45:09.781738,2020-11-03 00:00:00.000000,3.22966391,5.18484480,7.02519026,213,343,465,116,188,289,1.76413854,2.84330661,4.36368395,0.20732130,0.27368326,0.39180530
5073,0,USArkansasLafayette,Arkansas,Lafayette,2021-04-04 13:45:09.781738,2020-11-04 00:00:00.000000,3.17623216,5.16585548,6.99965232,210,342,463,115,188,287,1.74414371,2.84978209,4.34190330,0.19959853,0.27038433,0.38751471
5073,0,USArkansasLafayette,Arkansas,Lafayette,2021-04-04 13:45:09.781738,2020-11-05 00:00:00.000000,3.10144129,5.12100076,6.96250432,205,339,461,114,188,287,1.72252367,2.84354495,4.33572969,0.19898001,0.26378414,0.38054037
5073,0,USArkansasLafayette,Arkansas,Lafayette,2021-04-04 13:45:09.781738,2020-11-06 00:00:00.000000,3.05503071,5.07208548,6.91559806,202,335,458,112,188,288,1.69933010,2.84185216,4.34813607,0.19685645,0.26333747,0.37268595
5073,0,USArkansasLafayette,Arkansas,Lafayette,2021-04-04 13:45:09.781738,2020-11-07 00:00:00.000000,2.96725359,5.00471690,6.86374918,196,331,454,111,188,287,1.67723530,2.83978413,4.33903152,0.19492634,0.26060819,0.37286953
5073,0,USArkansasLafayette,Arkansas,Lafayette,2021-04-04 13:45:09.781738,2020-11-08 00:00:00.000000,2.90906233,4.95500612,6.80593661,192,328,450,109,187,285,1.64731794,2.83478110,4.31403594,0.19058862,0.25133215,0.37692546
5073,0,USArkansasLafayette,Arkansas,Lafayette,2021-04-04 13:45:09.781738,2020-11-09 00:00:00.000000,2.85524394,4.91125969,6.74813846,189,325,446,106,185,283,1.61505174,2.79541587,4.27809906,0.18183149,0.24979822,0.37921927
5073,0,USArkansasLafayette,Arkansas,Lafayette,2021-04-04 13:45:09.781738,2020-11-10 00:00:00.000000,2.80512054,4.83599972,6.68814016,185,320,443,105,180,280,1.58526620,2.72767931,4.23295815,0.18087151,0.25153828,0.37937258
5073,0,USArkansasLafayette,Arkansas,Lafayette,2021-04-04 13:45:09.781738,2020-11-11 00:00:00.000000,2.75788993,4.71071275,6.63050413,182,312,439,103,178,277,1.55656680,2.69934042,4.19279198,0.18062621,0.25178153,0.38583598
5073,0,USArkansasLafayette,Arkansas,Lafayette,2021-04-04 13:45:09.781738,2020-11-12 00:00:00.000000,2.71281780,4.60550868,6.56808244,179,305,435,101,175,275,1.52894645,2.64458555,4.15691357,0.18075625,0.24620476,0.38668777
5073,0,USArkansasLafayette,Arkansas,Lafayette,2021-04-04 13:45:09.781738,2020-11-13 00:00:00.000000,2.66986031,4.50629265,6.50466333,176,298,430,99,172,272,1.50227556,2.60035457,4.11869982,0.18122572,0.25158665,0.38786503
5073,0,USArkansasLafayette,Arkansas,Lafayette,2021-04-04 13:45:09.781738,2020-11-14 00:00:00.000000,2.67955650,4.41173045,6.43992420,177,292,426,97,169,270,1.47647171,2.55532353,4.07875153,0.18230720,0.25171880,0.38722091
5073,0,USArkansasLafayette,Arkansas,Lafayette,2021-04-04 13:45:09.781738,2020-11-15 00:00:00.000000,2.68139125,4.31322568,6.37352163,177,285,422,96,165,267,1.45154736,2.49822400,4.03759887,0.18771778,0.25096600,0.39403111
5073,0,USArkansasLafayette,Arkansas,Lafayette,2021-04-04 13:45:09.781738,2020-11-16 00:00:00.000000,2.61467812,4.25709291,6.30445451,173,281,417,95,163,264,1.43872624,2.46973677,3.99573752,0.18979539,0.25338241,0.39684456
5073,0,USArkansasLafayette,Arkansas,Lafayette,2021-04-04 13:45:09.781738,2020-11-17 00:00:00.000000,2.62424645,4.20718156,6.23447173,173,278,412,93,162,262,1.41500771,2.44978961,3.96121040,0.18919021,0.25212803,0.39762681
5073,0,USArkansasLafayette,Arkansas,Lafayette,2021-04-04 13:45:09.781738,2020-11-18 00:00:00.000000,2.64575021,4.15903788,6.16397094,175,275,408,92,160,260,1.38965328,2.42259626,3.93209425,0.18811763,0.25143064,0.39764778
5073,0,USArkansasLafayette,Arkansas,Lafayette,2021-04-04 13:45:09.781738,2020-11-19 00:00:00.000000,2.66801848,4.07101596,6.09425054,176,269,403,90,157,258,1.36220331,2.37719842,3.90702806,0.18772937,0.25295622,0.38830081
5073,0,USArkansasLafayette,Arkansas,Lafayette,2021-04-04 13:45:09.781738,2020-11-20 00:00:00.000000,2.63595215,3.98347850,6.02902543,174,263,399,88,153,257,1.33246358,2.31677771,3.88493676,0.18111457,0.25391607,0.38199697
5073,0,USArkansasLafayette,Arkansas,Lafayette,2021-04-04 13:45:09.781738,2020-11-21 00:00:00.000000,2.56511595,3.90565441,5.92943749,169,258,392,86,149,256,1.30054775,2.26443088,3.86495172,0.18349488,0.25346871,0.37974094
5073,0,USArkansasLafayette,Arkansas,Lafayette,2021-04-04 13:45:09.781738,2020-11-22 00:00:00.000000,2.50222150,3.85551036,5.90544210,165,255,391,83,147,254,1.26682528,2.21950571,3.84641864,0.18786724,0.25329664,0.37988843
5073,0,USArkansasLafayette,Arkansas,Lafayette,2021-04-04 13:45:09.781738,2020-11-23 00:00:00.000000,2.44682904,3.78685230,5.84054095,162,250,386,81,144,253,1.23180949,2.18174353,3.82864952,0.19276405,0.25938985,0.37975361
5073,0,USArkansasLafayette,Arkansas,Lafayette,2021-04-04 13:45:09.781738,2020-11-24 00:00:00.000000,2.35465112,3.72798859,5.77396389,155,246,382,79,141,251,1.19905860,2.13993005,3.80230589,0.19098334,0.26194325,0.37972263
5073,0,USArkansasLafayette,Arkansas,Lafayette,2021-04-04 13:45:09.781738,2020-11-25 00:00:00.000000,2.26801987,3.68869113,5.70812450,150,244,378,77,139,249,1.16776157,2.10652846,3.77020227,0.18876305,0.26325620,0.38477293
5073,0,USArkansasLafayette,Arkansas,Lafayette,2021-04-04 13:45:09.781738,2020-11-26 00:00:00.000000,2.18791433,3.66257704,5.67494922,144,242,375,75,137,247,1.13754327,2.07887296,3.73441718,0.18894646,0.27383108,0.41642585
5073,0,USArkansasLafayette,Arkansas,Lafayette,2021-04-04 13:45:09.781738,2020-11-27 00:00:00.000000,2.11290001,3.62707753,5.63929311,139,240,373,73,135,244,1.10825782,2.04978583,3.69862625,0.19539964,0.27735286,0.41421832
5073,0,USArkansasLafayette,Arkansas,Lafayette,2021-04-04 13:45:09.781738,2020-11-28 00:00:00.000000,2.04214290,3.58693836,5.60282691,135,237,371,71,134,242,1.07989037,2.03757401,3.66311149,0.20186582,0.29022790,0.41691879
5073,0,USArkansasLafayette,Arkansas,Lafayette,2021-04-04 13:45:09.781738,2020-11-29 00:00:00.000000,1.97530484,3.55024548,5.56614690,130,235,368,69,134,240,1.05253348,2.03582767,3.62773211,0.20344204,0.29024938,0.42274715
5073,0,USArkansasLafayette,Arkansas,Lafayette,2021-04-04 13:45:09.781738,2020-11-30 00:00:00.000000,1.91481469,3.50872137,5.53970389,126,232,366,67,133,237,1.02641923,2.00927448,3.59251162,0.21143522,0.29589476,0.44817303
5073,0,USArkansasLafayette,Arkansas,Lafayette,2021-04-04 13:45:09.781738,2020-12-01 00:00:00.000000,1.86116142,3.52319273,5.51696129,123,233,365,66,132,235,1.00506573,1.99753095,3.55981105,0.21216433,0.30812484,0.46196376
5073,0,USArkansasLafayette,Arkansas,Lafayette,2021-04-04 13:45:09.781738,2020-12-02 00:00:00.000000,1.82175811,3.51375402,5.50430326,120,232,364,65,130,233,0.98762768,1.97723578,3.53057557,0.21362040,0.31982424,0.47678000
5073,0,USArkansasLafayette,Arkansas,Lafayette,2021-04-04 13:45:09.781738,2020-12-03 00:00:00.000000,1.84130804,3.48909854,5.51173333,121,231,365,64,132,232,0.96890358,2.00142325,3.50687142,0.21645740,0.32496467,0.48586173
5073,0,USArkansasLafayette,Arkansas,Lafayette,2021-04-04 13:45:09.781738,2020-12-04 00:00:00.000000,1.92127343,3.47540002,5.54483924,127,230,367,63,131,231,0.95157456,1.99027966,3.48913999,0.22190764,0.33627039,0.50399108
5073,0,USArkansasLafayette,Arkansas,Lafayette,2021-04-04 13:45:09.781738,2020-12-05 00:00:00.000000,2.00043374,3.48766083,5.59695086,132,231,370,63,130,230,0.95588971,1.96925873,3.47664802,0.22801769,0.33776830,0.51705390
5073,0,USArkansasLafayette,Arkansas,Lafayette,2021-04-04 13:45:09.781738,2020-12-06 00:00:00.000000,2.03008174,3.47653898,5.65822471,134,230,374,64,129,229,0.97503184,1.95467684,3.46868431,0.23541087,0.34744838,0.51872437
5073,0,USArkansasLafayette,Arkansas,Lafayette,2021-04-04 13:45:09.781738,2020-12-07 00:00:00.000000,2.02087925,3.46487000,5.76240560,133,229,381,66,128,229,1.00503292,1.94682189,3.46455981,0.23945002,0.35082884,0.51890960
5073,0,USArkansasLafayette,Arkansas,Lafayette,2021-04-04 13:45:09.781738,2020-12-08 00:00:00.000000,2.03081432,3.47024970,5.86733727,134,229,388,68,128,229,1.03282078,1.94625060,3.46856413,0.24924514,0.35425363,0.52012860
5073,0,USArkansasLafayette,Arkansas,Lafayette,2021-04-04 13:45:09.781738,2020-12-09 00:00:00.000000,2.04542600,3.48709830,5.97236458,135,230,395,70,128,230,1.06064184,1.94387026,3.47770969,0.26023814,0.36249681,0.50312593
5073,0,USArkansasLafayette,Arkansas,Lafayette,2021-04-04 13:45:09.781738,2020-12-10 00:00:00.000000,2.09615403,3.53244474,6.07689166,138,233,402,72,128,231,1.08808594,1.94458917,3.48928070,0.27052296,0.36371324,0.51805833
5073,0,USArkansasLafayette,Arkansas,Lafayette,2021-04-04 13:45:09.781738,2020-12-11 00:00:00.000000,2.16921402,3.58247962,6.18072932,143,237,409,73,130,231,1.11476590,1.96592014,3.50089169,0.27051595,0.37695571,0.53050738
5073,0,USArkansasLafayette,Arkansas,Lafayette,2021-04-04 13:45:09.781738,2020-12-12 00:00:00.000000,2.24917379,3.61679050,6.26398417,148,239,414,75,130,233,1.14038194,1.96843586,3.52461999,0.27207273,0.38785436,0.54250237
5073,0,USArkansasLafayette,Arkansas,Lafayette,2021-04-04 13:45:09.781738,2020-12-13 00:00:00.000000,2.32681523,3.69007297,6.33343096,154,244,419,77,131,238,1.16451873,1.99260818,3.60038664,0.28665239,0.39652577,0.55489905
5073,0,USArkansasLafayette,Arkansas,Lafayette,2021-04-04 13:45:09.781738,2020-12-14 00:00:00.000000,2.40380783,3.77268303,6.38121209,159,249,422,78,134,243,1.18153490,2.03630190,3.68048373,0.28743949,0.39849069,0.55510623
5073,0,USArkansasLafayette,Arkansas,Lafayette,2021-04-04 13:45:09.781738,2020-12-15 00:00:00.000000,2.43561957,3.85965909,6.43283441,161,255,426,80,135,249,1.21740261,2.04972518,3.76764977,0.28918511,0.39577692,0.55502500
5073,0,USArkansasLafayette,Arkansas,Lafayette,2021-04-04 13:45:09.781738,2020-12-16 00:00:00.000000,2.44227815,3.91889506,6.48408200,161,259,429,83,136,255,1.26737821,2.06374043,3.85897188,0.29024178,0.40082321,0.54452408
5073,0,USArkansasLafayette,Arkansas,Lafayette,2021-04-04 13:45:09.781738,2020-12-17 00:00:00.000000,2.47142760,3.95161368,6.53540746,163,261,432,87,137,261,1.32296941,2.07955007,3.95190997,0.29042877,0.40748317,0.54462761
5073,0,USArkansasLafayette,Arkansas,Lafayette,2021-04-04 13:45:09.781738,2020-12-18 00:00:00.000000,2.49792013,3.97909816,6.60216979,165,263,437,90,139,267,1.36903237,2.10586227,4.04403163,0.28917754,0.40790302,0.54518597
5073,0,USArkansasLafayette,Arkansas,Lafayette,2021-04-04 13:45:09.781738,2020-12-19 00:00:00.000000,2.60088919,4.00770276,6.71704285,172,265,444,91,140,270,1.37483760,2.11457832,4.07889267,0.28360271,0.40955572,0.55130858
5073,0,USArkansasLafayette,Arkansas,Lafayette,2021-04-04 13:45:09.781738,2020-12-20 00:00:00.000000,2.71144936,4.03316083,6.81216398,179,267,451,92,140,272,1.40361743,2.12303845,4.11656834,0.27600977,0.42104436,0.56497093
5073,0,USArkansasLafayette,Arkansas,Lafayette,2021-04-04 13:45:09.781738,2020-12-21 00:00:00.000000,2.85400826,4.07722103,6.89627185,189,270,456,95,142,275,1.44787096,2.14913126,4.16089819,0.27764667,0.41806890,0.56841094
5073,0,USArkansasLafayette,Arkansas,Lafayette,2021-04-04 13:45:09.781738,2020-12-22 00:00:00.000000,2.88785865,4.11377271,6.95759476,191,272,460,97,144,278,1.47635391,2.17805878,4.20256704,0.27930539,0.41952511,0.59834446
5073,0,USArkansasLafayette,Arkansas,Lafayette,2021-04-04 13:45:09.781738,2020-12-23 00:00:00.000000,2.89487272,4.17565808,6.99910098,191,276,463,98,146,281,1.48892552,2.20825558,4.24244085,0.28677983,0.42108630,0.59940529
5073,0,USArkansasLafayette,Arkansas,Lafayette,2021-04-04 13:45:09.781738,2020-12-24 00:00:00.000000,2.90572137,4.25658907,7.02515227,192,281,465,101,148,283,1.52545862,2.24516264,4.28071589,0.29826791,0.42525450,0.60521951
5073,0,USArkansasLafayette,Arkansas,Lafayette,2021-04-04 13:45:09.781738,2020-12-25 00:00:00.000000,2.92153645,4.31806543,7.05334256,193,286,467,105,152,286,1.59658190,2.29513382,4.31776393,0.30726247,0.42655275,0.60901680
5073,0,USArkansasLafayette,Arkansas,Lafayette,2021-04-04 13:45:09.781738,2020-12-26 00:00:00.000000,2.94226142,4.39363481,7.11861591,194,291,471,108,155,288,1.63177192,2.34393943,4.35438592,0.31842338,0.43579780,0.61568004
5073,0,USArkansasLafayette,Arkansas,Lafayette,2021-04-04 13:45:09.781738,2020-12-27 00:00:00.000000,2.94683751,4.48199589,7.18777338,195,296,476,110,157,290,1.66556726,2.37822837,4.39161809,0.32616499,0.44753028,0.62356668
5073,0,USArkansasLafayette,Arkansas,Lafayette,2021-04-04 13:45:09.781738,2020-12-28 00:00:00.000000,3.00440891,4.53210152,7.26448529,199,300,481,110,159,293,1.67128446,2.41166317,4.43009604,0.33931071,0.45405560,0.62972043
5073,0,USArkansasLafayette,Arkansas,Lafayette,2021-04-04 13:45:09.781738,2020-12-29 00:00:00.000000,3.10179148,4.56033303,7.33956070,205,302,486,110,162,296,1.66991150,2.45851570,4.47110210,0.34852976,0.45802135,0.63269773
5073,0,USArkansasLafayette,Arkansas,Lafayette,2021-04-04 13:45:09.781738,2020-12-30 00:00:00.000000,3.15537866,4.59716163,7.40975285,209,304,490,113,164,300,1.70725611,2.48352085,4.53721299,0.34817051,0.46217400,0.63262310
5073,0,USArkansasLafayette,Arkansas,Lafayette,2021-04-04 13:45:09.781738,2020-12-31 00:00:00.000000,3.17119771,4.61780767,7.47626469,210,305,495,115,167,305,1.74597385,2.53598966,4.60757489,0.34842979,0.46673165,0.62908627
5073,0,USArkansasLafayette,Arkansas,Lafayette,2021-04-04 13:45:09.781738,2021-01-01 00:00:00.000000,3.20293642,4.73079792,7.53898982,212,313,499,116,171,307,1.76570086,2.58184103,4.63741538,0.35036430,0.46694185,0.61998108
5073,0,USArkansasLafayette,Arkansas,Lafayette,2021-04-04 13:45:09.781738,2021-01-02 00:00:00.000000,3.25130898,4.80738542,7.59832370,215,318,503,118,172,309,1.78485121,2.61088499,4.67458186,0.35690296,0.47172602,0.62219331
5073,0,USArkansasLafayette,Arkansas,Lafayette,2021-04-04 13:45:09.781738,2021-01-03 00:00:00.000000,3.30781596,4.90007266,7.65465985,219,324,507,119,175,312,1.81095824,2.64806269,4.72338155,0.37049261,0.47803920,0.64614699
5073,0,USArkansasLafayette,Arkansas,Lafayette,2021-04-04 13:45:09.781738,2021-01-04 00:00:00.000000,3.36004967,4.96919521,7.71333686,222,329,510,121,178,316,1.84074544,2.69854306,4.78303565,0.37460033,0.48101376,0.65674825
5073,0,USArkansasLafayette,Arkansas,Lafayette,2021-04-04 13:45:09.781738,2021-01-05 00:00:00.000000,3.42246560,5.09166953,7.76780259,226,337,514,123,179,320,1.86963179,2.71588435,4.84514231,0.36904110,0.48448929,0.65448194
5073,0,USArkansasLafayette,Arkansas,Lafayette,2021-04-04 13:45:09.781738,2021-01-06 00:00:00.000000,3.55227252,5.20638914,7.82124702,235,344,518,125,183,325,1.89753789,2.77039250,4.90790084,0.36677520,0.48878705,0.65452170
5073,0,USArkansasLafayette,Arkansas,Lafayette,2021-04-04 13:45:09.781738,2021-01-07 00:00:00.000000,3.68399781,5.31556383,7.90646411,244,352,523,127,187,329,1.92437253,2.83508709,4.96984176,0.36540136,0.50242041,0.64582921
5073,0,USArkansasLafayette,Arkansas,Lafayette,2021-04-04 13:45:09.781738,2021-01-08 00:00:00.000000,3.79413486,5.41854602,7.98677612,251,358,529,129,191,333,1.95006685,2.89181889,5.02992175,0.35761480,0.50007010,0.64505137
5073,0,USArkansasLafayette,Arkansas,Lafayette,2021-04-04 13:45:09.781738,2021-01-09 00:00:00.000000,3.78494240,5.50038247,8.06286541,250,364,534,130,195,336,1.97462276,2.95248069,5.08747216,0.36839598,0.50224229,0.65065217
5073,0,USArkansasLafayette,Arkansas,Lafayette,2021-04-04 13:45:09.781738,2021-01-10 00:00:00.000000,3.78404924,5.58518444,8.13848557,250,369,539,132,198,340,1.99828386,3.00268132,5.14228486,0.37961977,0.50007606,0.66627942
5073,0,USArkansasLafayette,Arkansas,Lafayette,2021-04-04 13:45:09.781738,2021-01-11 00:00:00.000000,3.90802647,5.63298515,8.22667475,258,373,544,133,202,344,2.02225953,3.05085480,5.19469940,0.35626136,0.50216718,0.67735924
5073,0,USArkansasLafayette,Arkansas,Lafayette,2021-04-04 13:45:09.781738,2021-01-12 00:00:00.000000,4.04081330,5.73942476,8.33924625,267,380,552,136,206,347,2.06002829,3.11373002,5.24834167,0.34744656,0.50166397,0.69168025
5073,0,USArkansasLafayette,Arkansas,Lafayette,2021-04-04 13:45:09.781738,2021-01-13 00:00:00.000000,4.13635930,5.83527442,8.46743040,273,386,560,138,209,351,2.08520266,3.16764544,5.30942372,0.34717844,0.50517350,0.69903620
5073,0,USArkansasLafayette,Arkansas,Lafayette,2021-04-04 13:45:09.781738,2021-01-14 00:00:00.000000,4.17056769,5.89245824,8.59649501,276,390,569,141,213,356,2.13592405,3.21729367,5.37905723,0.34795381,0.51037301,0.69257793
5073,0,USArkansasLafayette,Arkansas,Lafayette,2021-04-04 13:45:09.781738,2021-01-15 00:00:00.000000,4.18511388,6.01163261,8.72004463,277,398,577,145,214,361,2.19474532,3.23176429,5.45418394,0.34789752,0.51371348,0.68374343
5073,0,USArkansasLafayette,Arkansas,Lafayette,2021-04-04 13:45:09.781738,2021-01-16 00:00:00.000000,4.17178974,6.06028388,8.83598217,276,401,585,149,217,366,2.26403874,3.28025195,5.53124708,0.34764333,0.51568550,0.72194017
5073,0,USArkansasLafayette,Arkansas,Lafayette,2021-04-04 13:45:09.781738,2021-01-17 00:00:00.000000,4.22663727,6.13085717,8.94329595,279,406,592,151,220,371,2.28027760,3.33092895,5.60754025,0.34854901,0.51204785,0.73948703
5073,0,USArkansasLafayette,Arkansas,Lafayette,2021-04-04 13:45:09.781738,2021-01-18 00:00:00.000000,4.28049146,6.16752534,9.05122958,283,408,599,151,221,376,2.28147174,3.34632418,5.68118179,0.34916783,0.52700339,0.74631884
5073,0,USArkansasLafayette,Arkansas,Lafayette,2021-04-04 13:45:09.781738,2021-01-19 00:00:00.000000,4.33100991,6.26952360,9.14943246,286,415,606,152,224,381,2.29730973,3.39283977,5.75332018,0.35421840,0.52950770,0.75041514
5073,0,USArkansasLafayette,Arkansas,Lafayette,2021-04-04 13:45:09.781738,2021-01-20 00:00:00.000000,4.37876443,6.32648067,9.23766747,290,419,611,152,227,385,2.30722216,3.43399353,5.82218464,0.35716344,0.53364601,0.75028006
5073,0,USArkansasLafayette,Arkansas,Lafayette,2021-04-04 13:45:09.781738,2021-01-21 00:00:00.000000,4.42465595,6.43116934,9.31519027,293,426,617,154,228,389,2.33418228,3.45465942,5.88654728,0.36738595,0.53039332,0.71773119
5073,0,USArkansasLafayette,Arkansas,Lafayette,2021-04-04 13:45:09.781738,2021-01-22 00:00:00.000000,4.47067085,6.49861319,9.38166518,296,430,621,159,230,393,2.40055081,3.48070163,5.94548395,0.37673850,0.53681475,0.72592210
5073,0,USArkansasLafayette,Arkansas,Lafayette,2021-04-04 13:45:09.781738,2021-01-23 00:00:00.000000,4.52120788,6.52126165,9.43716814,299,431,625,163,231,397,2.46114399,3.49137696,5.99834518,0.37868504,0.54358463,0.73236329
5073,0,USArkansasLafayette,Arkansas,Lafayette,2021-04-04 13:45:09.781738,2021-01-24 00:00:00.000000,4.58258058,6.56230730,9.50483380,303,434,629,164,233,400,2.48855787,3.52650533,6.04474701,0.38604472,0.54285610,0.74604657
5073,0,USArkansasLafayette,Arkansas,Lafayette,2021-04-04 13:45:09.781738,2021-01-25 00:00:00.000000,4.61718914,6.64087243,9.51396896,305,439,630,166,234,403,2.51978655,3.54729422,6.08441306,0.40248971,0.54368094,0.74474700
5073,0,USArkansasLafayette,Arkansas,Lafayette,2021-04-04 13:45:09.781738,2021-01-26 00:00:00.000000,4.55575075,6.75208502,9.52595107,301,447,630,170,237,404,2.56667082,3.57854958,6.11366892,0.40335261,0.54649080,0.78074167
5073,0,USArkansasLafayette,Arkansas,Lafayette,2021-04-04 13:45:09.781738,2021-01-27 00:00:00.000000,4.49599028,6.82262941,9.51541350,297,451,630,173,239,406,2.62502036,3.62186261,6.13207890,0.40391645,0.54640813,0.78548792
5073,0,USArkansasLafayette,Arkansas,Lafayette,2021-04-04 13:45:09.781738,2021-01-28 00:00:00.000000,4.55450105,6.84327126,9.48980098,301,453,628,174,242,404,2.63550799,3.66524999,6.10044841,0.40452387,0.54637636,0.78797626
5073,0,USArkansasLafayette,Arkansas,Lafayette,2021-04-04 13:45:09.781738,2021-01-29 00:00:00.000000,4.68568869,6.82524950,9.62213111,310,452,637,174,245,406,2.62891974,3.71289970,6.14012103,0.40606327,0.54376457,0.79325902
5073,0,USArkansasLafayette,Arkansas,Lafayette,2021-04-04 13:45:09.781738,2021-01-30 00:00:00.000000,4.83614829,6.84799188,9.79315856,320,453,648,173,248,406,2.62281879,3.75651472,6.13251723,0.41094218,0.54866912,0.80607341
5073,0,USArkansasLafayette,Arkansas,Lafayette,2021-04-04 13:45:09.781738,2021-01-31 00:00:00.000000,4.93225570,6.88856332,9.96885451,326,456,660,174,251,405,2.62756454,3.78984096,6.11892597,0.41333840,0.54944470,0.86336201
5073,0,USArkansasLafayette,Arkansas,Lafayette,2021-04-04 13:45:09.781738,2021-02-01 00:00:00.000000,4.91682947,6.95918153,10.12448665,325,460,670,175,252,406,2.64410916,3.81850570,6.14357503,0.42168716,0.55397935,0.90898783
5073,0,USArkansasLafayette,Arkansas,Lafayette,2021-04-04 13:45:09.781738,2021-02-02 00:00:00.000000,4.89886906,6.95212216,10.26945041,324,460,680,175,254,413,2.65317738,3.84506124,6.24075169,0.42438549,0.57543953,0.92219973
5073,0,USArkansasLafayette,Arkansas,Lafayette,2021-04-04 13:45:09.781738,2021-02-03 00:00:00.000000,4.87975376,6.97708662,10.40171750,323,462,689,175,258,419,2.64978969,3.89567981,6.33576636,0.42286192,0.59468906,0.92903413
5073,0,USArkansasLafayette,Arkansas,Lafayette,2021-04-04 13:45:09.781738,2021-02-04 00:00:00.000000,4.86005388,6.99827714,10.52143304,321,463,696,172,260,425,2.59973726,3.92835520,6.42630218,0.42403702,0.61438351,0.93354378
5073,0,USArkansasLafayette,Arkansas,Lafayette,2021-04-04 13:45:09.781738,2021-02-05 00:00:00.000000,4.79228089,7.03841364,10.62969526,317,466,704,173,261,431,2.61311727,3.95247661,6.51098685,0.42734462,0.61382886,0.93802499
5073,0,USArkansasLafayette,Arkansas,Lafayette,2021-04-04 13:45:09.781738,2021-02-06 00:00:00.000000,4.68139422,7.14010022,10.72782857,310,472,710,171,263,430,2.59566485,3.97605166,6.49171278,0.43347528,0.63030172,0.94354654
5073,0,USArkansasLafayette,Arkansas,Lafayette,2021-04-04 13:45:09.781738,2021-02-07 00:00:00.000000,4.58107536,7.27170354,10.81648594,303,481,716,172,267,427,2.59836955,4.04357730,6.45953766,0.44274856,0.65451550,0.94977844
5073,0,USArkansasLafayette,Arkansas,Lafayette,2021-04-04 13:45:09.781738,2021-02-08 00:00:00.000000,4.50156221,7.26594102,10.89311601,298,481,721,175,271,426,2.64473388,4.09675275,6.43878398,0.43851386,0.69103770,1.01300488
5073,0,USArkansasLafayette,Arkansas,Lafayette,2021-04-04 13:45:09.781738,2021-02-09 00:00:00.000000,4.45770674,7.26764940,10.96073458,295,481,726,179,274,427,2.70796296,4.13999633,6.44994798,0.43968980,0.71266468,1.02537264
5073,0,USArkansasLafayette,Arkansas,Lafayette,2021-04-04 13:45:09.781738,2021-02-10 00:00:00.000000,4.52276288,7.28663218,11.02117146,299,482,730,184,277,429,2.78058586,4.18363541,6.48677500,0.45192804,0.72023736,1.02630353
5073,0,USArkansasLafayette,Arkansas,Lafayette,2021-04-04 13:45:09.781738,2021-02-11 00:00:00.000000,4.58825018,7.34091880,11.08048930,303,486,733,188,279,433,2.84235838,4.22548077,6.54237019,0.45257370,0.74067227,1.02489049
5073,0,USArkansasLafayette,Arkansas,Lafayette,2021-04-04 13:45:09.781738,2021-02-12 00:00:00.000000,4.69322420,7.40787290,11.15104443,310,490,738,189,280,441,2.86080885,4.24069770,6.66718248,0.45360879,0.75172376,1.02229069
5073,0,USArkansasLafayette,Arkansas,Lafayette,2021-04-04 13:45:09.781738,2021-02-13 00:00:00.000000,4.85009689,7.43686525,11.19407088,321,492,741,191,282,450,2.89373355,4.26911942,6.80505711,0.45313136,0.76524715,1.01834918
5073,0,USArkansasLafayette,Arkansas,Lafayette,2021-04-04 13:45:09.781738,2021-02-14 00:00:00.000000,5.00519601,7.43654410,11.33720797,331,492,750,194,281,459,2.93125239,4.24568605,6.93476463,0.45292982,0.78509835,1.02387220
5073,0,USArkansasLafayette,Arkansas,Lafayette,2021-04-04 13:45:09.781738,2021-02-15 00:00:00.000000,5.13656109,7.57286070,11.50771019,340,501,762,196,282,465,2.97345292,4.26740391,7.02869263,0.46791787,0.80676362,1.04058456
5073,0,USArkansasLafayette,Arkansas,Lafayette,2021-04-04 13:45:09.781738,2021-02-16 00:00:00.000000,5.27260258,7.68279410,11.65261884,349,508,771,197,286,467,2.98889275,4.32776226,7.05040470,0.47009259,0.81510922,1.05056148
5073,0,USArkansasLafayette,Arkansas,Lafayette,2021-04-04 13:45:09.781738,2021-02-17 00:00:00.000000,5.43106951,7.75316931,11.77135522,359,513,779,197,289,470,2.97826880,4.37106067,7.09663310,0.46999853,0.81550943,1.05612201
5073,0,USArkansasLafayette,Arkansas,Lafayette,2021-04-04 13:45:09.781738,2021-02-18 00:00:00.000000,5.54744250,7.90347017,11.89613653,367,523,788,195,291,474,2.95877246,4.39476496,7.16113627,0.46976791,0.81300091,1.05755951
5073,0,USArkansasLafayette,Arkansas,Lafayette,2021-04-04 13:45:09.781738,2021-02-19 00:00:00.000000,5.57115959,8.10360261,11.93749511,369,536,790,195,296,477,2.94416413,4.47035757,7.21422691,0.46923511,0.80922475,1.06543997
5073,0,USArkansasLafayette,Arkansas,Lafayette,2021-04-04 13:45:09.781738,2021-02-20 00:00:00.000000,5.56606228,8.24061946,11.98113103,368,545,793,194,300,483,2.93274547,4.53673026,7.30485476,0.46805163,0.81218870,1.04359356
5073,0,USArkansasLafayette,Arkansas,Lafayette,2021-04-04 13:45:09.781738,2021-02-21 00:00:00.000000,5.53576206,8.31984557,11.99513985,366,551,794,193,302,488,2.92340762,4.56502336,7.37743194,0.46562111,0.79935754,1.01109594
5073,0,USArkansasLafayette,Arkansas,Lafayette,2021-04-04 13:45:09.781738,2021-02-22 00:00:00.000000,5.53454598,8.30648521,11.97336169,366,550,793,193,303,491,2.91560387,4.58556735,7.42343460,0.46134954,0.77977531,0.96979052
5073,0,USArkansasLafayette,Arkansas,Lafayette,2021-04-04 13:45:09.781738,2021-02-23 00:00:00.000000,5.51491669,8.21432192,11.92237164,365,544,789,192,304,494,2.90214326,4.59482850,7.46486279,0.45517630,0.73150566,0.95434663
5073,0,USArkansasLafayette,Arkansas,Lafayette,2021-04-04 13:45:09.781738,2021-02-24 00:00:00.000000,5.46173161,8.09381572,11.84265615,361,536,784,195,304,495,2.94584896,4.60199128,7.48732987,0.43365064,0.70721401,0.93520803
5073,0,USArkansasLafayette,Arkansas,Lafayette,2021-04-04 13:45:09.781738,2021-02-25 00:00:00.000000,5.40576660,7.89881510,11.70924555,358,523,775,194,306,495,2.93067170,4.62937792,7.47358953,0.39216369,0.67345938,0.92305558
5073,0,USArkansasLafayette,Arkansas,Lafayette,2021-04-04 13:45:09.781738,2021-02-26 00:00:00.000000,5.33672808,7.67895102,11.48894384,353,508,761,190,301,490,2.87974076,4.55348687,7.39832636,0.32390379,0.59502263,0.89783037
5073,0,USArkansasLafayette,Arkansas,Lafayette,2021-04-04 13:45:09.781738,2021-02-27 00:00:00.000000,5.21202991,7.50127783,11.18760898,345,496,741,188,296,485,2.84868834,4.47709411,7.32899790,0.28789488,0.52544721,0.86303398
5073,0,USArkansasLafayette,Arkansas,Lafayette,2021-04-04 13:45:09.781738,2021-02-28 00:00:00.000000,4.96367048,7.23056061,10.84241084,328,478,718,186,287,477,2.81344841,4.34032850,7.20864989,0.26955114,0.48270434,0.80356011
5073,0,USArkansasLafayette,Arkansas,Lafayette,2021-04-04 13:45:09.781738,2021-03-01 00:00:00.000000,4.71193858,6.94270223,10.49088518,312,459,694,179,275,461,2.70767407,4.16361695,6.96970327,0.23733494,0.42316587,0.72733872
5073,0,USArkansasLafayette,Arkansas,Lafayette,2021-04-04 13:45:09.781738,2021-03-02 00:00:00.000000,4.42133862,6.60663424,10.12191551,292,437,670,173,265,444,2.62189718,4.01525560,6.70803125,0.22138358,0.40512148,0.70325015
5073,0,USArkansasLafayette,Arkansas,Lafayette,2021-04-04 13:45:09.781738,2021-03-03 00:00:00.000000,4.16808932,6.19473245,9.73841370,276,410,645,167,254,425,2.53338321,3.84945206,6.42509664,0.20154610,0.38726869,0.66121439
5073,0,USArkansasLafayette,Arkansas,Lafayette,2021-04-04 13:45:09.781738,2021-03-04 00:00:00.000000,3.84168483,5.85908337,9.33347878,254,388,618,161,241,405,2.43933411,3.65089551,6.12552870,0.19222419,0.36323009,0.65002746
5073,0,USArkansasLafayette,Arkansas,Lafayette,2021-04-04 13:45:09.781738,2021-03-05 00:00:00.000000,3.57031025,5.49122206,8.89191889,236,363,589,150,231,385,2.27407817,3.49158248,5.81312928,0.18934771,0.33843155,0.58417540
5073,0,USArkansasLafayette,Arkansas,Lafayette,2021-04-04 13:45:09.781738,2021-03-06 00:00:00.000000,3.31501785,5.17454102,8.41442760,219,342,557,137,219,367,2.08086266,3.31776697,5.54891548,0.18381718,0.33259801,0.55565568
5073,0,USArkansasLafayette,Arkansas,Lafayette,2021-04-04 13:45:09.781738,2021-03-07 00:00:00.000000,3.07766913,4.82634964,7.92399614,203,319,524,125,206,352,1.89559865,3.11646083,5.32168915,0.17772478,0.32886525,0.51011187
5073,0,USArkansasLafayette,Arkansas,Lafayette,2021-04-04 13:45:09.781738,2021-03-08 00:00:00.000000,2.83642900,4.41968771,7.41016635,187,292,490,114,192,337,1.72517467,2.89973089,5.08815458,0.17602674,0.31898901,0.48853894
5073,0,USArkansasLafayette,Arkansas,Lafayette,2021-04-04 13:45:09.781738,2021-03-09 00:00:00.000000,2.59353869,4.04341038,6.91286582,171,267,457,105,179,320,1.59978500,2.70735771,4.84481309,0.17073823,0.30630002,0.46267749
5073,0,USArkansasLafayette,Arkansas,Lafayette,2021-04-04 13:45:09.781738,2021-03-10 00:00:00.000000,2.36198331,3.73351051,6.48604423,156,247,429,98,167,304,1.48069280,2.52474423,4.59822337,0.16397327,0.30075576,0.46738492
5073,0,USArkansasLafayette,Arkansas,Lafayette,2021-04-04 13:45:09.781738,2021-03-11 00:00:00.000000,2.11882281,3.44169168,6.14870515,140,227,407,90,155,288,1.36858876,2.34341851,4.35358435,0.15794835,0.29945934,0.48460623
5073,0,USArkansasLafayette,Arkansas,Lafayette,2021-04-04 13:45:09.781738,2021-03-12 00:00:00.000000,1.89874423,3.14763056,5.82312078,125,208,385,83,143,272,1.26314725,2.16034521,4.11566081,0.15480005,0.29263909,0.48188647
5073,0,USArkansasLafayette,Arkansas,Lafayette,2021-04-04 13:45:09.781738,2021-03-13 00:00:00.000000,1.70024703,2.88094931,5.51045784,112,190,365,77,130,257,1.16406151,1.97512420,3.88792837,0.15357030,0.27706063,0.49132256
5073,0,USArkansasLafayette,Arkansas,Lafayette,2021-04-04 13:45:09.781738,2021-03-14 00:00:00.000000,1.52165024,2.62653166,5.20580213,100,173,344,69,119,243,1.05397249,1.80563274,3.67122359,0.14907704,0.26476564,0.50431427
5073,0,USArkansasLafayette,Arkansas,Lafayette,2021-04-04 13:45:09.781738,2021-03-15 00:00:00.000000,1.36613655,2.39017112,4.87947962,90,158,323,62,109,229,0.95107709,1.65158161,3.46526817,0.14465777,0.25538348,0.51636334
5073,0,USArkansasLafayette,Arkansas,Lafayette,2021-04-04 13:45:09.781738,2021-03-16 00:00:00.000000,1.23327763,2.16892467,4.57000533,81,143,302,56,100,217,0.85636656,1.51267937,3.28309340,0.14274269,0.25289745,0.52662707
5073,0,USArkansasLafayette,Arkansas,Lafayette,2021-04-04 13:45:09.781738,2021-03-17 00:00:00.000000,1.11287183,1.96308051,4.27543876,73,130,283,50,92,206,0.76962162,1.39030964,3.11077354,0.13485875,0.25096954,0.53479857
5073,0,USArkansasLafayette,Arkansas,Lafayette,2021-04-04 13:45:09.781738,2021-03-18 00:00:00.000000,1.00398986,1.77159058,3.99512357,66,117,264,45,84,195,0.68989489,1.27290254,2.94511924,0.12953899,0.24609692,0.53637865
5073,0,USArkansasLafayette,Arkansas,Lafayette,2021-04-04 13:45:09.781738,2021-03-19 00:00:00.000000,0.90609044,1.62332378,3.72982597,60,107,247,40,77,184,0.61691134,1.16909659,2.78628264,0.12787189,0.24461563,0.53708713
5073,0,USArkansasLafayette,Arkansas,Lafayette,2021-04-04 13:45:09.781738,2021-03-20 00:00:00.000000,0.81660811,1.50528899,3.48002227,54,99,230,36,70,174,0.55154555,1.06821688,2.63432876,0.12742589,0.24013682,0.53808222
5073,0,USArkansasLafayette,Arkansas,Lafayette,2021-04-04 13:45:09.781738,2021-03-21 00:00:00.000000,0.72154173,1.38757246,3.24551764,47,91,214,32,64,164,0.49387260,0.97719928,2.48925553,0.12732962,0.23652940,0.53945692
5073,0,USArkansasLafayette,Arkansas,Lafayette,2021-04-04 13:45:09.781738,2021-03-22 00:00:00.000000,0.63668769,1.25298588,3.02577885,42,82,200,29,59,155,0.44181445,0.90496776,2.35102054,0.12731375,0.24023702,0.54115292
5073,0,USArkansasLafayette,Arkansas,Lafayette,2021-04-04 13:45:09.781738,2021-03-23 00:00:00.000000,0.56125897,1.13750767,2.83019729,37,75,187,26,55,147,0.39460282,0.83761039,2.21958833,0.12732153,0.24000706,0.51351599
5073,0,USArkansasLafayette,Arkansas,Lafayette,2021-04-04 13:45:09.781738,2021-03-24 00:00:00.000000,0.49841607,1.03803759,2.66215759,33,68,176,23,50,137,0.35163664,0.76197485,2.07649118,0.12736809,0.23633570,0.47076502
5073,0,USArkansasLafayette,Arkansas,Lafayette,2021-04-04 13:45:09.781738,2021-03-25 00:00:00.000000,0.44606798,0.94662187,2.50375675,29,62,165,20,45,128,0.31344796,0.69272419,1.93678855,0.12627132,0.24020702,0.47114894
5073,0,USArkansasLafayette,Arkansas,Lafayette,2021-04-04 13:45:09.781738,2021-03-26 00:00:00.000000,0.39923127,0.86278515,2.35444388,26,57,155,18,41,119,0.27932262,0.62945433,1.80586538,0.12729995,0.24231549,0.46697902
5073,0,USArkansasLafayette,Arkansas,Lafayette,2021-04-04 13:45:09.781738,2021-03-27 00:00:00.000000,0.35727890,0.78488560,2.21369664,23,51,146,16,37,111,0.24885363,0.57025359,1.68937272,0.12575060,0.24350092,0.47456083
5073,0,USArkansasLafayette,Arkansas,Lafayette,2021-04-04 13:45:09.781738,2021-03-28 00:00:00.000000,0.31952629,0.71267219,2.08103292,21,47,137,14,34,105,0.22166615,0.51826185,1.58906290,0.12085768,0.24732601,0.49910886
5073,0,USArkansasLafayette,Arkansas,Lafayette,2021-04-04 13:45:09.781738,2021-03-29 00:00:00.000000,0.28564054,0.63921409,1.95601094,18,42,129,13,31,98,0.19741663,0.47134422,1.49446002,0.12079216,0.24471638,0.52520711
5073,0,USArkansasLafayette,Arkansas,Lafayette,2021-04-04 13:45:09.781738,2021-03-30 00:00:00.000000,0.25530966,0.57716255,1.83821730,16,38,121,11,28,93,0.17578949,0.42904542,1.40525658,0.12090063,0.24220152,0.53765291
5073,0,USArkansasLafayette,Arkansas,Lafayette,2021-04-04 13:45:09.781738,2021-03-31 00:00:00.000000,0.22817794,0.52858041,1.72726257,15,35,114,10,25,87,0.15649408,0.39101236,1.32116160,0.12090173,0.24384369,0.53046633
5073,0,USArkansasLafayette,Arkansas,Lafayette,2021-04-04 13:45:09.781738,2021-04-01 00:00:00.000000,0.20391969,0.49053926,1.62283062,13,32,107,9,23,82,0.13927575,0.35716070,1.24190035,0.11753392,0.24427396,0.52642679
5073,0,USArkansasLafayette,Arkansas,Lafayette,2021-04-04 13:45:09.781738,2021-04-02 00:00:00.000000,0.18223739,0.45177472,1.52520788,12,29,101,8,21,77,0.12393277,0.32463971,1.16722556,0.11172501,0.24484196,0.52725345
5073,0,USArkansasLafayette,Arkansas,Lafayette,2021-04-04 13:45:09.781738,2021-04-03 00:00:00.000000,0.16286066,0.41482069,1.43398321,10,27,94,7,19,72,0.11032024,0.29685410,1.09704845,0.10576779,0.24432893,0.53843433
5073,0,USArkansasLafayette,Arkansas,Lafayette,2021-04-04 13:45:09.781738,2021-04-04 00:00:00.000000,0.14554547,0.38062503,1.34794424,9,25,89,6,18,68,0.09834385,0.27202449,1.03121992,0.10173670,0.24100040,0.54386609
5073,0,USArkansasLafayette,Arkansas,Lafayette,2021-04-04 13:45:09.781738,2021-04-05 00:00:00.000000,0.13008126,0.35107110,1.26549877,8,23,83,5,16,64,0.08788599,0.24929695,0.96935907,0.09939120,0.23610590,0.54092181
5073,0,USArkansasLafayette,Arkansas,Lafayette,2021-04-04 13:45:09.781738,2021-04-06 00:00:00.000000,0.11628669,0.32227358,1.18776353,7,21,78,5,15,60,0.07875078,0.22845614,0.91084507,0.09813790,0.24077296,0.54265120
5073,0,USArkansasLafayette,Arkansas,Lafayette,2021-04-04 13:45:09.781738,2021-04-07 00:00:00.000000,0.10396910,0.29321729,1.11462193,6,19,73,4,13,56,0.07072570,0.20935213,0.85554231,0.09749792,0.23950610,0.54656775
5073,0,USArkansasLafayette,Arkansas,Lafayette,2021-04-04 13:45:09.781738,2021-04-08 00:00:00.000000,0.09296747,0.26749293,1.04582678,6,17,69,4,12,53,0.06328279,0.19184732,0.80335261,0.09717865,0.23926448,0.54795774
5073,0,USArkansasLafayette,Arkansas,Lafayette,2021-04-04 13:45:09.781738,2021-04-09 00:00:00.000000,0.08313631,0.24468483,0.98114788,5,16,64,3,11,49,0.05600194,0.17581158,0.75415714,0.09702122,0.23921919,0.54877981
5073,0,USArkansasLafayette,Arkansas,Lafayette,2021-04-04 13:45:09.781738,2021-04-10 00:00:00.000000,0.07434841,0.22385357,0.92036224,4,14,60,3,10,46,0.04953294,0.16112308,0.70782561,0.09694402,0.23921006,0.54925589
5073,0,USArkansasLafayette,Arkansas,Lafayette,2021-04-04 13:45:09.781738,2021-04-11 00:00:00.000000,0.06649167,0.20481834,0.86325408,4,13,57,2,9,43,0.04379422,0.14766882,0.66422235,0.09690627,0.23920786,0.54952845
5073,0,USArkansasLafayette,Arkansas,Lafayette,2021-04-04 13:45:09.781738,2021-04-12 00:00:00.000000,0.05946662,0.18741767,0.80961569,3,12,53,2,9,41,0.03870941,0.13719658,0.62321026,0.09688783,0.23920717,0.54968354
5073,0,USArkansasLafayette,Arkansas,Lafayette,2021-04-04 13:45:09.781738,2021-04-13 00:00:00.000000,0.05318475,0.17150659,0.75924808,3,11,50,2,8,38,0.03420808,0.12518863,0.58465342,0.09687884,0.23920688,0.54977151
5073,0,USArkansasLafayette,Arkansas,Lafayette,2021-04-04 13:45:09.781738,2021-04-14 00:00:00.000000,0.04756713,0.15695430,0.71196141,3,10,47,2,7,36,0.03022604,0.11421719,0.54841884,0.09687445,0.23920675,0.54982134
5073,0,USArkansasLafayette,Arkansas,Lafayette,2021-04-04 13:45:09.781738,2021-04-15 00:00:00.000000,0.04252576,0.14364245,0.66757510,2,9,44,1,6,34,0.02670521,0.10423502,0.51437764,0.09687230,0.23920668,0.54984954
5073,0,USArkansasLafayette,Arkansas,Lafayette,2021-04-04 13:45:09.781738,2021-04-16 00:00:00.000000,0.03755855,0.13146368,0.62577179,2,8,41,1,6,31,0.02359336,0.09555160,0.48240576,0.09687126,0.23920665,0.54986550
