FIPS,HR_UID,nameid,province,region,analysisTime,dates,pointprevalence_025,pointprevalence_50,pointprevalence_975,pointinfections_025,pointinfections_50,pointinfections_975,pointinfectious_025,pointinfectious_50,pointinfectious_975,pointinfectiousprevalence_05,pointinfectiousprevalence_50,pointinfectiousprevalence_95,infectrate_025,infectrate_50,infectrate_975
29015,0,USMissouriBenton,Missouri,Benton,2021-04-04 08:05:34.243397,2020-03-09 00:00:00.000000,0.00220529,0.01294712,0.04388695,0,2,8,0,1,5,0.00142385,0.00690451,0.02871514,0.29773811,0.45821205,0.63912304
29015,0,USMissouriBenton,Missouri,Benton,2021-04-04 08:05:34.243397,2020-03-10 00:00:00.000000,0.00244458,0.01399617,0.04700714,0,2,9,0,1,5,0.00139418,0.00772088,0.02880422,0.29773152,0.45821091,0.63910232
29015,0,USMissouriBenton,Missouri,Benton,2021-04-04 08:05:34.243397,2020-03-11 00:00:00.000000,0.00269857,0.01497208,0.05057256,0,2,9,0,1,5,0.00145012,0.00845497,0.03013600,0.29772114,0.45820848,0.63906824
29015,0,USMissouriBenton,Missouri,Benton,2021-04-04 08:05:34.243397,2020-03-12 00:00:00.000000,0.00297356,0.01580389,0.05452001,0,3,10,0,1,6,0.00155462,0.00923031,0.03208854,0.29770467,0.45820303,0.63901179
29015,0,USMissouriBenton,Missouri,Benton,2021-04-04 08:05:34.243397,2020-03-13 00:00:00.000000,0.00327399,0.01679992,0.05883802,0,3,11,0,1,6,0.00169044,0.01000853,0.03442158,0.29767843,0.45818907,0.63891663
29015,0,USMissouriBenton,Missouri,Benton,2021-04-04 08:05:34.243397,2020-03-14 00:00:00.000000,0.00360351,0.01875279,0.06353696,0,3,12,0,2,7,0.00185003,0.01083758,0.03704739,0.29763643,0.45814479,0.63874553
29015,0,USMissouriBenton,Missouri,Benton,2021-04-04 08:05:34.243397,2020-03-15 00:00:00.000000,0.00396557,0.02078969,0.06863704,0,4,13,0,2,7,0.00203059,0.01181530,0.03993982,0.29756893,0.45796539,0.63835751
29015,0,USMissouriBenton,Missouri,Benton,2021-04-04 08:05:34.243397,2020-03-16 00:00:00.000000,0.00714735,0.02718089,0.07926874,1,5,15,0,2,8,0.00223170,0.01290686,0.04309809,0.29745958,0.45485038,0.63688496
29015,0,USMissouriBenton,Missouri,Benton,2021-04-04 08:05:34.243397,2020-03-17 00:00:00.000000,0.00952507,0.03332232,0.09035453,1,6,17,0,2,9,0.00354835,0.01535816,0.04842880,0.29727644,0.44713275,0.62800871
29015,0,USMissouriBenton,Missouri,Benton,2021-04-04 08:05:34.243397,2020-03-18 00:00:00.000000,0.01261046,0.04217412,0.10357564,2,8,20,1,3,10,0.00554701,0.01949700,0.05497109,0.29691075,0.43992196,0.60863473
29015,0,USMissouriBenton,Missouri,Benton,2021-04-04 08:05:34.243397,2020-03-19 00:00:00.000000,0.01670037,0.05064257,0.12520395,3,9,24,1,4,12,0.00754745,0.02352032,0.06236614,0.25682621,0.42336115,0.58884982
29015,0,USMissouriBenton,Missouri,Benton,2021-04-04 08:05:34.243397,2020-03-20 00:00:00.000000,0.02107703,0.06020268,0.14067562,4,11,27,1,5,14,0.00934094,0.02913262,0.07234169,0.20540132,0.39699405,0.56174138
29015,0,USMissouriBenton,Missouri,Benton,2021-04-04 08:05:34.243397,2020-03-21 00:00:00.000000,0.02571331,0.06938886,0.15313197,4,13,29,2,6,15,0.01124854,0.03384171,0.08047950,0.20202555,0.37762132,0.52317631
29015,0,USMissouriBenton,Missouri,Benton,2021-04-04 08:05:34.243397,2020-03-22 00:00:00.000000,0.03056205,0.07587085,0.16418933,5,14,31,2,7,17,0.01321618,0.03832124,0.08862971,0.20154367,0.35038695,0.50855713
29015,0,USMissouriBenton,Missouri,Benton,2021-04-04 08:05:34.243397,2020-03-23 00:00:00.000000,0.03320407,0.08263146,0.17032942,6,16,33,2,8,18,0.01522669,0.04279329,0.09689653,0.20141879,0.32963460,0.47373407
29015,0,USMissouriBenton,Missouri,Benton,2021-04-04 08:05:34.243397,2020-03-24 00:00:00.000000,0.03652253,0.09232969,0.18252734,7,17,35,3,9,20,0.01822183,0.04888551,0.10507898,0.20123990,0.31892482,0.45691294
29015,0,USMissouriBenton,Missouri,Benton,2021-04-04 08:05:34.243397,2020-03-25 00:00:00.000000,0.04101397,0.10109740,0.18957255,7,19,36,4,10,22,0.02230233,0.05548605,0.11583965,0.19900871,0.30232869,0.41472999
29015,0,USMissouriBenton,Missouri,Benton,2021-04-04 08:05:34.243397,2020-03-26 00:00:00.000000,0.04398866,0.11038101,0.20767600,8,21,40,4,11,24,0.02413150,0.06151916,0.12377750,0.18195067,0.29064388,0.41086039
29015,0,USMissouriBenton,Missouri,Benton,2021-04-04 08:05:34.243397,2020-03-27 00:00:00.000000,0.04688641,0.11647994,0.21676687,9,22,42,4,13,26,0.02500163,0.06830521,0.13383244,0.17710683,0.28304342,0.40715501
29015,0,USMissouriBenton,Missouri,Benton,2021-04-04 08:05:34.243397,2020-03-28 00:00:00.000000,0.04967270,0.12403971,0.24022476,9,24,46,5,14,27,0.02580070,0.07430097,0.14121109,0.16614214,0.27058980,0.40291411
29015,0,USMissouriBenton,Missouri,Benton,2021-04-04 08:05:34.243397,2020-03-29 00:00:00.000000,0.05228963,0.13464519,0.26389709,10,26,51,5,15,28,0.02655704,0.07906968,0.14829257,0.16602601,0.25755857,0.40086103
29015,0,USMissouriBenton,Missouri,Benton,2021-04-04 08:05:34.243397,2020-03-30 00:00:00.000000,0.05237453,0.13509849,0.26838046,10,26,52,5,16,31,0.02740589,0.08307873,0.16365042,0.16541079,0.24661398,0.36622095
29015,0,USMissouriBenton,Missouri,Benton,2021-04-04 08:05:34.243397,2020-03-31 00:00:00.000000,0.05213208,0.13650897,0.27234385,10,26,52,5,16,34,0.02826151,0.08487991,0.17808315,0.14182162,0.23584343,0.34726731
29015,0,USMissouriBenton,Missouri,Benton,2021-04-04 08:05:34.243397,2020-04-01 00:00:00.000000,0.05140378,0.13844157,0.26889060,9,26,52,5,16,36,0.02864953,0.08490964,0.18662415,0.14051446,0.22499668,0.32968887
29015,0,USMissouriBenton,Missouri,Benton,2021-04-04 08:05:34.243397,2020-04-02 00:00:00.000000,0.05023057,0.13697842,0.26728285,9,26,51,5,16,35,0.02868116,0.08511071,0.18150963,0.13410282,0.21774081,0.30244353
29015,0,USMissouriBenton,Missouri,Benton,2021-04-04 08:05:34.243397,2020-04-03 00:00:00.000000,0.04866579,0.13400476,0.26511695,9,26,51,5,16,34,0.02841334,0.08494645,0.17826046,0.12068435,0.20352481,0.28303863
29015,0,USMissouriBenton,Missouri,Benton,2021-04-04 08:05:34.243397,2020-04-04 00:00:00.000000,0.04679409,0.12989928,0.26800031,9,25,52,5,16,35,0.02788490,0.08430418,0.18263669,0.11403286,0.18925202,0.27706101
29015,0,USMissouriBenton,Missouri,Benton,2021-04-04 08:05:34.243397,2020-04-05 00:00:00.000000,0.04472245,0.12386225,0.27135031,8,24,52,5,16,36,0.02713644,0.08507645,0.18622995,0.10898376,0.18093761,0.27301891
29015,0,USMissouriBenton,Missouri,Benton,2021-04-04 08:05:34.243397,2020-04-06 00:00:00.000000,0.05113670,0.12741497,0.28429397,9,24,55,5,16,36,0.02621648,0.08414311,0.18908674,0.10897008,0.17463079,0.26471073
29015,0,USMissouriBenton,Missouri,Benton,2021-04-04 08:05:34.243397,2020-04-07 00:00:00.000000,0.05752984,0.12911449,0.29586014,11,25,57,5,16,37,0.02831473,0.08372503,0.19506409,0.10896953,0.17035314,0.24263112
29015,0,USMissouriBenton,Missouri,Benton,2021-04-04 08:05:34.243397,2020-04-08 00:00:00.000000,0.06315349,0.13159622,0.30669910,12,25,59,6,16,39,0.03418442,0.08449417,0.20231363,0.10715526,0.16756045,0.23964324
29015,0,USMissouriBenton,Missouri,Benton,2021-04-04 08:05:34.243397,2020-04-09 00:00:00.000000,0.07046059,0.13449640,0.31649217,13,26,61,7,16,40,0.03679734,0.08608455,0.20627555,0.10644325,0.16328786,0.23705245
29015,0,USMissouriBenton,Missouri,Benton,2021-04-04 08:05:34.243397,2020-04-10 00:00:00.000000,0.07635201,0.14048465,0.32079025,14,27,62,7,16,39,0.03942167,0.08703962,0.20149594,0.10178099,0.16090263,0.23197155
29015,0,USMissouriBenton,Missouri,Benton,2021-04-04 08:05:34.243397,2020-04-11 00:00:00.000000,0.07742281,0.14095346,0.31150900,15,27,60,8,17,39,0.04498647,0.09065177,0.20360604,0.09793485,0.15833535,0.22175469
29015,0,USMissouriBenton,Missouri,Benton,2021-04-04 08:05:34.243397,2020-04-12 00:00:00.000000,0.08465745,0.14426463,0.30191039,16,28,58,9,18,40,0.04680997,0.09292750,0.20832755,0.09521467,0.15355409,0.20858708
29015,0,USMissouriBenton,Missouri,Benton,2021-04-04 08:05:34.243397,2020-04-13 00:00:00.000000,0.08559633,0.14694045,0.30186790,16,28,58,9,18,41,0.04656441,0.09510627,0.21225244,0.09322024,0.14672308,0.20049935
29015,0,USMissouriBenton,Missouri,Benton,2021-04-04 08:05:34.243397,2020-04-14 00:00:00.000000,0.08627012,0.15064723,0.30195228,16,29,58,9,18,40,0.05133944,0.09687937,0.20954611,0.08691222,0.13951614,0.20045624
29015,0,USMissouriBenton,Missouri,Benton,2021-04-04 08:05:34.243397,2020-04-15 00:00:00.000000,0.08658729,0.14996205,0.30257502,16,29,58,10,19,39,0.05458466,0.09841567,0.20486117,0.08517251,0.13592741,0.20029053
29015,0,USMissouriBenton,Missouri,Benton,2021-04-04 08:05:34.243397,2020-04-16 00:00:00.000000,0.08685862,0.15179432,0.30334925,16,29,58,10,19,38,0.05503104,0.09991657,0.19922934,0.08077491,0.13243268,0.19963791
29015,0,USMissouriBenton,Missouri,Benton,2021-04-04 08:05:34.243397,2020-04-17 00:00:00.000000,0.08707685,0.15536388,0.30399455,16,30,59,11,19,37,0.05662254,0.09990064,0.19292072,0.07757397,0.12944017,0.19705356
29015,0,USMissouriBenton,Missouri,Benton,2021-04-04 08:05:34.243397,2020-04-18 00:00:00.000000,0.08649168,0.15773671,0.30435780,16,30,59,10,19,36,0.05609902,0.10152230,0.18624462,0.07667101,0.12468247,0.18863135
29015,0,USMissouriBenton,Missouri,Benton,2021-04-04 08:05:34.243397,2020-04-19 00:00:00.000000,0.08511339,0.15604254,0.30441304,16,30,59,10,19,35,0.05552230,0.10091470,0.18302657,0.06846261,0.12141989,0.17260828
29015,0,USMissouriBenton,Missouri,Benton,2021-04-04 08:05:34.243397,2020-04-20 00:00:00.000000,0.08947272,0.15799824,0.29905116,17,30,58,10,19,35,0.05492454,0.10107225,0.18316894,0.06526140,0.11756325,0.16861189
29015,0,USMissouriBenton,Missouri,Benton,2021-04-04 08:05:34.243397,2020-04-21 00:00:00.000000,0.09066525,0.16003283,0.29355352,17,31,57,10,19,35,0.05609446,0.10210095,0.18140240,0.06411123,0.11590770,0.16800692
29015,0,USMissouriBenton,Missouri,Benton,2021-04-04 08:05:34.243397,2020-04-22 00:00:00.000000,0.09148350,0.16002319,0.29486344,17,31,57,11,20,34,0.05781254,0.10338860,0.17868161,0.06382888,0.11467764,0.16678722
29015,0,USMissouriBenton,Missouri,Benton,2021-04-04 08:05:34.243397,2020-04-23 00:00:00.000000,0.09129397,0.15962286,0.31357923,17,31,60,11,20,36,0.05948754,0.10452263,0.18679573,0.06378273,0.11393847,0.16548509
29015,0,USMissouriBenton,Missouri,Benton,2021-04-04 08:05:34.243397,2020-04-24 00:00:00.000000,0.09231605,0.15829049,0.32762465,17,30,63,11,20,38,0.05756995,0.10394664,0.19889353,0.06397656,0.11171393,0.16459413
29015,0,USMissouriBenton,Missouri,Benton,2021-04-04 08:05:34.243397,2020-04-25 00:00:00.000000,0.08807787,0.15497998,0.31885141,17,30,61,10,20,40,0.05580543,0.10421285,0.21056050,0.06518612,0.10797424,0.16244846
29015,0,USMissouriBenton,Missouri,Benton,2021-04-04 08:05:34.243397,2020-04-26 00:00:00.000000,0.08355389,0.15216502,0.30998457,16,29,60,10,20,43,0.05415471,0.10482012,0.22146665,0.06417329,0.10787392,0.16036225
29015,0,USMissouriBenton,Missouri,Benton,2021-04-04 08:05:34.243397,2020-04-27 00:00:00.000000,0.08697249,0.14997250,0.29784323,16,29,57,10,20,43,0.05336090,0.10299075,0.22275348,0.06171952,0.10531433,0.15919732
29015,0,USMissouriBenton,Missouri,Benton,2021-04-04 08:05:34.243397,2020-04-28 00:00:00.000000,0.08676061,0.15611313,0.28572496,16,30,55,10,19,41,0.05384048,0.10218898,0.21525167,0.05977459,0.10510657,0.15333321
29015,0,USMissouriBenton,Missouri,Benton,2021-04-04 08:05:34.243397,2020-04-29 00:00:00.000000,0.08677758,0.16297393,0.27367510,16,31,53,10,20,40,0.05316327,0.10289330,0.20712118,0.05926509,0.10399236,0.15234171
29015,0,USMissouriBenton,Missouri,Benton,2021-04-04 08:05:34.243397,2020-04-30 00:00:00.000000,0.08697713,0.16247845,0.26192831,16,31,50,10,20,38,0.05275072,0.10672500,0.19878221,0.05874265,0.10293793,0.15203521
29015,0,USMissouriBenton,Missouri,Benton,2021-04-04 08:05:34.243397,2020-05-01 00:00:00.000000,0.08288818,0.16825026,0.25064224,16,32,48,10,20,37,0.05250528,0.10603091,0.19049273,0.05846838,0.10356139,0.15131283
29015,0,USMissouriBenton,Missouri,Benton,2021-04-04 08:05:34.243397,2020-05-02 00:00:00.000000,0.08078026,0.16605023,0.26445385,15,32,51,10,20,35,0.05236653,0.10485941,0.18241781,0.05843667,0.10193658,0.14925716
29015,0,USMissouriBenton,Missouri,Benton,2021-04-04 08:05:34.243397,2020-05-03 00:00:00.000000,0.08076381,0.16169938,0.26899825,15,31,52,10,20,33,0.05171319,0.10585008,0.17468392,0.05913375,0.10072597,0.15002201
29015,0,USMissouriBenton,Missouri,Benton,2021-04-04 08:05:34.243397,2020-05-04 00:00:00.000000,0.08214365,0.16313378,0.26286879,15,31,51,10,20,34,0.05196596,0.10562480,0.17964960,0.05949153,0.09917713,0.15133360
29015,0,USMissouriBenton,Missouri,Benton,2021-04-04 08:05:34.243397,2020-05-05 00:00:00.000000,0.08751047,0.16123343,0.25474019,17,31,49,10,20,34,0.05196093,0.10473614,0.17792629,0.05689578,0.09822084,0.15147071
29015,0,USMissouriBenton,Missouri,Benton,2021-04-04 08:05:34.243397,2020-05-06 00:00:00.000000,0.09215028,0.15681986,0.25265504,17,30,49,10,20,34,0.05324200,0.10418213,0.17679268,0.05641858,0.09783720,0.15146797
29015,0,USMissouriBenton,Missouri,Benton,2021-04-04 08:05:34.243397,2020-05-07 00:00:00.000000,0.09310076,0.15769814,0.24542506,18,30,47,10,19,33,0.05652016,0.10115612,0.17345193,0.05638306,0.09665399,0.15146086
29015,0,USMissouriBenton,Missouri,Benton,2021-04-04 08:05:34.243397,2020-05-08 00:00:00.000000,0.09413473,0.15408209,0.23833265,18,29,46,11,19,32,0.05718314,0.09881502,0.16924391,0.05656547,0.09623841,0.15143711
29015,0,USMissouriBenton,Missouri,Benton,2021-04-04 08:05:34.243397,2020-05-09 00:00:00.000000,0.09348372,0.14963736,0.23161484,18,29,45,11,18,32,0.05733756,0.09680172,0.16482379,0.05576940,0.09552343,0.15130200
29015,0,USMissouriBenton,Missouri,Benton,2021-04-04 08:05:34.243397,2020-05-10 00:00:00.000000,0.09264806,0.14579552,0.22544364,18,28,43,11,18,31,0.05667705,0.09602955,0.16104187,0.05533040,0.09239878,0.15046585
29015,0,USMissouriBenton,Missouri,Benton,2021-04-04 08:05:34.243397,2020-05-11 00:00:00.000000,0.09246365,0.14195311,0.22582242,17,27,43,11,18,30,0.05710076,0.09708968,0.15680625,0.05296814,0.08980418,0.14619207
29015,0,USMissouriBenton,Missouri,Benton,2021-04-04 08:05:34.243397,2020-05-12 00:00:00.000000,0.09462075,0.14068839,0.22280208,18,27,43,11,18,30,0.05712972,0.09443649,0.15669686,0.05076469,0.08825367,0.14011235
29015,0,USMissouriBenton,Missouri,Benton,2021-04-04 08:05:34.243397,2020-05-13 00:00:00.000000,0.09246512,0.13778425,0.22253407,17,26,43,11,18,30,0.05677503,0.09494279,0.15747423,0.04938484,0.08896036,0.14267581
29015,0,USMissouriBenton,Missouri,Benton,2021-04-04 08:05:34.243397,2020-05-14 00:00:00.000000,0.09199082,0.13526838,0.22207299,17,26,43,11,18,30,0.05794412,0.09301273,0.15765601,0.04889499,0.08720798,0.14375400
29015,0,USMissouriBenton,Missouri,Benton,2021-04-04 08:05:34.243397,2020-05-15 00:00:00.000000,0.09086979,0.13504837,0.22804567,17,26,44,11,17,30,0.05720875,0.08948472,0.15755255,0.04937071,0.08632252,0.14316672
29015,0,USMissouriBenton,Missouri,Benton,2021-04-04 08:05:34.243397,2020-05-16 00:00:00.000000,0.08953239,0.13557278,0.22884872,17,26,44,10,16,30,0.05641331,0.08685807,0.15728475,0.05022363,0.08622636,0.14323487
29015,0,USMissouriBenton,Missouri,Benton,2021-04-04 08:05:34.243397,2020-05-17 00:00:00.000000,0.08827869,0.13502297,0.22571828,17,26,43,10,16,31,0.05561885,0.08519440,0.16167434,0.04963618,0.08547969,0.14816619
29015,0,USMissouriBenton,Missouri,Benton,2021-04-04 08:05:34.243397,2020-05-18 00:00:00.000000,0.08724785,0.13551851,0.22439684,16,26,43,10,16,31,0.05484548,0.08503363,0.16240709,0.05182244,0.08386397,0.15245076
29015,0,USMissouriBenton,Missouri,Benton,2021-04-04 08:05:34.243397,2020-05-19 00:00:00.000000,0.08516746,0.13981078,0.22557185,16,27,43,10,16,31,0.05424318,0.08505914,0.16171404,0.05095247,0.08255515,0.15217378
29015,0,USMissouriBenton,Missouri,Benton,2021-04-04 08:05:34.243397,2020-05-20 00:00:00.000000,0.08254530,0.13829115,0.22678389,16,26,44,10,17,31,0.05333532,0.08979221,0.16055731,0.05039759,0.08142507,0.15015188
29015,0,USMissouriBenton,Missouri,Benton,2021-04-04 08:05:34.243397,2020-05-21 00:00:00.000000,0.08022528,0.13657170,0.22837089,15,26,44,10,17,31,0.05229379,0.09038057,0.15946948,0.04997437,0.08297885,0.15491746
29015,0,USMissouriBenton,Missouri,Benton,2021-04-04 08:05:34.243397,2020-05-22 00:00:00.000000,0.07815138,0.13334354,0.24837008,15,25,48,9,17,30,0.05123182,0.08922579,0.15807219,0.04950517,0.08545676,0.15559318
29015,0,USMissouriBenton,Missouri,Benton,2021-04-04 08:05:34.243397,2020-05-23 00:00:00.000000,0.07552761,0.13295835,0.25122199,14,25,48,9,17,30,0.05011969,0.08797392,0.15814855,0.04976149,0.08342837,0.15546638
29015,0,USMissouriBenton,Missouri,Benton,2021-04-04 08:05:34.243397,2020-05-24 00:00:00.000000,0.07256229,0.13233091,0.25385014,14,25,49,9,17,30,0.04880711,0.08809313,0.15927372,0.04954695,0.08257141,0.15499775
29015,0,USMissouriBenton,Missouri,Benton,2021-04-04 08:05:34.243397,2020-05-25 00:00:00.000000,0.07865409,0.13398973,0.24950295,15,26,48,9,16,33,0.04762778,0.08689651,0.17327968,0.04935916,0.08302411,0.15389617
29015,0,USMissouriBenton,Missouri,Benton,2021-04-04 08:05:34.243397,2020-05-26 00:00:00.000000,0.08100035,0.13144829,0.25855952,15,25,50,9,16,33,0.05037652,0.08669575,0.17353775,0.04930496,0.08174061,0.15212547
29015,0,USMissouriBenton,Missouri,Benton,2021-04-04 08:05:34.243397,2020-05-27 00:00:00.000000,0.08077964,0.13318116,0.26768109,15,25,52,10,16,33,0.05294473,0.08537682,0.16991125,0.04931206,0.08130617,0.14985324
29015,0,USMissouriBenton,Missouri,Benton,2021-04-04 08:05:34.243397,2020-05-28 00:00:00.000000,0.08140413,0.13241267,0.27652910,15,25,53,10,16,32,0.05385383,0.08436520,0.16857865,0.04935043,0.08067469,0.14711222
29015,0,USMissouriBenton,Missouri,Benton,2021-04-04 08:05:34.243397,2020-05-29 00:00:00.000000,0.07939261,0.13285404,0.28474291,15,25,55,10,16,33,0.05353623,0.08432215,0.17424027,0.04942377,0.08088885,0.14367475
29015,0,USMissouriBenton,Missouri,Benton,2021-04-04 08:05:34.243397,2020-05-30 00:00:00.000000,0.07880460,0.13706053,0.29189736,15,26,56,10,16,34,0.05225523,0.08607367,0.17971677,0.04960463,0.08114632,0.14196188
29015,0,USMissouriBenton,Missouri,Benton,2021-04-04 08:05:34.243397,2020-05-31 00:00:00.000000,0.07810772,0.13737095,0.28425084,15,26,55,9,17,35,0.04952262,0.08758107,0.18479707,0.05033553,0.08212252,0.14906791
29015,0,USMissouriBenton,Missouri,Benton,2021-04-04 08:05:34.243397,2020-06-01 00:00:00.000000,0.08021241,0.13734396,0.26151415,15,26,50,9,17,34,0.04768930,0.08945609,0.17848769,0.05065765,0.08311050,0.15120993
29015,0,USMissouriBenton,Missouri,Benton,2021-04-04 08:05:34.243397,2020-06-02 00:00:00.000000,0.08423014,0.13764621,0.23985021,16,26,46,9,17,32,0.05119192,0.09080791,0.16737355,0.05086176,0.08385955,0.15144140
29015,0,USMissouriBenton,Missouri,Benton,2021-04-04 08:05:34.243397,2020-06-03 00:00:00.000000,0.08650606,0.13693046,0.23290616,16,26,45,10,17,32,0.05320587,0.09194351,0.16822706,0.05195558,0.08452301,0.15384182
29015,0,USMissouriBenton,Missouri,Benton,2021-04-04 08:05:34.243397,2020-06-04 00:00:00.000000,0.08635659,0.13484531,0.23489466,16,26,45,10,17,31,0.05255081,0.09082443,0.16257272,0.05198533,0.08515477,0.15641794
29015,0,USMissouriBenton,Missouri,Benton,2021-04-04 08:05:34.243397,2020-06-05 00:00:00.000000,0.08652151,0.13274723,0.25475170,16,25,49,10,17,31,0.05299126,0.09008449,0.16038063,0.05318481,0.08517186,0.15799484
29015,0,USMissouriBenton,Missouri,Benton,2021-04-04 08:05:34.243397,2020-06-06 00:00:00.000000,0.08525961,0.13722300,0.28271845,16,26,54,10,17,31,0.05428465,0.08836712,0.16094686,0.05312956,0.08506766,0.15869171
29015,0,USMissouriBenton,Missouri,Benton,2021-04-04 08:05:34.243397,2020-06-07 00:00:00.000000,0.08131424,0.13616012,0.28092663,15,26,54,10,17,32,0.05436951,0.08893669,0.16854010,0.05320360,0.08527728,0.16094216
29015,0,USMissouriBenton,Missouri,Benton,2021-04-04 08:05:34.243397,2020-06-08 00:00:00.000000,0.08051132,0.13966243,0.28299883,15,27,55,10,17,35,0.05405937,0.09123705,0.18343809,0.05210007,0.08640968,0.15896564
29015,0,USMissouriBenton,Missouri,Benton,2021-04-04 08:05:34.243397,2020-06-09 00:00:00.000000,0.08062410,0.13656963,0.28507899,15,26,55,10,17,35,0.05370515,0.08888076,0.18358279,0.05068971,0.08683726,0.15809394
29015,0,USMissouriBenton,Missouri,Benton,2021-04-04 08:05:34.243397,2020-06-10 00:00:00.000000,0.08053612,0.13767735,0.28728490,15,26,55,10,17,35,0.05225538,0.08821576,0.18439695,0.04981772,0.08720697,0.15753851
29015,0,USMissouriBenton,Missouri,Benton,2021-04-04 08:05:34.243397,2020-06-11 00:00:00.000000,0.08016737,0.13519046,0.28949962,15,26,56,9,16,36,0.05049843,0.08638481,0.18554915,0.05007862,0.08740484,0.15785460
29015,0,USMissouriBenton,Missouri,Benton,2021-04-04 08:05:34.243397,2020-06-12 00:00:00.000000,0.07658962,0.13262766,0.28240632,14,25,54,9,16,36,0.04908862,0.08553167,0.18685387,0.05127696,0.08805676,0.15745318
29015,0,USMissouriBenton,Missouri,Benton,2021-04-04 08:05:34.243397,2020-06-13 00:00:00.000000,0.07483180,0.13154762,0.27645652,14,25,53,9,16,35,0.04905861,0.08697359,0.18391280,0.05306843,0.08855600,0.15710932
29015,0,USMissouriBenton,Missouri,Benton,2021-04-04 08:05:34.243397,2020-06-14 00:00:00.000000,0.07324437,0.13088465,0.28488397,14,25,55,9,16,35,0.04902151,0.08577693,0.18315986,0.05303154,0.08921025,0.15849741
29015,0,USMissouriBenton,Missouri,Benton,2021-04-04 08:05:34.243397,2020-06-15 00:00:00.000000,0.07369415,0.13129494,0.28129752,14,25,54,9,16,36,0.04895948,0.08564336,0.18926483,0.05261887,0.09004685,0.15890435
29015,0,USMissouriBenton,Missouri,Benton,2021-04-04 08:05:34.243397,2020-06-16 00:00:00.000000,0.07235875,0.13353646,0.27741178,14,25,53,9,16,37,0.04809127,0.08508701,0.19145839,0.05655515,0.09102333,0.15887268
29015,0,USMissouriBenton,Missouri,Benton,2021-04-04 08:05:34.243397,2020-06-17 00:00:00.000000,0.07462779,0.13433008,0.27296774,14,26,53,9,16,37,0.04678471,0.08522363,0.19133462,0.05841208,0.09122487,0.15884786
29015,0,USMissouriBenton,Missouri,Benton,2021-04-04 08:05:34.243397,2020-06-18 00:00:00.000000,0.07243276,0.13579597,0.28093063,14,26,54,8,16,36,0.04526574,0.08613724,0.18984823,0.05789947,0.09149297,0.15978639
29015,0,USMissouriBenton,Missouri,Benton,2021-04-04 08:05:34.243397,2020-06-19 00:00:00.000000,0.06967436,0.13589344,0.28337992,13,26,55,8,16,36,0.04368644,0.08666136,0.18947918,0.06040174,0.09284027,0.16457874
29015,0,USMissouriBenton,Missouri,Benton,2021-04-04 08:05:34.243397,2020-06-20 00:00:00.000000,0.06710198,0.13498887,0.28874131,13,26,56,8,16,36,0.04223889,0.08673191,0.18545932,0.05850259,0.09432452,0.16599219
29015,0,USMissouriBenton,Missouri,Benton,2021-04-04 08:05:34.243397,2020-06-21 00:00:00.000000,0.06478315,0.13314023,0.28583830,12,25,55,8,16,36,0.04198433,0.08641833,0.18901645,0.06008828,0.09510844,0.16589552
29015,0,USMissouriBenton,Missouri,Benton,2021-04-04 08:05:34.243397,2020-06-22 00:00:00.000000,0.06950705,0.13285563,0.27995200,13,25,54,8,16,36,0.04180358,0.08699160,0.18757929,0.06225046,0.09579847,0.16661855
29015,0,USMissouriBenton,Missouri,Benton,2021-04-04 08:05:34.243397,2020-06-23 00:00:00.000000,0.06967977,0.13587571,0.27412268,13,26,53,8,16,35,0.04434277,0.08519624,0.18482261,0.06223140,0.09832885,0.16510886
29015,0,USMissouriBenton,Missouri,Benton,2021-04-04 08:05:34.243397,2020-06-24 00:00:00.000000,0.07116704,0.13894223,0.27032645,13,27,52,9,16,35,0.04770586,0.08657856,0.18147974,0.06225283,0.09946177,0.17787062
29015,0,USMissouriBenton,Missouri,Benton,2021-04-04 08:05:34.243397,2020-06-25 00:00:00.000000,0.07348236,0.14382089,0.26317627,14,27,51,9,17,35,0.04648890,0.08817433,0.18425624,0.06239682,0.10197276,0.18692090
29015,0,USMissouriBenton,Missouri,Benton,2021-04-04 08:05:34.243397,2020-06-26 00:00:00.000000,0.07573150,0.14464829,0.25807746,14,28,50,8,17,35,0.04535766,0.08993576,0.18495728,0.06292305,0.10199734,0.18838999
29015,0,USMissouriBenton,Missouri,Benton,2021-04-04 08:05:34.243397,2020-06-27 00:00:00.000000,0.07786034,0.14586112,0.25283809,15,28,49,8,17,34,0.04435797,0.09133747,0.17625191,0.06374084,0.10490196,0.18859750
29015,0,USMissouriBenton,Missouri,Benton,2021-04-04 08:05:34.243397,2020-06-28 00:00:00.000000,0.07743407,0.14712594,0.24765938,15,28,48,8,17,32,0.04445790,0.09155810,0.16799009,0.06421423,0.10701945,0.18806156
29015,0,USMissouriBenton,Missouri,Benton,2021-04-04 08:05:34.243397,2020-06-29 00:00:00.000000,0.07738634,0.15057147,0.23916150,15,29,46,8,18,32,0.04564222,0.09548473,0.16511442,0.06709232,0.10882436,0.18809064
29015,0,USMissouriBenton,Missouri,Benton,2021-04-04 08:05:34.243397,2020-06-30 00:00:00.000000,0.07770865,0.15115396,0.24959643,15,29,48,8,18,31,0.04606795,0.09649357,0.16317532,0.06734743,0.10889225,0.18995005
29015,0,USMissouriBenton,Missouri,Benton,2021-04-04 08:05:34.243397,2020-07-01 00:00:00.000000,0.07825155,0.15263383,0.26056403,15,29,50,9,18,32,0.04852047,0.09666457,0.16520548,0.06797511,0.10925831,0.18865543
29015,0,USMissouriBenton,Missouri,Benton,2021-04-04 08:05:34.243397,2020-07-02 00:00:00.000000,0.07710673,0.15562478,0.26759170,14,30,52,9,19,33,0.04863633,0.09959017,0.17451238,0.06993958,0.11294444,0.19209058
29015,0,USMissouriBenton,Missouri,Benton,2021-04-04 08:05:34.243397,2020-07-03 00:00:00.000000,0.07642514,0.15878602,0.28623125,14,30,55,9,19,34,0.04792470,0.09900595,0.17848428,0.07100404,0.11460033,0.19860419
29015,0,USMissouriBenton,Missouri,Benton,2021-04-04 08:05:34.243397,2020-07-04 00:00:00.000000,0.07577398,0.16446223,0.30343634,14,31,58,8,19,36,0.04489033,0.10276547,0.18942742,0.07353821,0.11773214,0.20140881
29015,0,USMissouriBenton,Missouri,Benton,2021-04-04 08:05:34.243397,2020-07-05 00:00:00.000000,0.07277100,0.17126925,0.30435744,14,33,59,8,20,39,0.04462528,0.10555879,0.20157852,0.07641312,0.12009825,0.20747110
29015,0,USMissouriBenton,Missouri,Benton,2021-04-04 08:05:34.243397,2020-07-06 00:00:00.000000,0.07934958,0.17100837,0.30618002,15,33,59,8,21,40,0.04432366,0.10821396,0.21011448,0.07894961,0.12187611,0.21504367
29015,0,USMissouriBenton,Missouri,Benton,2021-04-04 08:05:34.243397,2020-07-07 00:00:00.000000,0.08624067,0.17305473,0.31029472,16,33,60,8,21,40,0.04560752,0.11017196,0.20852410,0.08075306,0.12490138,0.21697111
29015,0,USMissouriBenton,Missouri,Benton,2021-04-04 08:05:34.243397,2020-07-08 00:00:00.000000,0.09361042,0.17590814,0.30400719,18,34,59,9,21,40,0.04864516,0.11211853,0.20574935,0.08185689,0.12807092,0.21729865
29015,0,USMissouriBenton,Missouri,Benton,2021-04-04 08:05:34.243397,2020-07-09 00:00:00.000000,0.09520441,0.17918148,0.31827531,18,34,61,10,22,39,0.05248450,0.11490702,0.20235062,0.08250487,0.13205814,0.21732472
29015,0,USMissouriBenton,Missouri,Benton,2021-04-04 08:05:34.243397,2020-07-10 00:00:00.000000,0.09577588,0.18135141,0.32768619,18,35,63,11,22,40,0.05660018,0.11728836,0.20662431,0.08164908,0.13244377,0.21734841
29015,0,USMissouriBenton,Missouri,Benton,2021-04-04 08:05:34.243397,2020-07-11 00:00:00.000000,0.09648598,0.18685536,0.33836763,18,36,65,11,23,40,0.06070657,0.11891139,0.20751536,0.08344490,0.13280248,0.23700725
29015,0,USMissouriBenton,Missouri,Benton,2021-04-04 08:05:34.243397,2020-07-12 00:00:00.000000,0.09673511,0.19577891,0.34998471,18,38,68,12,23,41,0.06193819,0.12049885,0.21506560,0.08508937,0.13475395,0.23672285
29015,0,USMissouriBenton,Missouri,Benton,2021-04-04 08:05:34.243397,2020-07-13 00:00:00.000000,0.10923626,0.21257298,0.36684882,21,41,71,11,24,42,0.06107745,0.12575119,0.21973744,0.08756821,0.13508936,0.23531660
29015,0,USMissouriBenton,Missouri,Benton,2021-04-04 08:05:34.243397,2020-07-14 00:00:00.000000,0.11862622,0.22738513,0.40421612,23,44,78,12,25,44,0.06366432,0.13355946,0.22889322,0.09275758,0.13862869,0.23186092
29015,0,USMissouriBenton,Missouri,Benton,2021-04-04 08:05:34.243397,2020-07-15 00:00:00.000000,0.12682792,0.23745125,0.44327584,24,46,86,13,27,48,0.06821294,0.14312754,0.24899947,0.09560359,0.14301406,0.22670682
29015,0,USMissouriBenton,Missouri,Benton,2021-04-04 08:05:34.243397,2020-07-16 00:00:00.000000,0.13390616,0.24175284,0.44739593,26,47,86,14,28,53,0.07426461,0.14751388,0.27609308,0.09698518,0.14625622,0.22375554
29015,0,USMissouriBenton,Missouri,Benton,2021-04-04 08:05:34.243397,2020-07-17 00:00:00.000000,0.14105289,0.24430947,0.45814802,27,47,89,15,30,55,0.08099207,0.15633249,0.28730584,0.10041033,0.15068757,0.22361748
29015,0,USMissouriBenton,Missouri,Benton,2021-04-04 08:05:34.243397,2020-07-18 00:00:00.000000,0.14870434,0.24866671,0.49304971,28,48,95,16,31,58,0.08677967,0.16276833,0.30213561,0.10227159,0.15424964,0.22376605
29015,0,USMissouriBenton,Missouri,Benton,2021-04-04 08:05:34.243397,2020-07-19 00:00:00.000000,0.15056917,0.25180443,0.51443188,29,48,100,17,31,60,0.08757572,0.16233832,0.31151440,0.10461161,0.15729916,0.22881107
29015,0,USMissouriBenton,Missouri,Benton,2021-04-04 08:05:34.243397,2020-07-20 00:00:00.000000,0.16718456,0.27134686,0.52353177,32,52,101,18,32,62,0.09387768,0.16531057,0.31920752,0.10679909,0.15869266,0.25009099
29015,0,USMissouriBenton,Missouri,Benton,2021-04-04 08:05:34.243397,2020-07-21 00:00:00.000000,0.18852572,0.27725944,0.53271585,36,53,103,20,33,63,0.10552523,0.17176892,0.32775251,0.10746161,0.15996465,0.25249974
29015,0,USMissouriBenton,Missouri,Benton,2021-04-04 08:05:34.243397,2020-07-22 00:00:00.000000,0.19111026,0.30510418,0.54128423,37,59,105,22,34,65,0.11491505,0.17874374,0.33486823,0.10793524,0.16313338,0.25284365
29015,0,USMissouriBenton,Missouri,Benton,2021-04-04 08:05:34.243397,2020-07-23 00:00:00.000000,0.19205469,0.32349665,0.54938259,37,62,106,23,37,66,0.12151618,0.19540051,0.34111881,0.10826583,0.16950033,0.25191413
29015,0,USMissouriBenton,Missouri,Benton,2021-04-04 08:05:34.243397,2020-07-24 00:00:00.000000,0.18979866,0.32982407,0.55710277,36,64,108,24,40,67,0.12817423,0.20679936,0.34680494,0.10855526,0.17225926,0.28665401
29015,0,USMissouriBenton,Missouri,Benton,2021-04-04 08:05:34.243397,2020-07-25 00:00:00.000000,0.18810098,0.34050726,0.56449166,36,66,109,25,42,67,0.12862052,0.21657090,0.34708315,0.10986612,0.17285359,0.28546179
29015,0,USMissouriBenton,Missouri,Benton,2021-04-04 08:05:34.243397,2020-07-26 00:00:00.000000,0.18681025,0.35288479,0.57145735,36,68,111,24,42,67,0.12742376,0.21990238,0.34711808,0.11411475,0.17372793,0.28121974
29015,0,USMissouriBenton,Missouri,Benton,2021-04-04 08:05:34.243397,2020-07-27 00:00:00.000000,0.20017596,0.35489179,0.56158819,38,69,109,24,43,70,0.12653051,0.22435779,0.36237221,0.11805112,0.17590727,0.27916537
29015,0,USMissouriBenton,Missouri,Benton,2021-04-04 08:05:34.243397,2020-07-28 00:00:00.000000,0.20914091,0.35978804,0.58378795,40,69,113,25,44,71,0.13181567,0.22863189,0.36943656,0.11863759,0.17539994,0.27363445
29015,0,USMissouriBenton,Missouri,Benton,2021-04-04 08:05:34.243397,2020-07-29 00:00:00.000000,0.20115301,0.36705836,0.61547483,39,71,119,27,45,74,0.14159478,0.23208280,0.38457887,0.11974688,0.17615997,0.26901293
29015,0,USMissouriBenton,Missouri,Benton,2021-04-04 08:05:34.243397,2020-07-30 00:00:00.000000,0.19364429,0.36970074,0.63980309,37,71,124,26,45,78,0.13633477,0.23442895,0.40523284,0.12595691,0.18159542,0.27106973
29015,0,USMissouriBenton,Missouri,Benton,2021-04-04 08:05:34.243397,2020-07-31 00:00:00.000000,0.19496680,0.37519602,0.66456803,37,72,129,25,46,82,0.13137202,0.23892289,0.42190373,0.12684690,0.18572581,0.27181648
29015,0,USMissouriBenton,Missouri,Benton,2021-04-04 08:05:34.243397,2020-08-01 00:00:00.000000,0.20212870,0.38468281,0.69862506,39,74,135,25,48,83,0.12954168,0.25009136,0.42972761,0.12942831,0.18819764,0.27241087
29015,0,USMissouriBenton,Missouri,Benton,2021-04-04 08:05:34.243397,2020-08-02 00:00:00.000000,0.20944298,0.39647985,0.73150545,40,77,142,25,49,86,0.13103694,0.25495313,0.44609432,0.13621360,0.18946562,0.27370073
29015,0,USMissouriBenton,Missouri,Benton,2021-04-04 08:05:34.243397,2020-08-03 00:00:00.000000,0.22113814,0.40701984,0.72347894,42,79,140,25,49,90,0.13354548,0.25641452,0.46731164,0.14441190,0.19259341,0.27662171
29015,0,USMissouriBenton,Missouri,Benton,2021-04-04 08:05:34.243397,2020-08-04 00:00:00.000000,0.23469033,0.41408599,0.71431605,45,80,138,27,50,92,0.14023408,0.26193926,0.47489235,0.14727353,0.19468926,0.28285959
29015,0,USMissouriBenton,Missouri,Benton,2021-04-04 08:05:34.243397,2020-08-05 00:00:00.000000,0.24058710,0.42146339,0.72547501,46,81,141,28,52,93,0.14425391,0.27035460,0.47943302,0.14697235,0.19695121,0.29237650
29015,0,USMissouriBenton,Missouri,Benton,2021-04-04 08:05:34.243397,2020-08-06 00:00:00.000000,0.24800842,0.43093269,0.70465940,48,83,137,28,53,93,0.14838537,0.27478403,0.48117467,0.14721564,0.20234666,0.29846918
29015,0,USMissouriBenton,Missouri,Benton,2021-04-04 08:05:34.243397,2020-08-07 00:00:00.000000,0.25707403,0.44853668,0.69926889,49,87,135,29,54,95,0.15325940,0.28038342,0.48893036,0.14772228,0.20196220,0.29956134
29015,0,USMissouriBenton,Missouri,Benton,2021-04-04 08:05:34.243397,2020-08-08 00:00:00.000000,0.26750034,0.46273749,0.70369184,52,89,136,30,56,97,0.15883264,0.29009469,0.50292203,0.14651293,0.20698516,0.29945830
29015,0,USMissouriBenton,Missouri,Benton,2021-04-04 08:05:34.243397,2020-08-09 00:00:00.000000,0.27905811,0.47532250,0.72673650,54,92,141,31,58,98,0.16043587,0.29933382,0.50893446,0.14584445,0.20398472,0.28888484
29015,0,USMissouriBenton,Missouri,Benton,2021-04-04 08:05:34.243397,2020-08-10 00:00:00.000000,0.30061609,0.48883024,0.74518514,58,95,144,32,59,99,0.16581639,0.30737375,0.51212862,0.14737584,0.20972285,0.30049452
29015,0,USMissouriBenton,Missouri,Benton,2021-04-04 08:05:34.243397,2020-08-11 00:00:00.000000,0.31175772,0.49085265,0.77811923,60,95,151,34,61,99,0.17569435,0.31785150,0.51243316,0.14540929,0.21392816,0.30071574
29015,0,USMissouriBenton,Missouri,Benton,2021-04-04 08:05:34.243397,2020-08-12 00:00:00.000000,0.35394199,0.50137582,0.81415405,68,97,158,35,63,101,0.18497769,0.32638470,0.52102006,0.14547215,0.21629263,0.30068569
29015,0,USMissouriBenton,Missouri,Benton,2021-04-04 08:05:34.243397,2020-08-13 00:00:00.000000,0.35724285,0.50972786,0.84985497,69,99,165,37,64,104,0.19535349,0.33120859,0.53678082,0.14738787,0.22393343,0.29990326
29015,0,USMissouriBenton,Missouri,Benton,2021-04-04 08:05:34.243397,2020-08-14 00:00:00.000000,0.35039146,0.51700269,0.88061193,68,100,171,40,65,107,0.20607788,0.33633602,0.55186686,0.15151101,0.22869401,0.30645017
29015,0,USMissouriBenton,Missouri,Benton,2021-04-04 08:05:34.243397,2020-08-15 00:00:00.000000,0.34670167,0.52361980,0.89468144,67,101,173,42,64,109,0.21712716,0.33355594,0.56460041,0.15342484,0.23379443,0.30879568
29015,0,USMissouriBenton,Missouri,Benton,2021-04-04 08:05:34.243397,2020-08-16 00:00:00.000000,0.34249154,0.53069342,0.90968090,66,103,176,42,65,111,0.21659583,0.33495190,0.57496228,0.15808813,0.23826180,0.31010543
29015,0,USMissouriBenton,Missouri,Benton,2021-04-04 08:05:34.243397,2020-08-17 00:00:00.000000,0.34708351,0.53779775,0.94979197,67,104,184,42,67,113,0.21642172,0.34595921,0.58408326,0.16603683,0.24029227,0.31055088
29015,0,USMissouriBenton,Missouri,Benton,2021-04-04 08:05:34.243397,2020-08-18 00:00:00.000000,0.34223662,0.55825098,0.98423149,66,108,191,42,69,116,0.21817984,0.35596094,0.60075929,0.17379419,0.24154688,0.31160472
29015,0,USMissouriBenton,Missouri,Benton,2021-04-04 08:05:34.243397,2020-08-19 00:00:00.000000,0.34457134,0.56879578,1.01404928,66,110,197,43,69,121,0.22138695,0.35817820,0.62398728,0.17483532,0.24111244,0.31798167
29015,0,USMissouriBenton,Missouri,Benton,2021-04-04 08:05:34.243397,2020-08-20 00:00:00.000000,0.35418823,0.56897871,1.04001496,68,110,202,43,70,125,0.22552267,0.36290712,0.64744549,0.17674290,0.24478507,0.32371505
29015,0,USMissouriBenton,Missouri,Benton,2021-04-04 08:05:34.243397,2020-08-21 00:00:00.000000,0.36762042,0.57028609,1.06335433,71,110,206,44,71,130,0.23000905,0.36822327,0.67091661,0.18129050,0.25711843,0.32886322
29015,0,USMissouriBenton,Missouri,Benton,2021-04-04 08:05:34.243397,2020-08-22 00:00:00.000000,0.38428002,0.58619786,1.08490909,74,113,210,45,72,134,0.23395720,0.37410586,0.69298670,0.18306181,0.25706440,0.33832867
29015,0,USMissouriBenton,Missouri,Benton,2021-04-04 08:05:34.243397,2020-08-23 00:00:00.000000,0.39854014,0.60613408,1.10539358,77,117,214,46,73,138,0.23701920,0.37857792,0.71149315,0.18531509,0.26064372,0.34788240
29015,0,USMissouriBenton,Missouri,Benton,2021-04-04 08:05:34.243397,2020-08-24 00:00:00.000000,0.39440504,0.62220101,1.10616323,76,120,215,46,75,141,0.23947298,0.38599797,0.72599519,0.18518570,0.26353145,0.35641566
29015,0,USMissouriBenton,Missouri,Benton,2021-04-04 08:05:34.243397,2020-08-25 00:00:00.000000,0.39116227,0.64149662,1.10677534,76,124,215,47,77,142,0.24389412,0.39834671,0.73278738,0.18546050,0.26541724,0.35756528
29015,0,USMissouriBenton,Missouri,Benton,2021-04-04 08:05:34.243397,2020-08-26 00:00:00.000000,0.38829951,0.66471363,1.10724164,75,129,215,47,80,143,0.24326048,0.41617421,0.73574807,0.19258590,0.27062345,0.35545784
29015,0,USMissouriBenton,Missouri,Benton,2021-04-04 08:05:34.243397,2020-08-27 00:00:00.000000,0.38645007,0.68242494,1.11022273,75,132,215,46,83,143,0.24097759,0.42750408,0.73711367,0.19257423,0.27994702,0.35607017
29015,0,USMissouriBenton,Missouri,Benton,2021-04-04 08:05:34.243397,2020-08-28 00:00:00.000000,0.38796828,0.70213755,1.12579096,75,136,218,46,84,143,0.24014151,0.43468116,0.73878025,0.19291544,0.28666301,0.35785082
29015,0,USMissouriBenton,Missouri,Benton,2021-04-04 08:05:34.243397,2020-08-29 00:00:00.000000,0.40513465,0.71546092,1.16922427,78,139,227,46,86,149,0.24076417,0.44270265,0.76998236,0.19558092,0.29591909,0.38423012
29015,0,USMissouriBenton,Missouri,Benton,2021-04-04 08:05:34.243397,2020-08-30 00:00:00.000000,0.41589516,0.72659227,1.20173500,80,141,233,47,89,156,0.24290186,0.45816490,0.80396401,0.21014793,0.30022837,0.39648411
29015,0,USMissouriBenton,Missouri,Benton,2021-04-04 08:05:34.243397,2020-08-31 00:00:00.000000,0.43326101,0.76056914,1.22706958,84,147,238,48,92,161,0.24723977,0.47360361,0.82877268,0.22772034,0.30851368,0.40664001
29015,0,USMissouriBenton,Missouri,Benton,2021-04-04 08:05:34.243397,2020-09-01 00:00:00.000000,0.45550007,0.80881742,1.25675288,88,157,244,52,95,163,0.27040814,0.49342085,0.84301676,0.24449706,0.31180933,0.41147339
29015,0,USMissouriBenton,Missouri,Benton,2021-04-04 08:05:34.243397,2020-09-02 00:00:00.000000,0.47824871,0.86421243,1.30080530,92,168,252,55,100,166,0.28569355,0.51535727,0.85727220,0.24728015,0.31970496,0.42544555
29015,0,USMissouriBenton,Missouri,Benton,2021-04-04 08:05:34.243397,2020-09-03 00:00:00.000000,0.50297408,0.90951679,1.34615180,97,176,261,57,104,169,0.29480477,0.53922210,0.87381333,0.25436053,0.32607925,0.44433008
29015,0,USMissouriBenton,Missouri,Benton,2021-04-04 08:05:34.243397,2020-09-04 00:00:00.000000,0.53303512,0.95519260,1.39250885,103,185,270,59,109,176,0.30427822,0.56329615,0.90705381,0.26301523,0.33436714,0.44957357
29015,0,USMissouriBenton,Missouri,Benton,2021-04-04 08:05:34.243397,2020-09-05 00:00:00.000000,0.56889543,1.01318706,1.43978602,110,196,279,61,115,183,0.31457863,0.59252893,0.94129191,0.26841146,0.34352646,0.48191779
29015,0,USMissouriBenton,Missouri,Benton,2021-04-04 08:05:34.243397,2020-09-06 00:00:00.000000,0.61040748,1.06737399,1.48798395,118,207,289,63,122,189,0.32766925,0.63189914,0.97568251,0.28179827,0.36085796,0.50904681
29015,0,USMissouriBenton,Missouri,Benton,2021-04-04 08:05:34.243397,2020-09-07 00:00:00.000000,0.67068358,1.10662020,1.53241741,130,215,297,67,131,195,0.34559681,0.67573517,1.00737428,0.28973052,0.37431091,0.51167985
29015,0,USMissouriBenton,Missouri,Benton,2021-04-04 08:05:34.243397,2020-09-08 00:00:00.000000,0.74656301,1.15834466,1.59426335,145,225,309,72,139,202,0.37283248,0.71941198,1.04338151,0.29327927,0.38565057,0.51271525
29015,0,USMissouriBenton,Missouri,Benton,2021-04-04 08:05:34.243397,2020-09-09 00:00:00.000000,0.79923521,1.24226139,1.71467655,155,241,333,80,147,210,0.41280642,0.75983899,1.08365205,0.29468262,0.39036839,0.51750429
29015,0,USMissouriBenton,Missouri,Benton,2021-04-04 08:05:34.243397,2020-09-10 00:00:00.000000,0.87178058,1.35388157,1.87298339,169,263,364,89,155,219,0.45812172,0.79854704,1.13032503,0.29782575,0.39508549,0.52050328
29015,0,USMissouriBenton,Missouri,Benton,2021-04-04 08:05:34.243397,2020-09-11 00:00:00.000000,0.94953648,1.44611413,1.99021556,184,281,386,95,162,233,0.49139820,0.83369873,1.20290943,0.30244617,0.39921540,0.52115991
29015,0,USMissouriBenton,Missouri,Benton,2021-04-04 08:05:34.243397,2020-09-12 00:00:00.000000,1.01754610,1.52814179,2.14124488,197,297,416,101,172,250,0.52061954,0.88560228,1.28946513,0.29724449,0.39826466,0.52368189
29015,0,USMissouriBenton,Missouri,Benton,2021-04-04 08:05:34.243397,2020-09-13 00:00:00.000000,1.07264960,1.61094572,2.29012381,208,313,445,110,183,268,0.56629566,0.94513009,1.37883913,0.29962219,0.40430763,0.53035754
29015,0,USMissouriBenton,Missouri,Benton,2021-04-04 08:05:34.243397,2020-09-14 00:00:00.000000,1.15254627,1.71324518,2.41952986,224,333,470,119,194,284,0.61423847,0.99855723,1.46458407,0.29890874,0.40683233,0.49430868
29015,0,USMissouriBenton,Missouri,Benton,2021-04-04 08:05:34.243397,2020-09-15 00:00:00.000000,1.21630699,1.81658460,2.54798153,236,353,495,128,205,300,0.66188795,1.05830990,1.54454441,0.29954713,0.39858665,0.49683331
29015,0,USMissouriBenton,Missouri,Benton,2021-04-04 08:05:34.243397,2020-09-16 00:00:00.000000,1.28410980,1.93084051,2.67520771,249,375,520,137,218,314,0.70659854,1.12614645,1.61901528,0.29980080,0.39724252,0.49720803
29015,0,USMissouriBenton,Missouri,Benton,2021-04-04 08:05:34.243397,2020-09-17 00:00:00.000000,1.35284451,2.02398588,2.79347630,263,393,543,146,234,328,0.75134306,1.20506296,1.69069051,0.29970961,0.39569572,0.49548047
29015,0,USMissouriBenton,Missouri,Benton,2021-04-04 08:05:34.243397,2020-09-18 00:00:00.000000,1.42142579,2.13253290,2.89527729,276,414,562,152,246,342,0.78687478,1.26757318,1.76237516,0.28629936,0.38438621,0.49082263
29015,0,USMissouriBenton,Missouri,Benton,2021-04-04 08:05:34.243397,2020-09-19 00:00:00.000000,1.48622581,2.27036849,2.98677334,288,441,580,160,258,357,0.82459387,1.32964262,1.83682986,0.26541050,0.37418652,0.47520591
29015,0,USMissouriBenton,Missouri,Benton,2021-04-04 08:05:34.243397,2020-09-20 00:00:00.000000,1.56606287,2.35172639,3.11422754,304,457,605,167,270,373,0.86248775,1.39002689,1.92133125,0.25475589,0.36221596,0.47394066
29015,0,USMissouriBenton,Missouri,Benton,2021-04-04 08:05:34.243397,2020-09-21 00:00:00.000000,1.64165069,2.41360778,3.20752014,319,469,623,177,283,389,0.91334790,1.45855184,2.00407527,0.24745072,0.34419786,0.47417435
29015,0,USMissouriBenton,Missouri,Benton,2021-04-04 08:05:34.243397,2020-09-22 00:00:00.000000,1.70614861,2.47920348,3.27734312,331,482,637,184,296,414,0.94915224,1.52714083,2.13390421,0.23426667,0.33825219,0.47232996
29015,0,USMissouriBenton,Missouri,Benton,2021-04-04 08:05:34.243397,2020-09-23 00:00:00.000000,1.77526924,2.58764741,3.35856908,345,503,653,191,307,434,0.98472926,1.58267948,2.23313204,0.22186604,0.32714253,0.45256560
29015,0,USMissouriBenton,Missouri,Benton,2021-04-04 08:05:34.243397,2020-09-24 00:00:00.000000,1.79744200,2.63684069,3.47329133,349,512,675,198,318,433,1.02066417,1.64002899,2.23012576,0.20400032,0.30674373,0.40917635
29015,0,USMissouriBenton,Missouri,Benton,2021-04-04 08:05:34.243397,2020-09-25 00:00:00.000000,1.83635515,2.66733340,3.63973422,357,518,707,205,327,446,1.05674736,1.68353273,2.29435275,0.19558274,0.29630746,0.40410703
29015,0,USMissouriBenton,Missouri,Benton,2021-04-04 08:05:34.243397,2020-09-26 00:00:00.000000,1.89212821,2.71308396,3.74166769,367,527,727,212,334,458,1.09264134,1.72129387,2.35643825,0.18412319,0.28392484,0.39746140
29015,0,USMissouriBenton,Missouri,Benton,2021-04-04 08:05:34.243397,2020-09-27 00:00:00.000000,1.93246310,2.72131743,3.76229324,375,529,731,219,338,467,1.12740586,1.73947253,2.40405049,0.17820933,0.27084316,0.36951947
29015,0,USMissouriBenton,Missouri,Benton,2021-04-04 08:05:34.243397,2020-09-28 00:00:00.000000,1.93737522,2.70659096,3.72718784,376,526,724,225,341,477,1.15782779,1.75620450,2.45772317,0.16971555,0.26196067,0.34892391
29015,0,USMissouriBenton,Missouri,Benton,2021-04-04 08:05:34.243397,2020-09-29 00:00:00.000000,1.91864656,2.69736894,3.68032777,373,524,715,227,344,492,1.17097864,1.77320716,2.53261149,0.16675712,0.25251541,0.33069097
29015,0,USMissouriBenton,Missouri,Benton,2021-04-04 08:05:34.243397,2020-09-30 00:00:00.000000,1.90371354,2.67970933,3.76887420,370,521,732,226,345,506,1.16465687,1.77745211,2.60437506,0.16304705,0.24106444,0.32335277
29015,0,USMissouriBenton,Missouri,Benton,2021-04-04 08:05:34.243397,2020-10-01 00:00:00.000000,1.87720399,2.68529731,3.85248173,364,522,749,224,347,519,1.15429021,1.78490136,2.67329983,0.16186120,0.23637021,0.32217666
29015,0,USMissouriBenton,Missouri,Benton,2021-04-04 08:05:34.243397,2020-10-02 00:00:00.000000,1.85149026,2.65443656,3.90778399,359,516,759,223,345,532,1.14848046,1.77816082,2.73899266,0.16045061,0.22530255,0.31554381
29015,0,USMissouriBenton,Missouri,Benton,2021-04-04 08:05:34.243397,2020-10-03 00:00:00.000000,1.81565676,2.59555674,3.79998132,353,504,738,221,344,531,1.13753543,1.76958172,2.73579745,0.16036474,0.21288859,0.31139530
29015,0,USMissouriBenton,Missouri,Benton,2021-04-04 08:05:34.243397,2020-10-04 00:00:00.000000,1.77169207,2.55122431,3.72243566,344,496,723,218,341,519,1.12258068,1.75705389,2.67243362,0.15495653,0.21093371,0.30968976
29015,0,USMissouriBenton,Missouri,Benton,2021-04-04 08:05:34.243397,2020-10-05 00:00:00.000000,1.71580377,2.51370171,3.74144431,333,488,727,212,336,505,1.09523619,1.73136203,2.59910741,0.14723514,0.20336051,0.27783881
29015,0,USMissouriBenton,Missouri,Benton,2021-04-04 08:05:34.243397,2020-10-06 00:00:00.000000,1.66123705,2.46616132,3.75401786,322,479,729,205,328,496,1.05934241,1.69110249,2.55367921,0.14683729,0.20580296,0.27705474
29015,0,USMissouriBenton,Missouri,Benton,2021-04-04 08:05:34.243397,2020-10-07 00:00:00.000000,1.61710302,2.42063455,3.75923737,314,470,730,203,321,500,1.04742876,1.65525117,2.57404816,0.14740605,0.20554133,0.27402085
29015,0,USMissouriBenton,Missouri,Benton,2021-04-04 08:05:34.243397,2020-10-08 00:00:00.000000,1.57866969,2.35450651,3.75518338,306,457,730,198,312,502,1.01854887,1.60801114,2.58680021,0.14966713,0.20560310,0.26519166
29015,0,USMissouriBenton,Missouri,Benton,2021-04-04 08:05:34.243397,2020-10-09 00:00:00.000000,1.54332732,2.28120282,3.73552761,300,443,726,192,302,504,0.99080594,1.55824440,2.59258901,0.15118506,0.20222872,0.26260396
29015,0,USMissouriBenton,Missouri,Benton,2021-04-04 08:05:34.243397,2020-10-10 00:00:00.000000,1.49626004,2.23803964,3.69254232,290,435,717,187,293,503,0.96509131,1.51135939,2.58971692,0.15225759,0.20799901,0.27004366
29015,0,USMissouriBenton,Missouri,Benton,2021-04-04 08:05:34.243397,2020-10-11 00:00:00.000000,1.42432831,2.17145728,3.62663431,276,422,705,182,284,500,0.93919635,1.46503965,2.57476742,0.15304792,0.20941357,0.27308297
29015,0,USMissouriBenton,Missouri,Benton,2021-04-04 08:05:34.243397,2020-10-12 00:00:00.000000,1.38008618,2.11130867,3.54719797,268,410,689,176,277,494,0.90947291,1.42960320,2.54556156,0.15177141,0.20922840,0.27395024
29015,0,USMissouriBenton,Missouri,Benton,2021-04-04 08:05:34.243397,2020-10-13 00:00:00.000000,1.35391092,2.08229486,3.46123357,263,404,672,171,274,486,0.88421986,1.41385867,2.50456786,0.15179956,0.20983114,0.27417864
29015,0,USMissouriBenton,Missouri,Benton,2021-04-04 08:05:34.243397,2020-10-14 00:00:00.000000,1.32935639,2.03425113,3.37348134,258,395,655,168,272,477,0.86550578,1.39908203,2.45557039,0.15181571,0.21279636,0.27895954
29015,0,USMissouriBenton,Missouri,Benton,2021-04-04 08:05:34.243397,2020-10-15 00:00:00.000000,1.30557384,1.99574141,3.29294237,253,388,640,165,267,466,0.85034574,1.37556589,2.40183632,0.15219360,0.21585830,0.28275128
29015,0,USMissouriBenton,Missouri,Benton,2021-04-04 08:05:34.243397,2020-10-16 00:00:00.000000,1.28240398,1.94242681,3.25894078,249,377,633,162,259,456,0.83768849,1.33682538,2.34783779,0.15752212,0.22018751,0.28020283
29015,0,USMissouriBenton,Missouri,Benton,2021-04-04 08:05:34.243397,2020-10-17 00:00:00.000000,1.25843211,1.91237850,3.23568205,244,371,629,160,254,446,0.82531027,1.31039681,2.29760467,0.16146324,0.22432266,0.28536754
29015,0,USMissouriBenton,Missouri,Benton,2021-04-04 08:05:34.243397,2020-10-18 00:00:00.000000,1.23536646,1.91699524,3.20482086,240,372,623,156,253,438,0.80391929,1.30603782,2.25553022,0.16217973,0.23281508,0.29732441
29015,0,USMissouriBenton,Missouri,Benton,2021-04-04 08:05:34.243397,2020-10-19 00:00:00.000000,1.22851251,1.93607095,3.15677769,238,376,613,153,250,435,0.78939810,1.28809822,2.23828494,0.16317694,0.24173480,0.30735745
29015,0,USMissouriBenton,Missouri,Benton,2021-04-04 08:05:34.243397,2020-10-20 00:00:00.000000,1.22179585,1.93998464,3.10471924,237,377,603,151,249,430,0.78117591,1.28484654,2.21302377,0.16430988,0.24749850,0.31558398
29015,0,USMissouriBenton,Missouri,Benton,2021-04-04 08:05:34.243397,2020-10-21 00:00:00.000000,1.21197106,1.95368642,3.05058776,235,379,593,150,249,424,0.77467100,1.28401057,2.18223427,0.16537657,0.25485290,0.32627910
29015,0,USMissouriBenton,Missouri,Benton,2021-04-04 08:05:34.243397,2020-10-22 00:00:00.000000,1.21038924,1.95372548,2.98331634,235,379,580,149,248,417,0.77026169,1.27856776,2.14806625,0.16667497,0.26390002,0.33612789
29015,0,USMissouriBenton,Missouri,Benton,2021-04-04 08:05:34.243397,2020-10-23 00:00:00.000000,1.20532956,1.95567885,2.96217393,234,380,575,149,248,410,0.76906600,1.27875594,2.11240339,0.17199129,0.26620820,0.33708135
29015,0,USMissouriBenton,Missouri,Benton,2021-04-04 08:05:34.243397,2020-10-24 00:00:00.000000,1.21378006,1.96253805,2.95690504,235,381,574,150,247,403,0.77262200,1.27284856,2.07763049,0.18726056,0.27384856,0.35982503
29015,0,USMissouriBenton,Missouri,Benton,2021-04-04 08:05:34.243397,2020-10-25 00:00:00.000000,1.22543156,1.93289800,2.96854465,238,375,577,150,247,401,0.77195810,1.27209336,2.06496702,0.19542163,0.28369597,0.36608715
29015,0,USMissouriBenton,Missouri,Benton,2021-04-04 08:05:34.243397,2020-10-26 00:00:00.000000,1.22899475,1.97093753,2.99837929,238,383,582,150,245,400,0.77453377,1.26282095,2.06076038,0.20364686,0.29930707,0.36824597
29015,0,USMissouriBenton,Missouri,Benton,2021-04-04 08:05:34.243397,2020-10-27 00:00:00.000000,1.22971512,1.98986863,3.07262577,239,386,597,148,247,400,0.76523561,1.27239551,2.06126392,0.21168900,0.30639591,0.38871197
29015,0,USMissouriBenton,Missouri,Benton,2021-04-04 08:05:34.243397,2020-10-28 00:00:00.000000,1.23655858,2.04522270,3.15246055,240,397,612,147,249,396,0.76117210,1.28118902,2.03905454,0.21962663,0.31617295,0.41893836
29015,0,USMissouriBenton,Missouri,Benton,2021-04-04 08:05:34.243397,2020-10-29 00:00:00.000000,1.25281445,2.10227803,3.21636556,243,408,625,148,253,402,0.76208486,1.30389066,2.06955489,0.22939731,0.32053048,0.42787506
29015,0,USMissouriBenton,Missouri,Benton,2021-04-04 08:05:34.243397,2020-10-30 00:00:00.000000,1.28354602,2.17001907,3.31485049,249,421,644,149,260,409,0.76901158,1.34235424,2.10592392,0.24560091,0.33238951,0.44976977
29015,0,USMissouriBenton,Missouri,Benton,2021-04-04 08:05:34.243397,2020-10-31 00:00:00.000000,1.32781627,2.20918711,3.41344182,258,429,663,152,270,420,0.78380721,1.39371454,2.16152674,0.25507997,0.34018062,0.44932432
29015,0,USMissouriBenton,Missouri,Benton,2021-04-04 08:05:34.243397,2020-11-01 00:00:00.000000,1.38353126,2.25983652,3.51549334,268,439,683,156,277,434,0.80702654,1.42652687,2.23719217,0.25762034,0.35762988,0.48320022
29015,0,USMissouriBenton,Missouri,Benton,2021-04-04 08:05:34.243397,2020-11-02 00:00:00.000000,1.44762577,2.32184533,3.59571611,281,451,699,160,289,446,0.82805112,1.48756431,2.29764432,0.25924896,0.36336221,0.48758893
29015,0,USMissouriBenton,Missouri,Benton,2021-04-04 08:05:34.243397,2020-11-03 00:00:00.000000,1.51924190,2.40634849,3.68815670,295,467,717,167,300,458,0.86212611,1.54578315,2.35919538,0.26167851,0.36893234,0.48976924
29015,0,USMissouriBenton,Missouri,Benton,2021-04-04 08:05:34.243397,2020-11-04 00:00:00.000000,1.59830711,2.47834917,3.78078427,310,481,735,175,310,473,0.90135939,1.59549753,2.43615880,0.26498123,0.37448016,0.48525225
29015,0,USMissouriBenton,Missouri,Benton,2021-04-04 08:05:34.243397,2020-11-05 00:00:00.000000,1.68720879,2.55888806,3.87337344,328,497,753,183,320,496,0.94549102,1.65036175,2.55322230,0.28247954,0.37682685,0.48531367
29015,0,USMissouriBenton,Missouri,Benton,2021-04-04 08:05:34.243397,2020-11-06 00:00:00.000000,1.78709343,2.65092655,3.96682804,347,515,771,190,329,513,0.97954765,1.69549209,2.63944144,0.28344451,0.38068955,0.49194885
29015,0,USMissouriBenton,Missouri,Benton,2021-04-04 08:05:34.243397,2020-11-07 00:00:00.000000,1.89664575,2.73433699,4.10955002,368,531,799,196,338,521,1.01162576,1.74256341,2.68341374,0.28465018,0.38535475,0.49063207
29015,0,USMissouriBenton,Missouri,Benton,2021-04-04 08:05:34.243397,2020-11-08 00:00:00.000000,2.00470256,2.80863301,4.25966706,389,546,828,204,350,530,1.05183119,1.80227906,2.72882686,0.28635822,0.38273513,0.48759963
29015,0,USMissouriBenton,Missouri,Benton,2021-04-04 08:05:34.243397,2020-11-09 00:00:00.000000,2.06939022,2.89341902,4.41642366,402,562,858,213,360,539,1.09978346,1.85487455,2.77594795,0.28903691,0.37922257,0.49067198
29015,0,USMissouriBenton,Missouri,Benton,2021-04-04 08:05:34.243397,2020-11-10 00:00:00.000000,2.12763819,2.98475120,4.56858588,413,580,888,222,367,546,1.14678445,1.89133599,2.81105590,0.29292043,0.37882323,0.49338463
29015,0,USMissouriBenton,Missouri,Benton,2021-04-04 08:05:34.243397,2020-11-11 00:00:00.000000,2.17892367,3.10603315,4.71796956,423,603,917,232,375,559,1.19414563,1.93333401,2.87598522,0.28227981,0.37621304,0.47803233
29015,0,USMissouriBenton,Missouri,Benton,2021-04-04 08:05:34.243397,2020-11-12 00:00:00.000000,2.22248060,3.22144284,4.86374478,432,626,945,241,383,573,1.24241536,1.97168646,2.94730333,0.27665389,0.36986944,0.46153066
29015,0,USMissouriBenton,Missouri,Benton,2021-04-04 08:05:34.243397,2020-11-13 00:00:00.000000,2.25849706,3.32488582,4.94786421,439,646,962,251,393,586,1.29192101,2.02451971,3.01819525,0.27986340,0.36731294,0.46756015
29015,0,USMissouriBenton,Missouri,Benton,2021-04-04 08:05:34.243397,2020-11-14 00:00:00.000000,2.28827246,3.42039854,5.01341404,444,665,974,261,406,607,1.34314491,2.09174666,3.12244541,0.28522592,0.36776717,0.46963714
29015,0,USMissouriBenton,Missouri,Benton,2021-04-04 08:05:34.243397,2020-11-15 00:00:00.000000,2.31375388,3.51666395,5.07493863,449,683,986,271,420,626,1.39735732,2.16018121,3.22249712,0.28329321,0.36853253,0.48338099
29015,0,USMissouriBenton,Missouri,Benton,2021-04-04 08:05:34.243397,2020-11-16 00:00:00.000000,2.34056183,3.58800595,5.14084432,455,697,999,283,432,645,1.45661196,2.22393277,3.31833243,0.28295434,0.36996814,0.48762250
29015,0,USMissouriBenton,Missouri,Benton,2021-04-04 08:05:34.243397,2020-11-17 00:00:00.000000,2.36602893,3.67526542,5.20448271,460,714,1011,287,444,662,1.47900983,2.28671303,3.40965804,0.28115760,0.36359027,0.48452609
29015,0,USMissouriBenton,Missouri,Benton,2021-04-04 08:05:34.243397,2020-11-18 00:00:00.000000,2.39201732,3.74007776,5.26740301,465,727,1024,294,457,680,1.51291886,2.35477844,3.49755194,0.28171426,0.36383024,0.47018707
29015,0,USMissouriBenton,Missouri,Benton,2021-04-04 08:05:34.243397,2020-11-19 00:00:00.000000,2.44126563,3.82977614,5.32936549,474,744,1036,303,464,696,1.56341855,2.38914225,3.58292917,0.28163650,0.36620961,0.46957294
29015,0,USMissouriBenton,Missouri,Benton,2021-04-04 08:05:34.243397,2020-11-20 00:00:00.000000,2.50400793,3.92016356,5.38935598,486,762,1047,315,474,709,1.62047840,2.43811926,3.64707050,0.28980139,0.37212854,0.47051723
29015,0,USMissouriBenton,Missouri,Benton,2021-04-04 08:05:34.243397,2020-11-21 00:00:00.000000,2.58328945,4.04321830,5.44730372,502,786,1059,326,488,714,1.68056542,2.51471490,3.67581845,0.29820260,0.37670321,0.47099775
29015,0,USMissouriBenton,Missouri,Benton,2021-04-04 08:05:34.243397,2020-11-22 00:00:00.000000,2.66587300,4.11130665,5.52729225,518,799,1074,328,504,722,1.68999108,2.59545236,3.71644233,0.30587352,0.38724231,0.48351422
29015,0,USMissouriBenton,Missouri,Benton,2021-04-04 08:05:34.243397,2020-11-23 00:00:00.000000,2.75494779,4.23536889,5.70209331,535,823,1108,330,519,738,1.70039782,2.67059470,3.79791954,0.30810628,0.39774452,0.49295601
29015,0,USMissouriBenton,Missouri,Benton,2021-04-04 08:05:34.243397,2020-11-24 00:00:00.000000,2.84347207,4.36078050,5.91185076,552,847,1149,332,532,765,1.71192519,2.73651078,3.93743069,0.30808537,0.40348190,0.51021220
29015,0,USMissouriBenton,Missouri,Benton,2021-04-04 08:05:34.243397,2020-11-25 00:00:00.000000,2.92390718,4.51252801,6.14142976,568,877,1194,336,549,796,1.72990460,2.82388436,4.09520192,0.32576918,0.40848002,0.51635178
29015,0,USMissouriBenton,Missouri,Benton,2021-04-04 08:05:34.243397,2020-11-26 00:00:00.000000,2.99084897,4.68075856,6.41655246,581,910,1247,345,565,829,1.77700322,2.90699463,4.26481144,0.34402973,0.41874569,0.53739378
29015,0,USMissouriBenton,Missouri,Benton,2021-04-04 08:05:34.243397,2020-11-27 00:00:00.000000,3.10790568,4.85684034,6.69301476,604,944,1301,360,584,857,1.85455543,3.00860318,4.41070517,0.34812336,0.42245165,0.54736302
29015,0,USMissouriBenton,Missouri,Benton,2021-04-04 08:05:34.243397,2020-11-28 00:00:00.000000,3.25847243,5.03358141,6.88628301,633,978,1338,377,604,880,1.94143440,3.10965680,4.52776655,0.35924051,0.43025757,0.55638019
29015,0,USMissouriBenton,Missouri,Benton,2021-04-04 08:05:34.243397,2020-11-29 00:00:00.000000,3.42332275,5.21145717,7.05730507,665,1013,1372,395,628,903,2.03664609,3.23350788,4.64454740,0.35900818,0.43642521,0.56712080
29015,0,USMissouriBenton,Missouri,Benton,2021-04-04 08:05:34.243397,2020-11-30 00:00:00.000000,3.60225274,5.42512144,7.25207402,700,1054,1410,415,654,925,2.13903309,3.36410412,4.76159953,0.35691091,0.44210858,0.56782479
29015,0,USMissouriBenton,Missouri,Benton,2021-04-04 08:05:34.243397,2020-12-01 00:00:00.000000,3.83037822,5.61318858,7.44709795,744,1091,1447,437,684,950,2.24930498,3.51852803,4.88652797,0.35663999,0.44659520,0.56669874
29015,0,USMissouriBenton,Missouri,Benton,2021-04-04 08:05:34.243397,2020-12-02 00:00:00.000000,4.03573098,5.81071473,7.65014523,784,1129,1487,459,710,975,2.36497244,3.65274345,5.01614686,0.35237010,0.44456571,0.56715308
29015,0,USMissouriBenton,Missouri,Benton,2021-04-04 08:05:34.243397,2020-12-03 00:00:00.000000,4.22574666,5.93119338,7.98291104,821,1153,1552,483,732,1000,2.48434334,3.76901386,5.14705486,0.34330247,0.43551969,0.55789583
29015,0,USMissouriBenton,Missouri,Benton,2021-04-04 08:05:34.243397,2020-12-04 00:00:00.000000,4.41538035,6.06905532,8.13503926,858,1180,1581,506,749,1032,2.60356923,3.85719890,5.30803937,0.33609855,0.42679467,0.55147618
29015,0,USMissouriBenton,Missouri,Benton,2021-04-04 08:05:34.243397,2020-12-05 00:00:00.000000,4.60253927,6.16922396,8.21862288,894,1199,1597,528,771,1071,2.71847648,3.96656527,5.50984761,0.31834383,0.40454988,0.53930996
29015,0,USMissouriBenton,Missouri,Benton,2021-04-04 08:05:34.243397,2020-12-06 00:00:00.000000,4.77980679,6.29608579,8.37967115,929,1224,1629,550,784,1098,2.83101491,4.03543102,5.65032464,0.29257893,0.38355277,0.52518416
29015,0,USMissouriBenton,Missouri,Benton,2021-04-04 08:05:34.243397,2020-12-07 00:00:00.000000,4.85795509,6.37560768,8.48625634,944,1239,1649,571,798,1109,2.94188343,4.10494325,5.70560100,0.27010497,0.36189537,0.50785007
29015,0,USMissouriBenton,Missouri,Benton,2021-04-04 08:05:34.243397,2020-12-08 00:00:00.000000,4.89721279,6.38710737,8.49940136,952,1241,1652,592,802,1116,3.04549667,4.12552349,5.74475960,0.25984741,0.35019999,0.44838850
29015,0,USMissouriBenton,Missouri,Benton,2021-04-04 08:05:34.243397,2020-12-09 00:00:00.000000,4.87535559,6.31595219,8.56738156,947,1228,1665,595,803,1124,3.06505196,4.13314738,5.78282017,0.25339055,0.33639080,0.43494096
29015,0,USMissouriBenton,Missouri,Benton,2021-04-04 08:05:34.243397,2020-12-10 00:00:00.000000,4.86806604,6.23176323,8.62661552,946,1211,1677,588,807,1129,3.02590111,4.15565836,5.81115266,0.24101954,0.32052421,0.40820999
29015,0,USMissouriBenton,Missouri,Benton,2021-04-04 08:05:34.243397,2020-12-11 00:00:00.000000,4.85274408,6.09323094,8.50710433,943,1184,1654,587,800,1125,3.02201205,4.11615490,5.79079568,0.22655566,0.30447702,0.40070345
29015,0,USMissouriBenton,Missouri,Benton,2021-04-04 08:05:34.243397,2020-12-12 00:00:00.000000,4.76952662,5.96500952,8.34614196,927,1159,1622,573,792,1121,2.95068112,4.07494624,5.76728852,0.21806125,0.29620169,0.37856611
29015,0,USMissouriBenton,Missouri,Benton,2021-04-04 08:05:34.243397,2020-12-13 00:00:00.000000,4.65904933,5.78411447,8.34200307,905,1124,1621,558,786,1130,2.87276407,4.04524336,5.81366998,0.21361926,0.27972603,0.35624531
29015,0,USMissouriBenton,Missouri,Benton,2021-04-04 08:05:34.243397,2020-12-14 00:00:00.000000,4.53288843,5.63804273,8.25585013,881,1096,1605,542,769,1142,2.79145837,3.95759716,5.87364920,0.20693140,0.27450014,0.34934405
29015,0,USMissouriBenton,Missouri,Benton,2021-04-04 08:05:34.243397,2020-12-15 00:00:00.000000,4.40945061,5.53505169,8.06338540,857,1076,1567,528,755,1134,2.72055968,3.88336353,5.83280511,0.20467488,0.26810018,0.34861537
29015,0,USMissouriBenton,Missouri,Benton,2021-04-04 08:05:34.243397,2020-12-16 00:00:00.000000,4.28954843,5.40606980,7.83306800,834,1051,1522,515,733,1097,2.64912675,3.77136151,5.64688348,0.20008534,0.26242034,0.34311623
29015,0,USMissouriBenton,Missouri,Benton,2021-04-04 08:05:34.243397,2020-12-17 00:00:00.000000,4.14319694,5.29859195,7.59113230,805,1030,1475,501,711,1072,2.57825651,3.65976496,5.51824276,0.19503131,0.25027206,0.33785769
29015,0,USMissouriBenton,Missouri,Benton,2021-04-04 08:05:34.243397,2020-12-18 00:00:00.000000,3.88586479,5.12405211,7.34653898,755,996,1428,487,684,1053,2.50947197,3.51923594,5.42041821,0.19229194,0.24528759,0.34085952
29015,0,USMissouriBenton,Missouri,Benton,2021-04-04 08:05:34.243397,2020-12-19 00:00:00.000000,3.66601546,4.96718916,7.10388614,712,965,1381,470,665,1032,2.41848235,3.42045919,5.31042333,0.19134500,0.24208775,0.34186472
29015,0,USMissouriBenton,Missouri,Benton,2021-04-04 08:05:34.243397,2020-12-20 00:00:00.000000,3.57885737,4.81207336,6.76653523,695,935,1315,458,642,1009,2.35962345,3.30363780,5.19401168,0.18886238,0.24594125,0.34254668
29015,0,USMissouriBenton,Missouri,Benton,2021-04-04 08:05:34.243397,2020-12-21 00:00:00.000000,3.50503316,4.62967669,6.55896010,681,900,1275,447,618,983,2.30331322,3.17995351,5.05984873,0.18536001,0.24402622,0.33984086
29015,0,USMissouriBenton,Missouri,Benton,2021-04-04 08:05:34.243397,2020-12-22 00:00:00.000000,3.43453347,4.47993248,6.39254706,667,871,1242,437,597,953,2.24992184,3.07132780,4.90302944,0.18544258,0.24275815,0.33961197
29015,0,USMissouriBenton,Missouri,Benton,2021-04-04 08:05:34.243397,2020-12-23 00:00:00.000000,3.32443466,4.33649393,6.22976596,646,843,1211,425,577,924,2.18691789,2.97221434,4.75328900,0.18577139,0.24838959,0.33998768
29015,0,USMissouriBenton,Missouri,Benton,2021-04-04 08:05:34.243397,2020-12-24 00:00:00.000000,3.17260624,4.18645947,6.07136062,616,813,1180,411,557,897,2.11849418,2.86597845,4.61549284,0.18513745,0.25144321,0.34064881
29015,0,USMissouriBenton,Missouri,Benton,2021-04-04 08:05:34.243397,2020-12-25 00:00:00.000000,3.00299100,4.02687154,5.91902786,583,782,1150,389,540,873,2.00506031,2.78012725,4.49389256,0.18747066,0.25632910,0.34189914
29015,0,USMissouriBenton,Missouri,Benton,2021-04-04 08:05:34.243397,2020-12-26 00:00:00.000000,2.84276179,3.89632637,5.77603915,552,757,1123,369,523,852,1.89803826,2.69106523,4.38698510,0.18929543,0.25673088,0.34493995
29015,0,USMissouriBenton,Missouri,Benton,2021-04-04 08:05:34.243397,2020-12-27 00:00:00.000000,2.69256903,3.77662947,5.64162883,523,734,1096,349,502,834,1.79671033,2.58544460,4.29069209,0.19131415,0.25573762,0.35352135
29015,0,USMissouriBenton,Missouri,Benton,2021-04-04 08:05:34.243397,2020-12-28 00:00:00.000000,2.58006600,3.63572374,5.52319578,501,706,1073,330,489,811,1.70140764,2.51652345,4.17121431,0.19255674,0.25656962,0.36146691
29015,0,USMissouriBenton,Missouri,Benton,2021-04-04 08:05:34.243397,2020-12-29 00:00:00.000000,2.47789227,3.50039360,5.34006735,481,680,1038,315,474,781,1.62323063,2.44116560,4.01792269,0.19286036,0.25662379,0.36067146
29015,0,USMissouriBenton,Missouri,Benton,2021-04-04 08:05:34.243397,2020-12-30 00:00:00.000000,2.38707502,3.38494604,5.11728900,464,658,994,302,458,750,1.55603093,2.35923260,3.86232941,0.19383025,0.25815610,0.35762852
29015,0,USMissouriBenton,Missouri,Benton,2021-04-04 08:05:34.243397,2020-12-31 00:00:00.000000,2.30637815,3.24898106,4.92039297,448,631,956,291,444,720,1.49681674,2.28550741,3.70784031,0.18824906,0.25798620,0.35399123
29015,0,USMissouriBenton,Missouri,Benton,2021-04-04 08:05:34.243397,2021-01-01 00:00:00.000000,2.23475091,3.12975123,4.78146158,434,608,929,280,431,691,1.44425369,2.21796649,3.55586843,0.18488022,0.25857399,0.35281723
29015,0,USMissouriBenton,Missouri,Benton,2021-04-04 08:05:34.243397,2021-01-02 00:00:00.000000,2.12597105,3.01044532,4.61463878,413,585,897,271,417,662,1.39756616,2.14503521,3.40769935,0.18416477,0.25947557,0.35499460
29015,0,USMissouriBenton,Missouri,Benton,2021-04-04 08:05:34.243397,2021-01-03 00:00:00.000000,2.06373391,2.92635892,4.44447961,401,568,864,263,402,634,1.35587857,2.07181040,3.26386340,0.18379766,0.26093242,0.34782948
29015,0,USMissouriBenton,Missouri,Benton,2021-04-04 08:05:34.243397,2021-01-04 00:00:00.000000,2.00356802,2.84409587,4.27108043,389,552,830,256,390,607,1.31815438,2.00871478,3.12372800,0.18290638,0.25453222,0.34482986
29015,0,USMissouriBenton,Missouri,Benton,2021-04-04 08:05:34.243397,2021-01-05 00:00:00.000000,1.94378557,2.74291581,4.09995499,377,533,797,247,376,581,1.27472225,1.93813449,2.99202255,0.16068366,0.25157100,0.34612102
29015,0,USMissouriBenton,Missouri,Benton,2021-04-04 08:05:34.243397,2021-01-06 00:00:00.000000,1.88339229,2.64619058,4.00376102,366,514,778,239,363,567,1.22982710,1.87033970,2.91930721,0.16072008,0.25050909,0.34688481
29015,0,USMissouriBenton,Missouri,Benton,2021-04-04 08:05:34.243397,2021-01-07 00:00:00.000000,1.81672369,2.55747394,3.93706328,353,497,765,227,351,557,1.17236182,1.80721382,2.86479152,0.15347408,0.24933030,0.34411056
29015,0,USMissouriBenton,Missouri,Benton,2021-04-04 08:05:34.243397,2021-01-08 00:00:00.000000,1.73795953,2.43649049,3.86056951,337,473,750,218,337,547,1.12361059,1.73484689,2.81382210,0.14352745,0.24497502,0.33686753
29015,0,USMissouriBenton,Missouri,Benton,2021-04-04 08:05:34.243397,2021-01-09 00:00:00.000000,1.65390368,2.33597345,3.69063011,321,454,717,209,322,537,1.07876337,1.65941941,2.76576395,0.14377455,0.23917265,0.33217101
29015,0,USMissouriBenton,Missouri,Benton,2021-04-04 08:05:34.243397,2021-01-10 00:00:00.000000,1.57039165,2.21840685,3.52737590,305,431,685,200,310,528,1.02964736,1.59699721,2.72014389,0.14604924,0.23905282,0.33035799
29015,0,USMissouriBenton,Missouri,Benton,2021-04-04 08:05:34.243397,2021-01-11 00:00:00.000000,1.48342192,2.11103198,3.37306940,288,410,655,190,295,520,0.97935393,1.51759881,2.67655396,0.14860010,0.23682303,0.32279099
29015,0,USMissouriBenton,Missouri,Benton,2021-04-04 08:05:34.243397,2021-01-12 00:00:00.000000,1.40007486,2.01684390,3.22513400,272,392,627,180,278,509,0.92754053,1.43178850,2.62206547,0.14698145,0.23577428,0.32131946
29015,0,USMissouriBenton,Missouri,Benton,2021-04-04 08:05:34.243397,2021-01-13 00:00:00.000000,1.32045856,1.93172477,3.08410202,256,375,599,173,262,487,0.89462866,1.34831162,2.50947150,0.14624573,0.23583309,0.31828016
29015,0,USMissouriBenton,Missouri,Benton,2021-04-04 08:05:34.243397,2021-01-14 00:00:00.000000,1.25252843,1.84235100,2.95232102,243,358,574,168,249,467,0.86583790,1.28212886,2.40228845,0.14633570,0.23515401,0.31274077
29015,0,USMissouriBenton,Missouri,Benton,2021-04-04 08:05:34.243397,2021-01-15 00:00:00.000000,1.22801909,1.77315549,2.84902198,238,344,553,160,238,447,0.82459659,1.22453896,2.29968817,0.14737093,0.23307187,0.31165347
29015,0,USMissouriBenton,Missouri,Benton,2021-04-04 08:05:34.243397,2021-01-16 00:00:00.000000,1.16018787,1.69616700,2.74867376,225,329,534,149,230,428,0.76896767,1.18652000,2.20339415,0.15070134,0.23416680,0.33066312
29015,0,USMissouriBenton,Missouri,Benton,2021-04-04 08:05:34.243397,2021-01-17 00:00:00.000000,1.11304533,1.61752734,2.65056008,216,314,515,139,222,411,0.71722432,1.14208232,2.11523022,0.16090153,0.23460629,0.34571381
29015,0,USMissouriBenton,Missouri,Benton,2021-04-04 08:05:34.243397,2021-01-18 00:00:00.000000,1.03994292,1.55177327,2.55990815,202,301,497,130,214,395,0.67002497,1.10078544,2.03641280,0.16650298,0.23625401,0.35069816
29015,0,USMissouriBenton,Missouri,Benton,2021-04-04 08:05:34.243397,2021-01-19 00:00:00.000000,0.97463891,1.49831367,2.50012075,189,291,486,125,205,383,0.64682840,1.05792388,1.97045269,0.16292654,0.23558885,0.35199483
29015,0,USMissouriBenton,Missouri,Benton,2021-04-04 08:05:34.243397,2021-01-20 00:00:00.000000,0.94602852,1.44020583,2.44774088,183,280,475,122,196,372,0.62870269,1.00956070,1.91480791,0.16430313,0.24055215,0.35422408
29015,0,USMissouriBenton,Missouri,Benton,2021-04-04 08:05:34.243397,2021-01-21 00:00:00.000000,0.92675950,1.38941575,2.39998487,180,270,466,118,190,362,0.60975033,0.97727807,1.86687228,0.17091372,0.24447482,0.36975302
29015,0,USMissouriBenton,Missouri,Benton,2021-04-04 08:05:34.243397,2021-01-22 00:00:00.000000,0.91049759,1.35212422,2.35527965,177,262,457,114,184,354,0.59076928,0.94704510,1.82442228,0.18006643,0.25714167,0.38893509
29015,0,USMissouriBenton,Missouri,Benton,2021-04-04 08:05:34.243397,2021-01-23 00:00:00.000000,0.89355073,1.29625658,2.29695163,173,252,446,111,179,344,0.57248704,0.92255491,1.77127858,0.19222687,0.26642666,0.37841096
29015,0,USMissouriBenton,Missouri,Benton,2021-04-04 08:05:34.243397,2021-01-24 00:00:00.000000,0.85500982,1.23948587,2.22636982,166,240,432,107,172,332,0.55052420,0.88884328,1.71080631,0.19228288,0.27303992,0.37927199
29015,0,USMissouriBenton,Missouri,Benton,2021-04-04 08:05:34.243397,2021-01-25 00:00:00.000000,0.82255247,1.21788025,2.16259769,159,236,420,104,165,321,0.53920967,0.85326429,1.65514535,0.18392282,0.28082218,0.38016596
29015,0,USMissouriBenton,Missouri,Benton,2021-04-04 08:05:34.243397,2021-01-26 00:00:00.000000,0.79296137,1.19735340,2.10236234,154,232,408,101,161,311,0.52433068,0.82894645,1.60430794,0.19348643,0.28466118,0.38716132
29015,0,USMissouriBenton,Missouri,Benton,2021-04-04 08:05:34.243397,2021-01-27 00:00:00.000000,0.76571364,1.17676808,2.04486900,148,228,397,99,155,302,0.51041414,0.79801647,1.55713827,0.19926309,0.29118404,0.39176881
29015,0,USMissouriBenton,Missouri,Benton,2021-04-04 08:05:34.243397,2021-01-28 00:00:00.000000,0.74037714,1.14761841,1.98954551,143,223,386,96,150,294,0.49728270,0.77607776,1.51274815,0.20192561,0.30372847,0.40583683
29015,0,USMissouriBenton,Missouri,Benton,2021-04-04 08:05:34.243397,2021-01-29 00:00:00.000000,0.71692401,1.12408616,1.93607642,139,218,376,94,146,285,0.48485875,0.75470971,1.47051628,0.20414645,0.31392380,0.41368540
29015,0,USMissouriBenton,Missouri,Benton,2021-04-04 08:05:34.243397,2021-01-30 00:00:00.000000,0.70577102,1.09607025,1.88436544,137,213,366,92,144,278,0.47318032,0.74378378,1.43003802,0.21012327,0.32725059,0.43543666
29015,0,USMissouriBenton,Missouri,Benton,2021-04-04 08:05:34.243397,2021-01-31 00:00:00.000000,0.70689778,1.09449249,1.83554841,137,212,356,89,143,270,0.46240001,0.73551627,1.39108726,0.22126888,0.33789482,0.45378774
29015,0,USMissouriBenton,Missouri,Benton,2021-04-04 08:05:34.243397,2021-02-01 00:00:00.000000,0.67963905,1.09347805,1.79857449,132,212,349,88,142,263,0.45299705,0.73315873,1.35396516,0.23024712,0.34543070,0.48987589
29015,0,USMissouriBenton,Missouri,Benton,2021-04-04 08:05:34.243397,2021-02-02 00:00:00.000000,0.65760775,1.08525591,1.78933657,127,211,347,86,141,257,0.44554058,0.72750077,1.32182661,0.23761017,0.35351842,0.52312623
29015,0,USMissouriBenton,Missouri,Benton,2021-04-04 08:05:34.243397,2021-02-03 00:00:00.000000,0.68330411,1.08604671,1.78025289,132,211,346,88,140,251,0.45552719,0.72416571,1.29542478,0.24213816,0.37052893,0.57087180
29015,0,USMissouriBenton,Missouri,Benton,2021-04-04 08:05:34.243397,2021-02-04 00:00:00.000000,0.72534491,1.08787119,1.77174015,141,211,344,87,141,247,0.44851050,0.72905683,1.27260479,0.25211594,0.38308938,0.57647316
29015,0,USMissouriBenton,Missouri,Benton,2021-04-04 08:05:34.243397,2021-02-05 00:00:00.000000,0.73111983,1.08822159,1.76580963,142,211,343,87,140,243,0.44864571,0.72363985,1.25195930,0.26888022,0.40063431,0.58357434
29015,0,USMissouriBenton,Missouri,Benton,2021-04-04 08:05:34.243397,2021-02-06 00:00:00.000000,0.73126314,1.10705783,1.78830485,142,215,347,86,139,244,0.44715897,0.71801781,1.25913281,0.30724054,0.42494968,0.63546508
29015,0,USMissouriBenton,Missouri,Benton,2021-04-04 08:05:34.243397,2021-02-07 00:00:00.000000,0.73219939,1.14575607,1.83427055,142,222,356,87,139,249,0.45031856,0.71794842,1.28301718,0.31985169,0.44862207,0.66818179
29015,0,USMissouriBenton,Missouri,Benton,2021-04-04 08:05:34.243397,2021-02-08 00:00:00.000000,0.72701590,1.18639260,1.88363818,141,230,366,88,142,255,0.45662987,0.73215821,1.31382496,0.33950041,0.47554029,0.74876077
29015,0,USMissouriBenton,Missouri,Benton,2021-04-04 08:05:34.243397,2021-02-09 00:00:00.000000,0.72269952,1.22326722,1.93572085,140,237,376,90,144,261,0.46452588,0.74280408,1.34733973,0.36115644,0.49760366,0.76967498
29015,0,USMissouriBenton,Missouri,Benton,2021-04-04 08:05:34.243397,2021-02-10 00:00:00.000000,0.72295971,1.24953556,2.00607335,140,242,390,91,149,268,0.47189536,0.76733957,1.38280175,0.37931249,0.52504947,0.78386407
29015,0,USMissouriBenton,Missouri,Benton,2021-04-04 08:05:34.243397,2021-02-11 00:00:00.000000,0.72725701,1.31796296,2.04405549,141,256,397,93,153,272,0.47977618,0.79058798,1.39942872,0.39507818,0.53811533,0.78953755
29015,0,USMissouriBenton,Missouri,Benton,2021-04-04 08:05:34.243397,2021-02-12 00:00:00.000000,0.75116076,1.35596886,2.10132801,146,263,408,95,158,273,0.49259495,0.81267475,1.40562020,0.39570328,0.54981246,0.81488381
29015,0,USMissouriBenton,Missouri,Benton,2021-04-04 08:05:34.243397,2021-02-13 00:00:00.000000,0.78535241,1.42833145,2.16819016,152,277,421,98,163,274,0.50423973,0.84073055,1.41425183,0.42046225,0.57612530,0.90473802
29015,0,USMissouriBenton,Missouri,Benton,2021-04-04 08:05:34.243397,2021-02-14 00:00:00.000000,0.82090502,1.50241922,2.25157004,159,292,437,100,172,288,0.51532752,0.88837221,1.48637844,0.43863886,0.60194112,0.90765417
29015,0,USMissouriBenton,Missouri,Benton,2021-04-04 08:05:34.243397,2021-02-15 00:00:00.000000,0.86119066,1.55974712,2.35854372,167,303,458,102,183,311,0.52729533,0.94572466,1.60142414,0.45961005,0.62368186,0.93359635
29015,0,USMissouriBenton,Missouri,Benton,2021-04-04 08:05:34.243397,2021-02-16 00:00:00.000000,0.90309867,1.63343316,2.50265170,175,317,486,107,193,324,0.55116338,0.99266825,1.66783186,0.48319515,0.64775973,0.95094055
29015,0,USMissouriBenton,Missouri,Benton,2021-04-04 08:05:34.243397,2021-02-17 00:00:00.000000,0.95250269,1.72531337,2.67009230,185,335,519,112,202,340,0.58050638,1.04051735,1.74962321,0.48899685,0.69014255,0.99505292
29015,0,USMissouriBenton,Missouri,Benton,2021-04-04 08:05:34.243397,2021-02-18 00:00:00.000000,1.07723701,1.85191197,2.84494908,209,360,553,119,215,359,0.61315786,1.10591578,1.85114155,0.49454188,0.73281597,1.00242674
29015,0,USMissouriBenton,Missouri,Benton,2021-04-04 08:05:34.243397,2021-02-19 00:00:00.000000,1.21280223,2.01337348,3.03612609,235,391,590,132,230,382,0.68270247,1.18438988,1.96796865,0.50417712,0.76605634,1.03707641
29015,0,USMissouriBenton,Missouri,Benton,2021-04-04 08:05:34.243397,2021-02-20 00:00:00.000000,1.27943056,2.18214671,3.25720575,248,424,633,140,245,407,0.72302549,1.26197590,2.09665144,0.52772194,0.80300038,1.06894440
29015,0,USMissouriBenton,Missouri,Benton,2021-04-04 08:05:34.243397,2021-02-21 00:00:00.000000,1.33594684,2.32718981,3.48732983,259,452,678,151,261,433,0.77838357,1.34339570,2.23169912,0.57492226,0.83223288,1.09141199
29015,0,USMissouriBenton,Missouri,Benton,2021-04-04 08:05:34.243397,2021-02-22 00:00:00.000000,1.40853502,2.51872777,3.76437209,273,489,731,167,281,458,0.85946196,1.44877450,2.35732811,0.63784768,0.85961553,1.10341372
29015,0,USMissouriBenton,Missouri,Benton,2021-04-04 08:05:34.243397,2021-02-23 00:00:00.000000,1.49143746,2.74372263,4.05624166,289,533,788,183,305,484,0.94205764,1.57151540,2.49144641,0.65724270,0.88038276,1.10669486
29015,0,USMissouriBenton,Missouri,Benton,2021-04-04 08:05:34.243397,2021-02-24 00:00:00.000000,1.65143559,2.96887539,4.36339332,321,577,848,193,328,521,0.99643887,1.68760081,2.68223352,0.66359987,0.89359742,1.10221064
29015,0,USMissouriBenton,Missouri,Benton,2021-04-04 08:05:34.243397,2021-02-25 00:00:00.000000,1.84737398,3.19132557,4.68519894,359,620,910,211,348,555,1.08740108,1.79422970,2.85733394,0.69077868,0.89920994,1.09250622
29015,0,USMissouriBenton,Missouri,Benton,2021-04-04 08:05:34.243397,2021-02-26 00:00:00.000000,2.06455792,3.44857163,5.02087241,401,670,976,231,374,589,1.18890712,1.92365844,3.03324508,0.71844631,0.91386265,1.11488245
29015,0,USMissouriBenton,Missouri,Benton,2021-04-04 08:05:34.243397,2021-02-27 00:00:00.000000,2.30396861,3.69831077,5.36938567,447,719,1043,255,405,627,1.31464716,2.08701967,3.22505282,0.80140937,0.92046286,1.10769354
29015,0,USMissouriBenton,Missouri,Benton,2021-04-04 08:05:34.243397,2021-02-28 00:00:00.000000,2.56722002,3.96441505,5.72942302,499,770,1113,281,442,668,1.44971423,2.27760877,3.44040937,0.82522970,0.91992533,1.10619076
29015,0,USMissouriBenton,Missouri,Benton,2021-04-04 08:05:34.243397,2021-03-01 00:00:00.000000,2.79948703,4.25866599,6.20046119,544,828,1205,311,481,715,1.60036374,2.47696348,3.68192479,0.84510189,0.91832070,1.11717348
29015,0,USMissouriBenton,Missouri,Benton,2021-04-04 08:05:34.243397,2021-03-02 00:00:00.000000,3.02506669,4.58379112,6.60354618,588,891,1283,339,518,768,1.74436965,2.66799343,3.95244200,0.84025342,0.91564171,1.12028332
29015,0,USMissouriBenton,Missouri,Benton,2021-04-04 08:05:34.243397,2021-03-03 00:00:00.000000,3.34062413,4.95367021,7.01080244,649,963,1363,363,556,825,1.86968769,2.86098929,4.24469834,0.81808439,0.91600513,1.11968443
29015,0,USMissouriBenton,Missouri,Benton,2021-04-04 08:05:34.243397,2021-03-04 00:00:00.000000,3.68353259,5.35345311,7.40878234,716,1040,1440,394,596,887,2.02893753,3.06931228,4.56365396,0.81352118,0.91353186,1.11915335
29015,0,USMissouriBenton,Missouri,Benton,2021-04-04 08:05:34.243397,2021-03-05 00:00:00.000000,4.05311564,5.68880375,7.84907932,788,1106,1526,428,640,949,2.20223028,3.29422479,4.88324126,0.81335674,0.90653109,1.13570001
29015,0,USMissouriBenton,Missouri,Benton,2021-04-04 08:05:34.243397,2021-03-06 00:00:00.000000,4.45003038,6.04164022,8.34588846,865,1174,1622,464,685,1015,2.38655601,3.52498952,5.22370278,0.79107966,0.89842687,1.14214469
29015,0,USMissouriBenton,Missouri,Benton,2021-04-04 08:05:34.243397,2021-03-07 00:00:00.000000,4.85456444,6.43081616,8.84768247,943,1250,1720,501,723,1083,2.58188273,3.72036793,5.57310398,0.72062369,0.88892499,1.09918290
29015,0,USMissouriBenton,Missouri,Benton,2021-04-04 08:05:34.243397,2021-03-08 00:00:00.000000,5.19088627,6.76445930,9.35200022,1009,1315,1818,542,766,1151,2.78808198,3.94346119,5.92179029,0.61396536,0.85763175,1.01852769
29015,0,USMissouriBenton,Missouri,Benton,2021-04-04 08:05:34.243397,2021-03-09 00:00:00.000000,5.45199023,6.98278630,9.64213823,1060,1357,1874,579,811,1197,2.97898100,4.17472240,6.15973074,0.47403776,0.77044839,0.98800020
29015,0,USMissouriBenton,Missouri,Benton,2021-04-04 08:05:34.243397,2021-03-10 00:00:00.000000,5.59133135,7.04412672,9.72630937,1087,1369,1891,599,848,1252,3.08386425,4.36434515,6.44149420,0.37607265,0.61962540,0.87380386
29015,0,USMissouriBenton,Missouri,Benton,2021-04-04 08:05:34.243397,2021-03-11 00:00:00.000000,5.48220126,6.96667019,9.72887135,1065,1354,1891,604,881,1288,3.10707711,4.53221218,6.62702833,0.29184070,0.47613685,0.73696587
29015,0,USMissouriBenton,Missouri,Benton,2021-04-04 08:05:34.243397,2021-03-12 00:00:00.000000,5.27916336,6.86543006,9.64124116,1026,1334,1874,613,885,1303,3.15336422,4.55348508,6.70194894,0.24405681,0.36641747,0.58122612
29015,0,USMissouriBenton,Missouri,Benton,2021-04-04 08:05:34.243397,2021-03-13 00:00:00.000000,5.01740494,6.60249901,9.47012039,975,1283,1841,619,885,1298,3.18641416,4.55205596,6.68083302,0.21444987,0.32903088,0.49403992
29015,0,USMissouriBenton,Missouri,Benton,2021-04-04 08:05:34.243397,2021-03-14 00:00:00.000000,4.71885024,6.28340463,9.24235666,917,1221,1796,610,865,1289,3.13765004,4.45185039,6.63139673,0.20181021,0.31211839,0.44832474
29015,0,USMissouriBenton,Missouri,Benton,2021-04-04 08:05:34.243397,2021-03-15 00:00:00.000000,4.40680662,5.92796447,8.83707556,856,1152,1718,564,837,1269,2.90564306,4.30640248,6.53190036,0.18701318,0.29796453,0.41118207
29015,0,USMissouriBenton,Missouri,Benton,2021-04-04 08:05:34.243397,2021-03-16 00:00:00.000000,4.09764610,5.61470865,8.48863286,796,1091,1650,525,795,1244,2.70284934,4.08896641,6.40083198,0.17379691,0.29491110,0.39844216
29015,0,USMissouriBenton,Missouri,Benton,2021-04-04 08:05:34.243397,2021-03-17 00:00:00.000000,3.79917492,5.30624607,8.25638152,738,1031,1605,500,745,1214,2.57651947,3.83661117,6.24700542,0.15156180,0.28909351,0.37424587
29015,0,USMissouriBenton,Missouri,Benton,2021-04-04 08:05:34.243397,2021-03-18 00:00:00.000000,3.51711490,4.98557826,8.01488341,683,969,1558,465,708,1181,2.39402354,3.64506371,6.07609008,0.13541017,0.27591455,0.35681611
29015,0,USMissouriBenton,Missouri,Benton,2021-04-04 08:05:34.243397,2021-03-19 00:00:00.000000,3.25273548,4.65619691,7.73941527,632,905,1504,434,671,1145,2.23272685,3.45376010,5.89251679,0.12384050,0.25535247,0.35258569
29015,0,USMissouriBenton,Missouri,Benton,2021-04-04 08:05:34.243397,2021-03-20 00:00:00.000000,3.00568683,4.34677204,7.44025081,584,845,1446,403,631,1108,2.07578465,3.24583018,5.70096636,0.11713769,0.24849023,0.35161538
29015,0,USMissouriBenton,Missouri,Benton,2021-04-04 08:05:34.243397,2021-03-21 00:00:00.000000,2.77425907,4.02990097,7.16580061,539,783,1393,374,589,1070,1.92593125,3.03239199,5.50571764,0.11373975,0.24461647,0.34967742
29015,0,USMissouriBenton,Missouri,Benton,2021-04-04 08:05:34.243397,2021-03-22 00:00:00.000000,2.56331594,3.71453399,6.89772095,498,722,1341,346,548,1032,1.78458779,2.82190950,5.30938111,0.11213874,0.23781882,0.34679937
29015,0,USMissouriBenton,Missouri,Benton,2021-04-04 08:05:34.243397,2021-03-23 00:00:00.000000,2.36343122,3.45110403,6.63286323,459,670,1289,321,513,993,1.65135317,2.64048761,5.10989773,0.11140960,0.23510443,0.34387434
29015,0,USMissouriBenton,Missouri,Benton,2021-04-04 08:05:34.243397,2021-03-24 00:00:00.000000,2.17457736,3.20679922,6.28725482,422,623,1222,296,477,954,1.52684160,2.45718556,4.91119218,0.11108433,0.22612937,0.34177270
29015,0,USMissouriBenton,Missouri,Benton,2021-04-04 08:05:34.243397,2021-03-25 00:00:00.000000,1.97830132,2.97596677,6.04071660,384,578,1174,274,443,907,1.41114164,2.27848132,4.66615348,0.11094606,0.22175361,0.34057084
29015,0,USMissouriBenton,Missouri,Benton,2021-04-04 08:05:34.243397,2021-03-26 00:00:00.000000,1.78484789,2.74095466,5.80521737,347,532,1128,253,410,856,1.30394231,2.11041867,4.40338255,0.11192064,0.21862925,0.33943796
29015,0,USMissouriBenton,Missouri,Benton,2021-04-04 08:05:34.243397,2021-03-27 00:00:00.000000,1.61064090,2.56762015,5.57849228,313,499,1084,234,379,805,1.20480485,1.94979525,4.14289431,0.11636855,0.21246138,0.33073936
29015,0,USMissouriBenton,Missouri,Benton,2021-04-04 08:05:34.243397,2021-03-28 00:00:00.000000,1.45390556,2.41818283,5.35927689,282,470,1042,215,351,771,1.10980607,1.80932523,3.96942329,0.11430962,0.21248229,0.33121607
29015,0,USMissouriBenton,Missouri,Benton,2021-04-04 08:05:34.243397,2021-03-29 00:00:00.000000,1.30952133,2.26124654,5.13779998,254,439,998,197,329,741,1.01385466,1.69266450,3.81486710,0.11035499,0.21020133,0.33194518
29015,0,USMissouriBenton,Missouri,Benton,2021-04-04 08:05:34.243397,2021-03-30 00:00:00.000000,1.17940542,2.09046844,4.91250365,229,406,955,179,306,712,0.92173720,1.57788438,3.66281880,0.11140733,0.21096571,0.36110901
29015,0,USMissouriBenton,Missouri,Benton,2021-04-04 08:05:34.243397,2021-03-31 00:00:00.000000,1.06208714,1.92760493,4.66097908,206,374,906,161,285,683,0.82908176,1.46693889,3.51420563,0.11115708,0.20835527,0.37625695
29015,0,USMissouriBenton,Missouri,Benton,2021-04-04 08:05:34.243397,2021-04-01 00:00:00.000000,0.95656173,1.77647111,4.41867383,185,345,859,144,264,655,0.74540723,1.36105631,3.36968153,0.10863493,0.20556692,0.39573384
29015,0,USMissouriBenton,Missouri,Benton,2021-04-04 08:05:34.243397,2021-04-02 00:00:00.000000,0.86182896,1.65214058,4.18975729,167,321,814,130,244,627,0.66997150,1.25868780,3.22976237,0.10749170,0.21422716,0.39927068
29015,0,USMissouriBenton,Missouri,Benton,2021-04-04 08:05:34.243397,2021-04-03 00:00:00.000000,0.77694883,1.53239098,3.97649120,151,297,773,117,227,601,0.60203172,1.17156588,3.09486585,0.11089220,0.21438383,0.40247942
29015,0,USMissouriBenton,Missouri,Benton,2021-04-04 08:05:34.243397,2021-04-04 00:00:00.000000,0.70094607,1.41694656,3.77881385,136,275,734,105,211,574,0.54087336,1.08572713,2.95403372,0.11186953,0.21462303,0.43929660
29015,0,USMissouriBenton,Missouri,Benton,2021-04-04 08:05:34.243397,2021-04-05 00:00:00.000000,0.63276443,1.31904541,3.59477972,123,256,698,94,194,545,0.48582070,1.00040661,2.80611639,0.10930626,0.21547778,0.44410836
29015,0,USMissouriBenton,Missouri,Benton,2021-04-04 08:05:34.243397,2021-04-06 00:00:00.000000,0.57143073,1.21793373,3.42202806,111,236,665,84,179,518,0.43624480,0.92297297,2.66775473,0.10787116,0.21799317,0.48719035
29015,0,USMissouriBenton,Missouri,Benton,2021-04-04 08:05:34.243397,2021-04-07 00:00:00.000000,0.51615257,1.12557972,3.25870932,100,218,633,76,167,493,0.39157871,0.85897541,2.53805068,0.10848701,0.21617482,0.51594010
29015,0,USMissouriBenton,Missouri,Benton,2021-04-04 08:05:34.243397,2021-04-08 00:00:00.000000,0.46420101,1.04101053,3.10357648,90,202,603,67,155,469,0.34971870,0.79814428,2.41591276,0.10873944,0.21478934,0.53196262
29015,0,USMissouriBenton,Missouri,Benton,2021-04-04 08:05:34.243397,2021-04-09 00:00:00.000000,0.41575980,0.97284711,2.95580485,80,189,574,60,144,447,0.31095925,0.74163736,2.30037334,0.10883805,0.21396496,0.54001245
29015,0,USMissouriBenton,Missouri,Benton,2021-04-04 08:05:34.243397,2021-04-10 00:00:00.000000,0.37209085,0.91232953,2.81482706,72,177,547,53,133,425,0.27632119,0.68824113,2.19067775,0.10887582,0.21378529,0.54057979
29015,0,USMissouriBenton,Missouri,Benton,2021-04-04 08:05:34.243397,2021-04-11 00:00:00.000000,0.33277862,0.84988777,2.68022674,64,165,521,47,124,405,0.24543372,0.64102177,2.08626536,0.10889017,0.21387572,0.54062727
29015,0,USMissouriBenton,Missouri,Benton,2021-04-04 08:05:34.243397,2021-04-12 00:00:00.000000,0.29723192,0.78491252,2.55167585,57,152,496,42,115,386,0.21793240,0.59434026,1.98672101,0.10889560,0.21390973,0.54064865
29015,0,USMissouriBenton,Missouri,Benton,2021-04-04 08:05:34.243397,2021-04-13 00:00:00.000000,0.26381290,0.72076925,2.45521102,51,140,477,37,107,367,0.19349398,0.55212806,1.89172917,0.10889765,0.21392042,0.54065831
29015,0,USMissouriBenton,Missouri,Benton,2021-04-04 08:05:34.243397,2021-04-14 00:00:00.000000,0.23414210,0.66373858,2.40894967,45,129,468,33,99,350,0.17180714,0.51273445,1.80103942,0.10889842,0.21392207,0.54066267
29015,0,USMissouriBenton,Missouri,Benton,2021-04-04 08:05:34.243397,2021-04-15 00:00:00.000000,0.20780361,0.60804062,2.36264751,40,118,459,29,92,333,0.15253548,0.47341998,1.71444294,0.10889871,0.21392065,0.54066465
29015,0,USMissouriBenton,Missouri,Benton,2021-04-04 08:05:34.243397,2021-04-16 00:00:00.000000,0.18442570,0.56063881,2.31635189,35,109,450,26,85,317,0.13541562,0.43956873,1.63175744,0.10889882,0.21391850,0.54066554
