FIPS,HR_UID,nameid,province,region,analysisTime,dates,pointprevalence_025,pointprevalence_50,pointprevalence_975,pointinfections_025,pointinfections_50,pointinfections_975,pointinfectious_025,pointinfectious_50,pointinfectious_975,pointinfectiousprevalence_05,pointinfectiousprevalence_50,pointinfectiousprevalence_95,infectrate_025,infectrate_50,infectrate_975
46129,0,USSouthDakotaWalworth,South Dakota,Walworth,2021-04-04 04:20:31.641044,2020-03-09 00:00:00.000000,0.00304095,0.02332148,0.10537545,0,1,5,0,0,3,0.00174593,0.01233893,0.07065437,0.36585412,0.49165349,0.71230548
46129,0,USSouthDakotaWalworth,South Dakota,Walworth,2021-04-04 04:20:31.641044,2020-03-10 00:00:00.000000,0.00319984,0.02612196,0.11040236,0,1,6,0,0,3,0.00177353,0.01229124,0.06679969,0.36563394,0.49164517,0.71228449
46129,0,USSouthDakotaWalworth,South Dakota,Walworth,2021-04-04 04:20:31.641044,2020-03-11 00:00:00.000000,0.00336653,0.02862323,0.11575240,0,1,6,0,0,3,0.00180346,0.01250483,0.06629709,0.36527390,0.49163211,0.71224028
46129,0,USSouthDakotaWalworth,South Dakota,Walworth,2021-04-04 04:20:31.641044,2020-03-12 00:00:00.000000,0.00354166,0.03119344,0.12304301,0,1,6,0,0,3,0.00198796,0.01342655,0.07005699,0.36468585,0.49161146,0.71214675
46129,0,USSouthDakotaWalworth,South Dakota,Walworth,2021-04-04 04:20:31.641044,2020-03-13 00:00:00.000000,0.00372575,0.03416834,0.13186378,0,1,7,0,0,4,0.00208668,0.01472501,0.07461339,0.36372871,0.49157802,0.71194814
46129,0,USSouthDakotaWalworth,South Dakota,Walworth,2021-04-04 04:20:31.641044,2020-03-14 00:00:00.000000,0.00391928,0.03764762,0.14126185,0,2,7,0,0,4,0.00219320,0.01626389,0.07976959,0.36218155,0.49151973,0.71152498
46129,0,USSouthDakotaWalworth,South Dakota,Walworth,2021-04-04 04:20:31.641044,2020-03-15 00:00:00.000000,0.00412261,0.04143394,0.15128049,0,2,8,0,0,4,0.00230673,0.01799021,0.08542808,0.35971112,0.49079210,0.71062155
46129,0,USSouthDakotaWalworth,South Dakota,Walworth,2021-04-04 04:20:31.641044,2020-03-16 00:00:00.000000,0.00433592,0.04532247,0.16195125,0,2,8,0,1,4,0.00242689,0.01987837,0.09154578,0.35584653,0.48581720,0.70869284
46129,0,USSouthDakotaWalworth,South Dakota,Walworth,2021-04-04 04:20:31.641044,2020-03-17 00:00:00.000000,0.00455903,0.04795330,0.17557859,0,2,9,0,1,5,0.00255352,0.02190051,0.09810796,0.34999555,0.48060165,0.70459450
46129,0,USSouthDakotaWalworth,South Dakota,Walworth,2021-04-04 04:20:31.641044,2020-03-18 00:00:00.000000,0.00479120,0.05040290,0.20109415,0,2,10,0,1,5,0.00268648,0.02373530,0.10511172,0.33317669,0.47563925,0.69601873
46129,0,USSouthDakotaWalworth,South Dakota,Walworth,2021-04-04 04:20:31.641044,2020-03-19 00:00:00.000000,0.00503126,0.05327968,0.22815612,0,2,12,0,1,6,0.00282556,0.02568128,0.11255394,0.32195964,0.46234721,0.67723451
46129,0,USSouthDakotaWalworth,South Dakota,Walworth,2021-04-04 04:20:31.641044,2020-03-20 00:00:00.000000,0.00527816,0.05666889,0.25363762,0,3,13,0,1,6,0.00297036,0.02760491,0.12040569,0.28814494,0.43940277,0.64936262
46129,0,USSouthDakotaWalworth,South Dakota,Walworth,2021-04-04 04:20:31.641044,2020-03-21 00:00:00.000000,0.00553194,0.06033482,0.27547621,0,3,14,0,1,7,0.00312036,0.02975803,0.13556280,0.27828164,0.41256359,0.60612637
46129,0,USSouthDakotaWalworth,South Dakota,Walworth,2021-04-04 04:20:31.641044,2020-03-22 00:00:00.000000,0.00579842,0.06548679,0.29207518,0,3,15,0,1,7,0.00327524,0.03177708,0.14619917,0.26630362,0.39614550,0.56395413
46129,0,USSouthDakotaWalworth,South Dakota,Walworth,2021-04-04 04:20:31.641044,2020-03-23 00:00:00.000000,0.00608105,0.06966300,0.28873782,0,3,15,0,1,7,0.00343511,0.03402715,0.14684001,0.24732114,0.38029424,0.54654366
46129,0,USSouthDakotaWalworth,South Dakota,Walworth,2021-04-04 04:20:31.641044,2020-03-24 00:00:00.000000,0.00648534,0.07306291,0.28512150,0,3,15,0,1,8,0.00360049,0.03628627,0.15528285,0.23885424,0.35980768,0.53459021
46129,0,USSouthDakotaWalworth,South Dakota,Walworth,2021-04-04 04:20:31.641044,2020-03-25 00:00:00.000000,0.00684015,0.07456112,0.28133489,0,4,15,0,2,8,0.00377236,0.03770130,0.16434101,0.23242385,0.34544915,0.52412669
46129,0,USSouthDakotaWalworth,South Dakota,Walworth,2021-04-04 04:20:31.641044,2020-03-26 00:00:00.000000,0.00714519,0.07528536,0.28822876,0,4,15,0,2,9,0.00395579,0.03847850,0.16952485,0.22038093,0.32986032,0.50424080
46129,0,USSouthDakotaWalworth,South Dakota,Walworth,2021-04-04 04:20:31.641044,2020-03-27 00:00:00.000000,0.00742762,0.07755559,0.29712694,0,4,16,0,2,9,0.00414593,0.03965514,0.17202585,0.20223192,0.31571770,0.49011604
46129,0,USSouthDakotaWalworth,South Dakota,Walworth,2021-04-04 04:20:31.641044,2020-03-28 00:00:00.000000,0.00766606,0.07921625,0.30405506,0,4,16,0,2,9,0.00434234,0.04108723,0.17375255,0.18606976,0.29848088,0.48458663
46129,0,USSouthDakotaWalworth,South Dakota,Walworth,2021-04-04 04:20:31.641044,2020-03-29 00:00:00.000000,0.00793555,0.08178102,0.30043808,0,4,16,0,2,9,0.00454265,0.04275502,0.18110068,0.17431028,0.27572490,0.45726381
46129,0,USSouthDakotaWalworth,South Dakota,Walworth,2021-04-04 04:20:31.641044,2020-03-30 00:00:00.000000,0.03433540,0.10049039,0.32153474,1,5,17,0,2,10,0.00474115,0.04329407,0.18775459,0.16712245,0.26889255,0.44927039
46129,0,USSouthDakotaWalworth,South Dakota,Walworth,2021-04-04 04:20:31.641044,2020-03-31 00:00:00.000000,0.05037081,0.12450446,0.36949678,2,6,20,0,2,10,0.01293260,0.04790388,0.19804281,0.16298816,0.25554271,0.44096869
46129,0,USSouthDakotaWalworth,South Dakota,Walworth,2021-04-04 04:20:31.641044,2020-04-01 00:00:00.000000,0.06724253,0.14584421,0.39954153,3,7,21,0,2,11,0.01773279,0.05439706,0.21045080,0.15128102,0.24475754,0.43060953
46129,0,USSouthDakotaWalworth,South Dakota,Walworth,2021-04-04 04:20:31.641044,2020-04-02 00:00:00.000000,0.08406802,0.17583452,0.43013344,4,9,23,1,3,12,0.02738781,0.06761608,0.22412326,0.13341496,0.23421132,0.39997606
46129,0,USSouthDakotaWalworth,South Dakota,Walworth,2021-04-04 04:20:31.641044,2020-04-03 00:00:00.000000,0.09393067,0.19558240,0.46099020,5,10,25,2,4,12,0.03744877,0.07871019,0.23858191,0.12884638,0.22548962,0.38632568
46129,0,USSouthDakotaWalworth,South Dakota,Walworth,2021-04-04 04:20:31.641044,2020-04-04 00:00:00.000000,0.10486161,0.21572454,0.49150681,5,11,26,2,5,13,0.04480286,0.09305900,0.25355504,0.12787372,0.21781738,0.34504798
46129,0,USSouthDakotaWalworth,South Dakota,Walworth,2021-04-04 04:20:31.641044,2020-04-05 00:00:00.000000,0.11531401,0.24074421,0.52026160,6,13,28,2,5,14,0.05338671,0.10686572,0.26887228,0.12768156,0.21098376,0.34513013
46129,0,USSouthDakotaWalworth,South Dakota,Walworth,2021-04-04 04:20:31.641044,2020-04-06 00:00:00.000000,0.13914660,0.26054429,0.54486863,7,14,29,3,6,15,0.06153441,0.12013232,0.29091434,0.12765544,0.19913133,0.34263079
46129,0,USSouthDakotaWalworth,South Dakota,Walworth,2021-04-04 04:20:31.641044,2020-04-07 00:00:00.000000,0.16694991,0.29052112,0.57370394,9,15,31,3,7,17,0.07096338,0.13482823,0.31464354,0.12767829,0.18794948,0.32640940
46129,0,USSouthDakotaWalworth,South Dakota,Walworth,2021-04-04 04:20:31.641044,2020-04-08 00:00:00.000000,0.18861837,0.31798632,0.60967980,10,17,33,4,7,18,0.08061654,0.14462272,0.33685813,0.12104059,0.18241626,0.31870922
46129,0,USSouthDakotaWalworth,South Dakota,Walworth,2021-04-04 04:20:31.641044,2020-04-09 00:00:00.000000,0.21017229,0.33914893,0.64342784,11,18,34,4,8,19,0.09073612,0.15631280,0.35793636,0.11763056,0.17897288,0.30462274
46129,0,USSouthDakotaWalworth,South Dakota,Walworth,2021-04-04 04:20:31.641044,2020-04-10 00:00:00.000000,0.22514463,0.35615053,0.67508320,12,19,36,5,9,20,0.10106596,0.16816044,0.37814583,0.09738049,0.17154204,0.30430918
46129,0,USSouthDakotaWalworth,South Dakota,Walworth,2021-04-04 04:20:31.641044,2020-04-11 00:00:00.000000,0.23297680,0.37693930,0.70620684,12,20,38,6,10,21,0.11092119,0.18821258,0.39759906,0.09210376,0.16313468,0.29603972
46129,0,USSouthDakotaWalworth,South Dakota,Walworth,2021-04-04 04:20:31.641044,2020-04-12 00:00:00.000000,0.24105474,0.38886997,0.73674557,13,21,40,6,11,22,0.12128123,0.20466313,0.41215583,0.09148245,0.15988957,0.28458382
46129,0,USSouthDakotaWalworth,South Dakota,Walworth,2021-04-04 04:20:31.641044,2020-04-13 00:00:00.000000,0.23965068,0.37976872,0.72430432,13,20,39,6,11,22,0.12819988,0.21691693,0.42238765,0.09141547,0.15613883,0.27777823
46129,0,USSouthDakotaWalworth,South Dakota,Walworth,2021-04-04 04:20:31.641044,2020-04-14 00:00:00.000000,0.23867764,0.37509337,0.71073461,12,20,38,7,12,23,0.13139096,0.22286229,0.42685565,0.08930834,0.15089935,0.27612037
46129,0,USSouthDakotaWalworth,South Dakota,Walworth,2021-04-04 04:20:31.641044,2020-04-15 00:00:00.000000,0.23699591,0.37237173,0.69555985,12,20,37,7,12,23,0.13346503,0.22536498,0.43164746,0.08858328,0.14824448,0.26365595
46129,0,USSouthDakotaWalworth,South Dakota,Walworth,2021-04-04 04:20:31.641044,2020-04-16 00:00:00.000000,0.23192783,0.37065182,0.67942092,12,20,36,7,12,23,0.13228386,0.22207201,0.42685306,0.08692137,0.14645331,0.25236143
46129,0,USSouthDakotaWalworth,South Dakota,Walworth,2021-04-04 04:20:31.641044,2020-04-17 00:00:00.000000,0.22652240,0.35959062,0.66355845,12,19,36,7,11,22,0.13288250,0.22000415,0.42044937,0.08752594,0.14322646,0.24155522
46129,0,USSouthDakotaWalworth,South Dakota,Walworth,2021-04-04 04:20:31.641044,2020-04-18 00:00:00.000000,0.21866147,0.34840544,0.65172174,11,18,35,7,11,22,0.13370392,0.21553474,0.41307135,0.08482868,0.14016500,0.24108236
46129,0,USSouthDakotaWalworth,South Dakota,Walworth,2021-04-04 04:20:31.641044,2020-04-19 00:00:00.000000,0.21171746,0.33922848,0.62742922,11,18,34,7,11,22,0.13322733,0.20921033,0.40506621,0.08314364,0.13743393,0.23366301
46129,0,USSouthDakotaWalworth,South Dakota,Walworth,2021-04-04 04:20:31.641044,2020-04-20 00:00:00.000000,0.20577053,0.32253450,0.60567032,11,17,32,6,11,21,0.12654132,0.20251995,0.39297298,0.07498584,0.13253599,0.23340248
46129,0,USSouthDakotaWalworth,South Dakota,Walworth,2021-04-04 04:20:31.641044,2020-04-21 00:00:00.000000,0.19812832,0.30920891,0.58299236,10,16,31,6,10,20,0.11980276,0.19804353,0.37720926,0.06684079,0.12686247,0.23325049
46129,0,USSouthDakotaWalworth,South Dakota,Walworth,2021-04-04 04:20:31.641044,2020-04-22 00:00:00.000000,0.18368222,0.30289583,0.57785308,9,16,31,6,10,19,0.11504456,0.19268797,0.36595434,0.06664697,0.12780236,0.23162746
46129,0,USSouthDakotaWalworth,South Dakota,Walworth,2021-04-04 04:20:31.641044,2020-04-23 00:00:00.000000,0.16903937,0.29679256,0.56294249,9,16,30,5,10,19,0.10684066,0.18568600,0.34979833,0.06605046,0.12423316,0.22914088
46129,0,USSouthDakotaWalworth,South Dakota,Walworth,2021-04-04 04:20:31.641044,2020-04-24 00:00:00.000000,0.15523086,0.28836401,0.53707204,8,15,29,5,9,18,0.10069899,0.17911918,0.34113831,0.06570906,0.12223650,0.21567895
46129,0,USSouthDakotaWalworth,South Dakota,Walworth,2021-04-04 04:20:31.641044,2020-04-25 00:00:00.000000,0.14232416,0.27786625,0.51303231,7,15,27,5,9,18,0.09483239,0.17505964,0.33595695,0.06559311,0.12192351,0.22402646
46129,0,USSouthDakotaWalworth,South Dakota,Walworth,2021-04-04 04:20:31.641044,2020-04-26 00:00:00.000000,0.13033368,0.26501286,0.50193553,7,14,27,4,9,17,0.08924921,0.17142896,0.33082570,0.06554634,0.12016530,0.22575464
46129,0,USSouthDakotaWalworth,South Dakota,Walworth,2021-04-04 04:20:31.641044,2020-04-27 00:00:00.000000,0.11969698,0.25370854,0.49874782,6,13,27,4,8,17,0.08354917,0.16364714,0.32690136,0.06229580,0.11407575,0.23009872
46129,0,USSouthDakotaWalworth,South Dakota,Walworth,2021-04-04 04:20:31.641044,2020-04-28 00:00:00.000000,0.11141203,0.24247326,0.49143908,6,13,26,4,8,17,0.07799648,0.15716270,0.32195122,0.06050009,0.11308122,0.23013524
46129,0,USSouthDakotaWalworth,South Dakota,Walworth,2021-04-04 04:20:31.641044,2020-04-29 00:00:00.000000,0.10366458,0.23573635,0.47402670,5,12,25,3,8,17,0.07276674,0.15368795,0.31618893,0.06155935,0.11209353,0.23016610
46129,0,USSouthDakotaWalworth,South Dakota,Walworth,2021-04-04 04:20:31.641044,2020-04-30 00:00:00.000000,0.09642299,0.23112452,0.45710240,5,12,24,3,8,16,0.06785098,0.14900622,0.30984531,0.06098021,0.11174951,0.22668933
46129,0,USSouthDakotaWalworth,South Dakota,Walworth,2021-04-04 04:20:31.641044,2020-05-01 00:00:00.000000,0.08959298,0.22356455,0.44060675,4,12,23,3,7,16,0.06323067,0.14274730,0.30306228,0.05995914,0.10926493,0.21854002
46129,0,USSouthDakotaWalworth,South Dakota,Walworth,2021-04-04 04:20:31.641044,2020-05-02 00:00:00.000000,0.08305297,0.21702989,0.42771623,4,11,23,3,7,16,0.05887562,0.13816255,0.29584008,0.05934481,0.10724891,0.21436718
46129,0,USSouthDakotaWalworth,South Dakota,Walworth,2021-04-04 04:20:31.641044,2020-05-03 00:00:00.000000,0.07676771,0.21044957,0.42092044,4,11,22,2,7,15,0.05435642,0.13341097,0.28808678,0.05594261,0.10580455,0.20672228
46129,0,USSouthDakotaWalworth,South Dakota,Walworth,2021-04-04 04:20:31.641044,2020-05-04 00:00:00.000000,0.07079841,0.20112687,0.41457934,3,10,22,2,6,15,0.04932312,0.12849553,0.27980516,0.05520841,0.10534348,0.20211198
46129,0,USSouthDakotaWalworth,South Dakota,Walworth,2021-04-04 04:20:31.641044,2020-05-05 00:00:00.000000,0.06457431,0.19431349,0.40859468,3,10,22,2,6,14,0.04529224,0.12409782,0.27594250,0.05618317,0.10412352,0.19442941
46129,0,USSouthDakotaWalworth,South Dakota,Walworth,2021-04-04 04:20:31.641044,2020-05-06 00:00:00.000000,0.06003473,0.18493281,0.40254205,3,10,21,2,6,14,0.04227815,0.11965313,0.27348823,0.05747331,0.10316490,0.20180904
46129,0,USSouthDakotaWalworth,South Dakota,Walworth,2021-04-04 04:20:31.641044,2020-05-07 00:00:00.000000,0.05531556,0.17535876,0.39634007,3,9,21,2,6,14,0.03950573,0.11520554,0.27091529,0.05854501,0.10358793,0.19990928
46129,0,USSouthDakotaWalworth,South Dakota,Walworth,2021-04-04 04:20:31.641044,2020-05-08 00:00:00.000000,0.05105782,0.16680218,0.38957380,2,9,21,2,5,14,0.03694744,0.11004638,0.26816711,0.05906544,0.10276789,0.19476770
46129,0,USSouthDakotaWalworth,South Dakota,Walworth,2021-04-04 04:20:31.641044,2020-05-09 00:00:00.000000,0.04722021,0.15867859,0.38190554,2,8,20,1,5,14,0.03415066,0.10473467,0.26495651,0.05527064,0.10174677,0.19217352
46129,0,USSouthDakotaWalworth,South Dakota,Walworth,2021-04-04 04:20:31.641044,2020-05-10 00:00:00.000000,0.04374635,0.15078243,0.37337100,2,8,20,1,5,14,0.03154556,0.09946856,0.26124515,0.05087091,0.10346717,0.18817971
46129,0,USSouthDakotaWalworth,South Dakota,Walworth,2021-04-04 04:20:31.641044,2020-05-11 00:00:00.000000,0.04058057,0.14326918,0.36428908,2,7,19,1,5,13,0.02917302,0.09468509,0.25715101,0.04764839,0.10300790,0.18678496
46129,0,USSouthDakotaWalworth,South Dakota,Walworth,2021-04-04 04:20:31.641044,2020-05-12 00:00:00.000000,0.03767556,0.13598681,0.35588208,2,7,19,1,4,13,0.02701078,0.09019100,0.25278234,0.04695822,0.10094726,0.18390403
46129,0,USSouthDakotaWalworth,South Dakota,Walworth,2021-04-04 04:20:31.641044,2020-05-13 00:00:00.000000,0.03499154,0.12907825,0.34946415,1,7,18,1,4,13,0.02503471,0.08564392,0.24822386,0.04593932,0.09922241,0.18037280
46129,0,USSouthDakotaWalworth,South Dakota,Walworth,2021-04-04 04:20:31.641044,2020-05-14 00:00:00.000000,0.03249393,0.12170738,0.34296802,1,6,18,1,4,13,0.02322134,0.08124358,0.24352244,0.04479189,0.09852206,0.17777675
46129,0,USSouthDakotaWalworth,South Dakota,Walworth,2021-04-04 04:20:31.641044,2020-05-15 00:00:00.000000,0.03015703,0.11489537,0.33379360,1,6,18,1,4,12,0.02154882,0.07703398,0.23765161,0.04385732,0.09863924,0.17862876
46129,0,USSouthDakotaWalworth,South Dakota,Walworth,2021-04-04 04:20:31.641044,2020-05-16 00:00:00.000000,0.02797044,0.10908049,0.32243045,1,5,17,1,3,12,0.01999822,0.07301987,0.23004179,0.04288471,0.09729605,0.17580115
46129,0,USSouthDakotaWalworth,South Dakota,Walworth,2021-04-04 04:20:31.641044,2020-05-17 00:00:00.000000,0.02593346,0.10472423,0.31104340,1,5,16,1,3,12,0.01855573,0.06919850,0.22252136,0.04170513,0.09697556,0.18525903
46129,0,USSouthDakotaWalworth,South Dakota,Walworth,2021-04-04 04:20:31.641044,2020-05-18 00:00:00.000000,0.02403671,0.10065593,0.29956713,1,5,16,0,3,11,0.01721250,0.06554735,0.21505905,0.04042612,0.09765711,0.18599367
46129,0,USSouthDakotaWalworth,South Dakota,Walworth,2021-04-04 04:20:31.641044,2020-05-19 00:00:00.000000,0.02227393,0.09533836,0.28801171,1,5,15,0,3,11,0.01596221,0.06230176,0.20762411,0.03985437,0.09751617,0.18611926
46129,0,USSouthDakotaWalworth,South Dakota,Walworth,2021-04-04 04:20:31.641044,2020-05-20 00:00:00.000000,0.02063730,0.09005254,0.27663132,1,4,15,0,3,10,0.01479932,0.05944077,0.20019277,0.03945549,0.09854100,0.18605259
46129,0,USSouthDakotaWalworth,South Dakota,Walworth,2021-04-04 04:20:31.641044,2020-05-21 00:00:00.000000,0.01911849,0.08501018,0.26707871,1,4,14,0,3,10,0.01371853,0.05673547,0.19276542,0.03905255,0.09741391,0.18565479
46129,0,USSouthDakotaWalworth,South Dakota,Walworth,2021-04-04 04:20:31.641044,2020-05-22 00:00:00.000000,0.01770938,0.08020063,0.25769255,0,4,14,0,2,10,0.01271461,0.05416353,0.18536311,0.04056616,0.09505865,0.18342381
46129,0,USSouthDakotaWalworth,South Dakota,Walworth,2021-04-04 04:20:31.641044,2020-05-23 00:00:00.000000,0.01640272,0.07561805,0.24849428,0,4,13,0,2,9,0.01178244,0.05171212,0.17801990,0.04271217,0.09252299,0.17553586
46129,0,USSouthDakotaWalworth,South Dakota,Walworth,2021-04-04 04:20:31.641044,2020-05-24 00:00:00.000000,0.01518969,0.07172249,0.23951933,0,3,13,0,2,9,0.01091702,0.04936130,0.17077567,0.04332449,0.09206850,0.17305980
46129,0,USSouthDakotaWalworth,South Dakota,Walworth,2021-04-04 04:20:31.641044,2020-05-25 00:00:00.000000,0.01406329,0.06828500,0.23079520,0,3,12,0,2,8,0.01011356,0.04712095,0.16366917,0.04273860,0.09181403,0.18414176
46129,0,USSouthDakotaWalworth,South Dakota,Walworth,2021-04-04 04:20:31.641044,2020-05-26 00:00:00.000000,0.01301721,0.06531051,0.22873944,0,3,12,0,2,8,0.00936756,0.04485438,0.15673175,0.04202427,0.09102752,0.18504358
46129,0,USSouthDakotaWalworth,South Dakota,Walworth,2021-04-04 04:20:31.641044,2020-05-27 00:00:00.000000,0.01204564,0.06265634,0.22175151,0,3,12,0,2,8,0.00867482,0.04254177,0.14998254,0.04169042,0.09186363,0.18343300
46129,0,USSouthDakotaWalworth,South Dakota,Walworth,2021-04-04 04:20:31.641044,2020-05-28 00:00:00.000000,0.01114300,0.06000785,0.21155785,0,3,11,0,2,7,0.00803149,0.04010236,0.14342571,0.04154752,0.08972652,0.18100162
46129,0,USSouthDakotaWalworth,South Dakota,Walworth,2021-04-04 04:20:31.641044,2020-05-29 00:00:00.000000,0.01030422,0.05744427,0.20165584,0,3,10,0,2,7,0.00743393,0.03826134,0.13705450,0.04150407,0.08871095,0.17564906
46129,0,USSouthDakotaWalworth,South Dakota,Walworth,2021-04-04 04:20:31.641044,2020-05-30 00:00:00.000000,0.00952527,0.05492801,0.19204129,0,2,10,0,2,7,0.00687880,0.03698022,0.13086516,0.04154429,0.08906841,0.17062496
46129,0,USSouthDakotaWalworth,South Dakota,Walworth,2021-04-04 04:20:31.641044,2020-05-31 00:00:00.000000,0.00880285,0.05192414,0.18429351,0,2,10,0,1,6,0.00636313,0.03575655,0.12783452,0.04172229,0.08828181,0.17028996
46129,0,USSouthDakotaWalworth,South Dakota,Walworth,2021-04-04 04:20:31.641044,2020-06-01 00:00:00.000000,0.02426208,0.07488377,0.19640910,1,4,10,0,1,6,0.00588437,0.03413887,0.12809172,0.04179562,0.08730593,0.16774309
46129,0,USSouthDakotaWalworth,South Dakota,Walworth,2021-04-04 04:20:31.641044,2020-06-02 00:00:00.000000,0.03527076,0.09838045,0.21403501,1,5,11,0,1,7,0.01018646,0.03553772,0.13001892,0.04217673,0.08718912,0.15638329
46129,0,USSouthDakotaWalworth,South Dakota,Walworth,2021-04-04 04:20:31.641044,2020-06-03 00:00:00.000000,0.05036342,0.12150764,0.25405143,2,6,13,0,2,7,0.01416105,0.04440930,0.13307239,0.04292266,0.08700861,0.15107896
46129,0,USSouthDakotaWalworth,South Dakota,Walworth,2021-04-04 04:20:31.641044,2020-06-04 00:00:00.000000,0.06446413,0.14578361,0.29773525,3,7,16,1,3,7,0.01896786,0.05542495,0.13688517,0.04235352,0.08650095,0.15082594
46129,0,USSouthDakotaWalworth,South Dakota,Walworth,2021-04-04 04:20:31.641044,2020-06-05 00:00:00.000000,0.07370672,0.16111388,0.34750719,4,8,18,1,3,8,0.02633176,0.06648134,0.14938378,0.04204773,0.08633077,0.14968786
46129,0,USSouthDakotaWalworth,South Dakota,Walworth,2021-04-04 04:20:31.641044,2020-06-06 00:00:00.000000,0.07920600,0.18172745,0.39593568,4,9,21,1,4,9,0.03391716,0.07729896,0.17436141,0.04295300,0.08744288,0.14676483
46129,0,USSouthDakotaWalworth,South Dakota,Walworth,2021-04-04 04:20:31.641044,2020-06-07 00:00:00.000000,0.08432408,0.18869133,0.44702466,4,10,24,2,4,10,0.04142320,0.08847829,0.19993906,0.04176349,0.08800449,0.15066654
46129,0,USSouthDakotaWalworth,South Dakota,Walworth,2021-04-04 04:20:31.641044,2020-06-08 00:00:00.000000,0.10211844,0.21813652,0.46488645,5,11,25,2,5,12,0.04865560,0.09907371,0.22526253,0.04133845,0.08609682,0.15262044
46129,0,USSouthDakotaWalworth,South Dakota,Walworth,2021-04-04 04:20:31.641044,2020-06-09 00:00:00.000000,0.11422045,0.24311495,0.47975380,6,13,26,2,5,13,0.05265181,0.10833751,0.25246718,0.04167622,0.08633355,0.15303619
46129,0,USSouthDakotaWalworth,South Dakota,Walworth,2021-04-04 04:20:31.641044,2020-06-10 00:00:00.000000,0.12297315,0.27394804,0.52292786,6,14,28,3,6,15,0.05739650,0.11855055,0.28044833,0.04166399,0.08748862,0.15294529
46129,0,USSouthDakotaWalworth,South Dakota,Walworth,2021-04-04 04:20:31.641044,2020-06-11 00:00:00.000000,0.13166130,0.28781333,0.56453694,7,15,30,3,7,16,0.06196325,0.13016732,0.29776930,0.04210321,0.08781074,0.15495105
46129,0,USSouthDakotaWalworth,South Dakota,Walworth,2021-04-04 04:20:31.641044,2020-06-12 00:00:00.000000,0.14301124,0.30943523,0.60560246,7,16,32,3,7,16,0.06659980,0.14170610,0.31177908,0.04205155,0.08930541,0.15392253
46129,0,USSouthDakotaWalworth,South Dakota,Walworth,2021-04-04 04:20:31.641044,2020-06-13 00:00:00.000000,0.16065283,0.32520385,0.64552648,8,17,35,3,8,17,0.07120659,0.15859936,0.32442781,0.04303853,0.08910211,0.14872481
46129,0,USSouthDakotaWalworth,South Dakota,Walworth,2021-04-04 04:20:31.641044,2020-06-14 00:00:00.000000,0.16889257,0.33877494,0.68379974,9,18,37,4,9,19,0.07572182,0.17151926,0.35272633,0.04466152,0.08879628,0.15366017
46129,0,USSouthDakotaWalworth,South Dakota,Walworth,2021-04-04 04:20:31.641044,2020-06-15 00:00:00.000000,0.18490190,0.35995871,0.70526813,10,19,38,4,9,21,0.08290272,0.18268213,0.39505043,0.04431541,0.08868276,0.15902104
46129,0,USSouthDakotaWalworth,South Dakota,Walworth,2021-04-04 04:20:31.641044,2020-06-16 00:00:00.000000,0.19195051,0.36389209,0.72506201,10,19,39,4,10,22,0.09085685,0.19245703,0.40799879,0.04417895,0.08864508,0.15873465
46129,0,USSouthDakotaWalworth,South Dakota,Walworth,2021-04-04 04:20:31.641044,2020-06-17 00:00:00.000000,0.20810441,0.38025629,0.74286848,11,20,40,5,10,23,0.09964282,0.20025365,0.42470427,0.04412705,0.08813842,0.15640049
46129,0,USSouthDakotaWalworth,South Dakota,Walworth,2021-04-04 04:20:31.641044,2020-06-18 00:00:00.000000,0.21555970,0.38610537,0.75883948,11,20,41,6,11,24,0.11159136,0.20851902,0.44374561,0.04412451,0.08812562,0.15261809
46129,0,USSouthDakotaWalworth,South Dakota,Walworth,2021-04-04 04:20:31.641044,2020-06-19 00:00:00.000000,0.22107980,0.39432118,0.77279143,12,21,42,6,11,25,0.11471281,0.21782674,0.46413434,0.04437941,0.08713028,0.15694703
46129,0,USSouthDakotaWalworth,South Dakota,Walworth,2021-04-04 04:20:31.641044,2020-06-20 00:00:00.000000,0.22632565,0.40389576,0.80913412,12,21,43,6,12,26,0.11706342,0.22461900,0.48515594,0.04577750,0.08626911,0.15079710
46129,0,USSouthDakotaWalworth,South Dakota,Walworth,2021-04-04 04:20:31.641044,2020-06-21 00:00:00.000000,0.22639051,0.41639805,0.82923895,12,22,45,6,12,27,0.11630973,0.23087315,0.50514582,0.04649933,0.08292075,0.15603722
46129,0,USSouthDakotaWalworth,South Dakota,Walworth,2021-04-04 04:20:31.641044,2020-06-22 00:00:00.000000,0.24320056,0.43801582,0.84626310,13,23,45,6,12,27,0.11663452,0.23642508,0.51379179,0.04626623,0.08324403,0.15613651
46129,0,USSouthDakotaWalworth,South Dakota,Walworth,2021-04-04 04:20:31.641044,2020-06-23 00:00:00.000000,0.25448026,0.45428388,0.84124748,13,24,45,6,13,28,0.12015645,0.24613216,0.51618892,0.04702397,0.08337743,0.15613750
46129,0,USSouthDakotaWalworth,South Dakota,Walworth,2021-04-04 04:20:31.641044,2020-06-24 00:00:00.000000,0.26541641,0.47038123,0.83150217,14,25,45,6,13,27,0.12429832,0.25395533,0.51448967,0.04576321,0.08258874,0.15610290
46129,0,USSouthDakotaWalworth,South Dakota,Walworth,2021-04-04 04:20:31.641044,2020-06-25 00:00:00.000000,0.27598567,0.47982308,0.81906697,14,26,44,7,14,27,0.12982338,0.26617789,0.51020706,0.04629370,0.08332227,0.15596656
46129,0,USSouthDakotaWalworth,South Dakota,Walworth,2021-04-04 04:20:31.641044,2020-06-26 00:00:00.000000,0.28188368,0.49446206,0.80462541,15,26,43,7,14,27,0.13740480,0.27137764,0.50435293,0.04757115,0.08348782,0.15545397
46129,0,USSouthDakotaWalworth,South Dakota,Walworth,2021-04-04 04:20:31.641044,2020-06-27 00:00:00.000000,0.27720737,0.50812665,0.78884261,15,27,42,7,15,27,0.14549469,0.28008836,0.49762420,0.04622418,0.08524364,0.15357491
46129,0,USSouthDakotaWalworth,South Dakota,Walworth,2021-04-04 04:20:31.641044,2020-06-28 00:00:00.000000,0.27449205,0.52707175,0.79018794,14,28,42,8,15,26,0.15184106,0.28208758,0.49049274,0.04586734,0.08520278,0.15086292
46129,0,USSouthDakotaWalworth,South Dakota,Walworth,2021-04-04 04:20:31.641044,2020-06-29 00:00:00.000000,0.29374648,0.52360640,0.78636223,15,28,42,8,15,26,0.14960092,0.29121129,0.49065196,0.04627198,0.08410776,0.15005678
46129,0,USSouthDakotaWalworth,South Dakota,Walworth,2021-04-04 04:20:31.641044,2020-06-30 00:00:00.000000,0.29946778,0.52594112,0.78212598,16,28,42,8,16,27,0.15528271,0.29949523,0.49954477,0.04780663,0.08464921,0.14981214
46129,0,USSouthDakotaWalworth,South Dakota,Walworth,2021-04-04 04:20:31.641044,2020-07-01 00:00:00.000000,0.30766094,0.52555979,0.81602144,16,28,44,8,16,27,0.16358634,0.30568559,0.50589313,0.04882638,0.08549004,0.14559301
46129,0,USSouthDakotaWalworth,South Dakota,Walworth,2021-04-04 04:20:31.641044,2020-07-02 00:00:00.000000,0.31527244,0.52237894,0.85648303,17,28,46,8,16,27,0.16471562,0.30945409,0.51044895,0.05015463,0.08552764,0.14175415
46129,0,USSouthDakotaWalworth,South Dakota,Walworth,2021-04-04 04:20:31.641044,2020-07-03 00:00:00.000000,0.32614291,0.52883961,0.84277095,17,28,45,9,17,27,0.16565143,0.31344232,0.51367357,0.05037026,0.08645152,0.14455117
46129,0,USSouthDakotaWalworth,South Dakota,Walworth,2021-04-04 04:20:31.641044,2020-07-04 00:00:00.000000,0.32658936,0.53360360,0.86092880,17,29,46,9,16,27,0.16895551,0.30951236,0.50686414,0.05045632,0.08731316,0.14786291
46129,0,USSouthDakotaWalworth,South Dakota,Walworth,2021-04-04 04:20:31.641044,2020-07-05 00:00:00.000000,0.32116706,0.53854842,0.88471331,17,29,48,9,16,27,0.17442411,0.30858238,0.50328771,0.05318434,0.08766175,0.14873139
46129,0,USSouthDakotaWalworth,South Dakota,Walworth,2021-04-04 04:20:31.641044,2020-07-06 00:00:00.000000,0.31311009,0.53433396,0.90917985,17,29,49,9,16,28,0.17979763,0.30973513,0.51847275,0.05470171,0.08726952,0.15021705
46129,0,USSouthDakotaWalworth,South Dakota,Walworth,2021-04-04 04:20:31.641044,2020-07-07 00:00:00.000000,0.30540198,0.53579540,0.93346734,16,29,50,10,16,29,0.18495468,0.31273774,0.53420977,0.05473428,0.08844158,0.14771977
46129,0,USSouthDakotaWalworth,South Dakota,Walworth,2021-04-04 04:20:31.641044,2020-07-08 00:00:00.000000,0.30004354,0.54636705,0.95730628,16,29,52,10,17,29,0.18980779,0.31470123,0.54493218,0.05474428,0.08877027,0.14216472
46129,0,USSouthDakotaWalworth,South Dakota,Walworth,2021-04-04 04:20:31.641044,2020-07-09 00:00:00.000000,0.30614094,0.54671732,0.98032603,16,29,53,10,17,29,0.19139187,0.31720218,0.53951576,0.05488013,0.09049804,0.13999265
46129,0,USSouthDakotaWalworth,South Dakota,Walworth,2021-04-04 04:20:31.641044,2020-07-10 00:00:00.000000,0.31173433,0.54573595,1.00191354,16,29,54,10,17,29,0.18712816,0.32316290,0.53519300,0.05700829,0.09123148,0.14626043
46129,0,USSouthDakotaWalworth,South Dakota,Walworth,2021-04-04 04:20:31.641044,2020-07-11 00:00:00.000000,0.29684402,0.54350584,1.00518244,16,29,54,9,17,28,0.18311453,0.32474114,0.53174122,0.05637502,0.09488833,0.14218853
46129,0,USSouthDakotaWalworth,South Dakota,Walworth,2021-04-04 04:20:31.641044,2020-07-12 00:00:00.000000,0.28315110,0.54361368,1.00360054,15,29,54,9,17,29,0.17950816,0.32102514,0.53616570,0.05611580,0.09642395,0.14014547
46129,0,USSouthDakotaWalworth,South Dakota,Walworth,2021-04-04 04:20:31.641044,2020-07-13 00:00:00.000000,0.26255413,0.52354916,0.96315912,14,28,52,9,17,29,0.17638616,0.32343301,0.54711984,0.05531827,0.09727335,0.14499400
46129,0,USSouthDakotaWalworth,South Dakota,Walworth,2021-04-04 04:20:31.641044,2020-07-14 00:00:00.000000,0.24628362,0.50367216,0.92241652,13,27,50,9,17,29,0.17076385,0.32292468,0.55037047,0.05534456,0.09930780,0.14921066
46129,0,USSouthDakotaWalworth,South Dakota,Walworth,2021-04-04 04:20:31.641044,2020-07-15 00:00:00.000000,0.23228502,0.48401623,0.88215664,12,26,47,8,17,29,0.16372237,0.31899478,0.54764830,0.05536583,0.09947847,0.15104447
46129,0,USSouthDakotaWalworth,South Dakota,Walworth,2021-04-04 04:20:31.641044,2020-07-16 00:00:00.000000,0.21886171,0.46908230,0.85461146,11,25,46,8,16,29,0.15601796,0.31246939,0.54041232,0.05540373,0.10266821,0.15410387
46129,0,USSouthDakotaWalworth,South Dakota,Walworth,2021-04-04 04:20:31.641044,2020-07-17 00:00:00.000000,0.20610613,0.45610559,0.82673896,11,24,44,8,16,28,0.14807092,0.30337306,0.52429412,0.05550756,0.10569249,0.15763164
46129,0,USSouthDakotaWalworth,South Dakota,Walworth,2021-04-04 04:20:31.641044,2020-07-18 00:00:00.000000,0.19412803,0.43791299,0.79864762,10,23,43,7,15,27,0.14016103,0.29117202,0.50370336,0.05584114,0.10514974,0.15893972
46129,0,USSouthDakotaWalworth,South Dakota,Walworth,2021-04-04 04:20:31.641044,2020-07-19 00:00:00.000000,0.18297729,0.41813819,0.77019128,9,22,41,7,15,26,0.13247492,0.28046247,0.49020048,0.05687280,0.10737660,0.16472751
46129,0,USSouthDakotaWalworth,South Dakota,Walworth,2021-04-04 04:20:31.641044,2020-07-20 00:00:00.000000,0.17264233,0.39299292,0.74145105,9,21,40,6,14,25,0.12513103,0.26849182,0.47685270,0.05816974,0.10859632,0.16550132
46129,0,USSouthDakotaWalworth,South Dakota,Walworth,2021-04-04 04:20:31.641044,2020-07-21 00:00:00.000000,0.16307230,0.37577606,0.71292415,8,20,38,6,13,25,0.11740756,0.25669074,0.46262170,0.05909105,0.10912225,0.16579099
46129,0,USSouthDakotaWalworth,South Dakota,Walworth,2021-04-04 04:20:31.641044,2020-07-22 00:00:00.000000,0.15404676,0.36685549,0.68670811,8,19,37,5,13,24,0.10975839,0.24661779,0.44780412,0.05995606,0.11010564,0.16910943
46129,0,USSouthDakotaWalworth,South Dakota,Walworth,2021-04-04 04:20:31.641044,2020-07-23 00:00:00.000000,0.14398656,0.35798624,0.67412849,7,19,36,5,12,23,0.10261113,0.23352602,0.43268783,0.06293193,0.11142093,0.17177505
46129,0,USSouthDakotaWalworth,South Dakota,Walworth,2021-04-04 04:20:31.641044,2020-07-24 00:00:00.000000,0.13461267,0.34311908,0.66141465,7,18,35,5,12,22,0.09593364,0.22320489,0.42298754,0.06506634,0.11170754,0.17994816
46129,0,USSouthDakotaWalworth,South Dakota,Walworth,2021-04-04 04:20:31.641044,2020-07-25 00:00:00.000000,0.12587739,0.32886354,0.62958668,6,17,34,4,11,22,0.08969544,0.21171344,0.40726989,0.06762345,0.11524012,0.18537303
46129,0,USSouthDakotaWalworth,South Dakota,Walworth,2021-04-04 04:20:31.641044,2020-07-26 00:00:00.000000,0.11780234,0.31220733,0.61394606,6,16,33,4,10,21,0.08387207,0.20103295,0.39142784,0.06935517,0.11592084,0.19586364
46129,0,USSouthDakotaWalworth,South Dakota,Walworth,2021-04-04 04:20:31.641044,2020-07-27 00:00:00.000000,0.11048716,0.29635275,0.59472062,6,16,32,4,10,20,0.07845489,0.19119405,0.38315856,0.07284999,0.11616216,0.19832150
46129,0,USSouthDakotaWalworth,South Dakota,Walworth,2021-04-04 04:20:31.641044,2020-07-28 00:00:00.000000,0.10336076,0.28734459,0.59080573,5,15,32,3,9,19,0.07346407,0.18291005,0.36504946,0.07667816,0.11692562,0.20535116
46129,0,USSouthDakotaWalworth,South Dakota,Walworth,2021-04-04 04:20:31.641044,2020-07-29 00:00:00.000000,0.09587546,0.28244091,0.58972143,5,15,32,3,9,19,0.06876719,0.17772832,0.35825826,0.08115932,0.11877427,0.21847774
46129,0,USSouthDakotaWalworth,South Dakota,Walworth,2021-04-04 04:20:31.641044,2020-07-30 00:00:00.000000,0.08894936,0.27062306,0.58858848,4,14,31,3,9,19,0.06379645,0.16967116,0.35765454,0.08333380,0.12505802,0.21997355
46129,0,USSouthDakotaWalworth,South Dakota,Walworth,2021-04-04 04:20:31.641044,2020-07-31 00:00:00.000000,0.08254375,0.26692130,0.58457017,4,14,31,3,8,19,0.05919265,0.16424640,0.35608781,0.08459256,0.12829055,0.22170571
46129,0,USSouthDakotaWalworth,South Dakota,Walworth,2021-04-04 04:20:31.641044,2020-08-01 00:00:00.000000,0.07663116,0.26630598,0.57612236,4,14,31,2,8,19,0.05492929,0.16060436,0.35039702,0.08647584,0.13362207,0.22363252
46129,0,USSouthDakotaWalworth,South Dakota,Walworth,2021-04-04 04:20:31.641044,2020-08-02 00:00:00.000000,0.07119489,0.26640288,0.57477070,3,14,31,2,8,18,0.05098500,0.15797318,0.34497417,0.09041942,0.13836907,0.23150115
46129,0,USSouthDakotaWalworth,South Dakota,Walworth,2021-04-04 04:20:31.641044,2020-08-03 00:00:00.000000,0.10286155,0.29926361,0.61226404,5,16,33,2,8,18,0.04734386,0.15740281,0.33976489,0.09428415,0.14434783,0.24314557
46129,0,USSouthDakotaWalworth,South Dakota,Walworth,2021-04-04 04:20:31.641044,2020-08-04 00:00:00.000000,0.13691050,0.33454875,0.64701156,7,18,35,2,8,19,0.05420736,0.16282874,0.35957485,0.09542876,0.14950825,0.24555055
46129,0,USSouthDakotaWalworth,South Dakota,Walworth,2021-04-04 04:20:31.641044,2020-08-05 00:00:00.000000,0.15071471,0.37002813,0.68383598,8,20,37,3,9,19,0.06706093,0.17526180,0.36796999,0.09549208,0.15355378,0.25653675
46129,0,USSouthDakotaWalworth,South Dakota,Walworth,2021-04-04 04:20:31.641044,2020-08-06 00:00:00.000000,0.16845959,0.40653374,0.75465123,9,22,41,4,10,20,0.07432553,0.19312397,0.37798817,0.09959811,0.15721355,0.28037715
46129,0,USSouthDakotaWalworth,South Dakota,Walworth,2021-04-04 04:20:31.641044,2020-08-07 00:00:00.000000,0.18902209,0.43814766,0.84335859,10,23,45,4,11,22,0.08534922,0.21376293,0.41314951,0.10501996,0.16250609,0.28744471
46129,0,USSouthDakotaWalworth,South Dakota,Walworth,2021-04-04 04:20:31.641044,2020-08-08 00:00:00.000000,0.20339495,0.46982815,0.93318692,11,25,50,5,12,24,0.09766992,0.23360916,0.45432208,0.10541494,0.16638730,0.30053663
46129,0,USSouthDakotaWalworth,South Dakota,Walworth,2021-04-04 04:20:31.641044,2020-08-09 00:00:00.000000,0.21810384,0.50376353,1.05116759,11,27,57,5,13,27,0.10605511,0.25102754,0.51217850,0.11233154,0.17158805,0.30779136
46129,0,USSouthDakotaWalworth,South Dakota,Walworth,2021-04-04 04:20:31.641044,2020-08-10 00:00:00.000000,0.33795848,0.58465877,1.17536279,18,31,63,6,14,30,0.11328037,0.27163421,0.56588519,0.11401249,0.17915586,0.30893562
46129,0,USSouthDakotaWalworth,South Dakota,Walworth,2021-04-04 04:20:31.641044,2020-08-11 00:00:00.000000,0.36982576,0.66603535,1.23807411,20,36,67,8,16,34,0.14745431,0.29877948,0.62950387,0.11671012,0.18139643,0.30909173
46129,0,USSouthDakotaWalworth,South Dakota,Walworth,2021-04-04 04:20:31.641044,2020-08-12 00:00:00.000000,0.43660351,0.76185874,1.32608046,23,41,72,10,18,38,0.18505281,0.34273856,0.69942223,0.12264450,0.18479800,0.30904118
46129,0,USSouthDakotaWalworth,South Dakota,Walworth,2021-04-04 04:20:31.641044,2020-08-13 00:00:00.000000,0.50301959,0.89300745,1.44903063,27,48,78,11,20,40,0.21456201,0.36868729,0.74192809,0.12780620,0.18723908,0.30877732
46129,0,USSouthDakotaWalworth,South Dakota,Walworth,2021-04-04 04:20:31.641044,2020-08-14 00:00:00.000000,0.56341752,0.96772648,1.58328067,30,52,86,13,23,42,0.24407352,0.42352068,0.77805008,0.12976864,0.19637923,0.32720496
46129,0,USSouthDakotaWalworth,South Dakota,Walworth,2021-04-04 04:20:31.641044,2020-08-15 00:00:00.000000,0.61727107,1.05243104,1.77729012,33,57,96,14,25,46,0.27121834,0.46257036,0.85121062,0.13674670,0.19484409,0.33036309
46129,0,USSouthDakotaWalworth,South Dakota,Walworth,2021-04-04 04:20:31.641044,2020-08-16 00:00:00.000000,0.65834929,1.14461151,1.91281883,35,62,103,16,28,51,0.29943691,0.52128559,0.94742905,0.13981820,0.19949458,0.34040153
46129,0,USSouthDakotaWalworth,South Dakota,Walworth,2021-04-04 04:20:31.641044,2020-08-17 00:00:00.000000,0.74052451,1.21449124,1.96556827,40,66,106,17,31,56,0.32844775,0.57892744,1.03227761,0.13926235,0.20522393,0.34558593
46129,0,USSouthDakotaWalworth,South Dakota,Walworth,2021-04-04 04:20:31.641044,2020-08-18 00:00:00.000000,0.82270103,1.29510577,2.02583744,44,70,110,19,34,59,0.36790403,0.63947792,1.08586160,0.14081735,0.20748854,0.34925169
46129,0,USSouthDakotaWalworth,South Dakota,Walworth,2021-04-04 04:20:31.641044,2020-08-19 00:00:00.000000,0.90568873,1.37775637,2.08436966,49,74,113,21,36,62,0.40267003,0.67905700,1.15094724,0.14680669,0.21644691,0.35070636
46129,0,USSouthDakotaWalworth,South Dakota,Walworth,2021-04-04 04:20:31.641044,2020-08-20 00:00:00.000000,0.98046933,1.46032113,2.14196445,53,79,116,23,38,65,0.42722655,0.71332586,1.20678136,0.14622410,0.22169308,0.37256033
46129,0,USSouthDakotaWalworth,South Dakota,Walworth,2021-04-04 04:20:31.641044,2020-08-21 00:00:00.000000,1.01791496,1.57754254,2.19946402,55,85,119,24,41,67,0.45512814,0.75962266,1.23991545,0.14528505,0.22260399,0.37035036
46129,0,USSouthDakotaWalworth,South Dakota,Walworth,2021-04-04 04:20:31.641044,2020-08-22 00:00:00.000000,1.05605122,1.67671735,2.27414778,57,91,123,26,44,70,0.48786430,0.82643698,1.28976219,0.14471784,0.22695218,0.35976173
46129,0,USSouthDakotaWalworth,South Dakota,Walworth,2021-04-04 04:20:31.641044,2020-08-23 00:00:00.000000,1.09470342,1.75399581,2.36501958,59,95,128,28,47,72,0.52486253,0.87852071,1.33453815,0.14454700,0.22794255,0.35182335
46129,0,USSouthDakotaWalworth,South Dakota,Walworth,2021-04-04 04:20:31.641044,2020-08-24 00:00:00.000000,1.19493798,1.83608090,2.46469517,64,99,133,30,50,75,0.56543486,0.92678878,1.38901477,0.15395499,0.23469273,0.35060224
46129,0,USSouthDakotaWalworth,South Dakota,Walworth,2021-04-04 04:20:31.641044,2020-08-25 00:00:00.000000,1.23841843,1.91313140,2.58927386,67,103,140,32,53,78,0.60600127,0.97716250,1.45228979,0.15976492,0.23841594,0.34967183
46129,0,USSouthDakotaWalworth,South Dakota,Walworth,2021-04-04 04:20:31.641044,2020-08-26 00:00:00.000000,1.32794941,1.97848004,2.70126600,72,107,146,34,55,81,0.63046719,1.01886312,1.49444799,0.17088668,0.24144580,0.34663193
46129,0,USSouthDakotaWalworth,South Dakota,Walworth,2021-04-04 04:20:31.641044,2020-08-27 00:00:00.000000,1.36912369,2.05250269,2.81254231,74,111,152,36,57,84,0.67916928,1.05733067,1.54944121,0.17246142,0.25053281,0.33988412
46129,0,USSouthDakotaWalworth,South Dakota,Walworth,2021-04-04 04:20:31.641044,2020-08-28 00:00:00.000000,1.40955116,2.12938995,2.92724358,76,115,159,39,59,86,0.72365759,1.10176980,1.59530622,0.17636147,0.25782729,0.33924865
46129,0,USSouthDakotaWalworth,South Dakota,Walworth,2021-04-04 04:20:31.641044,2020-08-29 00:00:00.000000,1.44781310,2.19005915,3.04808234,78,119,165,40,63,89,0.75117549,1.16381119,1.63992333,0.18509688,0.26497556,0.34026424
46129,0,USSouthDakotaWalworth,South Dakota,Walworth,2021-04-04 04:20:31.641044,2020-08-30 00:00:00.000000,1.48369103,2.25459543,3.20223979,80,122,174,42,66,91,0.77941805,1.21826808,1.68323710,0.18943900,0.26620772,0.34738318
46129,0,USSouthDakotaWalworth,South Dakota,Walworth,2021-04-04 04:20:31.641044,2020-08-31 00:00:00.000000,1.58056101,2.34420477,3.34129185,85,127,181,43,69,93,0.80631306,1.27909529,1.72538467,0.19014218,0.26634620,0.36641292
46129,0,USSouthDakotaWalworth,South Dakota,Walworth,2021-04-04 04:20:31.641044,2020-09-01 00:00:00.000000,1.64514550,2.44854784,3.51853752,89,133,191,45,72,95,0.84468794,1.32735207,1.76137890,0.20005575,0.27355472,0.37051385
46129,0,USSouthDakotaWalworth,South Dakota,Walworth,2021-04-04 04:20:31.641044,2020-09-02 00:00:00.000000,1.71334733,2.53592471,3.65658166,93,137,198,48,74,97,0.88549672,1.37194975,1.79487470,0.20368945,0.27618910,0.37165576
46129,0,USSouthDakotaWalworth,South Dakota,Walworth,2021-04-04 04:20:31.641044,2020-09-03 00:00:00.000000,1.78437376,2.63526288,3.80255618,96,143,206,50,76,102,0.92774423,1.40603810,1.88743604,0.20451934,0.27681567,0.37322642
46129,0,USSouthDakotaWalworth,South Dakota,Walworth,2021-04-04 04:20:31.641044,2020-09-04 00:00:00.000000,1.85805810,2.71355032,3.96914736,100,147,215,52,79,108,0.97086661,1.45838290,1.98971102,0.21552678,0.28355635,0.38407367
46129,0,USSouthDakotaWalworth,South Dakota,Walworth,2021-04-04 04:20:31.641044,2020-09-05 00:00:00.000000,1.93486134,2.80128805,4.13889169,105,152,224,55,82,113,1.01347338,1.51643945,2.09506761,0.21745788,0.30393230,0.39434293
46129,0,USSouthDakotaWalworth,South Dakota,Walworth,2021-04-04 04:20:31.641044,2020-09-06 00:00:00.000000,2.01596854,2.90154531,4.31152765,109,157,234,56,85,119,1.04574529,1.57674826,2.20299590,0.22002659,0.30575172,0.39158999
46129,0,USSouthDakotaWalworth,South Dakota,Walworth,2021-04-04 04:20:31.641044,2020-09-07 00:00:00.000000,2.08820129,3.00033219,4.46640069,113,163,242,59,88,125,1.08686896,1.63240294,2.31200951,0.22250809,0.31164850,0.40237652
46129,0,USSouthDakotaWalworth,South Dakota,Walworth,2021-04-04 04:20:31.641044,2020-09-08 00:00:00.000000,2.15252233,3.13108920,4.62457843,116,170,251,61,91,131,1.12475990,1.67458088,2.42153346,0.22409828,0.32200848,0.42562585
46129,0,USSouthDakotaWalworth,South Dakota,Walworth,2021-04-04 04:20:31.641044,2020-09-09 00:00:00.000000,2.21445019,3.26057487,4.75492275,120,177,258,63,93,138,1.16087286,1.72324713,2.55704671,0.23422627,0.32836345,0.44144879
46129,0,USSouthDakotaWalworth,South Dakota,Walworth,2021-04-04 04:20:31.641044,2020-09-10 00:00:00.000000,2.26484723,3.40096371,4.87409475,123,184,264,65,96,147,1.19609152,1.76739013,2.70493483,0.23527577,0.33016131,0.45429383
46129,0,USSouthDakotaWalworth,South Dakota,Walworth,2021-04-04 04:20:31.641044,2020-09-11 00:00:00.000000,2.32501729,3.56688063,5.06374238,126,193,275,66,100,155,1.23101434,1.84798238,2.85937001,0.23815990,0.33103001,0.45759646
46129,0,USSouthDakotaWalworth,South Dakota,Walworth,2021-04-04 04:20:31.641044,2020-09-12 00:00:00.000000,2.39294473,3.73763447,5.29185324,130,203,287,68,105,164,1.26624595,1.94087429,3.01996618,0.25245443,0.33484066,0.45796440
46129,0,USSouthDakotaWalworth,South Dakota,Walworth,2021-04-04 04:20:31.641044,2020-09-13 00:00:00.000000,2.47551847,3.88109430,5.56066379,134,210,302,71,110,171,1.31280105,2.03531665,3.16272011,0.26078413,0.33643581,0.46633745
46129,0,USSouthDakotaWalworth,South Dakota,Walworth,2021-04-04 04:20:31.641044,2020-09-14 00:00:00.000000,2.59481616,4.10171621,5.82289679,141,222,316,75,117,177,1.39065862,2.15416422,3.27191586,0.26635886,0.34012386,0.47668093
46129,0,USSouthDakotaWalworth,South Dakota,Walworth,2021-04-04 04:20:31.641044,2020-09-15 00:00:00.000000,2.74339129,4.34381859,6.12703339,149,236,333,80,122,184,1.47647932,2.25719342,3.38616674,0.26639191,0.34602247,0.47820683
46129,0,USSouthDakotaWalworth,South Dakota,Walworth,2021-04-04 04:20:31.641044,2020-09-16 00:00:00.000000,2.90318226,4.57973047,6.43901445,157,248,349,83,128,190,1.54199047,2.35870704,3.50222243,0.26539481,0.35151030,0.47818581
46129,0,USSouthDakotaWalworth,South Dakota,Walworth,2021-04-04 04:20:31.641044,2020-09-17 00:00:00.000000,3.06904615,4.81398178,6.75773806,166,261,367,86,134,197,1.59744890,2.47941124,3.62738181,0.26356142,0.35293911,0.47769457
46129,0,USSouthDakotaWalworth,South Dakota,Walworth,2021-04-04 04:20:31.641044,2020-09-18 00:00:00.000000,3.24164394,5.06534472,7.07812626,176,275,384,89,141,206,1.65548409,2.59555315,3.80851285,0.26339195,0.35458389,0.47011340
46129,0,USSouthDakotaWalworth,South Dakota,Walworth,2021-04-04 04:20:31.641044,2020-09-19 00:00:00.000000,3.42029103,5.28999773,7.36204796,185,287,400,93,148,217,1.71804302,2.72966152,3.99431283,0.25900271,0.35385586,0.47942911
46129,0,USSouthDakotaWalworth,South Dakota,Walworth,2021-04-04 04:20:31.641044,2020-09-20 00:00:00.000000,3.60499044,5.49829976,7.59118255,195,298,412,97,155,226,1.79081460,2.86090919,4.17421599,0.26526405,0.35532995,0.47330742
46129,0,USSouthDakotaWalworth,South Dakota,Walworth,2021-04-04 04:20:31.641044,2020-09-21 00:00:00.000000,3.77887307,5.75545693,7.92637691,205,312,430,102,163,235,1.88675417,3.01208573,4.34031384,0.25332747,0.35221009,0.47360294
46129,0,USSouthDakotaWalworth,South Dakota,Walworth,2021-04-04 04:20:31.641044,2020-09-22 00:00:00.000000,3.95938363,6.03579986,8.18642922,215,328,444,107,171,244,1.98325961,3.15347322,4.49913413,0.25279313,0.35094499,0.47352906
46129,0,USSouthDakotaWalworth,South Dakota,Walworth,2021-04-04 04:20:31.641044,2020-09-23 00:00:00.000000,4.14686612,6.25731644,8.44384915,225,340,458,113,178,252,2.08254562,3.28793676,4.64180708,0.25322893,0.35044659,0.47304984
46129,0,USSouthDakotaWalworth,South Dakota,Walworth,2021-04-04 04:20:31.641044,2020-09-24 00:00:00.000000,4.22850328,6.51787203,8.69792693,229,354,472,118,184,260,2.18469574,3.39713206,4.79337178,0.25640665,0.34782998,0.47101934
46129,0,USSouthDakotaWalworth,South Dakota,Walworth,2021-04-04 04:20:31.641044,2020-09-25 00:00:00.000000,4.30458143,6.76324883,8.94546450,233,367,486,124,191,269,2.29076551,3.52229967,4.95774564,0.25404505,0.34737679,0.46524946
46129,0,USSouthDakotaWalworth,South Dakota,Walworth,2021-04-04 04:20:31.641044,2020-09-26 00:00:00.000000,4.55074829,6.98055474,9.32840218,247,379,506,130,198,278,2.40271265,3.65561997,5.13314149,0.25399998,0.34132859,0.45558496
46129,0,USSouthDakotaWalworth,South Dakota,Walworth,2021-04-04 04:20:31.641044,2020-09-27 00:00:00.000000,4.73055770,7.18258133,9.73018527,257,390,528,137,207,288,2.52368326,3.81319568,5.31736766,0.25467223,0.33913521,0.44759182
46129,0,USSouthDakotaWalworth,South Dakota,Walworth,2021-04-04 04:20:31.641044,2020-09-28 00:00:00.000000,4.85792094,7.33100103,10.08140163,264,398,547,143,216,299,2.63255627,3.97861169,5.50931024,0.25112187,0.33396839,0.45919519
46129,0,USSouthDakotaWalworth,South Dakota,Walworth,2021-04-04 04:20:31.641044,2020-09-29 00:00:00.000000,5.03091503,7.64513829,10.43674975,273,415,567,148,226,309,2.72927465,4.16062608,5.69614056,0.25055921,0.33605558,0.46607412
46129,0,USSouthDakotaWalworth,South Dakota,Walworth,2021-04-04 04:20:31.641044,2020-09-30 00:00:00.000000,5.18389464,7.86738853,10.79163498,281,427,586,152,232,317,2.81134893,4.28013354,5.84250085,0.25120698,0.33977686,0.46906580
46129,0,USSouthDakotaWalworth,South Dakota,Walworth,2021-04-04 04:20:31.641044,2020-10-01 00:00:00.000000,5.27385907,8.10985058,11.14573657,286,440,605,156,240,325,2.88494641,4.42103607,5.98375457,0.25278610,0.34290711,0.47068617
46129,0,USSouthDakotaWalworth,South Dakota,Walworth,2021-04-04 04:20:31.641044,2020-10-02 00:00:00.000000,5.46900212,8.31185454,11.49278677,297,451,624,160,247,332,2.95365590,4.54778066,6.11975716,0.25344137,0.34429915,0.47251286
46129,0,USSouthDakotaWalworth,South Dakota,Walworth,2021-04-04 04:20:31.641044,2020-10-03 00:00:00.000000,5.72399460,8.53646914,11.81499625,311,463,642,164,252,341,3.01969110,4.65161586,6.27731933,0.25173708,0.34217938,0.47111166
46129,0,USSouthDakotaWalworth,South Dakota,Walworth,2021-04-04 04:20:31.641044,2020-10-04 00:00:00.000000,5.90751647,8.71016334,12.08660068,321,473,656,169,260,353,3.11180094,4.78389325,6.50302920,0.24983314,0.33571600,0.46239568
46129,0,USSouthDakotaWalworth,South Dakota,Walworth,2021-04-04 04:20:31.641044,2020-10-05 00:00:00.000000,6.04569399,8.89241598,12.26002554,328,483,666,175,266,360,3.22616677,4.90338176,6.62514163,0.24176505,0.32643353,0.45583357
46129,0,USSouthDakotaWalworth,South Dakota,Walworth,2021-04-04 04:20:31.641044,2020-10-06 00:00:00.000000,6.30354744,9.07728509,12.40727414,342,493,674,182,272,369,3.36525096,5.00510757,6.80113389,0.23452758,0.31987052,0.44272314
46129,0,USSouthDakotaWalworth,South Dakota,Walworth,2021-04-04 04:20:31.641044,2020-10-07 00:00:00.000000,6.61308392,9.25893531,12.53095885,359,503,681,191,277,382,3.52116430,5.10965641,7.03436405,0.23322223,0.31836942,0.43246914
46129,0,USSouthDakotaWalworth,South Dakota,Walworth,2021-04-04 04:20:31.641044,2020-10-08 00:00:00.000000,6.92330121,9.41633334,12.59544232,376,511,684,200,283,395,3.68853610,5.20866347,7.27373652,0.22253508,0.31625717,0.42582540
46129,0,USSouthDakotaWalworth,South Dakota,Walworth,2021-04-04 04:20:31.641044,2020-10-09 00:00:00.000000,7.23291909,9.60173897,12.80751169,393,521,696,209,289,407,3.86327734,5.32248590,7.50626291,0.20976208,0.31051772,0.41309354
46129,0,USSouthDakotaWalworth,South Dakota,Walworth,2021-04-04 04:20:31.641044,2020-10-10 00:00:00.000000,7.42353506,9.77669391,12.79638407,403,531,695,215,296,419,3.95734349,5.44765262,7.72195311,0.20084542,0.30249042,0.39505592
46129,0,USSouthDakotaWalworth,South Dakota,Walworth,2021-04-04 04:20:31.641044,2020-10-11 00:00:00.000000,7.55781627,9.81327460,12.63423978,410,533,686,219,300,428,4.04632878,5.52567214,7.88697094,0.19923898,0.28282380,0.38040325
46129,0,USSouthDakotaWalworth,South Dakota,Walworth,2021-04-04 04:20:31.641044,2020-10-12 00:00:00.000000,7.61657818,9.76057454,12.75926964,413,530,693,224,304,434,4.13024602,5.60376082,7.99231758,0.19733953,0.26583682,0.35959387
46129,0,USSouthDakotaWalworth,South Dakota,Walworth,2021-04-04 04:20:31.641044,2020-10-13 00:00:00.000000,7.62983018,9.73163944,12.52294636,414,528,680,224,305,435,4.12915126,5.62089814,8.00881758,0.19424539,0.25354789,0.34001419
46129,0,USSouthDakotaWalworth,South Dakota,Walworth,2021-04-04 04:20:31.641044,2020-10-14 00:00:00.000000,7.60558846,9.69666224,12.37610719,413,527,672,226,307,432,4.16489124,5.65798226,7.95926536,0.19199195,0.24521461,0.32677178
46129,0,USSouthDakotaWalworth,South Dakota,Walworth,2021-04-04 04:20:31.641044,2020-10-15 00:00:00.000000,7.55301705,9.59434551,12.31116967,410,521,669,225,306,427,4.15496647,5.64224958,7.86445640,0.18533336,0.24051681,0.32012603
46129,0,USSouthDakotaWalworth,South Dakota,Walworth,2021-04-04 04:20:31.641044,2020-10-16 00:00:00.000000,7.48585606,9.50664176,12.23443120,406,516,664,224,303,428,4.13435883,5.58784855,7.87604785,0.18179427,0.23135389,0.32335693
46129,0,USSouthDakotaWalworth,South Dakota,Walworth,2021-04-04 04:20:31.641044,2020-10-17 00:00:00.000000,7.37558008,9.40431190,12.14402309,400,511,660,223,303,428,4.11245537,5.58191804,7.87570532,0.17436640,0.23047937,0.32392706
46129,0,USSouthDakotaWalworth,South Dakota,Walworth,2021-04-04 04:20:31.641044,2020-10-18 00:00:00.000000,7.15949380,9.32717227,12.03672557,389,506,654,222,303,427,4.10173717,5.58148199,7.86547940,0.16772837,0.22636883,0.32315783
46129,0,USSouthDakotaWalworth,South Dakota,Walworth,2021-04-04 04:20:31.641044,2020-10-19 00:00:00.000000,6.95461052,9.19683124,11.95891621,377,499,649,222,302,423,4.09696262,5.56889938,7.78345986,0.16517306,0.22598626,0.32699527
46129,0,USSouthDakotaWalworth,South Dakota,Walworth,2021-04-04 04:20:31.641044,2020-10-20 00:00:00.000000,6.80226208,9.05736616,11.87029725,369,492,645,221,298,415,4.08027799,5.49748451,7.65182139,0.16286943,0.22672904,0.33193924
46129,0,USSouthDakotaWalworth,South Dakota,Walworth,2021-04-04 04:20:31.641044,2020-10-21 00:00:00.000000,6.67616333,8.94371712,11.78377545,362,486,640,220,291,408,4.05464824,5.36213732,7.52020805,0.16158069,0.23165129,0.33913659
46129,0,USSouthDakotaWalworth,South Dakota,Walworth,2021-04-04 04:20:31.641044,2020-10-22 00:00:00.000000,6.54898668,8.79509651,11.68781020,355,478,635,215,283,405,3.97296020,5.22410205,7.46379633,0.16093702,0.23610297,0.34984949
46129,0,USSouthDakotaWalworth,South Dakota,Walworth,2021-04-04 04:20:31.641044,2020-10-23 00:00:00.000000,6.42165850,8.66836636,11.59989111,349,471,630,211,279,402,3.89030850,5.14210592,7.39806340,0.16079984,0.24306283,0.36434105
46129,0,USSouthDakotaWalworth,South Dakota,Walworth,2021-04-04 04:20:31.641044,2020-10-24 00:00:00.000000,6.29524149,8.54585791,11.70899227,342,464,636,206,277,398,3.80815384,5.11256436,7.32571041,0.16206119,0.25041193,0.38166797
46129,0,USSouthDakotaWalworth,South Dakota,Walworth,2021-04-04 04:20:31.641044,2020-10-25 00:00:00.000000,6.17180528,8.43307510,11.82389890,335,458,642,202,276,393,3.72985347,5.08991904,7.24897390,0.16997331,0.25864997,0.39224626
46129,0,USSouthDakotaWalworth,South Dakota,Walworth,2021-04-04 04:20:31.641044,2020-10-26 00:00:00.000000,6.09448123,8.42563843,11.91398480,331,457,647,198,272,389,3.66101307,5.01761426,7.17239864,0.17920008,0.27118333,0.40163589
46129,0,USSouthDakotaWalworth,South Dakota,Walworth,2021-04-04 04:20:31.641044,2020-10-27 00:00:00.000000,6.05575717,8.31603104,11.99900476,329,451,652,195,268,386,3.60311583,4.94392093,7.10660030,0.18307004,0.28444579,0.41105452
46129,0,USSouthDakotaWalworth,South Dakota,Walworth,2021-04-04 04:20:31.641044,2020-10-28 00:00:00.000000,6.07661925,8.32037678,12.08262883,330,452,656,194,267,383,3.58593973,4.91660640,7.05140104,0.18789647,0.29864050,0.43009906
46129,0,USSouthDakotaWalworth,South Dakota,Walworth,2021-04-04 04:20:31.641044,2020-10-29 00:00:00.000000,6.07426079,8.39909585,12.18130560,330,456,662,195,266,381,3.58811143,4.89943986,7.02335718,0.19442186,0.31551221,0.43636606
46129,0,USSouthDakotaWalworth,South Dakota,Walworth,2021-04-04 04:20:31.641044,2020-10-30 00:00:00.000000,6.04195259,8.43345584,12.12641209,328,458,659,193,266,381,3.55107080,4.90226306,7.01445509,0.19946261,0.33283295,0.46417728
46129,0,USSouthDakotaWalworth,South Dakota,Walworth,2021-04-04 04:20:31.641044,2020-10-31 00:00:00.000000,6.03888570,8.62057017,12.04921258,328,468,654,191,267,380,3.51763293,4.92696859,7.00538054,0.23122487,0.35339473,0.47710932
46129,0,USSouthDakotaWalworth,South Dakota,Walworth,2021-04-04 04:20:31.641044,2020-11-01 00:00:00.000000,6.08484882,8.83493623,12.02557376,330,480,653,189,268,383,3.48662115,4.94657074,7.04950383,0.26245156,0.37140041,0.55306268
46129,0,USSouthDakotaWalworth,South Dakota,Walworth,2021-04-04 04:20:31.641044,2020-11-02 00:00:00.000000,6.20979775,8.92683280,12.01817979,337,485,653,187,271,386,3.45880045,4.98759739,7.11777559,0.27846771,0.38158766,0.56640893
46129,0,USSouthDakotaWalworth,South Dakota,Walworth,2021-04-04 04:20:31.641044,2020-11-03 00:00:00.000000,6.36829246,9.07768498,12.20525873,346,493,663,187,275,392,3.45849392,5.06131948,7.21976913,0.30018722,0.40417005,0.57465092
46129,0,USSouthDakotaWalworth,South Dakota,Walworth,2021-04-04 04:20:31.641044,2020-11-04 00:00:00.000000,6.54349201,9.34892951,12.49316706,355,508,679,191,278,400,3.52664989,5.13012879,7.36358418,0.31984497,0.42485878,0.58243224
46129,0,USSouthDakotaWalworth,South Dakota,Walworth,2021-04-04 04:20:31.641044,2020-11-05 00:00:00.000000,6.73847033,9.63040759,12.78289820,366,523,694,196,285,409,3.61477676,5.25246935,7.53219943,0.32601303,0.43957908,0.58567652
46129,0,USSouthDakotaWalworth,South Dakota,Walworth,2021-04-04 04:20:31.641044,2020-11-06 00:00:00.000000,6.97228330,9.99075417,13.07510927,378,542,710,202,291,418,3.71671589,5.36944144,7.69454560,0.33588273,0.45234968,0.59011511
46129,0,USSouthDakotaWalworth,South Dakota,Walworth,2021-04-04 04:20:31.641044,2020-11-07 00:00:00.000000,7.25897871,10.24732614,13.36616346,394,556,726,208,298,426,3.82914160,5.48687030,7.84468082,0.33576868,0.46089165,0.60690757
46129,0,USSouthDakotaWalworth,South Dakota,Walworth,2021-04-04 04:20:31.641044,2020-11-08 00:00:00.000000,7.55378304,10.46385547,13.65169563,410,568,741,214,305,434,3.95233229,5.61230883,7.99355858,0.33483541,0.47844549,0.61196284
46129,0,USSouthDakotaWalworth,South Dakota,Walworth,2021-04-04 04:20:31.641044,2020-11-09 00:00:00.000000,7.79138477,10.75911649,13.99027507,423,584,760,220,312,442,4.05692787,5.74897100,8.13941334,0.33459779,0.48349155,0.61375600
46129,0,USSouthDakotaWalworth,South Dakota,Walworth,2021-04-04 04:20:31.641044,2020-11-10 00:00:00.000000,8.02707802,11.00902474,14.34723249,436,598,779,223,321,451,4.11304957,5.92311321,8.30167494,0.33334001,0.48390675,0.60954282
46129,0,USSouthDakotaWalworth,South Dakota,Walworth,2021-04-04 04:20:31.641044,2020-11-11 00:00:00.000000,8.26371668,11.26683374,14.65869286,449,612,796,226,332,460,4.17325938,6.10893597,8.47242200,0.32651347,0.48019489,0.62736840
46129,0,USSouthDakotaWalworth,South Dakota,Walworth,2021-04-04 04:20:31.641044,2020-11-12 00:00:00.000000,8.50687128,11.56402092,14.91876248,462,628,810,230,338,469,4.23691660,6.22310873,8.64616207,0.32069906,0.48008496,0.63596137
46129,0,USSouthDakotaWalworth,South Dakota,Walworth,2021-04-04 04:20:31.641044,2020-11-13 00:00:00.000000,8.64732068,11.83785696,15.12755460,469,643,822,233,345,479,4.30251998,6.36455556,8.81916699,0.31904492,0.46977991,0.61521715
46129,0,USSouthDakotaWalworth,South Dakota,Walworth,2021-04-04 04:20:31.641044,2020-11-14 00:00:00.000000,8.76487090,12.11483523,15.28887403,476,658,830,243,353,483,4.47735859,6.51067077,8.89766245,0.31872611,0.46694341,0.61524110
46129,0,USSouthDakotaWalworth,South Dakota,Walworth,2021-04-04 04:20:31.641044,2020-11-15 00:00:00.000000,8.87470005,12.25629263,15.40783401,482,666,837,251,363,486,4.63196381,6.68110360,8.95555064,0.31861376,0.46464644,0.61543567
46129,0,USSouthDakotaWalworth,South Dakota,Walworth,2021-04-04 04:20:31.641044,2020-11-16 00:00:00.000000,8.96953375,12.43399040,15.55159958,487,675,845,255,372,498,4.69527520,6.85187525,9.17321331,0.32419482,0.45819549,0.61548896
46129,0,USSouthDakotaWalworth,South Dakota,Walworth,2021-04-04 04:20:31.641044,2020-11-17 00:00:00.000000,9.09152624,12.54348610,15.82256561,494,681,859,258,377,510,4.75291355,6.94647434,9.39926472,0.31800062,0.46226773,0.61551502
46129,0,USSouthDakotaWalworth,South Dakota,Walworth,2021-04-04 04:20:31.641044,2020-11-18 00:00:00.000000,9.26999001,12.71466015,16.17937188,503,691,879,261,381,515,4.80467306,7.02168745,9.48576157,0.31896786,0.45962277,0.61556967
46129,0,USSouthDakotaWalworth,South Dakota,Walworth,2021-04-04 04:20:31.641044,2020-11-19 00:00:00.000000,9.28300559,12.77054921,16.33018973,504,694,887,268,387,515,4.93122791,7.13294510,9.48874666,0.31598162,0.45144538,0.61580147
46129,0,USSouthDakotaWalworth,South Dakota,Walworth,2021-04-04 04:20:31.641044,2020-11-20 00:00:00.000000,9.26807530,12.84276408,16.15117481,503,698,877,274,392,513,5.04631990,7.22375239,9.44401670,0.31277199,0.44791523,0.61685653
46129,0,USSouthDakotaWalworth,South Dakota,Walworth,2021-04-04 04:20:31.641044,2020-11-21 00:00:00.000000,9.31469832,12.80139804,16.17717323,506,695,879,274,396,519,5.04504627,7.29396776,9.55788430,0.29221020,0.44079992,0.61540509
46129,0,USSouthDakotaWalworth,South Dakota,Walworth,2021-04-04 04:20:31.641044,2020-11-22 00:00:00.000000,9.28261630,12.70196463,16.25159816,504,690,883,273,399,529,5.03809945,7.34240273,9.74349876,0.28928960,0.43363837,0.60677712
46129,0,USSouthDakotaWalworth,South Dakota,Walworth,2021-04-04 04:20:31.641044,2020-11-23 00:00:00.000000,9.29426068,12.67073043,16.18000212,505,688,879,273,400,538,5.02559868,7.36054277,9.91038549,0.28697098,0.42105410,0.60880541
46129,0,USSouthDakotaWalworth,South Dakota,Walworth,2021-04-04 04:20:31.641044,2020-11-24 00:00:00.000000,9.29328697,12.56931431,16.00263188,505,683,869,272,398,546,5.01984705,7.33498178,10.05298847,0.27504055,0.42027280,0.60977296
46129,0,USSouthDakotaWalworth,South Dakota,Walworth,2021-04-04 04:20:31.641044,2020-11-25 00:00:00.000000,9.27740812,12.44824090,15.80728683,504,676,859,272,397,551,5.01952774,7.31977060,10.14950638,0.26375100,0.41574365,0.60960569
46129,0,USSouthDakotaWalworth,South Dakota,Walworth,2021-04-04 04:20:31.641044,2020-11-26 00:00:00.000000,9.25059328,12.34464325,15.69497346,502,670,853,273,396,554,5.02365730,7.28622589,10.20254019,0.25835677,0.41015585,0.60322063
46129,0,USSouthDakotaWalworth,South Dakota,Walworth,2021-04-04 04:20:31.641044,2020-11-27 00:00:00.000000,9.12680947,12.20949949,15.56003442,496,663,845,273,392,555,5.02848017,7.22856719,10.22111025,0.25621825,0.40554914,0.57051293
46129,0,USSouthDakotaWalworth,South Dakota,Walworth,2021-04-04 04:20:31.641044,2020-11-28 00:00:00.000000,8.93085260,12.04619792,15.40741284,485,654,837,270,389,554,4.97661758,7.16563736,10.21127137,0.25242899,0.39294593,0.53368442
46129,0,USSouthDakotaWalworth,South Dakota,Walworth,2021-04-04 04:20:31.641044,2020-11-29 00:00:00.000000,8.71113120,11.81843495,15.24194886,473,642,828,267,385,552,4.92235602,7.08810731,10.17408702,0.25634165,0.38171517,0.49590963
46129,0,USSouthDakotaWalworth,South Dakota,Walworth,2021-04-04 04:20:31.641044,2020-11-30 00:00:00.000000,8.47878728,11.54807893,15.04357509,460,627,817,263,382,549,4.84334166,7.02866445,10.10583539,0.25518781,0.36475011,0.48737549
46129,0,USSouthDakotaWalworth,South Dakota,Walworth,2021-04-04 04:20:31.641044,2020-12-01 00:00:00.000000,8.21704561,11.27917610,14.83497025,446,613,806,257,376,542,4.74428267,6.93528599,9.98708464,0.24863376,0.35539178,0.48692114
46129,0,USSouthDakotaWalworth,South Dakota,Walworth,2021-04-04 04:20:31.641044,2020-12-02 00:00:00.000000,7.94508677,11.02869086,14.61247966,431,599,794,251,371,534,4.63031923,6.83084894,9.82956738,0.24136761,0.35375440,0.48464946
46129,0,USSouthDakotaWalworth,South Dakota,Walworth,2021-04-04 04:20:31.641044,2020-12-03 00:00:00.000000,7.68472287,10.72659532,14.37012865,417,582,781,244,363,524,4.50515096,6.69339163,9.64314531,0.23842614,0.35253283,0.48236969
46129,0,USSouthDakotaWalworth,South Dakota,Walworth,2021-04-04 04:20:31.641044,2020-12-04 00:00:00.000000,7.37110746,10.41429838,14.09699462,400,566,766,237,356,512,4.37060713,6.55669758,9.43519055,0.23136531,0.35183944,0.48694040
46129,0,USSouthDakotaWalworth,South Dakota,Walworth,2021-04-04 04:20:31.641044,2020-12-05 00:00:00.000000,7.10461198,10.10709497,13.71159005,386,549,745,229,350,500,4.22759702,6.44140497,9.21125494,0.23141893,0.34749697,0.48944773
46129,0,USSouthDakotaWalworth,South Dakota,Walworth,2021-04-04 04:20:31.641044,2020-12-06 00:00:00.000000,6.84454173,9.83793697,13.36783007,372,534,726,223,342,495,4.11523924,6.29750395,9.11063124,0.23325153,0.34294772,0.50399321
46129,0,USSouthDakotaWalworth,South Dakota,Walworth,2021-04-04 04:20:31.641044,2020-12-07 00:00:00.000000,6.59828029,9.51412460,13.09034513,358,517,711,217,333,489,4.00932202,6.13754751,9.00588299,0.22966142,0.33869461,0.51136848
46129,0,USSouthDakotaWalworth,South Dakota,Walworth,2021-04-04 04:20:31.641044,2020-12-08 00:00:00.000000,6.33740058,9.26422527,12.70672094,344,503,690,212,324,476,3.90303405,5.97930553,8.76509590,0.22728937,0.34002886,0.51541575
46129,0,USSouthDakotaWalworth,South Dakota,Walworth,2021-04-04 04:20:31.641044,2020-12-09 00:00:00.000000,6.11483437,8.96720388,12.39800327,332,487,673,206,315,460,3.79401755,5.81063827,8.46767782,0.22443826,0.34113043,0.51841453
46129,0,USSouthDakotaWalworth,South Dakota,Walworth,2021-04-04 04:20:31.641044,2020-12-10 00:00:00.000000,5.91361553,8.63755472,12.13329825,321,469,659,199,304,446,3.67948333,5.60277639,8.22282808,0.22436279,0.34589865,0.51519119
46129,0,USSouthDakotaWalworth,South Dakota,Walworth,2021-04-04 04:20:31.641044,2020-12-11 00:00:00.000000,5.70725433,8.33192636,11.80842865,310,452,641,193,295,436,3.55702463,5.43595015,8.02676686,0.22442189,0.34796414,0.52958297
46129,0,USSouthDakotaWalworth,South Dakota,Walworth,2021-04-04 04:20:31.641044,2020-12-12 00:00:00.000000,5.51320413,8.06838940,11.48646761,299,438,624,186,286,425,3.42614577,5.26342217,7.82876571,0.21679267,0.35920537,0.54525185
46129,0,USSouthDakotaWalworth,South Dakota,Walworth,2021-04-04 04:20:31.641044,2020-12-13 00:00:00.000000,5.33063304,7.79411027,11.16813714,289,423,606,178,276,414,3.28869955,5.09513542,7.62986106,0.22532970,0.36990117,0.56505992
46129,0,USSouthDakotaWalworth,South Dakota,Walworth,2021-04-04 04:20:31.641044,2020-12-14 00:00:00.000000,5.10878025,7.56469374,10.79390634,277,411,586,171,268,403,3.14776540,4.94032593,7.43090135,0.22775594,0.37787881,0.62700927
46129,0,USSouthDakotaWalworth,South Dakota,Walworth,2021-04-04 04:20:31.641044,2020-12-15 00:00:00.000000,4.89518816,7.40289060,10.42354914,266,402,566,164,260,392,3.02859279,4.78550678,7.22021699,0.23245618,0.38091817,0.61563406
46129,0,USSouthDakotaWalworth,South Dakota,Walworth,2021-04-04 04:20:31.641044,2020-12-16 00:00:00.000000,4.68770500,7.26867453,10.05695755,254,395,546,158,251,380,2.91753170,4.63534597,7.00220879,0.23287333,0.38505347,0.61384657
46129,0,USSouthDakotaWalworth,South Dakota,Walworth,2021-04-04 04:20:31.641044,2020-12-17 00:00:00.000000,4.50115552,7.13496603,9.69647184,244,387,527,152,244,368,2.80061555,4.49768140,6.78014074,0.23361456,0.39051257,0.62937938
46129,0,USSouthDakotaWalworth,South Dakota,Walworth,2021-04-04 04:20:31.641044,2020-12-18 00:00:00.000000,4.37101977,6.96363048,9.34566880,237,378,507,146,237,357,2.70297600,4.36642438,6.56983985,0.23478945,0.40065445,0.63919604
46129,0,USSouthDakotaWalworth,South Dakota,Walworth,2021-04-04 04:20:31.641044,2020-12-19 00:00:00.000000,4.25767432,6.81832877,9.15709882,231,370,497,142,230,349,2.62791847,4.24944328,6.43788469,0.24123738,0.40618392,0.65084519
46129,0,USSouthDakotaWalworth,South Dakota,Walworth,2021-04-04 04:20:31.641044,2020-12-20 00:00:00.000000,4.16844088,6.67069036,9.05698919,226,362,492,139,227,343,2.57428711,4.18374890,6.32830075,0.24525738,0.42396826,0.69625066
46129,0,USSouthDakotaWalworth,South Dakota,Walworth,2021-04-04 04:20:31.641044,2020-12-21 00:00:00.000000,4.14115698,6.51510885,9.02200672,225,354,490,137,222,338,2.53581445,4.08504381,6.23376116,0.24891309,0.44758131,0.71703578
46129,0,USSouthDakotaWalworth,South Dakota,Walworth,2021-04-04 04:20:31.641044,2020-12-22 00:00:00.000000,4.13613810,6.41777812,8.99583675,224,348,488,135,215,333,2.49227637,3.95971965,6.12991482,0.25411833,0.45529953,0.75634952
46129,0,USSouthDakotaWalworth,South Dakota,Walworth,2021-04-04 04:20:31.641044,2020-12-23 00:00:00.000000,4.10535012,6.33337337,8.96856217,223,344,487,133,209,327,2.46084376,3.85826372,6.01914093,0.25941554,0.46920575,0.77481261
46129,0,USSouthDakotaWalworth,South Dakota,Walworth,2021-04-04 04:20:31.641044,2020-12-24 00:00:00.000000,4.07299963,6.20239125,8.93753481,221,337,485,132,204,320,2.44041904,3.76870778,5.90274444,0.26783775,0.47759255,0.81447547
46129,0,USSouthDakotaWalworth,South Dakota,Walworth,2021-04-04 04:20:31.641044,2020-12-25 00:00:00.000000,4.07182979,6.10108190,8.90339139,221,331,483,129,201,314,2.37781193,3.70008132,5.78128348,0.27238713,0.49644430,0.80802422
46129,0,USSouthDakotaWalworth,South Dakota,Walworth,2021-04-04 04:20:31.641044,2020-12-26 00:00:00.000000,4.07248737,5.95904215,8.86864077,221,323,482,126,197,307,2.32821050,3.64214344,5.65502011,0.28217009,0.50947854,0.82571475
46129,0,USSouthDakotaWalworth,South Dakota,Walworth,2021-04-04 04:20:31.641044,2020-12-27 00:00:00.000000,3.99697019,5.89205997,8.83458488,217,320,480,124,194,300,2.28867727,3.57676996,5.52442470,0.28321406,0.51585576,0.87989578
46129,0,USSouthDakotaWalworth,South Dakota,Walworth,2021-04-04 04:20:31.641044,2020-12-28 00:00:00.000000,3.95660228,5.86258718,8.68504239,215,318,472,122,191,292,2.25548882,3.52426280,5.39039128,0.28355725,0.50744909,0.87903537
46129,0,USSouthDakotaWalworth,South Dakota,Walworth,2021-04-04 04:20:31.641044,2020-12-29 00:00:00.000000,3.89676868,5.77290858,8.53448541,211,313,463,120,190,287,2.21758481,3.51388344,5.28299071,0.28368463,0.50319157,0.85319284
46129,0,USSouthDakotaWalworth,South Dakota,Walworth,2021-04-04 04:20:31.641044,2020-12-30 00:00:00.000000,3.79565628,5.74968234,8.37908629,206,312,455,118,188,282,2.17650094,3.47269275,5.19317727,0.28451739,0.50582590,0.82674771
46129,0,USSouthDakotaWalworth,South Dakota,Walworth,2021-04-04 04:20:31.641044,2020-12-31 00:00:00.000000,3.71939273,5.74732060,8.21850344,202,312,446,117,187,279,2.16230976,3.44297258,5.14422772,0.28362395,0.50614203,0.79968485
46129,0,USSouthDakotaWalworth,South Dakota,Walworth,2021-04-04 04:20:31.641044,2021-01-01 00:00:00.000000,3.62968934,5.73604597,8.05294002,197,311,437,115,184,279,2.12512736,3.39947191,5.13770810,0.28336690,0.51017142,0.77943079
46129,0,USSouthDakotaWalworth,South Dakota,Walworth,2021-04-04 04:20:31.641044,2021-01-02 00:00:00.000000,3.59817479,5.68831013,7.88316154,195,309,428,114,184,276,2.10674889,3.39804114,5.08985602,0.28312263,0.50994981,0.77832081
46129,0,USSouthDakotaWalworth,South Dakota,Walworth,2021-04-04 04:20:31.641044,2021-01-03 00:00:00.000000,3.53729531,5.64321684,7.71019022,192,306,419,114,182,272,2.10867678,3.35012622,5.01324995,0.28354975,0.50543429,0.77596065
46129,0,USSouthDakotaWalworth,South Dakota,Walworth,2021-04-04 04:20:31.641044,2021-01-04 00:00:00.000000,3.49969351,5.49600598,7.50714636,190,298,408,114,180,268,2.10790510,3.32068069,4.94048878,0.27441262,0.50093503,0.77544588
46129,0,USSouthDakotaWalworth,South Dakota,Walworth,2021-04-04 04:20:31.641044,2021-01-05 00:00:00.000000,3.45182107,5.37075540,7.27019841,187,291,395,113,177,264,2.08685161,3.26409845,4.86205421,0.26208284,0.50391706,0.77540781
46129,0,USSouthDakotaWalworth,South Dakota,Walworth,2021-04-04 04:20:31.641044,2021-01-06 00:00:00.000000,3.37003574,5.29305907,7.08837268,183,287,385,111,173,259,2.05118256,3.19146174,4.77932362,0.26169236,0.50363268,0.77422045
46129,0,USSouthDakotaWalworth,South Dakota,Walworth,2021-04-04 04:20:31.641044,2021-01-07 00:00:00.000000,3.28605593,5.15082580,6.93190656,178,279,376,108,169,255,2.00510912,3.12043634,4.69328324,0.26200186,0.50271116,0.76613095
46129,0,USSouthDakotaWalworth,South Dakota,Walworth,2021-04-04 04:20:31.641044,2021-01-08 00:00:00.000000,3.20058386,5.02188296,6.77701046,173,272,368,106,166,250,1.95186513,3.06081896,4.60488904,0.26230147,0.49102191,0.75110102
46129,0,USSouthDakotaWalworth,South Dakota,Walworth,2021-04-04 04:20:31.641044,2021-01-09 00:00:00.000000,3.14893608,4.90834439,6.63423776,171,266,360,102,161,245,1.89384993,2.96998308,4.51538041,0.26371323,0.48251017,0.74253201
46129,0,USSouthDakotaWalworth,South Dakota,Walworth,2021-04-04 04:20:31.641044,2021-01-10 00:00:00.000000,3.11907132,4.76050990,6.45870356,169,258,351,100,157,240,1.84612496,2.90519944,4.42641686,0.26715739,0.47267736,0.72542020
46129,0,USSouthDakotaWalworth,South Dakota,Walworth,2021-04-04 04:20:31.641044,2021-01-11 00:00:00.000000,3.01676013,4.59756609,6.26910295,163,249,340,98,153,235,1.80461150,2.83009614,4.33918349,0.24947552,0.45353192,0.73419676
46129,0,USSouthDakotaWalworth,South Dakota,Walworth,2021-04-04 04:20:31.641044,2021-01-12 00:00:00.000000,2.96452863,4.47324035,6.06880195,161,243,329,95,150,230,1.75012795,2.75990847,4.24771712,0.22987942,0.44287840,0.73730120
46129,0,USSouthDakotaWalworth,South Dakota,Walworth,2021-04-04 04:20:31.641044,2021-01-13 00:00:00.000000,2.91232392,4.37033611,5.86914755,158,237,318,91,145,225,1.68807475,2.67067544,4.15287437,0.22233282,0.44660538,0.73706881
46129,0,USSouthDakotaWalworth,South Dakota,Walworth,2021-04-04 04:20:31.641044,2021-01-14 00:00:00.000000,2.81640439,4.21274148,5.67382181,153,228,308,88,141,220,1.62296797,2.60308658,4.05543918,0.21995762,0.43857248,0.72643581
46129,0,USSouthDakotaWalworth,South Dakota,Walworth,2021-04-04 04:20:31.641044,2021-01-15 00:00:00.000000,2.69465134,4.06923622,5.48418939,146,221,298,86,138,215,1.59393374,2.55209807,3.95608194,0.21057709,0.42405264,0.73135968
46129,0,USSouthDakotaWalworth,South Dakota,Walworth,2021-04-04 04:20:31.641044,2021-01-16 00:00:00.000000,2.56957975,3.94451648,5.30345292,139,214,288,83,135,209,1.53116784,2.49912925,3.85536969,0.20982546,0.40621345,0.73831657
46129,0,USSouthDakotaWalworth,South Dakota,Walworth,2021-04-04 04:20:31.641044,2021-01-17 00:00:00.000000,2.44360637,3.82200061,5.20178549,132,207,282,79,132,204,1.45929911,2.43122958,3.75378471,0.20587147,0.39782417,0.74734997
46129,0,USSouthDakotaWalworth,South Dakota,Walworth,2021-04-04 04:20:31.641044,2021-01-18 00:00:00.000000,2.30310431,3.69453585,4.97571313,125,200,270,75,128,198,1.39026202,2.37154718,3.65153012,0.20465322,0.39291467,0.75540357
46129,0,USSouthDakotaWalworth,South Dakota,Walworth,2021-04-04 04:20:31.641044,2021-01-19 00:00:00.000000,2.16731969,3.56366656,4.86775601,117,193,264,71,125,193,1.32253504,2.31540484,3.55829238,0.19073381,0.38126813,0.74255025
46129,0,USSouthDakotaWalworth,South Dakota,Walworth,2021-04-04 04:20:31.641044,2021-01-20 00:00:00.000000,2.03740632,3.43994008,4.78772839,110,186,260,68,122,188,1.25714266,2.25746059,3.47098737,0.18360845,0.37372329,0.72684217
46129,0,USSouthDakotaWalworth,South Dakota,Walworth,2021-04-04 04:20:31.641044,2021-01-21 00:00:00.000000,1.91452794,3.34430088,4.70273857,104,181,255,64,118,184,1.19465790,2.17303105,3.38723035,0.16435922,0.37288276,0.71877735
46129,0,USSouthDakotaWalworth,South Dakota,Walworth,2021-04-04 04:20:31.641044,2021-01-22 00:00:00.000000,1.79915707,3.21317435,4.61463033,97,174,250,61,112,178,1.13536645,2.07148838,3.29257121,0.15453117,0.37018952,0.69003822
46129,0,USSouthDakotaWalworth,South Dakota,Walworth,2021-04-04 04:20:31.641044,2021-01-23 00:00:00.000000,1.69122169,3.07736645,4.52579517,91,167,245,58,108,171,1.07937223,1.99741784,3.15815291,0.15037980,0.35988413,0.67084290
46129,0,USSouthDakotaWalworth,South Dakota,Walworth,2021-04-04 04:20:31.641044,2021-01-24 00:00:00.000000,1.59124572,2.95580983,4.43772764,86,160,241,55,104,164,1.02666485,1.91611169,3.02458915,0.14677667,0.35686798,0.66338948
46129,0,USSouthDakotaWalworth,South Dakota,Walworth,2021-04-04 04:20:31.641044,2021-01-25 00:00:00.000000,1.53270427,2.85121636,4.32183304,83,154,234,53,100,157,0.97716154,1.84536217,2.89292621,0.14396170,0.35552502,0.66089759
46129,0,USSouthDakotaWalworth,South Dakota,Walworth,2021-04-04 04:20:31.641044,2021-01-26 00:00:00.000000,1.54218886,2.77004248,4.20776577,83,150,228,51,96,150,0.95191951,1.77823267,2.76923350,0.14206355,0.35191023,0.66012043
46129,0,USSouthDakotaWalworth,South Dakota,Walworth,2021-04-04 04:20:31.641044,2021-01-27 00:00:00.000000,1.55706362,2.67915820,4.09573854,84,145,222,51,93,144,0.94181151,1.71457181,2.65252594,0.14088372,0.35062723,0.66433363
46129,0,USSouthDakotaWalworth,South Dakota,Walworth,2021-04-04 04:20:31.641044,2021-01-28 00:00:00.000000,1.53844629,2.57770575,3.98760809,83,140,216,51,89,138,0.94097201,1.64198661,2.54225838,0.14005325,0.34440825,0.68495812
46129,0,USSouthDakotaWalworth,South Dakota,Walworth,2021-04-04 04:20:31.641044,2021-01-29 00:00:00.000000,1.44703108,2.46273795,3.88401901,78,133,211,50,85,132,0.93718307,1.57575276,2.43808598,0.13906548,0.33375010,0.69935407
46129,0,USSouthDakotaWalworth,South Dakota,Walworth,2021-04-04 04:20:31.641044,2021-01-30 00:00:00.000000,1.36181667,2.36184697,3.78332009,74,128,205,47,81,127,0.88273772,1.50866142,2.33978476,0.13768428,0.32901655,0.70981404
46129,0,USSouthDakotaWalworth,South Dakota,Walworth,2021-04-04 04:20:31.641044,2021-01-31 00:00:00.000000,1.28227753,2.24469769,3.68514772,69,121,200,45,78,122,0.83118234,1.44976932,2.24726224,0.13750468,0.32247826,0.71734653
46129,0,USSouthDakotaWalworth,South Dakota,Walworth,2021-04-04 04:20:31.641044,2021-02-01 00:00:00.000000,1.21433669,2.16665264,3.57952552,65,117,194,42,76,117,0.78267383,1.40094409,2.16055985,0.14542263,0.31484087,0.72261823
46129,0,USSouthDakotaWalworth,South Dakota,Walworth,2021-04-04 04:20:31.641044,2021-02-02 00:00:00.000000,1.16697537,2.09224739,3.47641968,63,113,188,40,73,113,0.73874101,1.34686941,2.08981358,0.13783338,0.30704185,0.72618622
46129,0,USSouthDakotaWalworth,South Dakota,Walworth,2021-04-04 04:20:31.641044,2021-02-03 00:00:00.000000,1.17493535,2.01992402,3.37563094,63,109,183,37,70,110,0.69856992,1.29838875,2.02792777,0.13613042,0.30851257,0.72847864
46129,0,USSouthDakotaWalworth,South Dakota,Walworth,2021-04-04 04:20:31.641044,2021-02-04 00:00:00.000000,1.14770307,1.96169938,3.27670151,62,106,178,35,68,106,0.66171868,1.26021138,1.96599321,0.13626245,0.31529205,0.72965224
46129,0,USSouthDakotaWalworth,South Dakota,Walworth,2021-04-04 04:20:31.641044,2021-02-05 00:00:00.000000,1.07894411,1.89360145,3.17945362,58,102,172,35,65,103,0.65851404,1.20728299,1.91184772,0.13660734,0.31328609,0.72890743
46129,0,USSouthDakotaWalworth,South Dakota,Walworth,2021-04-04 04:20:31.641044,2021-02-06 00:00:00.000000,1.01506208,1.82920748,3.08149594,55,99,167,33,62,101,0.62188631,1.15824481,1.87233325,0.13719145,0.30759291,0.72260822
46129,0,USSouthDakotaWalworth,South Dakota,Walworth,2021-04-04 04:20:31.641044,2021-02-07 00:00:00.000000,0.95613235,1.75534054,2.97917221,51,95,161,31,60,99,0.57984295,1.11372621,1.83589636,0.13784030,0.30332258,0.71813152
46129,0,USSouthDakotaWalworth,South Dakota,Walworth,2021-04-04 04:20:31.641044,2021-02-08 00:00:00.000000,0.95249237,1.69865159,2.87912241,51,92,156,29,59,97,0.54023877,1.08884205,1.80177086,0.13832603,0.30002600,0.71007756
46129,0,USSouthDakotaWalworth,South Dakota,Walworth,2021-04-04 04:20:31.641044,2021-02-09 00:00:00.000000,0.97454995,1.64941655,2.77848096,52,89,151,29,57,95,0.53559994,1.05747888,1.75899704,0.14245586,0.30157367,0.70245765
46129,0,USSouthDakotaWalworth,South Dakota,Walworth,2021-04-04 04:20:31.641044,2021-02-10 00:00:00.000000,0.93566237,1.59628532,2.68095763,50,86,145,29,55,92,0.54826072,1.01967912,1.71029337,0.14639039,0.30276154,0.70228034
46129,0,USSouthDakotaWalworth,South Dakota,Walworth,2021-04-04 04:20:31.641044,2021-02-11 00:00:00.000000,0.89739301,1.53078394,2.58742078,48,83,140,29,54,90,0.54738425,0.99474989,1.65774282,0.14458999,0.30722937,0.70228816
46129,0,USSouthDakotaWalworth,South Dakota,Walworth,2021-04-04 04:20:31.641044,2021-02-12 00:00:00.000000,0.86365778,1.51443040,2.49853076,46,82,135,29,52,87,0.54097414,0.95813590,1.60293264,0.14813662,0.31434201,0.70230282
46129,0,USSouthDakotaWalworth,South Dakota,Walworth,2021-04-04 04:20:31.641044,2021-02-13 00:00:00.000000,0.83485479,1.51393377,2.41471262,45,82,131,29,50,84,0.53720120,0.92442358,1.55548544,0.14745215,0.32569549,0.70246386
46129,0,USSouthDakotaWalworth,South Dakota,Walworth,2021-04-04 04:20:31.641044,2021-02-14 00:00:00.000000,0.81156897,1.48993701,2.33581218,44,80,126,28,48,84,0.52842791,0.90023053,1.55847221,0.14706096,0.33157208,0.70910254
46129,0,USSouthDakotaWalworth,South Dakota,Walworth,2021-04-04 04:20:31.641044,2021-02-15 00:00:00.000000,0.81592664,1.43697104,2.27320726,44,78,123,27,48,84,0.49682397,0.88369453,1.56345407,0.14200770,0.32477191,0.72979452
46129,0,USSouthDakotaWalworth,South Dakota,Walworth,2021-04-04 04:20:31.641044,2021-02-16 00:00:00.000000,0.82231140,1.39783724,2.21461474,44,75,120,25,47,84,0.47542855,0.87577788,1.54928662,0.14002373,0.32777411,0.75355994
46129,0,USSouthDakotaWalworth,South Dakota,Walworth,2021-04-04 04:20:31.641044,2021-02-17 00:00:00.000000,0.83077895,1.36818042,2.15989490,45,74,117,25,47,81,0.46094145,0.86825111,1.50772246,0.13871862,0.32981691,0.85453453
46129,0,USSouthDakotaWalworth,South Dakota,Walworth,2021-04-04 04:20:31.641044,2021-02-18 00:00:00.000000,0.81653331,1.32149121,2.10880491,44,71,114,24,45,79,0.45112741,0.84587006,1.46081352,0.13773801,0.33107774,0.85893643
46129,0,USSouthDakotaWalworth,South Dakota,Walworth,2021-04-04 04:20:31.641044,2021-02-19 00:00:00.000000,0.77721004,1.27425937,2.08992604,42,69,113,24,44,77,0.44446415,0.81219268,1.41700273,0.13556870,0.33195443,0.80821636
46129,0,USSouthDakotaWalworth,South Dakota,Walworth,2021-04-04 04:20:31.641044,2021-02-20 00:00:00.000000,0.74090790,1.24767287,2.08522306,40,67,113,23,43,74,0.43988629,0.79865478,1.37600845,0.13211333,0.33403637,0.81098058
46129,0,USSouthDakotaWalworth,South Dakota,Walworth,2021-04-04 04:20:31.641044,2021-02-21 00:00:00.000000,0.70775836,1.21997763,2.06062514,38,66,111,23,42,72,0.43662717,0.77908334,1.33762560,0.12777425,0.33089400,0.81402984
46129,0,USSouthDakotaWalworth,South Dakota,Walworth,2021-04-04 04:20:31.641044,2021-02-22 00:00:00.000000,0.77152219,1.17611922,2.02301459,41,63,109,23,41,70,0.43419852,0.76477111,1.30167604,0.12632927,0.33341301,0.81467396
46129,0,USSouthDakotaWalworth,South Dakota,Walworth,2021-04-04 04:20:31.641044,2021-02-23 00:00:00.000000,0.80304201,1.19413335,2.06195325,43,64,112,23,40,68,0.43059721,0.74926227,1.26889729,0.12608137,0.33644408,0.79813454
46129,0,USSouthDakotaWalworth,South Dakota,Walworth,2021-04-04 04:20:31.641044,2021-02-24 00:00:00.000000,0.76043265,1.24101722,2.07479813,41,67,112,22,39,68,0.41886286,0.72480173,1.25987110,0.12668248,0.33365598,0.76814963
46129,0,USSouthDakotaWalworth,South Dakota,Walworth,2021-04-04 04:20:31.641044,2021-02-25 00:00:00.000000,0.71627694,1.24499496,2.11282424,38,67,114,22,39,67,0.40975460,0.72389938,1.24233001,0.12750287,0.33170749,0.77284924
46129,0,USSouthDakotaWalworth,South Dakota,Walworth,2021-04-04 04:20:31.641044,2021-02-26 00:00:00.000000,0.67503684,1.25444641,2.15172507,36,68,116,21,39,66,0.40251038,0.73129454,1.21852611,0.12750147,0.33126185,0.77598746
46129,0,USSouthDakotaWalworth,South Dakota,Walworth,2021-04-04 04:20:31.641044,2021-02-27 00:00:00.000000,0.63657857,1.25405678,2.19110264,34,68,119,21,39,64,0.39662400,0.73269842,1.19000410,0.12603021,0.33644023,0.78466727
46129,0,USSouthDakotaWalworth,South Dakota,Walworth,2021-04-04 04:20:31.641044,2021-02-28 00:00:00.000000,0.60070368,1.29591878,2.23141836,32,70,121,21,39,63,0.39176008,0.72469341,1.16716105,0.12332498,0.33349461,0.85352148
46129,0,USSouthDakotaWalworth,South Dakota,Walworth,2021-04-04 04:20:31.641044,2021-03-01 00:00:00.000000,0.60575801,1.27521115,2.21010130,32,69,120,20,39,65,0.37418596,0.71984233,1.20010255,0.12919863,0.33222471,0.85818841
46129,0,USSouthDakotaWalworth,South Dakota,Walworth,2021-04-04 04:20:31.641044,2021-03-02 00:00:00.000000,0.61230270,1.25643037,2.18335632,33,68,118,20,38,66,0.36822364,0.71595754,1.22434338,0.13167030,0.32735326,0.86060345
46129,0,USSouthDakotaWalworth,South Dakota,Walworth,2021-04-04 04:20:31.641044,2021-03-03 00:00:00.000000,0.62183021,1.23353104,2.12452684,33,67,115,19,38,66,0.36073500,0.70344007,1.21536855,0.13356748,0.33245289,0.86395851
46129,0,USSouthDakotaWalworth,South Dakota,Walworth,2021-04-04 04:20:31.641044,2021-03-04 00:00:00.000000,0.63286180,1.20270177,2.06416051,34,65,112,19,37,63,0.35581501,0.69874665,1.17576413,0.13345158,0.33355518,0.86903653
46129,0,USSouthDakotaWalworth,South Dakota,Walworth,2021-04-04 04:20:31.641044,2021-03-05 00:00:00.000000,0.64444436,1.17347276,2.00317777,35,63,108,19,37,61,0.35037206,0.68883954,1.13799832,0.13328421,0.33343790,0.87654984
46129,0,USSouthDakotaWalworth,South Dakota,Walworth,2021-04-04 04:20:31.641044,2021-03-06 00:00:00.000000,0.65596029,1.15429693,1.94207040,35,62,105,18,36,60,0.34459154,0.67780926,1.11197791,0.13132985,0.33119734,0.88698314
46129,0,USSouthDakotaWalworth,South Dakota,Walworth,2021-04-04 04:20:31.641044,2021-03-07 00:00:00.000000,0.66695781,1.13961290,1.88127975,36,61,102,18,36,60,0.33864318,0.67448187,1.12171147,0.12882885,0.33037862,0.90018257
46129,0,USSouthDakotaWalworth,South Dakota,Walworth,2021-04-04 04:20:31.641044,2021-03-08 00:00:00.000000,0.67144457,1.14314091,1.83911359,36,62,99,18,36,61,0.33267646,0.67130492,1.13146457,0.12676204,0.33192829,0.91155030
46129,0,USSouthDakotaWalworth,South Dakota,Walworth,2021-04-04 04:20:31.641044,2021-03-09 00:00:00.000000,0.62908558,1.16173528,1.84041884,34,63,100,18,36,62,0.34350000,0.67966320,1.15633542,0.11896315,0.34855262,0.90260947
46129,0,USSouthDakotaWalworth,South Dakota,Walworth,2021-04-04 04:20:31.641044,2021-03-10 00:00:00.000000,0.58410258,1.20028646,1.91430248,31,65,104,19,37,61,0.36628813,0.68785484,1.13705011,0.11332830,0.35993961,0.89432228
46129,0,USSouthDakotaWalworth,South Dakota,Walworth,2021-04-04 04:20:31.641044,2021-03-11 00:00:00.000000,0.54208162,1.25056394,2.00288594,29,67,108,20,37,60,0.37508792,0.69705989,1.11382889,0.11131060,0.36422490,0.88786389
46129,0,USSouthDakotaWalworth,South Dakota,Walworth,2021-04-04 04:20:31.641044,2021-03-12 00:00:00.000000,0.50335539,1.27788496,2.12135397,27,69,115,19,37,60,0.35058478,0.69446514,1.11560052,0.11095007,0.36866608,0.88640126
46129,0,USSouthDakotaWalworth,South Dakota,Walworth,2021-04-04 04:20:31.641044,2021-03-13 00:00:00.000000,0.46784489,1.28495503,2.13583381,25,69,116,17,38,65,0.32698959,0.70223446,1.20057061,0.11128456,0.38185187,0.91053785
46129,0,USSouthDakotaWalworth,South Dakota,Walworth,2021-04-04 04:20:31.641044,2021-03-14 00:00:00.000000,0.43535436,1.28101363,2.18629965,23,69,118,16,38,69,0.30466158,0.70494382,1.28167747,0.11160322,0.38967098,0.93037509
46129,0,USSouthDakotaWalworth,South Dakota,Walworth,2021-04-04 04:20:31.641044,2021-03-15 00:00:00.000000,0.58161476,1.35406773,2.12641994,31,73,115,15,39,73,0.28383986,0.72541484,1.35765035,0.11175466,0.39682622,0.92026724
46129,0,USSouthDakotaWalworth,South Dakota,Walworth,2021-04-04 04:20:31.641044,2021-03-16 00:00:00.000000,0.73051485,1.37998968,2.10906539,39,75,114,16,40,75,0.30409306,0.73731032,1.38450421,0.11222125,0.40252029,0.91841846
46129,0,USSouthDakotaWalworth,South Dakota,Walworth,2021-04-04 04:20:31.641044,2021-03-17 00:00:00.000000,0.88266056,1.40755082,2.12298834,47,76,115,19,41,75,0.35061922,0.75553957,1.38437629,0.10953946,0.40524910,0.96465759
46129,0,USSouthDakotaWalworth,South Dakota,Walworth,2021-04-04 04:20:31.641044,2021-03-18 00:00:00.000000,0.95866094,1.44311765,2.15292315,52,78,117,22,42,74,0.41292658,0.78139345,1.37040613,0.10814560,0.40980907,0.96760069
46129,0,USSouthDakotaWalworth,South Dakota,Walworth,2021-04-04 04:20:31.641044,2021-03-19 00:00:00.000000,0.99952350,1.50574392,2.17172862,54,81,118,26,43,73,0.48384257,0.80916798,1.34960426,0.10382065,0.41062605,0.97444057
46129,0,USSouthDakotaWalworth,South Dakota,Walworth,2021-04-04 04:20:31.641044,2021-03-20 00:00:00.000000,1.01975336,1.57153954,2.23560647,55,85,121,30,45,71,0.55692642,0.83451758,1.32125165,0.10249006,0.41396729,0.99562082
46129,0,USSouthDakotaWalworth,South Dakota,Walworth,2021-04-04 04:20:31.641044,2021-03-21 00:00:00.000000,1.03917110,1.63097380,2.31007413,56,88,125,31,47,69,0.57698273,0.87598405,1.28101424,0.10239323,0.41493812,1.03300139
46129,0,USSouthDakotaWalworth,South Dakota,Walworth,2021-04-04 04:20:31.641044,2021-03-22 00:00:00.000000,1.07516241,1.62183199,2.24500482,58,88,122,33,49,72,0.61976632,0.90710655,1.33407209,0.10159476,0.41270287,1.10491400
46129,0,USSouthDakotaWalworth,South Dakota,Walworth,2021-04-04 04:20:31.641044,2021-03-23 00:00:00.000000,1.15862833,1.60566752,2.18043739,62,87,118,34,49,71,0.62939675,0.90643807,1.30881796,0.10075025,0.41296129,1.12378070
46129,0,USSouthDakotaWalworth,South Dakota,Walworth,2021-04-04 04:20:31.641044,2021-03-24 00:00:00.000000,1.10488507,1.59905007,2.15026121,60,86,116,34,49,69,0.63294897,0.90485460,1.28484088,0.10004599,0.41510072,1.11421435
46129,0,USSouthDakotaWalworth,South Dakota,Walworth,2021-04-04 04:20:31.641044,2021-03-25 00:00:00.000000,1.11571049,1.56659566,2.17984783,60,85,118,34,49,70,0.63254392,0.91214314,1.28817451,0.09526809,0.42042767,1.09820739
46129,0,USSouthDakotaWalworth,South Dakota,Walworth,2021-04-04 04:20:31.641044,2021-03-26 00:00:00.000000,1.07643720,1.58919132,2.18013519,58,86,118,34,50,71,0.62956418,0.93501167,1.31077599,0.09451788,0.42643416,1.07645186
46129,0,USSouthDakotaWalworth,South Dakota,Walworth,2021-04-04 04:20:31.641044,2021-03-27 00:00:00.000000,1.02242629,1.60129231,2.25125071,55,87,122,32,50,73,0.60394414,0.93630245,1.34794386,0.08331660,0.42932846,1.05310346
46129,0,USSouthDakotaWalworth,South Dakota,Walworth,2021-04-04 04:20:31.641044,2021-03-28 00:00:00.000000,0.98105130,1.59747074,2.31557314,53,86,125,32,50,74,0.60693754,0.93343931,1.36750509,0.08185510,0.43355492,1.03209634
46129,0,USSouthDakotaWalworth,South Dakota,Walworth,2021-04-04 04:20:31.641044,2021-03-29 00:00:00.000000,0.90117650,1.54301925,2.20796665,48,83,120,32,50,73,0.59952439,0.93184966,1.34743779,0.08169643,0.43833092,1.01733600
46129,0,USSouthDakotaWalworth,South Dakota,Walworth,2021-04-04 04:20:31.641044,2021-03-30 00:00:00.000000,0.83434654,1.44800579,2.13653723,45,78,116,30,49,73,0.56411908,0.90183478,1.34713568,0.08155807,0.43942728,1.00812809
46129,0,USSouthDakotaWalworth,South Dakota,Walworth,2021-04-04 04:20:31.641044,2021-03-31 00:00:00.000000,0.77031118,1.38683689,2.07256040,41,75,112,28,47,72,0.51880765,0.87181590,1.32861650,0.08150047,0.44112729,1.00015679
46129,0,USSouthDakotaWalworth,South Dakota,Walworth,2021-04-04 04:20:31.641044,2021-04-01 00:00:00.000000,0.70944739,1.32625977,2.00694448,38,72,109,26,46,70,0.49655726,0.84659829,1.29136444,0.08161038,0.43887165,1.01942382
46129,0,USSouthDakotaWalworth,South Dakota,Walworth,2021-04-04 04:20:31.641044,2021-04-02 00:00:00.000000,0.65197913,1.24971971,1.92293955,35,67,104,24,43,69,0.45944687,0.80510968,1.28049408,0.08197193,0.43552683,1.03645263
46129,0,USSouthDakotaWalworth,South Dakota,Walworth,2021-04-04 04:20:31.641044,2021-04-03 00:00:00.000000,0.58708424,1.18493769,1.86875283,31,64,101,22,41,69,0.41286092,0.76937906,1.27268717,0.08311397,0.43506784,1.04070680
46129,0,USSouthDakotaWalworth,South Dakota,Walworth,2021-04-04 04:20:31.641044,2021-04-04 00:00:00.000000,0.51932016,1.11669116,1.82776737,28,60,99,20,40,68,0.36922571,0.73845743,1.26291790,0.08218767,0.43693070,1.03160386
46129,0,USSouthDakotaWalworth,South Dakota,Walworth,2021-04-04 04:20:31.641044,2021-04-05 00:00:00.000000,0.45850124,1.05199881,1.77729779,24,57,96,17,38,68,0.32895030,0.70735833,1.25174765,0.08128530,0.43451502,1.02335476
46129,0,USSouthDakotaWalworth,South Dakota,Walworth,2021-04-04 04:20:31.641044,2021-04-06 00:00:00.000000,0.40419756,0.99088564,1.72892306,21,53,93,15,36,67,0.29218086,0.67467408,1.23954525,0.08689828,0.43587042,1.02400192
46129,0,USSouthDakotaWalworth,South Dakota,Walworth,2021-04-04 04:20:31.641044,2021-04-07 00:00:00.000000,0.35590386,0.93428109,1.68197694,19,50,91,14,35,65,0.25889223,0.64671548,1.21343621,0.08871166,0.43635887,1.02418777
46129,0,USSouthDakotaWalworth,South Dakota,Walworth,2021-04-04 04:20:31.641044,2021-04-08 00:00:00.000000,0.31308693,0.87904129,1.63624402,17,47,88,12,33,64,0.22894959,0.61524849,1.18155633,0.08915934,0.42708247,1.02426376
46129,0,USSouthDakotaWalworth,South Dakota,Walworth,2021-04-04 04:20:31.641044,2021-04-09 00:00:00.000000,0.27521684,0.83420286,1.59162997,14,45,86,10,31,62,0.20215233,0.58257445,1.15042717,0.08926221,0.42685811,1.02429743
46129,0,USSouthDakotaWalworth,South Dakota,Walworth,2021-04-04 04:20:31.641044,2021-04-10 00:00:00.000000,0.24178531,0.78542540,1.54807854,13,42,84,9,30,60,0.17827067,0.55236603,1.11998777,0.08928548,0.42119161,1.02431353
46129,0,USSouthDakotaWalworth,South Dakota,Walworth,2021-04-04 04:20:31.641044,2021-04-11 00:00:00.000000,0.21231612,0.73990032,1.50554993,11,40,81,8,28,59,0.15705865,0.52556496,1.09019776,0.08929073,0.42104100,1.02432172
46129,0,USSouthDakotaWalworth,South Dakota,Walworth,2021-04-04 04:20:31.641044,2021-04-12 00:00:00.000000,0.18637024,0.69954045,1.46401353,10,38,79,7,27,57,0.13825095,0.50030148,1.06103140,0.08929191,0.42093818,1.02432608
46129,0,USSouthDakotaWalworth,South Dakota,Walworth,2021-04-04 04:20:31.641044,2021-04-13 00:00:00.000000,0.16579995,0.66362314,1.42344463,9,36,77,6,25,56,0.12335539,0.47378748,1.03247245,0.08929218,0.42086777,1.02432847
46129,0,USSouthDakotaWalworth,South Dakota,Walworth,2021-04-04 04:20:31.641044,2021-04-14 00:00:00.000000,0.14840886,0.62245071,1.38382242,8,33,75,6,24,54,0.11051761,0.44850911,1.00451054,0.08929224,0.42081964,1.02432981
46129,0,USSouthDakotaWalworth,South Dakota,Walworth,2021-04-04 04:20:31.641044,2021-04-15 00:00:00.000000,0.13285005,0.58549617,1.34512878,7,31,73,5,22,53,0.09896947,0.42252212,0.97713871,0.08929226,0.42078678,1.02433056
46129,0,USSouthDakotaWalworth,South Dakota,Walworth,2021-04-04 04:20:31.641044,2021-04-16 00:00:00.000000,0.11892791,0.55660384,1.30734738,6,30,71,4,21,51,0.08859542,0.39674303,0.95035192,0.08929226,0.42076437,1.02433099
