FIPS,HR_UID,nameid,province,region,analysisTime,dates,pointprevalence_025,pointprevalence_50,pointprevalence_975,pointinfections_025,pointinfections_50,pointinfections_975,pointinfectious_025,pointinfectious_50,pointinfectious_975,pointinfectiousprevalence_05,pointinfectiousprevalence_50,pointinfectiousprevalence_95,infectrate_025,infectrate_50,infectrate_975
51690,0,USVirginiaMartinsville,Virginia,Martinsville,2021-04-04 02:22:59.075201,2020-03-09 00:00:00.000000,0.00102341,0.00854540,0.03752848,0,1,4,0,0,2,0.00059329,0.00421519,0.02300053,0.37806650,0.57221838,0.78352564
51690,0,USVirginiaMartinsville,Virginia,Martinsville,2021-04-04 02:22:59.075201,2020-03-10 00:00:00.000000,0.00115866,0.00988552,0.04167461,0,1,5,0,0,2,0.00057942,0.00422661,0.02152077,0.37806382,0.57221838,0.78352526
51690,0,USVirginiaMartinsville,Virginia,Martinsville,2021-04-04 02:22:59.075201,2020-03-11 00:00:00.000000,0.00129166,0.01112932,0.04602611,0,1,5,0,0,2,0.00060387,0.00442431,0.02284188,0.37805857,0.57221838,0.78352413
51690,0,USVirginiaMartinsville,Virginia,Martinsville,2021-04-04 02:22:59.075201,2020-03-12 00:00:00.000000,0.00142566,0.01275310,0.05065531,0,1,6,0,0,3,0.00065053,0.00486683,0.02515770,0.37804826,0.57221836,0.78352053
51690,0,USVirginiaMartinsville,Virginia,Martinsville,2021-04-04 02:22:59.075201,2020-03-13 00:00:00.000000,0.00156298,0.01439980,0.05561876,0,1,6,0,0,3,0.00071050,0.00537059,0.02777983,0.37802802,0.57221828,0.78350882
51690,0,USVirginiaMartinsville,Virginia,Martinsville,2021-04-04 02:22:59.075201,2020-03-14 00:00:00.000000,0.00170537,0.01609470,0.06096484,0,2,7,0,0,3,0.00077903,0.00581388,0.02991502,0.37798822,0.57221795,0.78346974
51690,0,USVirginiaMartinsville,Virginia,Martinsville,2021-04-04 02:22:59.075201,2020-03-15 00:00:00.000000,0.00185431,0.01792331,0.06673590,0,2,8,0,0,3,0.00085371,0.00667379,0.03163459,0.37790982,0.57221664,0.78333583
51690,0,USVirginiaMartinsville,Virginia,Martinsville,2021-04-04 02:22:59.075201,2020-03-16 00:00:00.000000,0.00201105,0.01990950,0.07296490,0,2,9,0,0,4,0.00093344,0.00767562,0.03346856,0.37775520,0.56366965,0.78286350
51690,0,USVirginiaMartinsville,Virginia,Martinsville,2021-04-04 02:22:59.075201,2020-03-17 00:00:00.000000,0.00217680,0.02139775,0.07796397,0,2,9,0,1,4,0.00101787,0.00880828,0.03541955,0.37745043,0.55119384,0.77900106
51690,0,USVirginiaMartinsville,Virginia,Martinsville,2021-04-04 02:22:59.075201,2020-03-18 00:00:00.000000,0.00235338,0.02332956,0.08253681,0,2,10,0,1,4,0.00110740,0.01008281,0.03749109,0.37685677,0.54401610,0.76110607
51690,0,USVirginiaMartinsville,Virginia,Martinsville,2021-04-04 02:22:59.075201,2020-03-19 00:00:00.000000,0.00254323,0.02557135,0.08734730,0,3,10,0,1,4,0.00120276,0.01141739,0.03968672,0.37592111,0.53150019,0.75874711
51690,0,USVirginiaMartinsville,Virginia,Martinsville,2021-04-04 02:22:59.075201,2020-03-20 00:00:00.000000,0.00274663,0.02817566,0.09226684,0,3,11,0,1,5,0.00130405,0.01216019,0.04200774,0.36237891,0.50990421,0.73471980
51690,0,USVirginiaMartinsville,Virginia,Martinsville,2021-04-04 02:22:59.075201,2020-03-21 00:00:00.000000,0.00296652,0.03103612,0.09655627,0,3,12,0,1,5,0.00141196,0.01310206,0.04443419,0.35508299,0.49056009,0.68522251
51690,0,USVirginiaMartinsville,Virginia,Martinsville,2021-04-04 02:22:59.075201,2020-03-22 00:00:00.000000,0.00335365,0.03375552,0.10056569,0,4,12,0,1,5,0.00152757,0.01440121,0.04683588,0.33332905,0.47439223,0.66316421
51690,0,USVirginiaMartinsville,Virginia,Martinsville,2021-04-04 02:22:59.075201,2020-03-23 00:00:00.000000,0.00376075,0.03587083,0.10448074,0,4,13,0,1,6,0.00169627,0.01569751,0.04917164,0.31296091,0.45141326,0.66244561
51690,0,USVirginiaMartinsville,Virginia,Martinsville,2021-04-04 02:22:59.075201,2020-03-24 00:00:00.000000,0.00421089,0.03886718,0.10815065,0,4,13,0,2,6,0.00192144,0.01668458,0.05144310,0.29097917,0.44184685,0.65901131
51690,0,USVirginiaMartinsville,Virginia,Martinsville,2021-04-04 02:22:59.075201,2020-03-25 00:00:00.000000,0.00469589,0.04215732,0.11138062,0,5,13,0,2,6,0.00216392,0.01768840,0.05363023,0.27532643,0.42906657,0.64301618
51690,0,USVirginiaMartinsville,Virginia,Martinsville,2021-04-04 02:22:59.075201,2020-03-26 00:00:00.000000,0.00509029,0.04409475,0.11401744,0,5,14,0,2,6,0.00243030,0.01898076,0.05568913,0.25391856,0.42683863,0.60141511
51690,0,USVirginiaMartinsville,Virginia,Martinsville,2021-04-04 02:22:59.075201,2020-03-27 00:00:00.000000,0.00551082,0.04562877,0.11603680,0,5,14,0,2,7,0.00269659,0.02052182,0.05756437,0.23671003,0.41027599,0.60097315
51690,0,USVirginiaMartinsville,Virginia,Martinsville,2021-04-04 02:22:59.075201,2020-03-28 00:00:00.000000,0.00594832,0.04666329,0.11754388,0,5,14,0,2,7,0.00292065,0.02182734,0.05921225,0.22523996,0.39476470,0.59993690
51690,0,USVirginiaMartinsville,Virginia,Martinsville,2021-04-04 02:22:59.075201,2020-03-29 00:00:00.000000,0.00638639,0.04924055,0.11869184,0,6,14,0,2,7,0.00315826,0.02338710,0.06131622,0.21875260,0.38834585,0.59541266
51690,0,USVirginiaMartinsville,Virginia,Martinsville,2021-04-04 02:22:59.075201,2020-03-30 00:00:00.000000,0.00681711,0.05099620,0.12137348,0,6,15,0,3,8,0.00340362,0.02482623,0.06475807,0.21528086,0.38535698,0.58558719
51690,0,USVirginiaMartinsville,Virginia,Martinsville,2021-04-04 02:22:59.075201,2020-03-31 00:00:00.000000,0.00713256,0.05280461,0.12060768,0,6,15,0,3,8,0.00365130,0.02617389,0.06834314,0.21347547,0.38273569,0.56849344
51690,0,USVirginiaMartinsville,Virginia,Martinsville,2021-04-04 02:22:59.075201,2020-04-01 00:00:00.000000,0.00745646,0.05461694,0.12150917,0,6,15,0,3,9,0.00390121,0.02721997,0.07207752,0.21249613,0.38178864,0.57168126
51690,0,USVirginiaMartinsville,Virginia,Martinsville,2021-04-04 02:22:59.075201,2020-04-02 00:00:00.000000,0.00779438,0.05637463,0.12234965,0,7,15,0,3,9,0.00415821,0.02810770,0.07547164,0.21180505,0.37766708,0.56044256
51690,0,USVirginiaMartinsville,Virginia,Martinsville,2021-04-04 02:22:59.075201,2020-04-03 00:00:00.000000,0.00814476,0.05898981,0.12317195,1,7,15,0,3,9,0.00442912,0.02919314,0.07487191,0.21095269,0.36458577,0.53272237
51690,0,USVirginiaMartinsville,Virginia,Martinsville,2021-04-04 02:22:59.075201,2020-04-04 00:00:00.000000,0.00849948,0.06161942,0.12746392,1,7,16,0,3,9,0.00468960,0.03036624,0.07421491,0.20802155,0.34800796,0.50941140
51690,0,USVirginiaMartinsville,Virginia,Martinsville,2021-04-04 02:22:59.075201,2020-04-05 00:00:00.000000,0.00883170,0.06349269,0.13156365,1,7,16,0,3,9,0.00475010,0.03183271,0.07351819,0.20307445,0.34369281,0.51899478
51690,0,USVirginiaMartinsville,Virginia,Martinsville,2021-04-04 02:22:59.075201,2020-04-06 00:00:00.000000,0.00912354,0.06441681,0.13563528,1,8,17,0,4,9,0.00481126,0.03323332,0.07279622,0.19268462,0.33618912,0.52274986
51690,0,USVirginiaMartinsville,Virginia,Martinsville,2021-04-04 02:22:59.075201,2020-04-07 00:00:00.000000,0.00943643,0.06480720,0.13975776,1,8,17,0,4,9,0.00487309,0.03405446,0.07205931,0.19228720,0.33288518,0.52367876
51690,0,USVirginiaMartinsville,Virginia,Martinsville,2021-04-04 02:22:59.075201,2020-04-08 00:00:00.000000,0.00953604,0.06748424,0.14396465,1,8,18,0,4,8,0.00510369,0.03458228,0.07131413,0.18837135,0.32593984,0.52357322
51690,0,USVirginiaMartinsville,Virginia,Martinsville,2021-04-04 02:22:59.075201,2020-04-09 00:00:00.000000,0.00966130,0.06986559,0.14827286,1,8,18,0,4,9,0.00544745,0.03572709,0.07314378,0.17879287,0.32023109,0.52280565
51690,0,USVirginiaMartinsville,Virginia,Martinsville,2021-04-04 02:22:59.075201,2020-04-10 00:00:00.000000,0.00981961,0.07185336,0.15269392,1,9,19,0,4,9,0.00581210,0.03780443,0.07642452,0.17011470,0.32061830,0.52214417
51690,0,USVirginiaMartinsville,Virginia,Martinsville,2021-04-04 02:22:59.075201,2020-04-11 00:00:00.000000,0.00997207,0.07393309,0.15723722,1,9,19,0,5,10,0.00598954,0.04018044,0.07999490,0.16958610,0.32042111,0.51948004
51690,0,USVirginiaMartinsville,Virginia,Martinsville,2021-04-04 02:22:59.075201,2020-04-12 00:00:00.000000,0.01012026,0.07632678,0.16191106,1,9,20,0,5,10,0.00609959,0.04170565,0.08367253,0.16887847,0.32010534,0.50280272
51690,0,USVirginiaMartinsville,Virginia,Martinsville,2021-04-04 02:22:59.075201,2020-04-13 00:00:00.000000,0.02017903,0.09066791,0.18337915,2,11,23,0,5,10,0.00620326,0.04177888,0.08743280,0.16942230,0.31689068,0.47758356
51690,0,USVirginiaMartinsville,Virginia,Martinsville,2021-04-04 02:22:59.075201,2020-04-14 00:00:00.000000,0.02706324,0.10550874,0.20767456,3,13,26,0,5,11,0.00778778,0.04437094,0.09361278,0.17340839,0.31486965,0.49676062
51690,0,USVirginiaMartinsville,Virginia,Martinsville,2021-04-04 02:22:59.075201,2020-04-15 00:00:00.000000,0.03421567,0.11903907,0.22372541,4,14,28,1,6,12,0.01143705,0.04868609,0.10140421,0.16929206,0.31250909,0.50552295
51690,0,USVirginiaMartinsville,Virginia,Martinsville,2021-04-04 02:22:59.075201,2020-04-16 00:00:00.000000,0.04122576,0.12855194,0.24214968,5,16,30,1,6,13,0.01466957,0.05367983,0.11027762,0.16915659,0.30858915,0.50183059
51690,0,USVirginiaMartinsville,Virginia,Martinsville,2021-04-04 02:22:59.075201,2020-04-17 00:00:00.000000,0.04845242,0.13967528,0.26425216,6,17,33,2,7,15,0.01831741,0.05935462,0.12202740,0.16910722,0.30762945,0.49249480
51690,0,USVirginiaMartinsville,Virginia,Martinsville,2021-04-04 02:22:59.075201,2020-04-18 00:00:00.000000,0.05603958,0.15391846,0.28755041,7,19,36,2,8,16,0.02227530,0.06672288,0.13019788,0.16908230,0.30747264,0.47388497
51690,0,USVirginiaMartinsville,Virginia,Martinsville,2021-04-04 02:22:59.075201,2020-04-19 00:00:00.000000,0.06089852,0.17083920,0.31386922,7,21,39,3,9,17,0.02647459,0.07238881,0.14104199,0.16906077,0.30064168,0.44874930
51690,0,USVirginiaMartinsville,Virginia,Martinsville,2021-04-04 02:22:59.075201,2020-04-20 00:00:00.000000,0.07397130,0.18466352,0.34287978,9,23,43,3,9,19,0.03085860,0.07881284,0.15369022,0.16855035,0.29688365,0.44732073
51690,0,USVirginiaMartinsville,Virginia,Martinsville,2021-04-04 02:22:59.075201,2020-04-21 00:00:00.000000,0.08643125,0.20158255,0.37459868,10,25,47,4,10,21,0.03584021,0.08692319,0.17009588,0.16240041,0.29212559,0.42856792
51690,0,USVirginiaMartinsville,Virginia,Martinsville,2021-04-04 02:22:59.075201,2020-04-22 00:00:00.000000,0.09657872,0.21772384,0.40705114,12,27,51,5,11,23,0.04142856,0.09392818,0.18903710,0.15863275,0.29020113,0.41618447
51690,0,USVirginiaMartinsville,Virginia,Martinsville,2021-04-04 02:22:59.075201,2020-04-23 00:00:00.000000,0.10560530,0.24024573,0.44004988,13,30,55,5,12,26,0.04736468,0.10202455,0.20969169,0.15551611,0.28518179,0.40745663
51690,0,USVirginiaMartinsville,Virginia,Martinsville,2021-04-04 02:22:59.075201,2020-04-24 00:00:00.000000,0.11648989,0.25516053,0.47335487,14,32,59,6,13,28,0.05287693,0.11124614,0.23090745,0.15324330,0.27881148,0.39259009
51690,0,USVirginiaMartinsville,Virginia,Martinsville,2021-04-04 02:22:59.075201,2020-04-25 00:00:00.000000,0.12607537,0.27504651,0.50669400,15,34,63,7,14,31,0.05841571,0.11792172,0.25222678,0.15224987,0.27667356,0.38579911
51690,0,USVirginiaMartinsville,Virginia,Martinsville,2021-04-04 02:22:59.075201,2020-04-26 00:00:00.000000,0.13538511,0.29431620,0.53981226,16,36,67,7,15,34,0.06281960,0.12595554,0.27369029,0.15137613,0.27001952,0.39231311
51690,0,USVirginiaMartinsville,Virginia,Martinsville,2021-04-04 02:22:59.075201,2020-04-27 00:00:00.000000,0.16666676,0.31116190,0.62986136,20,39,79,8,16,37,0.06988463,0.13433842,0.29535237,0.15097095,0.26936318,0.39009488
51690,0,USVirginiaMartinsville,Virginia,Martinsville,2021-04-04 02:22:59.075201,2020-04-28 00:00:00.000000,0.17178547,0.33157128,0.68101775,21,41,85,9,18,39,0.07892100,0.14543188,0.31580172,0.14789846,0.27335865,0.39949288
51690,0,USVirginiaMartinsville,Virginia,Martinsville,2021-04-04 02:22:59.075201,2020-04-29 00:00:00.000000,0.17236842,0.35361410,0.70467143,21,44,88,11,19,42,0.08857555,0.15658817,0.33555413,0.14635552,0.27458284,0.41243857
51690,0,USVirginiaMartinsville,Virginia,Martinsville,2021-04-04 02:22:59.075201,2020-04-30 00:00:00.000000,0.17279001,0.37678955,0.72834550,21,47,91,11,20,45,0.09488254,0.16646987,0.36096182,0.14373098,0.27244600,0.41606453
51690,0,USVirginiaMartinsville,Virginia,Martinsville,2021-04-04 02:22:59.075201,2020-05-01 00:00:00.000000,0.17311489,0.40308452,0.77303023,21,50,97,12,22,50,0.10002224,0.17638377,0.40385176,0.13366263,0.27152302,0.41048985
51690,0,USVirginiaMartinsville,Virginia,Martinsville,2021-04-04 02:22:59.075201,2020-05-02 00:00:00.000000,0.17455638,0.42910685,0.85540217,21,53,107,12,23,54,0.10354934,0.18326722,0.43248624,0.13742163,0.27020683,0.40642250
51690,0,USVirginiaMartinsville,Virginia,Martinsville,2021-04-04 02:22:59.075201,2020-05-03 00:00:00.000000,0.18189167,0.44821657,0.93785118,22,56,117,13,24,56,0.10390462,0.19245273,0.44630855,0.15109768,0.26636764,0.40323120
51690,0,USVirginiaMartinsville,Virginia,Martinsville,2021-04-04 02:22:59.075201,2020-05-04 00:00:00.000000,0.19809546,0.47027080,0.96152459,24,59,120,13,25,57,0.10416360,0.20395460,0.45881573,0.15355547,0.26329515,0.38186267
51690,0,USVirginiaMartinsville,Virginia,Martinsville,2021-04-04 02:22:59.075201,2020-05-05 00:00:00.000000,0.21882256,0.49120525,0.98525898,27,61,123,13,27,59,0.11040307,0.21838481,0.47242340,0.15348486,0.26406799,0.37159614
51690,0,USVirginiaMartinsville,Virginia,Martinsville,2021-04-04 02:22:59.075201,2020-05-06 00:00:00.000000,0.24191555,0.51265693,1.00805957,30,64,126,15,29,61,0.12005596,0.23708499,0.48661531,0.15284782,0.26533462,0.36931075
51690,0,USVirginiaMartinsville,Virginia,Martinsville,2021-04-04 02:22:59.075201,2020-05-07 00:00:00.000000,0.26564526,0.53753860,1.03025939,33,67,129,16,31,62,0.13162787,0.25060976,0.50114675,0.15146720,0.26221489,0.36491755
51690,0,USVirginiaMartinsville,Virginia,Martinsville,2021-04-04 02:22:59.075201,2020-05-08 00:00:00.000000,0.26512164,0.57441890,1.05223304,33,72,132,18,33,64,0.14437600,0.27051190,0.51588422,0.14930343,0.26036708,0.36564889
51690,0,USVirginiaMartinsville,Virginia,Martinsville,2021-04-04 02:22:59.075201,2020-05-09 00:00:00.000000,0.27780469,0.60327735,1.07434991,34,75,134,19,35,66,0.15811646,0.28164626,0.53078752,0.14727718,0.25997027,0.36762110
51690,0,USVirginiaMartinsville,Virginia,Martinsville,2021-04-04 02:22:59.075201,2020-05-10 00:00:00.000000,0.29770766,0.63266886,1.09668243,37,79,137,20,37,68,0.16706515,0.29952948,0.54597847,0.14713661,0.26325718,0.37297665
51690,0,USVirginiaMartinsville,Virginia,Martinsville,2021-04-04 02:22:59.075201,2020-05-11 00:00:00.000000,0.37405787,0.68267912,1.13590665,46,85,142,20,39,71,0.16365007,0.31789772,0.56793928,0.14750623,0.26113834,0.38210411
51690,0,USVirginiaMartinsville,Virginia,Martinsville,2021-04-04 02:22:59.075201,2020-05-12 00:00:00.000000,0.41917528,0.71925320,1.17506197,52,90,147,23,41,75,0.19079138,0.33387918,0.60055630,0.14994913,0.26030492,0.39342297
51690,0,USVirginiaMartinsville,Virginia,Martinsville,2021-04-04 02:22:59.075201,2020-05-13 00:00:00.000000,0.45167784,0.75198175,1.21431278,56,94,152,26,44,79,0.21353969,0.35282508,0.63396256,0.16000324,0.25726759,0.39207347
51690,0,USVirginiaMartinsville,Virginia,Martinsville,2021-04-04 02:22:59.075201,2020-05-14 00:00:00.000000,0.49368843,0.77646740,1.25322670,61,97,157,29,46,83,0.23397697,0.36787147,0.66806483,0.15696176,0.25540241,0.39540503
51690,0,USVirginiaMartinsville,Virginia,Martinsville,2021-04-04 02:22:59.075201,2020-05-15 00:00:00.000000,0.53162154,0.81573434,1.30293293,66,102,163,32,48,88,0.25492556,0.38529242,0.70274964,0.14841205,0.25490648,0.39563719
51690,0,USVirginiaMartinsville,Virginia,Martinsville,2021-04-04 02:22:59.075201,2020-05-16 00:00:00.000000,0.52944041,0.84426816,1.37975736,66,105,173,34,50,91,0.27123703,0.40203184,0.72858959,0.14877045,0.24718931,0.39280928
51690,0,USVirginiaMartinsville,Virginia,Martinsville,2021-04-04 02:22:59.075201,2020-05-17 00:00:00.000000,0.54036177,0.88598224,1.40710807,67,111,176,36,53,94,0.28745018,0.42925831,0.75021462,0.15330256,0.24146246,0.39335346
51690,0,USVirginiaMartinsville,Virginia,Martinsville,2021-04-04 02:22:59.075201,2020-05-18 00:00:00.000000,0.57379072,0.91969276,1.41937004,72,115,178,37,56,99,0.30027339,0.45200042,0.78886308,0.15250862,0.24007619,0.36418688
51690,0,USVirginiaMartinsville,Virginia,Martinsville,2021-04-04 02:22:59.075201,2020-05-19 00:00:00.000000,0.57160478,0.93482835,1.44703564,71,117,181,38,59,102,0.30774669,0.47602017,0.81750606,0.14576174,0.23574905,0.36214679
51690,0,USVirginiaMartinsville,Virginia,Martinsville,2021-04-04 02:22:59.075201,2020-05-20 00:00:00.000000,0.56877954,0.95056912,1.50678195,71,119,189,39,62,106,0.31521712,0.50024542,0.84564422,0.14528737,0.23387185,0.35843775
51690,0,USVirginiaMartinsville,Virginia,Martinsville,2021-04-04 02:22:59.075201,2020-05-21 00:00:00.000000,0.56557889,0.97238275,1.56631902,71,122,196,40,64,110,0.32269314,0.51042731,0.88111583,0.14547071,0.23126549,0.35190090
51690,0,USVirginiaMartinsville,Virginia,Martinsville,2021-04-04 02:22:59.075201,2020-05-22 00:00:00.000000,0.56216054,0.98872436,1.62201602,70,124,203,41,65,113,0.32917828,0.52436484,0.90443428,0.14205404,0.22537872,0.34130626
51690,0,USVirginiaMartinsville,Virginia,Martinsville,2021-04-04 02:22:59.075201,2020-05-23 00:00:00.000000,0.56343528,1.00649359,1.66811359,70,126,209,41,67,115,0.32771608,0.53551755,0.92380329,0.14138493,0.22414173,0.33210866
51690,0,USVirginiaMartinsville,Virginia,Martinsville,2021-04-04 02:22:59.075201,2020-05-24 00:00:00.000000,0.56712079,1.02754500,1.70273710,71,128,213,40,68,118,0.32598662,0.54214210,0.94230102,0.13832687,0.22101388,0.32322735
51690,0,USVirginiaMartinsville,Virginia,Martinsville,2021-04-04 02:22:59.075201,2020-05-25 00:00:00.000000,0.57908601,1.05404045,1.73840159,72,132,218,40,69,120,0.32409678,0.55458539,0.96015230,0.13708246,0.21966360,0.31534938
51690,0,USVirginiaMartinsville,Virginia,Martinsville,2021-04-04 02:22:59.075201,2020-05-26 00:00:00.000000,0.59088528,1.06220031,1.77004121,74,133,222,41,70,122,0.32709590,0.56409090,0.97953653,0.13655124,0.21679262,0.30931504
51690,0,USVirginiaMartinsville,Virginia,Martinsville,2021-04-04 02:22:59.075201,2020-05-27 00:00:00.000000,0.60440366,1.06869064,1.79767789,75,134,225,41,71,127,0.33305163,0.56789487,1.01837536,0.13629573,0.21327108,0.29534139
51690,0,USVirginiaMartinsville,Virginia,Martinsville,2021-04-04 02:22:59.075201,2020-05-28 00:00:00.000000,0.62153446,1.08133299,1.81767078,78,135,228,42,72,132,0.33568354,0.57368247,1.05333687,0.13507344,0.21201266,0.29531059
51690,0,USVirginiaMartinsville,Virginia,Martinsville,2021-04-04 02:22:59.075201,2020-05-29 00:00:00.000000,0.63871500,1.09364808,1.83072258,80,137,229,41,74,135,0.32942973,0.59000801,1.08307523,0.13621561,0.21289395,0.29527405
51690,0,USVirginiaMartinsville,Virginia,Martinsville,2021-04-04 02:22:59.075201,2020-05-30 00:00:00.000000,0.64252029,1.10102036,1.84094891,80,138,231,40,75,138,0.32460756,0.60027417,1.10702737,0.13712730,0.21041870,0.29862301
51690,0,USVirginiaMartinsville,Virginia,Martinsville,2021-04-04 02:22:59.075201,2020-05-31 00:00:00.000000,0.65573716,1.12770423,1.85001118,82,141,232,41,76,141,0.33079913,0.60747036,1.12533585,0.13875754,0.20560132,0.30604016
51690,0,USVirginiaMartinsville,Virginia,Martinsville,2021-04-04 02:22:59.075201,2020-06-01 00:00:00.000000,0.68080638,1.15032588,1.85066489,85,144,232,42,76,142,0.33774866,0.60930600,1.13859546,0.13356216,0.20402965,0.30910098
51690,0,USVirginiaMartinsville,Virginia,Martinsville,2021-04-04 02:22:59.075201,2020-06-02 00:00:00.000000,0.69176745,1.16727095,1.85903475,86,146,233,43,76,144,0.34526737,0.61100695,1.14714409,0.13193920,0.20440372,0.31137504
51690,0,USVirginiaMartinsville,Virginia,Martinsville,2021-04-04 02:22:59.075201,2020-06-03 00:00:00.000000,0.70160974,1.18517700,1.88700333,88,148,236,44,77,145,0.35317111,0.61379106,1.15962393,0.13205434,0.20613960,0.31534872
51690,0,USVirginiaMartinsville,Virginia,Martinsville,2021-04-04 02:22:59.075201,2020-06-04 00:00:00.000000,0.71321237,1.19985376,1.91730105,89,150,240,45,78,146,0.36132151,0.62293733,1.16355368,0.13918113,0.20818578,0.31844785
51690,0,USVirginiaMartinsville,Virginia,Martinsville,2021-04-04 02:22:59.075201,2020-06-05 00:00:00.000000,0.72424923,1.21996753,1.95235425,90,153,245,46,80,146,0.36941295,0.63779088,1.16639807,0.13971179,0.20792953,0.31498592
51690,0,USVirginiaMartinsville,Virginia,Martinsville,2021-04-04 02:22:59.075201,2020-06-06 00:00:00.000000,0.73668195,1.24599782,1.99027873,92,156,249,47,81,146,0.37733145,0.65096804,1.16927376,0.13879043,0.20620519,0.32177672
51690,0,USVirginiaMartinsville,Virginia,Martinsville,2021-04-04 02:22:59.075201,2020-06-07 00:00:00.000000,0.75439547,1.26222811,2.02919846,94,158,254,48,82,147,0.38556804,0.65658128,1.17257972,0.13587278,0.20635167,0.32235247
51690,0,USVirginiaMartinsville,Virginia,Martinsville,2021-04-04 02:22:59.075201,2020-06-08 00:00:00.000000,0.78863853,1.26838017,2.07616438,99,159,260,49,84,147,0.39447584,0.67059055,1.17741351,0.13693739,0.21007357,0.32252637
51690,0,USVirginiaMartinsville,Virginia,Martinsville,2021-04-04 02:22:59.075201,2020-06-09 00:00:00.000000,0.82041665,1.27991477,2.11264488,102,160,265,50,84,149,0.40515457,0.67181642,1.18816122,0.13782278,0.21117042,0.32269242
51690,0,USVirginiaMartinsville,Virginia,Martinsville,2021-04-04 02:22:59.075201,2020-06-10 00:00:00.000000,0.85254658,1.28482844,2.09376486,107,161,262,52,85,150,0.41776611,0.67958704,1.19706293,0.13853374,0.21638401,0.33057118
51690,0,USVirginiaMartinsville,Virginia,Martinsville,2021-04-04 02:22:59.075201,2020-06-11 00:00:00.000000,0.89004044,1.30972987,2.07380055,111,164,260,53,85,151,0.42681497,0.68491545,1.20410840,0.13935520,0.22096309,0.33879910
51690,0,USVirginiaMartinsville,Virginia,Martinsville,2021-04-04 02:22:59.075201,2020-06-12 00:00:00.000000,0.90933362,1.32333348,2.05946308,114,166,258,54,86,151,0.43442447,0.69297000,1.20952109,0.14099039,0.22666978,0.34359521
51690,0,USVirginiaMartinsville,Virginia,Martinsville,2021-04-04 02:22:59.075201,2020-06-13 00:00:00.000000,0.90844515,1.33580477,2.07881758,114,167,260,58,88,152,0.46212053,0.70120487,1.21419442,0.14451690,0.23213160,0.34891088
51690,0,USVirginiaMartinsville,Virginia,Martinsville,2021-04-04 02:22:59.075201,2020-06-14 00:00:00.000000,0.90751469,1.33084032,2.10735418,113,167,264,60,88,152,0.48319034,0.70561612,1.21834430,0.15061881,0.22972940,0.34899426
51690,0,USVirginiaMartinsville,Virginia,Martinsville,2021-04-04 02:22:59.075201,2020-06-15 00:00:00.000000,0.91117307,1.37811646,2.14959150,114,173,269,62,89,153,0.49889823,0.71197819,1.22212004,0.15788771,0.23430495,0.37256323
51690,0,USVirginiaMartinsville,Virginia,Martinsville,2021-04-04 02:22:59.075201,2020-06-16 00:00:00.000000,0.92569067,1.40770158,2.19156777,116,176,275,64,90,153,0.51078523,0.72481915,1.22477492,0.16162636,0.23719837,0.37821365
51690,0,USVirginiaMartinsville,Virginia,Martinsville,2021-04-04 02:22:59.075201,2020-06-17 00:00:00.000000,0.94955615,1.42337365,2.22683388,119,178,279,65,92,153,0.52041917,0.73719819,1.22663909,0.16834847,0.23780384,0.38059777
51690,0,USVirginiaMartinsville,Virginia,Martinsville,2021-04-04 02:22:59.075201,2020-06-18 00:00:00.000000,0.97754857,1.43589680,2.25549252,122,180,283,65,94,154,0.52011719,0.75041104,1.22794033,0.16858036,0.23910552,0.38477988
51690,0,USVirginiaMartinsville,Virginia,Martinsville,2021-04-04 02:22:59.075201,2020-06-19 00:00:00.000000,1.00175884,1.47119443,2.28431093,125,184,286,65,94,154,0.52072008,0.75242878,1.22884287,0.16885686,0.23759812,0.39199259
51690,0,USVirginiaMartinsville,Virginia,Martinsville,2021-04-04 02:22:59.075201,2020-06-20 00:00:00.000000,1.01821106,1.51815510,2.31322099,127,190,290,65,96,154,0.52258722,0.76737178,1.23138838,0.16971187,0.24048869,0.38375739
51690,0,USVirginiaMartinsville,Virginia,Martinsville,2021-04-04 02:22:59.075201,2020-06-21 00:00:00.000000,1.02940320,1.55661756,2.33685074,129,195,293,66,98,155,0.52575423,0.78155667,1.23724653,0.17429843,0.23799816,0.38041218
51690,0,USVirginiaMartinsville,Virginia,Martinsville,2021-04-04 02:22:59.075201,2020-06-22 00:00:00.000000,1.04516312,1.58286467,2.35182958,131,198,295,66,100,156,0.52987292,0.80441469,1.24306268,0.17824575,0.24013830,0.38396164
51690,0,USVirginiaMartinsville,Virginia,Martinsville,2021-04-04 02:22:59.075201,2020-06-23 00:00:00.000000,1.06463445,1.63063016,2.41074870,133,204,302,67,103,158,0.53540823,0.82421901,1.26062242,0.17964793,0.24677506,0.38987348
51690,0,USVirginiaMartinsville,Virginia,Martinsville,2021-04-04 02:22:59.075201,2020-06-24 00:00:00.000000,1.07953762,1.67307359,2.44658196,135,210,307,68,107,161,0.54188080,0.85369727,1.28382354,0.18117693,0.24637754,0.39126087
51690,0,USVirginiaMartinsville,Virginia,Martinsville,2021-04-04 02:22:59.075201,2020-06-25 00:00:00.000000,1.09066504,1.70996499,2.48200460,136,214,311,68,109,164,0.54901873,0.86872766,1.31083465,0.18133216,0.24718448,0.38668392
51690,0,USVirginiaMartinsville,Virginia,Martinsville,2021-04-04 02:22:59.075201,2020-06-26 00:00:00.000000,1.09881167,1.75874657,2.51775818,137,220,316,69,112,167,0.55672907,0.89356957,1.33527858,0.18378167,0.25277085,0.38220080
51690,0,USVirginiaMartinsville,Virginia,Martinsville,2021-04-04 02:22:59.075201,2020-06-27 00:00:00.000000,1.11777856,1.79410880,2.55579969,140,225,320,72,114,170,0.57396109,0.91342982,1.35715521,0.18182490,0.25447190,0.38930200
51690,0,USVirginiaMartinsville,Virginia,Martinsville,2021-04-04 02:22:59.075201,2020-06-28 00:00:00.000000,1.14051312,1.82647632,2.59995348,143,229,326,72,116,172,0.57444964,0.92919498,1.37702878,0.18109304,0.25510340,0.39586300
51690,0,USVirginiaMartinsville,Virginia,Martinsville,2021-04-04 02:22:59.075201,2020-06-29 00:00:00.000000,1.18024785,1.86987418,2.62845718,148,234,329,73,119,177,0.58210662,0.95412136,1.41061057,0.18716110,0.26172899,0.39727530
51690,0,USVirginiaMartinsville,Virginia,Martinsville,2021-04-04 02:22:59.075201,2020-06-30 00:00:00.000000,1.24708610,1.92333674,2.66126552,156,241,334,75,122,183,0.60204806,0.97872286,1.46496745,0.19176006,0.26198245,0.39581302
51690,0,USVirginiaMartinsville,Virginia,Martinsville,2021-04-04 02:22:59.075201,2020-07-01 00:00:00.000000,1.27202746,1.97235101,2.69513681,159,247,338,78,125,188,0.62904194,1.00054319,1.49918464,0.19613966,0.26576994,0.39239767
51690,0,USVirginiaMartinsville,Virginia,Martinsville,2021-04-04 02:22:59.075201,2020-07-02 00:00:00.000000,1.30461799,2.02137805,2.76128872,163,253,346,82,128,192,0.66024722,1.02255460,1.53105357,0.19228678,0.26659079,0.39242038
51690,0,USVirginiaMartinsville,Virginia,Martinsville,2021-04-04 02:22:59.075201,2020-07-03 00:00:00.000000,1.37190276,2.07161421,2.85089138,172,260,357,83,131,196,0.66649011,1.04697475,1.56645601,0.18843956,0.27302097,0.39269092
51690,0,USVirginiaMartinsville,Virginia,Martinsville,2021-04-04 02:22:59.075201,2020-07-04 00:00:00.000000,1.39786385,2.11148803,2.93766022,175,265,368,84,135,201,0.67381541,1.07584939,1.60518311,0.18605358,0.27355823,0.39254834
51690,0,USVirginiaMartinsville,Virginia,Martinsville,2021-04-04 02:22:59.075201,2020-07-05 00:00:00.000000,1.43531302,2.14918162,3.01823716,180,269,378,88,140,206,0.70236004,1.11653696,1.64752148,0.18599778,0.27959527,0.39277420
51690,0,USVirginiaMartinsville,Virginia,Martinsville,2021-04-04 02:22:59.075201,2020-07-06 00:00:00.000000,1.45152144,2.19329203,3.07938129,182,275,386,87,144,212,0.69646978,1.15212932,1.69387081,0.18276508,0.28204921,0.39362659
51690,0,USVirginiaMartinsville,Virginia,Martinsville,2021-04-04 02:22:59.075201,2020-07-07 00:00:00.000000,1.46225917,2.23898355,3.13477928,183,281,393,88,146,218,0.70658591,1.16993331,1.73884601,0.18419803,0.28242992,0.39326715
51690,0,USVirginiaMartinsville,Virginia,Martinsville,2021-04-04 02:22:59.075201,2020-07-08 00:00:00.000000,1.47360261,2.28326697,3.16803388,184,286,397,91,149,223,0.72762121,1.19000439,1.78345218,0.18913728,0.28082218,0.39252790
51690,0,USVirginiaMartinsville,Virginia,Martinsville,2021-04-04 02:22:59.075201,2020-07-09 00:00:00.000000,1.48717285,2.33144437,3.18008085,186,292,399,94,153,229,0.75548042,1.21893770,1.82816694,0.19505328,0.27814677,0.37752943
51690,0,USVirginiaMartinsville,Virginia,Martinsville,2021-04-04 02:22:59.075201,2020-07-10 00:00:00.000000,1.53335946,2.38867137,3.25635890,192,299,408,98,156,235,0.78760202,1.24598026,1.87910624,0.19889929,0.27574037,0.35319802
51690,0,USVirginiaMartinsville,Virginia,Martinsville,2021-04-04 02:22:59.075201,2020-07-11 00:00:00.000000,1.60199670,2.44958011,3.33567658,201,307,418,103,159,243,0.82243505,1.26698947,1.94325527,0.19277070,0.27018558,0.35884673
51690,0,USVirginiaMartinsville,Virginia,Martinsville,2021-04-04 02:22:59.075201,2020-07-12 00:00:00.000000,1.63862133,2.47884017,3.46521149,205,311,435,106,162,253,0.84701632,1.29752791,2.02127269,0.18965302,0.26817678,0.35060990
51690,0,USVirginiaMartinsville,Virginia,Martinsville,2021-04-04 02:22:59.075201,2020-07-13 00:00:00.000000,1.65005968,2.56592108,3.56017353,207,322,446,107,165,263,0.85630570,1.31650024,2.09510961,0.18921072,0.26689914,0.35092656
51690,0,USVirginiaMartinsville,Virginia,Martinsville,2021-04-04 02:22:59.075201,2020-07-14 00:00:00.000000,1.65722444,2.63290283,3.65281447,208,330,458,108,167,263,0.86602542,1.33292571,2.09665231,0.18958035,0.26744010,0.35610260
51690,0,USVirginiaMartinsville,Virginia,Martinsville,2021-04-04 02:22:59.075201,2020-07-15 00:00:00.000000,1.67418557,2.65256579,3.74418781,210,333,470,109,169,263,0.87602801,1.35317483,2.10147939,0.19066126,0.26811448,0.36087717
51690,0,USVirginiaMartinsville,Virginia,Martinsville,2021-04-04 02:22:59.075201,2020-07-16 00:00:00.000000,1.71750948,2.67355130,3.83569137,215,335,481,111,173,269,0.88634206,1.38183754,2.14593513,0.19292220,0.27060862,0.36416372
51690,0,USVirginiaMartinsville,Virginia,Martinsville,2021-04-04 02:22:59.075201,2020-07-17 00:00:00.000000,1.76392626,2.71236451,3.92721057,221,340,493,112,177,270,0.89756184,1.41064456,2.15500247,0.19710923,0.27409745,0.36690983
51690,0,USVirginiaMartinsville,Virginia,Martinsville,2021-04-04 02:22:59.075201,2020-07-18 00:00:00.000000,1.81778043,2.74498101,4.01783759,228,344,504,114,179,277,0.90863331,1.43322279,2.21281030,0.21086908,0.27796892,0.36749342
51690,0,USVirginiaMartinsville,Virginia,Martinsville,2021-04-04 02:22:59.075201,2020-07-19 00:00:00.000000,1.88742855,2.78949516,4.10557845,236,350,515,114,182,287,0.91489072,1.45514193,2.28616155,0.20984892,0.28325155,0.36690173
51690,0,USVirginiaMartinsville,Virginia,Martinsville,2021-04-04 02:22:59.075201,2020-07-20 00:00:00.000000,1.90692158,2.86971040,4.17957183,239,360,524,116,185,295,0.92468906,1.47969809,2.35688522,0.20660348,0.28425782,0.36366855
51690,0,USVirginiaMartinsville,Virginia,Martinsville,2021-04-04 02:22:59.075201,2020-07-21 00:00:00.000000,1.92025771,2.97715293,4.24668311,241,373,533,118,188,303,0.94420897,1.50002579,2.41761893,0.20119666,0.28578217,0.37418141
51690,0,USVirginiaMartinsville,Virginia,Martinsville,2021-04-04 02:22:59.075201,2020-07-22 00:00:00.000000,1.93384499,3.04054966,4.30931728,242,381,540,121,190,311,0.96542653,1.51381641,2.48017223,0.19800211,0.28634953,0.38619912
51690,0,USVirginiaMartinsville,Virginia,Martinsville,2021-04-04 02:22:59.075201,2020-07-23 00:00:00.000000,1.94754518,3.08479961,4.40455468,244,387,552,123,193,319,0.98624846,1.53809716,2.54431200,0.20172017,0.28927019,0.39087871
51690,0,USVirginiaMartinsville,Virginia,Martinsville,2021-04-04 02:22:59.075201,2020-07-24 00:00:00.000000,1.96968912,3.11698221,4.53902946,247,391,569,126,196,327,1.00977278,1.56240949,2.60955491,0.21289544,0.29521842,0.37782537
51690,0,USVirginiaMartinsville,Virginia,Martinsville,2021-04-04 02:22:59.075201,2020-07-25 00:00:00.000000,1.97593558,3.18737924,4.67515769,248,400,586,132,199,335,1.05159037,1.59041906,2.66939214,0.22151604,0.30226447,0.39054337
51690,0,USVirginiaMartinsville,Virginia,Martinsville,2021-04-04 02:22:59.075201,2020-07-26 00:00:00.000000,2.00018960,3.28384988,4.81062326,251,412,603,132,203,342,1.05629731,1.62315417,2.72909012,0.21978333,0.30314134,0.41017974
51690,0,USVirginiaMartinsville,Virginia,Martinsville,2021-04-04 02:22:59.075201,2020-07-27 00:00:00.000000,2.05766157,3.38995951,4.92664652,258,425,618,135,208,350,1.08218666,1.66108564,2.78890641,0.21609229,0.30441989,0.43187057
51690,0,USVirginiaMartinsville,Virginia,Martinsville,2021-04-04 02:22:59.075201,2020-07-28 00:00:00.000000,2.13021979,3.48674257,4.97600883,267,437,624,139,215,357,1.11439415,1.71421933,2.84807306,0.23095826,0.30353392,0.44996395
51690,0,USVirginiaMartinsville,Virginia,Martinsville,2021-04-04 02:22:59.075201,2020-07-29 00:00:00.000000,2.20948309,3.56866547,5.02210164,277,448,630,144,220,364,1.15214219,1.75976375,2.90687966,0.23142477,0.30273398,0.45869332
51690,0,USVirginiaMartinsville,Virginia,Martinsville,2021-04-04 02:22:59.075201,2020-07-30 00:00:00.000000,2.29227039,3.67528712,5.06206301,287,461,635,149,227,372,1.19466874,1.81529193,2.96548903,0.23310296,0.30471732,0.45960399
51690,0,USVirginiaMartinsville,Virginia,Martinsville,2021-04-04 02:22:59.075201,2020-07-31 00:00:00.000000,2.34905320,3.76397961,5.08600486,294,472,638,154,235,379,1.22827167,1.87252798,3.02397291,0.23194368,0.30529070,0.46066013
51690,0,USVirginiaMartinsville,Virginia,Martinsville,2021-04-04 02:22:59.075201,2020-08-01 00:00:00.000000,2.39605649,3.84543494,5.13228559,300,482,644,159,241,386,1.26991406,1.92143649,3.08231790,0.22063220,0.30533485,0.46166264
51690,0,USVirginiaMartinsville,Virginia,Martinsville,2021-04-04 02:22:59.075201,2020-08-02 00:00:00.000000,2.50648298,3.95254357,5.20211326,314,496,653,165,245,394,1.32025663,1.95867940,3.14038973,0.22414900,0.30831293,0.46238400
51690,0,USVirginiaMartinsville,Virginia,Martinsville,2021-04-04 02:22:59.075201,2020-08-03 00:00:00.000000,2.61502718,4.04282392,5.22100978,328,507,655,169,253,401,1.35408067,2.01549656,3.19775332,0.22649296,0.30962529,0.46278198
51690,0,USVirginiaMartinsville,Virginia,Martinsville,2021-04-04 02:22:59.075201,2020-08-04 00:00:00.000000,2.73565073,4.12248887,5.29019171,343,517,664,174,258,408,1.39361764,2.06234773,3.25288748,0.22436538,0.30910093,0.46568770
51690,0,USVirginiaMartinsville,Virginia,Martinsville,2021-04-04 02:22:59.075201,2020-08-05 00:00:00.000000,2.83785545,4.21209193,5.41997960,356,528,680,179,266,415,1.42838218,2.12311155,3.30579347,0.22182935,0.30328142,0.46660528
51690,0,USVirginiaMartinsville,Virginia,Martinsville,2021-04-04 02:22:59.075201,2020-08-06 00:00:00.000000,2.94005950,4.24264536,5.51393906,369,532,692,184,272,417,1.46861208,2.17215631,3.32531498,0.21836855,0.30461383,0.46671399
51690,0,USVirginiaMartinsville,Virginia,Martinsville,2021-04-04 02:22:59.075201,2020-08-07 00:00:00.000000,3.04504579,4.27005557,5.59193208,382,536,702,190,279,424,1.51348184,2.22950493,3.37804977,0.20610408,0.29703791,0.45938298
51690,0,USVirginiaMartinsville,Virginia,Martinsville,2021-04-04 02:22:59.075201,2020-08-08 00:00:00.000000,3.13531523,4.29988120,5.69149986,393,539,714,197,284,432,1.57474072,2.26773038,3.44841429,0.20116771,0.28999524,0.45173752
51690,0,USVirginiaMartinsville,Virginia,Martinsville,2021-04-04 02:22:59.075201,2020-08-09 00:00:00.000000,3.16704902,4.31702931,5.78873811,397,541,726,203,286,437,1.61936635,2.28392543,3.48737374,0.20108105,0.28039293,0.43056865
51690,0,USVirginiaMartinsville,Virginia,Martinsville,2021-04-04 02:22:59.075201,2020-08-10 00:00:00.000000,3.22129827,4.35922128,5.86520832,404,547,736,208,291,441,1.66407201,2.31821209,3.51728031,0.19586581,0.27629888,0.40982886
51690,0,USVirginiaMartinsville,Virginia,Martinsville,2021-04-04 02:22:59.075201,2020-08-11 00:00:00.000000,3.29071275,4.37444830,5.92397068,413,549,743,213,295,446,1.69916340,2.35156990,3.55572744,0.19180512,0.26903029,0.40764721
51690,0,USVirginiaMartinsville,Virginia,Martinsville,2021-04-04 02:22:59.075201,2020-08-12 00:00:00.000000,3.36132306,4.41524293,5.93227382,421,554,744,217,299,453,1.73373818,2.38246636,3.61280131,0.18998685,0.26689283,0.41756266
51690,0,USVirginiaMartinsville,Virginia,Martinsville,2021-04-04 02:22:59.075201,2020-08-13 00:00:00.000000,3.30813513,4.45277868,5.92470131,415,559,743,221,303,457,1.76456266,2.41917284,3.64638346,0.18523521,0.25924750,0.40923581
51690,0,USVirginiaMartinsville,Virginia,Martinsville,2021-04-04 02:22:59.075201,2020-08-14 00:00:00.000000,3.24903875,4.43969732,5.90085306,407,557,740,224,308,457,1.78480314,2.45642330,3.64071240,0.17805863,0.25411892,0.39078481
51690,0,USVirginiaMartinsville,Virginia,Martinsville,2021-04-04 02:22:59.075201,2020-08-15 00:00:00.000000,3.18480628,4.48647430,5.98568571,399,563,751,228,308,462,1.82217755,2.45488929,3.68607405,0.16591714,0.24421555,0.38688439
51690,0,USVirginiaMartinsville,Virginia,Martinsville,2021-04-04 02:22:59.075201,2020-08-16 00:00:00.000000,3.16535067,4.46419584,6.07207780,397,560,762,229,306,462,1.82550028,2.44462204,3.68158408,0.15992294,0.23479526,0.37305555
51690,0,USVirginiaMartinsville,Virginia,Martinsville,2021-04-04 02:22:59.075201,2020-08-17 00:00:00.000000,3.18355092,4.38686917,6.14216315,399,550,771,227,307,466,1.80822164,2.44895398,3.71760862,0.15318805,0.22375352,0.33943739
51690,0,USVirginiaMartinsville,Virginia,Martinsville,2021-04-04 02:22:59.075201,2020-08-18 00:00:00.000000,3.18415781,4.29995637,6.09020839,399,539,764,224,307,472,1.78834475,2.45008111,3.76069331,0.15123025,0.22041109,0.31391758
51690,0,USVirginiaMartinsville,Virginia,Martinsville,2021-04-04 02:22:59.075201,2020-08-19 00:00:00.000000,3.15929173,4.27067525,6.00821974,396,536,754,222,305,476,1.77290305,2.43068997,3.79555931,0.14942853,0.21534641,0.31316285
51690,0,USVirginiaMartinsville,Virginia,Martinsville,2021-04-04 02:22:59.075201,2020-08-20 00:00:00.000000,3.10959346,4.23518212,5.92325673,390,531,743,218,301,480,1.74002546,2.40336020,3.82355013,0.13787187,0.20861560,0.31032372
51690,0,USVirginiaMartinsville,Virginia,Martinsville,2021-04-04 02:22:59.075201,2020-08-21 00:00:00.000000,3.04623474,4.19016321,5.87769719,382,526,737,215,298,482,1.71330313,2.37758341,3.84517246,0.13569745,0.20315105,0.29850316
51690,0,USVirginiaMartinsville,Virginia,Martinsville,2021-04-04 02:22:59.075201,2020-08-22 00:00:00.000000,2.98710365,4.15819589,5.87676324,375,522,737,211,295,481,1.68578721,2.35623597,3.83416076,0.13522718,0.19996772,0.28456627
51690,0,USVirginiaMartinsville,Virginia,Martinsville,2021-04-04 02:22:59.075201,2020-08-23 00:00:00.000000,2.90349512,4.11229023,5.85603676,364,516,735,206,290,475,1.64733757,2.31244558,3.78568953,0.13382643,0.19487500,0.27563382
51690,0,USVirginiaMartinsville,Virginia,Martinsville,2021-04-04 02:22:59.075201,2020-08-24 00:00:00.000000,2.83374505,4.02615192,5.82265017,355,505,730,200,285,468,1.60005695,2.27699198,3.73410318,0.13317651,0.19364435,0.25202911
51690,0,USVirginiaMartinsville,Virginia,Martinsville,2021-04-04 02:22:59.075201,2020-08-25 00:00:00.000000,2.76676128,3.94046519,5.72125761,347,494,718,197,282,461,1.57132909,2.24942443,3.67935188,0.12675433,0.19242705,0.24948899
51690,0,USVirginiaMartinsville,Virginia,Martinsville,2021-04-04 02:22:59.075201,2020-08-26 00:00:00.000000,2.70098390,3.85326117,5.61977121,339,483,705,194,276,458,1.54855283,2.20606513,3.65600044,0.12616224,0.19006291,0.24464251
51690,0,USVirginiaMartinsville,Virginia,Martinsville,2021-04-04 02:22:59.075201,2020-08-27 00:00:00.000000,2.63457208,3.76274063,5.56332162,330,472,698,191,271,457,1.52577555,2.16205027,3.64422620,0.12442685,0.18690299,0.23501827
51690,0,USVirginiaMartinsville,Virginia,Martinsville,2021-04-04 02:22:59.075201,2020-08-28 00:00:00.000000,2.56603458,3.66938323,5.49908386,322,460,690,186,267,455,1.48298168,2.13169313,3.62623072,0.12123804,0.17995192,0.22180956
51690,0,USVirginiaMartinsville,Virginia,Martinsville,2021-04-04 02:22:59.075201,2020-08-29 00:00:00.000000,2.49508783,3.58688786,5.39323282,313,450,677,179,260,451,1.43230698,2.07351914,3.59999810,0.11216634,0.17113392,0.22149820
51690,0,USVirginiaMartinsville,Virginia,Martinsville,2021-04-04 02:22:59.075201,2020-08-30 00:00:00.000000,2.42350753,3.47206999,5.25040325,304,435,659,173,253,447,1.38398655,2.02019312,3.56250336,0.10897695,0.16545779,0.22592999
51690,0,USVirginiaMartinsville,Virginia,Martinsville,2021-04-04 02:22:59.075201,2020-08-31 00:00:00.000000,2.34286433,3.36791094,5.10733160,294,422,641,169,246,439,1.34648557,1.96327337,3.49836791,0.10817573,0.16414691,0.23052185
51690,0,USVirginiaMartinsville,Virginia,Martinsville,2021-04-04 02:22:59.075201,2020-09-01 00:00:00.000000,2.26346951,3.26533155,4.96432093,284,409,623,163,239,430,1.29839602,1.90478075,3.43136209,0.10763810,0.16461103,0.24779562
51690,0,USVirginiaMartinsville,Virginia,Martinsville,2021-04-04 02:22:59.075201,2020-09-02 00:00:00.000000,2.18566249,3.13492333,4.86985203,274,393,611,157,232,422,1.25813751,1.84938605,3.36741674,0.10701070,0.16327687,0.25489093
51690,0,USVirginiaMartinsville,Virginia,Martinsville,2021-04-04 02:22:59.075201,2020-09-03 00:00:00.000000,2.16822009,3.04895544,4.78198155,272,382,600,153,225,413,1.22193490,1.79912966,3.29558735,0.10708429,0.16390112,0.25475014
51690,0,USVirginiaMartinsville,Virginia,Martinsville,2021-04-04 02:22:59.075201,2020-09-04 00:00:00.000000,2.06871135,2.98072765,4.69383605,259,374,589,148,219,403,1.18367114,1.74960535,3.21066900,0.10638116,0.16518395,0.25468630
51690,0,USVirginiaMartinsville,Virginia,Martinsville,2021-04-04 02:22:59.075201,2020-09-05 00:00:00.000000,1.97756321,2.88267895,4.60764029,248,361,578,143,215,392,1.13974644,1.71398318,3.12306751,0.10707901,0.16621185,0.25470420
51690,0,USVirginiaMartinsville,Virginia,Martinsville,2021-04-04 02:22:59.075201,2020-09-06 00:00:00.000000,1.89910530,2.82131713,4.47223688,238,354,561,137,210,380,1.09908220,1.67600834,3.03429973,0.10879411,0.16701664,0.25491095
51690,0,USVirginiaMartinsville,Virginia,Martinsville,2021-04-04 02:22:59.075201,2020-09-07 00:00:00.000000,1.83219245,2.76845408,4.32712607,230,347,543,133,205,369,1.06153676,1.64010077,2.94548482,0.11242080,0.16757343,0.25560807
51690,0,USVirginiaMartinsville,Virginia,Martinsville,2021-04-04 02:22:59.075201,2020-09-08 00:00:00.000000,1.77967231,2.71255252,4.19014984,223,340,526,129,201,360,1.03063683,1.60255919,2.86783873,0.11269494,0.16789568,0.25695139
51690,0,USVirginiaMartinsville,Virginia,Martinsville,2021-04-04 02:22:59.075201,2020-09-09 00:00:00.000000,1.75259034,2.64496661,4.05932772,220,332,509,126,196,351,1.00481382,1.56303730,2.79873762,0.11245298,0.16961913,0.26270280
51690,0,USVirginiaMartinsville,Virginia,Martinsville,2021-04-04 02:22:59.075201,2020-09-10 00:00:00.000000,1.72701671,2.56545805,3.94823368,216,322,495,123,191,343,0.98099143,1.52502103,2.73633086,0.11405693,0.17387089,0.26617184
51690,0,USVirginiaMartinsville,Virginia,Martinsville,2021-04-04 02:22:59.075201,2020-09-11 00:00:00.000000,1.67827380,2.48375036,3.86963621,210,311,485,120,186,336,0.95918313,1.48612777,2.67934255,0.11619358,0.17899212,0.26888318
51690,0,USVirginiaMartinsville,Virginia,Martinsville,2021-04-04 02:22:59.075201,2020-09-12 00:00:00.000000,1.62512843,2.43578232,3.88602827,204,305,487,117,181,329,0.93913481,1.44483745,2.62692683,0.11934503,0.18408198,0.27261149
51690,0,USVirginiaMartinsville,Virginia,Martinsville,2021-04-04 02:22:59.075201,2020-09-13 00:00:00.000000,1.58803563,2.39651154,3.83525224,199,300,481,115,177,323,0.92139705,1.41101816,2.57854926,0.12117094,0.18872161,0.27548339
51690,0,USVirginiaMartinsville,Virginia,Martinsville,2021-04-04 02:22:59.075201,2020-09-14 00:00:00.000000,1.58899683,2.34847478,3.77756383,199,294,474,113,173,318,0.90718947,1.38574762,2.53387636,0.12556570,0.18994578,0.27999366
51690,0,USVirginiaMartinsville,Virginia,Martinsville,2021-04-04 02:22:59.075201,2020-09-15 00:00:00.000000,1.58379744,2.30315777,3.72395084,198,289,467,111,171,311,0.89153574,1.36470294,2.48357908,0.12847247,0.19114357,0.29908402
51690,0,USVirginiaMartinsville,Virginia,Martinsville,2021-04-04 02:22:59.075201,2020-09-16 00:00:00.000000,1.54955268,2.27982895,3.67436832,194,286,461,109,168,305,0.87531031,1.34521966,2.43034528,0.12898328,0.19769512,0.30880240
51690,0,USVirginiaMartinsville,Virginia,Martinsville,2021-04-04 02:22:59.075201,2020-09-17 00:00:00.000000,1.51746600,2.26868536,3.62749894,190,284,455,107,166,298,0.85894602,1.32710861,2.37621702,0.12954500,0.20281361,0.31480767
51690,0,USVirginiaMartinsville,Virginia,Martinsville,2021-04-04 02:22:59.075201,2020-09-18 00:00:00.000000,1.49892775,2.25074325,3.58325680,188,282,449,105,163,291,0.84263521,1.30516188,2.32299633,0.13052394,0.20646945,0.31736546
51690,0,USVirginiaMartinsville,Virginia,Martinsville,2021-04-04 02:22:59.075201,2020-09-19 00:00:00.000000,1.50788109,2.23856659,3.54168560,189,281,444,103,160,285,0.82357726,1.28193988,2.27242302,0.13208589,0.21493767,0.31898730
51690,0,USVirginiaMartinsville,Virginia,Martinsville,2021-04-04 02:22:59.075201,2020-09-20 00:00:00.000000,1.49944724,2.23803740,3.50299205,188,280,439,101,156,279,0.80505099,1.24867789,2.22576726,0.13431311,0.21921878,0.31581210
51690,0,USVirginiaMartinsville,Virginia,Martinsville,2021-04-04 02:22:59.075201,2020-09-21 00:00:00.000000,1.48251372,2.23715478,3.44698498,186,280,432,98,153,274,0.78792458,1.22611206,2.18337701,0.13712132,0.22791539,0.31593144
51690,0,USVirginiaMartinsville,Virginia,Martinsville,2021-04-04 02:22:59.075201,2020-09-22 00:00:00.000000,1.48578394,2.22929311,3.41347581,186,279,428,96,152,269,0.77246239,1.21684872,2.14819455,0.14316251,0.23625141,0.34373083
51690,0,USVirginiaMartinsville,Virginia,Martinsville,2021-04-04 02:22:59.075201,2020-09-23 00:00:00.000000,1.50434245,2.20656167,3.40599019,188,277,427,95,153,265,0.75878377,1.21975388,2.11866118,0.15285008,0.24471947,0.37889343
51690,0,USVirginiaMartinsville,Virginia,Martinsville,2021-04-04 02:22:59.075201,2020-09-24 00:00:00.000000,1.52465643,2.21388391,3.39174989,191,277,425,95,153,262,0.76148285,1.21921561,2.09358317,0.15370244,0.25149279,0.38444548
51690,0,USVirginiaMartinsville,Virginia,Martinsville,2021-04-04 02:22:59.075201,2020-09-25 00:00:00.000000,1.51538780,2.21626390,3.34540206,190,278,419,94,151,260,0.75398174,1.20984292,2.07211450,0.15564106,0.26313463,0.39010120
51690,0,USVirginiaMartinsville,Virginia,Martinsville,2021-04-04 02:22:59.075201,2020-09-26 00:00:00.000000,1.50373128,2.23701679,3.36804022,188,280,422,93,152,257,0.74656189,1.21190007,2.05367536,0.16051540,0.26709325,0.39335088
51690,0,USVirginiaMartinsville,Virginia,Martinsville,2021-04-04 02:22:59.075201,2020-09-27 00:00:00.000000,1.49334328,2.26144901,3.37087339,187,283,423,92,152,255,0.74008661,1.21370614,2.03786265,0.17784587,0.27213434,0.39606376
51690,0,USVirginiaMartinsville,Virginia,Martinsville,2021-04-04 02:22:59.075201,2020-09-28 00:00:00.000000,1.52814196,2.28126793,3.32542399,191,286,417,92,153,254,0.73454522,1.22108646,2.02438075,0.19001538,0.27776857,0.40755863
51690,0,USVirginiaMartinsville,Virginia,Martinsville,2021-04-04 02:22:59.075201,2020-09-29 00:00:00.000000,1.56339568,2.30642096,3.28024458,196,289,411,92,154,253,0.73586659,1.22684150,2.01529672,0.19453430,0.28128473,0.41647110
51690,0,USVirginiaMartinsville,Virginia,Martinsville,2021-04-04 02:22:59.075201,2020-09-30 00:00:00.000000,1.60579691,2.33131034,3.29592759,201,292,413,93,154,252,0.74178101,1.23311950,2.00967968,0.19633347,0.28679369,0.42079181
51690,0,USVirginiaMartinsville,Virginia,Martinsville,2021-04-04 02:22:59.075201,2020-10-01 00:00:00.000000,1.63558307,2.35076698,3.31268414,205,295,415,94,156,251,0.75078032,1.24905050,2.00680173,0.19806175,0.28987108,0.41414247
51690,0,USVirginiaMartinsville,Virginia,Martinsville,2021-04-04 02:22:59.075201,2020-10-02 00:00:00.000000,1.66023153,2.39917844,3.30211738,208,301,414,95,159,251,0.76198735,1.27296488,2.00609866,0.20003020,0.28873268,0.40755510
51690,0,USVirginiaMartinsville,Virginia,Martinsville,2021-04-04 02:22:59.075201,2020-10-03 00:00:00.000000,1.65819249,2.43834668,3.32196592,208,306,417,97,162,251,0.77532357,1.29053485,2.00718273,0.20261375,0.28557935,0.40412913
51690,0,USVirginiaMartinsville,Virginia,Martinsville,2021-04-04 02:22:59.075201,2020-10-04 00:00:00.000000,1.65727297,2.45237690,3.33290972,208,307,418,99,164,252,0.79178181,1.30804933,2.00985857,0.20614141,0.28560615,0.40791030
51690,0,USVirginiaMartinsville,Virginia,Martinsville,2021-04-04 02:22:59.075201,2020-10-05 00:00:00.000000,1.67356437,2.47036206,3.31678770,210,310,416,101,166,252,0.81242362,1.32914051,2.01410893,0.21052751,0.28873405,0.41078161
51690,0,USVirginiaMartinsville,Virginia,Martinsville,2021-04-04 02:22:59.075201,2020-10-06 00:00:00.000000,1.67844940,2.48010349,3.31132012,210,311,415,103,168,252,0.82787166,1.34249719,2.01470959,0.21095668,0.28498584,0.41274568
51690,0,USVirginiaMartinsville,Virginia,Martinsville,2021-04-04 02:22:59.075201,2020-10-07 00:00:00.000000,1.68177964,2.49903686,3.36496731,211,313,422,104,170,252,0.82953184,1.36201579,2.01291691,0.21238378,0.27959927,0.41683832
51690,0,USVirginiaMartinsville,Virginia,Martinsville,2021-04-04 02:22:59.075201,2020-10-08 00:00:00.000000,1.68888274,2.52350556,3.41763320,212,316,429,105,173,253,0.84132145,1.37820630,2.01649340,0.20793919,0.28723872,0.42522929
51690,0,USVirginiaMartinsville,Virginia,Martinsville,2021-04-04 02:22:59.075201,2020-10-09 00:00:00.000000,1.70149767,2.54980766,3.46723868,213,320,435,107,174,256,0.85833399,1.38735284,2.04011963,0.20458505,0.29031744,0.42519409
51690,0,USVirginiaMartinsville,Virginia,Martinsville,2021-04-04 02:22:59.075201,2020-10-10 00:00:00.000000,1.72077653,2.57870708,3.50906167,216,323,440,110,175,259,0.87632926,1.40142094,2.06433185,0.20467412,0.29060001,0.42506917
51690,0,USVirginiaMartinsville,Virginia,Martinsville,2021-04-04 02:22:59.075201,2020-10-11 00:00:00.000000,1.73967077,2.59141617,3.53914333,218,325,444,109,178,262,0.87214311,1.41822374,2.08879436,0.20558245,0.29185394,0.42538219
51690,0,USVirginiaMartinsville,Virginia,Martinsville,2021-04-04 02:22:59.075201,2020-10-12 00:00:00.000000,1.75166148,2.60626823,3.55770118,219,327,446,108,180,265,0.86485001,1.43770242,2.11331672,0.20543223,0.29300745,0.43140975
51690,0,USVirginiaMartinsville,Virginia,Martinsville,2021-04-04 02:22:59.075201,2020-10-13 00:00:00.000000,1.76360463,2.63375524,3.56538614,221,330,447,109,182,268,0.86836836,1.45467951,2.13911801,0.20604838,0.29362824,0.43935045
51690,0,USVirginiaMartinsville,Virginia,Martinsville,2021-04-04 02:22:59.075201,2020-10-14 00:00:00.000000,1.77635772,2.66112481,3.56347375,223,334,447,111,183,271,0.88530607,1.46500565,2.16579116,0.20722944,0.29045080,0.43969197
51690,0,USVirginiaMartinsville,Virginia,Martinsville,2021-04-04 02:22:59.075201,2020-10-15 00:00:00.000000,1.76236787,2.68280235,3.55376411,221,336,446,113,184,275,0.90055936,1.47175755,2.19304037,0.20849149,0.29122029,0.43908658
51690,0,USVirginiaMartinsville,Virginia,Martinsville,2021-04-04 02:22:59.075201,2020-10-16 00:00:00.000000,1.74854086,2.71027254,3.53279690,219,340,443,113,186,278,0.90491691,1.48619058,2.22066399,0.20949691,0.29237208,0.43878034
51690,0,USVirginiaMartinsville,Virginia,Martinsville,2021-04-04 02:22:59.075201,2020-10-17 00:00:00.000000,1.73798173,2.72061946,3.57033459,218,341,448,113,187,282,0.90619481,1.49670796,2.24846028,0.20994884,0.29294862,0.43884660
51690,0,USVirginiaMartinsville,Virginia,Martinsville,2021-04-04 02:22:59.075201,2020-10-18 00:00:00.000000,1.73400587,2.75575033,3.61496791,217,345,453,112,189,285,0.89725074,1.50753687,2.27371368,0.21026620,0.29619940,0.44001221
51690,0,USVirginiaMartinsville,Virginia,Martinsville,2021-04-04 02:22:59.075201,2020-10-19 00:00:00.000000,1.74351719,2.78253638,3.62009922,218,349,454,112,189,288,0.89818998,1.50913003,2.30085829,0.21090212,0.29878475,0.44358621
51690,0,USVirginiaMartinsville,Virginia,Martinsville,2021-04-04 02:22:59.075201,2020-10-20 00:00:00.000000,1.76576117,2.78334728,3.63041291,221,349,455,114,191,290,0.90888176,1.52558872,2.31630878,0.21288409,0.30224936,0.45295173
51690,0,USVirginiaMartinsville,Virginia,Martinsville,2021-04-04 02:22:59.075201,2020-10-21 00:00:00.000000,1.79957886,2.77047435,3.68228046,225,347,462,115,192,292,0.91814390,1.52974267,2.32864605,0.22385315,0.30571253,0.46340381
51690,0,USVirginiaMartinsville,Virginia,Martinsville,2021-04-04 02:22:59.075201,2020-10-22 00:00:00.000000,1.84311004,2.76832801,3.70890233,231,347,465,116,193,294,0.92868757,1.54026053,2.34749183,0.23506627,0.31101332,0.46355102
51690,0,USVirginiaMartinsville,Virginia,Martinsville,2021-04-04 02:22:59.075201,2020-10-23 00:00:00.000000,1.88890026,2.77819878,3.74589412,237,348,470,118,195,297,0.94345735,1.55805974,2.37264770,0.23656573,0.32235414,0.48049942
51690,0,USVirginiaMartinsville,Virginia,Martinsville,2021-04-04 02:22:59.075201,2020-10-24 00:00:00.000000,1.90549595,2.82240920,3.85039127,239,354,483,121,196,301,0.96438306,1.56353598,2.40440513,0.23915755,0.33449236,0.49044427
51690,0,USVirginiaMartinsville,Virginia,Martinsville,2021-04-04 02:22:59.075201,2020-10-25 00:00:00.000000,1.97234111,2.89401351,3.95661503,247,363,496,124,197,306,0.99144797,1.57355143,2.44304591,0.25795365,0.34133935,0.49636696
51690,0,USVirginiaMartinsville,Virginia,Martinsville,2021-04-04 02:22:59.075201,2020-10-26 00:00:00.000000,2.01727006,2.97299798,4.09282215,253,373,513,128,199,310,1.02342252,1.58828451,2.47648691,0.26136507,0.35779855,0.51181526
51690,0,USVirginiaMartinsville,Virginia,Martinsville,2021-04-04 02:22:59.075201,2020-10-27 00:00:00.000000,2.03956093,3.00811541,4.23065216,256,377,531,133,199,315,1.06148963,1.59246373,2.51043470,0.26681997,0.36487037,0.53527469
51690,0,USVirginiaMartinsville,Virginia,Martinsville,2021-04-04 02:22:59.075201,2020-10-28 00:00:00.000000,2.06450604,3.07881293,4.37212493,259,386,548,136,202,319,1.08498308,1.61240919,2.54849889,0.26981171,0.36915557,0.53827750
51690,0,USVirginiaMartinsville,Virginia,Martinsville,2021-04-04 02:22:59.075201,2020-10-29 00:00:00.000000,2.09383402,3.13265591,4.50721853,262,393,565,138,204,325,1.10260255,1.63274048,2.59000573,0.27476027,0.38752889,0.57141810
51690,0,USVirginiaMartinsville,Virginia,Martinsville,2021-04-04 02:22:59.075201,2020-10-30 00:00:00.000000,2.11113647,3.17369612,4.63928950,265,398,582,141,208,330,1.12403364,1.65818859,2.63482921,0.29169173,0.40639240,0.57979441
51690,0,USVirginiaMartinsville,Virginia,Martinsville,2021-04-04 02:22:59.075201,2020-10-31 00:00:00.000000,2.17025356,3.24724851,4.77340872,272,407,599,141,209,337,1.12976739,1.67237310,2.68515472,0.29746604,0.42562747,0.58332755
51690,0,USVirginiaMartinsville,Virginia,Martinsville,2021-04-04 02:22:59.075201,2020-11-01 00:00:00.000000,2.22057356,3.35519775,4.90986633,278,421,616,141,214,344,1.12721181,1.70934930,2.74464730,0.31559037,0.43437144,0.59587467
51690,0,USVirginiaMartinsville,Virginia,Martinsville,2021-04-04 02:22:59.075201,2020-11-02 00:00:00.000000,2.27429929,3.49647039,5.06609623,285,438,635,147,221,353,1.17514739,1.76823355,2.81297890,0.33441630,0.44793510,0.61617063
51690,0,USVirginiaMartinsville,Virginia,Martinsville,2021-04-04 02:22:59.075201,2020-11-03 00:00:00.000000,2.35603972,3.64454825,5.22638714,295,457,656,154,230,362,1.22705577,1.83470089,2.89005564,0.34713655,0.46460360,0.62623933
51690,0,USVirginiaMartinsville,Virginia,Martinsville,2021-04-04 02:22:59.075201,2020-11-04 00:00:00.000000,2.46925690,3.80538570,5.39336603,309,477,677,161,240,373,1.28269010,1.91553873,2.97390481,0.35744240,0.48345770,0.63571038
51690,0,USVirginiaMartinsville,Virginia,Martinsville,2021-04-04 02:22:59.075201,2020-11-05 00:00:00.000000,2.60796753,3.97531556,5.57056655,327,499,699,168,250,384,1.33908481,1.99770656,3.06339474,0.36660351,0.49435340,0.64855646
51690,0,USVirginiaMartinsville,Virginia,Martinsville,2021-04-04 02:22:59.075201,2020-11-06 00:00:00.000000,2.73679484,4.13390869,5.76288471,343,518,723,174,261,396,1.38635023,2.08369350,3.15841789,0.37878836,0.51118028,0.64978701
51690,0,USVirginiaMartinsville,Virginia,Martinsville,2021-04-04 02:22:59.075201,2020-11-07 00:00:00.000000,2.85283507,4.30958659,5.99804187,358,541,752,179,274,409,1.42707919,2.18959559,3.25971755,0.39507815,0.51812068,0.66499468
51690,0,USVirginiaMartinsville,Virginia,Martinsville,2021-04-04 02:22:59.075201,2020-11-08 00:00:00.000000,3.02595869,4.52019503,6.29971893,379,567,790,188,286,422,1.50324126,2.27853781,3.36770092,0.40230197,0.53165842,0.66673095
51690,0,USVirginiaMartinsville,Virginia,Martinsville,2021-04-04 02:22:59.075201,2020-11-09 00:00:00.000000,3.21817334,4.73809548,6.55194218,404,594,822,196,295,437,1.56208705,2.35348776,3.48189172,0.40232899,0.53390556,0.66783533
51690,0,USVirginiaMartinsville,Virginia,Martinsville,2021-04-04 02:22:59.075201,2020-11-10 00:00:00.000000,3.42532559,5.02049545,6.80932904,430,630,854,203,307,452,1.62460628,2.44847682,3.60314099,0.41518394,0.53657767,0.70269279
51690,0,USVirginiaMartinsville,Virginia,Martinsville,2021-04-04 02:22:59.075201,2020-11-11 00:00:00.000000,3.64390155,5.17960107,7.06739629,457,650,887,212,321,468,1.69568046,2.56003897,3.73010087,0.41993481,0.53688613,0.71742846
51690,0,USVirginiaMartinsville,Virginia,Martinsville,2021-04-04 02:22:59.075201,2020-11-12 00:00:00.000000,3.84680131,5.35442883,7.31906717,482,672,918,224,335,484,1.78914599,2.67041179,3.86162337,0.40873808,0.53357435,0.70371892
51690,0,USVirginiaMartinsville,Virginia,Martinsville,2021-04-04 02:22:59.075201,2020-11-13 00:00:00.000000,3.98336068,5.60067453,7.55464005,500,703,948,237,346,501,1.88804524,2.75947232,3.99666355,0.40261221,0.52735772,0.69164219
51690,0,USVirginiaMartinsville,Virginia,Martinsville,2021-04-04 02:22:59.075201,2020-11-14 00:00:00.000000,4.21723695,5.84150018,7.69859573,529,733,966,250,361,523,1.99167171,2.87797220,4.17141121,0.40344939,0.52758075,0.68502387
51690,0,USVirginiaMartinsville,Virginia,Martinsville,2021-04-04 02:22:59.075201,2020-11-15 00:00:00.000000,4.44845214,6.10521966,7.97150798,558,766,1000,263,378,545,2.09769338,3.01524444,4.34910917,0.39765420,0.52061196,0.69419353
51690,0,USVirginiaMartinsville,Virginia,Martinsville,2021-04-04 02:22:59.075201,2020-11-16 00:00:00.000000,4.59893325,6.31470038,8.16720780,577,792,1025,276,392,567,2.20449581,3.13043262,4.52247214,0.40048236,0.50755055,0.68937446
51690,0,USVirginiaMartinsville,Virginia,Martinsville,2021-04-04 02:22:59.075201,2020-11-17 00:00:00.000000,4.71829570,6.57576238,8.46544561,592,825,1062,289,406,588,2.30838132,3.23600716,4.68481656,0.40232736,0.49933924,0.65791410
51690,0,USVirginiaMartinsville,Virginia,Martinsville,2021-04-04 02:22:59.075201,2020-11-18 00:00:00.000000,4.83325945,6.84072783,8.66152351,606,858,1087,299,418,607,2.38674347,3.33576308,4.83925879,0.38752801,0.48836991,0.63990119
51690,0,USVirginiaMartinsville,Virginia,Martinsville,2021-04-04 02:22:59.075201,2020-11-19 00:00:00.000000,4.94360243,7.02508554,8.83991290,620,881,1109,309,434,626,2.46902304,3.46251118,4.98805263,0.38066442,0.48176223,0.63270522
51690,0,USVirginiaMartinsville,Virginia,Martinsville,2021-04-04 02:22:59.075201,2020-11-20 00:00:00.000000,5.04364466,7.14151794,8.97437552,633,896,1126,317,449,646,2.52864106,3.57772624,5.15240584,0.36772121,0.46557520,0.62031793
51690,0,USVirginiaMartinsville,Virginia,Martinsville,2021-04-04 02:22:59.075201,2020-11-21 00:00:00.000000,5.11112043,7.23449397,9.06578473,641,908,1138,323,461,674,2.57289396,3.67822454,5.37061760,0.34975550,0.44857874,0.56642086
51690,0,USVirginiaMartinsville,Virginia,Martinsville,2021-04-04 02:22:59.075201,2020-11-22 00:00:00.000000,5.03119554,7.35162339,9.16003811,631,922,1149,330,473,693,2.63302875,3.77409936,5.52685524,0.33433728,0.43614743,0.55431290
51690,0,USVirginiaMartinsville,Virginia,Martinsville,2021-04-04 02:22:59.075201,2020-11-23 00:00:00.000000,5.05600399,7.45598312,9.36690595,634,936,1175,337,483,704,2.69001692,3.85079958,5.61446150,0.33198657,0.42581427,0.54802808
51690,0,USVirginiaMartinsville,Virginia,Martinsville,2021-04-04 02:22:59.075201,2020-11-24 00:00:00.000000,5.16745333,7.51326682,9.51166351,648,943,1194,343,493,713,2.73675930,3.93145583,5.68648260,0.32311348,0.41777589,0.53777373
51690,0,USVirginiaMartinsville,Virginia,Martinsville,2021-04-04 02:22:59.075201,2020-11-25 00:00:00.000000,5.18530993,7.62175276,9.59369080,650,956,1204,345,506,721,2.75100118,4.03765196,5.74430261,0.31888847,0.40999630,0.52635384
51690,0,USVirginiaMartinsville,Virginia,Martinsville,2021-04-04 02:22:59.075201,2020-11-26 00:00:00.000000,5.18567665,7.70557987,9.62964337,651,967,1208,342,515,726,2.72987134,4.10579954,5.78995506,0.31296408,0.39970945,0.53087259
51690,0,USVirginiaMartinsville,Virginia,Martinsville,2021-04-04 02:22:59.075201,2020-11-27 00:00:00.000000,5.19063276,7.79855723,9.73311918,651,979,1221,339,523,732,2.70164642,4.17165097,5.83797055,0.31860150,0.39619594,0.53645955
51690,0,USVirginiaMartinsville,Virginia,Martinsville,2021-04-04 02:22:59.075201,2020-11-28 00:00:00.000000,5.30111429,7.93157572,9.84241241,665,995,1235,335,526,745,2.67255699,4.19108476,5.93445062,0.31320930,0.39435619,0.51750396
51690,0,USVirginiaMartinsville,Virginia,Martinsville,2021-04-04 02:22:59.075201,2020-11-29 00:00:00.000000,5.41088368,7.93621342,9.92824609,679,996,1246,331,535,755,2.64281265,4.26343090,6.01967522,0.30851100,0.39174966,0.51978220
51690,0,USVirginiaMartinsville,Virginia,Martinsville,2021-04-04 02:22:59.075201,2020-11-30 00:00:00.000000,5.40597002,7.85092431,10.00027251,678,985,1255,328,538,765,2.62041242,4.29058009,6.09371682,0.30470476,0.39704340,0.52382132
51690,0,USVirginiaMartinsville,Virginia,Martinsville,2021-04-04 02:22:59.075201,2020-12-01 00:00:00.000000,5.37745110,7.77463713,10.05180437,675,976,1261,335,540,772,2.67448672,4.30674336,6.15100082,0.30431544,0.39607176,0.53242147
51690,0,USVirginiaMartinsville,Virginia,Martinsville,2021-04-04 02:22:59.075201,2020-12-02 00:00:00.000000,5.35586682,7.76645477,10.08915074,672,975,1266,332,540,777,2.65118193,4.30651477,6.19620393,0.30240351,0.39211448,0.53970474
51690,0,USVirginiaMartinsville,Virginia,Martinsville,2021-04-04 02:22:59.075201,2020-12-03 00:00:00.000000,5.34863866,7.77587216,10.11431258,671,976,1269,327,542,782,2.60603347,4.32327945,6.23050193,0.30451265,0.38976116,0.54139923
51690,0,USVirginiaMartinsville,Virginia,Martinsville,2021-04-04 02:22:59.075201,2020-12-04 00:00:00.000000,5.37742206,7.78225930,10.12457016,675,976,1271,321,544,784,2.55841244,4.33983748,6.25209407,0.30707710,0.39309455,0.53855235
51690,0,USVirginiaMartinsville,Virginia,Martinsville,2021-04-04 02:22:59.075201,2020-12-05 00:00:00.000000,5.42742158,7.74970882,10.11509331,681,972,1269,317,541,786,2.52929139,4.31121842,6.26298696,0.31310723,0.39342725,0.53534126
51690,0,USVirginiaMartinsville,Virginia,Martinsville,2021-04-04 02:22:59.075201,2020-12-06 00:00:00.000000,5.47965866,7.76066894,10.09309926,687,974,1267,318,541,786,2.53494727,4.31310456,6.26629371,0.31535436,0.39875428,0.56457646
51690,0,USVirginiaMartinsville,Virginia,Martinsville,2021-04-04 02:22:59.075201,2020-12-07 00:00:00.000000,5.52260439,7.74420350,10.04669648,693,972,1261,319,542,788,2.54759575,4.32512017,6.27747308,0.31465736,0.39770277,0.59214384
51690,0,USVirginiaMartinsville,Virginia,Martinsville,2021-04-04 02:22:59.075201,2020-12-08 00:00:00.000000,5.56348798,7.78116157,10.06871968,698,976,1264,321,543,795,2.56347958,4.32590433,6.33821182,0.30839580,0.40359924,0.61413458
51690,0,USVirginiaMartinsville,Virginia,Martinsville,2021-04-04 02:22:59.075201,2020-12-09 00:00:00.000000,5.60152959,7.77595155,10.16551422,703,976,1276,324,542,797,2.58091371,4.31964465,6.35127706,0.31154513,0.40785044,0.61663665
51690,0,USVirginiaMartinsville,Virginia,Martinsville,2021-04-04 02:22:59.075201,2020-12-10 00:00:00.000000,5.63646064,7.73471595,10.25658180,707,971,1287,326,540,797,2.59873618,4.30897938,6.34872795,0.31574065,0.41128377,0.61758789
51690,0,USVirginiaMartinsville,Virginia,Martinsville,2021-04-04 02:22:59.075201,2020-12-11 00:00:00.000000,5.66811986,7.72077112,10.39180092,711,969,1304,328,542,798,2.61620121,4.32320964,6.36206876,0.31651726,0.41586310,0.63505502
51690,0,USVirginiaMartinsville,Virginia,Martinsville,2021-04-04 02:22:59.075201,2020-12-12 00:00:00.000000,5.69643913,7.77677304,10.55331229,715,976,1324,330,541,802,2.63283141,4.31011174,6.39369527,0.31967695,0.42581149,0.61652652
51690,0,USVirginiaMartinsville,Virginia,Martinsville,2021-04-04 02:22:59.075201,2020-12-13 00:00:00.000000,5.71161349,7.81300647,10.71625756,717,980,1345,333,537,808,2.65954645,4.28244734,6.44308270,0.32196833,0.43595730,0.61997424
51690,0,USVirginiaMartinsville,Virginia,Martinsville,2021-04-04 02:22:59.075201,2020-12-14 00:00:00.000000,5.68563835,7.87442708,10.86152631,713,988,1363,339,540,816,2.70253556,4.30766651,6.50757642,0.32691480,0.44997006,0.63627411
51690,0,USVirginiaMartinsville,Virginia,Martinsville,2021-04-04 02:22:59.075201,2020-12-15 00:00:00.000000,5.64033866,7.95247989,10.99856773,708,998,1380,343,542,826,2.74015730,4.32506941,6.58532271,0.33591874,0.46081160,0.64910981
51690,0,USVirginiaMartinsville,Virginia,Martinsville,2021-04-04 02:22:59.075201,2020-12-16 00:00:00.000000,5.67443084,8.07110866,11.13222628,712,1013,1397,348,545,837,2.77444884,4.34907895,6.67250697,0.34222807,0.46638835,0.67574705
51690,0,USVirginiaMartinsville,Virginia,Martinsville,2021-04-04 02:22:59.075201,2020-12-17 00:00:00.000000,5.70985447,8.16588862,11.26663845,716,1025,1414,353,549,849,2.81494962,4.37530590,6.76619566,0.34232046,0.47657291,0.72248496
51690,0,USVirginiaMartinsville,Virginia,Martinsville,2021-04-04 02:22:59.075201,2020-12-18 00:00:00.000000,5.74813488,8.16314320,11.28042734,721,1024,1416,362,553,861,2.88376861,4.40685101,6.86230788,0.34307536,0.49817935,0.75808095
51690,0,USVirginiaMartinsville,Virginia,Martinsville,2021-04-04 02:22:59.075201,2020-12-19 00:00:00.000000,5.82443300,8.18134778,11.39575448,731,1027,1430,373,558,866,2.97432298,4.44642604,6.89960350,0.34933901,0.51662488,0.78878200
51690,0,USVirginiaMartinsville,Virginia,Martinsville,2021-04-04 02:22:59.075201,2020-12-20 00:00:00.000000,5.84530671,8.25150574,11.55285030,733,1035,1450,384,559,871,3.06443911,4.45716862,6.94182381,0.39092703,0.53509783,0.80398057
51690,0,USVirginiaMartinsville,Virginia,Martinsville,2021-04-04 02:22:59.075201,2020-12-21 00:00:00.000000,5.91958961,8.35261874,11.71988962,743,1048,1471,386,557,877,3.08023968,4.44075564,6.99004390,0.41864695,0.56410024,0.81229014
51690,0,USVirginiaMartinsville,Virginia,Martinsville,2021-04-04 02:22:59.075201,2020-12-22 00:00:00.000000,6.05905819,8.47110394,11.87627861,760,1063,1490,391,562,883,3.11643437,4.48189453,7.03982710,0.43499673,0.58501239,0.82242868
51690,0,USVirginiaMartinsville,Virginia,Martinsville,2021-04-04 02:22:59.075201,2020-12-23 00:00:00.000000,6.20480734,8.61927346,12.01470550,778,1082,1508,399,570,890,3.17847451,4.54689101,7.09000228,0.48118706,0.59057785,0.83488674
51690,0,USVirginiaMartinsville,Virginia,Martinsville,2021-04-04 02:22:59.075201,2020-12-24 00:00:00.000000,6.32213331,8.72658209,12.12752702,793,1095,1522,409,576,896,3.26468170,4.59367422,7.13837631,0.48323588,0.60517065,0.86758552
51690,0,USVirginiaMartinsville,Virginia,Martinsville,2021-04-04 02:22:59.075201,2020-12-25 00:00:00.000000,6.40642755,8.83800270,12.20323893,804,1109,1531,419,581,901,3.34242024,4.63485491,7.18407777,0.48870317,0.62785753,0.90281347
51690,0,USVirginiaMartinsville,Virginia,Martinsville,2021-04-04 02:22:59.075201,2020-12-26 00:00:00.000000,6.40641273,8.95579719,12.23466629,804,1124,1535,427,587,909,3.40204054,4.68159393,7.24150924,0.49426108,0.64743311,0.93018093
51690,0,USVirginiaMartinsville,Virginia,Martinsville,2021-04-04 02:22:59.075201,2020-12-27 00:00:00.000000,6.53582227,9.08120806,12.23167961,820,1140,1535,436,597,923,3.47522227,4.75626662,7.35856097,0.50286743,0.67659814,0.98975386
51690,0,USVirginiaMartinsville,Virginia,Martinsville,2021-04-04 02:22:59.075201,2020-12-28 00:00:00.000000,6.70423405,9.26032623,12.20628978,841,1162,1532,447,610,938,3.56343177,4.86244840,7.47640952,0.50948100,0.69882864,0.99386450
51690,0,USVirginiaMartinsville,Virginia,Martinsville,2021-04-04 02:22:59.075201,2020-12-29 00:00:00.000000,6.89716137,9.50178390,12.44958162,865,1192,1562,459,619,949,3.66124413,4.93238993,7.56289017,0.54153945,0.72310286,1.00048099
51690,0,USVirginiaMartinsville,Virginia,Martinsville,2021-04-04 02:22:59.075201,2020-12-30 00:00:00.000000,7.08840972,9.72990868,12.79461385,889,1221,1606,465,633,955,3.70419755,5.04657908,7.61128376,0.54821915,0.75768937,1.01292821
51690,0,USVirginiaMartinsville,Virginia,Martinsville,2021-04-04 02:22:59.075201,2020-12-31 00:00:00.000000,7.27351244,9.98555043,13.14557320,913,1253,1650,470,651,964,3.75061015,5.18623109,7.68289946,0.55735439,0.76157039,1.02493689
51690,0,USVirginiaMartinsville,Virginia,Martinsville,2021-04-04 02:22:59.075201,2021-01-01 00:00:00.000000,7.45122818,10.24362908,13.47732732,935,1285,1691,477,666,975,3.79992967,5.30757014,7.77411905,0.57193272,0.76905395,1.11383929
51690,0,USVirginiaMartinsville,Virginia,Martinsville,2021-04-04 02:22:59.075201,2021-01-02 00:00:00.000000,7.62023776,10.47535494,13.78437858,956,1315,1730,483,687,989,3.85345703,5.47267004,7.87940063,0.59533609,0.78466595,1.20943734
51690,0,USVirginiaMartinsville,Virginia,Martinsville,2021-04-04 02:22:59.075201,2021-01-03 00:00:00.000000,7.77933653,10.72590620,14.06427363,976,1346,1765,491,699,1003,3.91447112,5.56834623,7.99343390,0.59851050,0.80257015,1.32109420
51690,0,USVirginiaMartinsville,Virginia,Martinsville,2021-04-04 02:22:59.075201,2021-01-04 00:00:00.000000,7.93476790,10.90774904,14.30786146,996,1369,1796,500,708,1018,3.98749819,5.64479733,8.11205118,0.61306492,0.80742913,1.31714188
51690,0,USVirginiaMartinsville,Virginia,Martinsville,2021-04-04 02:22:59.075201,2021-01-05 00:00:00.000000,8.07815098,11.05687482,14.52030845,1014,1388,1822,507,722,1033,4.04228444,5.75748780,8.23297824,0.61609592,0.80503723,1.25935429
51690,0,USVirginiaMartinsville,Virginia,Martinsville,2021-04-04 02:22:59.075201,2021-01-06 00:00:00.000000,8.10189828,11.26799516,14.69918814,1017,1414,1845,510,733,1048,4.06425363,5.84154986,8.35482037,0.61713573,0.81129844,1.40215802
51690,0,USVirginiaMartinsville,Virginia,Martinsville,2021-04-04 02:22:59.075201,2021-01-07 00:00:00.000000,8.06249139,11.39618938,14.71231114,1012,1430,1846,511,741,1064,4.07778228,5.90317958,8.47759022,0.62262077,0.81629550,1.43900436
51690,0,USVirginiaMartinsville,Virginia,Martinsville,2021-04-04 02:22:59.075201,2021-01-08 00:00:00.000000,8.00555298,11.53485701,14.66170473,1005,1448,1840,512,749,1079,4.08286375,5.97148275,8.60227430,0.60779761,0.80631711,1.43839549
51690,0,USVirginiaMartinsville,Virginia,Martinsville,2021-04-04 02:22:59.075201,2021-01-09 00:00:00.000000,7.97546839,11.59391607,14.55273867,1001,1455,1826,512,755,1095,4.07953339,6.01781720,8.72995894,0.59115408,0.82160059,1.44018100
51690,0,USVirginiaMartinsville,Virginia,Martinsville,2021-04-04 02:22:59.075201,2021-01-10 00:00:00.000000,8.10813480,11.61247784,14.37935182,1017,1457,1805,510,760,1112,4.06787930,6.05656879,8.86082412,0.57982123,0.82718230,1.44117477
51690,0,USVirginiaMartinsville,Virginia,Martinsville,2021-04-04 02:22:59.075201,2021-01-11 00:00:00.000000,8.05806166,11.62637558,14.19950894,1011,1459,1782,508,765,1129,4.04804742,6.09498617,8.99366484,0.55675595,0.81403698,1.44167322
51690,0,USVirginiaMartinsville,Virginia,Martinsville,2021-04-04 02:22:59.075201,2021-01-12 00:00:00.000000,8.20253093,11.58308097,14.38288640,1029,1454,1805,510,770,1145,4.06811484,6.13538944,9.12639683,0.54882402,0.81418858,1.44195186
51690,0,USVirginiaMartinsville,Virginia,Martinsville,2021-04-04 02:22:59.075201,2021-01-13 00:00:00.000000,8.34925641,11.51591388,14.54485029,1048,1445,1825,514,774,1161,4.09650830,6.17110263,9.25592119,0.53058468,0.80853132,1.44214237
51690,0,USVirginiaMartinsville,Virginia,Martinsville,2021-04-04 02:22:59.075201,2021-01-14 00:00:00.000000,8.36575705,11.42464152,14.68093148,1050,1434,1843,508,781,1177,4.05018334,6.22605791,9.37890541,0.51245275,0.78318850,1.44234615
51690,0,USVirginiaMartinsville,Virginia,Martinsville,2021-04-04 02:22:59.075201,2021-01-15 00:00:00.000000,8.26347668,11.27885391,14.78644416,1037,1415,1856,498,781,1191,3.97465752,6.22356441,9.48993821,0.50544127,0.77790211,1.44285529
51690,0,USVirginiaMartinsville,Virginia,Martinsville,2021-04-04 02:22:59.075201,2021-01-16 00:00:00.000000,8.12171755,11.14767261,14.85765715,1019,1399,1865,489,778,1189,3.89792470,6.20488899,9.47416033,0.46310909,0.76996790,1.44534816
51690,0,USVirginiaMartinsville,Virginia,Martinsville,2021-04-04 02:22:59.075201,2021-01-17 00:00:00.000000,7.94948856,10.97280107,14.65648003,997,1377,1839,489,770,1174,3.90167333,6.13970571,9.35341520,0.45601212,0.75905511,1.45967184
51690,0,USVirginiaMartinsville,Virginia,Martinsville,2021-04-04 02:22:59.075201,2021-01-18 00:00:00.000000,7.74360312,10.79495589,14.55519169,972,1355,1827,489,767,1168,3.89576863,6.11133746,9.30423247,0.45435651,0.74951524,1.51883848
51690,0,USVirginiaMartinsville,Virginia,Martinsville,2021-04-04 02:22:59.075201,2021-01-19 00:00:00.000000,7.51839186,10.55148064,14.44578526,943,1324,1813,487,762,1169,3.88215899,6.07329562,9.31237829,0.45410372,0.73537814,1.59992867
51690,0,USVirginiaMartinsville,Virginia,Martinsville,2021-04-04 02:22:59.075201,2021-01-20 00:00:00.000000,7.27826342,10.31461346,14.29824219,913,1294,1795,484,752,1166,3.85944288,5.99311589,9.29537531,0.45438004,0.72187018,1.46594144
51690,0,USVirginiaMartinsville,Virginia,Martinsville,2021-04-04 02:22:59.075201,2021-01-21 00:00:00.000000,7.02143541,10.00945978,14.11248694,881,1256,1771,480,740,1161,3.82517714,5.89480612,9.25346578,0.44946579,0.71089479,1.50976243
51690,0,USVirginiaMartinsville,Virginia,Martinsville,2021-04-04 02:22:59.075201,2021-01-22 00:00:00.000000,6.74134306,9.68544109,13.84765171,846,1215,1738,473,725,1153,3.77550143,5.77515454,9.18747518,0.43636524,0.70046432,1.43090726
51690,0,USVirginiaMartinsville,Virginia,Martinsville,2021-04-04 02:22:59.075201,2021-01-23 00:00:00.000000,6.44033374,9.39148597,13.55878524,808,1179,1702,465,706,1142,3.70729058,5.62483278,9.09850483,0.39036920,0.68144826,1.47574551
51690,0,USVirginiaMartinsville,Virginia,Martinsville,2021-04-04 02:22:59.075201,2021-01-24 00:00:00.000000,6.13333197,9.10043848,13.24751461,769,1142,1663,454,685,1128,3.62069858,5.46396788,8.98786002,0.36271561,0.65686127,1.53595446
51690,0,USVirginiaMartinsville,Virginia,Martinsville,2021-04-04 02:22:59.075201,2021-01-25 00:00:00.000000,5.93334632,8.83700917,12.88394557,744,1109,1617,441,662,1111,3.51890348,5.27661697,8.85702680,0.35876799,0.64384163,1.56684049
51690,0,USVirginiaMartinsville,Virginia,Martinsville,2021-04-04 02:22:59.075201,2021-01-26 00:00:00.000000,5.73239403,8.55193207,12.42993601,719,1073,1560,427,640,1093,3.40707370,5.09830667,8.70654767,0.35784302,0.62910646,1.57898791
51690,0,USVirginiaMartinsville,Virginia,Martinsville,2021-04-04 02:22:59.075201,2021-01-27 00:00:00.000000,5.53110669,8.24095244,11.97920321,694,1034,1503,411,621,1071,3.28098857,4.94897703,8.53857346,0.35764331,0.61535356,1.59892582
51690,0,USVirginiaMartinsville,Virginia,Martinsville,2021-04-04 02:22:59.075201,2021-01-28 00:00:00.000000,5.33010179,7.89860609,11.53484659,669,991,1448,393,602,1048,3.13094961,4.79749943,8.35527654,0.35073874,0.59042270,1.62777837
51690,0,USVirginiaMartinsville,Virginia,Martinsville,2021-04-04 02:22:59.075201,2021-01-29 00:00:00.000000,5.13045537,7.55702082,11.10057088,644,948,1393,374,584,1024,2.98030072,4.65286922,8.15877548,0.33048973,0.58471790,1.63890671
51690,0,USVirginiaMartinsville,Virginia,Martinsville,2021-04-04 02:22:59.075201,2021-01-30 00:00:00.000000,4.92496130,7.23751116,10.68090269,618,908,1340,355,565,998,2.83073005,4.50594614,7.95101745,0.32071242,0.58206626,1.67840975
51690,0,USVirginiaMartinsville,Virginia,Martinsville,2021-04-04 02:22:59.075201,2021-01-31 00:00:00.000000,4.66158155,6.95909792,10.27572671,585,873,1290,336,543,970,2.68228362,4.33032887,7.73367135,0.31671368,0.59360434,1.73177575
51690,0,USVirginiaMartinsville,Virginia,Martinsville,2021-04-04 02:22:59.075201,2021-02-01 00:00:00.000000,4.41759775,6.67708401,9.88232413,554,838,1240,318,521,942,2.53417721,4.15640588,7.50771560,0.31706238,0.58161851,1.74545219
51690,0,USVirginiaMartinsville,Virginia,Martinsville,2021-04-04 02:22:59.075201,2021-02-02 00:00:00.000000,4.18429279,6.40849982,9.49975091,525,804,1192,299,503,913,2.38664384,4.00831228,7.27382151,0.31183620,0.59133867,1.74624021
51690,0,USVirginiaMartinsville,Virginia,Martinsville,2021-04-04 02:22:59.075201,2021-02-03 00:00:00.000000,3.96227461,6.10908508,9.12798606,497,766,1145,282,487,882,2.24881047,3.88183321,7.02742785,0.30917470,0.58092629,1.74062346
51690,0,USVirginiaMartinsville,Virginia,Martinsville,2021-04-04 02:22:59.075201,2021-02-04 00:00:00.000000,3.75134499,5.79844234,8.76714908,470,727,1100,265,466,849,2.11319978,3.71546512,6.76950854,0.30819134,0.57323171,1.74846875
51690,0,USVirginiaMartinsville,Virginia,Martinsville,2021-04-04 02:22:59.075201,2021-02-05 00:00:00.000000,3.54987667,5.50369192,8.41753110,445,690,1056,249,445,818,1.98398619,3.54837561,6.51708996,0.30782427,0.56052652,1.78525465
51690,0,USVirginiaMartinsville,Virginia,Martinsville,2021-04-04 02:22:59.075201,2021-02-06 00:00:00.000000,3.32870644,5.22879520,8.08185905,417,656,1014,233,427,787,1.86154748,3.40651824,6.27060933,0.30784777,0.55145586,1.81080354
51690,0,USVirginiaMartinsville,Virginia,Martinsville,2021-04-04 02:22:59.075201,2021-02-07 00:00:00.000000,3.12269301,4.97738374,7.77148792,392,624,975,219,409,757,1.74608514,3.25833745,6.03091350,0.31225604,0.55271646,1.81943496
51690,0,USVirginiaMartinsville,Virginia,Martinsville,2021-04-04 02:22:59.075201,2021-02-08 00:00:00.000000,2.91532678,4.73370624,7.47924751,365,594,938,205,391,728,1.63817191,3.11510443,5.80079533,0.30949113,0.55230445,1.76393563
51690,0,USVirginiaMartinsville,Virginia,Martinsville,2021-04-04 02:22:59.075201,2021-02-09 00:00:00.000000,2.72466601,4.50474017,7.19712419,342,565,903,194,374,700,1.55196368,2.98531143,5.58080058,0.30964114,0.55034673,1.74386228
51690,0,USVirginiaMartinsville,Virginia,Martinsville,2021-04-04 02:22:59.075201,2021-02-10 00:00:00.000000,2.54734262,4.29709963,6.92433196,319,539,869,184,359,673,1.47205187,2.86051332,5.36371441,0.30761445,0.54871793,1.73732273
51690,0,USVirginiaMartinsville,Virginia,Martinsville,2021-04-04 02:22:59.075201,2021-02-11 00:00:00.000000,2.38188842,4.08653374,6.66099394,299,513,836,175,341,644,1.39626982,2.71802027,5.13376001,0.30323272,0.54846674,1.73491400
51690,0,USVirginiaMartinsville,Virginia,Martinsville,2021-04-04 02:22:59.075201,2021-02-12 00:00:00.000000,2.22800455,3.87926045,6.40723878,279,487,804,166,323,616,1.32432458,2.57758585,4.90808101,0.29648679,0.56040602,1.73470270
51690,0,USVirginiaMartinsville,Virginia,Martinsville,2021-04-04 02:22:59.075201,2021-02-13 00:00:00.000000,2.11245753,3.71119722,6.15790593,265,465,773,157,307,588,1.25600528,2.44720320,4.68755845,0.28615003,0.56816504,1.72996882
51690,0,USVirginiaMartinsville,Virginia,Martinsville,2021-04-04 02:22:59.075201,2021-02-14 00:00:00.000000,1.97319446,3.53115640,5.91596734,247,443,742,149,292,561,1.19126760,2.32919036,4.47269900,0.27587822,0.57690285,1.76021224
51690,0,USVirginiaMartinsville,Virginia,Martinsville,2021-04-04 02:22:59.075201,2021-02-15 00:00:00.000000,1.86544869,3.33465447,5.64276623,234,418,708,141,279,535,1.12990274,2.22410874,4.26391789,0.26735635,0.58419455,1.77506452
51690,0,USVirginiaMartinsville,Virginia,Martinsville,2021-04-04 02:22:59.075201,2021-02-16 00:00:00.000000,1.78746995,3.16604101,5.39382059,224,397,677,134,266,510,1.07255783,2.12349676,4.06443756,0.25905473,0.55792358,1.78061267
51690,0,USVirginiaMartinsville,Virginia,Martinsville,2021-04-04 02:22:59.075201,2021-02-17 00:00:00.000000,1.71808635,3.03122449,5.13607530,215,380,644,127,255,486,1.01875181,2.03417283,3.87363725,0.25294043,0.54754415,1.79422679
51690,0,USVirginiaMartinsville,Virginia,Martinsville,2021-04-04 02:22:59.075201,2021-02-18 00:00:00.000000,1.63339694,2.87639757,4.88952665,205,361,613,121,244,463,0.96815291,1.94787351,3.69105247,0.24888121,0.54856402,1.80475265
51690,0,USVirginiaMartinsville,Virginia,Martinsville,2021-04-04 02:22:59.075201,2021-02-19 00:00:00.000000,1.55349505,2.74194444,4.65392182,195,344,584,115,232,441,0.92052996,1.85521271,3.51632400,0.24216243,0.54299997,1.84713300
51690,0,USVirginiaMartinsville,Virginia,Martinsville,2021-04-04 02:22:59.075201,2021-02-20 00:00:00.000000,1.47813331,2.62889205,4.42900081,185,330,556,109,221,420,0.87568193,1.76529396,3.34916188,0.24511644,0.55530456,1.96517159
51690,0,USVirginiaMartinsville,Virginia,Martinsville,2021-04-04 02:22:59.075201,2021-02-21 00:00:00.000000,1.40730880,2.51697385,4.21449319,176,315,529,104,210,400,0.83342590,1.67973457,3.18932016,0.24408057,0.57012078,2.21145870
51690,0,USVirginiaMartinsville,Virginia,Martinsville,2021-04-04 02:22:59.075201,2021-02-22 00:00:00.000000,1.34252181,2.39022046,3.99609773,168,300,501,99,198,381,0.79360431,1.58298230,3.03657961,0.24286519,0.57670028,2.37738577
51690,0,USVirginiaMartinsville,Virginia,Martinsville,2021-04-04 02:22:59.075201,2021-02-23 00:00:00.000000,1.28156882,2.26516200,3.78753979,160,284,475,94,188,362,0.75636759,1.50485724,2.88787420,0.23971220,0.58475694,2.43400936
51690,0,USVirginiaMartinsville,Virginia,Martinsville,2021-04-04 02:22:59.075201,2021-02-24 00:00:00.000000,1.22428594,2.17002075,3.58843829,153,272,450,90,179,344,0.72435021,1.42856450,2.74387224,0.23358967,0.58927047,2.42503605
51690,0,USVirginiaMartinsville,Virginia,Martinsville,2021-04-04 02:22:59.075201,2021-02-25 00:00:00.000000,1.17045263,2.06677815,3.39871210,146,259,426,89,170,327,0.70900501,1.35677310,2.60502280,0.22898188,0.59163036,2.37673247
51690,0,USVirginiaMartinsville,Virginia,Martinsville,2021-04-04 02:22:59.075201,2021-02-26 00:00:00.000000,1.11987673,1.96331432,3.21820620,140,246,404,87,160,310,0.69657224,1.28204388,2.47160852,0.22738820,0.60322537,2.34232045
51690,0,USVirginiaMartinsville,Virginia,Martinsville,2021-04-04 02:22:59.075201,2021-02-27 00:00:00.000000,1.07059075,1.86687449,3.04671021,134,234,382,85,152,294,0.68152797,1.21546467,2.34378565,0.22685944,0.60935469,2.41860723
51690,0,USVirginiaMartinsville,Virginia,Martinsville,2021-04-04 02:22:59.075201,2021-02-28 00:00:00.000000,1.00921877,1.77169586,2.88397300,126,222,362,82,144,278,0.65860771,1.15055860,2.22161458,0.22661996,0.60870598,2.51285379
51690,0,USVirginiaMartinsville,Virginia,Martinsville,2021-04-04 02:22:59.075201,2021-03-01 00:00:00.000000,0.97885559,1.70251633,2.73614396,122,213,343,79,136,264,0.63434970,1.08899452,2.10508317,0.22646181,0.61297571,2.53019079
51690,0,USVirginiaMartinsville,Virginia,Martinsville,2021-04-04 02:22:59.075201,2021-03-02 00:00:00.000000,0.93252133,1.63864306,2.59649266,117,205,325,76,130,250,0.61014265,1.03883906,1.99543549,0.22613581,0.61453918,2.53288414
51690,0,USVirginiaMartinsville,Virginia,Martinsville,2021-04-04 02:22:59.075201,2021-03-03 00:00:00.000000,0.88852095,1.59002042,2.46473764,111,199,309,73,124,237,0.58207810,0.99147160,1.89216803,0.22517017,0.61989838,2.53537647
51690,0,USVirginiaMartinsville,Virginia,Martinsville,2021-04-04 02:22:59.075201,2021-03-04 00:00:00.000000,0.84694337,1.52293734,2.34045025,106,191,293,69,119,225,0.55396198,0.95163259,1.79484793,0.22238590,0.61807065,2.53963009
51690,0,USVirginiaMartinsville,Virginia,Martinsville,2021-04-04 02:22:59.075201,2021-03-05 00:00:00.000000,0.80779042,1.47064906,2.22851915,101,184,279,65,114,213,0.51933142,0.91294714,1.70309631,0.21570309,0.62872273,2.55032840
51690,0,USVirginiaMartinsville,Virginia,Martinsville,2021-04-04 02:22:59.075201,2021-03-06 00:00:00.000000,0.77101664,1.41528016,2.20550458,96,177,276,61,110,202,0.48685319,0.87858516,1.61657609,0.21011219,0.63893093,2.57959028
51690,0,USVirginiaMartinsville,Virginia,Martinsville,2021-04-04 02:22:59.075201,2021-03-07 00:00:00.000000,0.73139901,1.36542168,2.18885685,91,171,274,57,106,192,0.45663167,0.84719562,1.53498290,0.21591190,0.64001923,2.65612672
51690,0,USVirginiaMartinsville,Virginia,Martinsville,2021-04-04 02:22:59.075201,2021-03-08 00:00:00.000000,0.70582274,1.30532115,2.15888654,88,163,271,53,101,183,0.42887715,0.81105762,1.45803853,0.21906362,0.65126290,2.68694036
51690,0,USVirginiaMartinsville,Virginia,Martinsville,2021-04-04 02:22:59.075201,2021-03-09 00:00:00.000000,0.67718913,1.26476614,2.12919636,85,158,267,51,97,174,0.40664570,0.78057594,1.38612651,0.22021847,0.65425892,2.66073402
51690,0,USVirginiaMartinsville,Virginia,Martinsville,2021-04-04 02:22:59.075201,2021-03-10 00:00:00.000000,0.65056780,1.22638592,2.09945358,81,153,263,48,94,167,0.38866260,0.75518197,1.33629573,0.22056203,0.65803469,2.51048348
51690,0,USVirginiaMartinsville,Virginia,Martinsville,2021-04-04 02:22:59.075201,2021-03-11 00:00:00.000000,0.62601305,1.18060236,2.06960186,78,148,259,46,90,162,0.37404580,0.72179475,1.29393403,0.22049375,0.66992625,2.65370262
51690,0,USVirginiaMartinsville,Virginia,Martinsville,2021-04-04 02:22:59.075201,2021-03-12 00:00:00.000000,0.60311983,1.13405411,2.03773784,75,142,255,45,86,157,0.36249612,0.69019531,1.25742927,0.21966130,0.68445144,2.65764630
51690,0,USVirginiaMartinsville,Virginia,Martinsville,2021-04-04 02:22:59.075201,2021-03-13 00:00:00.000000,0.58175650,1.09307856,2.00355868,73,137,251,44,83,153,0.35500355,0.66361261,1.22555310,0.21882981,0.69745145,2.65866501
51690,0,USVirginiaMartinsville,Virginia,Martinsville,2021-04-04 02:22:59.075201,2021-03-14 00:00:00.000000,0.57517137,1.06440261,1.96703477,72,133,246,42,79,150,0.34191380,0.63409011,1.19736740,0.21871288,0.70508334,2.65109387
51690,0,USVirginiaMartinsville,Virginia,Martinsville,2021-04-04 02:22:59.075201,2021-03-15 00:00:00.000000,0.56052526,1.04371128,1.93778997,70,131,243,41,76,147,0.33306737,0.61016634,1.17215386,0.21880843,0.69729533,2.64187523
51690,0,USVirginiaMartinsville,Virginia,Martinsville,2021-04-04 02:22:59.075201,2021-03-16 00:00:00.000000,0.55204728,1.02035666,1.87023768,69,128,234,40,74,143,0.32457690,0.59570027,1.14656244,0.21892104,0.69858906,2.63961820
51690,0,USVirginiaMartinsville,Virginia,Martinsville,2021-04-04 02:22:59.075201,2021-03-17 00:00:00.000000,0.54924714,0.99073213,1.85745398,68,124,233,39,72,140,0.31560922,0.57494843,1.12098275,0.21915886,0.70674591,2.64097248
51690,0,USVirginiaMartinsville,Virginia,Martinsville,2021-04-04 02:22:59.075201,2021-03-18 00:00:00.000000,0.54733017,0.95830586,1.84756033,68,120,231,38,70,138,0.30946799,0.56294080,1.10396916,0.22141745,0.71358228,2.65073006
51690,0,USVirginiaMartinsville,Virginia,Martinsville,2021-04-04 02:22:59.075201,2021-03-19 00:00:00.000000,0.54593847,0.92355735,1.81864120,68,115,228,38,68,137,0.30516798,0.54931760,1.09366120,0.23491767,0.71100212,2.70401067
51690,0,USVirginiaMartinsville,Virginia,Martinsville,2021-04-04 02:22:59.075201,2021-03-20 00:00:00.000000,0.54114260,0.91609743,1.79124332,67,115,224,37,68,135,0.30206948,0.54263721,1.08313209,0.24789000,0.71660357,2.84138656
51690,0,USVirginiaMartinsville,Virginia,Martinsville,2021-04-04 02:22:59.075201,2021-03-21 00:00:00.000000,0.51382682,0.92013738,1.76599265,64,115,221,37,67,134,0.29977338,0.53500279,1.07250857,0.24922661,0.72159245,2.93070888
51690,0,USVirginiaMartinsville,Virginia,Martinsville,2021-04-04 02:22:59.075201,2021-03-22 00:00:00.000000,0.50643867,0.90371487,1.74626653,63,113,219,37,66,133,0.29801543,0.53207215,1.06190631,0.24182455,0.72610568,2.94102242
51690,0,USVirginiaMartinsville,Virginia,Martinsville,2021-04-04 02:22:59.075201,2021-03-23 00:00:00.000000,0.50201194,0.89100140,1.72875952,63,111,217,36,65,131,0.29328710,0.52567781,1.04508700,0.22436939,0.72670928,2.94225493
51690,0,USVirginiaMartinsville,Virginia,Martinsville,2021-04-04 02:22:59.075201,2021-03-24 00:00:00.000000,0.50001275,0.87996127,1.71300562,62,110,215,36,65,126,0.28774327,0.52369360,1.00948004,0.23687515,0.72983655,2.94244810
51690,0,USVirginiaMartinsville,Virginia,Martinsville,2021-04-04 02:22:59.075201,2021-03-25 00:00:00.000000,0.49956734,0.86836036,1.69838533,62,109,213,35,64,125,0.28439868,0.51255231,1.00122920,0.24216292,0.72844061,2.94227331
51690,0,USVirginiaMartinsville,Virginia,Martinsville,2021-04-04 02:22:59.075201,2021-03-26 00:00:00.000000,0.50015182,0.84789568,1.68430103,62,106,211,35,62,122,0.28089026,0.49613944,0.97657525,0.24440262,0.72318657,2.94259696
51690,0,USVirginiaMartinsville,Virginia,Martinsville,2021-04-04 02:22:59.075201,2021-03-27 00:00:00.000000,0.49611874,0.82285343,1.67012055,62,103,209,34,61,119,0.27736805,0.48972095,0.95121450,0.24577409,0.70817265,2.93598468
51690,0,USVirginiaMartinsville,Virginia,Martinsville,2021-04-04 02:22:59.075201,2021-03-28 00:00:00.000000,0.48139265,0.81206433,1.65509586,60,101,207,34,59,117,0.27392067,0.47747126,0.93402464,0.24718229,0.71072844,2.91891088
51690,0,USVirginiaMartinsville,Virginia,Martinsville,2021-04-04 02:22:59.075201,2021-03-29 00:00:00.000000,0.45389127,0.76881603,1.61622057,56,96,202,33,58,116,0.26295340,0.46918267,0.92510730,0.24906321,0.71588730,2.91485586
51690,0,USVirginiaMartinsville,Virginia,Martinsville,2021-04-04 02:22:59.075201,2021-03-30 00:00:00.000000,0.42725778,0.72624687,1.57518986,53,91,197,31,57,114,0.24860806,0.45484649,0.91274523,0.25171412,0.72276861,2.89865722
51690,0,USVirginiaMartinsville,Virginia,Martinsville,2021-04-04 02:22:59.075201,2021-03-31 00:00:00.000000,0.40116121,0.68796123,1.52305349,50,86,191,29,54,112,0.23407298,0.43284781,0.89762083,0.25533445,0.72676476,2.85863662
51690,0,USVirginiaMartinsville,Virginia,Martinsville,2021-04-04 02:22:59.075201,2021-04-01 00:00:00.000000,0.37597236,0.65141373,1.45002581,47,81,182,27,52,110,0.21969538,0.41624921,0.88031978,0.25980342,0.72783098,2.83897647
51690,0,USVirginiaMartinsville,Virginia,Martinsville,2021-04-04 02:22:59.075201,2021-04-02 00:00:00.000000,0.35190098,0.61493300,1.39211898,44,77,174,25,50,108,0.20569984,0.39993495,0.86134204,0.26467728,0.72221074,2.93232818
51690,0,USVirginiaMartinsville,Virginia,Martinsville,2021-04-04 02:22:59.075201,2021-04-03 00:00:00.000000,0.32905177,0.57955951,1.36324560,41,72,171,24,48,105,0.19222881,0.38241501,0.84108837,0.26951234,0.71813068,3.13365839
51690,0,USVirginiaMartinsville,Virginia,Martinsville,2021-04-04 02:22:59.075201,2021-04-04 00:00:00.000000,0.30560275,0.54555810,1.33443770,38,68,167,22,45,103,0.17936872,0.36095484,0.82401202,0.27388906,0.71737234,3.32676794
51690,0,USVirginiaMartinsville,Virginia,Martinsville,2021-04-04 02:22:59.075201,2021-04-05 00:00:00.000000,0.28211088,0.51305949,1.30582088,35,64,163,20,42,101,0.16715990,0.33885898,0.80768365,0.27750338,0.71613461,3.40279971
51690,0,USVirginiaMartinsville,Virginia,Martinsville,2021-04-04 02:22:59.075201,2021-04-06 00:00:00.000000,0.26033877,0.48244443,1.27744951,32,60,160,19,39,99,0.15547476,0.31777595,0.79127780,0.28025881,0.71680069,3.34322640
51690,0,USVirginiaMartinsville,Virginia,Martinsville,2021-04-04 02:22:59.075201,2021-04-07 00:00:00.000000,0.24019108,0.45814507,1.23736024,30,57,155,18,37,97,0.14478529,0.29850426,0.77486494,0.28223214,0.71715925,3.32179589
51690,0,USVirginiaMartinsville,Virginia,Martinsville,2021-04-04 02:22:59.075201,2021-04-08 00:00:00.000000,0.22156674,0.42986064,1.19801292,27,53,150,16,35,95,0.13521683,0.28016861,0.75849854,0.28358265,0.71733275,3.31496439
51690,0,USVirginiaMartinsville,Virginia,Martinsville,2021-04-04 02:22:59.075201,2021-04-09 00:00:00.000000,0.20436340,0.40380906,1.15961361,25,50,145,15,32,93,0.12622775,0.26225238,0.74221896,0.28447848,0.71741210,3.31287474
51690,0,USVirginiaMartinsville,Virginia,Martinsville,2021-04-04 02:22:59.075201,2021-04-10 00:00:00.000000,0.18848074,0.38151017,1.12218103,23,47,140,14,30,91,0.11779902,0.24586532,0.72605700,0.28506052,0.71744739,3.31224451
51690,0,USVirginiaMartinsville,Virginia,Martinsville,2021-04-04 02:22:59.075201,2021-04-11 00:00:00.000000,0.17382254,0.35931776,1.08569896,21,45,136,13,29,88,0.10990666,0.23104452,0.70267682,0.28543363,0.71746287,3.31205554
51690,0,USVirginiaMartinsville,Virginia,Martinsville,2021-04-04 02:22:59.075201,2021-04-12 00:00:00.000000,0.16029767,0.33713012,1.04991693,20,42,131,12,27,83,0.10252404,0.21836748,0.66686352,0.28567077,0.71746959,3.31199909
51690,0,USVirginiaMartinsville,Virginia,Martinsville,2021-04-04 02:22:59.075201,2021-04-13 00:00:00.000000,0.14782061,0.31627519,1.01512730,18,39,127,12,25,79,0.09562345,0.20635021,0.63267093,0.28582068,0.71747250,3.31198229
51690,0,USVirginiaMartinsville,Virginia,Martinsville,2021-04-04 02:22:59.075201,2021-04-14 00:00:00.000000,0.13619781,0.29568611,0.98132235,17,37,123,11,24,75,0.08917707,0.19496149,0.60471170,0.28591511,0.71747376,3.31197730
51690,0,USVirginiaMartinsville,Virginia,Martinsville,2021-04-04 02:22:59.075201,2021-04-15 00:00:00.000000,0.12509909,0.27628336,0.94849110,15,34,119,10,23,73,0.08280544,0.18344550,0.58510264,0.28597448,0.71747429,3.31197583
51690,0,USVirginiaMartinsville,Virginia,Martinsville,2021-04-04 02:22:59.075201,2021-04-16 00:00:00.000000,0.11488643,0.25812675,0.91662007,14,32,115,9,21,71,0.07600855,0.17155525,0.56598821,0.28601175,0.71747452,3.31197540
