FIPS,HR_UID,nameid,province,region,analysisTime,dates,pointprevalence_025,pointprevalence_50,pointprevalence_975,pointinfections_025,pointinfections_50,pointinfections_975,pointinfectious_025,pointinfectious_50,pointinfectious_975,pointinfectiousprevalence_05,pointinfectiousprevalence_50,pointinfectiousprevalence_95,infectrate_025,infectrate_50,infectrate_975
50011,0,USVermontFranklin,Vermont,Franklin,2021-04-04 03:02:01.677304,2020-03-09 00:00:00.000000,0.00641202,0.01665669,0.02959497,3,8,14,0,2,4,0.00141030,0.00477465,0.00976373,0.60609223,0.83295790,1.09378104
50011,0,USVermontFranklin,Vermont,Franklin,2021-04-04 03:02:01.677304,2020-03-10 00:00:00.000000,0.01002039,0.02457997,0.04340734,4,12,21,1,3,6,0.00307246,0.00767238,0.01409746,0.60609857,0.83296041,1.09382411
50011,0,USVermontFranklin,Vermont,Franklin,2021-04-04 03:02:01.677304,2020-03-11 00:00:00.000000,0.01368577,0.03350782,0.06407256,6,16,31,2,5,10,0.00514653,0.01157298,0.02087841,0.60611196,0.83296524,1.09392519
50011,0,USVermontFranklin,Vermont,Franklin,2021-04-04 03:02:01.677304,2020-03-12 00:00:00.000000,0.01675520,0.04450550,0.08705957,8,21,43,3,8,14,0.00765652,0.01658613,0.02957854,0.60614026,0.83297444,1.09415951
50011,0,USVermontFranklin,Vermont,Franklin,2021-04-04 03:02:01.677304,2020-03-13 00:00:00.000000,0.02010276,0.05478791,0.11309709,9,27,55,5,11,20,0.01032258,0.02295087,0.04149853,0.60620002,0.83299184,1.09468771
50011,0,USVermontFranklin,Vermont,Franklin,2021-04-04 03:02:01.677304,2020-03-14 00:00:00.000000,0.02375053,0.06713231,0.14171228,11,33,70,6,14,27,0.01251224,0.02876509,0.05483108,0.60632627,0.83302427,1.09580719
50011,0,USVermontFranklin,Vermont,Franklin,2021-04-04 03:02:01.677304,2020-03-15 00:00:00.000000,0.02773386,0.08038075,0.17341104,13,39,85,7,17,34,0.01489315,0.03499414,0.06962040,0.60659289,0.83308322,1.09789868
50011,0,USVermontFranklin,Vermont,Franklin,2021-04-04 03:02:01.677304,2020-03-16 00:00:00.000000,0.04684407,0.09588767,0.19409554,23,47,95,8,21,42,0.01748650,0.04288238,0.08600718,0.60715568,0.83318589,1.10102394
50011,0,USVermontFranklin,Vermont,Franklin,2021-04-04 03:02:01.677304,2020-03-17 00:00:00.000000,0.06029155,0.11349859,0.22150076,29,56,109,13,25,49,0.02672692,0.05225377,0.10058112,0.60834183,0.83568029,1.10351826
50011,0,USVermontFranklin,Vermont,Franklin,2021-04-04 03:02:01.677304,2020-03-18 00:00:00.000000,0.07427606,0.13555706,0.25494854,36,66,125,16,31,60,0.03369453,0.06379638,0.12201368,0.61083165,0.84919996,1.10676797
50011,0,USVermontFranklin,Vermont,Franklin,2021-04-04 03:02:01.677304,2020-03-19 00:00:00.000000,0.09067491,0.16269765,0.29634382,44,80,146,20,37,72,0.04164025,0.07557127,0.14672564,0.63147525,0.85295699,1.11369524
50011,0,USVermontFranklin,Vermont,Franklin,2021-04-04 03:02:01.677304,2020-03-20 00:00:00.000000,0.10994426,0.19123713,0.33744253,54,94,166,25,43,83,0.05091344,0.08850937,0.16878472,0.62762314,0.85631419,1.12154585
50011,0,USVermontFranklin,Vermont,Franklin,2021-04-04 03:02:01.677304,2020-03-21 00:00:00.000000,0.13218123,0.22563831,0.37113414,65,111,183,30,53,91,0.06088625,0.10783976,0.18571838,0.65741910,0.85547167,1.12862380
50011,0,USVermontFranklin,Vermont,Franklin,2021-04-04 03:02:01.677304,2020-03-22 00:00:00.000000,0.15764593,0.26507872,0.41938219,77,130,207,35,62,102,0.07131954,0.12589747,0.20686669,0.67224055,0.84999111,1.11521034
50011,0,USVermontFranklin,Vermont,Franklin,2021-04-04 03:02:01.677304,2020-03-23 00:00:00.000000,0.18859768,0.31012582,0.48939577,93,153,241,41,73,117,0.08334497,0.14835458,0.23833281,0.68896030,0.84855638,1.11495360
50011,0,USVermontFranklin,Vermont,Franklin,2021-04-04 03:02:01.677304,2020-03-24 00:00:00.000000,0.22318395,0.35830243,0.57047089,110,177,281,49,84,132,0.10034084,0.17187045,0.26897603,0.68087041,0.85063211,1.11118118
50011,0,USVermontFranklin,Vermont,Franklin,2021-04-04 03:02:01.677304,2020-03-25 00:00:00.000000,0.26330225,0.42047317,0.66181445,130,207,326,59,100,148,0.12018551,0.20301886,0.30010198,0.65781264,0.85293189,1.11538808
50011,0,USVermontFranklin,Vermont,Franklin,2021-04-04 03:02:01.677304,2020-03-26 00:00:00.000000,0.30361394,0.48251264,0.74860906,149,238,369,67,116,171,0.13687378,0.23489063,0.34668936,0.62711246,0.84468309,1.11653937
50011,0,USVermontFranklin,Vermont,Franklin,2021-04-04 03:02:01.677304,2020-03-27 00:00:00.000000,0.34618592,0.55891957,0.84567026,171,276,417,78,131,197,0.15933941,0.26625458,0.39948700,0.62967817,0.84270936,1.11661691
50011,0,USVermontFranklin,Vermont,Franklin,2021-04-04 03:02:01.677304,2020-03-28 00:00:00.000000,0.39446131,0.65118965,0.95328689,194,321,470,93,151,229,0.18880054,0.30754655,0.46468231,0.64120556,0.83255018,1.11430223
50011,0,USVermontFranklin,Vermont,Franklin,2021-04-04 03:02:01.677304,2020-03-29 00:00:00.000000,0.44888086,0.74013284,1.08951293,221,365,538,110,178,268,0.22339929,0.36045428,0.54345838,0.63812785,0.82519573,1.08091185
50011,0,USVermontFranklin,Vermont,Franklin,2021-04-04 03:02:01.677304,2020-03-30 00:00:00.000000,0.53093781,0.84311830,1.24927274,262,416,617,130,206,315,0.26401642,0.41840641,0.63764012,0.63217525,0.82403575,1.05058510
50011,0,USVermontFranklin,Vermont,Franklin,2021-04-04 03:02:01.677304,2020-03-31 00:00:00.000000,0.62640608,0.95902591,1.43512484,309,473,708,153,233,367,0.31050653,0.47259820,0.74344697,0.62347249,0.82130832,1.00973480
50011,0,USVermontFranklin,Vermont,Franklin,2021-04-04 03:02:01.677304,2020-04-01 00:00:00.000000,0.72959459,1.09642630,1.63726450,360,541,808,168,265,425,0.34108181,0.53798059,0.86156340,0.60247979,0.80997104,0.98458751
50011,0,USVermontFranklin,Vermont,Franklin,2021-04-04 03:02:01.677304,2020-04-02 00:00:00.000000,0.83371102,1.24856705,1.81658682,411,616,897,184,306,471,0.37300338,0.62056858,0.95389969,0.59270774,0.79403614,0.95716008
50011,0,USVermontFranklin,Vermont,Franklin,2021-04-04 03:02:01.677304,2020-04-03 00:00:00.000000,0.90294857,1.39362745,2.03239031,446,688,1004,200,347,523,0.40625078,0.70319832,1.05884306,0.58863603,0.77152801,0.93052663
50011,0,USVermontFranklin,Vermont,Franklin,2021-04-04 03:02:01.677304,2020-04-04 00:00:00.000000,1.01549610,1.56704748,2.24330065,501,774,1108,227,389,581,0.46139514,0.78786608,1.17758778,0.56056617,0.75176156,0.92506551
50011,0,USVermontFranklin,Vermont,Franklin,2021-04-04 03:02:01.677304,2020-04-05 00:00:00.000000,1.16234451,1.71237978,2.43945382,574,845,1205,261,435,634,0.53030673,0.88078589,1.28490792,0.53081855,0.72696779,0.91511347
50011,0,USVermontFranklin,Vermont,Franklin,2021-04-04 03:02:01.677304,2020-04-06 00:00:00.000000,1.32332336,1.91474729,2.63390406,653,945,1301,300,484,697,0.60793432,0.98115286,1.41278426,0.47082864,0.68765450,0.91086736
50011,0,USVermontFranklin,Vermont,Franklin,2021-04-04 03:02:01.677304,2020-04-07 00:00:00.000000,1.49761821,2.08661316,2.89541953,739,1030,1430,343,536,806,0.69435727,1.08637439,1.63211768,0.41934912,0.61721695,0.88721945
50011,0,USVermontFranklin,Vermont,Franklin,2021-04-04 03:02:01.677304,2020-04-08 00:00:00.000000,1.66147922,2.22953288,3.02814927,820,1101,1495,389,598,915,0.78816545,1.21169880,1.85335783,0.32985635,0.52203386,0.86316145
50011,0,USVermontFranklin,Vermont,Franklin,2021-04-04 03:02:01.677304,2020-04-09 00:00:00.000000,1.62090308,2.33979821,3.20380788,800,1155,1582,435,657,981,0.88137603,1.33049662,1.98772789,0.22773033,0.42687309,0.74727710
50011,0,USVermontFranklin,Vermont,Franklin,2021-04-04 03:02:01.677304,2020-04-10 00:00:00.000000,1.57744034,2.36656419,3.32159894,779,1169,1640,455,692,1003,0.92232858,1.40261078,2.03068045,0.17225319,0.32940322,0.47457406
50011,0,USVermontFranklin,Vermont,Franklin,2021-04-04 03:02:01.677304,2020-04-11 00:00:00.000000,1.50644114,2.32064313,3.30823205,744,1146,1634,442,713,986,0.89650937,1.44438513,1.99618867,0.14467101,0.23853925,0.35163771
50011,0,USVermontFranklin,Vermont,Franklin,2021-04-04 03:02:01.677304,2020-04-12 00:00:00.000000,1.42462301,2.24323346,3.18251424,703,1108,1572,423,711,995,0.85764542,1.44113099,2.01409413,0.12360870,0.19221049,0.28456857
50011,0,USVermontFranklin,Vermont,Franklin,2021-04-04 03:02:01.677304,2020-04-13 00:00:00.000000,1.31101243,2.12302177,3.06700036,647,1048,1515,401,693,1012,0.81302365,1.40469323,2.04922683,0.10464711,0.16979093,0.24055246
50011,0,USVermontFranklin,Vermont,Franklin,2021-04-04 03:02:01.677304,2020-04-14 00:00:00.000000,1.23254201,1.99766154,2.95074498,608,986,1457,379,657,1008,0.76743295,1.33046036,2.04230388,0.08994278,0.15214325,0.22306168
50011,0,USVermontFranklin,Vermont,Franklin,2021-04-04 03:02:01.677304,2020-04-15 00:00:00.000000,1.15668151,1.85435420,2.82820710,571,916,1397,356,621,991,0.72250313,1.25725239,2.00630777,0.08598543,0.14275655,0.21599943
50011,0,USVermontFranklin,Vermont,Franklin,2021-04-04 03:02:01.677304,2020-04-16 00:00:00.000000,1.08285613,1.74597175,2.70413485,534,862,1335,335,580,964,0.67885356,1.17585433,1.95163768,0.08481929,0.13670875,0.21261505
50011,0,USVermontFranklin,Vermont,Franklin,2021-04-04 03:02:01.677304,2020-04-17 00:00:00.000000,1.00992249,1.62594240,2.58140654,498,803,1275,314,543,931,0.63645784,1.09957320,1.88567969,0.08444841,0.13117142,0.20060425
50011,0,USVermontFranklin,Vermont,Franklin,2021-04-04 03:02:01.677304,2020-04-18 00:00:00.000000,0.93674265,1.49769309,2.40756815,462,739,1189,293,509,895,0.59486999,1.03079351,1.81353151,0.08422327,0.12559461,0.19534679
50011,0,USVermontFranklin,Vermont,Franklin,2021-04-04 03:02:01.677304,2020-04-19 00:00:00.000000,0.86305431,1.38602600,2.24248909,426,684,1107,273,473,851,0.55349493,0.95792882,1.72312442,0.08351950,0.11782210,0.19311580
50011,0,USVermontFranklin,Vermont,Franklin,2021-04-04 03:02:01.677304,2020-04-20 00:00:00.000000,0.78826765,1.28001588,2.09123777,389,632,1033,252,436,795,0.51199017,0.88355913,1.60939236,0.08085924,0.11350813,0.19158767
50011,0,USVermontFranklin,Vermont,Franklin,2021-04-04 03:02:01.677304,2020-04-21 00:00:00.000000,0.71556782,1.16501666,1.94887438,353,575,962,232,401,742,0.47003940,0.81251055,1.50223807,0.07754012,0.11305673,0.17653755
50011,0,USVermontFranklin,Vermont,Franklin,2021-04-04 03:02:01.677304,2020-04-22 00:00:00.000000,0.64628199,1.07071355,1.81336671,319,528,895,211,369,692,0.42857390,0.74732567,1.40138498,0.07379242,0.11068332,0.17038449
50011,0,USVermontFranklin,Vermont,Franklin,2021-04-04 03:02:01.677304,2020-04-23 00:00:00.000000,0.58132271,0.98165784,1.68250668,287,484,831,191,339,645,0.38850169,0.68804278,1.30585121,0.06920438,0.10644578,0.16481822
50011,0,USVermontFranklin,Vermont,Franklin,2021-04-04 03:02:01.677304,2020-04-24 00:00:00.000000,0.52116357,0.89520940,1.55694626,257,442,769,173,311,599,0.35050033,0.63019448,1.21438265,0.06657274,0.10249792,0.16041985
50011,0,USVermontFranklin,Vermont,Franklin,2021-04-04 03:02:01.677304,2020-04-25 00:00:00.000000,0.45472372,0.81421334,1.43837546,224,402,710,155,284,556,0.31499173,0.57653268,1.12663082,0.06388822,0.10069159,0.15763445
50011,0,USVermontFranklin,Vermont,Franklin,2021-04-04 03:02:01.677304,2020-04-26 00:00:00.000000,0.39366202,0.73734527,1.32737570,194,364,655,139,262,515,0.28221290,0.53103458,1.04250542,0.06197741,0.09714677,0.15475237
50011,0,USVermontFranklin,Vermont,Franklin,2021-04-04 03:02:01.677304,2020-04-27 00:00:00.000000,0.34338309,0.66943530,1.22044395,169,330,602,120,238,475,0.24487948,0.48280984,0.96334217,0.06055603,0.09327567,0.15121708
50011,0,USVermontFranklin,Vermont,Franklin,2021-04-04 03:02:01.677304,2020-04-28 00:00:00.000000,0.30038768,0.60908857,1.12189618,148,300,554,105,216,438,0.21319708,0.43858147,0.88804556,0.05733169,0.09233795,0.14526758
50011,0,USVermontFranklin,Vermont,Franklin,2021-04-04 03:02:01.677304,2020-04-29 00:00:00.000000,0.26389065,0.55610191,1.03223526,130,274,509,92,196,403,0.18645040,0.39843225,0.81749814,0.05710233,0.09180436,0.14524234
50011,0,USVermontFranklin,Vermont,Franklin,2021-04-04 03:02:01.677304,2020-04-30 00:00:00.000000,0.24323544,0.50526254,0.95309653,120,249,470,80,178,371,0.16370023,0.36221912,0.75202388,0.05635617,0.08904121,0.14523375
50011,0,USVermontFranklin,Vermont,Franklin,2021-04-04 03:02:01.677304,2020-05-01 00:00:00.000000,0.22462094,0.45893780,0.87740869,110,226,433,71,162,341,0.14427443,0.32984201,0.69162300,0.05601002,0.08743451,0.14523232
50011,0,USVermontFranklin,Vermont,Franklin,2021-04-04 03:02:01.677304,2020-05-02 00:00:00.000000,0.20783959,0.41358486,0.80607993,102,204,398,63,148,314,0.12765757,0.30063118,0.63613548,0.05521785,0.08512033,0.14525594
50011,0,USVermontFranklin,Vermont,Franklin,2021-04-04 03:02:01.677304,2020-05-03 00:00:00.000000,0.19278279,0.37303273,0.73982279,95,184,365,56,136,289,0.11344564,0.27579292,0.58532528,0.05443651,0.08377444,0.14701599
50011,0,USVermontFranklin,Vermont,Franklin,2021-04-04 03:02:01.677304,2020-05-04 00:00:00.000000,0.17152185,0.33432404,0.67572140,84,165,333,51,123,266,0.10353332,0.24969411,0.53889187,0.05392123,0.08182484,0.14864376
50011,0,USVermontFranklin,Vermont,Franklin,2021-04-04 03:02:01.677304,2020-05-05 00:00:00.000000,0.14928358,0.30218003,0.61725127,73,149,304,46,110,244,0.09370878,0.22381338,0.49445079,0.05368284,0.08154004,0.14849348
50011,0,USVermontFranklin,Vermont,Franklin,2021-04-04 03:02:01.677304,2020-05-06 00:00:00.000000,0.12837440,0.27402482,0.56323893,63,135,278,41,99,223,0.08371349,0.20139294,0.45263960,0.05361959,0.08109380,0.15209766
50011,0,USVermontFranklin,Vermont,Franklin,2021-04-04 03:02:01.677304,2020-05-07 00:00:00.000000,0.11026955,0.25009203,0.51347257,54,123,253,36,89,204,0.07414381,0.18097809,0.41369633,0.05292376,0.08053276,0.15421413
50011,0,USVermontFranklin,Vermont,Franklin,2021-04-04 03:02:01.677304,2020-05-08 00:00:00.000000,0.09472561,0.22791935,0.46767670,46,112,231,32,81,186,0.06524928,0.16413601,0.37763475,0.04941707,0.08007750,0.15520377
50011,0,USVermontFranklin,Vermont,Franklin,2021-04-04 03:02:01.677304,2020-05-09 00:00:00.000000,0.08139766,0.20447340,0.42557423,40,101,210,28,72,170,0.05677949,0.14666028,0.34435118,0.04411680,0.08060759,0.15416766
50011,0,USVermontFranklin,Vermont,Franklin,2021-04-04 03:02:01.677304,2020-05-10 00:00:00.000000,0.07001106,0.18108660,0.38691087,34,89,191,24,64,154,0.04878488,0.13105705,0.31369264,0.04482817,0.08098427,0.15459784
50011,0,USVermontFranklin,Vermont,Franklin,2021-04-04 03:02:01.677304,2020-05-11 00:00:00.000000,0.06025780,0.16029527,0.35145345,29,79,173,20,57,141,0.04193166,0.11695633,0.28549448,0.04521033,0.08008948,0.15607368
50011,0,USVermontFranklin,Vermont,Franklin,2021-04-04 03:02:01.677304,2020-05-12 00:00:00.000000,0.05219962,0.14183430,0.31897856,25,70,157,17,51,128,0.03604835,0.10405771,0.25959567,0.04358358,0.07859323,0.15753033
50011,0,USVermontFranklin,Vermont,Franklin,2021-04-04 03:02:01.677304,2020-05-13 00:00:00.000000,0.04472789,0.12545738,0.28926460,22,61,142,15,45,116,0.03099272,0.09284189,0.23584077,0.04211654,0.07783696,0.15869578
50011,0,USVermontFranklin,Vermont,Franklin,2021-04-04 03:02:01.677304,2020-05-14 00:00:00.000000,0.03833346,0.11184755,0.26210380,18,55,129,13,40,105,0.02666304,0.08287749,0.21407771,0.04223695,0.07848002,0.16016610
50011,0,USVermontFranklin,Vermont,Franklin,2021-04-04 03:02:01.677304,2020-05-15 00:00:00.000000,0.03287642,0.10010316,0.23739088,16,49,117,11,36,94,0.02368657,0.07396556,0.19165049,0.04220508,0.07858425,0.16147954
50011,0,USVermontFranklin,Vermont,Franklin,2021-04-04 03:02:01.677304,2020-05-16 00:00:00.000000,0.02824310,0.08931213,0.21493008,13,44,106,10,32,84,0.02030399,0.06599061,0.17127469,0.04339929,0.07810854,0.16258233
50011,0,USVermontFranklin,Vermont,Franklin,2021-04-04 03:02:01.677304,2020-05-17 00:00:00.000000,0.02426044,0.07867215,0.19532659,11,38,96,8,29,76,0.01740823,0.05882094,0.15419075,0.04370166,0.07736536,0.16345457
50011,0,USVermontFranklin,Vermont,Franklin,2021-04-04 03:02:01.677304,2020-05-18 00:00:00.000000,0.02330133,0.07377688,0.18401281,11,36,90,7,25,69,0.01492464,0.05198198,0.14037947,0.04353287,0.07621223,0.16394747
50011,0,USVermontFranklin,Vermont,Franklin,2021-04-04 03:02:01.677304,2020-05-19 00:00:00.000000,0.02294368,0.07179413,0.17412939,11,35,86,6,23,64,0.01396870,0.04797740,0.12979306,0.04351877,0.07630101,0.15713676
50011,0,USVermontFranklin,Vermont,Franklin,2021-04-04 03:02:01.677304,2020-05-20 00:00:00.000000,0.02305741,0.06986924,0.16425257,11,34,81,6,22,59,0.01371332,0.04562408,0.12069630,0.04233449,0.07708201,0.15352748
50011,0,USVermontFranklin,Vermont,Franklin,2021-04-04 03:02:01.677304,2020-05-21 00:00:00.000000,0.02185766,0.06853085,0.15552181,10,33,76,6,21,55,0.01346799,0.04393841,0.11146184,0.04147339,0.07681330,0.15411507
50011,0,USVermontFranklin,Vermont,Franklin,2021-04-04 03:02:01.677304,2020-05-22 00:00:00.000000,0.02109463,0.06543009,0.14846019,10,32,73,6,21,52,0.01262228,0.04303201,0.10610665,0.03932083,0.07644330,0.15275294
50011,0,USVermontFranklin,Vermont,Franklin,2021-04-04 03:02:01.677304,2020-05-23 00:00:00.000000,0.02101395,0.06394155,0.14412078,10,31,71,6,20,50,0.01250183,0.04076278,0.10157975,0.03875402,0.07556817,0.15355280
50011,0,USVermontFranklin,Vermont,Franklin,2021-04-04 03:02:01.677304,2020-05-24 00:00:00.000000,0.02094233,0.06165930,0.14029450,10,30,69,6,19,48,0.01241300,0.04040667,0.09773870,0.03864765,0.07519397,0.15422568
50011,0,USVermontFranklin,Vermont,Franklin,2021-04-04 03:02:01.677304,2020-05-25 00:00:00.000000,0.02348959,0.06208891,0.13268045,11,30,65,6,19,47,0.01234280,0.04005777,0.09550697,0.03862629,0.07429724,0.15457153
50011,0,USVermontFranklin,Vermont,Franklin,2021-04-04 03:02:01.677304,2020-05-26 00:00:00.000000,0.02730332,0.06060985,0.12703344,13,29,62,6,19,45,0.01401552,0.03936951,0.09178742,0.03862899,0.07254020,0.14853293
50011,0,USVermontFranklin,Vermont,Franklin,2021-04-04 03:02:01.677304,2020-05-27 00:00:00.000000,0.03071055,0.05988976,0.12202509,15,29,60,7,18,43,0.01617359,0.03801922,0.08711715,0.03866385,0.07131995,0.14652578
50011,0,USVermontFranklin,Vermont,Franklin,2021-04-04 03:02:01.677304,2020-05-28 00:00:00.000000,0.03129888,0.05895959,0.11732151,15,29,57,8,18,40,0.01806584,0.03715321,0.08239718,0.03879864,0.07126805,0.14665297
50011,0,USVermontFranklin,Vermont,Franklin,2021-04-04 03:02:01.677304,2020-05-29 00:00:00.000000,0.02982803,0.05799381,0.11389850,14,28,56,8,17,38,0.01792114,0.03541485,0.07890299,0.03926513,0.07190760,0.14691901
50011,0,USVermontFranklin,Vermont,Franklin,2021-04-04 03:02:01.677304,2020-05-30 00:00:00.000000,0.02850302,0.05781486,0.11261403,14,28,55,8,17,38,0.01707424,0.03460086,0.07788897,0.04002520,0.07213531,0.14730493
50011,0,USVermontFranklin,Vermont,Franklin,2021-04-04 03:02:01.677304,2020-05-31 00:00:00.000000,0.02732037,0.05774761,0.11180565,13,28,55,8,17,37,0.01628820,0.03523798,0.07654798,0.03969695,0.07108281,0.14786524
50011,0,USVermontFranklin,Vermont,Franklin,2021-04-04 03:02:01.677304,2020-06-01 00:00:00.000000,0.02967876,0.05730914,0.10735938,14,28,53,7,16,36,0.01558085,0.03381832,0.07441533,0.03668982,0.07113547,0.14865755
50011,0,USVermontFranklin,Vermont,Franklin,2021-04-04 03:02:01.677304,2020-06-02 00:00:00.000000,0.02860225,0.05584597,0.10372255,14,27,51,7,16,36,0.01610976,0.03323285,0.07292669,0.03407245,0.07127342,0.14973714
50011,0,USVermontFranklin,Vermont,Franklin,2021-04-04 03:02:01.677304,2020-06-03 00:00:00.000000,0.02768704,0.05404097,0.09918461,13,26,48,8,16,35,0.01723350,0.03303588,0.07163304,0.03257119,0.07078449,0.15135770
50011,0,USVermontFranklin,Vermont,Franklin,2021-04-04 03:02:01.677304,2020-06-04 00:00:00.000000,0.02690022,0.05459736,0.09644032,13,26,47,8,16,34,0.01662066,0.03357980,0.06885454,0.03179824,0.06932293,0.15336852
50011,0,USVermontFranklin,Vermont,Franklin,2021-04-04 03:02:01.677304,2020-06-05 00:00:00.000000,0.02621692,0.05326397,0.09394038,12,26,46,7,16,32,0.01609881,0.03263277,0.06607079,0.03132489,0.06884082,0.15527460
50011,0,USVermontFranklin,Vermont,Franklin,2021-04-04 03:02:01.677304,2020-06-06 00:00:00.000000,0.02561898,0.05197754,0.09320114,12,25,46,7,15,31,0.01564945,0.03214919,0.06338186,0.03151929,0.06968768,0.15732013
50011,0,USVermontFranklin,Vermont,Franklin,2021-04-04 03:02:01.677304,2020-06-07 00:00:00.000000,0.02509384,0.05159273,0.09481814,12,25,46,7,15,30,0.01525895,0.03123800,0.06081698,0.03262128,0.06870210,0.15922977
50011,0,USVermontFranklin,Vermont,Franklin,2021-04-04 03:02:01.677304,2020-06-08 00:00:00.000000,0.02415144,0.05179455,0.09161875,11,25,45,7,15,28,0.01491752,0.03088868,0.05836379,0.03332071,0.06859302,0.16086909
50011,0,USVermontFranklin,Vermont,Franklin,2021-04-04 03:02:01.677304,2020-06-09 00:00:00.000000,0.02326607,0.05159282,0.08611204,11,25,42,7,15,27,0.01446068,0.03079102,0.05603425,0.03140873,0.06868682,0.16236091
50011,0,USVermontFranklin,Vermont,Franklin,2021-04-04 03:02:01.677304,2020-06-10 00:00:00.000000,0.02392075,0.05247462,0.09198050,11,25,45,6,15,27,0.01396275,0.03102567,0.05554892,0.03104142,0.06862665,0.16556772
50011,0,USVermontFranklin,Vermont,Franklin,2021-04-04 03:02:01.677304,2020-06-11 00:00:00.000000,0.02468504,0.05319307,0.09798900,12,26,48,6,15,27,0.01384558,0.03083767,0.05621479,0.03079041,0.06815323,0.17405531
50011,0,USVermontFranklin,Vermont,Franklin,2021-04-04 03:02:01.677304,2020-06-12 00:00:00.000000,0.02485500,0.05418765,0.10097528,12,26,49,6,15,28,0.01416900,0.03146126,0.05826921,0.03015206,0.06775847,0.17410464
50011,0,USVermontFranklin,Vermont,Franklin,2021-04-04 03:02:01.677304,2020-06-13 00:00:00.000000,0.02319611,0.05304949,0.10144681,11,26,50,6,15,31,0.01386026,0.03218263,0.06412872,0.02881202,0.06698817,0.17435117
50011,0,USVermontFranklin,Vermont,Franklin,2021-04-04 03:02:01.677304,2020-06-14 00:00:00.000000,0.02212061,0.05023359,0.10190224,10,24,50,6,15,33,0.01327989,0.03233176,0.06773862,0.02738320,0.06802691,0.17505392
50011,0,USVermontFranklin,Vermont,Franklin,2021-04-04 03:02:01.677304,2020-06-15 00:00:00.000000,0.02096684,0.04933321,0.10201227,10,24,50,6,15,34,0.01277204,0.03121014,0.06888949,0.02692348,0.06832786,0.17670790
50011,0,USVermontFranklin,Vermont,Franklin,2021-04-04 03:02:01.677304,2020-06-16 00:00:00.000000,0.01993545,0.05139795,0.10868963,9,25,53,6,15,34,0.01270720,0.03074323,0.06892445,0.02621853,0.06756209,0.18422425
50011,0,USVermontFranklin,Vermont,Franklin,2021-04-04 03:02:01.677304,2020-06-17 00:00:00.000000,0.01904051,0.05121425,0.11516284,9,25,56,5,15,33,0.01189724,0.03166152,0.06882246,0.02621757,0.06715318,0.18446514
50011,0,USVermontFranklin,Vermont,Franklin,2021-04-04 03:02:01.677304,2020-06-18 00:00:00.000000,0.01825778,0.05150927,0.12124691,9,25,59,5,15,35,0.01116819,0.03194076,0.07136539,0.02649400,0.06782371,0.18539241
50011,0,USVermontFranklin,Vermont,Franklin,2021-04-04 03:02:01.677304,2020-06-19 00:00:00.000000,0.01756916,0.05184023,0.12676674,8,25,62,5,15,37,0.01051862,0.03217155,0.07533151,0.02705702,0.06879743,0.19018456
50011,0,USVermontFranklin,Vermont,Franklin,2021-04-04 03:02:01.677304,2020-06-20 00:00:00.000000,0.01696521,0.05076686,0.13177972,8,25,65,4,15,39,0.00994459,0.03129706,0.07895553,0.02786240,0.06822437,0.18916395
50011,0,USVermontFranklin,Vermont,Franklin,2021-04-04 03:02:01.677304,2020-06-21 00:00:00.000000,0.01643790,0.05029726,0.12773926,8,24,63,4,15,40,0.00957169,0.03088466,0.08224499,0.02865162,0.06993364,0.18606567
50011,0,USVermontFranklin,Vermont,Franklin,2021-04-04 03:02:01.677304,2020-06-22 00:00:00.000000,0.01923567,0.05119219,0.12521740,9,25,61,4,14,39,0.00924524,0.03005168,0.07963747,0.02919090,0.06930352,0.18149322
50011,0,USVermontFranklin,Vermont,Franklin,2021-04-04 03:02:01.677304,2020-06-23 00:00:00.000000,0.02205128,0.05299488,0.12300762,10,26,60,4,14,38,0.01006364,0.03028631,0.07759918,0.02947399,0.06922271,0.17765078
50011,0,USVermontFranklin,Vermont,Franklin,2021-04-04 03:02:01.677304,2020-06-24 00:00:00.000000,0.02494414,0.05200503,0.12113553,12,25,59,5,15,37,0.01105015,0.03120987,0.07596170,0.02959382,0.06837627,0.17585158
50011,0,USVermontFranklin,Vermont,Franklin,2021-04-04 03:02:01.677304,2020-06-25 00:00:00.000000,0.02692217,0.05192142,0.11952294,13,25,59,6,15,36,0.01244372,0.03196545,0.07461282,0.02960367,0.06930731,0.17704383
50011,0,USVermontFranklin,Vermont,Franklin,2021-04-04 03:02:01.677304,2020-06-26 00:00:00.000000,0.02647159,0.05277956,0.11811390,13,26,58,6,15,36,0.01391488,0.03190839,0.07347699,0.02945527,0.06910743,0.18406298
50011,0,USVermontFranklin,Vermont,Franklin,2021-04-04 03:02:01.677304,2020-06-27 00:00:00.000000,0.02520214,0.05236321,0.12066220,12,25,59,7,15,35,0.01508771,0.03127306,0.07250249,0.02901475,0.06953627,0.19393242
50011,0,USVermontFranklin,Vermont,Franklin,2021-04-04 03:02:01.677304,2020-06-28 00:00:00.000000,0.02345315,0.05241421,0.12302602,11,25,60,7,15,35,0.01500892,0.03120610,0.07165239,0.02845829,0.06974522,0.19816266
50011,0,USVermontFranklin,Vermont,Franklin,2021-04-04 03:02:01.677304,2020-06-29 00:00:00.000000,0.02077057,0.04837697,0.11413566,10,23,56,7,15,36,0.01462559,0.03135959,0.07483342,0.02817247,0.06975941,0.19907660
50011,0,USVermontFranklin,Vermont,Franklin,2021-04-04 03:02:01.677304,2020-06-30 00:00:00.000000,0.01829463,0.04393461,0.10501123,9,21,51,6,14,36,0.01316687,0.03008477,0.07486794,0.02807204,0.07024525,0.19945134
50011,0,USVermontFranklin,Vermont,Franklin,2021-04-04 03:02:01.677304,2020-07-01 00:00:00.000000,0.01655012,0.03918237,0.09553187,8,19,47,5,13,35,0.01164573,0.02796300,0.07138728,0.02797315,0.07016844,0.20166456
50011,0,USVermontFranklin,Vermont,Franklin,2021-04-04 03:02:01.677304,2020-07-02 00:00:00.000000,0.01484925,0.03508981,0.08720589,7,17,43,5,12,32,0.01030907,0.02554870,0.06635562,0.02774637,0.07010204,0.19229753
50011,0,USVermontFranklin,Vermont,Franklin,2021-04-04 03:02:01.677304,2020-07-03 00:00:00.000000,0.01325729,0.03148360,0.08245181,6,15,40,4,11,30,0.00932900,0.02307383,0.06079762,0.02744632,0.07059156,0.17831229
50011,0,USVermontFranklin,Vermont,Franklin,2021-04-04 03:02:01.677304,2020-07-04 00:00:00.000000,0.01180268,0.02830375,0.07603129,5,13,37,4,10,27,0.00837640,0.02083753,0.05591940,0.02942151,0.06996281,0.20041750
50011,0,USVermontFranklin,Vermont,Franklin,2021-04-04 03:02:01.677304,2020-07-05 00:00:00.000000,0.01049065,0.02507998,0.06867930,5,12,33,3,9,25,0.00748536,0.01871603,0.05061064,0.02987837,0.07011019,0.19538281
50011,0,USVermontFranklin,Vermont,Franklin,2021-04-04 03:02:01.677304,2020-07-06 00:00:00.000000,0.01275324,0.02790030,0.06700867,6,13,33,3,8,22,0.00666993,0.01679928,0.04624119,0.02969623,0.07059147,0.19018652
50011,0,USVermontFranklin,Vermont,Franklin,2021-04-04 03:02:01.677304,2020-07-07 00:00:00.000000,0.01254921,0.02845059,0.06921600,6,14,34,3,8,22,0.00736129,0.01644256,0.04510305,0.02948804,0.07105988,0.18627211
50011,0,USVermontFranklin,Vermont,Franklin,2021-04-04 03:02:01.677304,2020-07-08 00:00:00.000000,0.01256690,0.02923948,0.07664703,6,14,37,3,8,20,0.00731041,0.01684335,0.04211163,0.02909603,0.07297985,0.18497221
50011,0,USVermontFranklin,Vermont,Franklin,2021-04-04 03:02:01.677304,2020-07-09 00:00:00.000000,0.01323715,0.03017779,0.09477933,6,14,46,3,8,24,0.00720900,0.01763387,0.04887436,0.02833262,0.07214990,0.18681187
50011,0,USVermontFranklin,Vermont,Franklin,2021-04-04 03:02:01.677304,2020-07-10 00:00:00.000000,0.01335322,0.03184129,0.11098163,6,15,54,3,9,26,0.00721266,0.01857344,0.05432704,0.02887144,0.07284450,0.19182329
50011,0,USVermontFranklin,Vermont,Franklin,2021-04-04 03:02:01.677304,2020-07-11 00:00:00.000000,0.01343055,0.03307554,0.12689113,6,16,62,3,9,30,0.00728046,0.01927805,0.06251568,0.03175544,0.07422727,0.19890899
50011,0,USVermontFranklin,Vermont,Franklin,2021-04-04 03:02:01.677304,2020-07-12 00:00:00.000000,0.01305737,0.03317067,0.14170211,6,16,70,3,9,34,0.00734568,0.02000321,0.07074273,0.03258998,0.07481741,0.20578728
50011,0,USVermontFranklin,Vermont,Franklin,2021-04-04 03:02:01.677304,2020-07-13 00:00:00.000000,0.01568339,0.03725103,0.13732978,7,18,67,3,10,38,0.00740654,0.02030745,0.07871075,0.03092620,0.07658801,0.21188767
50011,0,USVermontFranklin,Vermont,Franklin,2021-04-04 03:02:01.677304,2020-07-14 00:00:00.000000,0.01749611,0.04096755,0.13190207,8,20,65,3,10,40,0.00795143,0.02129002,0.08207704,0.03093356,0.07945151,0.20954245
50011,0,USVermontFranklin,Vermont,Franklin,2021-04-04 03:02:01.677304,2020-07-15 00:00:00.000000,0.01769246,0.04229907,0.12519986,8,20,61,4,11,40,0.00872257,0.02279855,0.08177556,0.03151009,0.08029436,0.20285401
50011,0,USVermontFranklin,Vermont,Franklin,2021-04-04 03:02:01.677304,2020-07-16 00:00:00.000000,0.01911840,0.04046670,0.11796686,9,19,58,4,12,39,0.00957125,0.02504748,0.07938161,0.03224643,0.08011089,0.19874086
50011,0,USVermontFranklin,Vermont,Franklin,2021-04-04 03:02:01.677304,2020-07-17 00:00:00.000000,0.01943897,0.04083384,0.11063161,9,20,54,5,12,37,0.01041442,0.02547359,0.07585928,0.03354428,0.07947966,0.19546731
50011,0,USVermontFranklin,Vermont,Franklin,2021-04-04 03:02:01.677304,2020-07-18 00:00:00.000000,0.02049412,0.04238569,0.10342000,10,20,51,5,12,35,0.01113244,0.02520030,0.07179005,0.03354024,0.08200660,0.18876896
50011,0,USVermontFranklin,Vermont,Franklin,2021-04-04 03:02:01.677304,2020-07-19 00:00:00.000000,0.01971004,0.04379125,0.09719839,9,21,48,5,12,33,0.01178041,0.02502821,0.06751413,0.03397597,0.08090368,0.18275366
50011,0,USVermontFranklin,Vermont,Franklin,2021-04-04 03:02:01.677304,2020-07-20 00:00:00.000000,0.02200035,0.04750316,0.09697008,10,23,47,5,12,31,0.01173225,0.02524901,0.06321862,0.03437799,0.07945485,0.18141642
50011,0,USVermontFranklin,Vermont,Franklin,2021-04-04 03:02:01.677304,2020-07-21 00:00:00.000000,0.02121655,0.04958987,0.10083957,10,24,49,5,13,31,0.01187171,0.02795724,0.06424015,0.03563915,0.07829722,0.18168279
50011,0,USVermontFranklin,Vermont,Franklin,2021-04-04 03:02:01.677304,2020-07-22 00:00:00.000000,0.02074349,0.05042763,0.10524174,10,24,51,6,14,31,0.01230061,0.03012218,0.06371713,0.03573063,0.07809716,0.18103304
50011,0,USVermontFranklin,Vermont,Franklin,2021-04-04 03:02:01.677304,2020-07-23 00:00:00.000000,0.02116235,0.05219682,0.11591739,10,25,57,5,14,32,0.01192676,0.03017754,0.06488233,0.03594588,0.07859305,0.17938036
50011,0,USVermontFranklin,Vermont,Franklin,2021-04-04 03:02:01.677304,2020-07-24 00:00:00.000000,0.02098872,0.05337139,0.11333151,10,26,55,5,15,35,0.01155468,0.03063584,0.07255013,0.03552999,0.07998531,0.17807392
50011,0,USVermontFranklin,Vermont,Franklin,2021-04-04 03:02:01.677304,2020-07-25 00:00:00.000000,0.02019639,0.05483613,0.12513944,9,27,61,5,15,35,0.01161047,0.03135450,0.07093643,0.03524869,0.08175669,0.17856751
50011,0,USVermontFranklin,Vermont,Franklin,2021-04-04 03:02:01.677304,2020-07-26 00:00:00.000000,0.02029057,0.05499757,0.13586265,10,27,67,5,15,35,0.01171156,0.03201226,0.07248963,0.03511906,0.08204932,0.17881280
50011,0,USVermontFranklin,Vermont,Franklin,2021-04-04 03:02:01.677304,2020-07-27 00:00:00.000000,0.02103789,0.05466740,0.12932960,10,27,63,5,16,38,0.01177641,0.03325295,0.07748400,0.03507403,0.08170379,0.17870622
50011,0,USVermontFranklin,Vermont,Franklin,2021-04-04 03:02:01.677304,2020-07-28 00:00:00.000000,0.02266538,0.05467109,0.12166776,11,27,60,5,16,39,0.01213065,0.03353435,0.07943755,0.03508986,0.08147814,0.17414869
50011,0,USVermontFranklin,Vermont,Franklin,2021-04-04 03:02:01.677304,2020-07-29 00:00:00.000000,0.02461837,0.05195728,0.11307615,12,25,55,6,16,38,0.01257771,0.03265686,0.07765800,0.03521545,0.08196576,0.17125229
50011,0,USVermontFranklin,Vermont,Franklin,2021-04-04 03:02:01.677304,2020-07-30 00:00:00.000000,0.02428417,0.05381021,0.11574873,11,26,57,6,15,36,0.01366618,0.03077625,0.07325339,0.03562514,0.08194688,0.17155998
50011,0,USVermontFranklin,Vermont,Franklin,2021-04-04 03:02:01.677304,2020-07-31 00:00:00.000000,0.02366818,0.05351576,0.11839734,11,26,58,7,15,36,0.01443839,0.03180891,0.07467293,0.03649945,0.08314835,0.17171044
50011,0,USVermontFranklin,Vermont,Franklin,2021-04-04 03:02:01.677304,2020-08-01 00:00:00.000000,0.02321692,0.05342074,0.12077547,11,26,59,7,16,37,0.01428731,0.03269876,0.07661141,0.03746658,0.08544798,0.17186310
50011,0,USVermontFranklin,Vermont,Franklin,2021-04-04 03:02:01.677304,2020-08-02 00:00:00.000000,0.02196975,0.05393656,0.12452940,10,26,61,6,16,38,0.01401293,0.03300227,0.07835372,0.03804272,0.08604959,0.17221341
50011,0,USVermontFranklin,Vermont,Franklin,2021-04-04 03:02:01.677304,2020-08-03 00:00:00.000000,0.02448452,0.05617563,0.12038858,12,27,59,7,16,40,0.01424813,0.03375814,0.08104539,0.03825084,0.08586776,0.17881742
50011,0,USVermontFranklin,Vermont,Franklin,2021-04-04 03:02:01.677304,2020-08-04 00:00:00.000000,0.02547617,0.05765422,0.11601313,12,28,57,7,16,39,0.01482372,0.03413739,0.08096379,0.03831113,0.08629585,0.18215699
50011,0,USVermontFranklin,Vermont,Franklin,2021-04-04 03:02:01.677304,2020-08-05 00:00:00.000000,0.02766571,0.05912326,0.11102034,13,29,54,7,17,39,0.01542004,0.03528003,0.07898338,0.03832456,0.08874649,0.18264818
50011,0,USVermontFranklin,Vermont,Franklin,2021-04-04 03:02:01.677304,2020-08-06 00:00:00.000000,0.02689602,0.05911645,0.10595557,13,29,52,7,17,37,0.01600204,0.03456507,0.07612337,0.03832271,0.08719420,0.18485207
50011,0,USVermontFranklin,Vermont,Franklin,2021-04-04 03:02:01.677304,2020-08-07 00:00:00.000000,0.02618417,0.05890307,0.10505182,12,29,51,8,17,36,0.01647101,0.03464032,0.07292733,0.03878610,0.08608088,0.18874577
50011,0,USVermontFranklin,Vermont,Franklin,2021-04-04 03:02:01.677304,2020-08-08 00:00:00.000000,0.02560228,0.05831157,0.10475377,12,28,51,7,16,34,0.01600690,0.03436436,0.06967709,0.03980016,0.08607774,0.18672149
50011,0,USVermontFranklin,Vermont,Franklin,2021-04-04 03:02:01.677304,2020-08-09 00:00:00.000000,0.02528467,0.05722825,0.10653294,12,28,52,7,17,34,0.01561770,0.03575752,0.07073590,0.04092097,0.08744917,0.18760537
50011,0,USVermontFranklin,Vermont,Franklin,2021-04-04 03:02:01.677304,2020-08-10 00:00:00.000000,0.02778277,0.05629611,0.10397811,13,27,51,7,17,33,0.01529940,0.03631824,0.06868559,0.04010783,0.08797086,0.18824389
50011,0,USVermontFranklin,Vermont,Franklin,2021-04-04 03:02:01.677304,2020-08-11 00:00:00.000000,0.02893898,0.05589333,0.10126419,14,27,50,7,17,32,0.01587633,0.03596366,0.06641161,0.04012679,0.08689306,0.19070374
50011,0,USVermontFranklin,Vermont,Franklin,2021-04-04 03:02:01.677304,2020-08-12 00:00:00.000000,0.03098914,0.05522217,0.09827394,15,27,48,8,17,31,0.01686288,0.03532010,0.06412929,0.04067915,0.08649680,0.19376287
50011,0,USVermontFranklin,Vermont,Franklin,2021-04-04 03:02:01.677304,2020-08-13 00:00:00.000000,0.03164219,0.05640069,0.09905300,15,27,48,8,17,30,0.01739708,0.03498340,0.06191775,0.04248873,0.08760321,0.19798970
50011,0,USVermontFranklin,Vermont,Franklin,2021-04-04 03:02:01.677304,2020-08-14 00:00:00.000000,0.03175035,0.05527403,0.10018465,15,27,49,8,17,29,0.01818841,0.03478406,0.06001809,0.04361452,0.09255035,0.20297063
50011,0,USVermontFranklin,Vermont,Franklin,2021-04-04 03:02:01.677304,2020-08-15 00:00:00.000000,0.03061329,0.05556209,0.10933842,15,27,54,9,17,29,0.01929917,0.03485613,0.06040236,0.04389170,0.09465158,0.20117188
50011,0,USVermontFranklin,Vermont,Franklin,2021-04-04 03:02:01.677304,2020-08-16 00:00:00.000000,0.02999498,0.05517216,0.10510103,14,27,51,9,17,30,0.01940053,0.03451305,0.06111925,0.04422020,0.09607113,0.19841653
50011,0,USVermontFranklin,Vermont,Franklin,2021-04-04 03:02:01.677304,2020-08-17 00:00:00.000000,0.03027066,0.05536582,0.10668218,14,27,52,9,16,31,0.01952018,0.03381411,0.06470915,0.04455413,0.09693672,0.19885906
50011,0,USVermontFranklin,Vermont,Franklin,2021-04-04 03:02:01.677304,2020-08-18 00:00:00.000000,0.03021071,0.05409948,0.10990192,14,26,54,9,16,31,0.01878529,0.03406101,0.06331093,0.04496223,0.09668082,0.19924916
50011,0,USVermontFranklin,Vermont,Franklin,2021-04-04 03:02:01.677304,2020-08-19 00:00:00.000000,0.02987827,0.05685022,0.10871616,14,28,53,9,16,32,0.01889575,0.03385605,0.06495415,0.04608063,0.09841485,0.20160582
50011,0,USVermontFranklin,Vermont,Franklin,2021-04-04 03:02:01.677304,2020-08-20 00:00:00.000000,0.02914339,0.05741440,0.10441671,14,28,51,9,16,32,0.01843485,0.03419913,0.06477694,0.04590109,0.10011509,0.20053437
50011,0,USVermontFranklin,Vermont,Franklin,2021-04-04 03:02:01.677304,2020-08-21 00:00:00.000000,0.02805610,0.05721893,0.10010220,13,28,49,8,17,30,0.01797791,0.03522683,0.06259331,0.04537999,0.10174281,0.20884615
50011,0,USVermontFranklin,Vermont,Franklin,2021-04-04 03:02:01.677304,2020-08-22 00:00:00.000000,0.02651454,0.05830141,0.10323246,13,28,50,8,17,29,0.01711682,0.03609138,0.06021237,0.04450871,0.10239235,0.21709977
50011,0,USVermontFranklin,Vermont,Franklin,2021-04-04 03:02:01.677304,2020-08-23 00:00:00.000000,0.02511876,0.05934565,0.10973289,12,29,54,7,17,29,0.01616822,0.03630413,0.06002948,0.04391591,0.10230732,0.21993935
50011,0,USVermontFranklin,Vermont,Franklin,2021-04-04 03:02:01.677304,2020-08-24 00:00:00.000000,0.02695920,0.05892454,0.10691036,13,29,52,7,17,31,0.01529679,0.03560309,0.06435359,0.04528577,0.10594976,0.21982503
50011,0,USVermontFranklin,Vermont,Franklin,2021-04-04 03:02:01.677304,2020-08-25 00:00:00.000000,0.02828559,0.05755974,0.10366862,13,28,51,7,17,32,0.01558576,0.03541457,0.06576587,0.04891602,0.10787227,0.21990777
50011,0,USVermontFranklin,Vermont,Franklin,2021-04-04 03:02:01.677304,2020-08-26 00:00:00.000000,0.02832337,0.05789943,0.09991728,13,28,49,8,17,32,0.01647371,0.03527568,0.06541309,0.05028028,0.10657824,0.21995882
50011,0,USVermontFranklin,Vermont,Franklin,2021-04-04 03:02:01.677304,2020-08-27 00:00:00.000000,0.02835181,0.05772544,0.10148277,14,28,50,8,17,31,0.01740822,0.03505793,0.06415418,0.05233404,0.10622177,0.21990759
50011,0,USVermontFranklin,Vermont,Franklin,2021-04-04 03:02:01.677304,2020-08-28 00:00:00.000000,0.02799676,0.05754373,0.10126929,13,28,50,8,16,32,0.01795526,0.03406172,0.06611494,0.05230034,0.10706555,0.22157243
50011,0,USVermontFranklin,Vermont,Franklin,2021-04-04 03:02:01.677304,2020-08-29 00:00:00.000000,0.02887968,0.05538872,0.09885969,14,27,48,8,16,33,0.01741337,0.03328528,0.06799628,0.05221897,0.11000687,0.22490982
50011,0,USVermontFranklin,Vermont,Franklin,2021-04-04 03:02:01.677304,2020-08-30 00:00:00.000000,0.02816460,0.05419247,0.09662753,13,26,47,8,16,33,0.01694177,0.03280112,0.06796979,0.05213971,0.11265258,0.22590112
50011,0,USVermontFranklin,Vermont,Franklin,2021-04-04 03:02:01.677304,2020-08-31 00:00:00.000000,0.02933479,0.05467835,0.09667963,14,27,47,8,16,32,0.01638907,0.03272284,0.06639482,0.05198755,0.11286271,0.22646277
50011,0,USVermontFranklin,Vermont,Franklin,2021-04-04 03:02:01.677304,2020-09-01 00:00:00.000000,0.02875331,0.05592402,0.09727349,14,27,48,8,16,32,0.01661987,0.03266704,0.06545552,0.05182512,0.11329343,0.22531872
50011,0,USVermontFranklin,Vermont,Franklin,2021-04-04 03:02:01.677304,2020-09-02 00:00:00.000000,0.02842338,0.05638008,0.10174441,14,27,50,8,15,32,0.01725448,0.03229871,0.06494783,0.05152086,0.11425594,0.22158056
50011,0,USVermontFranklin,Vermont,Franklin,2021-04-04 03:02:01.677304,2020-09-03 00:00:00.000000,0.02819246,0.05486587,0.10857865,13,27,53,8,16,31,0.01709266,0.03300668,0.06472579,0.05085697,0.11432961,0.21549829
50011,0,USVermontFranklin,Vermont,Franklin,2021-04-04 03:02:01.677304,2020-09-04 00:00:00.000000,0.02733506,0.05501920,0.10818979,13,27,53,8,16,35,0.01678112,0.03378842,0.07133074,0.04963215,0.11431184,0.21386501
50011,0,USVermontFranklin,Vermont,Franklin,2021-04-04 03:02:01.677304,2020-09-05 00:00:00.000000,0.02560788,0.05522881,0.10740759,12,27,53,8,16,35,0.01655263,0.03411647,0.07149820,0.05330720,0.11558746,0.21576235
50011,0,USVermontFranklin,Vermont,Franklin,2021-04-04 03:02:01.677304,2020-09-06 00:00:00.000000,0.02403674,0.05610329,0.11083678,11,27,54,8,17,35,0.01637434,0.03442806,0.07104039,0.05891425,0.11970208,0.23122638
50011,0,USVermontFranklin,Vermont,Franklin,2021-04-04 03:02:01.677304,2020-09-07 00:00:00.000000,0.02758769,0.05591324,0.10759070,13,27,53,7,16,36,0.01612950,0.03355633,0.07320108,0.06234142,0.12032084,0.24198970
50011,0,USVermontFranklin,Vermont,Franklin,2021-04-04 03:02:01.677304,2020-09-08 00:00:00.000000,0.03137425,0.05631996,0.10410550,15,27,51,8,16,36,0.01644033,0.03375112,0.07308441,0.06368943,0.12374779,0.25195422
50011,0,USVermontFranklin,Vermont,Franklin,2021-04-04 03:02:01.677304,2020-09-09 00:00:00.000000,0.03417462,0.05578735,0.10103447,16,27,49,9,16,35,0.01859819,0.03362432,0.07121292,0.06373408,0.12764186,0.24967437
50011,0,USVermontFranklin,Vermont,Franklin,2021-04-04 03:02:01.677304,2020-09-10 00:00:00.000000,0.03317752,0.05610634,0.09952989,16,27,49,9,16,33,0.01993267,0.03329783,0.06869682,0.06314189,0.13151621,0.24680735
50011,0,USVermontFranklin,Vermont,Franklin,2021-04-04 03:02:01.677304,2020-09-11 00:00:00.000000,0.03195022,0.05639589,0.09974531,15,27,49,9,16,32,0.01938799,0.03301726,0.06602954,0.06217194,0.13327055,0.24447986
50011,0,USVermontFranklin,Vermont,Franklin,2021-04-04 03:02:01.677304,2020-09-12 00:00:00.000000,0.03084527,0.05732947,0.10006608,15,28,49,9,16,32,0.01867500,0.03344202,0.06580549,0.06098412,0.13469445,0.24287326
50011,0,USVermontFranklin,Vermont,Franklin,2021-04-04 03:02:01.677304,2020-09-13 00:00:00.000000,0.03105226,0.05769759,0.10048570,15,28,49,9,16,32,0.01824966,0.03404036,0.06596204,0.06032947,0.13477752,0.25784504
50011,0,USVermontFranklin,Vermont,Franklin,2021-04-04 03:02:01.677304,2020-09-14 00:00:00.000000,0.03075677,0.05768080,0.10052802,15,28,49,9,17,32,0.01854928,0.03511791,0.06616860,0.06052966,0.13993977,0.25813696
50011,0,USVermontFranklin,Vermont,Franklin,2021-04-04 03:02:01.677304,2020-09-15 00:00:00.000000,0.03179277,0.05737074,0.10212085,15,28,50,9,17,32,0.01830712,0.03493651,0.06582613,0.06106813,0.14523637,0.25815697
50011,0,USVermontFranklin,Vermont,Franklin,2021-04-04 03:02:01.677304,2020-09-16 00:00:00.000000,0.03304668,0.05891661,0.10369343,16,29,51,9,17,32,0.01853706,0.03450530,0.06516955,0.06208623,0.14708011,0.26159875
50011,0,USVermontFranklin,Vermont,Franklin,2021-04-04 03:02:01.677304,2020-09-17 00:00:00.000000,0.03429556,0.05832880,0.10571498,16,28,52,9,17,31,0.01879546,0.03483489,0.06436339,0.06435855,0.15004831,0.25815731
50011,0,USVermontFranklin,Vermont,Franklin,2021-04-04 03:02:01.677304,2020-09-18 00:00:00.000000,0.03308564,0.06091270,0.10670522,16,30,52,9,18,31,0.01923301,0.03657014,0.06351838,0.07345801,0.15272052,0.25808408
50011,0,USVermontFranklin,Vermont,Franklin,2021-04-04 03:02:01.677304,2020-09-19 00:00:00.000000,0.03196111,0.06196985,0.10843308,15,30,53,9,17,31,0.01938467,0.03632712,0.06345908,0.08188046,0.15643472,0.25820309
50011,0,USVermontFranklin,Vermont,Franklin,2021-04-04 03:02:01.677304,2020-09-20 00:00:00.000000,0.03092870,0.06367494,0.11012119,15,31,54,9,18,32,0.01971412,0.03676545,0.06524216,0.08402438,0.15851896,0.25866782
50011,0,USVermontFranklin,Vermont,Franklin,2021-04-04 03:02:01.677304,2020-09-21 00:00:00.000000,0.03435569,0.06385797,0.11079432,16,31,54,9,18,32,0.01857951,0.03740358,0.06502965,0.08545139,0.16965867,0.26166358
50011,0,USVermontFranklin,Vermont,Franklin,2021-04-04 03:02:01.677304,2020-09-22 00:00:00.000000,0.03681167,0.06374533,0.11161517,18,31,55,9,18,32,0.01830141,0.03775794,0.06528077,0.08731466,0.17617377,0.26828648
50011,0,USVermontFranklin,Vermont,Franklin,2021-04-04 03:02:01.677304,2020-09-23 00:00:00.000000,0.03744599,0.06362816,0.11244609,18,31,55,9,18,32,0.01877669,0.03757057,0.06660975,0.08917581,0.17904495,0.27331314
50011,0,USVermontFranklin,Vermont,Franklin,2021-04-04 03:02:01.677304,2020-09-24 00:00:00.000000,0.03747399,0.06599778,0.11311645,18,32,55,9,18,34,0.01963987,0.03724450,0.06959829,0.09066279,0.18211553,0.28509933
50011,0,USVermontFranklin,Vermont,Franklin,2021-04-04 03:02:01.677304,2020-09-25 00:00:00.000000,0.03741902,0.06749876,0.11367111,18,33,56,10,18,34,0.02066560,0.03793956,0.07071058,0.09192981,0.18557013,0.29679119
50011,0,USVermontFranklin,Vermont,Franklin,2021-04-04 03:02:01.677304,2020-09-26 00:00:00.000000,0.03665504,0.06804788,0.11378694,18,33,56,10,19,35,0.02172098,0.03875905,0.07118561,0.09491941,0.18540234,0.32156775
50011,0,USVermontFranklin,Vermont,Franklin,2021-04-04 03:02:01.677304,2020-09-27 00:00:00.000000,0.03580393,0.06871533,0.11440387,17,33,56,10,19,35,0.02190417,0.03933737,0.07172665,0.10344500,0.19339203,0.32755305
50011,0,USVermontFranklin,Vermont,Franklin,2021-04-04 03:02:01.677304,2020-09-28 00:00:00.000000,0.03577353,0.06949964,0.11762156,17,34,58,10,19,36,0.02182094,0.04021387,0.07318020,0.10445368,0.19971764,0.32879017
50011,0,USVermontFranklin,Vermont,Franklin,2021-04-04 03:02:01.677304,2020-09-29 00:00:00.000000,0.03609233,0.07045465,0.12032924,17,34,59,10,20,37,0.02160080,0.04180045,0.07512762,0.11621825,0.20776449,0.32972782
50011,0,USVermontFranklin,Vermont,Franklin,2021-04-04 03:02:01.677304,2020-09-30 00:00:00.000000,0.03562355,0.07132511,0.12436227,17,35,61,10,21,38,0.02132884,0.04315235,0.07820103,0.11792535,0.20823301,0.33003261
50011,0,USVermontFranklin,Vermont,Franklin,2021-04-04 03:02:01.677304,2020-10-01 00:00:00.000000,0.03539366,0.07362744,0.12800459,17,36,63,10,21,39,0.02105320,0.04303892,0.07972031,0.12027585,0.20453648,0.32929199
50011,0,USVermontFranklin,Vermont,Franklin,2021-04-04 03:02:01.677304,2020-10-02 00:00:00.000000,0.03566089,0.07490770,0.13300467,17,37,65,10,21,41,0.02115396,0.04325260,0.08359898,0.12185054,0.20992446,0.32487682
50011,0,USVermontFranklin,Vermont,Franklin,2021-04-04 03:02:01.677304,2020-10-03 00:00:00.000000,0.03584909,0.07589376,0.13954076,17,37,68,10,21,43,0.02079584,0.04328682,0.08766192,0.12565749,0.21326641,0.35364869
50011,0,USVermontFranklin,Vermont,Franklin,2021-04-04 03:02:01.677304,2020-10-04 00:00:00.000000,0.03590911,0.07624281,0.14638604,17,37,72,10,21,44,0.02057806,0.04407245,0.08960952,0.13216390,0.22103638,0.35068921
50011,0,USVermontFranklin,Vermont,Franklin,2021-04-04 03:02:01.677304,2020-10-05 00:00:00.000000,0.03722666,0.07835748,0.14909501,18,38,73,10,22,44,0.02061859,0.04494192,0.09001581,0.13801697,0.22757745,0.36846758
50011,0,USVermontFranklin,Vermont,Franklin,2021-04-04 03:02:01.677304,2020-10-06 00:00:00.000000,0.03875384,0.07860327,0.15154200,19,38,74,10,22,44,0.02141666,0.04562854,0.09035534,0.14144628,0.22971912,0.38417775
50011,0,USVermontFranklin,Vermont,Franklin,2021-04-04 03:02:01.677304,2020-10-07 00:00:00.000000,0.04104815,0.07884455,0.15934399,20,38,78,11,22,46,0.02258464,0.04646856,0.09451860,0.15044905,0.23340679,0.39626689
50011,0,USVermontFranklin,Vermont,Franklin,2021-04-04 03:02:01.677304,2020-10-08 00:00:00.000000,0.04342880,0.08352077,0.16725232,21,41,82,11,23,48,0.02322810,0.04783639,0.09909769,0.15704196,0.24498896,0.40426302
50011,0,USVermontFranklin,Vermont,Franklin,2021-04-04 03:02:01.677304,2020-10-09 00:00:00.000000,0.04452532,0.08652235,0.17497907,21,42,86,11,24,51,0.02387623,0.04967436,0.10392225,0.16116101,0.24912227,0.40896340
50011,0,USVermontFranklin,Vermont,Franklin,2021-04-04 03:02:01.677304,2020-10-10 00:00:00.000000,0.04400580,0.08840578,0.17844843,21,43,88,11,25,53,0.02376042,0.05140031,0.10884610,0.16366095,0.25409099,0.40873406
50011,0,USVermontFranklin,Vermont,Franklin,2021-04-04 03:02:01.677304,2020-10-11 00:00:00.000000,0.04393344,0.08969413,0.18486113,21,44,91,11,25,55,0.02415538,0.05225390,0.11218714,0.18371199,0.25513387,0.40751941
50011,0,USVermontFranklin,Vermont,Franklin,2021-04-04 03:02:01.677304,2020-10-12 00:00:00.000000,0.04674897,0.09074196,0.18965154,23,44,93,12,26,58,0.02469650,0.05334675,0.11779884,0.18712039,0.25979091,0.42136728
50011,0,USVermontFranklin,Vermont,Franklin,2021-04-04 03:02:01.677304,2020-10-13 00:00:00.000000,0.05000975,0.09208669,0.19180374,24,45,94,13,27,60,0.02633836,0.05512983,0.12333451,0.18757463,0.27506635,0.41512667
50011,0,USVermontFranklin,Vermont,Franklin,2021-04-04 03:02:01.677304,2020-10-14 00:00:00.000000,0.05427619,0.09542780,0.19947691,26,47,98,14,27,62,0.02861073,0.05536249,0.12676520,0.19455154,0.28547610,0.41490403
50011,0,USVermontFranklin,Vermont,Franklin,2021-04-04 03:02:01.677304,2020-10-15 00:00:00.000000,0.05646589,0.09897954,0.20650080,27,48,102,15,27,63,0.03122821,0.05650190,0.12778947,0.19601657,0.30041968,0.41496596
50011,0,USVermontFranklin,Vermont,Franklin,2021-04-04 03:02:01.677304,2020-10-16 00:00:00.000000,0.05975778,0.10104235,0.21065559,29,49,104,16,29,64,0.03285423,0.05912495,0.12961863,0.19911723,0.31562725,0.43707830
50011,0,USVermontFranklin,Vermont,Franklin,2021-04-04 03:02:01.677304,2020-10-17 00:00:00.000000,0.05984416,0.10456669,0.21508548,29,51,106,16,29,66,0.03289692,0.06054173,0.13443820,0.20680403,0.32723446,0.44646733
50011,0,USVermontFranklin,Vermont,Franklin,2021-04-04 03:02:01.677304,2020-10-18 00:00:00.000000,0.06004036,0.10922094,0.22619299,29,53,111,16,30,68,0.03297976,0.06238551,0.13828008,0.21382810,0.33445755,0.45673152
50011,0,USVermontFranklin,Vermont,Franklin,2021-04-04 03:02:01.677304,2020-10-19 00:00:00.000000,0.06808774,0.11617853,0.23319633,33,57,115,17,31,69,0.03462448,0.06422438,0.14122810,0.22217531,0.34300663,0.54157877
50011,0,USVermontFranklin,Vermont,Franklin,2021-04-04 03:02:01.677304,2020-10-20 00:00:00.000000,0.06998506,0.12372662,0.24307963,34,61,120,17,33,71,0.03578520,0.06727733,0.14412528,0.23755334,0.35134844,0.54671895
50011,0,USVermontFranklin,Vermont,Franklin,2021-04-04 03:02:01.677304,2020-10-21 00:00:00.000000,0.07188743,0.13209110,0.25456319,35,65,125,18,36,72,0.03677232,0.07291089,0.14719309,0.23771574,0.35178549,0.54862786
50011,0,USVermontFranklin,Vermont,Franklin,2021-04-04 03:02:01.677304,2020-10-22 00:00:00.000000,0.07401921,0.14153826,0.26784676,36,69,132,18,38,75,0.03779411,0.07722463,0.15313815,0.25055317,0.36584326,0.55563523
50011,0,USVermontFranklin,Vermont,Franklin,2021-04-04 03:02:01.677304,2020-10-23 00:00:00.000000,0.07660751,0.15130041,0.28310898,37,74,139,19,40,78,0.04027209,0.08164698,0.15940043,0.27123480,0.37780410,0.56178878
50011,0,USVermontFranklin,Vermont,Franklin,2021-04-04 03:02:01.677304,2020-10-24 00:00:00.000000,0.08092794,0.16345925,0.30034023,39,80,148,21,42,81,0.04312531,0.08624095,0.16513690,0.28445091,0.38597586,0.56376393
50011,0,USVermontFranklin,Vermont,Franklin,2021-04-04 03:02:01.677304,2020-10-25 00:00:00.000000,0.08753588,0.17230708,0.31927957,43,85,157,22,45,85,0.04638596,0.09279032,0.17212823,0.29445476,0.40463622,0.57428562
50011,0,USVermontFranklin,Vermont,Franklin,2021-04-04 03:02:01.677304,2020-10-26 00:00:00.000000,0.09313138,0.18415927,0.33966571,46,90,167,24,49,90,0.05006446,0.10010781,0.18242991,0.29596467,0.40804229,0.58270306
50011,0,USVermontFranklin,Vermont,Franklin,2021-04-04 03:02:01.677304,2020-10-27 00:00:00.000000,0.09947588,0.19910260,0.36041492,49,98,178,26,52,95,0.05361033,0.10725543,0.19374837,0.29565374,0.42549464,0.60848238
50011,0,USVermontFranklin,Vermont,Franklin,2021-04-04 03:02:01.677304,2020-10-28 00:00:00.000000,0.10680358,0.20907391,0.37859717,52,103,187,28,55,101,0.05730698,0.11266524,0.20599322,0.31300468,0.43797964,0.65543850
50011,0,USVermontFranklin,Vermont,Franklin,2021-04-04 03:02:01.677304,2020-10-29 00:00:00.000000,0.11229215,0.22375708,0.39759885,55,110,196,30,59,108,0.06140591,0.12052943,0.21910642,0.31748857,0.44823046,0.66613410
50011,0,USVermontFranklin,Vermont,Franklin,2021-04-04 03:02:01.677304,2020-10-30 00:00:00.000000,0.12134410,0.24227331,0.41743359,59,119,206,31,64,115,0.06427264,0.12981221,0.23306266,0.31332127,0.46007137,0.67457333
50011,0,USVermontFranklin,Vermont,Franklin,2021-04-04 03:02:01.677304,2020-10-31 00:00:00.000000,0.13143283,0.26091876,0.43820994,64,128,216,31,69,122,0.06454716,0.13992178,0.24786076,0.31456019,0.46837655,0.69209986
50011,0,USVermontFranklin,Vermont,Franklin,2021-04-04 03:02:01.677304,2020-11-01 00:00:00.000000,0.14256273,0.28122035,0.46945184,70,138,231,33,75,130,0.06819575,0.15213642,0.26351057,0.32508278,0.48205461,0.70130243
50011,0,USVermontFranklin,Vermont,Franklin,2021-04-04 03:02:01.677304,2020-11-02 00:00:00.000000,0.15790801,0.30180701,0.51292026,78,149,253,36,79,138,0.07393526,0.16137336,0.28000475,0.37320507,0.50642334,0.70523915
50011,0,USVermontFranklin,Vermont,Franklin,2021-04-04 03:02:01.677304,2020-11-03 00:00:00.000000,0.17435450,0.31855620,0.55516956,86,157,274,40,86,147,0.08145673,0.17588606,0.29788526,0.38526093,0.51938687,0.70665336
50011,0,USVermontFranklin,Vermont,Franklin,2021-04-04 03:02:01.677304,2020-11-04 00:00:00.000000,0.19277032,0.34320604,0.59003897,95,169,291,44,93,156,0.08999720,0.18945077,0.31673079,0.39193532,0.53841350,0.71521242
50011,0,USVermontFranklin,Vermont,Franklin,2021-04-04 03:02:01.677304,2020-11-05 00:00:00.000000,0.21331112,0.37314601,0.62541621,105,184,308,49,101,166,0.09949758,0.20551633,0.33639287,0.39163133,0.55824991,0.74481096
50011,0,USVermontFranklin,Vermont,Franklin,2021-04-04 03:02:01.677304,2020-11-06 00:00:00.000000,0.23300967,0.40388094,0.66259532,115,199,327,54,111,176,0.11044556,0.22521852,0.35692164,0.41628798,0.57446876,0.76801097
50011,0,USVermontFranklin,Vermont,Franklin,2021-04-04 03:02:01.677304,2020-11-07 00:00:00.000000,0.25463543,0.44047127,0.70183042,125,217,346,61,119,188,0.12381003,0.24239756,0.38162931,0.43186722,0.58483960,0.80712262
50011,0,USVermontFranklin,Vermont,Franklin,2021-04-04 03:02:01.677304,2020-11-08 00:00:00.000000,0.28042518,0.47723109,0.76392409,138,235,377,69,128,199,0.14010087,0.25919829,0.40459271,0.44089143,0.59629598,0.81673698
50011,0,USVermontFranklin,Vermont,Franklin,2021-04-04 03:02:01.677304,2020-11-09 00:00:00.000000,0.31546363,0.51758294,0.82945281,155,255,409,76,138,213,0.15452154,0.27968165,0.43119911,0.45346546,0.60947257,0.81666096
50011,0,USVermontFranklin,Vermont,Franklin,2021-04-04 03:02:01.677304,2020-11-10 00:00:00.000000,0.34936831,0.56264050,0.91104834,172,277,450,84,148,228,0.17019292,0.30053405,0.46184456,0.46495449,0.61919982,0.81470874
50011,0,USVermontFranklin,Vermont,Franklin,2021-04-04 03:02:01.677304,2020-11-11 00:00:00.000000,0.38650436,0.62033928,0.99607014,190,306,492,92,163,246,0.18820533,0.33102260,0.49930657,0.48057829,0.61940433,0.81164606
50011,0,USVermontFranklin,Vermont,Franklin,2021-04-04 03:02:01.677304,2020-11-12 00:00:00.000000,0.42713299,0.68415160,1.07577972,211,337,531,102,180,266,0.20821707,0.36549159,0.53947630,0.49822722,0.62426647,0.81886917
50011,0,USVermontFranklin,Vermont,Franklin,2021-04-04 03:02:01.677304,2020-11-13 00:00:00.000000,0.47413634,0.74773832,1.15263607,234,369,569,113,197,289,0.23020222,0.40078238,0.58685118,0.50436586,0.62360000,0.85652891
50011,0,USVermontFranklin,Vermont,Franklin,2021-04-04 03:02:01.677304,2020-11-14 00:00:00.000000,0.53969225,0.81989217,1.25214544,266,405,618,126,217,316,0.25508344,0.43986993,0.64037940,0.52324162,0.62897839,0.86925565
50011,0,USVermontFranklin,Vermont,Franklin,2021-04-04 03:02:01.677304,2020-11-15 00:00:00.000000,0.60292910,0.91282089,1.36644334,297,450,675,142,236,341,0.28744089,0.47778274,0.69050666,0.52216753,0.64039805,0.88517517
50011,0,USVermontFranklin,Vermont,Franklin,2021-04-04 03:02:01.677304,2020-11-16 00:00:00.000000,0.66142310,1.00840388,1.46294502,326,498,722,160,257,376,0.32395047,0.52214019,0.76197582,0.50253168,0.64125377,0.88846464
50011,0,USVermontFranklin,Vermont,Franklin,2021-04-04 03:02:01.677304,2020-11-17 00:00:00.000000,0.71990007,1.11510984,1.56238309,355,550,771,177,283,414,0.35987017,0.57318618,0.83956590,0.49129779,0.64703095,0.88646793
50011,0,USVermontFranklin,Vermont,Franklin,2021-04-04 03:02:01.677304,2020-11-18 00:00:00.000000,0.81130373,1.21610728,1.66607168,400,600,823,196,314,454,0.39691813,0.63645247,0.91992828,0.48866059,0.64574658,0.88190686
50011,0,USVermontFranklin,Vermont,Franklin,2021-04-04 03:02:01.677304,2020-11-19 00:00:00.000000,0.89119104,1.31808945,1.77446818,440,651,876,217,343,494,0.44039607,0.69604407,1.00142360,0.49889095,0.64350571,0.87115198
50011,0,USVermontFranklin,Vermont,Franklin,2021-04-04 03:02:01.677304,2020-11-20 00:00:00.000000,0.95271734,1.44182879,1.89131139,470,712,934,246,372,533,0.49945264,0.75350480,1.08079496,0.51233117,0.64129816,0.82706673
50011,0,USVermontFranklin,Vermont,Franklin,2021-04-04 03:02:01.677304,2020-11-21 00:00:00.000000,1.02130668,1.55676799,2.04594742,504,769,1010,269,405,572,0.54468273,0.82094740,1.15911566,0.51301479,0.63021450,0.80032564
50011,0,USVermontFranklin,Vermont,Franklin,2021-04-04 03:02:01.677304,2020-11-22 00:00:00.000000,1.12448683,1.68907202,2.21092992,555,834,1092,288,440,611,0.58388592,0.89249309,1.23786349,0.51851091,0.62604823,0.79336869
50011,0,USVermontFranklin,Vermont,Franklin,2021-04-04 03:02:01.677304,2020-11-23 00:00:00.000000,1.22475402,1.81663569,2.39267200,605,897,1182,309,480,651,0.62571686,0.97356604,1.31836676,0.51635522,0.62124557,0.79053164
50011,0,USVermontFranklin,Vermont,Franklin,2021-04-04 03:02:01.677304,2020-11-24 00:00:00.000000,1.31094304,1.96035533,2.58127851,647,968,1275,334,526,697,0.67776732,1.06632149,1.41119123,0.50971935,0.61220823,0.78450611
50011,0,USVermontFranklin,Vermont,Franklin,2021-04-04 03:02:01.677304,2020-11-25 00:00:00.000000,1.39803613,2.11359873,2.75385959,690,1044,1360,357,574,759,0.72385385,1.16274935,1.53740366,0.50601389,0.60000523,0.77657281
50011,0,USVermontFranklin,Vermont,Franklin,2021-04-04 03:02:01.677304,2020-11-26 00:00:00.000000,1.54325699,2.28575852,2.90964145,762,1129,1437,382,619,826,0.77522199,1.25399486,1.67214636,0.48028011,0.58785701,0.77562683
50011,0,USVermontFranklin,Vermont,Franklin,2021-04-04 03:02:01.677304,2020-11-27 00:00:00.000000,1.70827758,2.46348750,3.13488316,843,1217,1548,402,667,896,0.81395377,1.35018665,1.81403156,0.47618749,0.57425312,0.76956462
50011,0,USVermontFranklin,Vermont,Franklin,2021-04-04 03:02:01.677304,2020-11-28 00:00:00.000000,1.78241042,2.64077811,3.35565922,880,1304,1657,422,720,968,0.85451278,1.45837510,1.96037304,0.43801572,0.55690332,0.75611177
50011,0,USVermontFranklin,Vermont,Franklin,2021-04-04 03:02:01.677304,2020-11-29 00:00:00.000000,1.86199139,2.79773369,3.56661804,919,1382,1761,447,765,1041,0.90510593,1.55013062,2.10724729,0.42260550,0.52040686,0.74546525
50011,0,USVermontFranklin,Vermont,Franklin,2021-04-04 03:02:01.677304,2020-11-30 00:00:00.000000,1.94655252,2.91826584,3.77060756,961,1441,1862,473,808,1111,0.95847604,1.63675221,2.25030673,0.38864064,0.50045321,0.67504217
50011,0,USVermontFranklin,Vermont,Franklin,2021-04-04 03:02:01.677304,2020-12-01 00:00:00.000000,2.00294486,3.02410908,3.96512342,989,1493,1958,501,840,1159,1.01539928,1.70150147,2.34633189,0.35650880,0.48059887,0.65699194
50011,0,USVermontFranklin,Vermont,Franklin,2021-04-04 03:02:01.677304,2020-12-02 00:00:00.000000,2.09174120,3.12784450,4.14822563,1033,1545,2049,531,874,1210,1.07530973,1.77050750,2.45095183,0.33774668,0.46268896,0.65156854
50011,0,USVermontFranklin,Vermont,Franklin,2021-04-04 03:02:01.677304,2020-12-03 00:00:00.000000,2.20354925,3.22493855,4.30944891,1088,1593,2128,548,906,1259,1.11052782,1.83512035,2.55006879,0.32747749,0.45207011,0.62740945
50011,0,USVermontFranklin,Vermont,Franklin,2021-04-04 03:02:01.677304,2020-12-04 00:00:00.000000,2.28583254,3.31642948,4.34512411,1129,1638,2146,556,942,1307,1.12693706,1.90833618,2.64633046,0.33104541,0.42746989,0.58397158
50011,0,USVermontFranklin,Vermont,Franklin,2021-04-04 03:02:01.677304,2020-12-05 00:00:00.000000,2.35928761,3.33845648,4.34089117,1165,1649,2144,564,975,1352,1.14245310,1.97373552,2.73864042,0.31930634,0.41274733,0.56338994
50011,0,USVermontFranklin,Vermont,Franklin,2021-04-04 03:02:01.677304,2020-12-06 00:00:00.000000,2.42889204,3.38679568,4.32417931,1199,1673,2136,583,996,1393,1.18143330,2.01665719,2.82087307,0.30041625,0.39984146,0.55311584
50011,0,USVermontFranklin,Vermont,Franklin,2021-04-04 03:02:01.677304,2020-12-07 00:00:00.000000,2.49758207,3.41753231,4.36380592,1233,1688,2155,601,1020,1424,1.21776000,2.06495639,2.88370020,0.29530480,0.38765738,0.54732910
50011,0,USVermontFranklin,Vermont,Franklin,2021-04-04 03:02:01.677304,2020-12-08 00:00:00.000000,2.53457438,3.43025974,4.44930484,1252,1694,2198,618,1032,1445,1.25274043,2.09032960,2.92572984,0.29319198,0.37914240,0.53908299
50011,0,USVermontFranklin,Vermont,Franklin,2021-04-04 03:02:01.677304,2020-12-09 00:00:00.000000,2.54141603,3.43542521,4.54836476,1255,1697,2246,635,1045,1457,1.28646017,2.11566441,2.95088104,0.28869826,0.37087945,0.53608729
50011,0,USVermontFranklin,Vermont,Franklin,2021-04-04 03:02:01.677304,2020-12-10 00:00:00.000000,2.45365437,3.42081443,4.59732538,1212,1689,2271,650,1057,1464,1.31682394,2.14150058,2.96489534,0.28725935,0.36463573,0.51807744
50011,0,USVermontFranklin,Vermont,Franklin,2021-04-04 03:02:01.677304,2020-12-11 00:00:00.000000,2.36956797,3.40593267,4.62156414,1170,1682,2283,661,1056,1468,1.33883943,2.13763066,2.97199191,0.28294576,0.35635574,0.50375887
50011,0,USVermontFranklin,Vermont,Franklin,2021-04-04 03:02:01.677304,2020-12-12 00:00:00.000000,2.36442052,3.41617058,4.59405865,1168,1687,2269,663,1056,1469,1.34365264,2.13795896,2.97467888,0.27178967,0.34989310,0.49460061
50011,0,USVermontFranklin,Vermont,Franklin,2021-04-04 03:02:01.677304,2020-12-13 00:00:00.000000,2.35610485,3.39251571,4.62434566,1163,1675,2284,651,1050,1476,1.31806616,2.12651157,2.98970674,0.26527746,0.33601449,0.48157071
50011,0,USVermontFranklin,Vermont,Franklin,2021-04-04 03:02:01.677304,2020-12-14 00:00:00.000000,2.34506309,3.36796890,4.57025606,1158,1663,2257,627,1045,1491,1.27065840,2.11567083,3.01916190,0.26343841,0.33590248,0.47468697
50011,0,USVermontFranklin,Vermont,Franklin,2021-04-04 03:02:01.677304,2020-12-15 00:00:00.000000,2.33335467,3.35507047,4.47443454,1152,1657,2210,612,1042,1482,1.23916579,2.10948261,3.00106566,0.26280617,0.33864937,0.47325000
50011,0,USVermontFranklin,Vermont,Franklin,2021-04-04 03:02:01.677304,2020-12-16 00:00:00.000000,2.25065239,3.32810446,4.40315650,1111,1644,2175,600,1044,1462,1.21650636,2.11420506,2.95987421,0.26051887,0.33755382,0.47115432
50011,0,USVermontFranklin,Vermont,Franklin,2021-04-04 03:02:01.677304,2020-12-17 00:00:00.000000,2.17084130,3.30388706,4.40390904,1072,1632,2175,579,1031,1452,1.17300294,2.08790182,2.94007121,0.25767573,0.33691656,0.46834455
50011,0,USVermontFranklin,Vermont,Franklin,2021-04-04 03:02:01.677304,2020-12-18 00:00:00.000000,2.09742373,3.28478083,4.42177020,1036,1622,2184,562,1028,1444,1.13832414,2.08126447,2.92446524,0.25471786,0.34480653,0.47021105
50011,0,USVermontFranklin,Vermont,Franklin,2021-04-04 03:02:01.677304,2020-12-19 00:00:00.000000,2.08037066,3.25034369,4.39854176,1027,1605,2172,563,1023,1436,1.13995331,2.07206811,2.90756228,0.25193199,0.34894960,0.47627197
50011,0,USVermontFranklin,Vermont,Franklin,2021-04-04 03:02:01.677304,2020-12-20 00:00:00.000000,2.09087930,3.23374300,4.31214112,1032,1597,2130,565,1015,1427,1.14461118,2.05530174,2.89007560,0.25990296,0.34932023,0.47647923
50011,0,USVermontFranklin,Vermont,Franklin,2021-04-04 03:02:01.677304,2020-12-21 00:00:00.000000,2.07164744,3.22080246,4.28683102,1023,1591,2117,568,1005,1419,1.15044440,2.03599363,2.87289993,0.25839550,0.35284214,0.47425390
50011,0,USVermontFranklin,Vermont,Franklin,2021-04-04 03:02:01.677304,2020-12-22 00:00:00.000000,2.02083330,3.21101154,4.27321368,998,1586,2111,569,997,1413,1.15243455,2.01974198,2.86208458,0.25588792,0.35144514,0.46192271
50011,0,USVermontFranklin,Vermont,Franklin,2021-04-04 03:02:01.677304,2020-12-23 00:00:00.000000,1.97327506,3.18598411,4.25640098,974,1573,2102,567,987,1410,1.14807718,1.99888867,2.85557786,0.25550442,0.35208389,0.45458503
50011,0,USVermontFranklin,Vermont,Franklin,2021-04-04 03:02:01.677304,2020-12-24 00:00:00.000000,1.93208501,3.13059360,4.23662309,954,1546,2092,557,972,1408,1.12848369,1.96933295,2.85189540,0.25499825,0.35047791,0.45083679
50011,0,USVermontFranklin,Vermont,Franklin,2021-04-04 03:02:01.677304,2020-12-25 00:00:00.000000,1.91296941,3.10944217,4.21157968,945,1536,2080,542,956,1407,1.09802153,1.93593172,2.84957692,0.25521399,0.34733657,0.44647085
50011,0,USVermontFranklin,Vermont,Franklin,2021-04-04 03:02:01.677304,2020-12-26 00:00:00.000000,1.91256787,3.06654595,4.17551639,944,1514,2062,527,949,1405,1.06743714,1.92190675,2.84448918,0.25922146,0.34312195,0.45494219
50011,0,USVermontFranklin,Vermont,Franklin,2021-04-04 03:02:01.677304,2020-12-27 00:00:00.000000,1.91686923,3.02598908,4.11989958,946,1494,2035,526,936,1397,1.06587707,1.89629080,2.82901932,0.26098945,0.34335882,0.45936463
50011,0,USVermontFranklin,Vermont,Franklin,2021-04-04 03:02:01.677304,2020-12-28 00:00:00.000000,1.90126575,2.99354631,4.04359505,939,1478,1997,528,918,1380,1.06947086,1.85885852,2.79467550,0.26107864,0.34133469,0.45231199
50011,0,USVermontFranklin,Vermont,Franklin,2021-04-04 03:02:01.677304,2020-12-29 00:00:00.000000,1.89056998,2.97381299,3.95129352,933,1469,1952,529,904,1355,1.07179166,1.83100104,2.74466129,0.25069870,0.34033425,0.45608599
50011,0,USVermontFranklin,Vermont,Franklin,2021-04-04 03:02:01.677304,2020-12-30 00:00:00.000000,1.88756978,2.94684591,3.85179018,932,1455,1902,520,894,1327,1.05433420,1.81104356,2.68693514,0.25040778,0.34220110,0.45862470
50011,0,USVermontFranklin,Vermont,Franklin,2021-04-04 03:02:01.677304,2020-12-31 00:00:00.000000,1.89665708,2.90559735,3.79856174,936,1435,1876,511,885,1297,1.03604165,1.79182514,2.62658580,0.24838746,0.34230464,0.45594330
50011,0,USVermontFranklin,Vermont,Franklin,2021-04-04 03:02:01.677304,2021-01-01 00:00:00.000000,1.89037279,2.85627841,3.77243517,933,1411,1863,502,870,1268,1.01716782,1.76251063,2.56675265,0.24203339,0.34446880,0.45783948
50011,0,USVermontFranklin,Vermont,Franklin,2021-04-04 03:02:01.677304,2021-01-02 00:00:00.000000,1.87794337,2.82373735,3.73031674,927,1394,1842,492,861,1246,0.99725714,1.74416124,2.52358243,0.25222854,0.34683087,0.47319732
50011,0,USVermontFranklin,Vermont,Franklin,2021-04-04 03:02:01.677304,2021-01-03 00:00:00.000000,1.85052219,2.79746005,3.65414357,914,1382,1805,482,856,1234,0.97632549,1.73347033,2.49952532,0.22850330,0.34259005,0.47537873
50011,0,USVermontFranklin,Vermont,Franklin,2021-04-04 03:02:01.677304,2021-01-04 00:00:00.000000,1.82441437,2.75624252,3.58252559,901,1361,1769,478,844,1219,0.96763657,1.70915450,2.46792734,0.22816468,0.34071025,0.47616978
50011,0,USVermontFranklin,Vermont,Franklin,2021-04-04 03:02:01.677304,2021-01-05 00:00:00.000000,1.79502876,2.72678957,3.55426169,886,1347,1755,471,830,1196,0.95423795,1.68022816,2.42279732,0.22866240,0.34415169,0.47626389
50011,0,USVermontFranklin,Vermont,Franklin,2021-04-04 03:02:01.677304,2021-01-06 00:00:00.000000,1.75829768,2.69793248,3.52544335,868,1332,1741,461,815,1171,0.93433134,1.65138027,2.37084151,0.22903716,0.34434960,0.47603859
50011,0,USVermontFranklin,Vermont,Franklin,2021-04-04 03:02:01.677304,2021-01-07 00:00:00.000000,1.70868015,2.64465633,3.49578643,844,1306,1726,450,808,1160,0.91101446,1.63565124,2.34968727,0.22942410,0.34757757,0.47578087
50011,0,USVermontFranklin,Vermont,Franklin,2021-04-04 03:02:01.677304,2021-01-08 00:00:00.000000,1.65955914,2.61431954,3.46559963,819,1291,1712,437,797,1154,0.88630630,1.61505855,2.33602935,0.23024549,0.34980861,0.47506978
50011,0,USVermontFranklin,Vermont,Franklin,2021-04-04 03:02:01.677304,2021-01-09 00:00:00.000000,1.61216705,2.60564940,3.43617101,796,1287,1697,434,787,1147,0.87938046,1.59464526,2.32292119,0.24797513,0.35263338,0.47373470
50011,0,USVermontFranklin,Vermont,Franklin,2021-04-04 03:02:01.677304,2021-01-10 00:00:00.000000,1.60139102,2.58101357,3.41045289,791,1275,1684,433,778,1140,0.87846443,1.57615450,2.30847771,0.24792398,0.36072475,0.47360650
50011,0,USVermontFranklin,Vermont,Franklin,2021-04-04 03:02:01.677304,2021-01-11 00:00:00.000000,1.61032691,2.54688267,3.39438657,795,1258,1676,435,766,1132,0.88098024,1.55077834,2.29169781,0.24803330,0.36690352,0.48276497
50011,0,USVermontFranklin,Vermont,Franklin,2021-04-04 03:02:01.677304,2021-01-12 00:00:00.000000,1.58188853,2.48577661,3.38811531,781,1228,1673,437,758,1125,0.88508360,1.53585363,2.27852936,0.24839180,0.37072322,0.50334704
50011,0,USVermontFranklin,Vermont,Franklin,2021-04-04 03:02:01.677304,2021-01-13 00:00:00.000000,1.55692961,2.44405970,3.39435293,769,1207,1676,439,753,1119,0.89005094,1.52425711,2.26628240,0.26666176,0.38294351,0.50754496
50011,0,USVermontFranklin,Vermont,Franklin,2021-04-04 03:02:01.677304,2021-01-14 00:00:00.000000,1.55807378,2.41551005,3.41706022,769,1193,1688,438,740,1113,0.88674020,1.49992102,2.25400137,0.27901318,0.39066729,0.50856106
50011,0,USVermontFranklin,Vermont,Franklin,2021-04-04 03:02:01.677304,2021-01-15 00:00:00.000000,1.56318503,2.40998839,3.45614397,772,1190,1707,429,734,1107,0.86977965,1.48682858,2.24154819,0.28647630,0.40799487,0.52151796
50011,0,USVermontFranklin,Vermont,Franklin,2021-04-04 03:02:01.677304,2021-01-16 00:00:00.000000,1.57564756,2.44089071,3.50609174,778,1205,1732,421,735,1101,0.85396535,1.48799211,2.22906977,0.30364353,0.42702935,0.56216882
50011,0,USVermontFranklin,Vermont,Franklin,2021-04-04 03:02:01.677304,2021-01-17 00:00:00.000000,1.60089474,2.44797780,3.56134303,790,1209,1759,415,736,1095,0.84146114,1.49095896,2.21664554,0.31352370,0.45027064,0.59928683
50011,0,USVermontFranklin,Vermont,Franklin,2021-04-04 03:02:01.677304,2021-01-18 00:00:00.000000,1.64104457,2.47775806,3.62252278,810,1224,1789,413,736,1089,0.83754600,1.49053731,2.20471847,0.31558280,0.49141834,0.63836867
50011,0,USVermontFranklin,Vermont,Franklin,2021-04-04 03:02:01.677304,2021-01-19 00:00:00.000000,1.67355876,2.50793952,3.68395055,826,1238,1819,419,741,1086,0.84949082,1.50034865,2.19871422,0.35248766,0.49612235,0.66379314
50011,0,USVermontFranklin,Vermont,Franklin,2021-04-04 03:02:01.677304,2021-01-20 00:00:00.000000,1.69974245,2.56873893,3.74502491,839,1269,1850,433,751,1098,0.87733961,1.52110720,2.22305783,0.36688443,0.51440067,0.70792103
50011,0,USVermontFranklin,Vermont,Franklin,2021-04-04 03:02:01.677304,2021-01-21 00:00:00.000000,1.74917573,2.65393809,3.80620461,864,1311,1880,452,767,1132,0.91645418,1.55310724,2.29264079,0.36861963,0.54328565,0.74493326
50011,0,USVermontFranklin,Vermont,Franklin,2021-04-04 03:02:01.677304,2021-01-22 00:00:00.000000,1.84236892,2.74008789,3.87202079,910,1353,1912,475,785,1173,0.96237142,1.58987794,2.37516416,0.39098919,0.56668365,0.79809872
50011,0,USVermontFranklin,Vermont,Franklin,2021-04-04 03:02:01.677304,2021-01-23 00:00:00.000000,1.98511076,2.85951790,3.95089453,980,1412,1951,500,807,1214,1.01213797,1.63533583,2.45864765,0.39904286,0.58624882,0.85088666
50011,0,USVermontFranklin,Vermont,Franklin,2021-04-04 03:02:01.677304,2021-01-24 00:00:00.000000,2.14355990,2.97997774,4.06573695,1058,1472,2008,525,840,1254,1.06440128,1.70050683,2.53870439,0.42302323,0.60951230,0.85608406
50011,0,USVermontFranklin,Vermont,Franklin,2021-04-04 03:02:01.677304,2021-01-25 00:00:00.000000,2.25638649,3.15045850,4.21475116,1114,1556,2082,552,873,1292,1.11879067,1.76836023,2.61532609,0.46575433,0.62022104,0.86759501
50011,0,USVermontFranklin,Vermont,Franklin,2021-04-04 03:02:01.677304,2021-01-26 00:00:00.000000,2.37566471,3.30572777,4.37797675,1173,1633,2162,580,905,1329,1.17532022,1.83308683,2.69089002,0.48170877,0.64653603,0.86978897
50011,0,USVermontFranklin,Vermont,Franklin,2021-04-04 03:02:01.677304,2021-01-27 00:00:00.000000,2.50096867,3.48484957,4.54747413,1235,1721,2246,609,952,1366,1.23392945,1.92791712,2.76544898,0.48131362,0.65868031,0.86527652
50011,0,USVermontFranklin,Vermont,Franklin,2021-04-04 03:02:01.677304,2021-01-28 00:00:00.000000,2.62852985,3.61126707,4.81971672,1298,1784,2381,639,1003,1402,1.29459422,2.03052358,2.83941256,0.49312564,0.65611031,0.86024961
50011,0,USVermontFranklin,Vermont,Franklin,2021-04-04 03:02:01.677304,2021-01-29 00:00:00.000000,2.73564851,3.78730147,5.15631023,1351,1871,2547,670,1058,1472,1.35728381,2.14226354,2.98102602,0.49118217,0.65589892,0.85546281
50011,0,USVermontFranklin,Vermont,Franklin,2021-04-04 03:02:01.677304,2021-01-30 00:00:00.000000,2.81372074,4.02768218,5.48977892,1390,1989,2712,702,1110,1552,1.42180503,2.24835535,3.14293890,0.48444685,0.66490513,0.86554041
50011,0,USVermontFranklin,Vermont,Franklin,2021-04-04 03:02:01.677304,2021-01-31 00:00:00.000000,2.88500822,4.22715396,5.80778356,1425,2088,2869,735,1167,1630,1.48792467,2.36258686,3.30117640,0.48246329,0.66154626,0.86692315
50011,0,USVermontFranklin,Vermont,Franklin,2021-04-04 03:02:01.677304,2021-02-01 00:00:00.000000,2.95345079,4.43569707,6.09708997,1459,2191,3012,768,1226,1703,1.55548579,2.48370235,3.44901046,0.48186466,0.64359139,0.87076593
50011,0,USVermontFranklin,Vermont,Franklin,2021-04-04 03:02:01.677304,2021-02-02 00:00:00.000000,3.06816022,4.63592575,6.34160383,1515,2290,3132,802,1290,1767,1.62434531,2.61200390,3.57829380,0.48123510,0.64001097,0.86700100
50011,0,USVermontFranklin,Vermont,Franklin,2021-04-04 03:02:01.677304,2021-02-03 00:00:00.000000,3.18838867,4.85600674,6.52990108,1575,2398,3225,836,1353,1821,1.69358170,2.74025027,3.68808621,0.47979218,0.62447483,0.86731493
50011,0,USVermontFranklin,Vermont,Franklin,2021-04-04 03:02:01.677304,2021-02-04 00:00:00.000000,3.30411961,5.06337840,6.65587819,1632,2501,3288,870,1421,1867,1.76283032,2.87675605,3.78071738,0.47626876,0.61676569,0.86375660
50011,0,USVermontFranklin,Vermont,Franklin,2021-04-04 03:02:01.677304,2021-02-05 00:00:00.000000,3.41440838,5.21361836,6.89794719,1686,2575,3407,904,1484,1926,1.83019419,3.00420172,3.89994309,0.46838668,0.61188896,0.84010107
50011,0,USVermontFranklin,Vermont,Franklin,2021-04-04 03:02:01.677304,2021-02-06 00:00:00.000000,3.51728901,5.34574142,7.25829503,1737,2640,3585,935,1548,1997,1.89449020,3.13440275,4.04379467,0.44278753,0.60260961,0.82118601
50011,0,USVermontFranklin,Vermont,Franklin,2021-04-04 03:02:01.677304,2021-02-07 00:00:00.000000,3.61218031,5.48587919,7.45285512,1784,2710,3681,965,1602,2060,1.95494745,3.24424151,4.17121599,0.42363014,0.58830843,0.78172886
50011,0,USVermontFranklin,Vermont,Franklin,2021-04-04 03:02:01.677304,2021-02-08 00:00:00.000000,3.70039363,5.58441802,7.60797075,1828,2758,3758,993,1655,2126,2.01113529,3.35178030,4.30523744,0.40029310,0.57390260,0.72631288
50011,0,USVermontFranklin,Vermont,Franklin,2021-04-04 03:02:01.677304,2021-02-09 00:00:00.000000,3.78142326,5.60532429,7.71600538,1868,2769,3811,1019,1681,2230,2.06332664,3.40362236,4.51409150,0.38704363,0.54791524,0.65389659
50011,0,USVermontFranklin,Vermont,Franklin,2021-04-04 03:02:01.677304,2021-02-10 00:00:00.000000,3.85610069,5.63064974,7.77876458,1904,2781,3842,1043,1702,2305,2.11151007,3.44581668,4.66586358,0.38295592,0.53234850,0.64209943
50011,0,USVermontFranklin,Vermont,Franklin,2021-04-04 03:02:01.677304,2021-02-11 00:00:00.000000,3.92454031,5.63856217,7.80386227,1938,2785,3855,1065,1716,2351,2.15593492,3.47361382,4.75919189,0.35849191,0.51020996,0.63295805
50011,0,USVermontFranklin,Vermont,Franklin,2021-04-04 03:02:01.677304,2021-02-12 00:00:00.000000,3.98041212,5.65508955,7.79925497,1966,2793,3852,1085,1713,2374,2.19675450,3.46845916,4.80656794,0.35845708,0.49401487,0.63023169
50011,0,USVermontFranklin,Vermont,Franklin,2021-04-04 03:02:01.677304,2021-02-13 00:00:00.000000,3.98748149,5.64159142,7.77165197,1969,2787,3839,1102,1698,2378,2.23190143,3.43794710,4.81359789,0.35848436,0.47970421,0.62816171
50011,0,USVermontFranklin,Vermont,Franklin,2021-04-04 03:02:01.677304,2021-02-14 00:00:00.000000,3.93675317,5.65161632,7.72795624,1944,2792,3817,1095,1701,2360,2.21701384,3.44387537,4.77785111,0.35830643,0.47417385,0.62636377
50011,0,USVermontFranklin,Vermont,Franklin,2021-04-04 03:02:01.677304,2021-02-15 00:00:00.000000,3.88277290,5.59941266,7.67796701,1918,2766,3793,1082,1701,2363,2.19077072,3.44353889,4.78398742,0.35296095,0.47189440,0.64096899
50011,0,USVermontFranklin,Vermont,Franklin,2021-04-04 03:02:01.677304,2021-02-16 00:00:00.000000,3.82774416,5.51951114,7.44378569,1890,2726,3677,1068,1693,2381,2.16232045,3.42810996,4.82111368,0.34085820,0.47516601,0.64107207
50011,0,USVermontFranklin,Vermont,Franklin,2021-04-04 03:02:01.677304,2021-02-17 00:00:00.000000,3.77295285,5.45461853,7.18079629,1863,2694,3547,1053,1680,2392,2.13262893,3.40141307,4.84369937,0.33361957,0.47266159,0.64083954
50011,0,USVermontFranklin,Vermont,Franklin,2021-04-04 03:02:01.677304,2021-02-18 00:00:00.000000,3.72036559,5.36921173,7.16007115,1837,2652,3537,1038,1677,2398,2.10253081,3.39486740,4.85476505,0.33209883,0.46952258,0.62538280
50011,0,USVermontFranklin,Vermont,Franklin,2021-04-04 03:02:01.677304,2021-02-19 00:00:00.000000,3.67302662,5.33690600,7.14507788,1814,2636,3529,1024,1671,2399,2.07299311,3.38307806,4.85686444,0.33865357,0.46998741,0.61526445
50011,0,USVermontFranklin,Vermont,Franklin,2021-04-04 03:02:01.677304,2021-02-20 00:00:00.000000,3.63554500,5.29453151,7.12889006,1796,2615,3521,1010,1651,2397,2.04539303,3.34300271,4.85234333,0.34825898,0.47774293,0.64156863
50011,0,USVermontFranklin,Vermont,Franklin,2021-04-04 03:02:01.677304,2021-02-21 00:00:00.000000,3.61400816,5.26713684,7.11981343,1785,2602,3517,998,1626,2393,2.02179096,3.29336085,4.84437963,0.35508455,0.48655957,0.65354693
50011,0,USVermontFranklin,Vermont,Franklin,2021-04-04 03:02:01.677304,2021-02-22 00:00:00.000000,3.61542164,5.21945837,7.11503798,1786,2578,3514,990,1612,2389,2.00502221,3.26476553,4.83752026,0.35476887,0.49171032,0.66106090
50011,0,USVermontFranklin,Vermont,Franklin,2021-04-04 03:02:01.677304,2021-02-23 00:00:00.000000,3.64112120,5.17397567,7.11053305,1798,2556,3512,987,1604,2387,1.99854842,3.24789331,4.83286788,0.35486018,0.50930478,0.69824748
50011,0,USVermontFranklin,Vermont,Franklin,2021-04-04 03:02:01.677304,2021-02-24 00:00:00.000000,3.68731446,5.11762055,7.10181678,1821,2528,3508,989,1590,2385,2.00247232,3.21999465,4.82929115,0.35549713,0.51285572,0.73734732
50011,0,USVermontFranklin,Vermont,Franklin,2021-04-04 03:02:01.677304,2021-02-25 00:00:00.000000,3.63153223,5.09951230,7.08765257,1794,2519,3501,984,1582,2383,1.99233196,3.20361732,4.82454369,0.35728370,0.52172090,0.76096246
50011,0,USVermontFranklin,Vermont,Franklin,2021-04-04 03:02:01.677304,2021-02-26 00:00:00.000000,3.57216542,5.05969316,7.06828277,1764,2499,3491,982,1566,2379,1.98909614,3.17192266,4.81713247,0.38040150,0.54015907,0.79725104
50011,0,USVermontFranklin,Vermont,Franklin,2021-04-04 03:02:01.677304,2021-02-27 00:00:00.000000,3.52184734,5.01935213,7.04524805,1739,2479,3480,982,1553,2374,1.98934229,3.14398389,4.80653214,0.38392435,0.56225811,0.81854132
50011,0,USVermontFranklin,Vermont,Franklin,2021-04-04 03:02:01.677304,2021-02-28 00:00:00.000000,3.48271319,4.99605784,7.02118497,1720,2468,3468,981,1544,2367,1.98722988,3.12642365,4.79312556,0.40092486,0.57569168,0.83540064
50011,0,USVermontFranklin,Vermont,Franklin,2021-04-04 03:02:01.677304,2021-03-01 00:00:00.000000,3.45263227,5.00193905,7.00114107,1705,2471,3458,969,1537,2360,1.96223771,3.11137720,4.77809830,0.41689021,0.59130202,0.83584879
50011,0,USVermontFranklin,Vermont,Franklin,2021-04-04 03:02:01.677304,2021-03-02 00:00:00.000000,3.43209229,5.01438220,6.98247686,1695,2477,3449,959,1531,2353,1.94256644,3.09948243,4.76388367,0.41849338,0.60804057,0.82726885
50011,0,USVermontFranklin,Vermont,Franklin,2021-04-04 03:02:01.677304,2021-03-03 00:00:00.000000,3.41782576,5.04917254,6.96213374,1688,2494,3439,952,1540,2346,1.92820448,3.11748239,4.75064142,0.42978395,0.62424263,0.82204464
50011,0,USVermontFranklin,Vermont,Franklin,2021-04-04 03:02:01.677304,2021-03-04 00:00:00.000000,3.40752063,5.09126829,6.93579536,1683,2515,3426,947,1548,2340,1.91805295,3.13510248,4.73719968,0.43886765,0.62332819,0.82135969
50011,0,USVermontFranklin,Vermont,Franklin,2021-04-04 03:02:01.677304,2021-03-05 00:00:00.000000,3.40214590,5.10716420,6.90006587,1680,2523,3408,943,1566,2332,1.91082314,3.17047087,4.72137799,0.45186642,0.63029798,0.82352326
50011,0,USVermontFranklin,Vermont,Franklin,2021-04-04 03:02:01.677304,2021-03-06 00:00:00.000000,3.40765954,5.10845005,6.85320018,1683,2523,3385,941,1562,2322,1.90633217,3.16300080,4.70089936,0.45224764,0.63126429,0.83786251
50011,0,USVermontFranklin,Vermont,Franklin,2021-04-04 03:02:01.677304,2021-03-07 00:00:00.000000,3.42624930,5.10752837,6.79524467,1692,2523,3356,941,1551,2309,1.90661987,3.14020291,4.67408280,0.45317186,0.63152230,0.86599248
50011,0,USVermontFranklin,Vermont,Franklin,2021-04-04 03:02:01.677304,2021-03-08 00:00:00.000000,3.44246055,5.09731128,6.83665004,1700,2518,3377,944,1552,2292,1.91163046,3.14227946,4.64017919,0.44599688,0.63187790,0.89860815
50011,0,USVermontFranklin,Vermont,Franklin,2021-04-04 03:02:01.677304,2021-03-09 00:00:00.000000,3.45464591,5.12888884,6.90676967,1706,2533,3412,948,1544,2271,1.91924515,3.12664850,4.59826344,0.45993363,0.62673014,0.92052802
50011,0,USVermontFranklin,Vermont,Franklin,2021-04-04 03:02:01.677304,2021-03-10 00:00:00.000000,3.46366720,5.11723238,6.96359876,1711,2528,3440,952,1539,2247,1.92733950,3.11583515,4.54927398,0.46036046,0.62301144,0.92712169
50011,0,USVermontFranklin,Vermont,Franklin,2021-04-04 03:02:01.677304,2021-03-11 00:00:00.000000,3.47250837,5.11725100,7.00661154,1715,2528,3461,955,1524,2220,1.93469816,3.08681271,4.49411567,0.45696777,0.62599125,0.92235233
50011,0,USVermontFranklin,Vermont,Franklin,2021-04-04 03:02:01.677304,2021-03-12 00:00:00.000000,3.47672951,5.12924468,7.03470836,1717,2533,3475,958,1524,2190,1.94050386,3.08583225,4.43385417,0.44922616,0.63137527,0.90712428
50011,0,USVermontFranklin,Vermont,Franklin,2021-04-04 03:02:01.677304,2021-03-13 00:00:00.000000,3.45639819,5.11191468,7.04604243,1707,2525,3480,960,1517,2185,1.94405016,3.07156790,4.42463663,0.43872987,0.62438208,0.98203413
50011,0,USVermontFranklin,Vermont,Franklin,2021-04-04 03:02:01.677304,2021-03-14 00:00:00.000000,3.39465189,5.06114684,7.03906255,1677,2500,3477,960,1508,2182,1.94498382,3.05370785,4.41764662,0.43548482,0.62880955,1.01140691
50011,0,USVermontFranklin,Vermont,Franklin,2021-04-04 03:02:01.677304,2021-03-15 00:00:00.000000,3.36256082,5.00385619,6.93281997,1661,2472,3424,960,1510,2175,1.94330335,3.05836792,4.40294634,0.43570027,0.62608861,1.00176893
50011,0,USVermontFranklin,Vermont,Franklin,2021-04-04 03:02:01.677304,2021-03-16 00:00:00.000000,3.33768096,4.98260506,6.83553312,1648,2461,3376,952,1513,2162,1.92854487,3.06325614,4.37778865,0.43615540,0.63264224,0.98454003
50011,0,USVermontFranklin,Vermont,Franklin,2021-04-04 03:02:01.677304,2021-03-17 00:00:00.000000,3.32512760,4.94236553,6.74536724,1642,2441,3332,943,1500,2146,1.90970298,3.03657375,4.34515947,0.43653558,0.62341488,1.01617768
50011,0,USVermontFranklin,Vermont,Franklin,2021-04-04 03:02:01.677304,2021-03-18 00:00:00.000000,3.22835877,4.90359800,6.65939699,1594,2422,3289,927,1494,2127,1.87707088,3.02418911,4.30585750,0.43896856,0.62345170,1.02169133
50011,0,USVermontFranklin,Vermont,Franklin,2021-04-04 03:02:01.677304,2021-03-19 00:00:00.000000,3.12660193,4.85661647,6.57407164,1544,2399,3247,898,1484,2110,1.81975333,3.00496052,4.27154156,0.44251816,0.63267618,1.06465146
50011,0,USVermontFranklin,Vermont,Franklin,2021-04-04 03:02:01.677304,2021-03-20 00:00:00.000000,3.03199079,4.77407618,6.48506997,1497,2358,3203,870,1471,2102,1.76307877,2.97940126,4.25608418,0.44922048,0.63596962,1.10813928
50011,0,USVermontFranklin,Vermont,Franklin,2021-04-04 03:02:01.677304,2021-03-21 00:00:00.000000,2.95009318,4.72205532,6.38633401,1457,2332,3154,844,1459,2090,1.70868768,2.95458986,4.23194740,0.44955987,0.64003068,1.12553143
50011,0,USVermontFranklin,Vermont,Franklin,2021-04-04 03:02:01.677304,2021-03-22 00:00:00.000000,2.88080455,4.63893940,6.26852249,1423,2291,3096,819,1427,2075,1.65909760,2.88939796,4.20120244,0.44665490,0.63906286,1.13081554
50011,0,USVermontFranklin,Vermont,Franklin,2021-04-04 03:02:01.677304,2021-03-23 00:00:00.000000,2.81783890,4.50741247,6.18290268,1392,2226,3054,798,1402,2057,1.61650993,2.83990342,4.16454316,0.44194476,0.64155939,1.13247551
50011,0,USVermontFranklin,Vermont,Franklin,2021-04-04 03:02:01.677304,2021-03-24 00:00:00.000000,2.78393516,4.42807918,6.17141619,1375,2187,3048,779,1385,2036,1.57869334,2.80522257,4.12277181,0.43996166,0.64616071,1.15139601
50011,0,USVermontFranklin,Vermont,Franklin,2021-04-04 03:02:01.677304,2021-03-25 00:00:00.000000,2.78171613,4.35893429,6.12044432,1374,2153,3023,762,1361,2013,1.54377920,2.75662810,4.07604946,0.44810883,0.64415044,1.15945276
50011,0,USVermontFranklin,Vermont,Franklin,2021-04-04 03:02:01.677304,2021-03-26 00:00:00.000000,2.75437581,4.34295954,5.97776289,1360,2145,2953,746,1341,1987,1.51054367,2.71567092,4.02404855,0.45142688,0.64978226,1.16824018
50011,0,USVermontFranklin,Vermont,Franklin,2021-04-04 03:02:01.677304,2021-03-27 00:00:00.000000,2.70467860,4.27773581,5.86655807,1336,2113,2898,730,1341,1959,1.47845604,2.71475153,3.96658451,0.46235713,0.64849076,1.17834990
50011,0,USVermontFranklin,Vermont,Franklin,2021-04-04 03:02:01.677304,2021-03-28 00:00:00.000000,2.64585040,4.26090822,5.80221299,1307,2104,2866,715,1319,1928,1.44784459,2.67131532,3.90268271,0.46235266,0.66103396,1.18919499
50011,0,USVermontFranklin,Vermont,Franklin,2021-04-04 03:02:01.677304,2021-03-29 00:00:00.000000,2.57160183,4.22253611,5.72752009,1270,2086,2829,701,1318,1893,1.41951552,2.66852519,3.83380810,0.47397483,0.67905404,1.19926249
50011,0,USVermontFranklin,Vermont,Franklin,2021-04-04 03:02:01.677304,2021-03-30 00:00:00.000000,2.49263779,4.17410492,5.72379658,1231,2062,2827,687,1289,1857,1.39253105,2.61030974,3.76006106,0.46712792,0.68430784,1.21940989
50011,0,USVermontFranklin,Vermont,Franklin,2021-04-04 03:02:01.677304,2021-03-31 00:00:00.000000,2.40658136,4.10676965,5.74772517,1188,2028,2839,675,1268,1844,1.36676463,2.56839674,3.73295651,0.46549203,0.68064148,1.24572741
50011,0,USVermontFranklin,Vermont,Franklin,2021-04-04 03:02:01.677304,2021-04-01 00:00:00.000000,2.35917642,4.05740606,5.77040612,1165,2004,2850,662,1250,1852,1.34173530,2.53140980,3.74933944,0.45355677,0.68615615,1.28378892
50011,0,USVermontFranklin,Vermont,Franklin,2021-04-04 03:02:01.677304,2021-04-02 00:00:00.000000,2.31747541,4.02177750,5.79272569,1144,1986,2861,650,1228,1858,1.31721010,2.48668491,3.76275710,0.43709462,0.69521069,1.33234758
50011,0,USVermontFranklin,Vermont,Franklin,2021-04-04 03:02:01.677304,2021-04-03 00:00:00.000000,2.28406141,3.96631444,5.67466561,1128,1959,2803,639,1215,1853,1.29360388,2.46091361,3.75259231,0.42160252,0.69257972,1.37887653
50011,0,USVermontFranklin,Vermont,Franklin,2021-04-04 03:02:01.677304,2021-04-04 00:00:00.000000,2.26305878,3.88568671,5.52087920,1117,1919,2727,628,1208,1827,1.27300334,2.44614691,3.69848144,0.40585699,0.69146218,1.41156164
50011,0,USVermontFranklin,Vermont,Franklin,2021-04-04 03:02:01.677304,2021-04-05 00:00:00.000000,2.20617760,3.82200955,5.45568888,1089,1888,2695,621,1191,1796,1.25770245,2.41113985,3.63604631,0.39430333,0.67921655,1.42982369
50011,0,USVermontFranklin,Vermont,Franklin,2021-04-04 03:02:01.677304,2021-04-06 00:00:00.000000,2.10116940,3.75192422,5.59846941,1038,1853,2765,615,1173,1792,1.24663849,2.37470510,3.62858014,0.39095849,0.67163598,1.43880231
50011,0,USVermontFranklin,Vermont,Franklin,2021-04-04 03:02:01.677304,2021-04-07 00:00:00.000000,2.00041399,3.67075321,5.74225459,988,1813,2836,608,1162,1771,1.23175506,2.35356780,3.58525806,0.38999967,0.66855741,1.44295190
50011,0,USVermontFranklin,Vermont,Franklin,2021-04-04 03:02:01.677304,2021-04-08 00:00:00.000000,1.90380909,3.58539973,5.85534119,940,1771,2892,579,1138,1764,1.17297545,2.30475168,3.57135976,0.38970142,0.67041485,1.44481453
50011,0,USVermontFranklin,Vermont,Franklin,2021-04-04 03:02:01.677304,2021-04-09 00:00:00.000000,1.81125086,3.51850747,5.84284214,894,1738,2886,551,1116,1812,1.11658768,2.25963602,3.66908044,0.38959684,0.66915610,1.44563990
50011,0,USVermontFranklin,Vermont,Franklin,2021-04-04 03:02:01.677304,2021-04-10 00:00:00.000000,1.72263236,3.39987300,5.81822009,851,1679,2874,524,1079,1796,1.06253382,2.18539804,3.63610754,0.38955543,0.66862410,1.44600428
50011,0,USVermontFranklin,Vermont,Franklin,2021-04-04 03:02:01.677304,2021-04-11 00:00:00.000000,1.63784337,3.29373788,5.78932638,809,1627,2860,499,1041,1771,1.01075484,2.10832782,3.58584962,0.38953739,0.66840486,1.44616541
50011,0,USVermontFranklin,Vermont,Franklin,2021-04-04 03:02:01.677304,2021-04-12 00:00:00.000000,1.53091274,3.17550084,5.75546753,756,1568,2843,474,997,1754,0.96118991,2.01837907,3.55076368,0.38952901,0.66831634,1.44623704
50011,0,USVermontFranklin,Vermont,Franklin,2021-04-04 03:02:01.677304,2021-04-13 00:00:00.000000,1.42865759,3.05081339,5.71423492,705,1507,2822,451,953,1746,0.91377631,1.93057255,3.53563221,0.38952498,0.66832526,1.44626910
50011,0,USVermontFranklin,Vermont,Franklin,2021-04-04 03:02:01.677304,2021-04-14 00:00:00.000000,1.36828487,2.92957615,5.66584581,675,1447,2799,429,911,1736,0.86844970,1.84549619,3.51593174,0.38952300,0.66833034,1.44628359
50011,0,USVermontFranklin,Vermont,Franklin,2021-04-04 03:02:01.677304,2021-04-15 00:00:00.000000,1.31020854,2.83685589,5.61055501,647,1401,2771,407,879,1724,0.82514449,1.78100440,3.49174874,0.38952201,0.66833305,1.44629019
50011,0,USVermontFranklin,Vermont,Franklin,2021-04-04 03:02:01.677304,2021-04-16 00:00:00.000000,1.25436349,2.74507017,5.54865034,619,1356,2741,386,848,1710,0.78322030,1.71775471,3.46320053,0.38952152,0.66833453,1.44629324
