FIPS,HR_UID,nameid,province,region,analysisTime,dates,pointprevalence_025,pointprevalence_50,pointprevalence_975,pointinfections_025,pointinfections_50,pointinfections_975,pointinfectious_025,pointinfectious_50,pointinfectious_975,pointinfectiousprevalence_05,pointinfectiousprevalence_50,pointinfectiousprevalence_95,infectrate_025,infectrate_50,infectrate_975
18143,0,USIndianaScott,Indiana,Scott,2021-04-04 11:20:44.403287,2020-03-09 00:00:00.000000,0.00204071,0.02191219,0.05192781,0,5,12,0,2,5,0.00044759,0.00912542,0.02456285,0.41709284,0.56108072,0.71943887
18143,0,USIndianaScott,Indiana,Scott,2021-04-04 11:20:44.403287,2020-03-10 00:00:00.000000,0.00346628,0.02896779,0.06018338,0,6,14,0,2,6,0.00067068,0.00998721,0.02583681,0.41704398,0.56105623,0.71943886
18143,0,USIndianaScott,Indiana,Scott,2021-04-04 11:20:44.403287,2020-03-11 00:00:00.000000,0.00498760,0.03584690,0.07150890,1,8,17,0,2,6,0.00109082,0.01204902,0.02815831,0.41697439,0.56099827,0.71943883
18143,0,USIndianaScott,Indiana,Scott,2021-04-04 11:20:44.403287,2020-03-12 00:00:00.000000,0.00665989,0.04429775,0.08589935,1,10,20,0,3,7,0.00166366,0.01520915,0.03122824,0.41687020,0.56086122,0.71943874
18143,0,USIndianaScott,Indiana,Scott,2021-04-04 11:20:44.403287,2020-03-13 00:00:00.000000,0.00852785,0.05234264,0.10088203,2,12,24,0,4,8,0.00236930,0.01863754,0.03541951,0.41670443,0.56057076,0.71943807
18143,0,USIndianaScott,Indiana,Scott,2021-04-04 11:20:44.403287,2020-03-14 00:00:00.000000,0.01063194,0.06075060,0.11644888,2,14,27,0,5,10,0.00320250,0.02261819,0.04281054,0.41642242,0.56047892,0.71942789
18143,0,USIndianaScott,Indiana,Scott,2021-04-04 11:20:44.403287,2020-03-15 00:00:00.000000,0.01301223,0.06911625,0.13259945,3,16,31,0,6,12,0.00416731,0.02679933,0.05034681,0.41591042,0.55916751,0.71922686
18143,0,USIndianaScott,Indiana,Scott,2021-04-04 11:20:44.403287,2020-03-16 00:00:00.000000,0.02403215,0.08082134,0.14221776,5,19,33,1,7,13,0.00527400,0.03079912,0.05854731,0.41492989,0.55092364,0.71509207
18143,0,USIndianaScott,Indiana,Scott,2021-04-04 11:20:44.403287,2020-03-17 00:00:00.000000,0.03658643,0.09255079,0.16263019,8,22,38,1,8,15,0.00742703,0.03558076,0.06693266,0.41299140,0.53816890,0.70669892
18143,0,USIndianaScott,Indiana,Scott,2021-04-04 11:20:44.403287,2020-03-18 00:00:00.000000,0.04332004,0.10747589,0.18334769,10,25,43,2,10,18,0.01083538,0.04241707,0.07642277,0.37951688,0.52371887,0.70171810
18143,0,USIndianaScott,Indiana,Scott,2021-04-04 11:20:44.403287,2020-03-19 00:00:00.000000,0.05068563,0.12243697,0.19885524,12,29,47,3,11,20,0.01603019,0.04861885,0.08795476,0.36294074,0.50930103,0.67578195
18143,0,USIndianaScott,Indiana,Scott,2021-04-04 11:20:44.403287,2020-03-20 00:00:00.000000,0.05871814,0.13457399,0.22195264,14,32,52,5,13,23,0.02218015,0.05667047,0.10043194,0.35312959,0.49316745,0.65002379
18143,0,USIndianaScott,Indiana,Scott,2021-04-04 11:20:44.403287,2020-03-21 00:00:00.000000,0.06909054,0.14843927,0.24522968,16,35,58,6,15,27,0.02598710,0.06490528,0.11365106,0.33759520,0.47672369,0.64719197
18143,0,USIndianaScott,Indiana,Scott,2021-04-04 11:20:44.403287,2020-03-22 00:00:00.000000,0.08004975,0.16474822,0.26893024,19,39,64,7,17,30,0.03015708,0.07214063,0.12729900,0.32106373,0.45695427,0.64358333
18143,0,USIndianaScott,Indiana,Scott,2021-04-04 11:20:44.403287,2020-03-23 00:00:00.000000,0.09204727,0.18680203,0.29046179,21,44,69,8,18,33,0.03502925,0.07941054,0.14137489,0.31626157,0.43767391,0.63657993
18143,0,USIndianaScott,Indiana,Scott,2021-04-04 11:20:44.403287,2020-03-24 00:00:00.000000,0.10443893,0.20573231,0.31350703,24,49,74,9,21,37,0.04107220,0.08840450,0.15534401,0.31611820,0.43097155,0.63276074
18143,0,USIndianaScott,Indiana,Scott,2021-04-04 11:20:44.403287,2020-03-25 00:00:00.000000,0.11744103,0.22578272,0.33856420,28,53,80,11,23,40,0.04826735,0.09848770,0.16954264,0.30882988,0.42465713,0.63190522
18143,0,USIndianaScott,Indiana,Scott,2021-04-04 11:20:44.403287,2020-03-26 00:00:00.000000,0.13093851,0.24193869,0.36487770,31,57,87,13,25,43,0.05640825,0.10751436,0.18265723,0.28919170,0.41493887,0.63171226
18143,0,USIndianaScott,Indiana,Scott,2021-04-04 11:20:44.403287,2020-03-27 00:00:00.000000,0.14525806,0.25862434,0.38530077,34,61,91,15,28,47,0.06345807,0.11764992,0.19981937,0.28489310,0.39432238,0.63165046
18143,0,USIndianaScott,Indiana,Scott,2021-04-04 11:20:44.403287,2020-03-28 00:00:00.000000,0.16033578,0.27658152,0.40850285,38,66,97,16,30,51,0.06824813,0.12936133,0.21644969,0.28211630,0.38009980,0.63157651
18143,0,USIndianaScott,Indiana,Scott,2021-04-04 11:20:44.403287,2020-03-29 00:00:00.000000,0.17626169,0.30120076,0.43270483,42,71,103,19,33,56,0.08033422,0.14061302,0.23579241,0.27024863,0.37116181,0.63136583
18143,0,USIndianaScott,Indiana,Scott,2021-04-04 11:20:44.403287,2020-03-30 00:00:00.000000,0.20146612,0.32431456,0.46695643,48,77,111,20,36,60,0.08577265,0.15160541,0.25435040,0.26956315,0.35848201,0.57188406
18143,0,USIndianaScott,Indiana,Scott,2021-04-04 11:20:44.403287,2020-03-31 00:00:00.000000,0.21963289,0.34250185,0.50021686,52,81,119,21,38,65,0.09116167,0.16334830,0.27301587,0.26918949,0.35236619,0.55654651
18143,0,USIndianaScott,Indiana,Scott,2021-04-04 11:20:44.403287,2020-04-01 00:00:00.000000,0.23339086,0.36082431,0.53419202,55,86,127,22,41,69,0.09627625,0.17550424,0.29180956,0.26895543,0.35157623,0.53727452
18143,0,USIndianaScott,Indiana,Scott,2021-04-04 11:20:44.403287,2020-04-02 00:00:00.000000,0.24382339,0.38163835,0.57473724,58,91,137,24,44,74,0.10150675,0.18680833,0.31073356,0.26086266,0.34730467,0.52322761
18143,0,USIndianaScott,Indiana,Scott,2021-04-04 11:20:44.403287,2020-04-03 00:00:00.000000,0.25451091,0.40754078,0.61594670,60,97,147,25,47,78,0.10684248,0.20022697,0.33017372,0.24984247,0.34399315,0.51507911
18143,0,USIndianaScott,Indiana,Scott,2021-04-04 11:20:44.403287,2020-04-04 00:00:00.000000,0.26904545,0.43091876,0.65632214,64,102,156,26,50,83,0.11232521,0.21213923,0.34933334,0.24459385,0.33363685,0.50343068
18143,0,USIndianaScott,Indiana,Scott,2021-04-04 11:20:44.403287,2020-04-05 00:00:00.000000,0.28969338,0.44957221,0.69580195,69,107,166,28,53,88,0.11820382,0.22426421,0.37049433,0.23284614,0.32487286,0.46629607
18143,0,USIndianaScott,Indiana,Scott,2021-04-04 11:20:44.403287,2020-04-06 00:00:00.000000,0.30765717,0.47465431,0.72699680,73,113,173,29,56,93,0.12422000,0.23712611,0.39349527,0.22882697,0.31589231,0.44621991
18143,0,USIndianaScott,Indiana,Scott,2021-04-04 11:20:44.403287,2020-04-07 00:00:00.000000,0.32572136,0.49814339,0.75889818,77,118,181,31,59,99,0.13105302,0.24729317,0.41812234,0.22810363,0.31543984,0.42905887
18143,0,USIndianaScott,Indiana,Scott,2021-04-04 11:20:44.403287,2020-04-08 00:00:00.000000,0.34120833,0.51711644,0.79142436,81,123,188,33,61,106,0.13847721,0.25964734,0.44417500,0.22066012,0.31457897,0.41842893
18143,0,USIndianaScott,Indiana,Scott,2021-04-04 11:20:44.403287,2020-04-09 00:00:00.000000,0.34927647,0.53704671,0.82442804,83,128,196,34,64,111,0.14635694,0.27067984,0.46836069,0.21835558,0.31256559,0.40852936
18143,0,USIndianaScott,Indiana,Scott,2021-04-04 11:20:44.403287,2020-04-10 00:00:00.000000,0.35715145,0.56784678,0.85714129,85,135,204,36,67,117,0.15493354,0.28386962,0.49327711,0.21523569,0.31127179,0.40415748
18143,0,USIndianaScott,Indiana,Scott,2021-04-04 11:20:44.403287,2020-04-11 00:00:00.000000,0.36468010,0.59339815,0.88620682,87,141,211,39,71,124,0.16410311,0.29870338,0.52018248,0.21483187,0.30485183,0.40632246
18143,0,USIndianaScott,Indiana,Scott,2021-04-04 11:20:44.403287,2020-04-12 00:00:00.000000,0.37551374,0.62127052,0.92975528,89,148,221,41,74,130,0.17355208,0.31244353,0.54796081,0.21503117,0.29686468,0.41255973
18143,0,USIndianaScott,Indiana,Scott,2021-04-04 11:20:44.403287,2020-04-13 00:00:00.000000,0.39983109,0.64877823,0.95548949,95,154,228,43,77,137,0.18117889,0.32279130,0.57640991,0.21122400,0.29596107,0.42020813
18143,0,USIndianaScott,Indiana,Scott,2021-04-04 11:20:44.403287,2020-04-14 00:00:00.000000,0.41484593,0.67472260,0.98183051,99,161,234,45,79,144,0.18947367,0.33353300,0.60379936,0.20748879,0.29369880,0.42949337
18143,0,USIndianaScott,Indiana,Scott,2021-04-04 11:20:44.403287,2020-04-15 00:00:00.000000,0.42651288,0.70199051,1.02589030,101,167,244,46,83,150,0.19498916,0.35029295,0.63007840,0.20732421,0.29091404,0.43706435
18143,0,USIndianaScott,Indiana,Scott,2021-04-04 11:20:44.403287,2020-04-16 00:00:00.000000,0.43923971,0.72856448,1.07073481,104,173,255,47,88,156,0.20071050,0.36959648,0.65557130,0.20667739,0.28916249,0.44152193
18143,0,USIndianaScott,Indiana,Scott,2021-04-04 11:20:44.403287,2020-04-17 00:00:00.000000,0.45375319,0.75860739,1.11402866,108,181,265,49,92,162,0.20788761,0.38950609,0.68060015,0.20430078,0.28719011,0.44435591
18143,0,USIndianaScott,Indiana,Scott,2021-04-04 11:20:44.403287,2020-04-18 00:00:00.000000,0.46987440,0.78881178,1.14691928,112,188,273,50,96,168,0.21242584,0.40521250,0.70537660,0.20760501,0.28263965,0.44618526
18143,0,USIndianaScott,Indiana,Scott,2021-04-04 11:20:44.403287,2020-04-19 00:00:00.000000,0.48724924,0.81373826,1.17538281,116,194,280,52,99,174,0.21888049,0.41769475,0.73001230,0.20281122,0.27959630,0.44741988
18143,0,USIndianaScott,Indiana,Scott,2021-04-04 11:20:44.403287,2020-04-20 00:00:00.000000,0.49857612,0.84904366,1.21011893,119,202,288,54,102,179,0.22624378,0.42803023,0.75151094,0.19548708,0.27358265,0.44800605
18143,0,USIndianaScott,Indiana,Scott,2021-04-04 11:20:44.403287,2020-04-21 00:00:00.000000,0.51329545,0.87622896,1.26345116,122,209,301,56,106,182,0.23467483,0.44512455,0.76325067,0.19385134,0.27457491,0.44616134
18143,0,USIndianaScott,Indiana,Scott,2021-04-04 11:20:44.403287,2020-04-22 00:00:00.000000,0.53292565,0.91218165,1.29855813,127,217,310,59,110,184,0.24801658,0.46188715,0.77405855,0.18642294,0.27377882,0.43905402
18143,0,USIndianaScott,Indiana,Scott,2021-04-04 11:20:44.403287,2020-04-23 00:00:00.000000,0.55750997,0.94266869,1.33139881,133,225,317,62,115,190,0.26274355,0.48310454,0.79688593,0.18530517,0.26958855,0.42756927
18143,0,USIndianaScott,Indiana,Scott,2021-04-04 11:20:44.403287,2020-04-24 00:00:00.000000,0.58575232,0.97010215,1.36381359,139,231,325,66,119,195,0.27826475,0.50114726,0.81907453,0.18663772,0.27398693,0.41063702
18143,0,USIndianaScott,Indiana,Scott,2021-04-04 11:20:44.403287,2020-04-25 00:00:00.000000,0.61644835,0.99260172,1.39604973,147,236,333,70,122,200,0.29457643,0.51493395,0.84048801,0.17584452,0.26605020,0.40284783
18143,0,USIndianaScott,Indiana,Scott,2021-04-04 11:20:44.403287,2020-04-26 00:00:00.000000,0.64897162,1.01380343,1.42793831,154,242,340,74,127,205,0.31157988,0.53300383,0.86155342,0.16023898,0.25957373,0.39858812
18143,0,USIndianaScott,Indiana,Scott,2021-04-04 11:20:44.403287,2020-04-27 00:00:00.000000,0.68526853,1.05013391,1.43927164,163,250,343,78,130,210,0.32912282,0.54743324,0.88241140,0.15837212,0.25739720,0.39411616
18143,0,USIndianaScott,Indiana,Scott,2021-04-04 11:20:44.403287,2020-04-28 00:00:00.000000,0.70115307,1.07069548,1.43980082,167,255,343,80,133,216,0.33839616,0.56004895,0.90663231,0.15819322,0.25489988,0.39284380
18143,0,USIndianaScott,Indiana,Scott,2021-04-04 11:20:44.403287,2020-04-29 00:00:00.000000,0.72047150,1.09436968,1.46745512,171,261,350,81,136,217,0.34300759,0.57162176,0.91278423,0.15674277,0.24437650,0.39363123
18143,0,USIndianaScott,Indiana,Scott,2021-04-04 11:20:44.403287,2020-04-30 00:00:00.000000,0.72559600,1.10808354,1.48675559,173,264,354,82,139,218,0.34709444,0.58546157,0.91629062,0.14942482,0.23752577,0.39594825
18143,0,USIndianaScott,Indiana,Scott,2021-04-04 11:20:44.403287,2020-05-01 00:00:00.000000,0.73007306,1.12738678,1.50294395,174,269,358,83,143,219,0.35070020,0.60040375,0.91773966,0.14630120,0.23504855,0.39823749
18143,0,USIndianaScott,Indiana,Scott,2021-04-04 11:20:44.403287,2020-05-02 00:00:00.000000,0.73392504,1.14199756,1.51844479,175,272,362,84,146,218,0.35388310,0.61493678,0.91722682,0.15403392,0.23037430,0.39655075
18143,0,USIndianaScott,Indiana,Scott,2021-04-04 11:20:44.403287,2020-05-03 00:00:00.000000,0.73730750,1.15885157,1.55129083,176,276,370,85,149,218,0.35668194,0.62648375,0.91518973,0.15134173,0.22156917,0.36353698
18143,0,USIndianaScott,Indiana,Scott,2021-04-04 11:20:44.403287,2020-05-04 00:00:00.000000,0.75009236,1.16803626,1.58106613,179,278,377,85,152,217,0.35915345,0.63804422,0.91197029,0.14225521,0.21478699,0.36221864
18143,0,USIndianaScott,Indiana,Scott,2021-04-04 11:20:44.403287,2020-05-05 00:00:00.000000,0.76256475,1.17079800,1.56161977,182,279,372,87,153,219,0.36676566,0.64505952,0.92002629,0.13974791,0.20742140,0.36123299
18143,0,USIndianaScott,Indiana,Scott,2021-04-04 11:20:44.403287,2020-05-06 00:00:00.000000,0.77496704,1.17475592,1.56563530,185,280,373,89,155,226,0.37323551,0.64940174,0.95015311,0.13538174,0.20341300,0.33806516
18143,0,USIndianaScott,Indiana,Scott,2021-04-04 11:20:44.403287,2020-05-07 00:00:00.000000,0.78714776,1.17620191,1.57637657,187,280,376,90,156,233,0.37844933,0.65627426,0.97647258,0.12988663,0.19965198,0.31892122
18143,0,USIndianaScott,Indiana,Scott,2021-04-04 11:20:44.403287,2020-05-08 00:00:00.000000,0.79897374,1.17142443,1.59339648,190,279,380,91,158,233,0.38238333,0.66444800,0.97676071,0.12534829,0.19321432,0.28727698
18143,0,USIndianaScott,Indiana,Scott,2021-04-04 11:20:44.403287,2020-05-09 00:00:00.000000,0.81034084,1.15371732,1.61372269,193,275,385,91,159,232,0.38486439,0.66699298,0.97240641,0.12220117,0.18784006,0.27633975
18143,0,USIndianaScott,Indiana,Scott,2021-04-04 11:20:44.403287,2020-05-10 00:00:00.000000,0.79804769,1.14474196,1.62975397,190,273,389,92,158,234,0.38933302,0.66363051,0.98019573,0.10932243,0.18489993,0.27329541
18143,0,USIndianaScott,Indiana,Scott,2021-04-04 11:20:44.403287,2020-05-11 00:00:00.000000,0.78175872,1.14775140,1.61565158,186,274,385,94,159,235,0.39475453,0.66603980,0.98808872,0.10603227,0.18025927,0.26885252
18143,0,USIndianaScott,Indiana,Scott,2021-04-04 11:20:44.403287,2020-05-12 00:00:00.000000,0.78324751,1.14255072,1.60107447,186,272,382,95,159,237,0.39906674,0.66806069,0.99453725,0.10537133,0.17418762,0.26266559
18143,0,USIndianaScott,Indiana,Scott,2021-04-04 11:20:44.403287,2020-05-13 00:00:00.000000,0.78251278,1.13507807,1.59578151,186,270,380,96,159,238,0.40253966,0.66883590,0.99918941,0.10527708,0.17396944,0.25433648
18143,0,USIndianaScott,Indiana,Scott,2021-04-04 11:20:44.403287,2020-05-14 00:00:00.000000,0.77787269,1.13472372,1.58575104,185,270,378,96,158,239,0.40479772,0.66456804,1.00183845,0.10532950,0.17051394,0.25060770
18143,0,USIndianaScott,Indiana,Scott,2021-04-04 11:20:44.403287,2020-05-15 00:00:00.000000,0.77006974,1.12219528,1.57074558,183,267,374,96,158,239,0.40293003,0.66220206,1.00223718,0.10549852,0.16779587,0.24741459
18143,0,USIndianaScott,Indiana,Scott,2021-04-04 11:20:44.403287,2020-05-16 00:00:00.000000,0.73653038,1.10371236,1.55228822,175,263,370,94,157,238,0.39411900,0.65962273,1.00013980,0.10391364,0.16564190,0.25175765
18143,0,USIndianaScott,Indiana,Scott,2021-04-04 11:20:44.403287,2020-05-17 00:00:00.000000,0.70574783,1.08394236,1.53217631,168,258,365,92,156,237,0.38553507,0.65556307,0.99557230,0.09893617,0.15631061,0.25209043
18143,0,USIndianaScott,Indiana,Scott,2021-04-04 11:20:44.403287,2020-05-18 00:00:00.000000,0.70314256,1.07140606,1.51247869,167,255,361,88,155,236,0.37170801,0.64991584,0.98891210,0.09704684,0.15590868,0.23522205
18143,0,USIndianaScott,Indiana,Scott,2021-04-04 11:20:44.403287,2020-05-19 00:00:00.000000,0.70110955,1.05066704,1.49258931,167,250,356,86,154,234,0.36028164,0.64519394,0.98079976,0.09664694,0.15369881,0.21959597
18143,0,USIndianaScott,Indiana,Scott,2021-04-04 11:20:44.403287,2020-05-20 00:00:00.000000,0.69880374,1.03483565,1.47275835,166,247,351,85,150,231,0.35989356,0.63099418,0.97159767,0.09614085,0.14736502,0.21582556
18143,0,USIndianaScott,Indiana,Scott,2021-04-04 11:20:44.403287,2020-05-21 00:00:00.000000,0.69349469,1.02697656,1.45318180,165,245,346,84,148,229,0.35208673,0.62123515,0.96149445,0.09547391,0.14696502,0.21540514
18143,0,USIndianaScott,Indiana,Scott,2021-04-04 11:20:44.403287,2020-05-22 00:00:00.000000,0.66560798,1.01134489,1.43420738,158,241,342,82,145,226,0.34433952,0.60925341,0.95055893,0.09464807,0.14527295,0.21428140
18143,0,USIndianaScott,Indiana,Scott,2021-04-04 11:20:44.403287,2020-05-23 00:00:00.000000,0.63620990,0.99573855,1.41665112,151,237,338,80,142,224,0.33682906,0.59532944,0.93935229,0.09393676,0.14396655,0.21374730
18143,0,USIndianaScott,Indiana,Scott,2021-04-04 11:20:44.403287,2020-05-24 00:00:00.000000,0.60818575,0.98331200,1.40187283,145,234,334,78,139,221,0.32950171,0.58322993,0.92819211,0.09500022,0.14312956,0.21032637
18143,0,USIndianaScott,Indiana,Scott,2021-04-04 11:20:44.403287,2020-05-25 00:00:00.000000,0.59931227,0.96436530,1.39396663,143,230,332,76,136,219,0.32226753,0.57061982,0.91754058,0.09475237,0.14307433,0.20841959
18143,0,USIndianaScott,Indiana,Scott,2021-04-04 11:20:44.403287,2020-05-26 00:00:00.000000,0.59068459,0.94229239,1.38073512,141,224,329,75,134,216,0.31458134,0.56431493,0.90842341,0.09474848,0.14305766,0.20691119
18143,0,USIndianaScott,Indiana,Scott,2021-04-04 11:20:44.403287,2020-05-27 00:00:00.000000,0.56812561,0.92441357,1.35717502,135,220,323,73,131,215,0.30667474,0.55092922,0.90074103,0.09543260,0.14410300,0.20582900
18143,0,USIndianaScott,Indiana,Scott,2021-04-04 11:20:44.403287,2020-05-28 00:00:00.000000,0.55403920,0.90212235,1.33395555,132,215,318,71,129,213,0.29869498,0.54158999,0.89420004,0.09578482,0.14427653,0.20482522
18143,0,USIndianaScott,Indiana,Scott,2021-04-04 11:20:44.403287,2020-05-29 00:00:00.000000,0.54337401,0.88311408,1.31091651,129,210,312,69,127,212,0.29074323,0.53460110,0.88834677,0.09580466,0.14528746,0.20358295
18143,0,USIndianaScott,Indiana,Scott,2021-04-04 11:20:44.403287,2020-05-30 00:00:00.000000,0.53424829,0.86044477,1.29595354,127,205,309,67,125,210,0.28287392,0.52757508,0.88274502,0.09759582,0.14576823,0.20559963
18143,0,USIndianaScott,Indiana,Scott,2021-04-04 11:20:44.403287,2020-05-31 00:00:00.000000,0.52660509,0.84374896,1.28503529,125,201,306,65,123,209,0.27511869,0.51768880,0.87726604,0.10007818,0.14559517,0.20458405
18143,0,USIndianaScott,Indiana,Scott,2021-04-04 11:20:44.403287,2020-06-01 00:00:00.000000,0.51331917,0.82493810,1.27737330,122,196,304,63,121,208,0.26763469,0.50717030,0.87188397,0.09921814,0.14669037,0.20709376
18143,0,USIndianaScott,Indiana,Scott,2021-04-04 11:20:44.403287,2020-06-02 00:00:00.000000,0.50051916,0.80750226,1.27044830,119,192,303,62,118,206,0.26121887,0.49551323,0.86642968,0.09781629,0.14795321,0.20896012
18143,0,USIndianaScott,Indiana,Scott,2021-04-04 11:20:44.403287,2020-06-03 00:00:00.000000,0.48244511,0.79448378,1.26562593,115,189,302,61,115,205,0.25555477,0.48296766,0.86095488,0.09643788,0.14889264,0.21081523
18143,0,USIndianaScott,Indiana,Scott,2021-04-04 11:20:44.403287,2020-06-04 00:00:00.000000,0.46970897,0.78891464,1.26418507,112,188,301,60,113,204,0.25211079,0.47433514,0.85552897,0.09867966,0.14972197,0.21671586
18143,0,USIndianaScott,Indiana,Scott,2021-04-04 11:20:44.403287,2020-06-05 00:00:00.000000,0.45758103,0.78509792,1.26595652,109,187,302,59,111,202,0.24841509,0.46575931,0.85024979,0.09942632,0.15107777,0.21684248
18143,0,USIndianaScott,Indiana,Scott,2021-04-04 11:20:44.403287,2020-06-06 00:00:00.000000,0.44608882,0.77621602,1.26961199,106,185,303,58,108,201,0.24474312,0.45384612,0.84524618,0.09829047,0.14959190,0.21492328
18143,0,USIndianaScott,Indiana,Scott,2021-04-04 11:20:44.403287,2020-06-07 00:00:00.000000,0.43544380,0.76996450,1.27412832,103,183,304,57,106,200,0.24122185,0.44697678,0.84065061,0.09589454,0.14909147,0.21785605
18143,0,USIndianaScott,Indiana,Scott,2021-04-04 11:20:44.403287,2020-06-08 00:00:00.000000,0.42440830,0.75463912,1.27215122,101,180,303,56,104,200,0.23788243,0.43881532,0.83974740,0.09488821,0.14879040,0.21913076
18143,0,USIndianaScott,Indiana,Scott,2021-04-04 11:20:44.403287,2020-06-09 00:00:00.000000,0.41479924,0.74886604,1.27033281,99,178,303,54,105,200,0.23001485,0.44134667,0.83959553,0.09475328,0.15350084,0.21949311
18143,0,USIndianaScott,Indiana,Scott,2021-04-04 11:20:44.403287,2020-06-10 00:00:00.000000,0.40704804,0.74010759,1.26842718,97,176,302,53,104,200,0.22354716,0.43743004,0.83899786,0.09498693,0.15755714,0.22310361
18143,0,USIndianaScott,Indiana,Scott,2021-04-04 11:20:44.403287,2020-06-11 00:00:00.000000,0.40091486,0.72111827,1.26637793,95,172,302,52,103,197,0.21875747,0.43173257,0.82685398,0.09547922,0.15820183,0.22756215
18143,0,USIndianaScott,Indiana,Scott,2021-04-04 11:20:44.403287,2020-06-12 00:00:00.000000,0.39535434,0.71076599,1.26406365,94,169,301,51,101,195,0.21489709,0.42698264,0.81867402,0.09616911,0.15844491,0.23994687
18143,0,USIndianaScott,Indiana,Scott,2021-04-04 11:20:44.403287,2020-06-13 00:00:00.000000,0.38840231,0.70570908,1.26058051,92,168,300,50,100,194,0.21146536,0.41976234,0.81426064,0.09696938,0.15978506,0.24916494
18143,0,USIndianaScott,Indiana,Scott,2021-04-04 11:20:44.403287,2020-06-14 00:00:00.000000,0.37986467,0.70279515,1.25441599,90,167,299,49,97,193,0.20889934,0.41035213,0.80988408,0.09782778,0.16081346,0.25618198
18143,0,USIndianaScott,Indiana,Scott,2021-04-04 11:20:44.403287,2020-06-15 00:00:00.000000,0.37809259,0.69656459,1.25717494,90,166,300,49,96,192,0.20760145,0.40547928,0.80563416,0.10591099,0.16263047,0.26156371
18143,0,USIndianaScott,Indiana,Scott,2021-04-04 11:20:44.403287,2020-06-16 00:00:00.000000,0.37646569,0.69544724,1.25945130,89,166,300,49,97,191,0.20718350,0.40692750,0.80299861,0.10597044,0.16481698,0.26252759
18143,0,USIndianaScott,Indiana,Scott,2021-04-04 11:20:44.403287,2020-06-17 00:00:00.000000,0.37521941,0.70267212,1.26018744,89,167,300,49,97,191,0.20543989,0.40712294,0.80214272,0.10634673,0.16524416,0.26618403
18143,0,USIndianaScott,Indiana,Scott,2021-04-04 11:20:44.403287,2020-06-18 00:00:00.000000,0.37426542,0.71130973,1.26099005,89,169,301,48,97,191,0.20375643,0.40818087,0.80317503,0.10912258,0.17031700,0.26831044
18143,0,USIndianaScott,Indiana,Scott,2021-04-04 11:20:44.403287,2020-06-19 00:00:00.000000,0.37358562,0.71309577,1.26207644,89,170,301,48,97,192,0.20235242,0.40988679,0.80589539,0.11500408,0.17493664,0.29825090
18143,0,USIndianaScott,Indiana,Scott,2021-04-04 11:20:44.403287,2020-06-20 00:00:00.000000,0.37329644,0.71945992,1.26344731,89,171,301,48,97,193,0.20115745,0.40952981,0.80992372,0.12305629,0.18068961,0.30096259
18143,0,USIndianaScott,Indiana,Scott,2021-04-04 11:20:44.403287,2020-06-21 00:00:00.000000,0.37385828,0.72035092,1.26500116,89,171,301,47,96,194,0.20014033,0.40530699,0.81508244,0.12368845,0.18907686,0.31975617
18143,0,USIndianaScott,Indiana,Scott,2021-04-04 11:20:44.403287,2020-06-22 00:00:00.000000,0.36984291,0.71504011,1.26417541,88,170,301,47,95,196,0.19932853,0.40172387,0.82119928,0.12492433,0.19536147,0.32335435
18143,0,USIndianaScott,Indiana,Scott,2021-04-04 11:20:44.403287,2020-06-23 00:00:00.000000,0.36542999,0.71328167,1.26303836,87,170,301,47,96,197,0.19777872,0.40234098,0.82684539,0.12616405,0.19915939,0.32496925
18143,0,USIndianaScott,Indiana,Scott,2021-04-04 11:20:44.403287,2020-06-24 00:00:00.000000,0.36216305,0.70762065,1.26139823,86,168,301,46,96,197,0.19443248,0.40399865,0.82697854,0.12904698,0.20229944,0.33188338
18143,0,USIndianaScott,Indiana,Scott,2021-04-04 11:20:44.403287,2020-06-25 00:00:00.000000,0.36815115,0.70924352,1.25939219,87,169,300,46,96,197,0.19435014,0.40627245,0.82717481,0.13719890,0.20709053,0.33751130
18143,0,USIndianaScott,Indiana,Scott,2021-04-04 11:20:44.403287,2020-06-26 00:00:00.000000,0.37012745,0.71585150,1.25733164,88,170,300,46,97,197,0.19427828,0.40674181,0.82797876,0.13897082,0.21681761,0.34388002
18143,0,USIndianaScott,Indiana,Scott,2021-04-04 11:20:44.403287,2020-06-27 00:00:00.000000,0.37426195,0.71440056,1.25549893,89,170,299,46,97,198,0.19444873,0.40869219,0.82994474,0.15782833,0.21918889,0.35100218
18143,0,USIndianaScott,Indiana,Scott,2021-04-04 11:20:44.403287,2020-06-28 00:00:00.000000,0.38108730,0.72782023,1.25403310,90,173,299,46,97,198,0.19549764,0.40876268,0.83007481,0.15867782,0.22786872,0.35302507
18143,0,USIndianaScott,Indiana,Scott,2021-04-04 11:20:44.403287,2020-06-29 00:00:00.000000,0.39710778,0.74239948,1.25401222,94,177,299,47,97,197,0.19817029,0.40974751,0.82903751,0.16297759,0.23506231,0.35616847
18143,0,USIndianaScott,Indiana,Scott,2021-04-04 11:20:44.403287,2020-06-30 00:00:00.000000,0.42442501,0.75258297,1.25431015,101,179,299,49,99,197,0.20562957,0.41583279,0.82832054,0.16261015,0.23928222,0.38158664
18143,0,USIndianaScott,Indiana,Scott,2021-04-04 11:20:44.403287,2020-07-01 00:00:00.000000,0.45350745,0.76693440,1.25470504,108,183,299,50,100,197,0.21240503,0.41898778,0.82789182,0.17178346,0.24330088,0.38694622
18143,0,USIndianaScott,Indiana,Scott,2021-04-04 11:20:44.403287,2020-07-02 00:00:00.000000,0.47714850,0.79205744,1.26914467,113,189,302,51,101,197,0.21739622,0.42490327,0.82770015,0.17521667,0.25557454,0.38657687
18143,0,USIndianaScott,Indiana,Scott,2021-04-04 11:20:44.403287,2020-07-03 00:00:00.000000,0.50070937,0.81230891,1.30213740,119,193,310,56,104,197,0.23495199,0.43707485,0.82750248,0.18008312,0.25764026,0.38396176
18143,0,USIndianaScott,Indiana,Scott,2021-04-04 11:20:44.403287,2020-07-04 00:00:00.000000,0.51460441,0.83410251,1.33862607,122,199,319,59,107,197,0.24745988,0.45057083,0.82706663,0.18070676,0.26881915,0.37825545
18143,0,USIndianaScott,Indiana,Scott,2021-04-04 11:20:44.403287,2020-07-05 00:00:00.000000,0.52699657,0.86228160,1.38086571,125,205,329,61,109,199,0.25927202,0.46055214,0.83686526,0.18274645,0.27202198,0.37195440
18143,0,USIndianaScott,Indiana,Scott,2021-04-04 11:20:44.403287,2020-07-06 00:00:00.000000,0.55062053,0.89944335,1.40974483,131,214,336,64,113,206,0.27175575,0.47426329,0.86350750,0.18644821,0.27931694,0.37012155
18143,0,USIndianaScott,Indiana,Scott,2021-04-04 11:20:44.403287,2020-07-07 00:00:00.000000,0.60129974,0.94440127,1.45117671,143,225,346,67,116,214,0.28372848,0.48861031,0.89667036,0.18927918,0.28665878,0.36944579
18143,0,USIndianaScott,Indiana,Scott,2021-04-04 11:20:44.403287,2020-07-08 00:00:00.000000,0.62651612,0.97574168,1.47151729,149,232,351,70,120,216,0.29517497,0.50511947,0.90565589,0.19053612,0.28847761,0.37757621
18143,0,USIndianaScott,Indiana,Scott,2021-04-04 11:20:44.403287,2020-07-09 00:00:00.000000,0.64127867,1.01034172,1.51777337,153,241,362,72,125,217,0.30556659,0.52468136,0.91191232,0.19154724,0.28738966,0.38733786
18143,0,USIndianaScott,Indiana,Scott,2021-04-04 11:20:44.403287,2020-07-10 00:00:00.000000,0.66199834,1.04371311,1.56710586,158,249,374,75,129,219,0.31776494,0.54388990,0.91858493,0.19364171,0.29050864,0.39626462
18143,0,USIndianaScott,Indiana,Scott,2021-04-04 11:20:44.403287,2020-07-11 00:00:00.000000,0.68681047,1.07461252,1.61703515,163,256,386,78,135,220,0.33046201,0.56675456,0.92541770,0.19554759,0.29011874,0.40088004
18143,0,USIndianaScott,Indiana,Scott,2021-04-04 11:20:44.403287,2020-07-12 00:00:00.000000,0.71386802,1.11828700,1.66740260,170,266,398,81,140,225,0.34097688,0.58842954,0.94283582,0.18608625,0.28591821,0.39843534
18143,0,USIndianaScott,Indiana,Scott,2021-04-04 11:20:44.403287,2020-07-13 00:00:00.000000,0.74235122,1.13960417,1.70719108,177,272,407,83,145,232,0.35088781,0.60975924,0.97224791,0.18048368,0.29051698,0.40065810
18143,0,USIndianaScott,Indiana,Scott,2021-04-04 11:20:44.403287,2020-07-14 00:00:00.000000,0.76490934,1.17026796,1.75365476,182,279,418,85,150,243,0.35973329,0.63174290,1.02045201,0.18245227,0.29017540,0.40423386
18143,0,USIndianaScott,Indiana,Scott,2021-04-04 11:20:44.403287,2020-07-15 00:00:00.000000,0.77335840,1.20356932,1.83449680,184,287,437,87,155,255,0.36789314,0.65109324,1.07007803,0.18661325,0.28956014,0.40892986
18143,0,USIndianaScott,Indiana,Scott,2021-04-04 11:20:44.403287,2020-07-16 00:00:00.000000,0.77997159,1.24035443,1.91685498,186,296,457,89,158,267,0.37562752,0.66536834,1.12099906,0.19243953,0.28056629,0.41048440
18143,0,USIndianaScott,Indiana,Scott,2021-04-04 11:20:44.403287,2020-07-17 00:00:00.000000,0.78480579,1.27616421,1.94833786,187,304,465,91,161,280,0.38310830,0.67805974,1.17311390,0.18440683,0.27201950,0.40894665
18143,0,USIndianaScott,Indiana,Scott,2021-04-04 11:20:44.403287,2020-07-18 00:00:00.000000,0.78801358,1.31061864,1.97205404,188,312,470,93,166,292,0.39045276,0.69546642,1.22625174,0.17222335,0.26625294,0.39763714
18143,0,USIndianaScott,Indiana,Scott,2021-04-04 11:20:44.403287,2020-07-19 00:00:00.000000,0.78981259,1.33674039,1.99464285,188,319,476,94,171,305,0.39775923,0.71990447,1.27984941,0.16771385,0.26198829,0.36770021
18143,0,USIndianaScott,Indiana,Scott,2021-04-04 11:20:44.403287,2020-07-20 00:00:00.000000,0.79533929,1.35867366,2.01301258,189,324,480,96,175,317,0.40514249,0.73530739,1.33182496,0.16473998,0.25659225,0.36367518
18143,0,USIndianaScott,Indiana,Scott,2021-04-04 11:20:44.403287,2020-07-21 00:00:00.000000,0.83139464,1.37416683,2.03063217,198,328,484,99,179,327,0.41749509,0.75253534,1.37162469,0.16341488,0.24784329,0.35922821
18143,0,USIndianaScott,Indiana,Scott,2021-04-04 11:20:44.403287,2020-07-22 00:00:00.000000,0.86763235,1.38263601,2.04839473,207,330,489,103,183,332,0.43324114,0.76958981,1.39306879,0.15842631,0.24608788,0.35079558
18143,0,USIndianaScott,Indiana,Scott,2021-04-04 11:20:44.403287,2020-07-23 00:00:00.000000,0.90316182,1.38717025,2.07924916,215,331,496,105,188,336,0.44031063,0.78771544,1.40801643,0.14496825,0.24139158,0.32655219
18143,0,USIndianaScott,Indiana,Scott,2021-04-04 11:20:44.403287,2020-07-24 00:00:00.000000,0.92945548,1.39284828,2.10710578,221,332,503,105,190,338,0.44322102,0.79691439,1.41924763,0.13347351,0.23438862,0.31560669
18143,0,USIndianaScott,Indiana,Scott,2021-04-04 11:20:44.403287,2020-07-25 00:00:00.000000,0.92682113,1.38485680,2.12738668,221,330,507,106,191,340,0.44471296,0.80301921,1.42481896,0.12796171,0.22949734,0.31565515
18143,0,USIndianaScott,Indiana,Scott,2021-04-04 11:20:44.403287,2020-07-26 00:00:00.000000,0.91299399,1.38507376,2.13254310,217,330,509,106,192,340,0.44597338,0.80486112,1.42570920,0.12429059,0.21798309,0.31446020
18143,0,USIndianaScott,Indiana,Scott,2021-04-04 11:20:44.403287,2020-07-27 00:00:00.000000,0.91122988,1.39373823,2.11841286,217,332,505,109,192,339,0.45983568,0.80489318,1.42317031,0.12288639,0.20837557,0.29930559
18143,0,USIndianaScott,Indiana,Scott,2021-04-04 11:20:44.403287,2020-07-28 00:00:00.000000,0.91649168,1.40239300,2.08935335,218,334,498,112,193,338,0.46998627,0.80864813,1.41886971,0.12230605,0.20010898,0.29934321
18143,0,USIndianaScott,Indiana,Scott,2021-04-04 11:20:44.403287,2020-07-29 00:00:00.000000,0.91008565,1.39203569,2.05397231,217,332,490,114,191,337,0.47758241,0.80224046,1.41328331,0.12192602,0.19635568,0.29943806
18143,0,USIndianaScott,Indiana,Scott,2021-04-04 11:20:44.403287,2020-07-30 00:00:00.000000,0.90401244,1.38047298,2.03637372,215,329,486,115,189,335,0.48342064,0.79416498,1.40672458,0.11939396,0.19181316,0.29964067
18143,0,USIndianaScott,Indiana,Scott,2021-04-04 11:20:44.403287,2020-07-31 00:00:00.000000,0.89140717,1.37610507,2.05169074,212,328,489,116,188,334,0.48805079,0.79112129,1.39926099,0.11773402,0.18731934,0.30001631
18143,0,USIndianaScott,Indiana,Scott,2021-04-04 11:20:44.403287,2020-08-01 00:00:00.000000,0.89153691,1.36411122,2.04901858,212,325,489,117,187,331,0.49089600,0.78638264,1.39048805,0.11427313,0.18410831,0.30050835
18143,0,USIndianaScott,Indiana,Scott,2021-04-04 11:20:44.403287,2020-08-02 00:00:00.000000,0.88480948,1.34795536,2.01448097,211,321,480,117,185,329,0.49222794,0.77581170,1.37986325,0.11253986,0.18276024,0.30021154
18143,0,USIndianaScott,Indiana,Scott,2021-04-04 11:20:44.403287,2020-08-03 00:00:00.000000,0.87736725,1.32664253,1.97556694,209,316,471,116,185,325,0.48629151,0.77807078,1.36313910,0.11189370,0.17763457,0.29486421
18143,0,USIndianaScott,Indiana,Scott,2021-04-04 11:20:44.403287,2020-08-04 00:00:00.000000,0.86046624,1.30330327,1.93540647,205,311,462,112,184,320,0.47247957,0.77144769,1.34193775,0.11315434,0.17271525,0.27483156
18143,0,USIndianaScott,Indiana,Scott,2021-04-04 11:20:44.403287,2020-08-05 00:00:00.000000,0.84129318,1.28056423,1.89486988,200,305,452,109,181,314,0.45876599,0.76185621,1.31880179,0.11953792,0.16860624,0.26150635
18143,0,USIndianaScott,Indiana,Scott,2021-04-04 11:20:44.403287,2020-08-06 00:00:00.000000,0.82080845,1.25891183,1.85412535,195,300,442,106,181,309,0.44604625,0.75846421,1.29435285,0.11569629,0.16864489,0.25627683
18143,0,USIndianaScott,Indiana,Scott,2021-04-04 11:20:44.403287,2020-08-07 00:00:00.000000,0.80015739,1.23878830,1.81290444,191,295,432,106,178,306,0.44659025,0.74957260,1.28219700,0.10934328,0.16520311,0.24115993
18143,0,USIndianaScott,Indiana,Scott,2021-04-04 11:20:44.403287,2020-08-08 00:00:00.000000,0.77982473,1.22023919,1.77569660,186,291,423,106,176,304,0.44651826,0.73779103,1.27668896,0.10498641,0.16310932,0.23854454
18143,0,USIndianaScott,Indiana,Scott,2021-04-04 11:20:44.403287,2020-08-09 00:00:00.000000,0.75999756,1.20298270,1.75931917,181,287,420,104,173,301,0.43907653,0.72731106,1.26418909,0.10743995,0.16418157,0.23646120
18143,0,USIndianaScott,Indiana,Scott,2021-04-04 11:20:44.403287,2020-08-10 00:00:00.000000,0.74638641,1.19514627,1.73563884,178,285,414,101,171,297,0.42563852,0.71672632,1.24713130,0.10831260,0.16071911,0.23438094
18143,0,USIndianaScott,Indiana,Scott,2021-04-04 11:20:44.403287,2020-08-11 00:00:00.000000,0.73347506,1.19432412,1.71369222,175,285,409,98,168,294,0.41218639,0.70402253,1.23302593,0.10807449,0.16042980,0.23253634
18143,0,USIndianaScott,Indiana,Scott,2021-04-04 11:20:44.403287,2020-08-12 00:00:00.000000,0.72135894,1.16619573,1.69324325,172,278,404,95,164,291,0.39927759,0.69041514,1.22151211,0.10896679,0.16688269,0.23225283
18143,0,USIndianaScott,Indiana,Scott,2021-04-04 11:20:44.403287,2020-08-13 00:00:00.000000,0.70445592,1.14607246,1.67435369,168,273,399,92,162,289,0.38737391,0.68010351,1.21195204,0.10920331,0.16757745,0.23313322
18143,0,USIndianaScott,Indiana,Scott,2021-04-04 11:20:44.403287,2020-08-14 00:00:00.000000,0.68556784,1.11910435,1.66561833,163,267,397,89,160,287,0.37680242,0.67066220,1.20368942,0.10981022,0.16895200,0.23863705
18143,0,USIndianaScott,Indiana,Scott,2021-04-04 11:20:44.403287,2020-08-15 00:00:00.000000,0.66721536,1.08728258,1.65590987,159,259,395,87,158,283,0.36779520,0.66589144,1.18666156,0.11111636,0.17212390,0.24101439
18143,0,USIndianaScott,Indiana,Scott,2021-04-04 11:20:44.403287,2020-08-16 00:00:00.000000,0.66061648,1.08611166,1.64446263,157,259,392,85,157,279,0.35842535,0.66168634,1.16913266,0.11198212,0.17370804,0.24104347
18143,0,USIndianaScott,Indiana,Scott,2021-04-04 11:20:44.403287,2020-08-17 00:00:00.000000,0.64380148,1.06680052,1.63169523,153,254,389,84,155,274,0.35290899,0.65226191,1.15122943,0.11375071,0.17495594,0.24347558
18143,0,USIndianaScott,Indiana,Scott,2021-04-04 11:20:44.403287,2020-08-18 00:00:00.000000,0.61992547,1.04108508,1.61825763,147,248,386,83,153,270,0.34863758,0.64133215,1.13103492,0.11647797,0.17555073,0.24384864
18143,0,USIndianaScott,Indiana,Scott,2021-04-04 11:20:44.403287,2020-08-19 00:00:00.000000,0.61228838,1.01778225,1.60532589,146,242,383,82,150,264,0.34534661,0.63106322,1.10957652,0.11690501,0.17942767,0.24840931
18143,0,USIndianaScott,Indiana,Scott,2021-04-04 11:20:44.403287,2020-08-20 00:00:00.000000,0.61014669,1.00200873,1.59339600,145,239,380,81,148,259,0.34278956,0.62201923,1.08734688,0.11781435,0.18098272,0.25690648
18143,0,USIndianaScott,Indiana,Scott,2021-04-04 11:20:44.403287,2020-08-21 00:00:00.000000,0.60284118,0.99140627,1.57229569,143,236,375,80,146,254,0.33655837,0.61543246,1.06475630,0.12128772,0.18283801,0.26603506
18143,0,USIndianaScott,Indiana,Scott,2021-04-04 11:20:44.403287,2020-08-22 00:00:00.000000,0.58355257,0.98308940,1.54889914,139,234,369,77,144,248,0.32351659,0.60335797,1.04248562,0.12234877,0.18440223,0.27337689
18143,0,USIndianaScott,Indiana,Scott,2021-04-04 11:20:44.403287,2020-08-23 00:00:00.000000,0.56591405,0.97308380,1.54495664,135,232,368,74,141,243,0.31181051,0.59245889,1.02152159,0.12614468,0.18662842,0.27280298
18143,0,USIndianaScott,Indiana,Scott,2021-04-04 11:20:44.403287,2020-08-24 00:00:00.000000,0.54837909,0.96045599,1.55004272,130,229,370,71,140,239,0.30124135,0.58694562,1.00522965,0.12022911,0.19077794,0.27239813
18143,0,USIndianaScott,Indiana,Scott,2021-04-04 11:20:44.403287,2020-08-25 00:00:00.000000,0.53888183,0.95584254,1.54855456,128,228,369,69,138,239,0.29137940,0.58199573,1.00322384,0.12143881,0.19338234,0.27217537
18143,0,USIndianaScott,Indiana,Scott,2021-04-04 11:20:44.403287,2020-08-26 00:00:00.000000,0.54144501,0.95416767,1.56481459,129,227,373,67,137,239,0.28211764,0.57690117,1.00321797,0.12296644,0.19514825,0.29121428
18143,0,USIndianaScott,Indiana,Scott,2021-04-04 11:20:44.403287,2020-08-27 00:00:00.000000,0.54487273,0.94216890,1.57343512,130,224,375,66,136,239,0.27966756,0.57167253,1.00474203,0.12464001,0.20022303,0.31036752
18143,0,USIndianaScott,Indiana,Scott,2021-04-04 11:20:44.403287,2020-08-28 00:00:00.000000,0.54897563,0.94025998,1.58194616,131,224,377,66,134,240,0.27972308,0.56347119,1.00738150,0.12680448,0.20691583,0.31622338
18143,0,USIndianaScott,Indiana,Scott,2021-04-04 11:20:44.403287,2020-08-29 00:00:00.000000,0.55389409,0.94474338,1.58938787,132,225,379,66,133,241,0.28058924,0.55808199,1.01075199,0.13088663,0.21446310,0.31756441
18143,0,USIndianaScott,Indiana,Scott,2021-04-04 11:20:44.403287,2020-08-30 00:00:00.000000,0.56040783,0.95110226,1.59437521,133,227,380,67,132,242,0.28208278,0.55575278,1.01440489,0.13579532,0.22033903,0.31786422
18143,0,USIndianaScott,Indiana,Scott,2021-04-04 11:20:44.403287,2020-08-31 00:00:00.000000,0.57668695,0.96689479,1.60195883,137,230,382,67,132,242,0.28423007,0.55554805,1.01777296,0.14417155,0.22502621,0.32729505
18143,0,USIndianaScott,Indiana,Scott,2021-04-04 11:20:44.403287,2020-09-01 00:00:00.000000,0.59433803,0.98423790,1.60830473,141,234,383,68,132,243,0.28872431,0.55467089,1.02137582,0.15460652,0.23099832,0.33473186
18143,0,USIndianaScott,Indiana,Scott,2021-04-04 11:20:44.403287,2020-09-02 00:00:00.000000,0.61276390,0.99782110,1.61414060,146,238,385,70,132,244,0.29497665,0.55629647,1.02502746,0.15619131,0.23429720,0.34603528
18143,0,USIndianaScott,Indiana,Scott,2021-04-04 11:20:44.403287,2020-09-03 00:00:00.000000,0.62929921,1.00014273,1.62139013,150,238,387,72,133,245,0.30260595,0.55856109,1.02864040,0.15620879,0.24180956,0.36544938
18143,0,USIndianaScott,Indiana,Scott,2021-04-04 11:20:44.403287,2020-09-04 00:00:00.000000,0.63545513,1.00887582,1.66548516,151,240,397,74,134,246,0.31101371,0.56269503,1.03220258,0.15625603,0.25040146,0.38431178
18143,0,USIndianaScott,Indiana,Scott,2021-04-04 11:20:44.403287,2020-09-05 00:00:00.000000,0.64161131,1.02556141,1.71193255,153,244,408,76,135,247,0.31991095,0.56853736,1.03574505,0.15734145,0.25441298,0.40121617
18143,0,USIndianaScott,Indiana,Scott,2021-04-04 11:20:44.403287,2020-09-06 00:00:00.000000,0.64776362,1.04966033,1.76049290,154,250,420,78,137,248,0.32918560,0.57783517,1.03955139,0.16459546,0.26237779,0.40267397
18143,0,USIndianaScott,Indiana,Scott,2021-04-04 11:20:44.403287,2020-09-07 00:00:00.000000,0.65453597,1.06648491,1.79947473,156,254,429,80,140,249,0.33922764,0.58692582,1.04527347,0.18255986,0.27041743,0.40598628
18143,0,USIndianaScott,Indiana,Scott,2021-04-04 11:20:44.403287,2020-09-08 00:00:00.000000,0.66138107,1.09161156,1.81203907,157,260,432,82,143,255,0.34479682,0.60118868,1.06961900,0.18882040,0.27588529,0.41285328
18143,0,USIndianaScott,Indiana,Scott,2021-04-04 11:20:44.403287,2020-09-09 00:00:00.000000,0.66859525,1.11485677,1.82405237,159,266,435,82,146,262,0.34583954,0.61314699,1.09842171,0.19075421,0.28574811,0.40876535
18143,0,USIndianaScott,Indiana,Scott,2021-04-04 11:20:44.403287,2020-09-10 00:00:00.000000,0.69489344,1.14333734,1.83995332,165,272,439,83,149,268,0.34908147,0.62479691,1.12425718,0.19126102,0.28975885,0.41134385
18143,0,USIndianaScott,Indiana,Scott,2021-04-04 11:20:44.403287,2020-09-11 00:00:00.000000,0.72793546,1.18349743,1.87862273,173,282,448,84,151,271,0.35432974,0.63403538,1.13848522,0.20467349,0.30974794,0.43281227
18143,0,USIndianaScott,Indiana,Scott,2021-04-04 11:20:44.403287,2020-09-12 00:00:00.000000,0.75533636,1.21336010,1.92128695,180,289,458,86,153,275,0.36134718,0.64178445,1.15365307,0.20937042,0.31498303,0.44580883
18143,0,USIndianaScott,Indiana,Scott,2021-04-04 11:20:44.403287,2020-09-13 00:00:00.000000,0.78041146,1.24900938,1.97169085,186,298,470,88,156,279,0.37002913,0.65721046,1.16978023,0.20410349,0.32563601,0.45589187
18143,0,USIndianaScott,Indiana,Scott,2021-04-04 11:20:44.403287,2020-09-14 00:00:00.000000,0.81885714,1.27997048,2.01524822,195,305,481,90,161,283,0.38046557,0.67594840,1.18671378,0.21438156,0.33140956,0.47275714
18143,0,USIndianaScott,Indiana,Scott,2021-04-04 11:20:44.403287,2020-09-15 00:00:00.000000,0.86251117,1.31216637,2.05820324,205,313,491,94,166,288,0.39459319,0.69692259,1.20688970,0.21498397,0.32942953,0.49856600
18143,0,USIndianaScott,Indiana,Scott,2021-04-04 11:20:44.403287,2020-09-16 00:00:00.000000,0.89526047,1.35837295,2.09715534,213,324,500,98,171,293,0.41202154,0.71833682,1.23001934,0.21510525,0.32986584,0.52430802
18143,0,USIndianaScott,Indiana,Scott,2021-04-04 11:20:44.403287,2020-09-17 00:00:00.000000,0.93188028,1.40604119,2.12616322,222,335,507,103,177,299,0.43223311,0.74285155,1.25572543,0.21546384,0.33083244,0.53087994
18143,0,USIndianaScott,Indiana,Scott,2021-04-04 11:20:44.403287,2020-09-18 00:00:00.000000,0.98726991,1.46259223,2.13953711,235,349,510,108,184,306,0.45536897,0.77195206,1.28376349,0.21760144,0.33875234,0.53134119
18143,0,USIndianaScott,Indiana,Scott,2021-04-04 11:20:44.403287,2020-09-19 00:00:00.000000,1.05968872,1.52043724,2.18495506,252,362,521,114,191,313,0.48078505,0.80160925,1.31395344,0.23193814,0.34289159,0.53157416
18143,0,USIndianaScott,Indiana,Scott,2021-04-04 11:20:44.403287,2020-09-20 00:00:00.000000,1.10881142,1.57421225,2.24862487,264,375,536,118,196,321,0.49699036,0.82128231,1.34613775,0.23378025,0.34529483,0.53167419
18143,0,USIndianaScott,Indiana,Scott,2021-04-04 11:20:44.403287,2020-09-21 00:00:00.000000,1.14989627,1.63312658,2.34206800,274,389,559,124,202,324,0.52184473,0.84954846,1.35817510,0.22943019,0.34929296,0.54735398
18143,0,USIndianaScott,Indiana,Scott,2021-04-04 11:20:44.403287,2020-09-22 00:00:00.000000,1.19073411,1.68490709,2.42772173,284,402,579,133,208,327,0.56025419,0.87286206,1.37191484,0.22795866,0.34959358,0.55577169
18143,0,USIndianaScott,Indiana,Scott,2021-04-04 11:20:44.403287,2020-09-23 00:00:00.000000,1.23165197,1.75512146,2.50680713,294,419,598,141,212,335,0.59467294,0.89194330,1.40578748,0.23298182,0.35011180,0.55813808
18143,0,USIndianaScott,Indiana,Scott,2021-04-04 11:20:44.403287,2020-09-24 00:00:00.000000,1.27380813,1.83632947,2.58146515,304,438,616,146,219,343,0.61494087,0.91834339,1.43846701,0.22867065,0.35051376,0.55419615
18143,0,USIndianaScott,Indiana,Scott,2021-04-04 11:20:44.403287,2020-09-25 00:00:00.000000,1.31758042,1.90319398,2.65421528,314,454,633,151,226,351,0.63431731,0.94849868,1.47101909,0.22917437,0.35092945,0.54821397
18143,0,USIndianaScott,Indiana,Scott,2021-04-04 11:20:44.403287,2020-09-26 00:00:00.000000,1.38120782,1.96087497,2.75278573,329,468,657,161,237,361,0.67537256,0.99504888,1.51232518,0.22957685,0.34985411,0.53180241
18143,0,USIndianaScott,Indiana,Scott,2021-04-04 11:20:44.403287,2020-09-27 00:00:00.000000,1.44377410,2.02116980,2.87436491,344,482,686,169,249,379,0.70970610,1.04612749,1.58997126,0.22980280,0.34415107,0.53299775
18143,0,USIndianaScott,Indiana,Scott,2021-04-04 11:20:44.403287,2020-09-28 00:00:00.000000,1.48589152,2.07556148,2.97522354,354,495,710,172,260,398,0.72149253,1.09123175,1.66971695,0.22983033,0.34589793,0.48952217
18143,0,USIndianaScott,Indiana,Scott,2021-04-04 11:20:44.403287,2020-09-29 00:00:00.000000,1.52449480,2.14661759,3.05783357,363,512,729,175,270,417,0.73380288,1.13382953,1.74901334,0.22337502,0.34492402,0.48661652
18143,0,USIndianaScott,Indiana,Scott,2021-04-04 11:20:44.403287,2020-09-30 00:00:00.000000,1.55706529,2.20746113,3.13148462,371,526,747,181,279,432,0.75907904,1.17021394,1.81185125,0.21920368,0.34082993,0.48467733
18143,0,USIndianaScott,Indiana,Scott,2021-04-04 11:20:44.403287,2020-10-01 00:00:00.000000,1.60120136,2.25847855,3.20223513,382,539,764,185,288,445,0.77805190,1.20722794,1.86574492,0.21834785,0.33397533,0.45420965
18143,0,USIndianaScott,Indiana,Scott,2021-04-04 11:20:44.403287,2020-10-02 00:00:00.000000,1.65482253,2.30804798,3.27182556,395,551,781,190,297,458,0.79821004,1.24726720,1.91861424,0.22044718,0.32958486,0.44744216
18143,0,USIndianaScott,Indiana,Scott,2021-04-04 11:20:44.403287,2020-10-03 00:00:00.000000,1.68752332,2.37754637,3.32282597,402,567,793,195,307,470,0.81970370,1.28928314,1.97092068,0.22862062,0.31009319,0.43471959
18143,0,USIndianaScott,Indiana,Scott,2021-04-04 11:20:44.403287,2020-10-04 00:00:00.000000,1.70803101,2.42518735,3.34048128,407,578,797,201,315,482,0.84271934,1.32070284,2.02274791,0.22703259,0.30378507,0.41515628
18143,0,USIndianaScott,Indiana,Scott,2021-04-04 11:20:44.403287,2020-10-05 00:00:00.000000,1.72858926,2.47232285,3.35428568,412,590,800,207,327,493,0.86726836,1.37100969,2.06925128,0.22392350,0.29623916,0.39105646
18143,0,USIndianaScott,Indiana,Scott,2021-04-04 11:20:44.403287,2020-10-06 00:00:00.000000,1.74768543,2.50759604,3.39968160,417,598,811,212,335,498,0.88888698,1.40414459,2.08871952,0.22292377,0.29029826,0.38390484
18143,0,USIndianaScott,Indiana,Scott,2021-04-04 11:20:44.403287,2020-10-07 00:00:00.000000,1.76593374,2.54396129,3.47183686,421,607,828,212,342,503,0.89135951,1.43338560,2.11009808,0.22517606,0.28596443,0.37810214
18143,0,USIndianaScott,Indiana,Scott,2021-04-04 11:20:44.403287,2020-10-08 00:00:00.000000,1.78408417,2.57233827,3.52844103,425,614,842,213,347,509,0.89298788,1.45686756,2.13375806,0.22788777,0.28392349,0.36993939
18143,0,USIndianaScott,Indiana,Scott,2021-04-04 11:20:44.403287,2020-10-09 00:00:00.000000,1.80562090,2.59853169,3.58302269,431,620,855,213,350,515,0.89434347,1.46775046,2.15980649,0.22764222,0.28468451,0.37316867
18143,0,USIndianaScott,Indiana,Scott,2021-04-04 11:20:44.403287,2020-10-10 00:00:00.000000,1.84321684,2.63123592,3.64019931,440,628,869,213,355,522,0.89598041,1.49066420,2.18803737,0.23153744,0.28495415,0.37874324
18143,0,USIndianaScott,Indiana,Scott,2021-04-04 11:20:44.403287,2020-10-11 00:00:00.000000,1.87279681,2.67706020,3.69592294,447,639,882,214,360,529,0.89858431,1.51103590,2.21829722,0.23011600,0.28682341,0.38278257
18143,0,USIndianaScott,Indiana,Scott,2021-04-04 11:20:44.403287,2020-10-12 00:00:00.000000,1.89517367,2.70781083,3.76165596,452,646,898,215,365,537,0.90307727,1.53135587,2.25074899,0.23347666,0.28494603,0.38759706
18143,0,USIndianaScott,Indiana,Scott,2021-04-04 11:20:44.403287,2020-10-13 00:00:00.000000,1.91766331,2.74207892,3.82013101,457,654,911,217,371,544,0.90932021,1.55649736,2.28066150,0.23116058,0.28970163,0.39009504
18143,0,USIndianaScott,Indiana,Scott,2021-04-04 11:20:44.403287,2020-10-14 00:00:00.000000,1.94058655,2.77903128,3.88330056,463,663,927,222,379,552,0.93327680,1.58769564,2.31459797,0.22957447,0.29437517,0.40418499
18143,0,USIndianaScott,Indiana,Scott,2021-04-04 11:20:44.403287,2020-10-15 00:00:00.000000,1.96375774,2.81255339,3.94889187,468,671,942,229,387,562,0.96036453,1.62341589,2.35647961,0.22596778,0.29312999,0.41261722
18143,0,USIndianaScott,Indiana,Scott,2021-04-04 11:20:44.403287,2020-10-16 00:00:00.000000,1.98702812,2.85076146,4.02319350,474,680,960,236,396,572,0.98897348,1.65989845,2.39846552,0.21799638,0.29395975,0.40847985
18143,0,USIndianaScott,Indiana,Scott,2021-04-04 11:20:44.403287,2020-10-17 00:00:00.000000,2.01018364,2.88871865,4.12419339,479,689,984,242,399,583,1.01462374,1.67487483,2.44232643,0.22392914,0.30063020,0.41763925
18143,0,USIndianaScott,Indiana,Scott,2021-04-04 11:20:44.403287,2020-10-18 00:00:00.000000,2.03281429,2.93282856,4.23162933,485,700,1010,248,407,595,1.03926162,1.70618143,2.49251715,0.23479033,0.30606348,0.42570773
18143,0,USIndianaScott,Indiana,Scott,2021-04-04 11:20:44.403287,2020-10-19 00:00:00.000000,2.05311946,2.98422359,4.32532105,490,712,1032,254,411,609,1.06615420,1.72505552,2.55271222,0.22968235,0.32255991,0.43796227
18143,0,USIndianaScott,Indiana,Scott,2021-04-04 11:20:44.403287,2020-10-20 00:00:00.000000,2.07323359,3.04710767,4.41911597,494,727,1054,257,417,626,1.07860316,1.74891562,2.62266345,0.23154145,0.32785855,0.45335000
18143,0,USIndianaScott,Indiana,Scott,2021-04-04 11:20:44.403287,2020-10-21 00:00:00.000000,2.09313230,3.14279542,4.51357620,499,750,1077,259,422,644,1.08726439,1.76942452,2.70039211,0.25095292,0.33794002,0.45850313
18143,0,USIndianaScott,Indiana,Scott,2021-04-04 11:20:44.403287,2020-10-22 00:00:00.000000,2.11304696,3.24685639,4.60867516,504,775,1100,263,429,664,1.10415072,1.79752832,2.78407317,0.25277655,0.34187604,0.47395047
18143,0,USIndianaScott,Indiana,Scott,2021-04-04 11:20:44.403287,2020-10-23 00:00:00.000000,2.13390320,3.33634998,4.70459645,509,796,1123,269,437,685,1.12706637,1.83248363,2.87199126,0.25389341,0.34660530,0.47049239
18143,0,USIndianaScott,Indiana,Scott,2021-04-04 11:20:44.403287,2020-10-24 00:00:00.000000,2.15978545,3.44175692,4.80276931,515,821,1146,275,447,707,1.15432534,1.87521250,2.96157252,0.25663382,0.35555687,0.49034664
18143,0,USIndianaScott,Indiana,Scott,2021-04-04 11:20:44.403287,2020-10-25 00:00:00.000000,2.20360230,3.53611457,4.90959613,526,844,1172,280,461,727,1.17679399,1.93405585,3.04922150,0.26263975,0.36687910,0.53343440
18143,0,USIndianaScott,Indiana,Scott,2021-04-04 11:20:44.403287,2020-10-26 00:00:00.000000,2.27279729,3.63269342,5.06941357,542,867,1210,288,475,745,1.20922331,1.99337691,3.12230079,0.26588170,0.38309585,0.53251765
18143,0,USIndianaScott,Indiana,Scott,2021-04-04 11:20:44.403287,2020-10-27 00:00:00.000000,2.36081149,3.75973659,5.35287317,563,897,1277,295,486,762,1.23668914,2.03872106,3.19426366,0.28753003,0.39761675,0.54634034
18143,0,USIndianaScott,Indiana,Scott,2021-04-04 11:20:44.403287,2020-10-28 00:00:00.000000,2.46842504,3.88292069,5.59354580,589,926,1335,303,499,779,1.27112197,2.09106783,3.26544826,0.29587074,0.40791044,0.56987685
18143,0,USIndianaScott,Indiana,Scott,2021-04-04 11:20:44.403287,2020-10-29 00:00:00.000000,2.59584441,4.03614937,5.74027399,619,963,1370,315,513,796,1.32118820,2.14911220,3.33679037,0.30715623,0.41503256,0.58800312
18143,0,USIndianaScott,Indiana,Scott,2021-04-04 11:20:44.403287,2020-10-30 00:00:00.000000,2.75752884,4.15776292,5.90911988,658,992,1410,330,529,814,1.38411291,2.21675737,3.40981038,0.31402542,0.41952731,0.60120281
18143,0,USIndianaScott,Indiana,Scott,2021-04-04 11:20:44.403287,2020-10-31 00:00:00.000000,2.98921923,4.32382921,6.08199293,713,1032,1451,341,547,842,1.42924885,2.29425659,3.52830762,0.33060003,0.42840441,0.60941953
18143,0,USIndianaScott,Indiana,Scott,2021-04-04 11:20:44.403287,2020-11-01 00:00:00.000000,3.09558815,4.50004937,6.25792546,739,1074,1493,353,569,864,1.48120545,2.38703010,3.62328374,0.33138709,0.45203592,0.65524509
18143,0,USIndianaScott,Indiana,Scott,2021-04-04 11:20:44.403287,2020-11-02 00:00:00.000000,3.19928293,4.71033515,6.52945144,763,1124,1558,376,594,888,1.57790398,2.49131326,3.72312052,0.33610961,0.47197334,0.66117307
18143,0,USIndianaScott,Indiana,Scott,2021-04-04 11:20:44.403287,2020-11-03 00:00:00.000000,3.36966360,4.95186184,6.87232562,804,1182,1640,384,621,913,1.61201712,2.60349420,3.82733097,0.36187997,0.49161469,0.73361953
18143,0,USIndianaScott,Indiana,Scott,2021-04-04 11:20:44.403287,2020-11-04 00:00:00.000000,3.54771929,5.28969324,7.22985541,846,1262,1725,409,655,939,1.71568579,2.74550390,3.93552817,0.36483349,0.50669099,0.78033709
18143,0,USIndianaScott,Indiana,Scott,2021-04-04 11:20:44.403287,2020-11-05 00:00:00.000000,3.73330677,5.58692273,7.59977627,891,1333,1814,439,689,966,1.83900094,2.89019746,4.04805785,0.38748079,0.52198980,0.80268008
18143,0,USIndianaScott,Indiana,Scott,2021-04-04 11:20:44.403287,2020-11-06 00:00:00.000000,3.92654398,5.89285771,8.01071784,937,1406,1912,458,718,1007,1.92178066,3.00840771,4.21869188,0.41610374,0.55212526,0.81169663
18143,0,USIndianaScott,Indiana,Scott,2021-04-04 11:20:44.403287,2020-11-07 00:00:00.000000,4.12998286,6.28226069,8.65146911,985,1499,2065,480,753,1061,2.01108588,3.15742603,4.44677856,0.41739084,0.58839230,0.82832283
18143,0,USIndianaScott,Indiana,Scott,2021-04-04 11:20:44.403287,2020-11-08 00:00:00.000000,4.34616050,6.82517766,9.34434351,1037,1629,2230,504,797,1127,2.11271693,3.34069980,4.72279762,0.42537086,0.62396397,0.84876381
18143,0,USIndianaScott,Indiana,Scott,2021-04-04 11:20:44.403287,2020-11-09 00:00:00.000000,4.56641764,7.29244558,10.07435532,1090,1740,2405,537,841,1203,2.25145364,3.52671640,5.04288211,0.47200629,0.64444054,0.87119479
18143,0,USIndianaScott,Indiana,Scott,2021-04-04 11:20:44.403287,2020-11-10 00:00:00.000000,4.80370879,7.81788564,10.84396549,1146,1866,2588,572,895,1289,2.39662703,3.75137421,5.40198361,0.49554430,0.66182049,0.87985158
18143,0,USIndianaScott,Indiana,Scott,2021-04-04 11:20:44.403287,2020-11-11 00:00:00.000000,5.06564506,8.34040549,11.65233542,1209,1991,2781,601,956,1383,2.52030998,4.00659146,5.79615589,0.51385251,0.66260997,0.88091782
18143,0,USIndianaScott,Indiana,Scott,2021-04-04 11:20:44.403287,2020-11-12 00:00:00.000000,5.48325951,8.91724285,12.49813194,1309,2128,2983,633,1029,1485,2.65519925,4.31348197,6.22241756,0.51246545,0.66114239,0.88095456
18143,0,USIndianaScott,Indiana,Scott,2021-04-04 11:20:44.403287,2020-11-13 00:00:00.000000,6.11412725,9.55637248,13.48335896,1459,2281,3218,669,1104,1594,2.80412037,4.62593571,6.67844755,0.49937442,0.65790016,0.87076156
18143,0,USIndianaScott,Indiana,Scott,2021-04-04 11:20:44.403287,2020-11-14 00:00:00.000000,6.75927331,10.18767245,14.56480577,1613,2432,3477,715,1176,1709,2.99797216,4.92988163,7.16225237,0.49862059,0.65009179,0.85148104
18143,0,USIndianaScott,Indiana,Scott,2021-04-04 11:20:44.403287,2020-11-15 00:00:00.000000,7.37893473,10.85024272,15.62781064,1761,2590,3730,794,1258,1831,3.32754670,5.27075521,7.67187922,0.49773709,0.64621830,0.84994889
18143,0,USIndianaScott,Indiana,Scott,2021-04-04 11:20:44.403287,2020-11-16 00:00:00.000000,7.98246201,11.52141699,16.66317535,1905,2750,3977,874,1340,1958,3.66314204,5.61605332,8.20516424,0.48229265,0.63356057,0.82884621
18143,0,USIndianaScott,Indiana,Scott,2021-04-04 11:20:44.403287,2020-11-17 00:00:00.000000,8.59962910,12.26768527,17.66847357,2052,2928,4217,954,1407,2090,3.99811367,5.89710344,8.75781193,0.46246845,0.62979464,0.84064921
18143,0,USIndianaScott,Indiana,Scott,2021-04-04 11:20:44.403287,2020-11-18 00:00:00.000000,9.22607000,12.90874877,18.09260400,2202,3081,4319,1025,1485,2225,4.29539377,6.22081362,9.32196716,0.43382095,0.60170035,0.82069930
18143,0,USIndianaScott,Indiana,Scott,2021-04-04 11:20:44.403287,2020-11-19 00:00:00.000000,9.75171305,13.51673303,18.58357710,2328,3226,4436,1067,1562,2356,4.47354118,6.54299798,9.87048932,0.41478953,0.58654908,0.77801750
18143,0,USIndianaScott,Indiana,Scott,2021-04-04 11:20:44.403287,2020-11-20 00:00:00.000000,10.06475048,14.05141289,19.15547338,2402,3354,4572,1108,1651,2478,4.64507854,6.91624525,10.38079812,0.41083624,0.54515177,0.70449742
18143,0,USIndianaScott,Indiana,Scott,2021-04-04 11:20:44.403287,2020-11-21 00:00:00.000000,10.41484645,14.37557116,19.70105275,2486,3431,4703,1145,1739,2589,4.79820634,7.28515932,10.84824565,0.38999228,0.49895246,0.65418804
18143,0,USIndianaScott,Indiana,Scott,2021-04-04 11:20:44.403287,2020-11-22 00:00:00.000000,10.68989944,14.55090505,20.34347793,2551,3473,4856,1183,1810,2689,4.95563136,7.58557753,11.26415568,0.36392513,0.46721953,0.60517886
18143,0,USIndianaScott,Indiana,Scott,2021-04-04 11:20:44.403287,2020-11-23 00:00:00.000000,10.90119141,14.68976485,20.80770543,2602,3506,4967,1256,1860,2773,5.26285990,7.79304929,11.61954648,0.35200767,0.45626555,0.57760581
18143,0,USIndianaScott,Indiana,Scott,2021-04-04 11:20:44.403287,2020-11-24 00:00:00.000000,11.04025617,15.04716430,20.76875467,2635,3592,4958,1306,1906,2844,5.47328362,7.98523201,11.91410871,0.34233897,0.44236819,0.57184788
18143,0,USIndianaScott,Indiana,Scott,2021-04-04 11:20:44.403287,2020-11-25 00:00:00.000000,11.13673140,15.27026025,20.98016083,2658,3645,5008,1325,1967,2901,5.55128187,8.24184176,12.15308425,0.33888359,0.42844498,0.56683795
18143,0,USIndianaScott,Indiana,Scott,2021-04-04 11:20:44.403287,2020-11-26 00:00:00.000000,11.14488191,15.49877628,21.32782495,2660,3700,5091,1338,2009,2947,5.60868627,8.41802165,12.34573165,0.32237845,0.42344667,0.54463840
18143,0,USIndianaScott,Indiana,Scott,2021-04-04 11:20:44.403287,2020-11-27 00:00:00.000000,11.09721132,15.59743241,21.56917689,2649,3723,5149,1347,2039,2983,5.64315504,8.54334637,12.49878443,0.29937297,0.41903624,0.51120577
18143,0,USIndianaScott,Indiana,Scott,2021-04-04 11:20:44.403287,2020-11-28 00:00:00.000000,11.02779336,15.48717450,21.23762390,2632,3697,5070,1346,2068,3011,5.64035313,8.66549152,12.61638983,0.28826652,0.41354910,0.50428218
18143,0,USIndianaScott,Indiana,Scott,2021-04-04 11:20:44.403287,2020-11-29 00:00:00.000000,10.94441938,15.29007145,21.07622090,2612,3650,5031,1333,2088,3031,5.58634352,8.74738315,12.69995918,0.28656963,0.40704952,0.49454724
18143,0,USIndianaScott,Indiana,Scott,2021-04-04 11:20:44.403287,2020-11-30 00:00:00.000000,10.91799216,15.11194396,21.04886368,2606,3607,5024,1338,2098,3043,5.60781812,8.79175178,12.75017017,0.28624438,0.39375768,0.49134616
18143,0,USIndianaScott,Indiana,Scott,2021-04-04 11:20:44.403287,2020-12-01 00:00:00.000000,10.90451740,14.82132011,20.88684345,2603,3538,4986,1327,2102,3048,5.56175783,8.80548073,12.76831732,0.28617785,0.38646981,0.48951785
18143,0,USIndianaScott,Indiana,Scott,2021-04-04 11:20:44.403287,2020-12-02 00:00:00.000000,10.78538511,14.79471287,20.65668925,2574,3531,4931,1314,2095,3045,5.50518293,8.77711813,12.75574247,0.28560938,0.38563111,0.48784161
18143,0,USIndianaScott,Indiana,Scott,2021-04-04 11:20:44.403287,2020-12-03 00:00:00.000000,10.59228527,14.74141156,20.36087196,2528,3519,4860,1298,2076,3034,5.43910916,8.69956093,12.71293100,0.28306753,0.38333466,0.48473156
18143,0,USIndianaScott,Indiana,Scott,2021-04-04 11:20:44.403287,2020-12-04 00:00:00.000000,10.40953025,14.51440520,19.99024734,2485,3465,4772,1280,2053,3017,5.36481898,8.60347094,12.63964714,0.27746486,0.37711252,0.47738417
18143,0,USIndianaScott,Indiana,Scott,2021-04-04 11:20:44.403287,2020-12-05 00:00:00.000000,10.22638480,14.31884101,19.54448216,2441,3418,4665,1256,2027,2992,5.26123978,8.49225976,12.53588082,0.26819893,0.37154462,0.47445034
18143,0,USIndianaScott,Indiana,Scott,2021-04-04 11:20:44.403287,2020-12-06 00:00:00.000000,10.06894447,14.06354886,19.03934267,2403,3357,4545,1237,1994,2960,5.18424344,8.35670305,12.40286442,0.26682553,0.35906614,0.46545423
18143,0,USIndianaScott,Indiana,Scott,2021-04-04 11:20:44.403287,2020-12-07 00:00:00.000000,9.88394398,13.77369774,18.49514693,2359,3288,4415,1210,1969,2915,5.07238852,8.25067538,12.21091565,0.26100221,0.35905688,0.47473102
18143,0,USIndianaScott,Indiana,Scott,2021-04-04 11:20:44.403287,2020-12-08 00:00:00.000000,9.61386797,13.47197313,17.94666611,2295,3216,4284,1180,1940,2879,4.94478745,8.12722433,12.06259433,0.25515175,0.35768334,0.46449260
18143,0,USIndianaScott,Indiana,Scott,2021-04-04 11:20:44.403287,2020-12-09 00:00:00.000000,9.29314879,13.18748949,17.52640964,2218,3148,4184,1147,1903,2831,4.80547348,7.97445826,11.86080194,0.25548232,0.35856523,0.45243929
18143,0,USIndianaScott,Indiana,Scott,2021-04-04 11:20:44.403287,2020-12-10 00:00:00.000000,8.99509559,12.89081377,17.10697805,2147,3077,4083,1121,1863,2779,4.69699941,7.80776994,11.64233500,0.25640169,0.35687242,0.44708117
18143,0,USIndianaScott,Indiana,Scott,2021-04-04 11:20:44.403287,2020-12-11 00:00:00.000000,8.68547327,12.56686112,16.72355758,2073,3000,3992,1092,1821,2724,4.57797956,7.63016431,11.41061826,0.25868096,0.35267654,0.45399632
18143,0,USIndianaScott,Indiana,Scott,2021-04-04 11:20:44.403287,2020-12-12 00:00:00.000000,8.41288250,12.24093728,16.35629757,2008,2922,3904,1064,1776,2666,4.45809906,7.44251506,11.16860615,0.25456453,0.35204639,0.45540259
18143,0,USIndianaScott,Indiana,Scott,2021-04-04 11:20:44.403287,2020-12-13 00:00:00.000000,8.13258259,11.89704370,16.02326929,1941,2840,3825,1034,1730,2606,4.33418089,7.24883859,10.91886219,0.26093580,0.35212475,0.48144093
18143,0,USIndianaScott,Indiana,Scott,2021-04-04 11:20:44.403287,2020-12-14 00:00:00.000000,7.86994302,11.50663666,15.67015408,1878,2746,3740,997,1688,2545,4.17979307,7.07421597,10.66364005,0.26996094,0.35342773,0.48243728
18143,0,USIndianaScott,Indiana,Scott,2021-04-04 11:20:44.403287,2020-12-15 00:00:00.000000,7.61301125,11.11715476,15.30189956,1817,2653,3653,959,1646,2484,4.02121179,6.89671543,10.40692953,0.26142856,0.35198639,0.48292894
18143,0,USIndianaScott,Indiana,Scott,2021-04-04 11:20:44.403287,2020-12-16 00:00:00.000000,7.36187392,10.78160030,14.92668776,1757,2573,3563,932,1608,2424,3.90773524,6.73635200,10.15726558,0.25741595,0.36052991,0.48341643
18143,0,USIndianaScott,Indiana,Scott,2021-04-04 11:20:44.403287,2020-12-17 00:00:00.000000,7.11628304,10.50662949,14.55164019,1698,2508,3473,910,1561,2367,3.81329078,6.53927241,9.91540020,0.26021979,0.36340446,0.51599132
18143,0,USIndianaScott,Indiana,Scott,2021-04-04 11:20:44.403287,2020-12-18 00:00:00.000000,6.87616393,10.26142118,14.18199710,1641,2449,3385,886,1513,2313,3.71444642,6.34056426,9.69058690,0.27408554,0.37210464,0.52925041
18143,0,USIndianaScott,Indiana,Scott,2021-04-04 11:20:44.403287,2020-12-19 00:00:00.000000,6.64211124,9.98365592,13.82086640,1585,2383,3299,860,1466,2264,3.60549208,6.14453665,9.48696021,0.28252407,0.38756166,0.54076083
18143,0,USIndianaScott,Indiana,Scott,2021-04-04 11:20:44.403287,2020-12-20 00:00:00.000000,6.41504872,9.71514032,13.46931993,1531,2319,3215,836,1430,2217,3.50484750,5.99209026,9.28858897,0.30002177,0.40261654,0.55601984
18143,0,USIndianaScott,Indiana,Scott,2021-04-04 11:20:44.403287,2020-12-21 00:00:00.000000,6.30666674,9.46729584,13.23475839,1505,2260,3159,814,1396,2173,3.41055744,5.85108245,9.10308717,0.31346323,0.42248229,0.58617112
18143,0,USIndianaScott,Indiana,Scott,2021-04-04 11:20:44.403287,2020-12-22 00:00:00.000000,6.14793544,9.25698789,13.05511378,1467,2209,3116,791,1363,2132,3.31397063,5.71337933,8.93350297,0.31266450,0.43875398,0.61048929
18143,0,USIndianaScott,Indiana,Scott,2021-04-04 11:20:44.403287,2020-12-23 00:00:00.000000,5.95961259,9.05711476,12.87858455,1422,2162,3074,763,1331,2095,3.19709946,5.57784333,8.77885140,0.31738765,0.44930839,0.62147165
18143,0,USIndianaScott,Indiana,Scott,2021-04-04 11:20:44.403287,2020-12-24 00:00:00.000000,5.78776356,8.88735730,12.70155408,1381,2121,3032,736,1299,2061,3.08578739,5.44356525,8.63559685,0.31972334,0.46212105,0.61636257
18143,0,USIndianaScott,Indiana,Scott,2021-04-04 11:20:44.403287,2020-12-25 00:00:00.000000,5.63440347,8.73633811,12.52327963,1345,2085,2989,716,1260,2027,3.00253639,5.28182561,8.49466795,0.32340318,0.48527554,0.62599829
18143,0,USIndianaScott,Indiana,Scott,2021-04-04 11:20:44.403287,2020-12-26 00:00:00.000000,5.50935405,8.62827653,12.34356999,1315,2059,2946,702,1221,1975,2.94138982,5.11530906,8.27382284,0.34664877,0.50225030,0.65801017
18143,0,USIndianaScott,Indiana,Scott,2021-04-04 11:20:44.403287,2020-12-27 00:00:00.000000,5.42154714,8.49364569,12.16266501,1294,2027,2903,683,1184,1923,2.86128928,4.96272761,8.05582550,0.35741914,0.52069847,0.72447923
18143,0,USIndianaScott,Indiana,Scott,2021-04-04 11:20:44.403287,2020-12-28 00:00:00.000000,5.36935017,8.35381663,11.98987903,1281,1994,2862,667,1147,1891,2.79465344,4.80487058,7.92348525,0.38534196,0.54601249,0.73612129
18143,0,USIndianaScott,Indiana,Scott,2021-04-04 11:20:44.403287,2020-12-29 00:00:00.000000,5.33614795,8.21145832,11.81688616,1273,1960,2821,654,1120,1863,2.74276378,4.69511161,7.80746146,0.40001516,0.56032578,0.75942594
18143,0,USIndianaScott,Indiana,Scott,2021-04-04 11:20:44.403287,2020-12-30 00:00:00.000000,5.31083835,8.09030566,11.64233118,1267,1931,2779,645,1101,1838,2.70368167,4.61369718,7.70269269,0.39949208,0.58543354,0.77707280
18143,0,USIndianaScott,Indiana,Scott,2021-04-04 11:20:44.403287,2020-12-31 00:00:00.000000,5.28712815,8.00118143,11.46895646,1262,1910,2737,637,1084,1816,2.67105114,4.54409083,7.60786982,0.40002606,0.60669046,0.84129899
18143,0,USIndianaScott,Indiana,Scott,2021-04-04 11:20:44.403287,2021-01-01 00:00:00.000000,5.26114775,7.87446265,11.36151520,1255,1879,2712,627,1071,1795,2.62795405,4.49001981,7.52079812,0.41155122,0.61947988,0.88761009
18143,0,USIndianaScott,Indiana,Scott,2021-04-04 11:20:44.403287,2021-01-02 00:00:00.000000,5.22956643,7.77170499,11.24600018,1248,1855,2684,623,1062,1775,2.61139947,4.44954732,7.43842488,0.45840209,0.63585205,0.93440068
18143,0,USIndianaScott,Indiana,Scott,2021-04-04 11:20:44.403287,2021-01-03 00:00:00.000000,5.18939104,7.67749594,11.12127095,1238,1832,2654,620,1055,1756,2.59965223,4.41960473,7.35790412,0.47469654,0.66167217,0.95311155
18143,0,USIndianaScott,Indiana,Scott,2021-04-04 11:20:44.403287,2021-01-04 00:00:00.000000,5.13984508,7.65680574,10.96744826,1227,1827,2618,618,1048,1737,2.59011853,4.39027142,7.27705098,0.49393943,0.68348827,0.97753398
18143,0,USIndianaScott,Indiana,Scott,2021-04-04 11:20:44.403287,2021-01-05 00:00:00.000000,5.08364564,7.56365855,10.80535108,1213,1805,2579,615,1041,1716,2.58019546,4.36463837,7.19065426,0.50958212,0.70399711,0.99325509
18143,0,USIndianaScott,Indiana,Scott,2021-04-04 11:20:44.403287,2021-01-06 00:00:00.000000,5.02938230,7.48319539,10.63718497,1200,1786,2539,613,1040,1694,2.56879187,4.35831584,7.09742003,0.52363115,0.71254386,1.03501104
18143,0,USIndianaScott,Indiana,Scott,2021-04-04 11:20:44.403287,2021-01-07 00:00:00.000000,4.99510704,7.45865318,10.46952389,1192,1780,2499,610,1038,1669,2.55596621,4.35146852,6.99129764,0.52848864,0.71221924,1.05202603
18143,0,USIndianaScott,Indiana,Scott,2021-04-04 11:20:44.403287,2021-01-08 00:00:00.000000,4.99849364,7.45518861,10.31488628,1193,1779,2462,606,1031,1644,2.54164942,4.32089599,6.88931758,0.51846277,0.72284125,1.07793657
18143,0,USIndianaScott,Indiana,Scott,2021-04-04 11:20:44.403287,2021-01-09 00:00:00.000000,5.02944595,7.40486316,10.17667328,1200,1767,2429,603,1020,1621,2.52615236,4.27603978,6.79142974,0.51722486,0.73284951,1.13099643
18143,0,USIndianaScott,Indiana,Scott,2021-04-04 11:20:44.403287,2021-01-10 00:00:00.000000,4.97526737,7.35189491,10.05486111,1187,1755,2400,599,1011,1598,2.51046863,4.23577903,6.69690355,0.51690569,0.73039528,1.13913865
18143,0,USIndianaScott,Indiana,Scott,2021-04-04 11:20:44.403287,2021-01-11 00:00:00.000000,4.87367158,7.25155507,10.04904010,1163,1731,2399,595,1002,1576,2.49603007,4.20123767,6.60448895,0.51688130,0.74183534,1.13534765
18143,0,USIndianaScott,Indiana,Scott,2021-04-04 11:20:44.403287,2021-01-12 00:00:00.000000,4.77416522,7.13784138,10.02740129,1139,1704,2393,596,993,1554,2.49990910,4.16225423,6.51145953,0.52118937,0.74952152,1.13809240
18143,0,USIndianaScott,Indiana,Scott,2021-04-04 11:20:44.403287,2021-01-13 00:00:00.000000,4.67934984,7.04577148,9.99003750,1117,1682,2384,599,983,1531,2.51121767,4.11773128,6.41688728,0.51823469,0.75771228,1.14409962
18143,0,USIndianaScott,Indiana,Scott,2021-04-04 11:20:44.403287,2021-01-14 00:00:00.000000,4.59195023,6.97345888,9.93738208,1096,1664,2372,592,973,1508,2.48187296,4.07683190,6.32004493,0.51550541,0.75973087,1.17692474
18143,0,USIndianaScott,Indiana,Scott,2021-04-04 11:20:44.403287,2021-01-15 00:00:00.000000,4.51307753,6.87940553,9.87044803,1077,1642,2356,584,964,1485,2.45006306,4.04031498,6.22292482,0.50262737,0.76358713,1.19464666
18143,0,USIndianaScott,Indiana,Scott,2021-04-04 11:20:44.403287,2021-01-16 00:00:00.000000,4.44157866,6.73778176,9.79033012,1060,1608,2337,576,956,1465,2.41611273,4.00867056,6.13955700,0.49093742,0.77842038,1.22457318
18143,0,USIndianaScott,Indiana,Scott,2021-04-04 11:20:44.403287,2021-01-17 00:00:00.000000,4.37527424,6.68887603,9.69603781,1044,1596,2314,568,941,1451,2.38046241,3.94401872,6.07836893,0.48298927,0.78699130,1.27423183
18143,0,USIndianaScott,Indiana,Scott,2021-04-04 11:20:44.403287,2021-01-18 00:00:00.000000,4.32603096,6.60704433,9.59622630,1032,1577,2290,559,922,1435,2.34405371,3.86524119,6.01415434,0.47925123,0.78219368,1.30590819
18143,0,USIndianaScott,Indiana,Scott,2021-04-04 11:20:44.403287,2021-01-19 00:00:00.000000,4.27861605,6.48058628,9.48352860,1021,1547,2264,550,910,1419,2.30565967,3.81350889,5.94690426,0.48285952,0.79160913,1.32136351
18143,0,USIndianaScott,Indiana,Scott,2021-04-04 11:20:44.403287,2021-01-20 00:00:00.000000,4.23336388,6.35918837,9.32764577,1010,1518,2226,541,898,1402,2.26847462,3.76573746,5.87659133,0.48531097,0.79263472,1.32545446
18143,0,USIndianaScott,Indiana,Scott,2021-04-04 11:20:44.403287,2021-01-21 00:00:00.000000,4.18873638,6.23462446,9.15005717,999,1488,2184,532,885,1385,2.23165525,3.70970780,5.80449035,0.48661874,0.76218874,1.32179824
18143,0,USIndianaScott,Indiana,Scott,2021-04-04 11:20:44.403287,2021-01-22 00:00:00.000000,4.14593897,6.08946210,8.95683353,989,1453,2138,519,871,1368,2.17777883,3.65083725,5.73292706,0.47282992,0.76968297,1.31456670
18143,0,USIndianaScott,Indiana,Scott,2021-04-04 11:20:44.403287,2021-01-23 00:00:00.000000,4.07097710,5.93184512,8.73859093,971,1416,2086,502,854,1351,2.10692160,3.58108263,5.66239164,0.46111052,0.77755915,1.30939733
18143,0,USIndianaScott,Indiana,Scott,2021-04-04 11:20:44.403287,2021-01-24 00:00:00.000000,3.97241822,5.82323916,8.50241518,948,1390,2029,485,837,1334,2.03488004,3.50606654,5.59166136,0.45438212,0.77772639,1.30437835
18143,0,USIndianaScott,Indiana,Scott,2021-04-04 11:20:44.403287,2021-01-25 00:00:00.000000,3.88066937,5.66217290,8.29791888,926,1351,1980,472,818,1317,1.98086197,3.42795232,5.51951240,0.45134287,0.78513201,1.30152709
18143,0,USIndianaScott,Indiana,Scott,2021-04-04 11:20:44.403287,2021-01-26 00:00:00.000000,3.79368838,5.52042833,8.15616633,905,1317,1947,461,799,1299,1.93426317,3.34845807,5.44394462,0.45113458,0.78580924,1.30066615
18143,0,USIndianaScott,Indiana,Scott,2021-04-04 11:20:44.403287,2021-01-27 00:00:00.000000,3.69595768,5.38133072,8.00777890,882,1284,1911,451,780,1280,1.88951207,3.26756406,5.36464675,0.45506901,0.77297072,1.30346354
18143,0,USIndianaScott,Indiana,Scott,2021-04-04 11:20:44.403287,2021-01-28 00:00:00.000000,3.58262669,5.23171450,7.85344121,855,1248,1874,440,765,1260,1.84646292,3.20664045,5.28149966,0.46822308,0.77403676,1.34131370
18143,0,USIndianaScott,Indiana,Scott,2021-04-04 11:20:44.403287,2021-01-29 00:00:00.000000,3.48124349,5.07409101,7.69380017,831,1211,1836,430,746,1240,1.80484925,3.12588314,5.19453661,0.47147702,0.77072909,1.46886954
18143,0,USIndianaScott,Indiana,Scott,2021-04-04 11:20:44.403287,2021-01-30 00:00:00.000000,3.39229866,4.92079835,7.52952680,809,1174,1797,421,727,1218,1.76459462,3.04730163,5.10389604,0.45995209,0.76226520,1.50737761
18143,0,USIndianaScott,Indiana,Scott,2021-04-04 11:20:44.403287,2021-01-31 00:00:00.000000,3.27687374,4.76484196,7.36142926,782,1137,1757,411,711,1195,1.72578813,2.98102538,5.00645800,0.45029001,0.76958319,1.50860358
18143,0,USIndianaScott,Indiana,Scott,2021-04-04 11:20:44.403287,2021-02-01 00:00:00.000000,3.16618972,4.61089886,7.20182587,755,1100,1719,403,695,1161,1.68844280,2.91246915,4.86595924,0.44441655,0.76906260,1.50776626
18143,0,USIndianaScott,Indiana,Scott,2021-04-04 11:20:44.403287,2021-02-02 00:00:00.000000,3.05850893,4.45954759,7.02773850,730,1064,1677,394,677,1126,1.65128122,2.83630279,4.71982588,0.43558713,0.77214161,1.50127493
18143,0,USIndianaScott,Indiana,Scott,2021-04-04 11:20:44.403287,2021-02-03 00:00:00.000000,2.95426814,4.30666355,6.75404817,705,1028,1612,385,658,1090,1.61473041,2.75999663,4.56972241,0.42977309,0.77354037,1.45923866
18143,0,USIndianaScott,Indiana,Scott,2021-04-04 11:20:44.403287,2021-02-04 00:00:00.000000,2.84017023,4.15645889,6.48588572,678,992,1548,376,635,1054,1.57859506,2.66238687,4.41728965,0.41916881,0.77972673,1.53917257
18143,0,USIndianaScott,Indiana,Scott,2021-04-04 11:20:44.403287,2021-02-05 00:00:00.000000,2.72593795,4.01443651,6.22334737,650,958,1485,365,611,1017,1.53283125,2.56202304,4.26392208,0.40425459,0.76990453,1.61550772
18143,0,USIndianaScott,Indiana,Scott,2021-04-04 11:20:44.403287,2021-02-06 00:00:00.000000,2.64802836,3.87456502,5.96540536,632,924,1424,354,587,981,1.48609172,2.46262248,4.11067095,0.40593535,0.76445629,1.64655739
18143,0,USIndianaScott,Indiana,Scott,2021-04-04 11:20:44.403287,2021-02-07 00:00:00.000000,2.54077594,3.72479749,5.71121857,606,889,1363,343,564,944,1.44078737,2.36505108,3.95816695,0.41078368,0.76971044,1.65635726
18143,0,USIndianaScott,Indiana,Scott,2021-04-04 11:20:44.403287,2021-02-08 00:00:00.000000,2.42795460,3.57611064,5.46833943,579,853,1305,333,543,913,1.39692110,2.27842504,3.82734652,0.39611652,0.77039151,1.65865803
18143,0,USIndianaScott,Indiana,Scott,2021-04-04 11:20:44.403287,2021-02-09 00:00:00.000000,2.35345404,3.42056416,5.23261584,561,816,1249,322,522,884,1.35285953,2.19039947,3.70352721,0.39031506,0.76978687,1.65888319
18143,0,USIndianaScott,Indiana,Scott,2021-04-04 11:20:44.403287,2021-02-10 00:00:00.000000,2.26697407,3.27468076,5.00467094,541,781,1194,312,502,854,1.30905991,2.10414917,3.57759754,0.39011116,0.76774425,1.55948741
18143,0,USIndianaScott,Indiana,Scott,2021-04-04 11:20:44.403287,2021-02-11 00:00:00.000000,2.16258671,3.14804339,4.84397891,516,751,1156,302,482,823,1.26579642,2.02229313,3.45056309,0.38998641,0.75733644,1.40770787
18143,0,USIndianaScott,Indiana,Scott,2021-04-04 11:20:44.403287,2021-02-12 00:00:00.000000,2.06563460,3.02755656,4.72171967,493,722,1127,291,464,797,1.22158372,1.94752550,3.34193717,0.38993966,0.74568192,1.38705550
18143,0,USIndianaScott,Indiana,Scott,2021-04-04 11:20:44.403287,2021-02-13 00:00:00.000000,1.97781333,2.91970392,4.59674594,472,697,1097,278,447,772,1.16485920,1.87448649,3.23463794,0.38657881,0.73329363,1.41951813
18143,0,USIndianaScott,Indiana,Scott,2021-04-04 11:20:44.403287,2021-02-14 00:00:00.000000,1.89867068,2.80322837,4.46701085,453,669,1066,270,428,747,1.13460832,1.79622510,3.12980715,0.37525974,0.71329304,1.44592248
18143,0,USIndianaScott,Indiana,Scott,2021-04-04 11:20:44.403287,2021-02-15 00:00:00.000000,1.84083410,2.67947658,4.32545157,439,639,1032,257,412,727,1.07974571,1.72582180,3.04902092,0.37590818,0.70292513,1.39075525
18143,0,USIndianaScott,Indiana,Scott,2021-04-04 11:20:44.403287,2021-02-16 00:00:00.000000,1.75231289,2.56447580,4.18210900,418,612,998,245,395,707,1.02816056,1.65716063,2.96546330,0.37370469,0.70334597,1.35872397
18143,0,USIndianaScott,Indiana,Scott,2021-04-04 11:20:44.403287,2021-02-17 00:00:00.000000,1.66828921,2.45736602,4.03923921,398,586,964,233,379,687,0.97967552,1.58871062,2.87962318,0.36744428,0.69469897,1.36020138
18143,0,USIndianaScott,Indiana,Scott,2021-04-04 11:20:44.403287,2021-02-18 00:00:00.000000,1.57471977,2.35409019,3.89816497,375,561,930,223,361,666,0.93422772,1.51301958,2.79229646,0.36595340,0.68185061,1.36089455
18143,0,USIndianaScott,Indiana,Scott,2021-04-04 11:20:44.403287,2021-02-19 00:00:00.000000,1.48207492,2.25464393,3.75949103,353,538,897,212,343,645,0.89179672,1.44050309,2.70426911,0.32548567,0.67301061,1.36234584
18143,0,USIndianaScott,Indiana,Scott,2021-04-04 11:20:44.403287,2021-02-20 00:00:00.000000,1.39637822,2.15889447,3.62348063,333,515,865,203,327,624,0.85231925,1.37128397,2.61617564,0.31347892,0.67002643,1.36756034
18143,0,USIndianaScott,Indiana,Scott,2021-04-04 11:20:44.403287,2021-02-21 00:00:00.000000,1.32104929,2.06677763,3.49029301,315,493,833,194,311,603,0.81567842,1.30536764,2.52851476,0.30902267,0.67049624,1.33438567
18143,0,USIndianaScott,Indiana,Scott,2021-04-04 11:20:44.403287,2021-02-22 00:00:00.000000,1.25303267,1.98360162,3.36305999,299,473,802,186,297,582,0.78168737,1.24488272,2.44168504,0.30775795,0.65479660,1.35581524
18143,0,USIndianaScott,Indiana,Scott,2021-04-04 11:20:44.403287,2021-02-23 00:00:00.000000,1.19437765,1.90227453,3.23901403,285,454,773,178,283,562,0.74760569,1.18595647,2.35660827,0.30767118,0.65396647,1.40123100
18143,0,USIndianaScott,Indiana,Scott,2021-04-04 11:20:44.403287,2021-02-24 00:00:00.000000,1.13629794,1.81474101,3.11836647,271,433,744,169,269,542,0.71079098,1.12879428,2.27337431,0.30841525,0.65055001,1.37820030
18143,0,USIndianaScott,Indiana,Scott,2021-04-04 11:20:44.403287,2021-02-25 00:00:00.000000,1.06812466,1.73027897,3.00104941,254,413,716,160,257,523,0.67058362,1.07731707,2.19205782,0.30915589,0.64959382,1.40287187
18143,0,USIndianaScott,Indiana,Scott,2021-04-04 11:20:44.403287,2021-02-26 00:00:00.000000,1.00456745,1.64671277,2.88699602,239,393,689,151,245,504,0.63274091,1.03033406,2.11270106,0.30067816,0.64760959,1.43434473
18143,0,USIndianaScott,Indiana,Scott,2021-04-04 11:20:44.403287,2021-02-27 00:00:00.000000,0.94547783,1.56574541,2.77589891,225,373,662,142,235,485,0.59708002,0.98483395,2.03532081,0.30610146,0.63687332,1.43617554
18143,0,USIndianaScott,Indiana,Scott,2021-04-04 11:20:44.403287,2021-02-28 00:00:00.000000,0.89070650,1.48857886,2.66731920,212,355,636,133,225,467,0.56106948,0.94360917,1.95987443,0.31054198,0.62825963,1.43635408
18143,0,USIndianaScott,Indiana,Scott,2021-04-04 11:20:44.403287,2021-03-01 00:00:00.000000,0.83833640,1.41905506,2.56020020,200,338,611,125,217,450,0.52692695,0.91228929,1.88625611,0.31262774,0.62576565,1.43633874
18143,0,USIndianaScott,Indiana,Scott,2021-04-04 11:20:44.403287,2021-03-02 00:00:00.000000,0.79002591,1.35837011,2.45593485,188,324,586,118,210,433,0.49638318,0.88147156,1.81419780,0.31442441,0.61984281,1.43615322
18143,0,USIndianaScott,Indiana,Scott,2021-04-04 11:20:44.403287,2021-03-03 00:00:00.000000,0.74568410,1.30248316,2.35477187,178,310,562,111,201,416,0.46880824,0.84580716,1.74376830,0.31707564,0.61693975,1.43561003
18143,0,USIndianaScott,Indiana,Scott,2021-04-04 11:20:44.403287,2021-03-04 00:00:00.000000,0.70529477,1.24891477,2.25641381,168,298,538,106,192,399,0.44636204,0.80713519,1.67506798,0.32096027,0.60887738,1.43415066
18143,0,USIndianaScott,Indiana,Scott,2021-04-04 11:20:44.403287,2021-03-05 00:00:00.000000,0.66875738,1.19721748,2.15886545,159,285,515,101,183,383,0.42487408,0.76776323,1.60811177,0.32435827,0.60074516,1.43145800
18143,0,USIndianaScott,Indiana,Scott,2021-04-04 11:20:44.403287,2021-03-06 00:00:00.000000,0.63579402,1.13612632,2.06177423,151,271,492,95,174,368,0.40197313,0.73087042,1.54261771,0.32429161,0.59915574,1.42369224
18143,0,USIndianaScott,Indiana,Scott,2021-04-04 11:20:44.403287,2021-03-07 00:00:00.000000,0.60595292,1.08457654,1.96750999,144,258,469,90,166,352,0.38041341,0.69683810,1.47830582,0.32349702,0.58437463,1.40533939
18143,0,USIndianaScott,Indiana,Scott,2021-04-04 11:20:44.403287,2021-03-08 00:00:00.000000,0.58031279,1.02390279,1.88817774,138,244,450,86,159,337,0.36101128,0.66918169,1.41535323,0.31163273,0.57569423,1.36818668
18143,0,USIndianaScott,Indiana,Scott,2021-04-04 11:20:44.403287,2021-03-09 00:00:00.000000,0.55802926,0.97213481,1.81274215,133,232,432,81,151,324,0.34323863,0.63535146,1.35838344,0.30287377,0.58368505,1.31282268
18143,0,USIndianaScott,Indiana,Scott,2021-04-04 11:20:44.403287,2021-03-10 00:00:00.000000,0.54495666,0.92157820,1.74744513,130,220,417,77,145,311,0.32656534,0.60772254,1.30395372,0.30457099,0.58177065,1.28411346
18143,0,USIndianaScott,Indiana,Scott,2021-04-04 11:20:44.403287,2021-03-11 00:00:00.000000,0.53315285,0.87621045,1.69499822,127,209,404,74,138,298,0.31352373,0.58099676,1.25132338,0.31135106,0.57931504,1.29153064
18143,0,USIndianaScott,Indiana,Scott,2021-04-04 11:20:44.403287,2021-03-12 00:00:00.000000,0.52231870,0.82454056,1.64325897,124,196,392,72,133,286,0.30510714,0.56006793,1.20044419,0.31710310,0.59169319,1.30652421
18143,0,USIndianaScott,Indiana,Scott,2021-04-04 11:20:44.403287,2021-03-13 00:00:00.000000,0.51155881,0.78691092,1.56469788,122,187,373,69,128,274,0.29240319,0.53650438,1.15128036,0.32318084,0.59496002,1.27795471
18143,0,USIndianaScott,Indiana,Scott,2021-04-04 11:20:44.403287,2021-03-14 00:00:00.000000,0.49170889,0.74775910,1.49151988,117,178,356,66,122,263,0.28031487,0.51190788,1.10517908,0.31998812,0.58563258,1.23270176
18143,0,USIndianaScott,Indiana,Scott,2021-04-04 11:20:44.403287,2021-03-15 00:00:00.000000,0.46886304,0.72084536,1.44539104,111,172,345,64,116,253,0.26884856,0.48626983,1.06258299,0.31346257,0.57012832,1.25628551
18143,0,USIndianaScott,Indiana,Scott,2021-04-04 11:20:44.403287,2021-03-16 00:00:00.000000,0.44793175,0.71180035,1.40439523,106,169,335,61,110,243,0.25722024,0.46366564,1.01960660,0.31384327,0.58294896,1.33904929
18143,0,USIndianaScott,Indiana,Scott,2021-04-04 11:20:44.403287,2021-03-17 00:00:00.000000,0.42844935,0.69424005,1.36714057,102,165,326,58,105,233,0.24572512,0.44237647,0.97686875,0.31202903,0.58458464,1.38278305
18143,0,USIndianaScott,Indiana,Scott,2021-04-04 11:20:44.403287,2021-03-18 00:00:00.000000,0.41031080,0.68598377,1.33464296,97,163,318,56,101,223,0.23460241,0.42391972,0.93496841,0.31998681,0.58223659,1.37199358
18143,0,USIndianaScott,Indiana,Scott,2021-04-04 11:20:44.403287,2021-03-19 00:00:00.000000,0.39350500,0.67384590,1.29752641,93,160,309,53,96,213,0.22409304,0.40408447,0.89451185,0.32218431,0.57743139,1.33405072
18143,0,USIndianaScott,Indiana,Scott,2021-04-04 11:20:44.403287,2021-03-20 00:00:00.000000,0.37803716,0.64636600,1.25197743,90,154,298,51,92,204,0.21443340,0.38661595,0.85586865,0.31824877,0.57713052,1.26841725
18143,0,USIndianaScott,Indiana,Scott,2021-04-04 11:20:44.403287,2021-03-21 00:00:00.000000,0.36382591,0.62496719,1.20793579,86,149,288,49,90,198,0.20573719,0.37752607,0.83201801,0.31720448,0.57196348,1.27611485
18143,0,USIndianaScott,Indiana,Scott,2021-04-04 11:20:44.403287,2021-03-22 00:00:00.000000,0.34693836,0.61109808,1.17415403,82,145,280,47,87,193,0.19794651,0.36627940,0.81037965,0.32116900,0.57500484,1.31295249
18143,0,USIndianaScott,Indiana,Scott,2021-04-04 11:20:44.403287,2021-03-23 00:00:00.000000,0.33118587,0.58650390,1.14183376,79,140,272,45,86,187,0.19188675,0.36051019,0.78680557,0.32589660,0.57387455,1.33821756
18143,0,USIndianaScott,Indiana,Scott,2021-04-04 11:20:44.403287,2021-03-24 00:00:00.000000,0.33464018,0.56182897,1.11099732,79,134,265,44,83,181,0.18713146,0.34823272,0.76198248,0.32426737,0.57232566,1.35204686
18143,0,USIndianaScott,Indiana,Scott,2021-04-04 11:20:44.403287,2021-03-25 00:00:00.000000,0.34571872,0.54085709,1.07903447,82,129,257,43,80,175,0.18349309,0.33531810,0.73642269,0.32032442,0.57564238,1.35840616
18143,0,USIndianaScott,Indiana,Scott,2021-04-04 11:20:44.403287,2021-03-26 00:00:00.000000,0.34267245,0.52197237,1.03654554,81,124,247,44,76,169,0.18500211,0.32248432,0.71065341,0.31080580,0.57344664,1.36054522
18143,0,USIndianaScott,Indiana,Scott,2021-04-04 11:20:44.403287,2021-03-27 00:00:00.000000,0.32712320,0.51424611,0.99554490,78,122,237,45,75,164,0.19009659,0.31716380,0.68793703,0.30130582,0.58584213,1.36465876
18143,0,USIndianaScott,Indiana,Scott,2021-04-04 11:20:44.403287,2021-03-28 00:00:00.000000,0.31251058,0.49476703,0.95936967,74,118,229,44,73,161,0.18607326,0.30930925,0.67490634,0.27823520,0.58734805,1.38039217
18143,0,USIndianaScott,Indiana,Scott,2021-04-04 11:20:44.403287,2021-03-29 00:00:00.000000,0.29475118,0.47301392,0.91452212,70,112,218,42,71,158,0.17813711,0.30094973,0.66197255,0.28239212,0.60044039,1.41340600
18143,0,USIndianaScott,Indiana,Scott,2021-04-04 11:20:44.403287,2021-03-30 00:00:00.000000,0.27195876,0.45160820,0.87043661,64,107,207,40,69,153,0.16985001,0.29061077,0.64356200,0.28845240,0.60371109,1.45142563
18143,0,USIndianaScott,Indiana,Scott,2021-04-04 11:20:44.403287,2021-03-31 00:00:00.000000,0.25212292,0.42708570,0.82973735,60,101,198,38,66,148,0.16131348,0.27909539,0.62153427,0.29672779,0.61457461,1.49622437
18143,0,USIndianaScott,Indiana,Scott,2021-04-04 11:20:44.403287,2021-04-01 00:00:00.000000,0.23375900,0.40441529,0.79107672,55,96,188,36,63,142,0.15273355,0.26541150,0.59727189,0.30106221,0.61466140,1.54467451
18143,0,USIndianaScott,Indiana,Scott,2021-04-04 11:20:44.403287,2021-04-02 00:00:00.000000,0.21647085,0.38312057,0.75449333,51,91,180,34,60,136,0.14355063,0.25273723,0.57179876,0.30106606,0.61233637,1.49063973
18143,0,USIndianaScott,Indiana,Scott,2021-04-04 11:20:44.403287,2021-04-03 00:00:00.000000,0.20038944,0.35998941,0.72017502,47,85,171,31,57,130,0.13179771,0.24090828,0.54587604,0.30105619,0.60799934,1.41641927
18143,0,USIndianaScott,Indiana,Scott,2021-04-04 11:20:44.403287,2021-04-04 00:00:00.000000,0.18544889,0.34128563,0.68799183,44,81,164,28,54,125,0.12135528,0.22903792,0.52459740,0.29134059,0.58983286,1.36425396
18143,0,USIndianaScott,Indiana,Scott,2021-04-04 11:20:44.403287,2021-04-05 00:00:00.000000,0.17149162,0.32305163,0.65745670,40,77,156,26,51,120,0.11249846,0.21724229,0.50498675,0.27827689,0.58529873,1.34151573
18143,0,USIndianaScott,Indiana,Scott,2021-04-04 11:20:44.403287,2021-04-06 00:00:00.000000,0.15863340,0.30577325,0.62828214,37,72,149,24,49,115,0.10419438,0.20562461,0.48579254,0.27343530,0.59126631,1.33394373
18143,0,USIndianaScott,Indiana,Scott,2021-04-04 11:20:44.403287,2021-04-07 00:00:00.000000,0.14679157,0.28852581,0.60040511,35,68,143,23,46,111,0.09647541,0.19428360,0.46706852,0.27186558,0.60617746,1.35069273
18143,0,USIndianaScott,Indiana,Scott,2021-04-04 11:20:44.403287,2021-04-08 00:00:00.000000,0.13586874,0.27143183,0.57376266,32,64,136,21,43,107,0.08943241,0.18329960,0.44885280,0.27139116,0.61490073,1.36264731
18143,0,USIndianaScott,Indiana,Scott,2021-04-04 11:20:44.403287,2021-04-09 00:00:00.000000,0.12578058,0.25404648,0.54829650,30,60,130,19,41,102,0.08284541,0.17330214,0.43117111,0.27125132,0.62120785,1.37080857
18143,0,USIndianaScott,Indiana,Scott,2021-04-04 11:20:44.403287,2021-04-10 00:00:00.000000,0.11647353,0.23893701,0.52666073,27,57,125,18,39,98,0.07669789,0.16394589,0.41403952,0.27121029,0.61874854,1.37621219
18143,0,USIndianaScott,Indiana,Scott,2021-04-04 11:20:44.403287,2021-04-11 00:00:00.000000,0.10786087,0.22777318,0.50735679,25,54,121,16,37,94,0.07101159,0.15504574,0.39746643,0.26893081,0.61682294,1.37971775
18143,0,USIndianaScott,Indiana,Scott,2021-04-04 11:20:44.403287,2021-04-12 00:00:00.000000,0.09988850,0.21474930,0.49549957,23,51,118,15,34,91,0.06575114,0.14659177,0.38145429,0.26574081,0.61532617,1.38196197
18143,0,USIndianaScott,Indiana,Scott,2021-04-04 11:20:44.403287,2021-04-13 00:00:00.000000,0.09250753,0.20231179,0.48389978,22,48,115,14,33,87,0.06088366,0.13857054,0.36600093,0.26400648,0.61416930,1.38338649
18143,0,USIndianaScott,Indiana,Scott,2021-04-04 11:20:44.403287,2021-04-14 00:00:00.000000,0.08567336,0.19180013,0.47255069,20,45,112,13,31,83,0.05637892,0.13072322,0.35110055,0.26309478,0.61327906,1.38428583
18143,0,USIndianaScott,Indiana,Scott,2021-04-04 11:20:44.403287,2021-04-15 00:00:00.000000,0.07934504,0.18209717,0.46144634,18,43,110,12,29,80,0.05220922,0.12235802,0.33674464,0.26262399,0.61259629,1.38485166
18143,0,USIndianaScott,Indiana,Scott,2021-04-04 11:20:44.403287,2021-04-16 00:00:00.000000,0.07348481,0.17087911,0.45058135,17,40,107,11,27,77,0.04834913,0.11436182,0.32292259,0.26238312,0.61207400,1.38520690
