FIPS,HR_UID,nameid,province,region,analysisTime,dates,pointprevalence_025,pointprevalence_50,pointprevalence_975,pointinfections_025,pointinfections_50,pointinfections_975,pointinfectious_025,pointinfectious_50,pointinfectious_975,pointinfectiousprevalence_05,pointinfectiousprevalence_50,pointinfectiousprevalence_95,infectrate_025,infectrate_50,infectrate_975
0,0,Cyprus,,,2021-04-04 01:20:42.332861,2020-03-09 00:00:00.000000,0.00363846,0.00924940,0.01748676,43,111,211,19,50,99,0.00164925,0.00420726,0.00826492,0.61300334,0.78026768,0.92186032
0,0,Cyprus,,,2021-04-04 01:20:42.332861,2020-03-10 00:00:00.000000,0.00441064,0.01056506,0.02014362,53,127,243,21,59,118,0.00179058,0.00492940,0.00978225,0.61275540,0.77992874,0.92185800
0,0,Cyprus,,,2021-04-04 01:20:42.332861,2020-03-11 00:00:00.000000,0.00562790,0.01216489,0.02303125,67,146,278,28,67,136,0.00239338,0.00562156,0.01133901,0.61228978,0.77940729,0.92185399
0,0,Cyprus,,,2021-04-04 01:20:42.332861,2020-03-12 00:00:00.000000,0.00683998,0.01400436,0.02614660,82,169,315,37,79,156,0.00310364,0.00659973,0.01298999,0.61142065,0.77860886,0.92184703
0,0,Cyprus,,,2021-04-04 01:20:42.332861,2020-03-13 00:00:00.000000,0.00809735,0.01608035,0.02953324,97,194,356,45,91,178,0.00377060,0.00757379,0.01476732,0.60981834,0.77739499,0.92183477
0,0,Cyprus,,,2021-04-04 01:20:42.332861,2020-03-14 00:00:00.000000,0.00954596,0.01833542,0.03422467,115,221,413,53,102,201,0.00444877,0.00851364,0.01672536,0.60693368,0.77568223,0.92181263
0,0,Cyprus,,,2021-04-04 01:20:42.332861,2020-03-15 00:00:00.000000,0.01123098,0.02097885,0.03998337,135,253,482,62,117,237,0.00520606,0.00974944,0.01968493,0.60206068,0.77561745,0.92177087
0,0,Cyprus,,,2021-04-04 01:20:42.332861,2020-03-16 00:00:00.000000,0.01312383,0.02415934,0.04602536,158,291,555,73,137,278,0.00604933,0.01139472,0.02305887,0.59648371,0.77190430,0.92168657
0,0,Cyprus,,,2021-04-04 01:20:42.332861,2020-03-17 00:00:00.000000,0.01533353,0.02704280,0.05190899,185,326,626,85,156,311,0.00705624,0.01296426,0.02579873,0.58265685,0.76992275,0.91923539
0,0,Cyprus,,,2021-04-04 01:20:42.332861,2020-03-18 00:00:00.000000,0.01764372,0.03050350,0.05754350,213,368,694,99,176,347,0.00820692,0.01463566,0.02877770,0.56893426,0.76790616,0.91337338
0,0,Cyprus,,,2021-04-04 01:20:42.332861,2020-03-19 00:00:00.000000,0.01968748,0.03421889,0.06321604,237,413,763,114,197,385,0.00950186,0.01637735,0.03194995,0.55525628,0.75626404,0.90411175
0,0,Cyprus,,,2021-04-04 01:20:42.332861,2020-03-20 00:00:00.000000,0.02182455,0.03836492,0.06855624,263,463,827,129,222,424,0.01074553,0.01838880,0.03517994,0.54400744,0.73289414,0.89016477
0,0,Cyprus,,,2021-04-04 01:20:42.332861,2020-03-21 00:00:00.000000,0.02402574,0.04231174,0.07337974,290,510,885,144,251,462,0.01194762,0.02085343,0.03831257,0.53069485,0.70784219,0.88830747
0,0,Cyprus,,,2021-04-04 01:20:42.332861,2020-03-22 00:00:00.000000,0.02708397,0.04630779,0.08095654,327,559,977,159,278,497,0.01319614,0.02303017,0.04121884,0.52136803,0.66584272,0.87277263
0,0,Cyprus,,,2021-04-04 01:20:42.332861,2020-03-23 00:00:00.000000,0.03086329,0.05117346,0.08941909,372,617,1079,174,310,529,0.01448556,0.02573406,0.04388493,0.51248770,0.62999120,0.86274667
0,0,Cyprus,,,2021-04-04 01:20:42.332861,2020-03-24 00:00:00.000000,0.03444663,0.05686965,0.09785461,415,686,1181,192,343,570,0.01590900,0.02847742,0.04725140,0.50187089,0.60865442,0.83033030
0,0,Cyprus,,,2021-04-04 01:20:42.332861,2020-03-25 00:00:00.000000,0.03694758,0.06198863,0.10409798,446,748,1256,217,380,628,0.01800558,0.03149040,0.05206727,0.49188412,0.59311411,0.81206513
0,0,Cyprus,,,2021-04-04 01:20:42.332861,2020-03-26 00:00:00.000000,0.03937470,0.06756773,0.10995207,475,815,1327,243,410,687,0.02019673,0.03402300,0.05691487,0.47277899,0.57830828,0.80582221
0,0,Cyprus,,,2021-04-04 01:20:42.332861,2020-03-27 00:00:00.000000,0.04169916,0.07226198,0.11568093,503,872,1396,271,445,747,0.02246910,0.03693837,0.06189860,0.45432462,0.56880380,0.80297689
0,0,Cyprus,,,2021-04-04 01:20:42.332861,2020-03-28 00:00:00.000000,0.04386470,0.07673853,0.12496776,529,926,1508,296,479,810,0.02459583,0.03972603,0.06709553,0.41258058,0.53573629,0.72675686
0,0,Cyprus,,,2021-04-04 01:20:42.332861,2020-03-29 00:00:00.000000,0.04589424,0.08166223,0.13512483,554,985,1631,313,510,875,0.02593072,0.04227597,0.07254957,0.35969760,0.49178859,0.71940089
0,0,Cyprus,,,2021-04-04 01:20:42.332861,2020-03-30 00:00:00.000000,0.04770722,0.08649625,0.14198625,575,1044,1714,331,547,929,0.02749453,0.04536698,0.07702675,0.32941309,0.46692737,0.68798574
0,0,Cyprus,,,2021-04-04 01:20:42.332861,2020-03-31 00:00:00.000000,0.04943689,0.08971397,0.14590861,596,1083,1761,347,583,969,0.02876291,0.04830629,0.08025923,0.29116299,0.42308817,0.62250962
0,0,Cyprus,,,2021-04-04 01:20:42.332861,2020-04-01 00:00:00.000000,0.05105234,0.09186266,0.15599197,616,1109,1883,360,606,1007,0.02981934,0.05023725,0.08343168,0.26897787,0.39434057,0.58793888
0,0,Cyprus,,,2021-04-04 01:20:42.332861,2020-04-02 00:00:00.000000,0.05248356,0.09217877,0.16474194,633,1112,1989,367,625,1055,0.03046787,0.05181432,0.08738600,0.25440560,0.37182131,0.56103684
0,0,Cyprus,,,2021-04-04 01:20:42.332861,2020-04-03 00:00:00.000000,0.05359073,0.09253572,0.17114861,647,1117,2066,377,630,1091,0.03123757,0.05218236,0.09040117,0.22138980,0.33817814,0.49506570
0,0,Cyprus,,,2021-04-04 01:20:42.332861,2020-04-04 00:00:00.000000,0.05420927,0.09246116,0.17872268,654,1116,2157,381,637,1158,0.03157707,0.05277850,0.09594571,0.19726565,0.31240331,0.44990068
0,0,Cyprus,,,2021-04-04 01:20:42.332861,2020-04-05 00:00:00.000000,0.05422426,0.09183648,0.18314613,654,1108,2211,387,633,1210,0.03206526,0.05248516,0.10026975,0.18612614,0.29321731,0.42504205
0,0,Cyprus,,,2021-04-04 01:20:42.332861,2020-04-06 00:00:00.000000,0.05396431,0.09000035,0.18310165,651,1086,2210,389,640,1239,0.03225075,0.05304937,0.10269421,0.18147576,0.27431725,0.39441493
0,0,Cyprus,,,2021-04-04 01:20:42.332861,2020-04-07 00:00:00.000000,0.05318659,0.08734915,0.18198815,642,1054,2197,384,628,1251,0.03186198,0.05208277,0.10368074,0.17127939,0.26123584,0.35144401
0,0,Cyprus,,,2021-04-04 01:20:42.332861,2020-04-08 00:00:00.000000,0.05184010,0.08560959,0.17958082,625,1033,2168,377,614,1252,0.03129257,0.05093613,0.10370237,0.15179586,0.24904959,0.33112834
0,0,Cyprus,,,2021-04-04 01:20:42.332861,2020-04-09 00:00:00.000000,0.04983922,0.08205643,0.17494035,601,990,2112,361,602,1242,0.02994695,0.04993523,0.10291413,0.13497555,0.23831550,0.31235029
0,0,Cyprus,,,2021-04-04 01:20:42.332861,2020-04-10 00:00:00.000000,0.04828451,0.07827741,0.16745967,582,945,2021,347,580,1222,0.02879415,0.04809718,0.10124130,0.12716851,0.21870505,0.30712735
0,0,Cyprus,,,2021-04-04 01:20:42.332861,2020-04-11 00:00:00.000000,0.04583785,0.07441717,0.15820172,553,898,1910,338,563,1210,0.02805403,0.04670424,0.10026620,0.12616077,0.20561253,0.28852677
0,0,Cyprus,,,2021-04-04 01:20:42.332861,2020-04-12 00:00:00.000000,0.04351838,0.07002593,0.15220820,525,845,1837,324,538,1186,0.02690553,0.04464269,0.09825101,0.12395041,0.19448651,0.26741929
0,0,Cyprus,,,2021-04-04 01:20:42.332861,2020-04-13 00:00:00.000000,0.04151908,0.06632891,0.14679283,501,800,1772,308,513,1134,0.02553533,0.04256102,0.09394674,0.12289629,0.18389703,0.25920158
0,0,Cyprus,,,2021-04-04 01:20:42.332861,2020-04-14 00:00:00.000000,0.03907412,0.06265060,0.14006986,471,756,1691,285,490,1078,0.02360642,0.04064163,0.08936121,0.12014969,0.17181317,0.25419661
0,0,Cyprus,,,2021-04-04 01:20:42.332861,2020-04-15 00:00:00.000000,0.03632931,0.05953896,0.13092684,438,718,1580,267,468,1019,0.02214624,0.03883400,0.08444413,0.11456563,0.16191110,0.24934853
0,0,Cyprus,,,2021-04-04 01:20:42.332861,2020-04-16 00:00:00.000000,0.03372311,0.05609583,0.12163090,407,677,1468,254,437,956,0.02108626,0.03620897,0.07923558,0.10793341,0.15574802,0.23495975
0,0,Cyprus,,,2021-04-04 01:20:42.332861,2020-04-17 00:00:00.000000,0.03122778,0.05215296,0.11247494,377,629,1357,237,413,891,0.01969542,0.03425877,0.07386435,0.11066429,0.14803123,0.22136224
0,0,Cyprus,,,2021-04-04 01:20:42.332861,2020-04-18 00:00:00.000000,0.02874621,0.04848467,0.10367297,347,585,1251,218,389,826,0.01806779,0.03225109,0.06849203,0.10334670,0.13960514,0.19402389
0,0,Cyprus,,,2021-04-04 01:20:42.332861,2020-04-19 00:00:00.000000,0.02645359,0.04523315,0.09535649,319,546,1151,198,361,763,0.01644643,0.02995881,0.06325963,0.09976201,0.13253320,0.18276835
0,0,Cyprus,,,2021-04-04 01:20:42.332861,2020-04-20 00:00:00.000000,0.02383559,0.04168887,0.08760843,287,503,1057,181,332,703,0.01505517,0.02750019,0.05826651,0.09733890,0.12914227,0.18336663
0,0,Cyprus,,,2021-04-04 01:20:42.332861,2020-04-21 00:00:00.000000,0.02155619,0.03846024,0.08043470,260,464,971,167,306,646,0.01384970,0.02539072,0.05356689,0.09637316,0.12619249,0.18179934
0,0,Cyprus,,,2021-04-04 01:20:42.332861,2020-04-22 00:00:00.000000,0.01946178,0.03566919,0.07380944,234,430,891,150,282,593,0.01246551,0.02340857,0.04918681,0.09603690,0.12391062,0.18127149
0,0,Cyprus,,,2021-04-04 01:20:42.332861,2020-04-23 00:00:00.000000,0.01761367,0.03269995,0.06769556,212,394,817,135,264,546,0.01126186,0.02187216,0.04528043,0.09301408,0.11949983,0.18068939
0,0,Cyprus,,,2021-04-04 01:20:42.332861,2020-04-24 00:00:00.000000,0.01603882,0.03014962,0.06228568,193,364,752,123,245,510,0.01023298,0.02031626,0.04226546,0.08760274,0.11949144,0.18004699
0,0,Cyprus,,,2021-04-04 01:20:42.332861,2020-04-25 00:00:00.000000,0.01464795,0.02776600,0.05770174,176,335,696,112,226,474,0.00932560,0.01872355,0.03929244,0.08052653,0.11646485,0.17931254
0,0,Cyprus,,,2021-04-04 01:20:42.332861,2020-04-26 00:00:00.000000,0.01340938,0.02529673,0.05397287,161,305,651,102,208,438,0.00850338,0.01730438,0.03635364,0.08006974,0.11130620,0.17832024
0,0,Cyprus,,,2021-04-04 01:20:42.332861,2020-04-27 00:00:00.000000,0.01214596,0.02320164,0.05043530,146,280,608,93,191,404,0.00775981,0.01586566,0.03351419,0.07899721,0.11081850,0.17729636
0,0,Cyprus,,,2021-04-04 01:20:42.332861,2020-04-28 00:00:00.000000,0.01100693,0.02128302,0.04700523,132,256,567,85,175,372,0.00706601,0.01451037,0.03087729,0.07736051,0.11091384,0.17629628
0,0,Cyprus,,,2021-04-04 01:20:42.332861,2020-04-29 00:00:00.000000,0.00997911,0.01953925,0.04370103,120,235,527,77,160,343,0.00642875,0.01328203,0.02842577,0.07618808,0.10743779,0.17461672
0,0,Cyprus,,,2021-04-04 01:20:42.332861,2020-04-30 00:00:00.000000,0.00906188,0.01809065,0.04053618,109,218,489,70,146,315,0.00582807,0.01216438,0.02613045,0.07592983,0.10590299,0.17266352
0,0,Cyprus,,,2021-04-04 01:20:42.332861,2020-05-01 00:00:00.000000,0.00825407,0.01684330,0.03748533,99,203,452,63,134,290,0.00525980,0.01113334,0.02407015,0.07241905,0.10592245,0.17000339
0,0,Cyprus,,,2021-04-04 01:20:42.332861,2020-05-02 00:00:00.000000,0.00754640,0.01562081,0.03439279,91,188,415,57,124,269,0.00478272,0.01027343,0.02235527,0.07143615,0.10480390,0.16650169
0,0,Cyprus,,,2021-04-04 01:20:42.332861,2020-05-03 00:00:00.000000,0.00721336,0.01436842,0.03158915,87,173,381,53,114,250,0.00442680,0.00951736,0.02072192,0.06933357,0.10301590,0.16216443
0,0,Cyprus,,,2021-04-04 01:20:42.332861,2020-05-04 00:00:00.000000,0.00654800,0.01326235,0.02919773,79,160,352,48,105,231,0.00404605,0.00870109,0.01918027,0.06965166,0.10117998,0.16069054
0,0,Cyprus,,,2021-04-04 01:20:42.332861,2020-05-05 00:00:00.000000,0.00590858,0.01230404,0.02704084,71,148,326,45,96,213,0.00375375,0.00796197,0.01771659,0.06841481,0.10166155,0.15671945
0,0,Cyprus,,,2021-04-04 01:20:42.332861,2020-05-06 00:00:00.000000,0.00528792,0.01129954,0.02486993,63,136,300,42,88,197,0.00353076,0.00730166,0.01634017,0.06506266,0.10142711,0.16200300
0,0,Cyprus,,,2021-04-04 01:20:42.332861,2020-05-07 00:00:00.000000,0.00471607,0.01042374,0.02287889,56,125,276,39,80,181,0.00325169,0.00670682,0.01505580,0.06505884,0.10085101,0.17469240
0,0,Cyprus,,,2021-04-04 01:20:42.332861,2020-05-08 00:00:00.000000,0.00441912,0.00956167,0.02106138,53,115,254,35,74,167,0.00290595,0.00617842,0.01386506,0.06523654,0.10109022,0.17613616
0,0,Cyprus,,,2021-04-04 01:20:42.332861,2020-05-09 00:00:00.000000,0.00416782,0.00882847,0.01940530,50,106,234,32,69,154,0.00270945,0.00573231,0.01276704,0.06408838,0.10102322,0.16564482
0,0,Cyprus,,,2021-04-04 01:20:42.332861,2020-05-10 00:00:00.000000,0.00383880,0.00806228,0.01789487,46,97,216,30,64,141,0.00248677,0.00531451,0.01175862,0.06324377,0.10129133,0.16454234
0,0,Cyprus,,,2021-04-04 01:20:42.332861,2020-05-11 00:00:00.000000,0.00354750,0.00734330,0.01665237,42,88,201,26,58,130,0.00219816,0.00488016,0.01083474,0.06203673,0.10112796,0.16597106
0,0,Cyprus,,,2021-04-04 01:20:42.332861,2020-05-12 00:00:00.000000,0.00327403,0.00671593,0.01552987,39,81,187,23,53,120,0.00198649,0.00442998,0.01002105,0.06191852,0.10081247,0.16614591
0,0,Cyprus,,,2021-04-04 01:20:42.332861,2020-05-13 00:00:00.000000,0.00302801,0.00625583,0.01424891,36,75,172,22,49,113,0.00182348,0.00406415,0.00936920,0.06171789,0.09981439,0.15998830
0,0,Cyprus,,,2021-04-04 01:20:42.332861,2020-05-14 00:00:00.000000,0.00280689,0.00592516,0.01320030,33,71,159,20,44,105,0.00169259,0.00370749,0.00877117,0.06177865,0.09975036,0.16134411
0,0,Cyprus,,,2021-04-04 01:20:42.332861,2020-05-15 00:00:00.000000,0.00262336,0.00548112,0.01243978,31,66,150,19,41,99,0.00160970,0.00344164,0.00822211,0.06195306,0.10027338,0.16181322
0,0,Cyprus,,,2021-04-04 01:20:42.332861,2020-05-16 00:00:00.000000,0.00247215,0.00508914,0.01174526,29,61,141,18,38,93,0.00151015,0.00316761,0.00772122,0.06218753,0.10230088,0.16206251
0,0,Cyprus,,,2021-04-04 01:20:42.332861,2020-05-17 00:00:00.000000,0.00227526,0.00485033,0.01110542,27,58,134,17,35,85,0.00141188,0.00296954,0.00708047,0.06238359,0.10392331,0.16107772
0,0,Cyprus,,,2021-04-04 01:20:42.332861,2020-05-18 00:00:00.000000,0.00217638,0.00456806,0.01063357,26,55,128,16,34,80,0.00134371,0.00281854,0.00663847,0.06252896,0.10948306,0.15877772
0,0,Cyprus,,,2021-04-04 01:20:42.332861,2020-05-19 00:00:00.000000,0.00204262,0.00441396,0.00993947,24,53,120,15,32,75,0.00128545,0.00267949,0.00622898,0.06264264,0.11093423,0.15770716
0,0,Cyprus,,,2021-04-04 01:20:42.332861,2020-05-20 00:00:00.000000,0.00192182,0.00431092,0.00928897,23,52,112,14,31,70,0.00123427,0.00261410,0.00583681,0.06277299,0.11242571,0.15792316
0,0,Cyprus,,,2021-04-04 01:20:42.332861,2020-05-21 00:00:00.000000,0.00182437,0.00414721,0.00878879,22,50,106,14,30,65,0.00119303,0.00249262,0.00546424,0.06279504,0.11432481,0.15872075
0,0,Cyprus,,,2021-04-04 01:20:42.332861,2020-05-22 00:00:00.000000,0.00173721,0.00396847,0.00866358,20,47,104,13,29,61,0.00115915,0.00243932,0.00511205,0.06277468,0.11516938,0.16495968
0,0,Cyprus,,,2021-04-04 01:20:42.332861,2020-05-23 00:00:00.000000,0.00165793,0.00378838,0.00853052,20,45,102,13,27,59,0.00110308,0.00231261,0.00490364,0.06496304,0.11703094,0.17494366
0,0,Cyprus,,,2021-04-04 01:20:42.332861,2020-05-24 00:00:00.000000,0.00158519,0.00355819,0.00838372,19,42,101,12,26,58,0.00105356,0.00218315,0.00482350,0.06655544,0.11948011,0.17780124
0,0,Cyprus,,,2021-04-04 01:20:42.332861,2020-05-25 00:00:00.000000,0.00163764,0.00340108,0.00809145,19,41,97,12,24,57,0.00100994,0.00203463,0.00474489,0.07169214,0.12088308,0.18219758
0,0,Cyprus,,,2021-04-04 01:20:42.332861,2020-05-26 00:00:00.000000,0.00156344,0.00328542,0.00768768,18,39,92,11,23,55,0.00096430,0.00190741,0.00463556,0.07124421,0.12165892,0.18540998
0,0,Cyprus,,,2021-04-04 01:20:42.332861,2020-05-27 00:00:00.000000,0.00149672,0.00316165,0.00732184,18,38,88,11,22,54,0.00092034,0.00189369,0.00451367,0.07061325,0.12249121,0.18641166
0,0,Cyprus,,,2021-04-04 01:20:42.332861,2020-05-28 00:00:00.000000,0.00143901,0.00307683,0.00698786,17,37,84,10,22,52,0.00088009,0.00182472,0.00438797,0.07046664,0.12392064,0.18767576
0,0,Cyprus,,,2021-04-04 01:20:42.332861,2020-05-29 00:00:00.000000,0.00139054,0.00294776,0.00668155,16,35,80,10,21,51,0.00084469,0.00174174,0.00426322,0.07109293,0.12582960,0.18929280
0,0,Cyprus,,,2021-04-04 01:20:42.332861,2020-05-30 00:00:00.000000,0.00135011,0.00285047,0.00640034,16,34,77,9,20,49,0.00081456,0.00170170,0.00411057,0.07126639,0.12888766,0.19127979
0,0,Cyprus,,,2021-04-04 01:20:42.332861,2020-05-31 00:00:00.000000,0.00131559,0.00278920,0.00664164,15,33,80,9,19,47,0.00078931,0.00163548,0.00393117,0.07327246,0.13305948,0.19189482
0,0,Cyprus,,,2021-04-04 01:20:42.332861,2020-06-01 00:00:00.000000,0.00133187,0.00287175,0.00631825,16,34,76,9,19,46,0.00076794,0.00159432,0.00386907,0.07684375,0.13451610,0.19220070
0,0,Cyprus,,,2021-04-04 01:20:42.332861,2020-06-02 00:00:00.000000,0.00124778,0.00282706,0.00629869,15,34,76,9,18,45,0.00079184,0.00155155,0.00379686,0.07675532,0.13440062,0.19613039
0,0,Cyprus,,,2021-04-04 01:20:42.332861,2020-06-03 00:00:00.000000,0.00116900,0.00271652,0.00613220,14,32,74,9,18,44,0.00074869,0.00153043,0.00367758,0.07606372,0.13435712,0.19680184
0,0,Cyprus,,,2021-04-04 01:20:42.332861,2020-06-04 00:00:00.000000,0.00109772,0.00264452,0.00590847,13,31,71,8,18,44,0.00070135,0.00151818,0.00364682,0.07941450,0.13423744,0.19710681
0,0,Cyprus,,,2021-04-04 01:20:42.332861,2020-06-05 00:00:00.000000,0.00103816,0.00253880,0.00603009,12,30,72,7,18,43,0.00065798,0.00152451,0.00360407,0.07967385,0.13612752,0.19714784
0,0,Cyprus,,,2021-04-04 01:20:42.332861,2020-06-06 00:00:00.000000,0.00102839,0.00254890,0.00618732,12,30,74,7,18,42,0.00063844,0.00149690,0.00356145,0.08120051,0.13912388,0.19714900
0,0,Cyprus,,,2021-04-04 01:20:42.332861,2020-06-07 00:00:00.000000,0.00102698,0.00255974,0.00655897,12,30,79,7,17,43,0.00062504,0.00146751,0.00360632,0.08428518,0.14090545,0.19944993
0,0,Cyprus,,,2021-04-04 01:20:42.332861,2020-06-08 00:00:00.000000,0.00108839,0.00250533,0.00648693,13,30,78,7,17,43,0.00061435,0.00144108,0.00356157,0.08216730,0.14391691,0.20347514
0,0,Cyprus,,,2021-04-04 01:20:42.332861,2020-06-09 00:00:00.000000,0.00107206,0.00246222,0.00643441,12,29,77,7,17,43,0.00063432,0.00143048,0.00357100,0.08628193,0.14772234,0.22702776
0,0,Cyprus,,,2021-04-04 01:20:42.332861,2020-06-10 00:00:00.000000,0.00114848,0.00244543,0.00625971,13,29,75,7,17,43,0.00063049,0.00141813,0.00361483,0.08650596,0.14991973,0.22804158
0,0,Cyprus,,,2021-04-04 01:20:42.332861,2020-06-11 00:00:00.000000,0.00122437,0.00248196,0.00611746,14,29,73,7,16,44,0.00065496,0.00140214,0.00367998,0.08684439,0.15447546,0.22845700
0,0,Cyprus,,,2021-04-04 01:20:42.332861,2020-06-12 00:00:00.000000,0.00117577,0.00247112,0.00597151,14,29,72,8,16,42,0.00070005,0.00140102,0.00355199,0.08716904,0.16144342,0.23216314
0,0,Cyprus,,,2021-04-04 01:20:42.332861,2020-06-13 00:00:00.000000,0.00112550,0.00243679,0.00583595,13,29,70,8,17,40,0.00066966,0.00141425,0.00334992,0.08747300,0.16511109,0.25266309
0,0,Cyprus,,,2021-04-04 01:20:42.332861,2020-06-14 00:00:00.000000,0.00108182,0.00240878,0.00573549,13,29,69,7,17,40,0.00064002,0.00141524,0.00331674,0.09038340,0.16775822,0.25663406
0,0,Cyprus,,,2021-04-04 01:20:42.332861,2020-06-15 00:00:00.000000,0.00109081,0.00238205,0.00566092,13,28,68,7,16,39,0.00061378,0.00139538,0.00329110,0.09261961,0.17010530,0.26118598
0,0,Cyprus,,,2021-04-04 01:20:42.332861,2020-06-16 00:00:00.000000,0.00122794,0.00242160,0.00561348,14,29,67,7,16,39,0.00064013,0.00138369,0.00324754,0.09261755,0.16772384,0.26339855
0,0,Cyprus,,,2021-04-04 01:20:42.332861,2020-06-17 00:00:00.000000,0.00139173,0.00241624,0.00558229,16,29,67,8,16,38,0.00070404,0.00138159,0.00319748,0.09261637,0.16892568,0.26629748
0,0,Cyprus,,,2021-04-04 01:20:42.332861,2020-06-18 00:00:00.000000,0.00144022,0.00243799,0.00556658,17,29,67,9,17,37,0.00077623,0.00141089,0.00314690,0.09261696,0.17000684,0.26901332
0,0,Cyprus,,,2021-04-04 01:20:42.332861,2020-06-19 00:00:00.000000,0.00145661,0.00240944,0.00596128,17,29,71,9,17,37,0.00081473,0.00142442,0.00309929,0.09262216,0.17668151,0.27071105
0,0,Cyprus,,,2021-04-04 01:20:42.332861,2020-06-20 00:00:00.000000,0.00138727,0.00245371,0.00637849,16,29,77,9,17,39,0.00079443,0.00140956,0.00329943,0.09264207,0.18397332,0.27167839
0,0,Cyprus,,,2021-04-04 01:20:42.332861,2020-06-21 00:00:00.000000,0.00133088,0.00248931,0.00680242,16,30,82,9,17,42,0.00077744,0.00142173,0.00354414,0.09271160,0.18740290,0.27616749
0,0,Cyprus,,,2021-04-04 01:20:42.332861,2020-06-22 00:00:00.000000,0.00127568,0.00263813,0.00663196,15,31,80,9,17,45,0.00076263,0.00148282,0.00378880,0.09294702,0.19558908,0.28047261
0,0,Cyprus,,,2021-04-04 01:20:42.332861,2020-06-23 00:00:00.000000,0.00128043,0.00266625,0.00648659,15,32,78,9,17,46,0.00075325,0.00148467,0.00383272,0.09369738,0.19886484,0.28776486
0,0,Cyprus,,,2021-04-04 01:20:42.332861,2020-06-24 00:00:00.000000,0.00135356,0.00262625,0.00632847,16,31,76,9,18,45,0.00074689,0.00152329,0.00379070,0.09595029,0.20222045,0.28949335
0,0,Cyprus,,,2021-04-04 01:20:42.332861,2020-06-25 00:00:00.000000,0.00140087,0.00262376,0.00618104,16,31,74,8,18,44,0.00074154,0.00149276,0.00371604,0.10756206,0.20491005,0.33030089
0,0,Cyprus,,,2021-04-04 01:20:42.332861,2020-06-26 00:00:00.000000,0.00140111,0.00267571,0.00618816,16,32,74,9,18,43,0.00076171,0.00153339,0.00363415,0.11912249,0.21112417,0.33076017
0,0,Cyprus,,,2021-04-04 01:20:42.332861,2020-06-27 00:00:00.000000,0.00146472,0.00272612,0.00646264,17,32,78,9,18,42,0.00080017,0.00156132,0.00355881,0.12960084,0.22122786,0.32490474
0,0,Cyprus,,,2021-04-04 01:20:42.332861,2020-06-28 00:00:00.000000,0.00152743,0.00277806,0.00702733,18,33,84,9,18,42,0.00081584,0.00156943,0.00353236,0.13296297,0.23119234,0.34234161
0,0,Cyprus,,,2021-04-04 01:20:42.332861,2020-06-29 00:00:00.000000,0.00155973,0.00285438,0.00723307,18,34,87,9,19,46,0.00077975,0.00158445,0.00383603,0.13327628,0.23381737,0.36565851
0,0,Cyprus,,,2021-04-04 01:20:42.332861,2020-06-30 00:00:00.000000,0.00159022,0.00294550,0.00746547,19,35,90,9,19,48,0.00081075,0.00158905,0.00403783,0.13353746,0.23782519,0.37375597
0,0,Cyprus,,,2021-04-04 01:20:42.332861,2020-07-01 00:00:00.000000,0.00161747,0.00313799,0.00769482,19,37,92,10,20,50,0.00087173,0.00168539,0.00419581,0.13410732,0.23993439,0.37859706
0,0,Cyprus,,,2021-04-04 01:20:42.332861,2020-07-02 00:00:00.000000,0.00164184,0.00329461,0.00792699,19,39,95,11,21,52,0.00094445,0.00174289,0.00433500,0.13560000,0.24900747,0.38597782
0,0,Cyprus,,,2021-04-04 01:20:42.332861,2020-07-03 00:00:00.000000,0.00169143,0.00327737,0.00816394,20,39,98,11,22,53,0.00093703,0.00182655,0.00446722,0.13907567,0.26196677,0.39464273
0,0,Cyprus,,,2021-04-04 01:20:42.332861,2020-07-04 00:00:00.000000,0.00180348,0.00343967,0.00840760,21,41,101,12,23,55,0.00099544,0.00190591,0.00459879,0.14196402,0.26481611,0.40411260
0,0,Cyprus,,,2021-04-04 01:20:42.332861,2020-07-05 00:00:00.000000,0.00191241,0.00358263,0.00865765,23,43,104,12,24,57,0.00103070,0.00201319,0.00473373,0.15370614,0.27449102,0.44089829
0,0,Cyprus,,,2021-04-04 01:20:42.332861,2020-07-06 00:00:00.000000,0.00216956,0.00374925,0.00915555,26,45,110,12,25,59,0.00106623,0.00207603,0.00494115,0.17379570,0.28110441,0.46485859
0,0,Cyprus,,,2021-04-04 01:20:42.332861,2020-07-07 00:00:00.000000,0.00228729,0.00391266,0.00974932,27,47,117,14,26,63,0.00116191,0.00216806,0.00525241,0.18197137,0.28981434,0.47521403
0,0,Cyprus,,,2021-04-04 01:20:42.332861,2020-07-08 00:00:00.000000,0.00238496,0.00411093,0.01040161,28,49,125,14,27,67,0.00123368,0.00226685,0.00558161,0.18348620,0.29766287,0.48384447
0,0,Cyprus,,,2021-04-04 01:20:42.332861,2020-07-09 00:00:00.000000,0.00248515,0.00436603,0.01111563,30,52,134,15,28,71,0.00130750,0.00233405,0.00594962,0.18537486,0.30262705,0.49002932
0,0,Cyprus,,,2021-04-04 01:20:42.332861,2020-07-10 00:00:00.000000,0.00258342,0.00467722,0.01189363,31,56,143,16,30,76,0.00138873,0.00249064,0.00632659,0.18854874,0.31266385,0.49982270
0,0,Cyprus,,,2021-04-04 01:20:42.332861,2020-07-11 00:00:00.000000,0.00271356,0.00491443,0.01262240,32,59,152,17,32,79,0.00147234,0.00268861,0.00658498,0.19359615,0.32648191,0.50547501
0,0,Cyprus,,,2021-04-04 01:20:42.332861,2020-07-12 00:00:00.000000,0.00284522,0.00516633,0.01320232,34,62,159,18,32,82,0.00153743,0.00271381,0.00686139,0.20138202,0.34516423,0.52597853
0,0,Cyprus,,,2021-04-04 01:20:42.332861,2020-07-13 00:00:00.000000,0.00301265,0.00557602,0.01380496,36,67,166,19,33,86,0.00161575,0.00275950,0.00716202,0.21205821,0.36096750,0.52609933
0,0,Cyprus,,,2021-04-04 01:20:42.332861,2020-07-14 00:00:00.000000,0.00321332,0.00587570,0.01457463,38,70,175,20,35,90,0.00169179,0.00294578,0.00748254,0.22511201,0.37503998,0.52614459
0,0,Cyprus,,,2021-04-04 01:20:42.332861,2020-07-15 00:00:00.000000,0.00345549,0.00628124,0.01544814,41,75,186,21,39,94,0.00179105,0.00328426,0.00785060,0.23890590,0.38441718,0.52616417
0,0,Cyprus,,,2021-04-04 01:20:42.332861,2020-07-16 00:00:00.000000,0.00364231,0.00670304,0.01638360,43,80,197,22,43,99,0.00190087,0.00360954,0.00827080,0.25128411,0.39325358,0.53021150
0,0,Cyprus,,,2021-04-04 01:20:42.332861,2020-07-17 00:00:00.000000,0.00384285,0.00697629,0.01751609,46,84,211,24,46,107,0.00201866,0.00383612,0.00889111,0.25961644,0.40399193,0.55272510
0,0,Cyprus,,,2021-04-04 01:20:42.332861,2020-07-18 00:00:00.000000,0.00406991,0.00739659,0.01885311,49,89,227,25,48,115,0.00214424,0.00404170,0.00957860,0.26181185,0.42057579,0.56468842
0,0,Cyprus,,,2021-04-04 01:20:42.332861,2020-07-19 00:00:00.000000,0.00425366,0.00802756,0.02028263,51,96,244,27,52,124,0.00227833,0.00432940,0.01031384,0.26304035,0.43930333,0.59208671
0,0,Cyprus,,,2021-04-04 01:20:42.332861,2020-07-20 00:00:00.000000,0.00459893,0.00862759,0.02207669,55,104,266,29,55,130,0.00241734,0.00457794,0.01084178,0.26570219,0.44824516,0.62643102
0,0,Cyprus,,,2021-04-04 01:20:42.332861,2020-07-21 00:00:00.000000,0.00503784,0.00940509,0.02397305,60,113,289,30,59,138,0.00255596,0.00488875,0.01145435,0.27047546,0.46026275,0.62678393
0,0,Cyprus,,,2021-04-04 01:20:42.332861,2020-07-22 00:00:00.000000,0.00553175,0.00997612,0.02545625,66,120,307,32,62,147,0.00270900,0.00520108,0.01223736,0.27584264,0.46261939,0.62548188
0,0,Cyprus,,,2021-04-04 01:20:42.332861,2020-07-23 00:00:00.000000,0.00606699,0.01060899,0.02640844,73,128,318,35,67,158,0.00290211,0.00555781,0.01316698,0.27619683,0.46524177,0.62937911
0,0,Cyprus,,,2021-04-04 01:20:42.332861,2020-07-24 00:00:00.000000,0.00663535,0.01149769,0.02739637,80,138,330,38,72,171,0.00317742,0.00596732,0.01418456,0.27629224,0.46841557,0.61921318
0,0,Cyprus,,,2021-04-04 01:20:42.332861,2020-07-25 00:00:00.000000,0.00723624,0.01251153,0.02841992,87,151,343,41,77,183,0.00347023,0.00638503,0.01519475,0.27621623,0.47858409,0.62507636
0,0,Cyprus,,,2021-04-04 01:20:42.332861,2020-07-26 00:00:00.000000,0.00787327,0.01355351,0.02950499,95,163,356,45,82,194,0.00377640,0.00685253,0.01613809,0.27602872,0.48730139,0.63094261
0,0,Cyprus,,,2021-04-04 01:20:42.332861,2020-07-27 00:00:00.000000,0.00868151,0.01450415,0.03151660,104,175,380,49,89,204,0.00413044,0.00742126,0.01697629,0.27579527,0.48883460,0.67027318
0,0,Cyprus,,,2021-04-04 01:20:42.332861,2020-07-28 00:00:00.000000,0.00957007,0.01540914,0.03391381,115,186,409,54,96,213,0.00454161,0.00803105,0.01764810,0.27592775,0.48637719,0.67497020
0,0,Cyprus,,,2021-04-04 01:20:42.332861,2020-07-29 00:00:00.000000,0.01016110,0.01606463,0.03599378,122,193,434,60,103,219,0.00500343,0.00859576,0.01820878,0.27606299,0.48350686,0.66569088
0,0,Cyprus,,,2021-04-04 01:20:42.332861,2020-07-30 00:00:00.000000,0.01053256,0.01701747,0.03681787,127,205,444,66,109,230,0.00550362,0.00904370,0.01910513,0.27622947,0.48079324,0.64737533
0,0,Cyprus,,,2021-04-04 01:20:42.332861,2020-07-31 00:00:00.000000,0.01082138,0.01848683,0.03764414,130,223,454,69,114,246,0.00576961,0.00947571,0.02037917,0.28411036,0.46977095,0.62707609
0,0,Cyprus,,,2021-04-04 01:20:42.332861,2020-08-01 00:00:00.000000,0.01132805,0.01987846,0.03910353,136,240,472,71,121,258,0.00592153,0.01008510,0.02143057,0.28593209,0.45626959,0.62650480
0,0,Cyprus,,,2021-04-04 01:20:42.332861,2020-08-02 00:00:00.000000,0.01184493,0.02119703,0.04090278,143,255,493,73,129,272,0.00609095,0.01069461,0.02253943,0.29000143,0.44334810,0.62535894
0,0,Cyprus,,,2021-04-04 01:20:42.332861,2020-08-03 00:00:00.000000,0.01215700,0.02183027,0.04256654,146,263,513,76,135,285,0.00631254,0.01120512,0.02363156,0.29222911,0.42973832,0.62278133
0,0,Cyprus,,,2021-04-04 01:20:42.332861,2020-08-04 00:00:00.000000,0.01290413,0.02232661,0.04388526,155,269,529,78,142,297,0.00653088,0.01179398,0.02466809,0.28328987,0.42341191,0.62094404
0,0,Cyprus,,,2021-04-04 01:20:42.332861,2020-08-05 00:00:00.000000,0.01316226,0.02333695,0.04493370,158,281,542,83,150,308,0.00689189,0.01243655,0.02556291,0.27664251,0.41858286,0.62054183
0,0,Cyprus,,,2021-04-04 01:20:42.332861,2020-08-06 00:00:00.000000,0.01331201,0.02409100,0.04575957,160,290,552,84,156,317,0.00700159,0.01300017,0.02629993,0.27352543,0.40787386,0.60497708
0,0,Cyprus,,,2021-04-04 01:20:42.332861,2020-08-07 00:00:00.000000,0.01385642,0.02511117,0.04646139,167,303,560,87,163,324,0.00725514,0.01353879,0.02690656,0.26897202,0.39253914,0.56064900
0,0,Cyprus,,,2021-04-04 01:20:42.332861,2020-08-08 00:00:00.000000,0.01451917,0.02623440,0.04709755,175,316,568,91,168,330,0.00753946,0.01394490,0.02741240,0.25367889,0.38186573,0.54822914
0,0,Cyprus,,,2021-04-04 01:20:42.332861,2020-08-09 00:00:00.000000,0.01495843,0.02731945,0.04769575,180,329,575,95,176,336,0.00787939,0.01460556,0.02783297,0.24713126,0.36962951,0.54384828
0,0,Cyprus,,,2021-04-04 01:20:42.332861,2020-08-10 00:00:00.000000,0.01540046,0.02753151,0.04810427,185,332,580,100,185,340,0.00828977,0.01532986,0.02821519,0.24544197,0.36055733,0.53102296
0,0,Cyprus,,,2021-04-04 01:20:42.332861,2020-08-11 00:00:00.000000,0.01583679,0.02787830,0.04867809,191,336,587,104,189,346,0.00867117,0.01567491,0.02873874,0.24418587,0.35416873,0.49877915
0,0,Cyprus,,,2021-04-04 01:20:42.332861,2020-08-12 00:00:00.000000,0.01626757,0.02796910,0.05014705,196,337,605,105,193,357,0.00875671,0.01604205,0.02964065,0.24216704,0.34691383,0.49164641
0,0,Cyprus,,,2021-04-04 01:20:42.332861,2020-08-13 00:00:00.000000,0.01668182,0.02805062,0.05163852,201,338,623,106,196,368,0.00884689,0.01626173,0.03056049,0.23854205,0.33830482,0.48509155
0,0,Cyprus,,,2021-04-04 01:20:42.332861,2020-08-14 00:00:00.000000,0.01706814,0.02864388,0.05305456,206,345,640,107,199,380,0.00893521,0.01648563,0.03148625,0.23480415,0.32663912,0.46179388
0,0,Cyprus,,,2021-04-04 01:20:42.332861,2020-08-15 00:00:00.000000,0.01733326,0.02873501,0.05378795,209,346,649,108,198,379,0.00901428,0.01646623,0.03144344,0.23231711,0.32257777,0.44331523
0,0,Cyprus,,,2021-04-04 01:20:42.332861,2020-08-16 00:00:00.000000,0.01708834,0.02859630,0.05325030,206,345,642,109,200,376,0.00907330,0.01664168,0.03120036,0.22370377,0.31457449,0.42389242
0,0,Cyprus,,,2021-04-04 01:20:42.332861,2020-08-17 00:00:00.000000,0.01680507,0.02851256,0.05268019,202,344,636,109,202,373,0.00910468,0.01673870,0.03091918,0.22083607,0.30630581,0.42685654
0,0,Cyprus,,,2021-04-04 01:20:42.332861,2020-08-18 00:00:00.000000,0.01647671,0.02814721,0.05206733,198,339,628,112,199,369,0.00935032,0.01656505,0.03060936,0.21835131,0.30076824,0.41116699
0,0,Cyprus,,,2021-04-04 01:20:42.332861,2020-08-19 00:00:00.000000,0.01624381,0.02804504,0.05152981,196,338,622,113,199,365,0.00938988,0.01650400,0.03027360,0.21430798,0.29819009,0.39705028
0,0,Cyprus,,,2021-04-04 01:20:42.332861,2020-08-20 00:00:00.000000,0.01596483,0.02802802,0.05130806,192,338,619,113,199,361,0.00941608,0.01653632,0.02990615,0.20947392,0.29492675,0.39584959
0,0,Cyprus,,,2021-04-04 01:20:42.332861,2020-08-21 00:00:00.000000,0.01569463,0.02785730,0.05050863,189,336,609,111,199,359,0.00925464,0.01653938,0.02980503,0.20178454,0.28798510,0.39280192
0,0,Cyprus,,,2021-04-04 01:20:42.332861,2020-08-22 00:00:00.000000,0.01543371,0.02749782,0.04941655,186,331,596,109,198,358,0.00909736,0.01641344,0.02969482,0.19146776,0.28285160,0.39010211
0,0,Cyprus,,,2021-04-04 01:20:42.332861,2020-08-23 00:00:00.000000,0.01518246,0.02723504,0.04820577,183,328,582,107,195,352,0.00894483,0.01615730,0.02917292,0.18483135,0.27827752,0.38606444
0,0,Cyprus,,,2021-04-04 01:20:42.332861,2020-08-24 00:00:00.000000,0.01477992,0.02658488,0.04686740,178,320,565,106,191,342,0.00879743,0.01588962,0.02838907,0.18149170,0.27208300,0.37459508
0,0,Cyprus,,,2021-04-04 01:20:42.332861,2020-08-25 00:00:00.000000,0.01455513,0.02605687,0.04552694,175,314,549,103,188,332,0.00860504,0.01562651,0.02750454,0.17983539,0.26915523,0.36136449
0,0,Cyprus,,,2021-04-04 01:20:42.332861,2020-08-26 00:00:00.000000,0.01463654,0.02538946,0.04431977,176,306,535,101,186,320,0.00839224,0.01547417,0.02658633,0.17970041,0.27031952,0.35852979
0,0,Cyprus,,,2021-04-04 01:20:42.332861,2020-08-27 00:00:00.000000,0.01464614,0.02484849,0.04331088,176,300,522,98,181,313,0.00817080,0.01505012,0.02598444,0.18268349,0.27006853,0.35649038
0,0,Cyprus,,,2021-04-04 01:20:42.332861,2020-08-28 00:00:00.000000,0.01436478,0.02461798,0.04304422,173,297,519,97,179,314,0.00808816,0.01484537,0.02606934,0.19180273,0.27495022,0.35344120
0,0,Cyprus,,,2021-04-04 01:20:42.332861,2020-08-29 00:00:00.000000,0.01421364,0.02448248,0.04231869,171,295,510,98,175,321,0.00818119,0.01454392,0.02663843,0.20513210,0.27274728,0.35623170
0,0,Cyprus,,,2021-04-04 01:20:42.332861,2020-08-30 00:00:00.000000,0.01411016,0.02440603,0.04294780,170,294,518,100,171,323,0.00831573,0.01424514,0.02682150,0.20753143,0.27323333,0.36347156
0,0,Cyprus,,,2021-04-04 01:20:42.332861,2020-08-31 00:00:00.000000,0.01381284,0.02414011,0.04375634,166,291,528,102,171,314,0.00848083,0.01418229,0.02600766,0.20861380,0.27649661,0.37569860
0,0,Cyprus,,,2021-04-04 01:20:42.332861,2020-09-01 00:00:00.000000,0.01355440,0.02380231,0.04462111,163,287,538,102,167,309,0.00851119,0.01389429,0.02564104,0.21842643,0.28057290,0.37936390
0,0,Cyprus,,,2021-04-04 01:20:42.332861,2020-09-02 00:00:00.000000,0.01338962,0.02377968,0.04410985,161,287,532,100,165,315,0.00836360,0.01371211,0.02611255,0.21913530,0.28344895,0.38439979
0,0,Cyprus,,,2021-04-04 01:20:42.332861,2020-09-03 00:00:00.000000,0.01326988,0.02345742,0.04345591,160,283,524,99,164,310,0.00821904,0.01364459,0.02574026,0.22105831,0.28755674,0.39241707
0,0,Cyprus,,,2021-04-04 01:20:42.332861,2020-09-04 00:00:00.000000,0.01318022,0.02329213,0.04293779,159,281,518,98,162,305,0.00811711,0.01347218,0.02533978,0.22962094,0.29540420,0.41792983
0,0,Cyprus,,,2021-04-04 01:20:42.332861,2020-09-05 00:00:00.000000,0.01312242,0.02337937,0.04273792,158,282,516,97,165,301,0.00804317,0.01367184,0.02498950,0.23466368,0.30457995,0.44664120
0,0,Cyprus,,,2021-04-04 01:20:42.332861,2020-09-06 00:00:00.000000,0.01310052,0.02404465,0.04340884,158,290,524,95,165,298,0.00794510,0.01370275,0.02474519,0.23486824,0.32084566,0.44756635
0,0,Cyprus,,,2021-04-04 01:20:42.332861,2020-09-07 00:00:00.000000,0.01324874,0.02426554,0.04418761,159,292,533,94,165,304,0.00782930,0.01370445,0.02519225,0.23603250,0.32961817,0.45999989
0,0,Cyprus,,,2021-04-04 01:20:42.332861,2020-09-08 00:00:00.000000,0.01345915,0.02492790,0.04382622,162,300,529,93,165,311,0.00774721,0.01373840,0.02584020,0.23916011,0.34245616,0.46145910
0,0,Cyprus,,,2021-04-04 01:20:42.332861,2020-09-09 00:00:00.000000,0.01375604,0.02506167,0.04346251,166,302,524,92,166,320,0.00769276,0.01376717,0.02655602,0.25728522,0.34921774,0.46385998
0,0,Cyprus,,,2021-04-04 01:20:42.332861,2020-09-10 00:00:00.000000,0.01387727,0.02558518,0.04391919,167,308,530,94,168,329,0.00785018,0.01399647,0.02731348,0.25747762,0.35388623,0.47326751
0,0,Cyprus,,,2021-04-04 01:20:42.332861,2020-09-11 00:00:00.000000,0.01406109,0.02610546,0.04525073,169,315,546,95,170,330,0.00794263,0.01411603,0.02740729,0.28332252,0.37458176,0.50483166
0,0,Cyprus,,,2021-04-04 01:20:42.332861,2020-09-12 00:00:00.000000,0.01441068,0.02713428,0.04665808,173,327,563,96,176,338,0.00799928,0.01457755,0.02806492,0.28362554,0.38577590,0.54041444
0,0,Cyprus,,,2021-04-04 01:20:42.332861,2020-09-13 00:00:00.000000,0.01489891,0.02806717,0.04826384,179,338,582,97,180,347,0.00808831,0.01495010,0.02881130,0.28394086,0.40578237,0.55892713
0,0,Cyprus,,,2021-04-04 01:20:42.332861,2020-09-14 00:00:00.000000,0.01578862,0.02926508,0.04956516,190,353,598,99,188,350,0.00824054,0.01563258,0.02902398,0.30290228,0.42483881,0.57859578
0,0,Cyprus,,,2021-04-04 01:20:42.332861,2020-09-15 00:00:00.000000,0.01674925,0.03060623,0.05079888,202,369,613,103,195,359,0.00859012,0.01617866,0.02980251,0.28644474,0.43630057,0.59033813
0,0,Cyprus,,,2021-04-04 01:20:42.332861,2020-09-16 00:00:00.000000,0.01708356,0.03199772,0.05320431,206,386,642,111,203,373,0.00920739,0.01684623,0.03091412,0.29751986,0.44116342,0.59214680
0,0,Cyprus,,,2021-04-04 01:20:42.332861,2020-09-17 00:00:00.000000,0.01790485,0.03360718,0.05724176,216,405,691,114,212,389,0.00951727,0.01759499,0.03225935,0.32353478,0.45667938,0.59926343
0,0,Cyprus,,,2021-04-04 01:20:42.332861,2020-09-18 00:00:00.000000,0.01873833,0.03541264,0.06205406,226,427,749,120,226,409,0.01002028,0.01874814,0.03394643,0.33490769,0.47062225,0.60764217
0,0,Cyprus,,,2021-04-04 01:20:42.332861,2020-09-19 00:00:00.000000,0.01931155,0.03771781,0.06583165,233,455,794,128,241,435,0.01061369,0.01999049,0.03606060,0.34762535,0.48346440,0.65183204
0,0,Cyprus,,,2021-04-04 01:20:42.332861,2020-09-20 00:00:00.000000,0.02005916,0.04020501,0.06993882,242,485,844,131,255,466,0.01087971,0.02118440,0.03863682,0.35136411,0.50832615,0.68385760
0,0,Cyprus,,,2021-04-04 01:20:42.332861,2020-09-21 00:00:00.000000,0.02087645,0.04217927,0.07570247,252,509,914,137,268,502,0.01138020,0.02223212,0.04164345,0.36686690,0.53030125,0.69684218
0,0,Cyprus,,,2021-04-04 01:20:42.332861,2020-09-22 00:00:00.000000,0.02190922,0.04563463,0.08203150,264,550,990,143,280,543,0.01189570,0.02319343,0.04498303,0.40686566,0.53698863,0.70496213
0,0,Cyprus,,,2021-04-04 01:20:42.332861,2020-09-23 00:00:00.000000,0.02345138,0.04883489,0.08892482,283,589,1073,151,293,589,0.01257542,0.02427219,0.04885349,0.40653510,0.55182313,0.70769938
0,0,Cyprus,,,2021-04-04 01:20:42.332861,2020-09-24 00:00:00.000000,0.02531217,0.05222720,0.09641241,305,630,1164,161,315,636,0.01341013,0.02614324,0.05272042,0.40639940,0.57455819,0.70960589
0,0,Cyprus,,,2021-04-04 01:20:42.332861,2020-09-25 00:00:00.000000,0.02757137,0.05580929,0.10453658,332,673,1262,174,341,689,0.01441649,0.02830008,0.05714860,0.41305850,0.59456803,0.72171090
0,0,Cyprus,,,2021-04-04 01:20:42.332861,2020-09-26 00:00:00.000000,0.03026875,0.06038653,0.11334756,365,729,1368,188,366,748,0.01557294,0.03034918,0.06195834,0.42341905,0.60462140,0.76293042
0,0,Cyprus,,,2021-04-04 01:20:42.332861,2020-09-27 00:00:00.000000,0.03343178,0.06641973,0.12288026,403,801,1483,205,398,811,0.01704668,0.03299992,0.06717690,0.43126356,0.62675383,0.79057683
0,0,Cyprus,,,2021-04-04 01:20:42.332861,2020-09-28 00:00:00.000000,0.03752087,0.07315813,0.13285727,453,883,1604,226,435,879,0.01875908,0.03603502,0.07282854,0.45085830,0.64125969,0.82475383
0,0,Cyprus,,,2021-04-04 01:20:42.332861,2020-09-29 00:00:00.000000,0.04209958,0.07896657,0.14070764,508,953,1698,251,477,951,0.02083015,0.03954018,0.07882188,0.46479548,0.64284613,0.84784183
0,0,Cyprus,,,2021-04-04 01:20:42.332861,2020-09-30 00:00:00.000000,0.04738156,0.08662363,0.14763486,572,1045,1782,280,528,1016,0.02325885,0.04375580,0.08417299,0.47152413,0.64513235,0.85903842
0,0,Cyprus,,,2021-04-04 01:20:42.332861,2020-10-01 00:00:00.000000,0.05329281,0.09653677,0.15871923,643,1165,1916,315,577,1072,0.02612030,0.04780201,0.08886316,0.47703632,0.66696141,0.86338713
0,0,Cyprus,,,2021-04-04 01:20:42.332861,2020-10-02 00:00:00.000000,0.06047998,0.10573329,0.17999064,730,1276,2173,356,623,1127,0.02953741,0.05166584,0.09334547,0.48043192,0.68139215,0.86363704
0,0,Cyprus,,,2021-04-04 01:20:42.332861,2020-10-03 00:00:00.000000,0.06859174,0.11781401,0.20303191,828,1422,2451,404,683,1181,0.03347334,0.05658776,0.09787919,0.48233569,0.69465700,0.85981889
0,0,Cyprus,,,2021-04-04 01:20:42.332861,2020-10-04 00:00:00.000000,0.07791734,0.13088322,0.22681088,940,1580,2738,458,755,1259,0.03798806,0.06259183,0.10430688,0.48397991,0.71455947,0.87646820
0,0,Cyprus,,,2021-04-04 01:20:42.332861,2020-10-05 00:00:00.000000,0.08855567,0.14581606,0.25527591,1069,1760,3082,518,845,1392,0.04298433,0.07005955,0.11536843,0.50699965,0.73538813,0.90536401
0,0,Cyprus,,,2021-04-04 01:20:42.332861,2020-10-06 00:00:00.000000,0.10007241,0.16216210,0.28983732,1208,1957,3499,581,937,1534,0.04819623,0.07767144,0.12705628,0.59884778,0.74320993,0.93867658
0,0,Cyprus,,,2021-04-04 01:20:42.332861,2020-10-07 00:00:00.000000,0.11334230,0.18135702,0.32855649,1368,2189,3966,653,1054,1695,0.05413332,0.08734970,0.14045892,0.59755007,0.74771245,0.93961973
0,0,Cyprus,,,2021-04-04 01:20:42.332861,2020-10-08 00:00:00.000000,0.12919820,0.20238146,0.37151634,1559,2443,4485,735,1176,1905,0.06092270,0.09744863,0.15786188,0.59657157,0.74914105,0.93972101
0,0,Cyprus,,,2021-04-04 01:20:42.332861,2020-10-09 00:00:00.000000,0.14597287,0.22549562,0.41846689,1762,2722,5052,821,1308,2157,0.06804970,0.10835318,0.17872610,0.59559483,0.74431279,0.93936900
0,0,Cyprus,,,2021-04-04 01:20:42.332861,2020-10-10 00:00:00.000000,0.16315639,0.25265323,0.46866192,1969,3050,5658,912,1448,2435,0.07559629,0.11996674,0.20175610,0.59709919,0.73531565,0.93817544
0,0,Cyprus,,,2021-04-04 01:20:42.332861,2020-10-11 00:00:00.000000,0.18194146,0.28008903,0.51567251,2196,3381,6226,1012,1620,2737,0.08383847,0.13419296,0.22673393,0.58059272,0.72173312,0.93509289
0,0,Cyprus,,,2021-04-04 01:20:42.332861,2020-10-12 00:00:00.000000,0.20305511,0.30707439,0.56049661,2451,3707,6767,1127,1843,3057,0.09334602,0.15272972,0.25321218,0.57825384,0.71338951,0.92854976
0,0,Cyprus,,,2021-04-04 01:20:42.332861,2020-10-13 00:00:00.000000,0.22450548,0.34407972,0.60664196,2710,4154,7324,1261,2022,3387,0.10449134,0.16752097,0.28060512,0.57696294,0.70528506,0.91696362
0,0,Cyprus,,,2021-04-04 01:20:42.332861,2020-10-14 00:00:00.000000,0.24860265,0.38403535,0.67913224,3001,4636,8199,1417,2228,3722,0.11740104,0.18454085,0.30835601,0.57406970,0.69854723,0.91496434
0,0,Cyprus,,,2021-04-04 01:20:42.332861,2020-10-15 00:00:00.000000,0.27480204,0.42247422,0.73212545,3317,5100,8839,1585,2454,4113,0.13128304,0.20326943,0.34067308,0.56798149,0.68596733,0.90853321
0,0,Cyprus,,,2021-04-04 01:20:42.332861,2020-10-16 00:00:00.000000,0.30320725,0.46773067,0.78578158,3660,5647,9487,1761,2713,4609,0.14587405,0.22473923,0.38178652,0.52333334,0.66574332,0.86265168
0,0,Cyprus,,,2021-04-04 01:20:42.332861,2020-10-17 00:00:00.000000,0.33422304,0.51429663,0.83772229,4035,6209,10114,1951,3003,5161,0.16162979,0.24875055,0.42752167,0.47525524,0.64088810,0.84082968
0,0,Cyprus,,,2021-04-04 01:20:42.332861,2020-10-18 00:00:00.000000,0.36643988,0.55290671,0.89803942,4424,6675,10842,2164,3286,5629,0.17928766,0.27216893,0.46630408,0.46405730,0.61474550,0.85154289
0,0,Cyprus,,,2021-04-04 01:20:42.332861,2020-10-19 00:00:00.000000,0.39140471,0.59701546,0.96495763,4725,7208,11650,2362,3579,6090,0.19570809,0.29646884,0.50448830,0.45828513,0.58377750,0.79708910
0,0,Cyprus,,,2021-04-04 01:20:42.332861,2020-10-20 00:00:00.000000,0.41523980,0.63811064,1.03145324,5013,7704,12453,2557,3900,6561,0.21183586,0.32305871,0.54342367,0.44921348,0.56567513,0.73139168
0,0,Cyprus,,,2021-04-04 01:20:42.332861,2020-10-21 00:00:00.000000,0.44037603,0.68258116,1.09588687,5316,8241,13231,2729,4194,7033,0.22610013,0.34744755,0.58255705,0.42404426,0.54725814,0.69569557
0,0,Cyprus,,,2021-04-04 01:20:42.332861,2020-10-22 00:00:00.000000,0.46689031,0.72020819,1.15759332,5637,8695,13976,2912,4486,7503,0.24124742,0.37156384,0.62144953,0.40826373,0.52759001,0.68568042
0,0,Cyprus,,,2021-04-04 01:20:42.332861,2020-10-23 00:00:00.000000,0.49355275,0.75986319,1.21743924,5958,9174,14698,3080,4797,7957,0.25512784,0.39737106,0.65906308,0.37633427,0.51217698,0.68189885
0,0,Cyprus,,,2021-04-04 01:20:42.332861,2020-10-24 00:00:00.000000,0.52095151,0.78834198,1.30575916,6289,9518,15765,3260,5052,8391,0.27003286,0.41843545,0.69506029,0.36851953,0.48184705,0.66880141
0,0,Cyprus,,,2021-04-04 01:20:42.332861,2020-10-25 00:00:00.000000,0.54271084,0.81692966,1.39218007,6552,9863,16808,3432,5337,8945,0.28427534,0.44205555,0.74089448,0.36030944,0.46840460,0.64051078
0,0,Cyprus,,,2021-04-04 01:20:42.332861,2020-10-26 00:00:00.000000,0.56283759,0.83652374,1.44960933,6795,10099,17502,3596,5576,9275,0.29787408,0.46186710,0.76825457,0.35983331,0.46399397,0.57857697
0,0,Cyprus,,,2021-04-04 01:20:42.332861,2020-10-27 00:00:00.000000,0.58642764,0.85929942,1.48858890,7080,10374,17972,3777,5730,9752,0.31287408,0.47466615,0.80774136,0.35482655,0.45875642,0.57203397
0,0,Cyprus,,,2021-04-04 01:20:42.332861,2020-10-28 00:00:00.000000,0.60830557,0.88183395,1.52059141,7344,10646,18359,3919,5995,10245,0.32465691,0.49659638,0.84861157,0.35057282,0.45091885,0.56868812
0,0,Cyprus,,,2021-04-04 01:20:42.332861,2020-10-29 00:00:00.000000,0.62063551,0.90930925,1.58444079,7493,10978,19129,4084,6178,10729,0.33832561,0.51171010,0.88865153,0.33466174,0.44586611,0.56680727
0,0,Cyprus,,,2021-04-04 01:20:42.332861,2020-10-30 00:00:00.000000,0.62612245,0.95019690,1.64873611,7559,11472,19906,4254,6408,11196,0.35236585,0.53078796,0.92733466,0.34182368,0.43597555,0.56247214
0,0,Cyprus,,,2021-04-04 01:20:42.332861,2020-10-31 00:00:00.000000,0.63087732,0.98466315,1.71136018,7616,11888,20662,4393,6618,11646,0.36385301,0.54821543,0.96465369,0.32977056,0.42442435,0.54979954
0,0,Cyprus,,,2021-04-04 01:20:42.332861,2020-11-01 00:00:00.000000,0.64377726,1.01728317,1.76984222,7772,12282,21368,4520,6804,12085,0.37439260,0.56356453,1.00102136,0.33472967,0.41517675,0.55245005
0,0,Cyprus,,,2021-04-04 01:20:42.332861,2020-11-02 00:00:00.000000,0.65658508,1.03983537,1.82158263,7927,12554,21993,4649,6940,12519,0.38513067,0.57481642,1.03693951,0.33758135,0.40072176,0.55022946
0,0,Cyprus,,,2021-04-04 01:20:42.332861,2020-11-03 00:00:00.000000,0.66772198,1.04919716,1.86404341,8061,12667,22505,4781,7099,12952,0.39606806,0.58803540,1.07278241,0.32743346,0.39501476,0.52241579
0,0,Cyprus,,,2021-04-04 01:20:42.332861,2020-11-04 00:00:00.000000,0.68255391,1.06207967,1.89616509,8240,12823,22893,4882,7232,13386,0.40443357,0.59907262,1.10871308,0.31597924,0.39016158,0.51070354
0,0,Cyprus,,,2021-04-04 01:20:42.332861,2020-11-05 00:00:00.000000,0.70090705,1.07391196,1.92237033,8462,12965,23209,4984,7336,13820,0.41284283,0.60764761,1.14465027,0.31482095,0.38134951,0.47610768
0,0,Cyprus,,,2021-04-04 01:20:42.332861,2020-11-06 00:00:00.000000,0.71593038,1.08724804,1.97234392,8643,13127,23813,5081,7505,14249,0.42087525,0.62165460,1.18021859,0.30552225,0.37648542,0.47588772
0,0,Cyprus,,,2021-04-04 01:20:42.332861,2020-11-07 00:00:00.000000,0.72454298,1.10006692,2.02158461,8747,13281,24407,5159,7596,14665,0.42730904,0.62916623,1.21467356,0.30566550,0.37290779,0.48812731
0,0,Cyprus,,,2021-04-04 01:20:42.332861,2020-11-08 00:00:00.000000,0.72649145,1.11289036,2.06374905,8771,13436,24916,5182,7631,15054,0.42921878,0.63211696,1.24686659,0.30559642,0.37242746,0.50300473
0,0,Cyprus,,,2021-04-04 01:20:42.332861,2020-11-09 00:00:00.000000,0.72407586,1.12904049,2.09750082,8742,13631,25324,5194,7673,15378,0.43023935,0.63558261,1.27369123,0.29956082,0.37441742,0.50724450
0,0,Cyprus,,,2021-04-04 01:20:42.332861,2020-11-10 00:00:00.000000,0.71989338,1.13819273,2.16009030,8691,13742,26080,5200,7793,15568,0.43073111,0.64549819,1.28950508,0.29743557,0.37259981,0.50534924
0,0,Cyprus,,,2021-04-04 01:20:42.332861,2020-11-11 00:00:00.000000,0.71503909,1.14895015,2.22102647,8633,13871,26815,5202,7879,15746,0.43091478,0.65264649,1.30418258,0.29571660,0.37264541,0.47218156
0,0,Cyprus,,,2021-04-04 01:20:42.332861,2020-11-12 00:00:00.000000,0.71038596,1.17336252,2.24423721,8576,14166,27096,5204,7956,15914,0.43104516,0.65897189,1.31810517,0.29727311,0.37604293,0.48041717
0,0,Cyprus,,,2021-04-04 01:20:42.332861,2020-11-13 00:00:00.000000,0.71475240,1.18977075,2.26760945,8629,14364,27378,5205,8142,16077,0.43117018,0.67444148,1.33163279,0.29933621,0.37658915,0.48865649
0,0,Cyprus,,,2021-04-04 01:20:42.332861,2020-11-14 00:00:00.000000,0.73284355,1.21014710,2.29258931,8848,14610,27679,5207,8219,16241,0.43130730,0.68081376,1.34517798,0.31003790,0.38224265,0.49662728
0,0,Cyprus,,,2021-04-04 01:20:42.332861,2020-11-15 00:00:00.000000,0.75913033,1.23422149,2.32070587,9165,14901,28019,5210,8339,16411,0.43157873,0.69074568,1.35930462,0.30700182,0.38734361,0.50266230
0,0,Cyprus,,,2021-04-04 01:20:42.332861,2020-11-16 00:00:00.000000,0.77051858,1.26075281,2.35354367,9302,15221,28415,5217,8642,16598,0.43218077,0.71578163,1.37480714,0.30491311,0.39247307,0.51009076
0,0,Cyprus,,,2021-04-04 01:20:42.332861,2020-11-17 00:00:00.000000,0.77557031,1.28701584,2.39218240,9363,15538,28882,5231,8878,16813,0.43329984,0.73536095,1.39258007,0.30861410,0.39677457,0.50890244
0,0,Cyprus,,,2021-04-04 01:20:42.332861,2020-11-18 00:00:00.000000,0.78083978,1.30886758,2.43601424,9427,15802,29411,5331,9079,17064,0.44155418,0.75205042,1.41337834,0.31417235,0.40386532,0.51073473
0,0,Cyprus,,,2021-04-04 01:20:42.332861,2020-11-19 00:00:00.000000,0.78626513,1.33411332,2.48352305,9493,16107,29985,5561,9248,17308,0.46065081,0.76598937,1.43356793,0.31458184,0.40646017,0.51257690
0,0,Cyprus,,,2021-04-04 01:20:42.332861,2020-11-20 00:00:00.000000,0.79170997,1.36500482,2.53329783,9558,16480,30586,5678,9431,17553,0.47029605,0.78117849,1.45389876,0.31714832,0.40970529,0.51559954
0,0,Cyprus,,,2021-04-04 01:20:42.332861,2020-11-21 00:00:00.000000,0.80942074,1.39940017,2.58447796,9772,16895,31203,5714,9651,17813,0.47330304,0.79935050,1.47540032,0.32378296,0.41125083,0.51845681
0,0,Cyprus,,,2021-04-04 01:20:42.332861,2020-11-22 00:00:00.000000,0.83241856,1.43397349,2.63692056,10050,17313,31837,5751,9834,18080,0.47635448,0.81455298,1.49752954,0.33511930,0.41667825,0.52124741
0,0,Cyprus,,,2021-04-04 01:20:42.332861,2020-11-23 00:00:00.000000,0.85613350,1.45535455,2.69094885,10336,17571,32489,5790,9963,18350,0.47961878,0.82523402,1.51989664,0.33560329,0.42072943,0.54229198
0,0,Cyprus,,,2021-04-04 01:20:42.332861,2020-11-24 00:00:00.000000,0.88082114,1.46930662,2.74734527,10634,17739,33170,5837,10184,18620,0.48351293,0.84354282,1.54228169,0.34533322,0.42494661,0.56148280
0,0,Cyprus,,,2021-04-04 01:20:42.332861,2020-11-25 00:00:00.000000,0.90684962,1.51147401,2.80761593,10948,18248,33898,5896,10377,18889,0.48838633,0.85953528,1.56456229,0.35522214,0.42630597,0.56318586
0,0,Cyprus,,,2021-04-04 01:20:42.332861,2020-11-26 00:00:00.000000,0.93468979,1.55993085,2.87410497,11285,18833,34700,5985,10627,19156,0.49571753,0.88024204,1.58668194,0.36426597,0.42983855,0.56357897
0,0,Cyprus,,,2021-04-04 01:20:42.332861,2020-11-27 00:00:00.000000,0.96490272,1.61338130,2.93093376,11649,19479,35386,6243,10967,19422,0.51712572,0.90835334,1.60865801,0.37366039,0.43475547,0.56222104
0,0,Cyprus,,,2021-04-04 01:20:42.332861,2020-11-28 00:00:00.000000,0.99798431,1.67484813,2.99102794,12049,20221,36112,6505,11284,19770,0.53878936,0.93460852,1.63747818,0.37740509,0.44100444,0.56832374
0,0,Cyprus,,,2021-04-04 01:20:42.332861,2020-11-29 00:00:00.000000,1.03419016,1.74701468,3.01995427,12486,21092,36461,6756,11566,20196,0.55959942,0.95800643,1.67278388,0.37780179,0.45085880,0.57221947
0,0,Cyprus,,,2021-04-04 01:20:42.332861,2020-11-30 00:00:00.000000,1.07365253,1.80440534,3.05445391,12962,21785,36878,7001,11913,20617,0.57987269,0.98672475,1.70766526,0.37097202,0.46368215,0.57395979
0,0,Cyprus,,,2021-04-04 01:20:42.332861,2020-12-01 00:00:00.000000,1.11606561,1.87274737,3.09480162,13474,22610,37365,7245,12328,21035,0.60008642,1.02108526,1.74226013,0.36883368,0.47163324,0.59469147
0,0,Cyprus,,,2021-04-04 01:20:42.332861,2020-12-02 00:00:00.000000,1.16115101,1.95170140,3.14021703,14019,23564,37913,7492,12738,21695,0.62058633,1.05503769,1.79696451,0.37236758,0.47472254,0.59579534
0,0,Cyprus,,,2021-04-04 01:20:42.332861,2020-12-03 00:00:00.000000,1.20846644,2.02468518,3.18952825,14590,24445,38509,7749,13216,22492,0.64185691,1.09465306,1.86297195,0.37996661,0.48097735,0.58838018
0,0,Cyprus,,,2021-04-04 01:20:42.332861,2020-12-04 00:00:00.000000,1.25735290,2.09495823,3.32679824,15180,25293,40166,8069,13774,23331,0.66834442,1.14089584,1.93245315,0.38387473,0.48286940,0.59436903
0,0,Cyprus,,,2021-04-04 01:20:42.332861,2020-12-05 00:00:00.000000,1.30390798,2.16643791,3.44809922,15742,26156,41631,8571,14311,24197,0.70994646,1.18538220,2.00420538,0.39011225,0.48642568,0.59711844
0,0,Cyprus,,,2021-04-04 01:20:42.332861,2020-12-06 00:00:00.000000,1.36151941,2.22991734,3.51114795,16438,26923,42392,9104,14699,24647,0.75412149,1.21752941,2.04142061,0.39277102,0.48456076,0.59377994
0,0,Cyprus,,,2021-04-04 01:20:42.332861,2020-12-07 00:00:00.000000,1.41695463,2.29152237,3.63369555,17107,27666,43871,9456,15117,24983,0.78321071,1.25215101,2.06922832,0.38516557,0.48764606,0.59979600
0,0,Cyprus,,,2021-04-04 01:20:42.332861,2020-12-08 00:00:00.000000,1.47199390,2.35600993,3.74943040,17772,28445,45269,9781,15567,25313,0.81013019,1.28937703,2.09656724,0.38563101,0.48333516,0.60962970
0,0,Cyprus,,,2021-04-04 01:20:42.332861,2020-12-09 00:00:00.000000,1.52266194,2.42838249,3.85972722,18384,29319,46600,10096,15998,25681,0.83624776,1.32509515,2.12706837,0.38619741,0.48107289,0.61133923
0,0,Cyprus,,,2021-04-04 01:20:42.332861,2020-12-10 00:00:00.000000,1.57551835,2.50930421,3.96847071,19022,30296,47913,10374,16486,26305,0.85929434,1.36551163,2.17874106,0.38290020,0.48010977,0.60620282
0,0,Cyprus,,,2021-04-04 01:20:42.332861,2020-12-11 00:00:00.000000,1.62945653,2.61036691,4.11932538,19673,31516,49735,10588,17005,27352,0.87700366,1.40848393,2.26545777,0.37441960,0.46808300,0.58659908
0,0,Cyprus,,,2021-04-04 01:20:42.332861,2020-12-12 00:00:00.000000,1.68271236,2.69221473,4.29134478,20316,32504,51812,10806,17508,28468,0.89503627,1.45010702,2.35788795,0.36960410,0.46284281,0.59314753
0,0,Cyprus,,,2021-04-04 01:20:42.332861,2020-12-13 00:00:00.000000,1.72759630,2.76692288,4.47097508,20858,33406,53980,11030,18008,29654,0.91362022,1.49157653,2.45615221,0.36973504,0.46557602,0.58524248
0,0,Cyprus,,,2021-04-04 01:20:42.332861,2020-12-14 00:00:00.000000,1.77266668,2.80972178,4.65421798,21402,33923,56193,11267,18578,30904,0.93326826,1.53875474,2.55970119,0.36943673,0.45683123,0.59833358
0,0,Cyprus,,,2021-04-04 01:20:42.332861,2020-12-15 00:00:00.000000,1.81820548,2.89060720,4.72822143,21952,34900,57086,11528,19037,32195,0.95483224,1.57682113,2.66657741,0.36929862,0.45685330,0.58257679
0,0,Cyprus,,,2021-04-04 01:20:42.332861,2020-12-16 00:00:00.000000,1.86421885,2.94351991,4.88804529,22507,35538,59016,11828,19543,33378,0.97970372,1.61870748,2.76461145,0.36907324,0.45727984,0.56184492
0,0,Cyprus,,,2021-04-04 01:20:42.332861,2020-12-17 00:00:00.000000,1.91593745,2.99615461,5.04856588,23132,36174,60954,12171,20107,34201,1.00811389,1.66541523,2.83272641,0.36857300,0.45378185,0.56562239
0,0,Cyprus,,,2021-04-04 01:20:42.332861,2020-12-18 00:00:00.000000,1.95553548,3.05660552,5.26609793,23610,36904,63580,12559,20523,35046,1.04026987,1.69984315,2.90273377,0.36763042,0.45606600,0.56442836
0,0,Cyprus,,,2021-04-04 01:20:42.332861,2020-12-19 00:00:00.000000,2.00074975,3.13626671,5.45557117,24156,37866,65868,12992,20945,35762,1.07606732,1.73484287,2.96204116,0.36649723,0.45971368,0.55765910
0,0,Cyprus,,,2021-04-04 01:20:42.332861,2020-12-20 00:00:00.000000,2.04594451,3.20849145,5.60587509,24701,38738,67683,13300,21313,36763,1.10163934,1.76526535,3.04493680,0.36026207,0.46499529,0.55624543
0,0,Cyprus,,,2021-04-04 01:20:42.332861,2020-12-21 00:00:00.000000,2.09137637,3.26224328,5.72863371,25250,39387,69165,13614,21794,37620,1.12762606,1.80515288,3.11590972,0.35973906,0.46235064,0.56462608
0,0,Cyprus,,,2021-04-04 01:20:42.332861,2020-12-22 00:00:00.000000,2.11209760,3.33267204,5.83625437,25500,40237,70464,13939,22241,38459,1.15452412,1.84213615,3.18542520,0.35916013,0.45979032,0.56497006
0,0,Cyprus,,,2021-04-04 01:20:42.332861,2020-12-23 00:00:00.000000,2.12601689,3.39803255,5.93488812,25668,41026,71655,14273,22619,39277,1.18218538,1.87349915,3.25313580,0.35869398,0.45497121,0.56495612
0,0,Cyprus,,,2021-04-04 01:20:42.332861,2020-12-24 00:00:00.000000,2.14075901,3.44903924,6.02582201,25846,41642,72753,14614,22978,40064,1.21042191,1.90322464,3.31831688,0.34695074,0.45244023,0.56473731
0,0,Cyprus,,,2021-04-04 01:20:42.332861,2020-12-25 00:00:00.000000,2.17262196,3.49181059,6.10725195,26231,42158,73736,14958,23445,40809,1.23897771,1.94186295,3.38007730,0.34098166,0.44814057,0.55492806
0,0,Cyprus,,,2021-04-04 01:20:42.332861,2020-12-26 00:00:00.000000,2.20201309,3.50904223,6.15059406,26586,42366,74259,15292,23769,41510,1.26658935,1.96874345,3.43815153,0.33030402,0.44006078,0.54903350
0,0,Cyprus,,,2021-04-04 01:20:42.332861,2020-12-27 00:00:00.000000,2.22674337,3.52933443,6.15575338,26884,42611,74322,15370,23922,41988,1.27307253,1.98137365,3.47770641,0.31788082,0.42950211,0.54173574
0,0,Cyprus,,,2021-04-04 01:20:42.332861,2020-12-28 00:00:00.000000,2.24361103,3.56769373,6.15312583,27088,43074,74290,15428,24328,42720,1.27789611,2.01497713,3.53832174,0.31625559,0.42174847,0.53645131
0,0,Cyprus,,,2021-04-04 01:20:42.332861,2020-12-29 00:00:00.000000,2.24864690,3.55881718,6.13965901,27149,42967,74127,15456,24691,43392,1.28021687,2.04505782,3.59398906,0.31423426,0.40629870,0.52206350
0,0,Cyprus,,,2021-04-04 01:20:42.332861,2020-12-30 00:00:00.000000,2.23941397,3.52266925,6.10887185,27037,42531,73756,15442,25018,43918,1.27901721,2.07217672,3.63758022,0.29717749,0.39264392,0.49842827
0,0,Cyprus,,,2021-04-04 01:20:42.332861,2020-12-31 00:00:00.000000,2.21588361,3.50699629,5.98410231,26753,42342,72249,15373,24924,44002,1.27332912,2.06438906,3.64455300,0.26187076,0.37221303,0.49554026
0,0,Cyprus,,,2021-04-04 01:20:42.332861,2021-01-01 00:00:00.000000,2.17737478,3.45025834,5.91215085,26288,41657,71381,15195,24639,43403,1.25857614,2.04073367,3.59491044,0.24006056,0.35664871,0.48130788
0,0,Cyprus,,,2021-04-04 01:20:42.332861,2021-01-02 00:00:00.000000,2.13807930,3.33336223,5.69770178,25814,40245,68791,14844,24424,42556,1.22948208,2.02295448,3.52475735,0.22051192,0.32756773,0.47503578
0,0,Cyprus,,,2021-04-04 01:20:42.332861,2021-01-03 00:00:00.000000,2.06652044,3.23856446,5.52762985,24950,39101,66738,14387,24052,41607,1.19163056,1.99212500,3.44614801,0.21100597,0.30152169,0.45020915
0,0,Cyprus,,,2021-04-04 01:20:42.332861,2021-01-04 00:00:00.000000,1.98016584,3.13835500,5.36482989,23907,37891,64772,13870,23613,40447,1.14884633,1.95575355,3.35005522,0.20701042,0.27762254,0.39352115
0,0,Cyprus,,,2021-04-04 01:20:42.332861,2021-01-05 00:00:00.000000,1.89179750,3.01545633,5.20046475,22840,36407,62788,13396,22933,39310,1.10954886,1.89943929,3.25589387,0.19412113,0.26512011,0.34939265
0,0,Cyprus,,,2021-04-04 01:20:42.332861,2021-01-06 00:00:00.000000,1.79232175,2.86780008,4.88522015,21639,34624,58982,12917,22062,38150,1.06987473,1.82729764,3.15985336,0.18262661,0.25200406,0.32982794
0,0,Cyprus,,,2021-04-04 01:20:42.332861,2021-01-07 00:00:00.000000,1.69564727,2.72141180,4.55533595,20472,32857,54999,12165,21038,36810,1.00757791,1.74251002,3.04883632,0.17689213,0.24003543,0.32349090
0,0,Cyprus,,,2021-04-04 01:20:42.332861,2021-01-08 00:00:00.000000,1.59773331,2.55892436,4.23300172,19290,30895,51107,11571,20031,34505,0.95844992,1.65914510,2.85790720,0.16906086,0.23153841,0.31007555
0,0,Cyprus,,,2021-04-04 01:20:42.332861,2021-01-09 00:00:00.000000,1.50124169,2.39503793,3.92482422,18125,28916,47386,10980,19037,32190,0.90948131,1.57675768,2.66617729,0.16037968,0.22148910,0.29449196
0,0,Cyprus,,,2021-04-04 01:20:42.332861,2021-01-10 00:00:00.000000,1.40789394,2.25594699,3.63772037,16998,27237,43920,10396,17969,29930,0.86107588,1.48829586,2.47902747,0.15336062,0.21777881,0.29402978
0,0,Cyprus,,,2021-04-04 01:20:42.332861,2021-01-11 00:00:00.000000,1.31854846,2.10734561,3.36858014,15919,25443,40670,9823,16832,27763,0.81360185,1.39412745,2.29949547,0.15065938,0.21442912,0.28456937
0,0,Cyprus,,,2021-04-04 01:20:42.332861,2021-01-12 00:00:00.000000,1.23395324,1.95425966,3.11891816,14898,23594,37656,9264,15832,25704,0.76730621,1.31133041,2.12902246,0.14966919,0.21232806,0.28032443
0,0,Cyprus,,,2021-04-04 01:20:42.332861,2021-01-13 00:00:00.000000,1.15452306,1.82351102,2.94276280,13939,22016,35529,8680,14675,24041,0.71896632,1.21554129,1.99126597,0.14937215,0.21142400,0.27857254
0,0,Cyprus,,,2021-04-04 01:20:42.332861,2021-01-14 00:00:00.000000,1.08073702,1.71092002,2.77363283,13048,20656,33487,8126,13646,22513,0.67309976,1.13027727,1.86469220,0.14976455,0.21214837,0.27225684
0,0,Cyprus,,,2021-04-04 01:20:42.332861,2021-01-15 00:00:00.000000,1.01322854,1.60306145,2.61255721,12233,19354,31542,7607,12636,21070,0.63009036,1.04659437,1.74514671,0.15272113,0.21427699,0.27701031
0,0,Cyprus,,,2021-04-04 01:20:42.332861,2021-01-16 00:00:00.000000,0.95250286,1.48326020,2.46117360,11500,17908,29715,7126,11711,19718,0.59028228,0.97003051,1.63315793,0.15321743,0.21813812,0.27808533
0,0,Cyprus,,,2021-04-04 01:20:42.332861,2021-01-17 00:00:00.000000,0.89828503,1.37555316,2.32168394,10845,16607,28031,6688,10927,18481,0.55400883,0.90508948,1.53071099,0.15662074,0.22152594,0.29144646
0,0,Cyprus,,,2021-04-04 01:20:42.332861,2021-01-18 00:00:00.000000,0.84943474,1.29081714,2.19479818,10255,15584,26499,6294,10160,17395,0.52132862,0.84157635,1.44074659,0.15521683,0.22242961,0.30027806
0,0,Cyprus,,,2021-04-04 01:20:42.332861,2021-01-19 00:00:00.000000,0.80475233,1.20602455,2.08040755,9716,14561,25118,5906,9425,16455,0.48919580,0.78066811,1.36289337,0.15403418,0.22660319,0.29851622
0,0,Cyprus,,,2021-04-04 01:20:42.332861,2021-01-20 00:00:00.000000,0.75508837,1.13428252,1.97614591,9116,13694,23859,5494,8789,15626,0.45508576,0.72799004,1.29424044,0.15404858,0.22986333,0.30059985
0,0,Cyprus,,,2021-04-04 01:20:42.332861,2021-01-21 00:00:00.000000,0.70135496,1.06752994,1.87959241,8467,12888,22693,5126,8288,14883,0.42459762,0.68645872,1.23269182,0.15489840,0.23473079,0.31821053
0,0,Cyprus,,,2021-04-04 01:20:42.332861,2021-01-22 00:00:00.000000,0.65102971,1.00598395,1.78962998,7860,12145,21607,4810,7871,14232,0.39842373,0.65196681,1.17877766,0.15642828,0.24326770,0.33868974
0,0,Cyprus,,,2021-04-04 01:20:42.332861,2021-01-23 00:00:00.000000,0.60485608,0.94843741,1.70744093,7302,11451,20614,4469,7432,13679,0.37016278,0.61560992,1.13297285,0.15834229,0.25308951,0.37218879
0,0,Cyprus,,,2021-04-04 01:20:42.332861,2021-01-24 00:00:00.000000,0.56458541,0.89345236,1.63663647,6816,10787,19760,4152,7029,13196,0.34393416,0.58223330,1.09302016,0.16047593,0.26406224,0.38861138
0,0,Cyprus,,,2021-04-04 01:20:42.332861,2021-01-25 00:00:00.000000,0.52962920,0.84056155,1.57437998,6394,10148,19008,3869,6675,12759,0.32046412,0.55290985,1.05676844,0.16528841,0.27830456,0.43270685
0,0,Cyprus,,,2021-04-04 01:20:42.332861,2021-01-26 00:00:00.000000,0.49893838,0.80640051,1.51800994,6023,9736,18327,3620,6302,12349,0.29989349,0.52196725,1.02286775,0.18760983,0.28602140,0.47453251
0,0,Cyprus,,,2021-04-04 01:20:42.332861,2021-01-27 00:00:00.000000,0.47305844,0.77288736,1.47095347,5711,9331,17759,3403,5913,11960,0.28187674,0.48977982,0.99062077,0.21846310,0.28927254,0.47901119
0,0,Cyprus,,,2021-04-04 01:20:42.332861,2021-01-28 00:00:00.000000,0.45252397,0.75071005,1.42540229,5463,9063,17209,3216,5601,11454,0.26637624,0.46393823,0.94868920,0.22426050,0.29717698,0.48164888
0,0,Cyprus,,,2021-04-04 01:20:42.332861,2021-01-29 00:00:00.000000,0.43699887,0.72821364,1.38146427,5276,8792,16679,3061,5428,10913,0.25361066,0.44957680,0.90387625,0.22584780,0.30704087,0.48734115
0,0,Cyprus,,,2021-04-04 01:20:42.332861,2021-01-30 00:00:00.000000,0.42507134,0.70537262,1.33958757,5132,8516,16173,3012,5267,10419,0.24951819,0.43631031,0.86300640,0.23431651,0.31666317,0.50133593
0,0,Cyprus,,,2021-04-04 01:20:42.332861,2021-01-31 00:00:00.000000,0.41530846,0.68599781,1.30047101,5014,8282,15701,2966,5100,9995,0.24572500,0.42242178,0.82786522,0.23766833,0.33788024,0.50150033
0,0,Cyprus,,,2021-04-04 01:20:42.332861,2021-02-01 00:00:00.000000,0.40686866,0.67173534,1.26449159,4912,8110,15266,2922,4947,9653,0.24207791,0.40978146,0.79955984,0.23862091,0.35178718,0.52127910
0,0,Cyprus,,,2021-04-04 01:20:42.332861,2021-02-02 00:00:00.000000,0.39912456,0.65852376,1.23089425,4818,7950,14861,2879,4830,9377,0.23850313,0.40009871,0.77669361,0.24150211,0.36240142,0.53001692
0,0,Cyprus,,,2021-04-04 01:20:42.332861,2021-02-03 00:00:00.000000,0.39196839,0.64520442,1.19893795,4732,7789,14475,2837,4692,9144,0.23499428,0.38868976,0.75740747,0.24174160,0.36869015,0.53213920
0,0,Cyprus,,,2021-04-04 01:20:42.332861,2021-02-04 00:00:00.000000,0.39528719,0.64050839,1.16832320,4772,7733,14105,2795,4594,8940,0.23155477,0.38052990,0.74046882,0.24193503,0.37637689,0.53300033
0,0,Cyprus,,,2021-04-04 01:20:42.332861,2021-02-05 00:00:00.000000,0.38737988,0.63294559,1.13915130,4677,7641,13753,2744,4506,8759,0.22729597,0.37325896,0.72549072,0.24574269,0.39154004,0.55306667
0,0,Cyprus,,,2021-04-04 01:20:42.332861,2021-02-06 00:00:00.000000,0.37807208,0.62725924,1.11176101,4564,7573,13422,2666,4434,8607,0.22084312,0.36731572,0.71290200,0.26309375,0.41569369,0.58374068
0,0,Cyprus,,,2021-04-04 01:20:42.332861,2021-02-07 00:00:00.000000,0.36924171,0.62464714,1.08630233,4458,7541,13115,2594,4377,8492,0.21486262,0.36259654,0.70338909,0.27178734,0.42782073,0.59845466
0,0,Cyprus,,,2021-04-04 01:20:42.332861,2021-02-08 00:00:00.000000,0.36575085,0.62615340,1.09027911,4415,7559,13163,2527,4346,8414,0.20934975,0.36003071,0.69689405,0.28401692,0.43684660,0.60963907
0,0,Cyprus,,,2021-04-04 01:20:42.332861,2021-02-09 00:00:00.000000,0.36639730,0.63528385,1.11174077,4423,7670,13422,2473,4325,8310,0.20487957,0.35827405,0.68829892,0.28891759,0.44706155,0.62925528
0,0,Cyprus,,,2021-04-04 01:20:42.332861,2021-02-10 00:00:00.000000,0.37331177,0.64153762,1.13470854,4507,7745,13700,2488,4314,8129,0.20607833,0.35734289,0.67329427,0.29622292,0.45810332,0.63087001
0,0,Cyprus,,,2021-04-04 01:20:42.332861,2021-02-11 00:00:00.000000,0.38032239,0.64871930,1.15777628,4591,7832,13978,2541,4305,8077,0.21046266,0.35661824,0.66905161,0.31490110,0.47825365,0.64305666
0,0,Cyprus,,,2021-04-04 01:20:42.332861,2021-02-12 00:00:00.000000,0.40378874,0.66137962,1.15820743,4875,7985,13983,2623,4362,8247,0.21726435,0.36128742,0.68309703,0.33278926,0.49147229,0.67270072
0,0,Cyprus,,,2021-04-04 01:20:42.332861,2021-02-13 00:00:00.000000,0.41136697,0.67576695,1.17571653,4966,8158,14195,2694,4446,8306,0.22315620,0.36829085,0.68800129,0.34996016,0.52340093,0.74577188
0,0,Cyprus,,,2021-04-04 01:20:42.332861,2021-02-14 00:00:00.000000,0.41928389,0.69324429,1.20983224,5062,8369,14607,2767,4500,8374,0.22923410,0.37278724,0.69360381,0.37923671,0.54342442,0.79177350
0,0,Cyprus,,,2021-04-04 01:20:42.332861,2021-02-15 00:00:00.000000,0.43050993,0.71918577,1.24460467,5197,8683,15026,2844,4672,8541,0.23558697,0.38700687,0.70747248,0.40240088,0.56146718,0.81061654
0,0,Cyprus,,,2021-04-04 01:20:42.332861,2021-02-16 00:00:00.000000,0.44458135,0.74318089,1.28122682,5367,8972,15469,2967,4860,8761,0.24579441,0.40253281,0.72565162,0.41464277,0.58507926,0.82030330
0,0,Cyprus,,,2021-04-04 01:20:42.332861,2021-02-17 00:00:00.000000,0.46496820,0.76949865,1.31939922,5613,9290,15929,3113,5027,9009,0.25785953,0.41637585,0.74622454,0.42102734,0.60010875,0.83327162
0,0,Cyprus,,,2021-04-04 01:20:42.332861,2021-02-18 00:00:00.000000,0.48791669,0.80065536,1.36662520,5890,9666,16500,3269,5135,9275,0.27078975,0.42537675,0.76825278,0.44866127,0.61966694,0.99801593
0,0,Cyprus,,,2021-04-04 01:20:42.332861,2021-02-19 00:00:00.000000,0.51424745,0.83396943,1.41432449,6208,10069,17076,3435,5345,9554,0.28456120,0.44271038,0.79139021,0.48812931,0.64274849,0.99992788
0,0,Cyprus,,,2021-04-04 01:20:42.332861,2021-02-20 00:00:00.000000,0.54510554,0.89130563,1.49429374,6581,10761,18041,3611,5577,9885,0.29916161,0.46198180,0.81876029,0.50216877,0.67192976,0.98496926
0,0,Cyprus,,,2021-04-04 01:20:42.332861,2021-02-21 00:00:00.000000,0.58098137,0.93942262,1.59258546,7014,11342,19228,3799,5899,10345,0.31466157,0.48864366,0.85684983,0.51975806,0.69731590,1.02019049
0,0,Cyprus,,,2021-04-04 01:20:42.332861,2021-02-22 00:00:00.000000,0.62151587,0.99674630,1.69956850,7503,12034,20519,4000,6233,10939,0.33132461,0.51632425,0.90608557,0.52106906,0.71018196,1.04724551
0,0,Cyprus,,,2021-04-04 01:20:42.332861,2021-02-23 00:00:00.000000,0.66588757,1.07122572,1.81364438,8039,12933,21897,4222,6663,11625,0.34971338,0.55192448,0.96286200,0.52174446,0.72057403,1.05361253
0,0,Cyprus,,,2021-04-04 01:20:42.332861,2021-02-24 00:00:00.000000,0.71283752,1.14861694,1.93415596,8606,13867,23352,4470,7166,12400,0.37026610,0.59357390,1.02706779,0.52490770,0.73069320,1.04581843
0,0,Cyprus,,,2021-04-04 01:20:42.332861,2021-02-25 00:00:00.000000,0.76139077,1.22593251,2.05976020,9192,14801,24868,4744,7692,13224,0.39300443,0.63715007,1.09532651,0.53328584,0.72801058,1.02881491
0,0,Cyprus,,,2021-04-04 01:20:42.332861,2021-02-26 00:00:00.000000,0.81083220,1.30314898,2.19746120,9789,15733,26531,5033,8256,14087,0.41693844,0.68383666,1.16677049,0.52722689,0.72043749,1.02339003
0,0,Cyprus,,,2021-04-04 01:20:42.332861,2021-02-27 00:00:00.000000,0.86805589,1.38852550,2.31333143,10480,16764,27930,5341,8811,14959,0.44243453,0.72984503,1.23906353,0.52850191,0.71143759,1.02358856
0,0,Cyprus,,,2021-04-04 01:20:42.332861,2021-02-28 00:00:00.000000,0.94551480,1.47701378,2.42616397,11415,17832,29292,5701,9395,15811,0.47220105,0.77816838,1.30959983,0.52333874,0.70773111,1.01116333
0,0,Cyprus,,,2021-04-04 01:20:42.332861,2021-03-01 00:00:00.000000,1.00830859,1.56201726,2.57471765,12173,18859,31086,6069,10043,16642,0.50273975,0.83187969,1.37843725,0.51244006,0.70105181,0.98608111
0,0,Cyprus,,,2021-04-04 01:20:42.332861,2021-03-02 00:00:00.000000,1.06795301,1.63812546,2.71092080,12894,19778,32730,6457,10677,17472,0.53484282,0.88434090,1.44716240,0.50241855,0.68858944,0.98225490
0,0,Cyprus,,,2021-04-04 01:20:42.332861,2021-03-03 00:00:00.000000,1.12921719,1.73023265,2.80812238,13633,20890,33904,7029,11336,18312,0.58224714,0.93894232,1.51675069,0.50065286,0.67282709,0.97540007
0,0,Cyprus,,,2021-04-04 01:20:42.332861,2021-03-04 00:00:00.000000,1.19112050,1.83366813,2.91033716,14381,22138,35138,7563,11920,19152,0.62645409,0.98733131,1.58633983,0.47271937,0.65739763,0.95639550
0,0,Cyprus,,,2021-04-04 01:20:42.332861,2021-03-05 00:00:00.000000,1.25064590,1.91187948,3.01734032,15099,23083,36430,7911,12630,20041,0.65524314,1.04611055,1.65995103,0.45410718,0.64037800,0.91107118
0,0,Cyprus,,,2021-04-04 01:20:42.332861,2021-03-06 00:00:00.000000,1.27711863,1.98208910,3.14925194,15419,23930,38022,8215,13190,20899,0.68044971,1.09246624,1.73102501,0.44615075,0.61046176,0.87169673
0,0,Cyprus,,,2021-04-04 01:20:42.332861,2021-03-07 00:00:00.000000,1.32588228,2.04180084,3.33861136,16008,24651,40309,8482,13814,21709,0.70254391,1.14415155,1.79808602,0.43870437,0.60176856,0.82625301
0,0,Cyprus,,,2021-04-04 01:20:42.332861,2021-03-08 00:00:00.000000,1.36088681,2.11525221,3.50830799,16430,25538,42357,8729,14261,22468,0.72298582,1.18125067,1.86093808,0.40844508,0.57887461,0.79497274
0,0,Cyprus,,,2021-04-04 01:20:42.332861,2021-03-09 00:00:00.000000,1.38211653,2.15255201,3.58750159,16687,25989,43314,8967,14490,23182,0.74270318,1.20018394,1.92007481,0.40056670,0.55775830,0.74703265
0,0,Cyprus,,,2021-04-04 01:20:42.332861,2021-03-10 00:00:00.000000,1.39221786,2.18204729,3.61310296,16809,26345,43623,9202,14777,23849,0.76223987,1.22394915,1.97535031,0.39788529,0.54337628,0.73136280
0,0,Cyprus,,,2021-04-04 01:20:42.332861,2021-03-11 00:00:00.000000,1.39418134,2.20408556,3.64509048,16832,26611,44009,9439,15283,24626,0.78180196,1.26587294,2.03973451,0.37934398,0.52974848,0.71609435
0,0,Cyprus,,,2021-04-04 01:20:42.332861,2021-03-12 00:00:00.000000,1.39060094,2.22047916,3.71573545,16789,26809,44862,9675,15570,25326,0.80138000,1.28964357,2.09768019,0.36656418,0.50620397,0.70736718
0,0,Cyprus,,,2021-04-04 01:20:42.332861,2021-03-13 00:00:00.000000,1.40481091,2.23852825,3.77303616,16961,27027,45554,9905,15725,25904,0.82041795,1.30245481,2.14551250,0.34093179,0.49425235,0.70398700
0,0,Cyprus,,,2021-04-04 01:20:42.332861,2021-03-14 00:00:00.000000,1.41712982,2.26377070,3.81995287,17109,27331,46120,10098,15852,26364,0.83639649,1.31295366,2.18365477,0.33795496,0.48910148,0.68782322
0,0,Cyprus,,,2021-04-04 01:20:42.332861,2021-03-15 00:00:00.000000,1.42088135,2.26780872,3.85880694,17155,27380,46589,10217,15945,26722,0.84624227,1.32066938,2.21333093,0.33638115,0.48450095,0.67893783
0,0,Cyprus,,,2021-04-04 01:20:42.332861,2021-03-16 00:00:00.000000,1.41051132,2.28190094,3.89209197,17029,27550,46991,10272,15999,26997,0.85081678,1.32520185,2.23604150,0.32973055,0.48256020,0.67490302
0,0,Cyprus,,,2021-04-04 01:20:42.332861,2021-03-17 00:00:00.000000,1.39965539,2.29415934,3.88202747,16898,27698,46870,10214,15918,27204,0.84598644,1.31841978,2.25324604,0.32648607,0.48515965,0.65108399
0,0,Cyprus,,,2021-04-04 01:20:42.332861,2021-03-18 00:00:00.000000,1.38941809,2.28954860,3.85960594,16775,27643,46599,10092,15804,27360,0.83591915,1.30900245,2.26616564,0.33579389,0.48615770,0.65627306
0,0,Cyprus,,,2021-04-04 01:20:42.332861,2021-03-19 00:00:00.000000,1.38231508,2.29835659,3.84071987,16689,27749,46371,9949,15737,27476,0.82403803,1.30342155,2.27573387,0.33634553,0.48456415,0.67108280
0,0,Cyprus,,,2021-04-04 01:20:42.332861,2021-03-20 00:00:00.000000,1.38144895,2.32440027,3.87404693,16679,28063,46773,9807,15817,27558,0.81227228,1.31007061,2.28253926,0.33906612,0.49516931,0.67760175
0,0,Cyprus,,,2021-04-04 01:20:42.332861,2021-03-21 00:00:00.000000,1.38582451,2.32388382,3.90602156,16731,28057,47159,9677,15980,27706,0.80155192,1.32355841,2.29480406,0.34695059,0.49749998,0.68288766
0,0,Cyprus,,,2021-04-04 01:20:42.332861,2021-03-22 00:00:00.000000,1.39304059,2.33798322,3.93931575,16819,28227,47561,9577,16106,27940,0.79324627,1.33404702,2.31418210,0.35223370,0.50243803,0.69004396
0,0,Cyprus,,,2021-04-04 01:20:42.332861,2021-03-23 00:00:00.000000,1.40117737,2.35620126,3.97874683,16917,28447,48037,9517,16233,28202,0.78830069,1.34454309,2.33587613,0.35379961,0.50450704,0.69891372
0,0,Cyprus,,,2021-04-04 01:20:42.332861,2021-03-24 00:00:00.000000,1.40990931,2.37829758,4.01891861,17022,28714,48522,9497,16363,28261,0.78667274,1.35530249,2.34075678,0.35488213,0.51209280,0.71239310
0,0,Cyprus,,,2021-04-04 01:20:42.332861,2021-03-25 00:00:00.000000,1.42178535,2.42120393,4.07031135,17166,29232,49143,9508,16491,28495,0.78750755,1.36587296,2.36014482,0.35778122,0.53042243,0.74844041
0,0,Cyprus,,,2021-04-04 01:20:42.332861,2021-03-26 00:00:00.000000,1.45094643,2.44796008,4.14873173,17518,29555,50090,9538,16610,28719,0.79005129,1.37574372,2.37869963,0.36369021,0.53887209,0.78534841
0,0,Cyprus,,,2021-04-04 01:20:42.332861,2021-03-27 00:00:00.000000,1.48886178,2.47923999,4.24547629,17975,29933,51258,9719,16716,28915,0.80502544,1.38451484,2.39495630,0.38631598,0.55615923,0.84523495
0,0,Cyprus,,,2021-04-04 01:20:42.332861,2021-03-28 00:00:00.000000,1.54019905,2.51381962,4.29388825,18595,30350,51842,9991,16953,29055,0.82753075,1.40416168,2.40650306,0.41117295,0.57917432,0.85415994
0,0,Cyprus,,,2021-04-04 01:20:42.332861,2021-03-29 00:00:00.000000,1.55480547,2.55310219,4.34855607,18772,30825,52502,10351,17121,29106,0.85732858,1.41806178,2.41073346,0.42042301,0.58955592,0.85521769
0,0,Cyprus,,,2021-04-04 01:20:42.332861,2021-03-30 00:00:00.000000,1.56999132,2.58239806,4.40786915,18955,31178,53218,10796,17299,29148,0.89422438,1.43281094,2.41425497,0.43581328,0.59253555,0.86638753
0,0,Cyprus,,,2021-04-04 01:20:42.332861,2021-03-31 00:00:00.000000,1.60745085,2.65132890,4.46913641,19407,32011,53958,11319,17742,29395,0.93751149,1.46952286,2.43468760,0.43747340,0.59105659,0.87443677
0,0,Cyprus,,,2021-04-04 01:20:42.332861,2021-04-01 00:00:00.000000,1.66124522,2.73025027,4.52852246,20057,32963,54675,11799,18329,29900,0.97726590,1.51816639,2.47651247,0.43817309,0.59307249,0.87522741
0,0,Cyprus,,,2021-04-04 01:20:42.332861,2021-04-02 00:00:00.000000,1.71092332,2.78729467,4.61476798,20657,33652,55716,12047,18955,30375,0.99782863,1.56997128,2.51588038,0.43857436,0.59309600,0.87530752
0,0,Cyprus,,,2021-04-04 01:20:42.332861,2021-04-03 00:00:00.000000,1.74505685,2.82952857,4.64417940,21069,34162,56072,12299,19515,30816,1.01870928,1.61635891,2.55239435,0.43884239,0.59309801,0.87531674
0,0,Cyprus,,,2021-04-04 01:20:42.332861,2021-04-04 00:00:00.000000,1.77920644,2.89951330,4.74671605,21481,35007,57309,12553,19993,31219,1.03974341,1.65599632,2.58576073,0.43903042,0.59309603,0.87531806
0,0,Cyprus,,,2021-04-04 01:20:42.332861,2021-04-05 00:00:00.000000,1.81330040,2.95521602,4.84546424,21893,35680,58502,12808,20209,32009,1.06084563,1.67382722,2.65118385,0.43916406,0.59310008,0.87531829
0,0,Cyprus,,,2021-04-04 01:20:42.332861,2021-04-06 00:00:00.000000,1.84728062,3.08542816,4.97819805,22303,37252,60104,12921,20702,33874,1.07026065,1.71471815,2.80568076,0.43925932,0.59310169,0.87531834
0,0,Cyprus,,,2021-04-04 01:20:42.332861,2021-04-07 00:00:00.000000,1.88109367,3.17773332,5.05436199,22711,38366,61024,13028,21415,34339,1.07910913,1.77377078,2.84421766,0.43932727,0.59310211,0.87531835
0,0,Cyprus,,,2021-04-04 01:20:42.332861,2021-04-08 00:00:00.000000,1.91468738,3.26395438,5.12374655,23117,39407,61862,13141,22100,34655,1.08847244,1.83050644,2.87030979,0.43937572,0.59310222,0.87531835
0,0,Cyprus,,,2021-04-04 01:20:42.332861,2021-04-09 00:00:00.000000,1.94800958,3.32372837,5.19546755,23519,40129,62728,13578,22443,34909,1.12463221,1.85886561,2.89138691,0.43941026,0.59310224,0.87531836
0,0,Cyprus,,,2021-04-04 01:20:42.332861,2021-04-10 00:00:00.000000,1.98100761,3.35421435,5.26801074,23917,40497,63603,14024,22856,35267,1.16162018,1.89311197,2.92107851,0.43943488,0.59310225,0.87531836
0,0,Cyprus,,,2021-04-04 01:20:42.332861,2021-04-11 00:00:00.000000,2.00627783,3.34531230,5.33474531,24223,40389,64409,13914,23016,36431,1.15244640,1.90634574,3.01743306,0.43945243,0.59310225,0.87531836
0,0,Cyprus,,,2021-04-04 01:20:42.332861,2021-04-12 00:00:00.000000,1.99211805,3.36268124,5.39711022,24052,40599,65162,13781,23037,37590,1.14146023,1.90809554,3.11344674,0.43946493,0.59310225,0.87531836
0,0,Cyprus,,,2021-04-04 01:20:42.332861,2021-04-13 00:00:00.000000,1.97708782,3.37828578,5.53521230,23870,40788,66829,13641,23188,38412,1.12986499,1.92062763,3.18148569,0.43947384,0.59310225,0.87531836
0,0,Cyprus,,,2021-04-04 01:20:42.332861,2021-04-14 00:00:00.000000,1.96121645,3.40272727,5.72587170,23678,41083,69131,13631,23433,38537,1.12899217,1.94091939,3.19186485,0.43948019,0.59310225,0.87531836
0,0,Cyprus,,,2021-04-04 01:20:42.332861,2021-04-15 00:00:00.000000,1.94453448,3.45286549,5.86919319,23477,41688,70862,13695,23657,40312,1.13437448,1.95940227,3.33891151,0.43948472,0.59310225,0.87531836
0,0,Cyprus,,,2021-04-04 01:20:42.332861,2021-04-16 00:00:00.000000,1.92707353,3.48771137,6.02610010,23266,42109,72756,13756,23774,42193,1.13942534,1.96916397,3.49466435,0.43948794,0.59310225,0.87531836
0,0,Cyprus,,,2021-04-04 01:20:42.332861,2021-04-17 00:00:00.000000,1.90886617,3.53310006,6.17408090,23046,42657,74543,13813,23989,43316,1.14413893,1.98696016,3.58770942,0.43949023,0.59310225,0.87531836
