FIPS,HR_UID,nameid,province,region,analysisTime,dates,pointprevalence_025,pointprevalence_50,pointprevalence_975,pointinfections_025,pointinfections_50,pointinfections_975,pointinfectious_025,pointinfectious_50,pointinfectious_975,pointinfectiousprevalence_05,pointinfectiousprevalence_50,pointinfectiousprevalence_95,infectrate_025,infectrate_50,infectrate_975
20015,0,USKansasButler,Kansas,Butler,2021-04-04 10:59:53.037940,2020-03-09 00:00:00.000000,0.00412089,0.00726093,0.01209797,2,4,8,1,2,3,0.00172111,0.00347230,0.00544169,0.40501672,0.48542201,0.55485119
20015,0,USKansasButler,Kansas,Butler,2021-04-04 10:59:53.037940,2020-03-10 00:00:00.000000,0.00531153,0.00969334,0.01571401,3,6,10,1,2,3,0.00198764,0.00407849,0.00582625,0.40501625,0.48541109,0.55485033
20015,0,USKansasButler,Kansas,Butler,2021-04-04 10:59:53.037940,2020-03-11 00:00:00.000000,0.00656411,0.01233122,0.01946944,4,8,13,1,3,4,0.00248826,0.00522191,0.00684259,0.40501500,0.48539143,0.55484855
20015,0,USKansasButler,Kansas,Butler,2021-04-04 10:59:53.037940,2020-03-12 00:00:00.000000,0.00739052,0.01521394,0.02337653,4,10,15,2,4,5,0.00311578,0.00669784,0.00828592,0.40501169,0.48535566,0.55484487
20015,0,USKansasButler,Kansas,Butler,2021-04-04 10:59:53.037940,2020-03-13 00:00:00.000000,0.00824113,0.01837444,0.02744617,5,12,18,2,5,6,0.00378729,0.00842043,0.00992431,0.40500285,0.48528951,0.55483730
20015,0,USKansasButler,Kansas,Butler,2021-04-04 10:59:53.037940,2020-03-14 00:00:00.000000,0.00915123,0.02184395,0.03168831,6,14,21,2,6,7,0.00422154,0.01035946,0.01169464,0.40497895,0.48516371,0.55482167
20015,0,USKansasButler,Kansas,Butler,2021-04-04 10:59:53.037940,2020-03-15 00:00:00.000000,0.01011620,0.02565403,0.03588704,6,17,24,3,8,9,0.00469582,0.01251112,0.01371678,0.40491300,0.48491368,0.55478928
20015,0,USKansasButler,Kansas,Butler,2021-04-04 10:59:53.037940,2020-03-16 00:00:00.000000,0.01157223,0.02923855,0.03950889,7,19,26,3,9,10,0.00520554,0.01488460,0.01588437,0.38949002,0.48438435,0.55472177
20015,0,USKansasButler,Kansas,Butler,2021-04-04 10:59:53.037940,2020-03-17 00:00:00.000000,0.01307497,0.03322603,0.04305415,8,22,28,3,11,12,0.00586272,0.01730672,0.01795985,0.38730552,0.48317156,0.55457925
20015,0,USKansasButler,Kansas,Butler,2021-04-04 10:59:53.037940,2020-03-18 00:00:00.000000,0.01462125,0.03758180,0.04761934,9,25,31,4,13,13,0.00661643,0.01987719,0.02072282,0.37197219,0.48015888,0.55427055
20015,0,USKansasButler,Kansas,Butler,2021-04-04 10:59:53.037940,2020-03-19 00:00:00.000000,0.01617334,0.04227663,0.05388635,10,28,36,4,15,16,0.00743169,0.02264806,0.02400531,0.33593532,0.47223994,0.53687818
20015,0,USKansasButler,Kansas,Butler,2021-04-04 10:59:53.037940,2020-03-20 00:00:00.000000,0.01819795,0.04716033,0.06052509,12,31,40,5,17,18,0.00826918,0.02563609,0.02751454,0.30871005,0.45168118,0.53463063
20015,0,USKansasButler,Kansas,Butler,2021-04-04 10:59:53.037940,2020-03-21 00:00:00.000000,0.01989158,0.05183712,0.06723937,13,34,44,6,19,20,0.00931517,0.02880164,0.03119931,0.28958506,0.40635259,0.52618505
20015,0,USKansasButler,Kansas,Butler,2021-04-04 10:59:53.037940,2020-03-22 00:00:00.000000,0.02056698,0.05581430,0.07382307,13,37,49,6,21,23,0.01045371,0.03199666,0.03499888,0.26533081,0.33956981,0.50549007
20015,0,USKansasButler,Kansas,Butler,2021-04-04 10:59:53.037940,2020-03-23 00:00:00.000000,0.02287543,0.05907993,0.07795420,15,39,52,7,23,25,0.01122523,0.03498278,0.03882518,0.24962747,0.28293707,0.46852184
20015,0,USKansasButler,Kansas,Butler,2021-04-04 10:59:53.037940,2020-03-24 00:00:00.000000,0.02370780,0.06180176,0.08149153,15,41,54,7,25,28,0.01195304,0.03762568,0.04201294,0.23825150,0.24960892,0.41980923
20015,0,USKansasButler,Kansas,Butler,2021-04-04 10:59:53.037940,2020-03-25 00:00:00.000000,0.02530148,0.06411396,0.08437059,16,42,56,8,26,29,0.01274115,0.03990992,0.04467164,0.21416281,0.22828006,0.39907439
20015,0,USKansasButler,Kansas,Butler,2021-04-04 10:59:53.037940,2020-03-26 00:00:00.000000,0.02758586,0.06605724,0.08675682,18,44,58,8,28,31,0.01341168,0.04187323,0.04685326,0.19623560,0.21186705,0.39596651
20015,0,USKansasButler,Kansas,Butler,2021-04-04 10:59:53.037940,2020-03-27 00:00:00.000000,0.02872763,0.06766770,0.08881126,19,45,59,9,29,32,0.01373390,0.04354976,0.04863206,0.18750172,0.19851545,0.39721561
20015,0,USKansasButler,Kansas,Butler,2021-04-04 10:59:53.037940,2020-03-28 00:00:00.000000,0.03010967,0.06900311,0.09065479,20,46,60,9,30,33,0.01393665,0.04496850,0.05010327,0.17580286,0.18843584,0.39837006
20015,0,USKansasButler,Kansas,Butler,2021-04-04 10:59:53.037940,2020-03-29 00:00:00.000000,0.03166362,0.07012974,0.09234138,21,46,61,9,30,34,0.01481535,0.04616257,0.05209478,0.16630554,0.18145839,0.39901043
20015,0,USKansasButler,Kansas,Butler,2021-04-04 10:59:53.037940,2020-03-30 00:00:00.000000,0.03407031,0.07074753,0.09330922,22,47,62,10,31,35,0.01588760,0.04717044,0.05296517,0.16200348,0.17653952,0.39922247
20015,0,USKansasButler,Kansas,Butler,2021-04-04 10:59:53.037940,2020-03-31 00:00:00.000000,0.03576262,0.07116288,0.09420131,23,47,63,11,32,35,0.01669624,0.04791794,0.05366637,0.15823761,0.16996337,0.39895674
20015,0,USKansasButler,Kansas,Butler,2021-04-04 10:59:53.037940,2020-04-01 00:00:00.000000,0.03709749,0.07100962,0.09497843,24,47,63,11,32,36,0.01735870,0.04845813,0.05425146,0.15007203,0.15259486,0.39762103
20015,0,USKansasButler,Kansas,Butler,2021-04-04 10:59:53.037940,2020-04-02 00:00:00.000000,0.03837611,0.07022046,0.09685801,25,46,64,12,32,36,0.01881423,0.04870816,0.05478698,0.12776128,0.13221576,0.39314686
20015,0,USKansasButler,Kansas,Butler,2021-04-04 10:59:53.037940,2020-04-03 00:00:00.000000,0.03996300,0.06923252,0.10076982,26,46,67,13,32,36,0.01952773,0.04859760,0.05527539,0.12180722,0.12681048,0.38026765
20015,0,USKansasButler,Kansas,Butler,2021-04-04 10:59:53.037940,2020-04-04 00:00:00.000000,0.04272357,0.06818711,0.10427278,28,45,69,14,32,37,0.02120137,0.04822726,0.05556331,0.12083586,0.12595407,0.35253558
20015,0,USKansasButler,Kansas,Butler,2021-04-04 10:59:53.037940,2020-04-05 00:00:00.000000,0.04528176,0.06712437,0.10700462,30,44,71,14,31,37,0.02210442,0.04770145,0.05557936,0.12051253,0.12559412,0.31557990
20015,0,USKansasButler,Kansas,Butler,2021-04-04 10:59:53.037940,2020-04-06 00:00:00.000000,0.04545291,0.06699911,0.10961808,30,44,73,14,31,37,0.02240179,0.04708850,0.05534307,0.11920100,0.12354738,0.29223452
20015,0,USKansasButler,Kansas,Butler,2021-04-04 10:59:53.037940,2020-04-07 00:00:00.000000,0.04543065,0.06665727,0.11144531,30,44,74,14,31,38,0.02239192,0.04672519,0.05689623,0.11007581,0.11100047,0.28042446
20015,0,USKansasButler,Kansas,Butler,2021-04-04 10:59:53.037940,2020-04-08 00:00:00.000000,0.04518699,0.06603196,0.11175210,30,44,74,14,31,39,0.02219239,0.04643656,0.05855468,0.09652372,0.10260317,0.27002175
20015,0,USKansasButler,Kansas,Butler,2021-04-04 10:59:53.037940,2020-04-09 00:00:00.000000,0.04482345,0.06536581,0.11139414,29,43,74,14,30,40,0.02188659,0.04609039,0.05981264,0.09380530,0.10078744,0.26976422
20015,0,USKansasButler,Kansas,Butler,2021-04-04 10:59:53.037940,2020-04-10 00:00:00.000000,0.04443076,0.06470758,0.11103407,29,43,74,14,30,40,0.02152883,0.04569483,0.06073189,0.09354478,0.09963805,0.27099527
20015,0,USKansasButler,Kansas,Butler,2021-04-04 10:59:53.037940,2020-04-11 00:00:00.000000,0.04403429,0.06406603,0.11067343,29,42,74,14,30,41,0.02115241,0.04527484,0.06141871,0.09352405,0.09614586,0.27337164
20015,0,USKansasButler,Kansas,Butler,2021-04-04 10:59:53.037940,2020-04-12 00:00:00.000000,0.04352310,0.06344500,0.11031319,29,42,73,13,30,41,0.02077638,0.04484718,0.06197508,0.09352707,0.09499578,0.27416723
20015,0,USKansasButler,Kansas,Butler,2021-04-04 10:59:53.037940,2020-04-13 00:00:00.000000,0.04254959,0.06235692,0.11146043,28,41,74,13,29,41,0.02040902,0.04442178,0.06243968,0.09353523,0.09463561,0.26870526
20015,0,USKansasButler,Kansas,Butler,2021-04-04 10:59:53.037940,2020-04-14 00:00:00.000000,0.04154084,0.06129016,0.11260809,27,41,75,13,29,41,0.01980250,0.04384981,0.06221381,0.09354723,0.09445297,0.26569526
20015,0,USKansasButler,Kansas,Butler,2021-04-04 10:59:53.037940,2020-04-15 00:00:00.000000,0.04044438,0.06023475,0.11377538,27,40,76,12,28,41,0.01927751,0.04320051,0.06165467,0.09356234,0.09422703,0.26566481
20015,0,USKansasButler,Kansas,Butler,2021-04-04 10:59:53.037940,2020-04-16 00:00:00.000000,0.03935116,0.05920184,0.11492707,26,39,76,13,28,41,0.01946296,0.04251545,0.06187642,0.09330692,0.09388198,0.22474042
20015,0,USKansasButler,Kansas,Butler,2021-04-04 10:59:53.037940,2020-04-17 00:00:00.000000,0.03819410,0.05819708,0.11601018,25,38,77,13,27,41,0.01968292,0.04181923,0.06235325,0.09297931,0.09358268,0.22434387
20015,0,USKansasButler,Kansas,Butler,2021-04-04 10:59:53.037940,2020-04-18 00:00:00.000000,0.03704875,0.05722316,0.11693428,24,38,78,13,27,42,0.01992695,0.04112617,0.06286899,0.09261805,0.09355690,0.22656578
20015,0,USKansasButler,Kansas,Butler,2021-04-04 10:59:53.037940,2020-04-19 00:00:00.000000,0.03594346,0.05628096,0.11758012,24,37,78,13,27,42,0.02018394,0.04044448,0.06338122,0.09217401,0.09345303,0.23053957
20015,0,USKansasButler,Kansas,Butler,2021-04-04 10:59:53.037940,2020-04-20 00:00:00.000000,0.03461923,0.05641579,0.11830547,23,37,79,13,26,42,0.02044596,0.03977869,0.06384021,0.08659835,0.09317190,0.23158863
20015,0,USKansasButler,Kansas,Butler,2021-04-04 10:59:53.037940,2020-04-21 00:00:00.000000,0.03335762,0.05657766,0.11862256,22,37,79,13,26,43,0.02035409,0.03946130,0.06427465,0.08388243,0.09251372,0.22143185
20015,0,USKansasButler,Kansas,Butler,2021-04-04 10:59:53.037940,2020-04-22 00:00:00.000000,0.03215488,0.05677581,0.11851786,21,37,79,13,26,43,0.01966041,0.03934998,0.06462140,0.08286696,0.09113598,0.21303129
20015,0,USKansasButler,Kansas,Butler,2021-04-04 10:59:53.037940,2020-04-23 00:00:00.000000,0.03101952,0.05696818,0.11803393,20,38,78,12,26,43,0.01897918,0.03935510,0.06483337,0.08238058,0.08867358,0.20976516
20015,0,USKansasButler,Kansas,Butler,2021-04-04 10:59:53.037940,2020-04-24 00:00:00.000000,0.02995338,0.05712506,0.11727706,20,38,78,12,26,43,0.01832356,0.03941791,0.06488666,0.08211956,0.08653136,0.20466370
20015,0,USKansasButler,Kansas,Butler,2021-04-04 10:59:53.037940,2020-04-25 00:00:00.000000,0.02896458,0.05723525,0.11633059,19,38,77,11,26,43,0.01769975,0.03949896,0.06478454,0.08142925,0.08435500,0.19873225
20015,0,USKansasButler,Kansas,Butler,2021-04-04 10:59:53.037940,2020-04-26 00:00:00.000000,0.02802624,0.05730408,0.11442740,18,38,76,11,26,42,0.01710899,0.03957438,0.06413211,0.07891193,0.08268193,0.19340630
20015,0,USKansasButler,Kansas,Butler,2021-04-04 10:59:53.037940,2020-04-27 00:00:00.000000,0.02796142,0.05660592,0.11057482,18,37,73,11,26,42,0.01654643,0.03963358,0.06329185,0.07734952,0.08152540,0.18983032
20015,0,USKansasButler,Kansas,Butler,2021-04-04 10:59:53.037940,2020-04-28 00:00:00.000000,0.02784055,0.05587853,0.10679853,18,37,71,10,26,41,0.01624499,0.03944213,0.06228141,0.07627116,0.08050686,0.18921335
20015,0,USKansasButler,Kansas,Butler,2021-04-04 10:59:53.037940,2020-04-29 00:00:00.000000,0.02800542,0.05510431,0.10308036,18,36,68,10,26,40,0.01607049,0.03909977,0.06116358,0.07342259,0.07912222,0.19195250
20015,0,USKansasButler,Kansas,Butler,2021-04-04 10:59:53.037940,2020-04-30 00:00:00.000000,0.02916361,0.05428695,0.09944743,19,36,66,10,25,40,0.01595020,0.03866578,0.05997676,0.06371281,0.07686171,0.19369149
20015,0,USKansasButler,Kansas,Butler,2021-04-04 10:59:53.037940,2020-05-01 00:00:00.000000,0.03030587,0.05341756,0.09591452,20,35,64,10,25,39,0.01585586,0.03817116,0.05873943,0.06236530,0.07351086,0.19429172
20015,0,USKansasButler,Kansas,Butler,2021-04-04 10:59:53.037940,2020-05-02 00:00:00.000000,0.03140378,0.05249467,0.09249076,21,35,61,10,25,38,0.01586834,0.03762844,0.05745363,0.06098905,0.06963517,0.19484064
20015,0,USKansasButler,Kansas,Butler,2021-04-04 10:59:53.037940,2020-05-03 00:00:00.000000,0.03244241,0.05153694,0.08918387,21,34,59,10,24,37,0.01612789,0.03704311,0.05611054,0.05963230,0.06632300,0.19156875
20015,0,USKansasButler,Kansas,Butler,2021-04-04 10:59:53.037940,2020-05-04 00:00:00.000000,0.03238682,0.05077653,0.08549680,21,33,57,10,24,36,0.01638179,0.03642376,0.05469081,0.05963738,0.06415657,0.18830931
20015,0,USKansasButler,Kansas,Butler,2021-04-04 10:59:53.037940,2020-05-05 00:00:00.000000,0.03228751,0.05003470,0.08194437,21,33,54,10,23,35,0.01627848,0.03584838,0.05297415,0.05980778,0.06297655,0.18231622
20015,0,USKansasButler,Kansas,Butler,2021-04-04 10:59:53.037940,2020-05-06 00:00:00.000000,0.03212012,0.04932928,0.07853229,21,33,52,10,23,34,0.01616209,0.03530465,0.05121895,0.06009218,0.06247913,0.18111941
20015,0,USKansasButler,Kansas,Butler,2021-04-04 10:59:53.037940,2020-05-07 00:00:00.000000,0.03191888,0.04866256,0.07528396,21,32,50,11,23,33,0.01658151,0.03478851,0.04945523,0.06046434,0.06227763,0.17664560
20015,0,USKansasButler,Kansas,Butler,2021-04-04 10:59:53.037940,2020-05-08 00:00:00.000000,0.03172920,0.04803638,0.07221967,21,32,48,11,22,31,0.01702253,0.03429891,0.04770513,0.05950094,0.06225289,0.17238611
20015,0,USKansasButler,Kansas,Butler,2021-04-04 10:59:53.037940,2020-05-09 00:00:00.000000,0.03201527,0.04747284,0.07051935,21,31,47,11,22,30,0.01744709,0.03383611,0.04598432,0.05820800,0.06338232,0.16887992
20015,0,USKansasButler,Kansas,Butler,2021-04-04 10:59:53.037940,2020-05-10 00:00:00.000000,0.03260300,0.04713905,0.07099735,21,31,47,11,22,29,0.01784082,0.03340732,0.04430329,0.06025034,0.07385158,0.16890673
20015,0,USKansasButler,Kansas,Butler,2021-04-04 10:59:53.037940,2020-05-11 00:00:00.000000,0.03262996,0.04588663,0.06860530,21,30,45,12,22,28,0.01820073,0.03306949,0.04266893,0.06138897,0.08545507,0.16969465
20015,0,USKansasButler,Kansas,Butler,2021-04-04 10:59:53.037940,2020-05-12 00:00:00.000000,0.03260341,0.04469938,0.06632945,21,29,44,12,21,27,0.01839357,0.03249218,0.04113575,0.06147618,0.08740491,0.16970936
20015,0,USKansasButler,Kansas,Butler,2021-04-04 10:59:53.037940,2020-05-13 00:00:00.000000,0.03253127,0.04386844,0.06417889,21,29,42,12,21,27,0.01848056,0.03179598,0.04041390,0.06186339,0.08859092,0.16934655
20015,0,USKansasButler,Kansas,Butler,2021-04-04 10:59:53.037940,2020-05-14 00:00:00.000000,0.03246797,0.04302501,0.06215831,21,28,41,12,20,26,0.01850421,0.03104941,0.04014650,0.06158093,0.09015963,0.16764053
20015,0,USKansasButler,Kansas,Butler,2021-04-04 10:59:53.037940,2020-05-15 00:00:00.000000,0.03240800,0.04204177,0.06157384,21,28,41,12,20,26,0.01850014,0.03029549,0.03980570,0.06297253,0.09097337,0.16091745
20015,0,USKansasButler,Kansas,Butler,2021-04-04 10:59:53.037940,2020-05-16 00:00:00.000000,0.03234751,0.04111303,0.05974979,21,27,39,12,19,26,0.01848414,0.02955518,0.03944379,0.06307867,0.09124267,0.16027950
20015,0,USKansasButler,Kansas,Butler,2021-04-04 10:59:53.037940,2020-05-17 00:00:00.000000,0.03229027,0.04023545,0.05906215,21,26,39,12,19,26,0.01819026,0.02883750,0.03895040,0.06313606,0.09142426,0.16229343
20015,0,USKansasButler,Kansas,Butler,2021-04-04 10:59:53.037940,2020-05-18 00:00:00.000000,0.03200113,0.04047775,0.05925306,21,27,39,11,18,25,0.01785025,0.02814682,0.03816224,0.06321173,0.09172146,0.16673273
20015,0,USKansasButler,Kansas,Butler,2021-04-04 10:59:53.037940,2020-05-19 00:00:00.000000,0.03220987,0.04154420,0.05950218,21,27,39,11,18,24,0.01746212,0.02809999,0.03718091,0.06331757,0.09230872,0.16913422
20015,0,USKansasButler,Kansas,Butler,2021-04-04 10:59:53.037940,2020-05-20 00:00:00.000000,0.03319535,0.04272285,0.05988105,22,28,40,11,19,24,0.01712199,0.02843488,0.03611059,0.06345820,0.09344616,0.17220765
20015,0,USKansasButler,Kansas,Butler,2021-04-04 10:59:53.037940,2020-05-21 00:00:00.000000,0.03356529,0.04395379,0.06025715,22,29,40,12,19,23,0.01807060,0.02899349,0.03500866,0.06693400,0.09547999,0.17508812
20015,0,USKansasButler,Kansas,Butler,2021-04-04 10:59:53.037940,2020-05-22 00:00:00.000000,0.03158066,0.04522500,0.06073620,21,30,40,11,19,23,0.01789511,0.02968369,0.03512155,0.06991876,0.09863357,0.17709341
20015,0,USKansasButler,Kansas,Butler,2021-04-04 10:59:53.037940,2020-05-23 00:00:00.000000,0.03053707,0.04653442,0.06122502,20,31,40,11,20,24,0.01754981,0.03045518,0.03661717,0.07253139,0.10258276,0.17760047
20015,0,USKansasButler,Kansas,Butler,2021-04-04 10:59:53.037940,2020-05-24 00:00:00.000000,0.02920186,0.04787362,0.06167391,19,32,41,11,20,24,0.01676428,0.03128197,0.03624924,0.07195570,0.10639201,0.17486072
20015,0,USKansasButler,Kansas,Butler,2021-04-04 10:59:53.037940,2020-05-25 00:00:00.000000,0.02795319,0.04774503,0.06619521,18,31,44,10,21,23,0.01604890,0.03214831,0.03585231,0.06948798,0.10924761,0.17158378
20015,0,USKansasButler,Kansas,Butler,2021-04-04 10:59:53.037940,2020-05-26 00:00:00.000000,0.02657836,0.04760850,0.06805709,17,31,45,10,21,24,0.01543295,0.03257306,0.03587718,0.06824006,0.11101535,0.17083100
20015,0,USKansasButler,Kansas,Butler,2021-04-04 10:59:53.037940,2020-05-27 00:00:00.000000,0.02538565,0.04741849,0.07162933,16,31,47,10,21,24,0.01508365,0.03274368,0.03653745,0.06781971,0.11201013,0.17080961
20015,0,USKansasButler,Kansas,Butler,2021-04-04 10:59:53.037940,2020-05-28 00:00:00.000000,0.02435396,0.04721022,0.07095557,16,31,47,10,21,25,0.01529466,0.03276913,0.03866898,0.06773145,0.11301562,0.17092459
20015,0,USKansasButler,Kansas,Butler,2021-04-04 10:59:53.037940,2020-05-29 00:00:00.000000,0.02345055,0.04710299,0.07020108,15,31,46,10,21,26,0.01506256,0.03271515,0.03937963,0.06800035,0.11952766,0.17133022
20015,0,USKansasButler,Kansas,Butler,2021-04-04 10:59:53.037940,2020-05-30 00:00:00.000000,0.02264343,0.04709364,0.06941899,15,31,46,9,21,25,0.01448666,0.03265261,0.03859815,0.06879037,0.12526583,0.17282353
20015,0,USKansasButler,Kansas,Butler,2021-04-04 10:59:53.037940,2020-05-31 00:00:00.000000,0.02190659,0.04709890,0.06864171,14,31,45,9,21,25,0.01397941,0.03261840,0.03878662,0.06855193,0.12593439,0.17641882
20015,0,USKansasButler,Kansas,Butler,2021-04-04 10:59:53.037940,2020-06-01 00:00:00.000000,0.02217401,0.04687021,0.07040379,14,31,47,9,21,26,0.01352450,0.03260470,0.03953897,0.06844089,0.12635245,0.17799219
20015,0,USKansasButler,Kansas,Butler,2021-04-04 10:59:53.037940,2020-06-02 00:00:00.000000,0.02249388,0.04665508,0.07217400,15,31,48,8,21,26,0.01344157,0.03252737,0.04026354,0.06839163,0.12691295,0.16120866
20015,0,USKansasButler,Kansas,Butler,2021-04-04 10:59:53.037940,2020-06-03 00:00:00.000000,0.02293004,0.04644873,0.07402079,15,31,49,9,21,27,0.01354114,0.03241705,0.04095651,0.06837523,0.12761597,0.15568700
20015,0,USKansasButler,Kansas,Butler,2021-04-04 10:59:53.037940,2020-06-04 00:00:00.000000,0.02339830,0.04625682,0.07587151,15,30,50,9,21,27,0.01372702,0.03229270,0.04161747,0.06836085,0.12837150,0.15299057
20015,0,USKansasButler,Kansas,Butler,2021-04-04 10:59:53.037940,2020-06-05 00:00:00.000000,0.02389769,0.04608057,0.07767312,15,30,51,9,21,28,0.01400157,0.03216579,0.04224700,0.06833176,0.12905521,0.15446846
20015,0,USKansasButler,Kansas,Butler,2021-04-04 10:59:53.037940,2020-06-06 00:00:00.000000,0.02435281,0.04591855,0.07937708,16,30,53,9,21,28,0.01426147,0.03204254,0.04284587,0.06825024,0.12958832,0.15692936
20015,0,USKansasButler,Kansas,Butler,2021-04-04 10:59:53.037940,2020-06-07 00:00:00.000000,0.02476362,0.04576852,0.08092448,16,30,54,9,21,29,0.01450135,0.03192571,0.04341479,0.06801776,0.12997202,0.15199425
20015,0,USKansasButler,Kansas,Butler,2021-04-04 10:59:53.037940,2020-06-08 00:00:00.000000,0.02800484,0.04649328,0.08016756,18,31,53,9,21,29,0.01472369,0.03181596,0.04395383,0.06742893,0.13026855,0.14819162
20015,0,USKansasButler,Kansas,Butler,2021-04-04 10:59:53.037940,2020-06-09 00:00:00.000000,0.02848029,0.04722847,0.07915157,19,31,52,10,21,29,0.01587283,0.03198611,0.04407116,0.06632479,0.13058537,0.15668681
20015,0,USKansasButler,Kansas,Butler,2021-04-04 10:59:53.037940,2020-06-10 00:00:00.000000,0.02863755,0.04799827,0.07787332,19,32,52,10,21,29,0.01625442,0.03231855,0.04390595,0.06517432,0.13109907,0.15969206
20015,0,USKansasButler,Kansas,Butler,2021-04-04 10:59:53.037940,2020-06-11 00:00:00.000000,0.02933663,0.04879183,0.07646149,19,32,51,11,21,29,0.01648727,0.03274449,0.04355279,0.06494789,0.13211143,0.16261719
20015,0,USKansasButler,Kansas,Butler,2021-04-04 10:59:53.037940,2020-06-12 00:00:00.000000,0.02975687,0.04961464,0.07501387,19,33,50,10,22,28,0.01628325,0.03322589,0.04308197,0.06607794,0.13403470,0.15554197
20015,0,USKansasButler,Kansas,Butler,2021-04-04 10:59:53.037940,2020-06-13 00:00:00.000000,0.03016947,0.05048113,0.07359226,20,33,49,10,22,28,0.01612644,0.03374543,0.04254985,0.06828296,0.13703045,0.16263165
20015,0,USKansasButler,Kansas,Butler,2021-04-04 10:59:53.037940,2020-06-14 00:00:00.000000,0.03057029,0.05139713,0.07223033,20,34,48,10,22,28,0.01600159,0.03429918,0.04200004,0.07063080,0.14041515,0.16617642
20015,0,USKansasButler,Kansas,Butler,2021-04-04 10:59:53.037940,2020-06-15 00:00:00.000000,0.03360589,0.05143589,0.06892947,22,34,46,10,23,27,0.01624065,0.03488732,0.04146092,0.07238107,0.14308105,0.17159229
20015,0,USKansasButler,Kansas,Butler,2021-04-04 10:59:53.037940,2020-06-16 00:00:00.000000,0.03662327,0.05149111,0.07240740,24,34,48,11,23,28,0.01692129,0.03521737,0.04272580,0.07399238,0.14465215,0.17502705
20015,0,USKansasButler,Kansas,Butler,2021-04-04 10:59:53.037940,2020-06-17 00:00:00.000000,0.03844259,0.05152338,0.07712155,25,34,51,12,23,29,0.01857668,0.03540498,0.04407763,0.07515336,0.14548310,0.17724972
20015,0,USKansasButler,Kansas,Butler,2021-04-04 10:59:53.037940,2020-06-18 00:00:00.000000,0.03841791,0.05155071,0.07562471,25,34,50,13,23,29,0.01963954,0.03551371,0.04350511,0.07653195,0.14631149,0.17900775
20015,0,USKansasButler,Kansas,Butler,2021-04-04 10:59:53.037940,2020-06-19 00:00:00.000000,0.03842794,0.05163314,0.07413290,25,34,49,13,23,28,0.01970256,0.03558089,0.04277107,0.07993013,0.14970862,0.18091329
20015,0,USKansasButler,Kansas,Butler,2021-04-04 10:59:53.037940,2020-06-20 00:00:00.000000,0.03709954,0.05199691,0.07267587,24,34,48,13,23,28,0.02030850,0.03564431,0.04198780,0.08356991,0.16403644,0.18333322
20015,0,USKansasButler,Kansas,Butler,2021-04-04 10:59:53.037940,2020-06-21 00:00:00.000000,0.03568413,0.05276677,0.07100827,23,35,47,13,23,27,0.01977548,0.03579554,0.04119486,0.08739160,0.18356863,0.19109444
20015,0,USKansasButler,Kansas,Butler,2021-04-04 10:59:53.037940,2020-06-22 00:00:00.000000,0.03635796,0.05529196,0.07240952,24,36,48,13,24,27,0.01979757,0.03612481,0.04040634,0.08964055,0.18940772,0.20163779
20015,0,USKansasButler,Kansas,Butler,2021-04-04 10:59:53.037940,2020-06-23 00:00:00.000000,0.03713542,0.05794146,0.07416146,24,38,49,13,24,27,0.01971081,0.03710645,0.04040224,0.08967056,0.19467555,0.20737779
20015,0,USKansasButler,Kansas,Butler,2021-04-04 10:59:53.037940,2020-06-24 00:00:00.000000,0.03748977,0.06083395,0.07615720,25,40,50,13,25,27,0.02010909,0.03849253,0.04083957,0.08951972,0.20320141,0.20954600
20015,0,USKansasButler,Kansas,Butler,2021-04-04 10:59:53.037940,2020-06-25 00:00:00.000000,0.03813395,0.06396275,0.07820338,25,42,52,13,26,27,0.02065728,0.04016315,0.04146933,0.08900271,0.21215625,0.21542973
20015,0,USKansasButler,Kansas,Butler,2021-04-04 10:59:53.037940,2020-06-26 00:00:00.000000,0.03981774,0.06725018,0.07980682,26,44,53,14,28,28,0.02095514,0.04205757,0.04254487,0.09088192,0.21721980,0.22025083
20015,0,USKansasButler,Kansas,Butler,2021-04-04 10:59:53.037940,2020-06-27 00:00:00.000000,0.04000792,0.07063257,0.08163544,26,47,54,13,29,29,0.02050247,0.04412131,0.04456865,0.09698880,0.21915793,0.22210446
20015,0,USKansasButler,Kansas,Butler,2021-04-04 10:59:53.037940,2020-06-28 00:00:00.000000,0.03805025,0.07408110,0.08373605,25,49,56,13,30,31,0.02017787,0.04630550,0.04671489,0.10793179,0.21987053,0.22329992
20015,0,USKansasButler,Kansas,Butler,2021-04-04 10:59:53.037940,2020-06-29 00:00:00.000000,0.04043513,0.07710532,0.08363580,27,51,55,13,32,32,0.02029097,0.04857517,0.04894824,0.11802884,0.22179339,0.22690729
20015,0,USKansasButler,Kansas,Butler,2021-04-04 10:59:53.037940,2020-06-30 00:00:00.000000,0.04082040,0.08019944,0.08398670,27,53,56,13,33,34,0.02061698,0.05075715,0.05115168,0.12293619,0.22410744,0.22770781
20015,0,USKansasButler,Kansas,Butler,2021-04-04 10:59:53.037940,2020-07-01 00:00:00.000000,0.04201270,0.08339242,0.08400134,28,55,56,13,35,35,0.02081787,0.05291001,0.05336558,0.12514021,0.22504041,0.22930247
20015,0,USKansasButler,Kansas,Butler,2021-04-04 10:59:53.037940,2020-07-02 00:00:00.000000,0.04211896,0.08678424,0.08754224,28,58,58,14,36,37,0.02112927,0.05508209,0.05561877,0.12723470,0.23069103,0.23341981
20015,0,USKansasButler,Kansas,Butler,2021-04-04 10:59:53.037940,2020-07-03 00:00:00.000000,0.04218521,0.09042005,0.09135510,28,60,61,14,38,38,0.02174773,0.05733007,0.05796463,0.13066338,0.23755043,0.26533496
20015,0,USKansasButler,Kansas,Butler,2021-04-04 10:59:53.037940,2020-07-04 00:00:00.000000,0.04259787,0.09423685,0.09536953,28,63,63,15,39,40,0.02259603,0.05969852,0.06044621,0.13570703,0.24168456,0.29240431
20015,0,USKansasButler,Kansas,Butler,2021-04-04 10:59:53.037940,2020-07-05 00:00:00.000000,0.04327365,0.09817139,0.09951744,28,65,66,15,41,42,0.02337431,0.06219085,0.06306663,0.14090762,0.24320488,0.29615198
20015,0,USKansasButler,Kansas,Butler,2021-04-04 10:59:53.037940,2020-07-06 00:00:00.000000,0.04532508,0.10435606,0.10636953,30,69,71,15,43,44,0.02361990,0.06478745,0.06580465,0.14458549,0.24327558,0.29778509
20015,0,USKansasButler,Kansas,Butler,2021-04-04 10:59:53.037940,2020-07-07 00:00:00.000000,0.04667661,0.11057856,0.11326178,31,73,75,16,45,46,0.02446260,0.06815054,0.06945992,0.14658859,0.24192467,0.29813229
20015,0,USKansasButler,Kansas,Butler,2021-04-04 10:59:53.037940,2020-07-08 00:00:00.000000,0.04868254,0.11412360,0.12018964,32,76,80,17,48,49,0.02581320,0.07195927,0.07364836,0.14758931,0.23754895,0.29747772
20015,0,USKansasButler,Kansas,Butler,2021-04-04 10:59:53.037940,2020-07-09 00:00:00.000000,0.05022233,0.11676434,0.12686342,33,78,84,18,50,52,0.02727794,0.07600289,0.07812187,0.14824276,0.22740513,0.29585916
20015,0,USKansasButler,Kansas,Butler,2021-04-04 10:59:53.037940,2020-07-10 00:00:00.000000,0.05173109,0.12284834,0.13300936,34,82,88,18,52,55,0.02823899,0.07784985,0.08266188,0.14978713,0.21262902,0.29325533
20015,0,USKansasButler,Kansas,Butler,2021-04-04 10:59:53.037940,2020-07-11 00:00:00.000000,0.05381756,0.12864376,0.13865703,36,86,92,19,53,58,0.02917932,0.07950541,0.08706621,0.14608262,0.19971736,0.28980565
20015,0,USKansasButler,Kansas,Butler,2021-04-04 10:59:53.037940,2020-07-12 00:00:00.000000,0.05596292,0.13425875,0.14395153,37,89,96,19,54,61,0.02904095,0.08103635,0.09123627,0.14553428,0.19186020,0.28597921
20015,0,USKansasButler,Kansas,Butler,2021-04-04 10:59:53.037940,2020-07-13 00:00:00.000000,0.05753927,0.13712265,0.14772668,38,91,98,19,55,63,0.02894784,0.08247114,0.09516818,0.14594431,0.18579000,0.28244845
20015,0,USKansasButler,Kansas,Butler,2021-04-04 10:59:53.037940,2020-07-14 00:00:00.000000,0.05875580,0.14177379,0.15119428,39,94,101,19,56,65,0.02940669,0.08450139,0.09849421,0.14705361,0.18171721,0.31674991
20015,0,USKansasButler,Kansas,Butler,2021-04-04 10:59:53.037940,2020-07-15 00:00:00.000000,0.06010623,0.14680458,0.15439140,40,98,103,20,58,67,0.03044018,0.08690096,0.10138658,0.14935288,0.17902941,0.34160662
20015,0,USKansasButler,Kansas,Butler,2021-04-04 10:59:53.037940,2020-07-16 00:00:00.000000,0.06145135,0.15169529,0.15742834,41,101,105,21,59,69,0.03189710,0.08952995,0.10396734,0.15371653,0.17742891,0.34647691
20015,0,USKansasButler,Kansas,Butler,2021-04-04 10:59:53.037940,2020-07-17 00:00:00.000000,0.06534531,0.15485999,0.16037279,43,103,107,22,61,71,0.03372985,0.09230397,0.10633398,0.16067143,0.17678814,0.35319089
20015,0,USKansasButler,Kansas,Butler,2021-04-04 10:59:53.037940,2020-07-18 00:00:00.000000,0.06999412,0.15797294,0.16326004,46,105,109,23,63,72,0.03479854,0.09516947,0.10855870,0.16905506,0.17655232,0.35951111
20015,0,USKansasButler,Kansas,Butler,2021-04-04 10:59:53.037940,2020-07-19 00:00:00.000000,0.07500064,0.16104723,0.16610832,50,107,111,24,65,74,0.03635610,0.09809028,0.11069020,0.17506051,0.17647286,0.35818976
20015,0,USKansasButler,Kansas,Butler,2021-04-04 10:59:53.037940,2020-07-20 00:00:00.000000,0.08127522,0.16314128,0.16850132,54,109,112,25,67,75,0.03798235,0.10104117,0.11275948,0.17509014,0.17646401,0.35778415
20015,0,USKansasButler,Kansas,Butler,2021-04-04 10:59:53.037940,2020-07-21 00:00:00.000000,0.08784176,0.16521141,0.17105899,58,110,114,27,69,76,0.04183554,0.10317139,0.11465111,0.17529751,0.17653187,0.35788722
20015,0,USKansasButler,Kansas,Butler,2021-04-04 10:59:53.037940,2020-07-22 00:00:00.000000,0.09085302,0.16724137,0.17373190,60,111,116,31,70,77,0.04701281,0.10549195,0.11643572,0.17586643,0.17681283,0.35840283
20015,0,USKansasButler,Kansas,Butler,2021-04-04 10:59:53.037940,2020-07-23 00:00:00.000000,0.09266857,0.16929393,0.17807901,62,113,119,32,73,79,0.04916502,0.10918774,0.11815832,0.17692676,0.17780224,0.35988973
20015,0,USKansasButler,Kansas,Butler,2021-04-04 10:59:53.037940,2020-07-24 00:00:00.000000,0.09470407,0.17151115,0.19312249,63,114,129,34,75,80,0.05120431,0.11307616,0.11985947,0.17993504,0.18081286,0.38436779
20015,0,USKansasButler,Kansas,Butler,2021-04-04 10:59:53.037940,2020-07-25 00:00:00.000000,0.09661752,0.17413749,0.20824977,64,116,139,35,78,81,0.05328519,0.11676323,0.12160469,0.18652059,0.18716297,0.37769888
20015,0,USKansasButler,Kansas,Butler,2021-04-04 10:59:53.037940,2020-07-26 00:00:00.000000,0.09860397,0.17726485,0.22340698,65,118,149,36,79,82,0.05413762,0.11842624,0.12350285,0.19411918,0.19481860,0.39300867
20015,0,USKansasButler,Kansas,Butler,2021-04-04 10:59:53.037940,2020-07-27 00:00:00.000000,0.10350846,0.17914419,0.22685737,69,119,151,36,80,84,0.05498308,0.12032727,0.12563279,0.19801191,0.19944413,0.39431782
20015,0,USKansasButler,Kansas,Butler,2021-04-04 10:59:53.037940,2020-07-28 00:00:00.000000,0.10896791,0.18118996,0.23028587,72,121,154,37,81,85,0.05657815,0.12196377,0.12744815,0.19983435,0.20148949,0.38763663
20015,0,USKansasButler,Kansas,Butler,2021-04-04 10:59:53.037940,2020-07-29 00:00:00.000000,0.11337325,0.18331774,0.23338532,75,122,156,39,82,86,0.05952904,0.12349338,0.12912475,0.20152283,0.20310142,0.37301640
20015,0,USKansasButler,Kansas,Butler,2021-04-04 10:59:53.037940,2020-07-30 00:00:00.000000,0.11771082,0.18564239,0.23636168,78,124,158,40,83,87,0.05985640,0.12499720,0.13076080,0.20494037,0.20627378,0.37789615
20015,0,USKansasButler,Kansas,Butler,2021-04-04 10:59:53.037940,2020-07-31 00:00:00.000000,0.11884289,0.18844220,0.23947594,79,126,160,40,84,88,0.06090553,0.12655174,0.13245171,0.21279274,0.21294032,0.39081642
20015,0,USKansasButler,Kansas,Butler,2021-04-04 10:59:53.037940,2020-08-01 00:00:00.000000,0.11990243,0.19223785,0.24310226,80,128,162,41,85,89,0.06257033,0.12828556,0.13435439,0.22696769,0.22859773,0.39907163
20015,0,USKansasButler,Kansas,Butler,2021-04-04 10:59:53.037940,2020-08-02 00:00:00.000000,0.12270527,0.19762921,0.24764023,82,132,165,43,87,91,0.06432758,0.13043369,0.13689223,0.24889360,0.25230182,0.40156437
20015,0,USKansasButler,Kansas,Butler,2021-04-04 10:59:53.037940,2020-08-03 00:00:00.000000,0.13230698,0.21109898,0.25992736,88,141,173,44,89,93,0.06630508,0.13331509,0.14027860,0.27043973,0.27567594,0.40121585
20015,0,USKansasButler,Kansas,Butler,2021-04-04 10:59:53.037940,2020-08-04 00:00:00.000000,0.14205178,0.22592409,0.27579084,95,151,184,45,93,98,0.06789363,0.13915085,0.14660988,0.27662637,0.28899070,0.40078841
20015,0,USKansasButler,Kansas,Butler,2021-04-04 10:59:53.037940,2020-08-05 00:00:00.000000,0.15096553,0.24200080,0.29307846,101,161,196,46,98,103,0.06952487,0.14707207,0.15504732,0.27813295,0.29542014,0.39783068
20015,0,USKansasButler,Kansas,Butler,2021-04-04 10:59:53.037940,2020-08-06 00:00:00.000000,0.15566655,0.25903929,0.30589230,104,173,204,47,104,110,0.07133002,0.15647497,0.16499419,0.28216549,0.29884256,0.40036556
20015,0,USKansasButler,Kansas,Butler,2021-04-04 10:59:53.037940,2020-08-07 00:00:00.000000,0.16007534,0.27692226,0.31475234,107,185,210,49,111,117,0.07330241,0.16695898,0.17605602,0.28613550,0.30077943,0.40583589
20015,0,USKansasButler,Kansas,Butler,2021-04-04 10:59:53.037940,2020-08-08 00:00:00.000000,0.16369980,0.29589907,0.32445787,109,197,217,50,119,125,0.07540599,0.17828229,0.18799944,0.29263822,0.30478183,0.41562376
20015,0,USKansasButler,Kansas,Butler,2021-04-04 10:59:53.037940,2020-08-09 00:00:00.000000,0.16728539,0.31839506,0.33550167,111,213,224,51,127,134,0.07761538,0.19040081,0.20075658,0.29507417,0.33194817,0.43532722
20015,0,USKansasButler,Kansas,Butler,2021-04-04 10:59:53.037940,2020-08-10 00:00:00.000000,0.17546995,0.34143860,0.35657202,117,228,238,53,136,143,0.07992845,0.20406389,0.21479450,0.29640622,0.34755489,0.44639786
20015,0,USKansasButler,Kansas,Butler,2021-04-04 10:59:53.037940,2020-08-11 00:00:00.000000,0.18381675,0.36596277,0.38071033,122,244,254,55,146,153,0.08286630,0.21876096,0.22959772,0.29858651,0.34891037,0.45054172
20015,0,USKansasButler,Kansas,Butler,2021-04-04 10:59:53.037940,2020-08-12 00:00:00.000000,0.19270673,0.39202283,0.40638056,128,262,271,57,156,164,0.08639861,0.23446955,0.24525359,0.30582391,0.35034880,0.44932142
20015,0,USKansasButler,Kansas,Butler,2021-04-04 10:59:53.037940,2020-08-13 00:00:00.000000,0.20203389,0.42018583,0.43442498,135,281,290,60,168,175,0.09109981,0.25121305,0.26173127,0.31325167,0.35534617,0.44372324
20015,0,USKansasButler,Kansas,Butler,2021-04-04 10:59:53.037940,2020-08-14 00:00:00.000000,0.21176629,0.45139322,0.46607204,141,302,311,64,180,186,0.09633010,0.26918457,0.27940261,0.32457197,0.36580775,0.43656095
20015,0,USKansasButler,Kansas,Butler,2021-04-04 10:59:53.037940,2020-08-15 00:00:00.000000,0.22190245,0.48571438,0.50107133,148,324,335,68,193,199,0.10272635,0.28879051,0.29888250,0.32791913,0.37450793,0.43794657
20015,0,USKansasButler,Kansas,Butler,2021-04-04 10:59:53.037940,2020-08-16 00:00:00.000000,0.23247159,0.52263804,0.53871822,155,349,360,74,207,214,0.11092759,0.31027742,0.32066508,0.32920906,0.37763175,0.46043537
20015,0,USKansasButler,Kansas,Butler,2021-04-04 10:59:53.037940,2020-08-17 00:00:00.000000,0.23892866,0.55948444,0.57647150,159,374,385,80,223,230,0.12104662,0.33361038,0.34444203,0.33631214,0.37821164,0.49108633
20015,0,USKansasButler,Kansas,Butler,2021-04-04 10:59:53.037940,2020-08-18 00:00:00.000000,0.25044481,0.59879419,0.61654004,167,400,412,87,239,247,0.13006171,0.35791555,0.36929903,0.35599123,0.37787500,0.53811304
20015,0,USKansasButler,Kansas,Butler,2021-04-04 10:59:53.037940,2020-08-19 00:00:00.000000,0.26095696,0.64039015,0.65904796,174,428,440,91,256,264,0.13633215,0.38350004,0.39552165,0.35757901,0.37678415,0.56567640
20015,0,USKansasButler,Kansas,Butler,2021-04-04 10:59:53.037940,2020-08-20 00:00:00.000000,0.26908901,0.68413180,0.70427666,180,457,471,96,274,283,0.14374986,0.41051410,0.42327375,0.36615914,0.37446978,0.58378317
20015,0,USKansasButler,Kansas,Butler,2021-04-04 10:59:53.037940,2020-08-21 00:00:00.000000,0.27911243,0.72965598,0.75207584,186,488,503,100,293,302,0.15056503,0.43898753,0.45264155,0.36996857,0.37153674,0.59663074
20015,0,USKansasButler,Kansas,Butler,2021-04-04 10:59:53.037940,2020-08-22 00:00:00.000000,0.29284093,0.77644988,0.80219177,195,519,536,106,313,323,0.15889853,0.46881728,0.48363885,0.36384091,0.36845851,0.60919843
20015,0,USKansasButler,Kansas,Butler,2021-04-04 10:59:53.037940,2020-08-23 00:00:00.000000,0.31011579,0.82421123,0.85421518,207,551,571,111,334,345,0.16615643,0.49978190,0.51621676,0.35674747,0.36492478,0.63045204
20015,0,USKansasButler,Kansas,Butler,2021-04-04 10:59:53.037940,2020-08-24 00:00:00.000000,0.32856226,0.87172653,0.90717754,219,583,607,117,355,368,0.17509096,0.53166361,0.55032105,0.35101557,0.36200834,0.67110482
20015,0,USKansasButler,Kansas,Butler,2021-04-04 10:59:53.037940,2020-08-25 00:00:00.000000,0.34941654,0.92116332,0.98831344,233,616,661,123,377,391,0.18520413,0.56396287,0.58553909,0.34839544,0.36138722,0.72825477
20015,0,USKansasButler,Kansas,Butler,2021-04-04 10:59:53.037940,2020-08-26 00:00:00.000000,0.37291067,0.97687971,1.11068263,249,653,743,132,399,416,0.19770458,0.59708699,0.62229861,0.36024057,0.38012481,0.75814735
20015,0,USKansasButler,Kansas,Butler,2021-04-04 10:59:53.037940,2020-08-27 00:00:00.000000,0.39675178,1.06484301,1.21665400,265,712,814,140,423,443,0.20958458,0.63266096,0.66275635,0.44661908,0.47254699,0.80905142
20015,0,USKansasButler,Kansas,Butler,2021-04-04 10:59:53.037940,2020-08-28 00:00:00.000000,0.42427835,1.18225155,1.30438139,283,791,872,149,454,479,0.22364059,0.67979522,0.71687231,0.45455579,0.52012236,0.82440375
20015,0,USKansasButler,Kansas,Butler,2021-04-04 10:59:53.037940,2020-08-29 00:00:00.000000,0.46094082,1.31199340,1.41122751,308,877,944,161,496,525,0.24124643,0.74273561,0.78609192,0.46853328,0.52810029,0.82940156
20015,0,USKansasButler,Kansas,Butler,2021-04-04 10:59:53.037940,2020-08-30 00:00:00.000000,0.51631591,1.45482184,1.54361248,345,973,1032,176,547,580,0.26358237,0.81818079,0.86743119,0.49075404,0.52853973,0.83030780
20015,0,USKansasButler,Kansas,Butler,2021-04-04 10:59:53.037940,2020-08-31 00:00:00.000000,0.58823493,1.61289482,1.70917840,393,1079,1143,195,605,642,0.29268332,0.90435781,0.95962407,0.52037808,0.52849606,0.82878900
20015,0,USKansasButler,Kansas,Butler,2021-04-04 10:59:53.037940,2020-09-01 00:00:00.000000,0.67480706,1.78719991,1.89289689,451,1195,1266,221,669,711,0.33042776,1.00107429,1.06273994,0.52718722,0.52841698,0.82384507
20015,0,USKansasButler,Kansas,Butler,2021-04-04 10:59:53.037940,2020-09-02 00:00:00.000000,0.77604635,1.97935232,2.09618208,519,1324,1402,252,741,787,0.37698235,1.10860597,1.17722168,0.52698691,0.52827155,0.81195432
20015,0,USKansasButler,Kansas,Butler,2021-04-04 10:59:53.037940,2020-09-03 00:00:00.000000,0.88896288,2.19089277,2.32027621,594,1465,1552,289,821,872,0.43231814,1.22763341,1.30385153,0.52648265,0.52788470,0.84659104
20015,0,USKansasButler,Kansas,Butler,2021-04-04 10:59:53.037940,2020-09-04 00:00:00.000000,1.01080537,2.42295965,2.56593745,676,1621,1716,331,908,965,0.49536605,1.35797947,1.44356208,0.52496214,0.52657166,0.88520982
20015,0,USKansasButler,Kansas,Butler,2021-04-04 10:59:53.037940,2020-09-05 00:00:00.000000,1.14525844,2.67481037,2.83249014,766,1789,1895,377,1004,1068,0.56467293,1.50051307,1.59721404,0.52030597,0.52572380,0.88145671
20015,0,USKansasButler,Kansas,Butler,2021-04-04 10:59:53.037940,2020-09-06 00:00:00.000000,1.29616487,2.94214142,3.11665556,867,1968,2085,428,1108,1181,0.64096365,1.65739864,1.76505881,0.51032767,0.52256929,0.89457457
20015,0,USKansasButler,Kansas,Butler,2021-04-04 10:59:53.037940,2020-09-07 00:00:00.000000,1.47768136,3.22553598,3.41986657,988,2158,2288,485,1223,1302,0.72603401,1.82885835,1.94618101,0.49793526,0.51906735,0.85514445
20015,0,USKansasButler,Kansas,Butler,2021-04-04 10:59:53.037940,2020-09-08 00:00:00.000000,1.68083293,3.52733162,3.74351853,1124,2360,2504,552,1347,1432,0.82570252,2.01359412,2.14046091,0.49030245,0.50626076,0.85199646
20015,0,USKansasButler,Kansas,Butler,2021-04-04 10:59:53.037940,2020-09-09 00:00:00.000000,1.91033827,3.84777514,4.08586649,1278,2574,2733,628,1477,1571,0.93932589,2.20749298,2.34817648,0.48320445,0.49583874,0.84451873
20015,0,USKansasButler,Kansas,Butler,2021-04-04 10:59:53.037940,2020-09-10 00:00:00.000000,2.16949430,4.18301619,4.44184844,1451,2798,2972,685,1615,1719,1.02453379,2.41387178,2.56929881,0.47302207,0.48131028,0.82998037
20015,0,USKansasButler,Kansas,Butler,2021-04-04 10:59:53.037940,2020-09-11 00:00:00.000000,2.46196788,4.52613624,4.80643164,1647,3028,3216,777,1760,1875,1.16244754,2.63171159,2.80240267,0.45771991,0.45819625,0.80583538
20015,0,USKansasButler,Kansas,Butler,2021-04-04 10:59:53.037940,2020-09-12 00:00:00.000000,2.79151591,4.86885551,5.17047011,1867,3257,3459,882,1912,2037,1.31846914,2.85823585,3.04439086,0.43862204,0.43917823,0.78281302
20015,0,USKansasButler,Kansas,Butler,2021-04-04 10:59:53.037940,2020-09-13 00:00:00.000000,3.10151828,5.20484532,5.52806151,2075,3482,3698,989,2067,2202,1.47813757,3.08928613,3.29098259,0.41866114,0.41870978,0.75757360
20015,0,USKansasButler,Kansas,Butler,2021-04-04 10:59:53.037940,2020-09-14 00:00:00.000000,3.43990303,5.52967219,5.94338906,2301,3699,3976,1088,2221,2367,1.62727990,3.32059250,3.53797653,0.40028574,0.40084416,0.75968483
20015,0,USKansasButler,Kansas,Butler,2021-04-04 10:59:53.037940,2020-09-15 00:00:00.000000,3.74078110,5.84647836,6.48865739,2502,3911,4341,1197,2374,2530,1.78924054,3.54846361,3.78170892,0.38535710,0.38618293,0.75572592
20015,0,USKansasButler,Kansas,Butler,2021-04-04 10:59:53.037940,2020-09-16 00:00:00.000000,4.06304234,6.15213715,6.86874921,2718,4116,4595,1314,2523,2690,1.96459610,3.77192796,4.02112706,0.37126874,0.37200094,0.74408804
20015,0,USKansasButler,Kansas,Butler,2021-04-04 10:59:53.037940,2020-09-17 00:00:00.000000,4.35680969,6.42781496,7.07681029,2915,4300,4735,1422,2669,2846,2.12535644,3.98955775,4.25450284,0.34880812,0.35030371,0.71409667
20015,0,USKansasButler,Kansas,Butler,2021-04-04 10:59:53.037940,2020-09-18 00:00:00.000000,4.59811063,6.63214594,7.16561800,3076,4437,4794,1511,2806,2994,2.25891483,4.19460699,4.47475663,0.26560270,0.30935571,0.60907785
20015,0,USKansasButler,Kansas,Butler,2021-04-04 10:59:53.037940,2020-09-19 00:00:00.000000,4.75306994,6.74011598,7.17949483,3180,4509,4803,1590,2924,3121,2.37758212,4.37020327,4.66477199,0.21428323,0.26147214,0.47146160
20015,0,USKansasButler,Kansas,Butler,2021-04-04 10:59:53.037940,2020-09-20 00:00:00.000000,4.80238571,6.76333010,7.20946281,3213,4525,4823,1656,3010,3215,2.47531535,4.49905785,4.80596272,0.20173421,0.22511930,0.39722463
20015,0,USKansasButler,Kansas,Butler,2021-04-04 10:59:53.037940,2020-09-21 00:00:00.000000,4.76352504,6.72918555,7.17920436,3187,4502,4803,1703,3061,3273,2.54583487,4.57555394,4.89165461,0.19992526,0.20187078,0.34965429
20015,0,USKansasButler,Kansas,Butler,2021-04-04 10:59:53.037940,2020-09-22 00:00:00.000000,4.66021367,6.66220996,7.11498221,3118,4457,4760,1728,3081,3297,2.58322467,4.60569957,4.92817615,0.18909186,0.19132363,0.31222862
20015,0,USKansasButler,Kansas,Butler,2021-04-04 10:59:53.037940,2020-09-23 00:00:00.000000,4.57044017,6.57869731,7.03302540,3058,4401,4705,1728,3078,3297,2.58344736,4.60078971,4.92762879,0.18497909,0.18739024,0.29182932
20015,0,USKansasButler,Kansas,Butler,2021-04-04 10:59:53.037940,2020-09-24 00:00:00.000000,4.46360719,6.48664926,6.94281360,2986,4340,4645,1705,3059,3279,2.54965154,4.57212762,4.90195295,0.17979927,0.18604067,0.27278756
20015,0,USKansasButler,Kansas,Butler,2021-04-04 10:59:53.037940,2020-09-25 00:00:00.000000,4.34417953,6.38998921,6.84640837,2906,4275,4581,1666,3029,3251,2.49019686,4.52823974,4.86008736,0.17917809,0.18558473,0.26811556
20015,0,USKansasButler,Kansas,Butler,2021-04-04 10:59:53.037940,2020-09-26 00:00:00.000000,4.21905650,6.29074315,6.74708557,2823,4209,4514,1605,2994,3217,2.39912278,4.47480927,4.80796753,0.17896771,0.18542148,0.26503299
20015,0,USKansasButler,Kansas,Butler,2021-04-04 10:59:53.037940,2020-09-27 00:00:00.000000,4.09177961,6.19000375,6.64718419,2737,4141,4447,1535,2954,3177,2.29492831,4.41541943,4.74932984,0.17890188,0.18534090,0.26167360
20015,0,USKansasButler,Kansas,Butler,2021-04-04 10:59:53.037940,2020-09-28 00:00:00.000000,3.96250673,6.08891808,6.54749094,2651,4074,4380,1463,2912,3135,2.18792028,4.35227510,4.68647245,0.17890029,0.18525178,0.25883699
20015,0,USKansasButler,Kansas,Butler,2021-04-04 10:59:53.037940,2020-09-29 00:00:00.000000,3.83010360,5.98715307,6.44630612,2562,4006,4313,1392,2868,3091,2.08175408,4.28689286,4.62101917,0.17892967,0.18507413,0.25418981
20015,0,USKansasButler,Kansas,Butler,2021-04-04 10:59:53.037940,2020-09-30 00:00:00.000000,3.65319272,5.88463338,6.34326538,2444,3937,4244,1331,2823,3046,1.99055712,4.21997957,4.55367938,0.17897341,0.18468559,0.25335396
20015,0,USKansasButler,Kansas,Butler,2021-04-04 10:59:53.037940,2020-10-01 00:00:00.000000,3.48428689,5.78092848,6.23772262,2331,3868,4173,1290,2778,3000,1.92822911,4.15188555,4.48478393,0.17901303,0.18393360,0.26233961
20015,0,USKansasButler,Kansas,Butler,2021-04-04 10:59:53.037940,2020-10-02 00:00:00.000000,3.32597648,5.67554417,6.12931385,2225,3797,4101,1248,2731,2953,1.86612911,4.08267227,4.41435155,0.17737972,0.18176839,0.27076321
20015,0,USKansasButler,Kansas,Butler,2021-04-04 10:59:53.037940,2020-10-03 00:00:00.000000,3.18179129,5.56854786,6.01849799,2128,3725,4027,1193,2684,2905,1.78307852,4.01222619,4.34223761,0.17518999,0.18068512,0.27703826
20015,0,USKansasButler,Kansas,Butler,2021-04-04 10:59:53.037940,2020-10-04 00:00:00.000000,3.05265080,5.46076138,5.90642564,2042,3653,3952,1139,2636,2856,1.70361524,3.94051865,4.26844556,0.17724927,0.17999636,0.28104234
20015,0,USKansasButler,Kansas,Butler,2021-04-04 10:59:53.037940,2020-10-05 00:00:00.000000,2.94267930,5.35137727,5.79270218,1968,3580,3875,1091,2587,2805,1.63069038,3.86781075,4.19331358,0.17577448,0.18090420,0.28354774
20015,0,USKansasButler,Kansas,Butler,2021-04-04 10:59:53.037940,2020-10-06 00:00:00.000000,2.85122233,5.24338753,5.68012671,1907,3508,3800,1047,2538,2754,1.56576302,3.79400850,4.11682329,0.17907596,0.18130169,0.28549859
20015,0,USKansasButler,Kansas,Butler,2021-04-04 10:59:53.037940,2020-10-07 00:00:00.000000,2.77965512,5.13811450,5.57008679,1859,3437,3727,1010,2489,2703,1.50950590,3.72000342,4.03991579,0.18024796,0.18242666,0.28765574
20015,0,USKansasButler,Kansas,Butler,2021-04-04 10:59:53.037940,2020-10-08 00:00:00.000000,2.72513814,5.03767162,5.48266900,1823,3370,3668,978,2440,2652,1.46257303,3.64673211,3.96356997,0.18269174,0.18473200,0.28989962
20015,0,USKansasButler,Kansas,Butler,2021-04-04 10:59:53.037940,2020-10-09 00:00:00.000000,2.68250426,4.94513932,5.42268413,1794,3308,3628,953,2392,2602,1.42468162,3.57537074,3.88899901,0.18709013,0.18880370,0.29345542
20015,0,USKansasButler,Kansas,Butler,2021-04-04 10:59:53.037940,2020-10-10 00:00:00.000000,2.64722891,4.86402769,5.37512087,1771,3254,3596,933,2346,2554,1.39446703,3.50753608,3.81781096,0.19383265,0.19477719,0.29950335
20015,0,USKansasButler,Kansas,Butler,2021-04-04 10:59:53.037940,2020-10-11 00:00:00.000000,2.53925865,4.79637913,5.32915968,1699,3209,3565,916,2305,2510,1.37010955,3.44522341,3.75183299,0.20160218,0.20215331,0.31385130
20015,0,USKansasButler,Kansas,Butler,2021-04-04 10:59:53.037940,2020-10-12 00:00:00.000000,2.41813471,4.74250960,5.27411512,1617,3173,3528,903,2268,2470,1.34992516,3.39016540,3.69239701,0.20489284,0.21003625,0.31879010
20015,0,USKansasButler,Kansas,Butler,2021-04-04 10:59:53.037940,2020-10-13 00:00:00.000000,2.30420605,4.69775920,5.23144583,1541,3143,3500,891,2237,2435,1.33167340,3.34338804,3.64016177,0.20858047,0.21597486,0.32699958
20015,0,USKansasButler,Kansas,Butler,2021-04-04 10:59:53.037940,2020-10-14 00:00:00.000000,2.21178843,4.65918824,5.19390584,1479,3117,3475,879,2210,2404,1.31494577,3.30395430,3.59399265,0.21473001,0.22008378,0.33104847
20015,0,USKansasButler,Kansas,Butler,2021-04-04 10:59:53.037940,2020-10-15 00:00:00.000000,2.14402778,4.62559532,5.15526179,1434,3095,3449,869,2188,2377,1.29981015,3.27037819,3.55254026,0.21767298,0.22360615,0.34137024
20015,0,USKansasButler,Kansas,Butler,2021-04-04 10:59:53.037940,2020-10-16 00:00:00.000000,2.09683378,4.59841779,5.11747288,1403,3076,3424,861,2168,2351,1.28719635,3.24147803,3.51496389,0.22238619,0.22841192,0.36437688
20015,0,USKansasButler,Kansas,Butler,2021-04-04 10:59:53.037940,2020-10-17 00:00:00.000000,2.06209010,4.58247676,5.08159441,1379,3066,3400,856,2152,2329,1.27934090,3.21709439,3.48156630,0.23137419,0.23695507,0.39947969
20015,0,USKansasButler,Kansas,Butler,2021-04-04 10:59:53.037940,2020-10-18 00:00:00.000000,2.03343851,4.58532598,5.05598190,1360,3068,3383,848,2140,2311,1.26875973,3.19870410,3.45443033,0.24670620,0.25127371,0.43349366
20015,0,USKansasButler,Kansas,Butler,2021-04-04 10:59:53.037940,2020-10-19 00:00:00.000000,2.01789976,4.61319990,5.03425648,1350,3086,3368,834,2134,2300,1.24725630,3.18954051,3.43751794,0.26634185,0.26977102,0.45653242
20015,0,USKansasButler,Kansas,Butler,2021-04-04 10:59:53.037940,2020-10-20 00:00:00.000000,2.04204486,4.66291013,5.03723911,1366,3119,3370,823,2136,2298,1.23033819,3.19336306,3.43509315,0.28347274,0.28658634,0.47587092
20015,0,USKansasButler,Kansas,Butler,2021-04-04 10:59:53.037940,2020-10-21 00:00:00.000000,2.04747790,4.72736647,5.07448768,1369,3163,3395,813,2148,2307,1.21598130,3.21119603,3.44814506,0.29458934,0.29788557,0.49518328
20015,0,USKansasButler,Kansas,Butler,2021-04-04 10:59:53.037940,2020-10-22 00:00:00.000000,2.05037933,4.80121120,5.14308721,1371,3212,3441,805,2168,2324,1.20376680,3.24126051,3.47446877,0.29673869,0.30499320,0.51836330
20015,0,USKansasButler,Kansas,Butler,2021-04-04 10:59:53.037940,2020-10-23 00:00:00.000000,2.08287902,4.88417988,5.24087591,1393,3268,3506,800,2195,2349,1.19595293,3.28082847,3.51091502,0.30884482,0.31188969,0.53835357
20015,0,USKansasButler,Kansas,Butler,2021-04-04 10:59:53.037940,2020-10-24 00:00:00.000000,2.16028992,4.98285672,5.36523534,1445,3334,3589,803,2227,2379,1.20058458,3.32833698,3.55573006,0.31284800,0.32370205,0.56880694
20015,0,USKansasButler,Kansas,Butler,2021-04-04 10:59:53.037940,2020-10-25 00:00:00.000000,2.26977824,5.10837783,5.51094009,1518,3418,3687,821,2264,2415,1.22751069,3.38507742,3.61045196,0.34346100,0.34368033,0.58732474
20015,0,USKansasButler,Kansas,Butler,2021-04-04 10:59:53.037940,2020-10-26 00:00:00.000000,2.36759499,5.26288560,5.67119298,1584,3521,3794,853,2312,2462,1.27517360,3.45535773,3.68036440,0.36487088,0.36880375,0.61375728
20015,0,USKansasButler,Kansas,Butler,2021-04-04 10:59:53.037940,2020-10-27 00:00:00.000000,2.47031467,5.43771743,5.84138744,1652,3638,3908,891,2370,2522,1.33272797,3.54226106,3.76973739,0.37022339,0.38547726,0.62022040
20015,0,USKansasButler,Kansas,Butler,2021-04-04 10:59:53.037940,2020-10-28 00:00:00.000000,2.59216224,5.62338544,6.01929570,1734,3762,4027,934,2438,2594,1.39700829,3.64465823,3.87775243,0.37268035,0.39294909,0.62269619
20015,0,USKansasButler,Kansas,Butler,2021-04-04 10:59:53.037940,2020-10-29 00:00:00.000000,2.73796830,5.81536463,6.20599849,1832,3891,4152,981,2515,2676,1.46616574,3.75881035,4.00002112,0.37610025,0.39579120,0.62283170
20015,0,USKansasButler,Kansas,Butler,2021-04-04 10:59:53.037940,2020-10-30 00:00:00.000000,2.91177315,6.01456072,6.40639524,1948,4024,4286,1030,2596,2764,1.53941907,3.88121017,4.13212110,0.38999781,0.39756731,0.62375266
20015,0,USKansasButler,Kansas,Butler,2021-04-04 10:59:53.037940,2020-10-31 00:00:00.000000,3.08109042,6.23196200,6.61025155,2061,4169,4422,1081,2683,2857,1.61632255,4.01028437,4.27114638,0.40034289,0.40236070,0.65493487
20015,0,USKansasButler,Kansas,Butler,2021-04-04 10:59:53.037940,2020-11-01 00:00:00.000000,3.27675856,6.46750551,6.84143636,2192,4327,4577,1137,2775,2955,1.69973360,4.14872950,4.41698807,0.40750256,0.41094897,0.66833370
20015,0,USKansasButler,Kansas,Butler,2021-04-04 10:59:53.037940,2020-11-02 00:00:00.000000,3.48835413,6.70961172,7.13349642,2334,4489,4773,1210,2875,3057,1.80870733,4.29811028,4.56999141,0.40899954,0.41338649,0.67048430
20015,0,USKansasButler,Kansas,Butler,2021-04-04 10:59:53.037940,2020-11-03 00:00:00.000000,3.71146457,6.95520489,7.40800260,2483,4653,4956,1288,2981,3163,1.92548693,4.45555970,4.72823601,0.40943065,0.41382410,0.67130159
20015,0,USKansasButler,Kansas,Butler,2021-04-04 10:59:53.037940,2020-11-04 00:00:00.000000,3.94628560,7.20383797,7.68931834,2640,4820,5144,1373,3090,3271,2.05209820,4.61841790,4.88987663,0.40990649,0.41432410,0.67217900
20015,0,USKansasButler,Kansas,Butler,2021-04-04 10:59:53.037940,2020-11-05 00:00:00.000000,4.19369306,7.45720158,7.97481477,2806,4989,5336,1459,3201,3381,2.18053578,4.78513023,5.05380252,0.41151314,0.41619949,0.67395518
20015,0,USKansasButler,Kansas,Butler,2021-04-04 10:59:53.037940,2020-11-06 00:00:00.000000,4.45536254,7.72349554,8.26051750,2981,5167,5527,1549,3315,3492,2.31568220,4.95543435,5.21988055,0.41733683,0.42297778,0.67826909
20015,0,USKansasButler,Kansas,Butler,2021-04-04 10:59:53.037940,2020-11-07 00:00:00.000000,4.72743137,8.02132300,8.54456519,3163,5367,5717,1644,3433,3606,2.45781453,5.13181724,5.39037951,0.43265826,0.43996214,0.70525357
20015,0,USKansasButler,Kansas,Butler,2021-04-04 10:59:53.037940,2020-11-08 00:00:00.000000,5.01474129,8.35736553,8.82747163,3355,5591,5906,1744,3560,3728,2.60769812,5.32157063,5.57228631,0.45226835,0.46005973,0.71319921
20015,0,USKansasButler,Kansas,Butler,2021-04-04 10:59:53.037940,2020-11-09 00:00:00.000000,5.31384793,8.71320130,9.10717804,3555,5830,6093,1850,3700,3862,2.76575648,5.53086256,5.77231826,0.46284255,0.47017891,0.70999821
20015,0,USKansasButler,Kansas,Butler,2021-04-04 10:59:53.037940,2020-11-10 00:00:00.000000,5.62268337,9.07668277,9.38136563,3762,6073,6277,1961,3852,4006,2.93159919,5.75713152,5.98846466,0.46597629,0.47291561,0.72730473
20015,0,USKansasButler,Kansas,Butler,2021-04-04 10:59:53.037940,2020-11-11 00:00:00.000000,5.94078686,9.44178859,9.75190069,3975,6317,6525,2077,4011,4158,3.10419803,5.99487811,6.21526313,0.46642424,0.47291265,0.74868508
20015,0,USKansasButler,Kansas,Butler,2021-04-04 10:59:53.037940,2020-11-12 00:00:00.000000,6.26619201,9.80436506,10.14049127,4192,6560,6785,2195,4174,4314,3.28147665,6.23917693,6.44778725,0.46587064,0.47164273,0.74492422
20015,0,USKansasButler,Kansas,Butler,2021-04-04 10:59:53.037940,2020-11-13 00:00:00.000000,6.59376318,10.16005548,10.47009934,4411,6798,7005,2282,4339,4471,3.41112353,6.48611410,6.68234029,0.46463028,0.46924210,0.70925788
20015,0,USKansasButler,Kansas,Butler,2021-04-04 10:59:53.037940,2020-11-14 00:00:00.000000,6.90437541,10.50418639,10.98332871,4619,7028,7349,2360,4504,4627,3.52753442,6.73225664,6.91601677,0.45525489,0.46569211,0.67133774
20015,0,USKansasButler,Kansas,Butler,2021-04-04 10:59:53.037940,2020-11-15 00:00:00.000000,7.15049624,10.83285028,11.33436951,4784,7248,7583,2441,4666,4781,3.64827859,6.97430212,7.14631139,0.43476891,0.46226114,0.65289388
20015,0,USKansasButler,Kansas,Butler,2021-04-04 10:59:53.037940,2020-11-16 00:00:00.000000,7.36451105,11.14414702,11.49197010,4927,7456,7689,2519,4823,4932,3.76576322,7.20924261,7.37102948,0.42565651,0.45933917,0.64117959
20015,0,USKansasButler,Kansas,Butler,2021-04-04 10:59:53.037940,2020-11-17 00:00:00.000000,7.47412705,11.43769161,11.63303145,5001,7653,7783,2587,4974,5077,3.86643116,7.43486393,7.58839735,0.41909254,0.45420433,0.64446307
20015,0,USKansasButler,Kansas,Butler,2021-04-04 10:59:53.037940,2020-11-18 00:00:00.000000,7.56550846,11.71325792,11.89644524,5062,7837,7960,2651,5118,5217,3.96224591,7.64986962,7.79706188,0.40818304,0.45186469,0.63309699
20015,0,USKansasButler,Kansas,Butler,2021-04-04 10:59:53.037940,2020-11-19 00:00:00.000000,7.73355534,11.96864109,12.13851762,5174,8008,8122,2704,5234,5350,4.04265531,7.82284622,7.99580344,0.39881944,0.44939961,0.62426304
20015,0,USKansasButler,Kansas,Butler,2021-04-04 10:59:53.037940,2020-11-20 00:00:00.000000,7.89044036,12.19578455,12.35009058,5279,8160,8263,2750,5327,5475,4.11043468,7.96278608,8.18279812,0.40292034,0.44424000,0.62403027
20015,0,USKansasButler,Kansas,Butler,2021-04-04 10:59:53.037940,2020-11-21 00:00:00.000000,7.96281711,12.37355377,12.50590892,5328,8279,8367,2788,5412,5589,4.16742620,8.08934846,8.35374762,0.39916629,0.43236212,0.62375513
20015,0,USKansasButler,Kansas,Butler,2021-04-04 10:59:53.037940,2020-11-22 00:00:00.000000,7.88059925,12.47319078,12.57245954,5272,8345,8412,2819,5485,5686,4.21355440,8.19755862,8.49800564,0.38896743,0.40577525,0.60540996
20015,0,USKansasButler,Kansas,Butler,2021-04-04 10:59:53.037940,2020-11-23 00:00:00.000000,7.73607189,12.49554980,12.55300322,5176,8360,8399,2842,5539,5753,4.24755700,8.27853785,8.59874032,0.37359380,0.38187087,0.59999746
20015,0,USKansasButler,Kansas,Butler,2021-04-04 10:59:53.037940,2020-11-24 00:00:00.000000,7.65983468,12.46830909,12.48084215,5125,8342,8351,2856,5572,5786,4.26902199,8.32840037,8.64769053,0.35973563,0.36956532,0.60532784
20015,0,USKansasButler,Kansas,Butler,2021-04-04 10:59:53.037940,2020-11-25 00:00:00.000000,7.52984809,12.36990401,12.41075891,5038,8276,8304,2863,5586,5788,4.27888979,8.34923107,8.65143794,0.35329963,0.36380993,0.60671854
20015,0,USKansasButler,Kansas,Butler,2021-04-04 10:59:53.037940,2020-11-26 00:00:00.000000,7.39180929,12.23248969,12.31763700,4945,8184,8241,2863,5584,5767,4.27907515,8.34607665,8.61994740,0.34765070,0.35835876,0.59506720
20015,0,USKansasButler,Kansas,Butler,2021-04-04 10:59:53.037940,2020-11-27 00:00:00.000000,7.25203788,12.06084476,12.28463660,4852,8070,8219,2858,5568,5727,4.27185421,8.32269928,8.55988078,0.33929780,0.34981463,0.59568873
20015,0,USKansasButler,Kansas,Butler,2021-04-04 10:59:53.037940,2020-11-28 00:00:00.000000,7.12639434,11.85331963,12.31413307,4768,7931,8239,2785,5570,5680,4.16332551,8.32581032,8.48916204,0.32881435,0.33861043,0.57929611
20015,0,USKansasButler,Kansas,Butler,2021-04-04 10:59:53.037940,2020-11-29 00:00:00.000000,7.16645933,11.63535813,12.23679655,4795,7785,8187,2762,5571,5623,4.12842645,8.32683140,8.40494605,0.32054400,0.32946137,0.58127556
20015,0,USKansasButler,Kansas,Butler,2021-04-04 10:59:53.037940,2020-11-30 00:00:00.000000,7.12866006,11.58638189,12.15093125,4769,7752,8130,2758,5504,5550,4.12331016,8.22725060,8.29562794,0.31796688,0.33693454,0.59695311
20015,0,USKansasButler,Kansas,Butler,2021-04-04 10:59:53.037940,2020-12-01 00:00:00.000000,7.05846974,11.36394442,12.07225074,4722,7603,8077,2752,5403,5464,4.11299875,8.07559983,8.16680364,0.32247868,0.34735880,0.62343343
20015,0,USKansasButler,Kansas,Butler,2021-04-04 10:59:53.037940,2020-12-02 00:00:00.000000,6.97838564,11.15374601,12.05134426,4669,7463,8063,2732,5296,5370,4.08421771,7.91522977,8.02658421,0.33658493,0.35156986,0.62634863
20015,0,USKansasButler,Kansas,Butler,2021-04-04 10:59:53.037940,2020-12-03 00:00:00.000000,6.89426461,10.97992067,12.05041077,4613,7346,8063,2701,5190,5276,4.03807236,7.75672099,7.88609381,0.36405399,0.36486354,0.62998009
20015,0,USKansasButler,Kansas,Butler,2021-04-04 10:59:53.037940,2020-12-04 00:00:00.000000,6.81536301,10.86428861,12.11460550,4560,7269,8106,2670,5094,5191,3.99062896,7.61384737,7.75904173,0.39992892,0.40939143,0.63515277
20015,0,USKansasButler,Kansas,Butler,2021-04-04 10:59:53.037940,2020-12-05 00:00:00.000000,6.78069774,10.81529994,12.08922922,4537,7236,8089,2618,5019,5122,3.91314684,7.50227831,7.65602033,0.44263015,0.46166171,0.64297591
20015,0,USKansasButler,Kansas,Butler,2021-04-04 10:59:53.037940,2020-12-06 00:00:00.000000,6.82042446,10.81999175,12.08934108,4563,7239,8089,2588,4973,5076,3.86805988,7.43309608,7.58678542,0.48025839,0.50034420,0.66984446
20015,0,USKansasButler,Kansas,Butler,2021-04-04 10:59:53.037940,2020-12-07 00:00:00.000000,6.78689475,10.85427720,12.15252690,4541,7262,8131,2598,4955,5053,3.88348123,7.40630288,7.55258334,0.50066451,0.52652975,0.68693135
20015,0,USKansasButler,Kansas,Butler,2021-04-04 10:59:53.037940,2020-12-08 00:00:00.000000,6.71403830,10.89964558,12.29465539,4492,7293,8226,2629,4959,5049,3.93052106,7.41226334,7.54642473,0.51303284,0.53216211,0.69244492
20015,0,USKansasButler,Kansas,Butler,2021-04-04 10:59:53.037940,2020-12-09 00:00:00.000000,6.64360364,10.94667997,12.35011174,4445,7324,8263,2650,4977,5057,3.96170483,7.43875138,7.55855951,0.53173791,0.53799914,0.71553254
20015,0,USKansasButler,Kansas,Butler,2021-04-04 10:59:53.037940,2020-12-10 00:00:00.000000,6.59582063,10.99647291,12.45112094,4413,7357,8331,2629,5001,5072,3.93007384,7.47546362,7.58072431,0.54409986,0.55395151,0.76301758
20015,0,USKansasButler,Kansas,Butler,2021-04-04 10:59:53.037940,2020-12-11 00:00:00.000000,6.61511208,11.05390627,12.54308743,4426,7396,8392,2608,5029,5091,3.89902976,7.51601173,7.60884844,0.55350989,0.57660615,0.85600735
20015,0,USKansasButler,Kansas,Butler,2021-04-04 10:59:53.037940,2020-12-12 00:00:00.000000,6.66585786,11.11286129,12.62137406,4460,7435,8445,2601,5056,5113,3.88820691,7.55711172,7.64175004,0.56339145,0.58352509,0.90867959
20015,0,USKansasButler,Kansas,Butler,2021-04-04 10:59:53.037940,2020-12-13 00:00:00.000000,6.74474835,11.16150184,12.70511445,4512,7468,8501,2617,5082,5137,3.91171750,7.59554635,7.67790336,0.58046083,0.58657384,0.93105505
20015,0,USKansasButler,Kansas,Butler,2021-04-04 10:59:53.037940,2020-12-14 00:00:00.000000,6.83005036,11.19358757,12.79616191,4570,7489,8562,2649,5103,5160,3.95992943,7.62758651,7.71262457,0.58282227,0.58761045,0.93975660
20015,0,USKansasButler,Kansas,Butler,2021-04-04 10:59:53.037940,2020-12-15 00:00:00.000000,6.91582014,11.20585126,12.88254565,4627,7497,8619,2642,5118,5179,3.94943028,7.65035166,7.74125121,0.58372281,0.58796911,0.94312450
20015,0,USKansasButler,Kansas,Butler,2021-04-04 10:59:53.037940,2020-12-16 00:00:00.000000,7.00186790,11.19748759,12.96427702,4685,7492,8674,2638,5126,5192,3.94317009,7.66172144,7.76030431,0.58430079,0.58821263,0.94438998
20015,0,USKansasButler,Kansas,Butler,2021-04-04 10:59:53.037940,2020-12-17 00:00:00.000000,7.08869052,11.16907618,12.90045533,4743,7473,8631,2635,5125,5197,3.93904812,7.66048838,7.76770455,0.58553246,0.58876551,0.94466754
20015,0,USKansasButler,Kansas,Butler,2021-04-04 10:59:53.037940,2020-12-18 00:00:00.000000,7.20231793,11.12326774,12.80714327,4819,7442,8569,2633,5116,5194,3.93635230,7.64618147,7.76255552,0.58868008,0.59034820,1.04835632
20015,0,USKansasButler,Kansas,Butler,2021-04-04 10:59:53.037940,2020-12-19 00:00:00.000000,7.34059218,11.06352495,12.71217545,4911,7402,8505,2642,5097,5182,3.94855216,7.61906682,7.74522398,0.59313696,0.59411174,1.05490765
20015,0,USKansasButler,Kansas,Butler,2021-04-04 10:59:53.037940,2020-12-20 00:00:00.000000,7.48033724,10.98926978,12.66693766,5005,7353,8475,2659,5071,5163,3.97506419,7.57989847,7.71700678,0.59563122,0.59893820,1.05620540
20015,0,USKansasButler,Kansas,Butler,2021-04-04 10:59:53.037940,2020-12-21 00:00:00.000000,7.61283371,10.90133697,12.62087498,5093,7294,8444,2638,5037,5137,3.94318782,7.52913012,7.67844514,0.59790376,0.60240365,1.05654297
20015,0,USKansasButler,Kansas,Butler,2021-04-04 10:59:53.037940,2020-12-22 00:00:00.000000,7.67154836,10.79978420,12.56836426,5133,7226,8409,2635,4996,5105,3.93877939,7.46769042,7.63006598,0.60179358,0.60717636,1.07058696
20015,0,USKansasButler,Kansas,Butler,2021-04-04 10:59:53.037940,2020-12-23 00:00:00.000000,7.68104720,10.69043238,12.51143541,5139,7153,8371,2638,4948,5066,3.94349450,7.39631841,7.57216331,0.61011493,0.61661634,1.10917585
20015,0,USKansasButler,Kansas,Butler,2021-04-04 10:59:53.037940,2020-12-24 00:00:00.000000,7.66411655,10.58344663,12.45209925,5128,7081,8331,2645,4895,5022,3.95371815,7.31713240,7.50668636,0.62728898,0.63524082,1.12745720
20015,0,USKansasButler,Kansas,Butler,2021-04-04 10:59:53.037940,2020-12-25 00:00:00.000000,7.61483957,10.49259641,12.39184235,5095,7020,8291,2659,4840,4976,3.97405955,7.23437078,7.43787475,0.65860512,0.66747689,1.14625330
20015,0,USKansasButler,Kansas,Butler,2021-04-04 10:59:53.037940,2020-12-26 00:00:00.000000,7.55079553,10.42850015,12.34089943,5052,6977,8257,2675,4787,4955,3.99839410,7.15481133,7.40676961,0.70408806,0.71192260,1.14932653
20015,0,USKansasButler,Kansas,Butler,2021-04-04 10:59:53.037940,2020-12-27 00:00:00.000000,7.47326452,10.38991684,12.39224022,5000,6951,8291,2691,4741,4956,4.02192027,7.08605172,7.40825822,0.75292475,0.75805238,1.15503628
20015,0,USKansasButler,Kansas,Butler,2021-04-04 10:59:53.037940,2020-12-28 00:00:00.000000,7.38630128,10.36439908,12.42083746,4942,6934,8310,2704,4705,4950,4.04173412,7.03230432,7.39801813,0.75700824,0.79626787,1.16409543
20015,0,USKansasButler,Kansas,Butler,2021-04-04 10:59:53.037940,2020-12-29 00:00:00.000000,7.31693311,10.34395151,12.41834303,4895,6921,8309,2715,4678,4934,4.05766577,6.99183006,7.37502523,0.80328363,0.82865874,1.16765983
20015,0,USKansasButler,Kansas,Butler,2021-04-04 10:59:53.037940,2020-12-30 00:00:00.000000,7.26182690,10.32363608,12.38294299,4858,6907,8285,2721,4657,4931,4.06802282,6.96091025,7.37032793,0.85020731,0.85781810,1.16482980
20015,0,USKansasButler,Kansas,Butler,2021-04-04 10:59:53.037940,2020-12-31 00:00:00.000000,7.19050557,10.30179468,12.29739438,4811,6893,8228,2724,4640,4931,4.07179426,6.93598982,7.37016583,0.86508319,0.88519928,1.18202807
20015,0,USKansasButler,Kansas,Butler,2021-04-04 10:59:53.037940,2021-01-01 00:00:00.000000,7.10292225,10.27135393,12.14622635,4752,6872,8127,2722,4626,4917,4.06839970,6.91472474,7.34985435,0.84509483,0.90676390,1.24611594
20015,0,USKansasButler,Kansas,Butler,2021-04-04 10:59:53.037940,2021-01-02 00:00:00.000000,6.99994797,10.21517976,11.94499404,4683,6835,7992,2714,4610,4886,4.05754117,6.89106042,7.30281936,0.82349350,0.93202109,1.32455039
20015,0,USKansasButler,Kansas,Butler,2021-04-04 10:59:53.037940,2021-01-03 00:00:00.000000,6.88257677,10.13398807,11.71079305,4605,6780,7835,2698,4589,4836,4.03284957,6.85864735,7.22822265,0.83901257,0.95276787,1.39796633
20015,0,USKansasButler,Kansas,Butler,2021-04-04 10:59:53.037940,2021-01-04 00:00:00.000000,6.75090959,10.02844343,11.45434343,4517,6710,7664,2669,4559,4770,3.99028672,6.81417964,7.12908184,0.85363068,0.96794579,1.41457327
20015,0,USKansasButler,Kansas,Butler,2021-04-04 10:59:53.037940,2021-01-05 00:00:00.000000,6.60711846,9.85539932,11.27939486,4420,6594,7547,2637,4520,4706,3.94131628,6.75624609,7.03450757,0.82547577,0.97792734,1.42174038
20015,0,USKansasButler,Kansas,Butler,2021-04-04 10:59:53.037940,2021-01-06 00:00:00.000000,6.45239321,9.58621764,11.08452878,4317,6414,7416,2600,4472,4658,3.88606400,6.68429110,6.96216935,0.81379794,0.98366016,1.42479122
20015,0,USKansasButler,Kansas,Butler,2021-04-04 10:59:53.037940,2021-01-07 00:00:00.000000,6.28804772,9.28209096,10.87158645,4207,6210,7274,2559,4415,4599,3.82478965,6.59842492,6.87453812,0.81418120,0.98590710,1.42616358
20015,0,USKansasButler,Kansas,Butler,2021-04-04 10:59:53.037940,2021-01-08 00:00:00.000000,6.09948729,9.00782408,10.64337115,4081,6027,7121,2472,4348,4531,3.69480871,6.49917738,6.77217315,0.83099505,0.98487270,1.42702518
20015,0,USKansasButler,Kansas,Butler,2021-04-04 10:59:53.037940,2021-01-09 00:00:00.000000,5.84548566,8.79507263,10.40503422,3911,5884,6962,2375,4273,4453,3.55018610,6.38734937,6.65595004,0.86379427,0.98022680,1.42808079
20015,0,USKansasButler,Kansas,Butler,2021-04-04 10:59:53.037940,2021-01-10 00:00:00.000000,5.59520353,8.58367216,10.10920397,3743,5743,6764,2280,4191,4367,3.40765162,6.26391870,6.52696769,0.87595884,0.97170188,1.43100851
20015,0,USKansasButler,Kansas,Butler,2021-04-04 10:59:53.037940,2021-01-11 00:00:00.000000,5.34952696,8.36448312,9.77370355,3579,5596,6539,2186,4101,4273,3.26718051,6.12997687,6.38650091,0.87580115,0.96025695,1.45003652
20015,0,USKansasButler,Kansas,Butler,2021-04-04 10:59:53.037940,2021-01-12 00:00:00.000000,5.10876450,8.13549774,9.43425224,3418,5443,6312,2093,4006,4173,3.12896759,5.98789236,6.23720273,0.89071326,0.94850955,1.50039606
20015,0,USKansasButler,Kansas,Butler,2021-04-04 10:59:53.037940,2021-01-13 00:00:00.000000,4.87346140,7.89858340,9.09204674,3260,5285,6083,2002,3906,4068,2.99320438,5.83834083,6.07991577,0.88529706,0.93912307,1.51533176
20015,0,USKansasButler,Kansas,Butler,2021-04-04 10:59:53.037940,2021-01-14 00:00:00.000000,4.64409155,7.65536142,8.74883177,3107,5122,5853,1913,3802,3958,2.86012648,5.68221414,5.91549282,0.88383792,0.93422083,1.40932584
20015,0,USKansasButler,Kansas,Butler,2021-04-04 10:59:53.037940,2021-01-15 00:00:00.000000,4.42326675,7.40740810,8.40620390,2959,4956,5624,1826,3693,3844,2.72998097,5.52051235,5.74496022,0.87750935,0.93517838,1.36784097
20015,0,USKansasButler,Kansas,Butler,2021-04-04 10:59:53.037940,2021-01-16 00:00:00.000000,4.24187660,7.15622783,8.06563363,2838,4788,5396,1741,3582,3726,2.60300613,5.35427633,5.56942283,0.86949536,0.94810017,1.36045770
20015,0,USKansasButler,Kansas,Butler,2021-04-04 10:59:53.037940,2021-01-17 00:00:00.000000,4.06375212,6.90323478,7.72845827,2719,4619,5171,1659,3469,3606,2.47941923,5.18454479,5.39000356,0.85137568,0.96099691,1.36826257
20015,0,USKansasButler,Kansas,Butler,2021-04-04 10:59:53.037940,2021-01-18 00:00:00.000000,3.89199819,6.64560956,7.39758918,2604,4446,4949,1578,3353,3484,2.35940967,5.01232624,5.20780430,0.82388134,0.96657090,1.40897730
20015,0,USKansasButler,Kansas,Butler,2021-04-04 10:59:53.037940,2021-01-19 00:00:00.000000,3.68644824,6.38868598,7.07238042,2466,4274,4732,1500,3236,3360,2.24288066,4.83727605,5.02255586,0.81817079,0.97961229,1.38929840
20015,0,USKansasButler,Kansas,Butler,2021-04-04 10:59:53.037940,2021-01-20 00:00:00.000000,3.47662073,6.13347559,6.75378084,2326,4103,4519,1425,3118,3235,2.13005408,4.66085361,4.83582114,0.80921477,1.01082045,1.39227537
20015,0,USKansasButler,Kansas,Butler,2021-04-04 10:59:53.037940,2021-01-21 00:00:00.000000,3.27549849,5.88106479,6.44256219,2191,3935,4310,1348,3000,3110,2.01482906,4.48423018,4.64886465,0.79407878,1.05018557,1.39486017
20015,0,USKansasButler,Kansas,Butler,2021-04-04 10:59:53.037940,2021-01-22 00:00:00.000000,3.08319571,5.63238478,6.13938007,2062,3768,4107,1271,2882,2986,1.90093981,4.30837231,4.46273624,0.77347987,1.07368663,1.38750835
20015,0,USKansasButler,Kansas,Butler,2021-04-04 10:59:53.037940,2021-01-23 00:00:00.000000,2.89973153,5.38823064,5.84477895,1940,3605,3910,1198,2766,2862,1.79168970,4.13409218,4.27832157,0.75535164,1.08304033,1.36787702
20015,0,USKansasButler,Kansas,Butler,2021-04-04 10:59:53.037940,2021-01-24 00:00:00.000000,2.72504985,5.14927561,5.55254040,1823,3445,3715,1128,2651,2740,1.68716044,3.96207862,4.09637324,0.75064074,1.08859185,1.37451607
20015,0,USKansasButler,Kansas,Butler,2021-04-04 10:59:53.037940,2021-01-25 00:00:00.000000,2.57084731,4.91625287,5.26767774,1720,3289,3524,1063,2537,2621,1.58868277,3.79291722,3.91753121,0.73546591,1.09735753,1.38748782
20015,0,USKansasButler,Kansas,Butler,2021-04-04 10:59:53.037940,2021-01-26 00:00:00.000000,2.42722376,4.68945482,4.99315905,1624,3137,3340,1013,2426,2504,1.51400483,3.62715776,3.74242165,0.73268377,1.11637919,1.39124228
20015,0,USKansasButler,Kansas,Butler,2021-04-04 10:59:53.037940,2021-01-27 00:00:00.000000,2.28725650,4.46925578,4.73207195,1530,2990,3166,962,2318,2389,1.43894484,3.46519374,3.57087106,0.73202701,1.15281166,1.39080879
20015,0,USKansasButler,Kansas,Butler,2021-04-04 10:59:53.037940,2021-01-28 00:00:00.000000,2.14435063,4.25593994,4.48582626,1434,2847,3001,903,2212,2277,1.35037733,3.30735622,3.40333592,0.73826459,1.20203671,1.38522981
20015,0,USKansasButler,Kansas,Butler,2021-04-04 10:59:53.037940,2021-01-29 00:00:00.000000,2.00940822,4.04971887,4.24969744,1344,2709,2843,847,2110,2168,1.26656419,3.15391716,3.24067069,0.74366256,1.24944190,1.36685250
20015,0,USKansasButler,Kansas,Butler,2021-04-04 10:59:53.037940,2021-01-30 00:00:00.000000,1.88214692,3.85073845,4.02364347,1259,2576,2692,794,2010,2062,1.18734488,3.00509348,3.08307872,0.73394018,1.27746415,1.32753100
20015,0,USKansasButler,Kansas,Butler,2021-04-04 10:59:53.037940,2021-01-31 00:00:00.000000,1.76227582,3.65908573,3.80753212,1179,2448,2547,744,1914,1960,1.11256049,2.86105139,2.93070935,0.73504188,1.29071943,1.31505013
20015,0,USKansasButler,Kansas,Butler,2021-04-04 10:59:53.037940,2021-02-01 00:00:00.000000,1.64765071,3.47500579,3.59962544,1102,2325,2408,697,1821,1862,1.04204972,2.72191096,2.78368427,0.73835292,1.29642506,1.32283561
20015,0,USKansasButler,Kansas,Butler,2021-04-04 10:59:53.037940,2021-02-02 00:00:00.000000,1.53981381,3.29827722,3.40134663,1030,2206,2275,652,1731,1767,0.97507575,2.58781699,2.64214226,0.75122690,1.29933583,1.32620830
20015,0,USKansasButler,Kansas,Butler,2021-04-04 10:59:53.037940,2021-02-03 00:00:00.000000,1.43840752,3.12885189,3.21246174,962,2093,2149,610,1645,1676,0.91175210,2.45878214,2.50612152,0.80027521,1.30095245,1.32844197
20015,0,USKansasButler,Kansas,Butler,2021-04-04 10:59:53.037940,2021-02-04 00:00:00.000000,1.34320480,2.96663814,3.03276113,898,1985,2029,570,1562,1589,0.85206768,2.33479703,2.37562791,0.83616175,1.29358871,1.33172923
20015,0,USKansasButler,Kansas,Butler,2021-04-04 10:59:53.037940,2021-02-05 00:00:00.000000,1.25394344,2.81151733,2.86199059,839,1881,1914,532,1482,1505,0.79594037,2.21583008,2.25063738,0.84720982,1.31252993,1.33821172
20015,0,USKansasButler,Kansas,Butler,2021-04-04 10:59:53.037940,2021-02-06 00:00:00.000000,1.17034399,2.66334756,2.70059908,783,1782,1806,497,1406,1425,0.74324813,2.10182875,2.13109395,0.85212083,1.34186164,1.34835830
20015,0,USKansasButler,Kansas,Butler,2021-04-04 10:59:53.037940,2021-02-07 00:00:00.000000,1.09511659,2.52196734,2.55270365,732,1687,1708,464,1333,1349,0.69384738,1.99272148,2.01690906,0.84871695,1.35804921,1.36045524
20015,0,USKansasButler,Kansas,Butler,2021-04-04 10:59:53.037940,2021-02-08 00:00:00.000000,1.02476094,2.38792426,2.41281750,685,1597,1614,433,1263,1276,0.64758384,1.88841997,1.90797166,0.80827365,1.36259036,1.37007978
20015,0,USKansasButler,Kansas,Butler,2021-04-04 10:59:53.037940,2021-02-09 00:00:00.000000,0.95886393,2.26030250,2.27991062,641,1512,1525,404,1197,1207,0.60409196,1.78905052,1.80440846,0.78269271,1.36088411,1.37129598
20015,0,USKansasButler,Kansas,Butler,2021-04-04 10:59:53.037940,2021-02-10 00:00:00.000000,0.89713206,2.13891120,2.15376685,600,1431,1441,376,1133,1141,0.56331452,1.69440003,1.70597184,0.77198826,1.35210070,1.36550554
20015,0,USKansasButler,Kansas,Butler,2021-04-04 10:59:53.037940,2021-02-11 00:00:00.000000,0.83937075,2.02352149,2.03414970,561,1353,1361,351,1073,1078,0.52558482,1.60428292,1.61244834,0.76576022,1.33347739,1.35145265
20015,0,USKansasButler,Kansas,Butler,2021-04-04 10:59:53.037940,2021-02-12 00:00:00.000000,0.78537474,1.91390811,1.92085145,525,1280,1285,329,1016,1019,0.49180433,1.51852908,1.52364971,0.76236436,1.30267921,1.32704580
20015,0,USKansasButler,Kansas,Butler,2021-04-04 10:59:53.037940,2021-02-13 00:00:00.000000,0.73493625,1.80984816,1.81362603,491,1210,1213,307,960,964,0.46018051,1.43558431,1.44076631,0.76035048,1.26362200,1.29426181
20015,0,USKansasButler,Kansas,Butler,2021-04-04 10:59:53.037940,2021-02-14 00:00:00.000000,0.68785000,1.70886615,1.71435653,460,1143,1147,288,907,911,0.43060739,1.35610316,1.36284120,0.74460704,1.22727970,1.26186640
20015,0,USKansasButler,Kansas,Butler,2021-04-04 10:59:53.037940,2021-02-15 00:00:00.000000,0.64183287,1.61223830,1.62011758,429,1078,1084,269,856,862,0.40297526,1.28073902,1.28890324,0.73283855,1.20179735,1.23824544
20015,0,USKansasButler,Kansas,Butler,2021-04-04 10:59:53.037940,2021-02-16 00:00:00.000000,0.59785104,1.52078010,1.53080797,400,1017,1024,251,809,815,0.37661314,1.20909356,1.21862710,0.72587467,1.18678125,1.22325739
20015,0,USKansasButler,Kansas,Butler,2021-04-04 10:59:53.037940,2021-02-17 00:00:00.000000,0.55616740,1.43424818,1.44619885,372,959,967,235,763,770,0.35141470,1.14109856,1.15190783,0.72468896,1.17745093,1.21303937
20015,0,USKansasButler,Kansas,Butler,2021-04-04 10:59:53.037940,2021-02-18 00:00:00.000000,0.51695818,1.35243494,1.36609396,345,904,914,219,720,728,0.32742333,1.07665116,1.08862236,0.73444649,1.16833784,1.20121237
20015,0,USKansasButler,Kansas,Butler,2021-04-04 10:59:53.037940,2021-02-19 00:00:00.000000,0.48027261,1.27512953,1.29030236,321,853,863,203,679,688,0.30471518,1.01562817,1.02863957,0.75474716,1.15455163,1.18065168
20015,0,USKansasButler,Kansas,Butler,2021-04-04 10:59:53.037940,2021-02-20 00:00:00.000000,0.44607362,1.20212174,1.21861710,298,804,815,189,640,650,0.28334336,0.95789511,0.97182617,0.76033390,1.14211177,1.15450593
20015,0,USKansasButler,Kansas,Butler,2021-04-04 10:59:53.037940,2021-02-21 00:00:00.000000,0.41426802,1.13320454,1.15083536,277,758,770,176,604,614,0.26332347,0.90331206,0.91804425,0.75331756,1.13050173,1.20621138
20015,0,USKansasButler,Kansas,Butler,2021-04-04 10:59:53.037940,2021-02-22 00:00:00.000000,0.38831543,1.06862474,1.08718463,259,715,727,163,569,580,0.24463637,0.85173743,0.86715461,0.75873573,1.11743284,1.21628208
20015,0,USKansasButler,Kansas,Butler,2021-04-04 10:59:53.037940,2021-02-23 00:00:00.000000,0.36439211,1.00773711,1.02706723,243,674,687,152,537,548,0.22820723,0.80317217,0.81915651,0.76473017,1.11193431,1.21987541
20015,0,USKansasButler,Kansas,Butler,2021-04-04 10:59:53.037940,2021-02-24 00:00:00.000000,0.34504163,0.95035749,0.97031258,230,635,649,142,506,517,0.21356392,0.75741672,0.77385909,0.78086928,1.10988832,1.22445906
20015,0,USKansasButler,Kansas,Butler,2021-04-04 10:59:53.037940,2021-02-25 00:00:00.000000,0.32824081,0.89628993,0.91673864,219,599,613,135,477,489,0.20219535,0.71429804,0.73109840,0.78276038,1.10926220,1.24138175
20015,0,USKansasButler,Kansas,Butler,2021-04-04 10:59:53.037940,2021-02-26 00:00:00.000000,0.31283136,0.84535138,0.86617536,209,565,579,128,450,462,0.19195644,0.67366159,0.69072900,0.79408570,1.10967200,1.26978243
20015,0,USKansasButler,Kansas,Butler,2021-04-04 10:59:53.037940,2021-02-27 00:00:00.000000,0.29864118,0.79736960,0.81846260,199,533,547,122,425,436,0.18263878,0.63536644,0.65261870,0.79508631,1.11200236,1.31439502
20015,0,USKansasButler,Kansas,Butler,2021-04-04 10:59:53.037940,2021-02-28 00:00:00.000000,0.28553081,0.75218182,0.77344875,191,503,517,116,400,412,0.17410186,0.59928205,0.61664530,0.79484671,1.11658582,1.32879473
20015,0,USKansasButler,Kansas,Butler,2021-04-04 10:59:53.037940,2021-03-01 00:00:00.000000,0.27122160,0.71808904,0.73937009,181,480,494,111,378,389,0.16624342,0.56528633,0.58269450,0.79264553,1.11950485,1.33328471
20015,0,USKansasButler,Kansas,Butler,2021-04-04 10:59:53.037940,2021-03-02 00:00:00.000000,0.25780666,0.68648971,0.70769346,172,459,473,105,358,370,0.15831946,0.53593454,0.55329893,0.78643470,1.11772070,1.36812588
20015,0,USKansasButler,Kansas,Butler,2021-04-04 10:59:53.037940,2021-03-03 00:00:00.000000,0.24515808,0.65734653,0.67839937,164,439,453,100,341,352,0.15059880,0.50996821,0.52722079,0.77316264,1.11202904,1.39431757
20015,0,USKansasButler,Kansas,Butler,2021-04-04 10:59:53.037940,2021-03-04 00:00:00.000000,0.22881939,0.63027682,0.65112542,153,421,435,95,325,337,0.14247387,0.48656878,0.50365793,0.76287019,1.10378877,1.41462362
20015,0,USKansasButler,Kansas,Butler,2021-04-04 10:59:53.037940,2021-03-05 00:00:00.000000,0.20859136,0.60501235,0.62561708,139,404,418,86,311,322,0.12991863,0.46519624,0.48208310,0.75940064,1.09467357,1.42472014
20015,0,USKansasButler,Kansas,Butler,2021-04-04 10:59:53.037940,2021-03-06 00:00:00.000000,0.19835067,0.58135800,0.60168889,132,388,402,80,298,309,0.12030211,0.44548743,0.46214285,0.75929069,1.08655677,1.43061656
20015,0,USKansasButler,Kansas,Butler,2021-04-04 10:59:53.037940,2021-03-07 00:00:00.000000,0.19363224,0.55916574,0.57919946,129,374,387,76,285,296,0.11381460,0.42719184,0.44359400,0.77995441,1.08060379,1.43832028
20015,0,USKansasButler,Kansas,Butler,2021-04-04 10:59:53.037940,2021-03-08 00:00:00.000000,0.18930421,0.53258088,0.55246443,126,356,369,72,274,285,0.10776996,0.41013111,0.42626364,0.79423435,1.07696424,1.45869924
20015,0,USKansasButler,Kansas,Butler,2021-04-04 10:59:53.037940,2021-03-09 00:00:00.000000,0.18016342,0.50724379,0.52695928,120,339,352,68,262,273,0.10218432,0.39236149,0.40826939,0.79937739,1.07528794,1.50568841
20015,0,USKansasButler,Kansas,Butler,2021-04-04 10:59:53.037940,2021-03-10 00:00:00.000000,0.16991251,0.48300346,0.50253543,113,323,336,64,250,261,0.09701739,0.37456169,0.39026385,0.80141603,1.07530038,1.61196035
20015,0,USKansasButler,Kansas,Butler,2021-04-04 10:59:53.037940,2021-03-11 00:00:00.000000,0.16026232,0.45995712,0.47928325,107,307,320,61,238,249,0.09223425,0.35713621,0.37263585,0.82247978,1.07708526,1.70201221
20015,0,USKansasButler,Kansas,Butler,2021-04-04 10:59:53.037940,2021-03-12 00:00:00.000000,0.15123190,0.43813565,0.45723229,101,293,305,58,227,237,0.08783382,0.34031767,0.35560902,0.81252396,1.08110451,1.77848069
20015,0,USKansasButler,Kansas,Butler,2021-04-04 10:59:53.037940,2021-03-13 00:00:00.000000,0.14281280,0.41752994,0.43637559,95,279,291,56,216,227,0.08383016,0.32423139,0.33930429,0.81213233,1.08788737,1.78045973
20015,0,USKansasButler,Kansas,Butler,2021-04-04 10:59:53.037940,2021-03-14 00:00:00.000000,0.13498197,0.39810741,0.41668410,90,266,278,53,206,216,0.07986142,0.30893610,0.32377914,0.82724715,1.09725563,1.74102188
20015,0,USKansasButler,Kansas,Butler,2021-04-04 10:59:53.037940,2021-03-15 00:00:00.000000,0.13237857,0.37836142,0.39621945,88,253,265,50,197,206,0.07501183,0.29444960,0.30905201,0.86877339,1.10762600,1.71908450
20015,0,USKansasButler,Kansas,Butler,2021-04-04 10:59:53.037940,2021-03-16 00:00:00.000000,0.13089680,0.35970020,0.37682863,87,240,252,47,187,197,0.07157829,0.28030356,0.29451987,0.93485618,1.11664882,1.70743393
20015,0,USKansasButler,Kansas,Butler,2021-04-04 10:59:53.037940,2021-03-17 00:00:00.000000,0.12788791,0.34205123,0.35843689,85,228,239,46,178,187,0.06910275,0.26667502,0.28041937,0.94709076,1.12280169,1.70058369
20015,0,USKansasButler,Kansas,Butler,2021-04-04 10:59:53.037940,2021-03-18 00:00:00.000000,0.12463181,0.32540216,0.34104634,83,217,228,45,169,178,0.06727882,0.25365787,0.26688252,0.92613566,1.12588322,1.69357735
20015,0,USKansasButler,Kansas,Butler,2021-04-04 10:59:53.037940,2021-03-19 00:00:00.000000,0.12172149,0.30972283,0.32463590,81,207,217,44,161,169,0.06590136,0.24129451,0.25397607,0.90964597,1.12627017,1.67990004
20015,0,USKansasButler,Kansas,Butler,2021-04-04 10:59:53.037940,2021-03-20 00:00:00.000000,0.11596983,0.29497330,0.30917123,77,197,206,43,153,161,0.06483278,0.22959573,0.24172637,0.89913348,1.12426491,1.65783372
20015,0,USKansasButler,Kansas,Butler,2021-04-04 10:59:53.037940,2021-03-21 00:00:00.000000,0.10992481,0.28110876,0.29461100,73,188,197,42,146,153,0.06398058,0.21855330,0.23013511,0.89296475,1.12007765,1.63676378
20015,0,USKansasButler,Kansas,Butler,2021-04-04 10:59:53.037940,2021-03-22 00:00:00.000000,0.10354536,0.27208435,0.28536634,69,182,190,42,139,146,0.06332921,0.20814783,0.21918918,0.88963640,1.11423995,1.62374079
20015,0,USKansasButler,Kansas,Butler,2021-04-04 10:59:53.037940,2021-03-23 00:00:00.000000,0.09755713,0.26385162,0.27705968,65,176,185,41,133,140,0.06252137,0.19961750,0.21027162,0.88815771,1.10787334,1.63892943
20015,0,USKansasButler,Kansas,Butler,2021-04-04 10:59:53.037940,2021-03-24 00:00:00.000000,0.09191517,0.25641140,0.26957127,61,171,180,39,128,135,0.05903717,0.19238937,0.20275373,0.86339167,1.10226065,1.65722341
20015,0,USKansasButler,Kansas,Butler,2021-04-04 10:59:53.037940,2021-03-25 00:00:00.000000,0.08662760,0.24960042,0.26272410,57,167,175,37,124,131,0.05567037,0.18609423,0.19628497,0.86348818,1.09811795,1.65862324
20015,0,USKansasButler,Kansas,Butler,2021-04-04 10:59:53.037940,2021-03-26 00:00:00.000000,0.08168791,0.24330897,0.25640038,54,162,171,35,120,127,0.05248581,0.18049216,0.19057990,0.87697461,1.09543548,1.65904371
20015,0,USKansasButler,Kansas,Butler,2021-04-04 10:59:53.037940,2021-03-27 00:00:00.000000,0.07708207,0.23746133,0.25051983,51,158,167,33,117,124,0.04949272,0.17542537,0.18543393,0.88461691,1.09384519,1.65785902
20015,0,USKansasButler,Kansas,Butler,2021-04-04 10:59:53.037940,2021-03-28 00:00:00.000000,0.07279254,0.23200355,0.24502608,48,155,163,31,114,120,0.04671098,0.17078840,0.18073123,0.88850818,1.09302507,1.65396787
20015,0,USKansasButler,Kansas,Butler,2021-04-04 10:59:53.037940,2021-03-29 00:00:00.000000,0.06791635,0.21939614,0.23199643,45,146,155,29,111,118,0.04412391,0.16650919,0.17639346,0.89056517,1.09375263,1.64209307
20015,0,USKansasButler,Kansas,Butler,2021-04-04 10:59:53.037940,2021-03-30 00:00:00.000000,0.06331865,0.20710762,0.21928118,42,138,146,27,107,113,0.04142337,0.16016871,0.16987736,0.89189502,1.10887929,1.60856218
20015,0,USKansasButler,Kansas,Butler,2021-04-04 10:59:53.037940,2021-03-31 00:00:00.000000,0.05895703,0.19502654,0.20676417,39,130,138,25,102,108,0.03874363,0.15274998,0.16221231,0.91547894,1.17749012,1.53023363
20015,0,USKansasButler,Kansas,Butler,2021-04-04 10:59:53.037940,2021-04-01 00:00:00.000000,0.05485333,0.18335584,0.19465649,36,122,130,24,96,103,0.03615524,0.14486106,0.15403587,0.97099108,1.21108583,1.71327039
20015,0,USKansasButler,Kansas,Butler,2021-04-04 10:59:53.037940,2021-04-02 00:00:00.000000,0.05101111,0.17220449,0.18307225,34,115,122,22,91,97,0.03368486,0.13687354,0.14573837,0.98943210,1.21270685,1.83302570
20015,0,USKansasButler,Kansas,Butler,2021-04-04 10:59:53.037940,2021-04-03 00:00:00.000000,0.04742420,0.16162358,0.17206580,31,108,115,20,86,92,0.03135435,0.12901014,0.13755443,0.99006384,1.20800870,1.87251464
20015,0,USKansasButler,Kansas,Butler,2021-04-04 10:59:53.037940,2021-04-04 00:00:00.000000,0.04408156,0.15162898,0.16165503,29,101,108,19,81,86,0.02916916,0.12140013,0.12962091,0.98847684,1.19472019,1.88342049
20015,0,USKansasButler,Kansas,Butler,2021-04-04 10:59:53.037940,2021-04-05 00:00:00.000000,0.04096986,0.14221556,0.15183605,27,95,101,18,76,81,0.02712668,0.11411438,0.12201347,0.92870732,1.16127487,1.88743657
20015,0,USKansasButler,Kansas,Butler,2021-04-04 10:59:53.037940,2021-04-06 00:00:00.000000,0.03807507,0.13336602,0.14259231,25,89,95,16,71,76,0.02522132,0.10718747,0.11476976,0.89767342,1.09037001,1.89034706
20015,0,USKansasButler,Kansas,Butler,2021-04-04 10:59:53.037940,2021-04-07 00:00:00.000000,0.03538313,0.12505644,0.13390033,23,83,89,15,67,72,0.02344608,0.10063166,0.10790393,0.88645032,0.98671986,1.89292431
20015,0,USKansasButler,Kansas,Butler,2021-04-04 10:59:53.037940,2021-04-08 00:00:00.000000,0.03288047,0.11719170,0.12573313,22,78,84,14,63,67,0.02179340,0.09444572,0.10141596,0.87729529,0.90013101,1.91711475
20015,0,USKansasButler,Kansas,Butler,2021-04-04 10:59:53.037940,2021-04-09 00:00:00.000000,0.03055414,0.10960739,0.11786439,20,73,78,13,59,63,0.02025561,0.08859897,0.09529731,0.81803515,0.84643413,1.93195384
20015,0,USKansasButler,Kansas,Butler,2021-04-04 10:59:53.037940,2021-04-10 00:00:00.000000,0.02839193,0.10240860,0.11039277,18,68,73,12,55,59,0.01882525,0.08302248,0.08947214,0.79156073,0.82240379,1.93847368
20015,0,USKansasButler,Kansas,Butler,2021-04-04 10:59:53.037940,2021-04-11 00:00:00.000000,0.02638239,0.09562777,0.10334645,17,63,69,11,51,56,0.01749511,0.07771163,0.08392896,0.78128488,0.81322410,1.94127773
20015,0,USKansasButler,Kansas,Butler,2021-04-04 10:59:53.037940,2021-04-12 00:00:00.000000,0.02451484,0.08926670,0.09672472,16,59,64,10,48,52,0.01625841,0.07267665,0.07867302,0.77751579,0.80993212,1.94247227
20015,0,USKansasButler,Kansas,Butler,2021-04-04 10:59:53.037940,2021-04-13 00:00:00.000000,0.02277930,0.08331302,0.09051398,15,55,60,10,45,49,0.01510871,0.06792418,0.07370763,0.77616215,0.80877849,1.94297905
20015,0,USKansasButler,Kansas,Butler,2021-04-04 10:59:53.037940,2021-04-14 00:00:00.000000,0.02116647,0.07774812,0.08469516,14,52,56,9,42,46,0.01404000,0.06345381,0.06903024,0.77567968,0.80837749,1.94319369
20015,0,USKansasButler,Kansas,Butler,2021-04-04 10:59:53.037940,2021-04-15 00:00:00.000000,0.01966770,0.07255083,0.07924712,13,48,53,8,39,43,0.01304664,0.05925926,0.06463338,0.77550818,0.80823850,1.94328452
20015,0,USKansasButler,Kansas,Butler,2021-04-04 10:59:53.037940,2021-04-16 00:00:00.000000,0.01827495,0.06769925,0.07414824,12,45,49,8,37,40,0.01212337,0.05533034,0.06050622,0.77544728,0.80819037,1.94332295
