FIPS,HR_UID,nameid,province,region,analysisTime,dates,pointprevalence_025,pointprevalence_50,pointprevalence_975,pointinfections_025,pointinfections_50,pointinfections_975,pointinfectious_025,pointinfectious_50,pointinfectious_975,pointinfectiousprevalence_05,pointinfectiousprevalence_50,pointinfectiousprevalence_95,infectrate_025,infectrate_50,infectrate_975
19113,0,USIowaLinn,Iowa,Linn,2021-04-04 11:32:35.142427,2020-03-09 00:00:00.000000,0.00132944,0.00392301,0.00771224,3,8,17,0,2,6,0.00024499,0.00117506,0.00274600,0.61237868,0.80064983,1.04157018
19113,0,USIowaLinn,Iowa,Linn,2021-04-04 11:32:35.142427,2020-03-10 00:00:00.000000,0.00217119,0.00579034,0.01240793,4,13,28,1,4,8,0.00058044,0.00179623,0.00381716,0.61237876,0.80064957,1.04156277
19113,0,USIowaLinn,Iowa,Linn,2021-04-04 11:32:35.142427,2020-03-11 00:00:00.000000,0.00308367,0.00793397,0.01725097,6,17,39,2,6,11,0.00091358,0.00271343,0.00495670,0.61237903,0.80064899,1.04155020
19113,0,USIowaLinn,Iowa,Linn,2021-04-04 11:32:35.142427,2020-03-12 00:00:00.000000,0.00385203,0.01008550,0.02228103,8,22,50,3,8,17,0.00135001,0.00386286,0.00768588,0.61237996,0.80064752,1.04152850
19113,0,USIowaLinn,Iowa,Linn,2021-04-04 11:32:35.142427,2020-03-13 00:00:00.000000,0.00474904,0.01236813,0.02798381,10,28,63,4,11,24,0.00188081,0.00512246,0.01102271,0.61238295,0.80064348,1.04149006
19113,0,USIowaLinn,Iowa,Linn,2021-04-04 11:32:35.142427,2020-03-14 00:00:00.000000,0.00579487,0.01516690,0.03601014,13,34,81,5,14,32,0.00242158,0.00659396,0.01446379,0.61239247,0.80063144,1.04141934
19113,0,USIowaLinn,Iowa,Linn,2021-04-04 11:32:35.142427,2020-03-15 00:00:00.000000,0.00709379,0.01847600,0.04537507,16,41,102,7,18,41,0.00311044,0.00809709,0.01850116,0.61242242,0.79965740,1.04128212
19113,0,USIowaLinn,Iowa,Linn,2021-04-04 11:32:35.142427,2020-03-16 00:00:00.000000,0.01122737,0.02267189,0.05429025,25,51,123,8,22,53,0.00390653,0.00997708,0.02338207,0.61251616,0.79967936,1.04099737
19113,0,USIowaLinn,Iowa,Linn,2021-04-04 11:32:35.142427,2020-03-17 00:00:00.000000,0.01490432,0.02817316,0.06347277,33,63,143,11,27,63,0.00520926,0.01234003,0.02815685,0.61280788,0.79972200,1.04036135
19113,0,USIowaLinn,Iowa,Linn,2021-04-04 11:32:35.142427,2020-03-18 00:00:00.000000,0.01825459,0.03388009,0.07445283,41,76,168,15,34,76,0.00688401,0.01509846,0.03388032,0.61370443,0.79845352,1.03410361
19113,0,USIowaLinn,Iowa,Linn,2021-04-04 11:32:35.142427,2020-03-19 00:00:00.000000,0.02203422,0.04058169,0.08832599,49,92,200,20,40,92,0.00884637,0.01805988,0.04091441,0.61636055,0.79169385,1.02516478
19113,0,USIowaLinn,Iowa,Linn,2021-04-04 11:32:35.142427,2020-03-20 00:00:00.000000,0.02632777,0.04871179,0.10403074,59,110,235,25,49,110,0.01118919,0.02188752,0.04892733,0.61713479,0.78479529,1.01937032
19113,0,USIowaLinn,Iowa,Linn,2021-04-04 11:32:35.142427,2020-03-21 00:00:00.000000,0.03127783,0.05688469,0.12178618,70,128,276,31,60,131,0.01397964,0.02677223,0.05802119,0.60999200,0.77918760,1.01127230
19113,0,USIowaLinn,Iowa,Linn,2021-04-04 11:32:35.142427,2020-03-22 00:00:00.000000,0.03756708,0.06718945,0.14067602,85,152,318,39,72,154,0.01730285,0.03206908,0.06831724,0.60398733,0.76324517,1.00950118
19113,0,USIowaLinn,Iowa,Linn,2021-04-04 11:32:35.142427,2020-03-23 00:00:00.000000,0.04591212,0.07721855,0.16045356,104,175,363,47,86,181,0.02090038,0.03830919,0.07994813,0.57458361,0.74763416,1.04125043
19113,0,USIowaLinn,Iowa,Linn,2021-04-04 11:32:35.142427,2020-03-24 00:00:00.000000,0.05524452,0.09009040,0.18251126,125,204,413,55,99,208,0.02446970,0.04400487,0.09183496,0.56653325,0.74426787,1.04744288
19113,0,USIowaLinn,Iowa,Linn,2021-04-04 11:32:35.142427,2020-03-25 00:00:00.000000,0.06545022,0.10424669,0.20212425,148,236,458,64,115,232,0.02843630,0.05109034,0.10266837,0.54848330,0.73575310,0.98713965
19113,0,USIowaLinn,Iowa,Linn,2021-04-04 11:32:35.142427,2020-03-26 00:00:00.000000,0.07478926,0.12082869,0.22105801,169,273,501,74,132,258,0.03297354,0.05846647,0.11385016,0.50448441,0.72109750,0.98506306
19113,0,USIowaLinn,Iowa,Linn,2021-04-04 11:32:35.142427,2020-03-27 00:00:00.000000,0.08422592,0.13628212,0.24249827,190,308,549,86,151,284,0.03819758,0.06694878,0.12543844,0.48435794,0.69432734,0.96283420
19113,0,USIowaLinn,Iowa,Linn,2021-04-04 11:32:35.142427,2020-03-28 00:00:00.000000,0.09615371,0.15358167,0.26808451,217,348,607,100,171,311,0.04421080,0.07579539,0.13747363,0.46986625,0.66358371,0.93926414
19113,0,USIowaLinn,Iowa,Linn,2021-04-04 11:32:35.142427,2020-03-29 00:00:00.000000,0.11181722,0.17235243,0.29102175,253,390,659,115,196,340,0.05111904,0.08657175,0.14999487,0.44989723,0.63950949,0.91831646
19113,0,USIowaLinn,Iowa,Linn,2021-04-04 11:32:35.142427,2020-03-30 00:00:00.000000,0.12749244,0.19078900,0.31604381,289,432,716,133,220,372,0.05902116,0.09721228,0.16410239,0.42485085,0.61402743,0.86089280
19113,0,USIowaLinn,Iowa,Linn,2021-04-04 11:32:35.142427,2020-03-31 00:00:00.000000,0.14250188,0.21062293,0.35949277,323,477,814,155,246,422,0.06872080,0.10856656,0.18621079,0.41586400,0.60346126,0.82334978
19113,0,USIowaLinn,Iowa,Linn,2021-04-04 11:32:35.142427,2020-04-01 00:00:00.000000,0.15871343,0.23544593,0.39820689,359,533,902,174,276,480,0.07676053,0.12178186,0.21201194,0.41547778,0.57363148,0.78912799
19113,0,USIowaLinn,Iowa,Linn,2021-04-04 11:32:35.142427,2020-04-02 00:00:00.000000,0.17596995,0.25950007,0.44773883,398,588,1015,193,309,534,0.08536321,0.13634163,0.23568128,0.39099305,0.55529538,0.74651491
19113,0,USIowaLinn,Iowa,Linn,2021-04-04 11:32:35.142427,2020-04-03 00:00:00.000000,0.19403334,0.27822845,0.48109408,439,630,1090,214,340,591,0.09449226,0.15031422,0.26091046,0.38907464,0.53689168,0.69625674
19113,0,USIowaLinn,Iowa,Linn,2021-04-04 11:32:35.142427,2020-04-04 00:00:00.000000,0.20938426,0.30308662,0.49915997,474,687,1131,235,379,647,0.10402794,0.16722907,0.28564689,0.38556849,0.51892248,0.65100677
19113,0,USIowaLinn,Iowa,Linn,2021-04-04 11:32:35.142427,2020-04-05 00:00:00.000000,0.22239932,0.33295030,0.53660821,504,754,1216,258,416,703,0.11380897,0.18373176,0.31026287,0.36043849,0.48766203,0.61572666
19113,0,USIowaLinn,Iowa,Linn,2021-04-04 11:32:35.142427,2020-04-06 00:00:00.000000,0.23560241,0.35695738,0.57793792,534,809,1310,280,456,759,0.12369767,0.20132059,0.33496438,0.34736705,0.47866401,0.60259182
19113,0,USIowaLinn,Iowa,Linn,2021-04-04 11:32:35.142427,2020-04-07 00:00:00.000000,0.24957189,0.38231234,0.61970713,565,866,1404,302,496,805,0.13358394,0.21922225,0.35516490,0.34585007,0.46758633,0.59924190
19113,0,USIowaLinn,Iowa,Linn,2021-04-04 11:32:35.142427,2020-04-08 00:00:00.000000,0.26518790,0.40991097,0.65948117,601,929,1495,325,543,855,0.14351511,0.23986996,0.37740698,0.34538826,0.44697063,0.58582218
19113,0,USIowaLinn,Iowa,Linn,2021-04-04 11:32:35.142427,2020-04-09 00:00:00.000000,0.27818543,0.44142976,0.69350420,630,1000,1572,348,577,914,0.15358163,0.25492723,0.40317046,0.34465929,0.43476566,0.58566034
19113,0,USIowaLinn,Iowa,Linn,2021-04-04 11:32:35.142427,2020-04-10 00:00:00.000000,0.29244008,0.47169909,0.72096899,662,1069,1634,371,618,966,0.16388588,0.27261405,0.42646010,0.32924050,0.42101211,0.58535017
19113,0,USIowaLinn,Iowa,Linn,2021-04-04 11:32:35.142427,2020-04-11 00:00:00.000000,0.30757250,0.50496189,0.74634683,697,1144,1692,395,655,1011,0.17450313,0.28917058,0.44613505,0.31381473,0.41179893,0.57780529
19113,0,USIowaLinn,Iowa,Linn,2021-04-04 11:32:35.142427,2020-04-12 00:00:00.000000,0.32350149,0.53528524,0.80239043,733,1213,1819,420,688,1061,0.18538934,0.30372486,0.46820132,0.29360631,0.39959462,0.54986549
19113,0,USIowaLinn,Iowa,Linn,2021-04-04 11:32:35.142427,2020-04-13 00:00:00.000000,0.34054035,0.56333213,0.83183361,772,1277,1885,444,726,1126,0.19626294,0.32039038,0.49709209,0.28320615,0.38997137,0.51567383
19113,0,USIowaLinn,Iowa,Linn,2021-04-04 11:32:35.142427,2020-04-14 00:00:00.000000,0.35923946,0.58447297,0.84879146,814,1325,1924,465,767,1193,0.20517047,0.33858670,0.52666656,0.27900884,0.37061244,0.51026956
19113,0,USIowaLinn,Iowa,Linn,2021-04-04 11:32:35.142427,2020-04-15 00:00:00.000000,0.38016233,0.59882826,0.87593156,861,1357,1985,475,801,1263,0.20967725,0.35335162,0.55746481,0.26401512,0.35866178,0.47692536
19113,0,USIowaLinn,Iowa,Linn,2021-04-04 11:32:35.142427,2020-04-16 00:00:00.000000,0.40199223,0.61854829,0.91572838,911,1402,2076,485,833,1330,0.21395302,0.36787483,0.58678749,0.24145586,0.34640455,0.46678208
19113,0,USIowaLinn,Iowa,Linn,2021-04-04 11:32:35.142427,2020-04-17 00:00:00.000000,0.42050597,0.63869644,0.92803771,953,1447,2103,494,856,1376,0.21801202,0.37796306,0.60710833,0.22030061,0.33382119,0.46109659
19113,0,USIowaLinn,Iowa,Linn,2021-04-04 11:32:35.142427,2020-04-18 00:00:00.000000,0.42638100,0.65466954,0.93720165,966,1484,2124,502,879,1409,0.22185905,0.38783745,0.62155996,0.21044935,0.31761708,0.44954411
19113,0,USIowaLinn,Iowa,Linn,2021-04-04 11:32:35.142427,2020-04-19 00:00:00.000000,0.43042643,0.66400163,0.94408758,975,1505,2140,510,891,1447,0.22511894,0.39312829,0.63827846,0.20696977,0.29382301,0.43429148
19113,0,USIowaLinn,Iowa,Linn,2021-04-04 11:32:35.142427,2020-04-20 00:00:00.000000,0.43138055,0.66694356,0.94835984,977,1512,2149,516,908,1478,0.22796885,0.40090498,0.65210263,0.19014205,0.27724883,0.44538093
19113,0,USIowaLinn,Iowa,Linn,2021-04-04 11:32:35.142427,2020-04-21 00:00:00.000000,0.43048091,0.67371445,0.95044862,975,1527,2154,520,916,1491,0.22967075,0.40404965,0.65803461,0.17963214,0.26716444,0.40113305
19113,0,USIowaLinn,Iowa,Linn,2021-04-04 11:32:35.142427,2020-04-22 00:00:00.000000,0.42871217,0.67680225,0.94976240,971,1534,2153,531,922,1504,0.23444945,0.40686477,0.66382966,0.17721730,0.24993558,0.38411183
19113,0,USIowaLinn,Iowa,Linn,2021-04-04 11:32:35.142427,2020-04-23 00:00:00.000000,0.42639752,0.67248702,0.94794582,966,1524,2149,541,929,1501,0.23882595,0.40988525,0.66247910,0.16504801,0.23874973,0.38036893
19113,0,USIowaLinn,Iowa,Linn,2021-04-04 11:32:35.142427,2020-04-24 00:00:00.000000,0.42362494,0.66164945,0.94806360,960,1499,2149,539,941,1489,0.23810780,0.41515529,0.65699072,0.15874479,0.22515349,0.33399659
19113,0,USIowaLinn,Iowa,Linn,2021-04-04 11:32:35.142427,2020-04-25 00:00:00.000000,0.41988096,0.64042842,0.94050987,951,1451,2132,526,942,1469,0.23206527,0.41583148,0.64827941,0.15252331,0.21268403,0.32087804
19113,0,USIowaLinn,Iowa,Linn,2021-04-04 11:32:35.142427,2020-04-26 00:00:00.000000,0.40399381,0.62181518,0.92894026,915,1409,2105,512,928,1444,0.22601431,0.40959964,0.63729736,0.14646877,0.19858636,0.29910115
19113,0,USIowaLinn,Iowa,Linn,2021-04-04 11:32:35.142427,2020-04-27 00:00:00.000000,0.39067511,0.60627563,0.91780553,885,1374,2080,507,909,1416,0.22383508,0.40135741,0.62482480,0.13368099,0.18738794,0.28121756
19113,0,USIowaLinn,Iowa,Linn,2021-04-04 11:32:35.142427,2020-04-28 00:00:00.000000,0.37981029,0.59053542,0.90295459,861,1338,2047,499,891,1386,0.22043191,0.39305484,0.61137509,0.12291335,0.17786289,0.26423563
19113,0,USIowaLinn,Iowa,Linn,2021-04-04 11:32:35.142427,2020-04-29 00:00:00.000000,0.36903673,0.56523885,0.88397223,836,1281,2004,487,874,1353,0.21516284,0.38573967,0.59706133,0.11968982,0.17406669,0.24637960
19113,0,USIowaLinn,Iowa,Linn,2021-04-04 11:32:35.142427,2020-04-30 00:00:00.000000,0.34821164,0.54417151,0.86151519,789,1233,1953,471,853,1323,0.20814529,0.37665482,0.58358124,0.11611848,0.16937811,0.24016810
19113,0,USIowaLinn,Iowa,Linn,2021-04-04 11:32:35.142427,2020-05-01 00:00:00.000000,0.32841740,0.52053953,0.83296811,744,1180,1888,453,825,1299,0.19999008,0.36407626,0.57301681,0.11223371,0.16436598,0.22761477
19113,0,USIowaLinn,Iowa,Linn,2021-04-04 11:32:35.142427,2020-05-02 00:00:00.000000,0.30996797,0.49602365,0.80446408,702,1124,1823,433,791,1269,0.19125110,0.34926521,0.55981394,0.09920222,0.15692122,0.21088424
19113,0,USIowaLinn,Iowa,Linn,2021-04-04 11:32:35.142427,2020-05-03 00:00:00.000000,0.29276679,0.47583433,0.77657227,663,1078,1760,413,757,1233,0.18223003,0.33404569,0.54416542,0.09307008,0.15449522,0.20136427
19113,0,USIowaLinn,Iowa,Linn,2021-04-04 11:32:35.142427,2020-05-04 00:00:00.000000,0.27377634,0.45565011,0.74903031,620,1032,1698,392,721,1193,0.17297762,0.31835834,0.52651907,0.08985096,0.14885106,0.19625037
19113,0,USIowaLinn,Iowa,Linn,2021-04-04 11:32:35.142427,2020-05-05 00:00:00.000000,0.25299235,0.43588146,0.72230203,573,988,1637,370,690,1150,0.16341088,0.30469178,0.50748581,0.08857108,0.14168724,0.19375687
19113,0,USIowaLinn,Iowa,Linn,2021-04-04 11:32:35.142427,2020-05-06 00:00:00.000000,0.23324135,0.41211819,0.69634948,528,934,1578,348,656,1105,0.15369052,0.28967926,0.48769700,0.08801475,0.13726239,0.19292428
19113,0,USIowaLinn,Iowa,Linn,2021-04-04 11:32:35.142427,2020-05-07 00:00:00.000000,0.21469210,0.38745652,0.67105568,486,878,1521,323,620,1060,0.14264551,0.27372007,0.46769051,0.08789545,0.13701054,0.19312062
19113,0,USIowaLinn,Iowa,Linn,2021-04-04 11:32:35.142427,2020-05-08 00:00:00.000000,0.19745245,0.36726827,0.64613371,447,832,1464,298,586,1015,0.13145159,0.25854902,0.44784615,0.08786683,0.13471127,0.19407832
19113,0,USIowaLinn,Iowa,Linn,2021-04-04 11:32:35.142427,2020-05-09 00:00:00.000000,0.18155190,0.34885703,0.62107425,411,790,1408,274,553,971,0.12099324,0.24434685,0.42842510,0.08786984,0.13463542,0.19580506
19113,0,USIowaLinn,Iowa,Linn,2021-04-04 11:32:35.142427,2020-05-10 00:00:00.000000,0.16697146,0.32857520,0.59522764,378,744,1349,252,523,933,0.11130638,0.23106326,0.41167194,0.08803832,0.13579682,0.19847295
19113,0,USIowaLinn,Iowa,Linn,2021-04-04 11:32:35.142427,2020-05-11 00:00:00.000000,0.15537613,0.31085806,0.56890041,352,704,1289,232,493,896,0.10239211,0.21784394,0.39536260,0.08780887,0.13461607,0.19920966
19113,0,USIowaLinn,Iowa,Linn,2021-04-04 11:32:35.142427,2020-05-12 00:00:00.000000,0.14610037,0.29451022,0.54265600,331,667,1230,215,464,858,0.09491082,0.20476443,0.37886467,0.08779384,0.13363621,0.20009025
19113,0,USIowaLinn,Iowa,Linn,2021-04-04 11:32:35.142427,2020-05-13 00:00:00.000000,0.13872103,0.27785804,0.51670530,314,629,1171,200,435,821,0.08840447,0.19201041,0.36241954,0.08736125,0.13071806,0.19998530
19113,0,USIowaLinn,Iowa,Linn,2021-04-04 11:32:35.142427,2020-05-14 00:00:00.000000,0.13187873,0.26158602,0.48923079,298,593,1109,187,410,788,0.08263482,0.18091180,0.34760730,0.08690116,0.13219073,0.19975203
19113,0,USIowaLinn,Iowa,Linn,2021-04-04 11:32:35.142427,2020-05-15 00:00:00.000000,0.12532899,0.24635422,0.46281682,284,558,1049,175,388,759,0.07747842,0.17141025,0.33511368,0.08684829,0.13277181,0.19871644
19113,0,USIowaLinn,Iowa,Linn,2021-04-04 11:32:35.142427,2020-05-16 00:00:00.000000,0.11890764,0.23227954,0.43729432,269,526,991,165,368,730,0.07287662,0.16234017,0.32204659,0.08687231,0.13313335,0.19872056
19113,0,USIowaLinn,Iowa,Linn,2021-04-04 11:32:35.142427,2020-05-17 00:00:00.000000,0.11263781,0.21939948,0.41246783,255,497,935,155,348,702,0.06879730,0.15378888,0.30969685,0.08918989,0.13143798,0.19754205
19113,0,USIowaLinn,Iowa,Linn,2021-04-04 11:32:35.142427,2020-05-18 00:00:00.000000,0.10634361,0.20772358,0.39664185,241,470,899,147,330,675,0.06519254,0.14566035,0.29814228,0.08988520,0.13323736,0.19730810
19113,0,USIowaLinn,Iowa,Linn,2021-04-04 11:32:35.142427,2020-05-19 00:00:00.000000,0.10036211,0.19690639,0.38331294,227,446,868,138,312,651,0.06127342,0.13792999,0.28732113,0.09016206,0.13662623,0.19813403
19113,0,USIowaLinn,Iowa,Linn,2021-04-04 11:32:35.142427,2020-05-20 00:00:00.000000,0.09472614,0.18867698,0.36686482,214,427,831,130,297,628,0.05740289,0.13127440,0.27733730,0.09042619,0.13774711,0.21355827
19113,0,USIowaLinn,Iowa,Linn,2021-04-04 11:32:35.142427,2020-05-21 00:00:00.000000,0.08946727,0.18272651,0.34906911,202,414,791,121,284,607,0.05372468,0.12536867,0.26799471,0.09256968,0.14018783,0.22108355
19113,0,USIowaLinn,Iowa,Linn,2021-04-04 11:32:35.142427,2020-05-22 00:00:00.000000,0.08459748,0.17585445,0.33726965,191,398,764,114,271,575,0.05029137,0.11982532,0.25403437,0.09325419,0.14500389,0.23155298
19113,0,USIowaLinn,Iowa,Linn,2021-04-04 11:32:35.142427,2020-05-23 00:00:00.000000,0.08013996,0.16909770,0.32320076,181,383,732,106,261,543,0.04712104,0.11517238,0.23980654,0.09436729,0.14888808,0.24090866
19113,0,USIowaLinn,Iowa,Linn,2021-04-04 11:32:35.142427,2020-05-24 00:00:00.000000,0.07617578,0.16225800,0.31312826,172,367,709,100,249,514,0.04422508,0.10996358,0.22688784,0.09499843,0.15381799,0.24865883
19113,0,USIowaLinn,Iowa,Linn,2021-04-04 11:32:35.142427,2020-05-25 00:00:00.000000,0.07152337,0.15584038,0.30083988,162,353,682,94,236,502,0.04162560,0.10411013,0.22154846,0.09518346,0.15697773,0.26569045
19113,0,USIowaLinn,Iowa,Linn,2021-04-04 11:32:35.142427,2020-05-26 00:00:00.000000,0.06734352,0.15000994,0.28844417,152,340,653,88,225,494,0.03916501,0.09958246,0.21806030,0.09744437,0.16247359,0.27580237
19113,0,USIowaLinn,Iowa,Linn,2021-04-04 11:32:35.142427,2020-05-27 00:00:00.000000,0.06344826,0.14441931,0.27707823,143,327,628,83,218,486,0.03701022,0.09650467,0.21475369,0.10147255,0.17019881,0.27734105
19113,0,USIowaLinn,Iowa,Linn,2021-04-04 11:32:35.142427,2020-05-28 00:00:00.000000,0.05983344,0.14017240,0.26940566,135,317,610,79,211,473,0.03522727,0.09336322,0.20878450,0.10636693,0.17448494,0.27810900
19113,0,USIowaLinn,Iowa,Linn,2021-04-04 11:32:35.142427,2020-05-29 00:00:00.000000,0.05755299,0.13709004,0.26416389,130,310,598,76,205,455,0.03380181,0.09066790,0.20080119,0.10608291,0.18624572,0.30587895
19113,0,USIowaLinn,Iowa,Linn,2021-04-04 11:32:35.142427,2020-05-30 00:00:00.000000,0.05584511,0.13516625,0.26175204,126,306,593,74,202,438,0.03269500,0.08930050,0.19363212,0.11724045,0.19862444,0.30745099
19113,0,USIowaLinn,Iowa,Linn,2021-04-04 11:32:35.142427,2020-05-31 00:00:00.000000,0.05458592,0.13620162,0.26114754,123,308,592,72,200,428,0.03188643,0.08830754,0.18902625,0.12221942,0.21018651,0.32315418
19113,0,USIowaLinn,Iowa,Linn,2021-04-04 11:32:35.142427,2020-06-01 00:00:00.000000,0.05519984,0.13602768,0.25824288,125,308,585,71,196,419,0.03132282,0.08670684,0.18489417,0.13274091,0.21284244,0.33314538
19113,0,USIowaLinn,Iowa,Linn,2021-04-04 11:32:35.142427,2020-06-02 00:00:00.000000,0.05598745,0.13580341,0.25196706,126,307,571,71,196,408,0.03157783,0.08663605,0.18022181,0.13646554,0.22073891,0.35232823
19113,0,USIowaLinn,Iowa,Linn,2021-04-04 11:32:35.142427,2020-06-03 00:00:00.000000,0.05700408,0.13576958,0.24715540,129,307,560,73,197,398,0.03220107,0.08698794,0.17567890,0.14122138,0.22339039,0.37624671
19113,0,USIowaLinn,Iowa,Linn,2021-04-04 11:32:35.142427,2020-06-04 00:00:00.000000,0.05817740,0.13382319,0.24410592,131,303,553,74,196,389,0.03299434,0.08676010,0.17175863,0.15060449,0.23568565,0.39256083
19113,0,USIowaLinn,Iowa,Linn,2021-04-04 11:32:35.142427,2020-06-05 00:00:00.000000,0.05950022,0.13454487,0.24415082,134,305,553,76,194,382,0.03389508,0.08562091,0.16878777,0.15917969,0.24674938,0.39422791
19113,0,USIowaLinn,Iowa,Linn,2021-04-04 11:32:35.142427,2020-06-06 00:00:00.000000,0.06104015,0.13748499,0.24769556,138,311,561,79,191,379,0.03498882,0.08468747,0.16739225,0.16495699,0.27078611,0.40266397
19113,0,USIowaLinn,Iowa,Linn,2021-04-04 11:32:35.142427,2020-06-07 00:00:00.000000,0.06284485,0.13917327,0.25265479,142,315,572,82,196,380,0.03645593,0.08686482,0.16802175,0.17479092,0.28388459,0.42666340
19113,0,USIowaLinn,Iowa,Linn,2021-04-04 11:32:35.142427,2020-06-08 00:00:00.000000,0.06451805,0.14279006,0.25895317,146,323,587,85,204,385,0.03759208,0.09002668,0.17015320,0.17606313,0.28859477,0.43972756
19113,0,USIowaLinn,Iowa,Linn,2021-04-04 11:32:35.142427,2020-06-09 00:00:00.000000,0.06631651,0.14542945,0.25579908,150,329,579,86,210,390,0.03814783,0.09302891,0.17245927,0.17882640,0.30392189,0.44102991
19113,0,USIowaLinn,Iowa,Linn,2021-04-04 11:32:35.142427,2020-06-10 00:00:00.000000,0.06822478,0.15115270,0.25191473,154,342,571,88,214,384,0.03885350,0.09462486,0.16960860,0.20161975,0.32136464,0.46942744
19113,0,USIowaLinn,Iowa,Linn,2021-04-04 11:32:35.142427,2020-06-11 00:00:00.000000,0.07030784,0.15706180,0.25690691,159,356,582,89,217,381,0.03967172,0.09581460,0.16846630,0.20227634,0.32887587,0.48815620
19113,0,USIowaLinn,Iowa,Linn,2021-04-04 11:32:35.142427,2020-06-12 00:00:00.000000,0.07267764,0.16159283,0.26545917,164,366,601,92,223,394,0.04060913,0.09866971,0.17397394,0.20429712,0.33159149,0.49236086
19113,0,USIowaLinn,Iowa,Linn,2021-04-04 11:32:35.142427,2020-06-13 00:00:00.000000,0.07562086,0.16576846,0.27438453,171,375,622,94,233,408,0.04172321,0.10300975,0.18002378,0.22410691,0.33309449,0.51793117
19113,0,USIowaLinn,Iowa,Linn,2021-04-04 11:32:35.142427,2020-06-14 00:00:00.000000,0.08215981,0.17547861,0.28308736,186,397,641,97,238,422,0.04311269,0.10525291,0.18651298,0.23673678,0.33931440,0.54603747
19113,0,USIowaLinn,Iowa,Linn,2021-04-04 11:32:35.142427,2020-06-15 00:00:00.000000,0.08650582,0.18137997,0.29109539,196,411,659,101,244,438,0.04486599,0.10790485,0.19337717,0.24479608,0.35086543,0.54375703
19113,0,USIowaLinn,Iowa,Linn,2021-04-04 11:32:35.142427,2020-06-16 00:00:00.000000,0.08965325,0.18992842,0.30015160,203,430,680,105,254,454,0.04649750,0.11235905,0.20066121,0.24489943,0.36430418,0.53443135
19113,0,USIowaLinn,Iowa,Linn,2021-04-04 11:32:35.142427,2020-06-17 00:00:00.000000,0.09315352,0.19808641,0.30977941,211,449,702,109,263,472,0.04824497,0.11626954,0.20829089,0.24500722,0.37331163,0.52716541
19113,0,USIowaLinn,Iowa,Linn,2021-04-04 11:32:35.142427,2020-06-18 00:00:00.000000,0.09780573,0.20752330,0.31993960,221,470,725,117,269,490,0.05179495,0.11884206,0.21623538,0.24533019,0.38176048,0.54098078
19113,0,USIowaLinn,Iowa,Linn,2021-04-04 11:32:35.142427,2020-06-19 00:00:00.000000,0.10416491,0.21519399,0.33108452,236,487,750,126,277,508,0.05575922,0.12233545,0.22448280,0.24806700,0.38460058,0.55225117
19113,0,USIowaLinn,Iowa,Linn,2021-04-04 11:32:35.142427,2020-06-20 00:00:00.000000,0.11123391,0.22393025,0.34460269,252,507,781,135,291,528,0.05986647,0.12867178,0.23303241,0.25453844,0.38873659,0.55954862
19113,0,USIowaLinn,Iowa,Linn,2021-04-04 11:32:35.142427,2020-06-21 00:00:00.000000,0.11935392,0.23418856,0.36051430,270,530,817,143,309,548,0.06335060,0.13652850,0.24189079,0.26081802,0.38780514,0.54287727
19113,0,USIowaLinn,Iowa,Linn,2021-04-04 11:32:35.142427,2020-06-22 00:00:00.000000,0.12907562,0.24706862,0.37666469,292,560,853,151,327,569,0.06661247,0.14430716,0.25106051,0.27548897,0.39446129,0.54503676
19113,0,USIowaLinn,Iowa,Linn,2021-04-04 11:32:35.142427,2020-06-23 00:00:00.000000,0.13588539,0.25641580,0.39369663,308,581,892,157,344,590,0.06953311,0.15181618,0.26057874,0.27699416,0.39752554,0.55006246
19113,0,USIowaLinn,Iowa,Linn,2021-04-04 11:32:35.142427,2020-06-24 00:00:00.000000,0.14298483,0.26642448,0.41141791,324,604,932,168,359,625,0.07414824,0.15855985,0.27585198,0.28076150,0.39522579,0.56098885
19113,0,USIowaLinn,Iowa,Linn,2021-04-04 11:32:35.142427,2020-06-25 00:00:00.000000,0.15081237,0.27714611,0.42973439,341,628,974,180,375,667,0.07969921,0.16569246,0.29464202,0.28079214,0.39479498,0.55903060
19113,0,USIowaLinn,Iowa,Linn,2021-04-04 11:32:35.142427,2020-06-26 00:00:00.000000,0.15927614,0.28918475,0.44851369,361,655,1016,191,388,710,0.08437423,0.17143170,0.31322014,0.28434188,0.39152513,0.55522548
19113,0,USIowaLinn,Iowa,Linn,2021-04-04 11:32:35.142427,2020-06-27 00:00:00.000000,0.16832702,0.30392418,0.46764238,381,689,1060,204,403,741,0.09028132,0.17783967,0.32696257,0.28850840,0.38659071,0.55063527
19113,0,USIowaLinn,Iowa,Linn,2021-04-04 11:32:35.142427,2020-06-28 00:00:00.000000,0.18159822,0.31411580,0.48714410,411,712,1104,219,415,773,0.09681210,0.18320268,0.34105570,0.28991503,0.38659660,0.54585013
19113,0,USIowaLinn,Iowa,Linn,2021-04-04 11:32:35.142427,2020-06-29 00:00:00.000000,0.19101287,0.32515374,0.50747753,433,737,1150,234,434,805,0.10331575,0.19169157,0.35546755,0.29012507,0.38354776,0.54152590
19113,0,USIowaLinn,Iowa,Linn,2021-04-04 11:32:35.142427,2020-06-30 00:00:00.000000,0.20458160,0.33869390,0.52845018,463,767,1198,248,454,839,0.10972123,0.20031839,0.37036565,0.29260740,0.38196496,0.53880360
19113,0,USIowaLinn,Iowa,Linn,2021-04-04 11:32:35.142427,2020-07-01 00:00:00.000000,0.21804733,0.35188919,0.55016191,494,797,1247,261,475,874,0.11549702,0.20973176,0.38575809,0.29321377,0.38174323,0.53592197
19113,0,USIowaLinn,Iowa,Linn,2021-04-04 11:32:35.142427,2020-07-02 00:00:00.000000,0.22662124,0.36726848,0.57265620,513,832,1298,275,493,910,0.12137806,0.21748028,0.40168141,0.29162886,0.38052589,0.53383036
19113,0,USIowaLinn,Iowa,Linn,2021-04-04 11:32:35.142427,2020-07-03 00:00:00.000000,0.23632637,0.38194647,0.59594809,535,865,1351,290,511,948,0.12792163,0.22543588,0.41817082,0.29398167,0.38377121,0.53038820
19113,0,USIowaLinn,Iowa,Linn,2021-04-04 11:32:35.142427,2020-07-04 00:00:00.000000,0.24601018,0.40037566,0.62000191,557,907,1405,305,532,986,0.13489276,0.23475360,0.43524887,0.29727295,0.38488910,0.52414098
19113,0,USIowaLinn,Iowa,Linn,2021-04-04 11:32:35.142427,2020-07-05 00:00:00.000000,0.25792018,0.41777815,0.64457504,584,947,1461,318,558,1026,0.14027334,0.24652837,0.45291160,0.28618084,0.38566316,0.51536883
19113,0,USIowaLinn,Iowa,Linn,2021-04-04 11:32:35.142427,2020-07-06 00:00:00.000000,0.27307024,0.43871932,0.66921332,619,994,1517,332,583,1056,0.14673408,0.25759217,0.46581609,0.28593213,0.38880091,0.51669313
19113,0,USIowaLinn,Iowa,Linn,2021-04-04 11:32:35.142427,2020-07-07 00:00:00.000000,0.28703147,0.45998375,0.69286797,650,1042,1570,350,608,1074,0.15482072,0.26860165,0.47385404,0.28607872,0.38976651,0.52454069
19113,0,USIowaLinn,Iowa,Linn,2021-04-04 11:32:35.142427,2020-07-08 00:00:00.000000,0.29975716,0.48478490,0.71646483,679,1099,1624,372,634,1092,0.16433573,0.27996465,0.48200068,0.28678678,0.39394411,0.52966646
19113,0,USIowaLinn,Iowa,Linn,2021-04-04 11:32:35.142427,2020-07-09 00:00:00.000000,0.31332608,0.50104597,0.74135842,710,1135,1680,391,658,1113,0.17260316,0.29066206,0.49104935,0.28078552,0.39512223,0.53690350
19113,0,USIowaLinn,Iowa,Linn,2021-04-04 11:32:35.142427,2020-07-10 00:00:00.000000,0.32777128,0.52412554,0.76763102,743,1188,1740,407,692,1157,0.17961848,0.30524461,0.51035610,0.27938199,0.39357057,0.55188905
19113,0,USIowaLinn,Iowa,Linn,2021-04-04 11:32:35.142427,2020-07-11 00:00:00.000000,0.34318211,0.54279645,0.79482504,778,1230,1801,419,712,1208,0.18517413,0.31442794,0.53316423,0.28678517,0.39698339,0.55463910
19113,0,USIowaLinn,Iowa,Linn,2021-04-04 11:32:35.142427,2020-07-12 00:00:00.000000,0.35973782,0.55893918,0.82291957,815,1267,1865,434,741,1263,0.19171916,0.32699421,0.55711789,0.28842664,0.39765098,0.55776338
19113,0,USIowaLinn,Iowa,Linn,2021-04-04 11:32:35.142427,2020-07-13 00:00:00.000000,0.37818756,0.57960317,0.86167333,857,1313,1953,451,769,1319,0.19912034,0.33929033,0.58217235,0.28747134,0.40220467,0.55732995
19113,0,USIowaLinn,Iowa,Linn,2021-04-04 11:32:35.142427,2020-07-14 00:00:00.000000,0.39795625,0.60929318,0.90700042,902,1381,2056,470,802,1368,0.20740867,0.35382769,0.60376256,0.28743901,0.39844233,0.55482240
19113,0,USIowaLinn,Iowa,Linn,2021-04-04 11:32:35.142427,2020-07-15 00:00:00.000000,0.41915866,0.63200548,0.95131333,950,1432,2156,490,832,1408,0.21631359,0.36704060,0.62122442,0.28767592,0.39767728,0.54867066
19113,0,USIowaLinn,Iowa,Linn,2021-04-04 11:32:35.142427,2020-07-16 00:00:00.000000,0.44182227,0.66184681,1.00048566,1001,1500,2268,511,871,1448,0.22570315,0.38456867,0.63874265,0.28670122,0.39805539,0.53681421
19113,0,USIowaLinn,Iowa,Linn,2021-04-04 11:32:35.142427,2020-07-17 00:00:00.000000,0.46583078,0.69114713,1.05857229,1056,1566,2399,533,915,1487,0.23551793,0.40381062,0.65626220,0.27288884,0.39336002,0.50937676
19113,0,USIowaLinn,Iowa,Linn,2021-04-04 11:32:35.142427,2020-07-18 00:00:00.000000,0.49134609,0.71815205,1.10999298,1113,1628,2516,557,957,1527,0.24574515,0.42255488,0.67387289,0.26689749,0.39840045,0.49639960
19113,0,USIowaLinn,Iowa,Linn,2021-04-04 11:32:35.142427,2020-07-19 00:00:00.000000,0.51562735,0.73758199,1.16540908,1168,1672,2642,581,1001,1593,0.25641670,0.44170687,0.70310544,0.26643269,0.39566570,0.49662708
19113,0,USIowaLinn,Iowa,Linn,2021-04-04 11:32:35.142427,2020-07-20 00:00:00.000000,0.54009671,0.76389652,1.22220078,1224,1731,2770,606,1045,1670,0.26756746,0.46103889,0.73701298,0.26683941,0.38983214,0.49140047
19113,0,USIowaLinn,Iowa,Linn,2021-04-04 11:32:35.142427,2020-07-21 00:00:00.000000,0.56614682,0.79373187,1.27927725,1283,1799,2900,632,1076,1788,0.27915005,0.47489223,0.78871498,0.26677240,0.37516035,0.49485618
19113,0,USIowaLinn,Iowa,Linn,2021-04-04 11:32:35.142427,2020-07-22 00:00:00.000000,0.58045139,0.82245921,1.33388205,1315,1864,3023,670,1111,1844,0.29583115,0.49036267,0.81346585,0.26638892,0.37056279,0.49353256
19113,0,USIowaLinn,Iowa,Linn,2021-04-04 11:32:35.142427,2020-07-23 00:00:00.000000,0.59505883,0.85991141,1.38255494,1349,1949,3134,718,1163,1928,0.31711084,0.51307133,0.85066605,0.26765924,0.36195962,0.49313940
19113,0,USIowaLinn,Iowa,Linn,2021-04-04 11:32:35.142427,2020-07-24 00:00:00.000000,0.60981484,0.88418556,1.42227071,1382,2004,3224,749,1204,2000,0.33055634,0.53120187,0.88263254,0.26240555,0.34450231,0.48000564
19113,0,USIowaLinn,Iowa,Linn,2021-04-04 11:32:35.142427,2020-07-25 00:00:00.000000,0.62172830,0.90515370,1.45218495,1409,2052,3292,776,1239,2047,0.34229761,0.54658413,0.90327463,0.25274393,0.33395021,0.46436989
19113,0,USIowaLinn,Iowa,Linn,2021-04-04 11:32:35.142427,2020-07-26 00:00:00.000000,0.62636604,0.92293367,1.47377495,1420,2092,3341,796,1278,2092,0.35148030,0.56395291,0.92292099,0.24466059,0.32369751,0.44712090
19113,0,USIowaLinn,Iowa,Linn,2021-04-04 11:32:35.142427,2020-07-27 00:00:00.000000,0.63625273,0.93119908,1.48806482,1442,2111,3373,811,1315,2133,0.35788357,0.58031679,0.94115204,0.22377997,0.31762581,0.45046480
19113,0,USIowaLinn,Iowa,Linn,2021-04-04 11:32:35.142427,2020-07-28 00:00:00.000000,0.64834623,0.93709774,1.49797311,1469,2124,3395,821,1340,2171,0.36227443,0.59134360,0.95806412,0.22134227,0.31155720,0.45685581
19113,0,USIowaLinn,Iowa,Linn,2021-04-04 11:32:35.142427,2020-07-29 00:00:00.000000,0.65983788,0.93885309,1.50544375,1495,2128,3412,826,1358,2208,0.36471795,0.59912587,0.97398449,0.22101476,0.30449003,0.44733034
19113,0,USIowaLinn,Iowa,Linn,2021-04-04 11:32:35.142427,2020-07-30 00:00:00.000000,0.67027176,0.94507947,1.51131416,1519,2142,3426,828,1375,2241,0.36527559,0.60680840,0.98881116,0.21494126,0.29956531,0.44181358
19113,0,USIowaLinn,Iowa,Linn,2021-04-04 11:32:35.142427,2020-07-31 00:00:00.000000,0.68167829,0.95798394,1.51597719,1545,2171,3436,825,1384,2271,0.36415887,0.61076198,1.00213667,0.20682388,0.28467123,0.42791092
19113,0,USIowaLinn,Iowa,Linn,2021-04-04 11:32:35.142427,2020-08-01 00:00:00.000000,0.68545152,0.96450159,1.51920279,1553,2186,3444,820,1387,2297,0.36179486,0.61207801,1.01352899,0.20409522,0.27857823,0.41810789
19113,0,USIowaLinn,Iowa,Linn,2021-04-04 11:32:35.142427,2020-08-02 00:00:00.000000,0.68319768,0.97001956,1.51926594,1548,2199,3444,813,1388,2318,0.35861897,0.61225053,1.02289168,0.20367492,0.27376887,0.38449887
19113,0,USIowaLinn,Iowa,Linn,2021-04-04 11:32:35.142427,2020-08-03 00:00:00.000000,0.67759146,0.97357955,1.51515646,1536,2207,3434,804,1389,2336,0.35495494,0.61312455,1.03051574,0.19471028,0.27072101,0.36909321
19113,0,USIowaLinn,Iowa,Linn,2021-04-04 11:32:35.142427,2020-08-04 00:00:00.000000,0.66904963,0.97413379,1.50851029,1516,2208,3419,795,1397,2351,0.35080929,0.61651640,1.03704385,0.18668379,0.26134610,0.36743149
19113,0,USIowaLinn,Iowa,Linn,2021-04-04 11:32:35.142427,2020-08-05 00:00:00.000000,0.66035893,0.96135504,1.50041981,1497,2179,3401,785,1405,2363,0.34641692,0.61996718,1.04238426,0.18391602,0.26006122,0.35592725
19113,0,USIowaLinn,Iowa,Linn,2021-04-04 11:32:35.142427,2020-08-06 00:00:00.000000,0.65162194,0.94948837,1.49013872,1477,2152,3378,775,1388,2370,0.34190967,0.61224835,1.04549721,0.18373112,0.25387816,0.33959150
19113,0,USIowaLinn,Iowa,Linn,2021-04-04 11:32:35.142427,2020-08-07 00:00:00.000000,0.64169387,0.93633985,1.47586807,1454,2122,3345,764,1382,2368,0.33736074,0.60970764,1.04469181,0.18175492,0.25194760,0.33452934
19113,0,USIowaLinn,Iowa,Linn,2021-04-04 11:32:35.142427,2020-08-08 00:00:00.000000,0.63008769,0.91952485,1.47010966,1428,2084,3332,754,1379,2358,0.33280890,0.60865434,1.04034864,0.17469274,0.24677748,0.33410727
19113,0,USIowaLinn,Iowa,Linn,2021-04-04 11:32:35.142427,2020-08-09 00:00:00.000000,0.61893833,0.91738464,1.46790565,1403,2079,3327,744,1370,2344,0.32826266,0.60446967,1.03398998,0.16558353,0.24344812,0.33336255
19113,0,USIowaLinn,Iowa,Linn,2021-04-04 11:32:35.142427,2020-08-10 00:00:00.000000,0.61031801,0.91620495,1.46511692,1383,2077,3321,733,1354,2326,0.32372165,0.59744641,1.02615840,0.16325912,0.24240458,0.33011301
19113,0,USIowaLinn,Iowa,Linn,2021-04-04 11:32:35.142427,2020-08-11 00:00:00.000000,0.58934940,0.90788080,1.46170896,1336,2058,3313,722,1333,2296,0.31879488,0.58809770,1.01314662,0.16275648,0.24280034,0.33435217
19113,0,USIowaLinn,Iowa,Linn,2021-04-04 11:32:35.142427,2020-08-12 00:00:00.000000,0.57621954,0.89801348,1.45795455,1306,2035,3305,711,1315,2266,0.31369635,0.58017987,0.99971585,0.16269950,0.24464788,0.33913019
19113,0,USIowaLinn,Iowa,Linn,2021-04-04 11:32:35.142427,2020-08-13 00:00:00.000000,0.57414479,0.88366234,1.45396220,1301,2003,3296,699,1297,2250,0.30857501,0.57216872,0.99280807,0.16286153,0.24903521,0.34097988
19113,0,USIowaLinn,Iowa,Linn,2021-04-04 11:32:35.142427,2020-08-14 00:00:00.000000,0.57500075,0.87121358,1.44978306,1303,1975,3286,688,1272,2245,0.30368460,0.56130762,0.99055549,0.16350542,0.25108337,0.35199577
19113,0,USIowaLinn,Iowa,Linn,2021-04-04 11:32:35.142427,2020-08-15 00:00:00.000000,0.56993635,0.86949167,1.43360082,1292,1971,3250,681,1266,2225,0.30052483,0.55851884,0.98172335,0.16874765,0.25469587,0.36983311
19113,0,USIowaLinn,Iowa,Linn,2021-04-04 11:32:35.142427,2020-08-16 00:00:00.000000,0.55519816,0.87313854,1.40887838,1258,1979,3194,682,1263,2187,0.30096136,0.55719524,0.96472500,0.18134472,0.25809347,0.38422685
19113,0,USIowaLinn,Iowa,Linn,2021-04-04 11:32:35.142427,2020-08-17 00:00:00.000000,0.56278325,0.86876687,1.38583739,1275,1969,3141,688,1245,2149,0.30370687,0.54939067,0.94801342,0.18108551,0.25829452,0.38458591
19113,0,USIowaLinn,Iowa,Linn,2021-04-04 11:32:35.142427,2020-08-18 00:00:00.000000,0.56417323,0.87062657,1.36536597,1279,1973,3095,692,1225,2112,0.30535833,0.54061316,0.93197752,0.18109112,0.25818940,0.38326499
19113,0,USIowaLinn,Iowa,Linn,2021-04-04 11:32:35.142427,2020-08-19 00:00:00.000000,0.55432451,0.86735700,1.36148118,1256,1966,3086,689,1206,2078,0.30401469,0.53211621,0.91702224,0.18666448,0.25919516,0.38342325
19113,0,USIowaLinn,Iowa,Linn,2021-04-04 11:32:35.142427,2020-08-20 00:00:00.000000,0.54643491,0.86594947,1.37099066,1238,1963,3108,700,1197,2070,0.30907632,0.52835911,0.91323991,0.19535443,0.26024943,0.38156645
19113,0,USIowaLinn,Iowa,Linn,2021-04-04 11:32:35.142427,2020-08-21 00:00:00.000000,0.54726262,0.86544047,1.38065512,1240,1962,3130,700,1201,2077,0.30902059,0.52997066,0.91653484,0.19477518,0.26562509,0.38496338
19113,0,USIowaLinn,Iowa,Linn,2021-04-04 11:32:35.142427,2020-08-22 00:00:00.000000,0.55471816,0.86067904,1.39047411,1257,1951,3152,691,1198,2085,0.30494973,0.52877997,0.91978226,0.20566015,0.27344743,0.39890573
19113,0,USIowaLinn,Iowa,Linn,2021-04-04 11:32:35.142427,2020-08-23 00:00:00.000000,0.56374992,0.86195878,1.40029084,1278,1954,3174,687,1194,2101,0.30307644,0.52681760,0.92691384,0.20963303,0.28120754,0.44418847
19113,0,USIowaLinn,Iowa,Linn,2021-04-04 11:32:35.142427,2020-08-24 00:00:00.000000,0.57114452,0.85884568,1.40883535,1294,1947,3193,685,1186,2120,0.30234995,0.52318741,0.93539116,0.20959103,0.29212077,0.44716393
19113,0,USIowaLinn,Iowa,Linn,2021-04-04 11:32:35.142427,2020-08-25 00:00:00.000000,0.57900896,0.87536426,1.41653844,1312,1984,3211,681,1189,2134,0.30081299,0.52465187,0.94151350,0.20960047,0.29748028,0.44778611
19113,0,USIowaLinn,Iowa,Linn,2021-04-04 11:32:35.142427,2020-08-26 00:00:00.000000,0.58691046,0.88336178,1.42359753,1330,2002,3227,688,1201,2147,0.30376380,0.52983768,0.94716768,0.20967491,0.29832440,0.45253633
19113,0,USIowaLinn,Iowa,Linn,2021-04-04 11:32:35.142427,2020-08-27 00:00:00.000000,0.58871314,0.90276106,1.42995460,1334,2046,3241,698,1197,2164,0.30791142,0.52838782,0.95482897,0.21313886,0.30568265,0.46170985
19113,0,USIowaLinn,Iowa,Linn,2021-04-04 11:32:35.142427,2020-08-28 00:00:00.000000,0.58537976,0.91531434,1.43516755,1327,2075,3253,707,1228,2217,0.31208258,0.54185633,0.97801304,0.21863331,0.31206017,0.48026462
19113,0,USIowaLinn,Iowa,Linn,2021-04-04 11:32:35.142427,2020-08-29 00:00:00.000000,0.58291917,0.92626524,1.45167222,1321,2099,3291,717,1252,2244,0.31628279,0.55247160,0.99019372,0.21716661,0.32346876,0.48288599
19113,0,USIowaLinn,Iowa,Linn,2021-04-04 11:32:35.142427,2020-08-30 00:00:00.000000,0.58799246,0.93919235,1.47968626,1333,2129,3354,726,1267,2263,0.32051653,0.55913790,0.99836553,0.21625829,0.32660600,0.48516016
19113,0,USIowaLinn,Iowa,Linn,2021-04-04 11:32:35.142427,2020-08-31 00:00:00.000000,0.60036366,0.95394351,1.50759429,1361,2162,3417,735,1284,2274,0.32429534,0.56666655,1.00316225,0.21726768,0.32559450,0.48984419
19113,0,USIowaLinn,Iowa,Linn,2021-04-04 11:32:35.142427,2020-09-01 00:00:00.000000,0.61388933,0.96865851,1.53763425,1391,2196,3485,744,1295,2285,0.32851922,0.57159050,1.00812562,0.22431404,0.32835784,0.50094968
19113,0,USIowaLinn,Iowa,Linn,2021-04-04 11:32:35.142427,2020-09-02 00:00:00.000000,0.62828765,0.98165340,1.56817730,1424,2225,3555,754,1325,2295,0.33262901,0.58454942,1.01273279,0.22560979,0.32611699,0.49561292
19113,0,USIowaLinn,Iowa,Linn,2021-04-04 11:32:35.142427,2020-09-03 00:00:00.000000,0.64372232,0.99452941,1.59911632,1459,2254,3625,770,1354,2303,0.33978085,0.59767771,1.01621867,0.23398669,0.32795027,0.49165902
19113,0,USIowaLinn,Iowa,Linn,2021-04-04 11:32:35.142427,2020-09-04 00:00:00.000000,0.65150020,1.01564719,1.62977845,1476,2302,3694,792,1384,2335,0.34950073,0.61085669,1.03021429,0.23018177,0.32504857,0.48801209
19113,0,USIowaLinn,Iowa,Linn,2021-04-04 11:32:35.142427,2020-09-05 00:00:00.000000,0.67610422,1.02190571,1.66012305,1532,2316,3763,812,1420,2379,0.35837558,0.62646898,1.04978663,0.22432723,0.32300330,0.48411241
19113,0,USIowaLinn,Iowa,Linn,2021-04-04 11:32:35.142427,2020-09-06 00:00:00.000000,0.69272805,1.03513548,1.69008030,1570,2346,3831,832,1438,2424,0.36702101,0.63464382,1.06952072,0.21976245,0.32174513,0.47206936
19113,0,USIowaLinn,Iowa,Linn,2021-04-04 11:32:35.142427,2020-09-07 00:00:00.000000,0.68365056,1.04669104,1.71665194,1549,2372,3891,826,1462,2469,0.36466773,0.64528011,1.08922530,0.21698837,0.31846838,0.46649286
19113,0,USIowaLinn,Iowa,Linn,2021-04-04 11:32:35.142427,2020-09-08 00:00:00.000000,0.67690642,1.06158289,1.74180760,1534,2406,3948,817,1488,2511,0.36075683,0.65663489,1.10788601,0.21580679,0.31919678,0.44369691
19113,0,USIowaLinn,Iowa,Linn,2021-04-04 11:32:35.142427,2020-09-09 00:00:00.000000,0.70185471,1.07326373,1.76633115,1591,2433,4004,807,1523,2551,0.35608074,0.67198859,1.12552931,0.21567333,0.31887131,0.44318138
19113,0,USIowaLinn,Iowa,Linn,2021-04-04 11:32:35.142427,2020-09-10 00:00:00.000000,0.72122513,1.09120269,1.79012948,1635,2473,4058,812,1555,2589,0.35844115,0.68605353,1.14244458,0.21166609,0.31391172,0.44328782
19113,0,USIowaLinn,Iowa,Linn,2021-04-04 11:32:35.142427,2020-09-11 00:00:00.000000,0.73611183,1.10651763,1.81162614,1668,2508,4107,821,1574,2626,0.36214854,0.69467292,1.15835063,0.21048973,0.30844520,0.44146856
19113,0,USIowaLinn,Iowa,Linn,2021-04-04 11:32:35.142427,2020-09-12 00:00:00.000000,0.74931322,1.11684527,1.82581154,1698,2531,4139,829,1582,2644,0.36604597,0.69800199,1.16640025,0.20471336,0.30881330,0.43807330
19113,0,USIowaLinn,Iowa,Linn,2021-04-04 11:32:35.142427,2020-09-13 00:00:00.000000,0.76168467,1.12251357,1.82564387,1726,2544,4138,838,1581,2663,0.36997556,0.69781016,1.17504897,0.21094188,0.30703529,0.42143383
19113,0,USIowaLinn,Iowa,Linn,2021-04-04 11:32:35.142427,2020-09-14 00:00:00.000000,0.77354554,1.12490211,1.81401834,1753,2550,4112,844,1590,2707,0.37269938,0.70159440,1.19414150,0.21629138,0.29953545,0.44194198
19113,0,USIowaLinn,Iowa,Linn,2021-04-04 11:32:35.142427,2020-09-15 00:00:00.000000,0.78508901,1.12534233,1.80991431,1779,2551,4103,847,1598,2708,0.37378030,0.70525315,1.19491764,0.21647036,0.29935741,0.44050226
19113,0,USIowaLinn,Iowa,Linn,2021-04-04 11:32:35.142427,2020-09-16 00:00:00.000000,0.78167427,1.13581931,1.78742322,1772,2574,4052,852,1608,2713,0.37591608,0.70929016,1.19694211,0.21448943,0.30004276,0.44103910
19113,0,USIowaLinn,Iowa,Linn,2021-04-04 11:32:35.142427,2020-09-17 00:00:00.000000,0.77334010,1.13488684,1.76476672,1753,2572,4000,865,1618,2726,0.38162180,0.71398648,1.20255880,0.20910816,0.29984412,0.44672203
19113,0,USIowaLinn,Iowa,Linn,2021-04-04 11:32:35.142427,2020-09-18 00:00:00.000000,0.76686907,1.13282655,1.76800181,1738,2568,4008,877,1631,2734,0.38707600,0.71943508,1.20596752,0.20129821,0.29354985,0.44552261
19113,0,USIowaLinn,Iowa,Linn,2021-04-04 11:32:35.142427,2020-09-19 00:00:00.000000,0.76333557,1.12878639,1.72478160,1730,2559,3910,889,1636,2739,0.39222548,0.72167717,1.20853993,0.19984384,0.28882949,0.42660763
19113,0,USIowaLinn,Iowa,Linn,2021-04-04 11:32:35.142427,2020-09-20 00:00:00.000000,0.76176666,1.12775105,1.72084753,1726,2556,3901,899,1639,2725,0.39697680,0.72304312,1.20234859,0.20550725,0.28662180,0.40767160
19113,0,USIowaLinn,Iowa,Linn,2021-04-04 11:32:35.142427,2020-09-21 00:00:00.000000,0.76443876,1.12972742,1.76050933,1733,2561,3991,909,1628,2651,0.40120735,0.71821511,1.16974901,0.21370006,0.28656227,0.41675182
19113,0,USIowaLinn,Iowa,Linn,2021-04-04 11:32:35.142427,2020-09-22 00:00:00.000000,0.76789707,1.14129705,1.80074044,1740,2587,4082,917,1627,2620,0.40471665,0.71767520,1.15589231,0.21430843,0.28643747,0.42922490
19113,0,USIowaLinn,Iowa,Linn,2021-04-04 11:32:35.142427,2020-09-23 00:00:00.000000,0.77256338,1.14705317,1.83922368,1751,2600,4169,923,1632,2630,0.40741287,0.71996296,1.16023584,0.21539552,0.29567882,0.42993938
19113,0,USIowaLinn,Iowa,Linn,2021-04-04 11:32:35.142427,2020-09-24 00:00:00.000000,0.77885017,1.15809435,1.87087579,1765,2625,4241,927,1623,2641,0.40923553,0.71613844,1.16513641,0.21430888,0.29481163,0.41265011
19113,0,USIowaLinn,Iowa,Linn,2021-04-04 11:32:35.142427,2020-09-25 00:00:00.000000,0.78715408,1.16562010,1.87973714,1784,2642,4261,929,1644,2650,0.41019104,0.72553956,1.16892419,0.21352213,0.29054409,0.40482937
19113,0,USIowaLinn,Iowa,Linn,2021-04-04 11:32:35.142427,2020-09-26 00:00:00.000000,0.78953039,1.16810555,1.87676056,1789,2648,4254,930,1655,2668,0.41037698,0.73017644,1.17714941,0.21049468,0.28854335,0.39830983
19113,0,USIowaLinn,Iowa,Linn,2021-04-04 11:32:35.142427,2020-09-27 00:00:00.000000,0.78599458,1.16688588,1.87373077,1781,2645,4247,929,1655,2728,0.40999025,0.73009293,1.20372971,0.20446392,0.29174768,0.41859860
19113,0,USIowaLinn,Iowa,Linn,2021-04-04 11:32:35.142427,2020-09-28 00:00:00.000000,0.78199419,1.16223984,1.87436339,1772,2634,4249,927,1651,2741,0.40929675,0.72832556,1.20934118,0.20304925,0.29601754,0.41884028
19113,0,USIowaLinn,Iowa,Linn,2021-04-04 11:32:35.142427,2020-09-29 00:00:00.000000,0.78651853,1.15849141,1.87877502,1783,2626,4259,926,1656,2741,0.40851228,0.73083015,1.20920203,0.20332766,0.29134455,0.41923235
19113,0,USIowaLinn,Iowa,Linn,2021-04-04 11:32:35.142427,2020-09-30 00:00:00.000000,0.79804475,1.15692316,1.88565254,1809,2622,4274,933,1648,2743,0.41156689,0.72736250,1.21034742,0.20383798,0.29623501,0.42876239
19113,0,USIowaLinn,Iowa,Linn,2021-04-04 11:32:35.142427,2020-10-01 00:00:00.000000,0.80999031,1.16063571,1.89358067,1836,2631,4292,946,1658,2749,0.41750131,0.73146099,1.21288233,0.20263856,0.29333367,0.42423254
19113,0,USIowaLinn,Iowa,Linn,2021-04-04 11:32:35.142427,2020-10-02 00:00:00.000000,0.81741856,1.16687846,1.90169742,1853,2645,4311,960,1666,2757,0.42371847,0.73501484,1.21645657,0.20263264,0.29722306,0.41558447
19113,0,USIowaLinn,Iowa,Linn,2021-04-04 11:32:35.142427,2020-10-03 00:00:00.000000,0.82059027,1.17233478,1.90900415,1860,2657,4327,962,1672,2767,0.42475223,0.73753798,1.22068698,0.20852646,0.30085001,0.41398631
19113,0,USIowaLinn,Iowa,Linn,2021-04-04 11:32:35.142427,2020-10-04 00:00:00.000000,0.82189855,1.19122719,1.91334034,1863,2700,4337,957,1691,2777,0.42225868,0.74593907,1.22509927,0.21967604,0.30467599,0.42471700
19113,0,USIowaLinn,Iowa,Linn,2021-04-04 11:32:35.142427,2020-10-05 00:00:00.000000,0.82119070,1.21243218,1.88652905,1861,2748,4276,950,1705,2786,0.41924434,0.75245388,1.22907328,0.22947250,0.30826629,0.43369977
19113,0,USIowaLinn,Iowa,Linn,2021-04-04 11:32:35.142427,2020-10-06 00:00:00.000000,0.81173605,1.22700744,1.86713558,1840,2781,4232,942,1700,2793,0.41573145,0.74997403,1.23224139,0.24245389,0.31048829,0.43707865
19113,0,USIowaLinn,Iowa,Linn,2021-04-04 11:32:35.142427,2020-10-07 00:00:00.000000,0.80277593,1.23738006,1.85638734,1819,2805,4208,933,1714,2798,0.41186918,0.75642115,1.23451627,0.24979244,0.31277645,0.43918239
19113,0,USIowaLinn,Iowa,Linn,2021-04-04 11:32:35.142427,2020-10-08 00:00:00.000000,0.79489943,1.25177197,1.88254858,1802,2837,4267,924,1750,2802,0.40780181,0.77201051,1.23612331,0.25174304,0.31905683,0.44457633
19113,0,USIowaLinn,Iowa,Linn,2021-04-04 11:32:35.142427,2020-10-09 00:00:00.000000,0.78883478,1.27077870,1.92095147,1788,2880,4354,919,1756,2843,0.40539832,0.77460928,1.25437625,0.25707402,0.32664899,0.46290809
19113,0,USIowaLinn,Iowa,Linn,2021-04-04 11:32:35.142427,2020-10-10 00:00:00.000000,0.78564391,1.28966659,1.95392044,1781,2923,4429,920,1758,2887,0.40603886,0.77588020,1.27367955,0.26683427,0.34430221,0.47494423
19113,0,USIowaLinn,Iowa,Linn,2021-04-04 11:32:35.142427,2020-10-11 00:00:00.000000,0.78688699,1.30577719,1.99920665,1783,2960,4532,926,1762,2936,0.40887231,0.77756584,1.29521950,0.28024334,0.35278628,0.50261960
19113,0,USIowaLinn,Iowa,Linn,2021-04-04 11:32:35.142427,2020-10-12 00:00:00.000000,0.79402302,1.35594547,2.04672653,1800,3074,4640,945,1779,2995,0.41720937,0.78492060,1.32125333,0.28361651,0.36682118,0.52604459
19113,0,USIowaLinn,Iowa,Linn,2021-04-04 11:32:35.142427,2020-10-13 00:00:00.000000,0.80931524,1.40367136,2.11320149,1834,3182,4790,977,1817,3060,0.43133824,0.80156888,1.35016689,0.28815149,0.37572868,0.56809996
19113,0,USIowaLinn,Iowa,Linn,2021-04-04 11:32:35.142427,2020-10-14 00:00:00.000000,0.83514480,1.43709008,2.20392935,1893,3257,4996,1019,1869,3130,0.44972474,0.82483406,1.38088016,0.29762404,0.38778618,0.58074167
19113,0,USIowaLinn,Iowa,Linn,2021-04-04 11:32:35.142427,2020-10-15 00:00:00.000000,0.88641878,1.48543752,2.28703913,2009,3367,5184,1068,1935,3202,0.47114309,0.85369914,1.41282603,0.30588655,0.39447822,0.61356109
19113,0,USIowaLinn,Iowa,Linn,2021-04-04 11:32:35.142427,2020-10-16 00:00:00.000000,0.94897324,1.54747203,2.37841002,2151,3508,5391,1094,2029,3304,0.48285382,0.89537706,1.45768209,0.30908329,0.42034772,0.65586332
19113,0,USIowaLinn,Iowa,Linn,2021-04-04 11:32:35.142427,2020-10-17 00:00:00.000000,1.00553566,1.61459808,2.47867196,2279,3660,5619,1141,2122,3477,0.50364191,0.93613453,1.53383414,0.31653964,0.45126632,0.69065416
19113,0,USIowaLinn,Iowa,Linn,2021-04-04 11:32:35.142427,2020-10-18 00:00:00.000000,1.07736908,1.69777493,2.58853332,2442,3848,5868,1236,2183,3673,0.54551157,0.96301111,1.62055709,0.33872643,0.50030901,0.71396920
19113,0,USIowaLinn,Iowa,Linn,2021-04-04 11:32:35.142427,2020-10-19 00:00:00.000000,1.15697538,1.78778424,2.81464829,2622,4053,6380,1328,2266,3906,0.58606249,0.99994095,1.72331806,0.35480398,0.53694523,0.76320408
19113,0,USIowaLinn,Iowa,Linn,2021-04-04 11:32:35.142427,2020-10-20 00:00:00.000000,1.25174120,1.94389798,2.97907403,2837,4406,6753,1423,2420,4088,0.62812556,1.06764003,1.80356882,0.36437145,0.57696567,0.78622115
19113,0,USIowaLinn,Iowa,Linn,2021-04-04 11:32:35.142427,2020-10-21 00:00:00.000000,1.38389907,2.09488218,3.19659650,3137,4749,7246,1536,2585,4278,0.67789716,1.14058760,1.88729296,0.37502287,0.61152753,0.79337177
19113,0,USIowaLinn,Iowa,Linn,2021-04-04 11:32:35.142427,2020-10-22 00:00:00.000000,1.52554327,2.27431345,3.48627076,3458,5156,7903,1667,2824,4532,0.73537460,1.24598230,1.99928389,0.44939770,0.64295406,0.84998184
19113,0,USIowaLinn,Iowa,Linn,2021-04-04 11:32:35.142427,2020-10-23 00:00:00.000000,1.64833994,2.49629952,3.81886125,3736,5659,8657,1814,3089,4946,0.80058847,1.36256768,2.18210712,0.47205156,0.67010679,0.87834077
19113,0,USIowaLinn,Iowa,Linn,2021-04-04 11:32:35.142427,2020-10-24 00:00:00.000000,1.79575690,2.74814868,4.19998066,4071,6230,9521,1981,3355,5498,0.87387070,1.48006425,2.42548135,0.49681687,0.69569606,0.91284868
19113,0,USIowaLinn,Iowa,Linn,2021-04-04 11:32:35.142427,2020-10-25 00:00:00.000000,1.98686805,3.03410464,4.62919419,4504,6878,10494,2216,3660,6118,0.97749853,1.61455071,2.69891859,0.53799394,0.72322972,0.91857256
19113,0,USIowaLinn,Iowa,Linn,2021-04-04 11:32:35.142427,2020-10-26 00:00:00.000000,2.23018980,3.38981471,5.10531106,5055,7684,11574,2491,4055,6766,1.09906202,1.78907027,2.98449617,0.58272739,0.75451956,0.96191866
19113,0,USIowaLinn,Iowa,Linn,2021-04-04 11:32:35.142427,2020-10-27 00:00:00.000000,2.51918836,3.79727590,5.62844348,5711,8608,12760,2800,4509,7474,1.23542033,1.98914437,3.29683230,0.61250177,0.76588530,0.95991071
19113,0,USIowaLinn,Iowa,Linn,2021-04-04 11:32:35.142427,2020-10-28 00:00:00.000000,2.85049611,4.23911857,6.19979848,6462,9610,14055,3146,5031,8246,1.38803449,2.21961058,3.63732767,0.63165606,0.77209101,0.97693000
19113,0,USIowaLinn,Iowa,Linn,2021-04-04 11:32:35.142427,2020-10-29 00:00:00.000000,3.22492477,4.71336983,6.88216680,7311,10685,15602,3532,5604,9073,1.55836945,2.47195494,4.00252987,0.62673434,0.77406156,0.96856592
19113,0,USIowaLinn,Iowa,Linn,2021-04-04 11:32:35.142427,2020-10-30 00:00:00.000000,3.64487504,5.28545904,7.68420866,8263,11982,17420,3962,6239,9974,1.74802134,2.75223878,4.39994508,0.63022043,0.77732722,0.95409913
19113,0,USIowaLinn,Iowa,Linn,2021-04-04 11:32:35.142427,2020-10-31 00:00:00.000000,4.11318494,5.93947740,8.55082769,9324,13465,19385,4440,6967,10978,1.95866705,3.07316189,4.84279740,0.63322067,0.77673539,0.94157328
19113,0,USIowaLinn,Iowa,Linn,2021-04-04 11:32:35.142427,2020-11-01 00:00:00.000000,4.63204834,6.49724905,9.46938187,10501,14729,21467,4969,7801,12080,2.19202294,3.44133593,5.32886594,0.61026862,0.76602345,0.95375856
19113,0,USIowaLinn,Iowa,Linn,2021-04-04 11:32:35.142427,2020-11-02 00:00:00.000000,5.20095504,7.14235414,10.44494868,11790,16192,23679,5548,8631,13359,2.44726235,3.80725061,5.89291371,0.59997845,0.75189066,0.95623783
19113,0,USIowaLinn,Iowa,Linn,2021-04-04 11:32:35.142427,2020-11-03 00:00:00.000000,5.71821971,7.86282644,11.48293282,12963,17825,26032,6168,9490,14748,2.72113837,4.18605613,6.50542558,0.59169098,0.74786150,0.95486178
19113,0,USIowaLinn,Iowa,Linn,2021-04-04 11:32:35.142427,2020-11-04 00:00:00.000000,6.25750650,8.61724833,12.57871204,14186,19535,28516,6828,10382,16163,3.01195330,4.57982415,7.12983071,0.53667202,0.73938761,0.92472518
19113,0,USIowaLinn,Iowa,Linn,2021-04-04 11:32:35.142427,2020-11-05 00:00:00.000000,6.82114841,9.24702916,13.71556177,15463,20963,31094,7517,11342,17630,3.31596309,5.00298201,7.77681138,0.49448719,0.71613357,0.91425867
19113,0,USIowaLinn,Iowa,Linn,2021-04-04 11:32:35.142427,2020-11-06 00:00:00.000000,7.29888081,9.96319008,14.68338513,16547,22587,33288,8212,12374,19041,3.62243460,5.45849816,8.39926385,0.42538581,0.67734036,0.86606637
19113,0,USIowaLinn,Iowa,Linn,2021-04-04 11:32:35.142427,2020-11-07 00:00:00.000000,7.74625298,10.64147405,15.09018909,17561,24124,34210,8844,13460,20324,3.90125755,5.93751396,8.96511709,0.35463058,0.58601338,0.81820917
19113,0,USIowaLinn,Iowa,Linn,2021-04-04 11:32:35.142427,2020-11-08 00:00:00.000000,7.83343398,10.91100948,15.26606222,17758,24735,34609,9351,14323,21341,4.12499732,6.31789054,9.41361250,0.27029260,0.46908688,0.73564096
19113,0,USIowaLinn,Iowa,Linn,2021-04-04 11:32:35.142427,2020-11-09 00:00:00.000000,7.72388236,11.08804632,15.26500694,17510,25137,34606,9610,14991,22116,4.23911402,6.61256477,9.75577581,0.22838711,0.37197641,0.58838609
19113,0,USIowaLinn,Iowa,Linn,2021-04-04 11:32:35.142427,2020-11-10 00:00:00.000000,7.64943444,10.97641658,15.14077239,17341,24884,34325,9638,15361,22522,4.25143608,6.77586606,9.93452434,0.21122509,0.31968225,0.44905940
19113,0,USIowaLinn,Iowa,Linn,2021-04-04 11:32:35.142427,2020-11-11 00:00:00.000000,7.37609623,10.69627880,15.03817715,16722,24249,34092,9515,15405,22752,4.19737148,6.79528174,10.03597289,0.20079484,0.28259132,0.39032356
19113,0,USIowaLinn,Iowa,Linn,2021-04-04 11:32:35.142427,2020-11-12 00:00:00.000000,7.01989226,10.34809879,14.80488621,15914,23459,33563,9288,15111,22778,4.09698411,6.66561414,10.04746902,0.19116917,0.26172576,0.37134309
19113,0,USIowaLinn,Iowa,Linn,2021-04-04 11:32:35.142427,2020-11-13 00:00:00.000000,6.71317880,9.85525605,14.41085262,15219,22342,32670,8987,14721,22573,3.96432832,6.49378337,9.95702871,0.18624630,0.24754648,0.33986968
19113,0,USIowaLinn,Iowa,Linn,2021-04-04 11:32:35.142427,2020-11-14 00:00:00.000000,6.40474428,9.32134770,13.93767457,14519,21132,31597,8642,14234,22184,3.81206244,6.27897709,9.78547543,0.18146651,0.24216711,0.31712397
19113,0,USIowaLinn,Iowa,Linn,2021-04-04 11:32:35.142427,2020-11-15 00:00:00.000000,6.04833059,8.88198511,13.43190974,13711,20135,30450,8274,13577,21658,3.65003025,5.98914897,9.55343714,0.17879213,0.23458153,0.31490575
19113,0,USIowaLinn,Iowa,Linn,2021-04-04 11:32:35.142427,2020-11-16 00:00:00.000000,5.70131722,8.38515340,12.91534417,12925,19009,29279,7900,12981,21033,3.48480551,5.72613060,9.27805400,0.17736915,0.23317775,0.31485860
19113,0,USIowaLinn,Iowa,Linn,2021-04-04 11:32:35.142427,2020-11-17 00:00:00.000000,5.36968706,7.98377408,12.37400377,12173,18099,28052,7527,12403,20353,3.32047773,5.47110040,8.97788542,0.17409137,0.23176334,0.31466410
19113,0,USIowaLinn,Iowa,Linn,2021-04-04 11:32:35.142427,2020-11-18 00:00:00.000000,5.05421937,7.56060138,11.79231514,11458,17140,26733,7147,11803,19609,3.15277090,5.20668316,8.64970489,0.16792260,0.23185705,0.31463751
19113,0,USIowaLinn,Iowa,Linn,2021-04-04 11:32:35.142427,2020-11-19 00:00:00.000000,4.75635127,7.14042092,11.23052481,10782,16187,25460,6528,11152,18839,2.87962886,4.91952815,8.31025662,0.16840234,0.23146505,0.31473814
19113,0,USIowaLinn,Iowa,Linn,2021-04-04 11:32:35.142427,2020-11-20 00:00:00.000000,4.42505894,6.71562650,10.74642116,10031,15224,24362,5961,10590,18044,2.62967439,4.67155534,7.95933339,0.16062309,0.23163164,0.32096485
19113,0,USIowaLinn,Iowa,Linn,2021-04-04 11:32:35.142427,2020-11-21 00:00:00.000000,4.15369674,6.34629167,10.30718861,9416,14387,23367,5451,10056,17233,2.40474754,4.43610164,7.60172581,0.15866991,0.23269494,0.33593169
19113,0,USIowaLinn,Iowa,Linn,2021-04-04 11:32:35.142427,2020-11-22 00:00:00.000000,3.89459701,6.03497142,9.87967680,8829,13681,22397,4999,9533,16418,2.20509436,4.20524808,7.24204076,0.14971218,0.23421627,0.35100890
19113,0,USIowaLinn,Iowa,Linn,2021-04-04 11:32:35.142427,2020-11-23 00:00:00.000000,3.64827989,5.74299354,9.46601703,8270,13019,21460,4600,9038,15760,2.02949397,3.98710024,6.95184015,0.13795295,0.23266552,0.35812856
19113,0,USIowaLinn,Iowa,Linn,2021-04-04 11:32:35.142427,2020-11-24 00:00:00.000000,3.41468272,5.46425233,9.05363320,7741,12387,20525,4310,8554,15120,1.90140754,3.77334226,6.66968930,0.13551208,0.23202585,0.35746014
19113,0,USIowaLinn,Iowa,Linn,2021-04-04 11:32:35.142427,2020-11-25 00:00:00.000000,3.19405084,5.16831159,8.62310531,7241,11716,19549,4039,8105,14498,1.78194708,3.57519354,6.39523117,0.13728372,0.23342216,0.35785600
19113,0,USIowaLinn,Iowa,Linn,2021-04-04 11:32:35.142427,2020-11-26 00:00:00.000000,2.98660195,4.91691843,8.13992724,6770,11146,18453,3782,7593,13896,1.66864645,3.34927231,6.12957901,0.14213418,0.23439156,0.37242707
19113,0,USIowaLinn,Iowa,Linn,2021-04-04 11:32:35.142427,2020-11-27 00:00:00.000000,2.79403959,4.67659714,7.67318108,6334,10602,17395,3540,7154,13310,1.56159963,3.15600247,5.87117296,0.15038361,0.23491652,0.37345481
19113,0,USIowaLinn,Iowa,Linn,2021-04-04 11:32:35.142427,2020-11-28 00:00:00.000000,2.62535158,4.42208938,7.22527728,5951,10025,16380,3312,6804,12722,1.46126935,3.00144469,5.61174829,0.15752675,0.23327244,0.37296045
19113,0,USIowaLinn,Iowa,Linn,2021-04-04 11:32:35.142427,2020-11-29 00:00:00.000000,2.49159430,4.16219004,6.84534356,5648,9435,15518,3106,6470,12132,1.37005907,2.85434762,5.35175699,0.14897694,0.23676466,0.39126576
19113,0,USIowaLinn,Iowa,Linn,2021-04-04 11:32:35.142427,2020-11-30 00:00:00.000000,2.37827282,3.94678606,6.54177728,5391,8947,14830,2928,6129,11556,1.29189106,2.70368571,5.09753016,0.14392708,0.24199074,0.39714488
19113,0,USIowaLinn,Iowa,Linn,2021-04-04 11:32:35.142427,2020-12-01 00:00:00.000000,2.27474797,3.74635985,6.23689446,5156,8493,14139,2777,5795,11002,1.22536986,2.55624860,4.85334950,0.14910116,0.24670479,0.40054181
19113,0,USIowaLinn,Iowa,Linn,2021-04-04 11:32:35.142427,2020-12-02 00:00:00.000000,2.17767558,3.56797555,5.91250603,4936,8088,13404,2645,5486,10478,1.16702974,2.42010933,4.62210694,0.15264790,0.25130954,0.40483143
19113,0,USIowaLinn,Iowa,Linn,2021-04-04 11:32:35.142427,2020-12-03 00:00:00.000000,2.08521933,3.38524242,5.63156380,4727,7674,12767,2526,5194,9987,1.11424222,2.29116849,4.40569085,0.15461423,0.25543532,0.41088460
19113,0,USIowaLinn,Iowa,Linn,2021-04-04 11:32:35.142427,2020-12-04 00:00:00.000000,1.99605912,3.21929288,5.39128883,4525,7298,12222,2415,4924,9499,1.06529140,2.17216996,4.19000985,0.15570920,0.25689376,0.41642665
19113,0,USIowaLinn,Iowa,Linn,2021-04-04 11:32:35.142427,2020-12-05 00:00:00.000000,1.90925065,3.06596661,5.17806646,4328,6950,11738,2310,4694,9075,1.01904052,2.07068992,4.00308908,0.15760258,0.26407153,0.41710832
19113,0,USIowaLinn,Iowa,Linn,2021-04-04 11:32:35.142427,2020-12-06 00:00:00.000000,1.82434156,2.92417945,4.98145520,4135,6629,11293,2209,4469,8703,0.97471398,1.97160707,3.83890307,0.16026519,0.27482326,0.44346610
19113,0,USIowaLinn,Iowa,Linn,2021-04-04 11:32:35.142427,2020-12-07 00:00:00.000000,1.74156610,2.79313308,4.79369042,3948,6332,10867,2112,4279,8364,0.93182239,1.88773906,3.68936478,0.15870323,0.29434154,0.45048204
19113,0,USIowaLinn,Iowa,Linn,2021-04-04 11:32:35.142427,2020-12-08 00:00:00.000000,1.66158165,2.68331153,4.61272259,3766,6083,10457,2018,4099,8044,0.89017656,1.80820366,3.54857213,0.16215801,0.30583072,0.46037946
19113,0,USIowaLinn,Iowa,Linn,2021-04-04 11:32:35.142427,2020-12-09 00:00:00.000000,1.58571700,2.58700058,4.43725916,3594,5864,10059,1926,3925,7739,0.84984640,1.73150420,3.41378011,0.16992288,0.32339352,0.48002279
19113,0,USIowaLinn,Iowa,Linn,2021-04-04 11:32:35.142427,2020-12-10 00:00:00.000000,1.51617881,2.50799388,4.26706221,3437,5685,9673,1839,3752,7444,0.81119587,1.65509661,3.28363524,0.18167336,0.33674626,0.51293963
19113,0,USIowaLinn,Iowa,Linn,2021-04-04 11:32:35.142427,2020-12-11 00:00:00.000000,1.45500849,2.44511400,4.11494816,3298,5543,9328,1756,3612,7158,0.77496900,1.59366297,3.15761970,0.19215284,0.34974904,0.54953738
19113,0,USIowaLinn,Iowa,Linn,2021-04-04 11:32:35.142427,2020-12-12 00:00:00.000000,1.42151436,2.37937681,4.01187333,3222,5394,9095,1719,3493,6895,0.75865209,1.54114848,3.04177154,0.19790976,0.36766467,0.55830307
19113,0,USIowaLinn,Iowa,Linn,2021-04-04 11:32:35.142427,2020-12-13 00:00:00.000000,1.41060076,2.33728298,3.91433758,3197,5298,8874,1701,3415,6695,0.75060378,1.50643809,2.95340059,0.20040640,0.37867921,0.57549455
19113,0,USIowaLinn,Iowa,Linn,2021-04-04 11:32:35.142427,2020-12-14 00:00:00.000000,1.38847623,2.28477270,3.82196431,3147,5179,8664,1687,3363,6523,0.74428605,1.48371127,2.87766059,0.20356099,0.38334391,0.59982761
19113,0,USIowaLinn,Iowa,Linn,2021-04-04 11:32:35.142427,2020-12-15 00:00:00.000000,1.36139699,2.23714996,3.73352274,3086,5071,8464,1676,3300,6365,0.73953077,1.45577392,2.80760190,0.20908890,0.38905430,0.60384689
19113,0,USIowaLinn,Iowa,Linn,2021-04-04 11:32:35.142427,2020-12-16 00:00:00.000000,1.33880731,2.20800559,3.64879867,3035,5005,8272,1667,3245,6174,0.73553337,1.43170015,2.72345384,0.21177407,0.38933844,0.60620256
19113,0,USIowaLinn,Iowa,Linn,2021-04-04 11:32:35.142427,2020-12-17 00:00:00.000000,1.31931742,2.17529769,3.56941112,2990,4931,8092,1659,3196,5964,0.73215740,1.40978815,2.63099421,0.22521357,0.39464395,0.60838694
19113,0,USIowaLinn,Iowa,Linn,2021-04-04 11:32:35.142427,2020-12-18 00:00:00.000000,1.30210182,2.14355978,3.48749613,2951,4859,7906,1653,3155,5754,0.72925589,1.39201665,2.53811274,0.24098581,0.39684874,0.60993992
19113,0,USIowaLinn,Iowa,Linn,2021-04-04 11:32:35.142427,2020-12-19 00:00:00.000000,1.28744884,2.11080711,3.38378995,2918,4785,7671,1646,3111,5548,0.72646097,1.37252828,2.44764529,0.24580946,0.39302000,0.61227779
19113,0,USIowaLinn,Iowa,Linn,2021-04-04 11:32:35.142427,2020-12-20 00:00:00.000000,1.27531593,2.09927619,3.34329004,2891,4759,7579,1640,3062,5353,0.72361993,1.35099227,2.36159236,0.24670998,0.39676056,0.61601268
19113,0,USIowaLinn,Iowa,Linn,2021-04-04 11:32:35.142427,2020-12-21 00:00:00.000000,1.26633529,2.08494674,3.29964826,2870,4726,7480,1633,3016,5171,0.72064311,1.33067992,2.28116008,0.24688730,0.40787531,0.61757374
19113,0,USIowaLinn,Iowa,Linn,2021-04-04 11:32:35.142427,2020-12-22 00:00:00.000000,1.26238598,2.04721482,3.25498916,2861,4641,7379,1625,2965,5017,0.71683353,1.30797116,2.21303391,0.24727988,0.41001643,0.61824090
19113,0,USIowaLinn,Iowa,Linn,2021-04-04 11:32:35.142427,2020-12-23 00:00:00.000000,1.24419872,2.00077451,3.20634726,2820,4535,7268,1615,2917,4951,0.71256914,1.28678259,2.18407755,0.24818584,0.41561658,0.61855745
19113,0,USIowaLinn,Iowa,Linn,2021-04-04 11:32:35.142427,2020-12-24 00:00:00.000000,1.22177697,1.96332137,3.15002971,2769,4450,7141,1605,2871,4884,0.70807809,1.26652818,2.15440678,0.25127088,0.42526590,0.62897078
19113,0,USIowaLinn,Iowa,Linn,2021-04-04 11:32:35.142427,2020-12-25 00:00:00.000000,1.20704493,1.93670870,3.08483174,2736,4390,6993,1595,2826,4815,0.70359695,1.24683069,2.12413893,0.25802710,0.43133399,0.64775944
19113,0,USIowaLinn,Iowa,Linn,2021-04-04 11:32:35.142427,2020-12-26 00:00:00.000000,1.20013855,1.91250775,3.02906616,2720,4335,6867,1585,2783,4746,0.69951107,1.22765338,2.09377570,0.26199033,0.44581645,0.66078190
19113,0,USIowaLinn,Iowa,Linn,2021-04-04 11:32:35.142427,2020-12-27 00:00:00.000000,1.20042958,1.88938639,2.98011460,2721,4283,6756,1579,2741,4689,0.69664490,1.20932379,2.06843196,0.26618975,0.46042444,0.72116206
19113,0,USIowaLinn,Iowa,Linn,2021-04-04 11:32:35.142427,2020-12-28 00:00:00.000000,1.20732029,1.87304456,2.93444862,2737,4246,6652,1578,2712,4657,0.69606985,1.19640888,2.05462650,0.27158592,0.46978732,0.73333455
19113,0,USIowaLinn,Iowa,Linn,2021-04-04 11:32:35.142427,2020-12-29 00:00:00.000000,1.21884202,1.86928554,2.89377078,2763,4237,6560,1583,2687,4642,0.69857504,1.18549079,2.04774127,0.27992546,0.47502283,0.77510362
19113,0,USIowaLinn,Iowa,Linn,2021-04-04 11:32:35.142427,2020-12-30 00:00:00.000000,1.23293611,1.88732784,2.88827865,2795,4278,6547,1595,2685,4632,0.70386424,1.18441355,2.04361572,0.29333591,0.48420978,0.79344660
19113,0,USIowaLinn,Iowa,Linn,2021-04-04 11:32:35.142427,2020-12-31 00:00:00.000000,1.23969771,1.90587668,2.88442875,2810,4320,6539,1604,2676,4623,0.70781338,1.18048792,2.03926294,0.30416686,0.49515746,0.79757212
19113,0,USIowaLinn,Iowa,Linn,2021-04-04 11:32:35.142427,2021-01-01 00:00:00.000000,1.23430078,1.91671946,2.89281539,2798,4345,6558,1581,2660,4607,0.69776436,1.17333847,2.03232024,0.31413786,0.49645960,0.80052152
19113,0,USIowaLinn,Iowa,Linn,2021-04-04 11:32:35.142427,2021-01-02 00:00:00.000000,1.22808697,1.92692263,2.87832965,2784,4368,6525,1555,2665,4581,0.68595624,1.17559937,2.02107490,0.31429896,0.48612750,0.79601072
19113,0,USIowaLinn,Iowa,Linn,2021-04-04 11:32:35.142427,2021-01-03 00:00:00.000000,1.22065388,1.92173584,2.86947152,2767,4356,6505,1537,2683,4545,0.67807392,1.18377231,2.00482000,0.31458598,0.48294565,0.78787289
19113,0,USIowaLinn,Iowa,Linn,2021-04-04 11:32:35.142427,2021-01-04 00:00:00.000000,1.21062188,1.91811855,2.86866099,2744,4348,6503,1526,2684,4497,0.67346417,1.18398744,1.98386150,0.31470680,0.47944736,0.77433737
19113,0,USIowaLinn,Iowa,Linn,2021-04-04 11:32:35.142427,2021-01-05 00:00:00.000000,1.20177915,1.92179047,2.86552430,2724,4356,6496,1521,2695,4440,0.67133143,1.18895160,1.95888025,0.29691460,0.47708809,0.75323786
19113,0,USIowaLinn,Iowa,Linn,2021-04-04 11:32:35.142427,2021-01-06 00:00:00.000000,1.19412105,1.92273509,2.83148426,2707,4358,6419,1520,2719,4426,0.67082803,1.19960500,1.95243667,0.28419535,0.47588478,0.74694681
19113,0,USIowaLinn,Iowa,Linn,2021-04-04 11:32:35.142427,2021-01-07 00:00:00.000000,1.18719284,1.90774481,2.78262225,2691,4324,6308,1522,2726,4420,0.67137702,1.20267917,1.94988831,0.28379460,0.46928985,0.74373906
19113,0,USIowaLinn,Iowa,Linn,2021-04-04 11:32:35.142427,2021-01-08 00:00:00.000000,1.17657572,1.86379694,2.74544303,2667,4225,6224,1511,2738,4412,0.66657340,1.20778254,1.94625534,0.27497882,0.47425471,0.73807308
19113,0,USIowaLinn,Iowa,Linn,2021-04-04 11:32:35.142427,2021-01-09 00:00:00.000000,1.16557209,1.83660024,2.73416052,2642,4163,6198,1497,2730,4334,0.66040688,1.20438915,1.91180335,0.27522336,0.46649974,0.72926094
19113,0,USIowaLinn,Iowa,Linn,2021-04-04 11:32:35.142427,2021-01-10 00:00:00.000000,1.15589945,1.82212079,2.71857648,2620,4130,6163,1491,2706,4247,0.65782119,1.19396655,1.87357381,0.27500367,0.47432628,0.72100860
19113,0,USIowaLinn,Iowa,Linn,2021-04-04 11:32:35.142427,2021-01-11 00:00:00.000000,1.15166777,1.80359893,2.69977540,2610,4088,6120,1489,2680,4187,0.65705559,1.18243569,1.84708615,0.27818940,0.47848800,0.71475212
19113,0,USIowaLinn,Iowa,Linn,2021-04-04 11:32:35.142427,2021-01-12 00:00:00.000000,1.15737287,1.77627668,2.67860945,2623,4026,6072,1489,2660,4168,0.65714528,1.17334083,1.83863295,0.28169335,0.48259794,0.71315354
19113,0,USIowaLinn,Iowa,Linn,2021-04-04 11:32:35.142427,2021-01-13 00:00:00.000000,1.17038334,1.76707807,2.65638415,2653,4006,6022,1490,2637,4146,0.65759784,1.16319216,1.82920422,0.28377633,0.48556347,0.70721198
19113,0,USIowaLinn,Iowa,Linn,2021-04-04 11:32:35.142427,2021-01-14 00:00:00.000000,1.18406382,1.73855045,2.63315522,2684,3941,5969,1491,2606,4123,0.65811278,1.14971598,1.81881706,0.28554267,0.50050637,0.67929973
19113,0,USIowaLinn,Iowa,Linn,2021-04-04 11:32:35.142427,2021-01-15 00:00:00.000000,1.17785767,1.72678577,2.60870003,2670,3914,5914,1492,2582,4097,0.65848076,1.13909167,1.80747588,0.28852339,0.50174154,0.67745489
19113,0,USIowaLinn,Iowa,Linn,2021-04-04 11:32:35.142427,2021-01-16 00:00:00.000000,1.17361586,1.72077867,2.56819069,2660,3901,5822,1474,2538,4069,0.65024603,1.11952894,1.79513250,0.31307971,0.50102004,0.70668788
19113,0,USIowaLinn,Iowa,Linn,2021-04-04 11:32:35.142427,2021-01-17 00:00:00.000000,1.17114758,1.70070369,2.55574384,2655,3855,5794,1469,2511,4027,0.64805070,1.10775822,1.77659329,0.32311119,0.49873963,0.71909087
19113,0,USIowaLinn,Iowa,Linn,2021-04-04 11:32:35.142427,2021-01-18 00:00:00.000000,1.16373339,1.69005892,2.53320333,2638,3831,5742,1470,2484,3948,0.64872873,1.09606110,1.74184063,0.32204344,0.49841006,0.72205251
19113,0,USIowaLinn,Iowa,Linn,2021-04-04 11:32:35.142427,2021-01-19 00:00:00.000000,1.14469595,1.69429586,2.50889352,2595,3841,5687,1442,2459,3874,0.63634837,1.08507439,1.70884576,0.32135850,0.50069516,0.72729326
19113,0,USIowaLinn,Iowa,Linn,2021-04-04 11:32:35.142427,2021-01-20 00:00:00.000000,1.14090082,1.70370938,2.48509964,2586,3862,5633,1417,2431,3839,0.62526579,1.07239059,1.69352142,0.32124160,0.51724546,0.72975442
19113,0,USIowaLinn,Iowa,Linn,2021-04-04 11:32:35.142427,2021-01-21 00:00:00.000000,1.12511665,1.68905070,2.46240791,2550,3829,5582,1411,2391,3848,0.62257355,1.05500858,1.69737840,0.32134578,0.52606051,0.74203744
19113,0,USIowaLinn,Iowa,Linn,2021-04-04 11:32:35.142427,2021-01-22 00:00:00.000000,1.11002928,1.67863659,2.44263137,2516,3805,5537,1429,2351,3842,0.63050932,1.03735038,1.69489884,0.32415248,0.51776207,0.75805810
19113,0,USIowaLinn,Iowa,Linn,2021-04-04 11:32:35.142427,2021-01-23 00:00:00.000000,1.10295571,1.67176840,2.42426834,2500,3789,5495,1413,2339,3797,0.62334541,1.03216688,1.67518138,0.32686914,0.49160190,0.76817592
19113,0,USIowaLinn,Iowa,Linn,2021-04-04 11:32:35.142427,2021-01-24 00:00:00.000000,1.09670555,1.65733690,2.40581901,2486,3757,5454,1387,2339,3776,0.61182256,1.03187390,1.66590017,0.33074664,0.47777708,0.77067864
19113,0,USIowaLinn,Iowa,Linn,2021-04-04 11:32:35.142427,2021-01-25 00:00:00.000000,1.09171341,1.64033874,2.38555751,2474,3718,5408,1359,2334,3754,0.59974312,1.02991661,1.65627392,0.33272386,0.47593521,0.76895064
19113,0,USIowaLinn,Iowa,Linn,2021-04-04 11:32:35.142427,2021-01-26 00:00:00.000000,1.08110178,1.61775761,2.36366259,2450,3667,5358,1341,2324,3729,0.59151635,1.02555355,1.64508317,0.33362627,0.47520405,0.76270788
19113,0,USIowaLinn,Iowa,Linn,2021-04-04 11:32:35.142427,2021-01-27 00:00:00.000000,1.07860314,1.60058866,2.33942034,2445,3628,5303,1334,2314,3700,0.58854696,1.02087431,1.63214961,0.33175115,0.47154650,0.75736532
19113,0,USIowaLinn,Iowa,Linn,2021-04-04 11:32:35.142427,2021-01-28 00:00:00.000000,1.06462740,1.57920049,2.31116286,2413,3580,5239,1328,2300,3669,0.58584238,1.01486202,1.61849566,0.31280858,0.45878694,0.75197600
19113,0,USIowaLinn,Iowa,Linn,2021-04-04 11:32:35.142427,2021-01-29 00:00:00.000000,1.03437586,1.55544640,2.27860125,2344,3526,5165,1321,2289,3629,0.58288643,1.00977422,1.60086414,0.28711736,0.44556702,0.74660000
19113,0,USIowaLinn,Iowa,Linn,2021-04-04 11:32:35.142427,2021-01-30 00:00:00.000000,1.00501291,1.52574606,2.24121414,2278,3458,5080,1303,2235,3565,0.57511412,0.98588930,1.57273501,0.27439631,0.43648395,0.75034115
19113,0,USIowaLinn,Iowa,Linn,2021-04-04 11:32:35.142427,2021-01-31 00:00:00.000000,0.97636725,1.49145485,2.19896282,2213,3381,4985,1272,2176,3499,0.56133516,0.96001466,1.54359015,0.26874870,0.42523718,0.73345534
19113,0,USIowaLinn,Iowa,Linn,2021-04-04 11:32:35.142427,2021-02-01 00:00:00.000000,0.94833737,1.45863303,2.15635534,2149,3306,4888,1230,2133,3502,0.54276399,0.94115752,1.54491156,0.26191711,0.42600191,0.72640498
19113,0,USIowaLinn,Iowa,Linn,2021-04-04 11:32:35.142427,2021-02-02 00:00:00.000000,0.91328096,1.41653518,2.11896815,2070,3211,4803,1184,2090,3438,0.52254139,0.92226221,1.51686975,0.24966992,0.42718927,0.71839820
19113,0,USIowaLinn,Iowa,Linn,2021-04-04 11:32:35.142427,2021-02-03 00:00:00.000000,0.87882937,1.38408531,2.07484534,1992,3137,4703,1135,2042,3365,0.50101979,0.90114098,1.48470798,0.22273139,0.40590053,0.70387368
19113,0,USIowaLinn,Iowa,Linn,2021-04-04 11:32:35.142427,2021-02-04 00:00:00.000000,0.84508408,1.34944209,2.01587456,1915,3059,4570,1085,1991,3286,0.47869429,0.87866522,1.44952426,0.21163700,0.39248960,0.66427377
19113,0,USIowaLinn,Iowa,Linn,2021-04-04 11:32:35.142427,2021-02-05 00:00:00.000000,0.81208052,1.30739961,1.96728399,1841,2963,4459,1033,1939,3200,0.45607475,0.85566897,1.41173929,0.21077049,0.38964897,0.64050303
19113,0,USIowaLinn,Iowa,Linn,2021-04-04 11:32:35.142427,2021-02-06 00:00:00.000000,0.77987788,1.26185268,1.91753757,1768,2860,4347,982,1877,3108,0.43359421,0.82815118,1.37105427,0.21099935,0.37471298,0.62639921
19113,0,USIowaLinn,Iowa,Linn,2021-04-04 11:32:35.142427,2021-02-07 00:00:00.000000,0.74853640,1.22820289,1.86749232,1696,2784,4233,933,1814,3006,0.41157102,0.80016042,1.32636927,0.21359923,0.36984571,0.60167142
19113,0,USIowaLinn,Iowa,Linn,2021-04-04 11:32:35.142427,2021-02-08 00:00:00.000000,0.71501488,1.17000499,1.81257430,1620,2652,4109,894,1748,2897,0.39462820,0.77129076,1.27789257,0.22054358,0.36700178,0.60268218
19113,0,USIowaLinn,Iowa,Linn,2021-04-04 11:32:35.142427,2021-02-09 00:00:00.000000,0.68354438,1.12175429,1.75652952,1549,2543,3982,861,1680,2807,0.37995374,0.74129364,1.23853785,0.22570334,0.36390642,0.60247686
19113,0,USIowaLinn,Iowa,Linn,2021-04-04 11:32:35.142427,2021-02-10 00:00:00.000000,0.66035942,1.07365464,1.70123104,1497,2434,3856,829,1626,2720,0.36590942,0.71733394,1.19994820,0.22611132,0.36328124,0.60024191
19113,0,USIowaLinn,Iowa,Linn,2021-04-04 11:32:35.142427,2021-02-11 00:00:00.000000,0.63695309,1.02207308,1.65144440,1444,2317,3743,799,1571,2633,0.35269574,0.69339446,1.16151537,0.22335050,0.36156128,0.58966625
19113,0,USIowaLinn,Iowa,Linn,2021-04-04 11:32:35.142427,2021-02-12 00:00:00.000000,0.61863693,0.97318290,1.60842549,1402,2206,3646,781,1515,2546,0.34464577,0.66854448,1.12323562,0.21802389,0.36183640,0.58798609
19113,0,USIowaLinn,Iowa,Linn,2021-04-04 11:32:35.142427,2021-02-13 00:00:00.000000,0.59419084,0.92840656,1.54961110,1347,2104,3513,770,1450,2458,0.33969718,0.63960137,1.08461652,0.21311570,0.36288434,0.60816506
19113,0,USIowaLinn,Iowa,Linn,2021-04-04 11:32:35.142427,2021-02-14 00:00:00.000000,0.56805836,0.89232778,1.49259816,1287,2022,3383,756,1387,2369,0.33348263,0.61186597,1.04508558,0.21068776,0.36358751,0.62219520
19113,0,USIowaLinn,Iowa,Linn,2021-04-04 11:32:35.142427,2021-02-15 00:00:00.000000,0.54324170,0.85710162,1.43733100,1231,1943,3258,727,1328,2289,0.32078897,0.58600290,1.01009527,0.20940676,0.36520915,0.63454233
19113,0,USIowaLinn,Iowa,Linn,2021-04-04 11:32:35.142427,2021-02-16 00:00:00.000000,0.51975131,0.82684019,1.38379028,1178,1874,3137,696,1271,2209,0.30741638,0.56102383,0.97443157,0.20691454,0.36937178,0.63185460
19113,0,USIowaLinn,Iowa,Linn,2021-04-04 11:32:35.142427,2021-02-17 00:00:00.000000,0.49758390,0.79948619,1.33189622,1128,1812,3019,682,1219,2128,0.30124622,0.53785705,0.93897700,0.20638030,0.36945836,0.61782494
19113,0,USIowaLinn,Iowa,Linn,2021-04-04 11:32:35.142427,2021-02-18 00:00:00.000000,0.47675751,0.76669970,1.28156946,1080,1738,2905,666,1182,2050,0.29403450,0.52141136,0.90454581,0.20907370,0.37766028,0.61281504
19113,0,USIowaLinn,Iowa,Linn,2021-04-04 11:32:35.142427,2021-02-19 00:00:00.000000,0.45533720,0.73381932,1.23280399,1032,1663,2794,636,1138,1977,0.28080754,0.50198099,0.87206499,0.21567795,0.37525662,0.59853281
19113,0,USIowaLinn,Iowa,Linn,2021-04-04 11:32:35.142427,2021-02-20 00:00:00.000000,0.43389041,0.70914899,1.18886500,983,1607,2695,605,1095,1910,0.26716121,0.48305798,0.84257627,0.22472017,0.37581864,0.61652581
19113,0,USIowaLinn,Iowa,Linn,2021-04-04 11:32:35.142427,2021-02-21 00:00:00.000000,0.41469699,0.69477840,1.15524651,940,1575,2619,574,1057,1852,0.25326646,0.46649055,0.81728844,0.22447496,0.37140929,0.63198473
19113,0,USIowaLinn,Iowa,Linn,2021-04-04 11:32:35.142427,2021-02-22 00:00:00.000000,0.39788464,0.66894204,1.12267971,902,1516,2545,543,1023,1801,0.23980846,0.45126078,0.79483957,0.22346950,0.37507948,0.65564119
19113,0,USIowaLinn,Iowa,Linn,2021-04-04 11:32:35.142427,2021-02-23 00:00:00.000000,0.38198630,0.64861496,1.09155480,865,1470,2474,527,992,1752,0.23287360,0.43762662,0.77296038,0.21869320,0.37564948,0.65811338
19113,0,USIowaLinn,Iowa,Linn,2021-04-04 11:32:35.142427,2021-02-24 00:00:00.000000,0.36680212,0.62747267,1.06161728,831,1422,2406,504,957,1703,0.22239001,0.42223025,0.75161637,0.21661099,0.38003470,0.65897594
19113,0,USIowaLinn,Iowa,Linn,2021-04-04 11:32:35.142427,2021-02-25 00:00:00.000000,0.35051546,0.60439594,1.02514209,794,1370,2324,481,917,1656,0.21244676,0.40492318,0.73078007,0.21309116,0.37934939,0.65918223
19113,0,USIowaLinn,Iowa,Linn,2021-04-04 11:32:35.142427,2021-02-26 00:00:00.000000,0.33253489,0.58430253,0.97883122,753,1324,2219,460,887,1610,0.20300921,0.39142568,0.71040389,0.20644595,0.38382360,0.65933748
19113,0,USIowaLinn,Iowa,Linn,2021-04-04 11:32:35.142427,2021-02-27 00:00:00.000000,0.31728985,0.56523386,0.94942170,719,1281,2152,439,855,1564,0.19405395,0.37747172,0.69029026,0.20689319,0.37837056,0.68383314
19113,0,USIowaLinn,Iowa,Linn,2021-04-04 11:32:35.142427,2021-02-28 00:00:00.000000,0.30424115,0.54600263,0.92711961,689,1237,2101,420,822,1519,0.18557748,0.36283124,0.67019246,0.21047630,0.38023462,0.66574406
19113,0,USIowaLinn,Iowa,Linn,2021-04-04 11:32:35.142427,2021-03-01 00:00:00.000000,0.29304222,0.52844213,0.91407544,664,1198,2072,402,790,1475,0.17764453,0.34880556,0.65082104,0.21214209,0.39289136,0.68074082
19113,0,USIowaLinn,Iowa,Linn,2021-04-04 11:32:35.142427,2021-03-02 00:00:00.000000,0.28382607,0.50958603,0.90240044,643,1155,2045,386,761,1437,0.17033445,0.33569553,0.63393182,0.21745459,0.39538899,0.69581010
19113,0,USIowaLinn,Iowa,Linn,2021-04-04 11:32:35.142427,2021-03-03 00:00:00.000000,0.27657415,0.49007169,0.88471533,627,1111,2005,372,732,1400,0.16428785,0.32309104,0.61777056,0.23127906,0.40131227,0.70405688
19113,0,USIowaLinn,Iowa,Linn,2021-04-04 11:32:35.142427,2021-03-04 00:00:00.000000,0.26918910,0.47560281,0.86342525,610,1078,1957,362,702,1365,0.15971047,0.30986789,0.60220742,0.23240154,0.40592362,0.71327492
19113,0,USIowaLinn,Iowa,Linn,2021-04-04 11:32:35.142427,2021-03-05 00:00:00.000000,0.26243139,0.45913233,0.84295367,594,1040,1911,354,685,1331,0.15631985,0.30234274,0.58717383,0.23760453,0.41594592,0.72810252
19113,0,USIowaLinn,Iowa,Linn,2021-04-04 11:32:35.142427,2021-03-06 00:00:00.000000,0.25788760,0.44850020,0.82344524,584,1016,1866,348,671,1298,0.15370800,0.29637629,0.57268243,0.24543527,0.43899632,0.74973680
19113,0,USIowaLinn,Iowa,Linn,2021-04-04 11:32:35.142427,2021-03-07 00:00:00.000000,0.25389781,0.44624370,0.80553074,575,1011,1826,343,655,1267,0.15155991,0.28930740,0.55888578,0.24564658,0.46125735,0.77434323
19113,0,USIowaLinn,Iowa,Linn,2021-04-04 11:32:35.142427,2021-03-08 00:00:00.000000,0.24762144,0.44134446,0.78835363,561,1000,1787,339,640,1241,0.14968102,0.28270574,0.54755357,0.24774496,0.47269881,0.79193386
19113,0,USIowaLinn,Iowa,Linn,2021-04-04 11:32:35.142427,2021-03-09 00:00:00.000000,0.24263975,0.43330803,0.77277260,550,982,1751,335,630,1227,0.14807884,0.27824479,0.54136153,0.25675724,0.47862575,0.81012624
19113,0,USIowaLinn,Iowa,Linn,2021-04-04 11:32:35.142427,2021-03-10 00:00:00.000000,0.23871134,0.43036708,0.75977548,541,975,1722,332,621,1202,0.14660513,0.27433266,0.53027038,0.26835544,0.48952263,0.85101544
19113,0,USIowaLinn,Iowa,Linn,2021-04-04 11:32:35.142427,2021-03-11 00:00:00.000000,0.23550357,0.42279289,0.74984528,533,958,1699,327,614,1173,0.14453409,0.27090830,0.51767738,0.28081675,0.49371413,0.86842831
19113,0,USIowaLinn,Iowa,Linn,2021-04-04 11:32:35.142427,2021-03-12 00:00:00.000000,0.23283142,0.41622859,0.74929961,527,943,1698,323,605,1149,0.14257270,0.26724546,0.50725704,0.29241685,0.50685212,0.89460165
19113,0,USIowaLinn,Iowa,Linn,2021-04-04 11:32:35.142427,2021-03-13 00:00:00.000000,0.23067370,0.41787487,0.74827720,522,947,1696,319,600,1144,0.14077518,0.26491437,0.50480933,0.30428008,0.52422081,0.92027886
19113,0,USIowaLinn,Iowa,Linn,2021-04-04 11:32:35.142427,2021-03-14 00:00:00.000000,0.22931386,0.41678873,0.74695689,519,944,1693,314,598,1143,0.13861209,0.26377886,0.50440552,0.30805534,0.56964413,0.93455619
19113,0,USIowaLinn,Iowa,Linn,2021-04-04 11:32:35.142427,2021-03-15 00:00:00.000000,0.22838022,0.41553970,0.74297632,517,942,1684,304,599,1142,0.13441591,0.26426044,0.50374866,0.31223513,0.57972297,0.96146134
19113,0,USIowaLinn,Iowa,Linn,2021-04-04 11:32:35.142427,2021-03-16 00:00:00.000000,0.23279955,0.41150985,0.73833592,527,932,1673,296,598,1140,0.13077107,0.26391859,0.50303934,0.31546132,0.58070786,0.98422392
19113,0,USIowaLinn,Iowa,Linn,2021-04-04 11:32:35.142427,2021-03-17 00:00:00.000000,0.23402192,0.41332724,0.73358030,530,937,1663,289,592,1138,0.12772840,0.26143280,0.50226573,0.32520652,0.61723118,1.00297867
19113,0,USIowaLinn,Iowa,Linn,2021-04-04 11:32:35.142427,2021-03-18 00:00:00.000000,0.23342260,0.41641371,0.72869404,529,944,1651,284,588,1136,0.12534611,0.25969923,0.50142311,0.33483389,0.62778481,1.01662696
19113,0,USIowaLinn,Iowa,Linn,2021-04-04 11:32:35.142427,2021-03-19 00:00:00.000000,0.23107370,0.41834621,0.72367443,523,948,1640,280,592,1134,0.12356754,0.26134468,0.50050991,0.34600733,0.64532867,1.02275362
19113,0,USIowaLinn,Iowa,Linn,2021-04-04 11:32:35.142427,2021-03-20 00:00:00.000000,0.23330556,0.42122242,0.71852384,528,954,1628,277,601,1132,0.12222138,0.26517534,0.49952775,0.35520894,0.66011191,1.02021174
19113,0,USIowaLinn,Iowa,Linn,2021-04-04 11:32:35.142427,2021-03-21 00:00:00.000000,0.23739935,0.42327788,0.71387203,538,959,1618,282,599,1130,0.12462224,0.26452947,0.49847793,0.36609434,0.67140760,1.05187218
19113,0,USIowaLinn,Iowa,Linn,2021-04-04 11:32:35.142427,2021-03-22 00:00:00.000000,0.23974603,0.42805422,0.71664260,543,970,1624,293,600,1127,0.12932966,0.26501165,0.49734089,0.37650070,0.67713108,1.08054432
19113,0,USIowaLinn,Iowa,Linn,2021-04-04 11:32:35.142427,2021-03-23 00:00:00.000000,0.24347589,0.43387580,0.71948159,551,983,1631,306,605,1125,0.13505539,0.26723209,0.49645812,0.37536437,0.67551566,1.09570293
19113,0,USIowaLinn,Iowa,Linn,2021-04-04 11:32:35.142427,2021-03-24 00:00:00.000000,0.24780903,0.44081185,0.72240995,561,999,1637,321,611,1125,0.14161287,0.26962090,0.49625529,0.37763918,0.67019855,1.11606892
19113,0,USIowaLinn,Iowa,Linn,2021-04-04 11:32:35.142427,2021-03-25 00:00:00.000000,0.25349849,0.44856072,0.72541009,574,1016,1644,328,614,1129,0.14477053,0.27115194,0.49801760,0.38572577,0.67207934,1.12868730
19113,0,USIowaLinn,Iowa,Linn,2021-04-04 11:32:35.142427,2021-03-26 00:00:00.000000,0.26144692,0.45527509,0.72837100,592,1032,1651,326,614,1118,0.14410782,0.27122922,0.49333288,0.39217827,0.68432779,1.13766683
19113,0,USIowaLinn,Iowa,Linn,2021-04-04 11:32:35.142427,2021-03-27 00:00:00.000000,0.27180178,0.46000511,0.73112433,616,1042,1657,326,622,1138,0.14399764,0.27447675,0.50237895,0.39861292,0.69666392,1.14628690
19113,0,USIowaLinn,Iowa,Linn,2021-04-04 11:32:35.142427,2021-03-28 00:00:00.000000,0.28346801,0.46761481,0.73294196,642,1060,1661,330,634,1163,0.14568387,0.27966885,0.51315385,0.36646416,0.69045269,1.15470364
19113,0,USIowaLinn,Iowa,Linn,2021-04-04 11:32:35.142427,2021-03-29 00:00:00.000000,0.28857741,0.46753176,0.73644747,654,1059,1669,342,643,1170,0.15088916,0.28382920,0.51647135,0.36949045,0.69434562,1.16255152
19113,0,USIowaLinn,Iowa,Linn,2021-04-04 11:32:35.142427,2021-03-30 00:00:00.000000,0.29395093,0.46628396,0.75386195,666,1057,1709,356,652,1168,0.15736004,0.28771686,0.51538418,0.37167643,0.69014962,1.20467154
19113,0,USIowaLinn,Iowa,Linn,2021-04-04 11:32:35.142427,2021-03-31 00:00:00.000000,0.29909896,0.48692473,0.77781044,678,1103,1763,375,667,1165,0.16566079,0.29450957,0.51396477,0.36142130,0.68469559,1.27807617
19113,0,USIowaLinn,Iowa,Linn,2021-04-04 11:32:35.142427,2021-04-01 00:00:00.000000,0.29816798,0.49567233,0.80181393,675,1123,1817,378,684,1161,0.16705790,0.30209232,0.51228770,0.35230036,0.67843816,1.32556504
19113,0,USIowaLinn,Iowa,Linn,2021-04-04 11:32:35.142427,2021-04-02 00:00:00.000000,0.28791362,0.50043542,0.80032085,652,1134,1814,374,686,1161,0.16528651,0.30275641,0.51230781,0.33686556,0.67462932,1.34531983
19113,0,USIowaLinn,Iowa,Linn,2021-04-04 11:32:35.142427,2021-04-03 00:00:00.000000,0.29241477,0.51087767,0.81237838,662,1158,1841,372,701,1203,0.16433665,0.30926642,0.53088643,0.32848525,0.68820893,1.35289099
19113,0,USIowaLinn,Iowa,Linn,2021-04-04 11:32:35.142427,2021-04-04 00:00:00.000000,0.28946797,0.51315284,0.84276031,656,1163,1910,381,720,1217,0.16845837,0.31768815,0.53704218,0.32603863,0.69448917,1.35536802
19113,0,USIowaLinn,Iowa,Linn,2021-04-04 11:32:35.142427,2021-04-05 00:00:00.000000,0.29385343,0.52641730,0.87402452,666,1193,1981,391,741,1237,0.17272918,0.32696969,0.54585331,0.32517382,0.70331849,1.35625091
19113,0,USIowaLinn,Iowa,Linn,2021-04-04 11:32:35.142427,2021-04-06 00:00:00.000000,0.28992892,0.53433229,0.90617343,657,1211,2054,377,754,1291,0.16669629,0.33271043,0.56959007,0.32495038,0.71708194,1.40449974
19113,0,USIowaLinn,Iowa,Linn,2021-04-04 11:32:35.142427,2021-04-07 00:00:00.000000,0.28160160,0.54803917,0.93920743,638,1242,2129,375,768,1353,0.16553489,0.33916481,0.59701650,0.32493714,0.72031283,1.49964183
19113,0,USIowaLinn,Iowa,Linn,2021-04-04 11:32:35.142427,2021-04-08 00:00:00.000000,0.27929461,0.55454093,0.97312486,633,1257,2206,384,768,1421,0.16950985,0.33914304,0.62722251,0.32493401,0.72238973,1.50984532
19113,0,USIowaLinn,Iowa,Linn,2021-04-04 11:32:35.142427,2021-04-09 00:00:00.000000,0.27716057,0.57137334,1.00792190,628,1295,2285,392,767,1495,0.17321628,0.33857838,0.65972120,0.32493305,0.72370147,1.51068749
19113,0,USIowaLinn,Iowa,Linn,2021-04-04 11:32:35.142427,2021-04-10 00:00:00.000000,0.27513664,0.58789818,1.04359227,623,1332,2365,389,798,1561,0.17200848,0.35224206,0.68868222,0.32493267,0.72397158,1.51079823
19113,0,USIowaLinn,Iowa,Linn,2021-04-04 11:32:35.142427,2021-04-11 00:00:00.000000,0.27214524,0.60346338,1.08457152,616,1368,2458,376,808,1620,0.16601807,0.35644065,0.71464918,0.32478279,0.72398142,1.51083490
19113,0,USIowaLinn,Iowa,Linn,2021-04-04 11:32:35.142427,2021-04-12 00:00:00.000000,0.26629531,0.61856917,1.15034919,603,1402,2607,359,817,1680,0.15870943,0.36076403,0.74128246,0.32468578,0.72398491,1.51085404
19113,0,USIowaLinn,Iowa,Linn,2021-04-04 11:32:35.142427,2021-04-13 00:00:00.000000,0.26053267,0.63285207,1.21964857,590,1434,2765,343,861,1742,0.15171733,0.37980927,0.76844222,0.32464192,0.72398616,1.51086496
19113,0,USIowaLinn,Iowa,Linn,2021-04-04 11:32:35.142427,2021-04-14 00:00:00.000000,0.25486696,0.64793014,1.26394042,577,1468,2865,337,889,1805,0.14874771,0.39255915,0.79633242,0.32462215,0.72398662,1.51087130
19113,0,USIowaLinn,Iowa,Linn,2021-04-04 11:32:35.142427,2021-04-15 00:00:00.000000,0.24930411,0.66029375,1.30932893,565,1496,2968,334,915,1870,0.14767833,0.40381763,0.82494336,0.32461326,0.72398679,1.51087499
19113,0,USIowaLinn,Iowa,Linn,2021-04-04 11:32:35.142427,2021-04-16 00:00:00.000000,0.24384745,0.66829295,1.39694114,552,1515,3166,332,926,1961,0.14662041,0.40849515,0.86541382,0.32460928,0.72398685,1.51087714
