FIPS,HR_UID,nameid,province,region,analysisTime,dates,pointprevalence_025,pointprevalence_50,pointprevalence_975,pointinfections_025,pointinfections_50,pointinfections_975,pointinfectious_025,pointinfectious_50,pointinfectious_975,pointinfectiousprevalence_05,pointinfectiousprevalence_50,pointinfectiousprevalence_95,infectrate_025,infectrate_50,infectrate_975
50005,0,USVermontCaledonia,Vermont,Caledonia,2021-04-04 03:00:48.849377,2020-03-09 00:00:00.000000,0.00252593,0.02044225,0.05437028,0,6,16,0,3,8,0.00124228,0.01101480,0.02710760,0.40388578,0.54254730,0.67329947
50005,0,USVermontCaledonia,Vermont,Caledonia,2021-04-04 03:00:48.849377,2020-03-10 00:00:00.000000,0.00298161,0.02220111,0.05972209,0,6,17,0,3,8,0.00121274,0.01093535,0.02740077,0.40388545,0.54253151,0.67329918
50005,0,USVermontCaledonia,Vermont,Caledonia,2021-04-04 03:00:48.849377,2020-03-11 00:00:00.000000,0.00334139,0.02462338,0.06278321,1,7,18,0,3,8,0.00126653,0.01122251,0.02800840,0.40388435,0.54250416,0.67329816
50005,0,USVermontCaledonia,Vermont,Caledonia,2021-04-04 03:00:48.849377,2020-03-12 00:00:00.000000,0.00368524,0.02655561,0.06592055,1,7,19,0,3,8,0.00137480,0.01209042,0.02877558,0.40388064,0.54245490,0.67329459
50005,0,USVermontCaledonia,Vermont,Caledonia,2021-04-04 03:00:48.849377,2020-03-13 00:00:00.000000,0.00401610,0.02871038,0.06845207,1,8,20,0,3,8,0.00151976,0.01291947,0.02968148,0.40386741,0.54236094,0.67328214
50005,0,USVermontCaledonia,Vermont,Caledonia,2021-04-04 03:00:48.849377,2020-03-14 00:00:00.000000,0.00433724,0.03073604,0.07105684,1,9,21,0,4,9,0.00169070,0.01387448,0.03068913,0.40381868,0.54082214,0.67323902
50005,0,USVermontCaledonia,Vermont,Caledonia,2021-04-04 03:00:48.849377,2020-03-15 00:00:00.000000,0.00465180,0.03241276,0.07374226,1,9,22,0,4,9,0.00188143,0.01488379,0.03177504,0.39979026,0.53743216,0.67309389
50005,0,USVermontCaledonia,Vermont,Caledonia,2021-04-04 03:00:48.849377,2020-03-16 00:00:00.000000,0.01020976,0.03934788,0.08427243,3,11,25,0,4,10,0.00208338,0.01589044,0.03352163,0.39809620,0.53349994,0.67264831
50005,0,USVermontCaledonia,Vermont,Caledonia,2021-04-04 03:00:48.849377,2020-03-17 00:00:00.000000,0.01503837,0.04585523,0.09570831,4,13,28,0,5,10,0.00290511,0.01825653,0.03606779,0.38745728,0.52166389,0.65568527
50005,0,USVermontCaledonia,Vermont,Caledonia,2021-04-04 03:00:48.849377,2020-03-18 00:00:00.000000,0.01932189,0.05515569,0.10740307,5,16,32,1,6,11,0.00417018,0.02101594,0.03904929,0.34981275,0.51351571,0.64238689
50005,0,USVermontCaledonia,Vermont,Caledonia,2021-04-04 03:00:48.849377,2020-03-19 00:00:00.000000,0.02357485,0.06276396,0.11949941,7,18,35,1,7,13,0.00577882,0.02359813,0.04373150,0.33997673,0.48459781,0.63376123
50005,0,USVermontCaledonia,Vermont,Caledonia,2021-04-04 03:00:48.849377,2020-03-20 00:00:00.000000,0.02806663,0.07017346,0.13127295,8,21,39,2,8,15,0.00765961,0.02784861,0.05146781,0.30864105,0.45119556,0.60621551
50005,0,USVermontCaledonia,Vermont,Caledonia,2021-04-04 03:00:48.849377,2020-03-21 00:00:00.000000,0.03282514,0.07740879,0.14225576,9,23,42,2,9,17,0.00976600,0.03243650,0.05956793,0.28957846,0.43243672,0.59477598
50005,0,USVermontCaledonia,Vermont,Caledonia,2021-04-04 03:00:48.849377,2020-03-22 00:00:00.000000,0.03788606,0.08384460,0.15473560,11,25,46,3,10,20,0.01207130,0.03616272,0.06780451,0.28090294,0.41177398,0.57893948
50005,0,USVermontCaledonia,Vermont,Caledonia,2021-04-04 03:00:48.849377,2020-03-23 00:00:00.000000,0.04239022,0.09099134,0.16526894,12,27,49,4,12,22,0.01456261,0.04023994,0.07385066,0.25334798,0.39620580,0.54810563
50005,0,USVermontCaledonia,Vermont,Caledonia,2021-04-04 03:00:48.849377,2020-03-24 00:00:00.000000,0.04729112,0.10232208,0.17585813,14,30,52,5,13,24,0.01696985,0.04503889,0.08299108,0.24315324,0.37432847,0.54753836
50005,0,USVermontCaledonia,Vermont,Caledonia,2021-04-04 03:00:48.849377,2020-03-25 00:00:00.000000,0.05606647,0.11410992,0.18557405,16,34,55,5,14,26,0.01935982,0.04983939,0.08820074,0.23601270,0.36885994,0.53270926
50005,0,USVermontCaledonia,Vermont,Caledonia,2021-04-04 03:00:48.849377,2020-03-26 00:00:00.000000,0.06190463,0.12057402,0.19627933,18,36,58,6,15,27,0.02177748,0.05302403,0.09248172,0.21920088,0.35623776,0.51649961
50005,0,USVermontCaledonia,Vermont,Caledonia,2021-04-04 03:00:48.849377,2020-03-27 00:00:00.000000,0.06778610,0.12766220,0.21818502,20,38,65,7,17,29,0.02554316,0.05777826,0.09918182,0.20614783,0.34185615,0.48759738
50005,0,USVermontCaledonia,Vermont,Caledonia,2021-04-04 03:00:48.849377,2020-03-28 00:00:00.000000,0.07371467,0.13533677,0.23302305,22,40,69,8,18,31,0.02814881,0.06322652,0.10599169,0.19650285,0.32850906,0.47214343
50005,0,USVermontCaledonia,Vermont,Caledonia,2021-04-04 03:00:48.849377,2020-03-29 00:00:00.000000,0.07750747,0.14303826,0.24274608,23,42,72,9,19,33,0.03116486,0.06627391,0.11068956,0.18572575,0.31469610,0.45964349
50005,0,USVermontCaledonia,Vermont,Caledonia,2021-04-04 03:00:48.849377,2020-03-30 00:00:00.000000,0.08218838,0.15211897,0.24494639,24,45,73,10,21,35,0.03473112,0.07106441,0.11836501,0.18550737,0.30425845,0.45083553
50005,0,USVermontCaledonia,Vermont,Caledonia,2021-04-04 03:00:48.849377,2020-03-31 00:00:00.000000,0.08721608,0.15648057,0.24654280,26,46,73,11,22,36,0.03795704,0.07473063,0.12267151,0.18544144,0.28893116,0.43772275
50005,0,USVermontCaledonia,Vermont,Caledonia,2021-04-04 03:00:48.849377,2020-04-01 00:00:00.000000,0.09272406,0.16237987,0.25451571,27,48,76,12,23,38,0.04158378,0.07872888,0.12936964,0.17842088,0.27226418,0.43086627
50005,0,USVermontCaledonia,Vermont,Caledonia,2021-04-04 03:00:48.849377,2020-04-02 00:00:00.000000,0.09823206,0.17345589,0.26255303,29,52,78,13,24,40,0.04424898,0.08195948,0.13591320,0.17615451,0.26550275,0.42822580
50005,0,USVermontCaledonia,Vermont,Caledonia,2021-04-04 03:00:48.849377,2020-04-03 00:00:00.000000,0.10329608,0.17921501,0.26951865,30,53,80,14,25,42,0.04784257,0.08497064,0.14167726,0.17546762,0.25007139,0.42511301
50005,0,USVermontCaledonia,Vermont,Caledonia,2021-04-04 03:00:48.849377,2020-04-04 00:00:00.000000,0.10666972,0.18262175,0.27585766,31,54,82,15,26,44,0.05002005,0.08870019,0.14672612,0.16869380,0.23644912,0.41137690
50005,0,USVermontCaledonia,Vermont,Caledonia,2021-04-04 03:00:48.849377,2020-04-05 00:00:00.000000,0.11012392,0.18496527,0.28184560,33,55,84,15,28,45,0.05202760,0.09504845,0.15120161,0.14685853,0.22516022,0.36013146
50005,0,USVermontCaledonia,Vermont,Caledonia,2021-04-04 03:00:48.849377,2020-04-06 00:00:00.000000,0.11370198,0.19134539,0.29171379,34,57,87,16,29,46,0.05386730,0.09755678,0.15534556,0.12413458,0.22151721,0.31739050
50005,0,USVermontCaledonia,Vermont,Caledonia,2021-04-04 03:00:48.849377,2020-04-07 00:00:00.000000,0.11662949,0.19842258,0.29788767,34,59,89,16,29,47,0.05558533,0.09787823,0.15781234,0.12018319,0.21879239,0.31608760
50005,0,USVermontCaledonia,Vermont,Caledonia,2021-04-04 03:00:48.849377,2020-04-08 00:00:00.000000,0.12138137,0.20301568,0.30329781,36,60,90,17,29,48,0.05713824,0.09806291,0.16150714,0.11955568,0.21711152,0.31377606
50005,0,USVermontCaledonia,Vermont,Caledonia,2021-04-04 03:00:48.849377,2020-04-09 00:00:00.000000,0.12473970,0.20420690,0.30438586,37,61,91,17,29,49,0.05850348,0.09954274,0.16349111,0.11884226,0.20732813,0.30970352
50005,0,USVermontCaledonia,Vermont,Caledonia,2021-04-04 03:00:48.849377,2020-04-10 00:00:00.000000,0.12364302,0.20501108,0.30742303,37,61,92,17,30,49,0.05967299,0.10112438,0.16371636,0.11759501,0.19609890,0.30252101
50005,0,USVermontCaledonia,Vermont,Caledonia,2021-04-04 03:00:48.849377,2020-04-11 00:00:00.000000,0.12375304,0.20800990,0.31166364,37,62,93,18,31,51,0.06064349,0.10344296,0.17247779,0.11576461,0.19154967,0.28583142
50005,0,USVermontCaledonia,Vermont,Caledonia,2021-04-04 03:00:48.849377,2020-04-12 00:00:00.000000,0.12474852,0.20986433,0.31124361,37,62,93,18,31,51,0.06118257,0.10480408,0.17261663,0.10381533,0.17885905,0.28498507
50005,0,USVermontCaledonia,Vermont,Caledonia,2021-04-04 03:00:48.849377,2020-04-13 00:00:00.000000,0.12811274,0.20930137,0.31143229,38,62,93,18,31,51,0.06186404,0.10435878,0.17196356,0.10338478,0.17453488,0.27714886
50005,0,USVermontCaledonia,Vermont,Caledonia,2021-04-04 03:00:48.849377,2020-04-14 00:00:00.000000,0.12940072,0.20628905,0.31118508,38,61,93,18,31,51,0.06304808,0.10602853,0.17005557,0.10317572,0.17023474,0.27125607
50005,0,USVermontCaledonia,Vermont,Caledonia,2021-04-04 03:00:48.849377,2020-04-15 00:00:00.000000,0.13291250,0.20431011,0.31108179,39,61,93,19,32,51,0.06434688,0.10874967,0.17095703,0.10185011,0.16712506,0.26733115
50005,0,USVermontCaledonia,Vermont,Caledonia,2021-04-04 03:00:48.849377,2020-04-16 00:00:00.000000,0.13480693,0.20270650,0.31426271,40,60,94,19,32,50,0.06566564,0.10878230,0.16937268,0.10120115,0.16499732,0.26248736
50005,0,USVermontCaledonia,Vermont,Caledonia,2021-04-04 03:00:48.849377,2020-04-17 00:00:00.000000,0.13224053,0.20149250,0.32328387,39,60,96,20,33,50,0.06694195,0.11013048,0.16966851,0.10027103,0.16374904,0.25812551
50005,0,USVermontCaledonia,Vermont,Caledonia,2021-04-04 03:00:48.849377,2020-04-18 00:00:00.000000,0.12837150,0.20309825,0.33215870,38,60,99,20,32,51,0.06813617,0.10884355,0.17325659,0.10077413,0.16219855,0.25519554
50005,0,USVermontCaledonia,Vermont,Caledonia,2021-04-04 03:00:48.849377,2020-04-19 00:00:00.000000,0.12476846,0.20468224,0.34086425,37,61,102,20,32,52,0.06862856,0.10841583,0.17656444,0.10035568,0.15712552,0.25027088
50005,0,USVermontCaledonia,Vermont,Caledonia,2021-04-04 03:00:48.849377,2020-04-20 00:00:00.000000,0.11909392,0.20872903,0.34189869,35,62,102,20,32,53,0.06740536,0.10850073,0.17833349,0.09960350,0.15292109,0.24301979
50005,0,USVermontCaledonia,Vermont,Caledonia,2021-04-04 03:00:48.849377,2020-04-21 00:00:00.000000,0.11536735,0.20768791,0.34197729,34,62,102,19,32,53,0.06491398,0.10819870,0.17919057,0.09825842,0.15139915,0.24133081
50005,0,USVermontCaledonia,Vermont,Caledonia,2021-04-04 03:00:48.849377,2020-04-22 00:00:00.000000,0.11261980,0.21035602,0.34142566,33,63,102,18,33,54,0.06282018,0.11053616,0.18092184,0.09824415,0.15008963,0.23805501
50005,0,USVermontCaledonia,Vermont,Caledonia,2021-04-04 03:00:48.849377,2020-04-23 00:00:00.000000,0.10873527,0.20773480,0.34066605,32,62,102,18,33,55,0.06088441,0.11101932,0.18578649,0.09356288,0.14583169,0.23125495
50005,0,USVermontCaledonia,Vermont,Caledonia,2021-04-04 03:00:48.849377,2020-04-24 00:00:00.000000,0.10524328,0.20592089,0.33990651,31,61,101,17,33,54,0.05907317,0.11080543,0.18258273,0.08487429,0.14361654,0.22108097
50005,0,USVermontCaledonia,Vermont,Caledonia,2021-04-04 03:00:48.849377,2020-04-25 00:00:00.000000,0.10221504,0.20440261,0.35387467,30,61,106,17,32,56,0.05773733,0.10936662,0.18808689,0.08065510,0.14060506,0.21579844
50005,0,USVermontCaledonia,Vermont,Caledonia,2021-04-04 03:00:48.849377,2020-04-26 00:00:00.000000,0.09953473,0.20302332,0.35380316,29,60,106,16,32,57,0.05650191,0.10894715,0.19284613,0.07919240,0.13338374,0.21675424
50005,0,USVermontCaledonia,Vermont,Caledonia,2021-04-04 03:00:48.849377,2020-04-27 00:00:00.000000,0.09434651,0.19334426,0.33881053,28,57,101,16,32,58,0.05533235,0.10797369,0.19436168,0.07799088,0.13140745,0.21932983
50005,0,USVermontCaledonia,Vermont,Caledonia,2021-04-04 03:00:48.849377,2020-04-28 00:00:00.000000,0.08933954,0.18297649,0.32684682,26,54,98,15,31,58,0.05306606,0.10525979,0.19454734,0.07519819,0.12959397,0.22006165
50005,0,USVermontCaledonia,Vermont,Caledonia,2021-04-04 03:00:48.849377,2020-04-29 00:00:00.000000,0.08285367,0.17198671,0.32054465,24,51,96,15,30,58,0.05023129,0.10238456,0.19359461,0.07124516,0.12700332,0.21995468
50005,0,USVermontCaledonia,Vermont,Caledonia,2021-04-04 03:00:48.849377,2020-04-30 00:00:00.000000,0.07482216,0.16114238,0.31142349,22,48,93,14,29,57,0.04734591,0.09864016,0.19162942,0.06771431,0.12396669,0.21938639
50005,0,USVermontCaledonia,Vermont,Caledonia,2021-04-04 03:00:48.849377,2020-05-01 00:00:00.000000,0.06723662,0.15186557,0.30437487,20,45,91,13,28,56,0.04442274,0.09535650,0.18873630,0.06635740,0.12258412,0.21851184
50005,0,USVermontCaledonia,Vermont,Caledonia,2021-04-04 03:00:48.849377,2020-05-02 00:00:00.000000,0.06019685,0.14342848,0.29476069,18,43,88,12,27,55,0.04050731,0.09138236,0.18497668,0.06619195,0.12263486,0.21747355
50005,0,USVermontCaledonia,Vermont,Caledonia,2021-04-04 03:00:48.849377,2020-05-03 00:00:00.000000,0.05465020,0.13585357,0.28471988,16,40,85,11,25,54,0.03673787,0.08654271,0.18046576,0.06424991,0.12032650,0.21510644
50005,0,USVermontCaledonia,Vermont,Caledonia,2021-04-04 03:00:48.849377,2020-05-04 00:00:00.000000,0.05013810,0.12874131,0.27458350,15,38,82,10,24,52,0.03390378,0.08168964,0.17417801,0.06316648,0.11881347,0.21152002
50005,0,USVermontCaledonia,Vermont,Caledonia,2021-04-04 03:00:48.849377,2020-05-05 00:00:00.000000,0.04620553,0.12320371,0.26451053,13,36,79,9,23,49,0.03118250,0.07692864,0.16547399,0.06365201,0.11925921,0.19146320
50005,0,USVermontCaledonia,Vermont,Caledonia,2021-04-04 03:00:48.849377,2020-05-06 00:00:00.000000,0.04256117,0.11733310,0.25455522,12,35,76,8,21,47,0.02860997,0.07245378,0.15682738,0.06395706,0.11767844,0.18427800
50005,0,USVermontCaledonia,Vermont,Caledonia,2021-04-04 03:00:48.849377,2020-05-07 00:00:00.000000,0.03919148,0.11037661,0.24470947,11,33,73,7,20,44,0.02621231,0.06874363,0.14835910,0.06522457,0.11701352,0.18184759
50005,0,USVermontCaledonia,Vermont,Caledonia,2021-04-04 03:00:48.849377,2020-05-08 00:00:00.000000,0.03607998,0.10309905,0.23499246,10,30,70,7,19,42,0.02397819,0.06475718,0.14085716,0.06403184,0.11622690,0.18076624
50005,0,USVermontCaledonia,Vermont,Caledonia,2021-04-04 03:00:48.849377,2020-05-09 00:00:00.000000,0.03320912,0.09638759,0.22546999,9,28,67,6,18,41,0.02190690,0.06121707,0.13750827,0.06301543,0.11489442,0.17915406
50005,0,USVermontCaledonia,Vermont,Caledonia,2021-04-04 03:00:48.849377,2020-05-10 00:00:00.000000,0.03056170,0.09012474,0.21616123,9,27,64,5,17,40,0.01999309,0.05735834,0.13399716,0.06234352,0.11293383,0.17873226
50005,0,USVermontCaledonia,Vermont,Caledonia,2021-04-04 03:00:48.849377,2020-05-11 00:00:00.000000,0.03491227,0.09049004,0.22019596,10,27,66,5,15,39,0.01817246,0.05313413,0.13034758,0.06200813,0.10986887,0.18348575
50005,0,USVermontCaledonia,Vermont,Caledonia,2021-04-04 03:00:48.849377,2020-05-12 00:00:00.000000,0.03943938,0.09252425,0.22888715,11,27,68,5,15,38,0.01782307,0.05155145,0.12747405,0.06192717,0.10950002,0.18453009
50005,0,USVermontCaledonia,Vermont,Caledonia,2021-04-04 03:00:48.849377,2020-05-13 00:00:00.000000,0.04302999,0.09234503,0.23802975,12,27,71,6,15,37,0.02029195,0.05040115,0.12518381,0.06216578,0.10916827,0.18462126
50005,0,USVermontCaledonia,Vermont,Caledonia,2021-04-04 03:00:48.849377,2020-05-14 00:00:00.000000,0.04249058,0.09412838,0.23902336,12,28,71,6,15,36,0.02145169,0.05032468,0.12126950,0.05460340,0.10869029,0.18464267
50005,0,USVermontCaledonia,Vermont,Caledonia,2021-04-04 03:00:48.849377,2020-05-15 00:00:00.000000,0.04191478,0.09500850,0.23784865,12,28,71,6,14,34,0.02123340,0.04941311,0.11659880,0.05454960,0.10719362,0.18465182
50005,0,USVermontCaledonia,Vermont,Caledonia,2021-04-04 03:00:48.849377,2020-05-16 00:00:00.000000,0.04189984,0.09643751,0.23654842,12,28,70,6,14,35,0.02138986,0.04971216,0.11978730,0.05319021,0.10457753,0.18463747
50005,0,USVermontCaledonia,Vermont,Caledonia,2021-04-04 03:00:48.849377,2020-05-17 00:00:00.000000,0.04174998,0.09787115,0.23366893,12,29,70,6,15,35,0.02187142,0.05072668,0.11983526,0.05308866,0.10253760,0.18451080
50005,0,USVermontCaledonia,Vermont,Caledonia,2021-04-04 03:00:48.849377,2020-05-18 00:00:00.000000,0.04593556,0.09843696,0.22809685,13,29,68,6,15,35,0.02237430,0.05177894,0.11905841,0.05304401,0.10103099,0.18398104
50005,0,USVermontCaledonia,Vermont,Caledonia,2021-04-04 03:00:48.849377,2020-05-19 00:00:00.000000,0.05017268,0.09976511,0.22277008,15,29,66,7,15,35,0.02345478,0.05251176,0.11944786,0.05303228,0.10080044,0.18262038
50005,0,USVermontCaledonia,Vermont,Caledonia,2021-04-04 03:00:48.849377,2020-05-20 00:00:00.000000,0.05437031,0.10149337,0.21766805,16,30,65,7,15,36,0.02494442,0.05276235,0.12066909,0.05304636,0.10228197,0.18112338
50005,0,USVermontCaledonia,Vermont,Caledonia,2021-04-04 03:00:48.849377,2020-05-21 00:00:00.000000,0.05842903,0.10284588,0.22618454,17,30,67,7,15,36,0.02442340,0.05322396,0.12221575,0.05311962,0.10110128,0.18082921
50005,0,USVermontCaledonia,Vermont,Caledonia,2021-04-04 03:00:48.849377,2020-05-22 00:00:00.000000,0.06243217,0.10497284,0.23456416,18,31,70,7,16,35,0.02603211,0.05385519,0.11997640,0.05336051,0.10130836,0.18227024
50005,0,USVermontCaledonia,Vermont,Caledonia,2021-04-04 03:00:48.849377,2020-05-23 00:00:00.000000,0.06518119,0.10746246,0.24247427,19,32,72,8,16,35,0.02763699,0.05532628,0.11922754,0.05231274,0.10106591,0.18616530
50005,0,USVermontCaledonia,Vermont,Caledonia,2021-04-04 03:00:48.849377,2020-05-24 00:00:00.000000,0.06510811,0.10926452,0.24996273,19,32,74,8,16,35,0.02948610,0.05561540,0.11965082,0.05433049,0.10095293,0.18126710
50005,0,USVermontCaledonia,Vermont,Caledonia,2021-04-04 03:00:48.849377,2020-05-25 00:00:00.000000,0.06470763,0.11029723,0.24722909,19,33,74,9,17,37,0.03130553,0.05826935,0.12386377,0.05492855,0.10139338,0.17390945
50005,0,USVermontCaledonia,Vermont,Caledonia,2021-04-04 03:00:48.849377,2020-05-26 00:00:00.000000,0.06433155,0.11142162,0.24411112,19,33,73,9,17,37,0.03281665,0.05894798,0.12611382,0.05407113,0.10151793,0.16633914
50005,0,USVermontCaledonia,Vermont,Caledonia,2021-04-04 03:00:48.849377,2020-05-27 00:00:00.000000,0.06417701,0.11025611,0.24050025,19,33,72,10,17,38,0.03409731,0.05947916,0.12696569,0.05316072,0.10088390,0.15880693
50005,0,USVermontCaledonia,Vermont,Caledonia,2021-04-04 03:00:48.849377,2020-05-28 00:00:00.000000,0.06412498,0.11271755,0.23662235,19,33,70,10,18,38,0.03404216,0.06015063,0.12683427,0.05272514,0.10005402,0.15340300
50005,0,USVermontCaledonia,Vermont,Caledonia,2021-04-04 03:00:48.849377,2020-05-29 00:00:00.000000,0.06263062,0.11248143,0.23266107,18,33,69,10,18,37,0.03391100,0.06051720,0.12600904,0.05272967,0.09964334,0.15089028
50005,0,USVermontCaledonia,Vermont,Caledonia,2021-04-04 03:00:48.849377,2020-05-30 00:00:00.000000,0.06045363,0.11084151,0.22876272,18,33,68,10,18,37,0.03373270,0.06073338,0.12471223,0.05117256,0.09572106,0.14591029
50005,0,USVermontCaledonia,Vermont,Caledonia,2021-04-04 03:00:48.849377,2020-05-31 00:00:00.000000,0.05847340,0.10948435,0.23255743,17,32,69,9,18,36,0.03264479,0.06018316,0.12314164,0.05009935,0.09543879,0.14270754
50005,0,USVermontCaledonia,Vermont,Caledonia,2021-04-04 03:00:48.849377,2020-06-01 00:00:00.000000,0.05790848,0.10992118,0.23274948,17,32,69,9,17,36,0.03132020,0.05996295,0.12142187,0.05005576,0.09595057,0.14202642
50005,0,USVermontCaledonia,Vermont,Caledonia,2021-04-04 03:00:48.849377,2020-06-02 00:00:00.000000,0.05621292,0.10995524,0.23178569,16,32,69,9,17,35,0.03078755,0.05974104,0.11946165,0.05000216,0.09593689,0.13966038
50005,0,USVermontCaledonia,Vermont,Caledonia,2021-04-04 03:00:48.849377,2020-06-03 00:00:00.000000,0.05500567,0.11026257,0.22945781,16,33,68,9,17,35,0.03078612,0.05922772,0.11736728,0.04990033,0.09553317,0.14001934
50005,0,USVermontCaledonia,Vermont,Caledonia,2021-04-04 03:00:48.849377,2020-06-04 00:00:00.000000,0.05646445,0.11103850,0.22648287,16,33,67,9,17,35,0.03113215,0.05987045,0.11760313,0.04971144,0.09621313,0.14009195
50005,0,USVermontCaledonia,Vermont,Caledonia,2021-04-04 03:00:48.849377,2020-06-05 00:00:00.000000,0.05793337,0.10781670,0.22342876,17,32,67,9,17,35,0.03116674,0.05931727,0.11804943,0.04940745,0.09417507,0.13948522
50005,0,USVermontCaledonia,Vermont,Caledonia,2021-04-04 03:00:48.849377,2020-06-06 00:00:00.000000,0.05841292,0.10535169,0.22009475,17,31,66,9,18,35,0.03032531,0.06028939,0.11717734,0.04904118,0.09173150,0.13965078
50005,0,USVermontCaledonia,Vermont,Caledonia,2021-04-04 03:00:48.849377,2020-06-07 00:00:00.000000,0.05611015,0.10673517,0.21653091,16,32,64,8,18,34,0.02954684,0.06044436,0.11498450,0.04960018,0.09102944,0.14015916
50005,0,USVermontCaledonia,Vermont,Caledonia,2021-04-04 03:00:48.849377,2020-06-08 00:00:00.000000,0.05397129,0.11063663,0.21293987,16,33,63,8,17,33,0.02881851,0.05980778,0.11289136,0.04939956,0.09069968,0.15016126
50005,0,USVermontCaledonia,Vermont,Caledonia,2021-04-04 03:00:48.849377,2020-06-09 00:00:00.000000,0.05202603,0.11426312,0.21011178,15,34,63,8,18,34,0.02847102,0.06123273,0.11381503,0.04929452,0.09136809,0.15052038
50005,0,USVermontCaledonia,Vermont,Caledonia,2021-04-04 03:00:48.849377,2020-06-10 00:00:00.000000,0.05027962,0.11653899,0.20879634,15,34,62,8,18,33,0.02857689,0.06276895,0.11047610,0.04924504,0.08942107,0.15070100
50005,0,USVermontCaledonia,Vermont,Caledonia,2021-04-04 03:00:48.849377,2020-06-11 00:00:00.000000,0.04999920,0.11386340,0.20736397,14,34,62,8,18,33,0.02893009,0.06327549,0.11002582,0.04924157,0.08928662,0.15087828
50005,0,USVermontCaledonia,Vermont,Caledonia,2021-04-04 03:00:48.849377,2020-06-12 00:00:00.000000,0.05039294,0.11568215,0.20575076,15,34,61,8,19,32,0.02929454,0.06386127,0.10907671,0.04933228,0.09099730,0.15109390
50005,0,USVermontCaledonia,Vermont,Caledonia,2021-04-04 03:00:48.849377,2020-06-13 00:00:00.000000,0.05090089,0.11610443,0.21210613,15,34,63,8,19,32,0.02897869,0.06428037,0.10738935,0.04967010,0.08934120,0.15128041
50005,0,USVermontCaledonia,Vermont,Caledonia,2021-04-04 03:00:48.849377,2020-06-14 00:00:00.000000,0.05148502,0.11656190,0.21239919,15,34,63,8,19,32,0.02888907,0.06441424,0.10895240,0.05023623,0.08928894,0.15472033
50005,0,USVermontCaledonia,Vermont,Caledonia,2021-04-04 03:00:48.849377,2020-06-15 00:00:00.000000,0.05300629,0.11592099,0.21153978,15,34,63,8,19,32,0.02828072,0.06436198,0.10856652,0.05058952,0.08971149,0.16551703
50005,0,USVermontCaledonia,Vermont,Caledonia,2021-04-04 03:00:48.849377,2020-06-16 00:00:00.000000,0.05440259,0.11536052,0.21335637,16,34,63,8,19,32,0.02957449,0.06507456,0.10950684,0.05069277,0.09004445,0.16809123
50005,0,USVermontCaledonia,Vermont,Caledonia,2021-04-04 03:00:48.849377,2020-06-17 00:00:00.000000,0.05578679,0.11732123,0.20684080,16,35,62,8,19,33,0.02980335,0.06479587,0.11144928,0.05070598,0.08964979,0.16577089
50005,0,USVermontCaledonia,Vermont,Caledonia,2021-04-04 03:00:48.849377,2020-06-18 00:00:00.000000,0.05672514,0.11590522,0.20532725,17,34,61,8,19,34,0.02946319,0.06391633,0.11413451,0.05079022,0.09129388,0.15881202
50005,0,USVermontCaledonia,Vermont,Caledonia,2021-04-04 03:00:48.849377,2020-06-19 00:00:00.000000,0.05411766,0.11445152,0.20797547,16,34,62,8,18,32,0.02919535,0.06214605,0.10832773,0.05063614,0.09187231,0.14942561
50005,0,USVermontCaledonia,Vermont,Caledonia,2021-04-04 03:00:48.849377,2020-06-20 00:00:00.000000,0.05379008,0.11520468,0.21217033,16,34,63,8,18,31,0.02904340,0.06084310,0.10392828,0.04946190,0.09298374,0.16636200
50005,0,USVermontCaledonia,Vermont,Caledonia,2021-04-04 03:00:48.849377,2020-06-21 00:00:00.000000,0.05352438,0.11353115,0.21738467,16,34,65,8,18,31,0.02837519,0.06044407,0.10461283,0.04768603,0.09261269,0.17143685
50005,0,USVermontCaledonia,Vermont,Caledonia,2021-04-04 03:00:48.849377,2020-06-22 00:00:00.000000,0.05762645,0.11818803,0.22883137,17,35,68,8,18,32,0.02719153,0.06045142,0.10802174,0.04747520,0.09186428,0.17020212
50005,0,USVermontCaledonia,Vermont,Caledonia,2021-04-04 03:00:48.849377,2020-06-23 00:00:00.000000,0.05976864,0.11749442,0.23995377,17,35,71,8,17,33,0.02713133,0.05989479,0.11060290,0.04757905,0.09270938,0.16865534
50005,0,USVermontCaledonia,Vermont,Caledonia,2021-04-04 03:00:48.849377,2020-06-24 00:00:00.000000,0.06236398,0.12109136,0.24565148,18,36,73,8,18,33,0.02818455,0.06253371,0.11252735,0.04774068,0.09344505,0.16780411
50005,0,USVermontCaledonia,Vermont,Caledonia,2021-04-04 03:00:48.849377,2020-06-25 00:00:00.000000,0.06600987,0.12218627,0.25066304,19,36,75,8,19,35,0.02959398,0.06372461,0.11685271,0.04803415,0.09295122,0.16801263
50005,0,USVermontCaledonia,Vermont,Caledonia,2021-04-04 03:00:48.849377,2020-06-26 00:00:00.000000,0.06490167,0.12072920,0.26217847,19,36,78,9,19,36,0.03040961,0.06628770,0.12111025,0.04861948,0.09249902,0.16918349
50005,0,USVermontCaledonia,Vermont,Caledonia,2021-04-04 03:00:48.849377,2020-06-27 00:00:00.000000,0.06372061,0.12137242,0.27305099,19,36,81,9,19,38,0.03202846,0.06428398,0.12678112,0.04948986,0.09149149,0.16833590
50005,0,USVermontCaledonia,Vermont,Caledonia,2021-04-04 03:00:48.849377,2020-06-28 00:00:00.000000,0.06608361,0.12065930,0.28327636,19,36,84,10,19,38,0.03373509,0.06363971,0.12944972,0.05092548,0.09153709,0.16369004
50005,0,USVermontCaledonia,Vermont,Caledonia,2021-04-04 03:00:48.849377,2020-06-29 00:00:00.000000,0.06973007,0.12265456,0.27763433,20,36,83,10,19,41,0.03513977,0.06526015,0.13710790,0.05207057,0.09186396,0.16220914
50005,0,USVermontCaledonia,Vermont,Caledonia,2021-04-04 03:00:48.849377,2020-06-30 00:00:00.000000,0.07327143,0.12214206,0.27138230,21,36,81,10,19,42,0.03529905,0.06604158,0.14018170,0.05287148,0.09244255,0.16238572
50005,0,USVermontCaledonia,Vermont,Caledonia,2021-04-04 03:00:48.849377,2020-07-01 00:00:00.000000,0.07287618,0.12165127,0.26440531,21,36,79,11,19,42,0.03682577,0.06524206,0.14020351,0.05349601,0.09204539,0.16743776
50005,0,USVermontCaledonia,Vermont,Caledonia,2021-04-04 03:00:48.849377,2020-07-02 00:00:00.000000,0.07112700,0.12214072,0.25712486,21,36,77,11,19,41,0.03680859,0.06528095,0.13875503,0.05329854,0.09198135,0.16416687
50005,0,USVermontCaledonia,Vermont,Caledonia,2021-04-04 03:00:48.849377,2020-07-03 00:00:00.000000,0.06903129,0.12064284,0.24982549,20,36,74,10,19,40,0.03664707,0.06466153,0.13636901,0.05393110,0.09251921,0.16211389
50005,0,USVermontCaledonia,Vermont,Caledonia,2021-04-04 03:00:48.849377,2020-07-04 00:00:00.000000,0.06698583,0.11952858,0.25321267,20,35,75,10,19,40,0.03645100,0.06468801,0.13342157,0.05572576,0.09238356,0.16164213
50005,0,USVermontCaledonia,Vermont,Caledonia,2021-04-04 03:00:48.849377,2020-07-05 00:00:00.000000,0.06504918,0.11879745,0.25701191,19,35,77,10,19,39,0.03606170,0.06480302,0.13017374,0.05586668,0.09214892,0.16075352
50005,0,USVermontCaledonia,Vermont,Caledonia,2021-04-04 03:00:48.849377,2020-07-06 00:00:00.000000,0.06630068,0.11656313,0.25956811,19,34,77,10,19,40,0.03571456,0.06403504,0.13458481,0.05536616,0.09118647,0.16258838
50005,0,USVermontCaledonia,Vermont,Caledonia,2021-04-04 03:00:48.849377,2020-07-07 00:00:00.000000,0.06903241,0.11526127,0.24961403,20,34,74,10,18,40,0.03554284,0.06247957,0.13648902,0.05056361,0.09109389,0.16766606
50005,0,USVermontCaledonia,Vermont,Caledonia,2021-04-04 03:00:48.849377,2020-07-08 00:00:00.000000,0.06852698,0.11657174,0.25049444,20,34,75,10,18,41,0.03598197,0.06268391,0.13860526,0.04627655,0.09103076,0.16945482
50005,0,USVermontCaledonia,Vermont,Caledonia,2021-04-04 03:00:48.849377,2020-07-09 00:00:00.000000,0.06814288,0.11837870,0.25151594,20,35,75,10,19,42,0.03620361,0.06409900,0.14170673,0.04396744,0.09075942,0.16974817
50005,0,USVermontCaledonia,Vermont,Caledonia,2021-04-04 03:00:48.849377,2020-07-10 00:00:00.000000,0.06647273,0.11958772,0.25211652,19,35,75,10,19,42,0.03571252,0.06440797,0.14161090,0.04313245,0.09083011,0.16973434
50005,0,USVermontCaledonia,Vermont,Caledonia,2021-04-04 03:00:48.849377,2020-07-11 00:00:00.000000,0.06383643,0.11984650,0.25271232,19,35,75,10,19,42,0.03459004,0.06433221,0.14084011,0.04309345,0.09017086,0.16601952
50005,0,USVermontCaledonia,Vermont,Caledonia,2021-04-04 03:00:48.849377,2020-07-12 00:00:00.000000,0.06170139,0.12176656,0.25366393,18,36,76,10,19,41,0.03341133,0.06395037,0.13957945,0.04365078,0.09080501,0.15931799
50005,0,USVermontCaledonia,Vermont,Caledonia,2021-04-04 03:00:48.849377,2020-07-13 00:00:00.000000,0.06506426,0.12110447,0.24989084,19,36,74,9,19,41,0.03247551,0.06421262,0.13810384,0.04482085,0.09065270,0.16142099
50005,0,USVermontCaledonia,Vermont,Caledonia,2021-04-04 03:00:48.849377,2020-07-14 00:00:00.000000,0.06559448,0.11914927,0.24609297,19,35,73,9,19,40,0.03216505,0.06460074,0.13614555,0.04635575,0.09066229,0.16608192
50005,0,USVermontCaledonia,Vermont,Caledonia,2021-04-04 03:00:48.849377,2020-07-15 00:00:00.000000,0.06404208,0.11934389,0.24654524,19,35,73,9,19,40,0.03256695,0.06362184,0.13391251,0.04783841,0.09032344,0.16612981
50005,0,USVermontCaledonia,Vermont,Caledonia,2021-04-04 03:00:48.849377,2020-07-16 00:00:00.000000,0.06511288,0.11907139,0.25604101,19,35,76,10,19,39,0.03402214,0.06343556,0.13154478,0.05367991,0.09114835,0.16613740
50005,0,USVermontCaledonia,Vermont,Caledonia,2021-04-04 03:00:48.849377,2020-07-17 00:00:00.000000,0.06346863,0.11750083,0.25125462,19,35,75,9,19,38,0.03315484,0.06344560,0.12913522,0.05474022,0.09104996,0.15580158
50005,0,USVermontCaledonia,Vermont,Caledonia,2021-04-04 03:00:48.849377,2020-07-18 00:00:00.000000,0.06028491,0.11707355,0.24851828,18,35,74,9,19,38,0.03200962,0.06367210,0.12683047,0.05298158,0.09078299,0.14703337
50005,0,USVermontCaledonia,Vermont,Caledonia,2021-04-04 03:00:48.849377,2020-07-19 00:00:00.000000,0.05747594,0.11884630,0.25138214,17,35,75,9,19,38,0.03243559,0.06397347,0.12839952,0.05205670,0.08889798,0.14177749
50005,0,USVermontCaledonia,Vermont,Caledonia,2021-04-04 03:00:48.849377,2020-07-20 00:00:00.000000,0.06000184,0.11875934,0.24133303,17,35,72,9,18,38,0.03108077,0.06272330,0.12900931,0.05256887,0.08882622,0.14564585
50005,0,USVermontCaledonia,Vermont,Caledonia,2021-04-04 03:00:48.849377,2020-07-21 00:00:00.000000,0.06066797,0.12331990,0.23139068,18,36,69,8,18,38,0.02988170,0.06265299,0.12791933,0.05231451,0.09073310,0.14663193
50005,0,USVermontCaledonia,Vermont,Caledonia,2021-04-04 03:00:48.849377,2020-07-22 00:00:00.000000,0.05861284,0.12315284,0.23272200,17,36,69,9,18,37,0.03210387,0.06322432,0.12483917,0.05126772,0.09210835,0.14735095
50005,0,USVermontCaledonia,Vermont,Caledonia,2021-04-04 03:00:48.849377,2020-07-23 00:00:00.000000,0.05684917,0.12127675,0.23653443,17,36,70,9,19,36,0.03088908,0.06416001,0.12076796,0.05109203,0.09162449,0.15148086
50005,0,USVermontCaledonia,Vermont,Caledonia,2021-04-04 03:00:48.849377,2020-07-24 00:00:00.000000,0.05525176,0.12057426,0.22958701,16,36,68,8,19,37,0.02981461,0.06569039,0.12483240,0.05110712,0.09264275,0.16803622
50005,0,USVermontCaledonia,Vermont,Caledonia,2021-04-04 03:00:48.849377,2020-07-25 00:00:00.000000,0.05390943,0.12305427,0.22294915,16,36,66,8,20,39,0.02884367,0.06698641,0.13116293,0.05091050,0.09353212,0.17517414
50005,0,USVermontCaledonia,Vermont,Caledonia,2021-04-04 03:00:48.849377,2020-07-26 00:00:00.000000,0.05256914,0.12403960,0.21661651,15,37,64,8,19,38,0.02801172,0.06665862,0.12737927,0.05037630,0.09466054,0.17792746
50005,0,USVermontCaledonia,Vermont,Caledonia,2021-04-04 03:00:48.849377,2020-07-27 00:00:00.000000,0.05094950,0.12448314,0.21296637,15,37,63,8,19,37,0.02730315,0.06612754,0.12372075,0.04985283,0.09433263,0.17111052
50005,0,USVermontCaledonia,Vermont,Caledonia,2021-04-04 03:00:48.849377,2020-07-28 00:00:00.000000,0.04924605,0.12214782,0.21241822,14,36,63,7,19,36,0.02651574,0.06574393,0.12041893,0.04943782,0.09344915,0.16583655
50005,0,USVermontCaledonia,Vermont,Caledonia,2021-04-04 03:00:48.849377,2020-07-29 00:00:00.000000,0.04762393,0.12341612,0.21964548,14,37,65,7,19,35,0.02569770,0.06563432,0.11742650,0.05244087,0.09406863,0.16294723
50005,0,USVermontCaledonia,Vermont,Caledonia,2021-04-04 03:00:48.849377,2020-07-30 00:00:00.000000,0.04608486,0.12439441,0.22654432,13,37,67,7,19,34,0.02488008,0.06579666,0.11478541,0.05271325,0.09607295,0.16177070
50005,0,USVermontCaledonia,Vermont,Caledonia,2021-04-04 03:00:48.849377,2020-07-31 00:00:00.000000,0.04461979,0.12303197,0.23569808,13,36,70,7,20,33,0.02408212,0.06711544,0.11244178,0.05242824,0.09681687,0.16649627
50005,0,USVermontCaledonia,Vermont,Caledonia,2021-04-04 03:00:48.849377,2020-08-01 00:00:00.000000,0.04321985,0.12157457,0.23995340,12,36,71,6,20,33,0.02331167,0.06675503,0.11035408,0.05381060,0.09730812,0.16944791
50005,0,USVermontCaledonia,Vermont,Caledonia,2021-04-04 03:00:48.849377,2020-08-02 00:00:00.000000,0.04189019,0.12166269,0.24664988,12,36,73,6,19,34,0.02257067,0.06650855,0.11478824,0.05573288,0.09684923,0.16356453
50005,0,USVermontCaledonia,Vermont,Caledonia,2021-04-04 03:00:48.849377,2020-08-03 00:00:00.000000,0.04133269,0.12404278,0.24405755,12,37,73,6,20,35,0.02186138,0.06679355,0.11915377,0.05599113,0.10025725,0.17621776
50005,0,USVermontCaledonia,Vermont,Caledonia,2021-04-04 03:00:48.849377,2020-08-04 00:00:00.000000,0.04086117,0.12502516,0.24017693,12,37,72,6,20,33,0.02134558,0.06736240,0.11321534,0.05603571,0.09942083,0.17454868
50005,0,USVermontCaledonia,Vermont,Caledonia,2021-04-04 03:00:48.849377,2020-08-05 00:00:00.000000,0.04048480,0.12641980,0.23563294,12,37,70,6,20,33,0.02096258,0.06782008,0.11070984,0.05590790,0.09865974,0.17154774
50005,0,USVermontCaledonia,Vermont,Caledonia,2021-04-04 03:00:48.849377,2020-08-06 00:00:00.000000,0.04017827,0.12947008,0.23662983,12,38,70,6,20,33,0.02067196,0.06777803,0.11154027,0.05537515,0.10060350,0.16704037
50005,0,USVermontCaledonia,Vermont,Caledonia,2021-04-04 03:00:48.849377,2020-08-07 00:00:00.000000,0.03992500,0.12986035,0.25272971,11,38,75,6,20,34,0.02044650,0.06780435,0.11484513,0.05396696,0.10123461,0.16458968
50005,0,USVermontCaledonia,Vermont,Caledonia,2021-04-04 03:00:48.849377,2020-08-08 00:00:00.000000,0.03971854,0.12981706,0.26764052,11,38,80,6,20,35,0.02026794,0.06851037,0.11874234,0.05209565,0.10320182,0.17040603
50005,0,USVermontCaledonia,Vermont,Caledonia,2021-04-04 03:00:48.849377,2020-08-09 00:00:00.000000,0.03956971,0.13001108,0.28536770,11,38,85,6,20,38,0.02012505,0.06864305,0.13002275,0.05101908,0.10508746,0.16950859
50005,0,USVermontCaledonia,Vermont,Caledonia,2021-04-04 03:00:48.849377,2020-08-10 00:00:00.000000,0.04409550,0.13023293,0.27555300,13,39,82,6,21,39,0.02001419,0.07018933,0.13266103,0.05069103,0.10478189,0.16928085
50005,0,USVermontCaledonia,Vermont,Caledonia,2021-04-04 03:00:48.849377,2020-08-11 00:00:00.000000,0.05042734,0.13087826,0.26572859,15,39,79,6,21,39,0.02075419,0.07099925,0.13175868,0.05064201,0.10446065,0.16978064
50005,0,USVermontCaledonia,Vermont,Caledonia,2021-04-04 03:00:48.849377,2020-08-12 00:00:00.000000,0.05045287,0.13238259,0.25549044,15,39,76,6,21,40,0.02201877,0.07009206,0.13423068,0.05068496,0.10409279,0.17105373
50005,0,USVermontCaledonia,Vermont,Caledonia,2021-04-04 03:00:48.849377,2020-08-13 00:00:00.000000,0.05403140,0.13302380,0.24496408,16,39,73,7,20,40,0.02407643,0.06918896,0.13590788,0.05080337,0.10460658,0.18127857
50005,0,USVermontCaledonia,Vermont,Caledonia,2021-04-04 03:00:48.849377,2020-08-14 00:00:00.000000,0.05754777,0.13090600,0.23478500,17,39,70,7,21,40,0.02522438,0.07052116,0.13557788,0.05108593,0.10519120,0.18767785
50005,0,USVermontCaledonia,Vermont,Caledonia,2021-04-04 03:00:48.849377,2020-08-15 00:00:00.000000,0.06046168,0.13113005,0.22876070,18,39,68,8,21,39,0.02694771,0.07045774,0.13138579,0.05179061,0.10845861,0.18300916
50005,0,USVermontCaledonia,Vermont,Caledonia,2021-04-04 03:00:48.849377,2020-08-16 00:00:00.000000,0.05818181,0.13047211,0.23840373,17,39,71,8,21,38,0.02865685,0.07094411,0.12689144,0.05343270,0.10901652,0.18886989
50005,0,USVermontCaledonia,Vermont,Caledonia,2021-04-04 03:00:48.849377,2020-08-17 00:00:00.000000,0.05866141,0.13009003,0.23348845,17,39,70,9,21,36,0.03031598,0.07095954,0.12226724,0.05648960,0.10910796,0.19035164
50005,0,USVermontCaledonia,Vermont,Caledonia,2021-04-04 03:00:48.849377,2020-08-18 00:00:00.000000,0.06190429,0.13041627,0.22808313,18,39,68,9,21,35,0.03133181,0.07023904,0.11772632,0.06070114,0.11099935,0.18907657
50005,0,USVermontCaledonia,Vermont,Caledonia,2021-04-04 03:00:48.849377,2020-08-19 00:00:00.000000,0.06483830,0.13157969,0.22174122,19,39,66,9,21,34,0.03192586,0.07020711,0.11570592,0.06466390,0.11274410,0.19045729
50005,0,USVermontCaledonia,Vermont,Caledonia,2021-04-04 03:00:48.849377,2020-08-20 00:00:00.000000,0.06473798,0.13122595,0.22947898,19,39,68,9,20,34,0.03224562,0.06958126,0.11587724,0.06563053,0.11357065,0.19018931
50005,0,USVermontCaledonia,Vermont,Caledonia,2021-04-04 03:00:48.849377,2020-08-21 00:00:00.000000,0.06455590,0.13296539,0.23559443,19,39,70,10,20,34,0.03341106,0.06977825,0.11611038,0.06718882,0.11381128,0.18885363
50005,0,USVermontCaledonia,Vermont,Caledonia,2021-04-04 03:00:48.849377,2020-08-22 00:00:00.000000,0.06432349,0.13507187,0.24209886,19,40,72,10,20,34,0.03416491,0.06979677,0.11638141,0.06721792,0.11423222,0.18434224
50005,0,USVermontCaledonia,Vermont,Caledonia,2021-04-04 03:00:48.849377,2020-08-23 00:00:00.000000,0.06401758,0.13501540,0.25434538,19,40,76,10,20,34,0.03417547,0.06999970,0.11667470,0.06631859,0.11490288,0.19099355
50005,0,USVermontCaledonia,Vermont,Caledonia,2021-04-04 03:00:48.849377,2020-08-24 00:00:00.000000,0.07280405,0.13314685,0.25831767,21,39,77,10,20,35,0.03421545,0.06960588,0.11694263,0.06349520,0.11676890,0.17685879
50005,0,USVermontCaledonia,Vermont,Caledonia,2021-04-04 03:00:48.849377,2020-08-25 00:00:00.000000,0.07674611,0.13043115,0.25534628,23,39,76,10,20,35,0.03490127,0.06938987,0.11952552,0.06314889,0.11895105,0.17426868
50005,0,USVermontCaledonia,Vermont,Caledonia,2021-04-04 03:00:48.849377,2020-08-26 00:00:00.000000,0.07666130,0.12987126,0.24938870,22,38,74,11,20,36,0.03746850,0.06913171,0.12186256,0.06358349,0.11963733,0.17272974
50005,0,USVermontCaledonia,Vermont,Caledonia,2021-04-04 03:00:48.849377,2020-08-27 00:00:00.000000,0.07603088,0.12881884,0.24358271,22,38,73,11,21,37,0.03778781,0.07005205,0.12343952,0.06498938,0.12185234,0.18283349
50005,0,USVermontCaledonia,Vermont,Caledonia,2021-04-04 03:00:48.849377,2020-08-28 00:00:00.000000,0.07510931,0.12838733,0.23793150,22,38,71,11,20,37,0.03816842,0.06960969,0.12452654,0.06777208,0.12368191,0.19208146
50005,0,USVermontCaledonia,Vermont,Caledonia,2021-04-04 03:00:48.849377,2020-08-29 00:00:00.000000,0.07430721,0.13215091,0.23241154,22,39,69,11,20,37,0.03859316,0.06943910,0.12524140,0.07139532,0.12755203,0.21315244
50005,0,USVermontCaledonia,Vermont,Caledonia,2021-04-04 03:00:48.849377,2020-08-30 00:00:00.000000,0.07367350,0.13404900,0.22704275,22,40,68,11,20,37,0.03905650,0.06896697,0.12561068,0.07205294,0.12727978,0.19245945
50005,0,USVermontCaledonia,Vermont,Caledonia,2021-04-04 03:00:48.849377,2020-08-31 00:00:00.000000,0.07674193,0.13523432,0.21935098,23,40,65,11,20,37,0.03956115,0.06853776,0.12562731,0.07351293,0.13295260,0.19363512
50005,0,USVermontCaledonia,Vermont,Caledonia,2021-04-04 03:00:48.849377,2020-09-01 00:00:00.000000,0.07980334,0.13234168,0.21184618,23,39,63,11,21,36,0.03965664,0.07030750,0.12297102,0.07306973,0.13406929,0.21102303
50005,0,USVermontCaledonia,Vermont,Caledonia,2021-04-04 03:00:48.849377,2020-09-02 00:00:00.000000,0.08297505,0.13441547,0.20452173,24,40,61,12,21,35,0.04034249,0.07098082,0.11966205,0.07445313,0.13601682,0.21780954
50005,0,USVermontCaledonia,Vermont,Caledonia,2021-04-04 03:00:48.849377,2020-09-03 00:00:00.000000,0.08135358,0.13395034,0.19909259,24,40,59,12,21,34,0.04070776,0.07138846,0.11619086,0.07707474,0.13720562,0.21949586
50005,0,USVermontCaledonia,Vermont,Caledonia,2021-04-04 03:00:48.849377,2020-09-04 00:00:00.000000,0.07841743,0.13210335,0.20346487,23,39,61,12,21,34,0.04102954,0.07195171,0.11345778,0.08193695,0.13794089,0.22281519
50005,0,USVermontCaledonia,Vermont,Caledonia,2021-04-04 03:00:48.849377,2020-09-05 00:00:00.000000,0.07577652,0.13169811,0.20841538,22,39,62,12,21,34,0.04138596,0.07222218,0.11597670,0.08450562,0.13651899,0.22431334
50005,0,USVermontCaledonia,Vermont,Caledonia,2021-04-04 03:00:48.849377,2020-09-06 00:00:00.000000,0.07349220,0.12902558,0.21339321,22,38,64,12,21,35,0.04113920,0.07121350,0.11841175,0.08712829,0.13706341,0.22459391
50005,0,USVermontCaledonia,Vermont,Caledonia,2021-04-04 03:00:48.849377,2020-09-07 00:00:00.000000,0.07016641,0.12405586,0.20585400,21,37,61,12,21,35,0.04203365,0.07007759,0.11975012,0.08802604,0.14029860,0.22490678
50005,0,USVermontCaledonia,Vermont,Caledonia,2021-04-04 03:00:48.849377,2020-09-08 00:00:00.000000,0.06720758,0.11985203,0.19826693,20,35,59,12,20,36,0.04047339,0.06822357,0.12002841,0.08851865,0.14071917,0.22550908
50005,0,USVermontCaledonia,Vermont,Caledonia,2021-04-04 03:00:48.849377,2020-09-09 00:00:00.000000,0.06451582,0.11718050,0.19045005,19,35,57,11,19,35,0.03866709,0.06662690,0.11868015,0.08764444,0.14282372,0.22678125
50005,0,USVermontCaledonia,Vermont,Caledonia,2021-04-04 03:00:48.849377,2020-09-10 00:00:00.000000,0.06204229,0.11337778,0.18485817,18,34,55,11,19,34,0.03750202,0.06512051,0.11621689,0.08829392,0.14808125,0.23727538
50005,0,USVermontCaledonia,Vermont,Caledonia,2021-04-04 03:00:48.849377,2020-09-11 00:00:00.000000,0.05975457,0.10849654,0.18243606,17,32,54,10,18,33,0.03630718,0.06260111,0.11300140,0.08722862,0.15264087,0.24066193
50005,0,USVermontCaledonia,Vermont,Caledonia,2021-04-04 03:00:48.849377,2020-09-12 00:00:00.000000,0.05762453,0.10386782,0.18014542,17,31,54,10,18,32,0.03511489,0.06066509,0.10915305,0.08655087,0.15539965,0.25424662
50005,0,USVermontCaledonia,Vermont,Caledonia,2021-04-04 03:00:48.849377,2020-09-13 00:00:00.000000,0.05430074,0.09986100,0.17793267,16,29,53,10,17,31,0.03382129,0.05839885,0.10495977,0.08558360,0.15701866,0.26245481
50005,0,USVermontCaledonia,Vermont,Caledonia,2021-04-04 03:00:48.849377,2020-09-14 00:00:00.000000,0.05194648,0.09588936,0.17576070,15,28,52,9,16,30,0.03202465,0.05590307,0.10069034,0.08478095,0.16113222,0.26583284
50005,0,USVermontCaledonia,Vermont,Caledonia,2021-04-04 03:00:48.849377,2020-09-15 00:00:00.000000,0.04888774,0.09194418,0.17361600,14,27,52,9,16,29,0.03024534,0.05399833,0.09675134,0.08647268,0.16371931,0.26712034
50005,0,USVermontCaledonia,Vermont,Caledonia,2021-04-04 03:00:48.849377,2020-09-16 00:00:00.000000,0.04531614,0.08767827,0.17150750,13,26,51,8,15,28,0.02848342,0.05224921,0.09475851,0.08850057,0.16587685,0.27004173
50005,0,USVermontCaledonia,Vermont,Caledonia,2021-04-04 03:00:48.849377,2020-09-17 00:00:00.000000,0.04209493,0.08364574,0.16950658,12,25,50,8,14,27,0.02672360,0.04967366,0.09231436,0.08910818,0.16843612,0.27905301
50005,0,USVermontCaledonia,Vermont,Caledonia,2021-04-04 03:00:48.849377,2020-09-18 00:00:00.000000,0.03922249,0.08033116,0.16745708,11,24,50,7,14,26,0.02453036,0.04748553,0.08992269,0.09103561,0.17372353,0.28601398
50005,0,USVermontCaledonia,Vermont,Caledonia,2021-04-04 03:00:48.849377,2020-09-19 00:00:00.000000,0.03663988,0.07686682,0.16299568,10,23,48,7,13,26,0.02356129,0.04597021,0.08754977,0.09620672,0.18001962,0.29245274
50005,0,USVermontCaledonia,Vermont,Caledonia,2021-04-04 03:00:48.849377,2020-09-20 00:00:00.000000,0.03427827,0.07403737,0.16123682,10,22,48,6,13,25,0.02221726,0.04438841,0.08521005,0.10101483,0.18370201,0.29616926
50005,0,USVermontCaledonia,Vermont,Caledonia,2021-04-04 03:00:48.849377,2020-09-21 00:00:00.000000,0.03210039,0.07099446,0.15898183,9,21,47,6,12,25,0.02100694,0.04256745,0.08428154,0.10575373,0.18545304,0.29667913
50005,0,USVermontCaledonia,Vermont,Caledonia,2021-04-04 03:00:48.849377,2020-09-22 00:00:00.000000,0.02983458,0.06894553,0.15557417,8,20,46,5,12,25,0.01955120,0.04076372,0.08338967,0.10817838,0.18785444,0.29572968
50005,0,USVermontCaledonia,Vermont,Caledonia,2021-04-04 03:00:48.849377,2020-09-23 00:00:00.000000,0.02808606,0.06666661,0.15341741,8,19,46,5,11,24,0.01811521,0.03950996,0.08129428,0.10916897,0.19276441,0.30344358
50005,0,USVermontCaledonia,Vermont,Caledonia,2021-04-04 03:00:48.849377,2020-09-24 00:00:00.000000,0.02653983,0.06462384,0.15269625,7,19,45,5,11,23,0.01680818,0.03836103,0.07949912,0.10963345,0.19983200,0.30565753
50005,0,USVermontCaledonia,Vermont,Caledonia,2021-04-04 03:00:48.849377,2020-09-25 00:00:00.000000,0.02504913,0.06325790,0.15282006,7,18,45,4,11,23,0.01566586,0.03695312,0.07812019,0.11021254,0.20743819,0.30597054
50005,0,USVermontCaledonia,Vermont,Caledonia,2021-04-04 03:00:48.849377,2020-09-26 00:00:00.000000,0.02380690,0.06186251,0.15327989,7,18,45,4,10,23,0.01473256,0.03560145,0.07715710,0.11166283,0.21155769,0.30534103
50005,0,USVermontCaledonia,Vermont,Caledonia,2021-04-04 03:00:48.849377,2020-09-27 00:00:00.000000,0.02292375,0.06066012,0.15387113,6,18,46,4,10,22,0.01397664,0.03477237,0.07653646,0.11375204,0.21355668,0.31619198
50005,0,USVermontCaledonia,Vermont,Caledonia,2021-04-04 03:00:48.849377,2020-09-28 00:00:00.000000,0.03144081,0.06588745,0.15676845,9,19,47,4,10,22,0.01334586,0.03374792,0.07617702,0.12060560,0.21979122,0.33062505
50005,0,USVermontCaledonia,Vermont,Caledonia,2021-04-04 03:00:48.849377,2020-09-29 00:00:00.000000,0.03345326,0.06941291,0.15967844,10,20,47,4,10,22,0.01448020,0.03491593,0.07631882,0.12950705,0.22361627,0.33993611
50005,0,USVermontCaledonia,Vermont,Caledonia,2021-04-04 03:00:48.849377,2020-09-30 00:00:00.000000,0.03559947,0.07471980,0.16261177,10,22,48,5,10,23,0.01740781,0.03571344,0.07682837,0.14113010,0.22927136,0.35280575
50005,0,USVermontCaledonia,Vermont,Caledonia,2021-04-04 03:00:48.849377,2020-10-01 00:00:00.000000,0.03914203,0.08206724,0.17711810,11,24,53,5,11,23,0.01813164,0.03735572,0.07760787,0.14485417,0.23616442,0.35705376
50005,0,USVermontCaledonia,Vermont,Caledonia,2021-04-04 03:00:48.849377,2020-10-02 00:00:00.000000,0.04461235,0.08512033,0.18494000,13,25,55,5,11,23,0.01903686,0.03986868,0.07858604,0.15103639,0.24457531,0.37291652
50005,0,USVermontCaledonia,Vermont,Caledonia,2021-04-04 03:00:48.849377,2020-10-03 00:00:00.000000,0.04878041,0.09184915,0.19235264,14,27,57,6,12,26,0.02185627,0.04245989,0.08801536,0.16036341,0.25578639,0.38473894
50005,0,USVermontCaledonia,Vermont,Caledonia,2021-04-04 03:00:48.849377,2020-10-04 00:00:00.000000,0.05213917,0.09772514,0.20889907,15,29,62,7,13,26,0.02485711,0.04413075,0.08988276,0.16571932,0.26782251,0.39536276
50005,0,USVermontCaledonia,Vermont,Caledonia,2021-04-04 03:00:48.849377,2020-10-05 00:00:00.000000,0.05672405,0.10666621,0.21574031,17,31,64,8,14,27,0.02670659,0.04706437,0.09181317,0.17174635,0.27550730,0.39943677
50005,0,USVermontCaledonia,Vermont,Caledonia,2021-04-04 03:00:48.849377,2020-10-06 00:00:00.000000,0.06789778,0.11187789,0.23040409,20,33,69,8,14,28,0.02892891,0.04969653,0.09565983,0.17208564,0.28647087,0.40247592
50005,0,USVermontCaledonia,Vermont,Caledonia,2021-04-04 03:00:48.849377,2020-10-07 00:00:00.000000,0.07268965,0.12261931,0.24547393,21,36,73,9,16,30,0.03095713,0.05421749,0.10093705,0.17278038,0.29123027,0.40794172
50005,0,USVermontCaledonia,Vermont,Caledonia,2021-04-04 03:00:48.849377,2020-10-08 00:00:00.000000,0.07703415,0.13118430,0.26845271,23,39,80,10,17,32,0.03411027,0.05757140,0.10733172,0.18729349,0.29921024,0.41785047
50005,0,USVermontCaledonia,Vermont,Caledonia,2021-04-04 03:00:48.849377,2020-10-09 00:00:00.000000,0.08161615,0.14338409,0.27778115,24,43,83,10,18,34,0.03619249,0.06267541,0.11456279,0.18748466,0.30718190,0.43345898
50005,0,USVermontCaledonia,Vermont,Caledonia,2021-04-04 03:00:48.849377,2020-10-10 00:00:00.000000,0.08630548,0.15498471,0.29674972,25,46,89,11,20,36,0.03863163,0.06757091,0.12287204,0.20295498,0.32058122,0.45492617
50005,0,USVermontCaledonia,Vermont,Caledonia,2021-04-04 03:00:48.849377,2020-10-11 00:00:00.000000,0.09108524,0.16421134,0.31743858,27,49,95,12,21,40,0.04184336,0.07314306,0.13616015,0.20490246,0.34062961,0.49761781
50005,0,USVermontCaledonia,Vermont,Caledonia,2021-04-04 03:00:48.849377,2020-10-12 00:00:00.000000,0.10162465,0.17864472,0.34653585,30,53,103,13,23,43,0.04540973,0.07900784,0.14367631,0.20782387,0.35721060,0.49305769
50005,0,USVermontCaledonia,Vermont,Caledonia,2021-04-04 03:00:48.849377,2020-10-13 00:00:00.000000,0.11225859,0.19020056,0.36637695,33,57,109,14,25,45,0.04931951,0.08640945,0.15247503,0.21611825,0.36026629,0.51030590
50005,0,USVermontCaledonia,Vermont,Caledonia,2021-04-04 03:00:48.849377,2020-10-14 00:00:00.000000,0.12381066,0.20130874,0.38643052,37,60,115,16,28,47,0.05455795,0.09416607,0.15868270,0.22366013,0.36289522,0.52628970
50005,0,USVermontCaledonia,Vermont,Caledonia,2021-04-04 03:00:48.849377,2020-10-15 00:00:00.000000,0.13640420,0.20960714,0.40682277,40,62,122,18,30,51,0.06039727,0.10033220,0.17195731,0.23737584,0.37426636,0.53190176
50005,0,USVermontCaledonia,Vermont,Caledonia,2021-04-04 03:00:48.849377,2020-10-16 00:00:00.000000,0.14769331,0.22391690,0.42820189,44,67,128,19,31,56,0.06656667,0.10662145,0.18765596,0.22297552,0.38383557,0.55805551
50005,0,USVermontCaledonia,Vermont,Caledonia,2021-04-04 03:00:48.849377,2020-10-17 00:00:00.000000,0.16107804,0.24231604,0.45301039,48,72,135,21,33,61,0.07306533,0.11221444,0.20431224,0.22367901,0.39072105,0.56985092
50005,0,USVermontCaledonia,Vermont,Caledonia,2021-04-04 03:00:48.849377,2020-10-18 00:00:00.000000,0.17502291,0.26331330,0.48453851,52,78,145,23,35,64,0.07955217,0.11701407,0.21613333,0.22842794,0.40682211,0.58438801
50005,0,USVermontCaledonia,Vermont,Caledonia,2021-04-04 03:00:48.849377,2020-10-19 00:00:00.000000,0.18554465,0.27915597,0.51050206,55,83,153,25,37,68,0.08397117,0.12561836,0.22817383,0.25156987,0.42133753,0.58649450
50005,0,USVermontCaledonia,Vermont,Caledonia,2021-04-04 03:00:48.849377,2020-10-20 00:00:00.000000,0.19660074,0.29986966,0.54154707,58,89,162,26,40,72,0.08965564,0.13623299,0.24025124,0.28570695,0.42680526,0.58757487
50005,0,USVermontCaledonia,Vermont,Caledonia,2021-04-04 03:00:48.849377,2020-10-21 00:00:00.000000,0.20797148,0.32558733,0.58000378,62,97,173,28,43,75,0.09588846,0.14531455,0.25272622,0.29120737,0.42829931,0.61303114
50005,0,USVermontCaledonia,Vermont,Caledonia,2021-04-04 03:00:48.849377,2020-10-22 00:00:00.000000,0.21966459,0.34810825,0.62657334,65,104,187,30,46,79,0.10279581,0.15612424,0.26596603,0.31457415,0.42946684,0.65110175
50005,0,USVermontCaledonia,Vermont,Caledonia,2021-04-04 03:00:48.849377,2020-10-23 00:00:00.000000,0.23174184,0.37647506,0.67896433,69,112,203,33,51,84,0.11037929,0.17006683,0.28008213,0.32308301,0.44086796,0.63101874
50005,0,USVermontCaledonia,Vermont,Caledonia,2021-04-04 03:00:48.849377,2020-10-24 00:00:00.000000,0.24548617,0.41240300,0.73577860,73,123,220,35,54,88,0.11863959,0.18055389,0.29501240,0.33738663,0.45779781,0.63076681
50005,0,USVermontCaledonia,Vermont,Caledonia,2021-04-04 03:00:48.849377,2020-10-25 00:00:00.000000,0.26422777,0.44727680,0.79680504,79,134,238,38,57,93,0.12756304,0.19274900,0.31067137,0.34894684,0.46593133,0.65691373
50005,0,USVermontCaledonia,Vermont,Caledonia,2021-04-04 03:00:48.849377,2020-10-26 00:00:00.000000,0.28658017,0.47051902,0.87058593,85,141,261,41,63,99,0.13711324,0.21056930,0.33227234,0.35145439,0.48948413,0.65417567
50005,0,USVermontCaledonia,Vermont,Caledonia,2021-04-04 03:00:48.849377,2020-10-27 00:00:00.000000,0.31338739,0.50129879,0.94922743,93,150,284,44,67,107,0.14915303,0.22425764,0.35999873,0.36416119,0.49426194,0.67013939
50005,0,USVermontCaledonia,Vermont,Caledonia,2021-04-04 03:00:48.849377,2020-10-28 00:00:00.000000,0.34651149,0.54280932,1.02563084,103,162,307,48,71,117,0.16017031,0.23951597,0.39088402,0.37635999,0.51264706,0.67600959
50005,0,USVermontCaledonia,Vermont,Caledonia,2021-04-04 03:00:48.849377,2020-10-29 00:00:00.000000,0.38143331,0.57990127,1.07541557,114,173,322,51,76,127,0.17325670,0.25637341,0.42483727,0.38104121,0.51368106,0.68289834
50005,0,USVermontCaledonia,Vermont,Caledonia,2021-04-04 03:00:48.849377,2020-10-30 00:00:00.000000,0.41705498,0.62197502,1.12787705,125,186,338,57,83,138,0.19189595,0.27766701,0.46191242,0.38737548,0.52712658,0.68892472
50005,0,USVermontCaledonia,Vermont,Caledonia,2021-04-04 03:00:48.849377,2020-10-31 00:00:00.000000,0.44448824,0.66516311,1.18349883,133,199,354,62,90,147,0.20762037,0.30287396,0.49087182,0.39895471,0.54016739,0.69066576
50005,0,USVermontCaledonia,Vermont,Caledonia,2021-04-04 03:00:48.849377,2020-11-01 00:00:00.000000,0.47985609,0.71252006,1.24304744,143,213,372,67,98,154,0.22597822,0.33005779,0.51537553,0.39889975,0.54463152,0.69236461
50005,0,USVermontCaledonia,Vermont,Caledonia,2021-04-04 03:00:48.849377,2020-11-02 00:00:00.000000,0.53557917,0.78014894,1.30764894,160,233,392,73,105,162,0.24638356,0.35188891,0.54117231,0.37847441,0.54829992,0.70886106
50005,0,USVermontCaledonia,Vermont,Caledonia,2021-04-04 03:00:48.849377,2020-11-03 00:00:00.000000,0.59261727,0.83644009,1.37793702,177,250,413,80,114,170,0.26819905,0.38279225,0.56860732,0.37803715,0.55176946,0.71785930
50005,0,USVermontCaledonia,Vermont,Caledonia,2021-04-04 03:00:48.849377,2020-11-04 00:00:00.000000,0.65965875,0.91554436,1.49544297,197,274,448,87,126,183,0.29223725,0.42015678,0.61247797,0.39173008,0.55172179,0.71843101
50005,0,USVermontCaledonia,Vermont,Caledonia,2021-04-04 03:00:48.849377,2020-11-05 00:00:00.000000,0.71396576,1.00174704,1.63002662,214,300,488,94,138,200,0.31508487,0.46036555,0.66757515,0.40157763,0.55409034,0.71498024
50005,0,USVermontCaledonia,Vermont,Caledonia,2021-04-04 03:00:48.849377,2020-11-06 00:00:00.000000,0.77227367,1.09829421,1.77217099,231,329,531,100,147,218,0.33563054,0.49183247,0.72716095,0.41084069,0.55669283,0.70515276
50005,0,USVermontCaledonia,Vermont,Caledonia,2021-04-04 03:00:48.849377,2020-11-07 00:00:00.000000,0.84158500,1.18380143,1.92185083,252,355,576,107,157,237,0.35857447,0.52494717,0.79138368,0.40785608,0.56180110,0.69787426
50005,0,USVermontCaledonia,Vermont,Caledonia,2021-04-04 03:00:48.849377,2020-11-08 00:00:00.000000,0.89825256,1.26630982,2.07552693,269,379,622,115,167,257,0.38395988,0.55932402,0.85991996,0.40334198,0.56603716,0.69487358
50005,0,USVermontCaledonia,Vermont,Caledonia,2021-04-04 03:00:48.849377,2020-11-09 00:00:00.000000,0.96757196,1.38434406,2.21370222,290,415,663,123,181,279,0.41268457,0.60363210,0.93160881,0.38940158,0.56161820,0.70450622
50005,0,USVermontCaledonia,Vermont,Caledonia,2021-04-04 03:00:48.849377,2020-11-10 00:00:00.000000,1.04970489,1.48397903,2.34820417,314,445,704,135,197,301,0.45238846,0.65784773,1.00456108,0.38896073,0.55754155,0.71538166
50005,0,USVermontCaledonia,Vermont,Caledonia,2021-04-04 03:00:48.849377,2020-11-11 00:00:00.000000,1.12194914,1.59541401,2.48022671,336,478,743,146,212,323,0.48992369,0.70810280,1.07905640,0.38873735,0.55434041,0.72028929
50005,0,USVermontCaledonia,Vermont,Caledonia,2021-04-04 03:00:48.849377,2020-11-12 00:00:00.000000,1.19712708,1.68768561,2.61242873,359,506,783,157,228,346,0.52520874,0.76201908,1.15435680,0.38831876,0.54631817,0.71244990
50005,0,USVermontCaledonia,Vermont,Caledonia,2021-04-04 03:00:48.849377,2020-11-13 00:00:00.000000,1.27535465,1.80459917,2.73370245,382,541,819,168,243,368,0.56273514,0.81255797,1.22907404,0.38609301,0.52981715,0.69471343
50005,0,USVermontCaledonia,Vermont,Caledonia,2021-04-04 03:00:48.849377,2020-11-14 00:00:00.000000,1.35703760,1.90910983,2.83056212,407,572,848,180,261,390,0.60243828,0.87222255,1.30049483,0.37455695,0.51862523,0.69001315
50005,0,USVermontCaledonia,Vermont,Caledonia,2021-04-04 03:00:48.849377,2020-11-15 00:00:00.000000,1.43969825,1.99723104,2.90850272,431,599,872,192,279,409,0.64288086,0.93172311,1.36542027,0.35866709,0.50439216,0.65470591
50005,0,USVermontCaledonia,Vermont,Caledonia,2021-04-04 03:00:48.849377,2020-11-16 00:00:00.000000,1.53675450,2.09271495,2.97397299,460,627,891,204,296,425,0.68253552,0.99011315,1.41822380,0.35489944,0.49045398,0.64246410
50005,0,USVermontCaledonia,Vermont,Caledonia,2021-04-04 03:00:48.849377,2020-11-17 00:00:00.000000,1.63435217,2.22926613,3.03455556,490,668,910,216,314,441,0.72098629,1.04809164,1.47103000,0.35061912,0.47479876,0.64270422
50005,0,USVermontCaledonia,Vermont,Caledonia,2021-04-04 03:00:48.849377,2020-11-18 00:00:00.000000,1.73624865,2.35697187,3.09438497,520,706,928,227,332,454,0.75914741,1.10802722,1.51409729,0.32785982,0.46947539,0.62797124
50005,0,USVermontCaledonia,Vermont,Caledonia,2021-04-04 03:00:48.849377,2020-11-19 00:00:00.000000,1.78858177,2.48848148,3.20658131,536,746,961,238,349,465,0.79537369,1.16669926,1.55242734,0.32201561,0.45628757,0.61500423
50005,0,USVermontCaledonia,Vermont,Caledonia,2021-04-04 03:00:48.849377,2020-11-20 00:00:00.000000,1.84027820,2.59349714,3.37003110,551,777,1010,248,369,476,0.82929103,1.23170691,1.58727807,0.31895078,0.44895874,0.60184981
50005,0,USVermontCaledonia,Vermont,Caledonia,2021-04-04 03:00:48.849377,2020-11-21 00:00:00.000000,1.89202561,2.69735921,3.43472133,567,809,1030,262,386,504,0.87416820,1.28914412,1.68242988,0.31192459,0.44054799,0.58571641
50005,0,USVermontCaledonia,Vermont,Caledonia,2021-04-04 03:00:48.849377,2020-11-22 00:00:00.000000,1.94385968,2.81017148,3.55429064,583,842,1066,277,407,537,0.92599902,1.35966982,1.79278266,0.29373675,0.42399921,0.55606415
50005,0,USVermontCaledonia,Vermont,Caledonia,2021-04-04 03:00:48.849377,2020-11-23 00:00:00.000000,1.99687381,2.89148897,3.62728112,598,867,1087,293,424,567,0.97689478,1.41484269,1.89129013,0.28771492,0.40763418,0.51678058
50005,0,USVermontCaledonia,Vermont,Caledonia,2021-04-04 03:00:48.849377,2020-11-24 00:00:00.000000,2.04916184,2.97885140,3.72653701,614,893,1117,299,438,576,0.99981890,1.46034210,1.92235749,0.27978751,0.39349103,0.50619353
50005,0,USVermontCaledonia,Vermont,Caledonia,2021-04-04 03:00:48.849377,2020-11-25 00:00:00.000000,2.09941072,3.05509743,3.78649980,629,916,1135,305,454,583,1.01966413,1.51382825,1.94592150,0.26774726,0.38601423,0.50156442
50005,0,USVermontCaledonia,Vermont,Caledonia,2021-04-04 03:00:48.849377,2020-11-26 00:00:00.000000,2.14349247,3.12472928,3.83607613,642,937,1150,311,464,589,1.03824027,1.54935576,1.96654619,0.24655776,0.37615119,0.47563734
50005,0,USVermontCaledonia,Vermont,Caledonia,2021-04-04 03:00:48.849377,2020-11-27 00:00:00.000000,2.17618949,3.14103070,3.90339212,652,942,1170,319,479,595,1.06547171,1.59757554,1.98476369,0.24572815,0.36630998,0.46445187
50005,0,USVermontCaledonia,Vermont,Caledonia,2021-04-04 03:00:48.849377,2020-11-28 00:00:00.000000,2.19462323,3.17556917,3.96313912,658,952,1188,331,494,602,1.10466081,1.64837640,2.00938109,0.23282715,0.35453252,0.44957612
50005,0,USVermontCaledonia,Vermont,Caledonia,2021-04-04 03:00:48.849377,2020-11-29 00:00:00.000000,2.20098776,3.19982036,4.02325291,660,959,1206,339,501,615,1.13337660,1.67346482,2.05134753,0.23270310,0.32714019,0.42851986
50005,0,USVermontCaledonia,Vermont,Caledonia,2021-04-04 03:00:48.849377,2020-11-30 00:00:00.000000,2.19311994,3.19553501,4.04374100,657,958,1212,345,506,631,1.15173670,1.68875424,2.10480485,0.23312264,0.31200177,0.41461603
50005,0,USVermontCaledonia,Vermont,Caledonia,2021-04-04 03:00:48.849377,2020-12-01 00:00:00.000000,2.19659674,3.21448288,4.07027235,658,964,1220,345,509,645,1.15356059,1.69790870,2.15095881,0.21801020,0.29371008,0.38216125
50005,0,USVermontCaledonia,Vermont,Caledonia,2021-04-04 03:00:48.849377,2020-12-02 00:00:00.000000,2.21077617,3.24047476,4.10858553,663,971,1232,345,510,647,1.15052111,1.70126135,2.15998456,0.21261893,0.28682404,0.37677472
50005,0,USVermontCaledonia,Vermont,Caledonia,2021-04-04 03:00:48.849377,2020-12-03 00:00:00.000000,2.21161107,3.22827469,4.13194588,663,968,1239,343,509,652,1.14395906,1.69824403,2.17602176,0.20098864,0.28107937,0.36133442
50005,0,USVermontCaledonia,Vermont,Caledonia,2021-04-04 03:00:48.849377,2020-12-04 00:00:00.000000,2.20122693,3.19603013,4.13914792,660,958,1241,344,507,654,1.15017498,1.69268610,2.18265357,0.20285945,0.27875297,0.35556886
50005,0,USVermontCaledonia,Vermont,Caledonia,2021-04-04 03:00:48.849377,2020-12-05 00:00:00.000000,2.18375356,3.15247891,4.12706908,654,945,1237,345,503,651,1.15054073,1.67837053,2.17114695,0.18626478,0.27223157,0.34468835
50005,0,USVermontCaledonia,Vermont,Caledonia,2021-04-04 03:00:48.849377,2020-12-06 00:00:00.000000,2.16244907,3.13366656,4.10835830,648,939,1232,343,496,645,1.14605301,1.65488491,2.15051332,0.18605987,0.26672331,0.34012163
50005,0,USVermontCaledonia,Vermont,Caledonia,2021-04-04 03:00:48.849377,2020-12-07 00:00:00.000000,2.14212869,3.08182328,4.07658682,642,924,1222,341,491,650,1.13814536,1.63911693,2.16962656,0.18608092,0.26459764,0.34194263
50005,0,USVermontCaledonia,Vermont,Caledonia,2021-04-04 03:00:48.849377,2020-12-08 00:00:00.000000,2.12129544,3.02762466,4.02664804,636,908,1207,338,488,656,1.12879114,1.62992069,2.18797835,0.19152682,0.26301428,0.34333399
50005,0,USVermontCaledonia,Vermont,Caledonia,2021-04-04 03:00:48.849377,2020-12-09 00:00:00.000000,2.10066771,3.01135930,3.98237791,630,903,1194,335,485,659,1.11864917,1.61915892,2.19761581,0.18609017,0.25997251,0.33682801
50005,0,USVermontCaledonia,Vermont,Caledonia,2021-04-04 03:00:48.849377,2020-12-10 00:00:00.000000,2.08028692,2.97783673,3.96992228,623,893,1190,332,480,655,1.10817932,1.60357570,2.18506648,0.18567394,0.25992368,0.33542781
50005,0,USVermontCaledonia,Vermont,Caledonia,2021-04-04 03:00:48.849377,2020-12-11 00:00:00.000000,2.06007167,2.93314690,3.93535063,617,879,1180,329,480,650,1.09762035,1.60236738,2.16895630,0.18556134,0.26114790,0.33712239
50005,0,USVermontCaledonia,Vermont,Caledonia,2021-04-04 03:00:48.849377,2020-12-12 00:00:00.000000,2.04005565,2.91158628,3.89920368,611,873,1169,326,475,639,1.08706523,1.58508684,2.13234755,0.19268305,0.25994720,0.33786733
50005,0,USVermontCaledonia,Vermont,Caledonia,2021-04-04 03:00:48.849377,2020-12-13 00:00:00.000000,2.02053176,2.89203760,3.86276505,606,867,1158,322,474,628,1.07656538,1.58068376,2.09571491,0.19909159,0.26248467,0.34436826
50005,0,USVermontCaledonia,Vermont,Caledonia,2021-04-04 03:00:48.849377,2020-12-14 00:00:00.000000,2.00527370,2.88996441,3.83618104,601,866,1150,319,473,620,1.06622357,1.57837908,2.06887743,0.20378401,0.26402268,0.35095025
50005,0,USVermontCaledonia,Vermont,Caledonia,2021-04-04 03:00:48.849377,2020-12-15 00:00:00.000000,1.99054926,2.84897330,3.80967814,597,854,1142,317,470,613,1.05705187,1.56768071,2.04685061,0.21199404,0.26504763,0.35154396
50005,0,USVermontCaledonia,Vermont,Caledonia,2021-04-04 03:00:48.849377,2020-12-16 00:00:00.000000,1.97628574,2.81843970,3.79329952,592,845,1137,314,466,607,1.04866229,1.55379369,2.02516796,0.21121317,0.26625726,0.35254585
50005,0,USVermontCaledonia,Vermont,Caledonia,2021-04-04 03:00:48.849377,2020-12-17 00:00:00.000000,1.96226976,2.80313899,3.81424072,588,840,1144,312,462,603,1.04076924,1.54336431,2.01361953,0.20967813,0.26796175,0.35352395
50005,0,USVermontCaledonia,Vermont,Caledonia,2021-04-04 03:00:48.849377,2020-12-18 00:00:00.000000,1.94840775,2.77065125,3.78036649,584,831,1133,309,458,602,1.03317800,1.52783174,2.00849867,0.20899978,0.27327889,0.35197396
50005,0,USVermontCaledonia,Vermont,Caledonia,2021-04-04 03:00:48.849377,2020-12-19 00:00:00.000000,1.93476048,2.75100378,3.74947588,580,825,1124,307,453,602,1.02577029,1.51323657,2.00892951,0.20859912,0.27702297,0.35207703
50005,0,USVermontCaledonia,Vermont,Caledonia,2021-04-04 03:00:48.849377,2020-12-20 00:00:00.000000,1.92162593,2.72473627,3.72072087,576,817,1115,305,450,594,1.01850507,1.50097535,1.98360268,0.20834964,0.27586743,0.36764092
50005,0,USVermontCaledonia,Vermont,Caledonia,2021-04-04 03:00:48.849377,2020-12-21 00:00:00.000000,1.93519137,2.70888260,3.70144733,580,812,1110,303,445,587,1.01144063,1.48642266,1.95853052,0.20850654,0.27962417,0.37392886
50005,0,USVermontCaledonia,Vermont,Caledonia,2021-04-04 03:00:48.849377,2020-12-22 00:00:00.000000,1.95768394,2.70432309,3.68199118,587,811,1104,302,442,584,1.00980690,1.47600033,1.94835329,0.20950623,0.27949729,0.37633589
50005,0,USVermontCaledonia,Vermont,Caledonia,2021-04-04 03:00:48.849377,2020-12-23 00:00:00.000000,1.97987535,2.66756489,3.66232578,593,800,1098,301,440,584,1.00600166,1.46782113,1.94718902,0.20920383,0.28064405,0.38760444
50005,0,USVermontCaledonia,Vermont,Caledonia,2021-04-04 03:00:48.849377,2020-12-24 00:00:00.000000,1.96964406,2.64347850,3.64041637,590,792,1091,296,434,584,0.98829142,1.44911543,1.94792982,0.20689352,0.28192517,0.38976898
50005,0,USVermontCaledonia,Vermont,Caledonia,2021-04-04 03:00:48.849377,2020-12-25 00:00:00.000000,1.93230422,2.64183156,3.62184249,579,792,1086,293,431,585,0.97990710,1.43871581,1.95145208,0.19846738,0.28508905,0.38771629
50005,0,USVermontCaledonia,Vermont,Caledonia,2021-04-04 03:00:48.849377,2020-12-26 00:00:00.000000,1.89572585,2.64205316,3.60015026,568,792,1079,292,427,587,0.97356946,1.42604272,1.95921154,0.19739625,0.29438156,0.39360363
50005,0,USVermontCaledonia,Vermont,Caledonia,2021-04-04 03:00:48.849377,2020-12-27 00:00:00.000000,1.86289568,2.62228670,3.57666547,558,786,1072,290,421,591,0.96781225,1.40638545,1.97250832,0.19718025,0.29649250,0.39516006
50005,0,USVermontCaledonia,Vermont,Caledonia,2021-04-04 03:00:48.849377,2020-12-28 00:00:00.000000,1.84870882,2.58550495,3.54669857,554,775,1063,288,419,597,0.96244498,1.39796957,1.99163459,0.19690199,0.29906165,0.39466851
50005,0,USVermontCaledonia,Vermont,Caledonia,2021-04-04 03:00:48.849377,2020-12-29 00:00:00.000000,1.85035388,2.55199901,3.56504731,554,765,1069,288,414,600,0.96155066,1.38088643,2.00145905,0.19628144,0.29924195,0.39482915
50005,0,USVermontCaledonia,Vermont,Caledonia,2021-04-04 03:00:48.849377,2020-12-30 00:00:00.000000,1.85956910,2.54556476,3.60917478,557,763,1082,288,412,595,0.96328004,1.37614264,1.98638956,0.19502915,0.29966607,0.39633801
50005,0,USVermontCaledonia,Vermont,Caledonia,2021-04-04 03:00:48.849377,2020-12-31 00:00:00.000000,1.86992707,2.53822754,3.64530441,560,761,1093,289,411,591,0.96659872,1.37252129,1.97076279,0.19319191,0.29772259,0.39798480
50005,0,USVermontCaledonia,Vermont,Caledonia,2021-04-04 03:00:48.849377,2021-01-01 00:00:00.000000,1.88149495,2.53524976,3.67122234,564,760,1101,291,410,586,0.97098082,1.37000570,1.95621543,0.19150165,0.29822718,0.39546412
50005,0,USVermontCaledonia,Vermont,Caledonia,2021-04-04 03:00:48.849377,2021-01-02 00:00:00.000000,1.89437461,2.50724600,3.68587197,568,751,1105,292,409,583,0.97619720,1.36380779,1.94483066,0.19052851,0.29493341,0.38537201
50005,0,USVermontCaledonia,Vermont,Caledonia,2021-04-04 03:00:48.849377,2021-01-03 00:00:00.000000,1.90854979,2.50087984,3.68043019,572,750,1103,294,404,581,0.98216925,1.34983347,1.93788501,0.19418503,0.29005949,0.38109850
50005,0,USVermontCaledonia,Vermont,Caledonia,2021-04-04 03:00:48.849377,2021-01-04 00:00:00.000000,1.89429161,2.46834734,3.65173358,568,740,1095,296,400,580,0.98885868,1.33418262,1.93517754,0.18991069,0.29081654,0.37115760
50005,0,USVermontCaledonia,Vermont,Caledonia,2021-04-04 03:00:48.849377,2021-01-05 00:00:00.000000,1.88670251,2.44881157,3.61272103,565,734,1083,297,393,580,0.99061897,1.31260503,1.93644282,0.18999332,0.28899995,0.37690454
50005,0,USVermontCaledonia,Vermont,Caledonia,2021-04-04 03:00:48.849377,2021-01-06 00:00:00.000000,1.88195060,2.42804856,3.56733586,564,728,1069,289,390,581,0.96664798,1.30078509,1.94041685,0.18895321,0.29052588,0.37612959
50005,0,USVermontCaledonia,Vermont,Caledonia,2021-04-04 03:00:48.849377,2021-01-07 00:00:00.000000,1.82173703,2.39795248,3.51650683,546,719,1054,282,387,583,0.94042636,1.29097557,1.94596558,0.18360999,0.29354702,0.37397161
50005,0,USVermontCaledonia,Vermont,Caledonia,2021-04-04 03:00:48.849377,2021-01-08 00:00:00.000000,1.78731353,2.37004615,3.46113664,536,710,1038,273,382,585,0.91308279,1.27552517,1.95172849,0.18326649,0.29318537,0.37168530
50005,0,USVermontCaledonia,Vermont,Caledonia,2021-04-04 03:00:48.849377,2021-01-09 00:00:00.000000,1.76662301,2.35236640,3.40220294,529,705,1020,273,379,586,0.91149225,1.26671900,1.95533373,0.18383373,0.29093696,0.37348105
50005,0,USVermontCaledonia,Vermont,Caledonia,2021-04-04 03:00:48.849377,2021-01-10 00:00:00.000000,1.73782897,2.33718086,3.34058471,521,700,1001,274,376,586,0.91395390,1.25518297,1.95379010,0.19512843,0.29402131,0.36860662
50005,0,USVermontCaledonia,Vermont,Caledonia,2021-04-04 03:00:48.849377,2021-01-11 00:00:00.000000,1.71646552,2.31871689,3.29874751,514,695,989,274,375,583,0.91591520,1.25064520,1.94608677,0.19297001,0.28880619,0.37350901
50005,0,USVermontCaledonia,Vermont,Caledonia,2021-04-04 03:00:48.849377,2021-01-12 00:00:00.000000,1.69860022,2.32122475,3.25562669,509,696,976,273,373,579,0.91284892,1.24641385,1.93303754,0.19898581,0.29012479,0.37587496
50005,0,USVermontCaledonia,Vermont,Caledonia,2021-04-04 03:00:48.849377,2021-01-13 00:00:00.000000,1.68392662,2.30513883,3.21171098,505,691,963,269,372,574,0.89984055,1.24057500,1.91630637,0.19980594,0.29316071,0.38225000
50005,0,USVermontCaledonia,Vermont,Caledonia,2021-04-04 03:00:48.849377,2021-01-14 00:00:00.000000,1.67313837,2.28235288,3.16669733,501,684,949,266,370,569,0.88971788,1.23412943,1.89751640,0.20036934,0.29156709,0.38297870
50005,0,USVermontCaledonia,Vermont,Caledonia,2021-04-04 03:00:48.849377,2021-01-15 00:00:00.000000,1.66836636,2.26412840,3.12035715,500,679,935,264,368,563,0.88198843,1.22889624,1.87821190,0.19375338,0.29663817,0.38635200
50005,0,USVermontCaledonia,Vermont,Caledonia,2021-04-04 03:00:48.849377,2021-01-16 00:00:00.000000,1.66604681,2.24185690,3.08880213,499,672,926,262,366,557,0.87678505,1.22335506,1.85993470,0.19107282,0.30269225,0.38611352
50005,0,USVermontCaledonia,Vermont,Caledonia,2021-04-04 03:00:48.849377,2021-01-17 00:00:00.000000,1.63536230,2.23116287,3.07774871,490,669,923,262,364,553,0.87455029,1.21536142,1.84420748,0.20071107,0.31669834,0.39036761
50005,0,USVermontCaledonia,Vermont,Caledonia,2021-04-04 03:00:48.849377,2021-01-18 00:00:00.000000,1.62294202,2.23760049,3.06266450,486,671,918,262,361,549,0.87553566,1.20413859,1.83230713,0.19848113,0.31995827,0.39888072
50005,0,USVermontCaledonia,Vermont,Caledonia,2021-04-04 03:00:48.849377,2021-01-19 00:00:00.000000,1.61660886,2.22120810,3.04783066,484,666,914,263,359,545,0.87874517,1.19900913,1.81963653,0.20090848,0.32820077,0.41064486
50005,0,USVermontCaledonia,Vermont,Caledonia,2021-04-04 03:00:48.849377,2021-01-20 00:00:00.000000,1.63149103,2.18835491,3.03416975,489,656,910,264,357,540,0.88232470,1.19348164,1.80182168,0.21484175,0.33458290,0.41642440
50005,0,USVermontCaledonia,Vermont,Caledonia,2021-04-04 03:00:48.849377,2021-01-21 00:00:00.000000,1.63005283,2.17719830,3.02275138,488,653,906,263,356,535,0.88007366,1.19024120,1.78650585,0.21620265,0.33812104,0.41928796
50005,0,USVermontCaledonia,Vermont,Caledonia,2021-04-04 03:00:48.849377,2021-01-22 00:00:00.000000,1.60895097,2.19186876,3.01332332,482,657,903,263,357,531,0.87795760,1.19307229,1.77303560,0.22177509,0.33557940,0.41987348
50005,0,USVermontCaledonia,Vermont,Caledonia,2021-04-04 03:00:48.849377,2021-01-23 00:00:00.000000,1.58818286,2.21021918,3.00488590,476,662,901,262,359,528,0.87605421,1.19935611,1.76156461,0.20235507,0.33603127,0.43822485
50005,0,USVermontCaledonia,Vermont,Caledonia,2021-04-04 03:00:48.849377,2021-01-24 00:00:00.000000,1.56819707,2.21500491,2.99668638,470,664,898,262,361,525,0.87482747,1.20631009,1.75253409,0.20245851,0.34006337,0.44832340
50005,0,USVermontCaledonia,Vermont,Caledonia,2021-04-04 03:00:48.849377,2021-01-25 00:00:00.000000,1.54926001,2.22617851,2.98704193,464,667,895,262,364,523,0.87437391,1.21363774,1.74543348,0.21770975,0.34183994,0.45586785
50005,0,USVermontCaledonia,Vermont,Caledonia,2021-04-04 03:00:48.849377,2021-01-26 00:00:00.000000,1.54794630,2.24127070,2.97726246,464,672,892,259,365,520,0.86640961,1.21858329,1.73618148,0.23259431,0.33954449,0.45684593
50005,0,USVermontCaledonia,Vermont,Caledonia,2021-04-04 03:00:48.849377,2021-01-27 00:00:00.000000,1.55470253,2.25714428,2.96747205,466,676,890,256,367,517,0.85661711,1.22566760,1.72544217,0.23448202,0.34394602,0.44098585
50005,0,USVermontCaledonia,Vermont,Caledonia,2021-04-04 03:00:48.849377,2021-01-28 00:00:00.000000,1.56105531,2.26836686,2.95801826,468,680,887,254,370,514,0.84829938,1.23498114,1.71390376,0.23202136,0.34350741,0.43051124
50005,0,USVermontCaledonia,Vermont,Caledonia,2021-04-04 03:00:48.849377,2021-01-29 00:00:00.000000,1.56694096,2.27573654,2.94774487,469,682,884,255,371,510,0.85195725,1.23873125,1.70275891,0.22793699,0.34655974,0.43283833
50005,0,USVermontCaledonia,Vermont,Caledonia,2021-04-04 03:00:48.849377,2021-01-30 00:00:00.000000,1.57220435,2.29186645,2.90298791,471,687,870,256,373,507,0.85540226,1.24443578,1.69263104,0.22266622,0.34370570,0.43231918
50005,0,USVermontCaledonia,Vermont,Caledonia,2021-04-04 03:00:48.849377,2021-01-31 00:00:00.000000,1.57670173,2.28952553,2.89221224,472,686,867,257,374,502,0.85854177,1.24950636,1.67449254,0.21224662,0.34006884,0.42717323
50005,0,USVermontCaledonia,Vermont,Caledonia,2021-04-04 03:00:48.849377,2021-02-01 00:00:00.000000,1.57984124,2.30013478,2.88502589,473,689,865,257,377,497,0.85695499,1.25750813,1.65826513,0.20917410,0.33200765,0.42191593
50005,0,USVermontCaledonia,Vermont,Caledonia,2021-04-04 03:00:48.849377,2021-02-02 00:00:00.000000,1.58245827,2.32062112,2.87746367,474,696,863,255,376,495,0.85047923,1.25613653,1.65258912,0.20911100,0.32453038,0.41734578
50005,0,USVermontCaledonia,Vermont,Caledonia,2021-04-04 03:00:48.849377,2021-02-03 00:00:00.000000,1.58475619,2.30526195,2.86941451,475,691,860,253,374,497,0.84520532,1.25016028,1.65941349,0.20921079,0.32404053,0.42099128
50005,0,USVermontCaledonia,Vermont,Caledonia,2021-04-04 03:00:48.849377,2021-02-04 00:00:00.000000,1.58687020,2.29031991,2.87414238,475,686,862,252,371,495,0.84076343,1.24023562,1.65206798,0.20944858,0.32368759,0.42202372
50005,0,USVermontCaledonia,Vermont,Caledonia,2021-04-04 03:00:48.849377,2021-02-05 00:00:00.000000,1.58868634,2.28802868,2.89588737,476,686,868,250,368,493,0.83678467,1.22834920,1.64471844,0.20999232,0.32448769,0.42321946
50005,0,USVermontCaledonia,Vermont,Caledonia,2021-04-04 03:00:48.849377,2021-02-06 00:00:00.000000,1.58993868,2.27318928,2.89803333,476,681,869,249,367,496,0.83261243,1.22625291,1.65635629,0.21114890,0.32446858,0.42151047
50005,0,USVermontCaledonia,Vermont,Caledonia,2021-04-04 03:00:48.849377,2021-02-07 00:00:00.000000,1.57269279,2.28562653,2.88620374,471,685,865,247,368,494,0.82668950,1.22745827,1.64937047,0.21235627,0.32304805,0.41219503
50005,0,USVermontCaledonia,Vermont,Caledonia,2021-04-04 03:00:48.849377,2021-02-08 00:00:00.000000,1.55881348,2.27541240,2.87089630,467,682,861,245,364,491,0.81753501,1.21691957,1.63833834,0.21438716,0.32839425,0.41339225
50005,0,USVermontCaledonia,Vermont,Caledonia,2021-04-04 03:00:48.849377,2021-02-09 00:00:00.000000,1.53826894,2.24756474,2.85307775,461,674,855,243,363,488,0.81128745,1.21128824,1.62740337,0.21567861,0.33129434,0.42010374
50005,0,USVermontCaledonia,Vermont,Caledonia,2021-04-04 03:00:48.849377,2021-02-10 00:00:00.000000,1.51736143,2.22490418,2.83335713,455,667,849,240,362,485,0.80065144,1.20711679,1.61884680,0.21935482,0.33469552,0.42361083
50005,0,USVermontCaledonia,Vermont,Caledonia,2021-04-04 03:00:48.849377,2021-02-11 00:00:00.000000,1.50996609,2.22706114,2.81364646,452,667,843,237,364,483,0.79239909,1.21661254,1.61183377,0.22161369,0.34074083,0.43702166
50005,0,USVermontCaledonia,Vermont,Caledonia,2021-04-04 03:00:48.849377,2021-02-12 00:00:00.000000,1.50358358,2.23071562,2.81363404,450,669,843,235,364,482,0.78443765,1.21644840,1.60998266,0.22981096,0.35142358,0.44554021
50005,0,USVermontCaledonia,Vermont,Caledonia,2021-04-04 03:00:48.849377,2021-02-13 00:00:00.000000,1.51449266,2.23637187,2.84182070,454,670,852,233,363,484,0.77755847,1.21270256,1.61400075,0.24547355,0.35773958,0.46333215
50005,0,USVermontCaledonia,Vermont,Caledonia,2021-04-04 03:00:48.849377,2021-02-14 00:00:00.000000,1.53547411,2.24414702,2.87671297,460,673,862,232,361,487,0.77610615,1.20636333,1.62383410,0.25960802,0.36847040,0.47636765
50005,0,USVermontCaledonia,Vermont,Caledonia,2021-04-04 03:00:48.849377,2021-02-15 00:00:00.000000,1.55549120,2.25370892,2.91826521,466,675,875,235,361,486,0.78530207,1.20484020,1.62354872,0.26376922,0.38027548,0.49299558
50005,0,USVermontCaledonia,Vermont,Caledonia,2021-04-04 03:00:48.849377,2021-02-16 00:00:00.000000,1.57608023,2.27917545,2.99232867,472,683,897,240,360,485,0.80136669,1.20330957,1.62004260,0.26992640,0.39573028,0.52486225
50005,0,USVermontCaledonia,Vermont,Caledonia,2021-04-04 03:00:48.849377,2021-02-17 00:00:00.000000,1.59843341,2.29933321,3.07249617,479,689,921,245,361,491,0.81992285,1.20438676,1.63922011,0.28126292,0.41307013,0.54097086
50005,0,USVermontCaledonia,Vermont,Caledonia,2021-04-04 03:00:48.849377,2021-02-18 00:00:00.000000,1.63238410,2.29882236,3.11804201,489,689,935,250,363,499,0.83399383,1.21104365,1.66600896,0.29020650,0.42311426,0.56599081
50005,0,USVermontCaledonia,Vermont,Caledonia,2021-04-04 03:00:48.849377,2021-02-19 00:00:00.000000,1.66844961,2.37319320,3.16316087,500,711,948,255,367,509,0.85116212,1.22590745,1.69976554,0.29955629,0.43899559,0.60540026
50005,0,USVermontCaledonia,Vermont,Caledonia,2021-04-04 03:00:48.849377,2021-02-20 00:00:00.000000,1.70978473,2.41421919,3.20795115,512,724,962,261,372,521,0.87321343,1.24195144,1.73921908,0.31899608,0.46048808,0.62325695
50005,0,USVermontCaledonia,Vermont,Caledonia,2021-04-04 03:00:48.849377,2021-02-21 00:00:00.000000,1.75440618,2.49021665,3.25250804,526,746,975,268,376,534,0.89459121,1.25585808,1.78302346,0.34827036,0.48347511,0.62863066
50005,0,USVermontCaledonia,Vermont,Caledonia,2021-04-04 03:00:48.849377,2021-02-22 00:00:00.000000,1.81474669,2.55917204,3.37513995,544,767,1012,272,382,548,0.90944701,1.27507822,1.83006334,0.35646657,0.49632741,0.63877151
50005,0,USVermontCaledonia,Vermont,Caledonia,2021-04-04 03:00:48.849377,2021-02-23 00:00:00.000000,1.89362330,2.63804057,3.51345865,567,791,1053,276,387,562,0.92334121,1.29355172,1.87622982,0.35793846,0.50825109,0.64161844
50005,0,USVermontCaledonia,Vermont,Caledonia,2021-04-04 03:00:48.849377,2021-02-24 00:00:00.000000,1.98019082,2.73570934,3.65485496,593,820,1096,289,399,584,0.96407573,1.33221989,1.94761374,0.35826821,0.51410252,0.63291944
50005,0,USVermontCaledonia,Vermont,Caledonia,2021-04-04 03:00:48.849377,2021-02-25 00:00:00.000000,2.05015172,2.83237651,3.79873997,614,849,1139,295,411,607,0.98681798,1.37356649,2.02411995,0.36309353,0.52160114,0.63746523
50005,0,USVermontCaledonia,Vermont,Caledonia,2021-04-04 03:00:48.849377,2021-02-26 00:00:00.000000,2.09800278,2.94278415,3.93276622,629,882,1179,303,422,631,1.01116012,1.41020682,2.10413400,0.36772991,0.52495052,0.64049276
50005,0,USVermontCaledonia,Vermont,Caledonia,2021-04-04 03:00:48.849377,2021-02-27 00:00:00.000000,2.15581196,3.06721056,4.04004984,646,919,1211,311,434,655,1.03702582,1.44858532,2.18547330,0.36839949,0.52565087,0.64667463
50005,0,USVermontCaledonia,Vermont,Caledonia,2021-04-04 03:00:48.849377,2021-02-28 00:00:00.000000,2.22532008,3.16737567,4.17041903,667,949,1250,319,447,664,1.06462128,1.49346845,2.21648518,0.36592542,0.52724555,0.67373057
50005,0,USVermontCaledonia,Vermont,Caledonia,2021-04-04 03:00:48.849377,2021-03-01 00:00:00.000000,2.30318689,3.27313980,4.26872449,690,981,1280,328,464,673,1.09414427,1.54801131,2.24687623,0.36782957,0.53136854,0.69823563
50005,0,USVermontCaledonia,Vermont,Caledonia,2021-04-04 03:00:48.849377,2021-03-02 00:00:00.000000,2.39008282,3.39473312,4.35600034,716,1018,1306,337,477,682,1.12518721,1.59144956,2.27634193,0.37110228,0.53230288,0.68381826
50005,0,USVermontCaledonia,Vermont,Caledonia,2021-04-04 03:00:48.849377,2021-03-03 00:00:00.000000,2.48789088,3.52196698,4.43766928,746,1056,1330,347,495,695,1.15812467,1.65282887,2.31911860,0.37650683,0.53571933,0.66703289
50005,0,USVermontCaledonia,Vermont,Caledonia,2021-04-04 03:00:48.849377,2021-03-04 00:00:00.000000,2.59971653,3.59228068,4.55497671,779,1077,1366,357,510,724,1.19311971,1.70205606,2.41556735,0.38475850,0.54608400,0.66871835
50005,0,USVermontCaledonia,Vermont,Caledonia,2021-04-04 03:00:48.849377,2021-03-05 00:00:00.000000,2.72554817,3.72320067,4.68353670,817,1116,1404,368,529,734,1.23012570,1.76632578,2.45020765,0.39593630,0.55200916,0.68203364
50005,0,USVermontCaledonia,Vermont,Caledonia,2021-04-04 03:00:48.849377,2021-03-06 00:00:00.000000,2.83755392,3.88169660,4.86448868,851,1164,1459,380,546,744,1.26895335,1.82344365,2.48293711,0.40885207,0.55565107,0.69540313
50005,0,USVermontCaledonia,Vermont,Caledonia,2021-04-04 03:00:48.849377,2021-03-07 00:00:00.000000,2.95255077,4.02484456,5.15166025,885,1207,1545,392,565,768,1.30863569,1.88462594,2.56262072,0.41254375,0.55713877,0.76763337
50005,0,USVermontCaledonia,Vermont,Caledonia,2021-04-04 03:00:48.849377,2021-03-08 00:00:00.000000,3.07881806,4.16925352,5.46268388,923,1250,1638,408,586,800,1.36300592,1.95427988,2.66889321,0.41968658,0.57145066,0.75266233
50005,0,USVermontCaledonia,Vermont,Caledonia,2021-04-04 03:00:48.849377,2021-03-09 00:00:00.000000,3.23576210,4.33894334,5.63181889,970,1301,1689,429,611,833,1.43083613,2.04046891,2.77968334,0.43273121,0.58111870,0.75731729
50005,0,USVermontCaledonia,Vermont,Caledonia,2021-04-04 03:00:48.849377,2021-03-10 00:00:00.000000,3.39785311,4.50014623,5.92537701,1019,1349,1777,450,631,859,1.50292800,2.10700702,2.86403696,0.43027413,0.59375547,0.77342227
50005,0,USVermontCaledonia,Vermont,Caledonia,2021-04-04 03:00:48.849377,2021-03-11 00:00:00.000000,3.51472544,4.65634606,6.25691565,1054,1396,1876,473,650,875,1.58022210,2.16880220,2.91877105,0.44703001,0.62345356,0.85332041
50005,0,USVermontCaledonia,Vermont,Caledonia,2021-04-04 03:00:48.849377,2021-03-12 00:00:00.000000,3.66948919,4.86001118,6.56287409,1100,1457,1968,499,681,894,1.66432818,2.27089893,2.98345255,0.46362597,0.64266972,0.92809992
50005,0,USVermontCaledonia,Vermont,Caledonia,2021-04-04 03:00:48.849377,2021-03-13 00:00:00.000000,3.83890611,5.11080049,6.88193277,1151,1532,2064,526,707,924,1.75685467,2.35761869,3.08149687,0.47945122,0.65983694,0.96857977
50005,0,USVermontCaledonia,Vermont,Caledonia,2021-04-04 03:00:48.849377,2021-03-14 00:00:00.000000,4.01390607,5.35868914,7.30314737,1203,1607,2190,559,743,965,1.86701933,2.47905226,3.22021123,0.50901743,0.69980702,1.00565280
50005,0,USVermontCaledonia,Vermont,Caledonia,2021-04-04 03:00:48.849377,2021-03-15 00:00:00.000000,4.19703487,5.65724964,7.74378544,1258,1696,2322,601,783,1010,2.00568279,2.61182494,3.37078039,0.53508138,0.72968726,1.01387551
50005,0,USVermontCaledonia,Vermont,Caledonia,2021-04-04 03:00:48.849377,2021-03-16 00:00:00.000000,4.38786881,5.93725017,8.34359779,1316,1780,2502,623,833,1067,2.07877601,2.77816196,3.55833973,0.56126614,0.74802532,1.03040295
50005,0,USVermontCaledonia,Vermont,Caledonia,2021-04-04 03:00:48.849377,2021-03-17 00:00:00.000000,4.68745614,6.28741408,8.98894137,1405,1885,2696,659,882,1140,2.19991010,2.94217864,3.80280020,0.56137484,0.76839112,1.07085179
50005,0,USVermontCaledonia,Vermont,Caledonia,2021-04-04 03:00:48.849377,2021-03-18 00:00:00.000000,5.01817534,6.69048832,9.41190786,1505,2006,2822,704,938,1222,2.34842464,3.12950090,4.07625931,0.56161607,0.77861838,1.08764762
50005,0,USVermontCaledonia,Vermont,Caledonia,2021-04-04 03:00:48.849377,2021-03-19 00:00:00.000000,5.33913198,7.10843293,9.84552863,1601,2132,2952,752,995,1286,2.50844568,3.31877047,4.28858091,0.56549405,0.81238221,1.09697438
50005,0,USVermontCaledonia,Vermont,Caledonia,2021-04-04 03:00:48.849377,2021-03-20 00:00:00.000000,5.66797435,7.54416363,10.29367313,1699,2262,3087,789,1062,1353,2.63305214,3.54323192,4.51430886,0.59188950,0.83594210,1.12356681
50005,0,USVermontCaledonia,Vermont,Caledonia,2021-04-04 03:00:48.849377,2021-03-21 00:00:00.000000,6.00859224,8.02772850,10.94085964,1802,2407,3281,839,1131,1425,2.79933657,3.77178659,4.75414771,0.62515562,0.85648310,1.12014323
50005,0,USVermontCaledonia,Vermont,Caledonia,2021-04-04 03:00:48.849377,2021-03-22 00:00:00.000000,6.36268074,8.54980707,11.68302695,1908,2564,3504,891,1199,1501,2.97168837,4.00034577,5.00729374,0.62984845,0.87422035,1.19078490
50005,0,USVermontCaledonia,Vermont,Caledonia,2021-04-04 03:00:48.849377,2021-03-23 00:00:00.000000,6.72617444,9.10281387,12.44961417,2017,2730,3734,945,1273,1595,3.15087802,4.24461095,5.31875931,0.62649710,0.90351429,1.18723304
50005,0,USVermontCaledonia,Vermont,Caledonia,2021-04-04 03:00:48.849377,2021-03-24 00:00:00.000000,7.09834065,9.69764467,13.23783273,2129,2908,3970,1000,1358,1698,3.33629267,4.52970347,5.66282943,0.62601336,0.90236317,1.24214961
50005,0,USVermontCaledonia,Vermont,Caledonia,2021-04-04 03:00:48.849377,2021-03-25 00:00:00.000000,7.47879723,10.28440880,14.04418965,2243,3084,4212,1050,1437,1820,3.50182682,4.79312223,6.07046138,0.62716225,0.89517278,1.37291563
50005,0,USVermontCaledonia,Vermont,Caledonia,2021-04-04 03:00:48.849377,2021-03-26 00:00:00.000000,7.86733575,10.89535264,14.86442362,2359,3267,4458,1102,1526,1954,3.67641263,5.09075540,6.51794328,0.62850398,0.90638689,1.44938390
50005,0,USVermontCaledonia,Vermont,Caledonia,2021-04-04 03:00:48.849377,2021-03-27 00:00:00.000000,8.25976525,11.45180049,15.69318317,2477,3434,4706,1167,1611,2090,3.89193335,5.37231103,6.97062828,0.62969468,0.91203199,1.45701704
50005,0,USVermontCaledonia,Vermont,Caledonia,2021-04-04 03:00:48.849377,2021-03-28 00:00:00.000000,8.65504947,11.99121295,16.52413040,2595,3596,4956,1236,1700,2226,4.12203918,5.66993677,7.42423577,0.63029283,0.92015542,1.47643791
50005,0,USVermontCaledonia,Vermont,Caledonia,2021-04-04 03:00:48.849377,2021-03-29 00:00:00.000000,9.05187242,12.57589583,17.34726516,2714,3771,5202,1297,1791,2362,4.32671795,5.97293254,7.87779742,0.61765315,0.91649677,1.52301602
50005,0,USVermontCaledonia,Vermont,Caledonia,2021-04-04 03:00:48.849377,2021-03-30 00:00:00.000000,9.48655728,13.11005522,18.15707064,2845,3932,5445,1359,1892,2491,4.53293808,6.30847347,8.30593034,0.59765239,0.91830745,1.57490616
50005,0,USVermontCaledonia,Vermont,Caledonia,2021-04-04 03:00:48.849377,2021-03-31 00:00:00.000000,9.94828965,13.71141070,18.90930690,2983,4112,5671,1424,1993,2577,4.74909556,6.64578445,8.59201847,0.57054349,0.92319540,1.58050362
50005,0,USVermontCaledonia,Vermont,Caledonia,2021-04-04 03:00:48.849377,2021-04-01 00:00:00.000000,10.40385793,14.22139156,19.25732320,3120,4265,5775,1493,2095,2652,4.97878621,6.98754001,8.84457554,0.57850585,0.92705654,1.60534231
50005,0,USVermontCaledonia,Vermont,Caledonia,2021-04-04 03:00:48.849377,2021-04-02 00:00:00.000000,10.85102153,14.74914596,19.53468599,3254,4423,5859,1563,2192,2752,5.21316566,7.30850048,9.17562270,0.55255274,0.93660427,1.60508571
50005,0,USVermontCaledonia,Vermont,Caledonia,2021-04-04 03:00:48.849377,2021-04-03 00:00:00.000000,10.95948944,15.13812490,19.75890869,3287,4540,5926,1633,2282,2895,5.44658909,7.61155182,9.65539100,0.49812704,0.92537326,1.64474185
50005,0,USVermontCaledonia,Vermont,Caledonia,2021-04-04 03:00:48.849377,2021-04-04 00:00:00.000000,10.92934072,15.56675758,20.71590479,3278,4668,6213,1664,2348,3007,5.55122169,7.83162928,10.02831193,0.48526126,0.94310667,1.73194448
50005,0,USVermontCaledonia,Vermont,Caledonia,2021-04-04 03:00:48.849377,2021-04-05 00:00:00.000000,10.85990957,15.86926764,21.86510415,3257,4759,6558,1694,2400,3159,5.65018847,8.00267159,10.53376690,0.45199288,0.94014121,1.78673004
50005,0,USVermontCaledonia,Vermont,Caledonia,2021-04-04 03:00:48.849377,2021-04-06 00:00:00.000000,10.75947086,16.23644532,22.51221834,3227,4869,6752,1719,2443,3291,5.73323020,8.14590266,10.97334768,0.43658208,0.94663754,1.78941552
50005,0,USVermontCaledonia,Vermont,Caledonia,2021-04-04 03:00:48.849377,2021-04-07 00:00:00.000000,10.77184117,16.49737301,22.85148431,3230,4948,6853,1709,2482,3402,5.70075571,8.27805051,11.34367390,0.43383200,0.94234721,1.79028705
50005,0,USVermontCaledonia,Vermont,Caledonia,2021-04-04 03:00:48.849377,2021-04-08 00:00:00.000000,10.93286180,16.78912995,23.12210876,3279,5035,6935,1739,2518,3498,5.79906313,8.39818198,11.66556533,0.43292526,0.93930601,1.82299425
50005,0,USVermontCaledonia,Vermont,Caledonia,2021-04-04 03:00:48.849377,2021-04-09 00:00:00.000000,11.06843983,16.91224124,23.32115718,3319,5072,6994,1769,2562,3580,5.89856982,8.54390597,11.93617574,0.43255535,0.93865407,1.82873078
50005,0,USVermontCaledonia,Vermont,Caledonia,2021-04-04 03:00:48.849377,2021-04-10 00:00:00.000000,11.17743023,17.08929755,23.44668180,3352,5125,7032,1794,2604,3644,5.98448583,8.68244582,12.15077771,0.43240227,0.93853730,1.82968617
50005,0,USVermontCaledonia,Vermont,Caledonia,2021-04-04 03:00:48.849377,2021-04-11 00:00:00.000000,11.25885928,17.13422183,23.67231555,3376,5139,7100,1806,2640,3690,6.02353201,8.80497633,12.30570631,0.43233791,0.93852630,1.82984447
50005,0,USVermontCaledonia,Vermont,Caledonia,2021-04-04 03:00:48.849377,2021-04-12 00:00:00.000000,11.08946135,17.14620842,23.84081517,3326,5142,7150,1811,2675,3718,6.04041429,8.92194635,12.39849934,0.43231042,0.93853094,1.82987089
50005,0,USVermontCaledonia,Vermont,Caledonia,2021-04-04 03:00:48.849377,2021-04-13 00:00:00.000000,10.79768787,17.02587394,23.76459360,3238,5106,7127,1799,2699,3727,5.99873690,9.00192857,12.42798407,0.43229850,0.93853519,1.82987539
50005,0,USVermontCaledonia,Vermont,Caledonia,2021-04-04 03:00:48.849377,2021-04-14 00:00:00.000000,10.49925528,16.84277823,23.58620955,3149,5051,7074,1756,2716,3717,5.85492285,9.05714064,12.39430535,0.43229326,0.93853757,1.82987618
50005,0,USVermontCaledonia,Vermont,Caledonia,2021-04-04 03:00:48.849377,2021-04-15 00:00:00.000000,10.19557943,16.60004264,23.33248460,3057,4978,6998,1711,2725,3688,5.70633900,9.08869534,12.29889449,0.43229092,0.93853873,1.82987633
50005,0,USVermontCaledonia,Vermont,Caledonia,2021-04-04 03:00:48.849377,2021-04-16 00:00:00.000000,9.88801535,16.30157083,23.00750364,2965,4889,6900,1665,2714,3712,5.55379336,9.05158133,12.37651404,0.43228988,0.93853926,1.82987637
