FIPS,HR_UID,nameid,province,region,analysisTime,dates,pointprevalence_025,pointprevalence_50,pointprevalence_975,pointinfections_025,pointinfections_50,pointinfections_975,pointinfectious_025,pointinfectious_50,pointinfectious_975,pointinfectiousprevalence_05,pointinfectiousprevalence_50,pointinfectiousprevalence_95,infectrate_025,infectrate_50,infectrate_975
5077,0,USArkansasLee,Arkansas,Lee,2021-04-04 13:36:50.553981,2020-03-09 00:00:00.000000,0.00127559,0.02257949,0.06473770,0,1,5,0,1,3,0.00077010,0.01312276,0.04474824,0.31728379,0.45753566,0.60087023
5077,0,USArkansasLee,Arkansas,Lee,2021-04-04 13:36:50.553981,2020-03-10 00:00:00.000000,0.00133561,0.02435056,0.06979809,0,2,6,0,1,3,0.00079798,0.01411577,0.04394774,0.31728364,0.45751633,0.59910343
5077,0,USArkansasLee,Arkansas,Lee,2021-04-04 13:36:50.553981,2020-03-11 00:00:00.000000,0.00140125,0.02591843,0.07541564,0,2,6,0,1,3,0.00083586,0.01464576,0.04503427,0.31728327,0.45748911,0.59626012
5077,0,USArkansasLee,Arkansas,Lee,2021-04-04 13:36:50.553981,2020-03-12 00:00:00.000000,0.00147090,0.02701185,0.08148584,0,2,7,0,1,4,0.00087833,0.01581407,0.04782036,0.31728235,0.45598441,0.59172414
5077,0,USArkansasLee,Arkansas,Lee,2021-04-04 13:36:50.553981,2020-03-13 00:00:00.000000,0.00154412,0.02908730,0.08806576,0,2,7,0,1,4,0.00092351,0.01697738,0.05110806,0.31728007,0.45464591,0.58825640
5077,0,USArkansasLee,Arkansas,Lee,2021-04-04 13:36:50.553981,2020-03-14 00:00:00.000000,0.00162086,0.03099309,0.09519692,0,2,8,0,1,4,0.00097085,0.01843101,0.05477189,0.31727439,0.45279291,0.58615277
5077,0,USArkansasLee,Arkansas,Lee,2021-04-04 13:36:50.553981,2020-03-15 00:00:00.000000,0.00170127,0.03324734,0.10395603,0,2,9,0,1,5,0.00102026,0.02014526,0.05877830,0.31726023,0.45069851,0.58565495
5077,0,USArkansasLee,Arkansas,Lee,2021-04-04 13:36:50.553981,2020-03-16 00:00:00.000000,0.01053708,0.04498298,0.12134950,0,3,10,0,1,5,0.00107182,0.02142986,0.06312275,0.31722488,0.44793077,0.58401650
5077,0,USArkansasLee,Arkansas,Lee,2021-04-04 13:36:50.553981,2020-03-17 00:00:00.000000,0.01834361,0.05528250,0.14272649,1,4,12,0,2,6,0.00477936,0.02699079,0.07390402,0.30611381,0.43627304,0.57652960
5077,0,USArkansasLee,Arkansas,Lee,2021-04-04 13:36:50.553981,2020-03-18 00:00:00.000000,0.02618331,0.06573231,0.16722018,2,5,14,0,2,8,0.00957911,0.03379514,0.09075259,0.30362925,0.42192797,0.56155049
5077,0,USArkansasLee,Arkansas,Lee,2021-04-04 13:36:50.553981,2020-03-19 00:00:00.000000,0.03141081,0.07595079,0.19154932,2,6,16,1,3,9,0.01485393,0.03938215,0.10280464,0.29156892,0.40438537,0.52329723
5077,0,USArkansasLee,Arkansas,Lee,2021-04-04 13:36:50.553981,2020-03-20 00:00:00.000000,0.03701068,0.08880794,0.21335103,3,7,18,1,4,10,0.01827131,0.04788390,0.11854141,0.27196010,0.38209193,0.49896902
5077,0,USArkansasLee,Arkansas,Lee,2021-04-04 13:36:50.553981,2020-03-21 00:00:00.000000,0.04438213,0.10286108,0.23278271,3,9,20,1,5,11,0.02250978,0.05789618,0.13316046,0.25559551,0.35157962,0.46196682
5077,0,USArkansasLee,Arkansas,Lee,2021-04-04 13:36:50.553981,2020-03-22 00:00:00.000000,0.05278695,0.11358236,0.24961291,4,10,22,2,5,12,0.02785614,0.06645581,0.14659835,0.24832649,0.33299615,0.45829464
5077,0,USArkansasLee,Arkansas,Lee,2021-04-04 13:36:50.553981,2020-03-23 00:00:00.000000,0.06439820,0.12751415,0.25992667,5,11,23,2,6,14,0.03350231,0.07436176,0.15856044,0.23880429,0.31967510,0.45495055
5077,0,USArkansasLee,Arkansas,Lee,2021-04-04 13:36:50.553981,2020-03-24 00:00:00.000000,0.07825085,0.14377460,0.26896231,6,12,23,3,7,14,0.04219061,0.08483248,0.16730881,0.22615400,0.30170372,0.43737989
5077,0,USArkansasLee,Arkansas,Lee,2021-04-04 13:36:50.553981,2020-03-25 00:00:00.000000,0.08550206,0.15577388,0.28273210,7,13,25,4,8,15,0.04579973,0.09497329,0.17429663,0.21699792,0.28937172,0.40948446
5077,0,USArkansasLee,Arkansas,Lee,2021-04-04 13:36:50.553981,2020-03-26 00:00:00.000000,0.09263146,0.16802262,0.30487974,8,14,27,4,9,16,0.05551590,0.10321734,0.18784163,0.19733129,0.27724649,0.38361777
5077,0,USArkansasLee,Arkansas,Lee,2021-04-04 13:36:50.553981,2020-03-27 00:00:00.000000,0.09919671,0.18238618,0.32387311,8,16,28,5,9,17,0.06034563,0.11148308,0.19742732,0.18020793,0.26719832,0.35160107
5077,0,USArkansasLee,Arkansas,Lee,2021-04-04 13:36:50.553981,2020-03-28 00:00:00.000000,0.10524103,0.18978626,0.34030867,9,16,30,5,10,18,0.06489047,0.11987708,0.20691097,0.16970597,0.25177563,0.34158384
5077,0,USArkansasLee,Arkansas,Lee,2021-04-04 13:36:50.553981,2020-03-29 00:00:00.000000,0.11262103,0.20083894,0.35773284,9,17,31,6,11,19,0.06910432,0.12621603,0.21627055,0.16384041,0.24172732,0.33282986
5077,0,USArkansasLee,Arkansas,Lee,2021-04-04 13:36:50.553981,2020-03-30 00:00:00.000000,0.12857528,0.21669556,0.38158642,11,19,33,6,11,20,0.07316010,0.13285338,0.23415177,0.15962852,0.23632152,0.31964709
5077,0,USArkansasLee,Arkansas,Lee,2021-04-04 13:36:50.553981,2020-03-31 00:00:00.000000,0.14467857,0.23238251,0.39185911,12,20,34,7,12,22,0.08195645,0.14130494,0.25007014,0.15896125,0.22917999,0.29261296
5077,0,USArkansasLee,Arkansas,Lee,2021-04-04 13:36:50.553981,2020-04-01 00:00:00.000000,0.15736265,0.25281988,0.40165257,13,22,35,8,13,22,0.09219711,0.15135923,0.25863538,0.15889059,0.22069484,0.28361767
5077,0,USArkansasLee,Arkansas,Lee,2021-04-04 13:36:50.553981,2020-04-02 00:00:00.000000,0.16518846,0.26352871,0.41103660,14,23,36,9,14,23,0.10239923,0.16916906,0.26668858,0.15179621,0.21352080,0.27513821
5077,0,USArkansasLee,Arkansas,Lee,2021-04-04 13:36:50.553981,2020-04-03 00:00:00.000000,0.16813997,0.27578812,0.41964700,14,24,37,9,15,24,0.10173614,0.17687355,0.27437779,0.14085416,0.20757962,0.27193445
5077,0,USArkansasLee,Arkansas,Lee,2021-04-04 13:36:50.553981,2020-04-04 00:00:00.000000,0.17065235,0.27995652,0.42611252,15,24,37,9,16,24,0.10730050,0.18225641,0.28174218,0.13937070,0.20290485,0.26149739
5077,0,USArkansasLee,Arkansas,Lee,2021-04-04 13:36:50.553981,2020-04-05 00:00:00.000000,0.17272281,0.28512237,0.45649501,15,25,40,9,16,25,0.10921129,0.18854961,0.28860415,0.13594397,0.19912467,0.25968228
5077,0,USArkansasLee,Arkansas,Lee,2021-04-04 13:36:50.553981,2020-04-06 00:00:00.000000,0.17285486,0.29321221,0.46919081,15,25,41,9,17,27,0.10766439,0.19501233,0.31268004,0.13337796,0.19307759,0.25702375
5077,0,USArkansasLee,Arkansas,Lee,2021-04-04 13:36:50.553981,2020-04-07 00:00:00.000000,0.17277502,0.29774383,0.49240758,15,26,43,10,17,29,0.11417711,0.19958833,0.33255586,0.13235667,0.19009443,0.25402929
5077,0,USArkansasLee,Arkansas,Lee,2021-04-04 13:36:50.553981,2020-04-08 00:00:00.000000,0.17251457,0.30440074,0.51384597,15,26,45,10,18,30,0.11814270,0.20411558,0.34962219,0.13200923,0.18666856,0.24943221
5077,0,USArkansasLee,Arkansas,Lee,2021-04-04 13:36:50.553981,2020-04-09 00:00:00.000000,0.17216696,0.30994538,0.53308089,15,27,47,10,18,32,0.11828892,0.20499373,0.36545224,0.13087882,0.18225820,0.24460504
5077,0,USArkansasLee,Arkansas,Lee,2021-04-04 13:36:50.553981,2020-04-10 00:00:00.000000,0.17178289,0.31283457,0.55390742,15,27,49,10,18,32,0.11832728,0.20359440,0.37009512,0.12887340,0.18111794,0.24456039
5077,0,USArkansasLee,Arkansas,Lee,2021-04-04 13:36:50.553981,2020-04-11 00:00:00.000000,0.17138942,0.31814529,0.57450050,15,28,50,10,18,34,0.11828293,0.20782228,0.38848640,0.12225833,0.17369840,0.24113497
5077,0,USArkansasLee,Arkansas,Lee,2021-04-04 13:36:50.553981,2020-04-12 00:00:00.000000,0.17108247,0.32067882,0.59454588,15,28,52,10,19,35,0.11818251,0.21537729,0.40220137,0.11501162,0.16748035,0.22471593
5077,0,USArkansasLee,Arkansas,Lee,2021-04-04 13:36:50.553981,2020-04-13 00:00:00.000000,0.16713065,0.31077380,0.59045892,14,27,52,10,19,36,0.11805402,0.21834826,0.41065453,0.11456804,0.16563422,0.22508961
5077,0,USArkansasLee,Arkansas,Lee,2021-04-04 13:36:50.553981,2020-04-14 00:00:00.000000,0.16339578,0.29804850,0.58599670,14,26,51,10,19,36,0.11661795,0.21688133,0.41480250,0.11431486,0.16276473,0.22171491
5077,0,USArkansasLee,Arkansas,Lee,2021-04-04 13:36:50.553981,2020-04-15 00:00:00.000000,0.15995877,0.28400735,0.57992448,14,25,51,10,18,36,0.11456861,0.20897741,0.41417541,0.11160436,0.16323096,0.22429052
5077,0,USArkansasLee,Arkansas,Lee,2021-04-04 13:36:50.553981,2020-04-16 00:00:00.000000,0.15682629,0.27058240,0.56469687,13,23,50,9,17,36,0.11235059,0.19906629,0.41130085,0.10845291,0.16326025,0.23778401
5077,0,USArkansasLee,Arkansas,Lee,2021-04-04 13:36:50.553981,2020-04-17 00:00:00.000000,0.15385431,0.25632453,0.54477812,13,22,48,9,16,36,0.11017227,0.18824451,0.40719389,0.10872940,0.16073200,0.24444264
5077,0,USArkansasLee,Arkansas,Lee,2021-04-04 13:36:50.553981,2020-04-18 00:00:00.000000,0.15097154,0.24569856,0.52506420,13,21,46,9,16,35,0.10807317,0.18174929,0.39623279,0.10887761,0.16049674,0.24397000
5077,0,USArkansasLee,Arkansas,Lee,2021-04-04 13:36:50.553981,2020-04-19 00:00:00.000000,0.14535503,0.23465098,0.50494338,12,20,44,9,15,33,0.10411151,0.17225142,0.38261954,0.10886989,0.16032229,0.24655267
5077,0,USArkansasLee,Arkansas,Lee,2021-04-04 13:36:50.553981,2020-04-20 00:00:00.000000,0.14815767,0.24039160,0.49101257,13,21,43,8,14,32,0.10005270,0.16466608,0.36874906,0.10894599,0.15965908,0.23631257
5077,0,USArkansasLee,Arkansas,Lee,2021-04-04 13:36:50.553981,2020-04-21 00:00:00.000000,0.15139055,0.24972217,0.47678557,13,22,42,8,14,31,0.10042433,0.16564121,0.35729462,0.11150529,0.16098646,0.23784810
5077,0,USArkansasLee,Arkansas,Lee,2021-04-04 13:36:50.553981,2020-04-22 00:00:00.000000,0.15537738,0.25450213,0.46298842,13,22,41,9,15,30,0.10246830,0.17138905,0.34680969,0.11221413,0.15927710,0.23484471
5077,0,USArkansasLee,Arkansas,Lee,2021-04-04 13:36:50.553981,2020-04-23 00:00:00.000000,0.15960859,0.25898819,0.47188084,14,22,41,9,15,29,0.10509852,0.17432072,0.33679847,0.10966417,0.16197678,0.23794557
5077,0,USArkansasLee,Arkansas,Lee,2021-04-04 13:36:50.553981,2020-04-24 00:00:00.000000,0.16376098,0.26020905,0.48014844,14,23,42,9,15,28,0.10787888,0.17298708,0.32705140,0.10934794,0.16249082,0.24759027
5077,0,USArkansasLee,Arkansas,Lee,2021-04-04 13:36:50.553981,2020-04-25 00:00:00.000000,0.16451974,0.26352878,0.48728160,14,23,43,9,16,29,0.10952821,0.18163489,0.32962402,0.10974508,0.16656748,0.25402050
5077,0,USArkansasLee,Arkansas,Lee,2021-04-04 13:36:50.553981,2020-04-26 00:00:00.000000,0.16620601,0.26659904,0.49377716,14,23,43,9,15,29,0.10922084,0.18002707,0.33602157,0.11435016,0.16760092,0.25841325
5077,0,USArkansasLee,Arkansas,Lee,2021-04-04 13:36:50.553981,2020-04-27 00:00:00.000000,0.17332243,0.27455704,0.50703581,15,24,44,9,16,30,0.10925857,0.18146420,0.34228315,0.11598527,0.16976523,0.26134664
5077,0,USArkansasLee,Arkansas,Lee,2021-04-04 13:36:50.553981,2020-04-28 00:00:00.000000,0.17759663,0.28409806,0.52010560,15,25,46,10,16,30,0.11560909,0.18339773,0.34679627,0.11780872,0.17199728,0.26295706
5077,0,USArkansasLee,Arkansas,Lee,2021-04-04 13:36:50.553981,2020-04-29 00:00:00.000000,0.17684132,0.29282299,0.53338021,15,25,47,10,16,31,0.11873848,0.19106276,0.35039312,0.12112806,0.17256980,0.26569688
5077,0,USArkansasLee,Arkansas,Lee,2021-04-04 13:36:50.553981,2020-04-30 00:00:00.000000,0.17612793,0.29416867,0.54692506,15,26,48,10,17,31,0.11929438,0.19624876,0.35363077,0.12443028,0.17548220,0.26830246
5077,0,USArkansasLee,Arkansas,Lee,2021-04-04 13:36:50.553981,2020-05-01 00:00:00.000000,0.17863783,0.29984945,0.56100882,15,26,49,10,17,31,0.12063808,0.19855644,0.35696037,0.12661726,0.18161835,0.28696698
5077,0,USArkansasLee,Arkansas,Lee,2021-04-04 13:36:50.553981,2020-05-02 00:00:00.000000,0.18322511,0.31207861,0.57583196,16,27,51,10,18,31,0.12281579,0.20432155,0.36078662,0.12904851,0.18768993,0.30478438
5077,0,USArkansasLee,Arkansas,Lee,2021-04-04 13:36:50.553981,2020-05-03 00:00:00.000000,0.18843802,0.31927645,0.59128706,16,28,52,11,18,32,0.12581124,0.20389656,0.36540258,0.13284624,0.19215647,0.31225254
5077,0,USArkansasLee,Arkansas,Lee,2021-04-04 13:36:50.553981,2020-05-04 00:00:00.000000,0.20041706,0.32469512,0.60405914,17,28,53,11,18,32,0.12919439,0.20581594,0.37152666,0.13457790,0.19766169,0.31505830
5077,0,USArkansasLee,Arkansas,Lee,2021-04-04 13:36:50.553981,2020-05-05 00:00:00.000000,0.21551642,0.33833976,0.60625771,19,29,53,11,19,34,0.13260727,0.21528481,0.38649140,0.13500435,0.19947830,0.32629056
5077,0,USArkansasLee,Arkansas,Lee,2021-04-04 13:36:50.553981,2020-05-06 00:00:00.000000,0.23067243,0.35517336,0.60983699,20,31,54,12,19,35,0.13795495,0.22506300,0.40488081,0.13519254,0.20762970,0.32826694
5077,0,USArkansasLee,Arkansas,Lee,2021-04-04 13:36:50.553981,2020-05-07 00:00:00.000000,0.23980031,0.36884861,0.64417276,21,32,57,12,20,37,0.14257980,0.23328486,0.42585980,0.13557525,0.22094460,0.32953191
5077,0,USArkansasLee,Arkansas,Lee,2021-04-04 13:36:50.553981,2020-05-08 00:00:00.000000,0.25174542,0.38266604,0.67045054,22,33,59,13,21,38,0.15153688,0.24444423,0.43713941,0.13816805,0.23121514,0.34152275
5077,0,USArkansasLee,Arkansas,Lee,2021-04-04 13:36:50.553981,2020-05-09 00:00:00.000000,0.25692049,0.39879978,0.67008740,22,35,59,14,22,40,0.15861917,0.25362230,0.45495674,0.14226274,0.24281352,0.35926597
5077,0,USArkansasLee,Arkansas,Lee,2021-04-04 13:36:50.553981,2020-05-10 00:00:00.000000,0.26808485,0.41142105,0.67494800,23,36,59,14,23,42,0.16060437,0.26607870,0.47483139,0.14597960,0.25350803,0.38049579
5077,0,USArkansasLee,Arkansas,Lee,2021-04-04 13:36:50.553981,2020-05-11 00:00:00.000000,0.27936503,0.43055988,0.68662683,24,38,60,14,24,42,0.16571630,0.27502153,0.47648644,0.14880818,0.26250250,0.38464600
5077,0,USArkansasLee,Arkansas,Lee,2021-04-04 13:36:50.553981,2020-05-12 00:00:00.000000,0.28875410,0.45090097,0.71725840,25,39,63,15,25,42,0.18063364,0.29027940,0.48217108,0.15950225,0.27721002,0.38785662
5077,0,USArkansasLee,Arkansas,Lee,2021-04-04 13:36:50.553981,2020-05-13 00:00:00.000000,0.29936044,0.47995830,0.75322760,26,42,66,16,27,43,0.19128974,0.30670477,0.49031480,0.17514388,0.28898352,0.44632913
5077,0,USArkansasLee,Arkansas,Lee,2021-04-04 13:36:50.553981,2020-05-14 00:00:00.000000,0.32325276,0.50556790,0.79550399,28,44,70,18,28,45,0.20430199,0.32732457,0.51054980,0.17799732,0.30354787,0.44723402
5077,0,USArkansasLee,Arkansas,Lee,2021-04-04 13:36:50.553981,2020-05-15 00:00:00.000000,0.34858651,0.54048252,0.87553284,30,47,77,19,30,45,0.22158057,0.34554387,0.51292297,0.18863426,0.32125076,0.46418089
5077,0,USArkansasLee,Arkansas,Lee,2021-04-04 13:36:50.553981,2020-05-16 00:00:00.000000,0.35924341,0.58497269,0.97027529,31,51,85,21,32,50,0.23892832,0.36504354,0.56575179,0.19352150,0.34117902,0.49799402
5077,0,USArkansasLee,Arkansas,Lee,2021-04-04 13:36:50.553981,2020-05-17 00:00:00.000000,0.37033754,0.63884416,1.07936160,32,56,95,22,34,54,0.25508575,0.38604140,0.61523880,0.20730813,0.35428776,0.51006921
5077,0,USArkansasLee,Arkansas,Lee,2021-04-04 13:36:50.553981,2020-05-18 00:00:00.000000,0.42279503,0.70547304,1.19461589,37,62,105,22,36,58,0.25899236,0.41223494,0.65814594,0.22454746,0.38523686,0.54552081
5077,0,USArkansasLee,Arkansas,Lee,2021-04-04 13:36:50.553981,2020-05-19 00:00:00.000000,0.47947705,0.79000009,1.26725486,42,69,112,24,40,64,0.27838108,0.45240706,0.72962646,0.25610536,0.40754883,0.54754524
5077,0,USArkansasLee,Arkansas,Lee,2021-04-04 13:36:50.553981,2020-05-20 00:00:00.000000,0.53971585,0.86941340,1.38387440,47,77,122,27,43,72,0.30944983,0.49628576,0.81645245,0.28631844,0.41970088,0.58023414
5077,0,USArkansasLee,Arkansas,Lee,2021-04-04 13:36:50.553981,2020-05-21 00:00:00.000000,0.59516757,0.93540030,1.55467856,52,82,137,31,49,76,0.35123540,0.55328670,0.86540649,0.30139673,0.43227026,0.67872401
5077,0,USArkansasLee,Arkansas,Lee,2021-04-04 13:36:50.553981,2020-05-22 00:00:00.000000,0.65466860,1.01946029,1.74271099,57,90,154,34,53,82,0.38817345,0.60129883,0.93209930,0.31207196,0.45421704,0.70834993
5077,0,USArkansasLee,Arkansas,Lee,2021-04-04 13:36:50.553981,2020-05-23 00:00:00.000000,0.73160356,1.12972070,1.95082546,64,100,172,38,58,92,0.43432110,0.66095138,1.04587641,0.34941030,0.48771184,0.72775098
5077,0,USArkansasLee,Arkansas,Lee,2021-04-04 13:36:50.553981,2020-05-24 00:00:00.000000,0.80742029,1.28217118,2.18715409,71,113,193,43,64,103,0.48575521,0.72931414,1.17163294,0.38544264,0.52890735,0.75909982
5077,0,USArkansasLee,Arkansas,Lee,2021-04-04 13:36:50.553981,2020-05-25 00:00:00.000000,0.94588738,1.47918264,2.44090981,83,131,216,48,73,116,0.54225173,0.82592929,1.31306040,0.42834969,0.58718779,0.78894837
5077,0,USArkansasLee,Arkansas,Lee,2021-04-04 13:36:50.553981,2020-05-26 00:00:00.000000,1.10649583,1.70449243,2.86819882,98,150,254,55,82,131,0.62259075,0.93544208,1.48383478,0.47525595,0.62949516,0.81450052
5077,0,USArkansasLee,Arkansas,Lee,2021-04-04 13:36:50.553981,2020-05-27 00:00:00.000000,1.28509370,1.95112631,3.38630173,113,172,299,64,94,155,0.73022759,1.07111214,1.75577278,0.52396690,0.68271386,0.85899472
5077,0,USArkansasLee,Arkansas,Lee,2021-04-04 13:36:50.553981,2020-05-28 00:00:00.000000,1.51227434,2.28533206,3.99063764,133,202,353,75,109,183,0.85562736,1.23552441,2.07431785,0.55058697,0.75480324,0.89881292
5077,0,USArkansasLee,Arkansas,Lee,2021-04-04 13:36:50.553981,2020-05-29 00:00:00.000000,1.81351245,2.70191060,4.70765277,160,239,416,88,128,216,1.00367812,1.44913002,2.44600997,0.57505933,0.79784998,0.91693178
5077,0,USArkansasLee,Arkansas,Lee,2021-04-04 13:36:50.553981,2020-05-30 00:00:00.000000,2.20497323,3.23910835,5.60623325,195,286,496,105,152,255,1.19431585,1.72626987,2.88483982,0.62059635,0.82881248,0.93352813
5077,0,USArkansasLee,Arkansas,Lee,2021-04-04 13:36:50.553981,2020-05-31 00:00:00.000000,2.69577327,3.88403231,6.71698664,238,344,594,127,183,303,1.44272808,2.06633222,3.42594119,0.68922513,0.86310441,0.95710857
5077,0,USArkansasLee,Arkansas,Lee,2021-04-04 13:36:50.553981,2020-06-01 00:00:00.000000,3.24388153,4.65507643,7.96191903,287,412,705,155,220,362,1.75653530,2.48641681,4.09576204,0.71524143,0.87814282,1.00150530
5077,0,USArkansasLee,Arkansas,Lee,2021-04-04 13:36:50.553981,2020-06-02 00:00:00.000000,3.86529895,5.61431840,9.41483115,342,497,833,188,264,431,2.12664141,2.98661103,4.86846869,0.75574464,0.89596112,1.01757763
5077,0,USArkansasLee,Arkansas,Lee,2021-04-04 13:36:50.553981,2020-06-03 00:00:00.000000,4.59434004,6.69027422,11.08311392,406,592,981,224,312,510,2.52949041,3.53292179,5.75903410,0.76073170,0.90195430,1.02378081
5077,0,USArkansasLee,Arkansas,Lee,2021-04-04 13:36:50.553981,2020-06-04 00:00:00.000000,5.39696316,7.98613221,12.97952808,478,707,1149,259,373,602,2.93302791,4.21707857,6.80098973,0.77697272,0.90423184,1.02585572
5077,0,USArkansasLee,Arkansas,Lee,2021-04-04 13:36:50.553981,2020-06-05 00:00:00.000000,6.47997180,9.58065808,14.94853423,573,848,1323,311,443,707,3.51312148,5.00567929,7.98795565,0.79604910,0.90403479,1.02512228
5077,0,USArkansasLee,Arkansas,Lee,2021-04-04 13:36:50.553981,2020-06-06 00:00:00.000000,7.72128727,11.30903395,17.28918456,683,1001,1531,372,521,825,4.20097224,5.88620665,9.32219704,0.78367344,0.90142791,1.01996316
5077,0,USArkansasLee,Arkansas,Lee,2021-04-04 13:36:50.553981,2020-06-07 00:00:00.000000,9.17243142,13.12164338,19.69820621,812,1162,1744,442,613,955,5.00128278,6.92235336,10.79091093,0.76217419,0.89828266,1.01461750
5077,0,USArkansasLee,Arkansas,Lee,2021-04-04 13:36:50.553981,2020-06-08 00:00:00.000000,10.85220399,15.16584450,21.40086564,961,1343,1895,524,718,1068,5.92164106,8.11414499,12.05874942,0.72907035,0.88051564,0.99600761
5077,0,USArkansasLee,Arkansas,Lee,2021-04-04 13:36:50.553981,2020-06-09 00:00:00.000000,12.76890152,17.53810515,23.79812564,1130,1553,2107,615,835,1211,6.94385079,9.42903312,13.68080363,0.57567026,0.85373808,0.97739180
5077,0,USArkansasLee,Arkansas,Lee,2021-04-04 13:36:50.553981,2020-06-10 00:00:00.000000,14.37420587,19.60873008,26.11781773,1273,1736,2313,718,958,1343,8.11341874,10.81778144,15.17087736,0.46609389,0.77064176,0.92898593
5077,0,USArkansasLee,Arkansas,Lee,2021-04-04 13:36:50.553981,2020-06-11 00:00:00.000000,16.08753281,21.50209821,26.96409940,1424,1904,2388,823,1091,1484,9.29924979,12.32155036,16.76106327,0.37502101,0.67750415,0.90537747
5077,0,USArkansasLee,Arkansas,Lee,2021-04-04 13:36:50.553981,2020-06-12 00:00:00.000000,17.94140570,22.01348294,28.27107825,1589,1949,2503,919,1197,1543,10.38024689,13.52198079,17.43213803,0.31098892,0.50059535,0.82134509
5077,0,USArkansasLee,Arkansas,Lee,2021-04-04 13:36:50.553981,2020-06-13 00:00:00.000000,18.47268661,22.21146650,28.89415102,1636,1967,2559,1035,1271,1668,11.69588090,14.35092814,18.83661126,0.25129544,0.38360039,0.72604397
5077,0,USArkansasLee,Arkansas,Lee,2021-04-04 13:36:50.553981,2020-06-14 00:00:00.000000,18.23921917,22.10140814,28.18057469,1615,1957,2495,1018,1308,1735,11.49662580,14.77082761,19.59291413,0.24423886,0.32640944,0.51350613
5077,0,USArkansasLee,Arkansas,Lee,2021-04-04 13:36:50.553981,2020-06-15 00:00:00.000000,18.00091676,22.07730074,27.28813225,1594,1955,2416,983,1337,1751,11.09986008,15.09602369,19.77257716,0.24110889,0.31441637,0.41652791
5077,0,USArkansasLee,Arkansas,Lee,2021-04-04 13:36:50.553981,2020-06-16 00:00:00.000000,17.65421906,21.45004019,26.59406663,1563,1899,2355,967,1337,1726,10.92804656,15.10494747,19.49646985,0.23731418,0.30203496,0.39099811
5077,0,USArkansasLee,Arkansas,Lee,2021-04-04 13:36:50.553981,2020-06-17 00:00:00.000000,16.90148946,20.66108697,26.04578477,1496,1829,2306,954,1309,1673,10.77436820,14.78902942,18.89642731,0.23738519,0.29297758,0.38723884
5077,0,USArkansasLee,Arkansas,Lee,2021-04-04 13:36:50.553981,2020-06-18 00:00:00.000000,16.01572585,19.82006117,25.22299496,1418,1755,2234,935,1271,1638,10.55877508,14.35705443,18.50052656,0.23481250,0.28572992,0.35717955
5077,0,USArkansasLee,Arkansas,Lee,2021-04-04 13:36:50.553981,2020-06-19 00:00:00.000000,15.15506247,19.11349065,24.53978893,1342,1692,2173,912,1229,1609,10.30565245,13.88405855,18.17121069,0.22371663,0.27831630,0.35653861
5077,0,USArkansasLee,Arkansas,Lee,2021-04-04 13:36:50.553981,2020-06-20 00:00:00.000000,14.33376801,18.33701507,23.57193014,1269,1624,2087,887,1179,1575,10.02394221,13.31635049,17.78686232,0.21824302,0.27867872,0.37149851
5077,0,USArkansasLee,Arkansas,Lee,2021-04-04 13:36:50.553981,2020-06-21 00:00:00.000000,13.77658590,17.53927427,22.96381032,1220,1553,2033,861,1133,1532,9.72171500,12.79755613,17.30443376,0.21434125,0.27867360,0.38163264
5077,0,USArkansasLee,Arkansas,Lee,2021-04-04 13:36:50.553981,2020-06-22 00:00:00.000000,13.43442035,16.81569324,22.38717625,1189,1489,1982,832,1087,1480,9.40435000,12.27615632,16.72011671,0.21445291,0.27683920,0.37965276
5077,0,USArkansasLee,Arkansas,Lee,2021-04-04 13:36:50.553981,2020-06-23 00:00:00.000000,12.54429404,16.08703932,21.78237894,1111,1424,1929,801,1043,1420,9.04776454,11.78381435,16.04149767,0.21073764,0.27796343,0.37694155
5077,0,USArkansasLee,Arkansas,Lee,2021-04-04 13:36:50.553981,2020-06-24 00:00:00.000000,11.66352547,15.36471583,21.12964813,1033,1360,1871,758,999,1378,8.56226795,11.28970299,15.56497038,0.21045923,0.27628060,0.35889210
5077,0,USArkansasLee,Arkansas,Lee,2021-04-04 13:36:50.553981,2020-06-25 00:00:00.000000,10.86867534,14.63936378,20.43747212,962,1296,1810,716,959,1332,8.08989413,10.83302775,15.04037527,0.21022396,0.27963878,0.35314831
5077,0,USArkansasLee,Arkansas,Lee,2021-04-04 13:36:50.553981,2020-06-26 00:00:00.000000,10.29748077,14.00420451,19.72194813,912,1240,1746,672,915,1292,7.58913066,10.34206389,14.59208795,0.20752055,0.28035627,0.35242763
5077,0,USArkansasLee,Arkansas,Lee,2021-04-04 13:36:50.553981,2020-06-27 00:00:00.000000,9.76319351,13.45261980,18.99418129,864,1191,1682,623,882,1251,7.03890133,9.95932766,14.13066750,0.20511792,0.28041277,0.36620745
5077,0,USArkansasLee,Arkansas,Lee,2021-04-04 13:36:50.553981,2020-06-28 00:00:00.000000,9.13507390,12.82834071,18.26156649,809,1136,1617,577,842,1219,6.51837501,9.51459864,13.77399767,0.19663212,0.28350096,0.36466099
5077,0,USArkansasLee,Arkansas,Lee,2021-04-04 13:36:50.553981,2020-06-29 00:00:00.000000,8.54205137,12.26515911,17.50860347,756,1086,1550,534,803,1187,6.03619413,9.07578097,13.40565849,0.19054437,0.27857848,0.35811365
5077,0,USArkansasLee,Arkansas,Lee,2021-04-04 13:36:50.553981,2020-06-30 00:00:00.000000,7.99089152,11.63689916,16.75944958,707,1030,1484,496,765,1151,5.60386276,8.64608167,13.00648014,0.18941027,0.26883041,0.35699327
5077,0,USArkansasLee,Arkansas,Lee,2021-04-04 13:36:50.553981,2020-07-01 00:00:00.000000,7.48103481,10.95674872,16.01602058,662,970,1418,462,728,1113,5.21869760,8.22721603,12.56759929,0.18878035,0.26552649,0.34653694
5077,0,USArkansasLee,Arkansas,Lee,2021-04-04 13:36:50.553981,2020-07-02 00:00:00.000000,7.00651812,10.27586155,15.28091699,620,910,1353,432,684,1068,4.87755190,7.73241376,12.06561889,0.18511593,0.25956784,0.34978905
5077,0,USArkansasLee,Arkansas,Lee,2021-04-04 13:36:50.553981,2020-07-03 00:00:00.000000,6.56074907,9.63584095,14.55490419,581,853,1289,404,639,1019,4.57139181,7.22102544,11.51058709,0.17238571,0.25630015,0.34909045
5077,0,USArkansasLee,Arkansas,Lee,2021-04-04 13:36:50.553981,2020-07-04 00:00:00.000000,6.13510215,9.01559236,13.83386861,543,798,1225,380,593,968,4.29160271,6.70503749,10.93491533,0.16855404,0.25457492,0.34308732
5077,0,USArkansasLee,Arkansas,Lee,2021-04-04 13:36:50.553981,2020-07-05 00:00:00.000000,5.72070346,8.41987091,13.10580465,506,745,1160,357,556,917,4.03247609,6.28037571,10.35936117,0.16816934,0.25257888,0.34127338
5077,0,USArkansasLee,Arkansas,Lee,2021-04-04 13:36:50.553981,2020-07-06 00:00:00.000000,5.27757116,7.86937618,12.34822268,467,696,1093,335,516,866,3.79054251,5.83272725,9.77998833,0.16379549,0.25086474,0.34111254
5077,0,USArkansasLee,Arkansas,Lee,2021-04-04 13:36:50.553981,2020-07-07 00:00:00.000000,4.82139063,7.29272504,11.57974631,427,645,1025,314,478,816,3.55384872,5.40717229,9.21507619,0.16361601,0.25209204,0.33978639
5077,0,USArkansasLee,Arkansas,Lee,2021-04-04 13:36:50.553981,2020-07-08 00:00:00.000000,4.40648845,6.84070038,10.81994652,390,605,958,289,452,768,3.27136481,5.11140600,8.67411143,0.16428985,0.25176511,0.33638576
5077,0,USArkansasLee,Arkansas,Lee,2021-04-04 13:36:50.553981,2020-07-09 00:00:00.000000,4.11515770,6.41488515,10.08379158,364,568,893,264,430,722,2.98965146,4.85863871,8.16125327,0.17007708,0.25004031,0.33219210
5077,0,USArkansasLee,Arkansas,Lee,2021-04-04 13:36:50.553981,2020-07-10 00:00:00.000000,3.84644773,5.99503484,9.38065454,340,530,830,245,404,680,2.77352929,4.56222561,7.68214852,0.17113267,0.25459627,0.32737887
5077,0,USArkansasLee,Arkansas,Lee,2021-04-04 13:36:50.553981,2020-07-11 00:00:00.000000,3.54652623,5.58326094,8.77567402,314,494,777,229,379,641,2.59553341,4.28203614,7.24261948,0.17255948,0.26372166,0.32957072
5077,0,USArkansasLee,Arkansas,Lee,2021-04-04 13:36:50.553981,2020-07-12 00:00:00.000000,3.27244366,5.21927590,8.28649552,289,462,733,215,356,605,2.43047207,4.02257417,6.83537902,0.17365761,0.26800752,0.35133603
5077,0,USArkansasLee,Arkansas,Lee,2021-04-04 13:36:50.553981,2020-07-13 00:00:00.000000,3.02531308,4.90490739,7.82800105,267,434,693,199,333,571,2.25247019,3.76977370,6.45411415,0.17314490,0.26987353,0.35541805
5077,0,USArkansasLee,Arkansas,Lee,2021-04-04 13:36:50.553981,2020-07-14 00:00:00.000000,2.80968887,4.60880014,7.39495669,248,408,654,184,312,539,2.08113971,3.53089912,6.09614042,0.17277918,0.27163811,0.36225086
5077,0,USArkansasLee,Arkansas,Lee,2021-04-04 13:36:50.553981,2020-07-15 00:00:00.000000,2.62159766,4.34010058,6.98558188,232,384,618,170,292,510,1.92957867,3.30598687,5.75860020,0.16797582,0.28121325,0.38125169
5077,0,USArkansasLee,Arkansas,Lee,2021-04-04 13:36:50.553981,2020-07-16 00:00:00.000000,2.47899671,4.08633867,6.59842982,219,361,584,159,274,481,1.79688544,3.09587224,5.43972339,0.17245413,0.28563089,0.40209509
5077,0,USArkansasLee,Arkansas,Lee,2021-04-04 13:36:50.553981,2020-07-17 00:00:00.000000,2.32087175,3.84884808,6.23244431,205,340,552,148,257,455,1.67917636,2.90198955,5.13828324,0.17574632,0.29527548,0.43254368
5077,0,USArkansasLee,Arkansas,Lee,2021-04-04 13:36:50.553981,2020-07-18 00:00:00.000000,2.15537067,3.61809298,5.88693600,190,320,521,140,241,429,1.58806530,2.72563351,4.85335246,0.18338685,0.29808459,0.44659225
5077,0,USArkansasLee,Arkansas,Lee,2021-04-04 13:36:50.553981,2020-07-19 00:00:00.000000,2.02401332,3.39717437,5.56189225,179,300,492,132,228,406,1.50048195,2.57838801,4.58425173,0.18560228,0.31318422,0.45715100
5077,0,USArkansasLee,Arkansas,Lee,2021-04-04 13:36:50.553981,2020-07-20 00:00:00.000000,1.91843284,3.26588049,5.26724491,169,289,466,122,216,383,1.38403990,2.44129514,4.33069135,0.19383976,0.32421111,0.47875053
5077,0,USArkansasLee,Arkansas,Lee,2021-04-04 13:36:50.553981,2020-07-21 00:00:00.000000,1.82939847,3.14927728,4.99620537,162,278,442,115,203,362,1.30720364,2.29856530,4.09704298,0.20167999,0.33941127,0.49644636
5077,0,USArkansasLee,Arkansas,Lee,2021-04-04 13:36:50.553981,2020-07-22 00:00:00.000000,1.76071599,3.06142141,4.86068325,155,271,430,110,192,343,1.24249910,2.17084262,3.88188786,0.20896437,0.35617715,0.54078177
5077,0,USArkansasLee,Arkansas,Lee,2021-04-04 13:36:50.553981,2020-07-23 00:00:00.000000,1.70910084,2.95898430,4.75448063,151,262,421,105,185,326,1.19002461,2.09225304,3.68404750,0.21061998,0.37845151,0.58438946
5077,0,USArkansasLee,Arkansas,Lee,2021-04-04 13:36:50.553981,2020-07-24 00:00:00.000000,1.67498859,2.85415050,4.65231282,148,252,412,101,180,310,1.14940227,2.03701125,3.50178198,0.21240506,0.38927304,0.58622870
5077,0,USArkansasLee,Arkansas,Lee,2021-04-04 13:36:50.553981,2020-07-25 00:00:00.000000,1.69385913,2.73243205,4.55745865,150,242,403,99,176,295,1.12160733,1.98815159,3.34144445,0.21919801,0.41270490,0.63278013
5077,0,USArkansasLee,Arkansas,Lee,2021-04-04 13:36:50.553981,2020-07-26 00:00:00.000000,1.73245202,2.65591378,4.47526813,153,235,396,99,170,285,1.12100424,1.92198399,3.22725892,0.23804641,0.42925077,0.70036354
5077,0,USArkansasLee,Arkansas,Lee,2021-04-04 13:36:50.553981,2020-07-27 00:00:00.000000,1.78387629,2.61076208,4.41776601,157,231,391,99,163,280,1.12742550,1.85042588,3.16208941,0.25090499,0.46147998,0.70801355
5077,0,USArkansasLee,Arkansas,Lee,2021-04-04 13:36:50.553981,2020-07-28 00:00:00.000000,1.79106637,2.58910677,4.38259693,158,229,388,98,160,274,1.11078985,1.81245780,3.10334476,0.26850439,0.48650741,0.71198317
5077,0,USArkansasLee,Arkansas,Lee,2021-04-04 13:36:50.553981,2020-07-29 00:00:00.000000,1.74840383,2.53212077,4.37135345,154,224,387,98,158,270,1.11089509,1.78519949,3.05106595,0.28968133,0.51170670,0.74402127
5077,0,USArkansasLee,Arkansas,Lee,2021-04-04 13:36:50.553981,2020-07-30 00:00:00.000000,1.73354103,2.45866195,4.38114843,153,217,388,100,154,266,1.13493618,1.74317085,3.00400234,0.30069789,0.53575278,0.77605588
5077,0,USArkansasLee,Arkansas,Lee,2021-04-04 13:36:50.553981,2020-07-31 00:00:00.000000,1.72476021,2.45011510,4.40797909,152,217,390,99,150,262,1.12504412,1.70344262,2.96328053,0.32108828,0.57929800,0.82276091
5077,0,USArkansasLee,Arkansas,Lee,2021-04-04 13:36:50.553981,2020-08-01 00:00:00.000000,1.73044083,2.50818984,4.30693318,153,222,381,97,150,260,1.09946068,1.70007331,2.93741619,0.34380578,0.61942256,0.88437686
5077,0,USArkansasLee,Arkansas,Lee,2021-04-04 13:36:50.553981,2020-08-02 00:00:00.000000,1.75170932,2.53707318,4.23664445,155,224,375,95,150,259,1.07975077,1.69623103,2.93302319,0.35924320,0.65230129,0.89990511
5077,0,USArkansasLee,Arkansas,Lee,2021-04-04 13:36:50.553981,2020-08-03 00:00:00.000000,1.74161882,2.57018837,4.28393019,154,227,379,95,151,260,1.08146358,1.71220910,2.94492215,0.38692590,0.67369310,0.91378208
5077,0,USArkansasLee,Arkansas,Lee,2021-04-04 13:36:50.553981,2020-08-04 00:00:00.000000,1.84827453,2.67785409,4.32956219,163,237,383,98,155,264,1.11290197,1.75726895,2.98176252,0.42065562,0.70117855,0.92467764
5077,0,USArkansasLee,Arkansas,Lee,2021-04-04 13:36:50.553981,2020-08-05 00:00:00.000000,1.91127631,2.76997864,4.39817440,169,245,389,104,159,264,1.17564671,1.79838432,2.99078593,0.44704109,0.74246505,0.93758542
5077,0,USArkansasLee,Arkansas,Lee,2021-04-04 13:36:50.553981,2020-08-06 00:00:00.000000,1.95545888,2.86349787,4.49039999,173,253,397,106,164,262,1.20107332,1.85263808,2.96162493,0.47421872,0.75581157,0.97742777
5077,0,USArkansasLee,Arkansas,Lee,2021-04-04 13:36:50.553981,2020-08-07 00:00:00.000000,2.03200680,2.97891368,4.59089863,179,263,406,109,167,264,1.23835980,1.89440447,2.98538283,0.50720593,0.77145287,0.99737386
5077,0,USArkansasLee,Arkansas,Lee,2021-04-04 13:36:50.553981,2020-08-08 00:00:00.000000,2.13740130,3.03946328,4.69648763,189,269,415,116,171,266,1.31237483,1.93577201,3.00986795,0.51578241,0.78013415,0.99409701
5077,0,USArkansasLee,Arkansas,Lee,2021-04-04 13:36:50.553981,2020-08-09 00:00:00.000000,2.21428217,3.10992291,4.75255616,196,275,420,122,173,269,1.37843387,1.96032736,3.04464624,0.56835100,0.79460756,0.99409512
5077,0,USArkansasLee,Arkansas,Lee,2021-04-04 13:36:50.553981,2020-08-10 00:00:00.000000,2.31210993,3.19696500,4.75685663,204,283,421,126,179,276,1.42646069,2.02350694,3.11730407,0.57442689,0.80217918,0.99243659
5077,0,USArkansasLee,Arkansas,Lee,2021-04-04 13:36:50.553981,2020-08-11 00:00:00.000000,2.41810235,3.27570505,4.91308004,214,290,435,132,187,287,1.49043225,2.12222021,3.24386540,0.59785893,0.79926760,0.98813273
5077,0,USArkansasLee,Arkansas,Lee,2021-04-04 13:36:50.553981,2020-08-12 00:00:00.000000,2.49927811,3.38202075,5.01562336,221,299,444,138,195,297,1.56603934,2.21047153,3.35734650,0.57650172,0.79294164,0.97788586
5077,0,USArkansasLee,Arkansas,Lee,2021-04-04 13:36:50.553981,2020-08-13 00:00:00.000000,2.59053649,3.50180118,5.06617110,229,310,448,145,201,306,1.64567896,2.27083616,3.46364141,0.57591461,0.78555098,0.95448486
5077,0,USArkansasLee,Arkansas,Lee,2021-04-04 13:36:50.553981,2020-08-14 00:00:00.000000,2.67026481,3.57882858,5.06802720,236,316,448,151,205,315,1.70642717,2.31710012,3.56437212,0.53164400,0.76926090,0.91778979
5077,0,USArkansasLee,Arkansas,Lee,2021-04-04 13:36:50.553981,2020-08-15 00:00:00.000000,2.73186900,3.65603872,4.99303417,241,323,442,155,212,317,1.76057268,2.40261151,3.58587535,0.43599047,0.70060241,0.88491573
5077,0,USArkansasLee,Arkansas,Lee,2021-04-04 13:36:50.553981,2020-08-16 00:00:00.000000,2.77065904,3.68449850,4.91747418,245,326,435,159,218,315,1.80327435,2.47099014,3.56161715,0.37339582,0.60071086,0.82762557
5077,0,USArkansasLee,Arkansas,Lee,2021-04-04 13:36:50.553981,2020-08-17 00:00:00.000000,2.68612830,3.61677102,4.78978259,237,320,424,162,220,312,1.83245632,2.49008301,3.52807798,0.36118429,0.53196021,0.75942555
5077,0,USArkansasLee,Arkansas,Lee,2021-04-04 13:36:50.553981,2020-08-18 00:00:00.000000,2.56421440,3.49140652,4.62113591,227,309,409,157,219,306,1.78194586,2.47402392,3.45907017,0.32011982,0.48186138,0.67260923
5077,0,USArkansasLee,Arkansas,Lee,2021-04-04 13:36:50.553981,2020-08-19 00:00:00.000000,2.42999350,3.35027852,4.47270781,215,296,396,152,214,296,1.71898193,2.42287316,3.34453213,0.30232086,0.45436673,0.64066848
5077,0,USArkansasLee,Arkansas,Lee,2021-04-04 13:36:50.553981,2020-08-20 00:00:00.000000,2.30869458,3.22369996,4.34635011,204,285,384,146,207,287,1.64866302,2.33791811,3.24182325,0.26423928,0.42491014,0.60023154
5077,0,USArkansasLee,Arkansas,Lee,2021-04-04 13:36:50.553981,2020-08-21 00:00:00.000000,2.17970438,3.07989017,4.20982085,193,272,372,138,199,278,1.56688402,2.25688989,3.14304858,0.24580934,0.40069169,0.58572963
5077,0,USArkansasLee,Arkansas,Lee,2021-04-04 13:36:50.553981,2020-08-22 00:00:00.000000,2.02355246,2.91964667,4.06299148,179,258,359,131,191,269,1.48079028,2.16103078,3.04273712,0.23460889,0.37852450,0.55970347
5077,0,USArkansasLee,Arkansas,Lee,2021-04-04 13:36:50.553981,2020-08-23 00:00:00.000000,1.86327098,2.76334881,3.91422751,165,244,346,121,182,260,1.37207257,2.05757444,2.94167365,0.22934418,0.36305471,0.52728035
5077,0,USArkansasLee,Arkansas,Lee,2021-04-04 13:36:50.553981,2020-08-24 00:00:00.000000,1.74236350,2.61818847,3.76765439,154,231,333,111,172,251,1.25705679,1.94718517,2.84058900,0.22691787,0.35030367,0.50210553
5077,0,USArkansasLee,Arkansas,Lee,2021-04-04 13:36:50.553981,2020-08-25 00:00:00.000000,1.61648839,2.47974285,3.64188639,143,219,322,103,163,243,1.16503873,1.84313237,2.74600645,0.22576845,0.34384176,0.48202792
5077,0,USArkansasLee,Arkansas,Lee,2021-04-04 13:36:50.553981,2020-08-26 00:00:00.000000,1.50068778,2.32423953,3.51879162,132,205,311,97,154,235,1.09584300,1.74681763,2.65514175,0.22510263,0.33961249,0.47187707
5077,0,USArkansasLee,Arkansas,Lee,2021-04-04 13:36:50.553981,2020-08-27 00:00:00.000000,1.40509313,2.18941666,3.34841210,124,193,296,91,146,226,1.03260679,1.65751176,2.55297499,0.22437546,0.32979387,0.46765674
5077,0,USArkansasLee,Arkansas,Lee,2021-04-04 13:36:50.553981,2020-08-28 00:00:00.000000,1.30799640,2.05998199,3.16404320,115,182,280,86,138,213,0.97466608,1.56913241,2.41614526,0.22298971,0.31936568,0.46569300
5077,0,USArkansasLee,Arkansas,Lee,2021-04-04 13:36:50.553981,2020-08-29 00:00:00.000000,1.21891048,1.93917817,2.99076730,107,171,264,81,130,202,0.91955746,1.46781354,2.28520865,0.21927398,0.31289979,0.47751585
5077,0,USArkansasLee,Arkansas,Lee,2021-04-04 13:36:50.553981,2020-08-30 00:00:00.000000,1.13724462,1.82189465,2.82803198,100,161,250,75,120,191,0.85310659,1.36126381,2.16134080,0.21456618,0.30442750,0.50805568
5077,0,USArkansasLee,Arkansas,Lee,2021-04-04 13:36:50.553981,2020-08-31 00:00:00.000000,1.05731889,1.70736588,2.66514601,93,151,236,69,113,181,0.78949576,1.28612464,2.04461058,0.21023983,0.30489776,0.50968142
5077,0,USArkansasLee,Arkansas,Lee,2021-04-04 13:36:50.553981,2020-09-01 00:00:00.000000,0.98408478,1.59270810,2.51043099,87,141,222,65,107,171,0.74419689,1.21042855,1.93694207,0.20242432,0.30268243,0.49272336
5077,0,USArkansasLee,Arkansas,Lee,2021-04-04 13:36:50.553981,2020-09-02 00:00:00.000000,0.91332802,1.50164239,2.36411885,80,133,209,62,101,162,0.70249167,1.14193971,1.83454684,0.19764628,0.29424770,0.48967769
5077,0,USArkansasLee,Arkansas,Lee,2021-04-04 13:36:50.553981,2020-09-03 00:00:00.000000,0.84933496,1.41022425,2.24706008,75,124,199,57,95,154,0.65295276,1.08155105,1.74366039,0.19598483,0.29110609,0.48900989
5077,0,USArkansasLee,Arkansas,Lee,2021-04-04 13:36:50.553981,2020-09-04 00:00:00.000000,0.79039294,1.32879862,2.16854034,70,117,192,53,90,148,0.60723755,1.02065438,1.68165921,0.17995085,0.28750080,0.48617206
5077,0,USArkansasLee,Arkansas,Lee,2021-04-04 13:36:50.553981,2020-09-05 00:00:00.000000,0.73596731,1.25562109,2.09068990,65,111,185,50,85,143,0.56512753,0.96331078,1.62219944,0.17250220,0.28695198,0.45744700
5077,0,USArkansasLee,Arkansas,Lee,2021-04-04 13:36:50.553981,2020-09-06 00:00:00.000000,0.68557612,1.19115046,2.01305054,60,105,178,46,80,138,0.52626675,0.91018865,1.56385795,0.16404971,0.28928760,0.44364093
5077,0,USArkansasLee,Arkansas,Lee,2021-04-04 13:36:50.553981,2020-09-07 00:00:00.000000,0.63281969,1.14615158,1.94441137,56,101,172,43,76,133,0.48990709,0.86421621,1.50656890,0.16197706,0.28939073,0.44835438
5077,0,USArkansasLee,Arkansas,Lee,2021-04-04 13:36:50.553981,2020-09-08 00:00:00.000000,0.58377102,1.08465790,1.87766945,51,96,166,40,72,128,0.45405178,0.81918895,1.45288821,0.16188561,0.28973870,0.45141253
5077,0,USArkansasLee,Arkansas,Lee,2021-04-04 13:36:50.553981,2020-09-09 00:00:00.000000,0.53828545,1.03953402,1.81377640,47,92,160,37,68,124,0.41925534,0.77543179,1.40185774,0.16189889,0.28994732,0.45249400
5077,0,USArkansasLee,Arkansas,Lee,2021-04-04 13:36:50.553981,2020-09-10 00:00:00.000000,0.49713978,1.01203605,1.75286978,44,89,155,34,64,119,0.38673006,0.72484577,1.35314239,0.16194876,0.29273154,0.45269441
5077,0,USArkansasLee,Arkansas,Lee,2021-04-04 13:36:50.553981,2020-09-11 00:00:00.000000,0.46117445,0.98007084,1.69444040,40,86,150,31,60,115,0.35700474,0.68426896,1.30608815,0.16399203,0.29512956,0.45082697
5077,0,USArkansasLee,Arkansas,Lee,2021-04-04 13:36:50.553981,2020-09-12 00:00:00.000000,0.42887005,0.94940583,1.63797273,37,84,145,29,58,111,0.33064052,0.66472317,1.26119666,0.18128960,0.29345692,0.44790851
5077,0,USArkansasLee,Arkansas,Lee,2021-04-04 13:36:50.553981,2020-09-13 00:00:00.000000,0.40392962,0.92333629,1.55461363,35,81,137,27,58,107,0.30715026,0.65799116,1.21831822,0.18386485,0.29084823,0.42798591
5077,0,USArkansasLee,Arkansas,Lee,2021-04-04 13:36:50.553981,2020-09-14 00:00:00.000000,0.37272326,0.88017240,1.45936007,33,77,129,25,56,102,0.28596636,0.64305438,1.15963874,0.18395440,0.28706552,0.43021232
5077,0,USArkansasLee,Arkansas,Lee,2021-04-04 13:36:50.553981,2020-09-15 00:00:00.000000,0.37397066,0.83829376,1.36938771,33,74,121,23,54,96,0.26643617,0.61775224,1.09164315,0.18089750,0.28638073,0.42730180
5077,0,USArkansasLee,Arkansas,Lee,2021-04-04 13:36:50.553981,2020-09-16 00:00:00.000000,0.38180035,0.79564931,1.28458008,33,70,113,22,52,90,0.24889727,0.59721168,1.02595119,0.17720319,0.28705376,0.43803211
5077,0,USArkansasLee,Arkansas,Lee,2021-04-04 13:36:50.553981,2020-09-17 00:00:00.000000,0.38985738,0.75307424,1.24101579,34,66,109,22,50,85,0.24968994,0.57297741,0.96341413,0.17537268,0.28517536,0.46207798
5077,0,USArkansasLee,Arkansas,Lee,2021-04-04 13:36:50.553981,2020-09-18 00:00:00.000000,0.38013196,0.72049978,1.20715456,33,63,106,22,48,81,0.25486547,0.54660436,0.92497266,0.17431122,0.28408890,0.46487306
5077,0,USArkansasLee,Arkansas,Lee,2021-04-04 13:36:50.553981,2020-09-19 00:00:00.000000,0.34905531,0.69034609,1.16069867,30,61,102,23,46,79,0.25983882,0.52058332,0.90017893,0.17328608,0.28217018,0.46563638
5077,0,USArkansasLee,Arkansas,Lee,2021-04-04 13:36:50.553981,2020-09-20 00:00:00.000000,0.32116767,0.65537484,1.13673144,28,58,100,21,43,77,0.24444709,0.49333220,0.87433001,0.17196658,0.27335361,0.46583038
5077,0,USArkansasLee,Arkansas,Lee,2021-04-04 13:36:50.553981,2020-09-21 00:00:00.000000,0.29539041,0.63009979,1.09335707,26,55,96,19,41,74,0.22488319,0.46844996,0.83873882,0.17023149,0.27693565,0.48139910
5077,0,USArkansasLee,Arkansas,Lee,2021-04-04 13:36:50.553981,2020-09-22 00:00:00.000000,0.27223604,0.60729170,1.03899559,24,53,92,18,39,70,0.20693906,0.44353638,0.79937878,0.16812425,0.27459708,0.49648767
5077,0,USArkansasLee,Arkansas,Lee,2021-04-04 13:36:50.553981,2020-09-23 00:00:00.000000,0.25141148,0.57535329,1.04998676,22,50,92,16,37,67,0.19066801,0.42281807,0.76274705,0.16713425,0.27491528,0.46485198
5077,0,USArkansasLee,Arkansas,Lee,2021-04-04 13:36:50.553981,2020-09-24 00:00:00.000000,0.23546236,0.55835247,1.03570630,20,49,91,15,37,66,0.17599618,0.41788656,0.74568855,0.16706178,0.27260926,0.46247242
5077,0,USArkansasLee,Arkansas,Lee,2021-04-04 13:36:50.553981,2020-09-25 00:00:00.000000,0.23309654,0.54664847,1.01348466,20,48,89,14,35,67,0.16349197,0.39802916,0.75912721,0.16739944,0.27570109,0.45504027
5077,0,USArkansasLee,Arkansas,Lee,2021-04-04 13:36:50.553981,2020-09-26 00:00:00.000000,0.23110207,0.53747412,0.99251117,20,47,87,14,33,66,0.16139636,0.38027822,0.75237142,0.16963260,0.27473192,0.44438456
5077,0,USArkansasLee,Arkansas,Lee,2021-04-04 13:36:50.553981,2020-09-27 00:00:00.000000,0.22447571,0.51842336,0.97269551,19,45,86,13,32,65,0.15668166,0.36839036,0.73651684,0.17537278,0.27383620,0.43112815
5077,0,USArkansasLee,Arkansas,Lee,2021-04-04 13:36:50.553981,2020-09-28 00:00:00.000000,0.21072513,0.50218519,0.93340745,18,44,82,13,32,63,0.14709033,0.36504374,0.72130007,0.17471775,0.27324415,0.43125687
5077,0,USArkansasLee,Arkansas,Lee,2021-04-04 13:36:50.553981,2020-09-29 00:00:00.000000,0.19828967,0.48931544,0.89514678,17,43,79,12,31,61,0.13800871,0.35974648,0.69751338,0.17428098,0.27240086,0.44578897
5077,0,USArkansasLee,Arkansas,Lee,2021-04-04 13:36:50.553981,2020-09-30 00:00:00.000000,0.20598150,0.47551471,0.85729789,18,42,75,11,30,59,0.12960636,0.34927143,0.67063024,0.17415351,0.27157860,0.45720133
5077,0,USArkansasLee,Arkansas,Lee,2021-04-04 13:36:50.553981,2020-10-01 00:00:00.000000,0.20257396,0.46657903,0.81935192,17,41,72,11,29,56,0.12493755,0.33780763,0.64320415,0.17241014,0.27240417,0.45516968
5077,0,USArkansasLee,Arkansas,Lee,2021-04-04 13:36:50.553981,2020-10-02 00:00:00.000000,0.19619538,0.45324007,0.78383105,17,40,69,11,28,54,0.13033626,0.32486296,0.61558751,0.17489453,0.27564440,0.44704313
5077,0,USArkansasLee,Arkansas,Lee,2021-04-04 13:36:50.553981,2020-10-03 00:00:00.000000,0.19018593,0.43942323,0.75856561,16,38,67,12,27,52,0.13566665,0.31454848,0.58865535,0.17517270,0.28458694,0.48171749
5077,0,USArkansasLee,Arkansas,Lee,2021-04-04 13:36:50.553981,2020-10-04 00:00:00.000000,0.18452605,0.42114236,0.75982602,16,37,67,11,27,49,0.13211574,0.30745271,0.56268487,0.17537896,0.29416188,0.50312934
5077,0,USArkansasLee,Arkansas,Lee,2021-04-04 13:36:50.553981,2020-10-05 00:00:00.000000,0.18840582,0.41465479,0.73205601,16,36,64,11,26,47,0.12816977,0.30257189,0.53781107,0.17539874,0.29775802,0.50479537
5077,0,USArkansasLee,Arkansas,Lee,2021-04-04 13:36:50.553981,2020-10-06 00:00:00.000000,0.19279666,0.40884012,0.70339739,17,36,62,11,25,46,0.12876808,0.29251755,0.52405420,0.17550297,0.30050657,0.50705200
5077,0,USArkansasLee,Arkansas,Lee,2021-04-04 13:36:50.553981,2020-10-07 00:00:00.000000,0.19221371,0.39381664,0.69320445,17,34,61,11,25,45,0.13118674,0.28421275,0.51578210,0.17593718,0.30596715,0.51050915
5077,0,USArkansasLee,Arkansas,Lee,2021-04-04 13:36:50.553981,2020-10-08 00:00:00.000000,0.19044052,0.37958515,0.69088989,16,33,61,11,25,45,0.13231138,0.28244268,0.51092601,0.17688228,0.30970147,0.51229411
5077,0,USArkansasLee,Arkansas,Lee,2021-04-04 13:36:50.553981,2020-10-09 00:00:00.000000,0.18673851,0.37144087,0.69357880,16,32,61,11,24,45,0.12975873,0.27361519,0.50813939,0.17881489,0.31709963,0.51315962
5077,0,USArkansasLee,Arkansas,Lee,2021-04-04 13:36:50.553981,2020-10-10 00:00:00.000000,0.17910878,0.37236961,0.72198111,15,32,63,11,23,44,0.12666095,0.26115810,0.50607545,0.18243632,0.32170367,0.52530926
5077,0,USArkansasLee,Arkansas,Lee,2021-04-04 13:36:50.553981,2020-10-11 00:00:00.000000,0.17002584,0.36485892,0.74801053,15,32,66,10,22,44,0.11984151,0.25487310,0.50656786,0.18827454,0.32985584,0.52894997
5077,0,USArkansasLee,Arkansas,Lee,2021-04-04 13:36:50.553981,2020-10-12 00:00:00.000000,0.17651450,0.35968650,0.71581201,15,31,63,10,21,46,0.11363670,0.24798149,0.52538964,0.19027367,0.33628966,0.53108378
5077,0,USArkansasLee,Arkansas,Lee,2021-04-04 13:36:50.553981,2020-10-13 00:00:00.000000,0.17122918,0.36005186,0.70035374,15,31,62,9,21,45,0.10907293,0.24400295,0.51527537,0.20163643,0.33636135,0.55581861
5077,0,USArkansasLee,Arkansas,Lee,2021-04-04 13:36:50.553981,2020-10-14 00:00:00.000000,0.16624169,0.35002285,0.70302144,14,31,62,10,21,43,0.11552125,0.23966809,0.49423362,0.20789140,0.33988911,0.58212606
5077,0,USArkansasLee,Arkansas,Lee,2021-04-04 13:36:50.553981,2020-10-15 00:00:00.000000,0.16185813,0.34992749,0.70207439,14,30,62,10,20,43,0.11440264,0.23555239,0.48967856,0.21172056,0.34669936,0.60702024
5077,0,USArkansasLee,Arkansas,Lee,2021-04-04 13:36:50.553981,2020-10-16 00:00:00.000000,0.15818862,0.34565365,0.69738686,14,30,61,9,20,43,0.11126066,0.23167746,0.49004823,0.21635468,0.35840587,0.65344481
5077,0,USArkansasLee,Arkansas,Lee,2021-04-04 13:36:50.553981,2020-10-17 00:00:00.000000,0.15516827,0.34158099,0.69474777,13,30,61,9,20,43,0.10853956,0.23170493,0.48802788,0.22995906,0.36975071,0.66385488
5077,0,USArkansasLee,Arkansas,Lee,2021-04-04 13:36:50.553981,2020-10-18 00:00:00.000000,0.15434203,0.34143346,0.70113431,13,30,62,9,20,42,0.10625377,0.22963284,0.48481775,0.23303392,0.38139228,0.67391795
5077,0,USArkansasLee,Arkansas,Lee,2021-04-04 13:36:50.553981,2020-10-19 00:00:00.000000,0.16142957,0.34183438,0.68765456,14,30,60,9,20,42,0.10434000,0.22757861,0.48122561,0.22890064,0.39152674,0.68089103
5077,0,USArkansasLee,Arkansas,Lee,2021-04-04 13:36:50.553981,2020-10-20 00:00:00.000000,0.17029363,0.34750769,0.67197717,15,30,59,9,20,42,0.10742216,0.22748143,0.47989364,0.22938057,0.39997221,0.67940023
5077,0,USArkansasLee,Arkansas,Lee,2021-04-04 13:36:50.553981,2020-10-21 00:00:00.000000,0.16922274,0.34712462,0.68327604,14,30,60,9,20,41,0.11242496,0.22665543,0.46907680,0.23166627,0.40736353,0.65091433
5077,0,USArkansasLee,Arkansas,Lee,2021-04-04 13:36:50.553981,2020-10-22 00:00:00.000000,0.16517795,0.34581337,0.71710551,14,30,63,10,20,40,0.11829567,0.23274538,0.46282185,0.23870793,0.42157186,0.64000393
5077,0,USArkansasLee,Arkansas,Lee,2021-04-04 13:36:50.553981,2020-10-23 00:00:00.000000,0.16179612,0.34550318,0.72046940,14,30,63,10,20,43,0.11868956,0.23680549,0.48836222,0.25738143,0.42884597,0.64746185
5077,0,USArkansasLee,Arkansas,Lee,2021-04-04 13:36:50.553981,2020-10-24 00:00:00.000000,0.15888580,0.34586348,0.72498827,14,30,64,10,21,43,0.11611233,0.23959553,0.49495651,0.27160173,0.44001043,0.62014183
5077,0,USArkansasLee,Arkansas,Lee,2021-04-04 13:36:50.553981,2020-10-25 00:00:00.000000,0.15630056,0.34802339,0.74994317,13,30,66,10,21,44,0.11390484,0.23772474,0.49784592,0.27841166,0.43934044,0.60502002
5077,0,USArkansasLee,Arkansas,Lee,2021-04-04 13:36:50.553981,2020-10-26 00:00:00.000000,0.16560625,0.34818453,0.74308846,14,30,65,9,21,44,0.11196055,0.24022464,0.50106379,0.28005225,0.44428633,0.67340388
5077,0,USArkansasLee,Arkansas,Lee,2021-04-04 13:36:50.553981,2020-10-27 00:00:00.000000,0.16692431,0.35389620,0.77724934,14,31,68,9,21,44,0.11065562,0.24048887,0.50543271,0.28261039,0.45334424,0.69641324
5077,0,USArkansasLee,Arkansas,Lee,2021-04-04 13:36:50.553981,2020-10-28 00:00:00.000000,0.16359791,0.35991398,0.80197023,14,31,71,9,21,46,0.11221976,0.24178992,0.52992698,0.28719540,0.46985973,0.69953571
5077,0,USArkansasLee,Arkansas,Lee,2021-04-04 13:36:50.553981,2020-10-29 00:00:00.000000,0.16066964,0.36122639,0.79551892,14,31,70,9,21,49,0.10982228,0.24498255,0.55638815,0.29506161,0.48658875,0.70236416
5077,0,USArkansasLee,Arkansas,Lee,2021-04-04 13:36:50.553981,2020-10-30 00:00:00.000000,0.15807217,0.36001815,0.79954201,14,31,70,9,21,49,0.10772626,0.24742644,0.56326964,0.30763292,0.49269828,0.75313650
5077,0,USArkansasLee,Arkansas,Lee,2021-04-04 13:36:50.553981,2020-10-31 00:00:00.000000,0.15581125,0.36026918,0.80624630,13,31,71,9,21,50,0.10693468,0.24617268,0.56737371,0.31350735,0.49606777,0.83503872
5077,0,USArkansasLee,Arkansas,Lee,2021-04-04 13:36:50.553981,2020-11-01 00:00:00.000000,0.15391013,0.35933162,0.81231944,13,31,71,9,21,50,0.10698741,0.24714907,0.57154514,0.31984743,0.51243390,0.85006547
5077,0,USArkansasLee,Arkansas,Lee,2021-04-04 13:36:50.553981,2020-11-02 00:00:00.000000,0.16287812,0.38508062,0.82363144,14,34,72,9,21,50,0.10751971,0.24697334,0.57559413,0.33414195,0.52180339,0.85608461
5077,0,USArkansasLee,Arkansas,Lee,2021-04-04 13:36:50.553981,2020-11-03 00:00:00.000000,0.17768074,0.40025252,0.84654512,15,35,74,10,22,51,0.11359070,0.25704359,0.57719516,0.34321592,0.52969220,0.86370237
5077,0,USArkansasLee,Arkansas,Lee,2021-04-04 13:36:50.553981,2020-11-04 00:00:00.000000,0.19123353,0.41582339,0.86952003,16,36,77,10,23,51,0.11978882,0.26751242,0.57732727,0.34931530,0.53624342,0.87588963
5077,0,USArkansasLee,Arkansas,Lee,2021-04-04 13:36:50.553981,2020-11-05 00:00:00.000000,0.20460314,0.43380863,0.89264272,18,38,79,11,24,51,0.13246447,0.27968149,0.58480056,0.35058035,0.55109960,0.89334691
5077,0,USArkansasLee,Arkansas,Lee,2021-04-04 13:36:50.553981,2020-11-06 00:00:00.000000,0.20923013,0.45218983,0.89182422,18,40,78,12,26,53,0.14156904,0.29355795,0.60044932,0.37628265,0.58001207,0.91442120
5077,0,USArkansasLee,Arkansas,Lee,2021-04-04 13:36:50.553981,2020-11-07 00:00:00.000000,0.20549425,0.46998551,0.89954292,18,41,79,12,26,54,0.14331790,0.30018341,0.61624479,0.39494910,0.58957399,0.93949190
5077,0,USArkansasLee,Arkansas,Lee,2021-04-04 13:36:50.553981,2020-11-08 00:00:00.000000,0.20411527,0.48590532,0.96093638,18,43,85,12,27,55,0.14004821,0.30572970,0.62604013,0.41590579,0.62132088,0.97587153
5077,0,USArkansasLee,Arkansas,Lee,2021-04-04 13:36:50.553981,2020-11-09 00:00:00.000000,0.20440246,0.50210200,0.97553229,18,44,86,12,27,55,0.13816741,0.31463914,0.62268176,0.43611345,0.64539929,1.00909366
5077,0,USArkansasLee,Arkansas,Lee,2021-04-04 13:36:50.553981,2020-11-10 00:00:00.000000,0.21766485,0.52148149,0.97043061,19,46,85,12,29,56,0.13874749,0.33704484,0.63701298,0.43868721,0.66630806,1.09354941
5077,0,USArkansasLee,Arkansas,Lee,2021-04-04 13:36:50.553981,2020-11-11 00:00:00.000000,0.23349546,0.55748638,0.95996872,20,49,85,13,31,57,0.14936753,0.35658593,0.65402142,0.44217540,0.68494030,1.14393266
5077,0,USArkansasLee,Arkansas,Lee,2021-04-04 13:36:50.553981,2020-11-12 00:00:00.000000,0.24950872,0.59222759,0.97140677,22,52,86,14,32,57,0.16031044,0.37177740,0.65443964,0.45249923,0.70120162,1.19215289
5077,0,USArkansasLee,Arkansas,Lee,2021-04-04 13:36:50.553981,2020-11-13 00:00:00.000000,0.26621273,0.63629800,1.01538925,23,56,89,15,34,58,0.16989515,0.39200913,0.65996176,0.47220575,0.71933140,1.23268046
5077,0,USArkansasLee,Arkansas,Lee,2021-04-04 13:36:50.553981,2020-11-14 00:00:00.000000,0.28322344,0.66370468,1.10729040,25,58,98,15,36,61,0.17477705,0.41572823,0.68975769,0.48650317,0.74235254,1.26430762
5077,0,USArkansasLee,Arkansas,Lee,2021-04-04 13:36:50.553981,2020-11-15 00:00:00.000000,0.30019016,0.68797648,1.14190837,26,60,101,15,38,63,0.17952956,0.43778178,0.72107889,0.49397165,0.75272052,1.31377783
5077,0,USArkansasLee,Arkansas,Lee,2021-04-04 13:36:50.553981,2020-11-16 00:00:00.000000,0.35502724,0.73238491,1.17019003,31,64,103,16,41,68,0.18414190,0.47146174,0.77728415,0.50058090,0.77119278,1.38243878
5077,0,USArkansasLee,Arkansas,Lee,2021-04-04 13:36:50.553981,2020-11-17 00:00:00.000000,0.40689180,0.79789371,1.22568099,36,70,108,18,44,72,0.20894578,0.50612703,0.82203415,0.50619735,0.79927683,1.40299591
5077,0,USArkansasLee,Arkansas,Lee,2021-04-04 13:36:50.553981,2020-11-18 00:00:00.000000,0.43807603,0.87622292,1.28466409,38,77,113,21,47,76,0.24415140,0.54047216,0.86154782,0.51441814,0.80870573,1.40808564
5077,0,USArkansasLee,Arkansas,Lee,2021-04-04 13:36:50.553981,2020-11-19 00:00:00.000000,0.46312551,0.93542912,1.34596887,41,82,119,25,51,79,0.28456670,0.57696602,0.90285470,0.52981919,0.83097851,1.40968452
5077,0,USArkansasLee,Arkansas,Lee,2021-04-04 13:36:50.553981,2020-11-20 00:00:00.000000,0.50078310,0.97788963,1.42881935,44,86,126,28,53,83,0.32705422,0.60786646,0.94630342,0.53171316,0.85135982,1.41131921
5077,0,USArkansasLee,Arkansas,Lee,2021-04-04 13:36:50.553981,2020-11-21 00:00:00.000000,0.53394032,1.02814780,1.55723449,47,91,137,30,56,87,0.34795148,0.64070306,0.99090148,0.53278758,0.87982800,1.38645885
5077,0,USArkansasLee,Arkansas,Lee,2021-04-04 13:36:50.553981,2020-11-22 00:00:00.000000,0.54720996,1.07426719,1.67497263,48,95,148,32,60,91,0.36566227,0.67818022,1.03594319,0.53405378,0.89541806,1.35056092
5077,0,USArkansasLee,Arkansas,Lee,2021-04-04 13:36:50.553981,2020-11-23 00:00:00.000000,0.64133796,1.16156502,1.75096232,56,102,155,33,63,98,0.38260762,0.71600404,1.11093308,0.55319126,0.90326268,1.34541444
5077,0,USArkansasLee,Arkansas,Lee,2021-04-04 13:36:50.553981,2020-11-24 00:00:00.000000,0.73629351,1.21657813,1.82674141,65,107,161,38,65,102,0.43447647,0.74280834,1.15894201,0.58203363,0.91815187,1.33923192
5077,0,USArkansasLee,Arkansas,Lee,2021-04-04 13:36:50.553981,2020-11-25 00:00:00.000000,0.79915687,1.27893903,1.90276392,70,113,168,43,71,107,0.49014344,0.80201076,1.20908129,0.64896149,0.93199772,1.33670861
5077,0,USArkansasLee,Arkansas,Lee,2021-04-04 13:36:50.553981,2020-11-26 00:00:00.000000,0.90619250,1.35829015,1.97866396,80,120,175,47,75,112,0.53120378,0.85322703,1.26998518,0.66375490,0.93806559,1.33603312
5077,0,USArkansasLee,Arkansas,Lee,2021-04-04 13:36:50.553981,2020-11-27 00:00:00.000000,0.97074983,1.43652254,2.05416597,85,127,181,49,78,117,0.56304984,0.88765939,1.33174029,0.68841949,0.94775867,1.33563044
5077,0,USArkansasLee,Arkansas,Lee,2021-04-04 13:36:50.553981,2020-11-28 00:00:00.000000,1.00455536,1.49900354,2.12904478,88,132,188,52,82,123,0.59580108,0.92587633,1.38998218,0.69859507,0.94829619,1.33327094
5077,0,USArkansasLee,Arkansas,Lee,2021-04-04 13:36:50.553981,2020-11-29 00:00:00.000000,1.02318978,1.57282243,2.20805571,90,139,195,57,85,127,0.65396373,0.96328305,1.44470978,0.71457209,0.97401656,1.31010612
5077,0,USArkansasLee,Arkansas,Lee,2021-04-04 13:36:50.553981,2020-11-30 00:00:00.000000,1.07342091,1.64366968,2.27118414,95,145,201,61,89,132,0.69260859,1.00812922,1.49667912,0.72582955,0.96512447,1.32521030
5077,0,USArkansasLee,Arkansas,Lee,2021-04-04 13:36:50.553981,2020-12-01 00:00:00.000000,1.12934912,1.70841152,2.33827729,100,151,207,64,93,138,0.73044862,1.06044668,1.56623329,0.75411997,0.96931752,1.37348608
5077,0,USArkansasLee,Arkansas,Lee,2021-04-04 13:36:50.553981,2020-12-02 00:00:00.000000,1.17541867,1.75721570,2.41498363,104,155,213,67,98,144,0.76518843,1.11143893,1.63709715,0.75700589,0.96686038,1.38079913
5077,0,USArkansasLee,Arkansas,Lee,2021-04-04 13:36:50.553981,2020-12-03 00:00:00.000000,1.22806262,1.84973576,2.47241147,108,163,218,70,103,145,0.79974782,1.17046472,1.63976012,0.76783995,0.97426089,1.35039731
5077,0,USArkansasLee,Arkansas,Lee,2021-04-04 13:36:50.553981,2020-12-04 00:00:00.000000,1.28209822,1.90993902,2.57974374,113,169,228,73,108,148,0.83356523,1.22479335,1.67658677,0.77063745,0.97987855,1.33323853
5077,0,USArkansasLee,Arkansas,Lee,2021-04-04 13:36:50.553981,2020-12-05 00:00:00.000000,1.34376831,1.95621307,2.69056950,119,173,238,75,111,153,0.85421750,1.26061120,1.73211050,0.76809454,0.98793352,1.33609642
5077,0,USArkansasLee,Arkansas,Lee,2021-04-04 13:36:50.553981,2020-12-06 00:00:00.000000,1.39730152,2.01712942,2.79905837,123,178,247,77,116,159,0.87543775,1.31784616,1.79987825,0.73657209,0.99001715,1.34920542
5077,0,USArkansasLee,Arkansas,Lee,2021-04-04 13:36:50.553981,2020-12-07 00:00:00.000000,1.40251615,2.03141399,2.82699525,124,179,250,81,120,167,0.92243305,1.36458099,1.89467154,0.77851642,0.99452531,1.46968449
5077,0,USArkansasLee,Arkansas,Lee,2021-04-04 13:36:50.553981,2020-12-08 00:00:00.000000,1.42223528,2.06470272,2.85019567,125,182,252,83,121,172,0.94102976,1.36860225,1.94537795,0.76846073,0.99821322,1.49370976
5077,0,USArkansasLee,Arkansas,Lee,2021-04-04 13:36:50.553981,2020-12-09 00:00:00.000000,1.50379781,2.08856818,2.86541456,133,184,253,85,122,175,0.96991800,1.38252463,1.97597233,0.70299845,1.00445432,1.49665992
5077,0,USArkansasLee,Arkansas,Lee,2021-04-04 13:36:50.553981,2020-12-10 00:00:00.000000,1.56578957,2.11120905,2.90981578,138,186,257,85,126,176,0.96927154,1.42292701,1.99735200,0.74904664,1.01253583,1.49701522
5077,0,USArkansasLee,Arkansas,Lee,2021-04-04 13:36:50.553981,2020-12-11 00:00:00.000000,1.57419313,2.13946376,2.89737005,139,189,256,86,126,178,0.97260131,1.42982746,2.01381841,0.74327794,1.02022926,1.49704221
5077,0,USArkansasLee,Arkansas,Lee,2021-04-04 13:36:50.553981,2020-12-12 00:00:00.000000,1.58172659,2.17468049,2.93646647,140,192,260,90,127,179,1.02299249,1.43849499,2.02706954,0.71587834,1.03273218,1.49703928
5077,0,USArkansasLee,Arkansas,Lee,2021-04-04 13:36:50.553981,2020-12-13 00:00:00.000000,1.58838232,2.20546197,2.97339229,140,195,263,94,129,180,1.06328962,1.46111126,2.04314809,0.70633063,1.02940178,1.49735230
5077,0,USArkansasLee,Arkansas,Lee,2021-04-04 13:36:50.553981,2020-12-14 00:00:00.000000,1.65257198,2.19603941,3.01970621,146,194,267,93,131,182,1.05408999,1.48109731,2.06532152,0.70455351,1.02750111,1.60576899
5077,0,USArkansasLee,Arkansas,Lee,2021-04-04 13:36:50.553981,2020-12-15 00:00:00.000000,1.65030461,2.20499574,3.07498462,146,195,272,93,131,185,1.05132951,1.48655385,2.09800615,0.70462853,1.01641975,1.65203259
5077,0,USArkansasLee,Arkansas,Lee,2021-04-04 13:36:50.553981,2020-12-16 00:00:00.000000,1.64710516,2.22032507,3.15261786,145,196,279,93,132,188,1.05080693,1.50021074,2.13128389,0.70508236,0.99909446,1.64905493
5077,0,USArkansasLee,Arkansas,Lee,2021-04-04 13:36:50.553981,2020-12-17 00:00:00.000000,1.64288052,2.20043525,3.22672880,145,194,285,93,132,191,1.05082278,1.49810287,2.16322919,0.70556198,0.99825950,1.61370533
5077,0,USArkansasLee,Arkansas,Lee,2021-04-04 13:36:50.553981,2020-12-18 00:00:00.000000,1.61385387,2.20779216,3.29642529,142,195,291,92,133,194,1.04322545,1.50407210,2.19267707,0.70585487,1.01003093,1.47093919
5077,0,USArkansasLee,Arkansas,Lee,2021-04-04 13:36:50.553981,2020-12-19 00:00:00.000000,1.56406503,2.23288920,3.31694497,138,197,293,89,135,196,1.01301619,1.52579439,2.21859976,0.69225557,1.00041486,1.42333998
5077,0,USArkansasLee,Arkansas,Lee,2021-04-04 13:36:50.553981,2020-12-20 00:00:00.000000,1.51499424,2.25484839,3.31059001,134,199,293,87,136,198,0.98231546,1.53700801,2.23930555,0.69448035,0.99525378,1.36103558
5077,0,USArkansasLee,Arkansas,Lee,2021-04-04 13:36:50.553981,2020-12-21 00:00:00.000000,1.54446672,2.24388787,3.30259321,136,198,292,84,135,199,0.95181200,1.53389385,2.25505042,0.67010928,0.98389410,1.36031292
5077,0,USArkansasLee,Arkansas,Lee,2021-04-04 13:36:50.553981,2020-12-22 00:00:00.000000,1.57636229,2.22458304,3.28480676,139,197,290,84,135,201,0.95424829,1.53233933,2.27023884,0.69093014,0.97450294,1.35550603
5077,0,USArkansasLee,Arkansas,Lee,2021-04-04 13:36:50.553981,2020-12-23 00:00:00.000000,1.60781624,2.22358050,3.26430424,142,196,289,85,135,202,0.97080760,1.53005575,2.28249848,0.68051968,0.96055647,1.32088893
5077,0,USArkansasLee,Arkansas,Lee,2021-04-04 13:36:50.553981,2020-12-24 00:00:00.000000,1.57626860,2.20918908,3.26466527,139,195,289,88,133,202,0.99373002,1.51119510,2.29086811,0.66500995,0.95658470,1.26750265
5077,0,USArkansasLee,Arkansas,Lee,2021-04-04 13:36:50.553981,2020-12-25 00:00:00.000000,1.54960456,2.18935577,3.25549619,137,193,288,90,136,203,1.01781678,1.53671907,2.29439937,0.65045433,0.94204239,1.24977782
5077,0,USArkansasLee,Arkansas,Lee,2021-04-04 13:36:50.553981,2020-12-26 00:00:00.000000,1.53229040,2.18201747,3.23812256,135,193,286,91,135,203,1.03432184,1.53010319,2.29203534,0.63519911,0.94274427,1.25412485
5077,0,USArkansasLee,Arkansas,Lee,2021-04-04 13:36:50.553981,2020-12-27 00:00:00.000000,1.48233554,2.20016029,3.21551375,131,194,284,88,134,202,1.00159976,1.51623448,2.28391372,0.62657576,0.92229901,1.25751167
5077,0,USArkansasLee,Arkansas,Lee,2021-04-04 13:36:50.553981,2020-12-28 00:00:00.000000,1.54861057,2.21113779,3.21221141,137,195,284,87,133,200,0.99108572,1.50231295,2.25819448,0.62589374,0.88880616,1.28767492
5077,0,USArkansasLee,Arkansas,Lee,2021-04-04 13:36:50.553981,2020-12-29 00:00:00.000000,1.54934923,2.17771882,3.20669585,137,192,284,89,130,196,1.01508360,1.47101878,2.21817764,0.62473533,0.88967776,1.29403326
5077,0,USArkansasLee,Arkansas,Lee,2021-04-04 13:36:50.553981,2020-12-30 00:00:00.000000,1.57498514,2.15773984,3.20042703,139,191,283,91,131,194,1.02808997,1.48416075,2.20004331,0.62166427,0.86428191,1.29491386
5077,0,USArkansasLee,Arkansas,Lee,2021-04-04 13:36:50.553981,2020-12-31 00:00:00.000000,1.55390802,2.10964148,3.16398323,137,186,280,91,132,192,1.03285014,1.49201846,2.17351438,0.61407231,0.86372004,1.29427909
5077,0,USArkansasLee,Arkansas,Lee,2021-04-04 13:36:50.553981,2021-01-01 00:00:00.000000,1.50555918,2.07302112,3.11700630,133,183,276,92,130,189,1.03931090,1.47073223,2.14280139,0.57084010,0.86147646,1.28792946
5077,0,USArkansasLee,Arkansas,Lee,2021-04-04 13:36:50.553981,2021-01-02 00:00:00.000000,1.47573853,2.05314429,3.15534338,130,181,279,89,128,186,1.01013819,1.45014020,2.10957992,0.53124433,0.83916517,1.27147850
5077,0,USArkansasLee,Arkansas,Lee,2021-04-04 13:36:50.553981,2021-01-03 00:00:00.000000,1.45910480,2.04263086,3.15495787,129,180,279,86,126,188,0.97370950,1.42272959,2.12522296,0.52894011,0.82730631,1.20911508
5077,0,USArkansasLee,Arkansas,Lee,2021-04-04 13:36:50.553981,2021-01-04 00:00:00.000000,1.43477189,1.98807045,3.11645051,127,176,276,82,126,190,0.93665190,1.43105852,2.15077371,0.52895778,0.80923570,1.22255114
5077,0,USArkansasLee,Arkansas,Lee,2021-04-04 13:36:50.553981,2021-01-05 00:00:00.000000,1.40840086,1.96130728,3.06467631,124,173,271,80,123,189,0.90502780,1.39398651,2.13597189,0.51351833,0.79629505,1.19829349
5077,0,USArkansasLee,Arkansas,Lee,2021-04-04 13:36:50.553981,2021-01-06 00:00:00.000000,1.34305777,1.94577532,2.99220907,118,172,265,77,120,186,0.87683836,1.36548989,2.10211028,0.50005524,0.76786372,1.17253640
5077,0,USArkansasLee,Arkansas,Lee,2021-04-04 13:36:50.553981,2021-01-07 00:00:00.000000,1.27260511,1.88739085,2.91629109,112,167,258,75,117,182,0.85729290,1.32644419,2.05908168,0.48966240,0.72788238,1.15671675
5077,0,USArkansasLee,Arkansas,Lee,2021-04-04 13:36:50.553981,2021-01-08 00:00:00.000000,1.20673198,1.83034799,2.82704772,106,162,250,74,114,178,0.83589279,1.29649414,2.01299262,0.47453727,0.71675598,1.13016586
5077,0,USArkansasLee,Arkansas,Lee,2021-04-04 13:36:50.553981,2021-01-09 00:00:00.000000,1.14665533,1.79169087,2.82756369,101,158,250,71,112,180,0.81219263,1.27218945,2.03543488,0.44741225,0.70184671,1.09966332
5077,0,USArkansasLee,Arkansas,Lee,2021-04-04 13:36:50.553981,2021-01-10 00:00:00.000000,1.08912626,1.75412212,2.79117737,96,155,247,69,109,182,0.78483787,1.24066343,2.05627418,0.43421619,0.68770873,1.09680738
5077,0,USArkansasLee,Arkansas,Lee,2021-04-04 13:36:50.553981,2021-01-11 00:00:00.000000,1.04820601,1.67706675,2.73622658,92,148,242,66,105,179,0.75586685,1.19548799,2.02764204,0.44000871,0.66316972,1.09372526
5077,0,USArkansasLee,Arkansas,Lee,2021-04-04 13:36:50.553981,2021-01-12 00:00:00.000000,1.01973408,1.60644890,2.63622663,90,142,233,64,101,174,0.73196875,1.14956143,1.97480395,0.43350373,0.65755933,1.01083012
5077,0,USArkansasLee,Arkansas,Lee,2021-04-04 13:36:50.553981,2021-01-13 00:00:00.000000,0.99642676,1.55914533,2.55729573,88,138,226,63,98,169,0.71468942,1.11047115,1.91153054,0.40909626,0.64849364,0.93971510
5077,0,USArkansasLee,Arkansas,Lee,2021-04-04 13:36:50.553981,2021-01-14 00:00:00.000000,0.96039296,1.49701372,2.51001190,85,132,222,61,94,164,0.69067387,1.06915791,1.85673207,0.38335191,0.63839463,0.86478588
5077,0,USArkansasLee,Arkansas,Lee,2021-04-04 13:36:50.553981,2021-01-15 00:00:00.000000,0.92122339,1.42049796,2.45112427,81,125,217,58,90,162,0.65991168,1.02649997,1.82935796,0.36170213,0.60966130,0.86037070
5077,0,USArkansasLee,Arkansas,Lee,2021-04-04 13:36:50.553981,2021-01-16 00:00:00.000000,0.86477505,1.36178849,2.38595571,76,120,211,55,88,159,0.62173022,0.99776765,1.79570037,0.34063605,0.59147390,0.87589223
5077,0,USArkansasLee,Arkansas,Lee,2021-04-04 13:36:50.553981,2021-01-17 00:00:00.000000,0.82214072,1.30593065,2.31834778,72,115,205,52,85,155,0.58876401,0.96517746,1.75664286,0.33647498,0.57599162,0.87009054
5077,0,USArkansasLee,Arkansas,Lee,2021-04-04 13:36:50.553981,2021-01-18 00:00:00.000000,0.77062581,1.24505095,2.24658782,68,110,198,48,82,151,0.55105117,0.93625168,1.71396789,0.31771049,0.56874874,0.87233088
5077,0,USArkansasLee,Arkansas,Lee,2021-04-04 13:36:50.553981,2021-01-19 00:00:00.000000,0.71922924,1.19203335,2.17559889,63,105,192,45,79,147,0.51331493,0.89575437,1.66778041,0.31439580,0.53750313,0.87341068
5077,0,USArkansasLee,Arkansas,Lee,2021-04-04 13:36:50.553981,2021-01-20 00:00:00.000000,0.66781022,1.13718484,2.09462113,59,100,185,42,74,143,0.47575285,0.84348757,1.62007471,0.31167392,0.52239391,0.87301693
5077,0,USArkansasLee,Arkansas,Lee,2021-04-04 13:36:50.553981,2021-01-21 00:00:00.000000,0.61850180,1.08466529,2.03078938,54,96,179,39,70,136,0.44349821,0.80122153,1.54398973,0.30785217,0.51478099,0.86702232
5077,0,USArkansasLee,Arkansas,Lee,2021-04-04 13:36:50.553981,2021-01-22 00:00:00.000000,0.57237902,1.02927713,1.96834138,50,91,174,36,66,131,0.41175445,0.75529292,1.48928055,0.30103470,0.51317862,0.80891782
5077,0,USArkansasLee,Arkansas,Lee,2021-04-04 13:36:50.553981,2021-01-23 00:00:00.000000,0.52989793,0.98868803,1.90329593,46,87,168,33,63,128,0.38175465,0.71705249,1.44623278,0.28237496,0.50665715,0.79052097
5077,0,USArkansasLee,Arkansas,Lee,2021-04-04 13:36:50.553981,2021-01-24 00:00:00.000000,0.49115296,0.93059486,1.83480831,43,82,162,31,59,124,0.35601853,0.67558229,1.40361036,0.27265679,0.49381543,0.74194653
5077,0,USArkansasLee,Arkansas,Lee,2021-04-04 13:36:50.553981,2021-01-25 00:00:00.000000,0.45418305,0.89155920,1.76447341,40,78,156,29,57,120,0.33233038,0.64408846,1.36157862,0.26858210,0.48807537,0.69178266
5077,0,USArkansasLee,Arkansas,Lee,2021-04-04 13:36:50.553981,2021-01-26 00:00:00.000000,0.42422378,0.85594837,1.68656488,37,75,149,27,54,116,0.31028202,0.61381173,1.31288415,0.26700982,0.47198064,0.69441061
5077,0,USArkansasLee,Arkansas,Lee,2021-04-04 13:36:50.553981,2021-01-27 00:00:00.000000,0.39651564,0.80472553,1.60686998,35,71,142,25,52,111,0.28977522,0.59358768,1.26089947,0.26348663,0.45473826,0.69445005
5077,0,USArkansasLee,Arkansas,Lee,2021-04-04 13:36:50.553981,2021-01-28 00:00:00.000000,0.37104113,0.76152315,1.52837533,32,67,135,23,49,106,0.27075435,0.56087137,1.20750676,0.24681577,0.44468776,0.69429002
5077,0,USArkansasLee,Arkansas,Lee,2021-04-04 13:36:50.553981,2021-01-29 00:00:00.000000,0.34777277,0.72157573,1.45146299,30,63,128,22,47,102,0.25319036,0.53324471,1.15375668,0.23499095,0.43562208,0.69409230
5077,0,USArkansasLee,Arkansas,Lee,2021-04-04 13:36:50.553981,2021-01-30 00:00:00.000000,0.32666411,0.70249912,1.37632828,28,62,121,20,44,97,0.23706112,0.50650929,1.10025374,0.23005009,0.42370650,0.68776304
5077,0,USArkansasLee,Arkansas,Lee,2021-04-04 13:36:50.553981,2021-01-31 00:00:00.000000,0.30763818,0.67813748,1.30288733,27,60,115,19,42,92,0.22233986,0.48273472,1.04736218,0.22839263,0.41890918,0.67672566
5077,0,USArkansasLee,Arkansas,Lee,2021-04-04 13:36:50.553981,2021-02-01 00:00:00.000000,0.30096912,0.64245658,1.24450397,26,56,110,18,41,88,0.20898651,0.46809398,0.99525388,0.22784389,0.42032343,0.66453213
5077,0,USArkansasLee,Arkansas,Lee,2021-04-04 13:36:50.553981,2021-02-02 00:00:00.000000,0.29613253,0.62192913,1.18765615,26,55,105,17,39,83,0.20063758,0.44830456,0.94830095,0.22790257,0.41818227,0.65223285
5077,0,USArkansasLee,Arkansas,Lee,2021-04-04 13:36:50.553981,2021-02-03 00:00:00.000000,0.29303937,0.61151313,1.13351288,25,54,100,17,38,80,0.19530315,0.43176669,0.90453534,0.22810737,0.40840025,0.63936914
5077,0,USArkansasLee,Arkansas,Lee,2021-04-04 13:36:50.553981,2021-02-04 00:00:00.000000,0.29096038,0.57450975,1.08232620,25,50,95,16,36,76,0.19179375,0.41509318,0.86314966,0.22827953,0.39784733,0.62302293
5077,0,USArkansasLee,Arkansas,Lee,2021-04-04 13:36:50.553981,2021-02-05 00:00:00.000000,0.27421674,0.53339946,1.03417518,24,47,91,16,35,72,0.18939765,0.39752106,0.82393160,0.22464643,0.39926443,0.59452893
5077,0,USArkansasLee,Arkansas,Lee,2021-04-04 13:36:50.553981,2021-02-06 00:00:00.000000,0.25471812,0.50893331,1.00137567,22,45,88,16,33,69,0.18769008,0.37999263,0.78684474,0.20898716,0.39296484,0.57151987
5077,0,USArkansasLee,Arkansas,Lee,2021-04-04 13:36:50.553981,2021-02-07 00:00:00.000000,0.23650103,0.48607249,1.03552538,20,43,91,16,31,68,0.18463217,0.35969188,0.76821818,0.20371120,0.38180905,0.56847845
5077,0,USArkansasLee,Arkansas,Lee,2021-04-04 13:36:50.553981,2021-02-08 00:00:00.000000,0.23542887,0.46724778,1.01065740,20,41,89,15,30,64,0.17144018,0.33923139,0.73312080,0.20475178,0.37882624,0.55344094
5077,0,USArkansasLee,Arkansas,Lee,2021-04-04 13:36:50.553981,2021-02-09 00:00:00.000000,0.23529162,0.44485580,0.98371551,20,39,87,15,28,62,0.16961060,0.31993939,0.70159502,0.20527644,0.37043064,0.55215553
5077,0,USArkansasLee,Arkansas,Lee,2021-04-04 13:36:50.553981,2021-02-10 00:00:00.000000,0.23691527,0.43169269,0.95393892,20,38,84,15,27,60,0.17027892,0.30674680,0.68758714,0.20164217,0.36635884,0.55053262
5077,0,USArkansasLee,Arkansas,Lee,2021-04-04 13:36:50.553981,2021-02-11 00:00:00.000000,0.23855012,0.40937341,0.89924786,21,36,79,15,26,59,0.17133856,0.29987132,0.67238383,0.19902579,0.36099563,0.54759007
5077,0,USArkansasLee,Arkansas,Lee,2021-04-04 13:36:50.553981,2021-02-12 00:00:00.000000,0.23497747,0.39884758,0.84551893,20,35,74,15,25,57,0.17119430,0.28490309,0.65448582,0.20061814,0.35911542,0.54146256
5077,0,USArkansasLee,Arkansas,Lee,2021-04-04 13:36:50.553981,2021-02-13 00:00:00.000000,0.21790688,0.39272626,0.79564409,19,34,70,14,24,56,0.15844482,0.27593479,0.63564877,0.20503460,0.35142458,0.52951595
5077,0,USArkansasLee,Arkansas,Lee,2021-04-04 13:36:50.553981,2021-02-14 00:00:00.000000,0.20261563,0.38092059,0.74971551,17,33,66,13,23,53,0.14684759,0.26539798,0.59880041,0.19785691,0.35244843,0.51172012
5077,0,USArkansasLee,Arkansas,Lee,2021-04-04 13:36:50.553981,2021-02-15 00:00:00.000000,0.20598080,0.37310496,0.71972295,18,33,63,12,22,50,0.13642606,0.25394195,0.56462677,0.18015828,0.35452723,0.51990804
5077,0,USArkansasLee,Arkansas,Lee,2021-04-04 13:36:50.553981,2021-02-16 00:00:00.000000,0.21083449,0.36269598,0.70043549,18,32,62,11,22,48,0.13491749,0.24879623,0.54351048,0.17551338,0.34907923,0.51768550
5077,0,USArkansasLee,Arkansas,Lee,2021-04-04 13:36:50.553981,2021-02-17 00:00:00.000000,0.21361618,0.35321607,0.68222040,18,31,60,12,21,46,0.13733628,0.24288864,0.52731944,0.17525797,0.35004369,0.51746813
5077,0,USArkansasLee,Arkansas,Lee,2021-04-04 13:36:50.553981,2021-02-18 00:00:00.000000,0.21401254,0.34501495,0.66487711,18,30,58,12,20,45,0.14127100,0.23700786,0.51231678,0.17528947,0.35543225,0.51880270
5077,0,USArkansasLee,Arkansas,Lee,2021-04-04 13:36:50.553981,2021-02-19 00:00:00.000000,0.21391559,0.34289660,0.64827682,18,30,57,12,20,44,0.14555667,0.23373225,0.49825526,0.17579570,0.35200145,0.51997018
5077,0,USArkansasLee,Arkansas,Lee,2021-04-04 13:36:50.553981,2021-02-20 00:00:00.000000,0.20645382,0.34091322,0.63233563,18,30,56,12,20,42,0.14552173,0.23170148,0.48496828,0.17714833,0.34309741,0.51905900
5077,0,USArkansasLee,Arkansas,Lee,2021-04-04 13:36:50.553981,2021-02-21 00:00:00.000000,0.19775155,0.32212536,0.61699609,17,28,54,12,20,41,0.14027337,0.22653178,0.47234239,0.17808847,0.33421925,0.52098959
5077,0,USArkansasLee,Arkansas,Lee,2021-04-04 13:36:50.553981,2021-02-22 00:00:00.000000,0.18668283,0.32371000,0.60992802,16,28,54,11,19,40,0.13505237,0.22300234,0.46029715,0.17828990,0.33264942,0.51317059
5077,0,USArkansasLee,Arkansas,Lee,2021-04-04 13:36:50.553981,2021-02-23 00:00:00.000000,0.18322480,0.31932260,0.60341532,16,28,53,11,19,39,0.13205911,0.22433501,0.44986545,0.17834955,0.32960682,0.50771178
5077,0,USArkansasLee,Arkansas,Lee,2021-04-04 13:36:50.553981,2021-02-24 00:00:00.000000,0.18287263,0.31433160,0.59755659,16,27,52,11,19,38,0.13052242,0.22166114,0.44014683,0.17852024,0.32488094,0.50546680
5077,0,USArkansasLee,Arkansas,Lee,2021-04-04 13:36:50.553981,2021-02-25 00:00:00.000000,0.18291837,0.30602474,0.59207708,16,27,52,11,19,38,0.12926274,0.21849847,0.43219505,0.17778549,0.31861645,0.49937522
5077,0,USArkansasLee,Arkansas,Lee,2021-04-04 13:36:50.553981,2021-02-26 00:00:00.000000,0.18305469,0.30065609,0.58691957,16,26,51,11,19,37,0.12800156,0.21471361,0.42533783,0.17316118,0.31748310,0.50470718
5077,0,USArkansasLee,Arkansas,Lee,2021-04-04 13:36:50.553981,2021-02-27 00:00:00.000000,0.18316949,0.29455617,0.58761644,16,26,52,11,18,37,0.12706953,0.21047846,0.41917552,0.16918720,0.32198510,0.50897957
5077,0,USArkansasLee,Arkansas,Lee,2021-04-04 13:36:50.553981,2021-02-28 00:00:00.000000,0.17855473,0.29027278,0.58152835,15,25,51,11,18,36,0.12560797,0.20498238,0.41347224,0.16357651,0.32736239,0.51741848
5077,0,USArkansasLee,Arkansas,Lee,2021-04-04 13:36:50.553981,2021-03-01 00:00:00.000000,0.17884351,0.30377235,0.58427405,15,26,51,10,17,37,0.12068014,0.19931824,0.42123157,0.15956546,0.32145633,0.53924350
5077,0,USArkansasLee,Arkansas,Lee,2021-04-04 13:36:50.553981,2021-03-02 00:00:00.000000,0.17166461,0.29935229,0.55300224,15,26,48,10,18,36,0.11993920,0.20462190,0.41347974,0.16104590,0.32224300,0.56760291
5077,0,USArkansasLee,Arkansas,Lee,2021-04-04 13:36:50.553981,2021-03-03 00:00:00.000000,0.15704890,0.29472833,0.55011204,13,26,48,10,18,35,0.11919143,0.20452323,0.40422841,0.16235986,0.32220691,0.58113766
5077,0,USArkansasLee,Arkansas,Lee,2021-04-04 13:36:50.553981,2021-03-04 00:00:00.000000,0.14403389,0.28649654,0.54807567,12,25,48,9,18,35,0.10967079,0.20434740,0.40197816,0.16376445,0.31882996,0.58932159
5077,0,USArkansasLee,Arkansas,Lee,2021-04-04 13:36:50.553981,2021-03-05 00:00:00.000000,0.13730296,0.28177187,0.54638214,12,24,48,9,17,35,0.10197323,0.20210571,0.40041541,0.16430066,0.32250622,0.59268597
5077,0,USArkansasLee,Arkansas,Lee,2021-04-04 13:36:50.553981,2021-03-06 00:00:00.000000,0.13315927,0.27122760,0.54478886,11,24,48,8,17,35,0.09705327,0.19985693,0.39889745,0.16422739,0.31724827,0.59220812
5077,0,USArkansasLee,Arkansas,Lee,2021-04-04 13:36:50.553981,2021-03-07 00:00:00.000000,0.13125693,0.26876743,0.56909515,11,23,50,8,17,35,0.09253917,0.19407933,0.39764234,0.16235157,0.31273133,0.58593144
5077,0,USArkansasLee,Arkansas,Lee,2021-04-04 13:36:50.553981,2021-03-08 00:00:00.000000,0.13597239,0.26760546,0.59690533,12,23,52,7,16,36,0.08847569,0.19018929,0.40737488,0.15746558,0.30744785,0.56093479
5077,0,USArkansasLee,Arkansas,Lee,2021-04-04 13:36:50.553981,2021-03-09 00:00:00.000000,0.14120459,0.26434787,0.58779525,12,23,52,7,16,36,0.08371133,0.18914314,0.41567364,0.15116206,0.30357286,0.53857610
5077,0,USArkansasLee,Arkansas,Lee,2021-04-04 13:36:50.553981,2021-03-10 00:00:00.000000,0.13855852,0.26148024,0.57671584,12,23,51,7,16,36,0.08585771,0.18725503,0.41135236,0.14746017,0.29675248,0.51442729
5077,0,USArkansasLee,Arkansas,Lee,2021-04-04 13:36:50.553981,2021-03-11 00:00:00.000000,0.13424268,0.25946799,0.56464044,11,22,50,7,16,35,0.09004891,0.18400169,0.40537676,0.14596939,0.29621756,0.49316690
5077,0,USArkansasLee,Arkansas,Lee,2021-04-04 13:36:50.553981,2021-03-12 00:00:00.000000,0.12728657,0.25390563,0.55327099,11,22,49,8,15,35,0.09174576,0.17893184,0.39760371,0.14503512,0.29362023,0.47708025
5077,0,USArkansasLee,Arkansas,Lee,2021-04-04 13:36:50.553981,2021-03-13 00:00:00.000000,0.12105381,0.24716301,0.51303875,10,21,45,7,15,34,0.08698004,0.17513430,0.38986542,0.14325183,0.28982613,0.46800254
5077,0,USArkansasLee,Arkansas,Lee,2021-04-04 13:36:50.553981,2021-03-14 00:00:00.000000,0.11552131,0.24079615,0.50452631,10,21,44,7,15,33,0.08263439,0.17053428,0.38249146,0.14025037,0.28875303,0.46428873
5077,0,USArkansasLee,Arkansas,Lee,2021-04-04 13:36:50.553981,2021-03-15 00:00:00.000000,0.12532397,0.24661398,0.50892427,11,21,45,6,14,31,0.07874203,0.16869170,0.35559351,0.14562759,0.28531796,0.46903030
5077,0,USArkansasLee,Arkansas,Lee,2021-04-04 13:36:50.553981,2021-03-16 00:00:00.000000,0.13260646,0.25347717,0.52368181,11,22,46,7,14,30,0.08240534,0.16518625,0.34430713,0.13619931,0.28186649,0.47565365
5077,0,USArkansasLee,Arkansas,Lee,2021-04-04 13:36:50.553981,2021-03-17 00:00:00.000000,0.12037071,0.24676998,0.60726449,10,21,53,7,14,30,0.08939050,0.16471806,0.34737242,0.13572915,0.28465753,0.47951384
5077,0,USArkansasLee,Arkansas,Lee,2021-04-04 13:36:50.553981,2021-03-18 00:00:00.000000,0.11823446,0.24215357,0.68534977,10,21,60,7,14,31,0.08310603,0.16674228,0.35289450,0.13533907,0.27932435,0.48152795
5077,0,USArkansasLee,Arkansas,Lee,2021-04-04 13:36:50.553981,2021-03-19 00:00:00.000000,0.11926690,0.23949530,0.75651367,10,21,67,6,14,35,0.07809684,0.16814647,0.40304533,0.13437159,0.28334228,0.48248602
5077,0,USArkansasLee,Arkansas,Lee,2021-04-04 13:36:50.553981,2021-03-20 00:00:00.000000,0.12025211,0.23574158,0.72369491,10,20,64,6,14,39,0.07870692,0.16551864,0.45025645,0.13374564,0.28695619,0.48288332
5077,0,USArkansasLee,Arkansas,Lee,2021-04-04 13:36:50.553981,2021-03-21 00:00:00.000000,0.12132527,0.23426238,0.69162316,10,20,61,7,14,43,0.07933456,0.16085755,0.49319710,0.13529996,0.27610237,0.48300093
5077,0,USArkansasLee,Arkansas,Lee,2021-04-04 13:36:50.553981,2021-03-22 00:00:00.000000,0.12426911,0.23854884,0.66661665,11,21,59,7,14,45,0.08002975,0.15957974,0.51518598,0.13906437,0.27710866,0.48325262
5077,0,USArkansasLee,Arkansas,Lee,2021-04-04 13:36:50.553981,2021-03-23 00:00:00.000000,0.14224377,0.23934440,0.64418790,12,21,57,7,14,43,0.08153488,0.16244894,0.49564749,0.14448536,0.28117817,0.48501761
5077,0,USArkansasLee,Arkansas,Lee,2021-04-04 13:36:50.553981,2021-03-24 00:00:00.000000,0.15223843,0.23676699,0.62416427,13,20,55,7,14,42,0.08985132,0.16193118,0.47867723,0.14845452,0.28457070,0.48231771
5077,0,USArkansasLee,Arkansas,Lee,2021-04-04 13:36:50.553981,2021-03-25 00:00:00.000000,0.13858222,0.23964168,0.60605308,12,21,53,9,14,41,0.10334872,0.16276475,0.46353238,0.14266544,0.28112222,0.48250638
5077,0,USArkansasLee,Arkansas,Lee,2021-04-04 13:36:50.553981,2021-03-26 00:00:00.000000,0.13224081,0.24392166,0.58954822,11,21,52,8,14,39,0.09653184,0.16313210,0.44981134,0.13355720,0.28733526,0.48577840
5077,0,USArkansasLee,Arkansas,Lee,2021-04-04 13:36:50.553981,2021-03-27 00:00:00.000000,0.13346714,0.24802411,0.58590753,11,21,51,7,14,38,0.08799802,0.16289243,0.43727714,0.14129407,0.28985546,0.48725471
5077,0,USArkansasLee,Arkansas,Lee,2021-04-04 13:36:50.553981,2021-03-28 00:00:00.000000,0.12530811,0.25193201,0.63068922,11,22,55,7,14,37,0.08787331,0.16322725,0.42577403,0.14469911,0.29074344,0.49101552
5077,0,USArkansasLee,Arkansas,Lee,2021-04-04 13:36:50.553981,2021-03-29 00:00:00.000000,0.11069837,0.23528348,0.58121607,9,20,51,7,14,36,0.08359473,0.16472300,0.41518612,0.13476493,0.28903557,0.49646795
5077,0,USArkansasLee,Arkansas,Lee,2021-04-04 13:36:50.553981,2021-03-30 00:00:00.000000,0.09761073,0.21670824,0.52353252,8,19,46,6,13,34,0.07561203,0.15584935,0.39406774,0.13038481,0.29091996,0.50179301
5077,0,USArkansasLee,Arkansas,Lee,2021-04-04 13:36:50.553981,2021-03-31 00:00:00.000000,0.08579806,0.19590794,0.47003121,7,17,41,5,12,32,0.06726539,0.14570469,0.37025805,0.12867105,0.28822243,0.50969904
5077,0,USArkansasLee,Arkansas,Lee,2021-04-04 13:36:50.553981,2021-04-01 00:00:00.000000,0.07536951,0.17616302,0.44100941,6,15,39,5,11,31,0.05923893,0.13450767,0.35398036,0.12786774,0.29232870,0.50951257
5077,0,USArkansasLee,Arkansas,Lee,2021-04-04 13:36:50.553981,2021-04-02 00:00:00.000000,0.06542923,0.15746216,0.41271684,5,13,36,4,10,29,0.05184817,0.12320705,0.32790186,0.12551680,0.29800530,0.50767680
5077,0,USArkansasLee,Arkansas,Lee,2021-04-04 13:36:50.553981,2021-04-03 00:00:00.000000,0.05662361,0.14066266,0.37527672,5,12,33,4,9,26,0.04520257,0.11204145,0.29917830,0.11334697,0.29520377,0.53209876
5077,0,USArkansasLee,Arkansas,Lee,2021-04-04 13:36:50.553981,2021-04-04 00:00:00.000000,0.04892418,0.12555628,0.34024871,4,11,30,3,8,24,0.03928689,0.10044823,0.27242502,0.10704962,0.29921616,0.54527775
5077,0,USArkansasLee,Arkansas,Lee,2021-04-04 13:36:50.553981,2021-04-05 00:00:00.000000,0.04224388,0.11263343,0.30862405,3,9,27,3,7,22,0.03406913,0.09017333,0.25032209,0.10651812,0.30281744,0.55197389
5077,0,USArkansasLee,Arkansas,Lee,2021-04-04 13:36:50.553981,2021-04-06 00:00:00.000000,0.03646639,0.10233097,0.28008994,3,9,24,2,7,20,0.02950475,0.08088798,0.23128544,0.10648550,0.30302371,0.58105586
5077,0,USArkansasLee,Arkansas,Lee,2021-04-04 13:36:50.553981,2021-04-07 00:00:00.000000,0.03147965,0.09237690,0.25509926,2,8,22,2,6,18,0.02553279,0.07273505,0.21376065,0.10648313,0.30304042,0.60768081
5077,0,USArkansasLee,Arkansas,Lee,2021-04-04 13:36:50.553981,2021-04-08 00:00:00.000000,0.02717965,0.08343115,0.23570923,2,7,20,1,5,17,0.02208725,0.06585078,0.19761856,0.10648283,0.30304363,0.62936273
5077,0,USArkansasLee,Arkansas,Lee,2021-04-04 13:36:50.553981,2021-04-09 00:00:00.000000,0.02347312,0.07599592,0.21979701,2,6,19,1,5,16,0.01910389,0.06021161,0.18273659,0.10648276,0.30304454,0.63716142
5077,0,USArkansasLee,Arkansas,Lee,2021-04-04 13:36:50.553981,2021-04-10 00:00:00.000000,0.02027804,0.06914436,0.21095228,1,6,18,1,4,14,0.01652336,0.05528627,0.16900498,0.10648274,0.30304482,0.63744257
5077,0,USArkansasLee,Arkansas,Lee,2021-04-04 13:36:50.553981,2021-04-11 00:00:00.000000,0.01752314,0.06292966,0.20254999,1,5,17,1,4,13,0.01429240,0.05078342,0.15632652,0.10648273,0.30304491,0.63762334
5077,0,USArkansasLee,Arkansas,Lee,2021-04-04 13:36:50.553981,2021-04-12 00:00:00.000000,0.01514690,0.05752861,0.19452729,1,5,17,1,4,13,0.01236405,0.04665658,0.14930712,0.10648273,0.30304493,0.63773627
5077,0,USArkansasLee,Arkansas,Lee,2021-04-04 13:36:50.553981,2021-04-13 00:00:00.000000,0.01309642,0.05261754,0.18684334,1,4,16,0,3,12,0.01069726,0.04280323,0.14336387,0.10648273,0.30304494,0.63780538
5077,0,USArkansasLee,Arkansas,Lee,2021-04-04 13:36:50.553981,2021-04-14 00:00:00.000000,0.01132629,0.04813403,0.17947102,1,4,15,0,3,12,0.00925641,0.03878104,0.13767844,0.10648273,0.30304494,0.63784712
5077,0,USArkansasLee,Arkansas,Lee,2021-04-04 13:36:50.553981,2021-04-15 00:00:00.000000,0.00979757,0.04412768,0.17239127,0,3,15,0,3,11,0.00801067,0.03546327,0.13222906,0.10648273,0.30304495,0.63787214
5077,0,USArkansasLee,Arkansas,Lee,2021-04-04 13:36:50.553981,2021-04-16 00:00:00.000000,0.00847682,0.04054760,0.16351957,0,3,14,0,2,11,0.00693342,0.03257891,0.12700006,0.10648273,0.30304495,0.63788707
