FIPS,HR_UID,nameid,province,region,analysisTime,dates,pointprevalence_025,pointprevalence_50,pointprevalence_975,pointinfections_025,pointinfections_50,pointinfections_975,pointinfectious_025,pointinfectious_50,pointinfectious_975,pointinfectiousprevalence_05,pointinfectiousprevalence_50,pointinfectiousprevalence_95,infectrate_025,infectrate_50,infectrate_975
27065,0,USMinnesotaKanabec,Minnesota,Kanabec,2021-04-04 08:57:41.920553,2020-03-09 00:00:00.000000,0.00184236,0.01063134,0.03703306,0,1,6,0,0,3,0.00094262,0.00577601,0.02082455,0.43336586,0.53796532,0.72390715
27065,0,USMinnesotaKanabec,Minnesota,Kanabec,2021-04-04 08:57:41.920553,2020-03-10 00:00:00.000000,0.00221454,0.01175174,0.04003718,0,1,6,0,0,3,0.00096126,0.00597313,0.01938177,0.43336550,0.53792146,0.72390656
27065,0,USMinnesotaKanabec,Minnesota,Kanabec,2021-04-04 08:57:41.920553,2020-03-11 00:00:00.000000,0.00247453,0.01272673,0.04229641,0,2,6,0,1,3,0.00102610,0.00625087,0.01887074,0.43336484,0.53785661,0.72390469
27065,0,USMinnesotaKanabec,Minnesota,Kanabec,2021-04-04 08:57:41.920553,2020-03-12 00:00:00.000000,0.00270669,0.01390753,0.04471591,0,2,7,0,1,3,0.00109091,0.00672293,0.01902500,0.43336363,0.53776035,0.72389867
27065,0,USMinnesotaKanabec,Minnesota,Kanabec,2021-04-04 08:57:41.920553,2020-03-13 00:00:00.000000,0.00294537,0.01529819,0.04728179,0,2,7,0,1,3,0.00118934,0.00713344,0.02014689,0.43336144,0.53761661,0.72387911
27065,0,USMinnesotaKanabec,Minnesota,Kanabec,2021-04-04 08:57:41.920553,2020-03-14 00:00:00.000000,0.00319587,0.01676065,0.04995636,0,2,8,0,1,3,0.00131018,0.00789693,0.02176398,0.43335741,0.53739970,0.72381518
27065,0,USMinnesotaKanabec,Minnesota,Kanabec,2021-04-04 08:57:41.920553,2020-03-15 00:00:00.000000,0.00346191,0.01806973,0.05264585,0,2,8,0,1,4,0.00144589,0.00848814,0.02458206,0.42483568,0.53638909,0.72360543
27065,0,USMinnesotaKanabec,Minnesota,Kanabec,2021-04-04 08:57:41.920553,2020-03-16 00:00:00.000000,0.00374575,0.01987313,0.05758963,0,3,9,0,1,4,0.00159307,0.00900353,0.02653416,0.40901826,0.52330731,0.72291682
27065,0,USMinnesotaKanabec,Minnesota,Kanabec,2021-04-04 08:57:41.920553,2020-03-17 00:00:00.000000,0.00404753,0.02148005,0.06241657,0,3,10,0,1,4,0.00175016,0.00954506,0.02827126,0.40430919,0.52055037,0.72066605
27065,0,USMinnesotaKanabec,Minnesota,Kanabec,2021-04-04 08:57:41.920553,2020-03-18 00:00:00.000000,0.00436328,0.02305784,0.06686319,0,3,10,0,1,4,0.00191635,0.01011407,0.03017779,0.40223788,0.51924482,0.71331523
27065,0,USMinnesotaKanabec,Minnesota,Kanabec,2021-04-04 08:57:41.920553,2020-03-19 00:00:00.000000,0.00468144,0.02455341,0.07118723,0,4,11,0,1,5,0.00209059,0.01089485,0.03204085,0.37861529,0.51408486,0.69095255
27065,0,USMinnesotaKanabec,Minnesota,Kanabec,2021-04-04 08:57:41.920553,2020-03-20 00:00:00.000000,0.00498325,0.02595219,0.07558781,0,4,12,0,1,5,0.00227025,0.01184211,0.03307640,0.34526338,0.49788025,0.65394132
27065,0,USMinnesotaKanabec,Minnesota,Kanabec,2021-04-04 08:57:41.920553,2020-03-21 00:00:00.000000,0.00525605,0.02774324,0.08015547,0,4,13,0,2,5,0.00245030,0.01292713,0.03473068,0.32004960,0.47750296,0.63053813
27065,0,USMinnesotaKanabec,Minnesota,Kanabec,2021-04-04 08:57:41.920553,2020-03-22 00:00:00.000000,0.00550520,0.02948030,0.08492743,0,4,13,0,2,6,0.00262507,0.01406642,0.03800782,0.31342864,0.45540900,0.61403320
27065,0,USMinnesotaKanabec,Minnesota,Kanabec,2021-04-04 08:57:41.920553,2020-03-23 00:00:00.000000,0.00574277,0.03047875,0.08991759,0,4,14,0,2,6,0.00279164,0.01519850,0.04153753,0.30301852,0.43415145,0.59294251
27065,0,USMinnesotaKanabec,Minnesota,Kanabec,2021-04-04 08:57:41.920553,2020-03-24 00:00:00.000000,0.00596910,0.03221190,0.09512629,0,5,15,0,2,7,0.00295023,0.01618421,0.04519715,0.29352451,0.42006706,0.57158836
27065,0,USMinnesotaKanabec,Minnesota,Kanabec,2021-04-04 08:57:41.920553,2020-03-25 00:00:00.000000,0.00630572,0.03467149,0.09842471,1,5,16,0,2,7,0.00310112,0.01691091,0.04811970,0.27737161,0.40426377,0.55845884
27065,0,USMinnesotaKanabec,Minnesota,Kanabec,2021-04-04 08:57:41.920553,2020-03-26 00:00:00.000000,0.00666484,0.03622350,0.10073205,1,5,16,0,2,8,0.00323847,0.01752171,0.05021511,0.25878277,0.39072156,0.54936824
27065,0,USMinnesotaKanabec,Minnesota,Kanabec,2021-04-04 08:57:41.920553,2020-03-27 00:00:00.000000,0.00701316,0.03792499,0.10275582,1,6,16,0,2,8,0.00334934,0.01816884,0.05174912,0.25718104,0.37713383,0.52689188
27065,0,USMinnesotaKanabec,Minnesota,Kanabec,2021-04-04 08:57:41.920553,2020-03-28 00:00:00.000000,0.00736847,0.03901414,0.10461917,1,6,17,0,3,8,0.00345833,0.01890676,0.05288030,0.25421763,0.35567136,0.51417038
27065,0,USMinnesotaKanabec,Minnesota,Kanabec,2021-04-04 08:57:41.920553,2020-03-29 00:00:00.000000,0.00773446,0.04030846,0.10832890,1,6,17,0,3,8,0.00365828,0.02003018,0.05375165,0.23464991,0.33850387,0.50142621
27065,0,USMinnesotaKanabec,Minnesota,Kanabec,2021-04-04 08:57:41.920553,2020-03-30 00:00:00.000000,0.00811020,0.04125049,0.11282394,1,6,18,0,3,8,0.00385716,0.02108175,0.05448034,0.22130349,0.33179189,0.47393891
27065,0,USMinnesotaKanabec,Minnesota,Kanabec,2021-04-04 08:57:41.920553,2020-03-31 00:00:00.000000,0.00849273,0.04208548,0.11406958,1,6,18,0,3,9,0.00405752,0.02209876,0.05584082,0.20536698,0.32652037,0.45957501
27065,0,USMinnesotaKanabec,Minnesota,Kanabec,2021-04-04 08:57:41.920553,2020-04-01 00:00:00.000000,0.00887746,0.04284207,0.11512310,1,6,18,0,3,9,0.00426022,0.02278069,0.06040361,0.20290194,0.31350623,0.45466416
27065,0,USMinnesotaKanabec,Minnesota,Kanabec,2021-04-04 08:57:41.920553,2020-04-02 00:00:00.000000,0.00925834,0.04349377,0.11563662,1,7,18,0,3,10,0.00446483,0.02307663,0.06165003,0.19980011,0.30257571,0.44649210
27065,0,USMinnesotaKanabec,Minnesota,Kanabec,2021-04-04 08:57:41.920553,2020-04-03 00:00:00.000000,0.00962820,0.04347523,0.11702106,1,7,19,0,3,10,0.00466978,0.02370746,0.06287497,0.20153491,0.29193531,0.43500668
27065,0,USMinnesotaKanabec,Minnesota,Kanabec,2021-04-04 08:57:41.920553,2020-04-04 00:00:00.000000,0.00997959,0.04242502,0.12234545,1,6,19,0,3,10,0.00487260,0.02397324,0.06399593,0.20118940,0.28410266,0.41462136
27065,0,USMinnesotaKanabec,Minnesota,Kanabec,2021-04-04 08:57:41.920553,2020-04-05 00:00:00.000000,0.01030604,0.04232179,0.12701161,1,6,20,0,3,10,0.00507023,0.02442666,0.06495171,0.18984599,0.27666982,0.40167380
27065,0,USMinnesotaKanabec,Minnesota,Kanabec,2021-04-04 08:57:41.920553,2020-04-06 00:00:00.000000,0.01056012,0.04304272,0.13141172,1,7,21,0,4,10,0.00525943,0.02480877,0.06580955,0.17673021,0.26408800,0.39126449
27065,0,USMinnesotaKanabec,Minnesota,Kanabec,2021-04-04 08:57:41.920553,2020-04-07 00:00:00.000000,0.01067987,0.04332436,0.13579443,1,7,22,0,4,11,0.00543732,0.02501392,0.06756018,0.16813419,0.25669582,0.38883802
27065,0,USMinnesotaKanabec,Minnesota,Kanabec,2021-04-04 08:57:41.920553,2020-04-08 00:00:00.000000,0.01078646,0.04311004,0.14021894,1,7,22,0,4,11,0.00560184,0.02516922,0.06962414,0.16444135,0.25449639,0.38720476
27065,0,USMinnesotaKanabec,Minnesota,Kanabec,2021-04-04 08:57:41.920553,2020-04-09 00:00:00.000000,0.01088692,0.04239780,0.14467075,1,6,23,0,4,11,0.00575186,0.02527925,0.07214985,0.16132132,0.24104394,0.38167214
27065,0,USMinnesotaKanabec,Minnesota,Kanabec,2021-04-04 08:57:41.920553,2020-04-10 00:00:00.000000,0.01098703,0.04233242,0.14892385,1,6,24,0,4,12,0.00588724,0.02537434,0.07463891,0.15226870,0.24178224,0.36957952
27065,0,USMinnesotaKanabec,Minnesota,Kanabec,2021-04-04 08:57:41.920553,2020-04-11 00:00:00.000000,0.01108996,0.04211998,0.15263548,1,6,24,0,4,12,0.00600866,0.02551674,0.07706739,0.14224532,0.23048859,0.35723134
27065,0,USMinnesotaKanabec,Minnesota,Kanabec,2021-04-04 08:57:41.920553,2020-04-12 00:00:00.000000,0.01119634,0.04153658,0.15115407,1,6,24,0,4,12,0.00611601,0.02551071,0.07935411,0.13712839,0.22240659,0.35595716
27065,0,USMinnesotaKanabec,Minnesota,Kanabec,2021-04-04 08:57:41.920553,2020-04-13 00:00:00.000000,0.01664295,0.05183875,0.15305415,2,8,25,1,4,13,0.00620590,0.02503547,0.08146874,0.13085977,0.20802423,0.35733934
27065,0,USMinnesotaKanabec,Minnesota,Kanabec,2021-04-04 08:57:41.920553,2020-04-14 00:00:00.000000,0.02748759,0.06041702,0.15474728,4,9,25,1,4,13,0.00716508,0.02578981,0.08480536,0.12353068,0.20671094,0.35826520
27065,0,USMinnesotaKanabec,Minnesota,Kanabec,2021-04-04 08:57:41.920553,2020-04-15 00:00:00.000000,0.03410117,0.07027190,0.16897677,5,11,27,1,5,14,0.00862679,0.03061832,0.08897911,0.12074855,0.20471891,0.35525950
27065,0,USMinnesotaKanabec,Minnesota,Kanabec,2021-04-04 08:57:41.920553,2020-04-16 00:00:00.000000,0.03870897,0.07664855,0.19181875,6,12,31,2,5,15,0.01284396,0.03472050,0.09374314,0.11927322,0.19806052,0.35201773
27065,0,USMinnesotaKanabec,Minnesota,Kanabec,2021-04-04 08:57:41.920553,2020-04-17 00:00:00.000000,0.04327407,0.08798304,0.21094779,7,14,34,2,6,16,0.01692401,0.03881242,0.09907832,0.11586721,0.19127894,0.34939653
27065,0,USMinnesotaKanabec,Minnesota,Kanabec,2021-04-04 08:57:41.920553,2020-04-18 00:00:00.000000,0.04751244,0.09708325,0.23410600,7,15,38,2,7,19,0.01830819,0.04332218,0.11677869,0.10457149,0.18634256,0.33640200
27065,0,USMinnesotaKanabec,Minnesota,Kanabec,2021-04-04 08:57:41.920553,2020-04-19 00:00:00.000000,0.04841729,0.10694712,0.25613727,7,17,41,3,8,21,0.01974988,0.04939021,0.13208153,0.10114223,0.18618576,0.33201013
27065,0,USMinnesotaKanabec,Minnesota,Kanabec,2021-04-04 08:57:41.920553,2020-04-20 00:00:00.000000,0.05767742,0.11799589,0.26313776,9,19,42,3,8,24,0.02121059,0.05326209,0.14700449,0.10034875,0.18172705,0.31479387
27065,0,USMinnesotaKanabec,Minnesota,Kanabec,2021-04-04 08:57:41.920553,2020-04-21 00:00:00.000000,0.06309621,0.12546505,0.27545370,10,20,45,3,9,25,0.02336108,0.05854017,0.15788675,0.09968497,0.17926525,0.30424401
27065,0,USMinnesotaKanabec,Minnesota,Kanabec,2021-04-04 08:57:41.920553,2020-04-22 00:00:00.000000,0.07358278,0.13455230,0.29503723,12,21,48,4,10,27,0.02692533,0.06372848,0.16644941,0.09922054,0.17661038,0.27825916
27065,0,USMinnesotaKanabec,Minnesota,Kanabec,2021-04-04 08:57:41.920553,2020-04-23 00:00:00.000000,0.07919498,0.14835157,0.30427848,12,24,49,5,11,28,0.03262840,0.06863550,0.17365577,0.09903679,0.17385284,0.27140484
27065,0,USMinnesotaKanabec,Minnesota,Kanabec,2021-04-04 08:57:41.920553,2020-04-24 00:00:00.000000,0.08216497,0.15557624,0.31281287,13,25,51,5,11,29,0.03400648,0.07181586,0.18003591,0.09870401,0.16707890,0.26088542
27065,0,USMinnesotaKanabec,Minnesota,Kanabec,2021-04-04 08:57:41.920553,2020-04-25 00:00:00.000000,0.08816563,0.16541678,0.32043904,14,27,52,5,12,30,0.03533676,0.07836809,0.18585042,0.09494107,0.16341930,0.25276059
27065,0,USMinnesotaKanabec,Minnesota,Kanabec,2021-04-04 08:57:41.920553,2020-04-26 00:00:00.000000,0.09495606,0.17347945,0.32651310,15,28,53,6,13,31,0.03794368,0.08302371,0.19112812,0.09353788,0.16174606,0.24525058
27065,0,USMinnesotaKanabec,Minnesota,Kanabec,2021-04-04 08:57:41.920553,2020-04-27 00:00:00.000000,0.11606711,0.17897017,0.32424438,18,29,52,6,14,31,0.04266983,0.08832285,0.19562211,0.09203637,0.15991790,0.23885793
27065,0,USMinnesotaKanabec,Minnesota,Kanabec,2021-04-04 08:57:41.920553,2020-04-28 00:00:00.000000,0.12424202,0.19279051,0.33388413,20,31,54,7,15,32,0.04798526,0.09267529,0.19733941,0.09119708,0.15383620,0.23388557
27065,0,USMinnesotaKanabec,Minnesota,Kanabec,2021-04-04 08:57:41.920553,2020-04-29 00:00:00.000000,0.13011466,0.20149737,0.34577779,21,32,56,8,16,33,0.05139982,0.09887028,0.20513037,0.09072263,0.15138010,0.23154215
27065,0,USMinnesotaKanabec,Minnesota,Kanabec,2021-04-04 08:57:41.920553,2020-04-30 00:00:00.000000,0.12883204,0.20826310,0.35669549,21,34,58,9,17,33,0.06058473,0.10447735,0.20280392,0.08398072,0.14975332,0.22887820
27065,0,USMinnesotaKanabec,Minnesota,Kanabec,2021-04-04 08:57:41.920553,2020-05-01 00:00:00.000000,0.12685712,0.21681002,0.37288093,20,35,60,10,18,33,0.06167070,0.11102332,0.20766252,0.08407580,0.14043587,0.22467467
27065,0,USMinnesotaKanabec,Minnesota,Kanabec,2021-04-04 08:57:41.920553,2020-05-02 00:00:00.000000,0.12430823,0.21593480,0.37656881,20,35,61,11,18,35,0.06748234,0.11586146,0.21493760,0.07877247,0.13270215,0.21477779
27065,0,USMinnesotaKanabec,Minnesota,Kanabec,2021-04-04 08:57:41.920553,2020-05-03 00:00:00.000000,0.12141760,0.22220341,0.38564501,19,36,63,11,19,35,0.07097767,0.11850180,0.21610533,0.06927112,0.13315423,0.21254934
27065,0,USMinnesotaKanabec,Minnesota,Kanabec,2021-04-04 08:57:41.920553,2020-05-04 00:00:00.000000,0.13015774,0.22512408,0.38694282,21,36,63,11,19,34,0.06959981,0.12144495,0.21169236,0.06657941,0.13411620,0.21139408
27065,0,USMinnesotaKanabec,Minnesota,Kanabec,2021-04-04 08:57:41.920553,2020-05-05 00:00:00.000000,0.13851945,0.22934430,0.38687671,22,37,63,11,19,37,0.07108325,0.12179360,0.22709565,0.06534182,0.13245164,0.21054664
27065,0,USMinnesotaKanabec,Minnesota,Kanabec,2021-04-04 08:57:41.920553,2020-05-06 00:00:00.000000,0.14701421,0.23357909,0.38586336,24,38,63,11,20,38,0.06862436,0.12340796,0.23411542,0.06461218,0.12579338,0.20906330
27065,0,USMinnesotaKanabec,Minnesota,Kanabec,2021-04-04 08:57:41.920553,2020-05-07 00:00:00.000000,0.15073480,0.23572861,0.38413651,24,38,62,10,20,38,0.06588410,0.12535373,0.23529765,0.06903921,0.12099752,0.20529939
27065,0,USMinnesotaKanabec,Minnesota,Kanabec,2021-04-04 08:57:41.920553,2020-05-08 00:00:00.000000,0.14961285,0.23958716,0.38279451,24,39,62,10,21,38,0.06610872,0.13031262,0.23550193,0.07421539,0.11728560,0.19799965
27065,0,USMinnesotaKanabec,Minnesota,Kanabec,2021-04-04 08:57:41.920553,2020-05-09 00:00:00.000000,0.14846821,0.23856968,0.39341630,24,38,64,11,21,38,0.07178082,0.13237522,0.23505521,0.07226510,0.11626189,0.19316992
27065,0,USMinnesotaKanabec,Minnesota,Kanabec,2021-04-04 08:57:41.920553,2020-05-10 00:00:00.000000,0.14734667,0.23557788,0.40316500,24,38,65,12,21,38,0.07749339,0.12906265,0.23413429,0.07024897,0.11492321,0.19094933
27065,0,USMinnesotaKanabec,Minnesota,Kanabec,2021-04-04 08:57:41.920553,2020-05-11 00:00:00.000000,0.14466332,0.23693312,0.39679799,23,38,64,13,21,38,0.07960356,0.13377979,0.23288811,0.07012513,0.11435224,0.18783350
27065,0,USMinnesotaKanabec,Minnesota,Kanabec,2021-04-04 08:57:41.920553,2020-05-12 00:00:00.000000,0.14225147,0.23863182,0.38939130,23,38,63,13,21,37,0.08031709,0.13277795,0.22945796,0.06866985,0.11451220,0.19331822
27065,0,USMinnesotaKanabec,Minnesota,Kanabec,2021-04-04 08:57:41.920553,2020-05-13 00:00:00.000000,0.13988797,0.23840211,0.38062061,22,38,62,13,21,36,0.08138569,0.13004208,0.22464552,0.06807645,0.11487801,0.19972501
27065,0,USMinnesotaKanabec,Minnesota,Kanabec,2021-04-04 08:57:41.920553,2020-05-14 00:00:00.000000,0.13762186,0.23807574,0.37437356,22,38,61,13,21,35,0.08256799,0.13040099,0.21899470,0.06773572,0.11449656,0.19860432
27065,0,USMinnesotaKanabec,Minnesota,Kanabec,2021-04-04 08:57:41.920553,2020-05-15 00:00:00.000000,0.14546161,0.23667473,0.37884928,23,38,61,13,21,34,0.08277177,0.12996902,0.21320842,0.06312579,0.11408673,0.19221362
27065,0,USMinnesotaKanabec,Minnesota,Kanabec,2021-04-04 08:57:41.920553,2020-05-16 00:00:00.000000,0.14627087,0.23280615,0.38168386,23,38,62,13,21,34,0.08098865,0.12885707,0.20888977,0.06116670,0.11179830,0.17957222
27065,0,USMinnesotaKanabec,Minnesota,Kanabec,2021-04-04 08:57:41.920553,2020-05-17 00:00:00.000000,0.14429727,0.22715778,0.38671833,23,37,63,13,21,33,0.08437438,0.12911515,0.20573464,0.06049235,0.10836082,0.17240423
27065,0,USMinnesotaKanabec,Minnesota,Kanabec,2021-04-04 08:57:41.920553,2020-05-18 00:00:00.000000,0.14025354,0.22563757,0.37970442,22,36,62,13,21,34,0.08488768,0.12877536,0.20985715,0.06106548,0.10843483,0.17239798
27065,0,USMinnesotaKanabec,Minnesota,Kanabec,2021-04-04 08:57:41.920553,2020-05-19 00:00:00.000000,0.13632635,0.22641893,0.37196768,22,36,60,13,20,33,0.08313973,0.12842083,0.20713246,0.06228778,0.10790146,0.17239608
27065,0,USMinnesotaKanabec,Minnesota,Kanabec,2021-04-04 08:57:41.920553,2020-05-20 00:00:00.000000,0.13248807,0.22206566,0.36336982,21,36,59,13,20,32,0.08149397,0.12818462,0.20113212,0.06281802,0.10601538,0.17235199
27065,0,USMinnesotaKanabec,Minnesota,Kanabec,2021-04-04 08:57:41.920553,2020-05-21 00:00:00.000000,0.12878169,0.21953435,0.35426837,21,35,57,13,20,32,0.07992327,0.12848440,0.19904413,0.06341370,0.10598532,0.17050545
27065,0,USMinnesotaKanabec,Minnesota,Kanabec,2021-04-04 08:57:41.920553,2020-05-22 00:00:00.000000,0.12524801,0.21894796,0.36195301,20,35,59,12,20,32,0.07843354,0.12710856,0.19659500,0.06416331,0.10719155,0.17054288
27065,0,USMinnesotaKanabec,Minnesota,Kanabec,2021-04-04 08:57:41.920553,2020-05-23 00:00:00.000000,0.12378804,0.21577013,0.37209126,20,35,60,12,20,32,0.07703355,0.12748704,0.19605500,0.06512086,0.10912347,0.16973179
27065,0,USMinnesotaKanabec,Minnesota,Kanabec,2021-04-04 08:57:41.920553,2020-05-24 00:00:00.000000,0.12461224,0.21142675,0.36651322,20,34,59,12,20,32,0.07515163,0.12727007,0.19793103,0.06685763,0.11058565,0.17137858
27065,0,USMinnesotaKanabec,Minnesota,Kanabec,2021-04-04 08:57:41.920553,2020-05-25 00:00:00.000000,0.12364819,0.21048667,0.35863881,20,34,58,11,20,32,0.07317210,0.12635519,0.19895256,0.06784678,0.10992682,0.16964548
27065,0,USMinnesotaKanabec,Minnesota,Kanabec,2021-04-04 08:57:41.920553,2020-05-26 00:00:00.000000,0.12852473,0.21250090,0.35669668,20,34,58,11,20,32,0.07300401,0.12420425,0.19872239,0.06857571,0.11021580,0.16547258
27065,0,USMinnesotaKanabec,Minnesota,Kanabec,2021-04-04 08:57:41.920553,2020-05-27 00:00:00.000000,0.12690021,0.21404202,0.35455919,20,34,57,12,20,32,0.07407382,0.12384807,0.19913019,0.06874419,0.11055858,0.15973743
27065,0,USMinnesotaKanabec,Minnesota,Kanabec,2021-04-04 08:57:41.920553,2020-05-28 00:00:00.000000,0.12481652,0.21656343,0.35229463,20,35,57,12,20,32,0.07354915,0.12296169,0.19876655,0.06804463,0.11060596,0.15881979
27065,0,USMinnesotaKanabec,Minnesota,Kanabec,2021-04-04 08:57:41.920553,2020-05-29 00:00:00.000000,0.12288375,0.21992140,0.34992472,20,35,57,11,19,31,0.07158141,0.12204982,0.19384025,0.06109731,0.10994770,0.16391426
27065,0,USMinnesotaKanabec,Minnesota,Kanabec,2021-04-04 08:57:41.920553,2020-05-30 00:00:00.000000,0.12118577,0.22154784,0.34985933,19,36,57,11,19,32,0.06980120,0.11994047,0.19602725,0.05627132,0.11047592,0.16601776
27065,0,USMinnesotaKanabec,Minnesota,Kanabec,2021-04-04 08:57:41.920553,2020-05-31 00:00:00.000000,0.12222660,0.22479379,0.35121196,19,36,57,11,19,32,0.06819622,0.12061369,0.19821971,0.05555809,0.11064243,0.16689467
27065,0,USMinnesotaKanabec,Minnesota,Kanabec,2021-04-04 08:57:41.920553,2020-06-01 00:00:00.000000,0.12495933,0.22122227,0.34935621,20,36,57,10,19,32,0.06674182,0.12231595,0.19866518,0.05575984,0.11005357,0.17422758
27065,0,USMinnesotaKanabec,Minnesota,Kanabec,2021-04-04 08:57:41.920553,2020-06-02 00:00:00.000000,0.12987967,0.22224092,0.34731994,21,36,56,10,20,32,0.06689940,0.12355394,0.19699359,0.05645186,0.10929905,0.17970873
27065,0,USMinnesotaKanabec,Minnesota,Kanabec,2021-04-04 08:57:41.920553,2020-06-03 00:00:00.000000,0.13160562,0.22076119,0.34521500,21,36,56,11,20,31,0.06865354,0.12574888,0.19449385,0.05771176,0.10786157,0.17283301
27065,0,USMinnesotaKanabec,Minnesota,Kanabec,2021-04-04 08:57:41.920553,2020-06-04 00:00:00.000000,0.12667897,0.21799209,0.34569738,20,35,56,11,20,31,0.06980161,0.12574260,0.19230354,0.05933868,0.10842072,0.18042286
27065,0,USMinnesotaKanabec,Minnesota,Kanabec,2021-04-04 08:57:41.920553,2020-06-05 00:00:00.000000,0.12089616,0.21234097,0.34714647,19,34,56,11,20,32,0.06906466,0.12659804,0.19691554,0.05982823,0.10973876,0.18455296
27065,0,USMinnesotaKanabec,Minnesota,Kanabec,2021-04-04 08:57:41.920553,2020-06-06 00:00:00.000000,0.11981769,0.21440736,0.34734734,19,35,56,11,20,32,0.06843678,0.12581690,0.20155243,0.05957105,0.11046592,0.18533056
27065,0,USMinnesotaKanabec,Minnesota,Kanabec,2021-04-04 08:57:41.920553,2020-06-07 00:00:00.000000,0.11925946,0.21223273,0.34888941,19,34,56,11,20,33,0.06747911,0.12360649,0.20473226,0.06082167,0.11064655,0.18553260
27065,0,USMinnesotaKanabec,Minnesota,Kanabec,2021-04-04 08:57:41.920553,2020-06-08 00:00:00.000000,0.11311216,0.20003030,0.33895572,18,32,55,10,19,33,0.06450046,0.12156423,0.20439446,0.06092757,0.10870392,0.18566206
27065,0,USMinnesotaKanabec,Minnesota,Kanabec,2021-04-04 08:57:41.920553,2020-06-09 00:00:00.000000,0.10684911,0.18793497,0.33144970,17,30,54,10,19,32,0.06230734,0.11765933,0.19984534,0.06100394,0.10871356,0.18576058
27065,0,USMinnesotaKanabec,Minnesota,Kanabec,2021-04-04 08:57:41.920553,2020-06-10 00:00:00.000000,0.09947617,0.17667451,0.32335155,16,28,52,9,18,31,0.05992728,0.11398629,0.19345294,0.06136179,0.10750174,0.18582049
27065,0,USMinnesotaKanabec,Minnesota,Kanabec,2021-04-04 08:57:41.920553,2020-06-11 00:00:00.000000,0.09252010,0.16757823,0.31496497,15,27,51,9,17,30,0.05695198,0.10895593,0.18672917,0.06164237,0.10716247,0.18867556
27065,0,USMinnesotaKanabec,Minnesota,Kanabec,2021-04-04 08:57:41.920553,2020-06-12 00:00:00.000000,0.08501059,0.16041534,0.30638474,13,26,50,8,17,30,0.05360317,0.10606193,0.18498523,0.06219392,0.10734003,0.19088983
27065,0,USMinnesotaKanabec,Minnesota,Kanabec,2021-04-04 08:57:41.920553,2020-06-13 00:00:00.000000,0.07796834,0.15296069,0.29772391,12,24,48,8,16,29,0.05007197,0.10241354,0.18153166,0.06104759,0.10869077,0.19253757
27065,0,USMinnesotaKanabec,Minnesota,Kanabec,2021-04-04 08:57:41.920553,2020-06-14 00:00:00.000000,0.07141141,0.14532623,0.28929164,11,23,47,7,15,28,0.04650519,0.09782225,0.17304137,0.05970329,0.10870962,0.19562397
27065,0,USMinnesotaKanabec,Minnesota,Kanabec,2021-04-04 08:57:41.920553,2020-06-15 00:00:00.000000,0.07531259,0.14374400,0.28602565,12,23,46,7,15,26,0.04300369,0.09230526,0.16471946,0.05929222,0.10776779,0.19922712
27065,0,USMinnesotaKanabec,Minnesota,Kanabec,2021-04-04 08:57:41.920553,2020-06-16 00:00:00.000000,0.07658696,0.14476269,0.28447619,12,23,46,6,14,26,0.04136385,0.08743706,0.16096807,0.05876651,0.10966288,0.20220869
27065,0,USMinnesotaKanabec,Minnesota,Kanabec,2021-04-04 08:57:41.920553,2020-06-17 00:00:00.000000,0.07839752,0.15070835,0.29572209,12,24,48,6,13,26,0.04098349,0.08329044,0.15977184,0.05848754,0.10983072,0.20378251
27065,0,USMinnesotaKanabec,Minnesota,Kanabec,2021-04-04 08:57:41.920553,2020-06-18 00:00:00.000000,0.08025966,0.15600583,0.30718908,13,25,50,6,13,26,0.04244366,0.08367684,0.15966191,0.06243778,0.11088729,0.20359485
27065,0,USMinnesotaKanabec,Minnesota,Kanabec,2021-04-04 08:57:41.920553,2020-06-19 00:00:00.000000,0.08217324,0.15863612,0.31719095,13,25,51,7,14,26,0.04496622,0.08578372,0.16176739,0.06301202,0.11329395,0.20086843
27065,0,USMinnesotaKanabec,Minnesota,Kanabec,2021-04-04 08:57:41.920553,2020-06-20 00:00:00.000000,0.08415601,0.16123015,0.31914756,13,26,52,7,14,26,0.04486730,0.08657681,0.16232195,0.06197699,0.11708279,0.19424091
27065,0,USMinnesotaKanabec,Minnesota,Kanabec,2021-04-04 08:57:41.920553,2020-06-21 00:00:00.000000,0.08609996,0.16073103,0.33023392,14,26,53,7,14,26,0.04530803,0.08713770,0.16391823,0.06260677,0.11871124,0.18456755
27065,0,USMinnesotaKanabec,Minnesota,Kanabec,2021-04-04 08:57:41.920553,2020-06-22 00:00:00.000000,0.08728796,0.16393645,0.33575768,14,26,54,7,14,27,0.04685073,0.08598805,0.16800651,0.06316200,0.11869546,0.19308799
27065,0,USMinnesotaKanabec,Minnesota,Kanabec,2021-04-04 08:57:41.920553,2020-06-23 00:00:00.000000,0.09142912,0.16763867,0.33051088,14,27,53,7,14,27,0.04800156,0.08675152,0.17065273,0.06422812,0.11830480,0.20095247
27065,0,USMinnesotaKanabec,Minnesota,Kanabec,2021-04-04 08:57:41.920553,2020-06-24 00:00:00.000000,0.09690319,0.17345246,0.33088770,15,28,54,7,14,27,0.04887223,0.09055575,0.17133108,0.06394875,0.11866288,0.20411929
27065,0,USMinnesotaKanabec,Minnesota,Kanabec,2021-04-04 08:57:41.920553,2020-06-25 00:00:00.000000,0.09951943,0.18174026,0.33532562,16,29,54,8,15,28,0.05080183,0.09229743,0.17239852,0.06391223,0.11829598,0.20401550
27065,0,USMinnesotaKanabec,Minnesota,Kanabec,2021-04-04 08:57:41.920553,2020-06-26 00:00:00.000000,0.09704948,0.18258565,0.34088928,15,29,55,8,15,28,0.05217754,0.09555932,0.17429621,0.06419440,0.12003486,0.20391351
27065,0,USMinnesotaKanabec,Minnesota,Kanabec,2021-04-04 08:57:41.920553,2020-06-27 00:00:00.000000,0.09470198,0.18289834,0.34742890,15,29,56,8,15,28,0.05093100,0.09517450,0.17622342,0.06505216,0.12327278,0.20405043
27065,0,USMinnesotaKanabec,Minnesota,Kanabec,2021-04-04 08:57:41.920553,2020-06-28 00:00:00.000000,0.09250673,0.18438227,0.35451540,15,30,57,8,15,29,0.05059921,0.09707391,0.17835679,0.06701937,0.12541955,0.20492538
27065,0,USMinnesotaKanabec,Minnesota,Kanabec,2021-04-04 08:57:41.920553,2020-06-29 00:00:00.000000,0.09294258,0.18773011,0.36036782,15,30,58,8,16,29,0.05080054,0.10231768,0.18078821,0.06952449,0.12639219,0.20775781
27065,0,USMinnesotaKanabec,Minnesota,Kanabec,2021-04-04 08:57:41.920553,2020-06-30 00:00:00.000000,0.09557636,0.18708867,0.35750333,15,30,58,8,17,30,0.05062362,0.10470955,0.18396386,0.07223707,0.12697624,0.21286006
27065,0,USMinnesotaKanabec,Minnesota,Kanabec,2021-04-04 08:57:41.920553,2020-07-01 00:00:00.000000,0.10164878,0.18837802,0.36320301,16,30,59,8,17,30,0.05023994,0.10563465,0.18769949,0.07512263,0.12894328,0.21982536
27065,0,USMinnesotaKanabec,Minnesota,Kanabec,2021-04-04 08:57:41.920553,2020-07-02 00:00:00.000000,0.10063858,0.19158262,0.36472683,16,31,59,8,17,32,0.05009563,0.10526231,0.19604936,0.07837325,0.13088381,0.22577670
27065,0,USMinnesotaKanabec,Minnesota,Kanabec,2021-04-04 08:57:41.920553,2020-07-03 00:00:00.000000,0.10296404,0.19480219,0.38258069,16,31,62,8,17,34,0.05372669,0.10515315,0.21126248,0.08231732,0.13135751,0.23647022
27065,0,USMinnesotaKanabec,Minnesota,Kanabec,2021-04-04 08:57:41.920553,2020-07-04 00:00:00.000000,0.10110866,0.19784102,0.39254430,16,32,64,8,17,35,0.05493686,0.10511249,0.21527291,0.08345192,0.13319451,0.22691028
27065,0,USMinnesotaKanabec,Minnesota,Kanabec,2021-04-04 08:57:41.920553,2020-07-05 00:00:00.000000,0.09899741,0.19977674,0.40233049,16,32,65,8,17,34,0.05443485,0.10843375,0.21417417,0.08009259,0.13477295,0.22438143
27065,0,USMinnesotaKanabec,Minnesota,Kanabec,2021-04-04 08:57:41.920553,2020-07-06 00:00:00.000000,0.09974547,0.20701820,0.40786101,16,33,66,8,18,35,0.05394106,0.11109969,0.21885049,0.08045865,0.14039620,0.22442664
27065,0,USMinnesotaKanabec,Minnesota,Kanabec,2021-04-04 08:57:41.920553,2020-07-07 00:00:00.000000,0.10844586,0.21267155,0.41330822,17,34,67,8,18,35,0.05395200,0.11371851,0.21799998,0.08161845,0.14252903,0.23355321
27065,0,USMinnesotaKanabec,Minnesota,Kanabec,2021-04-04 08:57:41.920553,2020-07-08 00:00:00.000000,0.10822246,0.22235850,0.41857327,17,36,68,8,18,35,0.05396758,0.11587667,0.21952364,0.08238607,0.14359586,0.24194363
27065,0,USMinnesotaKanabec,Minnesota,Kanabec,2021-04-04 08:57:41.920553,2020-07-09 00:00:00.000000,0.10812071,0.22768851,0.42366108,17,37,69,8,19,36,0.05499961,0.12008900,0.22330029,0.08329277,0.14432750,0.24814061
27065,0,USMinnesotaKanabec,Minnesota,Kanabec,2021-04-04 08:57:41.920553,2020-07-10 00:00:00.000000,0.11093211,0.23797455,0.42859741,18,38,70,9,20,37,0.05570698,0.12265117,0.22681807,0.08307559,0.14754928,0.25178883
27065,0,USMinnesotaKanabec,Minnesota,Kanabec,2021-04-04 08:57:41.920553,2020-07-11 00:00:00.000000,0.11387044,0.24086235,0.43741262,18,39,71,9,20,37,0.05652293,0.12628953,0.23241815,0.08084642,0.14928327,0.25277957
27065,0,USMinnesotaKanabec,Minnesota,Kanabec,2021-04-04 08:57:41.920553,2020-07-12 00:00:00.000000,0.11697180,0.24776728,0.47466888,19,40,77,9,21,38,0.05741825,0.13128117,0.23843315,0.08151518,0.15513354,0.25781899
27065,0,USMinnesotaKanabec,Minnesota,Kanabec,2021-04-04 08:57:41.920553,2020-07-13 00:00:00.000000,0.11664540,0.26299429,0.47897797,19,42,78,9,21,39,0.05648476,0.13389637,0.24466098,0.08278425,0.16045174,0.27577832
27065,0,USMinnesotaKanabec,Minnesota,Kanabec,2021-04-04 08:57:41.920553,2020-07-14 00:00:00.000000,0.11653184,0.26736715,0.48178397,19,43,78,9,22,40,0.05748731,0.13767739,0.24858774,0.08324973,0.16348468,0.27867449
27065,0,USMinnesotaKanabec,Minnesota,Kanabec,2021-04-04 08:57:41.920553,2020-07-15 00:00:00.000000,0.12559800,0.27674528,0.49442489,20,45,80,9,23,40,0.05957087,0.14139913,0.25088926,0.08381911,0.16675105,0.28410123
27065,0,USMinnesotaKanabec,Minnesota,Kanabec,2021-04-04 08:57:41.920553,2020-07-16 00:00:00.000000,0.13297009,0.28729175,0.51328044,21,46,83,10,23,41,0.06297908,0.14567649,0.25492534,0.08514372,0.16895897,0.29464596
27065,0,USMinnesotaKanabec,Minnesota,Kanabec,2021-04-04 08:57:41.920553,2020-07-17 00:00:00.000000,0.13162136,0.29459084,0.55955608,21,48,91,10,24,42,0.06650608,0.14903785,0.26311761,0.08798895,0.17292278,0.29456161
27065,0,USMinnesotaKanabec,Minnesota,Kanabec,2021-04-04 08:57:41.920553,2020-07-18 00:00:00.000000,0.13875860,0.30259775,0.59796001,22,49,97,11,24,44,0.07027383,0.15234708,0.27095109,0.09225802,0.17741082,0.29458551
27065,0,USMinnesotaKanabec,Minnesota,Kanabec,2021-04-04 08:57:41.920553,2020-07-19 00:00:00.000000,0.14269595,0.31551286,0.62285957,23,51,101,12,25,46,0.07418565,0.15789670,0.28169065,0.09803648,0.18008068,0.30603416
27065,0,USMinnesotaKanabec,Minnesota,Kanabec,2021-04-04 08:57:41.920553,2020-07-20 00:00:00.000000,0.15074966,0.32709429,0.64244661,24,53,104,12,26,47,0.07746798,0.16518424,0.29241644,0.10033664,0.18092465,0.33030771
27065,0,USMinnesotaKanabec,Minnesota,Kanabec,2021-04-04 08:57:41.920553,2020-07-21 00:00:00.000000,0.15861501,0.33944416,0.66430885,25,55,108,13,28,50,0.08155072,0.17172233,0.31080530,0.10209165,0.18086692,0.34503570
27065,0,USMinnesotaKanabec,Minnesota,Kanabec,2021-04-04 08:57:41.920553,2020-07-22 00:00:00.000000,0.16510092,0.35483274,0.67989280,26,57,111,13,29,52,0.08415733,0.17778413,0.32128702,0.10474452,0.18149322,0.35020595
27065,0,USMinnesotaKanabec,Minnesota,Kanabec,2021-04-04 08:57:41.920553,2020-07-23 00:00:00.000000,0.17176529,0.36933648,0.71076817,28,60,116,13,29,54,0.08565919,0.18120198,0.33061707,0.10862152,0.18182785,0.34514028
27065,0,USMinnesotaKanabec,Minnesota,Kanabec,2021-04-04 08:57:41.920553,2020-07-24 00:00:00.000000,0.17569426,0.37576197,0.73226771,28,61,119,14,30,55,0.08706652,0.18719339,0.33895263,0.11303453,0.18533615,0.35477792
27065,0,USMinnesotaKanabec,Minnesota,Kanabec,2021-04-04 08:57:41.920553,2020-07-25 00:00:00.000000,0.17743803,0.38826262,0.75183744,28,63,122,14,31,56,0.08832267,0.19081590,0.34605697,0.11676173,0.19156239,0.36502951
27065,0,USMinnesotaKanabec,Minnesota,Kanabec,2021-04-04 08:57:41.920553,2020-07-26 00:00:00.000000,0.18735753,0.41000863,0.77738693,30,66,127,14,32,57,0.08942218,0.19954910,0.35258774,0.11930056,0.19824453,0.36550440
27065,0,USMinnesotaKanabec,Minnesota,Kanabec,2021-04-04 08:57:41.920553,2020-07-27 00:00:00.000000,0.19671970,0.42031142,0.82687063,32,68,135,14,33,62,0.09034871,0.20571976,0.38286099,0.12064397,0.20097008,0.35772265
27065,0,USMinnesotaKanabec,Minnesota,Kanabec,2021-04-04 08:57:41.920553,2020-07-28 00:00:00.000000,0.20046849,0.43660825,0.85921313,32,71,140,15,35,64,0.09711263,0.21431287,0.39747809,0.12163189,0.20413644,0.36861482
27065,0,USMinnesotaKanabec,Minnesota,Kanabec,2021-04-04 08:57:41.920553,2020-07-29 00:00:00.000000,0.19918995,0.45220914,0.86932200,32,73,142,16,36,65,0.10388217,0.22476331,0.40077892,0.12324422,0.20559541,0.36830130
27065,0,USMinnesotaKanabec,Minnesota,Kanabec,2021-04-04 08:57:41.920553,2020-07-30 00:00:00.000000,0.20163520,0.47104485,0.87941715,32,76,143,18,37,68,0.11062299,0.23031625,0.41990039,0.12668332,0.21056868,0.34421379
27065,0,USMinnesotaKanabec,Minnesota,Kanabec,2021-04-04 08:57:41.920553,2020-07-31 00:00:00.000000,0.20439672,0.48778534,0.88956813,33,79,145,18,39,72,0.11346155,0.24106413,0.44330975,0.13048278,0.21373098,0.34095851
27065,0,USMinnesotaKanabec,Minnesota,Kanabec,2021-04-04 08:57:41.920553,2020-08-01 00:00:00.000000,0.20791428,0.50270074,0.90782592,33,82,148,18,41,76,0.11134442,0.25223794,0.46524017,0.13462384,0.21644200,0.34293403
27065,0,USMinnesotaKanabec,Minnesota,Kanabec,2021-04-04 08:57:41.920553,2020-08-02 00:00:00.000000,0.21207955,0.52239676,0.98528792,34,85,160,17,42,79,0.11011882,0.26275183,0.48787413,0.14131801,0.22473131,0.34701298
27065,0,USMinnesotaKanabec,Minnesota,Kanabec,2021-04-04 08:57:41.920553,2020-08-03 00:00:00.000000,0.23405498,0.53671130,1.01449032,38,87,165,18,44,83,0.11197428,0.27361495,0.51339571,0.14396951,0.23428085,0.34165828
27065,0,USMinnesotaKanabec,Minnesota,Kanabec,2021-04-04 08:57:41.920553,2020-08-04 00:00:00.000000,0.24918902,0.55819936,1.04525086,40,91,170,18,45,89,0.11387386,0.27828487,0.54828834,0.14454331,0.23824517,0.34491265
27065,0,USMinnesotaKanabec,Minnesota,Kanabec,2021-04-04 08:57:41.920553,2020-08-05 00:00:00.000000,0.24636612,0.57924126,1.07591940,40,94,175,19,46,94,0.12197826,0.28398094,0.57784528,0.14473100,0.23887463,0.34795269
27065,0,USMinnesotaKanabec,Minnesota,Kanabec,2021-04-04 08:57:41.920553,2020-08-06 00:00:00.000000,0.24167959,0.59178848,1.10680606,39,96,180,22,47,98,0.13658963,0.29330300,0.60394432,0.14475878,0.24461754,0.34901266
27065,0,USMinnesotaKanabec,Minnesota,Kanabec,2021-04-04 08:57:41.920553,2020-08-07 00:00:00.000000,0.23772851,0.60532008,1.10825315,38,98,181,21,50,102,0.13411753,0.30845068,0.62785989,0.14376216,0.24831389,0.33333686
27065,0,USMinnesotaKanabec,Minnesota,Kanabec,2021-04-04 08:57:41.920553,2020-08-08 00:00:00.000000,0.23516837,0.61617428,1.14822688,38,100,187,21,52,106,0.13178555,0.31902494,0.65004514,0.14283449,0.24984905,0.33019743
27065,0,USMinnesotaKanabec,Minnesota,Kanabec,2021-04-04 08:57:41.920553,2020-08-09 00:00:00.000000,0.24257998,0.62673314,1.20564055,39,102,196,21,54,109,0.12965250,0.33082910,0.67112298,0.14277196,0.25533431,0.34185786
27065,0,USMinnesotaKanabec,Minnesota,Kanabec,2021-04-04 08:57:41.920553,2020-08-10 00:00:00.000000,0.30166800,0.65496751,1.23277858,49,107,201,20,56,110,0.12772407,0.34579769,0.67446998,0.14257164,0.26298634,0.34945006
27065,0,USMinnesotaKanabec,Minnesota,Kanabec,2021-04-04 08:57:41.920553,2020-08-11 00:00:00.000000,0.36087162,0.68077962,1.25561940,58,111,205,23,57,110,0.14186085,0.35384616,0.67900540,0.14251320,0.26785597,0.35440141
27065,0,USMinnesotaKanabec,Minnesota,Kanabec,2021-04-04 08:57:41.920553,2020-08-12 00:00:00.000000,0.38837734,0.69407170,1.27814468,63,113,208,26,59,113,0.16420267,0.36592863,0.69756721,0.14254588,0.26922950,0.36864205
27065,0,USMinnesotaKanabec,Minnesota,Kanabec,2021-04-04 08:57:41.920553,2020-08-13 00:00:00.000000,0.42710462,0.72894721,1.29957587,69,119,212,31,61,116,0.19109930,0.37901546,0.71480584,0.14274132,0.26992191,0.38046624
27065,0,USMinnesotaKanabec,Minnesota,Kanabec,2021-04-04 08:57:41.920553,2020-08-14 00:00:00.000000,0.47513540,0.76434671,1.32210764,77,124,215,32,64,119,0.20119518,0.39437750,0.73085801,0.14350803,0.26843182,0.39687214
27065,0,USMinnesotaKanabec,Minnesota,Kanabec,2021-04-04 08:57:41.920553,2020-08-15 00:00:00.000000,0.49705783,0.79656613,1.36005479,81,130,222,35,67,122,0.21910152,0.41026871,0.75141099,0.14551276,0.27150370,0.40787388
27065,0,USMinnesotaKanabec,Minnesota,Kanabec,2021-04-04 08:57:41.920553,2020-08-16 00:00:00.000000,0.52473345,0.81467303,1.39798954,85,133,228,39,69,133,0.24373487,0.42399799,0.81687565,0.15154550,0.27189532,0.41216210
27065,0,USMinnesotaKanabec,Minnesota,Kanabec,2021-04-04 08:57:41.920553,2020-08-17 00:00:00.000000,0.53542383,0.84442834,1.43693432,87,137,234,43,71,143,0.26786952,0.43987674,0.87908172,0.15331174,0.27069159,0.41340064
27065,0,USMinnesotaKanabec,Minnesota,Kanabec,2021-04-04 08:57:41.920553,2020-08-18 00:00:00.000000,0.54984243,0.87762302,1.47598085,89,143,241,45,75,148,0.28114628,0.46023594,0.90924063,0.15397289,0.26838542,0.41355363
27065,0,USMinnesotaKanabec,Minnesota,Kanabec,2021-04-04 08:57:41.920553,2020-08-19 00:00:00.000000,0.55805950,0.90988615,1.51456180,91,148,247,45,78,153,0.28038130,0.48289516,0.93904334,0.15188120,0.26741565,0.41309779
27065,0,USMinnesotaKanabec,Minnesota,Kanabec,2021-04-04 08:57:41.920553,2020-08-20 00:00:00.000000,0.56524111,0.93399286,1.55161351,92,152,253,45,80,158,0.28051962,0.49469381,0.96888846,0.15171166,0.26564979,0.41186823
27065,0,USMinnesotaKanabec,Minnesota,Kanabec,2021-04-04 08:57:41.920553,2020-08-21 00:00:00.000000,0.57158643,0.97196461,1.56085359,93,158,254,47,82,163,0.28983538,0.50761231,0.99891978,0.15165944,0.26230978,0.40921515
27065,0,USMinnesotaKanabec,Minnesota,Kanabec,2021-04-04 08:57:41.920553,2020-08-22 00:00:00.000000,0.57735128,0.99415144,1.57347561,94,162,257,48,85,168,0.29911613,0.52137908,1.02880139,0.15175242,0.25873946,0.40387407
27065,0,USMinnesotaKanabec,Minnesota,Kanabec,2021-04-04 08:57:41.920553,2020-08-23 00:00:00.000000,0.58296497,1.01663535,1.60882567,95,166,262,50,87,172,0.30851092,0.53668788,1.05683902,0.15834227,0.25588410,0.39387827
27065,0,USMinnesotaKanabec,Minnesota,Kanabec,2021-04-04 08:57:41.920553,2020-08-24 00:00:00.000000,0.58113205,1.03427604,1.63883817,94,168,267,51,90,175,0.31458843,0.55186014,1.07686327,0.17741553,0.26003024,0.37730461
27065,0,USMinnesotaKanabec,Minnesota,Kanabec,2021-04-04 08:57:41.920553,2020-08-25 00:00:00.000000,0.57988423,1.04732876,1.65008362,94,171,269,51,92,178,0.31550266,0.56794225,1.09159808,0.18058292,0.25255448,0.35694004
27065,0,USMinnesotaKanabec,Minnesota,Kanabec,2021-04-04 08:57:41.920553,2020-08-26 00:00:00.000000,0.57810613,1.05812127,1.68340354,94,172,275,52,94,180,0.32075050,0.57815594,1.10247238,0.17682566,0.25315979,0.35437490
27065,0,USMinnesotaKanabec,Minnesota,Kanabec,2021-04-04 08:57:41.920553,2020-08-27 00:00:00.000000,0.57566761,1.08255450,1.70981273,94,176,279,52,96,181,0.32426804,0.59156968,1.11054617,0.18086147,0.25504904,0.36025991
27065,0,USMinnesotaKanabec,Minnesota,Kanabec,2021-04-04 08:57:41.920553,2020-08-28 00:00:00.000000,0.58097126,1.10137874,1.72617840,94,179,282,52,98,182,0.32299795,0.60446655,1.11745545,0.18405669,0.25575597,0.36163888
27065,0,USMinnesotaKanabec,Minnesota,Kanabec,2021-04-04 08:57:41.920553,2020-08-29 00:00:00.000000,0.59159244,1.12149759,1.73368808,96,183,283,52,100,183,0.32106717,0.61430329,1.12532772,0.18336365,0.26061712,0.36861400
27065,0,USMinnesotaKanabec,Minnesota,Kanabec,2021-04-04 08:57:41.920553,2020-08-30 00:00:00.000000,0.59152259,1.15415819,1.72947506,96,188,282,52,101,185,0.31887686,0.62207728,1.13556966,0.18374719,0.26159803,0.37812055
27065,0,USMinnesotaKanabec,Minnesota,Kanabec,2021-04-04 08:57:41.920553,2020-08-31 00:00:00.000000,0.60353675,1.19227803,1.73712446,98,194,283,51,103,186,0.31691616,0.63195730,1.14362604,0.17778745,0.26227653,0.37765068
27065,0,USMinnesotaKanabec,Minnesota,Kanabec,2021-04-04 08:57:41.920553,2020-09-01 00:00:00.000000,0.61640493,1.22289528,1.76590768,100,199,288,52,105,187,0.32042748,0.64455165,1.14555579,0.17424080,0.26274150,0.37146355
27065,0,USMinnesotaKanabec,Minnesota,Kanabec,2021-04-04 08:57:41.920553,2020-09-02 00:00:00.000000,0.63027284,1.23052204,1.79263764,102,201,292,53,107,187,0.32526794,0.65852394,1.14640353,0.17264308,0.26498142,0.37632469
27065,0,USMinnesotaKanabec,Minnesota,Kanabec,2021-04-04 08:57:41.920553,2020-09-03 00:00:00.000000,0.64456792,1.24737982,1.87282620,105,203,305,54,110,187,0.33232847,0.67867359,1.14648608,0.17257537,0.26129460,0.38109882
27065,0,USMinnesotaKanabec,Minnesota,Kanabec,2021-04-04 08:57:41.920553,2020-09-04 00:00:00.000000,0.65907405,1.28329216,1.89808128,107,209,310,55,113,187,0.33868141,0.69386894,1.14598633,0.17284569,0.26045818,0.38339896
27065,0,USMinnesotaKanabec,Minnesota,Kanabec,2021-04-04 08:57:41.920553,2020-09-05 00:00:00.000000,0.67388197,1.31335596,1.96530449,110,214,321,56,115,187,0.34539102,0.70815735,1.14948641,0.17402811,0.26622707,0.38420941
27065,0,USMinnesotaKanabec,Minnesota,Kanabec,2021-04-04 08:57:41.920553,2020-09-06 00:00:00.000000,0.68876178,1.34466255,2.00557470,112,219,327,57,117,192,0.35254644,0.72065155,1.17840499,0.17657408,0.26731960,0.38439270
27065,0,USMinnesotaKanabec,Minnesota,Kanabec,2021-04-04 08:57:41.920553,2020-09-07 00:00:00.000000,0.74034471,1.35987430,2.06331297,120,222,337,58,119,194,0.35997789,0.73434372,1.18937157,0.17520235,0.26279084,0.38828298
27065,0,USMinnesotaKanabec,Minnesota,Kanabec,2021-04-04 08:57:41.920553,2020-09-08 00:00:00.000000,0.77315175,1.36814186,2.12569192,126,223,347,61,122,197,0.37517067,0.74775706,1.20805194,0.17842320,0.26268341,0.38777235
27065,0,USMinnesotaKanabec,Minnesota,Kanabec,2021-04-04 08:57:41.920553,2020-09-09 00:00:00.000000,0.79316592,1.37765290,2.19275580,129,225,358,63,124,201,0.38804572,0.76009545,1.23165670,0.18488748,0.26248463,0.38776455
27065,0,USMinnesotaKanabec,Minnesota,Kanabec,2021-04-04 08:57:41.920553,2020-09-10 00:00:00.000000,0.81707149,1.38110171,2.26252738,133,225,369,64,125,205,0.39627044,0.76820704,1.25816714,0.18586167,0.26275679,0.39158401
27065,0,USMinnesotaKanabec,Minnesota,Kanabec,2021-04-04 08:57:41.920553,2020-09-11 00:00:00.000000,0.84152130,1.42708133,2.33267388,137,233,381,66,126,210,0.40626003,0.77644185,1.28588131,0.17402021,0.25923301,0.38912664
27065,0,USMinnesotaKanabec,Minnesota,Kanabec,2021-04-04 08:57:41.920553,2020-09-12 00:00:00.000000,0.86510092,1.47270900,2.38881649,141,240,390,68,128,214,0.41736793,0.78354033,1.31275387,0.17390900,0.26213940,0.38753522
27065,0,USMinnesotaKanabec,Minnesota,Kanabec,2021-04-04 08:57:41.920553,2020-09-13 00:00:00.000000,0.88675529,1.47035300,2.41432332,144,240,394,71,129,215,0.43825149,0.79568387,1.31808265,0.17384705,0.26108132,0.39200702
27065,0,USMinnesotaKanabec,Minnesota,Kanabec,2021-04-04 08:57:41.920553,2020-09-14 00:00:00.000000,0.89564992,1.50118065,2.41918249,146,245,395,74,131,214,0.45895143,0.80758231,1.31022556,0.17392608,0.26107582,0.39430555
27065,0,USMinnesotaKanabec,Minnesota,Kanabec,2021-04-04 08:57:41.920553,2020-09-15 00:00:00.000000,0.89145768,1.52860507,2.41765977,145,249,394,75,132,216,0.45983415,0.81261851,1.32485419,0.17427966,0.26116480,0.38739227
27065,0,USMinnesotaKanabec,Minnesota,Kanabec,2021-04-04 08:57:41.920553,2020-09-16 00:00:00.000000,0.89878893,1.53541631,2.41169000,146,250,393,75,134,219,0.46517346,0.82034254,1.34421933,0.17523523,0.26009922,0.38810058
27065,0,USMinnesotaKanabec,Minnesota,Kanabec,2021-04-04 08:57:41.920553,2020-09-17 00:00:00.000000,0.92589321,1.54546455,2.40224067,151,252,392,77,134,221,0.47725563,0.82604249,1.35754648,0.18153621,0.25995213,0.39510900
27065,0,USMinnesotaKanabec,Minnesota,Kanabec,2021-04-04 08:57:41.920553,2020-09-18 00:00:00.000000,0.93821134,1.56016219,2.38841081,153,254,390,78,137,223,0.47929522,0.84334525,1.36528044,0.18746522,0.25503052,0.39904542
27065,0,USMinnesotaKanabec,Minnesota,Kanabec,2021-04-04 08:57:41.920553,2020-09-19 00:00:00.000000,0.95220202,1.58978353,2.36738894,155,259,386,77,140,224,0.47593939,0.86028537,1.37358952,0.18968372,0.25488886,0.38136620
27065,0,USMinnesotaKanabec,Minnesota,Kanabec,2021-04-04 08:57:41.920553,2020-09-20 00:00:00.000000,0.96761060,1.60454111,2.41332087,158,262,394,78,140,228,0.48133926,0.86248921,1.39705265,0.19836019,0.25757908,0.37530190
27065,0,USMinnesotaKanabec,Minnesota,Kanabec,2021-04-04 08:57:41.920553,2020-09-21 00:00:00.000000,0.97780714,1.62060779,2.40023013,159,264,392,79,140,231,0.48802346,0.85977233,1.41786429,0.19744187,0.26071280,0.36990330
27065,0,USMinnesotaKanabec,Minnesota,Kanabec,2021-04-04 08:57:41.920553,2020-09-22 00:00:00.000000,0.98890988,1.62575470,2.39992781,161,265,392,80,141,235,0.49419026,0.86842196,1.43931925,0.18882102,0.26279413,0.36930649
27065,0,USMinnesotaKanabec,Minnesota,Kanabec,2021-04-04 08:57:41.920553,2020-09-23 00:00:00.000000,1.00087195,1.62435740,2.45933879,163,265,401,81,143,238,0.50017705,0.87905339,1.46053739,0.18626719,0.26448400,0.36688697
27065,0,USMinnesotaKanabec,Minnesota,Kanabec,2021-04-04 08:57:41.920553,2020-09-24 00:00:00.000000,1.01421483,1.62910341,2.51474543,165,266,410,82,145,239,0.50623357,0.89044979,1.46440272,0.18399824,0.26497131,0.36097992
27065,0,USMinnesotaKanabec,Minnesota,Kanabec,2021-04-04 08:57:41.920553,2020-09-25 00:00:00.000000,1.02972323,1.65206755,2.52321437,168,269,412,83,147,243,0.51261309,0.90032203,1.48960901,0.18017329,0.26696772,0.36661722
27065,0,USMinnesotaKanabec,Minnesota,Kanabec,2021-04-04 08:57:41.920553,2020-09-26 00:00:00.000000,1.04826577,1.67924781,2.52098069,171,274,411,84,148,246,0.51962623,0.91163832,1.50697872,0.18129397,0.26691141,0.36949811
27065,0,USMinnesotaKanabec,Minnesota,Kanabec,2021-04-04 08:57:41.920553,2020-09-27 00:00:00.000000,1.07086136,1.69908344,2.51156080,174,277,410,86,150,247,0.52763863,0.92089160,1.51701566,0.19522089,0.26621686,0.37238880
27065,0,USMinnesotaKanabec,Minnesota,Kanabec,2021-04-04 08:57:41.920553,2020-09-28 00:00:00.000000,1.08544122,1.70855687,2.51197772,177,279,410,87,151,248,0.53698626,0.92429900,1.52076454,0.19585105,0.27506444,0.37056937
27065,0,USMinnesotaKanabec,Minnesota,Kanabec,2021-04-04 08:57:41.920553,2020-09-29 00:00:00.000000,1.08968095,1.73092234,2.51296841,178,282,410,89,151,248,0.54566640,0.92722432,1.52327771,0.19408809,0.27802286,0.37084320
27065,0,USMinnesotaKanabec,Minnesota,Kanabec,2021-04-04 08:57:41.920553,2020-09-30 00:00:00.000000,1.09989137,1.76048341,2.56589616,179,287,419,90,152,249,0.55442766,0.93436249,1.52459811,0.19329555,0.28729878,0.37226239
27065,0,USMinnesotaKanabec,Minnesota,Kanabec,2021-04-04 08:57:41.920553,2020-10-01 00:00:00.000000,1.09617982,1.77074674,2.58095829,179,289,421,92,154,254,0.56358264,0.94288953,1.55564762,0.19301933,0.28979889,0.37996585
27065,0,USMinnesotaKanabec,Minnesota,Kanabec,2021-04-04 08:57:41.920553,2020-10-02 00:00:00.000000,1.11164498,1.77508498,2.66419501,181,289,435,93,155,254,0.57413859,0.95075804,1.55980576,0.19302092,0.29220118,0.38343546
27065,0,USMinnesotaKanabec,Minnesota,Kanabec,2021-04-04 08:57:41.920553,2020-10-03 00:00:00.000000,1.11327548,1.79100945,2.73956401,181,292,447,96,156,254,0.58908648,0.95958527,1.55944525,0.19608838,0.29383614,0.39069942
27065,0,USMinnesotaKanabec,Minnesota,Kanabec,2021-04-04 08:57:41.920553,2020-10-04 00:00:00.000000,1.12319708,1.83174636,2.80550136,183,299,458,97,158,254,0.59823389,0.97060646,1.56061099,0.19961508,0.29440995,0.42310705
27065,0,USMinnesotaKanabec,Minnesota,Kanabec,2021-04-04 08:57:41.920553,2020-10-05 00:00:00.000000,1.17515433,1.87086508,2.86243600,191,305,467,98,160,257,0.60322070,0.98207442,1.57891196,0.20700653,0.29951133,0.45007752
27065,0,USMinnesotaKanabec,Minnesota,Kanabec,2021-04-04 08:57:41.920553,2020-10-06 00:00:00.000000,1.18787535,1.92083482,2.91482555,194,313,476,100,163,262,0.61365681,1.00086609,1.60547546,0.21753154,0.30317388,0.47222097
27065,0,USMinnesotaKanabec,Minnesota,Kanabec,2021-04-04 08:57:41.920553,2020-10-07 00:00:00.000000,1.20057723,1.95222043,2.96542211,196,318,484,101,167,265,0.62410110,1.02482778,1.62601201,0.21945138,0.30071214,0.48216566
27065,0,USMinnesotaKanabec,Minnesota,Kanabec,2021-04-04 08:57:41.920553,2020-10-08 00:00:00.000000,1.23740522,1.99949547,3.02477445,202,326,494,102,170,268,0.62557913,1.04500736,1.64261467,0.22915999,0.31049467,0.48247816
27065,0,USMinnesotaKanabec,Minnesota,Kanabec,2021-04-04 08:57:41.920553,2020-10-09 00:00:00.000000,1.28442969,2.02834734,3.11533185,209,331,508,102,175,276,0.62721718,1.07405002,1.69406323,0.24065331,0.32141900,0.48588126
27065,0,USMinnesotaKanabec,Minnesota,Kanabec,2021-04-04 08:57:41.920553,2020-10-10 00:00:00.000000,1.32058451,2.06256685,3.20779676,215,336,524,102,180,287,0.62955124,1.10328082,1.76041283,0.25100908,0.32949583,0.49788429
27065,0,USMinnesotaKanabec,Minnesota,Kanabec,2021-04-04 08:57:41.920553,2020-10-11 00:00:00.000000,1.35010558,2.13294948,3.31582014,220,348,541,104,184,298,0.63758608,1.13165620,1.82713341,0.26469404,0.34232992,0.50457536
27065,0,USMinnesotaKanabec,Minnesota,Kanabec,2021-04-04 08:57:41.920553,2020-10-12 00:00:00.000000,1.36998598,2.21792148,3.39346621,223,362,554,106,188,311,0.65235819,1.15581262,1.90554575,0.27843731,0.35193450,0.50713858
27065,0,USMinnesotaKanabec,Minnesota,Kanabec,2021-04-04 08:57:41.920553,2020-10-13 00:00:00.000000,1.39481585,2.30686672,3.47268580,227,376,567,109,195,325,0.66926298,1.19817849,1.99467510,0.27209163,0.35926517,0.51174151
27065,0,USMinnesotaKanabec,Minnesota,Kanabec,2021-04-04 08:57:41.920553,2020-10-14 00:00:00.000000,1.44223593,2.40375384,3.55482189,235,392,580,112,203,341,0.68839583,1.24595274,2.08797064,0.27083873,0.36780283,0.51502060
27065,0,USMinnesotaKanabec,Minnesota,Kanabec,2021-04-04 08:57:41.920553,2020-10-15 00:00:00.000000,1.49362868,2.49778769,3.64103094,244,408,594,115,210,357,0.70956795,1.28812880,2.18537607,0.27388686,0.37292672,0.51583985
27065,0,USMinnesotaKanabec,Minnesota,Kanabec,2021-04-04 08:57:41.920553,2020-10-16 00:00:00.000000,1.51743006,2.56931405,3.75379660,247,419,613,118,216,365,0.72389383,1.32652391,2.23782898,0.28102831,0.38104246,0.51691142
27065,0,USMinnesotaKanabec,Minnesota,Kanabec,2021-04-04 08:57:41.920553,2020-10-17 00:00:00.000000,1.58762887,2.65869392,3.93030412,259,434,642,121,223,371,0.74402917,1.36754200,2.27548661,0.29400568,0.39348056,0.53487274
27065,0,USMinnesotaKanabec,Minnesota,Kanabec,2021-04-04 08:57:41.920553,2020-10-18 00:00:00.000000,1.67762066,2.78281057,4.11027341,274,454,671,126,231,377,0.77191235,1.41585682,2.31271941,0.29670279,0.39785073,0.55209852
27065,0,USMinnesotaKanabec,Minnesota,Kanabec,2021-04-04 08:57:41.920553,2020-10-19 00:00:00.000000,1.76659927,2.92685964,4.29375286,288,478,701,131,238,384,0.80703583,1.45957842,2.35066608,0.29736103,0.41437621,0.56680671
27065,0,USMinnesotaKanabec,Minnesota,Kanabec,2021-04-04 08:57:41.920553,2020-10-20 00:00:00.000000,1.84982072,3.07058177,4.50985089,302,501,736,138,246,397,0.84777639,1.50974750,2.43168364,0.29897213,0.42086907,0.57569919
27065,0,USMinnesotaKanabec,Minnesota,Kanabec,2021-04-04 08:57:41.920553,2020-10-21 00:00:00.000000,1.94025956,3.22904165,4.74850623,316,527,775,145,256,413,0.89306105,1.56913005,2.52956308,0.31970392,0.42737942,0.60343737
27065,0,USMinnesotaKanabec,Minnesota,Kanabec,2021-04-04 08:57:41.920553,2020-10-22 00:00:00.000000,2.05716637,3.40407547,4.92263095,336,556,804,152,268,420,0.93608074,1.64051598,2.57477052,0.32724919,0.43372143,0.61902315
27065,0,USMinnesotaKanabec,Minnesota,Kanabec,2021-04-04 08:57:41.920553,2020-10-23 00:00:00.000000,2.18289906,3.56025888,5.17740224,356,581,845,160,279,429,0.97977411,1.71297992,2.63079041,0.33006964,0.44688673,0.62670069
27065,0,USMinnesotaKanabec,Minnesota,Kanabec,2021-04-04 08:57:41.920553,2020-10-24 00:00:00.000000,2.33849702,3.72307008,5.44904869,382,608,890,167,292,449,1.02549064,1.78913741,2.75272190,0.34384543,0.46540370,0.65250093
27065,0,USMinnesotaKanabec,Minnesota,Kanabec,2021-04-04 08:57:41.920553,2020-10-25 00:00:00.000000,2.46654366,3.91078285,5.73244967,402,638,936,175,308,473,1.07238467,1.88914348,2.89984097,0.37494165,0.47100640,0.67220802
27065,0,USMinnesotaKanabec,Minnesota,Kanabec,2021-04-04 08:57:41.920553,2020-10-26 00:00:00.000000,2.59918287,4.07220166,6.03343220,424,665,985,182,323,501,1.11948497,1.97948812,3.07047368,0.39350091,0.48375517,0.69194603
27065,0,USMinnesotaKanabec,Minnesota,Kanabec,2021-04-04 08:57:41.920553,2020-10-27 00:00:00.000000,2.73769112,4.29599990,6.34533844,447,701,1036,190,340,532,1.16470444,2.08683522,3.25951880,0.39133570,0.49403881,0.69949882
27065,0,USMinnesotaKanabec,Minnesota,Kanabec,2021-04-04 08:57:41.920553,2020-10-28 00:00:00.000000,2.88243047,4.53957414,6.71464917,470,741,1096,197,360,562,1.20793979,2.20643600,3.44355480,0.39684583,0.49785845,0.71908241
27065,0,USMinnesotaKanabec,Minnesota,Kanabec,2021-04-04 08:57:41.920553,2020-10-29 00:00:00.000000,3.03579249,4.83404011,7.16522125,495,789,1170,204,378,599,1.25353901,2.31672153,3.66789836,0.42562074,0.50992184,0.74209068
27065,0,USMinnesotaKanabec,Minnesota,Kanabec,2021-04-04 08:57:41.920553,2020-10-30 00:00:00.000000,3.19791266,5.13934110,7.63716087,522,839,1247,221,399,639,1.35581006,2.44355496,3.91505667,0.42839688,0.52571586,0.75023078
27065,0,USMinnesotaKanabec,Minnesota,Kanabec,2021-04-04 08:57:41.920553,2020-10-31 00:00:00.000000,3.37059284,5.50766366,8.12948060,550,899,1328,239,425,678,1.46662372,2.60339418,4.15612553,0.44117461,0.53891708,0.75604300
27065,0,USMinnesotaKanabec,Minnesota,Kanabec,2021-04-04 08:57:41.920553,2020-11-01 00:00:00.000000,3.56256980,5.93406251,8.63155032,582,969,1410,259,455,725,1.58588546,2.79073573,4.44254103,0.44027125,0.55880474,0.76936382
27065,0,USMinnesotaKanabec,Minnesota,Kanabec,2021-04-04 08:57:41.920553,2020-11-02 00:00:00.000000,3.83095222,6.34259533,9.15975198,625,1036,1496,276,487,774,1.69239531,2.98588944,4.74001331,0.44130959,0.56189806,0.75154642
27065,0,USMinnesotaKanabec,Minnesota,Kanabec,2021-04-04 08:57:41.920553,2020-11-03 00:00:00.000000,4.15559809,6.74119276,9.64743513,678,1101,1576,292,520,823,1.79266948,3.18417157,5.04128032,0.44200188,0.56897071,0.74590071
27065,0,USMinnesotaKanabec,Minnesota,Kanabec,2021-04-04 08:57:41.920553,2020-11-04 00:00:00.000000,4.42506077,7.27312547,10.16669044,722,1188,1660,311,552,874,1.90727994,3.37989575,5.35169866,0.43723283,0.56831031,0.76068425
27065,0,USMinnesotaKanabec,Minnesota,Kanabec,2021-04-04 08:57:41.920553,2020-11-05 00:00:00.000000,4.71420910,7.65841226,10.66164135,770,1251,1741,332,590,925,2.03519021,3.61480909,5.66769643,0.43974852,0.56766624,0.76530051
27065,0,USMinnesotaKanabec,Minnesota,Kanabec,2021-04-04 08:57:41.920553,2020-11-06 00:00:00.000000,5.01787025,8.08107298,11.14515077,819,1320,1820,355,631,978,2.17434440,3.86362162,5.98701702,0.42349403,0.55064590,0.75869895
27065,0,USMinnesotaKanabec,Minnesota,Kanabec,2021-04-04 08:57:41.920553,2020-11-07 00:00:00.000000,5.32837832,8.45469511,11.70536739,870,1381,1912,379,671,1030,2.32231828,4.11025437,6.30860918,0.41957220,0.54214444,0.74294420
27065,0,USMinnesotaKanabec,Minnesota,Kanabec,2021-04-04 08:57:41.920553,2020-11-08 00:00:00.000000,5.61285374,8.90561119,12.27545629,916,1454,2005,404,708,1083,2.47627581,4.33790374,6.63182838,0.40631871,0.53642881,0.73208686
27065,0,USMinnesotaKanabec,Minnesota,Kanabec,2021-04-04 08:57:41.920553,2020-11-09 00:00:00.000000,5.86495366,9.23785155,12.77953735,958,1509,2087,429,747,1136,2.63199097,4.57646693,6.95447504,0.39493530,0.52143226,0.67742144
27065,0,USMinnesotaKanabec,Minnesota,Kanabec,2021-04-04 08:57:41.920553,2020-11-10 00:00:00.000000,6.11146721,9.69758712,13.15375238,998,1584,2148,456,794,1186,2.79398503,4.86392405,7.26099106,0.39162915,0.49333812,0.64879913
27065,0,USMinnesotaKanabec,Minnesota,Kanabec,2021-04-04 08:57:41.920553,2020-11-11 00:00:00.000000,6.33297365,10.00410469,13.60681102,1034,1634,2222,484,826,1231,2.96339226,5.06144657,7.53712536,0.38953924,0.47928701,0.62673886
27065,0,USMinnesotaKanabec,Minnesota,Kanabec,2021-04-04 08:57:41.920553,2020-11-12 00:00:00.000000,6.53884849,10.36470182,14.05765215,1068,1693,2296,511,855,1284,3.12800011,5.23520211,7.86014872,0.38528400,0.47213938,0.59787832
27065,0,USMinnesotaKanabec,Minnesota,Kanabec,2021-04-04 08:57:41.920553,2020-11-13 00:00:00.000000,6.73561141,10.87561050,14.47212335,1100,1776,2364,535,894,1335,3.28062759,5.47454346,8.17711545,0.37554325,0.46820049,0.57821249
27065,0,USMinnesotaKanabec,Minnesota,Kanabec,2021-04-04 08:57:41.920553,2020-11-14 00:00:00.000000,6.92513121,11.21661895,14.88376622,1131,1832,2431,558,926,1386,3.41829364,5.66973403,8.48752424,0.36113314,0.46402329,0.57516783
27065,0,USMinnesotaKanabec,Minnesota,Kanabec,2021-04-04 08:57:41.920553,2020-11-15 00:00:00.000000,7.10365848,11.44077598,15.43045710,1160,1869,2520,578,952,1435,3.54268982,5.83157167,8.78966665,0.35607817,0.46214542,0.61144070
27065,0,USMinnesotaKanabec,Minnesota,Kanabec,2021-04-04 08:57:41.920553,2020-11-16 00:00:00.000000,7.27471092,11.65597046,15.85843312,1188,1904,2590,597,979,1483,3.65677154,5.99347359,9.08034419,0.34831597,0.46187140,0.59463338
27065,0,USMinnesotaKanabec,Minnesota,Kanabec,2021-04-04 08:57:41.920553,2020-11-17 00:00:00.000000,7.43337171,11.90429709,16.18931071,1214,1944,2644,615,1005,1528,3.76498300,6.15320061,9.35894697,0.36772461,0.45818389,0.58060283
27065,0,USMinnesotaKanabec,Minnesota,Kanabec,2021-04-04 08:57:41.920553,2020-11-18 00:00:00.000000,7.58525649,12.10490595,16.49360412,1239,1977,2694,631,1035,1571,3.86709409,6.33703371,9.62008492,0.36326879,0.45871649,0.57309003
27065,0,USMinnesotaKanabec,Minnesota,Kanabec,2021-04-04 08:57:41.920553,2020-11-19 00:00:00.000000,7.70981240,12.23331432,16.84021252,1259,1998,2751,644,1065,1610,3.94521944,6.52161896,9.86040072,0.35820121,0.46151583,0.56845062
27065,0,USMinnesotaKanabec,Minnesota,Kanabec,2021-04-04 08:57:41.920553,2020-11-20 00:00:00.000000,7.85552451,12.46387268,17.22510257,1283,2036,2814,656,1087,1646,4.01674680,6.65645233,10.07724671,0.36049293,0.45636002,0.54521399
27065,0,USMinnesotaKanabec,Minnesota,Kanabec,2021-04-04 08:57:41.920553,2020-11-21 00:00:00.000000,7.99655646,12.70456823,17.62545036,1306,2075,2879,666,1106,1677,4.08044529,6.77409087,10.26648554,0.34625659,0.44369024,0.54830532
27065,0,USMinnesotaKanabec,Minnesota,Kanabec,2021-04-04 08:57:41.920553,2020-11-22 00:00:00.000000,8.13267645,12.82273314,18.00254733,1328,2094,2941,675,1126,1702,4.13432777,6.89429875,10.42079535,0.34619598,0.43437211,0.54548318
27065,0,USMinnesotaKanabec,Minnesota,Kanabec,2021-04-04 08:57:41.920553,2020-11-23 00:00:00.000000,8.29352848,13.00016437,18.25122930,1354,2123,2981,682,1143,1731,4.17605085,7.00082129,10.59860333,0.33083956,0.43477263,0.55070274
27065,0,USMinnesotaKanabec,Minnesota,Kanabec,2021-04-04 08:57:41.920553,2020-11-24 00:00:00.000000,8.44793420,13.12771831,18.31682516,1380,2144,2992,687,1156,1764,4.20591975,7.08104973,10.80329001,0.31142809,0.42946972,0.54912108
27065,0,USMinnesotaKanabec,Minnesota,Kanabec,2021-04-04 08:57:41.920553,2020-11-25 00:00:00.000000,8.59450077,13.18909939,18.17309346,1404,2154,2968,694,1164,1788,4.25085291,7.12785304,10.94714131,0.30973918,0.42736627,0.56812926
27065,0,USMinnesotaKanabec,Minnesota,Kanabec,2021-04-04 08:57:41.920553,2020-11-26 00:00:00.000000,8.71012214,13.21933738,17.87240132,1422,2159,2919,699,1174,1797,4.27929948,7.18696731,11.00476512,0.30373261,0.41099712,0.57125610
27065,0,USMinnesotaKanabec,Minnesota,Kanabec,2021-04-04 08:57:41.920553,2020-11-27 00:00:00.000000,8.68245678,13.16133282,17.48056483,1418,2150,2855,698,1179,1792,4.27324268,7.21695981,10.97038888,0.28048075,0.38760448,0.54767502
27065,0,USMinnesotaKanabec,Minnesota,Kanabec,2021-04-04 08:57:41.920553,2020-11-28 00:00:00.000000,8.46052860,12.94845791,17.30420987,1382,2115,2826,692,1176,1781,4.24037902,7.20319142,10.90740939,0.27597761,0.36859026,0.49854311
27065,0,USMinnesotaKanabec,Minnesota,Kanabec,2021-04-04 08:57:41.920553,2020-11-29 00:00:00.000000,8.21073175,12.75475699,17.09258068,1341,2083,2792,682,1168,1814,4.17612367,7.15140210,11.10757483,0.25436347,0.34592799,0.47355013
27065,0,USMinnesotaKanabec,Minnesota,Kanabec,2021-04-04 08:57:41.920553,2020-11-30 00:00:00.000000,7.95013821,12.41015983,16.74756618,1298,2027,2736,670,1153,1839,4.10696100,7.05923836,11.25885306,0.23611005,0.32159099,0.43462050
27065,0,USMinnesotaKanabec,Minnesota,Kanabec,2021-04-04 08:57:41.920553,2020-12-01 00:00:00.000000,7.80860793,12.01609106,16.34627529,1275,1963,2670,667,1142,1852,4.08833714,6.99486105,11.33665508,0.22721854,0.30623437,0.41526828
27065,0,USMinnesotaKanabec,Minnesota,Kanabec,2021-04-04 08:57:41.920553,2020-12-02 00:00:00.000000,7.65880139,11.59932259,16.10321327,1251,1894,2630,653,1128,1818,4.00236433,6.90462911,11.13367507,0.22366683,0.29330469,0.40251432
27065,0,USMinnesotaKanabec,Minnesota,Kanabec,2021-04-04 08:57:41.920553,2020-12-03 00:00:00.000000,7.46208960,11.28429329,15.90156189,1219,1843,2597,638,1101,1763,3.90628548,6.74306342,10.79299413,0.21468477,0.28003305,0.39078926
27065,0,USMinnesotaKanabec,Minnesota,Kanabec,2021-04-04 08:57:41.920553,2020-12-04 00:00:00.000000,7.22342100,11.02072258,15.66235546,1180,1800,2558,621,1066,1705,3.80270017,6.52973642,10.43782197,0.19228209,0.26388398,0.35612244
27065,0,USMinnesotaKanabec,Minnesota,Kanabec,2021-04-04 08:57:41.920553,2020-12-05 00:00:00.000000,6.95936303,10.58835427,15.24060507,1136,1729,2489,603,1035,1644,3.69219241,6.33590208,10.06704863,0.17681895,0.24774611,0.34196716
27065,0,USMinnesotaKanabec,Minnesota,Kanabec,2021-04-04 08:57:41.920553,2020-12-06 00:00:00.000000,6.68448379,10.06223998,14.67978697,1092,1643,2398,583,998,1597,3.57406440,6.11438143,9.77754561,0.17212868,0.23622107,0.33735262
27065,0,USMinnesotaKanabec,Minnesota,Kanabec,2021-04-04 08:57:41.920553,2020-12-07 00:00:00.000000,6.41096520,9.59972643,14.05905969,1047,1568,2296,563,961,1554,3.44897440,5.88559164,9.51366499,0.16518868,0.23059683,0.33470701
27065,0,USMinnesotaKanabec,Minnesota,Kanabec,2021-04-04 08:57:41.920553,2020-12-08 00:00:00.000000,6.13642539,9.21257094,13.43356551,1002,1505,2194,541,920,1505,3.31670954,5.63613803,9.21303071,0.15719627,0.22528737,0.32238642
27065,0,USMinnesotaKanabec,Minnesota,Kanabec,2021-04-04 08:57:41.920553,2020-12-09 00:00:00.000000,5.85395134,8.79671799,12.81359265,956,1437,2093,519,882,1451,3.17957796,5.40446943,8.88272841,0.15208784,0.21824202,0.31565522
27065,0,USMinnesotaKanabec,Minnesota,Kanabec,2021-04-04 08:57:41.920553,2020-12-10 00:00:00.000000,5.55113963,8.37236703,12.20384060,906,1367,1993,496,843,1393,3.03715693,5.16427479,8.52985191,0.14706625,0.20983219,0.30658332
27065,0,USMinnesotaKanabec,Minnesota,Kanabec,2021-04-04 08:57:41.920553,2020-12-11 00:00:00.000000,5.23380781,7.92802549,11.60423292,855,1295,1895,471,798,1333,2.88901053,4.88555376,8.16169388,0.14553447,0.20718388,0.30055956
27065,0,USMinnesotaKanabec,Minnesota,Kanabec,2021-04-04 08:57:41.920553,2020-12-12 00:00:00.000000,4.91873570,7.47855265,11.00919424,803,1221,1798,447,757,1271,2.73769276,4.63933530,7.78563165,0.14195915,0.19847628,0.29473738
27065,0,USMinnesotaKanabec,Minnesota,Kanabec,2021-04-04 08:57:41.920553,2020-12-13 00:00:00.000000,4.57079405,7.03946648,10.41300889,746,1150,1701,424,722,1210,2.59694079,4.42550462,7.40844545,0.13591150,0.19715684,0.28020180
27065,0,USMinnesotaKanabec,Minnesota,Kanabec,2021-04-04 08:57:41.920553,2020-12-14 00:00:00.000000,4.18958358,6.64646182,9.81930074,684,1085,1604,404,683,1149,2.47880727,4.18596171,7.03579196,0.13015052,0.19512153,0.27434850
27065,0,USMinnesotaKanabec,Minnesota,Kanabec,2021-04-04 08:57:41.920553,2020-12-15 00:00:00.000000,3.83542380,6.28053419,9.24176461,626,1026,1509,385,646,1090,2.35817250,3.95437761,6.67671845,0.12742531,0.19579509,0.27260921
27065,0,USMinnesotaKanabec,Minnesota,Kanabec,2021-04-04 08:57:41.920553,2020-12-16 00:00:00.000000,3.52244637,5.91064320,8.68758446,575,965,1419,356,611,1034,2.17994326,3.74342620,6.33298050,0.12798177,0.19813221,0.27732231
27065,0,USMinnesotaKanabec,Minnesota,Kanabec,2021-04-04 08:57:41.920553,2020-12-17 00:00:00.000000,3.31111762,5.57017306,8.15969527,540,909,1333,333,579,981,2.03913818,3.54654059,6.00680419,0.12963094,0.19826018,0.28129494
27065,0,USMinnesotaKanabec,Minnesota,Kanabec,2021-04-04 08:57:41.920553,2020-12-18 00:00:00.000000,3.11331978,5.25164232,7.75492729,508,857,1266,313,548,931,1.92125466,3.35448035,5.70000169,0.12980473,0.19983792,0.28129427
27065,0,USMinnesotaKanabec,Minnesota,Kanabec,2021-04-04 08:57:41.920553,2020-12-19 00:00:00.000000,2.92891561,4.97881314,7.40608218,478,813,1209,296,518,884,1.81233597,3.17500280,5.41231166,0.13102104,0.20318987,0.29818930
27065,0,USMinnesotaKanabec,Minnesota,Kanabec,2021-04-04 08:57:41.920553,2020-12-20 00:00:00.000000,2.75629388,4.74268850,7.07235741,450,774,1155,280,492,840,1.71551196,3.01762543,5.14202565,0.13349236,0.20868229,0.31035939
27065,0,USMinnesotaKanabec,Minnesota,Kanabec,2021-04-04 08:57:41.920553,2020-12-21 00:00:00.000000,2.60844799,4.49154513,6.77082915,426,733,1106,266,465,798,1.63237646,2.84755199,4.88729211,0.13397759,0.21081403,0.35188496
27065,0,USMinnesotaKanabec,Minnesota,Kanabec,2021-04-04 08:57:41.920553,2020-12-22 00:00:00.000000,2.50855979,4.27778946,6.48298888,409,698,1059,254,438,758,1.55912520,2.68453576,4.64567913,0.13538378,0.21213879,0.36057647
27065,0,USMinnesotaKanabec,Minnesota,Kanabec,2021-04-04 08:57:41.920553,2020-12-23 00:00:00.000000,2.41489482,4.07347104,6.20845337,394,665,1014,244,418,721,1.49357840,2.56056303,4.41638009,0.13781937,0.22471536,0.36102510
27065,0,USMinnesotaKanabec,Minnesota,Kanabec,2021-04-04 08:57:41.920553,2020-12-24 00:00:00.000000,2.32629692,3.86187733,5.94649465,380,630,971,233,397,685,1.42660116,2.43021600,4.19872102,0.14224431,0.23624610,0.36931815
27065,0,USMinnesotaKanabec,Minnesota,Kanabec,2021-04-04 08:57:41.920553,2020-12-25 00:00:00.000000,2.23380372,3.67775898,5.69655310,364,600,930,222,379,652,1.36357545,2.32081093,3.99218533,0.14200612,0.24339512,0.36411277
27065,0,USMinnesotaKanabec,Minnesota,Kanabec,2021-04-04 08:57:41.920553,2020-12-26 00:00:00.000000,2.10105798,3.48596880,5.45829194,343,569,891,213,358,620,1.30704138,2.19360880,3.79660524,0.14645218,0.25072058,0.36095055
27065,0,USMinnesotaKanabec,Minnesota,Kanabec,2021-04-04 08:57:41.920553,2020-12-27 00:00:00.000000,1.98109008,3.30042539,5.23173208,323,539,854,203,339,590,1.24596154,2.07746348,3.61277282,0.15723997,0.26297193,0.36884240
27065,0,USMinnesotaKanabec,Minnesota,Kanabec,2021-04-04 08:57:41.920553,2020-12-28 00:00:00.000000,1.87586869,3.15331027,5.02560809,306,515,821,194,320,562,1.18779834,1.96481695,3.44256749,0.16299020,0.27315627,0.40156345
27065,0,USMinnesotaKanabec,Minnesota,Kanabec,2021-04-04 08:57:41.920553,2020-12-29 00:00:00.000000,1.77438630,3.01285279,4.83267786,289,492,789,185,306,536,1.13344025,1.87452724,3.28383840,0.16656435,0.28259462,0.41027143
27065,0,USMinnesotaKanabec,Minnesota,Kanabec,2021-04-04 08:57:41.920553,2020-12-30 00:00:00.000000,1.67235998,2.89391576,4.65365441,273,472,760,175,294,512,1.07712697,1.80450593,3.13570884,0.17318663,0.29044733,0.41779567
27065,0,USMinnesotaKanabec,Minnesota,Kanabec,2021-04-04 08:57:41.920553,2020-12-31 00:00:00.000000,1.61279564,2.80651773,4.48795128,263,458,733,166,281,490,1.02185662,1.72247944,3.00023510,0.18731333,0.30023233,0.42741883
27065,0,USMinnesotaKanabec,Minnesota,Kanabec,2021-04-04 08:57:41.920553,2021-01-01 00:00:00.000000,1.54353244,2.68998900,4.33395987,252,439,708,158,269,471,0.97173408,1.64817438,2.88446627,0.18789054,0.30742436,0.42757506
27065,0,USMinnesotaKanabec,Minnesota,Kanabec,2021-04-04 08:57:41.920553,2021-01-02 00:00:00.000000,1.47716667,2.57578631,4.19031613,241,420,684,151,257,453,0.92432643,1.57580056,2.77671544,0.18922626,0.31409494,0.46728512
27065,0,USMinnesotaKanabec,Minnesota,Kanabec,2021-04-04 08:57:41.920553,2021-01-03 00:00:00.000000,1.41955676,2.46927318,4.05698469,231,403,662,142,245,437,0.87410535,1.50406355,2.67639864,0.19297684,0.32078125,0.47773351
27065,0,USMinnesotaKanabec,Minnesota,Kanabec,2021-04-04 08:57:41.920553,2021-01-04 00:00:00.000000,1.39882871,2.39156669,3.90817337,228,390,638,135,234,421,0.83196772,1.43563438,2.58308500,0.20314580,0.34031305,0.49511413
27065,0,USMinnesotaKanabec,Minnesota,Kanabec,2021-04-04 08:57:41.920553,2021-01-05 00:00:00.000000,1.38544293,2.31894841,3.77345428,226,378,616,132,226,407,0.80892482,1.38512162,2.49180368,0.20813807,0.34389807,0.50132019
27065,0,USMinnesotaKanabec,Minnesota,Kanabec,2021-04-04 08:57:41.920553,2021-01-06 00:00:00.000000,1.38388470,2.25918588,3.65307055,226,369,596,130,217,392,0.80072942,1.33190923,2.40436027,0.21390093,0.35123398,0.51768242
27065,0,USMinnesotaKanabec,Minnesota,Kanabec,2021-04-04 08:57:41.920553,2021-01-07 00:00:00.000000,1.37840694,2.21063334,3.55769120,225,361,581,126,208,380,0.77247288,1.27854560,2.32748052,0.21955342,0.35584186,0.52016940
27065,0,USMinnesotaKanabec,Minnesota,Kanabec,2021-04-04 08:57:41.920553,2021-01-08 00:00:00.000000,1.37629033,2.16300492,3.49308644,224,353,570,121,200,370,0.74547025,1.22968065,2.26849976,0.22826497,0.36472909,0.53717537
27065,0,USMinnesotaKanabec,Minnesota,Kanabec,2021-04-04 08:57:41.920553,2021-01-09 00:00:00.000000,1.36138857,2.12661095,3.42915717,222,347,560,117,194,363,0.72086658,1.19295592,2.22575784,0.23369263,0.38206882,0.55662374
27065,0,USMinnesotaKanabec,Minnesota,Kanabec,2021-04-04 08:57:41.920553,2021-01-10 00:00:00.000000,1.35008234,2.07858838,3.36617444,220,339,549,114,191,356,0.69917074,1.17291718,2.18426666,0.24556821,0.39012480,0.56671601
27065,0,USMinnesotaKanabec,Minnesota,Kanabec,2021-04-04 08:57:41.920553,2021-01-11 00:00:00.000000,1.36539991,2.03772543,3.30581328,223,332,540,111,188,350,0.68339383,1.15606031,2.14367561,0.26787489,0.39965894,0.57148699
27065,0,USMinnesotaKanabec,Minnesota,Kanabec,2021-04-04 08:57:41.920553,2021-01-12 00:00:00.000000,1.33472615,2.00438966,3.29027495,218,327,537,109,186,343,0.67322964,1.14157510,2.10413521,0.27065726,0.40626000,0.57429057
27065,0,USMinnesotaKanabec,Minnesota,Kanabec,2021-04-04 08:57:41.920553,2021-01-13 00:00:00.000000,1.30371771,1.98987483,3.29786346,212,325,538,108,183,337,0.66548231,1.12301783,2.06544723,0.26860595,0.41798102,0.58227276
27065,0,USMinnesotaKanabec,Minnesota,Kanabec,2021-04-04 08:57:41.920553,2021-01-14 00:00:00.000000,1.27284188,1.96546203,3.28967673,207,321,537,107,181,331,0.65935713,1.11267533,2.02751206,0.26511801,0.42226930,0.58025218
27065,0,USMinnesotaKanabec,Minnesota,Kanabec,2021-04-04 08:57:41.920553,2021-01-15 00:00:00.000000,1.26829085,1.94134239,3.24591224,207,317,530,106,178,325,0.65459864,1.09326949,1.99031965,0.25990288,0.43022258,0.59456832
27065,0,USMinnesotaKanabec,Minnesota,Kanabec,2021-04-04 08:57:41.920553,2021-01-16 00:00:00.000000,1.27332363,1.89881802,3.19883806,208,310,522,106,176,319,0.65083563,1.08110800,1.95402059,0.25346076,0.44487934,0.59730095
27065,0,USMinnesotaKanabec,Minnesota,Kanabec,2021-04-04 08:57:41.920553,2021-01-17 00:00:00.000000,1.25387090,1.87971619,3.14675059,204,307,514,105,175,318,0.64768884,1.07272150,1.95117704,0.25508476,0.45783256,0.61419549
27065,0,USMinnesotaKanabec,Minnesota,Kanabec,2021-04-04 08:57:41.920553,2021-01-18 00:00:00.000000,1.22675484,1.86843263,3.08681111,200,305,504,106,174,319,0.64920798,1.06744966,1.95308381,0.25649619,0.46691844,0.61705968
27065,0,USMinnesotaKanabec,Minnesota,Kanabec,2021-04-04 08:57:41.920553,2021-01-19 00:00:00.000000,1.20027972,1.85848303,3.02733027,196,303,494,106,174,318,0.65082926,1.06940428,1.95094331,0.25684550,0.47516902,0.62648682
27065,0,USMinnesotaKanabec,Minnesota,Kanabec,2021-04-04 08:57:41.920553,2021-01-20 00:00:00.000000,1.18238867,1.85177668,2.97292496,193,302,485,105,175,317,0.64392968,1.07226670,1.94583644,0.25705714,0.47821650,0.63073608
27065,0,USMinnesotaKanabec,Minnesota,Kanabec,2021-04-04 08:57:41.920553,2021-01-21 00:00:00.000000,1.18623682,1.86265534,2.97045744,193,304,485,102,175,316,0.63016059,1.07540898,1.93853336,0.25738737,0.47896340,0.63250242
27065,0,USMinnesotaKanabec,Minnesota,Kanabec,2021-04-04 08:57:41.920553,2021-01-22 00:00:00.000000,1.19068476,1.89025919,2.98501691,194,308,487,101,176,315,0.61832164,1.07836701,1.92959003,0.25819841,0.46969658,0.63296132
27065,0,USMinnesotaKanabec,Minnesota,Kanabec,2021-04-04 08:57:41.920553,2021-01-23 00:00:00.000000,1.19560704,1.89599744,2.99882841,195,309,489,99,175,313,0.60833783,1.07293338,1.91801270,0.26202102,0.47514760,0.63329909
27065,0,USMinnesotaKanabec,Minnesota,Kanabec,2021-04-04 08:57:41.920553,2021-01-24 00:00:00.000000,1.19809481,1.89956722,3.01211693,195,310,492,98,174,308,0.60022443,1.06811058,1.88917577,0.28471042,0.47604342,0.63504475
27065,0,USMinnesotaKanabec,Minnesota,Kanabec,2021-04-04 08:57:41.920553,2021-01-25 00:00:00.000000,1.18893459,1.88005184,3.01129814,194,307,491,97,173,303,0.59403157,1.06408582,1.86076609,0.29086339,0.47637131,0.64656828
27065,0,USMinnesotaKanabec,Minnesota,Kanabec,2021-04-04 08:57:41.920553,2021-01-26 00:00:00.000000,1.16731770,1.86198112,3.00893856,190,304,491,96,173,299,0.58961368,1.06083854,1.83173447,0.26054032,0.47549070,0.67868340
27065,0,USMinnesotaKanabec,Minnesota,Kanabec,2021-04-04 08:57:41.920553,2021-01-27 00:00:00.000000,1.14178472,1.83366980,2.99807403,186,299,489,95,171,295,0.58697867,1.04739386,1.80862433,0.26623336,0.47866375,0.69025690
27065,0,USMinnesotaKanabec,Minnesota,Kanabec,2021-04-04 08:57:41.920553,2021-01-28 00:00:00.000000,1.11478162,1.80940249,2.94461508,182,295,481,94,170,295,0.57752398,1.04277715,1.80944702,0.26894026,0.47993274,0.68908217
27065,0,USMinnesotaKanabec,Minnesota,Kanabec,2021-04-04 08:57:41.920553,2021-01-29 00:00:00.000000,1.08777442,1.79272091,2.89258779,177,292,472,93,168,295,0.57309103,1.02926678,1.80801002,0.27122755,0.48281315,0.69088403
27065,0,USMinnesotaKanabec,Minnesota,Kanabec,2021-04-04 08:57:41.920553,2021-01-30 00:00:00.000000,1.06374004,1.78470443,2.84493622,173,291,464,93,167,294,0.57097387,1.02291814,1.80365086,0.27343481,0.47608458,0.70536784
27065,0,USMinnesotaKanabec,Minnesota,Kanabec,2021-04-04 08:57:41.920553,2021-01-31 00:00:00.000000,1.05515504,1.77730012,2.80938840,172,290,458,92,168,293,0.56682825,1.03109035,1.79553798,0.27581633,0.46976393,0.71310598
27065,0,USMinnesotaKanabec,Minnesota,Kanabec,2021-04-04 08:57:41.920553,2021-02-01 00:00:00.000000,1.04570759,1.76782077,2.81399214,170,288,459,90,168,291,0.55414885,1.03282363,1.78324917,0.28601008,0.46908334,0.73821777
27065,0,USMinnesotaKanabec,Minnesota,Kanabec,2021-04-04 08:57:41.920553,2021-02-02 00:00:00.000000,1.03608260,1.76389775,2.82914590,169,288,462,88,166,288,0.54283340,1.02125880,1.76896908,0.28601905,0.47435341,0.76044006
27065,0,USMinnesotaKanabec,Minnesota,Kanabec,2021-04-04 08:57:41.920553,2021-02-03 00:00:00.000000,1.02631459,1.73767435,2.83024332,167,283,462,87,164,286,0.53827667,1.00554737,1.75267114,0.28601686,0.47420035,0.76930569
27065,0,USMinnesotaKanabec,Minnesota,Kanabec,2021-04-04 08:57:41.920553,2021-02-04 00:00:00.000000,1.01638567,1.71722449,2.79562422,166,280,456,87,162,283,0.53352419,0.99465470,1.73461357,0.28609370,0.47514550,0.77998099
27065,0,USMinnesotaKanabec,Minnesota,Kanabec,2021-04-04 08:57:41.920553,2021-02-05 00:00:00.000000,1.00630277,1.71863629,2.75919621,164,280,450,86,159,280,0.52874613,0.97771029,1.71505490,0.28735681,0.47903104,0.78953863
27065,0,USMinnesotaKanabec,Minnesota,Kanabec,2021-04-04 08:57:41.920553,2021-02-06 00:00:00.000000,0.99583719,1.71052562,2.72005252,162,279,444,85,156,276,0.52390249,0.95972398,1.69414725,0.27678961,0.48121443,0.80583133
27065,0,USMinnesotaKanabec,Minnesota,Kanabec,2021-04-04 08:57:41.920553,2021-02-07 00:00:00.000000,0.98425263,1.71074728,2.67763820,160,279,437,84,153,273,0.51883760,0.94184834,1.67193840,0.27081351,0.48002568,0.82936665
27065,0,USMinnesotaKanabec,Minnesota,Kanabec,2021-04-04 08:57:41.920553,2021-02-08 00:00:00.000000,0.96733366,1.69222786,2.62346505,158,276,428,83,152,269,0.51340359,0.93360006,1.64844623,0.27714028,0.47073355,0.85628494
27065,0,USMinnesotaKanabec,Minnesota,Kanabec,2021-04-04 08:57:41.920553,2021-02-09 00:00:00.000000,0.97874058,1.67378600,2.62342790,159,273,428,82,152,267,0.50776449,0.93604916,1.63724287,0.27919894,0.47015820,0.88003254
27065,0,USMinnesotaKanabec,Minnesota,Kanabec,2021-04-04 08:57:41.920553,2021-02-10 00:00:00.000000,0.94689978,1.65530892,2.66645251,154,270,435,84,153,268,0.51722345,0.93687604,1.64590411,0.27991362,0.47308687,0.89698908
27065,0,USMinnesotaKanabec,Minnesota,Kanabec,2021-04-04 08:57:41.920553,2021-02-11 00:00:00.000000,0.92213160,1.64386123,2.63983925,150,268,431,84,152,265,0.51862544,0.93213306,1.62457065,0.28183606,0.48743735,0.91465781
27065,0,USMinnesotaKanabec,Minnesota,Kanabec,2021-04-04 08:57:41.920553,2021-02-12 00:00:00.000000,0.91408565,1.64134240,2.60348074,149,268,425,85,152,262,0.52030755,0.93455563,1.60960264,0.28579364,0.50069729,0.95033405
27065,0,USMinnesotaKanabec,Minnesota,Kanabec,2021-04-04 08:57:41.920553,2021-02-13 00:00:00.000000,0.90827829,1.63691490,2.61642540,148,267,427,85,152,267,0.52226905,0.93492624,1.63566281,0.29334016,0.50987346,0.97816664
27065,0,USMinnesotaKanabec,Minnesota,Kanabec,2021-04-04 08:57:41.920553,2021-02-14 00:00:00.000000,0.90360038,1.62656170,2.65515828,147,265,433,82,152,269,0.50632414,0.93276019,1.64936830,0.30616206,0.51550508,0.99898840
27065,0,USMinnesotaKanabec,Minnesota,Kanabec,2021-04-04 08:57:41.920553,2021-02-15 00:00:00.000000,0.90956341,1.62429723,2.70140188,148,265,441,80,152,265,0.49180164,0.93491575,1.62229955,0.32413333,0.52556343,1.01474582
27065,0,USMinnesotaKanabec,Minnesota,Kanabec,2021-04-04 08:57:41.920553,2021-02-16 00:00:00.000000,0.91593013,1.63195162,2.74669985,149,266,448,78,152,261,0.47886462,0.93465294,1.60047319,0.33944140,0.53901097,1.04429937
27065,0,USMinnesotaKanabec,Minnesota,Kanabec,2021-04-04 08:57:41.920553,2021-02-17 00:00:00.000000,0.92285458,1.63388762,2.79122002,150,266,456,76,153,258,0.46992462,0.93770296,1.58194996,0.35345454,0.55353042,1.05428042
27065,0,USMinnesotaKanabec,Minnesota,Kanabec,2021-04-04 08:57:41.920553,2021-02-18 00:00:00.000000,0.91866061,1.64427447,2.83483838,150,268,463,77,153,255,0.47185574,0.93792660,1.56643421,0.36908261,0.56256916,1.07511232
27065,0,USMinnesotaKanabec,Minnesota,Kanabec,2021-04-04 08:57:41.920553,2021-02-19 00:00:00.000000,0.89997952,1.65185667,2.87744583,147,269,470,77,154,254,0.47456683,0.94649549,1.55482949,0.37332635,0.58162147,1.09498645
27065,0,USMinnesotaKanabec,Minnesota,Kanabec,2021-04-04 08:57:41.920553,2021-02-20 00:00:00.000000,0.88847527,1.66895093,2.91889969,145,272,476,78,154,253,0.47792900,0.94729375,1.55030447,0.39002434,0.60558089,1.11074232
27065,0,USMinnesotaKanabec,Minnesota,Kanabec,2021-04-04 08:57:41.920553,2021-02-21 00:00:00.000000,0.88215807,1.67437820,2.95871335,144,273,483,78,155,254,0.48204085,0.94957146,1.55531442,0.40569992,0.63325669,1.14171356
27065,0,USMinnesotaKanabec,Minnesota,Kanabec,2021-04-04 08:57:41.920553,2021-02-22 00:00:00.000000,0.88785400,1.68725713,2.98452862,145,275,487,78,154,256,0.48328938,0.94642520,1.56882858,0.42640499,0.65184821,1.16955943
27065,0,USMinnesotaKanabec,Minnesota,Kanabec,2021-04-04 08:57:41.920553,2021-02-23 00:00:00.000000,0.89553010,1.70791356,3.00906204,146,279,491,78,155,259,0.47815164,0.95322854,1.58943963,0.44828402,0.68670967,1.18612800
27065,0,USMinnesotaKanabec,Minnesota,Kanabec,2021-04-04 08:57:41.920553,2021-02-24 00:00:00.000000,0.90540819,1.73103494,3.03192507,147,282,495,78,158,263,0.47915832,0.96873637,1.61485234,0.45081440,0.69859492,1.21795152
27065,0,USMinnesotaKanabec,Minnesota,Kanabec,2021-04-04 08:57:41.920553,2021-02-25 00:00:00.000000,0.91801842,1.75968825,3.05319027,149,287,498,79,158,268,0.48432291,0.96996168,1.64383122,0.45339873,0.71830885,1.21905342
27065,0,USMinnesotaKanabec,Minnesota,Kanabec,2021-04-04 08:57:41.920553,2021-02-26 00:00:00.000000,0.95310625,1.79428430,3.07288878,155,293,502,80,158,273,0.49245744,0.97212165,1.67702440,0.45776616,0.76626327,1.21967004
27065,0,USMinnesotaKanabec,Minnesota,Kanabec,2021-04-04 08:57:41.920553,2021-02-27 00:00:00.000000,0.98602038,1.82678727,3.09099305,161,298,504,84,160,280,0.51494098,0.98373162,1.71776028,0.46445770,0.78898407,1.22795385
27065,0,USMinnesotaKanabec,Minnesota,Kanabec,2021-04-04 08:57:41.920553,2021-02-28 00:00:00.000000,1.01597680,1.88792402,3.10744380,165,308,507,86,166,288,0.52919477,1.01637337,1.76815288,0.46960846,0.80592221,1.24846399
27065,0,USMinnesotaKanabec,Minnesota,Kanabec,2021-04-04 08:57:41.920553,2021-03-01 00:00:00.000000,1.05072086,1.95016524,3.18727622,171,318,520,87,170,292,0.53809099,1.04319688,1.79058556,0.47648123,0.84988540,1.32107796
27065,0,USMinnesotaKanabec,Minnesota,Kanabec,2021-04-04 08:57:41.920553,2021-03-02 00:00:00.000000,1.09219680,2.00724285,3.26881602,178,327,534,91,174,296,0.55715690,1.06950765,1.81321248,0.48382815,0.85242129,1.35131080
27065,0,USMinnesotaKanabec,Minnesota,Kanabec,2021-04-04 08:57:41.920553,2021-03-03 00:00:00.000000,1.14236179,2.05066118,3.34946910,186,335,547,95,179,300,0.58155449,1.09589279,1.84020979,0.48983928,0.86955360,1.35506487
27065,0,USMinnesotaKanabec,Minnesota,Kanabec,2021-04-04 08:57:41.920553,2021-03-04 00:00:00.000000,1.18791226,2.09680659,3.42807120,194,342,560,97,182,305,0.59584362,1.11429918,1.87038464,0.49381253,0.85822476,1.35751437
27065,0,USMinnesotaKanabec,Minnesota,Kanabec,2021-04-04 08:57:41.920553,2021-03-05 00:00:00.000000,1.21890377,2.15615056,3.49057870,199,352,570,100,184,310,0.61304198,1.12630525,1.90278453,0.49632548,0.87230001,1.37631288
27065,0,USMinnesotaKanabec,Minnesota,Kanabec,2021-04-04 08:57:41.920553,2021-03-06 00:00:00.000000,1.25352224,2.21815258,3.49709168,204,362,571,103,188,316,0.63224332,1.15110853,1.93633058,0.49852119,0.87099323,1.38074048
27065,0,USMinnesotaKanabec,Minnesota,Kanabec,2021-04-04 08:57:41.920553,2021-03-07 00:00:00.000000,1.30184756,2.28963165,3.50078473,212,374,571,105,193,321,0.64784862,1.18143185,1.96974057,0.50191339,0.87496116,1.43588947
27065,0,USMinnesotaKanabec,Minnesota,Kanabec,2021-04-04 08:57:41.920553,2021-03-08 00:00:00.000000,1.35959049,2.35951094,3.50585159,222,385,572,110,198,327,0.67460500,1.21346096,2.00338258,0.50879556,0.87856347,1.43814710
27065,0,USMinnesotaKanabec,Minnesota,Kanabec,2021-04-04 08:57:41.920553,2021-03-09 00:00:00.000000,1.41660797,2.43030521,3.55154678,231,397,580,114,205,331,0.69905477,1.25611663,2.03206226,0.51787117,0.89012396,1.46923928
27065,0,USMinnesotaKanabec,Minnesota,Kanabec,2021-04-04 08:57:41.920553,2021-03-10 00:00:00.000000,1.50110478,2.50190216,3.62959701,245,408,592,118,210,336,0.72568279,1.28704396,2.05690016,0.52532363,0.91227229,1.53138293
27065,0,USMinnesotaKanabec,Minnesota,Kanabec,2021-04-04 08:57:41.920553,2021-03-11 00:00:00.000000,1.58865941,2.56178703,3.71142430,259,418,606,123,216,339,0.75391333,1.32722897,2.07935037,0.52942991,0.91528117,1.61435706
27065,0,USMinnesotaKanabec,Minnesota,Kanabec,2021-04-04 08:57:41.920553,2021-03-12 00:00:00.000000,1.66354446,2.61425614,3.73413330,271,427,610,127,223,343,0.78337730,1.36782050,2.10112254,0.53082576,0.92282751,1.67111583
27065,0,USMinnesotaKanabec,Minnesota,Kanabec,2021-04-04 08:57:41.920553,2021-03-13 00:00:00.000000,1.72711331,2.66203330,3.74273414,282,434,611,135,231,346,0.82665417,1.41755625,2.12348470,0.53076972,0.91840865,1.69954352
27065,0,USMinnesotaKanabec,Minnesota,Kanabec,2021-04-04 08:57:41.920553,2021-03-14 00:00:00.000000,1.78952824,2.69721027,3.74892563,292,440,612,142,238,350,0.87503731,1.45958040,2.14723389,0.52551427,0.91615868,1.72644391
27065,0,USMinnesotaKanabec,Minnesota,Kanabec,2021-04-04 08:57:41.920553,2021-03-15 00:00:00.000000,1.84858469,2.73726189,3.76920110,302,447,615,145,243,355,0.89353073,1.48809154,2.17306755,0.47917051,0.91283900,1.75057004
27065,0,USMinnesotaKanabec,Minnesota,Kanabec,2021-04-04 08:57:41.920553,2021-03-16 00:00:00.000000,1.89795702,2.80003373,3.79892241,310,457,620,149,248,359,0.91492432,1.51968524,2.20001535,0.48864857,0.91405425,1.76738173
27065,0,USMinnesotaKanabec,Minnesota,Kanabec,2021-04-04 08:57:41.920553,2021-03-17 00:00:00.000000,1.92803392,2.82947670,3.82946136,314,462,625,154,251,363,0.94731267,1.53754195,2.22772880,0.50235414,0.91408857,1.77824378
27065,0,USMinnesotaKanabec,Minnesota,Kanabec,2021-04-04 08:57:41.920553,2021-03-18 00:00:00.000000,1.95932626,2.86591777,3.85658755,320,468,630,157,253,368,0.96617412,1.55384207,2.25574150,0.50599615,0.91203076,1.78832890
27065,0,USMinnesotaKanabec,Minnesota,Kanabec,2021-04-04 08:57:41.920553,2021-03-19 00:00:00.000000,1.99065555,2.89528356,3.88031883,325,473,633,161,256,373,0.98685038,1.56885544,2.28371377,0.50252257,0.90517769,1.80178398
27065,0,USMinnesotaKanabec,Minnesota,Kanabec,2021-04-04 08:57:41.920553,2021-03-20 00:00:00.000000,2.02177257,2.92990717,3.90042113,330,478,637,165,258,380,1.01209193,1.58255783,2.32974428,0.48518004,0.89444354,1.82270892
27065,0,USMinnesotaKanabec,Minnesota,Kanabec,2021-04-04 08:57:41.920553,2021-03-21 00:00:00.000000,2.04090339,2.98655259,3.91721398,333,487,639,169,262,391,1.03781435,1.60473166,2.39912305,0.46010555,0.87999947,1.88644417
27065,0,USMinnesotaKanabec,Minnesota,Kanabec,2021-04-04 08:57:41.920553,2021-03-22 00:00:00.000000,2.04045730,3.01228831,3.93090866,333,492,642,173,264,400,1.06370684,1.62120096,2.44924775,0.45954437,0.88438785,1.94974743
27065,0,USMinnesotaKanabec,Minnesota,Kanabec,2021-04-04 08:57:41.920553,2021-03-23 00:00:00.000000,2.03935660,3.03190968,3.95598088,333,495,646,177,268,403,1.08660255,1.64376599,2.46886157,0.45812959,0.88958720,1.99322270
27065,0,USMinnesotaKanabec,Minnesota,Kanabec,2021-04-04 08:57:41.920553,2021-03-24 00:00:00.000000,2.03668648,3.04671199,4.03077266,332,497,658,180,272,405,1.10601309,1.66817282,2.48497010,0.42691544,0.88464396,2.00764662
27065,0,USMinnesotaKanabec,Minnesota,Kanabec,2021-04-04 08:57:41.920553,2021-03-25 00:00:00.000000,2.03131949,3.09249168,4.14968948,331,505,677,183,276,408,1.12068669,1.69078820,2.49792618,0.41061401,0.88076472,2.03946646
27065,0,USMinnesotaKanabec,Minnesota,Kanabec,2021-04-04 08:57:41.920553,2021-03-26 00:00:00.000000,2.00920516,3.11831069,4.26830655,328,509,697,183,277,409,1.12376779,1.69846950,2.50731762,0.39860205,0.85763012,2.14340200
27065,0,USMinnesotaKanabec,Minnesota,Kanabec,2021-04-04 08:57:41.920553,2021-03-27 00:00:00.000000,1.98820258,3.14025884,4.34529667,324,513,709,180,276,413,1.10627361,1.69061391,2.53166975,0.38426802,0.85621408,2.19217879
27065,0,USMinnesotaKanabec,Minnesota,Kanabec,2021-04-04 08:57:41.920553,2021-03-28 00:00:00.000000,1.95966816,3.14189042,4.44159263,320,513,725,178,275,418,1.09133872,1.68636826,2.55896050,0.35010201,0.85785549,2.24193398
27065,0,USMinnesotaKanabec,Minnesota,Kanabec,2021-04-04 08:57:41.920553,2021-03-29 00:00:00.000000,1.89101438,3.11739215,4.56104680,308,509,745,174,276,422,1.06846206,1.69232691,2.58419319,0.34071101,0.85588773,2.28647117
27065,0,USMinnesotaKanabec,Minnesota,Kanabec,2021-04-04 08:57:41.920553,2021-03-30 00:00:00.000000,1.83460274,3.13532714,4.65586628,299,512,760,169,278,430,1.03861291,1.70701736,2.63734932,0.32798299,0.84360221,2.32034523
27065,0,USMinnesotaKanabec,Minnesota,Kanabec,2021-04-04 08:57:41.920553,2021-03-31 00:00:00.000000,1.77591732,3.14175792,4.70491070,290,513,768,164,278,443,1.00735901,1.70501425,2.71274917,0.32315971,0.83903360,2.34256827
27065,0,USMinnesotaKanabec,Minnesota,Kanabec,2021-04-04 08:57:41.920553,2021-04-01 00:00:00.000000,1.71310331,3.14160611,4.73983797,279,513,774,159,278,455,0.97381166,1.70179563,2.78569664,0.31322689,0.83467734,2.35514069
27065,0,USMinnesotaKanabec,Minnesota,Kanabec,2021-04-04 08:57:41.920553,2021-04-02 00:00:00.000000,1.64653185,3.11260952,4.76301793,268,508,778,153,274,466,0.93978867,1.68073244,2.85643844,0.29732717,0.84003509,2.36040725
27065,0,USMinnesotaKanabec,Minnesota,Kanabec,2021-04-04 08:57:41.920553,2021-04-03 00:00:00.000000,1.58000717,3.12948813,4.76819782,258,511,778,147,278,477,0.90390868,1.70347491,2.92501943,0.29315689,0.85116314,2.35974323
27065,0,USMinnesotaKanabec,Minnesota,Kanabec,2021-04-04 08:57:41.920553,2021-04-04 00:00:00.000000,1.51149014,3.13239651,4.74505638,246,511,775,141,276,481,0.86674790,1.69260320,2.94664048,0.29296498,0.84700508,2.46527313
27065,0,USMinnesotaKanabec,Minnesota,Kanabec,2021-04-04 08:57:41.920553,2021-04-05 00:00:00.000000,1.41312372,3.11056879,4.69545346,230,508,767,135,275,483,0.82929403,1.68576402,2.95663201,0.29295581,0.85178629,2.48678088
27065,0,USMinnesotaKanabec,Minnesota,Kanabec,2021-04-04 08:57:41.920553,2021-04-06 00:00:00.000000,1.31899582,3.06948843,4.63141949,215,501,756,129,272,483,0.79227174,1.67002705,2.96043957,0.29295045,0.85710456,2.47601352
27065,0,USMinnesotaKanabec,Minnesota,Kanabec,2021-04-04 08:57:41.920553,2021-04-07 00:00:00.000000,1.22963952,3.02985261,4.60954167,200,494,753,123,271,483,0.75612680,1.66351325,2.95905637,0.29294908,0.85142939,2.50289382
27065,0,USMinnesotaKanabec,Minnesota,Kanabec,2021-04-04 08:57:41.920553,2021-04-08 00:00:00.000000,1.14529622,3.01954255,4.62951979,187,493,756,117,266,482,0.72111515,1.63166724,2.95271079,0.29263241,0.84075924,2.50468932
27065,0,USMinnesotaKanabec,Minnesota,Kanabec,2021-04-04 08:57:41.920553,2021-04-09 00:00:00.000000,1.07026952,3.00741718,4.64414711,174,491,758,112,266,480,0.68737340,1.63295367,2.94252780,0.29238878,0.83024470,2.50511818
27065,0,USMinnesotaKanabec,Minnesota,Kanabec,2021-04-04 08:57:41.920553,2021-04-10 00:00:00.000000,1.01893624,2.99346491,4.65334699,166,489,760,107,262,478,0.65496455,1.60925006,2.92917244,0.29227095,0.83065574,2.50521881
27065,0,USMinnesotaKanabec,Minnesota,Kanabec,2021-04-04 08:57:41.920553,2021-04-11 00:00:00.000000,0.96994266,2.97769633,4.65708245,158,486,760,101,255,475,0.62390643,1.56347119,2.91297411,0.29221435,0.83083184,2.50524283
27065,0,USMinnesotaKanabec,Minnesota,Kanabec,2021-04-04 08:57:41.920553,2021-04-12 00:00:00.000000,0.92320629,2.96013763,4.62693668,150,483,755,97,252,472,0.59418930,1.54373549,2.89417685,0.29218726,0.83090710,2.50524870
27065,0,USMinnesotaKanabec,Minnesota,Kanabec,2021-04-04 08:57:41.920553,2021-04-13 00:00:00.000000,0.87864041,2.96060118,4.59334917,143,483,750,92,251,469,0.56578677,1.53798155,2.87297029,0.29217431,0.83093920,2.50525016
27065,0,USMinnesotaKanabec,Minnesota,Kanabec,2021-04-04 08:57:41.920553,2021-04-14 00:00:00.000000,0.83615700,2.94372879,4.55705706,136,480,744,88,249,465,0.53866251,1.52945099,2.84950990,0.29216813,0.83095289,2.50525054
27065,0,USMinnesotaKanabec,Minnesota,Kanabec,2021-04-04 08:57:41.920553,2021-04-15 00:00:00.000000,0.79566856,2.91714240,4.51816075,129,476,738,83,249,461,0.51277460,1.52548228,2.82393008,0.29216518,0.83095873,2.50525064
27065,0,USMinnesotaKanabec,Minnesota,Kanabec,2021-04-04 08:57:41.920553,2021-04-16 00:00:00.000000,0.75708918,2.88528966,4.47676466,123,471,731,79,245,456,0.48807812,1.50539207,2.79635253,0.29216377,0.83096121,2.50525066
