FIPS,HR_UID,nameid,province,region,analysisTime,dates,pointprevalence_025,pointprevalence_50,pointprevalence_975,pointinfections_025,pointinfections_50,pointinfections_975,pointinfectious_025,pointinfectious_50,pointinfectious_975,pointinfectiousprevalence_05,pointinfectiousprevalence_50,pointinfectiousprevalence_95,infectrate_025,infectrate_50,infectrate_975
20187,0,USKansasStanton,Kansas,Stanton,2021-04-04 10:11:08.330993,2020-03-09 00:00:00.000000,0.01867875,0.10447893,0.40705843,0,2,8,0,1,4,0.01130148,0.05274605,0.24606010,0.36028944,0.49272197,0.73199142
20187,0,USKansasStanton,Kansas,Stanton,2021-04-04 10:11:08.330993,2020-03-10 00:00:00.000000,0.02149601,0.11652242,0.40481637,0,2,8,0,1,4,0.01176512,0.05441265,0.22920549,0.36028701,0.49266712,0.73199039
20187,0,USKansasStanton,Kansas,Stanton,2021-04-04 10:11:08.330993,2020-03-11 00:00:00.000000,0.02446762,0.12858850,0.40655740,0,2,8,0,1,4,0.01282115,0.05869701,0.21343058,0.36027768,0.49254430,0.73198672
20187,0,USKansasStanton,Kansas,Stanton,2021-04-04 10:11:08.330993,2020-03-12 00:00:00.000000,0.02770163,0.13925434,0.43630234,0,2,8,0,1,4,0.01427660,0.06154143,0.21447312,0.36024189,0.49244231,0.73197361
20187,0,USKansasStanton,Kansas,Stanton,2021-04-04 10:11:08.330993,2020-03-13 00:00:00.000000,0.03072421,0.14833991,0.46734721,0,2,9,0,1,4,0.01604388,0.06759987,0.23065799,0.36010475,0.49237772,0.73192745
20187,0,USKansasStanton,Kansas,Stanton,2021-04-04 10:11:08.330993,2020-03-14 00:00:00.000000,0.03301758,0.15947712,0.49987819,0,3,10,0,1,4,0.01809149,0.07252136,0.24809941,0.35958410,0.49213846,0.73177228
20187,0,USKansasStanton,Kansas,Stanton,2021-04-04 10:11:08.330993,2020-03-15 00:00:00.000000,0.03546032,0.17183234,0.53406903,0,3,10,0,1,5,0.01979979,0.07959437,0.26655697,0.35767605,0.49119603,0.72056718
20187,0,USKansasStanton,Kansas,Stanton,2021-04-04 10:11:08.330993,2020-03-16 00:00:00.000000,0.03806047,0.18492617,0.57007853,0,3,11,0,1,5,0.02123766,0.08868465,0.28595802,0.35150113,0.48805553,0.68746842
20187,0,USKansasStanton,Kansas,Stanton,2021-04-04 10:11:08.330993,2020-03-17 00:00:00.000000,0.04081462,0.19628099,0.60802401,0,3,12,0,1,6,0.02279333,0.09667010,0.30631473,0.34182061,0.48601060,0.68675843
20187,0,USKansasStanton,Kansas,Stanton,2021-04-04 10:11:08.330993,2020-03-18 00:00:00.000000,0.04369851,0.20753658,0.64785749,0,4,12,0,2,6,0.02446045,0.10514056,0.32767300,0.32592706,0.48123740,0.68394264
20187,0,USKansasStanton,Kansas,Stanton,2021-04-04 10:11:08.330993,2020-03-19 00:00:00.000000,0.04666304,0.21973644,0.68888394,0,4,13,0,2,7,0.02622922,0.11426521,0.35005361,0.31203746,0.47461076,0.67762764
20187,0,USKansasStanton,Kansas,Stanton,2021-04-04 10:11:08.330993,2020-03-20 00:00:00.000000,0.04966035,0.23892136,0.72858909,0,4,14,0,2,7,0.02808146,0.12009972,0.37329759,0.29254593,0.44693294,0.67611437
20187,0,USKansasStanton,Kansas,Stanton,2021-04-04 10:11:08.330993,2020-03-21 00:00:00.000000,0.05268840,0.25818869,0.76335251,1,5,15,0,2,7,0.02999404,0.12800750,0.39668046,0.27071975,0.41013139,0.62751207
20187,0,USKansasStanton,Kansas,Stanton,2021-04-04 10:11:08.330993,2020-03-22 00:00:00.000000,0.05578649,0.27494455,0.79375264,1,5,15,0,2,8,0.03195213,0.13464265,0.41886481,0.25896783,0.38056472,0.61981640
20187,0,USKansasStanton,Kansas,Stanton,2021-04-04 10:11:08.330993,2020-03-23 00:00:00.000000,0.05829065,0.29170627,0.82248678,1,5,16,0,2,8,0.03395637,0.14178039,0.43922111,0.25061402,0.36639920,0.56988366
20187,0,USKansasStanton,Kansas,Stanton,2021-04-04 10:11:08.330993,2020-03-24 00:00:00.000000,0.06047782,0.31127779,0.85068948,1,6,17,0,3,9,0.03601705,0.15324368,0.45810248,0.21965371,0.34256652,0.56388528
20187,0,USKansasStanton,Kansas,Stanton,2021-04-04 10:11:08.330993,2020-03-25 00:00:00.000000,0.06274489,0.32644525,0.87829032,1,6,17,0,3,9,0.03814531,0.15905037,0.47602609,0.21546912,0.32576696,0.56381099
20187,0,USKansasStanton,Kansas,Stanton,2021-04-04 10:11:08.330993,2020-03-26 00:00:00.000000,0.06509600,0.34028491,0.90417250,1,6,18,0,3,9,0.04034815,0.16784687,0.49326439,0.20152359,0.31831790,0.56342389
20187,0,USKansasStanton,Kansas,Stanton,2021-04-04 10:11:08.330993,2020-03-27 00:00:00.000000,0.06753461,0.35377879,0.92599026,1,7,18,0,3,10,0.04200198,0.17152833,0.50967867,0.18567615,0.30744838,0.52214945
20187,0,USKansasStanton,Kansas,Stanton,2021-04-04 10:11:08.330993,2020-03-28 00:00:00.000000,0.07006234,0.36209678,0.94070249,1,7,18,0,3,10,0.04358194,0.17627542,0.52458594,0.17443246,0.29361935,0.50302653
20187,0,USKansasStanton,Kansas,Stanton,2021-04-04 10:11:08.330993,2020-03-29 00:00:00.000000,0.07266486,0.36907330,0.94665281,1,7,18,0,3,10,0.04521905,0.18306858,0.53681613,0.16934271,0.28382945,0.50838989
20187,0,USKansasStanton,Kansas,Stanton,2021-04-04 10:11:08.330993,2020-03-30 00:00:00.000000,0.14410481,0.45271532,0.98507859,2,9,19,0,3,10,0.04690999,0.19376621,0.54527595,0.16671570,0.27122268,0.47184606
20187,0,USKansasStanton,Kansas,Stanton,2021-04-04 10:11:08.330993,2020-03-31 00:00:00.000000,0.18548918,0.48951659,1.15177866,3,9,23,1,4,11,0.06570601,0.21829425,0.55958506,0.16536285,0.25640037,0.45655016
20187,0,USKansasStanton,Kansas,Stanton,2021-04-04 10:11:08.330993,2020-04-01 00:00:00.000000,0.22105287,0.57267621,1.32331202,4,11,26,1,4,11,0.08002777,0.24876893,0.59379721,0.16271511,0.24414609,0.43644772
20187,0,USKansasStanton,Kansas,Stanton,2021-04-04 10:11:08.330993,2020-04-02 00:00:00.000000,0.25645477,0.63365975,1.49599664,5,12,30,1,5,13,0.09470404,0.27285917,0.65609244,0.15136646,0.23782005,0.36958544
20187,0,USKansasStanton,Kansas,Stanton,2021-04-04 10:11:08.330993,2020-04-03 00:00:00.000000,0.28651060,0.69362558,1.66529758,5,13,33,2,6,14,0.11118190,0.30997067,0.72203577,0.14641828,0.22934063,0.35872908
20187,0,USKansasStanton,Kansas,Stanton,2021-04-04 10:11:08.330993,2020-04-04 00:00:00.000000,0.29299832,0.75491096,1.82316893,5,15,36,2,6,16,0.12917984,0.34615745,0.80260525,0.13658754,0.21716551,0.34813431
20187,0,USKansasStanton,Kansas,Stanton,2021-04-04 10:11:08.330993,2020-04-05 00:00:00.000000,0.29951277,0.82512724,1.96854989,6,16,39,2,7,17,0.14824880,0.38218933,0.88318256,0.13053423,0.21020405,0.33555677
20187,0,USKansasStanton,Kansas,Stanton,2021-04-04 10:11:08.330993,2020-04-06 00:00:00.000000,0.32838739,0.92159233,1.96180621,6,18,39,3,8,19,0.16791718,0.42006965,0.96623616,0.12585882,0.20392952,0.31789267
20187,0,USKansasStanton,Kansas,Stanton,2021-04-04 10:11:08.330993,2020-04-07 00:00:00.000000,0.37147452,1.00529066,1.94290517,7,20,38,3,9,20,0.18866183,0.46529376,1.02969406,0.12031993,0.19646663,0.31679756
20187,0,USKansasStanton,Kansas,Stanton,2021-04-04 10:11:08.330993,2020-04-08 00:00:00.000000,0.42829270,1.07036934,1.96638825,8,21,39,4,10,21,0.21008829,0.50268553,1.07991898,0.11520454,0.19094552,0.31091143
20187,0,USKansasStanton,Kansas,Stanton,2021-04-04 10:11:08.330993,2020-04-09 00:00:00.000000,0.49817908,1.12485919,2.14235363,9,22,42,4,10,22,0.23201381,0.54389093,1.11746009,0.11057029,0.18894663,0.30240048
20187,0,USKansasStanton,Kansas,Stanton,2021-04-04 10:11:08.330993,2020-04-10 00:00:00.000000,0.52134530,1.16775135,2.29974055,10,23,46,5,11,23,0.25444110,0.58431565,1.14695015,0.10691450,0.18118618,0.28680987
20187,0,USKansasStanton,Kansas,Stanton,2021-04-04 10:11:08.330993,2020-04-11 00:00:00.000000,0.56876298,1.23654623,2.46384007,11,24,49,5,12,23,0.27449779,0.62572003,1.16965434,0.10224054,0.17899853,0.27551343
20187,0,USKansasStanton,Kansas,Stanton,2021-04-04 10:11:08.330993,2020-04-12 00:00:00.000000,0.61628610,1.28714198,2.62345160,12,25,52,5,13,24,0.29398761,0.65968596,1.22211170,0.10064703,0.17415835,0.27157866
20187,0,USKansasStanton,Kansas,Stanton,2021-04-04 10:11:08.330993,2020-04-13 00:00:00.000000,0.65386966,1.29469312,2.70711903,13,25,54,6,13,25,0.32577199,0.69126805,1.25128584,0.09534990,0.16415256,0.26613978
20187,0,USKansasStanton,Kansas,Stanton,2021-04-04 10:11:08.330993,2020-04-14 00:00:00.000000,0.67565902,1.33336698,2.77354315,13,26,55,6,14,25,0.34793227,0.71857836,1.29492438,0.09030967,0.15355091,0.26373340
20187,0,USKansasStanton,Kansas,Stanton,2021-04-04 10:11:08.330993,2020-04-15 00:00:00.000000,0.71193728,1.37034826,2.81093157,14,27,56,7,15,26,0.38420130,0.74952422,1.31919940,0.08890502,0.15273920,0.25832011
20187,0,USKansasStanton,Kansas,Stanton,2021-04-04 10:11:08.330993,2020-04-16 00:00:00.000000,0.77156383,1.41380272,2.83299452,15,28,56,7,15,28,0.38670545,0.77740796,1.41046140,0.08680229,0.14772973,0.24947441
20187,0,USKansasStanton,Kansas,Stanton,2021-04-04 10:11:08.330993,2020-04-17 00:00:00.000000,0.81487947,1.44709949,2.84739338,16,29,57,8,16,29,0.40363610,0.80016774,1.48475919,0.08488016,0.14079347,0.24572977
20187,0,USKansasStanton,Kansas,Stanton,2021-04-04 10:11:08.330993,2020-04-18 00:00:00.000000,0.83643723,1.51478999,2.85767482,16,30,57,8,16,30,0.41982220,0.82433376,1.49889126,0.08086589,0.13656538,0.24094681
20187,0,USKansasStanton,Kansas,Stanton,2021-04-04 10:11:08.330993,2020-04-19 00:00:00.000000,0.85498495,1.57528047,2.84946520,17,31,57,8,17,30,0.43457019,0.85370286,1.50768537,0.07232706,0.13336744,0.23692237
20187,0,USKansasStanton,Kansas,Stanton,2021-04-04 10:11:08.330993,2020-04-20 00:00:00.000000,0.94178172,1.61441250,2.75798926,18,32,55,8,17,30,0.44780202,0.88227033,1.51158715,0.07168341,0.13146416,0.22577698
20187,0,USKansasStanton,Kansas,Stanton,2021-04-04 10:11:08.330993,2020-04-21 00:00:00.000000,0.94840728,1.65709863,2.76177241,19,33,55,9,18,31,0.47584522,0.90441179,1.54555901,0.07024433,0.13095276,0.22721537
20187,0,USKansasStanton,Kansas,Stanton,2021-04-04 10:11:08.330993,2020-04-22 00:00:00.000000,0.93309652,1.68480576,2.70496380,18,33,54,10,18,31,0.51372430,0.91588752,1.57187675,0.07013851,0.13047603,0.23071226
20187,0,USKansasStanton,Kansas,Stanton,2021-04-04 10:11:08.330993,2020-04-23 00:00:00.000000,0.91454586,1.73448492,2.64143614,18,34,52,10,18,31,0.53214047,0.94074521,1.59219253,0.07006761,0.12882370,0.23272993
20187,0,USKansasStanton,Kansas,Stanton,2021-04-04 10:11:08.330993,2020-04-24 00:00:00.000000,0.89474966,1.74575924,2.69629304,17,35,54,11,19,30,0.55794152,0.97348127,1.54000529,0.06916236,0.12326442,0.23382251
20187,0,USKansasStanton,Kansas,Stanton,2021-04-04 10:11:08.330993,2020-04-25 00:00:00.000000,0.87594644,1.76962568,2.78438544,17,35,55,11,19,31,0.55224960,0.97594585,1.58888317,0.06717986,0.12290764,0.23282083
20187,0,USKansasStanton,Kansas,Stanton,2021-04-04 10:11:08.330993,2020-04-26 00:00:00.000000,0.92194436,1.78035934,2.89062578,18,35,57,10,19,32,0.53992994,0.98047758,1.62764491,0.06595504,0.12199706,0.22811255
20187,0,USKansasStanton,Kansas,Stanton,2021-04-04 10:11:08.330993,2020-04-27 00:00:00.000000,0.95378265,1.79843144,2.83828359,19,36,56,10,20,33,0.52876828,1.03663857,1.66985210,0.06534152,0.11990949,0.21802858
20187,0,USKansasStanton,Kansas,Stanton,2021-04-04 10:11:08.330993,2020-04-28 00:00:00.000000,0.96395812,1.81186928,2.81172021,19,36,56,11,21,34,0.55687188,1.05299612,1.71949403,0.06500403,0.11758604,0.20037506
20187,0,USKansasStanton,Kansas,Stanton,2021-04-04 10:11:08.330993,2020-04-29 00:00:00.000000,0.98211011,1.83236755,2.86875754,19,36,57,11,21,34,0.57196379,1.05523077,1.73769016,0.06522289,0.11720238,0.17829166
20187,0,USKansasStanton,Kansas,Stanton,2021-04-04 10:11:08.330993,2020-04-30 00:00:00.000000,1.06320535,1.83025850,2.82980657,21,36,56,11,20,33,0.58987865,1.03984123,1.68819596,0.06394509,0.11377858,0.18009940
20187,0,USKansasStanton,Kansas,Stanton,2021-04-04 10:11:08.330993,2020-05-01 00:00:00.000000,1.14250351,1.85518005,2.82526630,22,37,56,11,20,33,0.59479101,1.03818277,1.66777199,0.06292819,0.11107439,0.18361542
20187,0,USKansasStanton,Kansas,Stanton,2021-04-04 10:11:08.330993,2020-05-02 00:00:00.000000,1.15961108,1.89161684,2.89618895,23,37,58,12,20,32,0.60372429,1.04076493,1.64337653,0.06228754,0.10928894,0.18373502
20187,0,USKansasStanton,Kansas,Stanton,2021-04-04 10:11:08.330993,2020-05-03 00:00:00.000000,1.13040090,1.91002416,2.92905681,22,38,58,12,20,32,0.64664750,1.04039719,1.63793229,0.06193732,0.10858613,0.18168548
20187,0,USKansasStanton,Kansas,Stanton,2021-04-04 10:11:08.330993,2020-05-04 00:00:00.000000,1.03793420,1.82285784,2.82511276,20,36,56,13,20,34,0.65173537,1.03373389,1.70602142,0.06120654,0.10857239,0.17910277
20187,0,USKansasStanton,Kansas,Stanton,2021-04-04 10:11:08.330993,2020-05-05 00:00:00.000000,0.94808818,1.74027715,2.71800898,19,34,54,12,20,34,0.60657138,1.01285931,1.72005799,0.06054962,0.10612244,0.17662420
20187,0,USKansasStanton,Kansas,Stanton,2021-04-04 10:11:08.330993,2020-05-06 00:00:00.000000,0.90723497,1.67610418,2.60568049,18,33,52,11,19,33,0.58761865,0.98620400,1.69339315,0.05924704,0.10732111,0.17427764
20187,0,USKansasStanton,Kansas,Stanton,2021-04-04 10:11:08.330993,2020-05-07 00:00:00.000000,0.86780619,1.58653881,2.46032147,17,31,49,10,19,32,0.54026404,0.95943156,1.63952709,0.05792428,0.10649971,0.17189416
20187,0,USKansasStanton,Kansas,Stanton,2021-04-04 10:11:08.330993,2020-05-08 00:00:00.000000,0.78892639,1.50078654,2.30338540,15,30,46,9,18,31,0.49462128,0.92836341,1.56835723,0.05402957,0.10482336,0.16980137
20187,0,USKansasStanton,Kansas,Stanton,2021-04-04 10:11:08.330993,2020-05-09 00:00:00.000000,0.71974497,1.40983552,2.19989258,14,28,44,9,17,30,0.46584750,0.89076264,1.51114357,0.05480124,0.10217327,0.16859051
20187,0,USKansasStanton,Kansas,Stanton,2021-04-04 10:11:08.330993,2020-05-10 00:00:00.000000,0.66983791,1.31814836,2.09604345,13,26,42,8,17,29,0.43666896,0.85837985,1.45787462,0.05538263,0.10135969,0.16743278
20187,0,USKansasStanton,Kansas,Stanton,2021-04-04 10:11:08.330993,2020-05-11 00:00:00.000000,0.60808298,1.22799853,2.02109401,12,24,40,8,16,28,0.40771807,0.82403791,1.40103098,0.05504192,0.10067613,0.16670217
20187,0,USKansasStanton,Kansas,Stanton,2021-04-04 10:11:08.330993,2020-05-12 00:00:00.000000,0.55130704,1.14599231,1.91908653,11,22,38,7,15,26,0.36975940,0.77964171,1.34155099,0.05483716,0.09970109,0.16617533
20187,0,USKansasStanton,Kansas,Stanton,2021-04-04 10:11:08.330993,2020-05-13 00:00:00.000000,0.49915254,1.08189541,1.81086940,10,21,36,6,14,25,0.33490026,0.73837308,1.28016233,0.05471814,0.09847280,0.16520162
20187,0,USKansasStanton,Kansas,Stanton,2021-04-04 10:11:08.330993,2020-05-14 00:00:00.000000,0.45137559,1.03228079,1.70609497,9,20,34,6,13,24,0.30301677,0.69482218,1.21780718,0.05465357,0.09553369,0.14932983
20187,0,USKansasStanton,Kansas,Stanton,2021-04-04 10:11:08.330993,2020-05-15 00:00:00.000000,0.40776561,0.98430169,1.60454277,8,19,32,5,13,23,0.27393757,0.65284347,1.15551744,0.05460244,0.09640046,0.14975979
20187,0,USKansasStanton,Kansas,Stanton,2021-04-04 10:11:08.330993,2020-05-16 00:00:00.000000,0.36808605,0.92787352,1.52083940,7,18,30,4,12,21,0.24746397,0.61573168,1.09419777,0.05404143,0.09552996,0.14827841
20187,0,USKansasStanton,Kansas,Stanton,2021-04-04 10:11:08.330993,2020-05-17 00:00:00.000000,0.33207175,0.87644968,1.44767359,6,17,29,4,11,20,0.22338989,0.58385933,1.03464179,0.05313672,0.09589920,0.14726174
20187,0,USKansasStanton,Kansas,Stanton,2021-04-04 10:11:08.330993,2020-05-18 00:00:00.000000,0.34856751,0.90651431,1.43401542,6,18,28,4,11,19,0.20152093,0.55343540,0.98139941,0.04986508,0.09638510,0.14702276
20187,0,USKansasStanton,Kansas,Stanton,2021-04-04 10:11:08.330993,2020-05-19 00:00:00.000000,0.36279693,0.91690993,1.46583120,7,18,29,3,10,19,0.19152517,0.53039148,0.95002956,0.04902070,0.09573588,0.14705656
20187,0,USKansasStanton,Kansas,Stanton,2021-04-04 10:11:08.330993,2020-05-20 00:00:00.000000,0.38248305,0.92744382,1.55817848,7,18,31,4,10,18,0.21346820,0.51798389,0.93565478,0.04984593,0.09509012,0.14713086
20187,0,USKansasStanton,Kansas,Stanton,2021-04-04 10:11:08.330993,2020-05-21 00:00:00.000000,0.40399634,0.93282465,1.62779753,8,18,32,4,10,18,0.20954168,0.52580719,0.93623450,0.05212169,0.09509647,0.14716255
20187,0,USKansasStanton,Kansas,Stanton,2021-04-04 10:11:08.330993,2020-05-22 00:00:00.000000,0.42617669,0.97065129,1.74868291,8,19,35,4,10,18,0.20871439,0.52725123,0.93273143,0.05132793,0.09418550,0.14707987
20187,0,USKansasStanton,Kansas,Stanton,2021-04-04 10:11:08.330993,2020-05-23 00:00:00.000000,0.44842109,1.00584231,1.86466255,8,20,37,4,10,19,0.21002840,0.52690911,0.99542580,0.05031772,0.09338679,0.14650028
20187,0,USKansasStanton,Kansas,Stanton,2021-04-04 10:11:08.330993,2020-05-24 00:00:00.000000,0.46022630,1.02688063,1.97661341,9,20,39,4,11,21,0.21283406,0.54891665,1.07541012,0.05917319,0.08872790,0.14400350
20187,0,USKansasStanton,Kansas,Stanton,2021-04-04 10:11:08.330993,2020-05-25 00:00:00.000000,0.48554680,1.05587855,1.97422766,9,21,39,4,11,23,0.21861759,0.57117032,1.14807718,0.05715051,0.08709341,0.14022533
20187,0,USKansasStanton,Kansas,Stanton,2021-04-04 10:11:08.330993,2020-05-26 00:00:00.000000,0.50466184,1.09558554,1.96794420,10,21,39,4,11,23,0.23097688,0.59167105,1.19187584,0.05693802,0.08713832,0.14034121
20187,0,USKansasStanton,Kansas,Stanton,2021-04-04 10:11:08.330993,2020-05-27 00:00:00.000000,0.52109559,1.10839828,1.95587125,10,22,39,5,12,24,0.25026197,0.60388069,1.21636899,0.05777753,0.08672362,0.14162872
20187,0,USKansasStanton,Kansas,Stanton,2021-04-04 10:11:08.330993,2020-05-28 00:00:00.000000,0.55639129,1.09892707,2.03968130,11,22,40,5,12,24,0.26929299,0.61964314,1.22734137,0.05382315,0.08499450,0.14230035
20187,0,USKansasStanton,Kansas,Stanton,2021-04-04 10:11:08.330993,2020-05-29 00:00:00.000000,0.58603945,1.10146757,2.07953699,11,22,41,5,12,24,0.28876222,0.63267842,1.22959265,0.05377017,0.08468513,0.14388415
20187,0,USKansasStanton,Kansas,Stanton,2021-04-04 10:11:08.330993,2020-05-30 00:00:00.000000,0.61077963,1.09803648,2.09927774,12,22,42,5,12,24,0.28721325,0.64753693,1.23202631,0.05395927,0.08405379,0.14903716
20187,0,USKansasStanton,Kansas,Stanton,2021-04-04 10:11:08.330993,2020-05-31 00:00:00.000000,0.63488162,1.11067303,2.11937771,12,22,42,5,13,25,0.28276649,0.67487168,1.28574461,0.05423573,0.08378301,0.15164079
20187,0,USKansasStanton,Kansas,Stanton,2021-04-04 10:11:08.330993,2020-06-01 00:00:00.000000,0.61296502,1.05934713,2.05478736,12,21,41,5,13,26,0.29419741,0.66596406,1.33930728,0.05435761,0.08467987,0.15005157
20187,0,USKansasStanton,Kansas,Stanton,2021-04-04 10:11:08.330993,2020-06-02 00:00:00.000000,0.57738973,1.01332827,1.99030263,11,20,39,5,13,27,0.29762298,0.66119068,1.35410948,0.05202951,0.08640754,0.14953973
20187,0,USKansasStanton,Kansas,Stanton,2021-04-04 10:11:08.330993,2020-06-03 00:00:00.000000,0.53703183,0.96607133,1.92430482,10,19,38,5,12,26,0.29555853,0.64067361,1.34385657,0.05250838,0.08887510,0.14947557
20187,0,USKansasStanton,Kansas,Stanton,2021-04-04 10:11:08.330993,2020-06-04 00:00:00.000000,0.49617640,0.91501686,1.85798380,9,18,37,5,12,26,0.28980431,0.60921037,1.31767981,0.05311037,0.09058973,0.14991568
20187,0,USKansasStanton,Kansas,Stanton,2021-04-04 10:11:08.330993,2020-06-05 00:00:00.000000,0.45624357,0.86896744,1.79221401,9,17,35,5,11,25,0.28171218,0.58094669,1.28127098,0.05118829,0.09044005,0.15181073
20187,0,USKansasStanton,Kansas,Stanton,2021-04-04 10:11:08.330993,2020-06-06 00:00:00.000000,0.41808925,0.83975119,1.72760033,8,16,34,5,11,24,0.27254262,0.55118124,1.23800721,0.05273032,0.09065830,0.15703750
20187,0,USKansasStanton,Kansas,Stanton,2021-04-04 10:11:08.330993,2020-06-07 00:00:00.000000,0.38220148,0.79406145,1.66454277,7,15,33,5,10,23,0.25676860,0.52459592,1.18603913,0.05386351,0.09185525,0.16164952
20187,0,USKansasStanton,Kansas,Stanton,2021-04-04 10:11:08.330993,2020-06-08 00:00:00.000000,0.40360401,0.82295582,1.67339007,8,16,33,4,10,22,0.23631942,0.49975783,1.10599023,0.05399259,0.09274276,0.16352491
20187,0,USKansasStanton,Kansas,Stanton,2021-04-04 10:11:08.330993,2020-06-09 00:00:00.000000,0.42449610,0.83694497,1.64852144,8,16,33,4,9,21,0.24384529,0.49802090,1.04710933,0.05399528,0.09271148,0.16398614
20187,0,USKansasStanton,Kansas,Stanton,2021-04-04 10:11:08.330993,2020-06-10 00:00:00.000000,0.42269059,0.86337326,1.71868435,8,17,34,4,9,20,0.24647506,0.48616697,1.00661390,0.05402650,0.09276544,0.16409932
20187,0,USKansasStanton,Kansas,Stanton,2021-04-04 10:11:08.330993,2020-06-11 00:00:00.000000,0.42609507,0.87369759,1.85810485,8,17,37,4,9,20,0.23738272,0.49843493,1.01865622,0.05422441,0.09356081,0.16415187
20187,0,USKansasStanton,Kansas,Stanton,2021-04-04 10:11:08.330993,2020-06-12 00:00:00.000000,0.40955286,0.87669004,1.97894165,8,17,39,5,10,20,0.25815515,0.51515618,1.03198871,0.05519537,0.09535647,0.16420969
20187,0,USKansasStanton,Kansas,Stanton,2021-04-04 10:11:08.330993,2020-06-13 00:00:00.000000,0.40341218,0.90413216,2.15736583,8,18,43,4,10,21,0.24619331,0.52005416,1.05140033,0.05529747,0.09592184,0.16414733
20187,0,USKansasStanton,Kansas,Stanton,2021-04-04 10:11:08.330993,2020-06-14 00:00:00.000000,0.39784725,0.92981208,2.33077397,7,18,46,4,10,22,0.23143421,0.52721412,1.13282982,0.05549116,0.09771007,0.16203957
20187,0,USKansasStanton,Kansas,Stanton,2021-04-04 10:11:08.330993,2020-06-15 00:00:00.000000,0.45198594,0.96526576,2.37733969,9,19,47,4,10,24,0.22519643,0.52850957,1.21235570,0.05608227,0.09961129,0.15858566
20187,0,USKansasStanton,Kansas,Stanton,2021-04-04 10:11:08.330993,2020-06-16 00:00:00.000000,0.50652726,0.99537760,2.41964880,10,19,48,4,11,26,0.23505215,0.55031142,1.29921421,0.05781993,0.09863793,0.16015032
20187,0,USKansasStanton,Kansas,Stanton,2021-04-04 10:11:08.330993,2020-06-17 00:00:00.000000,0.55676749,1.01917422,2.45586868,11,20,49,4,11,27,0.24332720,0.57192134,1.37344808,0.06071539,0.09999507,0.15792200
20187,0,USKansasStanton,Kansas,Stanton,2021-04-04 10:11:08.330993,2020-06-18 00:00:00.000000,0.56736786,1.03874372,2.48805728,11,20,49,5,11,28,0.25039326,0.59137436,1.44235311,0.06299232,0.10353280,0.15824624
20187,0,USKansasStanton,Kansas,Stanton,2021-04-04 10:11:08.330993,2020-06-19 00:00:00.000000,0.57790021,1.06163653,2.51755227,11,21,50,5,12,30,0.25655929,0.60274557,1.49620976,0.06443672,0.10528170,0.16569077
20187,0,USKansasStanton,Kansas,Stanton,2021-04-04 10:11:08.330993,2020-06-20 00:00:00.000000,0.57106999,1.07996251,2.54776999,11,21,51,5,12,30,0.26218863,0.60840450,1.52919607,0.06626671,0.10941571,0.17391100
20187,0,USKansasStanton,Kansas,Stanton,2021-04-04 10:11:08.330993,2020-06-21 00:00:00.000000,0.55530555,1.09133024,2.58513942,11,21,51,5,12,31,0.26776533,0.61679497,1.55380306,0.06899313,0.11028840,0.18160318
20187,0,USKansasStanton,Kansas,Stanton,2021-04-04 10:11:08.330993,2020-06-22 00:00:00.000000,0.57366259,1.10860928,2.54600560,11,22,51,5,12,31,0.27357100,0.63439694,1.57228389,0.07043969,0.11202194,0.18800276
20187,0,USKansasStanton,Kansas,Stanton,2021-04-04 10:11:08.330993,2020-06-23 00:00:00.000000,0.58755453,1.15912789,2.50527046,11,23,50,5,12,31,0.28033636,0.63879799,1.57767275,0.07086175,0.11568320,0.19367600
20187,0,USKansasStanton,Kansas,Stanton,2021-04-04 10:11:08.330993,2020-06-24 00:00:00.000000,0.60341155,1.20230440,2.46283892,12,24,49,5,12,31,0.28763262,0.64474169,1.57354029,0.07031072,0.11711230,0.19665350
20187,0,USKansasStanton,Kansas,Stanton,2021-04-04 10:11:08.330993,2020-06-25 00:00:00.000000,0.62980842,1.22742217,2.41954735,12,24,48,5,13,31,0.29524860,0.65666046,1.56254608,0.07118607,0.11891491,0.20023710
20187,0,USKansasStanton,Kansas,Stanton,2021-04-04 10:11:08.330993,2020-06-26 00:00:00.000000,0.68797018,1.24615430,2.37607936,13,24,47,6,13,31,0.32324371,0.66373116,1.54658203,0.07149452,0.12170666,0.20273429
20187,0,USKansasStanton,Kansas,Stanton,2021-04-04 10:11:08.330993,2020-06-27 00:00:00.000000,0.70437402,1.27049981,2.35289717,14,25,47,7,13,30,0.36585661,0.67663988,1.53228175,0.07236350,0.12551508,0.20482493
20187,0,USKansasStanton,Kansas,Stanton,2021-04-04 10:11:08.330993,2020-06-28 00:00:00.000000,0.72083806,1.28758630,2.48619328,14,25,49,7,13,30,0.38121604,0.69607575,1.50699260,0.07273611,0.12913778,0.21880567
20187,0,USKansasStanton,Kansas,Stanton,2021-04-04 10:11:08.330993,2020-06-29 00:00:00.000000,0.71691586,1.35316748,2.56771979,14,27,51,7,14,29,0.38980365,0.71609219,1.48562360,0.07269935,0.13150747,0.22014339
20187,0,USKansasStanton,Kansas,Stanton,2021-04-04 10:11:08.330993,2020-06-30 00:00:00.000000,0.71248944,1.39739349,2.64818055,14,28,53,8,14,29,0.39887569,0.74111099,1.48047755,0.07317631,0.13435217,0.22157214
20187,0,USKansasStanton,Kansas,Stanton,2021-04-04 10:11:08.330993,2020-07-01 00:00:00.000000,0.71218784,1.40510170,2.72560319,14,28,54,8,15,29,0.40817206,0.76927533,1.48720875,0.07451770,0.13451091,0.23307081
20187,0,USKansasStanton,Kansas,Stanton,2021-04-04 10:11:08.330993,2020-07-02 00:00:00.000000,0.73662269,1.47225589,2.80614711,14,29,56,8,15,30,0.41753520,0.78986466,1.50251999,0.07669524,0.13625831,0.23630587
20187,0,USKansasStanton,Kansas,Stanton,2021-04-04 10:11:08.330993,2020-07-03 00:00:00.000000,0.76279553,1.53159910,2.85499979,15,30,57,8,16,30,0.42694634,0.80119669,1.52403026,0.07693840,0.13703687,0.23885868
20187,0,USKansasStanton,Kansas,Stanton,2021-04-04 10:11:08.330993,2020-07-04 00:00:00.000000,0.76304160,1.56773916,2.88186214,15,31,57,8,16,31,0.43666583,0.83316774,1.55003697,0.07691719,0.14567665,0.24351712
20187,0,USKansasStanton,Kansas,Stanton,2021-04-04 10:11:08.330993,2020-07-05 00:00:00.000000,0.78238321,1.59911529,2.89917800,15,32,58,8,17,31,0.44678328,0.86043012,1.57931226,0.07713998,0.14807827,0.24229507
20187,0,USKansasStanton,Kansas,Stanton,2021-04-04 10:11:08.330993,2020-07-06 00:00:00.000000,0.82604938,1.59798157,2.95088730,16,32,59,9,17,32,0.44934248,0.88540286,1.61094700,0.07788714,0.15022244,0.24985515
20187,0,USKansasStanton,Kansas,Stanton,2021-04-04 10:11:08.330993,2020-07-07 00:00:00.000000,0.91424675,1.63257429,3.01786265,18,32,60,9,18,33,0.45815883,0.91186560,1.65028770,0.07977814,0.15159552,0.25947301
20187,0,USKansasStanton,Kansas,Stanton,2021-04-04 10:11:08.330993,2020-07-08 00:00:00.000000,0.97963869,1.66141508,3.08694207,19,33,61,9,18,34,0.46368412,0.92426033,1.70479362,0.08235992,0.15543910,0.26124782
20187,0,USKansasStanton,Kansas,Stanton,2021-04-04 10:11:08.330993,2020-07-09 00:00:00.000000,1.02431858,1.69032370,3.14611778,20,33,63,9,18,34,0.46713211,0.93119912,1.73348284,0.08479351,0.16132176,0.26986126
20187,0,USKansasStanton,Kansas,Stanton,2021-04-04 10:11:08.330993,2020-07-10 00:00:00.000000,1.06553018,1.69064000,3.20488316,21,33,64,9,18,35,0.49716869,0.94047730,1.76386043,0.08792248,0.16394849,0.28557493
20187,0,USKansasStanton,Kansas,Stanton,2021-04-04 10:11:08.330993,2020-07-11 00:00:00.000000,1.08896027,1.71906494,3.26448993,21,34,65,10,19,36,0.54046792,0.97913802,1.79525245,0.09146991,0.16813825,0.29659274
20187,0,USKansasStanton,Kansas,Stanton,2021-04-04 10:11:08.330993,2020-07-12 00:00:00.000000,1.09471025,1.75828177,3.33180622,21,35,66,11,19,36,0.56153248,0.98978073,1.82747564,0.09581080,0.17272593,0.30286921
20187,0,USKansasStanton,Kansas,Stanton,2021-04-04 10:11:08.330993,2020-07-13 00:00:00.000000,1.09651058,1.87650124,3.33642268,21,37,66,11,20,37,0.58427762,1.01618204,1.86170285,0.10112031,0.17710133,0.30629317
20187,0,USKansasStanton,Kansas,Stanton,2021-04-04 10:11:08.330993,2020-07-14 00:00:00.000000,1.09686430,2.01103832,3.34064608,22,40,67,12,20,37,0.61092206,1.04436832,1.88593155,0.10712890,0.18193718,0.30822643
20187,0,USKansasStanton,Kansas,Stanton,2021-04-04 10:11:08.330993,2020-07-15 00:00:00.000000,1.12510088,2.09212507,3.34293903,22,41,67,12,22,38,0.64114647,1.10350659,1.90298938,0.11253839,0.18382138,0.31277811
20187,0,USKansasStanton,Kansas,Stanton,2021-04-04 10:11:08.330993,2020-07-16 00:00:00.000000,1.20275098,2.17607268,3.50068476,24,43,70,13,23,38,0.65410202,1.15424190,1.91510158,0.11600655,0.19389713,0.31590847
20187,0,USKansasStanton,Kansas,Stanton,2021-04-04 10:11:08.330993,2020-07-17 00:00:00.000000,1.28060517,2.20309660,3.69694261,25,44,74,13,24,38,0.65895565,1.21449871,1.93036378,0.11761916,0.19894724,0.31648675
20187,0,USKansasStanton,Kansas,Stanton,2021-04-04 10:11:08.330993,2020-07-18 00:00:00.000000,1.29356042,2.26232363,3.89829633,25,45,78,14,25,40,0.70275015,1.26543041,2.03838401,0.12361738,0.21457671,0.33269987
20187,0,USKansasStanton,Kansas,Stanton,2021-04-04 10:11:08.330993,2020-07-19 00:00:00.000000,1.30544277,2.34280242,4.10438887,26,46,82,14,26,43,0.73399396,1.31563732,2.15117022,0.12957217,0.21997768,0.32868917
20187,0,USKansasStanton,Kansas,Stanton,2021-04-04 10:11:08.330993,2020-07-20 00:00:00.000000,1.30567324,2.43530037,4.28745335,26,48,86,14,26,45,0.73158674,1.33041790,2.26803430,0.13700361,0.23031153,0.34580581
20187,0,USKansasStanton,Kansas,Stanton,2021-04-04 10:11:08.330993,2020-07-21 00:00:00.000000,1.31727187,2.51239387,4.42916993,26,50,88,14,27,48,0.73593336,1.35677433,2.40006794,0.14415143,0.23696408,0.36292804
20187,0,USKansasStanton,Kansas,Stanton,2021-04-04 10:11:08.330993,2020-07-22 00:00:00.000000,1.36361601,2.60787906,4.57375315,27,52,91,14,28,50,0.74700041,1.40983957,2.50991807,0.14812310,0.24682999,0.38323858
20187,0,USKansasStanton,Kansas,Stanton,2021-04-04 10:11:08.330993,2020-07-23 00:00:00.000000,1.43481876,2.68757203,4.72265663,28,53,94,15,29,51,0.76420355,1.46199893,2.58785960,0.15143912,0.25739096,0.40454857
20187,0,USKansasStanton,Kansas,Stanton,2021-04-04 10:11:08.330993,2020-07-24 00:00:00.000000,1.52013942,2.78482254,4.91812297,30,55,98,15,30,55,0.78592609,1.53966616,2.75459592,0.15577459,0.26445617,0.40800338
20187,0,USKansasStanton,Kansas,Stanton,2021-04-04 10:11:08.330993,2020-07-25 00:00:00.000000,1.62462109,2.93890610,5.32854398,32,58,106,16,32,59,0.82195961,1.60281676,2.94433405,0.15552970,0.27306917,0.42131044
20187,0,USKansasStanton,Kansas,Stanton,2021-04-04 10:11:08.330993,2020-07-26 00:00:00.000000,1.72170987,3.09066228,5.81079312,34,61,116,16,33,62,0.83815963,1.67974836,3.14056917,0.15587962,0.28288936,0.43398628
20187,0,USKansasStanton,Kansas,Stanton,2021-04-04 10:11:08.330993,2020-07-27 00:00:00.000000,1.87912202,3.36736730,6.13169711,37,67,123,17,35,67,0.86807971,1.76993306,3.34159802,0.15712209,0.29209058,0.43761316
20187,0,USKansasStanton,Kansas,Stanton,2021-04-04 10:11:08.330993,2020-07-28 00:00:00.000000,2.02435710,3.71702932,6.38423483,40,74,128,18,37,70,0.94416843,1.86801125,3.49396592,0.15986097,0.30213140,0.44586500
20187,0,USKansasStanton,Kansas,Stanton,2021-04-04 10:11:08.330993,2020-07-29 00:00:00.000000,2.16019337,4.08179885,6.72178626,43,81,134,21,40,72,1.05018048,1.99829842,3.61964616,0.16532670,0.31391770,0.45492968
20187,0,USKansasStanton,Kansas,Stanton,2021-04-04 10:11:08.330993,2020-07-30 00:00:00.000000,2.29518060,4.35853288,7.06537695,46,87,141,22,42,75,1.13694185,2.11502653,3.74047023,0.17528851,0.32352025,0.46805659
20187,0,USKansasStanton,Kansas,Stanton,2021-04-04 10:11:08.330993,2020-07-31 00:00:00.000000,2.42033376,4.83169299,7.40822306,48,96,148,24,46,78,1.21103709,2.33540678,3.89140188,0.19034159,0.33712758,0.48685626
20187,0,USKansasStanton,Kansas,Stanton,2021-04-04 10:11:08.330993,2020-08-01 00:00:00.000000,2.59002714,5.19859043,7.74076522,51,104,155,25,49,82,1.29147122,2.47171682,4.13471327,0.19859874,0.35614820,0.51457702
20187,0,USKansasStanton,Kansas,Stanton,2021-04-04 10:11:08.330993,2020-08-02 00:00:00.000000,2.82300675,5.55572228,8.10822915,56,111,162,28,53,87,1.41011905,2.64720011,4.38642592,0.21404402,0.36429114,0.54729929
20187,0,USKansasStanton,Kansas,Stanton,2021-04-04 10:11:08.330993,2020-08-03 00:00:00.000000,3.40399522,5.93321516,8.66642590,68,119,173,30,56,93,1.53459667,2.82770193,4.64834622,0.21597554,0.36731624,0.57350620
20187,0,USKansasStanton,Kansas,Stanton,2021-04-04 10:11:08.330993,2020-08-04 00:00:00.000000,3.64784724,6.34680324,9.35722099,73,127,187,34,60,98,1.73276848,3.03931470,4.92112062,0.22201506,0.37411686,0.58191021
20187,0,USKansasStanton,Kansas,Stanton,2021-04-04 10:11:08.330993,2020-08-05 00:00:00.000000,4.05689266,6.82427477,10.14169504,81,136,203,41,65,104,2.04613912,3.28006555,5.21392685,0.23128785,0.37727371,0.58187445
20187,0,USKansasStanton,Kansas,Stanton,2021-04-04 10:11:08.330993,2020-08-06 00:00:00.000000,4.72345177,7.28910347,10.91680377,94,146,218,46,71,110,2.32951214,3.56002586,5.53330995,0.23880171,0.38593056,0.58024788
20187,0,USKansasStanton,Kansas,Stanton,2021-04-04 10:11:08.330993,2020-08-07 00:00:00.000000,5.19109546,7.73181485,11.61243410,104,155,232,50,76,117,2.53617452,3.83611890,5.87982527,0.24254513,0.39532518,0.57533424
20187,0,USKansasStanton,Kansas,Stanton,2021-04-04 10:11:08.330993,2020-08-08 00:00:00.000000,5.67372924,8.14652984,12.20464671,113,163,244,54,82,125,2.72787513,4.09519807,6.26586622,0.24858773,0.38856922,0.56316007
20187,0,USKansasStanton,Kansas,Stanton,2021-04-04 10:11:08.330993,2020-08-09 00:00:00.000000,6.17051320,8.74177531,12.86088121,123,175,257,59,86,134,2.95810090,4.29362927,6.68123184,0.24998736,0.38513423,0.56109273
20187,0,USKansasStanton,Kansas,Stanton,2021-04-04 10:11:08.330993,2020-08-10 00:00:00.000000,6.85144470,9.13970289,13.42006886,137,183,269,62,90,142,3.12928969,4.53029636,7.09893145,0.25084489,0.38252817,0.55602430
20187,0,USKansasStanton,Kansas,Stanton,2021-04-04 10:11:08.330993,2020-08-11 00:00:00.000000,7.36286646,9.66179410,14.32564223,147,193,287,68,97,151,3.41756843,4.85076194,7.52869550,0.25152521,0.37924894,0.55178727
20187,0,USKansasStanton,Kansas,Stanton,2021-04-04 10:11:08.330993,2020-08-12 00:00:00.000000,7.70468519,10.17617212,15.28379520,154,204,306,76,103,159,3.78922085,5.14386019,7.95503191,0.25250549,0.37737239,0.52010297
20187,0,USKansasStanton,Kansas,Stanton,2021-04-04 10:11:08.330993,2020-08-13 00:00:00.000000,8.38201731,10.67589010,16.02686083,168,214,321,82,108,168,4.13712546,5.40030981,8.37918524,0.25463731,0.36451405,0.49282105
20187,0,USKansasStanton,Kansas,Stanton,2021-04-04 10:11:08.330993,2020-08-14 00:00:00.000000,8.71210597,11.01058011,16.75510600,174,220,336,84,113,176,4.22228723,5.67598736,8.80165976,0.25468793,0.35771518,0.49082892
20187,0,USKansasStanton,Kansas,Stanton,2021-04-04 10:11:08.330993,2020-08-15 00:00:00.000000,8.96441288,11.48843668,17.43497604,179,230,349,88,119,184,4.40973951,5.94017785,9.22094254,0.25294314,0.34420788,0.49040613
20187,0,USKansasStanton,Kansas,Stanton,2021-04-04 10:11:08.330993,2020-08-16 00:00:00.000000,9.19211102,11.84115162,18.04783559,184,237,362,92,124,193,4.60472531,6.19723722,9.63233365,0.25530107,0.33645837,0.48928793
20187,0,USKansasStanton,Kansas,Stanton,2021-04-04 10:11:08.330993,2020-08-17 00:00:00.000000,9.43609104,12.15468802,18.58990865,189,243,372,96,130,201,4.78693574,6.48253190,10.02362448,0.25585139,0.33447219,0.48664785
20187,0,USKansasStanton,Kansas,Stanton,2021-04-04 10:11:08.330993,2020-08-18 00:00:00.000000,9.56677249,12.31226366,18.81143345,191,246,377,98,134,207,4.89472843,6.71934582,10.36005817,0.25544224,0.33021629,0.47718124
20187,0,USKansasStanton,Kansas,Stanton,2021-04-04 10:11:08.330993,2020-08-19 00:00:00.000000,9.84105503,12.59063610,19.01348552,197,252,381,100,138,213,5.01359432,6.92826359,10.66107655,0.25470472,0.32783837,0.47082381
20187,0,USKansasStanton,Kansas,Stanton,2021-04-04 10:11:08.330993,2020-08-20 00:00:00.000000,10.10059278,12.90885819,19.19965995,202,258,385,104,142,218,5.22823514,7.09877699,10.91271189,0.25373557,0.33019391,0.47324010
20187,0,USKansasStanton,Kansas,Stanton,2021-04-04 10:11:08.330993,2020-08-21 00:00:00.000000,10.32117085,13.15590113,19.37131317,207,263,388,108,144,223,5.41632532,7.22346349,11.12780127,0.25390993,0.33264545,0.48389007
20187,0,USKansasStanton,Kansas,Stanton,2021-04-04 10:11:08.330993,2020-08-22 00:00:00.000000,10.35552056,13.37046742,19.26211038,207,268,386,110,147,227,5.50321566,7.36481874,11.31891940,0.25504044,0.33848720,0.49236870
20187,0,USKansasStanton,Kansas,Stanton,2021-04-04 10:11:08.330993,2020-08-23 00:00:00.000000,10.28698255,13.59283188,19.96768007,206,272,400,111,151,230,5.58041029,7.56261495,11.50031540,0.25694426,0.33962825,0.49903188
20187,0,USKansasStanton,Kansas,Stanton,2021-04-04 10:11:08.330993,2020-08-24 00:00:00.000000,10.41168546,13.87444825,20.40576018,208,278,409,112,153,234,5.62461060,7.66243237,11.68450595,0.25848595,0.34150627,0.49848284
20187,0,USKansasStanton,Kansas,Stanton,2021-04-04 10:11:08.330993,2020-08-25 00:00:00.000000,10.34942055,14.22216445,20.83504958,207,285,417,112,156,238,5.62347033,7.77882404,11.88940598,0.25908802,0.34915379,0.50034819
20187,0,USKansasStanton,Kansas,Stanton,2021-04-04 10:11:08.330993,2020-08-26 00:00:00.000000,10.26747961,14.50210869,21.53603425,205,290,432,112,159,242,5.61161134,7.96379117,12.11066349,0.26569881,0.35898147,0.50727740
20187,0,USKansasStanton,Kansas,Stanton,2021-04-04 10:11:08.330993,2020-08-27 00:00:00.000000,10.20709736,14.81532569,22.07217238,204,297,442,112,160,249,5.61002812,8.01688982,12.43538957,0.28150338,0.37119833,0.52597900
20187,0,USKansasStanton,Kansas,Stanton,2021-04-04 10:11:08.330993,2020-08-28 00:00:00.000000,10.13028356,15.05924253,22.30375658,203,302,447,112,162,259,5.63146153,8.10637869,12.91982019,0.28909067,0.37876412,0.56385462
20187,0,USKansasStanton,Kansas,Stanton,2021-04-04 10:11:08.330993,2020-08-29 00:00:00.000000,10.08903247,15.42234728,22.53699261,202,309,452,113,164,263,5.67268177,8.21609966,13.13145887,0.28944020,0.38497642,0.58373848
20187,0,USKansasStanton,Kansas,Stanton,2021-04-04 10:11:08.330993,2020-08-30 00:00:00.000000,10.18716460,15.56576949,22.97839054,204,312,460,114,167,266,5.70174278,8.35678696,13.28643869,0.28536144,0.38572776,0.59433014
20187,0,USKansasStanton,Kansas,Stanton,2021-04-04 10:11:08.330993,2020-08-31 00:00:00.000000,10.75083648,15.96856482,23.59631252,215,320,473,114,171,269,5.71901214,8.56418334,13.42026055,0.28751453,0.39763851,0.59450136
20187,0,USKansasStanton,Kansas,Stanton,2021-04-04 10:11:08.330993,2020-09-01 00:00:00.000000,11.31893199,16.28761102,24.23517527,227,326,486,117,176,275,5.85331417,8.78602471,13.71789193,0.29263652,0.40223522,0.59615710
20187,0,USKansasStanton,Kansas,Stanton,2021-04-04 10:11:08.330993,2020-09-02 00:00:00.000000,11.63945983,16.54455396,24.88943755,233,331,499,117,181,283,5.87250267,9.02499276,14.14767379,0.28995778,0.40459491,0.61520008
20187,0,USKansasStanton,Kansas,Stanton,2021-04-04 10:11:08.330993,2020-09-03 00:00:00.000000,11.83975846,16.93202305,25.54049307,237,339,512,117,186,286,5.87838204,9.27563196,14.25984792,0.28707355,0.40565349,0.62065867
20187,0,USKansasStanton,Kansas,Stanton,2021-04-04 10:11:08.330993,2020-09-04 00:00:00.000000,11.93237419,17.20038910,26.15972302,239,345,524,118,188,293,5.88998199,9.40292359,14.61521914,0.28529294,0.40143625,0.61550143
20187,0,USKansasStanton,Kansas,Stanton,2021-04-04 10:11:08.330993,2020-09-05 00:00:00.000000,12.00974389,17.19396097,26.70063648,240,344,535,119,190,300,5.95695887,9.51762906,14.97588037,0.29358346,0.39480183,0.60103469
20187,0,USKansasStanton,Kansas,Stanton,2021-04-04 10:11:08.330993,2020-09-06 00:00:00.000000,12.12451144,17.30286092,27.09030640,243,347,543,122,193,307,6.08390872,9.64824741,15.32683054,0.28239492,0.39438508,0.57729618
20187,0,USKansasStanton,Kansas,Stanton,2021-04-04 10:11:08.330993,2020-09-07 00:00:00.000000,12.30566328,17.36767339,26.99632687,246,348,541,125,196,313,6.23661517,9.77432581,15.64478680,0.26273993,0.38629260,0.57120618
20187,0,USKansasStanton,Kansas,Stanton,2021-04-04 10:11:08.330993,2020-09-08 00:00:00.000000,12.41666563,17.29930619,26.71371943,249,347,535,127,198,318,6.33311983,9.91901023,15.85696599,0.25238480,0.37906578,0.56840074
20187,0,USKansasStanton,Kansas,Stanton,2021-04-04 10:11:08.330993,2020-09-09 00:00:00.000000,12.44311753,17.08409326,26.30920705,249,342,527,127,202,320,6.36299390,10.08588070,15.95991519,0.24842637,0.36208432,0.55009083
20187,0,USKansasStanton,Kansas,Stanton,2021-04-04 10:11:08.330993,2020-09-10 00:00:00.000000,12.21000989,16.89885700,25.82978201,244,338,518,127,202,320,6.38083081,10.10471582,15.96370570,0.23611344,0.34824667,0.50071254
20187,0,USKansasStanton,Kansas,Stanton,2021-04-04 10:11:08.330993,2020-09-11 00:00:00.000000,11.82043213,16.54828297,25.28930580,237,331,507,129,200,318,6.45419178,10.01961220,15.88370535,0.22466095,0.33367549,0.48608660
20187,0,USKansasStanton,Kansas,Stanton,2021-04-04 10:11:08.330993,2020-09-12 00:00:00.000000,11.48051151,16.29178897,24.69362059,230,326,495,130,199,315,6.49711441,9.96316961,15.73323351,0.21234725,0.32915657,0.47575354
20187,0,USKansasStanton,Kansas,Stanton,2021-04-04 10:11:08.330993,2020-09-13 00:00:00.000000,11.09521127,16.10794837,24.05517387,222,323,482,130,198,311,6.49821441,9.90704748,15.52284125,0.21220720,0.33356306,0.46552275
20187,0,USKansasStanton,Kansas,Stanton,2021-04-04 10:11:08.330993,2020-09-14 00:00:00.000000,10.73629375,15.70201941,23.47317975,215,314,470,128,196,306,6.38624311,9.78604994,15.26341205,0.21264311,0.32892754,0.46280985
20187,0,USKansasStanton,Kansas,Stanton,2021-04-04 10:11:08.330993,2020-09-15 00:00:00.000000,10.36624139,15.36012780,22.87906283,207,308,458,125,192,300,6.24298135,9.60485521,14.97874471,0.21019303,0.32140977,0.46101608
20187,0,USKansasStanton,Kansas,Stanton,2021-04-04 10:11:08.330993,2020-09-16 00:00:00.000000,10.00606649,14.95512483,22.27857110,200,299,446,122,188,293,6.09219256,9.38129768,14.62721901,0.21036149,0.32013132,0.45765782
20187,0,USKansasStanton,Kansas,Stanton,2021-04-04 10:11:08.330993,2020-09-17 00:00:00.000000,9.68161839,14.52485522,21.67477482,194,291,434,119,184,288,5.95154944,9.21033431,14.36263334,0.21102793,0.31595470,0.45662715
20187,0,USKansasStanton,Kansas,Stanton,2021-04-04 10:11:08.330993,2020-09-18 00:00:00.000000,9.36715689,14.16608160,21.07045501,187,284,422,116,180,281,5.79564671,9.01812040,14.04027173,0.21190554,0.31081643,0.45622824
20187,0,USKansasStanton,Kansas,Stanton,2021-04-04 10:11:08.330993,2020-09-19 00:00:00.000000,9.06755450,13.87405783,20.51462863,181,278,411,112,176,275,5.62999935,8.80665697,13.70898275,0.21162937,0.30729840,0.45499168
20187,0,USKansasStanton,Kansas,Stanton,2021-04-04 10:11:08.330993,2020-09-20 00:00:00.000000,8.80475105,13.59320768,20.14588853,176,272,404,109,172,268,5.45911397,8.59055602,13.37131762,0.21291931,0.30140029,0.45144554
20187,0,USKansasStanton,Kansas,Stanton,2021-04-04 10:11:08.330993,2020-09-21 00:00:00.000000,8.62682680,13.16726501,19.54175471,173,264,392,106,165,264,5.28663044,8.27231258,13.17030782,0.21306222,0.30062271,0.45686920
20187,0,USKansasStanton,Kansas,Stanton,2021-04-04 10:11:08.330993,2020-09-22 00:00:00.000000,8.47332851,12.73681213,18.92120766,169,255,379,102,161,260,5.10572852,8.03993922,12.97238740,0.21316159,0.29809582,0.46882356
20187,0,USKansasStanton,Kansas,Stanton,2021-04-04 10:11:08.330993,2020-09-23 00:00:00.000000,8.27713246,12.35070767,18.28718113,166,247,366,98,156,255,4.92256101,7.81663827,12.71261104,0.21340365,0.29800167,0.47028452
20187,0,USKansasStanton,Kansas,Stanton,2021-04-04 10:11:08.330993,2020-09-24 00:00:00.000000,7.84663769,11.96572313,17.64808174,157,240,354,95,153,248,4.74300239,7.65097955,12.40225010,0.21293751,0.29864404,0.46644108
20187,0,USKansasStanton,Kansas,Stanton,2021-04-04 10:11:08.330993,2020-09-25 00:00:00.000000,7.45573700,11.52531562,17.01147157,149,231,341,92,148,241,4.60046883,7.41596884,12.05232313,0.21095002,0.30094637,0.47560274
20187,0,USKansasStanton,Kansas,Stanton,2021-04-04 10:11:08.330993,2020-09-26 00:00:00.000000,7.23355897,10.96113978,16.38247370,145,219,328,88,143,236,4.42978080,7.14643650,11.77835804,0.20901823,0.30524060,0.47126948
20187,0,USKansasStanton,Kansas,Stanton,2021-04-04 10:11:08.330993,2020-09-27 00:00:00.000000,7.02782834,10.51438036,15.76474175,140,210,316,85,137,232,4.25156577,6.86170352,11.58337436,0.20528833,0.31018292,0.46913450
20187,0,USKansasStanton,Kansas,Stanton,2021-04-04 10:11:08.330993,2020-09-28 00:00:00.000000,6.82706787,10.05358343,15.21710990,136,201,305,81,132,225,4.08697768,6.59897840,11.26026858,0.20560630,0.31194540,0.46889965
20187,0,USKansasStanton,Kansas,Stanton,2021-04-04 10:11:08.330993,2020-09-29 00:00:00.000000,6.59750797,9.73332899,14.77668156,132,195,296,79,128,217,3.94721381,6.39280852,10.86718133,0.20336321,0.31326581,0.47511532
20187,0,USKansasStanton,Kansas,Stanton,2021-04-04 10:11:08.330993,2020-09-30 00:00:00.000000,6.39130286,9.59946851,14.50100040,128,192,290,76,123,210,3.81691778,6.14776075,10.48875260,0.20464084,0.31517427,0.48234333
20187,0,USKansasStanton,Kansas,Stanton,2021-04-04 10:11:08.330993,2020-10-01 00:00:00.000000,6.20545819,9.33670683,14.22650663,124,187,285,72,119,203,3.62421067,5.93989979,10.12348058,0.20737750,0.31778309,0.49584057
20187,0,USKansasStanton,Kansas,Stanton,2021-04-04 10:11:08.330993,2020-10-02 00:00:00.000000,6.03930969,9.06412697,13.98163668,121,181,280,68,115,195,3.43855181,5.73898737,9.77023011,0.20652010,0.32702139,0.52521105
20187,0,USKansasStanton,Kansas,Stanton,2021-04-04 10:11:08.330993,2020-10-03 00:00:00.000000,5.89078061,8.78146978,13.75702072,118,176,275,67,111,189,3.37962102,5.54924512,9.42801004,0.21150632,0.33331203,0.53283376
20187,0,USKansasStanton,Kansas,Stanton,2021-04-04 10:11:08.330993,2020-10-04 00:00:00.000000,5.68660979,8.52346349,13.53115281,114,170,271,66,108,182,3.31410281,5.42473067,9.09590652,0.21434624,0.34377318,0.55227711
20187,0,USKansasStanton,Kansas,Stanton,2021-04-04 10:11:08.330993,2020-10-05 00:00:00.000000,5.64555734,8.38781436,13.29599353,113,168,266,63,105,175,3.14764413,5.25717227,8.77318109,0.21780208,0.35084126,0.55599995
20187,0,USKansasStanton,Kansas,Stanton,2021-04-04 10:11:08.330993,2020-10-06 00:00:00.000000,5.52038285,8.19282690,13.06011683,110,164,261,60,102,169,2.99693065,5.10812303,8.47290774,0.22176120,0.35672464,0.56582978
20187,0,USKansasStanton,Kansas,Stanton,2021-04-04 10:11:08.330993,2020-10-07 00:00:00.000000,5.34406997,7.95662436,12.47509735,107,159,250,57,99,166,2.85989063,4.94877875,8.32302088,0.22631818,0.36166173,0.58027556
20187,0,USKansasStanton,Kansas,Stanton,2021-04-04 10:11:08.330993,2020-10-08 00:00:00.000000,5.10661184,7.76648852,12.25187079,102,155,245,54,97,164,2.73390609,4.84327245,8.18019148,0.23157140,0.36810735,0.59784444
20187,0,USKansasStanton,Kansas,Stanton,2021-04-04 10:11:08.330993,2020-10-09 00:00:00.000000,4.88269803,7.69034186,12.04809291,97,154,241,52,95,161,2.61735315,4.74286591,8.03652594,0.23201412,0.37138773,0.61952234
20187,0,USKansasStanton,Kansas,Stanton,2021-04-04 10:11:08.330993,2020-10-10 00:00:00.000000,4.67583195,7.67242922,11.84297797,93,153,237,50,94,158,2.50890874,4.70486712,7.89221231,0.24172732,0.38131676,0.62019394
20187,0,USKansasStanton,Kansas,Stanton,2021-04-04 10:11:08.330993,2020-10-11 00:00:00.000000,4.48505604,7.48254254,11.63331399,89,150,233,49,92,154,2.46432230,4.62552177,7.69360691,0.24934905,0.39865162,0.67613389
20187,0,USKansasStanton,Kansas,Stanton,2021-04-04 10:11:08.330993,2020-10-12 00:00:00.000000,4.69927914,7.51816919,11.48277739,94,150,230,48,89,147,2.42766305,4.45641907,7.35871269,0.25477959,0.39934647,0.71798742
20187,0,USKansasStanton,Kansas,Stanton,2021-04-04 10:11:08.330993,2020-10-13 00:00:00.000000,4.92863979,7.36582690,11.13307398,98,147,223,49,88,144,2.46440074,4.41083342,7.21617399,0.25878313,0.41309023,0.73159857
20187,0,USKansasStanton,Kansas,Stanton,2021-04-04 10:11:08.330993,2020-10-14 00:00:00.000000,5.11485875,7.19513268,10.77973553,102,144,216,51,88,141,2.55499624,4.40900107,7.06410869,0.26321129,0.42198437,0.74474666
20187,0,USKansasStanton,Kansas,Stanton,2021-04-04 10:11:08.330993,2020-10-15 00:00:00.000000,5.29328178,7.11404907,10.49349267,106,142,210,53,88,138,2.68423370,4.41510657,6.90644777,0.26770337,0.43683540,0.75806069
20187,0,USKansasStanton,Kansas,Stanton,2021-04-04 10:11:08.330993,2020-10-16 00:00:00.000000,5.27964354,7.12172253,10.37598882,105,142,208,56,87,136,2.80322678,4.36546053,6.81942040,0.26891219,0.44982017,0.77100980
20187,0,USKansasStanton,Kansas,Stanton,2021-04-04 10:11:08.330993,2020-10-17 00:00:00.000000,5.20247172,7.23714478,10.35183186,104,145,207,57,86,133,2.88092878,4.31851968,6.64962649,0.25790844,0.46530218,0.78292638
20187,0,USKansasStanton,Kansas,Stanton,2021-04-04 10:11:08.330993,2020-10-18 00:00:00.000000,4.96589914,7.22268260,10.54953468,99,144,211,56,88,133,2.83919353,4.39483637,6.66782835,0.24408037,0.46819658,0.79325473
20187,0,USKansasStanton,Kansas,Stanton,2021-04-04 10:11:08.330993,2020-10-19 00:00:00.000000,5.17528241,7.22235682,10.48405774,103,144,210,55,86,130,2.75651975,4.30328199,6.50667646,0.23973426,0.47306484,0.80124155
20187,0,USKansasStanton,Kansas,Stanton,2021-04-04 10:11:08.330993,2020-10-20 00:00:00.000000,5.25817085,7.20082449,10.29109404,105,144,206,55,86,128,2.74898271,4.29428980,6.38114153,0.23771982,0.48006912,0.80931928
20187,0,USKansasStanton,Kansas,Stanton,2021-04-04 10:11:08.330993,2020-10-21 00:00:00.000000,5.28348794,7.20471328,10.24856265,105,144,205,54,83,126,2.73994954,4.15740466,6.29026665,0.23742847,0.48960660,0.83494434
20187,0,USKansasStanton,Kansas,Stanton,2021-04-04 10:11:08.330993,2020-10-22 00:00:00.000000,5.21249330,7.23758591,10.25591945,104,145,205,54,82,128,2.71596818,4.11863783,6.40418859,0.23993157,0.48944983,0.86354534
20187,0,USKansasStanton,Kansas,Stanton,2021-04-04 10:11:08.330993,2020-10-23 00:00:00.000000,5.03270469,7.14847471,9.98819254,100,143,200,54,82,130,2.69433421,4.08804433,6.50234216,0.24666170,0.49095530,0.95114415
20187,0,USKansasStanton,Kansas,Stanton,2021-04-04 10:11:08.330993,2020-10-24 00:00:00.000000,4.78815608,7.18936685,10.00356822,96,144,200,53,81,132,2.67286047,4.06794494,6.58785687,0.25364103,0.50596567,0.98322336
20187,0,USKansasStanton,Kansas,Stanton,2021-04-04 10:11:08.330993,2020-10-25 00:00:00.000000,4.62599813,7.15699529,10.00260916,92,143,200,53,82,130,2.66260441,4.09328987,6.52730503,0.25694839,0.50746033,0.98511479
20187,0,USKansasStanton,Kansas,Stanton,2021-04-04 10:11:08.330993,2020-10-26 00:00:00.000000,4.52989689,7.03607196,9.92929420,90,141,199,53,82,131,2.68130718,4.12471946,6.56025040,0.25776967,0.51312491,0.98576911
20187,0,USKansasStanton,Kansas,Stanton,2021-04-04 10:11:08.330993,2020-10-27 00:00:00.000000,4.48221431,6.91395796,9.85184387,89,138,197,53,81,132,2.67517384,4.08268253,6.61239244,0.25796801,0.51823804,0.98606598
20187,0,USKansasStanton,Kansas,Stanton,2021-04-04 10:11:08.330993,2020-10-28 00:00:00.000000,4.30681249,6.80708885,9.78272667,86,136,196,51,81,133,2.59031391,4.04654133,6.63028347,0.25847631,0.53164090,0.98618660
20187,0,USKansasStanton,Kansas,Stanton,2021-04-04 10:11:08.330993,2020-10-29 00:00:00.000000,4.08497746,6.81658041,9.78729551,81,136,196,50,80,132,2.50562939,4.00100090,6.58298365,0.26061971,0.53059230,1.00989976
20187,0,USKansasStanton,Kansas,Stanton,2021-04-04 10:11:08.330993,2020-10-30 00:00:00.000000,3.88833513,6.83122965,9.87718914,78,137,198,49,79,131,2.46738185,3.94099951,6.53435399,0.26242635,0.55517876,1.11726674
20187,0,USKansasStanton,Kansas,Stanton,2021-04-04 10:11:08.330993,2020-10-31 00:00:00.000000,3.72455070,6.81922913,9.97820496,74,136,200,48,78,130,2.42359462,3.91613196,6.48431545,0.24990305,0.57507370,1.10115098
20187,0,USKansasStanton,Kansas,Stanton,2021-04-04 10:11:08.330993,2020-11-01 00:00:00.000000,3.57784321,6.81170233,10.08775100,71,136,202,47,77,129,2.36844463,3.85380861,6.43286036,0.26110914,0.59280550,1.08523515
20187,0,USKansasStanton,Kansas,Stanton,2021-04-04 10:11:08.330993,2020-11-02 00:00:00.000000,3.80935460,6.78804980,10.15761286,76,136,203,44,76,127,2.19519536,3.83787057,6.38000438,0.25221923,0.59640818,1.07556876
20187,0,USKansasStanton,Kansas,Stanton,2021-04-04 10:11:08.330993,2020-11-03 00:00:00.000000,3.66487787,6.67481699,10.22938703,73,133,205,43,76,126,2.16970613,3.81035935,6.32121232,0.25047138,0.59789461,1.07221939
20187,0,USKansasStanton,Kansas,Stanton,2021-04-04 10:11:08.330993,2020-11-04 00:00:00.000000,3.74747475,6.63537402,10.30221736,75,133,206,43,75,125,2.15616730,3.77760665,6.25799672,0.25491751,0.60335755,1.07155509
20187,0,USKansasStanton,Kansas,Stanton,2021-04-04 10:11:08.330993,2020-11-05 00:00:00.000000,3.60148716,6.59032304,10.42590971,72,132,209,41,75,125,2.06715769,3.76136329,6.24146042,0.29036279,0.62810632,1.09107027
20187,0,USKansasStanton,Kansas,Stanton,2021-04-04 10:11:08.330993,2020-11-06 00:00:00.000000,3.46141329,6.52234521,10.64026612,69,130,213,39,74,126,1.98128628,3.73401354,6.30513620,0.28708670,0.63390986,1.10161110
20187,0,USKansasStanton,Kansas,Stanton,2021-04-04 10:11:08.330993,2020-11-07 00:00:00.000000,3.32794761,6.50495141,10.81743929,66,130,216,38,74,127,1.93044612,3.73725899,6.35450654,0.27248411,0.64976269,1.10591250
20187,0,USKansasStanton,Kansas,Stanton,2021-04-04 10:11:08.330993,2020-11-08 00:00:00.000000,3.20145372,6.51714183,10.92560427,64,130,219,39,76,128,1.98841725,3.81312765,6.38835645,0.25886715,0.64118361,1.10960259
20187,0,USKansasStanton,Kansas,Stanton,2021-04-04 10:11:08.330993,2020-11-09 00:00:00.000000,3.45962588,6.72231299,11.17816820,69,134,224,38,76,128,1.93513750,3.81410428,6.40467897,0.25171811,0.63717554,1.11372608
20187,0,USKansasStanton,Kansas,Stanton,2021-04-04 10:11:08.330993,2020-11-10 00:00:00.000000,3.72488872,6.83691880,11.38640874,74,137,228,39,76,129,1.94484674,3.79119410,6.47018854,0.24655236,0.63819572,1.12658620
20187,0,USKansasStanton,Kansas,Stanton,2021-04-04 10:11:08.330993,2020-11-11 00:00:00.000000,4.00255867,6.85465619,11.57131516,80,137,232,40,76,131,2.01096661,3.79300082,6.56223762,0.24421899,0.62930207,1.14462335
20187,0,USKansasStanton,Kansas,Stanton,2021-04-04 10:11:08.330993,2020-11-12 00:00:00.000000,4.28177202,6.89877034,11.73094406,85,138,235,42,76,133,2.11338009,3.82541994,6.67294695,0.25461991,0.62865968,1.15833346
20187,0,USKansasStanton,Kansas,Stanton,2021-04-04 10:11:08.330993,2020-11-13 00:00:00.000000,4.55543328,6.94695096,11.62749382,91,139,233,44,79,136,2.20703292,3.95882068,6.78041382,0.24739726,0.63796937,1.17360257
20187,0,USKansasStanton,Kansas,Stanton,2021-04-04 10:11:08.330993,2020-11-14 00:00:00.000000,4.56777170,7.06827920,11.36807628,91,141,228,45,79,137,2.26227323,3.95929131,6.87607777,0.23797167,0.65137926,1.17568310
20187,0,USKansasStanton,Kansas,Stanton,2021-04-04 10:11:08.330993,2020-11-15 00:00:00.000000,4.77753893,7.11625533,11.40013041,95,142,228,48,82,139,2.42932188,4.10607824,6.96842605,0.22830321,0.65024112,1.20747763
20187,0,USKansasStanton,Kansas,Stanton,2021-04-04 10:11:08.330993,2020-11-16 00:00:00.000000,5.02891225,7.30865789,11.51357752,100,146,230,50,82,141,2.52686995,4.13721816,7.05267567,0.22088366,0.63015547,1.24028248
20187,0,USKansasStanton,Kansas,Stanton,2021-04-04 10:11:08.330993,2020-11-17 00:00:00.000000,5.28407052,7.46064187,11.59860811,105,149,232,51,84,143,2.58631404,4.20731409,7.14892176,0.21642812,0.60819787,1.26207011
20187,0,USKansasStanton,Kansas,Stanton,2021-04-04 10:11:08.330993,2020-11-18 00:00:00.000000,5.47027181,7.55296794,11.66118070,109,151,233,53,86,142,2.65038804,4.30466327,7.11765748,0.21418696,0.59937350,1.26121153
20187,0,USKansasStanton,Kansas,Stanton,2021-04-04 10:11:08.330993,2020-11-19 00:00:00.000000,5.38856779,7.63264833,11.70196170,108,153,234,54,88,142,2.73415183,4.41413948,7.12162488,0.21330030,0.59728069,1.29434700
20187,0,USKansasStanton,Kansas,Stanton,2021-04-04 10:11:08.330993,2020-11-20 00:00:00.000000,5.48324926,7.68988055,11.52970577,109,154,231,55,88,143,2.76774651,4.42064819,7.14295167,0.21337794,0.59622173,1.32129675
20187,0,USKansasStanton,Kansas,Stanton,2021-04-04 10:11:08.330993,2020-11-21 00:00:00.000000,5.55885482,7.69458748,11.38459834,111,154,228,56,88,145,2.80790606,4.43167944,7.23348136,0.21438090,0.58030348,1.33341253
20187,0,USKansasStanton,Kansas,Stanton,2021-04-04 10:11:08.330993,2020-11-22 00:00:00.000000,5.71063938,7.64141594,11.43393012,114,153,229,57,89,147,2.85259673,4.47559182,7.33452540,0.21588781,0.56627658,1.31975082
20187,0,USKansasStanton,Kansas,Stanton,2021-04-04 10:11:08.330993,2020-11-23 00:00:00.000000,5.49033306,7.41831168,11.29621129,110,148,226,58,90,148,2.89801872,4.53569241,7.40338330,0.21698592,0.55662806,1.30114224
20187,0,USKansasStanton,Kansas,Stanton,2021-04-04 10:11:08.330993,2020-11-24 00:00:00.000000,5.21827666,7.20481670,10.93233146,104,144,219,56,90,148,2.83008612,4.52845299,7.41077827,0.21732096,0.54752421,1.30129895
20187,0,USKansasStanton,Kansas,Stanton,2021-04-04 10:11:08.330993,2020-11-25 00:00:00.000000,4.94276821,7.02544875,10.59996177,99,140,212,54,89,147,2.73253988,4.46695605,7.37332983,0.21704605,0.54058729,1.30099039
20187,0,USKansasStanton,Kansas,Stanton,2021-04-04 10:11:08.330993,2020-11-26 00:00:00.000000,4.65394034,6.88735954,10.34830536,93,138,207,52,87,145,2.63227701,4.37383362,7.26506729,0.21078931,0.51878693,1.30041874
20187,0,USKansasStanton,Kansas,Stanton,2021-04-04 10:11:08.330993,2020-11-27 00:00:00.000000,4.32910879,6.67021440,10.08718832,86,133,202,50,85,140,2.50787526,4.25890361,6.98180113,0.19725927,0.49407514,1.29979133
20187,0,USKansasStanton,Kansas,Stanton,2021-04-04 10:11:08.330993,2020-11-28 00:00:00.000000,4.01649571,6.35192561,9.81255690,80,127,196,47,82,136,2.38188568,4.13304198,6.78044059,0.19564495,0.48326040,1.29794974
20187,0,USKansasStanton,Kansas,Stanton,2021-04-04 10:11:08.330993,2020-11-29 00:00:00.000000,3.72053706,6.09863576,9.39263200,74,122,188,45,79,133,2.26884579,3.97662290,6.63420172,0.19547209,0.48042509,1.25415018
20187,0,USKansasStanton,Kansas,Stanton,2021-04-04 10:11:08.330993,2020-11-30 00:00:00.000000,3.49294400,5.86649516,9.03170972,70,117,181,43,76,129,2.15563896,3.81406885,6.47826142,0.18564534,0.46732656,1.24907831
20187,0,USKansasStanton,Kansas,Stanton,2021-04-04 10:11:08.330993,2020-12-01 00:00:00.000000,3.30837093,5.68247835,8.73448557,66,113,175,40,73,126,2.03588311,3.66990998,6.30752465,0.17602570,0.44673350,1.22559073
20187,0,USKansasStanton,Kansas,Stanton,2021-04-04 10:11:08.330993,2020-12-02 00:00:00.000000,3.11836524,5.39569365,8.43749287,62,108,169,38,70,122,1.92327770,3.49934594,6.12751896,0.17063357,0.44495186,1.23469562
20187,0,USKansasStanton,Kansas,Stanton,2021-04-04 10:11:08.330993,2020-12-03 00:00:00.000000,2.87843787,5.11441642,8.08733289,57,102,162,36,66,117,1.81771699,3.32646350,5.85566721,0.16800144,0.43397909,1.24742133
20187,0,USKansasStanton,Kansas,Stanton,2021-04-04 10:11:08.330993,2020-12-04 00:00:00.000000,2.63373900,4.84126884,7.68252121,52,97,154,34,62,111,1.71909979,3.13894372,5.58159727,0.17005153,0.41855143,1.25364268
20187,0,USKansasStanton,Kansas,Stanton,2021-04-04 10:11:08.330993,2020-12-05 00:00:00.000000,2.56890459,4.57901585,7.29505977,51,91,146,32,59,106,1.62720793,2.95453077,5.31290130,0.17272553,0.40140307,1.25582960
20187,0,USKansasStanton,Kansas,Stanton,2021-04-04 10:11:08.330993,2020-12-06 00:00:00.000000,2.41579266,4.35644074,6.92610451,48,87,138,30,55,102,1.54137102,2.77673190,5.11470923,0.17421878,0.39012123,1.28205471
20187,0,USKansasStanton,Kansas,Stanton,2021-04-04 10:11:08.330993,2020-12-07 00:00:00.000000,2.23141947,4.15768543,6.55249640,44,83,131,28,53,97,1.43176585,2.64728914,4.86062537,0.17455813,0.38498752,1.29831238
20187,0,USKansasStanton,Kansas,Stanton,2021-04-04 10:11:08.330993,2020-12-08 00:00:00.000000,2.05981793,3.95097965,6.19732928,41,79,124,26,51,94,1.31617446,2.58754613,4.69125245,0.17547750,0.37918595,1.27890978
20187,0,USKansasStanton,Kansas,Stanton,2021-04-04 10:11:08.330993,2020-12-09 00:00:00.000000,1.89992701,3.76112612,5.88956349,38,75,118,24,50,90,1.21231828,2.49830938,4.51634672,0.17443648,0.37625209,1.37580140
20187,0,USKansasStanton,Kansas,Stanton,2021-04-04 10:11:08.330993,2020-12-10 00:00:00.000000,1.75240637,3.56898654,5.65682941,35,71,113,22,48,86,1.11880005,2.41446058,4.33600831,0.17407159,0.37474660,1.43006789
20187,0,USKansasStanton,Kansas,Stanton,2021-04-04 10:11:08.330993,2020-12-11 00:00:00.000000,1.61686308,3.39105408,5.51443382,32,68,110,21,45,83,1.06372301,2.28238163,4.18107564,0.17381133,0.37094938,1.42046257
20187,0,USKansasStanton,Kansas,Stanton,2021-04-04 10:11:08.330993,2020-12-12 00:00:00.000000,1.49234525,3.26302063,5.37822970,29,65,107,20,43,80,1.00238303,2.15602225,3.99791520,0.17369954,0.36667947,1.37646371
20187,0,USKansasStanton,Kansas,Stanton,2021-04-04 10:11:08.330993,2020-12-13 00:00:00.000000,1.37817916,3.18280093,5.20801655,27,63,104,18,40,76,0.92541435,2.03794142,3.81785881,0.17330883,0.35982097,1.38100596
20187,0,USKansasStanton,Kansas,Stanton,2021-04-04 10:11:08.330993,2020-12-14 00:00:00.000000,1.30054296,3.03843171,4.98627910,26,60,100,17,38,73,0.85448708,1.94063235,3.64142598,0.17316074,0.34946936,1.46177554
20187,0,USKansasStanton,Kansas,Stanton,2021-04-04 10:11:08.330993,2020-12-15 00:00:00.000000,1.23287341,2.94202885,4.76393332,24,59,95,15,37,69,0.79652241,1.87033169,3.47677628,0.17309420,0.34885016,1.47016954
20187,0,USKansasStanton,Kansas,Stanton,2021-04-04 10:11:08.330993,2020-12-16 00:00:00.000000,1.17671714,2.83831112,4.56762047,23,56,91,15,36,66,0.74835532,1.81573362,3.32246438,0.17193641,0.34923576,1.46959971
20187,0,USKansasStanton,Kansas,Stanton,2021-04-04 10:11:08.330993,2020-12-17 00:00:00.000000,1.15237092,2.79257553,4.38740173,23,56,88,14,35,63,0.71822002,1.76950916,3.17741572,0.17055330,0.34965959,1.46304375
20187,0,USKansasStanton,Kansas,Stanton,2021-04-04 10:11:08.330993,2020-12-18 00:00:00.000000,1.13207601,2.69044107,4.22519270,22,53,84,13,34,60,0.69785859,1.71386453,3.04081410,0.17046497,0.33847222,1.39542184
20187,0,USKansasStanton,Kansas,Stanton,2021-04-04 10:11:08.330993,2020-12-19 00:00:00.000000,1.11450060,2.57700505,4.07835075,22,51,81,13,33,58,0.68158347,1.65740174,2.91199443,0.16624247,0.33090406,1.34242624
20187,0,USKansasStanton,Kansas,Stanton,2021-04-04 10:11:08.330993,2020-12-20 00:00:00.000000,1.09857751,2.47761188,3.93428072,22,49,78,13,32,55,0.66816808,1.60061012,2.79029110,0.15605980,0.33346183,1.32012818
20187,0,USKansasStanton,Kansas,Stanton,2021-04-04 10:11:08.330993,2020-12-21 00:00:00.000000,1.08769598,2.39192559,3.87014207,21,47,77,12,30,53,0.63748441,1.54014052,2.67478216,0.15420692,0.31690154,1.32734522
20187,0,USKansasStanton,Kansas,Stanton,2021-04-04 10:11:08.330993,2020-12-22 00:00:00.000000,1.10137448,2.31700058,3.86497157,22,46,77,12,30,51,0.60424677,1.50202679,2.58941097,0.15567965,0.32157119,1.36475252
20187,0,USKansasStanton,Kansas,Stanton,2021-04-04 10:11:08.330993,2020-12-23 00:00:00.000000,1.10288267,2.27685726,3.86826983,22,45,77,12,29,50,0.63061874,1.46546611,2.52716315,0.15622515,0.32888882,1.35226109
20187,0,USKansasStanton,Kansas,Stanton,2021-04-04 10:11:08.330993,2020-12-24 00:00:00.000000,1.10512016,2.18978993,3.85615223,22,43,77,12,28,49,0.64677766,1.42918823,2.45301389,0.14823617,0.32701000,1.33942568
20187,0,USKansasStanton,Kansas,Stanton,2021-04-04 10:11:08.330993,2020-12-25 00:00:00.000000,1.08671396,2.14732373,3.80176417,21,43,76,12,27,47,0.64679220,1.38742219,2.38439980,0.13770087,0.32373706,1.33249627
20187,0,USKansasStanton,Kansas,Stanton,2021-04-04 10:11:08.330993,2020-12-26 00:00:00.000000,1.03989998,2.11602473,3.75153810,20,42,75,12,27,46,0.64752143,1.34765762,2.32618348,0.13615251,0.31922078,1.33279742
20187,0,USKansasStanton,Kansas,Stanton,2021-04-04 10:11:08.330993,2020-12-27 00:00:00.000000,0.99640668,2.00916802,3.70581913,19,40,74,13,26,45,0.64859395,1.31348333,2.27606703,0.13584838,0.30686382,1.34929924
20187,0,USKansasStanton,Kansas,Stanton,2021-04-04 10:11:08.330993,2020-12-28 00:00:00.000000,0.97415642,2.00541795,3.68509340,19,40,73,13,25,44,0.64968927,1.27314052,2.23622530,0.13246664,0.31193826,1.40508366
20187,0,USKansasStanton,Kansas,Stanton,2021-04-04 10:11:08.330993,2020-12-29 00:00:00.000000,0.95513087,1.93400117,3.66908576,19,38,73,12,25,44,0.62694723,1.24677016,2.21018890,0.12726898,0.30953561,1.50555195
20187,0,USKansasStanton,Kansas,Stanton,2021-04-04 10:11:08.330993,2020-12-30 00:00:00.000000,0.93939297,1.85080040,3.65770321,18,37,73,12,23,43,0.60901444,1.19358541,2.19308671,0.12458142,0.30575717,1.59488064
20187,0,USKansasStanton,Kansas,Stanton,2021-04-04 10:11:08.330993,2020-12-31 00:00:00.000000,0.92622200,1.80482017,3.65005375,18,36,73,11,23,43,0.59467524,1.15346152,2.18814402,0.12326450,0.31051430,1.66519545
20187,0,USKansasStanton,Kansas,Stanton,2021-04-04 10:11:08.330993,2021-01-01 00:00:00.000000,0.91507351,1.77692074,3.64507208,18,35,73,11,22,43,0.57277091,1.11343301,2.18894979,0.12234278,0.31052080,1.76446587
20187,0,USKansasStanton,Kansas,Stanton,2021-04-04 10:11:08.330993,2021-01-02 00:00:00.000000,0.86157927,1.75398437,3.57359535,17,35,71,10,21,44,0.53839214,1.07440422,2.19352642,0.12107504,0.30518768,1.79155048
20187,0,USKansasStanton,Kansas,Stanton,2021-04-04 10:11:08.330993,2021-01-03 00:00:00.000000,0.80411248,1.68798402,3.49220684,16,33,70,10,20,44,0.50502526,1.04066751,2.20049266,0.11901868,0.30565482,1.73941076
20187,0,USKansasStanton,Kansas,Stanton,2021-04-04 10:11:08.330993,2021-01-04 00:00:00.000000,0.83787958,1.70287992,3.33796616,16,34,66,9,20,44,0.47292858,1.01371816,2.20912589,0.11665769,0.29782796,1.64590205
20187,0,USKansasStanton,Kansas,Stanton,2021-04-04 10:11:08.330993,2021-01-05 00:00:00.000000,0.88837204,1.69404366,3.18778157,17,33,63,9,20,43,0.45889141,1.00911155,2.18432686,0.11501452,0.30497877,1.60585173
20187,0,USKansasStanton,Kansas,Stanton,2021-04-04 10:11:08.330993,2021-01-06 00:00:00.000000,0.96554813,1.72183254,3.04089230,19,34,61,9,20,42,0.45748680,1.00603513,2.13798425,0.11085330,0.30553113,1.62782724
20187,0,USKansasStanton,Kansas,Stanton,2021-04-04 10:11:08.330993,2021-01-07 00:00:00.000000,0.98192212,1.71095281,2.89879591,19,34,58,9,20,41,0.46475621,1.00750413,2.08349854,0.11389078,0.30550433,1.70787671
20187,0,USKansasStanton,Kansas,Stanton,2021-04-04 10:11:08.330993,2021-01-08 00:00:00.000000,0.99911336,1.70680145,2.77611419,20,34,55,9,19,41,0.47777634,0.99434240,2.04453713,0.11373165,0.30837467,1.83122120
20187,0,USKansasStanton,Kansas,Stanton,2021-04-04 10:11:08.330993,2021-01-09 00:00:00.000000,1.02219055,1.69907766,2.89746500,20,34,58,10,20,39,0.51086100,1.02189820,1.98501523,0.11368110,0.30722723,1.93303753
20187,0,USKansasStanton,Kansas,Stanton,2021-04-04 10:11:08.330993,2021-01-10 00:00:00.000000,1.03848792,1.69175848,2.92709504,20,33,58,10,20,38,0.54523217,1.00299643,1.91767607,0.11365202,0.30185388,1.98251789
20187,0,USKansasStanton,Kansas,Stanton,2021-04-04 10:11:08.330993,2021-01-11 00:00:00.000000,1.00479049,1.68986251,2.89918035,20,33,58,10,19,36,0.54571129,0.98931390,1.83182809,0.11352540,0.29553948,1.96969902
20187,0,USKansasStanton,Kansas,Stanton,2021-04-04 10:11:08.330993,2021-01-12 00:00:00.000000,1.00986448,1.66570981,2.94453055,20,33,59,10,19,35,0.53740923,0.98304176,1.76747854,0.11277477,0.29277457,1.95970198
20187,0,USKansasStanton,Kansas,Stanton,2021-04-04 10:11:08.330993,2021-01-13 00:00:00.000000,0.98812375,1.63889397,2.88030220,19,32,57,10,19,34,0.52286031,0.98982114,1.72250867,0.11161868,0.29221117,1.95723984
20187,0,USKansasStanton,Kansas,Stanton,2021-04-04 10:11:08.330993,2021-01-14 00:00:00.000000,0.95457255,1.63391476,2.94698340,19,32,59,10,19,33,0.52784789,0.95686770,1.68254879,0.11131346,0.28876434,1.95844904
20187,0,USKansasStanton,Kansas,Stanton,2021-04-04 10:11:08.330993,2021-01-15 00:00:00.000000,0.92099025,1.62165507,3.01019627,18,32,60,10,19,33,0.51649544,0.95554677,1.65471252,0.11133285,0.27678678,1.96299388
20187,0,USKansasStanton,Kansas,Stanton,2021-04-04 10:11:08.330993,2021-01-16 00:00:00.000000,0.88694600,1.59352959,3.06929453,17,31,61,10,18,32,0.50281103,0.93926075,1.63315941,0.11156507,0.27544744,1.97050568
20187,0,USKansasStanton,Kansas,Stanton,2021-04-04 10:11:08.330993,2021-01-17 00:00:00.000000,0.84862018,1.56146759,3.12522903,17,31,62,9,18,33,0.48779009,0.92937272,1.66049348,0.11239783,0.27763093,1.97748506
20187,0,USKansasStanton,Kansas,Stanton,2021-04-04 10:11:08.330993,2021-01-18 00:00:00.000000,0.86350923,1.56403802,3.07770939,17,31,61,9,18,35,0.47212719,0.91381346,1.74598743,0.11414154,0.28008541,1.98073160
20187,0,USKansasStanton,Kansas,Stanton,2021-04-04 10:11:08.330993,2021-01-19 00:00:00.000000,0.87414869,1.57274888,3.02734466,17,31,60,9,18,35,0.47078300,0.92130975,1.78229808,0.11559713,0.27730826,1.98012825
20187,0,USKansasStanton,Kansas,Stanton,2021-04-04 10:11:08.330993,2021-01-20 00:00:00.000000,0.88702169,1.56014781,2.97330914,17,31,59,9,18,35,0.48039922,0.89731891,1.78796044,0.11620071,0.27709109,1.97555037
20187,0,USKansasStanton,Kansas,Stanton,2021-04-04 10:11:08.330993,2021-01-21 00:00:00.000000,0.89842823,1.53713395,2.91743888,18,30,58,9,17,35,0.48692634,0.87898893,1.77507128,0.11640746,0.27700979,1.96477123
20187,0,USKansasStanton,Kansas,Stanton,2021-04-04 10:11:08.330993,2021-01-22 00:00:00.000000,0.88850515,1.51269045,2.86074954,17,30,57,9,17,35,0.49604604,0.87808720,1.75150396,0.11654105,0.27672719,1.94277826
20187,0,USKansasStanton,Kansas,Stanton,2021-04-04 10:11:08.330993,2021-01-23 00:00:00.000000,0.86225985,1.48751355,2.81426488,17,29,56,10,17,34,0.50127232,0.87680982,1.72237302,0.11235778,0.27578031,1.90069495
20187,0,USKansasStanton,Kansas,Stanton,2021-04-04 10:11:08.330993,2021-01-24 00:00:00.000000,0.84103894,1.48299069,2.89687581,16,29,58,9,17,33,0.48599449,0.88694623,1.69099699,0.10663692,0.26798996,1.83477188
20187,0,USKansasStanton,Kansas,Stanton,2021-04-04 10:11:08.330993,2021-01-25 00:00:00.000000,0.88290520,1.50664616,2.78541685,17,30,55,9,17,33,0.48083834,0.88890697,1.65950893,0.10519472,0.26407968,1.75359393
20187,0,USKansasStanton,Kansas,Stanton,2021-04-04 10:11:08.330993,2021-01-26 00:00:00.000000,0.89431658,1.49302016,2.79863171,17,29,56,9,18,32,0.48558823,0.90882300,1.64170777,0.10481353,0.26204597,1.67854536
20187,0,USKansasStanton,Kansas,Stanton,2021-04-04 10:11:08.330993,2021-01-27 00:00:00.000000,0.92189985,1.47964452,2.82719740,18,29,56,10,18,33,0.49854116,0.89870353,1.65875003,0.10501233,0.26307590,1.62648151
20187,0,USKansasStanton,Kansas,Stanton,2021-04-04 10:11:08.330993,2021-01-28 00:00:00.000000,0.94371364,1.53194063,2.90406608,18,30,58,9,17,33,0.49157692,0.89596504,1.67584626,0.09739767,0.25911070,1.59842638
20187,0,USKansasStanton,Kansas,Stanton,2021-04-04 10:11:08.330993,2021-01-29 00:00:00.000000,0.91643562,1.52601925,2.96452144,18,30,59,9,17,33,0.49294578,0.88577373,1.69257432,0.09821000,0.26079993,1.58742177
20187,0,USKansasStanton,Kansas,Stanton,2021-04-04 10:11:08.330993,2021-01-30 00:00:00.000000,0.89141640,1.48023957,2.91727614,17,29,58,9,17,34,0.48268672,0.88191417,1.70863457,0.09920277,0.25935743,1.58996442
20187,0,USKansasStanton,Kansas,Stanton,2021-04-04 10:11:08.330993,2021-01-31 00:00:00.000000,0.84040614,1.49432484,2.94587478,16,29,59,9,17,34,0.46945553,0.86496409,1.71353209,0.09018117,0.26417802,1.61367461
20187,0,USKansasStanton,Kansas,Stanton,2021-04-04 10:11:08.330993,2021-02-01 00:00:00.000000,0.84429462,1.47799492,2.84630066,16,29,57,9,17,34,0.45700175,0.84754254,1.74254873,0.08545187,0.26734989,1.66753906
20187,0,USKansasStanton,Kansas,Stanton,2021-04-04 10:11:08.330993,2021-02-02 00:00:00.000000,0.80507453,1.47000848,2.74316741,16,29,55,8,16,34,0.44544381,0.83577144,1.73374453,0.08424932,0.26560733,1.73916028
20187,0,USKansasStanton,Kansas,Stanton,2021-04-04 10:11:08.330993,2021-02-03 00:00:00.000000,0.80936769,1.48166231,2.63681925,16,29,52,8,16,34,0.43661869,0.83373880,1.70554771,0.08308894,0.25364451,1.80330757
20187,0,USKansasStanton,Kansas,Stanton,2021-04-04 10:11:08.330993,2021-02-04 00:00:00.000000,0.79130468,1.50457875,2.53414261,15,30,50,9,16,33,0.45231125,0.83702921,1.66435869,0.08281989,0.25228607,1.84809496
20187,0,USKansasStanton,Kansas,Stanton,2021-04-04 10:11:08.330993,2021-02-05 00:00:00.000000,0.77163816,1.46576266,2.54713968,15,29,51,8,16,33,0.44751681,0.83724633,1.64523467,0.08259984,0.25245453,1.87452467
20187,0,USKansasStanton,Kansas,Stanton,2021-04-04 10:11:08.330993,2021-02-06 00:00:00.000000,0.73349165,1.45276340,2.55842982,14,29,51,8,17,33,0.42741388,0.84819001,1.65810774,0.08240359,0.24681616,1.88873670
20187,0,USKansasStanton,Kansas,Stanton,2021-04-04 10:11:08.330993,2021-02-07 00:00:00.000000,0.72905530,1.43169555,2.56831167,14,28,51,8,17,33,0.41519163,0.85512438,1.66917644,0.08230249,0.24563834,1.88814384
20187,0,USKansasStanton,Kansas,Stanton,2021-04-04 10:11:08.330993,2021-02-08 00:00:00.000000,0.75254068,1.44082039,2.52940302,15,28,50,8,17,33,0.40581542,0.84950750,1.67876422,0.08218212,0.24177992,1.87730756
20187,0,USKansasStanton,Kansas,Stanton,2021-04-04 10:11:08.330993,2021-02-09 00:00:00.000000,0.76848176,1.41595598,2.48950517,15,28,49,8,16,33,0.41557272,0.82287041,1.67012247,0.08192316,0.24248553,1.86782403
20187,0,USKansasStanton,Kansas,Stanton,2021-04-04 10:11:08.330993,2021-02-10 00:00:00.000000,0.78785319,1.42911596,2.45285451,15,28,49,9,16,32,0.45502572,0.80656945,1.59597704,0.08126186,0.24340820,1.84916280
20187,0,USKansasStanton,Kansas,Stanton,2021-04-04 10:11:08.330993,2021-02-11 00:00:00.000000,0.80875160,1.44154703,2.67343539,16,28,53,9,16,31,0.45898269,0.82766786,1.54557654,0.07952705,0.24448038,1.80022966
20187,0,USKansasStanton,Kansas,Stanton,2021-04-04 10:11:08.330993,2021-02-12 00:00:00.000000,0.82990442,1.48077232,2.85590944,16,29,57,9,16,30,0.46662673,0.82626582,1.52128171,0.07727252,0.24897295,1.70215589
20187,0,USKansasStanton,Kansas,Stanton,2021-04-04 10:11:08.330993,2021-02-13 00:00:00.000000,0.82536338,1.50618907,2.73180203,16,30,54,9,16,32,0.47636946,0.83593166,1.61298694,0.08480795,0.24762855,1.59519418
20187,0,USKansasStanton,Kansas,Stanton,2021-04-04 10:11:08.330993,2021-02-14 00:00:00.000000,0.79385721,1.49866410,2.61448031,15,30,52,9,16,34,0.46708507,0.84243170,1.70271195,0.08568307,0.24907944,1.53451994
20187,0,USKansasStanton,Kansas,Stanton,2021-04-04 10:11:08.330993,2021-02-15 00:00:00.000000,0.81052488,1.49083587,2.50969675,16,29,50,9,17,36,0.45808146,0.85747800,1.80457805,0.08538779,0.25014245,1.51144364
20187,0,USKansasStanton,Kansas,Stanton,2021-04-04 10:11:08.330993,2021-02-16 00:00:00.000000,0.79032073,1.47260060,2.44075494,15,29,48,8,17,34,0.44736007,0.87077657,1.72968770,0.08449692,0.25116623,1.50315208
20187,0,USKansasStanton,Kansas,Stanton,2021-04-04 10:11:08.330993,2021-02-17 00:00:00.000000,0.78671833,1.43370896,2.67894864,15,28,53,8,17,33,0.43856345,0.88336897,1.65897425,0.08292208,0.25129524,1.49848796
20187,0,USKansasStanton,Kansas,Stanton,2021-04-04 10:11:08.330993,2021-02-18 00:00:00.000000,0.78323008,1.40089870,2.90530750,15,28,58,8,17,31,0.42993238,0.87114735,1.59222187,0.08157284,0.24902424,1.49310249
20187,0,USKansasStanton,Kansas,Stanton,2021-04-04 10:11:08.330993,2021-02-19 00:00:00.000000,0.78250717,1.40000308,2.79178159,15,28,56,8,17,34,0.42121956,0.86634505,1.73340337,0.07488472,0.24689847,1.48485733
20187,0,USKansasStanton,Kansas,Stanton,2021-04-04 10:11:08.330993,2021-02-20 00:00:00.000000,0.76375435,1.39263416,2.64963048,15,27,53,8,17,36,0.41329605,0.85681532,1.82529685,0.07286300,0.24090162,1.47344550
20187,0,USKansasStanton,Kansas,Stanton,2021-04-04 10:11:08.330993,2021-02-21 00:00:00.000000,0.71806118,1.38313874,2.66121842,14,27,53,8,17,35,0.40519730,0.84754210,1.75864027,0.07219563,0.23363798,1.46264400
20187,0,USKansasStanton,Kansas,Stanton,2021-04-04 10:11:08.330993,2021-02-22 00:00:00.000000,0.66522793,1.29423526,2.53236566,13,25,50,7,16,33,0.39701353,0.84525110,1.68484416,0.07081410,0.23577347,1.45538788
20187,0,USKansasStanton,Kansas,Stanton,2021-04-04 10:11:08.330993,2021-02-23 00:00:00.000000,0.61593126,1.18729000,2.39543976,12,23,48,7,15,32,0.37776357,0.79642048,1.59648070,0.07069227,0.23576327,1.45133205
20187,0,USKansasStanton,Kansas,Stanton,2021-04-04 10:11:08.330993,2021-02-24 00:00:00.000000,0.56931345,1.09008576,2.25001862,11,21,45,7,14,30,0.35007291,0.74533925,1.49993574,0.07062245,0.23690474,1.43911621
20187,0,USKansasStanton,Kansas,Stanton,2021-04-04 10:11:08.330993,2021-02-25 00:00:00.000000,0.52552540,0.99637048,2.10099360,10,19,42,6,13,28,0.32424982,0.69652406,1.39992076,0.07053228,0.23493564,1.40988970
20187,0,USKansasStanton,Kansas,Stanton,2021-04-04 10:11:08.330993,2021-02-26 00:00:00.000000,0.48459104,0.90769373,1.95201542,9,18,39,6,13,26,0.30110906,0.65417166,1.29982567,0.07040679,0.22977925,1.34773755
20187,0,USKansasStanton,Kansas,Stanton,2021-04-04 10:11:08.330993,2021-02-27 00:00:00.000000,0.44656714,0.82698348,1.80579703,8,16,36,5,12,24,0.27902448,0.60594798,1.20200764,0.07009864,0.22510774,1.27114302
20187,0,USKansasStanton,Kansas,Stanton,2021-04-04 10:11:08.330993,2021-02-28 00:00:00.000000,0.41126970,0.75521421,1.66433476,8,15,33,5,11,22,0.25811829,0.56190400,1.10804729,0.06923396,0.22666751,1.22023189
20187,0,USKansasStanton,Kansas,Stanton,2021-04-04 10:11:08.330993,2021-03-01 00:00:00.000000,0.37854491,0.68916069,1.52839633,7,13,30,4,10,20,0.23845000,0.51774309,1.03204394,0.06749581,0.22139758,1.30036388
20187,0,USKansasStanton,Kansas,Stanton,2021-04-04 10:11:08.330993,2021-03-02 00:00:00.000000,0.34826250,0.62582266,1.39901094,6,12,28,4,9,19,0.22003516,0.47256853,0.96395390,0.06605970,0.22003995,1.38306616
20187,0,USKansasStanton,Kansas,Stanton,2021-04-04 10:11:08.330993,2021-03-03 00:00:00.000000,0.32028180,0.56600410,1.27753877,6,11,25,4,8,17,0.20285917,0.43109849,0.89484577,0.06540987,0.22070326,1.42328685
20187,0,USKansasStanton,Kansas,Stanton,2021-04-04 10:11:08.330993,2021-03-04 00:00:00.000000,0.28052342,0.51309282,1.16422768,5,10,23,3,7,16,0.18665553,0.39856799,0.83736694,0.06506896,0.21775806,1.44817470
20187,0,USKansasStanton,Kansas,Stanton,2021-04-04 10:11:08.330993,2021-03-05 00:00:00.000000,0.24411858,0.46573669,1.07107918,4,9,21,3,7,15,0.16366296,0.36737506,0.78596577,0.06478777,0.21517126,1.46645358
20187,0,USKansasStanton,Kansas,Stanton,2021-04-04 10:11:08.330993,2021-03-06 00:00:00.000000,0.21211670,0.42707116,0.99353912,4,8,19,2,6,14,0.14317249,0.33754056,0.73609720,0.06398082,0.21314645,1.47979062
20187,0,USKansasStanton,Kansas,Stanton,2021-04-04 10:11:08.330993,2021-03-07 00:00:00.000000,0.18405897,0.38623446,0.90887226,3,7,18,2,6,13,0.12499137,0.30658683,0.68795629,0.06294367,0.21143216,1.48880515
20187,0,USKansasStanton,Kansas,Stanton,2021-04-04 10:11:08.330993,2021-03-08 00:00:00.000000,0.15951617,0.35288877,0.83288894,3,7,16,2,5,12,0.10892005,0.27618073,0.64170869,0.06279916,0.20833766,1.49406763
20187,0,USKansasStanton,Kansas,Stanton,2021-04-04 10:11:08.330993,2021-03-09 00:00:00.000000,0.13809167,0.31832486,0.78325778,2,6,15,1,4,11,0.09476022,0.24576108,0.59752337,0.06320964,0.20859005,1.49571251
20187,0,USKansasStanton,Kansas,Stanton,2021-04-04 10:11:08.330993,2021-03-10 00:00:00.000000,0.11942199,0.28821331,0.72926609,2,5,14,1,4,11,0.08232027,0.21843332,0.55579081,0.06358645,0.21024086,1.49452278
20187,0,USKansasStanton,Kansas,Stanton,2021-04-04 10:11:08.330993,2021-03-11 00:00:00.000000,0.10317605,0.26395826,0.67619773,2,5,13,1,3,10,0.07141857,0.19457975,0.51664195,0.06332730,0.21050244,1.49329880
20187,0,USKansasStanton,Kansas,Stanton,2021-04-04 10:11:08.330993,2021-03-12 00:00:00.000000,0.08905751,0.24176636,0.63399730,1,4,12,1,3,9,0.06188545,0.17494341,0.47974206,0.06272391,0.20805135,1.49272774
20187,0,USKansasStanton,Kansas,Stanton,2021-04-04 10:11:08.330993,2021-03-13 00:00:00.000000,0.07680571,0.22148462,0.59469420,1,4,11,1,3,8,0.05356469,0.16008073,0.44510687,0.06043014,0.21030830,1.49062503
20187,0,USKansasStanton,Kansas,Stanton,2021-04-04 10:11:08.330993,2021-03-14 00:00:00.000000,0.06618827,0.20295717,0.55794565,1,4,11,0,2,8,0.04631460,0.14675023,0.41270863,0.05415069,0.21417194,1.48047042
20187,0,USKansasStanton,Kansas,Stanton,2021-04-04 10:11:08.330993,2021-03-15 00:00:00.000000,0.05699869,0.18599101,0.52353699,1,3,10,0,2,7,0.04000750,0.13472853,0.38247678,0.05168370,0.21964097,1.45535021
20187,0,USKansasStanton,Kansas,Stanton,2021-04-04 10:11:08.330993,2021-03-16 00:00:00.000000,0.04905381,0.16807999,0.49130678,0,3,9,0,2,7,0.03452892,0.12420427,0.35431392,0.05162226,0.22267069,1.43533694
20187,0,USKansasStanton,Kansas,Stanton,2021-04-04 10:11:08.330993,2021-03-17 00:00:00.000000,0.04219179,0.15192906,0.46113203,0,3,9,0,2,6,0.02977663,0.11295782,0.33054592,0.05161534,0.22570269,1.43142350
20187,0,USKansasStanton,Kansas,Stanton,2021-04-04 10:11:08.330993,2021-03-18 00:00:00.000000,0.03627030,0.13614729,0.43294750,0,2,8,0,2,6,0.02565953,0.10231787,0.30948398,0.05161160,0.23026466,1.43575809
20187,0,USKansasStanton,Kansas,Stanton,2021-04-04 10:11:08.330993,2021-03-19 00:00:00.000000,0.03116454,0.12084511,0.40675127,0,2,8,0,1,5,0.02209682,0.09268568,0.28974051,0.05159640,0.23240770,1.44632987
20187,0,USKansasStanton,Kansas,Stanton,2021-04-04 10:11:08.330993,2021-03-20 00:00:00.000000,0.02676515,0.10726067,0.38249137,0,2,7,0,1,5,0.01929215,0.08396583,0.27124069,0.05146035,0.23028058,1.46410531
20187,0,USKansasStanton,Kansas,Stanton,2021-04-04 10:11:08.330993,2021-03-21 00:00:00.000000,0.02297544,0.09519229,0.35836515,0,1,7,0,1,5,0.01696442,0.07508558,0.25391756,0.05032702,0.22846011,1.48935475
20187,0,USKansasStanton,Kansas,Stanton,2021-04-04 10:11:08.330993,2021-03-22 00:00:00.000000,0.01970892,0.08450146,0.33498279,0,1,6,0,1,4,0.01491467,0.06666966,0.23771815,0.04619101,0.22725379,1.52135479
20187,0,USKansasStanton,Kansas,Stanton,2021-04-04 10:11:08.330993,2021-03-23 00:00:00.000000,0.01689662,0.07584246,0.31308072,0,1,6,0,1,4,0.01310968,0.05964071,0.22261321,0.04602168,0.22740133,1.55679209
20187,0,USKansasStanton,Kansas,Stanton,2021-04-04 10:11:08.330993,2021-03-24 00:00:00.000000,0.01447884,0.06881217,0.29247240,0,1,5,0,1,4,0.01151940,0.05392426,0.20858493,0.04599231,0.22619517,1.58954316
20187,0,USKansasStanton,Kansas,Stanton,2021-04-04 10:11:08.330993,2021-03-25 00:00:00.000000,0.01265830,0.06243348,0.27141097,0,1,5,0,0,3,0.01011743,0.04894823,0.19558428,0.04610315,0.22733165,1.61464061
20187,0,USKansasStanton,Kansas,Stanton,2021-04-04 10:11:08.330993,2021-03-26 00:00:00.000000,0.01109725,0.05664542,0.25068053,0,1,5,0,0,3,0.00888165,0.04442978,0.18352796,0.04664862,0.22875753,1.63014130
20187,0,USKansasStanton,Kansas,Stanton,2021-04-04 10:11:08.330993,2021-03-27 00:00:00.000000,0.00972634,0.05139738,0.23472752,0,1,4,0,0,3,0.00779328,0.04032715,0.17229842,0.04738340,0.22995898,1.63703690
20187,0,USKansasStanton,Kansas,Stanton,2021-04-04 10:11:08.330993,2021-03-28 00:00:00.000000,0.00852350,0.04659774,0.22092216,0,0,4,0,0,3,0.00683572,0.03618226,0.16178634,0.04865043,0.22893892,1.64091585
20187,0,USKansasStanton,Kansas,Stanton,2021-04-04 10:11:08.330993,2021-03-29 00:00:00.000000,0.00746905,0.04224146,0.20808338,0,0,4,0,0,3,0.00599409,0.03240548,0.15199606,0.04886495,0.22840239,1.64358067
20187,0,USKansasStanton,Kansas,Stanton,2021-04-04 10:11:08.330993,2021-03-30 00:00:00.000000,0.00654570,0.03837831,0.19534602,0,0,3,0,0,2,0.00525504,0.02901395,0.14288125,0.04889305,0.22851569,1.64496956
20187,0,USKansasStanton,Kansas,Stanton,2021-04-04 10:11:08.330993,2021-03-31 00:00:00.000000,0.00573817,0.03481511,0.18241990,0,0,3,0,0,2,0.00460674,0.02604649,0.13441699,0.04889587,0.22859071,1.64543201
20187,0,USKansasStanton,Kansas,Stanton,2021-04-04 10:11:08.330993,2021-04-01 00:00:00.000000,0.00503236,0.03157695,0.17009194,0,0,3,0,0,2,0.00403866,0.02361028,0.12659507,0.04889398,0.22881093,1.64527652
20187,0,USKansasStanton,Kansas,Stanton,2021-04-04 10:11:08.330993,2021-04-02 00:00:00.000000,0.00441504,0.02863273,0.15842402,0,0,3,0,0,2,0.00354134,0.02140339,0.11788865,0.04888899,0.22956099,1.64471325
20187,0,USKansasStanton,Kansas,Stanton,2021-04-04 10:11:08.330993,2021-04-03 00:00:00.000000,0.00387454,0.02595833,0.14746052,0,0,2,0,0,2,0.00310610,0.01940469,0.10871370,0.04889493,0.22607430,1.64391915
20187,0,USKansasStanton,Kansas,Stanton,2021-04-04 10:11:08.330993,2021-04-04 00:00:00.000000,0.00340092,0.02353142,0.13719923,0,0,2,0,0,2,0.00272510,0.01759450,0.10020925,0.04906893,0.22359775,1.64307180
20187,0,USKansasStanton,Kansas,Stanton,2021-04-04 10:11:08.330993,2021-04-05 00:00:00.000000,0.00298568,0.02133027,0.12761494,0,0,2,0,0,1,0.00239143,0.01595475,0.09233448,0.05007368,0.22374164,1.64232123
20187,0,USKansasStanton,Kansas,Stanton,2021-04-04 10:11:08.330993,2021-04-06 00:00:00.000000,0.00262149,0.01930655,0.11867422,0,0,2,0,0,1,0.00209907,0.01452087,0.08505010,0.05130398,0.22416388,1.64174342
20187,0,USKansasStanton,Kansas,Stanton,2021-04-04 10:11:08.330993,2021-04-07 00:00:00.000000,0.00230197,0.01742583,0.11030922,0,0,2,0,0,1,0.00184277,0.01328634,0.07831814,0.05163155,0.22477688,1.63908329
20187,0,USKansasStanton,Kansas,Stanton,2021-04-04 10:11:08.330993,2021-04-08 00:00:00.000000,0.00202157,0.01572815,0.10250327,0,0,2,0,0,1,0.00161801,0.01215323,0.07210189,0.05167616,0.22484158,1.63715164
20187,0,USKansasStanton,Kansas,Stanton,2021-04-04 10:11:08.330993,2021-04-09 00:00:00.000000,0.00177546,0.01425221,0.09523751,0,0,1,0,0,1,0.00142084,0.01111415,0.06636603,0.05168154,0.22480133,1.63612550
20187,0,USKansasStanton,Kansas,Stanton,2021-04-04 10:11:08.330993,2021-04-10 00:00:00.000000,0.00155941,0.01288390,0.08847761,0,0,1,0,0,1,0.00124782,0.01016200,0.06107673,0.05168218,0.22475301,1.63559574
20187,0,USKansasStanton,Kansas,Stanton,2021-04-04 10:11:08.330993,2021-04-11 00:00:00.000000,0.00136972,0.01164943,0.08219061,0,0,1,0,0,1,0.00109596,0.00929001,0.05620179,0.05168225,0.22471303,1.63532625
20187,0,USKansasStanton,Kansas,Stanton,2021-04-04 10:11:08.330993,2021-04-12 00:00:00.000000,0.00120316,0.01053550,0.07634515,0,0,1,0,0,1,0.00096265,0.00849183,0.05171076,0.05168226,0.22468234,1.63519016
20187,0,USKansasStanton,Kansas,Stanton,2021-04-04 10:11:08.330993,2021-04-13 00:00:00.000000,0.00105689,0.00953014,0.07091147,0,0,1,0,0,0,0.00084561,0.00776147,0.04757495,0.05168226,0.22465930,1.63512168
20187,0,USKansasStanton,Kansas,Stanton,2021-04-04 10:11:08.330993,2021-04-14 00:00:00.000000,0.00092844,0.00862258,0.06586154,0,0,1,0,0,0,0.00074283,0.00709337,0.04374737,0.05168226,0.22464213,1.63508728
20187,0,USKansasStanton,Kansas,Stanton,2021-04-04 10:11:08.330993,2021-04-15 00:00:00.000000,0.00081562,0.00781153,0.06116898,0,0,1,0,0,0,0.00065257,0.00640924,0.04022144,0.05168226,0.22462938,1.63507001
20187,0,USKansasStanton,Kansas,Stanton,2021-04-04 10:11:08.330993,2021-04-16 00:00:00.000000,0.00071653,0.00715493,0.05680905,0,0,1,0,0,0,0.00057330,0.00577931,0.03697737,0.05168226,0.22461992,1.63506134
