FIPS,HR_UID,nameid,province,region,analysisTime,dates,pointprevalence_025,pointprevalence_50,pointprevalence_975,pointinfections_025,pointinfections_50,pointinfections_975,pointinfectious_025,pointinfectious_50,pointinfectious_975,pointinfectiousprevalence_05,pointinfectiousprevalence_50,pointinfectiousprevalence_95,infectrate_025,infectrate_50,infectrate_975
0,0,ChinaJiangsu,Jiangsu,,2021-04-04 00:44:33.469924,2020-03-09 00:00:00.000000,0.00000392,0.00001227,0.00002927,3,9,23,1,5,12,0.00000179,0.00000657,0.00001499,0.43506957,0.53857133,0.83111513
0,0,ChinaJiangsu,Jiangsu,,2021-04-04 00:44:33.469924,2020-03-10 00:00:00.000000,0.00000429,0.00001304,0.00003090,3,10,24,1,5,12,0.00000202,0.00000682,0.00001526,0.43506957,0.53857120,0.83111448
0,0,ChinaJiangsu,Jiangsu,,2021-04-04 00:44:33.469924,2020-03-11 00:00:00.000000,0.00000468,0.00001426,0.00003234,3,11,26,1,5,13,0.00000225,0.00000695,0.00001628,0.43506957,0.53857080,0.83111335
0,0,ChinaJiangsu,Jiangsu,,2021-04-04 00:44:33.469924,2020-03-12 00:00:00.000000,0.00000508,0.00001530,0.00003394,4,12,27,1,5,14,0.00000247,0.00000721,0.00001745,0.43506953,0.53856958,0.83111080
0,0,ChinaJiangsu,Jiangsu,,2021-04-04 00:44:33.469924,2020-03-13 00:00:00.000000,0.00000551,0.00001630,0.00003613,4,13,29,2,6,15,0.00000274,0.00000789,0.00001890,0.43506937,0.53856583,0.83110327
0,0,ChinaJiangsu,Jiangsu,,2021-04-04 00:44:33.469924,2020-03-14 00:00:00.000000,0.00000595,0.00001754,0.00003962,4,14,31,2,6,16,0.00000297,0.00000848,0.00002036,0.43506858,0.53855421,0.83107675
0,0,ChinaJiangsu,Jiangsu,,2021-04-04 00:44:33.469924,2020-03-15 00:00:00.000000,0.00000661,0.00001876,0.00004306,5,15,34,2,7,17,0.00000314,0.00000921,0.00002190,0.43506484,0.53851769,0.83097518
0,0,ChinaJiangsu,Jiangsu,,2021-04-04 00:44:33.469924,2020-03-16 00:00:00.000000,0.00001851,0.00003084,0.00005421,14,24,43,2,8,18,0.00000333,0.00001003,0.00002351,0.43464246,0.53755098,0.83057235
0,0,ChinaJiangsu,Jiangsu,,2021-04-04 00:44:33.469924,2020-03-17 00:00:00.000000,0.00002844,0.00004282,0.00006487,22,34,52,5,10,21,0.00000660,0.00001351,0.00002630,0.43208379,0.53429455,0.82895685
0,0,ChinaJiangsu,Jiangsu,,2021-04-04 00:44:33.469924,2020-03-18 00:00:00.000000,0.00003734,0.00005450,0.00007887,30,43,63,8,15,24,0.00001109,0.00001908,0.00003058,0.42214492,0.53194247,0.82253999
0,0,ChinaJiangsu,Jiangsu,,2021-04-04 00:44:33.469924,2020-03-19 00:00:00.000000,0.00004836,0.00006775,0.00009337,38,54,75,13,20,30,0.00001655,0.00002516,0.00003753,0.39651203,0.51812454,0.79854206
0,0,ChinaJiangsu,Jiangsu,,2021-04-04 00:44:33.469924,2020-03-20 00:00:00.000000,0.00005993,0.00007948,0.00011019,48,63,88,18,25,38,0.00002260,0.00003210,0.00004814,0.30138090,0.50366218,0.76688331
0,0,ChinaJiangsu,Jiangsu,,2021-04-04 00:44:33.469924,2020-03-21 00:00:00.000000,0.00007061,0.00009582,0.00013135,56,77,105,22,31,45,0.00002789,0.00003944,0.00005684,0.29152406,0.48124404,0.71561022
0,0,ChinaJiangsu,Jiangsu,,2021-04-04 00:44:33.469924,2020-03-22 00:00:00.000000,0.00008078,0.00011022,0.00014842,65,88,119,27,38,52,0.00003430,0.00004749,0.00006575,0.26717347,0.44408698,0.67962678
0,0,ChinaJiangsu,Jiangsu,,2021-04-04 00:44:33.469924,2020-03-23 00:00:00.000000,0.00008607,0.00011824,0.00016220,69,95,130,31,45,62,0.00003912,0.00005614,0.00007715,0.25966371,0.40586068,0.61496958
0,0,ChinaJiangsu,Jiangsu,,2021-04-04 00:44:33.469924,2020-03-24 00:00:00.000000,0.00009287,0.00012518,0.00017190,74,100,138,34,49,68,0.00004281,0.00006188,0.00008559,0.24904158,0.37815576,0.57907643
0,0,ChinaJiangsu,Jiangsu,,2021-04-04 00:44:33.469924,2020-03-25 00:00:00.000000,0.00009872,0.00012922,0.00018187,79,104,146,38,53,74,0.00004781,0.00006706,0.00009198,0.24560781,0.33143073,0.52431716
0,0,ChinaJiangsu,Jiangsu,,2021-04-04 00:44:33.469924,2020-03-26 00:00:00.000000,0.00010212,0.00013339,0.00018511,82,107,149,41,56,80,0.00005151,0.00007014,0.00010000,0.21078869,0.30745608,0.47128936
0,0,ChinaJiangsu,Jiangsu,,2021-04-04 00:44:33.469924,2020-03-27 00:00:00.000000,0.00010417,0.00013582,0.00018325,83,109,147,42,58,84,0.00005259,0.00007284,0.00010493,0.18702038,0.26846214,0.39038693
0,0,ChinaJiangsu,Jiangsu,,2021-04-04 00:44:33.469924,2020-03-28 00:00:00.000000,0.00010425,0.00013553,0.00017950,83,109,144,42,60,87,0.00005321,0.00007538,0.00010811,0.17673996,0.23815627,0.34938678
0,0,ChinaJiangsu,Jiangsu,,2021-04-04 00:44:33.469924,2020-03-29 00:00:00.000000,0.00009989,0.00013518,0.00017561,80,108,141,43,61,89,0.00005431,0.00007646,0.00011095,0.15767322,0.21504027,0.33487240
0,0,ChinaJiangsu,Jiangsu,,2021-04-04 00:44:33.469924,2020-03-30 00:00:00.000000,0.00009687,0.00013270,0.00017535,77,106,141,43,61,90,0.00005453,0.00007633,0.00011269,0.14154599,0.20402177,0.29601746
0,0,ChinaJiangsu,Jiangsu,,2021-04-04 00:44:33.469924,2020-03-31 00:00:00.000000,0.00009253,0.00013064,0.00017420,74,105,140,43,60,91,0.00005392,0.00007567,0.00011364,0.13427535,0.19365663,0.28115284
0,0,ChinaJiangsu,Jiangsu,,2021-04-04 00:44:33.469924,2020-04-01 00:00:00.000000,0.00008976,0.00012808,0.00017231,72,103,138,41,59,91,0.00005190,0.00007426,0.00011398,0.12435267,0.18406072,0.27232656
0,0,ChinaJiangsu,Jiangsu,,2021-04-04 00:44:33.469924,2020-04-02 00:00:00.000000,0.00008809,0.00012311,0.00016844,70,99,135,39,58,91,0.00004926,0.00007296,0.00011364,0.12005454,0.17659356,0.25315477
0,0,ChinaJiangsu,Jiangsu,,2021-04-04 00:44:33.469924,2020-04-03 00:00:00.000000,0.00008465,0.00011714,0.00016299,68,94,131,37,56,90,0.00004663,0.00007035,0.00011234,0.11501077,0.16146891,0.23251295
0,0,ChinaJiangsu,Jiangsu,,2021-04-04 00:44:33.469924,2020-04-04 00:00:00.000000,0.00008048,0.00011203,0.00015875,64,90,127,36,54,87,0.00004497,0.00006830,0.00010892,0.10577551,0.15180502,0.20770574
0,0,ChinaJiangsu,Jiangsu,,2021-04-04 00:44:33.469924,2020-04-05 00:00:00.000000,0.00007568,0.00010648,0.00015610,60,85,125,34,52,84,0.00004244,0.00006499,0.00010485,0.09097141,0.14315602,0.18870551
0,0,ChinaJiangsu,Jiangsu,,2021-04-04 00:44:33.469924,2020-04-06 00:00:00.000000,0.00007161,0.00010080,0.00015141,57,81,121,31,50,81,0.00003969,0.00006230,0.00010069,0.08857642,0.13694749,0.18752821
0,0,ChinaJiangsu,Jiangsu,,2021-04-04 00:44:33.469924,2020-04-07 00:00:00.000000,0.00006660,0.00009496,0.00014651,53,76,117,29,47,78,0.00003690,0.00005944,0.00009732,0.08528982,0.13556941,0.18457877
0,0,ChinaJiangsu,Jiangsu,,2021-04-04 00:44:33.469924,2020-04-08 00:00:00.000000,0.00006143,0.00009070,0.00014137,49,73,113,27,45,76,0.00003417,0.00005657,0.00009447,0.08324739,0.13272179,0.18049153
0,0,ChinaJiangsu,Jiangsu,,2021-04-04 00:44:33.469924,2020-04-09 00:00:00.000000,0.00005658,0.00008547,0.00013550,45,68,109,25,42,74,0.00003158,0.00005303,0.00009195,0.08224205,0.13040594,0.17201061
0,0,ChinaJiangsu,Jiangsu,,2021-04-04 00:44:33.469924,2020-04-10 00:00:00.000000,0.00005208,0.00008039,0.00012840,41,64,103,23,39,71,0.00002917,0.00004955,0.00008889,0.07350976,0.12364946,0.16542385
0,0,ChinaJiangsu,Jiangsu,,2021-04-04 00:44:33.469924,2020-04-11 00:00:00.000000,0.00004795,0.00007568,0.00012098,38,60,97,21,38,68,0.00002695,0.00004725,0.00008528,0.07258614,0.11985097,0.16034032
0,0,ChinaJiangsu,Jiangsu,,2021-04-04 00:44:33.469924,2020-04-12 00:00:00.000000,0.00004450,0.00007105,0.00011379,35,57,91,20,35,65,0.00002493,0.00004385,0.00008168,0.07149184,0.11532190,0.15799346
0,0,ChinaJiangsu,Jiangsu,,2021-04-04 00:44:33.469924,2020-04-13 00:00:00.000000,0.00004127,0.00006593,0.00010501,33,53,84,18,32,62,0.00002333,0.00004052,0.00007806,0.07091945,0.11189479,0.15783546
0,0,ChinaJiangsu,Jiangsu,,2021-04-04 00:44:33.469924,2020-04-14 00:00:00.000000,0.00003715,0.00006035,0.00009869,29,48,79,17,30,59,0.00002182,0.00003743,0.00007416,0.07010150,0.10963581,0.15369742
0,0,ChinaJiangsu,Jiangsu,,2021-04-04 00:44:33.469924,2020-04-15 00:00:00.000000,0.00003264,0.00005520,0.00009258,26,44,74,16,27,56,0.00002031,0.00003454,0.00007013,0.06879899,0.10906388,0.15359017
0,0,ChinaJiangsu,Jiangsu,,2021-04-04 00:44:33.469924,2020-04-16 00:00:00.000000,0.00002940,0.00005064,0.00008763,23,40,70,15,25,53,0.00001866,0.00003178,0.00006611,0.06794994,0.10608709,0.14633458
0,0,ChinaJiangsu,Jiangsu,,2021-04-04 00:44:33.469924,2020-04-17 00:00:00.000000,0.00002640,0.00004653,0.00008264,21,37,66,13,23,50,0.00001669,0.00002873,0.00006217,0.06825232,0.10351826,0.14233558
0,0,ChinaJiangsu,Jiangsu,,2021-04-04 00:44:33.469924,2020-04-18 00:00:00.000000,0.00002358,0.00004271,0.00007681,18,34,61,11,20,46,0.00001484,0.00002594,0.00005835,0.06920864,0.09959758,0.14311154
0,0,ChinaJiangsu,Jiangsu,,2021-04-04 00:44:33.469924,2020-04-19 00:00:00.000000,0.00002096,0.00003916,0.00007086,16,31,57,10,19,44,0.00001315,0.00002366,0.00005469,0.06542122,0.09901427,0.14304658
0,0,ChinaJiangsu,Jiangsu,,2021-04-04 00:44:33.469924,2020-04-20 00:00:00.000000,0.00001857,0.00003566,0.00006610,14,28,53,9,17,41,0.00001161,0.00002158,0.00005119,0.06444842,0.09802845,0.14847901
0,0,ChinaJiangsu,Jiangsu,,2021-04-04 00:44:33.469924,2020-04-21 00:00:00.000000,0.00001642,0.00003215,0.00006163,13,25,49,8,15,38,0.00001035,0.00001967,0.00004785,0.05706675,0.09670794,0.14128890
0,0,ChinaJiangsu,Jiangsu,,2021-04-04 00:44:33.469924,2020-04-22 00:00:00.000000,0.00001450,0.00002859,0.00005743,11,23,46,7,14,35,0.00000928,0.00001793,0.00004468,0.05559582,0.09518065,0.13934348
0,0,ChinaJiangsu,Jiangsu,,2021-04-04 00:44:33.469924,2020-04-23 00:00:00.000000,0.00001279,0.00002560,0.00005351,10,20,43,6,13,33,0.00000830,0.00001635,0.00004170,0.05524634,0.09291823,0.13984783
0,0,ChinaJiangsu,Jiangsu,,2021-04-04 00:44:33.469924,2020-04-24 00:00:00.000000,0.00001127,0.00002348,0.00004984,9,18,40,5,11,31,0.00000740,0.00001488,0.00003889,0.05512995,0.09360894,0.13796236
0,0,ChinaJiangsu,Jiangsu,,2021-04-04 00:44:33.469924,2020-04-25 00:00:00.000000,0.00000994,0.00002084,0.00004641,7,16,37,5,10,29,0.00000658,0.00001342,0.00003626,0.05509002,0.09049100,0.14380817
0,0,ChinaJiangsu,Jiangsu,,2021-04-04 00:44:33.469924,2020-04-26 00:00:00.000000,0.00000876,0.00001881,0.00004319,7,15,34,4,9,27,0.00000581,0.00001211,0.00003379,0.05511066,0.08996556,0.14883126
0,0,ChinaJiangsu,Jiangsu,,2021-04-04 00:44:33.469924,2020-04-27 00:00:00.000000,0.00000768,0.00001699,0.00004016,6,13,32,4,8,25,0.00000513,0.00001095,0.00003147,0.05518306,0.08781893,0.15234304
0,0,ChinaJiangsu,Jiangsu,,2021-04-04 00:44:33.469924,2020-04-28 00:00:00.000000,0.00000663,0.00001529,0.00003729,5,12,30,3,7,23,0.00000452,0.00000993,0.00002930,0.05503217,0.08490177,0.15077652
0,0,ChinaJiangsu,Jiangsu,,2021-04-04 00:44:33.469924,2020-04-29 00:00:00.000000,0.00000573,0.00001375,0.00003458,4,11,27,3,7,21,0.00000399,0.00000900,0.00002725,0.05475550,0.08424404,0.15342868
0,0,ChinaJiangsu,Jiangsu,,2021-04-04 00:44:33.469924,2020-04-30 00:00:00.000000,0.00000494,0.00001231,0.00003205,3,9,25,2,6,20,0.00000345,0.00000816,0.00002521,0.05424815,0.08241380,0.15362086
0,0,ChinaJiangsu,Jiangsu,,2021-04-04 00:44:33.469924,2020-05-01 00:00:00.000000,0.00000426,0.00001104,0.00002973,3,8,23,2,5,18,0.00000298,0.00000738,0.00002304,0.05334697,0.08323926,0.15093202
0,0,ChinaJiangsu,Jiangsu,,2021-04-04 00:44:33.469924,2020-05-02 00:00:00.000000,0.00000372,0.00000989,0.00002759,2,7,22,2,5,16,0.00000260,0.00000666,0.00002102,0.05193844,0.08096112,0.14858639
0,0,ChinaJiangsu,Jiangsu,,2021-04-04 00:44:33.469924,2020-05-03 00:00:00.000000,0.00000324,0.00000887,0.00002561,2,7,20,1,4,15,0.00000229,0.00000595,0.00001913,0.05025422,0.07960952,0.14717713
0,0,ChinaJiangsu,Jiangsu,,2021-04-04 00:44:33.469924,2020-05-04 00:00:00.000000,0.00000282,0.00000797,0.00002335,2,6,18,1,4,14,0.00000202,0.00000530,0.00001739,0.04859350,0.07896478,0.14614444
0,0,ChinaJiangsu,Jiangsu,,2021-04-04 00:44:33.469924,2020-05-05 00:00:00.000000,0.00000246,0.00000715,0.00002124,1,5,17,1,3,13,0.00000178,0.00000471,0.00001631,0.04831869,0.07678943,0.14497728
0,0,ChinaJiangsu,Jiangsu,,2021-04-04 00:44:33.469924,2020-05-06 00:00:00.000000,0.00000213,0.00000641,0.00002012,1,5,16,1,3,12,0.00000157,0.00000422,0.00001545,0.04758233,0.07496853,0.14342878
0,0,ChinaJiangsu,Jiangsu,,2021-04-04 00:44:33.469924,2020-05-07 00:00:00.000000,0.00000185,0.00000575,0.00001906,1,4,15,1,3,11,0.00000138,0.00000376,0.00001464,0.04686952,0.07541814,0.14149844
0,0,ChinaJiangsu,Jiangsu,,2021-04-04 00:44:33.469924,2020-05-08 00:00:00.000000,0.00000160,0.00000516,0.00001773,1,4,14,0,2,11,0.00000120,0.00000336,0.00001386,0.04714678,0.07390365,0.13939947
0,0,ChinaJiangsu,Jiangsu,,2021-04-04 00:44:33.469924,2020-05-09 00:00:00.000000,0.00000137,0.00000460,0.00001650,1,3,13,0,2,10,0.00000103,0.00000301,0.00001302,0.04548539,0.07186734,0.13744208
0,0,ChinaJiangsu,Jiangsu,,2021-04-04 00:44:33.469924,2020-05-10 00:00:00.000000,0.00000117,0.00000409,0.00001538,0,3,12,0,2,9,0.00000088,0.00000269,0.00001211,0.04254770,0.07036550,0.13585566
0,0,ChinaJiangsu,Jiangsu,,2021-04-04 00:44:33.469924,2020-05-11 00:00:00.000000,0.00000099,0.00000364,0.00001436,0,2,11,0,1,9,0.00000075,0.00000240,0.00001127,0.04137988,0.07047826,0.14124646
0,0,ChinaJiangsu,Jiangsu,,2021-04-04 00:44:33.469924,2020-05-12 00:00:00.000000,0.00000084,0.00000324,0.00001344,0,2,10,0,1,8,0.00000064,0.00000215,0.00001050,0.04061016,0.06938365,0.13779012
0,0,ChinaJiangsu,Jiangsu,,2021-04-04 00:44:33.469924,2020-05-13 00:00:00.000000,0.00000072,0.00000289,0.00001258,0,2,10,0,1,7,0.00000054,0.00000193,0.00000979,0.03927310,0.06939795,0.13417476
0,0,ChinaJiangsu,Jiangsu,,2021-04-04 00:44:33.469924,2020-05-14 00:00:00.000000,0.00000061,0.00000259,0.00001179,0,2,9,0,1,7,0.00000046,0.00000173,0.00000902,0.03889310,0.06949718,0.13558028
0,0,ChinaJiangsu,Jiangsu,,2021-04-04 00:44:33.469924,2020-05-15 00:00:00.000000,0.00000052,0.00000235,0.00001099,0,1,8,0,1,6,0.00000039,0.00000155,0.00000820,0.03816714,0.06743616,0.14406457
0,0,ChinaJiangsu,Jiangsu,,2021-04-04 00:44:33.469924,2020-05-16 00:00:00.000000,0.00000044,0.00000214,0.00001031,0,1,8,0,1,5,0.00000033,0.00000139,0.00000744,0.03736071,0.06632850,0.15154421
0,0,ChinaJiangsu,Jiangsu,,2021-04-04 00:44:33.469924,2020-05-17 00:00:00.000000,0.00000037,0.00000195,0.00000962,0,1,7,0,0,5,0.00000028,0.00000124,0.00000674,0.03686113,0.06491171,0.16167817
0,0,ChinaJiangsu,Jiangsu,,2021-04-04 00:44:33.469924,2020-05-18 00:00:00.000000,0.00000031,0.00000173,0.00000896,0,1,7,0,0,4,0.00000024,0.00000112,0.00000612,0.03657405,0.06574470,0.16664041
0,0,ChinaJiangsu,Jiangsu,,2021-04-04 00:44:33.469924,2020-05-19 00:00:00.000000,0.00000027,0.00000151,0.00000835,0,1,6,0,0,4,0.00000020,0.00000100,0.00000581,0.03605881,0.06532675,0.16803697
0,0,ChinaJiangsu,Jiangsu,,2021-04-04 00:44:33.469924,2020-05-20 00:00:00.000000,0.00000023,0.00000131,0.00000778,0,1,6,0,0,4,0.00000017,0.00000090,0.00000551,0.03580920,0.06501884,0.16952267
0,0,ChinaJiangsu,Jiangsu,,2021-04-04 00:44:33.469924,2020-05-21 00:00:00.000000,0.00000020,0.00000116,0.00000725,0,0,5,0,0,4,0.00000015,0.00000082,0.00000523,0.03561705,0.06372134,0.16393677
0,0,ChinaJiangsu,Jiangsu,,2021-04-04 00:44:33.469924,2020-05-22 00:00:00.000000,0.00000017,0.00000102,0.00000675,0,0,5,0,0,3,0.00000012,0.00000074,0.00000495,0.03536776,0.06051190,0.14728072
0,0,ChinaJiangsu,Jiangsu,,2021-04-04 00:44:33.469924,2020-05-23 00:00:00.000000,0.00000015,0.00000090,0.00000630,0,0,5,0,0,3,0.00000010,0.00000067,0.00000470,0.03498864,0.05897547,0.16528258
0,0,ChinaJiangsu,Jiangsu,,2021-04-04 00:44:33.469924,2020-05-24 00:00:00.000000,0.00000013,0.00000080,0.00000587,0,0,4,0,0,3,0.00000009,0.00000059,0.00000447,0.03448364,0.05848322,0.16289232
0,0,ChinaJiangsu,Jiangsu,,2021-04-04 00:44:33.469924,2020-05-25 00:00:00.000000,0.00000011,0.00000072,0.00000547,0,0,4,0,0,3,0.00000008,0.00000052,0.00000425,0.03391689,0.05867452,0.15886034
0,0,ChinaJiangsu,Jiangsu,,2021-04-04 00:44:33.469924,2020-05-26 00:00:00.000000,0.00000010,0.00000064,0.00000510,0,0,4,0,0,3,0.00000007,0.00000045,0.00000398,0.03361200,0.05917940,0.14397780
0,0,ChinaJiangsu,Jiangsu,,2021-04-04 00:44:33.469924,2020-05-27 00:00:00.000000,0.00000008,0.00000057,0.00000475,0,0,3,0,0,2,0.00000006,0.00000040,0.00000371,0.03352803,0.05825010,0.13766395
0,0,ChinaJiangsu,Jiangsu,,2021-04-04 00:44:33.469924,2020-05-28 00:00:00.000000,0.00000007,0.00000051,0.00000443,0,0,3,0,0,2,0.00000005,0.00000036,0.00000346,0.03343350,0.05853332,0.13673004
0,0,ChinaJiangsu,Jiangsu,,2021-04-04 00:44:33.469924,2020-05-29 00:00:00.000000,0.00000006,0.00000046,0.00000412,0,0,3,0,0,2,0.00000004,0.00000032,0.00000322,0.03322101,0.05838082,0.13547688
0,0,ChinaJiangsu,Jiangsu,,2021-04-04 00:44:33.469924,2020-05-30 00:00:00.000000,0.00000005,0.00000041,0.00000383,0,0,3,0,0,2,0.00000004,0.00000029,0.00000300,0.03272380,0.05814535,0.13942488
0,0,ChinaJiangsu,Jiangsu,,2021-04-04 00:44:33.469924,2020-05-31 00:00:00.000000,0.00000005,0.00000036,0.00000356,0,0,2,0,0,2,0.00000003,0.00000025,0.00000280,0.03306478,0.05845569,0.14359033
0,0,ChinaJiangsu,Jiangsu,,2021-04-04 00:44:33.469924,2020-06-01 00:00:00.000000,0.00000004,0.00000031,0.00000331,0,0,2,0,0,2,0.00000003,0.00000023,0.00000260,0.03342052,0.05825033,0.14723063
0,0,ChinaJiangsu,Jiangsu,,2021-04-04 00:44:33.469924,2020-06-02 00:00:00.000000,0.00000004,0.00000028,0.00000308,0,0,2,0,0,1,0.00000002,0.00000020,0.00000242,0.03181122,0.05796993,0.14945282
0,0,ChinaJiangsu,Jiangsu,,2021-04-04 00:44:33.469924,2020-06-03 00:00:00.000000,0.00000003,0.00000024,0.00000286,0,0,2,0,0,1,0.00000002,0.00000018,0.00000225,0.02930534,0.05756485,0.14907902
0,0,ChinaJiangsu,Jiangsu,,2021-04-04 00:44:33.469924,2020-06-04 00:00:00.000000,0.00000002,0.00000021,0.00000265,0,0,2,0,0,1,0.00000002,0.00000016,0.00000209,0.02739050,0.05584819,0.15159436
0,0,ChinaJiangsu,Jiangsu,,2021-04-04 00:44:33.469924,2020-06-05 00:00:00.000000,0.00000002,0.00000019,0.00000246,0,0,1,0,0,1,0.00000002,0.00000014,0.00000194,0.02655072,0.05516068,0.15156012
0,0,ChinaJiangsu,Jiangsu,,2021-04-04 00:44:33.469924,2020-06-06 00:00:00.000000,0.00000002,0.00000017,0.00000228,0,0,1,0,0,1,0.00000001,0.00000012,0.00000180,0.02632954,0.05455061,0.14601785
0,0,ChinaJiangsu,Jiangsu,,2021-04-04 00:44:33.469924,2020-06-07 00:00:00.000000,0.00000001,0.00000015,0.00000212,0,0,1,0,0,1,0.00000001,0.00000011,0.00000167,0.02604701,0.05338521,0.12731524
0,0,ChinaJiangsu,Jiangsu,,2021-04-04 00:44:33.469924,2020-06-08 00:00:00.000000,0.00000075,0.00000216,0.00000417,0,1,3,0,0,1,0.00000001,0.00000009,0.00000155,0.02538410,0.05201565,0.12290870
0,0,ChinaJiangsu,Jiangsu,,2021-04-04 00:44:33.469924,2020-06-09 00:00:00.000000,0.00000133,0.00000398,0.00000730,1,3,5,0,0,1,0.00000028,0.00000070,0.00000169,0.02512902,0.05059377,0.12285665
0,0,ChinaJiangsu,Jiangsu,,2021-04-04 00:44:33.469924,2020-06-10 00:00:00.000000,0.00000192,0.00000577,0.00001086,1,4,8,0,1,2,0.00000057,0.00000144,0.00000304,0.02488145,0.05036391,0.12280638
0,0,ChinaJiangsu,Jiangsu,,2021-04-04 00:44:33.469924,2020-06-11 00:00:00.000000,0.00000249,0.00000728,0.00001432,2,5,11,0,1,3,0.00000089,0.00000231,0.00000439,0.02425897,0.04953988,0.12271661
0,0,ChinaJiangsu,Jiangsu,,2021-04-04 00:44:33.469924,2020-06-12 00:00:00.000000,0.00000302,0.00000876,0.00001759,2,7,14,0,2,4,0.00000122,0.00000322,0.00000614,0.02388232,0.04888932,0.12271257
0,0,ChinaJiangsu,Jiangsu,,2021-04-04 00:44:33.469924,2020-06-13 00:00:00.000000,0.00000352,0.00001012,0.00002064,2,8,16,1,3,6,0.00000154,0.00000413,0.00000783,0.02330305,0.04715263,0.12321006
0,0,ChinaJiangsu,Jiangsu,,2021-04-04 00:44:33.469924,2020-06-14 00:00:00.000000,0.00000397,0.00001142,0.00002343,3,9,18,1,4,7,0.00000185,0.00000501,0.00000948,0.02277693,0.04531728,0.12513294
0,0,ChinaJiangsu,Jiangsu,,2021-04-04 00:44:33.469924,2020-06-15 00:00:00.000000,0.00000574,0.00001349,0.00002458,4,10,19,1,4,8,0.00000212,0.00000582,0.00001088,0.02246222,0.04370782,0.12966426
0,0,ChinaJiangsu,Jiangsu,,2021-04-04 00:44:33.469924,2020-06-16 00:00:00.000000,0.00000642,0.00001529,0.00002554,5,12,20,2,5,9,0.00000292,0.00000669,0.00001177,0.02231751,0.04373633,0.13158893
0,0,ChinaJiangsu,Jiangsu,,2021-04-04 00:44:33.469924,2020-06-17 00:00:00.000000,0.00000695,0.00001680,0.00002985,5,13,24,2,6,10,0.00000350,0.00000762,0.00001284,0.02224620,0.04295573,0.13188541
0,0,ChinaJiangsu,Jiangsu,,2021-04-04 00:44:33.469924,2020-06-18 00:00:00.000000,0.00000744,0.00001770,0.00003280,5,14,26,3,7,11,0.00000387,0.00000876,0.00001376,0.02218303,0.04266009,0.13251201
0,0,ChinaJiangsu,Jiangsu,,2021-04-04 00:44:33.469924,2020-06-19 00:00:00.000000,0.00000788,0.00001861,0.00003644,6,14,29,3,7,12,0.00000440,0.00000979,0.00001585,0.02205569,0.04217734,0.13372899
0,0,ChinaJiangsu,Jiangsu,,2021-04-04 00:44:33.469924,2020-06-20 00:00:00.000000,0.00000828,0.00001904,0.00004051,6,15,32,3,8,14,0.00000448,0.00000995,0.00001763,0.02041525,0.04275805,0.13394254
0,0,ChinaJiangsu,Jiangsu,,2021-04-04 00:44:33.469924,2020-06-21 00:00:00.000000,0.00000801,0.00001949,0.00004416,6,15,35,3,8,15,0.00000453,0.00001036,0.00001942,0.01908758,0.04266150,0.12179365
0,0,ChinaJiangsu,Jiangsu,,2021-04-04 00:44:33.469924,2020-06-22 00:00:00.000000,0.00000708,0.00001798,0.00004145,5,14,33,3,8,16,0.00000457,0.00001077,0.00002107,0.01735596,0.04095405,0.11524980
0,0,ChinaJiangsu,Jiangsu,,2021-04-04 00:44:33.469924,2020-06-23 00:00:00.000000,0.00000622,0.00001638,0.00003836,5,13,30,3,8,17,0.00000438,0.00001038,0.00002122,0.01696907,0.04046735,0.11263247
0,0,ChinaJiangsu,Jiangsu,,2021-04-04 00:44:33.469924,2020-06-24 00:00:00.000000,0.00000543,0.00001507,0.00003489,4,12,28,3,7,16,0.00000405,0.00000968,0.00002053,0.01681289,0.04034643,0.11196607
0,0,ChinaJiangsu,Jiangsu,,2021-04-04 00:44:33.469924,2020-06-25 00:00:00.000000,0.00000472,0.00001354,0.00003131,3,10,25,2,7,15,0.00000364,0.00000882,0.00001938,0.01591604,0.04082185,0.11227728
0,0,ChinaJiangsu,Jiangsu,,2021-04-04 00:44:33.469924,2020-06-26 00:00:00.000000,0.00000409,0.00001207,0.00002729,3,9,21,2,6,14,0.00000318,0.00000819,0.00001800,0.01531465,0.04201131,0.11403595
0,0,ChinaJiangsu,Jiangsu,,2021-04-04 00:44:33.469924,2020-06-27 00:00:00.000000,0.00000354,0.00001099,0.00002369,2,8,19,2,6,13,0.00000276,0.00000755,0.00001653,0.01538055,0.04205251,0.11426581
0,0,ChinaJiangsu,Jiangsu,,2021-04-04 00:44:33.469924,2020-06-28 00:00:00.000000,0.00000306,0.00000989,0.00002132,2,7,17,1,5,11,0.00000239,0.00000689,0.00001448,0.01552487,0.04158736,0.11513192
0,0,ChinaJiangsu,Jiangsu,,2021-04-04 00:44:33.469924,2020-06-29 00:00:00.000000,0.00000267,0.00000869,0.00001888,2,6,15,1,4,10,0.00000207,0.00000610,0.00001300,0.01560973,0.04142373,0.11564316
0,0,ChinaJiangsu,Jiangsu,,2021-04-04 00:44:33.469924,2020-06-30 00:00:00.000000,0.00000239,0.00000763,0.00001644,1,6,13,1,4,9,0.00000179,0.00000538,0.00001182,0.01553684,0.04174567,0.11583441
0,0,ChinaJiangsu,Jiangsu,,2021-04-04 00:44:33.469924,2020-07-01 00:00:00.000000,0.00000205,0.00000672,0.00001427,1,5,11,1,3,8,0.00000154,0.00000479,0.00001072,0.01529253,0.04144044,0.11585241
0,0,ChinaJiangsu,Jiangsu,,2021-04-04 00:44:33.469924,2020-07-02 00:00:00.000000,0.00000176,0.00000586,0.00001260,1,4,10,1,3,7,0.00000133,0.00000426,0.00000971,0.01489105,0.03971697,0.11571620
0,0,ChinaJiangsu,Jiangsu,,2021-04-04 00:44:33.469924,2020-07-03 00:00:00.000000,0.00000151,0.00000527,0.00001126,1,4,9,0,3,7,0.00000114,0.00000380,0.00000879,0.01443013,0.03951848,0.11537889
0,0,ChinaJiangsu,Jiangsu,,2021-04-04 00:44:33.469924,2020-07-04 00:00:00.000000,0.00000129,0.00000471,0.00001004,1,3,8,0,2,6,0.00000098,0.00000334,0.00000794,0.01449904,0.03948645,0.11473698
0,0,ChinaJiangsu,Jiangsu,,2021-04-04 00:44:33.469924,2020-07-05 00:00:00.000000,0.00000110,0.00000406,0.00000892,0,3,7,0,2,5,0.00000085,0.00000296,0.00000710,0.01481685,0.03951653,0.11306629
0,0,ChinaJiangsu,Jiangsu,,2021-04-04 00:44:33.469924,2020-07-06 00:00:00.000000,0.00000177,0.00000556,0.00001132,1,4,9,0,2,5,0.00000073,0.00000258,0.00000634,0.01558505,0.03962077,0.11109182
0,0,ChinaJiangsu,Jiangsu,,2021-04-04 00:44:33.469924,2020-07-07 00:00:00.000000,0.00000230,0.00000647,0.00001500,1,5,12,0,2,5,0.00000098,0.00000284,0.00000630,0.01434514,0.04003001,0.10973442
0,0,ChinaJiangsu,Jiangsu,,2021-04-04 00:44:33.469924,2020-07-08 00:00:00.000000,0.00000284,0.00000758,0.00001968,2,6,15,0,2,6,0.00000113,0.00000340,0.00000758,0.01392685,0.03916087,0.10884312
0,0,ChinaJiangsu,Jiangsu,,2021-04-04 00:44:33.469924,2020-07-09 00:00:00.000000,0.00000320,0.00000849,0.00002389,2,6,19,1,3,7,0.00000136,0.00000384,0.00000883,0.01403483,0.03797567,0.10821553
0,0,ChinaJiangsu,Jiangsu,,2021-04-04 00:44:33.469924,2020-07-10 00:00:00.000000,0.00000331,0.00000925,0.00002861,2,7,23,1,3,8,0.00000153,0.00000433,0.00001058,0.01425494,0.03798614,0.10766078
0,0,ChinaJiangsu,Jiangsu,,2021-04-04 00:44:33.469924,2020-07-11 00:00:00.000000,0.00000342,0.00000997,0.00003271,2,8,26,1,3,10,0.00000168,0.00000465,0.00001305,0.01354858,0.03760069,0.10700830
0,0,ChinaJiangsu,Jiangsu,,2021-04-04 00:44:33.469924,2020-07-12 00:00:00.000000,0.00000363,0.00001065,0.00003649,2,8,29,1,4,12,0.00000177,0.00000512,0.00001512,0.01350932,0.03730718,0.10618889
0,0,ChinaJiangsu,Jiangsu,,2021-04-04 00:44:33.469924,2020-07-13 00:00:00.000000,0.00000447,0.00001198,0.00003701,3,9,29,1,4,13,0.00000186,0.00000559,0.00001731,0.01304295,0.03686272,0.10445210
0,0,ChinaJiangsu,Jiangsu,,2021-04-04 00:44:33.469924,2020-07-14 00:00:00.000000,0.00000531,0.00001381,0.00003720,4,11,29,1,4,14,0.00000240,0.00000620,0.00001824,0.01262817,0.03695587,0.10291128
0,0,ChinaJiangsu,Jiangsu,,2021-04-04 00:44:33.469924,2020-07-15 00:00:00.000000,0.00000620,0.00001581,0.00003706,4,12,29,2,5,15,0.00000264,0.00000686,0.00001884,0.01291674,0.03672124,0.10167887
0,0,ChinaJiangsu,Jiangsu,,2021-04-04 00:44:33.469924,2020-07-16 00:00:00.000000,0.00000705,0.00001706,0.00003672,5,13,29,2,6,15,0.00000298,0.00000777,0.00001896,0.01244571,0.03735143,0.09984636
0,0,ChinaJiangsu,Jiangsu,,2021-04-04 00:44:33.469924,2020-07-17 00:00:00.000000,0.00000708,0.00001814,0.00003626,5,14,29,2,6,15,0.00000343,0.00000868,0.00001890,0.01199185,0.03672559,0.09697165
0,0,ChinaJiangsu,Jiangsu,,2021-04-04 00:44:33.469924,2020-07-18 00:00:00.000000,0.00000708,0.00001930,0.00003573,5,15,28,3,7,15,0.00000387,0.00000940,0.00001972,0.01191932,0.03711068,0.09724029
0,0,ChinaJiangsu,Jiangsu,,2021-04-04 00:44:33.469924,2020-07-19 00:00:00.000000,0.00000708,0.00002013,0.00003867,5,16,31,3,7,16,0.00000407,0.00000978,0.00002085,0.01194881,0.03559919,0.09619727
0,0,ChinaJiangsu,Jiangsu,,2021-04-04 00:44:33.469924,2020-07-20 00:00:00.000000,0.00000926,0.00002025,0.00003924,7,16,31,3,8,16,0.00000407,0.00001059,0.00002104,0.01208823,0.03616225,0.09546876
0,0,ChinaJiangsu,Jiangsu,,2021-04-04 00:44:33.469924,2020-07-21 00:00:00.000000,0.00000919,0.00002063,0.00003793,7,16,30,3,8,16,0.00000493,0.00001100,0.00002089,0.01170181,0.03642211,0.09522237
0,0,ChinaJiangsu,Jiangsu,,2021-04-04 00:44:33.469924,2020-07-22 00:00:00.000000,0.00000901,0.00002140,0.00003858,7,17,31,3,9,17,0.00000488,0.00001128,0.00002132,0.01164978,0.03631193,0.09743154
0,0,ChinaJiangsu,Jiangsu,,2021-04-04 00:44:33.469924,2020-07-23 00:00:00.000000,0.00000887,0.00002168,0.00004197,7,17,33,3,9,17,0.00000475,0.00001177,0.00002168,0.01163837,0.03503051,0.10649038
0,0,ChinaJiangsu,Jiangsu,,2021-04-04 00:44:33.469924,2020-07-24 00:00:00.000000,0.00000876,0.00002190,0.00004521,7,17,36,3,9,17,0.00000465,0.00001216,0.00002213,0.01181590,0.03353806,0.10969448
0,0,ChinaJiangsu,Jiangsu,,2021-04-04 00:44:33.469924,2020-07-25 00:00:00.000000,0.00000868,0.00002283,0.00004823,6,18,38,3,9,18,0.00000458,0.00001219,0.00002304,0.01175178,0.03309345,0.11047156
0,0,ChinaJiangsu,Jiangsu,,2021-04-04 00:44:33.469924,2020-07-26 00:00:00.000000,0.00000895,0.00002357,0.00005101,7,18,41,3,10,19,0.00000479,0.00001273,0.00002389,0.01164571,0.03259453,0.11635957
0,0,ChinaJiangsu,Jiangsu,,2021-04-04 00:44:33.469924,2020-07-27 00:00:00.000000,0.00001536,0.00002751,0.00005241,12,22,42,4,10,20,0.00000502,0.00001281,0.00002589,0.01154114,0.03192361,0.11914734
0,0,ChinaJiangsu,Jiangsu,,2021-04-04 00:44:33.469924,2020-07-28 00:00:00.000000,0.00001751,0.00003227,0.00005449,14,25,43,5,11,22,0.00000687,0.00001447,0.00002735,0.01154429,0.03163824,0.11931872
0,0,ChinaJiangsu,Jiangsu,,2021-04-04 00:44:33.469924,2020-07-29 00:00:00.000000,0.00001908,0.00003668,0.00005883,15,29,47,7,13,24,0.00000881,0.00001644,0.00003066,0.01153264,0.03128297,0.11805751
0,0,ChinaJiangsu,Jiangsu,,2021-04-04 00:44:33.469924,2020-07-30 00:00:00.000000,0.00002196,0.00004152,0.00006558,17,33,52,7,14,28,0.00000920,0.00001856,0.00003490,0.01154437,0.03134948,0.12113713
0,0,ChinaJiangsu,Jiangsu,,2021-04-04 00:44:33.469924,2020-07-31 00:00:00.000000,0.00002174,0.00004539,0.00007453,17,36,60,8,16,31,0.00001089,0.00002091,0.00003921,0.01159038,0.03144281,0.12497613
0,0,ChinaJiangsu,Jiangsu,,2021-04-04 00:44:33.469924,2020-08-01 00:00:00.000000,0.00002151,0.00004783,0.00008258,17,38,66,9,18,34,0.00001205,0.00002267,0.00004330,0.01167599,0.03160414,0.12831647
0,0,ChinaJiangsu,Jiangsu,,2021-04-04 00:44:33.469924,2020-08-02 00:00:00.000000,0.00002104,0.00004980,0.00009004,16,40,72,9,20,38,0.00001193,0.00002518,0.00004721,0.01178147,0.03152163,0.13081723
0,0,ChinaJiangsu,Jiangsu,,2021-04-04 00:44:33.469924,2020-08-03 00:00:00.000000,0.00002138,0.00004880,0.00008866,17,39,71,9,21,40,0.00001175,0.00002645,0.00005087,0.01182124,0.03146778,0.13229316
0,0,ChinaJiangsu,Jiangsu,,2021-04-04 00:44:33.469924,2020-08-04 00:00:00.000000,0.00002244,0.00004847,0.00008683,18,39,69,9,21,42,0.00001123,0.00002638,0.00005243,0.01160253,0.03129231,0.13272893
0,0,ChinaJiangsu,Jiangsu,,2021-04-04 00:44:33.469924,2020-08-05 00:00:00.000000,0.00002236,0.00004800,0.00008547,17,38,68,9,20,42,0.00001130,0.00002605,0.00005289,0.01154361,0.03093342,0.12930990
0,0,ChinaJiangsu,Jiangsu,,2021-04-04 00:44:33.469924,2020-08-06 00:00:00.000000,0.00002116,0.00004557,0.00008258,17,36,66,9,20,42,0.00001182,0.00002580,0.00005278,0.01192641,0.03089976,0.12315516
0,0,ChinaJiangsu,Jiangsu,,2021-04-04 00:44:33.469924,2020-08-07 00:00:00.000000,0.00002000,0.00004255,0.00008084,16,34,65,9,20,42,0.00001217,0.00002569,0.00005240,0.01191517,0.03096070,0.11759774
0,0,ChinaJiangsu,Jiangsu,,2021-04-04 00:44:33.469924,2020-08-08 00:00:00.000000,0.00001891,0.00004074,0.00008257,15,32,66,9,19,41,0.00001158,0.00002436,0.00005186,0.01181474,0.03134424,0.11611247
0,0,ChinaJiangsu,Jiangsu,,2021-04-04 00:44:33.469924,2020-08-09 00:00:00.000000,0.00001790,0.00003953,0.00008132,14,31,65,8,19,41,0.00001098,0.00002379,0.00005118,0.01175697,0.03096464,0.11522239
0,0,ChinaJiangsu,Jiangsu,,2021-04-04 00:44:33.469924,2020-08-10 00:00:00.000000,0.00002635,0.00004341,0.00007982,21,34,64,8,18,40,0.00001041,0.00002250,0.00005040,0.01189765,0.03078509,0.11483218
0,0,ChinaJiangsu,Jiangsu,,2021-04-04 00:44:33.469924,2020-08-11 00:00:00.000000,0.00003188,0.00004790,0.00007836,25,38,63,10,18,40,0.00001260,0.00002357,0.00005078,0.01189775,0.03085102,0.11444933
0,0,ChinaJiangsu,Jiangsu,,2021-04-04 00:44:33.469924,2020-08-12 00:00:00.000000,0.00003344,0.00005379,0.00007941,26,43,63,12,20,40,0.00001526,0.00002528,0.00005062,0.01190162,0.03077835,0.11364900
0,0,ChinaJiangsu,Jiangsu,,2021-04-04 00:44:33.469924,2020-08-13 00:00:00.000000,0.00003505,0.00006073,0.00008501,28,48,68,13,22,40,0.00001701,0.00002767,0.00004996,0.01191832,0.02998411,0.10825739
0,0,ChinaJiangsu,Jiangsu,,2021-04-04 00:44:33.469924,2020-08-14 00:00:00.000000,0.00003416,0.00006480,0.00008844,27,52,71,14,24,39,0.00001800,0.00003021,0.00004901,0.01199627,0.03136026,0.10920150
0,0,ChinaJiangsu,Jiangsu,,2021-04-04 00:44:33.469924,2020-08-15 00:00:00.000000,0.00003336,0.00006691,0.00009277,26,53,74,14,26,41,0.00001824,0.00003290,0.00005211,0.01180649,0.03055537,0.10966379
0,0,ChinaJiangsu,Jiangsu,,2021-04-04 00:44:33.469924,2020-08-16 00:00:00.000000,0.00003265,0.00006884,0.00009794,26,55,78,14,28,43,0.00001777,0.00003600,0.00005379,0.01160498,0.03008400,0.10784089
0,0,ChinaJiangsu,Jiangsu,,2021-04-04 00:44:33.469924,2020-08-17 00:00:00.000000,0.00003038,0.00006342,0.00009085,24,51,73,13,29,45,0.00001735,0.00003715,0.00005674,0.01122463,0.02991767,0.10660776
0,0,ChinaJiangsu,Jiangsu,,2021-04-04 00:44:33.469924,2020-08-18 00:00:00.000000,0.00002777,0.00005789,0.00008474,22,46,68,13,28,45,0.00001657,0.00003566,0.00005645,0.01107057,0.02986182,0.10633536
0,0,ChinaJiangsu,Jiangsu,,2021-04-04 00:44:33.469924,2020-08-19 00:00:00.000000,0.00002499,0.00005244,0.00007739,20,42,62,12,27,43,0.00001560,0.00003368,0.00005394,0.01099633,0.02985424,0.10627475
0,0,ChinaJiangsu,Jiangsu,,2021-04-04 00:44:33.469924,2020-08-20 00:00:00.000000,0.00002238,0.00004709,0.00006963,18,37,56,11,25,40,0.00001455,0.00003135,0.00005025,0.01096145,0.02994633,0.10624745
0,0,ChinaJiangsu,Jiangsu,,2021-04-04 00:44:33.469924,2020-08-21 00:00:00.000000,0.00001988,0.00004189,0.00006286,16,33,50,10,23,37,0.00001283,0.00002889,0.00004631,0.01094823,0.03108970,0.10617662
0,0,ChinaJiangsu,Jiangsu,,2021-04-04 00:44:33.469924,2020-08-22 00:00:00.000000,0.00001706,0.00003647,0.00005654,13,29,45,8,20,33,0.00001116,0.00002549,0.00004208,0.01144168,0.03149649,0.10587785
0,0,ChinaJiangsu,Jiangsu,,2021-04-04 00:44:33.469924,2020-08-23 00:00:00.000000,0.00001456,0.00003258,0.00004964,11,26,39,7,18,31,0.00000964,0.00002295,0.00003858,0.01175113,0.03166724,0.10382190
0,0,ChinaJiangsu,Jiangsu,,2021-04-04 00:44:33.469924,2020-08-24 00:00:00.000000,0.00001239,0.00002815,0.00004374,9,22,35,6,16,28,0.00000828,0.00002089,0.00003517,0.01163885,0.03150393,0.09661403
0,0,ChinaJiangsu,Jiangsu,,2021-04-04 00:44:33.469924,2020-08-25 00:00:00.000000,0.00001051,0.00002531,0.00003938,8,20,31,5,14,25,0.00000707,0.00001851,0.00003171,0.01099595,0.03207838,0.09113922
0,0,ChinaJiangsu,Jiangsu,,2021-04-04 00:44:33.469924,2020-08-26 00:00:00.000000,0.00000890,0.00002183,0.00003591,7,17,28,4,13,22,0.00000613,0.00001627,0.00002848,0.01086864,0.03142547,0.09053342
0,0,ChinaJiangsu,Jiangsu,,2021-04-04 00:44:33.469924,2020-08-27 00:00:00.000000,0.00000752,0.00001908,0.00003261,6,15,26,4,11,20,0.00000526,0.00001391,0.00002551,0.01124319,0.02994786,0.08979444
0,0,ChinaJiangsu,Jiangsu,,2021-04-04 00:44:33.469924,2020-08-28 00:00:00.000000,0.00000635,0.00001648,0.00002920,5,13,23,3,9,18,0.00000432,0.00001205,0.00002280,0.01199851,0.03058925,0.09315486
0,0,ChinaJiangsu,Jiangsu,,2021-04-04 00:44:33.469924,2020-08-29 00:00:00.000000,0.00000534,0.00001440,0.00002596,4,11,20,2,8,17,0.00000365,0.00001036,0.00002117,0.01066316,0.03024052,0.08984146
0,0,ChinaJiangsu,Jiangsu,,2021-04-04 00:44:33.469924,2020-08-30 00:00:00.000000,0.00000449,0.00001254,0.00002332,3,10,18,2,7,15,0.00000308,0.00000885,0.00001970,0.01051381,0.02991950,0.08379981
0,0,ChinaJiangsu,Jiangsu,,2021-04-04 00:44:33.469924,2020-08-31 00:00:00.000000,0.00000378,0.00001082,0.00002098,3,8,16,2,6,14,0.00000259,0.00000759,0.00001799,0.01056546,0.02964835,0.08552924
0,0,ChinaJiangsu,Jiangsu,,2021-04-04 00:44:33.469924,2020-09-01 00:00:00.000000,0.00000317,0.00000926,0.00001886,2,7,15,1,5,13,0.00000218,0.00000660,0.00001621,0.01059452,0.02935864,0.08622843
0,0,ChinaJiangsu,Jiangsu,,2021-04-04 00:44:33.469924,2020-09-02 00:00:00.000000,0.00000266,0.00000790,0.00001696,2,6,13,1,4,11,0.00000184,0.00000572,0.00001459,0.01060861,0.02940132,0.08650213
0,0,ChinaJiangsu,Jiangsu,,2021-04-04 00:44:33.469924,2020-09-03 00:00:00.000000,0.00000224,0.00000668,0.00001525,1,5,12,1,3,10,0.00000154,0.00000493,0.00001314,0.01061365,0.02932214,0.08669936
0,0,ChinaJiangsu,Jiangsu,,2021-04-04 00:44:33.469924,2020-09-04 00:00:00.000000,0.00000188,0.00000566,0.00001371,1,4,11,1,3,9,0.00000130,0.00000422,0.00001182,0.01061005,0.02867378,0.08714532
0,0,ChinaJiangsu,Jiangsu,,2021-04-04 00:44:33.469924,2020-09-05 00:00:00.000000,0.00000158,0.00000485,0.00001234,1,3,9,0,2,8,0.00000109,0.00000359,0.00001064,0.01058912,0.02835768,0.08850146
0,0,ChinaJiangsu,Jiangsu,,2021-04-04 00:44:33.469924,2020-09-06 00:00:00.000000,0.00000132,0.00000413,0.00001111,1,3,8,0,2,7,0.00000091,0.00000303,0.00000957,0.01053686,0.02804875,0.09156098
0,0,ChinaJiangsu,Jiangsu,,2021-04-04 00:44:33.469924,2020-09-07 00:00:00.000000,0.00000210,0.00000559,0.00001214,1,4,9,0,2,6,0.00000077,0.00000259,0.00000862,0.01048026,0.02781372,0.09124390
0,0,ChinaJiangsu,Jiangsu,,2021-04-04 00:44:33.469924,2020-09-08 00:00:00.000000,0.00000319,0.00000674,0.00001423,2,5,11,0,2,6,0.00000099,0.00000282,0.00000837,0.01019013,0.02747422,0.08721043
0,0,ChinaJiangsu,Jiangsu,,2021-04-04 00:44:33.469924,2020-09-09 00:00:00.000000,0.00000358,0.00000799,0.00001717,2,6,13,1,2,6,0.00000134,0.00000355,0.00000858,0.01011369,0.02725019,0.08654483
0,0,ChinaJiangsu,Jiangsu,,2021-04-04 00:44:33.469924,2020-09-10 00:00:00.000000,0.00000392,0.00000876,0.00002092,3,7,16,1,3,7,0.00000164,0.00000404,0.00000897,0.01015204,0.02765739,0.08626555
0,0,ChinaJiangsu,Jiangsu,,2021-04-04 00:44:33.469924,2020-09-11 00:00:00.000000,0.00000443,0.00000979,0.00002288,3,7,18,1,3,7,0.00000200,0.00000477,0.00000975,0.00983599,0.02757934,0.08566005
0,0,ChinaJiangsu,Jiangsu,,2021-04-04 00:44:33.469924,2020-09-12 00:00:00.000000,0.00000483,0.00001070,0.00002554,3,8,20,1,4,9,0.00000216,0.00000517,0.00001145,0.00981386,0.02785873,0.08590919
0,0,ChinaJiangsu,Jiangsu,,2021-04-04 00:44:33.469924,2020-09-13 00:00:00.000000,0.00000512,0.00001160,0.00002803,4,9,22,1,4,10,0.00000220,0.00000579,0.00001337,0.00985328,0.02791691,0.09072330
0,0,ChinaJiangsu,Jiangsu,,2021-04-04 00:44:33.469924,2020-09-14 00:00:00.000000,0.00000588,0.00001271,0.00002814,4,10,22,1,5,11,0.00000225,0.00000635,0.00001418,0.00988491,0.02785755,0.09281262
0,0,ChinaJiangsu,Jiangsu,,2021-04-04 00:44:33.469924,2020-09-15 00:00:00.000000,0.00000660,0.00001396,0.00003178,5,11,25,2,5,12,0.00000260,0.00000674,0.00001505,0.00983415,0.02769775,0.09331269
0,0,ChinaJiangsu,Jiangsu,,2021-04-04 00:44:33.469924,2020-09-16 00:00:00.000000,0.00000685,0.00001476,0.00003256,5,11,26,2,5,13,0.00000312,0.00000742,0.00001730,0.00980767,0.02778936,0.09296348
0,0,ChinaJiangsu,Jiangsu,,2021-04-04 00:44:33.469924,2020-09-17 00:00:00.000000,0.00000693,0.00001569,0.00003602,5,12,28,2,6,14,0.00000328,0.00000774,0.00001827,0.00980321,0.02803334,0.09013627
0,0,ChinaJiangsu,Jiangsu,,2021-04-04 00:44:33.469924,2020-09-18 00:00:00.000000,0.00000692,0.00001610,0.00003695,5,12,29,2,6,15,0.00000345,0.00000809,0.00001916,0.00983461,0.02858100,0.08927909
0,0,ChinaJiangsu,Jiangsu,,2021-04-04 00:44:33.469924,2020-09-19 00:00:00.000000,0.00000690,0.00001605,0.00003742,5,12,30,2,6,15,0.00000354,0.00000858,0.00001962,0.00988383,0.02875729,0.08925354
0,0,ChinaJiangsu,Jiangsu,,2021-04-04 00:44:33.469924,2020-09-20 00:00:00.000000,0.00000687,0.00001618,0.00003777,5,13,30,2,7,16,0.00000362,0.00000893,0.00001997,0.00994129,0.02810779,0.08884226
0,0,ChinaJiangsu,Jiangsu,,2021-04-04 00:44:33.469924,2020-09-21 00:00:00.000000,0.00000873,0.00001725,0.00003522,7,13,28,2,7,16,0.00000368,0.00000956,0.00002051,0.01002960,0.02724877,0.08799795
0,0,ChinaJiangsu,Jiangsu,,2021-04-04 00:44:33.469924,2020-09-22 00:00:00.000000,0.00000965,0.00001807,0.00003298,7,14,26,3,7,17,0.00000425,0.00000968,0.00002114,0.01003725,0.02715814,0.08552191
0,0,ChinaJiangsu,Jiangsu,,2021-04-04 00:44:33.469924,2020-09-23 00:00:00.000000,0.00001104,0.00001893,0.00003573,8,15,28,4,7,17,0.00000507,0.00000949,0.00002114,0.00995997,0.02678810,0.08175120
0,0,ChinaJiangsu,Jiangsu,,2021-04-04 00:44:33.469924,2020-09-24 00:00:00.000000,0.00001155,0.00001956,0.00003527,9,15,28,4,7,16,0.00000586,0.00000970,0.00002077,0.00990160,0.02662439,0.07756381
0,0,ChinaJiangsu,Jiangsu,,2021-04-04 00:44:33.469924,2020-09-25 00:00:00.000000,0.00001125,0.00001976,0.00003695,9,15,29,4,8,16,0.00000592,0.00001023,0.00002022,0.00987482,0.02665402,0.08055991
0,0,ChinaJiangsu,Jiangsu,,2021-04-04 00:44:33.469924,2020-09-26 00:00:00.000000,0.00001085,0.00002036,0.00003699,8,16,29,4,8,16,0.00000588,0.00001076,0.00002051,0.00985921,0.02623485,0.08054341
0,0,ChinaJiangsu,Jiangsu,,2021-04-04 00:44:33.469924,2020-09-27 00:00:00.000000,0.00001049,0.00002078,0.00004011,8,16,32,4,8,17,0.00000586,0.00001093,0.00002129,0.00983403,0.02625403,0.08339988
0,0,ChinaJiangsu,Jiangsu,,2021-04-04 00:44:33.469924,2020-09-28 00:00:00.000000,0.00001089,0.00002086,0.00003942,8,16,31,4,9,17,0.00000566,0.00001140,0.00002131,0.00962372,0.02664708,0.08533742
0,0,ChinaJiangsu,Jiangsu,,2021-04-04 00:44:33.469924,2020-09-29 00:00:00.000000,0.00001134,0.00002092,0.00003789,9,16,30,4,9,17,0.00000577,0.00001141,0.00002114,0.00877220,0.02686474,0.08822098
0,0,ChinaJiangsu,Jiangsu,,2021-04-04 00:44:33.469924,2020-09-30 00:00:00.000000,0.00001118,0.00002090,0.00003775,9,16,30,4,9,17,0.00000603,0.00001145,0.00002132,0.00840610,0.02705743,0.08887738
0,0,ChinaJiangsu,Jiangsu,,2021-04-04 00:44:33.469924,2020-10-01 00:00:00.000000,0.00001090,0.00002052,0.00003686,8,16,29,4,9,17,0.00000587,0.00001187,0.00002201,0.00837705,0.02701149,0.08614572
0,0,ChinaJiangsu,Jiangsu,,2021-04-04 00:44:33.469924,2020-10-02 00:00:00.000000,0.00001066,0.00002027,0.00004102,8,16,33,4,9,17,0.00000587,0.00001168,0.00002220,0.00837874,0.02671888,0.08423666
0,0,ChinaJiangsu,Jiangsu,,2021-04-04 00:44:33.469924,2020-10-03 00:00:00.000000,0.00001047,0.00002105,0.00004351,8,16,35,4,9,18,0.00000572,0.00001133,0.00002320,0.00838097,0.02721142,0.08456855
0,0,ChinaJiangsu,Jiangsu,,2021-04-04 00:44:33.469924,2020-10-04 00:00:00.000000,0.00001031,0.00002097,0.00004241,8,16,34,4,9,18,0.00000559,0.00001131,0.00002270,0.00838214,0.02686575,0.08535958
0,0,ChinaJiangsu,Jiangsu,,2021-04-04 00:44:33.469924,2020-10-05 00:00:00.000000,0.00001111,0.00002246,0.00003993,8,18,32,4,9,18,0.00000549,0.00001164,0.00002301,0.00838272,0.02656036,0.08671621
0,0,ChinaJiangsu,Jiangsu,,2021-04-04 00:44:33.469924,2020-10-06 00:00:00.000000,0.00001212,0.00002372,0.00003839,9,19,30,4,9,18,0.00000558,0.00001208,0.00002303,0.00838317,0.02661210,0.08805048
0,0,ChinaJiangsu,Jiangsu,,2021-04-04 00:44:33.469924,2020-10-07 00:00:00.000000,0.00001225,0.00002395,0.00004050,9,19,32,4,10,18,0.00000604,0.00001254,0.00002281,0.00838407,0.02737141,0.08138643
0,0,ChinaJiangsu,Jiangsu,,2021-04-04 00:44:33.469924,2020-10-08 00:00:00.000000,0.00001248,0.00002476,0.00004218,10,19,33,5,10,18,0.00000673,0.00001303,0.00002340,0.00838684,0.02773122,0.07578364
0,0,ChinaJiangsu,Jiangsu,,2021-04-04 00:44:33.469924,2020-10-09 00:00:00.000000,0.00001247,0.00002533,0.00004472,10,20,36,5,10,20,0.00000715,0.00001365,0.00002486,0.00839556,0.02783969,0.07255683
0,0,ChinaJiangsu,Jiangsu,,2021-04-04 00:44:33.469924,2020-10-10 00:00:00.000000,0.00001254,0.00002613,0.00004852,10,21,39,5,11,20,0.00000717,0.00001371,0.00002569,0.00841932,0.02796015,0.07704842
0,0,ChinaJiangsu,Jiangsu,,2021-04-04 00:44:33.469924,2020-10-11 00:00:00.000000,0.00001262,0.00002588,0.00005267,10,20,42,5,11,20,0.00000702,0.00001386,0.00002553,0.00846430,0.02908800,0.07718261
0,0,ChinaJiangsu,Jiangsu,,2021-04-04 00:44:33.469924,2020-10-12 00:00:00.000000,0.00001401,0.00002639,0.00005105,11,21,41,5,11,21,0.00000706,0.00001391,0.00002686,0.00851798,0.02918599,0.07719150
0,0,ChinaJiangsu,Jiangsu,,2021-04-04 00:44:33.469924,2020-10-13 00:00:00.000000,0.00001394,0.00002659,0.00004969,11,21,40,5,11,22,0.00000722,0.00001407,0.00002760,0.00858994,0.02886212,0.07719180
0,0,ChinaJiangsu,Jiangsu,,2021-04-04 00:44:33.469924,2020-10-14 00:00:00.000000,0.00001424,0.00002679,0.00005326,11,21,42,5,11,23,0.00000733,0.00001453,0.00002921,0.00911554,0.02893663,0.07717717
0,0,ChinaJiangsu,Jiangsu,,2021-04-04 00:44:33.469924,2020-10-15 00:00:00.000000,0.00001428,0.00002775,0.00005298,11,22,42,5,12,23,0.00000740,0.00001513,0.00002925,0.00945848,0.02917912,0.07708794
0,0,ChinaJiangsu,Jiangsu,,2021-04-04 00:44:33.469924,2020-10-16 00:00:00.000000,0.00001431,0.00002785,0.00005503,11,22,44,5,12,23,0.00000744,0.00001568,0.00002922,0.00994619,0.02804177,0.07664534
0,0,ChinaJiangsu,Jiangsu,,2021-04-04 00:44:33.469924,2020-10-17 00:00:00.000000,0.00001378,0.00002863,0.00006012,11,23,48,6,12,23,0.00000747,0.00001608,0.00002916,0.01009732,0.02868200,0.07509547
0,0,ChinaJiangsu,Jiangsu,,2021-04-04 00:44:33.469924,2020-10-18 00:00:00.000000,0.00001322,0.00002893,0.00006483,10,23,52,6,12,23,0.00000749,0.00001535,0.00002957,0.01004171,0.02876397,0.07267951
0,0,ChinaJiangsu,Jiangsu,,2021-04-04 00:44:33.469924,2020-10-19 00:00:00.000000,0.00001602,0.00002983,0.00006255,12,24,50,5,12,25,0.00000719,0.00001583,0.00003199,0.00971181,0.02873018,0.07001971
0,0,ChinaJiangsu,Jiangsu,,2021-04-04 00:44:33.469924,2020-10-20 00:00:00.000000,0.00001660,0.00003045,0.00005990,13,24,48,6,13,25,0.00000779,0.00001629,0.00003229,0.00930688,0.02845303,0.06932687
0,0,ChinaJiangsu,Jiangsu,,2021-04-04 00:44:33.469924,2020-10-21 00:00:00.000000,0.00001668,0.00003144,0.00005684,13,25,45,6,13,25,0.00000864,0.00001669,0.00003135,0.00929602,0.02823741,0.06927912
0,0,ChinaJiangsu,Jiangsu,,2021-04-04 00:44:33.469924,2020-10-22 00:00:00.000000,0.00001639,0.00003302,0.00005363,13,26,43,7,13,25,0.00000872,0.00001715,0.00003167,0.00895708,0.02761562,0.07001442
0,0,ChinaJiangsu,Jiangsu,,2021-04-04 00:44:33.469924,2020-10-23 00:00:00.000000,0.00001614,0.00003355,0.00005878,12,27,47,6,14,25,0.00000858,0.00001773,0.00003191,0.00894231,0.02676636,0.07023488
0,0,ChinaJiangsu,Jiangsu,,2021-04-04 00:44:33.469924,2020-10-24 00:00:00.000000,0.00001592,0.00003422,0.00006333,12,27,50,6,14,25,0.00000838,0.00001770,0.00003214,0.00895993,0.02681307,0.06978230
0,0,ChinaJiangsu,Jiangsu,,2021-04-04 00:44:33.469924,2020-10-25 00:00:00.000000,0.00001573,0.00003433,0.00006760,12,27,54,6,14,28,0.00000822,0.00001844,0.00003498,0.00898134,0.02618015,0.07044069
0,0,ChinaJiangsu,Jiangsu,,2021-04-04 00:44:33.469924,2020-10-26 00:00:00.000000,0.00001693,0.00003481,0.00006485,13,28,52,6,15,29,0.00000808,0.00001887,0.00003624,0.00899843,0.02593063,0.07098346
0,0,ChinaJiangsu,Jiangsu,,2021-04-04 00:44:33.469924,2020-10-27 00:00:00.000000,0.00001859,0.00003610,0.00006160,14,29,49,7,15,28,0.00000922,0.00001912,0.00003555,0.00900904,0.02645661,0.07421555
0,0,ChinaJiangsu,Jiangsu,,2021-04-04 00:44:33.469924,2020-10-28 00:00:00.000000,0.00001995,0.00003809,0.00005793,16,30,46,8,15,27,0.00001021,0.00001966,0.00003446,0.00901149,0.02650172,0.07940724
0,0,ChinaJiangsu,Jiangsu,,2021-04-04 00:44:33.469924,2020-10-29 00:00:00.000000,0.00002099,0.00003858,0.00006228,16,31,50,8,16,26,0.00001067,0.00001991,0.00003352,0.00899977,0.02646151,0.08025665
0,0,ChinaJiangsu,Jiangsu,,2021-04-04 00:44:33.469924,2020-10-30 00:00:00.000000,0.00002211,0.00003854,0.00006880,17,31,55,8,16,26,0.00001117,0.00002038,0.00003339,0.00895640,0.02648461,0.07997372
0,0,ChinaJiangsu,Jiangsu,,2021-04-04 00:44:33.469924,2020-10-31 00:00:00.000000,0.00002177,0.00003889,0.00007137,17,31,57,9,16,30,0.00001165,0.00002044,0.00003766,0.00884783,0.02582068,0.07923957
0,0,ChinaJiangsu,Jiangsu,,2021-04-04 00:44:33.469924,2020-11-01 00:00:00.000000,0.00002008,0.00003722,0.00007746,16,29,62,9,16,33,0.00001209,0.00002044,0.00004209,0.00866023,0.02592173,0.07655480
0,0,ChinaJiangsu,Jiangsu,,2021-04-04 00:44:33.469924,2020-11-02 00:00:00.000000,0.00001958,0.00003655,0.00007425,15,29,59,10,16,32,0.00001250,0.00002063,0.00004041,0.00928154,0.02614291,0.07381271
0,0,ChinaJiangsu,Jiangsu,,2021-04-04 00:44:33.469924,2020-11-03 00:00:00.000000,0.00001858,0.00003586,0.00006893,14,28,55,9,16,31,0.00001190,0.00002042,0.00003892,0.00892095,0.02600748,0.07211448
0,0,ChinaJiangsu,Jiangsu,,2021-04-04 00:44:33.469924,2020-11-04 00:00:00.000000,0.00001728,0.00003637,0.00006883,13,29,55,8,16,31,0.00001084,0.00002038,0.00003870,0.00866744,0.02615687,0.06822622
0,0,ChinaJiangsu,Jiangsu,,2021-04-04 00:44:33.469924,2020-11-05 00:00:00.000000,0.00001617,0.00003543,0.00006522,13,28,52,8,16,31,0.00001061,0.00002014,0.00003956,0.00859360,0.02626764,0.06504792
0,0,ChinaJiangsu,Jiangsu,,2021-04-04 00:44:33.469924,2020-11-06 00:00:00.000000,0.00001513,0.00003443,0.00006127,12,27,49,7,16,32,0.00000978,0.00002013,0.00004093,0.00868221,0.02646691,0.06435572
0,0,ChinaJiangsu,Jiangsu,,2021-04-04 00:44:33.469924,2020-11-07 00:00:00.000000,0.00001416,0.00003413,0.00005865,11,27,47,7,16,30,0.00000885,0.00001988,0.00003799,0.00833038,0.02728512,0.06436079
0,0,ChinaJiangsu,Jiangsu,,2021-04-04 00:44:33.469924,2020-11-08 00:00:00.000000,0.00001328,0.00003307,0.00005722,10,26,46,6,15,28,0.00000801,0.00001934,0.00003509,0.00805918,0.02732073,0.06435213
0,0,ChinaJiangsu,Jiangsu,,2021-04-04 00:44:33.469924,2020-11-09 00:00:00.000000,0.00001438,0.00003208,0.00005424,11,25,43,5,14,27,0.00000724,0.00001848,0.00003414,0.00796873,0.02652380,0.06431042
0,0,ChinaJiangsu,Jiangsu,,2021-04-04 00:44:33.469924,2020-11-10 00:00:00.000000,0.00001557,0.00003103,0.00005202,12,24,41,5,14,26,0.00000721,0.00001761,0.00003328,0.00795107,0.02643049,0.06418492
0,0,ChinaJiangsu,Jiangsu,,2021-04-04 00:44:33.469924,2020-11-11 00:00:00.000000,0.00001559,0.00003034,0.00004972,12,24,40,6,13,26,0.00000759,0.00001716,0.00003238,0.00793598,0.02585861,0.06392838
0,0,ChinaJiangsu,Jiangsu,,2021-04-04 00:44:33.469924,2020-11-12 00:00:00.000000,0.00001542,0.00003031,0.00004955,12,24,39,6,13,24,0.00000816,0.00001685,0.00003099,0.00790139,0.02639343,0.06327299
0,0,ChinaJiangsu,Jiangsu,,2021-04-04 00:44:33.469924,2020-11-13 00:00:00.000000,0.00001472,0.00002939,0.00005248,11,23,42,7,13,24,0.00000879,0.00001651,0.00003063,0.00779615,0.02678124,0.06255857
0,0,ChinaJiangsu,Jiangsu,,2021-04-04 00:44:33.469924,2020-11-14 00:00:00.000000,0.00001391,0.00002876,0.00005587,11,23,44,7,13,25,0.00000870,0.00001670,0.00003165,0.00780410,0.02688381,0.06222978
0,0,ChinaJiangsu,Jiangsu,,2021-04-04 00:44:33.469924,2020-11-15 00:00:00.000000,0.00001356,0.00002806,0.00005548,10,22,44,6,13,26,0.00000791,0.00001657,0.00003267,0.00794168,0.02680647,0.06070978
0,0,ChinaJiangsu,Jiangsu,,2021-04-04 00:44:33.469924,2020-11-16 00:00:00.000000,0.00001443,0.00002794,0.00005729,11,22,46,6,13,27,0.00000778,0.00001671,0.00003359,0.00838407,0.02635486,0.06176284
0,0,ChinaJiangsu,Jiangsu,,2021-04-04 00:44:33.469924,2020-11-17 00:00:00.000000,0.00001478,0.00002688,0.00005548,11,21,44,6,13,25,0.00000768,0.00001667,0.00003226,0.00861096,0.02636405,0.06195407
0,0,ChinaJiangsu,Jiangsu,,2021-04-04 00:44:33.469924,2020-11-18 00:00:00.000000,0.00001397,0.00002900,0.00005336,11,23,42,6,13,24,0.00000779,0.00001636,0.00003061,0.00864605,0.02692622,0.06171925
0,0,ChinaJiangsu,Jiangsu,,2021-04-04 00:44:33.469924,2020-11-19 00:00:00.000000,0.00001427,0.00003106,0.00005634,11,25,45,6,13,24,0.00000779,0.00001628,0.00003053,0.00866048,0.02678031,0.06166172
0,0,ChinaJiangsu,Jiangsu,,2021-04-04 00:44:33.469924,2020-11-20 00:00:00.000000,0.00001420,0.00003162,0.00006094,11,25,49,6,13,25,0.00000765,0.00001634,0.00003130,0.00866055,0.02687157,0.06176486
0,0,ChinaJiangsu,Jiangsu,,2021-04-04 00:44:33.469924,2020-11-21 00:00:00.000000,0.00001409,0.00003148,0.00006452,11,25,51,6,13,25,0.00000755,0.00001650,0.00003208,0.00865097,0.02692469,0.06108459
0,0,ChinaJiangsu,Jiangsu,,2021-04-04 00:44:33.469924,2020-11-22 00:00:00.000000,0.00001401,0.00003184,0.00006552,11,25,52,6,13,27,0.00000782,0.00001731,0.00003369,0.00868313,0.02706294,0.06137993
0,0,ChinaJiangsu,Jiangsu,,2021-04-04 00:44:33.469924,2020-11-23 00:00:00.000000,0.00001373,0.00003027,0.00006224,11,24,50,6,14,28,0.00000766,0.00001773,0.00003594,0.00788153,0.02755851,0.06148395
0,0,ChinaJiangsu,Jiangsu,,2021-04-04 00:44:33.469924,2020-11-24 00:00:00.000000,0.00001504,0.00002872,0.00005931,12,23,47,6,14,29,0.00000823,0.00001764,0.00003644,0.00753169,0.02754710,0.06130147
0,0,ChinaJiangsu,Jiangsu,,2021-04-04 00:44:33.469924,2020-11-25 00:00:00.000000,0.00001590,0.00002784,0.00006007,12,22,48,6,13,28,0.00000827,0.00001724,0.00003563,0.00755028,0.02755067,0.06102227
0,0,ChinaJiangsu,Jiangsu,,2021-04-04 00:44:33.469924,2020-11-26 00:00:00.000000,0.00001536,0.00002753,0.00006014,12,22,48,6,13,27,0.00000826,0.00001645,0.00003431,0.00757264,0.02703659,0.06006174
0,0,ChinaJiangsu,Jiangsu,,2021-04-04 00:44:33.469924,2020-11-27 00:00:00.000000,0.00001481,0.00002782,0.00006066,11,22,48,6,13,27,0.00000821,0.00001658,0.00003365,0.00768700,0.02637816,0.06093012
0,0,ChinaJiangsu,Jiangsu,,2021-04-04 00:44:33.469924,2020-11-28 00:00:00.000000,0.00001430,0.00002771,0.00006109,11,22,49,6,13,27,0.00000815,0.00001641,0.00003406,0.00817104,0.02641224,0.06158159
0,0,ChinaJiangsu,Jiangsu,,2021-04-04 00:44:33.469924,2020-11-29 00:00:00.000000,0.00001386,0.00002711,0.00006146,11,21,49,6,12,27,0.00000803,0.00001593,0.00003439,0.00906687,0.02636666,0.06162165
0,0,ChinaJiangsu,Jiangsu,,2021-04-04 00:44:33.469924,2020-11-30 00:00:00.000000,0.00001625,0.00002670,0.00005855,13,21,47,6,12,27,0.00000777,0.00001567,0.00003466,0.00935394,0.02614156,0.06110050
0,0,ChinaJiangsu,Jiangsu,,2021-04-04 00:44:33.469924,2020-12-01 00:00:00.000000,0.00001795,0.00002790,0.00005560,14,22,44,6,12,27,0.00000846,0.00001540,0.00003402,0.00969150,0.02645524,0.06258005
0,0,ChinaJiangsu,Jiangsu,,2021-04-04 00:44:33.469924,2020-12-02 00:00:00.000000,0.00001744,0.00002877,0.00005258,14,23,42,7,12,26,0.00000926,0.00001552,0.00003282,0.00971614,0.02683894,0.06830916
0,0,ChinaJiangsu,Jiangsu,,2021-04-04 00:44:33.469924,2020-12-03 00:00:00.000000,0.00001810,0.00002915,0.00005203,14,23,41,7,12,25,0.00000967,0.00001566,0.00003134,0.00967670,0.02713189,0.06900494
0,0,ChinaJiangsu,Jiangsu,,2021-04-04 00:44:33.469924,2020-12-04 00:00:00.000000,0.00001753,0.00003023,0.00005267,14,24,42,7,13,23,0.00000924,0.00001615,0.00002975,0.01006170,0.02704244,0.06933435
0,0,ChinaJiangsu,Jiangsu,,2021-04-04 00:44:33.469924,2020-12-05 00:00:00.000000,0.00001701,0.00003023,0.00005373,13,24,43,7,13,22,0.00000964,0.00001623,0.00002838,0.00996148,0.02733883,0.06995616
0,0,ChinaJiangsu,Jiangsu,,2021-04-04 00:44:33.469924,2020-12-06 00:00:00.000000,0.00001581,0.00003095,0.00005457,12,24,43,8,13,23,0.00000997,0.00001662,0.00002916,0.01004014,0.02718318,0.07086361
0,0,ChinaJiangsu,Jiangsu,,2021-04-04 00:44:33.469924,2020-12-07 00:00:00.000000,0.00001768,0.00003060,0.00005229,14,24,42,7,13,23,0.00000922,0.00001687,0.00002962,0.01037539,0.02707542,0.07168173
0,0,ChinaJiangsu,Jiangsu,,2021-04-04 00:44:33.469924,2020-12-08 00:00:00.000000,0.00001971,0.00003060,0.00005056,15,24,40,7,13,24,0.00000942,0.00001691,0.00002996,0.01054816,0.02693585,0.07210882
0,0,ChinaJiangsu,Jiangsu,,2021-04-04 00:44:33.469924,2020-12-09 00:00:00.000000,0.00001987,0.00003066,0.00005157,15,24,41,8,13,24,0.00001016,0.00001708,0.00003035,0.01051183,0.02650247,0.07218217
0,0,ChinaJiangsu,Jiangsu,,2021-04-04 00:44:33.469924,2020-12-10 00:00:00.000000,0.00001880,0.00003046,0.00005485,15,24,44,8,13,24,0.00001118,0.00001677,0.00003036,0.01035551,0.02703634,0.07402680
0,0,ChinaJiangsu,Jiangsu,,2021-04-04 00:44:33.469924,2020-12-11 00:00:00.000000,0.00001780,0.00003062,0.00005709,14,24,45,8,13,25,0.00001079,0.00001671,0.00003213,0.01009016,0.02697477,0.08067570
0,0,ChinaJiangsu,Jiangsu,,2021-04-04 00:44:33.469924,2020-12-12 00:00:00.000000,0.00001688,0.00003054,0.00006036,13,24,48,8,13,26,0.00001005,0.00001712,0.00003280,0.00970236,0.02697464,0.08612050
0,0,ChinaJiangsu,Jiangsu,,2021-04-04 00:44:33.469924,2020-12-13 00:00:00.000000,0.00001572,0.00002970,0.00006484,12,23,52,8,13,26,0.00001019,0.00001679,0.00003298,0.00940078,0.02696992,0.08862494
0,0,ChinaJiangsu,Jiangsu,,2021-04-04 00:44:33.469924,2020-12-14 00:00:00.000000,0.00001366,0.00002779,0.00006028,10,22,48,7,13,28,0.00000965,0.00001647,0.00003577,0.00927297,0.02567514,0.08932368
0,0,ChinaJiangsu,Jiangsu,,2021-04-04 00:44:33.469924,2020-12-15 00:00:00.000000,0.00001176,0.00002511,0.00005523,9,20,44,6,12,28,0.00000861,0.00001588,0.00003537,0.00924127,0.02518713,0.08954056
0,0,ChinaJiangsu,Jiangsu,,2021-04-04 00:44:33.469924,2020-12-16 00:00:00.000000,0.00001000,0.00002220,0.00004971,8,17,40,6,11,26,0.00000749,0.00001479,0.00003353,0.00925236,0.02484470,0.08988094
0,0,ChinaJiangsu,Jiangsu,,2021-04-04 00:44:33.469924,2020-12-17 00:00:00.000000,0.00000843,0.00001967,0.00004420,6,15,35,5,10,25,0.00000641,0.00001324,0.00003111,0.00929580,0.02463839,0.09227083
0,0,ChinaJiangsu,Jiangsu,,2021-04-04 00:44:33.469924,2020-12-18 00:00:00.000000,0.00000712,0.00001717,0.00003896,5,13,31,4,9,22,0.00000543,0.00001205,0.00002832,0.00938544,0.02532836,0.09815301
0,0,ChinaJiangsu,Jiangsu,,2021-04-04 00:44:33.469924,2020-12-19 00:00:00.000000,0.00000598,0.00001478,0.00003427,4,11,27,3,8,20,0.00000457,0.00001075,0.00002531,0.00955435,0.02444840,0.10024878
0,0,ChinaJiangsu,Jiangsu,,2021-04-04 00:44:33.469924,2020-12-20 00:00:00.000000,0.00000499,0.00001278,0.00003051,4,10,24,3,7,18,0.00000382,0.00000938,0.00002240,0.00985398,0.02307300,0.09675781
0,0,ChinaJiangsu,Jiangsu,,2021-04-04 00:44:33.469924,2020-12-21 00:00:00.000000,0.00000610,0.00001285,0.00002924,4,10,23,2,6,16,0.00000318,0.00000806,0.00002003,0.01034118,0.02305469,0.09186729
0,0,ChinaJiangsu,Jiangsu,,2021-04-04 00:44:33.469924,2020-12-22 00:00:00.000000,0.00000663,0.00001299,0.00002832,5,10,22,2,6,14,0.00000326,0.00000747,0.00001820,0.01103405,0.02336376,0.08958717
0,0,ChinaJiangsu,Jiangsu,,2021-04-04 00:44:33.469924,2020-12-23 00:00:00.000000,0.00000730,0.00001340,0.00002621,5,10,21,2,5,13,0.00000355,0.00000743,0.00001659,0.01140245,0.02331368,0.08885380
0,0,ChinaJiangsu,Jiangsu,,2021-04-04 00:44:33.469924,2020-12-24 00:00:00.000000,0.00000773,0.00001436,0.00002751,6,11,22,3,6,12,0.00000378,0.00000753,0.00001527,0.01143326,0.02329640,0.08856596
0,0,ChinaJiangsu,Jiangsu,,2021-04-04 00:44:33.469924,2020-12-25 00:00:00.000000,0.00000786,0.00001513,0.00002846,6,12,22,2,6,12,0.00000360,0.00000781,0.00001492,0.01116768,0.02311173,0.08839798
0,0,ChinaJiangsu,Jiangsu,,2021-04-04 00:44:33.469924,2020-12-26 00:00:00.000000,0.00000799,0.00001563,0.00003010,6,12,24,2,6,13,0.00000349,0.00000831,0.00001642,0.01084260,0.02281252,0.08827546
0,0,ChinaJiangsu,Jiangsu,,2021-04-04 00:44:33.469924,2020-12-27 00:00:00.000000,0.00000804,0.00001611,0.00003158,6,12,25,2,6,13,0.00000353,0.00000850,0.00001691,0.01067412,0.02279849,0.08809800
0,0,ChinaJiangsu,Jiangsu,,2021-04-04 00:44:33.469924,2020-12-28 00:00:00.000000,0.00000897,0.00001720,0.00003721,7,13,29,2,7,14,0.00000358,0.00000871,0.00001788,0.01066457,0.02254535,0.08748681
0,0,ChinaJiangsu,Jiangsu,,2021-04-04 00:44:33.469924,2020-12-29 00:00:00.000000,0.00000970,0.00001828,0.00004138,7,14,33,3,7,16,0.00000377,0.00000924,0.00002007,0.01079222,0.02282007,0.08208209
0,0,ChinaJiangsu,Jiangsu,,2021-04-04 00:44:33.469924,2020-12-30 00:00:00.000000,0.00001010,0.00001956,0.00004167,8,15,33,3,8,17,0.00000402,0.00000998,0.00002224,0.01049113,0.02286659,0.07775394
0,0,ChinaJiangsu,Jiangsu,,2021-04-04 00:44:33.469924,2020-12-31 00:00:00.000000,0.00001011,0.00002031,0.00004386,8,16,35,3,8,17,0.00000443,0.00001031,0.00002214,0.00998753,0.02296977,0.07466858
0,0,ChinaJiangsu,Jiangsu,,2021-04-04 00:44:33.469924,2021-01-01 00:00:00.000000,0.00000996,0.00002136,0.00004826,8,17,38,3,8,18,0.00000492,0.00001105,0.00002346,0.00946023,0.02317230,0.07299295
0,0,ChinaJiangsu,Jiangsu,,2021-04-04 00:44:33.469924,2021-01-02 00:00:00.000000,0.00000980,0.00002281,0.00005208,7,18,41,4,9,21,0.00000540,0.00001155,0.00002612,0.00935135,0.02360457,0.07304938
0,0,ChinaJiangsu,Jiangsu,,2021-04-04 00:44:33.469924,2021-01-03 00:00:00.000000,0.00000965,0.00002364,0.00005534,7,19,44,4,9,22,0.00000537,0.00001215,0.00002846,0.00946057,0.02409444,0.07324031
0,0,ChinaJiangsu,Jiangsu,,2021-04-04 00:44:33.469924,2021-01-04 00:00:00.000000,0.00001169,0.00002411,0.00005267,9,19,42,4,10,24,0.00000530,0.00001259,0.00003047,0.00969634,0.02438770,0.07558570
0,0,ChinaJiangsu,Jiangsu,,2021-04-04 00:44:33.469924,2021-01-05 00:00:00.000000,0.00001327,0.00002475,0.00004955,10,19,39,4,10,24,0.00000567,0.00001283,0.00003029,0.00980640,0.02432109,0.07680706
0,0,ChinaJiangsu,Jiangsu,,2021-04-04 00:44:33.469924,2021-01-06 00:00:00.000000,0.00001457,0.00002535,0.00004868,11,20,39,4,10,23,0.00000620,0.00001285,0.00002896,0.00960307,0.02396089,0.07770706
0,0,ChinaJiangsu,Jiangsu,,2021-04-04 00:44:33.469924,2021-01-07 00:00:00.000000,0.00001451,0.00002578,0.00005401,11,20,43,5,10,21,0.00000679,0.00001363,0.00002713,0.00963777,0.02367407,0.07901591
0,0,ChinaJiangsu,Jiangsu,,2021-04-04 00:44:33.469924,2021-01-08 00:00:00.000000,0.00001444,0.00002595,0.00005280,11,20,42,6,10,21,0.00000747,0.00001363,0.00002725,0.00981327,0.02342778,0.08072946
0,0,ChinaJiangsu,Jiangsu,,2021-04-04 00:44:33.469924,2021-01-09 00:00:00.000000,0.00001438,0.00002668,0.00005144,11,21,41,6,11,24,0.00000784,0.00001401,0.00002987,0.00961818,0.02383225,0.08177795
0,0,ChinaJiangsu,Jiangsu,,2021-04-04 00:44:33.469924,2021-01-10 00:00:00.000000,0.00001417,0.00002664,0.00005401,11,21,43,6,11,24,0.00000811,0.00001471,0.00003072,0.00950569,0.02431801,0.08218091
0,0,ChinaJiangsu,Jiangsu,,2021-04-04 00:44:33.469924,2021-01-11 00:00:00.000000,0.00001609,0.00002651,0.00005297,12,21,42,6,12,25,0.00000764,0.00001517,0.00003214,0.00945419,0.02428076,0.08232365
0,0,ChinaJiangsu,Jiangsu,,2021-04-04 00:44:33.469924,2021-01-12 00:00:00.000000,0.00001738,0.00002769,0.00005096,13,22,41,6,12,26,0.00000822,0.00001518,0.00003268,0.00943857,0.02438816,0.08237659
0,0,ChinaJiangsu,Jiangsu,,2021-04-04 00:44:33.469924,2021-01-13 00:00:00.000000,0.00001687,0.00002736,0.00005035,13,22,40,6,12,26,0.00000809,0.00001515,0.00003231,0.00943665,0.02453067,0.08240256
0,0,ChinaJiangsu,Jiangsu,,2021-04-04 00:44:33.469924,2021-01-14 00:00:00.000000,0.00001586,0.00002769,0.00005021,12,22,40,6,11,25,0.00000861,0.00001488,0.00003152,0.00943653,0.02474256,0.08242600
0,0,ChinaJiangsu,Jiangsu,,2021-04-04 00:44:33.469924,2021-01-15 00:00:00.000000,0.00001500,0.00002853,0.00004960,12,22,39,6,12,24,0.00000839,0.00001521,0.00003056,0.00943675,0.02429876,0.08246209
0,0,ChinaJiangsu,Jiangsu,,2021-04-04 00:44:33.469924,2021-01-16 00:00:00.000000,0.00001428,0.00002860,0.00005362,11,23,43,6,12,24,0.00000816,0.00001601,0.00003040,0.00943726,0.02364750,0.08252391
0,0,ChinaJiangsu,Jiangsu,,2021-04-04 00:44:33.469924,2021-01-17 00:00:00.000000,0.00001374,0.00002840,0.00005469,11,22,44,6,12,23,0.00000781,0.00001597,0.00002957,0.00943830,0.02493906,0.08380198
0,0,ChinaJiangsu,Jiangsu,,2021-04-04 00:44:33.469924,2021-01-18 00:00:00.000000,0.00002089,0.00003456,0.00005895,16,27,47,5,12,23,0.00000744,0.00001603,0.00002976,0.00944164,0.02536770,0.08530540
0,0,ChinaJiangsu,Jiangsu,,2021-04-04 00:44:33.469924,2021-01-19 00:00:00.000000,0.00002377,0.00003809,0.00006411,19,30,51,7,14,25,0.00000923,0.00001756,0.00003195,0.00942697,0.02523834,0.08574520
0,0,ChinaJiangsu,Jiangsu,,2021-04-04 00:44:33.469924,2021-01-20 00:00:00.000000,0.00002673,0.00004183,0.00007069,21,33,56,9,15,28,0.00001195,0.00001941,0.00003507,0.00930856,0.02468284,0.08591490
0,0,ChinaJiangsu,Jiangsu,,2021-04-04 00:44:33.469924,2021-01-21 00:00:00.000000,0.00002753,0.00004626,0.00007750,22,37,62,11,17,31,0.00001384,0.00002182,0.00003867,0.00921014,0.02436547,0.08659908
0,0,ChinaJiangsu,Jiangsu,,2021-04-04 00:44:33.469924,2021-01-22 00:00:00.000000,0.00002824,0.00005116,0.00008661,22,41,69,12,18,34,0.00001504,0.00002353,0.00004274,0.00914102,0.02426446,0.08941070
0,0,ChinaJiangsu,Jiangsu,,2021-04-04 00:44:33.469924,2021-01-23 00:00:00.000000,0.00002875,0.00005449,0.00009542,23,43,76,12,20,38,0.00001545,0.00002551,0.00004806,0.00908484,0.02423648,0.08068664
0,0,ChinaJiangsu,Jiangsu,,2021-04-04 00:44:33.469924,2021-01-24 00:00:00.000000,0.00002905,0.00005854,0.00010408,23,47,83,12,22,42,0.00001582,0.00002777,0.00005292,0.00905144,0.02427768,0.07212618
0,0,ChinaJiangsu,Jiangsu,,2021-04-04 00:44:33.469924,2021-01-25 00:00:00.000000,0.00003541,0.00006305,0.00011030,28,50,88,12,23,47,0.00001614,0.00002942,0.00005844,0.00903477,0.02376829,0.06948495
0,0,ChinaJiangsu,Jiangsu,,2021-04-04 00:44:33.469924,2021-01-26 00:00:00.000000,0.00004468,0.00006643,0.00011452,35,53,92,14,25,49,0.00001790,0.00003159,0.00006182,0.00902730,0.02384167,0.06941458
0,0,ChinaJiangsu,Jiangsu,,2021-04-04 00:44:33.469924,2021-01-27 00:00:00.000000,0.00005094,0.00007166,0.00011600,41,57,93,17,28,51,0.00002152,0.00003506,0.00006389,0.00902507,0.02354093,0.06929194
0,0,ChinaJiangsu,Jiangsu,,2021-04-04 00:44:33.469924,2021-01-28 00:00:00.000000,0.00005337,0.00007645,0.00011782,42,61,94,19,30,52,0.00002401,0.00003757,0.00006503,0.00902763,0.02318248,0.06916025
0,0,ChinaJiangsu,Jiangsu,,2021-04-04 00:44:33.469924,2021-01-29 00:00:00.000000,0.00005369,0.00008324,0.00012227,43,67,98,20,31,53,0.00002606,0.00003963,0.00006703,0.00903597,0.02326975,0.06861879
0,0,ChinaJiangsu,Jiangsu,,2021-04-04 00:44:33.469924,2021-01-30 00:00:00.000000,0.00005727,0.00008925,0.00012662,46,71,101,22,34,56,0.00002810,0.00004242,0.00007007,0.00904190,0.02344493,0.06820093
0,0,ChinaJiangsu,Jiangsu,,2021-04-04 00:44:33.469924,2021-01-31 00:00:00.000000,0.00005764,0.00009328,0.00013042,46,75,105,24,36,58,0.00002982,0.00004541,0.00007269,0.00902995,0.02356569,0.06729504
0,0,ChinaJiangsu,Jiangsu,,2021-04-04 00:44:33.469924,2021-02-01 00:00:00.000000,0.00005502,0.00008973,0.00012541,44,72,100,24,39,60,0.00003025,0.00004941,0.00007520,0.00875929,0.02355176,0.06880802
0,0,ChinaJiangsu,Jiangsu,,2021-04-04 00:44:33.469924,2021-02-02 00:00:00.000000,0.00005276,0.00008543,0.00011734,42,68,94,23,40,60,0.00002956,0.00004974,0.00007476,0.00855313,0.02331752,0.06731761
0,0,ChinaJiangsu,Jiangsu,,2021-04-04 00:44:33.469924,2021-02-03 00:00:00.000000,0.00005085,0.00008009,0.00010892,40,64,87,22,39,58,0.00002845,0.00004904,0.00007242,0.00851424,0.02343386,0.06793884
0,0,ChinaJiangsu,Jiangsu,,2021-04-04 00:44:33.469924,2021-02-04 00:00:00.000000,0.00004627,0.00007493,0.00010534,37,60,84,21,37,56,0.00002714,0.00004652,0.00007070,0.00855849,0.02374263,0.06796913
0,0,ChinaJiangsu,Jiangsu,,2021-04-04 00:44:33.469924,2021-02-05 00:00:00.000000,0.00004174,0.00006850,0.00010371,33,55,83,20,35,55,0.00002508,0.00004427,0.00006876,0.00870150,0.02359725,0.06740904
0,0,ChinaJiangsu,Jiangsu,,2021-04-04 00:44:33.469924,2021-02-06 00:00:00.000000,0.00003766,0.00006568,0.00010236,30,52,82,18,33,52,0.00002271,0.00004195,0.00006578,0.00901629,0.02508539,0.06640046
0,0,ChinaJiangsu,Jiangsu,,2021-04-04 00:44:33.469924,2021-02-07 00:00:00.000000,0.00003400,0.00006206,0.00009868,27,49,79,16,31,50,0.00002053,0.00003907,0.00006281,0.00961713,0.02573993,0.06562736
0,0,ChinaJiangsu,Jiangsu,,2021-04-04 00:44:33.469924,2021-02-08 00:00:00.000000,0.00003086,0.00005666,0.00009167,24,45,73,15,29,48,0.00001906,0.00003687,0.00006024,0.00985109,0.02657093,0.06373944
0,0,ChinaJiangsu,Jiangsu,,2021-04-04 00:44:33.469924,2021-02-09 00:00:00.000000,0.00002808,0.00005129,0.00008421,22,41,67,14,27,46,0.00001755,0.00003417,0.00005727,0.00985808,0.02649947,0.06134315
0,0,ChinaJiangsu,Jiangsu,,2021-04-04 00:44:33.469924,2021-02-10 00:00:00.000000,0.00002567,0.00004608,0.00007660,20,37,61,12,25,43,0.00001611,0.00003133,0.00005377,0.00993157,0.02683621,0.06103566
0,0,ChinaJiangsu,Jiangsu,,2021-04-04 00:44:33.469924,2021-02-11 00:00:00.000000,0.00002362,0.00004271,0.00007212,19,34,58,11,22,40,0.00001476,0.00002844,0.00005006,0.01010280,0.02667947,0.06022359
0,0,ChinaJiangsu,Jiangsu,,2021-04-04 00:44:33.469924,2021-02-12 00:00:00.000000,0.00002188,0.00003920,0.00006816,17,31,54,10,20,37,0.00001354,0.00002577,0.00004643,0.01038953,0.02607441,0.05816804
0,0,ChinaJiangsu,Jiangsu,,2021-04-04 00:44:33.469924,2021-02-13 00:00:00.000000,0.00001965,0.00003589,0.00006350,15,28,51,10,18,35,0.00001246,0.00002342,0.00004369,0.01017444,0.02672167,0.05596323
0,0,ChinaJiangsu,Jiangsu,,2021-04-04 00:44:33.469924,2021-02-14 00:00:00.000000,0.00001808,0.00003364,0.00005949,14,27,47,9,17,34,0.00001127,0.00002151,0.00004256,0.00956415,0.02568891,0.05400136
0,0,ChinaJiangsu,Jiangsu,,2021-04-04 00:44:33.469924,2021-02-15 00:00:00.000000,0.00001787,0.00003176,0.00005704,14,25,45,8,16,33,0.00001017,0.00002020,0.00004143,0.00935679,0.02565782,0.05362161
0,0,ChinaJiangsu,Jiangsu,,2021-04-04 00:44:33.469924,2021-02-16 00:00:00.000000,0.00001725,0.00002992,0.00005471,13,24,44,8,14,32,0.00001009,0.00001857,0.00003999,0.00931221,0.02461782,0.05354619
0,0,ChinaJiangsu,Jiangsu,,2021-04-04 00:44:33.469924,2021-02-17 00:00:00.000000,0.00001600,0.00002822,0.00005249,12,22,42,7,14,30,0.00000975,0.00001792,0.00003832,0.00935619,0.02375532,0.05294285
0,0,ChinaJiangsu,Jiangsu,,2021-04-04 00:44:33.469924,2021-02-18 00:00:00.000000,0.00001497,0.00002690,0.00005043,12,21,40,7,13,29,0.00000926,0.00001687,0.00003655,0.00952249,0.02400894,0.05150713
0,0,ChinaJiangsu,Jiangsu,,2021-04-04 00:44:33.469924,2021-02-19 00:00:00.000000,0.00001413,0.00002568,0.00004857,11,20,39,6,12,28,0.00000852,0.00001587,0.00003504,0.00942095,0.02428730,0.05181879
0,0,ChinaJiangsu,Jiangsu,,2021-04-04 00:44:33.469924,2021-02-20 00:00:00.000000,0.00001343,0.00002459,0.00004728,10,19,38,6,12,26,0.00000790,0.00001512,0.00003298,0.00894020,0.02449513,0.05198326
0,0,ChinaJiangsu,Jiangsu,,2021-04-04 00:44:33.469924,2021-02-21 00:00:00.000000,0.00001286,0.00002353,0.00004541,10,18,36,5,11,25,0.00000740,0.00001465,0.00003167,0.00877016,0.02502644,0.05341893
0,0,ChinaJiangsu,Jiangsu,,2021-04-04 00:44:33.469924,2021-02-22 00:00:00.000000,0.00001388,0.00002338,0.00004491,11,18,36,5,11,24,0.00000704,0.00001381,0.00003101,0.00860247,0.02562244,0.05498348
0,0,ChinaJiangsu,Jiangsu,,2021-04-04 00:44:33.469924,2021-02-23 00:00:00.000000,0.00001497,0.00002388,0.00004251,12,19,34,5,11,24,0.00000721,0.00001382,0.00002994,0.00834672,0.02521293,0.05574154
0,0,ChinaJiangsu,Jiangsu,,2021-04-04 00:44:33.469924,2021-02-24 00:00:00.000000,0.00001437,0.00002287,0.00004172,11,18,33,5,10,23,0.00000712,0.00001356,0.00002900,0.00820291,0.02500319,0.05582599
0,0,ChinaJiangsu,Jiangsu,,2021-04-04 00:44:33.469924,2021-02-25 00:00:00.000000,0.00001365,0.00002193,0.00004411,10,17,35,5,10,22,0.00000697,0.00001304,0.00002779,0.00820423,0.02421341,0.05594675
0,0,ChinaJiangsu,Jiangsu,,2021-04-04 00:44:33.469924,2021-02-26 00:00:00.000000,0.00001343,0.00002143,0.00004398,10,17,35,5,10,21,0.00000713,0.00001271,0.00002643,0.00801664,0.02402298,0.05613992
0,0,ChinaJiangsu,Jiangsu,,2021-04-04 00:44:33.469924,2021-02-27 00:00:00.000000,0.00001260,0.00002064,0.00004389,10,16,35,5,9,20,0.00000685,0.00001215,0.00002608,0.00781195,0.02401311,0.05643955
0,0,ChinaJiangsu,Jiangsu,,2021-04-04 00:44:33.469924,2021-02-28 00:00:00.000000,0.00001179,0.00002071,0.00004382,9,16,35,5,9,20,0.00000661,0.00001186,0.00002602,0.00762611,0.02309158,0.05687308
0,0,ChinaJiangsu,Jiangsu,,2021-04-04 00:44:33.469924,2021-03-01 00:00:00.000000,0.00001316,0.00002107,0.00004327,10,16,34,5,9,20,0.00000661,0.00001147,0.00002569,0.00748347,0.02301933,0.05744488
0,0,ChinaJiangsu,Jiangsu,,2021-04-04 00:44:33.469924,2021-03-02 00:00:00.000000,0.00001248,0.00002105,0.00004270,10,16,34,5,9,20,0.00000644,0.00001152,0.00002606,0.00738568,0.02245793,0.06614234
0,0,ChinaJiangsu,Jiangsu,,2021-04-04 00:44:33.469924,2021-03-03 00:00:00.000000,0.00001187,0.00002140,0.00004223,9,17,33,5,9,21,0.00000707,0.00001155,0.00002676,0.00731988,0.02263199,0.06683962
0,0,ChinaJiangsu,Jiangsu,,2021-04-04 00:44:33.469924,2021-03-04 00:00:00.000000,0.00001177,0.00002146,0.00004154,9,17,33,5,9,21,0.00000718,0.00001175,0.00002642,0.00728837,0.02288155,0.06692146
0,0,ChinaJiangsu,Jiangsu,,2021-04-04 00:44:33.469924,2021-03-05 00:00:00.000000,0.00001171,0.00002216,0.00004110,9,17,33,5,9,21,0.00000685,0.00001171,0.00002610,0.00743032,0.02288738,0.06700140
0,0,ChinaJiangsu,Jiangsu,,2021-04-04 00:44:33.469924,2021-03-06 00:00:00.000000,0.00001168,0.00002242,0.00004370,9,18,35,5,9,21,0.00000645,0.00001166,0.00002649,0.00712374,0.02367729,0.06709224
0,0,ChinaJiangsu,Jiangsu,,2021-04-04 00:44:33.469924,2021-03-07 00:00:00.000000,0.00001166,0.00002263,0.00004736,9,18,38,4,9,21,0.00000609,0.00001194,0.00002714,0.00707672,0.02368399,0.06717167
0,0,ChinaJiangsu,Jiangsu,,2021-04-04 00:44:33.469924,2021-03-08 00:00:00.000000,0.00001239,0.00002346,0.00004780,9,18,38,4,9,21,0.00000580,0.00001205,0.00002701,0.00706551,0.02362411,0.06717261
0,0,ChinaJiangsu,Jiangsu,,2021-04-04 00:44:33.469924,2021-03-09 00:00:00.000000,0.00001271,0.00002414,0.00004795,10,19,38,5,9,22,0.00000631,0.00001228,0.00002836,0.00711304,0.02413192,0.06717958
0,0,ChinaJiangsu,Jiangsu,,2021-04-04 00:44:33.469924,2021-03-10 00:00:00.000000,0.00001306,0.00002533,0.00005055,10,20,40,5,10,24,0.00000693,0.00001252,0.00003023,0.00725322,0.02314887,0.06730260
0,0,ChinaJiangsu,Jiangsu,,2021-04-04 00:44:33.469924,2021-03-11 00:00:00.000000,0.00001342,0.00002603,0.00005275,10,20,42,5,10,24,0.00000662,0.00001306,0.00003081,0.00749170,0.02405191,0.06746885
0,0,ChinaJiangsu,Jiangsu,,2021-04-04 00:44:33.469924,2021-03-12 00:00:00.000000,0.00001285,0.00002705,0.00005596,10,21,45,5,10,26,0.00000640,0.00001362,0.00003271,0.00754703,0.02372788,0.06737341
0,0,ChinaJiangsu,Jiangsu,,2021-04-04 00:44:33.469924,2021-03-13 00:00:00.000000,0.00001349,0.00002731,0.00005605,10,21,45,5,11,26,0.00000648,0.00001438,0.00003290,0.00761134,0.02338957,0.06889629
0,0,ChinaJiangsu,Jiangsu,,2021-04-04 00:44:33.469924,2021-03-14 00:00:00.000000,0.00001365,0.00002753,0.00005548,10,22,44,5,11,26,0.00000629,0.00001464,0.00003269,0.00775351,0.02256028,0.06997266
0,0,ChinaJiangsu,Jiangsu,,2021-04-04 00:44:33.469924,2021-03-15 00:00:00.000000,0.00001368,0.00002701,0.00005226,11,21,42,5,11,26,0.00000644,0.00001483,0.00003244,0.00803028,0.02255147,0.06992750
0,0,ChinaJiangsu,Jiangsu,,2021-04-04 00:44:33.469924,2021-03-16 00:00:00.000000,0.00001314,0.00002642,0.00005628,10,21,45,5,12,26,0.00000637,0.00001499,0.00003295,0.00798652,0.02271771,0.06951496
0,0,ChinaJiangsu,Jiangsu,,2021-04-04 00:44:33.469924,2021-03-17 00:00:00.000000,0.00001244,0.00002583,0.00005354,10,20,43,4,11,26,0.00000618,0.00001479,0.00003317,0.00803539,0.02349201,0.06885403
0,0,ChinaJiangsu,Jiangsu,,2021-04-04 00:44:33.469924,2021-03-18 00:00:00.000000,0.00001176,0.00002518,0.00005403,9,20,43,4,11,27,0.00000615,0.00001485,0.00003404,0.00804640,0.02414637,0.06859480
0,0,ChinaJiangsu,Jiangsu,,2021-04-04 00:44:33.469924,2021-03-19 00:00:00.000000,0.00001186,0.00002506,0.00005611,9,20,45,5,11,27,0.00000626,0.00001463,0.00003394,0.00824784,0.02462382,0.06749375
0,0,ChinaJiangsu,Jiangsu,,2021-04-04 00:44:33.469924,2021-03-20 00:00:00.000000,0.00001208,0.00002475,0.00005797,9,19,46,5,11,26,0.00000638,0.00001413,0.00003315,0.00845562,0.02500363,0.06516048
0,0,ChinaJiangsu,Jiangsu,,2021-04-04 00:44:33.469924,2021-03-21 00:00:00.000000,0.00001153,0.00002418,0.00005960,9,19,47,5,10,26,0.00000652,0.00001361,0.00003312,0.00843729,0.02549987,0.06709684
0,0,ChinaJiangsu,Jiangsu,,2021-04-04 00:44:33.469924,2021-03-22 00:00:00.000000,0.00001204,0.00002575,0.00006053,9,20,48,5,10,26,0.00000662,0.00001331,0.00003304,0.00851547,0.02590902,0.07060672
0,0,ChinaJiangsu,Jiangsu,,2021-04-04 00:44:33.469924,2021-03-23 00:00:00.000000,0.00001404,0.00002717,0.00006128,11,21,49,5,11,26,0.00000658,0.00001379,0.00003321,0.00846141,0.02621802,0.07107904
0,0,ChinaJiangsu,Jiangsu,,2021-04-04 00:44:33.469924,2021-03-24 00:00:00.000000,0.00001346,0.00002819,0.00006188,10,22,49,5,11,26,0.00000672,0.00001471,0.00003349,0.00832242,0.02708661,0.07270986
0,0,ChinaJiangsu,Jiangsu,,2021-04-04 00:44:33.469924,2021-03-25 00:00:00.000000,0.00001434,0.00002918,0.00006236,11,23,50,5,12,27,0.00000694,0.00001557,0.00003382,0.00806986,0.02762027,0.07594400
0,0,ChinaJiangsu,Jiangsu,,2021-04-04 00:44:33.469924,2021-03-26 00:00:00.000000,0.00001411,0.00003065,0.00006746,11,24,54,6,13,27,0.00000755,0.00001650,0.00003415,0.00798297,0.02727364,0.07665868
0,0,ChinaJiangsu,Jiangsu,,2021-04-04 00:44:33.469924,2021-03-27 00:00:00.000000,0.00001399,0.00003088,0.00007193,11,24,57,5,13,27,0.00000742,0.00001690,0.00003446,0.00784334,0.02700380,0.07749909
0,0,ChinaJiangsu,Jiangsu,,2021-04-04 00:44:33.469924,2021-03-28 00:00:00.000000,0.00001400,0.00003136,0.00007587,11,25,61,5,14,30,0.00000724,0.00001780,0.00003836,0.00718550,0.02661597,0.07848973
0,0,ChinaJiangsu,Jiangsu,,2021-04-04 00:44:33.469924,2021-03-29 00:00:00.000000,0.00001215,0.00002889,0.00007203,9,23,57,6,14,34,0.00000749,0.00001840,0.00004248,0.00714040,0.02659474,0.07958971
0,0,ChinaJiangsu,Jiangsu,,2021-04-04 00:44:33.469924,2021-03-30 00:00:00.000000,0.00001050,0.00002687,0.00006811,8,21,54,5,14,33,0.00000740,0.00001749,0.00004199,0.00713349,0.02663507,0.08069877
0,0,ChinaJiangsu,Jiangsu,,2021-04-04 00:44:33.469924,2021-03-31 00:00:00.000000,0.00000902,0.00002498,0.00006402,7,20,51,5,13,33,0.00000693,0.00001644,0.00004144,0.00713157,0.02665629,0.08170035
0,0,ChinaJiangsu,Jiangsu,,2021-04-04 00:44:33.469924,2021-04-01 00:00:00.000000,0.00000773,0.00002240,0.00005859,6,18,47,5,12,32,0.00000622,0.00001535,0.00004028,0.00713104,0.02666576,0.08251488
0,0,ChinaJiangsu,Jiangsu,,2021-04-04 00:44:33.469924,2021-04-02 00:00:00.000000,0.00000661,0.00001990,0.00005248,5,16,42,4,11,30,0.00000544,0.00001368,0.00003794,0.00713088,0.02666972,0.08312169
0,0,ChinaJiangsu,Jiangsu,,2021-04-04 00:44:33.469924,2021-04-03 00:00:00.000000,0.00000564,0.00001736,0.00004727,4,13,38,3,9,28,0.00000466,0.00001238,0.00003513,0.00713084,0.02667132,0.08354463
0,0,ChinaJiangsu,Jiangsu,,2021-04-04 00:44:33.469924,2021-04-04 00:00:00.000000,0.00000481,0.00001476,0.00004262,3,11,34,3,8,26,0.00000398,0.00001079,0.00003239,0.00713083,0.02667196,0.08382586
0,0,ChinaJiangsu,Jiangsu,,2021-04-04 00:44:33.469924,2021-04-05 00:00:00.000000,0.00000410,0.00001276,0.00003830,3,10,30,2,7,23,0.00000340,0.00000941,0.00002979,0.00713083,0.02667222,0.08400705
0,0,ChinaJiangsu,Jiangsu,,2021-04-04 00:44:33.469924,2021-04-06 00:00:00.000000,0.00000349,0.00001125,0.00003435,2,9,27,2,6,22,0.00000290,0.00000821,0.00002736,0.00713082,0.02667232,0.08412142
0,0,ChinaJiangsu,Jiangsu,,2021-04-04 00:44:33.469924,2021-04-07 00:00:00.000000,0.00000298,0.00000999,0.00003079,2,8,24,1,5,19,0.00000248,0.00000716,0.00002472,0.00713082,0.02667236,0.08419268
0,0,ChinaJiangsu,Jiangsu,,2021-04-04 00:44:33.469924,2021-04-08 00:00:00.000000,0.00000253,0.00000868,0.00002810,2,6,22,1,5,17,0.00000211,0.00000622,0.00002217,0.00713082,0.02667237,0.08423672
0,0,ChinaJiangsu,Jiangsu,,2021-04-04 00:44:33.469924,2021-04-09 00:00:00.000000,0.00000216,0.00000742,0.00002492,1,5,20,1,4,15,0.00000176,0.00000540,0.00001981,0.00713082,0.02667238,0.08426380
0,0,ChinaJiangsu,Jiangsu,,2021-04-04 00:44:33.469924,2021-04-10 00:00:00.000000,0.00000184,0.00000622,0.00002207,1,5,17,1,3,14,0.00000144,0.00000458,0.00001767,0.00713082,0.02667238,0.08428041
0,0,ChinaJiangsu,Jiangsu,,2021-04-04 00:44:33.469924,2021-04-11 00:00:00.000000,0.00000157,0.00000535,0.00001959,1,4,15,0,3,12,0.00000118,0.00000380,0.00001572,0.00713082,0.02667238,0.08429057
0,0,ChinaJiangsu,Jiangsu,,2021-04-04 00:44:33.469924,2021-04-12 00:00:00.000000,0.00000129,0.00000447,0.00001748,1,3,14,0,2,11,0.00000097,0.00000317,0.00001396,0.00713082,0.02667238,0.08429678
0,0,ChinaJiangsu,Jiangsu,,2021-04-04 00:44:33.469924,2021-04-13 00:00:00.000000,0.00000106,0.00000372,0.00001559,0,2,12,0,2,9,0.00000080,0.00000265,0.00001239,0.00713082,0.02667238,0.08430057
0,0,ChinaJiangsu,Jiangsu,,2021-04-04 00:44:33.469924,2021-04-14 00:00:00.000000,0.00000087,0.00000314,0.00001391,0,2,11,0,1,8,0.00000065,0.00000225,0.00001098,0.00713082,0.02667238,0.08430289
0,0,ChinaJiangsu,Jiangsu,,2021-04-04 00:44:33.469924,2021-04-15 00:00:00.000000,0.00000071,0.00000259,0.00001240,0,2,9,0,1,7,0.00000053,0.00000192,0.00000978,0.00713082,0.02667238,0.08430430
0,0,ChinaJiangsu,Jiangsu,,2021-04-04 00:44:33.469924,2021-04-16 00:00:00.000000,0.00000058,0.00000221,0.00001106,0,1,8,0,1,7,0.00000045,0.00000162,0.00000873,0.00713082,0.02667238,0.08430516
0,0,ChinaJiangsu,Jiangsu,,2021-04-04 00:44:33.469924,2021-04-17 00:00:00.000000,0.00000048,0.00000191,0.00000986,0,1,7,0,1,6,0.00000038,0.00000138,0.00000779,0.00713082,0.02667238,0.08430569
