FIPS,HR_UID,nameid,province,region,analysisTime,dates,pointprevalence_025,pointprevalence_50,pointprevalence_975,pointinfections_025,pointinfections_50,pointinfections_975,pointinfectious_025,pointinfectious_50,pointinfectious_975,pointinfectiousprevalence_05,pointinfectiousprevalence_50,pointinfectiousprevalence_95,infectrate_025,infectrate_50,infectrate_975
54087,0,USWestVirginiaRoane,West Virginia,Roane,2021-04-04 01:52:10.334779,2020-03-09 00:00:00.000000,0.00331014,0.02540721,0.07964107,0,3,10,0,1,6,0.00146171,0.01407130,0.04780360,0.36145808,0.50194084,0.64304048
54087,0,USWestVirginiaRoane,West Virginia,Roane,2021-04-04 01:52:10.334779,2020-03-10 00:00:00.000000,0.00372563,0.02682818,0.08394803,0,3,11,0,1,6,0.00172714,0.01458548,0.04776541,0.36145804,0.50193779,0.64304048
54087,0,USWestVirginiaRoane,West Virginia,Roane,2021-04-04 01:52:10.334779,2020-03-11 00:00:00.000000,0.00419522,0.02923946,0.08937186,0,4,12,0,2,7,0.00199192,0.01568732,0.05201043,0.36145790,0.50193331,0.64304048
54087,0,USWestVirginiaRoane,West Virginia,Roane,2021-04-04 01:52:10.334779,2020-03-12 00:00:00.000000,0.00472608,0.03199849,0.09518959,0,4,13,0,2,7,0.00227367,0.01707639,0.05703364,0.36145741,0.50186860,0.64304046
54087,0,USWestVirginiaRoane,West Virginia,Roane,2021-04-04 01:52:10.334779,2020-03-13 00:00:00.000000,0.00532587,0.03448878,0.10184915,0,4,13,0,2,8,0.00258220,0.01864489,0.06266949,0.36145573,0.50020734,0.64304042
54087,0,USWestVirginiaRoane,West Virginia,Roane,2021-04-04 01:52:10.334779,2020-03-14 00:00:00.000000,0.00580314,0.03770421,0.10921884,0,5,14,0,2,9,0.00292453,0.02018745,0.06806444,0.36144991,0.49811711,0.64304030
54087,0,USWestVirginiaRoane,West Virginia,Roane,2021-04-04 01:52:10.334779,2020-03-15 00:00:00.000000,0.00628537,0.04109302,0.11724489,0,5,16,0,3,10,0.00330693,0.02206424,0.07370197,0.36142980,0.49736151,0.64303988
54087,0,USWestVirginiaRoane,West Virginia,Roane,2021-04-04 01:52:10.334779,2020-03-16 00:00:00.000000,0.01506253,0.05046840,0.13477321,2,6,18,0,3,10,0.00362436,0.02440868,0.07964024,0.36136029,0.49636036,0.64303726
54087,0,USWestVirginiaRoane,West Virginia,Roane,2021-04-04 01:52:10.334779,2020-03-17 00:00:00.000000,0.02079525,0.06055626,0.15816759,2,8,21,0,4,12,0.00686401,0.02922702,0.08991626,0.36112053,0.48009989,0.64300825
54087,0,USWestVirginiaRoane,West Virginia,Roane,2021-04-04 01:52:10.334779,2020-03-18 00:00:00.000000,0.02512425,0.07327647,0.19016243,3,10,26,1,4,13,0.01060858,0.03489892,0.10213463,0.33850909,0.46514087,0.64260347
54087,0,USWestVirginiaRoane,West Virginia,Roane,2021-04-04 01:52:10.334779,2020-03-19 00:00:00.000000,0.02969096,0.08720606,0.20977687,4,11,28,2,5,16,0.01499352,0.04112815,0.11710384,0.31501933,0.44125554,0.63614128
54087,0,USWestVirginiaRoane,West Virginia,Roane,2021-04-04 01:52:10.334779,2020-03-20 00:00:00.000000,0.03448299,0.10361773,0.22877686,4,14,31,2,6,18,0.01790701,0.04937776,0.13378057,0.29376769,0.41206176,0.59348816
54087,0,USWestVirginiaRoane,West Virginia,Roane,2021-04-04 01:52:10.334779,2020-03-21 00:00:00.000000,0.03949229,0.11878003,0.24463780,5,16,33,2,8,20,0.02098760,0.06124068,0.14648253,0.25883235,0.38623008,0.56981515
54087,0,USWestVirginiaRoane,West Virginia,Roane,2021-04-04 01:52:10.334779,2020-03-22 00:00:00.000000,0.04468182,0.13499120,0.26802784,6,18,36,3,9,22,0.02422209,0.06709083,0.16119423,0.23572706,0.35606354,0.56921538
54087,0,USWestVirginiaRoane,West Virginia,Roane,2021-04-04 01:52:10.334779,2020-03-23 00:00:00.000000,0.05540124,0.14744671,0.29005569,7,20,39,3,10,24,0.02759156,0.07543613,0.17798190,0.22771582,0.33884853,0.56642597
54087,0,USWestVirginiaRoane,West Virginia,Roane,2021-04-04 01:52:10.334779,2020-03-24 00:00:00.000000,0.06408605,0.16529332,0.31973507,8,22,43,4,11,26,0.03243064,0.08693596,0.19688090,0.21356091,0.33322633,0.55379495
54087,0,USWestVirginiaRoane,West Virginia,Roane,2021-04-04 01:52:10.334779,2020-03-25 00:00:00.000000,0.07450291,0.17853445,0.35127030,10,24,48,5,13,29,0.03760134,0.09709037,0.21733805,0.20412113,0.31773904,0.51520453
54087,0,USWestVirginiaRoane,West Virginia,Roane,2021-04-04 01:52:10.334779,2020-03-26 00:00:00.000000,0.08214446,0.19365456,0.38327540,11,26,52,5,14,32,0.04367666,0.10598166,0.23916819,0.19380232,0.30497074,0.46428839
54087,0,USWestVirginiaRoane,West Virginia,Roane,2021-04-04 01:52:10.334779,2020-03-27 00:00:00.000000,0.08948638,0.20898272,0.40827095,12,28,55,6,16,35,0.04836053,0.11762843,0.26170373,0.19337407,0.28832357,0.44982087
54087,0,USWestVirginiaRoane,West Virginia,Roane,2021-04-04 01:52:10.334779,2020-03-28 00:00:00.000000,0.09698584,0.22088821,0.42725871,13,30,58,7,17,38,0.05343412,0.12916192,0.28128043,0.19111237,0.27400652,0.44473548
54087,0,USWestVirginiaRoane,West Virginia,Roane,2021-04-04 01:52:10.334779,2020-03-29 00:00:00.000000,0.10368015,0.23512642,0.44483526,14,32,60,7,19,40,0.05819955,0.13994546,0.29690102,0.17632321,0.25940247,0.42507103
54087,0,USWestVirginiaRoane,West Virginia,Roane,2021-04-04 01:52:10.334779,2020-03-30 00:00:00.000000,0.10024325,0.23965851,0.45071055,13,32,61,8,20,42,0.06257763,0.14840253,0.31059555,0.15842930,0.24650670,0.41297993
54087,0,USWestVirginiaRoane,West Virginia,Roane,2021-04-04 01:52:10.334779,2020-03-31 00:00:00.000000,0.10070175,0.24209453,0.45593652,13,33,62,8,21,43,0.06245607,0.15584477,0.31830572,0.14537973,0.24316169,0.39746828
54087,0,USWestVirginiaRoane,West Virginia,Roane,2021-04-04 01:52:10.334779,2020-04-01 00:00:00.000000,0.10065384,0.23870375,0.45893262,13,32,62,8,22,44,0.06143667,0.16278212,0.32334478,0.13892244,0.23833247,0.37753977
54087,0,USWestVirginiaRoane,West Virginia,Roane,2021-04-04 01:52:10.334779,2020-04-02 00:00:00.000000,0.10024988,0.23349154,0.45852170,13,31,62,8,22,44,0.06207229,0.16464875,0.32662149,0.13499140,0.22832427,0.36680151
54087,0,USWestVirginiaRoane,West Virginia,Roane,2021-04-04 01:52:10.334779,2020-04-03 00:00:00.000000,0.09937623,0.23051210,0.45406985,13,31,62,8,22,44,0.06226466,0.16145925,0.32773211,0.13413133,0.21597506,0.35289367
54087,0,USWestVirginiaRoane,West Virginia,Roane,2021-04-04 01:52:10.334779,2020-04-04 00:00:00.000000,0.09655422,0.22998510,0.45265317,13,31,61,8,22,44,0.06071551,0.16141692,0.32617734,0.13384484,0.20979927,0.34428569
54087,0,USWestVirginiaRoane,West Virginia,Roane,2021-04-04 01:52:10.334779,2020-04-05 00:00:00.000000,0.09358933,0.22980519,0.45396636,12,31,62,8,22,44,0.05869575,0.16098500,0.32231108,0.13371779,0.20483975,0.33864482
54087,0,USWestVirginiaRoane,West Virginia,Roane,2021-04-04 01:52:10.334779,2020-04-06 00:00:00.000000,0.09987139,0.23654022,0.47860957,13,32,65,7,21,43,0.05656195,0.15931889,0.31697225,0.12851427,0.20018081,0.33265673
54087,0,USWestVirginiaRoane,West Virginia,Roane,2021-04-04 01:52:10.334779,2020-04-07 00:00:00.000000,0.10278804,0.24168180,0.50150663,14,33,68,8,21,43,0.06076748,0.16010076,0.32012686,0.12537516,0.19063180,0.29578421
54087,0,USWestVirginiaRoane,West Virginia,Roane,2021-04-04 01:52:10.334779,2020-04-08 00:00:00.000000,0.11390952,0.24556233,0.50804308,15,33,69,8,22,45,0.06311541,0.16274314,0.33347251,0.12509953,0.18591048,0.28482733
54087,0,USWestVirginiaRoane,West Virginia,Roane,2021-04-04 01:52:10.334779,2020-04-09 00:00:00.000000,0.11451492,0.25129342,0.51191247,15,34,70,8,22,47,0.06477861,0.16639831,0.34801123,0.11795531,0.17990769,0.28452389
54087,0,USWestVirginiaRoane,West Virginia,Roane,2021-04-04 01:52:10.334779,2020-04-10 00:00:00.000000,0.11309589,0.25401182,0.54127784,15,34,74,9,23,49,0.06943917,0.16822832,0.36284056,0.11780296,0.17496432,0.28398531
54087,0,USWestVirginiaRoane,West Virginia,Roane,2021-04-04 01:52:10.334779,2020-04-11 00:00:00.000000,0.11410610,0.25664408,0.57000449,15,35,78,9,23,50,0.07302294,0.16985260,0.36870195,0.11024181,0.16933623,0.26343179
54087,0,USWestVirginiaRoane,West Virginia,Roane,2021-04-04 01:52:10.334779,2020-04-12 00:00:00.000000,0.11424821,0.26064239,0.59480128,15,35,81,10,23,52,0.07434709,0.17365034,0.38216827,0.10425478,0.16505680,0.26325103
54087,0,USWestVirginiaRoane,West Virginia,Roane,2021-04-04 01:52:10.334779,2020-04-13 00:00:00.000000,0.11927331,0.26816975,0.61125704,16,36,83,10,23,54,0.07352444,0.17310544,0.40039858,0.10033516,0.16075461,0.26302172
54087,0,USWestVirginiaRoane,West Virginia,Roane,2021-04-04 01:52:10.334779,2020-04-14 00:00:00.000000,0.12139538,0.27115626,0.62036748,16,37,84,10,23,56,0.07500864,0.17526118,0.41437028,0.09802838,0.15677049,0.23138623
54087,0,USWestVirginiaRoane,West Virginia,Roane,2021-04-04 01:52:10.334779,2020-04-15 00:00:00.000000,0.12331370,0.27369603,0.62529362,16,37,85,10,24,57,0.07741507,0.17669089,0.42349502,0.09505036,0.15280632,0.22149999
54087,0,USWestVirginiaRoane,West Virginia,Roane,2021-04-04 01:52:10.334779,2020-04-16 00:00:00.000000,0.12734331,0.27584744,0.62761166,17,37,85,10,24,58,0.08014723,0.17811857,0.42899594,0.08868911,0.14976994,0.20971143
54087,0,USWestVirginiaRoane,West Virginia,Roane,2021-04-04 01:52:10.334779,2020-04-17 00:00:00.000000,0.13155553,0.27611917,0.62670487,18,37,85,11,24,59,0.08294928,0.18009605,0.43208757,0.08100284,0.13970645,0.20243861
54087,0,USWestVirginiaRoane,West Virginia,Roane,2021-04-04 01:52:10.334779,2020-04-18 00:00:00.000000,0.13571125,0.27653862,0.64467700,18,37,88,11,24,60,0.08571702,0.18123752,0.44297303,0.07483452,0.13189148,0.19526866
54087,0,USWestVirginiaRoane,West Virginia,Roane,2021-04-04 01:52:10.334779,2020-04-19 00:00:00.000000,0.13987332,0.27842207,0.65575169,19,38,89,12,24,61,0.08818012,0.18235025,0.44898169,0.07452510,0.12935169,0.19271361
54087,0,USWestVirginiaRoane,West Virginia,Roane,2021-04-04 01:52:10.334779,2020-04-20 00:00:00.000000,0.14992172,0.27780739,0.64023772,20,38,87,12,24,61,0.08987694,0.18250244,0.45159890,0.07455301,0.12725298,0.19308373
54087,0,USWestVirginiaRoane,West Virginia,Roane,2021-04-04 01:52:10.334779,2020-04-21 00:00:00.000000,0.15721457,0.28262175,0.62421888,21,38,85,12,25,61,0.08984050,0.18505853,0.44755603,0.07471610,0.12497472,0.19240720
54087,0,USWestVirginiaRoane,West Virginia,Roane,2021-04-04 01:52:10.334779,2020-04-22 00:00:00.000000,0.15656440,0.28505741,0.60748209,21,39,83,12,25,60,0.09124263,0.18768989,0.43996355,0.07270084,0.12382707,0.19118536
54087,0,USWestVirginiaRoane,West Virginia,Roane,2021-04-04 01:52:10.334779,2020-04-23 00:00:00.000000,0.16545156,0.28200017,0.59038081,22,38,80,12,25,58,0.09328177,0.18602136,0.43048272,0.07224068,0.12317017,0.18879880
54087,0,USWestVirginiaRoane,West Virginia,Roane,2021-04-04 01:52:10.334779,2020-04-24 00:00:00.000000,0.16979970,0.27754099,0.57247315,23,37,78,13,25,57,0.09562455,0.18522255,0.41997340,0.07218734,0.11988933,0.18453869
54087,0,USWestVirginiaRoane,West Virginia,Roane,2021-04-04 01:52:10.334779,2020-04-25 00:00:00.000000,0.16471256,0.27552597,0.55401514,22,37,75,13,25,55,0.09786079,0.18649398,0.40866751,0.07220841,0.11623501,0.18255654
54087,0,USWestVirginiaRoane,West Virginia,Roane,2021-04-04 01:52:10.334779,2020-04-26 00:00:00.000000,0.15950805,0.28366445,0.53587354,21,38,73,13,25,54,0.09890683,0.18441021,0.39674830,0.07149831,0.11309028,0.17750646
54087,0,USWestVirginiaRoane,West Virginia,Roane,2021-04-04 01:52:10.334779,2020-04-27 00:00:00.000000,0.15754536,0.28921756,0.52475019,21,39,71,13,26,52,0.09896323,0.19170013,0.38461049,0.06929065,0.10996168,0.17778011
54087,0,USWestVirginiaRoane,West Virginia,Roane,2021-04-04 01:52:10.334779,2020-04-28 00:00:00.000000,0.15694038,0.28821477,0.51873982,21,39,71,13,26,51,0.09907155,0.19374057,0.37285187,0.06754118,0.10660858,0.17887918
54087,0,USWestVirginiaRoane,West Virginia,Roane,2021-04-04 01:52:10.334779,2020-04-29 00:00:00.000000,0.15730623,0.28779782,0.51221892,21,39,70,12,26,49,0.09470568,0.19203164,0.36153264,0.06515095,0.10569940,0.17889795
54087,0,USWestVirginiaRoane,West Virginia,Roane,2021-04-04 01:52:10.334779,2020-04-30 00:00:00.000000,0.16339348,0.28609970,0.50707237,22,39,69,12,25,48,0.09285387,0.18925925,0.35091134,0.06120501,0.10625472,0.17974567
54087,0,USWestVirginiaRoane,West Virginia,Roane,2021-04-04 01:52:10.334779,2020-05-01 00:00:00.000000,0.15204740,0.28224868,0.50924921,20,38,69,13,25,47,0.10106687,0.18809597,0.34714243,0.05970763,0.10338903,0.17818305
54087,0,USWestVirginiaRoane,West Virginia,Roane,2021-04-04 01:52:10.334779,2020-05-02 00:00:00.000000,0.14153701,0.27911383,0.52300114,19,38,71,13,25,48,0.09781031,0.18679666,0.35534910,0.05498977,0.10164864,0.17336528
54087,0,USWestVirginiaRoane,West Virginia,Roane,2021-04-04 01:52:10.334779,2020-05-03 00:00:00.000000,0.13183763,0.27237069,0.53679632,18,37,73,12,25,50,0.09110210,0.18819100,0.36642397,0.05448345,0.09936582,0.16160322
54087,0,USWestVirginiaRoane,West Virginia,Roane,2021-04-04 01:52:10.334779,2020-05-04 00:00:00.000000,0.14567374,0.27484893,0.53417296,19,37,73,11,25,51,0.08491347,0.18699324,0.37844526,0.05426925,0.09832869,0.15947273
54087,0,USWestVirginiaRoane,West Virginia,Roane,2021-04-04 01:52:10.334779,2020-05-05 00:00:00.000000,0.15535655,0.27752096,0.53053918,21,37,72,11,25,52,0.08157302,0.18368752,0.38534553,0.05351787,0.09729130,0.15979187
54087,0,USWestVirginiaRoane,West Virginia,Roane,2021-04-04 01:52:10.334779,2020-05-06 00:00:00.000000,0.15219428,0.27714901,0.52582444,20,37,71,12,24,52,0.08994357,0.17952244,0.38608017,0.05208789,0.09433461,0.15714748
54087,0,USWestVirginiaRoane,West Virginia,Roane,2021-04-04 01:52:10.334779,2020-05-07 00:00:00.000000,0.14415394,0.28072905,0.52068019,19,38,71,13,24,52,0.09974648,0.18162320,0.38358771,0.04814048,0.09533267,0.15346231
54087,0,USWestVirginiaRoane,West Virginia,Roane,2021-04-04 01:52:10.334779,2020-05-08 00:00:00.000000,0.13912475,0.27733766,0.51547051,19,37,70,13,24,51,0.09643307,0.18147623,0.37958248,0.04777742,0.09453687,0.15042278
54087,0,USWestVirginiaRoane,West Virginia,Roane,2021-04-04 01:52:10.334779,2020-05-09 00:00:00.000000,0.13083721,0.27438032,0.51038819,17,37,69,12,25,51,0.09146657,0.18369468,0.37499066,0.04756964,0.09137462,0.14907595
54087,0,USWestVirginiaRoane,West Virginia,Roane,2021-04-04 01:52:10.334779,2020-05-10 00:00:00.000000,0.12345477,0.26914532,0.50552306,16,36,69,12,24,50,0.08955924,0.18146335,0.37071201,0.04733638,0.08818561,0.14726702
54087,0,USWestVirginiaRoane,West Virginia,Roane,2021-04-04 01:52:10.334779,2020-05-11 00:00:00.000000,0.12923302,0.26681019,0.48782114,17,36,66,11,25,50,0.08285521,0.18428426,0.36739077,0.04712452,0.08671552,0.14754804
54087,0,USWestVirginiaRoane,West Virginia,Roane,2021-04-04 01:52:10.334779,2020-05-12 00:00:00.000000,0.12891102,0.26413847,0.47990969,17,36,65,11,24,49,0.08489856,0.18223431,0.36322280,0.04625383,0.08489702,0.15002599
54087,0,USWestVirginiaRoane,West Virginia,Roane,2021-04-04 01:52:10.334779,2020-05-13 00:00:00.000000,0.12439430,0.25997730,0.47888625,17,35,65,11,24,49,0.08442492,0.17744948,0.36183323,0.04566955,0.08332609,0.15265539
54087,0,USWestVirginiaRoane,West Virginia,Roane,2021-04-04 01:52:10.334779,2020-05-14 00:00:00.000000,0.12042824,0.25491596,0.47791937,16,34,65,11,23,49,0.08128857,0.17185995,0.36090307,0.04464776,0.08328476,0.15264885
54087,0,USWestVirginiaRoane,West Virginia,Roane,2021-04-04 01:52:10.334779,2020-05-15 00:00:00.000000,0.11692852,0.24893986,0.47467534,16,34,64,10,23,49,0.07853214,0.16919415,0.36012497,0.04579212,0.08087559,0.15186346
54087,0,USWestVirginiaRoane,West Virginia,Roane,2021-04-04 01:52:10.334779,2020-05-16 00:00:00.000000,0.11383254,0.24477462,0.45864017,15,33,62,10,22,48,0.07609815,0.16798890,0.35098600,0.04512977,0.07949243,0.15127377
54087,0,USWestVirginiaRoane,West Virginia,Roane,2021-04-04 01:52:10.334779,2020-05-17 00:00:00.000000,0.11238245,0.24297561,0.44259309,15,33,60,10,22,46,0.07394340,0.16482566,0.33982299,0.04105442,0.07818552,0.15100077
54087,0,USWestVirginiaRoane,West Virginia,Roane,2021-04-04 01:52:10.334779,2020-05-18 00:00:00.000000,0.11267317,0.24607799,0.43461150,15,33,59,9,21,44,0.07203196,0.15912479,0.32847922,0.04058261,0.07726315,0.15123737
54087,0,USWestVirginiaRoane,West Virginia,Roane,2021-04-04 01:52:10.334779,2020-05-19 00:00:00.000000,0.11883153,0.23967833,0.42710877,16,32,58,9,22,43,0.06886506,0.16173794,0.31986109,0.04007968,0.07672693,0.15214262
54087,0,USWestVirginiaRoane,West Virginia,Roane,2021-04-04 01:52:10.334779,2020-05-20 00:00:00.000000,0.12053288,0.22928762,0.41980575,16,31,57,9,21,42,0.07247219,0.15763961,0.31280865,0.04021016,0.07699929,0.15082143
54087,0,USWestVirginiaRoane,West Virginia,Roane,2021-04-04 01:52:10.334779,2020-05-21 00:00:00.000000,0.11534016,0.22555248,0.41844409,15,30,57,10,21,41,0.07623050,0.15784511,0.30662870,0.04046976,0.07664248,0.14830102
54087,0,USWestVirginiaRoane,West Virginia,Roane,2021-04-04 01:52:10.334779,2020-05-22 00:00:00.000000,0.11052301,0.22355341,0.45238335,15,30,61,10,21,41,0.07754369,0.16017596,0.30095115,0.04095057,0.07740418,0.14623106
54087,0,USWestVirginiaRoane,West Virginia,Roane,2021-04-04 01:52:10.334779,2020-05-23 00:00:00.000000,0.10606999,0.22892787,0.47701241,14,31,65,10,21,40,0.07349972,0.15811140,0.29561044,0.04178053,0.07757303,0.14040235
54087,0,USWestVirginiaRoane,West Virginia,Roane,2021-04-04 01:52:10.334779,2020-05-24 00:00:00.000000,0.10197523,0.23226611,0.50095357,13,31,68,9,21,39,0.06982779,0.15476706,0.29073877,0.04308613,0.08035028,0.14467404
54087,0,USWestVirginiaRoane,West Virginia,Roane,2021-04-04 01:52:10.334779,2020-05-25 00:00:00.000000,0.10537232,0.22868574,0.48816421,14,31,66,9,20,41,0.06647050,0.14704041,0.30380115,0.04477795,0.07831824,0.15473301
54087,0,USWestVirginiaRoane,West Virginia,Roane,2021-04-04 01:52:10.334779,2020-05-26 00:00:00.000000,0.11167636,0.23013141,0.47412433,15,31,64,8,19,42,0.06400364,0.14479606,0.30848235,0.04402358,0.07701712,0.15652275
54087,0,USWestVirginiaRoane,West Virginia,Roane,2021-04-04 01:52:10.334779,2020-05-27 00:00:00.000000,0.11682982,0.22640796,0.45806632,15,30,62,8,20,42,0.06401504,0.14829530,0.30718782,0.04389482,0.07596783,0.15760269
54087,0,USWestVirginiaRoane,West Virginia,Roane,2021-04-04 01:52:10.334779,2020-05-28 00:00:00.000000,0.12999789,0.22235430,0.44159392,17,30,60,10,20,41,0.07498972,0.14784479,0.30228427,0.04266984,0.07426839,0.15814314
54087,0,USWestVirginiaRoane,West Virginia,Roane,2021-04-04 01:52:10.334779,2020-05-29 00:00:00.000000,0.13639766,0.22153827,0.43552701,18,30,59,10,20,40,0.07746915,0.14747211,0.29523219,0.04127928,0.07405948,0.15838923
54087,0,USWestVirginiaRoane,West Virginia,Roane,2021-04-04 01:52:10.334779,2020-05-30 00:00:00.000000,0.12998215,0.22397545,0.45693687,17,30,62,11,19,39,0.08521731,0.14587464,0.29197850,0.04012163,0.07464682,0.15850627
54087,0,USWestVirginiaRoane,West Virginia,Roane,2021-04-04 01:52:10.334779,2020-05-31 00:00:00.000000,0.12002103,0.22464801,0.44132496,16,30,60,12,20,38,0.08856549,0.14669491,0.28228582,0.03928135,0.07511469,0.15859447
54087,0,USWestVirginiaRoane,West Virginia,Roane,2021-04-04 01:52:10.334779,2020-06-01 00:00:00.000000,0.11534537,0.22513415,0.42240876,15,30,57,11,20,37,0.08171882,0.15062809,0.27262229,0.03873746,0.07552672,0.15859007
54087,0,USWestVirginiaRoane,West Virginia,Roane,2021-04-04 01:52:10.334779,2020-06-02 00:00:00.000000,0.11170641,0.22208676,0.40417852,15,30,55,10,20,36,0.07704078,0.15054171,0.26915851,0.03842921,0.07527429,0.15854272
54087,0,USWestVirginiaRoane,West Virginia,Roane,2021-04-04 01:52:10.334779,2020-06-03 00:00:00.000000,0.10906176,0.22125514,0.38664267,14,30,52,9,20,36,0.07284663,0.14963809,0.26475283,0.03829958,0.07530364,0.15858353
54087,0,USWestVirginiaRoane,West Virginia,Roane,2021-04-04 01:52:10.334779,2020-06-04 00:00:00.000000,0.10703682,0.22638166,0.36987601,14,30,50,9,20,35,0.06944578,0.14987745,0.26212251,0.03829730,0.07491810,0.15886002
54087,0,USWestVirginiaRoane,West Virginia,Roane,2021-04-04 01:52:10.334779,2020-06-05 00:00:00.000000,0.10542993,0.22655826,0.35784027,14,31,48,9,20,35,0.06662357,0.14748708,0.25953449,0.03856323,0.07410496,0.16473148
54087,0,USWestVirginiaRoane,West Virginia,Roane,2021-04-04 01:52:10.334779,2020-06-06 00:00:00.000000,0.10287056,0.23070685,0.36262742,14,31,49,8,20,35,0.06423363,0.14850603,0.25679666,0.03924239,0.07172467,0.16614389
54087,0,USWestVirginiaRoane,West Virginia,Roane,2021-04-04 01:52:10.334779,2020-06-07 00:00:00.000000,0.10027371,0.22638284,0.35052066,13,30,47,8,20,34,0.06218227,0.14942327,0.24908450,0.03857400,0.07082298,0.16862252
54087,0,USWestVirginiaRoane,West Virginia,Roane,2021-04-04 01:52:10.334779,2020-06-08 00:00:00.000000,0.09934027,0.22994376,0.34252511,13,31,46,8,19,34,0.06040939,0.14608129,0.24881346,0.03857821,0.07089818,0.17878914
54087,0,USWestVirginiaRoane,West Virginia,Roane,2021-04-04 01:52:10.334779,2020-06-09 00:00:00.000000,0.10207127,0.22688616,0.33667062,13,31,46,8,20,33,0.05930981,0.14764031,0.24728682,0.03833263,0.07171665,0.18465873
54087,0,USWestVirginiaRoane,West Virginia,Roane,2021-04-04 01:52:10.334779,2020-06-10 00:00:00.000000,0.10238060,0.22803865,0.35264187,14,31,48,8,20,33,0.06083081,0.14663327,0.24476156,0.03863786,0.07243458,0.18093343
54087,0,USWestVirginiaRoane,West Virginia,Roane,2021-04-04 01:52:10.334779,2020-06-11 00:00:00.000000,0.10266239,0.23136805,0.36918531,14,31,50,9,20,33,0.06745272,0.14809741,0.24251701,0.03873801,0.07287908,0.17819984
54087,0,USWestVirginiaRoane,West Virginia,Roane,2021-04-04 01:52:10.334779,2020-06-12 00:00:00.000000,0.10311325,0.22779086,0.38499363,14,31,52,9,19,32,0.06647193,0.14437008,0.24040614,0.03880797,0.07314202,0.16508231
54087,0,USWestVirginiaRoane,West Virginia,Roane,2021-04-04 01:52:10.334779,2020-06-13 00:00:00.000000,0.10359196,0.22504014,0.40004380,14,30,54,9,19,34,0.07052782,0.14287427,0.25413564,0.03835109,0.07324729,0.15323581
54087,0,USWestVirginiaRoane,West Virginia,Roane,2021-04-04 01:52:10.334779,2020-06-14 00:00:00.000000,0.10169327,0.22234756,0.41445658,13,30,56,9,19,36,0.07110769,0.14220501,0.26768206,0.03802546,0.07263410,0.14730212
54087,0,USWestVirginiaRoane,West Virginia,Roane,2021-04-04 01:52:10.334779,2020-06-15 00:00:00.000000,0.09201872,0.20475288,0.39669637,12,28,54,9,19,38,0.06784057,0.14468563,0.28007680,0.03817771,0.07286978,0.14307399
54087,0,USWestVirginiaRoane,West Virginia,Roane,2021-04-04 01:52:10.334779,2020-06-16 00:00:00.000000,0.08297564,0.19080708,0.37875343,11,26,51,8,19,38,0.06244506,0.14044957,0.27890047,0.03767633,0.07277815,0.14290631
54087,0,USWestVirginiaRoane,West Virginia,Roane,2021-04-04 01:52:10.334779,2020-06-17 00:00:00.000000,0.07446521,0.17444650,0.36021860,10,23,49,7,18,37,0.05681243,0.13307532,0.27095129,0.03734966,0.07305341,0.14276671
54087,0,USWestVirginiaRoane,West Virginia,Roane,2021-04-04 01:52:10.334779,2020-06-18 00:00:00.000000,0.06663940,0.16009766,0.34197762,9,21,46,7,17,35,0.05131374,0.12508722,0.25982454,0.03741927,0.07331380,0.14268043
54087,0,USWestVirginiaRoane,West Virginia,Roane,2021-04-04 01:52:10.334779,2020-06-19 00:00:00.000000,0.05954554,0.14697625,0.32438244,8,20,44,6,15,33,0.04613744,0.11552075,0.24740859,0.03706668,0.07221019,0.14258769
54087,0,USWestVirginiaRoane,West Virginia,Roane,2021-04-04 01:52:10.334779,2020-06-20 00:00:00.000000,0.05317514,0.13467640,0.30753798,7,18,42,5,14,32,0.04136870,0.10617280,0.23467686,0.03520589,0.07228819,0.14247317
54087,0,USWestVirginiaRoane,West Virginia,Roane,2021-04-04 01:52:10.334779,2020-06-21 00:00:00.000000,0.04748938,0.12435725,0.29141523,6,17,39,5,13,30,0.03703515,0.09733201,0.22211430,0.03450133,0.07181746,0.14195450
54087,0,USWestVirginiaRoane,West Virginia,Roane,2021-04-04 01:52:10.334779,2020-06-22 00:00:00.000000,0.05343131,0.12817255,0.28934108,7,17,39,4,12,28,0.03313235,0.08859514,0.20993500,0.03504529,0.07179842,0.14153309
54087,0,USWestVirginiaRoane,West Virginia,Roane,2021-04-04 01:52:10.334779,2020-06-23 00:00:00.000000,0.05151931,0.13246578,0.28793480,7,18,39,4,11,27,0.03200226,0.08566910,0.20381228,0.03690360,0.07163869,0.14023920
54087,0,USWestVirginiaRoane,West Virginia,Roane,2021-04-04 01:52:10.334779,2020-06-24 00:00:00.000000,0.05061239,0.13825497,0.28741795,6,18,39,4,12,27,0.03046087,0.08857680,0.20055155,0.03667568,0.07194323,0.13872162
54087,0,USWestVirginiaRoane,West Virginia,Roane,2021-04-04 01:52:10.334779,2020-06-25 00:00:00.000000,0.05370923,0.14579371,0.28738000,7,19,39,4,12,27,0.03159868,0.09078827,0.19846512,0.03647160,0.07213005,0.13773944
54087,0,USWestVirginiaRoane,West Virginia,Roane,2021-04-04 01:52:10.334779,2020-06-26 00:00:00.000000,0.05784509,0.14558813,0.28762856,7,19,39,4,12,26,0.03436856,0.09223783,0.19685140,0.03632547,0.07192203,0.14768822
54087,0,USWestVirginiaRoane,West Virginia,Roane,2021-04-04 01:52:10.334779,2020-06-27 00:00:00.000000,0.05620724,0.14809577,0.29918094,7,20,40,5,12,26,0.03708093,0.09441216,0.19548008,0.03751429,0.07075561,0.14813168
54087,0,USWestVirginiaRoane,West Virginia,Roane,2021-04-04 01:52:10.334779,2020-06-28 00:00:00.000000,0.05345007,0.15140005,0.31240421,7,20,42,5,13,26,0.03671966,0.09708871,0.19428637,0.03636386,0.07195569,0.14089530
54087,0,USWestVirginiaRoane,West Virginia,Roane,2021-04-04 01:52:10.334779,2020-06-29 00:00:00.000000,0.06544404,0.15433861,0.30780930,8,21,42,4,13,27,0.03597991,0.09792568,0.20201037,0.03596952,0.07329340,0.13742521
54087,0,USWestVirginiaRoane,West Virginia,Roane,2021-04-04 01:52:10.334779,2020-06-30 00:00:00.000000,0.07024466,0.16216823,0.32646505,9,22,44,5,13,28,0.03726769,0.10220541,0.21095242,0.03724505,0.07320707,0.13838774
54087,0,USWestVirginiaRoane,West Virginia,Roane,2021-04-04 01:52:10.334779,2020-07-01 00:00:00.000000,0.07529272,0.16166127,0.32822338,10,22,44,5,14,29,0.04082502,0.10492441,0.21591413,0.03803719,0.07424540,0.14148298
54087,0,USWestVirginiaRoane,West Virginia,Roane,2021-04-04 01:52:10.334779,2020-07-02 00:00:00.000000,0.08029238,0.16702872,0.33015711,10,22,45,5,14,29,0.04373063,0.10652796,0.21832424,0.03790569,0.07305656,0.14967409
54087,0,USWestVirginiaRoane,West Virginia,Roane,2021-04-04 01:52:10.334779,2020-07-03 00:00:00.000000,0.08522869,0.17355082,0.33880443,11,23,46,6,14,29,0.04668151,0.10762997,0.21912557,0.03794178,0.07243052,0.15040437
54087,0,USWestVirginiaRoane,West Virginia,Roane,2021-04-04 01:52:10.334779,2020-07-04 00:00:00.000000,0.08435215,0.17146726,0.34581289,11,23,47,6,15,30,0.04961027,0.11196547,0.22177850,0.03867366,0.07241434,0.15041406
54087,0,USWestVirginiaRoane,West Virginia,Roane,2021-04-04 01:52:10.334779,2020-07-05 00:00:00.000000,0.08543669,0.17697934,0.35117070,11,24,48,7,15,31,0.05252743,0.11530373,0.22714795,0.03941744,0.07301294,0.15386152
54087,0,USWestVirginiaRoane,West Virginia,Roane,2021-04-04 01:52:10.334779,2020-07-06 00:00:00.000000,0.09177383,0.17619765,0.34588986,12,24,47,7,15,31,0.05381927,0.11519865,0.23153545,0.03974136,0.07372743,0.15515748
54087,0,USWestVirginiaRoane,West Virginia,Roane,2021-04-04 01:52:10.334779,2020-07-07 00:00:00.000000,0.09236297,0.18108318,0.35705604,12,24,48,7,16,32,0.05466306,0.11873637,0.23380016,0.03942951,0.07368717,0.15558709
54087,0,USWestVirginiaRoane,West Virginia,Roane,2021-04-04 01:52:10.334779,2020-07-08 00:00:00.000000,0.09375684,0.18160635,0.36583088,12,24,50,7,16,32,0.05548137,0.12024547,0.23667967,0.03925082,0.07401662,0.15570431
54087,0,USWestVirginiaRoane,West Virginia,Roane,2021-04-04 01:52:10.334779,2020-07-09 00:00:00.000000,0.09616527,0.18118477,0.36138119,13,24,49,7,16,34,0.05632572,0.12170373,0.24960077,0.03833085,0.07327584,0.15565818
54087,0,USWestVirginiaRoane,West Virginia,Roane,2021-04-04 01:52:10.334779,2020-07-10 00:00:00.000000,0.09766552,0.18018815,0.35729303,13,24,48,8,16,34,0.05924645,0.12115709,0.25005197,0.03781114,0.07319824,0.15529901
54087,0,USWestVirginiaRoane,West Virginia,Roane,2021-04-04 01:52:10.334779,2020-07-11 00:00:00.000000,0.09834626,0.18206122,0.35422374,13,24,48,8,16,33,0.06138990,0.11922296,0.24676900,0.03758954,0.07243268,0.15523991
54087,0,USWestVirginiaRoane,West Virginia,Roane,2021-04-04 01:52:10.334779,2020-07-12 00:00:00.000000,0.09883529,0.18174558,0.35876018,13,24,49,8,16,33,0.06304737,0.12300374,0.24682674,0.03749227,0.07297888,0.15617774
54087,0,USWestVirginiaRoane,West Virginia,Roane,2021-04-04 01:52:10.334779,2020-07-13 00:00:00.000000,0.10415706,0.18101902,0.34675862,14,24,47,8,16,34,0.06299615,0.12310283,0.25034959,0.03536751,0.07390245,0.15702833
54087,0,USWestVirginiaRoane,West Virginia,Roane,2021-04-04 01:52:10.334779,2020-07-14 00:00:00.000000,0.10888914,0.18650888,0.34398398,14,25,47,8,16,34,0.06299133,0.12286877,0.25121497,0.03532235,0.07372748,0.15873556
54087,0,USWestVirginiaRoane,West Virginia,Roane,2021-04-04 01:52:10.334779,2020-07-15 00:00:00.000000,0.11362359,0.18847949,0.34089432,15,25,46,8,16,34,0.06430396,0.12306733,0.25056286,0.03534028,0.07429504,0.16023673
54087,0,USWestVirginiaRoane,West Virginia,Roane,2021-04-04 01:52:10.334779,2020-07-16 00:00:00.000000,0.11536005,0.18797464,0.33761560,15,25,46,9,16,34,0.06677324,0.12341020,0.24906952,0.03452252,0.07492647,0.16100176
54087,0,USWestVirginiaRoane,West Virginia,Roane,2021-04-04 01:52:10.334779,2020-07-17 00:00:00.000000,0.11382547,0.18833078,0.33427327,15,25,45,9,16,33,0.06836582,0.12326915,0.24714104,0.03324662,0.07504847,0.15973354
54087,0,USWestVirginiaRoane,West Virginia,Roane,2021-04-04 01:52:10.334779,2020-07-18 00:00:00.000000,0.11229039,0.18845065,0.33107504,15,25,45,9,16,33,0.06743225,0.12313850,0.24502070,0.03264233,0.07527533,0.15703364
54087,0,USWestVirginiaRoane,West Virginia,Roane,2021-04-04 01:52:10.334779,2020-07-19 00:00:00.000000,0.11075648,0.18846568,0.32806087,15,25,44,9,16,33,0.06691388,0.12204044,0.24285213,0.03240286,0.07550491,0.15674751
54087,0,USWestVirginiaRoane,West Virginia,Roane,2021-04-04 01:52:10.334779,2020-07-20 00:00:00.000000,0.11207074,0.18903421,0.32562561,15,25,44,9,16,32,0.06917679,0.12239640,0.24071876,0.03232611,0.07572283,0.15628138
54087,0,USWestVirginiaRoane,West Virginia,Roane,2021-04-04 01:52:10.334779,2020-07-21 00:00:00.000000,0.10790629,0.19030391,0.34523497,14,26,47,9,16,32,0.06933512,0.12401241,0.23804709,0.03232182,0.07563602,0.15538224
54087,0,USWestVirginiaRoane,West Virginia,Roane,2021-04-04 01:52:10.334779,2020-07-22 00:00:00.000000,0.10343025,0.19347111,0.39300618,14,26,53,9,17,32,0.06827687,0.12824133,0.23486849,0.03236116,0.07554338,0.15407042
54087,0,USWestVirginiaRoane,West Virginia,Roane,2021-04-04 01:52:10.334779,2020-07-23 00:00:00.000000,0.09911216,0.19413272,0.44159963,13,26,60,9,17,33,0.06667805,0.12746809,0.24146383,0.03244198,0.07533668,0.15352591
54087,0,USWestVirginiaRoane,West Virginia,Roane,2021-04-04 01:52:10.334779,2020-07-24 00:00:00.000000,0.09501867,0.19056204,0.48957135,13,26,67,8,17,38,0.06550324,0.12829262,0.28124622,0.03257253,0.07569203,0.15860598
54087,0,USWestVirginiaRoane,West Virginia,Roane,2021-04-04 01:52:10.334779,2020-07-25 00:00:00.000000,0.09119082,0.18804748,0.53642697,12,25,73,8,17,41,0.06254423,0.12853395,0.30329694,0.03276334,0.07590039,0.16503951
54087,0,USWestVirginiaRoane,West Virginia,Roane,2021-04-04 01:52:10.334779,2020-07-26 00:00:00.000000,0.08765381,0.18886166,0.58147433,11,25,79,8,17,45,0.05991870,0.13001692,0.33521906,0.03302145,0.08153370,0.17231594
54087,0,USWestVirginiaRoane,West Virginia,Roane,2021-04-04 01:52:10.334779,2020-07-27 00:00:00.000000,0.09041268,0.18963866,0.58264867,12,25,79,7,17,50,0.05773840,0.13056117,0.36669235,0.03336454,0.08340268,0.17955348
54087,0,USWestVirginiaRoane,West Virginia,Roane,2021-04-04 01:52:10.334779,2020-07-28 00:00:00.000000,0.09056688,0.19231044,0.58135624,12,26,79,7,18,52,0.05764984,0.13228524,0.38350083,0.03397366,0.08323910,0.18588419
54087,0,USWestVirginiaRoane,West Virginia,Roane,2021-04-04 01:52:10.334779,2020-07-29 00:00:00.000000,0.09921222,0.19616172,0.57191530,13,26,78,8,18,53,0.05943994,0.13282962,0.39144157,0.03538221,0.08452463,0.19082658
54087,0,USWestVirginiaRoane,West Virginia,Roane,2021-04-04 01:52:10.334779,2020-07-30 00:00:00.000000,0.10744059,0.20491150,0.54844499,14,28,75,8,18,53,0.06207726,0.13355524,0.39393071,0.03809420,0.08494326,0.19434977
54087,0,USWestVirginiaRoane,West Virginia,Roane,2021-04-04 01:52:10.334779,2020-07-31 00:00:00.000000,0.11375644,0.20704693,0.52474769,15,28,71,8,18,53,0.06499556,0.13277049,0.39223322,0.03883168,0.08625300,0.19610112
54087,0,USWestVirginiaRoane,West Virginia,Roane,2021-04-04 01:52:10.334779,2020-08-01 00:00:00.000000,0.11064831,0.20990370,0.50154172,15,28,68,9,18,51,0.06884300,0.13721545,0.37737367,0.03915531,0.08698107,0.19591170
54087,0,USWestVirginiaRoane,West Virginia,Roane,2021-04-04 01:52:10.334779,2020-08-02 00:00:00.000000,0.10807041,0.21414711,0.47917692,14,29,65,9,19,49,0.07066123,0.14063259,0.36190842,0.03956417,0.08697887,0.18772737
54087,0,USWestVirginiaRoane,West Virginia,Roane,2021-04-04 01:52:10.334779,2020-08-03 00:00:00.000000,0.11424091,0.21559871,0.47945160,15,29,65,10,19,47,0.07315481,0.14120631,0.34648873,0.03975899,0.08735707,0.17689271
54087,0,USWestVirginiaRoane,West Virginia,Roane,2021-04-04 01:52:10.334779,2020-08-04 00:00:00.000000,0.11045723,0.22742144,0.48051040,15,31,65,9,19,46,0.07098961,0.14407498,0.33938950,0.04050434,0.08797267,0.17598938
54087,0,USWestVirginiaRoane,West Virginia,Roane,2021-04-04 01:52:10.334779,2020-08-05 00:00:00.000000,0.10671543,0.22715468,0.48236580,14,31,66,9,19,46,0.06887543,0.14482917,0.33682009,0.04241812,0.08776335,0.18436426
54087,0,USWestVirginiaRoane,West Virginia,Roane,2021-04-04 01:52:10.334779,2020-08-06 00:00:00.000000,0.10328470,0.22794587,0.47744740,14,31,65,9,20,46,0.06715178,0.15102694,0.33648604,0.04253762,0.08897037,0.19435887
54087,0,USWestVirginiaRoane,West Virginia,Roane,2021-04-04 01:52:10.334779,2020-08-07 00:00:00.000000,0.10019708,0.23108594,0.46229437,13,31,63,8,20,46,0.06571662,0.15164723,0.33706782,0.04256395,0.08972786,0.20215138
54087,0,USWestVirginiaRoane,West Virginia,Roane,2021-04-04 01:52:10.334779,2020-08-08 00:00:00.000000,0.09755560,0.23508424,0.48937691,13,32,66,8,20,45,0.06450617,0.15295203,0.33104246,0.04257837,0.09115157,0.20762212
54087,0,USWestVirginiaRoane,West Virginia,Roane,2021-04-04 01:52:10.334779,2020-08-09 00:00:00.000000,0.09704553,0.24014550,0.49337685,13,32,67,8,21,45,0.06341776,0.15481829,0.33141348,0.04260720,0.09316312,0.21120151
54087,0,USWestVirginiaRoane,West Virginia,Roane,2021-04-04 01:52:10.334779,2020-08-10 00:00:00.000000,0.10327989,0.24546208,0.47571886,14,33,65,8,21,46,0.06174751,0.15460583,0.34138313,0.04270118,0.09473510,0.21329534
54087,0,USWestVirginiaRoane,West Virginia,Roane,2021-04-04 01:52:10.334779,2020-08-11 00:00:00.000000,0.11387893,0.25185046,0.46440048,15,34,63,8,22,46,0.06406509,0.16191678,0.34310381,0.04303786,0.09483669,0.21316880
54087,0,USWestVirginiaRoane,West Virginia,Roane,2021-04-04 01:52:10.334779,2020-08-12 00:00:00.000000,0.12353491,0.25516773,0.45196634,16,34,61,9,22,46,0.06782414,0.16691465,0.34004046,0.04402038,0.09586140,0.20981959
54087,0,USWestVirginiaRoane,West Virginia,Roane,2021-04-04 01:52:10.334779,2020-08-13 00:00:00.000000,0.12267616,0.26085532,0.43901859,16,35,60,9,23,45,0.07209660,0.17044506,0.33417909,0.04572739,0.09666266,0.20833830
54087,0,USWestVirginiaRoane,West Virginia,Roane,2021-04-04 01:52:10.334779,2020-08-14 00:00:00.000000,0.12886122,0.26436174,0.45578912,17,36,62,10,23,44,0.07664189,0.16948167,0.32658132,0.04710224,0.09774522,0.20831408
54087,0,USWestVirginiaRoane,West Virginia,Roane,2021-04-04 01:52:10.334779,2020-08-15 00:00:00.000000,0.13490335,0.26850972,0.45751349,18,36,62,11,23,43,0.08114527,0.17365527,0.31808145,0.04743672,0.10017621,0.20858529
54087,0,USWestVirginiaRoane,West Virginia,Roane,2021-04-04 01:52:10.334779,2020-08-16 00:00:00.000000,0.14058211,0.26655469,0.46928502,19,36,64,11,23,43,0.08555226,0.17465324,0.31756313,0.04790918,0.10194534,0.20879972
54087,0,USWestVirginiaRoane,West Virginia,Roane,2021-04-04 01:52:10.334779,2020-08-17 00:00:00.000000,0.15063774,0.27143182,0.46584325,20,37,63,11,24,41,0.08590509,0.17568918,0.30356889,0.04803256,0.10399565,0.20887871
54087,0,USWestVirginiaRoane,West Virginia,Roane,2021-04-04 01:52:10.334779,2020-08-18 00:00:00.000000,0.15440350,0.26938884,0.46200704,21,36,63,12,24,42,0.09030688,0.17759703,0.30760589,0.04816759,0.10527068,0.20890672
54087,0,USWestVirginiaRoane,West Virginia,Roane,2021-04-04 01:52:10.334779,2020-08-19 00:00:00.000000,0.15128611,0.27921004,0.45744131,20,38,62,12,24,42,0.09485081,0.17872746,0.30887704,0.04835633,0.10585283,0.20892029
54087,0,USWestVirginiaRoane,West Virginia,Roane,2021-04-04 01:52:10.334779,2020-08-20 00:00:00.000000,0.15020144,0.28230164,0.48284083,20,38,66,13,25,42,0.09685190,0.18414672,0.30848246,0.04862159,0.10734357,0.20893064
54087,0,USWestVirginiaRoane,West Virginia,Roane,2021-04-04 01:52:10.334779,2020-08-21 00:00:00.000000,0.14915376,0.27926924,0.50144676,20,38,68,12,25,42,0.09391979,0.18846591,0.30698348,0.04897303,0.10936382,0.20894608
54087,0,USWestVirginiaRoane,West Virginia,Roane,2021-04-04 01:52:10.334779,2020-08-22 00:00:00.000000,0.14817639,0.27764699,0.52804833,20,38,72,12,25,44,0.09113823,0.18909945,0.32796791,0.04940686,0.10989852,0.20898390
54087,0,USWestVirginiaRoane,West Virginia,Roane,2021-04-04 01:52:10.334779,2020-08-23 00:00:00.000000,0.14715698,0.27525423,0.53398336,20,37,73,12,25,45,0.08869872,0.18972564,0.33275003,0.04991973,0.11314433,0.21695291
54087,0,USWestVirginiaRoane,West Virginia,Roane,2021-04-04 01:52:10.334779,2020-08-24 00:00:00.000000,0.15660500,0.28237084,0.50773181,21,38,69,12,25,47,0.08827837,0.18778238,0.35018571,0.04948980,0.11524865,0.22400857
54087,0,USWestVirginiaRoane,West Virginia,Roane,2021-04-04 01:52:10.334779,2020-08-25 00:00:00.000000,0.17680503,0.28469140,0.51104812,24,38,69,12,25,47,0.09437283,0.18786087,0.34730424,0.04902436,0.11593520,0.22841021
54087,0,USWestVirginiaRoane,West Virginia,Roane,2021-04-04 01:52:10.334779,2020-08-26 00:00:00.000000,0.18154358,0.30180379,0.54151859,24,41,74,13,25,46,0.10074743,0.18955932,0.33616027,0.04899598,0.11677337,0.23090705
54087,0,USWestVirginiaRoane,West Virginia,Roane,2021-04-04 01:52:10.334779,2020-08-27 00:00:00.000000,0.17192554,0.30419083,0.54007941,23,41,73,15,27,47,0.10966287,0.19753309,0.34873386,0.04903889,0.11855273,0.23247810
54087,0,USWestVirginiaRoane,West Virginia,Roane,2021-04-04 01:52:10.334779,2020-08-28 00:00:00.000000,0.16260060,0.30708945,0.55840215,22,42,76,15,27,49,0.11194103,0.20288458,0.36248475,0.04909898,0.12004239,0.23381551
54087,0,USWestVirginiaRoane,West Virginia,Roane,2021-04-04 01:52:10.334779,2020-08-29 00:00:00.000000,0.15434981,0.31066839,0.57445514,21,42,78,14,28,50,0.10777747,0.20641523,0.37134672,0.04914721,0.12035519,0.23544396
54087,0,USWestVirginiaRoane,West Virginia,Roane,2021-04-04 01:52:10.334779,2020-08-30 00:00:00.000000,0.14700888,0.30642396,0.56964630,20,41,77,14,28,52,0.10377831,0.20476599,0.38347720,0.04917244,0.12472334,0.23779540
54087,0,USWestVirginiaRoane,West Virginia,Roane,2021-04-04 01:52:10.334779,2020-08-31 00:00:00.000000,0.15215588,0.31007429,0.55035676,20,42,75,13,27,52,0.10000660,0.20295617,0.38056691,0.04919251,0.12824946,0.24131658
54087,0,USWestVirginiaRoane,West Virginia,Roane,2021-04-04 01:52:10.334779,2020-09-01 00:00:00.000000,0.14916058,0.31423120,0.54324715,20,43,74,13,27,51,0.09712572,0.20090602,0.37774605,0.04905161,0.13050593,0.24525866
54087,0,USWestVirginiaRoane,West Virginia,Roane,2021-04-04 01:52:10.334779,2020-09-02 00:00:00.000000,0.14961830,0.32077969,0.54384642,20,43,74,12,28,51,0.09481278,0.20590236,0.37977784,0.04867467,0.13162148,0.24808081
54087,0,USWestVirginiaRoane,West Virginia,Roane,2021-04-04 01:52:10.334779,2020-09-03 00:00:00.000000,0.15274517,0.32438906,0.54307841,20,44,74,12,28,51,0.09292155,0.21180427,0.37839969,0.04811031,0.13353064,0.25700706
54087,0,USWestVirginiaRoane,West Virginia,Roane,2021-04-04 01:52:10.334779,2020-09-04 00:00:00.000000,0.15580757,0.32793273,0.54195048,21,44,74,12,29,51,0.09253419,0.21491782,0.37534117,0.04801460,0.13526813,0.28130656
54087,0,USWestVirginiaRoane,West Virginia,Roane,2021-04-04 01:52:10.334779,2020-09-05 00:00:00.000000,0.15876513,0.33071308,0.54147822,21,45,74,12,29,50,0.09441751,0.21461420,0.37175934,0.05067919,0.13906332,0.28867647
54087,0,USWestVirginiaRoane,West Virginia,Roane,2021-04-04 01:52:10.334779,2020-09-06 00:00:00.000000,0.15625114,0.33343087,0.54144848,21,45,74,12,30,50,0.09477642,0.21964234,0.36744625,0.05224863,0.14013568,0.29093956
54087,0,USWestVirginiaRoane,West Virginia,Roane,2021-04-04 01:52:10.334779,2020-09-07 00:00:00.000000,0.16325172,0.33680215,0.53300294,22,46,72,12,30,50,0.09178091,0.22366435,0.36663922,0.05277398,0.14429238,0.29163781
54087,0,USWestVirginiaRoane,West Virginia,Roane,2021-04-04 01:52:10.334779,2020-09-08 00:00:00.000000,0.17059536,0.34294260,0.55303051,23,46,75,12,30,49,0.09396054,0.22242554,0.36438713,0.05301692,0.14777064,0.29189089
54087,0,USWestVirginiaRoane,West Virginia,Roane,2021-04-04 01:52:10.334779,2020-09-09 00:00:00.000000,0.18688514,0.34466092,0.57327531,25,47,78,14,29,49,0.10261067,0.21851849,0.36209081,0.05314127,0.15029114,0.29196786
54087,0,USWestVirginiaRoane,West Virginia,Roane,2021-04-04 01:52:10.334779,2020-09-10 00:00:00.000000,0.20784516,0.33885258,0.59685235,28,46,81,15,30,52,0.11290378,0.22001474,0.38245108,0.05323032,0.15296030,0.29183326
54087,0,USWestVirginiaRoane,West Virginia,Roane,2021-04-04 01:52:10.334779,2020-09-11 00:00:00.000000,0.20492305,0.34888846,0.61835569,28,47,84,16,30,56,0.11970712,0.22441395,0.41135510,0.05404431,0.15386768,0.29089049
54087,0,USWestVirginiaRoane,West Virginia,Roane,2021-04-04 01:52:10.334779,2020-09-12 00:00:00.000000,0.20204586,0.34462958,0.65156680,27,47,89,18,30,59,0.13532454,0.22640759,0.43301153,0.05451863,0.15824933,0.28628634
54087,0,USWestVirginiaRoane,West Virginia,Roane,2021-04-04 01:52:10.334779,2020-09-13 00:00:00.000000,0.20113885,0.34349669,0.68057763,27,47,93,17,30,58,0.13076736,0.22570565,0.42965488,0.05537644,0.16070980,0.28024229
54087,0,USWestVirginiaRoane,West Virginia,Roane,2021-04-04 01:52:10.334779,2020-09-14 00:00:00.000000,0.20520145,0.35418990,0.69449418,28,48,95,17,31,62,0.12536007,0.22713865,0.45420295,0.06281265,0.16268610,0.27864179
54087,0,USWestVirginiaRoane,West Virginia,Roane,2021-04-04 01:52:10.334779,2020-09-15 00:00:00.000000,0.20956944,0.37230882,0.71340743,28,50,97,17,31,64,0.12569035,0.22675622,0.47299162,0.07097249,0.16420708,0.26889190
54087,0,USWestVirginiaRoane,West Virginia,Roane,2021-04-04 01:52:10.334779,2020-09-16 00:00:00.000000,0.20949523,0.39220123,0.73196397,28,53,100,17,32,66,0.12721879,0.23707921,0.48888987,0.08306602,0.16583676,0.27750227
54087,0,USWestVirginiaRoane,West Virginia,Roane,2021-04-04 01:52:10.334779,2020-09-17 00:00:00.000000,0.20932542,0.40579635,0.75094410,28,55,102,17,32,68,0.12867922,0.24011005,0.50345129,0.08833614,0.16540829,0.27686276
54087,0,USWestVirginiaRoane,West Virginia,Roane,2021-04-04 01:52:10.334779,2020-09-18 00:00:00.000000,0.20929211,0.41736943,0.76996849,28,57,105,17,34,70,0.12994571,0.24903743,0.51739666,0.09041516,0.16521893,0.27344982
54087,0,USWestVirginiaRoane,West Virginia,Roane,2021-04-04 01:52:10.334779,2020-09-19 00:00:00.000000,0.20952965,0.43243207,0.78955167,28,59,108,17,35,72,0.13108419,0.25878915,0.53109632,0.09118052,0.16781557,0.28058666
54087,0,USWestVirginiaRoane,West Virginia,Roane,2021-04-04 01:52:10.334779,2020-09-20 00:00:00.000000,0.21011460,0.43611782,0.80697599,28,59,110,18,37,74,0.13214939,0.27168766,0.54468517,0.09162497,0.16895529,0.28496622
54087,0,USWestVirginiaRoane,West Virginia,Roane,2021-04-04 01:52:10.334779,2020-09-21 00:00:00.000000,0.20267822,0.43568457,0.82823391,27,59,113,18,38,77,0.13255867,0.28213078,0.56573268,0.09216286,0.17050772,0.29637117
54087,0,USWestVirginiaRoane,West Virginia,Roane,2021-04-04 01:52:10.334779,2020-09-22 00:00:00.000000,0.19564030,0.43304348,0.84993196,26,59,116,17,38,78,0.12894460,0.28394077,0.57584025,0.09155375,0.17045876,0.32635882
54087,0,USWestVirginiaRoane,West Virginia,Roane,2021-04-04 01:52:10.334779,2020-09-23 00:00:00.000000,0.18863761,0.44196671,0.87093335,25,60,119,17,38,79,0.12521802,0.28225644,0.57999405,0.09060946,0.17440043,0.33473183
54087,0,USWestVirginiaRoane,West Virginia,Roane,2021-04-04 01:52:10.334779,2020-09-24 00:00:00.000000,0.18212851,0.44509733,0.89244542,24,60,122,16,38,80,0.12083144,0.28429854,0.58834913,0.09026624,0.17654333,0.33565592
54087,0,USWestVirginiaRoane,West Virginia,Roane,2021-04-04 01:52:10.334779,2020-09-25 00:00:00.000000,0.17630465,0.46025387,0.91451060,24,62,125,15,40,81,0.11681098,0.29228077,0.59729939,0.09018976,0.18010944,0.33473530
54087,0,USWestVirginiaRoane,West Virginia,Roane,2021-04-04 01:52:10.334779,2020-09-26 00:00:00.000000,0.17138403,0.46431558,0.93807846,23,63,128,15,40,82,0.11523176,0.29818844,0.60601405,0.09027269,0.18228710,0.33483210
54087,0,USWestVirginiaRoane,West Virginia,Roane,2021-04-04 01:52:10.334779,2020-09-27 00:00:00.000000,0.16767214,0.46740004,0.96625203,22,63,132,15,41,85,0.11399758,0.30302921,0.62373547,0.09062348,0.18349142,0.34067127
54087,0,USWestVirginiaRoane,West Virginia,Roane,2021-04-04 01:52:10.334779,2020-09-28 00:00:00.000000,0.22853506,0.48673767,0.98413758,31,66,134,15,41,88,0.11175662,0.30396134,0.64985303,0.09170623,0.18647438,0.34086182
54087,0,USWestVirginiaRoane,West Virginia,Roane,2021-04-04 01:52:10.334779,2020-09-29 00:00:00.000000,0.28820250,0.51818863,1.00944771,39,70,138,19,42,90,0.13978670,0.30995026,0.66449303,0.09456653,0.18802001,0.34095908
54087,0,USWestVirginiaRoane,West Virginia,Roane,2021-04-04 01:52:10.334779,2020-09-30 00:00:00.000000,0.30943966,0.55396388,1.03732889,42,75,141,23,43,93,0.16850785,0.32114208,0.68054683,0.09995587,0.19133277,0.34095026
54087,0,USWestVirginiaRoane,West Virginia,Roane,2021-04-04 01:52:10.334779,2020-10-01 00:00:00.000000,0.30705939,0.55297722,1.06632810,42,75,145,23,45,95,0.17309217,0.33367307,0.69845331,0.10581188,0.19396400,0.34119806
54087,0,USWestVirginiaRoane,West Virginia,Roane,2021-04-04 01:52:10.334779,2020-10-02 00:00:00.000000,0.30370343,0.56805140,1.09560424,41,77,149,23,47,98,0.17220320,0.34984976,0.71758553,0.10968319,0.19615352,0.32981713
54087,0,USWestVirginiaRoane,West Virginia,Roane,2021-04-04 01:52:10.334779,2020-10-03 00:00:00.000000,0.30583178,0.58960922,1.12440831,41,80,153,23,49,100,0.17410883,0.36327328,0.73729059,0.11339415,0.20191217,0.31644159
54087,0,USWestVirginiaRoane,West Virginia,Roane,2021-04-04 01:52:10.334779,2020-10-04 00:00:00.000000,0.30885274,0.61284817,1.15165383,42,83,157,24,51,103,0.17907486,0.37403912,0.75697879,0.11546311,0.20181607,0.32650638
54087,0,USWestVirginiaRoane,West Virginia,Roane,2021-04-04 01:52:10.334779,2020-10-05 00:00:00.000000,0.32049979,0.63714104,1.18522452,43,87,162,26,52,106,0.19076766,0.38601599,0.77598900,0.11609248,0.20723952,0.32916040
54087,0,USWestVirginiaRoane,West Virginia,Roane,2021-04-04 01:52:10.334779,2020-10-06 00:00:00.000000,0.33254934,0.65466452,1.21627533,45,89,166,27,55,109,0.19844040,0.40214434,0.79725324,0.11720969,0.20711222,0.33029438
54087,0,USWestVirginiaRoane,West Virginia,Roane,2021-04-04 01:52:10.334779,2020-10-07 00:00:00.000000,0.34518657,0.66920974,1.24584645,47,91,170,28,57,112,0.20831637,0.41792795,0.81862323,0.12189557,0.20907151,0.33080006
54087,0,USWestVirginiaRoane,West Virginia,Roane,2021-04-04 01:52:10.334779,2020-10-08 00:00:00.000000,0.35798041,0.70273287,1.27439756,49,96,174,28,59,114,0.21122200,0.43263657,0.83937956,0.12376954,0.21271760,0.33109491
54087,0,USWestVirginiaRoane,West Virginia,Roane,2021-04-04 01:52:10.334779,2020-10-09 00:00:00.000000,0.36675593,0.73905760,1.30244732,50,101,178,29,60,117,0.21345277,0.44330986,0.85947138,0.12453213,0.21586198,0.33082172
54087,0,USWestVirginiaRoane,West Virginia,Roane,2021-04-04 01:52:10.334779,2020-10-10 00:00:00.000000,0.36026612,0.75643829,1.33024634,49,103,182,29,63,120,0.21535908,0.46120660,0.87908667,0.13180125,0.21734370,0.32331209
54087,0,USWestVirginiaRoane,West Virginia,Roane,2021-04-04 01:52:10.334779,2020-10-11 00:00:00.000000,0.35423283,0.78759921,1.36212505,48,107,186,29,65,123,0.21444674,0.47708881,0.90311474,0.13195089,0.21957804,0.34058341
54087,0,USWestVirginiaRoane,West Virginia,Roane,2021-04-04 01:52:10.334779,2020-10-12 00:00:00.000000,0.36358028,0.78593931,1.37681124,49,107,188,28,66,127,0.21064193,0.48720740,0.92865476,0.13381934,0.22366981,0.34234863
54087,0,USWestVirginiaRoane,West Virginia,Roane,2021-04-04 01:52:10.334779,2020-10-13 00:00:00.000000,0.36682533,0.80194122,1.38671533,50,109,189,29,68,128,0.21633802,0.49931653,0.93706921,0.13982984,0.22160139,0.34376920
54087,0,USWestVirginiaRoane,West Virginia,Roane,2021-04-04 01:52:10.334779,2020-10-14 00:00:00.000000,0.37929236,0.81734290,1.39296529,51,111,190,29,69,129,0.21651211,0.50887128,0.94507620,0.13450846,0.22373577,0.34453339
54087,0,USWestVirginiaRoane,West Virginia,Roane,2021-04-04 01:52:10.334779,2020-10-15 00:00:00.000000,0.38204939,0.84018139,1.39685865,52,115,191,29,70,130,0.21902681,0.51509051,0.95296637,0.13263147,0.22633022,0.34441915
54087,0,USWestVirginiaRoane,West Virginia,Roane,2021-04-04 01:52:10.334779,2020-10-16 00:00:00.000000,0.38515700,0.85100446,1.39909046,52,116,191,30,71,131,0.22043846,0.51905317,0.96094859,0.13468450,0.22988929,0.34162888
54087,0,USWestVirginiaRoane,West Virginia,Roane,2021-04-04 01:52:10.334779,2020-10-17 00:00:00.000000,0.38897310,0.86707454,1.40000433,53,118,191,30,73,132,0.22203294,0.53338979,0.96923635,0.14241248,0.23291175,0.35883275
54087,0,USWestVirginiaRoane,West Virginia,Roane,2021-04-04 01:52:10.334779,2020-10-18 00:00:00.000000,0.39386196,0.89319618,1.39981523,53,122,191,30,74,133,0.22397621,0.54764964,0.97803520,0.14576040,0.23612778,0.36613484
54087,0,USWestVirginiaRoane,West Virginia,Roane,2021-04-04 01:52:10.334779,2020-10-19 00:00:00.000000,0.41023923,0.91241627,1.44346743,56,124,197,30,78,135,0.22647112,0.57149249,0.98750628,0.14650521,0.23407819,0.36677261
54087,0,USWestVirginiaRoane,West Virginia,Roane,2021-04-04 01:52:10.334779,2020-10-20 00:00:00.000000,0.42741944,0.93069136,1.49032462,58,127,203,31,80,135,0.23337841,0.58452932,0.99259183,0.14684861,0.23655811,0.36706183
54087,0,USWestVirginiaRoane,West Virginia,Roane,2021-04-04 01:52:10.334779,2020-10-21 00:00:00.000000,0.44612069,0.93683604,1.52900423,61,128,209,33,80,138,0.24264600,0.58773396,1.01167004,0.14772720,0.23886087,0.36396520
54087,0,USWestVirginiaRoane,West Virginia,Roane,2021-04-04 01:52:10.334779,2020-10-22 00:00:00.000000,0.46616425,0.94308925,1.56433589,63,129,214,34,81,140,0.25306619,0.59350323,1.02836430,0.15073432,0.24294134,0.36224032
54087,0,USWestVirginiaRoane,West Virginia,Roane,2021-04-04 01:52:10.334779,2020-10-23 00:00:00.000000,0.47133371,0.97017667,1.60258487,64,132,219,36,83,142,0.26431917,0.60911989,1.04470235,0.15818964,0.24335065,0.36111250
54087,0,USWestVirginiaRoane,West Virginia,Roane,2021-04-04 01:52:10.334779,2020-10-24 00:00:00.000000,0.46648569,0.98961356,1.63575397,63,135,223,37,84,145,0.27642250,0.61814207,1.06175370,0.16055550,0.23980442,0.36000924
54087,0,USWestVirginiaRoane,West Virginia,Roane,2021-04-04 01:52:10.334779,2020-10-25 00:00:00.000000,0.46174766,1.01323096,1.66492388,63,138,227,39,86,147,0.28945333,0.63339821,1.07960683,0.14864907,0.24360251,0.35397189
54087,0,USWestVirginiaRoane,West Virginia,Roane,2021-04-04 01:52:10.334779,2020-10-26 00:00:00.000000,0.46646698,1.04100256,1.68513604,63,142,230,41,88,150,0.30163144,0.64883984,1.09871996,0.15673316,0.24434070,0.35261304
54087,0,USWestVirginiaRoane,West Virginia,Roane,2021-04-04 01:52:10.334779,2020-10-27 00:00:00.000000,0.47203241,1.05709247,1.70339088,64,144,233,40,91,153,0.29833096,0.66819860,1.12069063,0.16779249,0.24715964,0.35431247
54087,0,USWestVirginiaRoane,West Virginia,Roane,2021-04-04 01:52:10.334779,2020-10-28 00:00:00.000000,0.47389133,1.09177415,1.71841743,64,149,235,39,94,156,0.29207442,0.68693905,1.14596582,0.16698331,0.24771068,0.35617018
54087,0,USWestVirginiaRoane,West Virginia,Roane,2021-04-04 01:52:10.334779,2020-10-29 00:00:00.000000,0.46152218,1.11433274,1.72933874,63,152,236,38,96,160,0.28477168,0.70394581,1.17418647,0.17515753,0.25186666,0.36161616
54087,0,USWestVirginiaRoane,West Virginia,Roane,2021-04-04 01:52:10.334779,2020-10-30 00:00:00.000000,0.45065554,1.12968815,1.73728219,61,154,237,37,98,164,0.27742675,0.72001587,1.20403340,0.18162984,0.25543500,0.36063298
54087,0,USWestVirginiaRoane,West Virginia,Roane,2021-04-04 01:52:10.334779,2020-10-31 00:00:00.000000,0.44230906,1.14722467,1.74424062,60,157,238,37,101,165,0.27070310,0.73972115,1.21243124,0.18297904,0.25634300,0.37944131
54087,0,USWestVirginiaRoane,West Virginia,Roane,2021-04-04 01:52:10.334779,2020-11-01 00:00:00.000000,0.44814830,1.17263780,1.75090668,61,160,239,36,103,166,0.26520417,0.75299591,1.21879059,0.19487258,0.25522208,0.38054105
54087,0,USWestVirginiaRoane,West Virginia,Roane,2021-04-04 01:52:10.334779,2020-11-02 00:00:00.000000,0.47797166,1.20055600,1.77288339,65,164,242,35,105,167,0.26144311,0.77112056,1.22457548,0.19781101,0.25933658,0.38452852
54087,0,USWestVirginiaRoane,West Virginia,Roane,2021-04-04 01:52:10.334779,2020-11-03 00:00:00.000000,0.50822691,1.22675919,1.80164942,69,167,246,35,108,169,0.25710247,0.79284752,1.23588516,0.20226067,0.26715700,0.39193483
54087,0,USWestVirginiaRoane,West Virginia,Roane,2021-04-04 01:52:10.334779,2020-11-04 00:00:00.000000,0.54045715,1.24935270,1.85696817,73,171,254,36,110,172,0.26318962,0.80884226,1.26332965,0.20335896,0.27401383,0.39530576
54087,0,USWestVirginiaRoane,West Virginia,Roane,2021-04-04 01:52:10.334779,2020-11-05 00:00:00.000000,0.54653065,1.29698678,1.91894370,74,177,262,38,111,178,0.27867451,0.81525217,1.30563383,0.20797397,0.28265111,0.40499355
54087,0,USWestVirginiaRoane,West Virginia,Roane,2021-04-04 01:52:10.334779,2020-11-06 00:00:00.000000,0.54144440,1.32030157,1.98032558,74,180,271,40,113,182,0.29633394,0.83140770,1.33083857,0.21342923,0.28592289,0.40748286
54087,0,USWestVirginiaRoane,West Virginia,Roane,2021-04-04 01:52:10.334779,2020-11-07 00:00:00.000000,0.53829620,1.35049636,2.03811828,73,184,278,43,114,182,0.31663035,0.83386917,1.33402761,0.21460722,0.28903052,0.41613336
54087,0,USWestVirginiaRoane,West Virginia,Roane,2021-04-04 01:52:10.334779,2020-11-08 00:00:00.000000,0.54075182,1.39508814,2.03986759,74,190,279,46,116,182,0.33893763,0.85356396,1.33566266,0.21496325,0.30599520,0.42569405
54087,0,USWestVirginiaRoane,West Virginia,Roane,2021-04-04 01:52:10.334779,2020-11-09 00:00:00.000000,0.61662893,1.45601769,2.07037894,84,199,283,48,121,183,0.35320264,0.88576533,1.34252711,0.22008852,0.30895879,0.42974952
54087,0,USWestVirginiaRoane,West Virginia,Roane,2021-04-04 01:52:10.334779,2020-11-10 00:00:00.000000,0.67430215,1.49945721,2.10917452,92,205,288,52,126,188,0.38455942,0.92320859,1.38001252,0.23161608,0.31028833,0.43303869
54087,0,USWestVirginiaRoane,West Virginia,Roane,2021-04-04 01:52:10.334779,2020-11-11 00:00:00.000000,0.68365699,1.53702379,2.15826056,93,210,295,55,133,191,0.40561938,0.97306172,1.39724614,0.23240038,0.31078834,0.43657193
54087,0,USWestVirginiaRoane,West Virginia,Roane,2021-04-04 01:52:10.334779,2020-11-12 00:00:00.000000,0.68758979,1.58850176,2.21456991,94,217,303,58,137,195,0.42703796,1.00228747,1.42889594,0.23644115,0.31308061,0.44348281
54087,0,USWestVirginiaRoane,West Virginia,Roane,2021-04-04 01:52:10.334779,2020-11-13 00:00:00.000000,0.73828052,1.64199910,2.27581906,101,224,311,61,141,200,0.44885665,1.03720489,1.46292903,0.24623650,0.32124426,0.44684660
54087,0,USWestVirginiaRoane,West Virginia,Roane,2021-04-04 01:52:10.334779,2020-11-14 00:00:00.000000,0.76340090,1.70542412,2.38626239,104,233,326,62,146,208,0.45561015,1.07097289,1.52438065,0.25690592,0.32464505,0.44601579
54087,0,USWestVirginiaRoane,West Virginia,Roane,2021-04-04 01:52:10.334779,2020-11-15 00:00:00.000000,0.80584464,1.75499060,2.54507905,110,240,348,67,150,218,0.49211287,1.09975285,1.59711958,0.26097533,0.33252395,0.44975598
54087,0,USWestVirginiaRoane,West Virginia,Roane,2021-04-04 01:52:10.334779,2020-11-16 00:00:00.000000,0.85973550,1.79996359,2.69973938,117,246,369,70,157,229,0.51233906,1.14958394,1.67300835,0.26305721,0.33911090,0.45598461
54087,0,USWestVirginiaRoane,West Virginia,Roane,2021-04-04 01:52:10.334779,2020-11-17 00:00:00.000000,0.91782882,1.84889556,2.83850938,125,253,388,73,162,239,0.53662543,1.18946509,1.75282781,0.26529289,0.34481118,0.47313770
54087,0,USWestVirginiaRoane,West Virginia,Roane,2021-04-04 01:52:10.334779,2020-11-18 00:00:00.000000,0.97955901,1.93088476,2.98280713,134,264,408,77,166,252,0.56320193,1.21386428,1.84485348,0.26693472,0.34831287,0.48060683
54087,0,USWestVirginiaRoane,West Virginia,Roane,2021-04-04 01:52:10.334779,2020-11-19 00:00:00.000000,1.04455144,2.00762115,3.13218415,142,274,428,80,171,267,0.59147141,1.25572539,1.95244580,0.26999722,0.35139032,0.48708399
54087,0,USWestVirginiaRoane,West Virginia,Roane,2021-04-04 01:52:10.334779,2020-11-20 00:00:00.000000,1.11286784,2.09081947,3.28716707,152,286,449,85,181,283,0.62124374,1.32882112,2.07397807,0.27007547,0.35750053,0.48833121
54087,0,USWestVirginiaRoane,West Virginia,Roane,2021-04-04 01:52:10.334779,2020-11-21 00:00:00.000000,1.18460013,2.21826789,3.45023065,162,303,472,89,190,301,0.65205575,1.38868000,2.20587523,0.27010552,0.35810434,0.47909392
54087,0,USWestVirginiaRoane,West Virginia,Roane,2021-04-04 01:52:10.334779,2020-11-22 00:00:00.000000,1.26023460,2.33006162,3.62071740,172,318,495,93,196,318,0.68389543,1.43534503,2.32869123,0.27041756,0.36163650,0.46858972
54087,0,USWestVirginiaRoane,West Virginia,Roane,2021-04-04 01:52:10.334779,2020-11-23 00:00:00.000000,1.34586520,2.41830960,3.78979949,184,331,518,98,207,332,0.71669711,1.51942686,2.43063100,0.27044771,0.35637206,0.45984599
54087,0,USWestVirginiaRoane,West Virginia,Roane,2021-04-04 01:52:10.334779,2020-11-24 00:00:00.000000,1.38800827,2.55239294,3.96119117,189,349,542,102,217,344,0.74602184,1.58582564,2.51490712,0.27180447,0.35562160,0.45550979
54087,0,USWestVirginiaRoane,West Virginia,Roane,2021-04-04 01:52:10.334779,2020-11-25 00:00:00.000000,1.42194039,2.64114827,4.12959748,194,361,565,105,225,356,0.77382375,1.64887689,2.60166416,0.27354374,0.35590472,0.45299598
54087,0,USWestVirginiaRoane,West Virginia,Roane,2021-04-04 01:52:10.334779,2020-11-26 00:00:00.000000,1.48050415,2.68917548,4.27578759,202,368,585,112,231,373,0.82140473,1.69487284,2.73057996,0.25339495,0.35362792,0.45335889
54087,0,USWestVirginiaRoane,West Virginia,Roane,2021-04-04 01:52:10.334779,2020-11-27 00:00:00.000000,1.58503106,2.73750323,4.45714148,216,374,610,120,237,391,0.88172243,1.73591910,2.85918129,0.25210554,0.34846476,0.45315955
54087,0,USWestVirginiaRoane,West Virginia,Roane,2021-04-04 01:52:10.334779,2020-11-28 00:00:00.000000,1.62617788,2.77896678,4.56059643,222,380,624,125,243,408,0.91921042,1.78227631,2.98653871,0.25146871,0.33879494,0.45113592
54087,0,USWestVirginiaRoane,West Virginia,Roane,2021-04-04 01:52:10.334779,2020-11-29 00:00:00.000000,1.65945990,2.83377379,4.68566323,227,387,641,128,249,425,0.94215132,1.82141975,3.11010164,0.24183891,0.32928610,0.43890639
54087,0,USWestVirginiaRoane,West Virginia,Roane,2021-04-04 01:52:10.334779,2020-11-30 00:00:00.000000,1.70411038,2.90359410,4.79277631,233,397,656,132,255,441,0.96819574,1.86621838,3.22662037,0.23680213,0.32667438,0.45610521
54087,0,USWestVirginiaRoane,West Virginia,Roane,2021-04-04 01:52:10.334779,2020-12-01 00:00:00.000000,1.74800373,2.95234099,4.86057897,239,404,665,137,260,456,1.00286786,1.90199591,3.33546813,0.23453280,0.31918962,0.46909192
54087,0,USWestVirginiaRoane,West Virginia,Roane,2021-04-04 01:52:10.334779,2020-12-02 00:00:00.000000,1.79232654,2.99895352,4.95426851,245,410,678,143,265,470,1.04530154,1.93682359,3.43692260,0.24031986,0.31642529,0.44766198
54087,0,USWestVirginiaRoane,West Virginia,Roane,2021-04-04 01:52:10.334779,2020-12-03 00:00:00.000000,1.85049214,3.06681957,5.02957981,253,419,688,148,271,483,1.08338173,1.98337061,3.53168526,0.23421162,0.31314712,0.42359325
54087,0,USWestVirginiaRoane,West Virginia,Roane,2021-04-04 01:52:10.334779,2020-12-04 00:00:00.000000,1.87905613,3.13952569,5.08753179,257,429,696,152,277,495,1.11300809,2.02933714,3.61801829,0.22464515,0.30960221,0.40892434
54087,0,USWestVirginiaRoane,West Virginia,Roane,2021-04-04 01:52:10.334779,2020-12-05 00:00:00.000000,1.92254319,3.21516199,5.18203287,263,440,709,155,283,505,1.13537414,2.07209710,3.69083335,0.22139657,0.30655930,0.40115626
54087,0,USWestVirginiaRoane,West Virginia,Roane,2021-04-04 01:52:10.334779,2020-12-06 00:00:00.000000,1.94904628,3.26585481,5.20506473,266,447,712,157,290,513,1.14884577,2.12007912,3.74788653,0.21933392,0.30418412,0.39459021
54087,0,USWestVirginiaRoane,West Virginia,Roane,2021-04-04 01:52:10.334779,2020-12-07 00:00:00.000000,1.96304190,3.31295982,5.20132796,268,453,711,158,297,519,1.16148317,2.17674771,3.79244956,0.20888085,0.29769942,0.39378937
54087,0,USWestVirginiaRoane,West Virginia,Roane,2021-04-04 01:52:10.334779,2020-12-08 00:00:00.000000,1.97194726,3.35118765,5.26771522,269,458,721,163,300,523,1.19231245,2.19274324,3.82715617,0.20439673,0.29949411,0.39391369
54087,0,USWestVirginiaRoane,West Virginia,Roane,2021-04-04 01:52:10.334779,2020-12-09 00:00:00.000000,1.98610793,3.35780970,5.33482982,271,459,730,164,301,527,1.20266559,2.20183077,3.85592721,0.20425134,0.29942875,0.39336993
54087,0,USWestVirginiaRoane,West Virginia,Roane,2021-04-04 01:52:10.334779,2020-12-10 00:00:00.000000,1.99609077,3.43240163,5.40380396,273,469,739,164,301,531,1.20145999,2.20445697,3.88126683,0.20383537,0.29915763,0.38730503
54087,0,USWestVirginiaRoane,West Virginia,Roane,2021-04-04 01:52:10.334779,2020-12-11 00:00:00.000000,2.00404602,3.56811062,5.47780606,274,488,749,164,302,534,1.19990029,2.21262860,3.90495576,0.20813792,0.29720455,0.38151811
54087,0,USWestVirginiaRoane,West Virginia,Roane,2021-04-04 01:52:10.334779,2020-12-12 00:00:00.000000,2.01086621,3.61284801,5.46102778,275,494,747,163,309,537,1.19804459,2.26053955,3.92759552,0.21061658,0.29699977,0.38627996
54087,0,USWestVirginiaRoane,West Virginia,Roane,2021-04-04 01:52:10.334779,2020-12-13 00:00:00.000000,2.01588021,3.63900495,5.36803747,275,498,734,163,317,540,1.19595239,2.32119704,3.95059079,0.20255469,0.29837736,0.38733993
54087,0,USWestVirginiaRoane,West Virginia,Roane,2021-04-04 01:52:10.334779,2020-12-14 00:00:00.000000,2.00950394,3.66135102,5.34406506,275,501,731,164,326,540,1.19942863,2.38842498,3.94785480,0.20061241,0.29744260,0.38758445
54087,0,USWestVirginiaRoane,West Virginia,Roane,2021-04-04 01:52:10.334779,2020-12-15 00:00:00.000000,2.00478748,3.72416542,5.41680985,274,509,741,164,332,531,1.20066212,2.43009369,3.87996403,0.21025975,0.29744861,0.40125854
54087,0,USWestVirginiaRoane,West Virginia,Roane,2021-04-04 01:52:10.334779,2020-12-16 00:00:00.000000,2.00956107,3.74106322,5.50916985,275,512,754,165,340,529,1.21192519,2.48461651,3.86516285,0.21355779,0.29996835,0.40684496
54087,0,USWestVirginiaRoane,West Virginia,Roane,2021-04-04 01:52:10.334779,2020-12-17 00:00:00.000000,2.02995996,3.80596680,5.59671705,277,520,766,166,342,538,1.21385109,2.49881802,3.93285662,0.22707273,0.30156729,0.42085150
54087,0,USWestVirginiaRoane,West Virginia,Roane,2021-04-04 01:52:10.334779,2020-12-18 00:00:00.000000,2.06220936,3.81496962,5.67714489,282,522,777,166,342,544,1.21921879,2.50307879,3.98002365,0.22998367,0.30370874,0.45155961
54087,0,USWestVirginiaRoane,West Virginia,Roane,2021-04-04 01:52:10.334779,2020-12-19 00:00:00.000000,2.06662901,3.84418205,5.74945369,282,526,786,168,343,549,1.23281603,2.51219131,4.01170797,0.23447202,0.30985569,0.45409492
54087,0,USWestVirginiaRoane,West Virginia,Roane,2021-04-04 01:52:10.334779,2020-12-20 00:00:00.000000,2.06699483,3.84680560,5.81460633,282,526,795,171,347,552,1.25259176,2.53765366,4.03306203,0.23676121,0.31131321,0.45488945
54087,0,USWestVirginiaRoane,West Virginia,Roane,2021-04-04 01:52:10.334779,2020-12-21 00:00:00.000000,2.07917897,3.91368112,5.87239463,284,535,803,174,349,554,1.27643810,2.55242119,4.04792700,0.23606111,0.31549876,0.45316949
54087,0,USWestVirginiaRoane,West Virginia,Roane,2021-04-04 01:52:10.334779,2020-12-22 00:00:00.000000,2.09664608,3.98425125,5.92812344,286,545,811,177,353,557,1.29935778,2.58275406,4.07487707,0.22999950,0.31750227,0.45368269
54087,0,USWestVirginiaRoane,West Virginia,Roane,2021-04-04 01:52:10.334779,2020-12-23 00:00:00.000000,2.12068507,4.04821293,6.02415888,290,554,824,180,354,562,1.32206987,2.59097255,4.10644291,0.22936144,0.31908744,0.45192023
54087,0,USWestVirginiaRoane,West Virginia,Roane,2021-04-04 01:52:10.334779,2020-12-24 00:00:00.000000,2.16038869,4.07288223,6.13207873,295,557,839,184,358,574,1.34478601,2.61577382,4.19695043,0.23933081,0.32259018,0.44299437
54087,0,USWestVirginiaRoane,West Virginia,Roane,2021-04-04 01:52:10.334779,2020-12-25 00:00:00.000000,2.24374819,4.09159252,6.22849246,307,560,852,187,363,586,1.36710103,2.65588559,4.28205014,0.23875828,0.32377382,0.44650863
54087,0,USWestVirginiaRoane,West Virginia,Roane,2021-04-04 01:52:10.334779,2020-12-26 00:00:00.000000,2.33473442,4.09276683,6.31611522,319,560,864,190,368,596,1.39412315,2.69393984,4.35652654,0.23741475,0.32472196,0.45150556
54087,0,USWestVirginiaRoane,West Virginia,Roane,2021-04-04 01:52:10.334779,2020-12-27 00:00:00.000000,2.38258224,4.13082967,6.39403346,326,565,875,195,371,599,1.43096677,2.71696242,4.38019178,0.23459212,0.33429567,0.44960624
54087,0,USWestVirginiaRoane,West Virginia,Roane,2021-04-04 01:52:10.334779,2020-12-28 00:00:00.000000,2.42753785,4.15022325,6.44962096,332,568,882,201,373,603,1.47224509,2.73141250,4.40883595,0.23955829,0.33013000,0.45705298
54087,0,USWestVirginiaRoane,West Virginia,Roane,2021-04-04 01:52:10.334779,2020-12-29 00:00:00.000000,2.48038830,4.15989738,6.49807974,339,569,889,208,375,606,1.52027228,2.74129260,4.43400424,0.24046486,0.33031367,0.46731979
54087,0,USWestVirginiaRoane,West Virginia,Roane,2021-04-04 01:52:10.334779,2020-12-30 00:00:00.000000,2.51981204,4.21262299,6.53782909,344,576,894,215,375,616,1.57142519,2.74564792,4.50608760,0.24453676,0.32847530,0.46562462
54087,0,USWestVirginiaRoane,West Virginia,Roane,2021-04-04 01:52:10.334779,2020-12-31 00:00:00.000000,2.56166566,4.27532670,6.56575019,350,585,898,221,379,626,1.62088825,2.77412896,4.57516201,0.24288948,0.33546835,0.47948556
54087,0,USWestVirginiaRoane,West Virginia,Roane,2021-04-04 01:52:10.334779,2021-01-01 00:00:00.000000,2.61831800,4.37871384,6.57986613,358,599,900,223,387,634,1.63577799,2.82911266,4.63804911,0.24751632,0.32889948,0.47910706
54087,0,USWestVirginiaRoane,West Virginia,Roane,2021-04-04 01:52:10.334779,2021-01-02 00:00:00.000000,2.70507116,4.41179963,6.58356464,370,603,901,225,393,639,1.65001167,2.87163447,4.66889387,0.24387532,0.32138986,0.47300097
54087,0,USWestVirginiaRoane,West Virginia,Roane,2021-04-04 01:52:10.334779,2021-01-03 00:00:00.000000,2.68262838,4.46770748,6.58048229,367,611,900,224,400,640,1.63744133,2.92468888,4.68023286,0.24696490,0.32169000,0.45477077
54087,0,USWestVirginiaRoane,West Virginia,Roane,2021-04-04 01:52:10.334779,2021-01-04 00:00:00.000000,2.70602127,4.55131521,6.57249440,370,622,899,225,407,641,1.65080407,2.97509655,4.68507832,0.23986116,0.31580431,0.44117738
54087,0,USWestVirginiaRoane,West Virginia,Roane,2021-04-04 01:52:10.334779,2021-01-05 00:00:00.000000,2.71165099,4.56598934,6.56106545,371,624,898,227,410,641,1.66181781,2.99906746,4.68492851,0.23735929,0.31661701,0.44241815
54087,0,USWestVirginiaRoane,West Virginia,Roane,2021-04-04 01:52:10.334779,2021-01-06 00:00:00.000000,2.69172555,4.55850958,6.73465864,368,623,921,227,413,640,1.65905483,3.01843964,4.68068618,0.24324329,0.31595895,0.44217314
54087,0,USWestVirginiaRoane,West Virginia,Roane,2021-04-04 01:52:10.334779,2021-01-07 00:00:00.000000,2.67809041,4.55412793,6.82547841,366,623,934,226,414,639,1.65642745,3.02599348,4.67274438,0.22664198,0.31254996,0.43904682
54087,0,USWestVirginiaRoane,West Virginia,Roane,2021-04-04 01:52:10.334779,2021-01-08 00:00:00.000000,2.67938103,4.56676077,6.80416861,366,625,931,227,418,638,1.66127293,3.05594065,4.66103480,0.22694273,0.31007438,0.44051541
54087,0,USWestVirginiaRoane,West Virginia,Roane,2021-04-04 01:52:10.334779,2021-01-09 00:00:00.000000,2.70211719,4.57067723,6.79906557,369,625,930,228,420,635,1.67004638,3.07058577,4.64508255,0.22937145,0.30431901,0.44033048
54087,0,USWestVirginiaRoane,West Virginia,Roane,2021-04-04 01:52:10.334779,2021-01-10 00:00:00.000000,2.72149197,4.56478356,6.88738774,372,624,942,229,418,633,1.67664209,3.05583798,4.62824276,0.22062076,0.29929399,0.43514128
54087,0,USWestVirginiaRoane,West Virginia,Roane,2021-04-04 01:52:10.334779,2021-01-11 00:00:00.000000,2.72018954,4.51941688,6.97476665,372,618,954,230,415,642,1.68167152,3.03913443,4.69248271,0.21924996,0.30121618,0.42869609
54087,0,USWestVirginiaRoane,West Virginia,Roane,2021-04-04 01:52:10.334779,2021-01-12 00:00:00.000000,2.71869790,4.45106858,7.05463389,372,609,965,232,412,651,1.69536062,3.01674620,4.75611757,0.21900277,0.29535987,0.41767361
54087,0,USWestVirginiaRoane,West Virginia,Roane,2021-04-04 01:52:10.334779,2021-01-13 00:00:00.000000,2.71090605,4.46502012,7.12583642,371,611,975,234,411,659,1.71280317,3.00297360,4.81589560,0.21865044,0.29179797,0.41471674
54087,0,USWestVirginiaRoane,West Virginia,Roane,2021-04-04 01:52:10.334779,2021-01-14 00:00:00.000000,2.71594971,4.47032275,7.18634101,371,611,983,237,413,666,1.73163227,3.01800332,4.87068019,0.22754345,0.29426122,0.40709499
54087,0,USWestVirginiaRoane,West Virginia,Roane,2021-04-04 01:52:10.334779,2021-01-15 00:00:00.000000,2.71582405,4.43330182,7.23150017,371,606,989,235,412,673,1.72222702,3.01119548,4.91928240,0.23558356,0.28956468,0.38698786
54087,0,USWestVirginiaRoane,West Virginia,Roane,2021-04-04 01:52:10.334779,2021-01-16 00:00:00.000000,2.71175535,4.39371645,7.25221025,371,601,992,229,410,678,1.67992955,3.00175196,4.95505050,0.23527838,0.28726058,0.37970446
54087,0,USWestVirginiaRoane,West Virginia,Roane,2021-04-04 01:52:10.334779,2021-01-17 00:00:00.000000,2.63358969,4.35209882,7.24287689,360,595,991,223,409,679,1.63320498,2.99026686,4.96184513,0.22998307,0.28203759,0.37315815
54087,0,USWestVirginiaRoane,West Virginia,Roane,2021-04-04 01:52:10.334779,2021-01-18 00:00:00.000000,2.55861692,4.30005989,7.21409722,350,588,987,224,404,676,1.63662436,2.95599577,4.93904867,0.22424359,0.28338726,0.36716069
54087,0,USWestVirginiaRoane,West Virginia,Roane,2021-04-04 01:52:10.334779,2021-01-19 00:00:00.000000,2.48374423,4.18994062,7.16944689,339,573,981,221,398,670,1.61628652,2.91032431,4.89899990,0.21307705,0.28451014,0.37200898
54087,0,USWestVirginiaRoane,West Virginia,Roane,2021-04-04 01:52:10.334779,2021-01-20 00:00:00.000000,2.43973692,4.04054643,7.11407407,333,553,973,214,391,663,1.56892818,2.85714327,4.84856321,0.21062762,0.28380783,0.36889802
54087,0,USWestVirginiaRoane,West Virginia,Roane,2021-04-04 01:52:10.334779,2021-01-21 00:00:00.000000,2.42373828,3.97928975,7.04916092,331,544,964,208,379,662,1.52250996,2.77401611,4.83899018,0.20743061,0.28259640,0.37151116
54087,0,USWestVirginiaRoane,West Virginia,Roane,2021-04-04 01:52:10.334779,2021-01-22 00:00:00.000000,2.39776410,3.97126676,6.99076076,328,543,956,202,377,662,1.47726722,2.75581856,4.83647583,0.20197888,0.28207673,0.37316190
54087,0,USWestVirginiaRoane,West Virginia,Roane,2021-04-04 01:52:10.334779,2021-01-23 00:00:00.000000,2.39208998,3.95867286,6.89909503,327,541,944,196,375,661,1.43353802,2.74072887,4.83297265,0.19912459,0.28299637,0.37334246
54087,0,USWestVirginiaRoane,West Virginia,Roane,2021-04-04 01:52:10.334779,2021-01-24 00:00:00.000000,2.31676681,3.90984327,6.81100689,317,535,932,190,374,660,1.39206162,2.73291083,4.82555732,0.19804562,0.28294074,0.39274281
54087,0,USWestVirginiaRoane,West Virginia,Roane,2021-04-04 01:52:10.334779,2021-01-25 00:00:00.000000,2.23282667,3.80639716,6.71136183,305,521,918,190,369,653,1.39524935,2.69726349,4.77294990,0.19779476,0.28907025,0.42742866
54087,0,USWestVirginiaRoane,West Virginia,Roane,2021-04-04 01:52:10.334779,2021-01-26 00:00:00.000000,2.14826288,3.75801082,6.61422455,294,514,905,190,363,645,1.39525639,2.65275891,4.71270449,0.19789845,0.29360929,0.44215789
54087,0,USWestVirginiaRoane,West Virginia,Roane,2021-04-04 01:52:10.334779,2021-01-27 00:00:00.000000,2.06442565,3.74336474,6.52571326,282,512,893,190,357,636,1.39368888,2.61068352,4.64990866,0.19645883,0.29632562,0.45022136
54087,0,USWestVirginiaRoane,West Virginia,Roane,2021-04-04 01:52:10.334779,2021-01-28 00:00:00.000000,1.98382822,3.72492741,6.45053977,271,509,882,188,351,628,1.37732825,2.56827845,4.58885260,0.19872354,0.29836802,0.45459443
54087,0,USWestVirginiaRoane,West Virginia,Roane,2021-04-04 01:52:10.334779,2021-01-29 00:00:00.000000,1.97977463,3.66704560,6.39241146,270,501,874,181,345,620,1.32326388,2.52617023,4.53317156,0.20029966,0.30571017,0.45982615
54087,0,USWestVirginiaRoane,West Virginia,Roane,2021-04-04 01:52:10.334779,2021-01-30 00:00:00.000000,1.93840550,3.61912208,6.41636801,265,495,878,174,343,614,1.27130133,2.50767736,4.48575375,0.21351718,0.31213934,0.46889796
54087,0,USWestVirginiaRoane,West Virginia,Roane,2021-04-04 01:52:10.334779,2021-01-31 00:00:00.000000,1.85992628,3.59450120,6.60110116,254,492,903,167,339,608,1.22058277,2.48254660,4.44853450,0.22852940,0.31795046,0.47927908
54087,0,USWestVirginiaRoane,West Virginia,Roane,2021-04-04 01:52:10.334779,2021-02-01 00:00:00.000000,1.81021500,3.57216610,6.60078397,247,488,903,160,335,605,1.17325571,2.45328077,4.42232600,0.24005617,0.34098979,0.51597798
54087,0,USWestVirginiaRoane,West Virginia,Roane,2021-04-04 01:52:10.334779,2021-02-02 00:00:00.000000,1.79496009,3.54312008,6.58102197,245,484,900,155,332,609,1.13419983,2.43178299,4.45250663,0.24439231,0.35434242,0.55684503
54087,0,USWestVirginiaRoane,West Virginia,Roane,2021-04-04 01:52:10.334779,2021-02-03 00:00:00.000000,1.82593778,3.55620815,6.80078628,249,486,930,153,329,632,1.11944930,2.40468420,4.62025760,0.25416959,0.40001181,0.56806880
54087,0,USWestVirginiaRoane,West Virginia,Roane,2021-04-04 01:52:10.334779,2021-02-04 00:00:00.000000,1.88440480,3.60576815,6.90120654,257,493,944,155,327,645,1.13272522,2.39049147,4.71727572,0.25501959,0.42034804,0.58341769
54087,0,USWestVirginiaRoane,West Virginia,Roane,2021-04-04 01:52:10.334779,2021-02-05 00:00:00.000000,1.99575092,3.65482122,7.07140749,273,500,967,159,329,649,1.16197517,2.40558208,4.74338268,0.25688044,0.44302896,0.63847332
54087,0,USWestVirginiaRoane,West Virginia,Roane,2021-04-04 01:52:10.334779,2021-02-06 00:00:00.000000,2.02921694,3.74188742,7.32733983,277,512,1002,166,334,658,1.21588723,2.44680850,4.80912014,0.26342813,0.48078299,0.68824044
54087,0,USWestVirginiaRoane,West Virginia,Roane,2021-04-04 01:52:10.334779,2021-02-07 00:00:00.000000,2.04570562,3.92017303,7.63588282,280,536,1045,172,343,667,1.25682078,2.51080445,4.87578552,0.27630697,0.52535349,0.71793899
54087,0,USWestVirginiaRoane,West Virginia,Roane,2021-04-04 01:52:10.334779,2021-02-08 00:00:00.000000,2.06425291,4.12309166,7.98783865,282,564,1093,172,355,669,1.26154569,2.59945770,4.89463060,0.29939181,0.56422911,0.78957292
54087,0,USWestVirginiaRoane,West Virginia,Roane,2021-04-04 01:52:10.334779,2021-02-09 00:00:00.000000,2.11949022,4.37991291,8.58943498,290,599,1175,172,370,689,1.25998035,2.70634244,5.03959219,0.34742966,0.57977135,0.81880724
54087,0,USWestVirginiaRoane,West Virginia,Roane,2021-04-04 01:52:10.334779,2021-02-10 00:00:00.000000,2.20033938,4.65323538,9.24284405,301,636,1265,176,388,715,1.28855237,2.83881061,5.22959805,0.38536460,0.62818061,0.82781246
54087,0,USWestVirginiaRoane,West Virginia,Roane,2021-04-04 01:52:10.334779,2021-02-11 00:00:00.000000,2.32165186,4.88944073,9.94851361,317,669,1361,187,414,758,1.36685341,3.02767444,5.53913074,0.47809062,0.69100257,0.89179232
54087,0,USWestVirginiaRoane,West Virginia,Roane,2021-04-04 01:52:10.334779,2021-02-12 00:00:00.000000,2.49311970,5.39157933,10.70613119,341,737,1465,204,444,808,1.49111983,3.24904217,5.90648958,0.51967070,0.75641259,0.93349995
54087,0,USWestVirginiaRoane,West Virginia,Roane,2021-04-04 01:52:10.334779,2021-02-13 00:00:00.000000,2.73758523,5.94638423,11.51085005,374,813,1575,225,478,855,1.64943877,3.49349343,6.25036595,0.59760057,0.81738603,0.95494310
54087,0,USWestVirginiaRoane,West Virginia,Roane,2021-04-04 01:52:10.334779,2021-02-14 00:00:00.000000,3.06983426,6.53556280,12.35585701,420,894,1691,241,507,908,1.76337172,3.70842072,6.63514978,0.66067324,0.85629777,0.97809734
54087,0,USWestVirginiaRoane,West Virginia,Roane,2021-04-04 01:52:10.334779,2021-02-15 00:00:00.000000,3.45926192,7.17539139,13.22742326,473,982,1810,265,542,963,1.93641361,3.96289187,7.03730968,0.70063106,0.88223738,1.01001995
54087,0,USWestVirginiaRoane,West Virginia,Roane,2021-04-04 01:52:10.334779,2021-02-16 00:00:00.000000,3.91697556,7.80016844,14.12895287,536,1067,1933,293,590,1026,2.14184085,4.31086473,7.50230996,0.73185258,0.89204568,1.01433683
54087,0,USWestVirginiaRoane,West Virginia,Roane,2021-04-04 01:52:10.334779,2021-02-17 00:00:00.000000,4.43571637,8.49097192,15.04715850,607,1162,2059,324,642,1103,2.37425010,4.69537998,8.06097229,0.76993308,0.89450983,1.01548746
54087,0,USWestVirginiaRoane,West Virginia,Roane,2021-04-04 01:52:10.334779,2021-02-18 00:00:00.000000,4.90370679,9.26569401,15.97249311,671,1268,2186,354,701,1193,2.59129435,5.12757152,8.71938945,0.77538663,0.89847269,1.01572691
54087,0,USWestVirginiaRoane,West Virginia,Roane,2021-04-04 01:52:10.334779,2021-02-19 00:00:00.000000,5.35302547,9.96641261,16.89088258,732,1364,2312,387,767,1296,2.83017030,5.60805450,9.46997027,0.77386331,0.89916119,1.01564101
54087,0,USWestVirginiaRoane,West Virginia,Roane,2021-04-04 01:52:10.334779,2021-02-20 00:00:00.000000,5.83038134,10.62450074,17.75484172,798,1454,2430,423,829,1399,3.09033268,6.05932017,10.22453171,0.72967571,0.89916286,1.01532550
54087,0,USWestVirginiaRoane,West Virginia,Roane,2021-04-04 01:52:10.334779,2021-02-21 00:00:00.000000,6.33467871,11.41375875,18.31071035,867,1562,2506,470,895,1504,3.43903589,6.54548924,10.99416048,0.71376028,0.89517915,0.99538229
54087,0,USWestVirginiaRoane,West Virginia,Roane,2021-04-04 01:52:10.334779,2021-02-22 00:00:00.000000,6.96432589,12.28011397,18.46004674,953,1680,2526,523,971,1611,3.82497848,7.09516563,11.77448651,0.70929952,0.88237491,0.97437240
54087,0,USWestVirginiaRoane,West Virginia,Roane,2021-04-04 01:52:10.334779,2021-02-23 00:00:00.000000,7.50683437,13.05769458,19.22614274,1027,1787,2631,577,1058,1705,4.22224218,7.73083004,12.45776301,0.56858704,0.85725405,0.96368710
54087,0,USWestVirginiaRoane,West Virginia,Roane,2021-04-04 01:52:10.334779,2021-02-24 00:00:00.000000,8.03235587,13.27224469,19.88957567,1099,1816,2722,635,1141,1783,4.64337617,8.34197475,13.03091765,0.44337249,0.79032464,0.92935768
54087,0,USWestVirginiaRoane,West Virginia,Roane,2021-04-04 01:52:10.334779,2021-02-25 00:00:00.000000,8.41316246,13.82282541,20.01940444,1151,1892,2740,680,1199,1862,4.97090570,8.76029994,13.60500772,0.35455585,0.61453145,0.85192815
54087,0,USWestVirginiaRoane,West Virginia,Roane,2021-04-04 01:52:10.334779,2021-02-26 00:00:00.000000,8.41058685,13.64651610,19.99124713,1151,1867,2736,712,1222,1922,5.20711843,8.93145140,14.04322277,0.24850145,0.42240832,0.73598464
54087,0,USWestVirginiaRoane,West Virginia,Roane,2021-04-04 01:52:10.334779,2021-02-27 00:00:00.000000,8.11212153,13.17894162,19.85675985,1110,1803,2717,699,1244,1956,5.11186148,9.09548304,14.29119751,0.18682327,0.32344415,0.53653732
54087,0,USWestVirginiaRoane,West Virginia,Roane,2021-04-04 01:52:10.334779,2021-02-28 00:00:00.000000,7.60504068,12.60162386,19.42532800,1040,1724,2658,677,1230,1962,4.94697287,8.99217839,14.33964927,0.17519514,0.27653755,0.47992614
54087,0,USWestVirginiaRoane,West Virginia,Roane,2021-04-04 01:52:10.334779,2021-03-01 00:00:00.000000,6.91382556,11.96888602,18.79034365,946,1638,2572,637,1201,1929,4.65909033,8.77814362,14.09712181,0.15873980,0.25953008,0.46766897
54087,0,USWestVirginiaRoane,West Virginia,Roane,2021-04-04 01:52:10.334779,2021-03-02 00:00:00.000000,6.12297493,11.28409224,18.16979645,838,1544,2487,588,1164,1871,4.29860204,8.50889010,13.67020151,0.15803974,0.25284095,0.45250363
54087,0,USWestVirginiaRoane,West Virginia,Roane,2021-04-04 01:52:10.334779,2021-03-03 00:00:00.000000,5.46324896,10.55866344,17.39337782,747,1445,2380,538,1123,1798,3.93736362,8.21081789,13.14120692,0.15717066,0.23936303,0.44662846
54087,0,USWestVirginiaRoane,West Virginia,Roane,2021-04-04 01:52:10.334779,2021-03-04 00:00:00.000000,4.95769310,10.01229374,16.41218605,678,1370,2246,491,1071,1717,3.58837725,7.82918536,12.55007894,0.13746540,0.23086005,0.40643958
54087,0,USWestVirginiaRoane,West Virginia,Roane,2021-04-04 01:52:10.334779,2021-03-05 00:00:00.000000,4.49426962,9.45846344,15.53462256,615,1294,2126,445,1019,1632,3.25512079,7.44550085,11.92752164,0.12893956,0.22247261,0.36617282
54087,0,USWestVirginiaRoane,West Virginia,Roane,2021-04-04 01:52:10.334779,2021-03-06 00:00:00.000000,4.07188385,8.78626903,14.84851977,557,1202,2032,402,952,1545,2.93777865,6.95711220,11.29364103,0.12775671,0.22040676,0.34962613
54087,0,USWestVirginiaRoane,West Virginia,Roane,2021-04-04 01:52:10.334779,2021-03-07 00:00:00.000000,3.68907925,8.14634331,14.17755988,504,1115,1940,361,886,1472,2.63817311,6.47771949,10.76002507,0.12721775,0.21904627,0.33737056
54087,0,USWestVirginiaRoane,West Virginia,Roane,2021-04-04 01:52:10.334779,2021-03-08 00:00:00.000000,3.33769419,7.54763539,13.51929004,456,1033,1850,322,823,1407,2.35839146,6.01932830,10.28559570,0.12698204,0.21605296,0.33078878
54087,0,USWestVirginiaRoane,West Virginia,Roane,2021-04-04 01:52:10.334779,2021-03-09 00:00:00.000000,3.02148443,7.03164230,12.86939408,413,962,1761,287,765,1341,2.10337731,5.59282732,9.79733655,0.12511677,0.21728612,0.32949514
54087,0,USWestVirginiaRoane,West Virginia,Roane,2021-04-04 01:52:10.334779,2021-03-10 00:00:00.000000,2.72188694,6.55935735,12.22185341,372,897,1672,259,715,1273,1.89385711,5.22914757,9.30633153,0.12256279,0.21828645,0.32874945
54087,0,USWestVirginiaRoane,West Virginia,Roane,2021-04-04 01:52:10.334779,2021-03-11 00:00:00.000000,2.46962036,6.11578163,11.57392936,338,837,1584,236,668,1207,1.72572876,4.88502888,8.82150134,0.12207866,0.21901695,0.32818282
54087,0,USWestVirginiaRoane,West Virginia,Roane,2021-04-04 01:52:10.334779,2021-03-12 00:00:00.000000,2.25023272,5.70067558,10.93007883,308,780,1496,215,624,1142,1.57352010,4.56028859,8.34945273,0.12118604,0.22000496,0.32828314
54087,0,USWestVirginiaRoane,West Virginia,Roane,2021-04-04 01:52:10.334779,2021-03-13 00:00:00.000000,2.04898410,5.32411199,10.29934079,280,728,1409,196,582,1080,1.43422911,4.25423137,7.89438829,0.11897236,0.21869528,0.33349108
54087,0,USWestVirginiaRoane,West Virginia,Roane,2021-04-04 01:52:10.334779,2021-03-14 00:00:00.000000,1.86516445,4.97181382,9.68909986,255,680,1326,178,542,1025,1.30636626,3.96625599,7.49475076,0.11991229,0.21750492,0.34718464
54087,0,USWestVirginiaRoane,West Virginia,Roane,2021-04-04 01:52:10.334779,2021-03-15 00:00:00.000000,1.70465103,4.61664985,9.12089103,233,631,1248,162,505,975,1.18936311,3.69600758,7.12428449,0.11980835,0.21659438,0.34868051
54087,0,USWestVirginiaRoane,West Virginia,Roane,2021-04-04 01:52:10.334779,2021-03-16 00:00:00.000000,1.55994715,4.29666189,8.57015717,213,588,1173,148,470,926,1.08585863,3.44032919,6.77225328,0.11977523,0.22352818,0.34932739
54087,0,USWestVirginiaRoane,West Virginia,Roane,2021-04-04 01:52:10.334779,2021-03-17 00:00:00.000000,1.43074476,4.00948532,8.03852362,195,548,1100,135,437,881,0.99336287,3.19549378,6.43708506,0.11979324,0.23314873,0.36352200
54087,0,USWestVirginiaRoane,West Virginia,Roane,2021-04-04 01:52:10.334779,2021-03-18 00:00:00.000000,1.31633736,3.74615388,7.53339995,180,512,1031,124,406,837,0.91063882,2.97312191,6.11705155,0.12050930,0.23616519,0.37146635
54087,0,USWestVirginiaRoane,West Virginia,Roane,2021-04-04 01:52:10.334779,2021-03-19 00:00:00.000000,1.21627771,3.50772578,7.19302717,166,480,984,114,379,795,0.83715802,2.77083708,5.81077292,0.12120764,0.24170826,0.37564867
54087,0,USWestVirginiaRoane,West Virginia,Roane,2021-04-04 01:52:10.334779,2021-03-20 00:00:00.000000,1.12919534,3.29215459,6.75088655,154,450,924,105,354,755,0.77264141,2.58734634,5.51755538,0.12282143,0.24417225,0.40878403
54087,0,USWestVirginiaRoane,West Virginia,Roane,2021-04-04 01:52:10.334779,2021-03-21 00:00:00.000000,1.04051765,3.06935827,6.33521436,142,420,867,96,330,716,0.70846364,2.41788135,5.23739167,0.12018262,0.24350368,0.41625455
54087,0,USWestVirginiaRoane,West Virginia,Roane,2021-04-04 01:52:10.334779,2021-03-22 00:00:00.000000,0.97191812,2.88372602,6.05532838,133,394,828,88,308,680,0.64869715,2.25335001,4.97036671,0.12304979,0.24458714,0.42816712
54087,0,USWestVirginiaRoane,West Virginia,Roane,2021-04-04 01:52:10.334779,2021-03-23 00:00:00.000000,0.92179954,2.71359378,5.79487603,126,371,793,82,289,645,0.60156934,2.11598134,4.71625738,0.12517078,0.24757302,0.49217229
54087,0,USWestVirginiaRoane,West Virginia,Roane,2021-04-04 01:52:10.334779,2021-03-24 00:00:00.000000,0.88634682,2.58321157,5.55040638,121,353,759,77,272,607,0.56657962,1.99411555,4.44025794,0.12606341,0.24860318,0.51705573
54087,0,USWestVirginiaRoane,West Virginia,Roane,2021-04-04 01:52:10.334779,2021-03-25 00:00:00.000000,0.85920432,2.48365822,5.23920894,117,339,717,74,257,572,0.54129546,1.87802480,4.18426910,0.12543461,0.25216021,0.53276241
54087,0,USWestVirginiaRoane,West Virginia,Roane,2021-04-04 01:52:10.334779,2021-03-26 00:00:00.000000,0.83803715,2.39544449,4.92845495,114,327,674,71,242,540,0.52231167,1.77469678,3.94719042,0.12328537,0.25564667,0.53919974
54087,0,USWestVirginiaRoane,West Virginia,Roane,2021-04-04 01:52:10.334779,2021-03-27 00:00:00.000000,0.81390480,2.26638907,4.63091522,111,310,633,69,231,510,0.50762249,1.69373471,3.72717934,0.12520220,0.25891805,0.54283137
54087,0,USWestVirginiaRoane,West Virginia,Roane,2021-04-04 01:52:10.334779,2021-03-28 00:00:00.000000,0.79559229,2.15714141,4.34492328,108,295,594,67,221,482,0.49592681,1.61828286,3.52254333,0.11734597,0.26442824,0.54613714
54087,0,USWestVirginiaRoane,West Virginia,Roane,2021-04-04 01:52:10.334779,2021-03-29 00:00:00.000000,0.75318925,2.04568860,4.05209814,103,280,554,66,209,456,0.48632664,1.53074854,3.33558946,0.11595434,0.26068416,0.57539699
54087,0,USWestVirginiaRoane,West Virginia,Roane,2021-04-04 01:52:10.334779,2021-03-30 00:00:00.000000,0.71142014,1.94700765,3.77174257,97,266,516,64,198,429,0.46779399,1.45333739,3.13656791,0.11702451,0.26683174,0.59111290
54087,0,USWestVirginiaRoane,West Virginia,Roane,2021-04-04 01:52:10.334779,2021-03-31 00:00:00.000000,0.66747490,1.85444600,3.50501256,91,253,479,61,184,402,0.44610920,1.34896596,2.94269176,0.12094275,0.27385243,0.60252510
54087,0,USWestVirginiaRoane,West Virginia,Roane,2021-04-04 01:52:10.334779,2021-04-01 00:00:00.000000,0.62256305,1.77100948,3.25341699,85,242,445,57,171,377,0.42203818,1.25491460,2.75521054,0.12102396,0.27536164,0.62037095
54087,0,USWestVirginiaRoane,West Virginia,Roane,2021-04-04 01:52:10.334779,2021-04-02 00:00:00.000000,0.57762722,1.65173762,3.01754610,79,226,413,53,165,352,0.39418392,1.20959938,2.57639968,0.12081837,0.27583559,0.64151468
54087,0,USWestVirginiaRoane,West Virginia,Roane,2021-04-04 01:52:10.334779,2021-04-03 00:00:00.000000,0.53375414,1.54003289,2.88718180,73,210,395,50,161,329,0.36623970,1.17675535,2.40675732,0.12108323,0.27380549,0.65860184
54087,0,USWestVirginiaRoane,West Virginia,Roane,2021-04-04 01:52:10.334779,2021-04-04 00:00:00.000000,0.49210730,1.43582002,2.77486924,67,196,379,46,154,307,0.33880226,1.12879455,2.24513063,0.11420735,0.27270073,0.66871906
54087,0,USWestVirginiaRoane,West Virginia,Roane,2021-04-04 01:52:10.334779,2021-04-05 00:00:00.000000,0.45303927,1.33869329,2.66639915,62,183,364,42,144,290,0.31251560,1.05705442,2.12203495,0.10710428,0.26965771,0.67309155
54087,0,USWestVirginiaRoane,West Virginia,Roane,2021-04-04 01:52:10.334779,2021-04-06 00:00:00.000000,0.41661248,1.24811504,2.56160644,57,170,350,39,134,279,0.28785933,0.98577088,2.03915441,0.10543565,0.26906950,0.67467358
54087,0,USWestVirginiaRoane,West Virginia,Roane,2021-04-04 01:52:10.334779,2021-04-07 00:00:00.000000,0.38286526,1.16380474,2.46033370,52,159,336,36,125,268,0.26481411,0.91924438,1.95919101,0.10574502,0.26850607,0.67523141
54087,0,USWestVirginiaRoane,West Virginia,Roane,2021-04-04 01:52:10.334779,2021-04-08 00:00:00.000000,0.35171783,1.08626412,2.36535128,48,148,323,33,117,257,0.24343191,0.85723843,1.88199375,0.10586626,0.26966299,0.67543041
54087,0,USWestVirginiaRoane,West Virginia,Roane,2021-04-04 01:52:10.334779,2021-04-09 00:00:00.000000,0.32303134,1.01657746,2.27574294,44,139,311,30,109,247,0.22367731,0.79985430,1.80748412,0.10591257,0.27012004,0.67550228
54087,0,USWestVirginiaRoane,West Virginia,Roane,2021-04-04 01:52:10.334779,2021-04-10 00:00:00.000000,0.29664305,0.95289354,2.20018976,40,130,301,28,102,237,0.20547071,0.74758066,1.73560959,0.10593008,0.27045126,0.67552846
54087,0,USWestVirginiaRoane,West Virginia,Roane,2021-04-04 01:52:10.334779,2021-04-11 00:00:00.000000,0.27238529,0.89237757,2.14537391,37,122,293,25,95,225,0.18871383,0.69627770,1.64823155,0.10593668,0.27052020,0.67553806
54087,0,USWestVirginiaRoane,West Virginia,Roane,2021-04-04 01:52:10.334779,2021-04-12 00:00:00.000000,0.24989071,0.83969726,2.09153426,34,114,286,23,88,211,0.17330344,0.64667251,1.54233405,0.10593916,0.27053467,0.67554159
54087,0,USWestVirginiaRoane,West Virginia,Roane,2021-04-04 01:52:10.334779,2021-04-13 00:00:00.000000,0.22526897,0.79791810,2.03387201,30,109,278,21,81,210,0.15913803,0.59610890,1.53865622,0.10594009,0.27053787,0.67554289
54087,0,USWestVirginiaRoane,West Virginia,Roane,2021-04-04 01:52:10.334779,2021-04-14 00:00:00.000000,0.20310366,0.74943022,1.97709991,27,102,270,20,75,202,0.14612092,0.55226579,1.48017893,0.10594044,0.27053866,0.67554337
54087,0,USWestVirginiaRoane,West Virginia,Roane,2021-04-04 01:52:10.334779,2021-04-15 00:00:00.000000,0.18187441,0.69073639,1.92119850,24,94,262,18,71,194,0.13275154,0.51944454,1.42385958,0.10594057,0.27053890,0.67554355
54087,0,USWestVirginiaRoane,West Virginia,Roane,2021-04-04 01:52:10.334779,2021-04-16 00:00:00.000000,0.16278460,0.63660286,1.86617219,22,87,255,16,67,187,0.11887186,0.49203211,1.36859866,0.10594062,0.27053898,0.67554362
