FIPS,HR_UID,nameid,province,region,analysisTime,dates,pointprevalence_025,pointprevalence_50,pointprevalence_975,pointinfections_025,pointinfections_50,pointinfections_975,pointinfectious_025,pointinfectious_50,pointinfectious_975,pointinfectiousprevalence_05,pointinfectiousprevalence_50,pointinfectiousprevalence_95,infectrate_025,infectrate_50,infectrate_975
30097,0,USMontanaSweetGrass,Montana,Sweet Grass,2021-04-04 07:29:17.614694,2020-03-09 00:00:00.000000,0.00136807,0.02369885,0.20810688,0,0,7,0,0,4,0.00068659,0.01294181,0.12763313,0.40254581,0.56897504,0.77884174
30097,0,USMontanaSweetGrass,Montana,Sweet Grass,2021-04-04 07:29:17.614694,2020-03-10 00:00:00.000000,0.00153469,0.02652208,0.21689430,0,0,8,0,0,4,0.00065537,0.01304220,0.11050303,0.40253786,0.56896361,0.77883944
30097,0,USMontanaSweetGrass,Montana,Sweet Grass,2021-04-04 07:29:17.614694,2020-03-11 00:00:00.000000,0.00170199,0.02949938,0.22662135,0,1,8,0,0,4,0.00066129,0.01348771,0.11052424,0.40252568,0.56891212,0.77883571
30097,0,USMontanaSweetGrass,Montana,Sweet Grass,2021-04-04 07:29:17.614694,2020-03-12 00:00:00.000000,0.00187298,0.03251229,0.23677858,0,1,8,0,0,4,0.00068911,0.01432144,0.11330903,0.40250563,0.56804204,0.77882962
30097,0,USMontanaSweetGrass,Montana,Sweet Grass,2021-04-04 07:29:17.614694,2020-03-13 00:00:00.000000,0.00205011,0.03535643,0.24711698,0,1,9,0,0,4,0.00075620,0.01545727,0.11752207,0.40246906,0.56565361,0.77881971
30097,0,USMontanaSweetGrass,Montana,Sweet Grass,2021-04-04 07:29:17.614694,2020-03-14 00:00:00.000000,0.00223550,0.03832872,0.25746955,0,1,9,0,0,4,0.00083319,0.01684973,0.12242171,0.40239402,0.56126820,0.77880362
30097,0,USMontanaSweetGrass,Montana,Sweet Grass,2021-04-04 07:29:17.614694,2020-03-15 00:00:00.000000,0.00243103,0.04144914,0.26760987,0,1,10,0,0,4,0.00091392,0.01853981,0.12762817,0.40222230,0.54911611,0.77877766
30097,0,USMontanaSweetGrass,Montana,Sweet Grass,2021-04-04 07:29:17.614694,2020-03-16 00:00:00.000000,0.00263842,0.04473584,0.27710985,0,1,10,0,0,4,0.00099867,0.02039229,0.13291133,0.40179665,0.54445314,0.77873545
30097,0,USMontanaSweetGrass,Montana,Sweet Grass,2021-04-04 07:29:17.614694,2020-03-17 00:00:00.000000,0.00285922,0.04858827,0.28530901,0,1,10,0,0,5,0.00108797,0.02241361,0.13659640,0.37903448,0.54051369,0.77823172
30097,0,USMontanaSweetGrass,Montana,Sweet Grass,2021-04-04 07:29:17.614694,2020-03-18 00:00:00.000000,0.00309473,0.05303122,0.29168865,0,1,10,0,0,5,0.00118243,0.02452609,0.13986106,0.37658165,0.53501297,0.77445762
30097,0,USMontanaSweetGrass,Montana,Sweet Grass,2021-04-04 07:29:17.614694,2020-03-19 00:00:00.000000,0.00334571,0.05648622,0.29636779,0,2,11,0,0,5,0.00128268,0.02657762,0.14245928,0.37317490,0.51647745,0.74719607
30097,0,USMontanaSweetGrass,Montana,Sweet Grass,2021-04-04 07:29:17.614694,2020-03-20 00:00:00.000000,0.00361179,0.05965716,0.29988606,0,2,11,0,1,5,0.00138935,0.02855897,0.14424660,0.36150002,0.50102815,0.72029697
30097,0,USMontanaSweetGrass,Montana,Sweet Grass,2021-04-04 07:29:17.614694,2020-03-21 00:00:00.000000,0.00389043,0.06298713,0.30272161,0,2,11,0,1,5,0.00150267,0.03047538,0.14521091,0.34006270,0.48256936,0.69220176
30097,0,USMontanaSweetGrass,Montana,Sweet Grass,2021-04-04 07:29:17.614694,2020-03-22 00:00:00.000000,0.00417574,0.06673306,0.30516266,0,2,11,0,1,5,0.00162219,0.03238953,0.14542891,0.31596623,0.46821161,0.67012600
30097,0,USMontanaSweetGrass,Montana,Sweet Grass,2021-04-04 07:29:17.614694,2020-03-23 00:00:00.000000,0.00445802,0.07032208,0.30742524,0,2,11,0,1,5,0.00174653,0.03467540,0.14501925,0.30765692,0.44423153,0.65488891
30097,0,USMontanaSweetGrass,Montana,Sweet Grass,2021-04-04 07:29:17.614694,2020-03-24 00:00:00.000000,0.00472369,0.07389177,0.30991085,0,2,11,0,1,5,0.00187302,0.03702246,0.14410613,0.29590108,0.43156010,0.65480212
30097,0,USMontanaSweetGrass,Montana,Sweet Grass,2021-04-04 07:29:17.614694,2020-03-25 00:00:00.000000,0.00495476,0.07820202,0.31580705,0,2,11,0,1,5,0.00199746,0.03948304,0.15148156,0.29328598,0.41962367,0.65429203
30097,0,USMontanaSweetGrass,Montana,Sweet Grass,2021-04-04 07:29:17.614694,2020-03-26 00:00:00.000000,0.00514488,0.08173474,0.32607900,0,3,12,0,1,5,0.00211389,0.04135877,0.16004030,0.28532205,0.41607771,0.64274591
30097,0,USMontanaSweetGrass,Montana,Sweet Grass,2021-04-04 07:29:17.614694,2020-03-27 00:00:00.000000,0.00531063,0.08539656,0.33393731,0,3,12,0,1,6,0.00221799,0.04324132,0.16454122,0.25632912,0.41186009,0.63787612
30097,0,USMontanaSweetGrass,Montana,Sweet Grass,2021-04-04 07:29:17.614694,2020-03-28 00:00:00.000000,0.00546766,0.08734129,0.34127854,0,3,12,0,1,6,0.00231015,0.04561613,0.17139330,0.24728086,0.40050890,0.63255838
30097,0,USMontanaSweetGrass,Montana,Sweet Grass,2021-04-04 07:29:17.614694,2020-03-29 00:00:00.000000,0.00562320,0.09008716,0.34842229,0,3,13,0,1,6,0.00239390,0.04669462,0.17781019,0.23987583,0.39134519,0.61921954
30097,0,USMontanaSweetGrass,Montana,Sweet Grass,2021-04-04 07:29:17.614694,2020-03-30 00:00:00.000000,0.00577998,0.09154085,0.35543452,0,3,13,0,1,6,0.00247256,0.04739964,0.18274445,0.23778045,0.37755470,0.59672906
30097,0,USMontanaSweetGrass,Montana,Sweet Grass,2021-04-04 07:29:17.614694,2020-03-31 00:00:00.000000,0.00593863,0.09532678,0.36231361,0,3,13,0,1,6,0.00254843,0.04875997,0.18690842,0.23732444,0.37495316,0.57627928
30097,0,USMontanaSweetGrass,Montana,Sweet Grass,2021-04-04 07:29:17.614694,2020-04-01 00:00:00.000000,0.00609758,0.09733652,0.36902007,0,3,13,0,1,7,0.00262306,0.04951472,0.19086887,0.22299194,0.37173245,0.56559084
30097,0,USMontanaSweetGrass,Montana,Sweet Grass,2021-04-04 07:29:17.614694,2020-04-02 00:00:00.000000,0.00625093,0.09808626,0.37549220,0,3,14,0,1,7,0.00269708,0.05109468,0.19468050,0.20768380,0.36790210,0.56084182
30097,0,USMontanaSweetGrass,Montana,Sweet Grass,2021-04-04 07:29:17.614694,2020-04-03 00:00:00.000000,0.00638709,0.10063779,0.38161649,0,3,14,0,1,7,0.00276972,0.05291469,0.19835761,0.20615820,0.34357911,0.52973996
30097,0,USMontanaSweetGrass,Montana,Sweet Grass,2021-04-04 07:29:17.614694,2020-04-04 00:00:00.000000,0.00649365,0.10313941,0.38697369,0,3,14,0,2,7,0.00283804,0.05428063,0.19901654,0.20494592,0.33179081,0.49417160
30097,0,USMontanaSweetGrass,Montana,Sweet Grass,2021-04-04 07:29:17.614694,2020-04-05 00:00:00.000000,0.00657505,0.10555000,0.38979719,0,3,14,0,2,7,0.00289805,0.05567494,0.19808419,0.20383788,0.32934111,0.47442024
30097,0,USMontanaSweetGrass,Montana,Sweet Grass,2021-04-04 07:29:17.614694,2020-04-06 00:00:00.000000,0.00664361,0.11014609,0.39094352,0,4,14,0,2,7,0.00294825,0.05792180,0.19607072,0.20259902,0.32493864,0.45856353
30097,0,USMontanaSweetGrass,Montana,Sweet Grass,2021-04-04 07:29:17.614694,2020-04-07 00:00:00.000000,0.00670722,0.11506988,0.39005579,0,4,14,0,2,7,0.00299026,0.06100984,0.19326020,0.20075729,0.32163217,0.44285384
30097,0,USMontanaSweetGrass,Montana,Sweet Grass,2021-04-04 07:29:17.614694,2020-04-08 00:00:00.000000,0.00676978,0.11683626,0.38819464,0,4,14,0,2,7,0.00302665,0.06326607,0.19053988,0.19518483,0.31823603,0.43045431
30097,0,USMontanaSweetGrass,Montana,Sweet Grass,2021-04-04 07:29:17.614694,2020-04-09 00:00:00.000000,0.00683342,0.11660722,0.39306099,0,4,14,0,2,7,0.00305967,0.06442768,0.19270736,0.18505974,0.31222717,0.42098662
30097,0,USMontanaSweetGrass,Montana,Sweet Grass,2021-04-04 07:29:17.614694,2020-04-10 00:00:00.000000,0.00689947,0.11627346,0.39913517,0,4,14,0,2,7,0.00309106,0.06490478,0.19431627,0.16496913,0.30410097,0.41390730
30097,0,USMontanaSweetGrass,Montana,Sweet Grass,2021-04-04 07:29:17.614694,2020-04-11 00:00:00.000000,0.00696855,0.11827304,0.40260606,0,4,15,0,2,7,0.00312205,0.06479805,0.19536503,0.15722070,0.29644192,0.41947801
30097,0,USMontanaSweetGrass,Montana,Sweet Grass,2021-04-04 07:29:17.614694,2020-04-12 00:00:00.000000,0.00704049,0.12059845,0.39887999,0,4,14,0,2,7,0.00316296,0.06569853,0.19573640,0.14501386,0.29441426,0.41142202
30097,0,USMontanaSweetGrass,Montana,Sweet Grass,2021-04-04 07:29:17.614694,2020-04-13 00:00:00.000000,0.00711473,0.12276921,0.39182898,0,4,14,0,2,7,0.00330404,0.06674127,0.19517673,0.14394991,0.28693259,0.39484998
30097,0,USMontanaSweetGrass,Montana,Sweet Grass,2021-04-04 07:29:17.614694,2020-04-14 00:00:00.000000,0.00733227,0.12281486,0.38185811,0,4,14,0,2,7,0.00346507,0.06750451,0.19381438,0.14545543,0.28024896,0.39515238
30097,0,USMontanaSweetGrass,Montana,Sweet Grass,2021-04-04 07:29:17.614694,2020-04-15 00:00:00.000000,0.00773862,0.12022757,0.36996846,0,4,13,0,2,7,0.00364396,0.06679138,0.19427055,0.15233443,0.27674564,0.39600163
30097,0,USMontanaSweetGrass,Montana,Sweet Grass,2021-04-04 07:29:17.614694,2020-04-16 00:00:00.000000,0.00790197,0.12128421,0.35649366,0,4,13,0,2,7,0.00383853,0.06592694,0.19358588,0.15320270,0.26828597,0.39659303
30097,0,USMontanaSweetGrass,Montana,Sweet Grass,2021-04-04 07:29:17.614694,2020-04-17 00:00:00.000000,0.00767896,0.12434921,0.34177304,0,4,12,0,2,7,0.00404698,0.06516371,0.18986707,0.15071622,0.26311033,0.39714814
30097,0,USMontanaSweetGrass,Montana,Sweet Grass,2021-04-04 07:29:17.614694,2020-04-18 00:00:00.000000,0.00748798,0.12162322,0.33147988,0,4,12,0,2,6,0.00426768,0.06630444,0.18290991,0.14790810,0.25497836,0.39822747
30097,0,USMontanaSweetGrass,Montana,Sweet Grass,2021-04-04 07:29:17.614694,2020-04-19 00:00:00.000000,0.00753057,0.11894269,0.32300395,0,4,12,0,2,6,0.00448579,0.06566997,0.17631308,0.14558103,0.24764242,0.40077492
30097,0,USMontanaSweetGrass,Montana,Sweet Grass,2021-04-04 07:29:17.614694,2020-04-20 00:00:00.000000,0.00759284,0.12117779,0.31196241,0,4,11,0,2,6,0.00437521,0.06394208,0.17564284,0.14412444,0.24713995,0.40642237
30097,0,USMontanaSweetGrass,Montana,Sweet Grass,2021-04-04 07:29:17.614694,2020-04-21 00:00:00.000000,0.00765446,0.11795952,0.30669889,0,4,11,0,2,6,0.00427665,0.06477962,0.17453954,0.13869014,0.24301178,0.41251216
30097,0,USMontanaSweetGrass,Montana,Sweet Grass,2021-04-04 07:29:17.614694,2020-04-22 00:00:00.000000,0.00771612,0.11835967,0.30092823,0,4,11,0,2,6,0.00418600,0.06437919,0.16947713,0.13880453,0.24343111,0.39320720
30097,0,USMontanaSweetGrass,Montana,Sweet Grass,2021-04-04 07:29:17.614694,2020-04-23 00:00:00.000000,0.00777806,0.11737793,0.29499363,0,4,11,0,2,6,0.00409973,0.06465774,0.16368139,0.13848009,0.23962089,0.41148731
30097,0,USMontanaSweetGrass,Montana,Sweet Grass,2021-04-04 07:29:17.614694,2020-04-24 00:00:00.000000,0.00784033,0.11652462,0.28953600,0,4,10,0,2,5,0.00401495,0.06502240,0.15789732,0.13352070,0.23886004,0.42583776
30097,0,USMontanaSweetGrass,Montana,Sweet Grass,2021-04-04 07:29:17.614694,2020-04-25 00:00:00.000000,0.00790313,0.11569199,0.28420563,0,4,10,0,2,5,0.00392909,0.06509928,0.15223161,0.12667884,0.23436621,0.42034167
30097,0,USMontanaSweetGrass,Montana,Sweet Grass,2021-04-04 07:29:17.614694,2020-04-26 00:00:00.000000,0.00796913,0.11560346,0.27818710,0,4,10,0,2,5,0.00384002,0.06514717,0.14672189,0.12319610,0.23441026,0.40316184
30097,0,USMontanaSweetGrass,Montana,Sweet Grass,2021-04-04 07:29:17.614694,2020-04-27 00:00:00.000000,0.00805934,0.11501626,0.27378140,0,4,10,0,2,5,0.00374658,0.06410007,0.14852630,0.11881231,0.22790273,0.40067194
30097,0,USMontanaSweetGrass,Montana,Sweet Grass,2021-04-04 07:29:17.614694,2020-04-28 00:00:00.000000,0.00819390,0.11227455,0.26840006,0,4,10,0,2,5,0.00365550,0.06262650,0.15072872,0.11596781,0.22433342,0.40221458
30097,0,USMontanaSweetGrass,Montana,Sweet Grass,2021-04-04 07:29:17.614694,2020-04-29 00:00:00.000000,0.00834139,0.10672789,0.26298391,0,3,9,0,2,5,0.00370079,0.06091023,0.15296806,0.11335163,0.22159796,0.40267330
30097,0,USMontanaSweetGrass,Montana,Sweet Grass,2021-04-04 07:29:17.614694,2020-04-30 00:00:00.000000,0.00849307,0.10119298,0.25748810,0,3,9,0,2,5,0.00375554,0.05915633,0.15165591,0.11151238,0.22161113,0.40225357
30097,0,USMontanaSweetGrass,Montana,Sweet Grass,2021-04-04 07:29:17.614694,2020-05-01 00:00:00.000000,0.00864501,0.09628787,0.25191377,0,3,9,0,2,5,0.00381650,0.05772829,0.14869748,0.10991176,0.21738272,0.40006339
30097,0,USMontanaSweetGrass,Montana,Sweet Grass,2021-04-04 07:29:17.614694,2020-05-02 00:00:00.000000,0.00879502,0.09427092,0.25124032,0,3,9,0,2,5,0.00388099,0.05655686,0.14569594,0.10730868,0.21854595,0.39386455
30097,0,USMontanaSweetGrass,Montana,Sweet Grass,2021-04-04 07:29:17.614694,2020-05-03 00:00:00.000000,0.00892252,0.09186818,0.25368775,0,3,9,0,2,5,0.00394569,0.05421220,0.14265958,0.10453245,0.21788378,0.37987289
30097,0,USMontanaSweetGrass,Montana,Sweet Grass,2021-04-04 07:29:17.614694,2020-05-04 00:00:00.000000,0.00902298,0.08822979,0.25539850,0,3,9,0,1,5,0.00400573,0.05297706,0.13960283,0.10415682,0.22083907,0.37052424
30097,0,USMontanaSweetGrass,Montana,Sweet Grass,2021-04-04 07:29:17.614694,2020-05-05 00:00:00.000000,0.00910908,0.08472302,0.25662595,0,3,9,0,1,5,0.00405766,0.05184696,0.13642739,0.10411978,0.21917044,0.37085339
30097,0,USMontanaSweetGrass,Montana,Sweet Grass,2021-04-04 07:29:17.614694,2020-05-06 00:00:00.000000,0.00918971,0.08141006,0.25755347,0,3,9,0,1,4,0.00410188,0.04936310,0.13325434,0.10419596,0.21867481,0.37090364
30097,0,USMontanaSweetGrass,Montana,Sweet Grass,2021-04-04 07:29:17.614694,2020-05-07 00:00:00.000000,0.00926818,0.07937996,0.25822304,0,2,9,0,1,4,0.00414201,0.04744540,0.13009072,0.10433038,0.21572075,0.37057348
30097,0,USMontanaSweetGrass,Montana,Sweet Grass,2021-04-04 07:29:17.614694,2020-05-08 00:00:00.000000,0.00934334,0.07633805,0.25842156,0,2,9,0,1,4,0.00418215,0.04679157,0.12819200,0.10470147,0.21508243,0.36903333
30097,0,USMontanaSweetGrass,Montana,Sweet Grass,2021-04-04 07:29:17.614694,2020-05-09 00:00:00.000000,0.00937611,0.07558908,0.25807142,0,2,9,0,1,4,0.00421972,0.04492811,0.12865592,0.10725389,0.21481999,0.35568942
30097,0,USMontanaSweetGrass,Montana,Sweet Grass,2021-04-04 07:29:17.614694,2020-05-10 00:00:00.000000,0.00923253,0.07526930,0.25745179,0,2,9,0,1,4,0.00424768,0.04313529,0.12891857,0.10968107,0.21487629,0.32161887
30097,0,USMontanaSweetGrass,Montana,Sweet Grass,2021-04-04 07:29:17.614694,2020-05-11 00:00:00.000000,0.00902733,0.07371509,0.25671945,0,2,9,0,1,4,0.00423591,0.04140676,0.12900054,0.10971622,0.21175888,0.31372219
30097,0,USMontanaSweetGrass,Montana,Sweet Grass,2021-04-04 07:29:17.614694,2020-05-12 00:00:00.000000,0.00880641,0.07157212,0.25175997,0,2,9,0,1,4,0.00418816,0.04026067,0.12894123,0.10870397,0.21049174,0.29196238
30097,0,USMontanaSweetGrass,Montana,Sweet Grass,2021-04-04 07:29:17.614694,2020-05-13 00:00:00.000000,0.00858056,0.06968167,0.24114885,0,2,9,0,1,4,0.00411660,0.03837277,0.12756924,0.10667619,0.20985723,0.29444483
30097,0,USMontanaSweetGrass,Montana,Sweet Grass,2021-04-04 07:29:17.614694,2020-05-14 00:00:00.000000,0.00835367,0.06739016,0.23057322,0,2,8,0,1,4,0.00403081,0.03698696,0.12256508,0.10539473,0.20851629,0.29739382
30097,0,USMontanaSweetGrass,Montana,Sweet Grass,2021-04-04 07:29:17.614694,2020-05-15 00:00:00.000000,0.00812723,0.06453501,0.22023162,0,2,8,0,1,4,0.00393695,0.03598235,0.11754240,0.10532955,0.20391046,0.29062992
30097,0,USMontanaSweetGrass,Montana,Sweet Grass,2021-04-04 07:29:17.614694,2020-05-16 00:00:00.000000,0.00789852,0.06180162,0.21026146,0,2,7,0,1,4,0.00383876,0.03504934,0.11255399,0.10528480,0.19926281,0.30251400
30097,0,USMontanaSweetGrass,Montana,Sweet Grass,2021-04-04 07:29:17.614694,2020-05-17 00:00:00.000000,0.00765733,0.05919162,0.20069172,0,2,7,0,1,4,0.00373777,0.03445517,0.10765868,0.10527687,0.19505951,0.31313648
30097,0,USMontanaSweetGrass,Montana,Sweet Grass,2021-04-04 07:29:17.614694,2020-05-18 00:00:00.000000,0.00739347,0.05767499,0.19151293,0,2,7,0,1,3,0.00363280,0.03325702,0.10289747,0.10037390,0.19201814,0.31762123
30097,0,USMontanaSweetGrass,Montana,Sweet Grass,2021-04-04 07:29:17.614694,2020-05-19 00:00:00.000000,0.00711725,0.05661078,0.18268579,0,2,6,0,1,3,0.00352113,0.03201870,0.09829307,0.09843114,0.18894148,0.32150645
30097,0,USMontanaSweetGrass,Montana,Sweet Grass,2021-04-04 07:29:17.614694,2020-05-20 00:00:00.000000,0.00684748,0.05468942,0.17424311,0,2,6,0,1,3,0.00340310,0.03143815,0.09419070,0.09851280,0.18957464,0.32263297
30097,0,USMontanaSweetGrass,Montana,Sweet Grass,2021-04-04 07:29:17.614694,2020-05-21 00:00:00.000000,0.00659506,0.05203919,0.16657604,0,1,6,0,1,3,0.00328265,0.03069120,0.09453241,0.09955273,0.18845109,0.32408968
30097,0,USMontanaSweetGrass,Montana,Sweet Grass,2021-04-04 07:29:17.614694,2020-05-22 00:00:00.000000,0.00636364,0.04986089,0.16641447,0,1,6,0,1,3,0.00316427,0.02950514,0.09478056,0.10129477,0.18666596,0.32529540
30097,0,USMontanaSweetGrass,Montana,Sweet Grass,2021-04-04 07:29:17.614694,2020-05-23 00:00:00.000000,0.00615208,0.04921733,0.16596372,0,1,6,0,1,3,0.00305131,0.02838465,0.09491557,0.10203552,0.18920806,0.32763278
30097,0,USMontanaSweetGrass,Montana,Sweet Grass,2021-04-04 07:29:17.614694,2020-05-24 00:00:00.000000,0.00595688,0.04926479,0.16524110,0,1,6,0,1,3,0.00294541,0.02817021,0.09491953,0.10324757,0.18113971,0.33194355
30097,0,USMontanaSweetGrass,Montana,Sweet Grass,2021-04-04 07:29:17.614694,2020-05-25 00:00:00.000000,0.00565077,0.04956879,0.16430154,0,1,6,0,1,3,0.00284682,0.02790739,0.09478409,0.10378106,0.18251090,0.33757708
30097,0,USMontanaSweetGrass,Montana,Sweet Grass,2021-04-04 07:29:17.614694,2020-05-26 00:00:00.000000,0.00533460,0.04989849,0.16320958,0,1,6,0,1,3,0.00275489,0.02730755,0.09451443,0.10273377,0.18388566,0.34099446
30097,0,USMontanaSweetGrass,Montana,Sweet Grass,2021-04-04 07:29:17.614694,2020-05-27 00:00:00.000000,0.00504525,0.04929984,0.16201877,0,1,6,0,0,3,0.00266862,0.02666859,0.09412657,0.10265277,0.18178159,0.34284653
30097,0,USMontanaSweetGrass,Montana,Sweet Grass,2021-04-04 07:29:17.614694,2020-05-28 00:00:00.000000,0.00477658,0.04771415,0.16076776,0,1,6,0,0,3,0.00258689,0.02604599,0.09364159,0.09648665,0.18381669,0.34483499
30097,0,USMontanaSweetGrass,Montana,Sweet Grass,2021-04-04 07:29:17.614694,2020-05-29 00:00:00.000000,0.00452626,0.04549842,0.15947864,0,1,5,0,0,3,0.00250853,0.02541967,0.09308094,0.09439261,0.18012800,0.34855531
30097,0,USMontanaSweetGrass,Montana,Sweet Grass,2021-04-04 07:29:17.614694,2020-05-30 00:00:00.000000,0.00429216,0.04327132,0.16284869,0,1,6,0,0,3,0.00243201,0.02423775,0.09246298,0.09481150,0.18229859,0.34985793
30097,0,USMontanaSweetGrass,Montana,Sweet Grass,2021-04-04 07:29:17.614694,2020-05-31 00:00:00.000000,0.00407230,0.04145552,0.16863364,0,1,6,0,0,3,0.00235484,0.02316418,0.09178748,0.09579986,0.17756215,0.34893714
30097,0,USMontanaSweetGrass,Montana,Sweet Grass,2021-04-04 07:29:17.614694,2020-06-01 00:00:00.000000,0.00386491,0.03987012,0.17464830,0,1,6,0,0,3,0.00227402,0.02215198,0.09093015,0.09664763,0.17406186,0.34342021
30097,0,USMontanaSweetGrass,Montana,Sweet Grass,2021-04-04 07:29:17.614694,2020-06-02 00:00:00.000000,0.00366835,0.03809241,0.17895403,0,1,6,0,0,3,0.00218815,0.02095444,0.08982913,0.09625828,0.17268065,0.33309613
30097,0,USMontanaSweetGrass,Montana,Sweet Grass,2021-04-04 07:29:17.614694,2020-06-03 00:00:00.000000,0.00348088,0.03605640,0.17497334,0,1,6,0,0,3,0.00209206,0.02019630,0.08855381,0.09626953,0.17393990,0.32380286
30097,0,USMontanaSweetGrass,Montana,Sweet Grass,2021-04-04 07:29:17.614694,2020-06-04 00:00:00.000000,0.00329989,0.03413269,0.17110372,0,1,6,0,0,3,0.00198497,0.01955958,0.08800481,0.09885889,0.17422682,0.31254097
30097,0,USMontanaSweetGrass,Montana,Sweet Grass,2021-04-04 07:29:17.614694,2020-06-05 00:00:00.000000,0.00312118,0.03267480,0.16735007,0,1,6,0,0,3,0.00188265,0.01870775,0.09056065,0.10287405,0.16986223,0.31187060
30097,0,USMontanaSweetGrass,Montana,Sweet Grass,2021-04-04 07:29:17.614694,2020-06-06 00:00:00.000000,0.00293977,0.03223463,0.16371520,0,1,6,0,0,3,0.00178340,0.01802460,0.08854548,0.10056324,0.16816260,0.31105068
30097,0,USMontanaSweetGrass,Montana,Sweet Grass,2021-04-04 07:29:17.614694,2020-06-07 00:00:00.000000,0.00275419,0.03121739,0.16028500,0,1,5,0,0,3,0.00168508,0.01737972,0.08658907,0.09650724,0.16705238,0.30876931
30097,0,USMontanaSweetGrass,Montana,Sweet Grass,2021-04-04 07:29:17.614694,2020-06-08 00:00:00.000000,0.00256841,0.03013843,0.15730005,0,1,5,0,0,3,0.00158614,0.01677339,0.08544245,0.09287390,0.16653843,0.30563104
30097,0,USMontanaSweetGrass,Montana,Sweet Grass,2021-04-04 07:29:17.614694,2020-06-09 00:00:00.000000,0.00238687,0.02876170,0.16161969,0,1,6,0,0,3,0.00148674,0.01628826,0.08898693,0.09023218,0.16645249,0.31413257
30097,0,USMontanaSweetGrass,Montana,Sweet Grass,2021-04-04 07:29:17.614694,2020-06-10 00:00:00.000000,0.00220823,0.02780043,0.16930604,0,1,6,0,0,3,0.00138816,0.01599758,0.09293698,0.08388433,0.16673217,0.31812615
30097,0,USMontanaSweetGrass,Montana,Sweet Grass,2021-04-04 07:29:17.614694,2020-06-11 00:00:00.000000,0.00202722,0.02725849,0.17706226,0,1,6,0,0,3,0.00129080,0.01553124,0.09721305,0.07905783,0.16978614,0.32488682
30097,0,USMontanaSweetGrass,Montana,Sweet Grass,2021-04-04 07:29:17.614694,2020-06-12 00:00:00.000000,0.00185275,0.02651026,0.18507426,0,0,6,0,0,3,0.00119354,0.01513362,0.10176049,0.07526093,0.17191046,0.31568024
30097,0,USMontanaSweetGrass,Montana,Sweet Grass,2021-04-04 07:29:17.614694,2020-06-13 00:00:00.000000,0.00168941,0.02609508,0.19309759,0,0,7,0,0,3,0.00109790,0.01472239,0.10652310,0.07765936,0.17216353,0.29788045
30097,0,USMontanaSweetGrass,Montana,Sweet Grass,2021-04-04 07:29:17.614694,2020-06-14 00:00:00.000000,0.00153797,0.02503167,0.19769227,0,0,7,0,0,4,0.00100597,0.01424407,0.11139317,0.07750810,0.16563238,0.29607633
30097,0,USMontanaSweetGrass,Montana,Sweet Grass,2021-04-04 07:29:17.614694,2020-06-15 00:00:00.000000,0.00143241,0.02401725,0.19090514,0,0,7,0,0,4,0.00091908,0.01381336,0.11380149,0.07646298,0.16596702,0.29410661
30097,0,USMontanaSweetGrass,Montana,Sweet Grass,2021-04-04 07:29:17.614694,2020-06-16 00:00:00.000000,0.00133692,0.02238069,0.18413548,0,0,6,0,0,4,0.00083792,0.01327187,0.11198597,0.07494934,0.16433751,0.32344520
30097,0,USMontanaSweetGrass,Montana,Sweet Grass,2021-04-04 07:29:17.614694,2020-06-17 00:00:00.000000,0.00124581,0.02085411,0.17738560,0,0,6,0,0,4,0.00076273,0.01275137,0.10811279,0.07346565,0.16454625,0.31183828
30097,0,USMontanaSweetGrass,Montana,Sweet Grass,2021-04-04 07:29:17.614694,2020-06-18 00:00:00.000000,0.00115962,0.01947133,0.17042679,0,0,6,0,0,3,0.00069348,0.01223134,0.10423287,0.07169377,0.16332228,0.30230285
30097,0,USMontanaSweetGrass,Montana,Sweet Grass,2021-04-04 07:29:17.614694,2020-06-19 00:00:00.000000,0.00107856,0.01815701,0.16304903,0,0,6,0,0,3,0.00062998,0.01173583,0.10033141,0.07439564,0.16314307,0.29277352
30097,0,USMontanaSweetGrass,Montana,Sweet Grass,2021-04-04 07:29:17.614694,2020-06-20 00:00:00.000000,0.00100262,0.01729754,0.15523617,0,0,5,0,0,3,0.00057189,0.01104860,0.09633010,0.07652443,0.16286806,0.28346397
30097,0,USMontanaSweetGrass,Montana,Sweet Grass,2021-04-04 07:29:17.614694,2020-06-21 00:00:00.000000,0.00093165,0.01643415,0.14732948,0,0,5,0,0,3,0.00051883,0.01042148,0.09216538,0.07788688,0.16310686,0.27473824
30097,0,USMontanaSweetGrass,Montana,Sweet Grass,2021-04-04 07:29:17.614694,2020-06-22 00:00:00.000000,0.00086535,0.01552758,0.14227626,0,0,5,0,0,3,0.00047041,0.00983028,0.08788169,0.08175031,0.16045363,0.26793447
30097,0,USMontanaSweetGrass,Montana,Sweet Grass,2021-04-04 07:29:17.614694,2020-06-23 00:00:00.000000,0.00080291,0.01467408,0.14295041,0,0,5,0,0,3,0.00043668,0.00935325,0.08357181,0.07846678,0.15839762,0.26777486
30097,0,USMontanaSweetGrass,Montana,Sweet Grass,2021-04-04 07:29:17.614694,2020-06-24 00:00:00.000000,0.00074284,0.01401951,0.14381197,0,0,5,0,0,2,0.00040555,0.00898207,0.07931712,0.07480804,0.15724800,0.27641718
30097,0,USMontanaSweetGrass,Montana,Sweet Grass,2021-04-04 07:29:17.614694,2020-06-25 00:00:00.000000,0.00068568,0.01345723,0.14453931,0,0,5,0,0,2,0.00037602,0.00840764,0.07517436,0.07150345,0.15652759,0.26608096
30097,0,USMontanaSweetGrass,Montana,Sweet Grass,2021-04-04 07:29:17.614694,2020-06-26 00:00:00.000000,0.00063206,0.01291803,0.14519633,0,0,5,0,0,2,0.00034796,0.00784108,0.07233533,0.06950920,0.15845574,0.26720656
30097,0,USMontanaSweetGrass,Montana,Sweet Grass,2021-04-04 07:29:17.614694,2020-06-27 00:00:00.000000,0.00058158,0.01214498,0.14584191,0,0,5,0,0,2,0.00032143,0.00729913,0.07253919,0.06741609,0.15752091,0.26876323
30097,0,USMontanaSweetGrass,Montana,Sweet Grass,2021-04-04 07:29:17.614694,2020-06-28 00:00:00.000000,0.00053345,0.01141031,0.14649127,0,0,5,0,0,2,0.00029641,0.00683890,0.07278102,0.06646324,0.15419178,0.27064112
30097,0,USMontanaSweetGrass,Montana,Sweet Grass,2021-04-04 07:29:17.614694,2020-06-29 00:00:00.000000,0.01794013,0.05540324,0.17574227,0,2,6,0,0,2,0.00027271,0.00645592,0.07304926,0.06675564,0.15175516,0.26984537
30097,0,USMontanaSweetGrass,Montana,Sweet Grass,2021-04-04 07:29:17.614694,2020-06-30 00:00:00.000000,0.03162734,0.09864694,0.24313515,1,3,9,0,0,2,0.00495117,0.01688238,0.07781796,0.06790358,0.15272554,0.26174251
30097,0,USMontanaSweetGrass,Montana,Sweet Grass,2021-04-04 07:29:17.614694,2020-07-01 00:00:00.000000,0.04540658,0.14017554,0.31034965,1,5,11,0,1,3,0.00963070,0.03253686,0.09323520,0.06652143,0.15261409,0.26041370
30097,0,USMontanaSweetGrass,Montana,Sweet Grass,2021-04-04 07:29:17.614694,2020-07-02 00:00:00.000000,0.05917090,0.18028019,0.38667577,2,6,14,0,1,4,0.01585309,0.04877108,0.11952614,0.06638892,0.14801749,0.27053265
30097,0,USMontanaSweetGrass,Montana,Sweet Grass,2021-04-04 07:29:17.614694,2020-07-03 00:00:00.000000,0.07275416,0.22183678,0.46282651,2,8,17,0,2,6,0.02222831,0.06736141,0.16558271,0.06687662,0.14578744,0.27375404
30097,0,USMontanaSweetGrass,Montana,Sweet Grass,2021-04-04 07:29:17.614694,2020-07-04 00:00:00.000000,0.08611964,0.26045319,0.53712508,3,9,20,1,3,7,0.02804547,0.08608779,0.20369034,0.06575863,0.14732331,0.27447559
30097,0,USMontanaSweetGrass,Montana,Sweet Grass,2021-04-04 07:29:17.614694,2020-07-05 00:00:00.000000,0.09935916,0.29757497,0.61174374,3,11,22,1,3,9,0.03398764,0.10600965,0.25163935,0.06494583,0.14907080,0.27387937
30097,0,USMontanaSweetGrass,Montana,Sweet Grass,2021-04-04 07:29:17.614694,2020-07-06 00:00:00.000000,0.13701217,0.33799161,0.66124916,5,12,24,1,4,11,0.04040508,0.12613066,0.29894297,0.06450898,0.14912708,0.26355374
30097,0,USMontanaSweetGrass,Montana,Sweet Grass,2021-04-04 07:29:17.614694,2020-07-07 00:00:00.000000,0.16188360,0.37148835,0.71021584,6,13,26,1,5,12,0.05337986,0.14390943,0.33103799,0.06411917,0.14775524,0.26093507
30097,0,USMontanaSweetGrass,Montana,Sweet Grass,2021-04-04 07:29:17.614694,2020-07-08 00:00:00.000000,0.17971133,0.40562083,0.78668262,6,15,29,2,6,13,0.06931131,0.16562349,0.37260921,0.06744544,0.14821748,0.26120974
30097,0,USMontanaSweetGrass,Montana,Sweet Grass,2021-04-04 07:29:17.614694,2020-07-09 00:00:00.000000,0.19680824,0.43093880,0.86956791,7,16,32,3,6,15,0.08386132,0.18440988,0.41775954,0.07096092,0.14910609,0.25751893
30097,0,USMontanaSweetGrass,Montana,Sweet Grass,2021-04-04 07:29:17.614694,2020-07-10 00:00:00.000000,0.21356956,0.45400865,0.92976806,7,16,34,3,7,16,0.09726846,0.20262995,0.43089328,0.07093454,0.14663342,0.24355122
30097,0,USMontanaSweetGrass,Montana,Sweet Grass,2021-04-04 07:29:17.614694,2020-07-11 00:00:00.000000,0.22962892,0.47369631,1.02118179,8,17,38,3,8,16,0.10202449,0.21895115,0.44793844,0.07255488,0.14905383,0.24215295
30097,0,USMontanaSweetGrass,Montana,Sweet Grass,2021-04-04 07:29:17.614694,2020-07-12 00:00:00.000000,0.24505395,0.49670099,1.13576428,9,18,42,4,8,18,0.10771386,0.23396669,0.49302427,0.07263182,0.14950348,0.24329697
30097,0,USMontanaSweetGrass,Montana,Sweet Grass,2021-04-04 07:29:17.614694,2020-07-13 00:00:00.000000,0.26715341,0.52680178,1.15942339,9,19,43,4,9,21,0.11598844,0.24470842,0.56401089,0.07200976,0.15099072,0.24277199
30097,0,USMontanaSweetGrass,Montana,Sweet Grass,2021-04-04 07:29:17.614694,2020-07-14 00:00:00.000000,0.28451851,0.56844522,1.17978449,10,21,44,4,9,22,0.13305257,0.25727497,0.60695479,0.07174904,0.15053753,0.24277721
30097,0,USMontanaSweetGrass,Montana,Sweet Grass,2021-04-04 07:29:17.614694,2020-07-15 00:00:00.000000,0.28959981,0.60398358,1.19551230,10,22,44,5,10,23,0.14832360,0.27397857,0.63123322,0.07156311,0.15083809,0.24266488
30097,0,USMontanaSweetGrass,Montana,Sweet Grass,2021-04-04 07:29:17.614694,2020-07-16 00:00:00.000000,0.28724042,0.62818024,1.20836870,10,23,45,5,10,24,0.14756737,0.29118195,0.65015575,0.07125851,0.15109139,0.24227711
30097,0,USMontanaSweetGrass,Montana,Sweet Grass,2021-04-04 07:29:17.614694,2020-07-17 00:00:00.000000,0.28361904,0.64761323,1.21787859,10,24,45,5,11,24,0.14558867,0.31935087,0.66806782,0.06820680,0.15518378,0.24107901
30097,0,USMontanaSweetGrass,Montana,Sweet Grass,2021-04-04 07:29:17.614694,2020-07-18 00:00:00.000000,0.28601325,0.67069479,1.27066741,10,25,47,5,12,25,0.14428768,0.33987976,0.68134065,0.06399373,0.15375674,0.24125682
30097,0,USMontanaSweetGrass,Montana,Sweet Grass,2021-04-04 07:29:17.614694,2020-07-19 00:00:00.000000,0.28747802,0.68734758,1.29219208,10,25,48,5,13,25,0.14484534,0.35513401,0.69109620,0.06161839,0.15307898,0.25667401
30097,0,USMontanaSweetGrass,Montana,Sweet Grass,2021-04-04 07:29:17.614694,2020-07-20 00:00:00.000000,0.30932092,0.70827954,1.34638742,11,26,50,5,13,26,0.14485851,0.36434058,0.69818735,0.06131867,0.15585426,0.26671560
30097,0,USMontanaSweetGrass,Montana,Sweet Grass,2021-04-04 07:29:17.614694,2020-07-21 00:00:00.000000,0.33783570,0.72693433,1.38820490,12,27,51,5,13,26,0.15778880,0.36961823,0.71392741,0.06610570,0.15253348,0.26954766
30097,0,USMontanaSweetGrass,Montana,Sweet Grass,2021-04-04 07:29:17.614694,2020-07-22 00:00:00.000000,0.35324988,0.75199849,1.38655161,13,28,51,6,13,27,0.16243104,0.37346049,0.74920539,0.06639379,0.15253900,0.26930789
30097,0,USMontanaSweetGrass,Montana,Sweet Grass,2021-04-04 07:29:17.614694,2020-07-23 00:00:00.000000,0.36382722,0.76533970,1.39799380,13,28,52,6,14,29,0.17569116,0.38214436,0.78306980,0.06659745,0.15510315,0.26845758
30097,0,USMontanaSweetGrass,Montana,Sweet Grass,2021-04-04 07:29:17.614694,2020-07-24 00:00:00.000000,0.36977724,0.78225061,1.39821075,13,29,52,7,14,29,0.19511821,0.39640228,0.80093642,0.07067922,0.15478106,0.26463670
30097,0,USMontanaSweetGrass,Montana,Sweet Grass,2021-04-04 07:29:17.614694,2020-07-25 00:00:00.000000,0.37195374,0.80033753,1.45318578,13,29,54,7,15,29,0.20189364,0.40758915,0.80196660,0.07364197,0.15328249,0.26761717
30097,0,USMontanaSweetGrass,Montana,Sweet Grass,2021-04-04 07:29:17.614694,2020-07-26 00:00:00.000000,0.36064983,0.82201664,1.54537353,13,30,57,7,15,29,0.19792444,0.42783516,0.80231243,0.07606283,0.14942964,0.26942081
30097,0,USMontanaSweetGrass,Montana,Sweet Grass,2021-04-04 07:29:17.614694,2020-07-27 00:00:00.000000,0.38925714,0.83550705,1.56585255,14,31,58,7,15,29,0.19215556,0.42710265,0.80260682,0.07801345,0.14786405,0.26968209
30097,0,USMontanaSweetGrass,Montana,Sweet Grass,2021-04-04 07:29:17.614694,2020-07-28 00:00:00.000000,0.41866244,0.84519601,1.58533787,15,31,59,7,16,30,0.19658648,0.43013101,0.81170175,0.07886597,0.14977892,0.26952243
30097,0,USMontanaSweetGrass,Montana,Sweet Grass,2021-04-04 07:29:17.614694,2020-07-29 00:00:00.000000,0.44900573,0.86301500,1.60240133,16,32,59,7,16,30,0.20678779,0.44544236,0.82757782,0.07959178,0.15441746,0.26898611
30097,0,USMontanaSweetGrass,Montana,Sweet Grass,2021-04-04 07:29:17.614694,2020-07-30 00:00:00.000000,0.47876191,0.87585030,1.61767587,17,32,60,8,16,30,0.21459203,0.45365859,0.81952915,0.08067052,0.15727454,0.26798105
30097,0,USMontanaSweetGrass,Montana,Sweet Grass,2021-04-04 07:29:17.614694,2020-07-31 00:00:00.000000,0.50762851,0.88393359,1.63474717,18,33,61,8,17,31,0.22205826,0.46310724,0.83176702,0.08345128,0.15906118,0.26636232
30097,0,USMontanaSweetGrass,Montana,Sweet Grass,2021-04-04 07:29:17.614694,2020-08-01 00:00:00.000000,0.53520317,0.90696862,1.73099084,20,33,64,8,17,31,0.23613437,0.46540815,0.84119805,0.08860826,0.16293817,0.26910237
30097,0,USMontanaSweetGrass,Montana,Sweet Grass,2021-04-04 07:29:17.614694,2020-08-02 00:00:00.000000,0.53646867,0.92034361,1.85399984,20,34,69,9,17,31,0.25046823,0.47212364,0.84867721,0.08782690,0.16513887,0.26846954
30097,0,USMontanaSweetGrass,Montana,Sweet Grass,2021-04-04 07:29:17.614694,2020-08-03 00:00:00.000000,0.54263522,0.93104332,1.90661428,20,34,71,9,18,33,0.26472790,0.48599559,0.90743392,0.08686867,0.16823841,0.26862480
30097,0,USMontanaSweetGrass,Montana,Sweet Grass,2021-04-04 07:29:17.614694,2020-08-04 00:00:00.000000,0.53070644,0.99541667,1.95141079,19,37,72,10,19,35,0.27714261,0.50867662,0.94476966,0.08847581,0.17310793,0.27416662
30097,0,USMontanaSweetGrass,Montana,Sweet Grass,2021-04-04 07:29:17.614694,2020-08-05 00:00:00.000000,0.53853792,1.01732050,1.96611043,20,38,73,10,19,36,0.29389442,0.52510812,0.98952395,0.08846519,0.17491656,0.29593154
30097,0,USMontanaSweetGrass,Montana,Sweet Grass,2021-04-04 07:29:17.614694,2020-08-06 00:00:00.000000,0.57244807,1.04773530,1.97936796,21,39,73,11,20,38,0.30375750,0.54642024,1.02660120,0.08848201,0.17552831,0.30594739
30097,0,USMontanaSweetGrass,Montana,Sweet Grass,2021-04-04 07:29:17.614694,2020-08-07 00:00:00.000000,0.60550035,1.08714872,2.02656726,22,40,75,11,21,39,0.30645218,0.56884941,1.05823445,0.09050327,0.17684888,0.30600442
30097,0,USMontanaSweetGrass,Montana,Sweet Grass,2021-04-04 07:29:17.614694,2020-08-08 00:00:00.000000,0.60782240,1.11981920,2.10793850,22,41,78,12,21,40,0.32502890,0.58516967,1.08579764,0.09401703,0.17797651,0.30364867
30097,0,USMontanaSweetGrass,Montana,Sweet Grass,2021-04-04 07:29:17.614694,2020-08-09 00:00:00.000000,0.60651417,1.15796948,2.15326723,22,43,80,12,22,41,0.34303202,0.59264997,1.10973074,0.09704095,0.18479101,0.29932090
30097,0,USMontanaSweetGrass,Montana,Sweet Grass,2021-04-04 07:29:17.614694,2020-08-10 00:00:00.000000,0.69749473,1.23272356,2.17758540,26,46,81,13,22,42,0.35032374,0.59445615,1.12890566,0.10072002,0.18829101,0.29128641
30097,0,USMontanaSweetGrass,Montana,Sweet Grass,2021-04-04 07:29:17.614694,2020-08-11 00:00:00.000000,0.68593616,1.29028672,2.19920120,25,48,82,13,22,42,0.35230518,0.61109118,1.14969318,0.09727134,0.19014831,0.30005643
30097,0,USMontanaSweetGrass,Montana,Sweet Grass,2021-04-04 07:29:17.614694,2020-08-12 00:00:00.000000,0.67510552,1.33284635,2.28843218,25,49,85,13,23,43,0.35131202,0.63884029,1.16529019,0.09672890,0.19340810,0.30018222
30097,0,USMontanaSweetGrass,Montana,Sweet Grass,2021-04-04 07:29:17.614694,2020-08-13 00:00:00.000000,0.66024203,1.37093561,2.33529527,24,51,87,13,24,44,0.35118676,0.65466356,1.17875823,0.09674004,0.19216092,0.31438005
30097,0,USMontanaSweetGrass,Montana,Sweet Grass,2021-04-04 07:29:17.614694,2020-08-14 00:00:00.000000,0.64603937,1.45517784,2.38512771,24,54,89,12,25,44,0.34762934,0.67923203,1.19115184,0.09692623,0.19329959,0.32950843
30097,0,USMontanaSweetGrass,Montana,Sweet Grass,2021-04-04 07:29:17.614694,2020-08-15 00:00:00.000000,0.63271019,1.53069887,2.43724880,23,57,91,12,26,45,0.34446467,0.71161546,1.21383355,0.09718335,0.19844997,0.33185705
30097,0,USMontanaSweetGrass,Montana,Sweet Grass,2021-04-04 07:29:17.614694,2020-08-16 00:00:00.000000,0.62046919,1.57635003,2.57988955,23,58,96,12,27,47,0.34202608,0.74423420,1.26504185,0.09742285,0.20234401,0.33699752
30097,0,USMontanaSweetGrass,Montana,Sweet Grass,2021-04-04 07:29:17.614694,2020-08-17 00:00:00.000000,0.82615118,1.70516539,2.87241852,30,63,107,12,29,48,0.33989469,0.78155448,1.29265385,0.10313740,0.21504074,0.34049439
30097,0,USMontanaSweetGrass,Montana,Sweet Grass,2021-04-04 07:29:17.614694,2020-08-18 00:00:00.000000,1.01725840,1.77991907,2.93171951,38,66,109,13,31,51,0.36990123,0.83233033,1.37061333,0.10640259,0.20904592,0.34257046
30097,0,USMontanaSweetGrass,Montana,Sweet Grass,2021-04-04 07:29:17.614694,2020-08-19 00:00:00.000000,1.16267467,1.95516889,3.15835127,43,73,118,16,32,55,0.43902275,0.88178104,1.49422248,0.10615695,0.20824266,0.34347111
30097,0,USMontanaSweetGrass,Montana,Sweet Grass,2021-04-04 07:29:17.614694,2020-08-20 00:00:00.000000,1.22387362,2.13893655,3.38018881,45,79,126,19,34,60,0.52353316,0.92789653,1.60771832,0.10606228,0.21095362,0.34329000
30097,0,USMontanaSweetGrass,Montana,Sweet Grass,2021-04-04 07:29:17.614694,2020-08-21 00:00:00.000000,1.29922604,2.31006326,3.54970472,48,86,132,22,38,61,0.60086896,1.02102389,1.65078855,0.10872166,0.21734773,0.35605496
30097,0,USMontanaSweetGrass,Montana,Sweet Grass,2021-04-04 07:29:17.614694,2020-08-22 00:00:00.000000,1.33139148,2.45274813,3.68379946,49,91,137,25,41,63,0.66994003,1.10155066,1.71095621,0.11352569,0.21575258,0.34905672
30097,0,USMontanaSweetGrass,Montana,Sweet Grass,2021-04-04 07:29:17.614694,2020-08-23 00:00:00.000000,1.32787466,2.52491272,3.92958470,49,94,146,25,44,67,0.69179943,1.17957417,1.80339006,0.11259370,0.21244997,0.34046354
30097,0,USMontanaSweetGrass,Montana,Sweet Grass,2021-04-04 07:29:17.614694,2020-08-24 00:00:00.000000,1.53669698,2.66610260,3.94371253,57,99,147,25,47,71,0.68966247,1.26040995,1.90969386,0.11068324,0.21059147,0.33698628
30097,0,USMontanaSweetGrass,Montana,Sweet Grass,2021-04-04 07:29:17.614694,2020-08-25 00:00:00.000000,1.74845046,2.77809435,4.08959390,65,103,152,27,49,74,0.74256529,1.32059336,1.98790558,0.10735975,0.20478940,0.33419731
30097,0,USMontanaSweetGrass,Montana,Sweet Grass,2021-04-04 07:29:17.614694,2020-08-26 00:00:00.000000,1.92621997,2.91046190,4.12627527,71,108,154,30,51,77,0.82611216,1.38042337,2.08520495,0.10382583,0.20241959,0.33877347
30097,0,USMontanaSweetGrass,Montana,Sweet Grass,2021-04-04 07:29:17.614694,2020-08-27 00:00:00.000000,2.08801724,3.04514751,4.20597147,78,113,157,34,54,80,0.92560739,1.45209216,2.14960057,0.10376644,0.20280858,0.33509850
30097,0,USMontanaSweetGrass,Montana,Sweet Grass,2021-04-04 07:29:17.614694,2020-08-28 00:00:00.000000,2.18880179,3.13210005,4.37530302,81,117,163,38,56,84,1.03036094,1.52360168,2.26043038,0.11218949,0.19956566,0.32669040
30097,0,USMontanaSweetGrass,Montana,Sweet Grass,2021-04-04 07:29:17.614694,2020-08-29 00:00:00.000000,2.33015905,3.24504310,4.54217048,87,121,169,41,59,89,1.10166859,1.58392224,2.38470387,0.11858905,0.19737571,0.31673436
30097,0,USMontanaSweetGrass,Montana,Sweet Grass,2021-04-04 07:29:17.614694,2020-08-30 00:00:00.000000,2.44358210,3.37948144,4.70574813,91,126,175,43,61,92,1.16352940,1.63347688,2.48643339,0.11696465,0.19494351,0.30909984
30097,0,USMontanaSweetGrass,Montana,Sweet Grass,2021-04-04 07:29:17.614694,2020-08-31 00:00:00.000000,2.38715873,3.35172615,4.74140899,89,125,177,46,63,96,1.24172655,1.69245055,2.58639574,0.11619990,0.18779297,0.30460206
30097,0,USMontanaSweetGrass,Montana,Sweet Grass,2021-04-04 07:29:17.614694,2020-09-01 00:00:00.000000,2.32895720,3.32850191,4.69972050,87,124,175,47,64,99,1.26807264,1.73133719,2.66052516,0.11581937,0.18683620,0.29574661
30097,0,USMontanaSweetGrass,Montana,Sweet Grass,2021-04-04 07:29:17.614694,2020-09-02 00:00:00.000000,2.26685129,3.29265018,4.64002832,84,123,173,47,65,101,1.27890355,1.74137225,2.71209940,0.11561665,0.18512126,0.29140211
30097,0,USMontanaSweetGrass,Montana,Sweet Grass,2021-04-04 07:29:17.614694,2020-09-03 00:00:00.000000,2.21074077,3.22926178,4.57315135,82,120,170,47,64,101,1.26844038,1.73864388,2.71465361,0.11549906,0.18297181,0.28906418
30097,0,USMontanaSweetGrass,Montana,Sweet Grass,2021-04-04 07:29:17.614694,2020-09-04 00:00:00.000000,2.14995025,3.17853701,4.49352110,80,118,167,45,63,100,1.22750616,1.71220206,2.69651403,0.11523796,0.18205154,0.28396744
30097,0,USMontanaSweetGrass,Montana,Sweet Grass,2021-04-04 07:29:17.614694,2020-09-05 00:00:00.000000,2.09953304,3.16180683,4.39589626,78,118,164,44,62,99,1.18364730,1.68357536,2.66626851,0.11098474,0.17928680,0.26691102
30097,0,USMontanaSweetGrass,Montana,Sweet Grass,2021-04-04 07:29:17.614694,2020-09-06 00:00:00.000000,2.04480158,3.09785418,4.29199995,76,115,160,43,62,98,1.15764319,1.66753109,2.62803061,0.10976741,0.17660623,0.25571820
30097,0,USMontanaSweetGrass,Montana,Sweet Grass,2021-04-04 07:29:17.614694,2020-09-07 00:00:00.000000,1.93881166,3.04446576,4.20807044,72,113,157,41,61,96,1.11840768,1.65612956,2.58453158,0.11419088,0.17289491,0.25648370
30097,0,USMontanaSweetGrass,Montana,Sweet Grass,2021-04-04 07:29:17.614694,2020-09-08 00:00:00.000000,1.84204123,2.98216142,4.12501912,68,111,154,39,60,94,1.05984379,1.62967145,2.53732268,0.11480303,0.17484475,0.25812317
30097,0,USMontanaSweetGrass,Montana,Sweet Grass,2021-04-04 07:29:17.614694,2020-09-09 00:00:00.000000,1.76565806,2.93972318,4.00399680,65,109,149,37,60,92,1.00519443,1.60755922,2.48784569,0.11474611,0.17730026,0.26106971
30097,0,USMontanaSweetGrass,Montana,Sweet Grass,2021-04-04 07:29:17.614694,2020-09-10 00:00:00.000000,1.69601233,2.87316805,3.86679766,63,107,144,35,59,91,0.95598788,1.58043053,2.43713607,0.11478524,0.17845379,0.26590382
30097,0,USMontanaSweetGrass,Montana,Sweet Grass,2021-04-04 07:29:17.614694,2020-09-11 00:00:00.000000,1.64549908,2.80932920,3.75324918,61,104,140,34,57,89,0.91241277,1.55071162,2.38594261,0.11512932,0.18084970,0.27291976
30097,0,USMontanaSweetGrass,Montana,Sweet Grass,2021-04-04 07:29:17.614694,2020-09-12 00:00:00.000000,1.60268058,2.72497958,3.79156465,59,101,141,32,57,87,0.87379660,1.52583693,2.33481758,0.11667133,0.18265287,0.27798206
30097,0,USMontanaSweetGrass,Montana,Sweet Grass,2021-04-04 07:29:17.614694,2020-09-13 00:00:00.000000,1.56957250,2.67281734,3.76985619,58,99,140,31,55,85,0.83935185,1.49534598,2.28419549,0.11930605,0.18460208,0.27574884
30097,0,USMontanaSweetGrass,Montana,Sweet Grass,2021-04-04 07:29:17.614694,2020-09-14 00:00:00.000000,1.57366899,2.65755290,3.70213136,58,99,138,30,54,82,0.80827498,1.46718942,2.21216569,0.12302385,0.18456077,0.27902190
30097,0,USMontanaSweetGrass,Montana,Sweet Grass,2021-04-04 07:29:17.614694,2020-09-15 00:00:00.000000,1.52991891,2.62951307,3.73475294,57,98,139,29,54,80,0.77990963,1.45023799,2.14385580,0.13564380,0.18667851,0.29851601
30097,0,USMontanaSweetGrass,Montana,Sweet Grass,2021-04-04 07:29:17.614694,2020-09-16 00:00:00.000000,1.49228122,2.60154049,3.80312592,55,97,142,28,53,77,0.75672169,1.43924283,2.08211159,0.13838804,0.19064416,0.29475347
30097,0,USMontanaSweetGrass,Montana,Sweet Grass,2021-04-04 07:29:17.614694,2020-09-17 00:00:00.000000,1.46032446,2.58876440,3.79314579,54,96,141,27,53,77,0.74163489,1.41955200,2.07202914,0.14214559,0.19431974,0.28886629
30097,0,USMontanaSweetGrass,Montana,Sweet Grass,2021-04-04 07:29:17.614694,2020-09-18 00:00:00.000000,1.43408236,2.57819872,3.78244598,53,96,141,27,51,77,0.72897113,1.38826453,2.06825566,0.14234159,0.19443333,0.29352372
30097,0,USMontanaSweetGrass,Montana,Sweet Grass,2021-04-04 07:29:17.614694,2020-09-19 00:00:00.000000,1.41687639,2.53695136,3.83087511,52,94,143,26,51,76,0.71805034,1.38468185,2.04899793,0.14288952,0.19757675,0.28592691
30097,0,USMontanaSweetGrass,Montana,Sweet Grass,2021-04-04 07:29:17.614694,2020-09-20 00:00:00.000000,1.42150033,2.52659716,3.90066456,53,94,145,26,51,75,0.70845071,1.37486274,2.02157214,0.14151715,0.20169412,0.29045501
30097,0,USMontanaSweetGrass,Montana,Sweet Grass,2021-04-04 07:29:17.614694,2020-09-21 00:00:00.000000,1.44925785,2.50134875,3.93026073,54,93,146,26,50,74,0.69990206,1.36121286,1.99888501,0.14650466,0.21147722,0.29308335
30097,0,USMontanaSweetGrass,Montana,Sweet Grass,2021-04-04 07:29:17.614694,2020-09-22 00:00:00.000000,1.44015638,2.46297295,3.95268585,53,92,147,25,50,75,0.68740671,1.35709172,2.01835431,0.15148926,0.21808649,0.30066096
30097,0,USMontanaSweetGrass,Montana,Sweet Grass,2021-04-04 07:29:17.614694,2020-09-23 00:00:00.000000,1.41686295,2.41978892,3.96678238,52,90,148,25,50,75,0.67293238,1.35024930,2.00697718,0.15584121,0.22009511,0.31076036
30097,0,USMontanaSweetGrass,Montana,Sweet Grass,2021-04-04 07:29:17.614694,2020-09-24 00:00:00.000000,1.40685559,2.41929640,3.97405699,52,90,148,25,50,73,0.67566988,1.33926679,1.97755936,0.16002152,0.22213907,0.32569467
30097,0,USMontanaSweetGrass,Montana,Sweet Grass,2021-04-04 07:29:17.614694,2020-09-25 00:00:00.000000,1.40584988,2.40331055,3.97450730,52,89,148,25,49,73,0.68048253,1.31948606,1.96934821,0.16139059,0.22735852,0.33412927
30097,0,USMontanaSweetGrass,Montana,Sweet Grass,2021-04-04 07:29:17.614694,2020-09-26 00:00:00.000000,1.41318393,2.41119514,3.93409076,52,90,147,25,49,73,0.68481109,1.32033669,1.97860530,0.16143884,0.23116108,0.34571391
30097,0,USMontanaSweetGrass,Montana,Sweet Grass,2021-04-04 07:29:17.614694,2020-09-27 00:00:00.000000,1.41660892,2.42640644,3.90560000,52,90,145,25,49,74,0.68330018,1.32345704,1.98522363,0.16142733,0.24513619,0.35981026
30097,0,USMontanaSweetGrass,Montana,Sweet Grass,2021-04-04 07:29:17.614694,2020-09-28 00:00:00.000000,1.47576010,2.47290298,3.89032792,55,92,145,25,49,74,0.68613590,1.32579945,1.99020568,0.16173320,0.25159076,0.36319741
30097,0,USMontanaSweetGrass,Montana,Sweet Grass,2021-04-04 07:29:17.614694,2020-09-29 00:00:00.000000,1.52907084,2.50690837,3.88826345,57,93,145,26,50,74,0.69817408,1.33930760,1.99364435,0.17164763,0.25989078,0.37180654
30097,0,USMontanaSweetGrass,Montana,Sweet Grass,2021-04-04 07:29:17.614694,2020-09-30 00:00:00.000000,1.58560930,2.52330518,3.88842673,59,94,145,26,50,74,0.71707824,1.33948722,1.99608529,0.16925471,0.26808623,0.39809828
30097,0,USMontanaSweetGrass,Montana,Sweet Grass,2021-04-04 07:29:17.614694,2020-10-01 00:00:00.000000,1.64295716,2.54519667,3.88915430,61,95,145,27,50,74,0.74042353,1.35048845,1.99842133,0.17631333,0.27554470,0.41407526
30097,0,USMontanaSweetGrass,Montana,Sweet Grass,2021-04-04 07:29:17.614694,2020-10-02 00:00:00.000000,1.66752111,2.57984234,3.89042656,62,96,145,28,50,74,0.76676488,1.36114482,2.00254940,0.18135995,0.28136046,0.42297907
30097,0,USMontanaSweetGrass,Montana,Sweet Grass,2021-04-04 07:29:17.614694,2020-10-03 00:00:00.000000,1.66202031,2.62100327,3.89225463,62,97,145,30,51,75,0.81930118,1.38482921,2.01190761,0.18711052,0.28613233,0.45271147
30097,0,USMontanaSweetGrass,Montana,Sweet Grass,2021-04-04 07:29:17.614694,2020-10-04 00:00:00.000000,1.66030658,2.67265033,3.89250469,62,99,145,33,52,75,0.88330972,1.41230718,2.02982784,0.20057614,0.29299427,0.46271312
30097,0,USMontanaSweetGrass,Montana,Sweet Grass,2021-04-04 07:29:17.614694,2020-10-05 00:00:00.000000,1.77307524,2.73376266,3.94663955,66,102,147,34,52,76,0.91934117,1.41770270,2.05703189,0.22344583,0.30435670,0.46718870
30097,0,USMontanaSweetGrass,Montana,Sweet Grass,2021-04-04 07:29:17.614694,2020-10-06 00:00:00.000000,1.82107844,2.84185559,4.06794326,68,106,152,35,54,78,0.94057393,1.45474875,2.09539481,0.23280314,0.31033161,0.47000290
30097,0,USMontanaSweetGrass,Montana,Sweet Grass,2021-04-04 07:29:17.614694,2020-10-07 00:00:00.000000,1.82287046,2.94602796,4.25132557,68,110,158,36,56,80,0.96886461,1.50018485,2.14124124,0.23471402,0.32767359,0.48342969
30097,0,USMontanaSweetGrass,Montana,Sweet Grass,2021-04-04 07:29:17.614694,2020-10-08 00:00:00.000000,1.89881828,3.05678331,4.42792188,70,114,165,37,57,81,1.00612906,1.54784303,2.19391298,0.24101146,0.34393315,0.52082007
30097,0,USMontanaSweetGrass,Montana,Sweet Grass,2021-04-04 07:29:17.614694,2020-10-09 00:00:00.000000,1.93312764,3.18155834,4.64624730,72,118,173,39,59,83,1.04516382,1.60308111,2.24231013,0.26360384,0.37390086,0.57394241
30097,0,USMontanaSweetGrass,Montana,Sweet Grass,2021-04-04 07:29:17.614694,2020-10-10 00:00:00.000000,2.04274883,3.28852479,4.92760395,76,122,184,40,61,86,1.08185278,1.65021598,2.31714654,0.26824313,0.39887258,0.59418773
30097,0,USMontanaSweetGrass,Montana,Sweet Grass,2021-04-04 07:29:17.614694,2020-10-11 00:00:00.000000,2.11664804,3.41187554,5.20403614,79,127,194,41,62,89,1.10655527,1.68537838,2.40819181,0.27539940,0.41698457,0.61185928
30097,0,USMontanaSweetGrass,Montana,Sweet Grass,2021-04-04 07:29:17.614694,2020-10-12 00:00:00.000000,2.32475404,3.57241896,5.52110031,86,133,206,42,65,93,1.13804958,1.73946650,2.51536245,0.29484111,0.43712117,0.63031474
30097,0,USMontanaSweetGrass,Montana,Sweet Grass,2021-04-04 07:29:17.614694,2020-10-13 00:00:00.000000,2.52138218,3.79587985,5.85155556,94,141,218,45,69,98,1.20692228,1.85660598,2.64532157,0.30503816,0.45188172,0.63348338
30097,0,USMontanaSweetGrass,Montana,Sweet Grass,2021-04-04 07:29:17.614694,2020-10-14 00:00:00.000000,2.69787436,4.02109819,6.16345869,100,150,230,48,73,103,1.28892246,1.97539551,2.77631051,0.32509444,0.47677061,0.63509824
30097,0,USMontanaSweetGrass,Montana,Sweet Grass,2021-04-04 07:29:17.614694,2020-10-15 00:00:00.000000,2.88363782,4.25161006,6.48578832,107,158,242,51,77,110,1.37633940,2.06355021,2.96246777,0.33189091,0.49409891,0.66749831
30097,0,USMontanaSweetGrass,Montana,Sweet Grass,2021-04-04 07:29:17.614694,2020-10-16 00:00:00.000000,3.07984356,4.53299175,6.83583407,115,169,255,54,81,117,1.47029946,2.18356656,3.14427352,0.34319892,0.50416470,0.72564730
30097,0,USMontanaSweetGrass,Montana,Sweet Grass,2021-04-04 07:29:17.614694,2020-10-17 00:00:00.000000,3.28716531,4.84726389,7.37397924,122,181,275,58,86,124,1.57019092,2.30377084,3.33818531,0.37331268,0.52743509,0.80067980
30097,0,USMontanaSweetGrass,Montana,Sweet Grass,2021-04-04 07:29:17.614694,2020-10-18 00:00:00.000000,3.50427646,5.26543195,7.94426982,130,196,296,62,90,132,1.67575297,2.43490534,3.54297199,0.39932178,0.54205138,0.84492491
30097,0,USMontanaSweetGrass,Montana,Sweet Grass,2021-04-04 07:29:17.614694,2020-10-19 00:00:00.000000,3.72780325,5.66669243,8.47020815,139,211,316,66,95,140,1.78690517,2.54546257,3.75779693,0.41283755,0.56158415,0.87822549
30097,0,USMontanaSweetGrass,Montana,Sweet Grass,2021-04-04 07:29:17.614694,2020-10-20 00:00:00.000000,3.96416961,6.05686921,9.06990954,148,226,338,71,102,149,1.90848049,2.74468787,4.01073190,0.41797634,0.57757143,0.88716136
30097,0,USMontanaSweetGrass,Montana,Sweet Grass,2021-04-04 07:29:17.614694,2020-10-21 00:00:00.000000,4.23069404,6.59131928,9.84539068,158,246,367,75,109,161,2.02529213,2.93955540,4.31200104,0.43081046,0.60130299,0.88855574
30097,0,USMontanaSweetGrass,Montana,Sweet Grass,2021-04-04 07:29:17.614694,2020-10-22 00:00:00.000000,4.54307782,7.21481322,10.60477853,169,269,396,80,117,173,2.15558901,3.13873402,4.63622963,0.44459739,0.60984957,0.89697246
30097,0,USMontanaSweetGrass,Montana,Sweet Grass,2021-04-04 07:29:17.614694,2020-10-23 00:00:00.000000,4.95282110,7.78561558,11.35436941,185,290,424,89,126,187,2.39836947,3.37553479,5.00629291,0.49379998,0.62588822,0.88489636
30097,0,USMontanaSweetGrass,Montana,Sweet Grass,2021-04-04 07:29:17.614694,2020-10-24 00:00:00.000000,5.36043738,8.44233089,12.13190988,200,315,453,99,136,206,2.66687794,3.65522095,5.51705820,0.49855097,0.64567896,0.88056664
30097,0,USMontanaSweetGrass,Montana,Sweet Grass,2021-04-04 07:29:17.614694,2020-10-25 00:00:00.000000,5.82295083,9.07177850,12.93698932,217,339,483,106,148,226,2.84958933,3.97469010,6.05494008,0.50215582,0.66357973,0.89192549
30097,0,USMontanaSweetGrass,Montana,Sweet Grass,2021-04-04 07:29:17.614694,2020-10-26 00:00:00.000000,6.42444587,9.69824911,13.78415282,240,362,515,111,159,246,2.98234106,4.26699722,6.60830954,0.50337179,0.66927880,0.90339130
30097,0,USMontanaSweetGrass,Montana,Sweet Grass,2021-04-04 07:29:17.614694,2020-10-27 00:00:00.000000,6.93398499,10.28026940,14.76241446,259,384,551,117,170,267,3.14898272,4.56900277,7.16618972,0.50554733,0.67177295,0.93907546
30097,0,USMontanaSweetGrass,Montana,Sweet Grass,2021-04-04 07:29:17.614694,2020-10-28 00:00:00.000000,7.44361628,11.01846704,15.87184189,278,411,593,127,184,287,3.41996963,4.92831531,7.69409426,0.50876832,0.68100414,1.01982966
30097,0,USMontanaSweetGrass,Montana,Sweet Grass,2021-04-04 07:29:17.614694,2020-10-29 00:00:00.000000,8.05250142,11.69417773,17.00762688,300,437,635,138,198,305,3.71511699,5.30307969,8.18732478,0.51018740,0.68570346,1.03042084
30097,0,USMontanaSweetGrass,Montana,Sweet Grass,2021-04-04 07:29:17.614694,2020-10-30 00:00:00.000000,8.78564639,12.49325717,18.15840166,328,466,678,150,212,324,4.03564157,5.69247636,8.69476813,0.50729688,0.67618345,1.03194155
30097,0,USMontanaSweetGrass,Montana,Sweet Grass,2021-04-04 07:29:17.614694,2020-10-31 00:00:00.000000,9.68531343,13.29965306,19.31143628,361,497,721,163,227,344,4.38338814,6.08513504,9.21397680,0.50452472,0.68169293,1.03159378
30097,0,USMontanaSweetGrass,Montana,Sweet Grass,2021-04-04 07:29:17.614694,2020-11-01 00:00:00.000000,10.66957384,14.10770322,20.45226945,398,527,764,177,242,364,4.76040583,6.49756845,9.74515351,0.49752843,0.68832384,1.02588768
30097,0,USMontanaSweetGrass,Montana,Sweet Grass,2021-04-04 07:29:17.614694,2020-11-02 00:00:00.000000,11.14408784,14.94756110,21.66420742,416,558,809,193,259,384,5.16842090,6.93392240,10.28892080,0.49130223,0.69151006,1.09143012
30097,0,USMontanaSweetGrass,Montana,Sweet Grass,2021-04-04 07:29:17.614694,2020-11-03 00:00:00.000000,11.70153712,15.68848645,22.83950692,437,586,853,208,276,405,5.58649036,7.39375158,10.84305635,0.48891347,0.68888896,1.10693241
30097,0,USMontanaSweetGrass,Montana,Sweet Grass,2021-04-04 07:29:17.614694,2020-11-04 00:00:00.000000,12.34004423,16.42510897,23.97289658,461,613,895,215,294,426,5.76910067,7.89070703,11.40299111,0.48834034,0.69015135,1.11094347
30097,0,USMontanaSweetGrass,Montana,Sweet Grass,2021-04-04 07:29:17.614694,2020-11-05 00:00:00.000000,12.81105352,17.29745045,25.05728070,478,646,936,222,309,447,5.94543465,8.27777632,11.96293691,0.48742752,0.68224038,1.11437062
30097,0,USMontanaSweetGrass,Montana,Sweet Grass,2021-04-04 07:29:17.614694,2020-11-06 00:00:00.000000,13.30385398,18.06193211,26.09135271,497,674,975,234,324,467,6.27210243,8.68102503,12.50890887,0.48345741,0.67477988,1.12282246
30097,0,USMontanaSweetGrass,Montana,Sweet Grass,2021-04-04 07:29:17.614694,2020-11-07 00:00:00.000000,13.68342369,18.71479941,27.08314476,511,699,1012,247,341,488,6.62188585,9.14070430,13.06075236,0.48229126,0.65693778,1.15858701
30097,0,USMontanaSweetGrass,Montana,Sweet Grass,2021-04-04 07:29:17.614694,2020-11-08 00:00:00.000000,14.07165201,19.41950136,28.04036329,525,725,1047,259,357,507,6.94889936,9.56580735,13.58742676,0.48232837,0.65200160,1.21269462
30097,0,USMontanaSweetGrass,Montana,Sweet Grass,2021-04-04 07:29:17.614694,2020-11-09 00:00:00.000000,14.48314421,19.91411029,28.89147675,541,744,1079,270,370,526,7.22923756,9.91656645,14.09147975,0.48177874,0.64546197,1.32365523
30097,0,USMontanaSweetGrass,Montana,Sweet Grass,2021-04-04 07:29:17.614694,2020-11-10 00:00:00.000000,14.89638204,20.47262462,29.65077978,556,765,1108,278,383,544,7.44737586,10.27342204,14.57543825,0.47911031,0.63387390,1.41795403
30097,0,USMontanaSweetGrass,Montana,Sweet Grass,2021-04-04 07:29:17.614694,2020-11-11 00:00:00.000000,15.30247506,20.93871152,30.28554041,571,782,1131,286,396,562,7.65896237,10.59690090,15.04251925,0.45407492,0.62963806,1.42226995
30097,0,USMontanaSweetGrass,Montana,Sweet Grass,2021-04-04 07:29:17.614694,2020-11-12 00:00:00.000000,15.70301520,21.31747921,30.37585388,586,796,1135,293,405,579,7.85827427,10.85479530,15.50390137,0.45692416,0.62070658,1.42382859
30097,0,USMontanaSweetGrass,Montana,Sweet Grass,2021-04-04 07:29:17.614694,2020-11-13 00:00:00.000000,16.11261955,21.54070842,30.28145569,602,804,1131,300,416,596,8.04181658,11.14649731,15.96238775,0.45594563,0.61158496,1.42437587
30097,0,USMontanaSweetGrass,Montana,Sweet Grass,2021-04-04 07:29:17.614694,2020-11-14 00:00:00.000000,16.52746300,21.61073515,30.03506646,617,807,1122,306,425,612,8.20766412,11.38704478,16.40119692,0.44586413,0.60740676,1.43213566
30097,0,USMontanaSweetGrass,Montana,Sweet Grass,2021-04-04 07:29:17.614694,2020-11-15 00:00:00.000000,16.71059517,21.65559277,30.35532771,624,809,1134,312,429,622,8.35494509,11.48982725,16.65353939,0.40079568,0.60369665,1.50936850
30097,0,USMontanaSweetGrass,Montana,Sweet Grass,2021-04-04 07:29:17.614694,2020-11-16 00:00:00.000000,16.64107251,21.68678129,30.66822941,621,810,1146,316,432,628,8.45607536,11.58620768,16.81401460,0.40006948,0.58925973,1.54455474
30097,0,USMontanaSweetGrass,Montana,Sweet Grass,2021-04-04 07:29:17.614694,2020-11-17 00:00:00.000000,16.45470073,21.47085275,30.41548224,614,802,1136,314,438,627,8.41998179,11.72170038,16.80165393,0.39980994,0.57866028,1.53230016
30097,0,USMontanaSweetGrass,Montana,Sweet Grass,2021-04-04 07:29:17.614694,2020-11-18 00:00:00.000000,16.24684138,21.32365632,30.20975262,607,796,1128,312,439,629,8.35361485,11.76055713,16.85448230,0.39914925,0.56692709,1.56439690
30097,0,USMontanaSweetGrass,Montana,Sweet Grass,2021-04-04 07:29:17.614694,2020-11-19 00:00:00.000000,16.29278578,20.96925054,29.52548256,608,783,1103,308,433,633,8.25898284,11.60656963,16.94036927,0.38535709,0.56273275,1.58598532
30097,0,USMontanaSweetGrass,Montana,Sweet Grass,2021-04-04 07:29:17.614694,2020-11-20 00:00:00.000000,15.61830642,20.57046605,28.71232854,583,768,1072,304,427,637,8.13653693,11.42708488,17.06759956,0.37695014,0.55218096,1.59818672
30097,0,USMontanaSweetGrass,Montana,Sweet Grass,2021-04-04 07:29:17.614694,2020-11-21 00:00:00.000000,15.11898154,20.20806414,27.78901479,564,755,1038,298,420,635,7.98535827,11.24696513,17.00133757,0.35150314,0.55381581,1.67644741
30097,0,USMontanaSweetGrass,Montana,Sweet Grass,2021-04-04 07:29:17.614694,2020-11-22 00:00:00.000000,14.62376475,19.65495132,27.15100432,546,734,1014,291,414,629,7.80372242,11.09431656,16.84565261,0.35029320,0.54667066,1.74293979
30097,0,USMontanaSweetGrass,Montana,Sweet Grass,2021-04-04 07:29:17.614694,2020-11-23 00:00:00.000000,14.04133056,19.02211962,26.86691786,524,710,1004,283,409,620,7.59035403,10.94646771,16.61096141,0.33848126,0.52919275,1.74554437
30097,0,USMontanaSweetGrass,Montana,Sweet Grass,2021-04-04 07:29:17.614694,2020-11-24 00:00:00.000000,13.41551385,18.20203769,26.43051832,501,680,987,275,396,609,7.36635866,10.61459520,16.30336398,0.33324768,0.51340718,1.74664554
30097,0,USMontanaSweetGrass,Montana,Sweet Grass,2021-04-04 07:29:17.614694,2020-11-25 00:00:00.000000,12.76275892,17.61394718,25.50020076,476,658,952,267,384,595,7.16216522,10.30006256,15.93081199,0.32871461,0.50281402,1.74744351
30097,0,USMontanaSweetGrass,Montana,Sweet Grass,2021-04-04 07:29:17.614694,2020-11-26 00:00:00.000000,12.12040048,16.95792192,24.53526775,452,633,916,259,373,579,6.93287302,10.00536344,15.50394410,0.32677415,0.49614821,1.74851967
30097,0,USMontanaSweetGrass,Montana,Sweet Grass,2021-04-04 07:29:17.614694,2020-11-27 00:00:00.000000,11.63377677,16.29818589,23.55173496,434,609,880,249,361,561,6.68563800,9.67021283,15.03445901,0.32063236,0.48328753,1.94662517
30097,0,USMontanaSweetGrass,Montana,Sweet Grass,2021-04-04 07:29:17.614694,2020-11-28 00:00:00.000000,11.16982282,15.68850465,22.56085805,417,586,843,240,347,543,6.42776211,9.29105650,14.53320737,0.31334502,0.48356292,2.01899231
30097,0,USMontanaSweetGrass,Montana,Sweet Grass,2021-04-04 07:29:17.614694,2020-11-29 00:00:00.000000,10.72414700,14.86559911,21.57126135,400,555,806,230,331,523,6.15877109,8.88398574,14.00670148,0.29345384,0.47924820,2.10427480
30097,0,USMontanaSweetGrass,Montana,Sweet Grass,2021-04-04 07:29:17.614694,2020-11-30 00:00:00.000000,10.23964102,14.09613831,20.57010356,382,526,768,219,316,503,5.88001851,8.47008295,13.46492067,0.28515767,0.46977724,2.17426504
30097,0,USMontanaSweetGrass,Montana,Sweet Grass,2021-04-04 07:29:17.614694,2020-12-01 00:00:00.000000,9.74813585,13.38084253,19.58231095,364,500,731,208,302,482,5.58813440,8.09031093,12.91111210,0.27125716,0.45793359,2.21755639
30097,0,USMontanaSweetGrass,Montana,Sweet Grass,2021-04-04 07:29:17.614694,2020-12-02 00:00:00.000000,9.24286500,12.59977659,18.60688625,345,470,695,197,286,461,5.28948972,7.67422256,12.35190698,0.25529718,0.45018231,2.23861959
30097,0,USMontanaSweetGrass,Montana,Sweet Grass,2021-04-04 07:29:17.614694,2020-12-03 00:00:00.000000,8.73100690,11.87824015,17.65040543,326,443,659,186,271,440,4.98995636,7.25485902,11.79250778,0.24339994,0.43763423,2.24532597
30097,0,USMontanaSweetGrass,Montana,Sweet Grass,2021-04-04 07:29:17.614694,2020-12-04 00:00:00.000000,8.22345094,11.13485720,16.71740115,307,416,624,175,255,419,4.69349822,6.84527004,11.23696556,0.23709834,0.43053770,2.23939210
30097,0,USMontanaSweetGrass,Montana,Sweet Grass,2021-04-04 07:29:17.614694,2020-12-05 00:00:00.000000,7.72887153,10.55731196,15.81081995,288,394,590,164,241,399,4.40150233,6.45366531,10.68847062,0.23434583,0.42490805,2.20815763
30097,0,USMontanaSweetGrass,Montana,Sweet Grass,2021-04-04 07:29:17.614694,2020-12-06 00:00:00.000000,7.17350092,9.87886207,14.93378554,268,369,558,154,226,379,4.12729753,6.05595940,10.14970193,0.23322711,0.41128964,2.11830689
30097,0,USMontanaSweetGrass,Montana,Sweet Grass,2021-04-04 07:29:17.614694,2020-12-07 00:00:00.000000,6.66649033,9.19519809,14.16519061,249,343,529,143,213,359,3.84444126,5.70804448,9.62304207,0.23274821,0.40995432,2.10969618
30097,0,USMontanaSweetGrass,Montana,Sweet Grass,2021-04-04 07:29:17.614694,2020-12-08 00:00:00.000000,6.20053436,8.59483483,13.43036814,231,321,501,134,200,341,3.58774703,5.37279353,9.12532128,0.23246623,0.40465023,2.11023262
30097,0,USMontanaSweetGrass,Montana,Sweet Grass,2021-04-04 07:29:17.614694,2020-12-09 00:00:00.000000,5.77494707,8.00938595,12.73110426,215,299,475,125,188,323,3.35248438,5.03757698,8.65358207,0.23215879,0.40164160,2.10698286
30097,0,USMontanaSweetGrass,Montana,Sweet Grass,2021-04-04 07:29:17.614694,2020-12-10 00:00:00.000000,5.38796391,7.46301848,12.06672205,201,278,450,117,176,306,3.13521984,4.71679304,8.20577493,0.23568339,0.40331602,2.09921359
30097,0,USMontanaSweetGrass,Montana,Sweet Grass,2021-04-04 07:29:17.614694,2020-12-11 00:00:00.000000,5.03433597,7.00015461,11.43656703,188,261,427,109,165,290,2.93325449,4.43390809,7.78046113,0.24631191,0.40926783,2.25765244
30097,0,USMontanaSweetGrass,Montana,Sweet Grass,2021-04-04 07:29:17.614694,2020-12-12 00:00:00.000000,4.70924444,6.56400033,10.83985261,175,245,405,102,153,275,2.74450399,4.09630552,7.37659633,0.24564244,0.41125951,2.42295339
30097,0,USMontanaSweetGrass,Montana,Sweet Grass,2021-04-04 07:29:17.614694,2020-12-13 00:00:00.000000,4.40979014,6.15320378,10.27564386,164,229,384,94,144,261,2.53051200,3.85377273,6.99336137,0.24526888,0.41457011,2.47284577
30097,0,USMontanaSweetGrass,Montana,Sweet Grass,2021-04-04 07:29:17.614694,2020-12-14 00:00:00.000000,4.09340881,5.76622846,9.65967360,152,215,360,88,134,247,2.35633157,3.60689574,6.63004978,0.24499811,0.40963029,2.48366358
30097,0,USMontanaSweetGrass,Montana,Sweet Grass,2021-04-04 07:29:17.614694,2020-12-15 00:00:00.000000,3.75750016,5.35445095,8.97594544,140,200,335,82,126,234,2.19983381,3.37568605,6.28783929,0.24477179,0.41046140,2.48547490
30097,0,USMontanaSweetGrass,Montana,Sweet Grass,2021-04-04 07:29:17.614694,2020-12-16 00:00:00.000000,3.38996596,5.04694421,8.33311101,126,188,311,76,118,222,2.05885355,3.15794188,5.96560623,0.24460205,0.40878905,2.48475809
30097,0,USMontanaSweetGrass,Montana,Sweet Grass,2021-04-04 07:29:17.614694,2020-12-17 00:00:00.000000,3.02614387,4.70912579,7.73057439,113,175,288,72,109,211,1.93199102,2.93573986,5.66244084,0.24435841,0.40589907,2.48814042
30097,0,USMontanaSweetGrass,Montana,Sweet Grass,2021-04-04 07:29:17.614694,2020-12-18 00:00:00.000000,2.70190380,4.37678370,7.16779880,100,163,267,66,102,200,1.78489455,2.73130189,5.37749032,0.24403221,0.40543486,2.49866355
30097,0,USMontanaSweetGrass,Montana,Sweet Grass,2021-04-04 07:29:17.614694,2020-12-19 00:00:00.000000,2.49463554,4.09785480,6.70025684,93,153,250,59,95,188,1.59668042,2.55834749,5.03556693,0.23796047,0.41150325,2.50329673
30097,0,USMontanaSweetGrass,Montana,Sweet Grass,2021-04-04 07:29:17.614694,2020-12-20 00:00:00.000000,2.33446647,3.83174381,6.33093848,87,143,236,53,89,174,1.42660875,2.40216030,4.68007321,0.22973558,0.41922031,2.51523103
30097,0,USMontanaSweetGrass,Montana,Sweet Grass,2021-04-04 07:29:17.614694,2020-12-21 00:00:00.000000,2.18936070,3.59052808,6.06395733,81,134,226,49,83,162,1.32081327,2.24708321,4.34674969,0.22585433,0.42089321,2.33297161
30097,0,USMontanaSweetGrass,Montana,Sweet Grass,2021-04-04 07:29:17.614694,2020-12-22 00:00:00.000000,2.02473029,3.41806857,5.83179156,75,127,217,45,79,151,1.22778617,2.12794593,4.04774069,0.22479466,0.41204492,2.23119311
30097,0,USMontanaSweetGrass,Montana,Sweet Grass,2021-04-04 07:29:17.614694,2020-12-23 00:00:00.000000,1.88660239,3.25789449,5.63279809,70,121,210,41,75,141,1.11910149,2.01099409,3.77833813,0.22458474,0.42394549,2.20810228
30097,0,USMontanaSweetGrass,Montana,Sweet Grass,2021-04-04 07:29:17.614694,2020-12-24 00:00:00.000000,1.76030565,3.09396106,5.45245289,65,115,203,38,70,132,1.02567284,1.89755615,3.55415268,0.21420569,0.43664492,2.19423416
30097,0,USMontanaSweetGrass,Montana,Sweet Grass,2021-04-04 07:29:17.614694,2020-12-25 00:00:00.000000,1.61321964,2.92241004,5.28244453,60,109,197,35,67,127,0.95623042,1.80011884,3.41133021,0.20678705,0.42927427,2.15550425
30097,0,USMontanaSweetGrass,Montana,Sweet Grass,2021-04-04 07:29:17.614694,2020-12-26 00:00:00.000000,1.49347291,2.81678786,5.12036244,55,105,191,33,64,122,0.89268786,1.71588619,3.28333800,0.20584972,0.42631575,2.06563630
30097,0,USMontanaSweetGrass,Montana,Sweet Grass,2021-04-04 07:29:17.614694,2020-12-27 00:00:00.000000,1.40216464,2.66891415,4.90613559,52,99,183,31,61,118,0.83510129,1.64045835,3.16676456,0.20576166,0.42217908,1.97361020
30097,0,USMontanaSweetGrass,Montana,Sweet Grass,2021-04-04 07:29:17.614694,2020-12-28 00:00:00.000000,1.30449664,2.54941689,4.71572953,48,95,176,29,58,114,0.78326339,1.56659619,3.05929601,0.20181519,0.42893355,1.93131201
30097,0,USMontanaSweetGrass,Montana,Sweet Grass,2021-04-04 07:29:17.614694,2020-12-29 00:00:00.000000,1.21547706,2.47293696,4.52647321,45,92,169,27,55,110,0.72790296,1.48267642,2.94532171,0.19986925,0.43092091,1.92303212
30097,0,USMontanaSweetGrass,Montana,Sweet Grass,2021-04-04 07:29:17.614694,2020-12-30 00:00:00.000000,1.13519982,2.37919971,4.31534607,42,88,161,25,52,105,0.67577042,1.40580787,2.82798925,0.19947691,0.42514501,1.92411146
30097,0,USMontanaSweetGrass,Montana,Sweet Grass,2021-04-04 07:29:17.614694,2020-12-31 00:00:00.000000,1.06326050,2.29122034,4.10835915,39,85,153,23,49,101,0.63172831,1.33758226,2.70944777,0.19735976,0.42926364,1.93204708
30097,0,USMontanaSweetGrass,Montana,Sweet Grass,2021-04-04 07:29:17.614694,2021-01-01 00:00:00.000000,0.99880532,2.20095021,3.90562767,37,82,145,22,47,96,0.59400764,1.27150943,2.59093730,0.19627200,0.45530482,1.95277386
30097,0,USMontanaSweetGrass,Montana,Sweet Grass,2021-04-04 07:29:17.614694,2021-01-02 00:00:00.000000,0.94643771,2.12993171,3.70943101,35,79,138,20,45,92,0.56133651,1.21274577,2.47328658,0.19443337,0.45470184,1.99694287
30097,0,USMontanaSweetGrass,Montana,Sweet Grass,2021-04-04 07:29:17.614694,2021-01-03 00:00:00.000000,0.90556083,2.02987894,3.62183881,33,75,135,19,43,88,0.53284241,1.17601199,2.35745849,0.19459461,0.45858194,1.91826518
30097,0,USMontanaSweetGrass,Montana,Sweet Grass,2021-04-04 07:29:17.614694,2021-01-04 00:00:00.000000,0.90117348,1.93773928,3.48461550,33,72,130,18,41,83,0.50784533,1.11938979,2.24442323,0.19531646,0.46329816,1.81564776
30097,0,USMontanaSweetGrass,Montana,Sweet Grass,2021-04-04 07:29:17.614694,2021-01-05 00:00:00.000000,0.90068635,1.85986564,3.35092794,33,69,125,18,40,81,0.49384109,1.07486997,2.17988255,0.19703615,0.46031885,1.95100266
30097,0,USMontanaSweetGrass,Montana,Sweet Grass,2021-04-04 07:29:17.614694,2021-01-06 00:00:00.000000,0.90399179,1.78925370,3.21997902,33,66,120,18,38,79,0.48689944,1.03670028,2.11831819,0.20034780,0.45578177,2.06100855
30097,0,USMontanaSweetGrass,Montana,Sweet Grass,2021-04-04 07:29:17.614694,2021-01-07 00:00:00.000000,0.90943877,1.73035204,3.09356611,33,64,115,18,37,76,0.48442268,1.00675063,2.05114126,0.20429725,0.44817990,2.11932839
30097,0,USMontanaSweetGrass,Montana,Sweet Grass,2021-04-04 07:29:17.614694,2021-01-08 00:00:00.000000,0.91596245,1.66025924,2.97290538,34,62,111,18,36,74,0.48470045,0.97147083,1.98117973,0.20289058,0.47024502,2.13345347
30097,0,USMontanaSweetGrass,Montana,Sweet Grass,2021-04-04 07:29:17.614694,2021-01-09 00:00:00.000000,0.92288608,1.58856845,2.85863220,34,59,106,18,34,71,0.48661246,0.92597324,1.91054006,0.20228718,0.48247328,2.13363181
30097,0,USMontanaSweetGrass,Montana,Sweet Grass,2021-04-04 07:29:17.614694,2021-01-10 00:00:00.000000,0.90812054,1.54853908,2.75095310,33,57,102,18,33,68,0.48945471,0.89853165,1.84073901,0.20286092,0.50084019,2.13421637
30097,0,USMontanaSweetGrass,Montana,Sweet Grass,2021-04-04 07:29:17.614694,2021-01-11 00:00:00.000000,0.88106929,1.50455504,2.62599822,32,56,98,18,32,66,0.49276698,0.87166719,1.77281922,0.20698867,0.50476058,2.15805240
30097,0,USMontanaSweetGrass,Montana,Sweet Grass,2021-04-04 07:29:17.614694,2021-01-12 00:00:00.000000,0.85921504,1.50742335,2.56752539,32,56,95,18,32,63,0.49163231,0.85684562,1.70286420,0.21755224,0.50916671,2.23361288
30097,0,USMontanaSweetGrass,Montana,Sweet Grass,2021-04-04 07:29:17.614694,2021-01-13 00:00:00.000000,0.84231196,1.46978079,2.53402846,31,54,94,18,30,61,0.48785372,0.82591644,1.63786678,0.21882861,0.51630022,2.23348165
30097,0,USMontanaSweetGrass,Montana,Sweet Grass,2021-04-04 07:29:17.614694,2021-01-14 00:00:00.000000,0.82895320,1.44666801,2.53248801,30,54,94,18,30,60,0.48260440,0.80894618,1.61488141,0.22082224,0.52318268,2.25547362
30097,0,USMontanaSweetGrass,Montana,Sweet Grass,2021-04-04 07:29:17.614694,2021-01-15 00:00:00.000000,0.81856590,1.42316720,2.49721319,30,53,93,17,29,58,0.47663954,0.80053396,1.57030082,0.22686556,0.52995517,2.21926985
30097,0,USMontanaSweetGrass,Montana,Sweet Grass,2021-04-04 07:29:17.614694,2021-01-16 00:00:00.000000,0.80035386,1.41319870,2.50855097,29,52,93,17,29,57,0.47043763,0.79407592,1.52559752,0.23544474,0.53728965,2.17855170
30097,0,USMontanaSweetGrass,Montana,Sweet Grass,2021-04-04 07:29:17.614694,2021-01-17 00:00:00.000000,0.75783083,1.36090771,2.54240613,28,50,95,17,28,55,0.46429463,0.77487643,1.48452411,0.23807284,0.54746821,2.08040032
30097,0,USMontanaSweetGrass,Montana,Sweet Grass,2021-04-04 07:29:17.614694,2021-01-18 00:00:00.000000,0.83267251,1.35475189,2.56044257,31,50,95,16,28,56,0.44062219,0.76306973,1.52435858,0.24044860,0.55086252,2.09431597
30097,0,USMontanaSweetGrass,Montana,Sweet Grass,2021-04-04 07:29:17.614694,2021-01-19 00:00:00.000000,0.82226731,1.34021333,2.54876189,30,50,95,15,27,55,0.42531369,0.73284349,1.48710860,0.24212189,0.55959350,2.10529823
30097,0,USMontanaSweetGrass,Montana,Sweet Grass,2021-04-04 07:29:17.614694,2021-01-20 00:00:00.000000,0.81332062,1.35089684,2.46333617,30,50,92,17,27,54,0.45731008,0.73415043,1.46911105,0.24312705,0.55790049,2.10851338
30097,0,USMontanaSweetGrass,Montana,Sweet Grass,2021-04-04 07:29:17.614694,2021-01-21 00:00:00.000000,0.78332975,1.32047787,2.39600077,29,49,89,17,26,54,0.46797005,0.71478515,1.45988399,0.24375194,0.57100295,2.10777990
30097,0,USMontanaSweetGrass,Montana,Sweet Grass,2021-04-04 07:29:17.614694,2021-01-22 00:00:00.000000,0.75889988,1.35149447,2.46501973,28,50,92,17,26,54,0.45776503,0.70712808,1.47090786,0.24419603,0.58192624,2.07453895
30097,0,USMontanaSweetGrass,Montana,Sweet Grass,2021-04-04 07:29:17.614694,2021-01-23 00:00:00.000000,0.74630107,1.36672254,2.53631664,27,51,94,16,28,55,0.44723979,0.76070076,1.48246706,0.24436861,0.58277366,2.07456042
30097,0,USMontanaSweetGrass,Montana,Sweet Grass,2021-04-04 07:29:17.614694,2021-01-24 00:00:00.000000,0.74977975,1.37650245,2.61121467,28,51,97,16,28,55,0.43690678,0.75063373,1.49433911,0.24410433,0.58939646,2.08022163
30097,0,USMontanaSweetGrass,Montana,Sweet Grass,2021-04-04 07:29:17.614694,2021-01-25 00:00:00.000000,0.79327232,1.40531495,2.60187595,29,52,97,15,27,56,0.42467429,0.73551344,1.50629703,0.24420927,0.59856066,2.06173977
30097,0,USMontanaSweetGrass,Montana,Sweet Grass,2021-04-04 07:29:17.614694,2021-01-26 00:00:00.000000,0.79862312,1.38572266,2.59394860,29,51,96,15,28,56,0.41551270,0.75878380,1.51164217,0.24437081,0.62470734,2.04924776
30097,0,USMontanaSweetGrass,Montana,Sweet Grass,2021-04-04 07:29:17.614694,2021-01-27 00:00:00.000000,0.81410427,1.42026949,2.57990333,30,53,96,15,29,56,0.41268580,0.78181886,1.51222496,0.24435982,0.65565265,2.04821392
30097,0,USMontanaSweetGrass,Montana,Sweet Grass,2021-04-04 07:29:17.614694,2021-01-28 00:00:00.000000,0.83078808,1.44709328,2.55940179,31,54,95,15,29,56,0.41451378,0.77889796,1.50936935,0.24436405,0.66461550,2.05568375
30097,0,USMontanaSweetGrass,Montana,Sweet Grass,2021-04-04 07:29:17.614694,2021-01-29 00:00:00.000000,0.80325954,1.47974507,2.53582079,30,55,94,15,29,56,0.41902577,0.80266235,1.50404358,0.24450276,0.66940096,2.07077962
30097,0,USMontanaSweetGrass,Montana,Sweet Grass,2021-04-04 07:29:17.614694,2021-01-30 00:00:00.000000,0.76761643,1.51483753,2.51844817,28,56,94,15,29,55,0.42536219,0.79480175,1.49697642,0.24497379,0.68258952,2.01968207
30097,0,USMontanaSweetGrass,Montana,Sweet Grass,2021-04-04 07:29:17.614694,2021-01-31 00:00:00.000000,0.72227556,1.51941224,2.56162246,26,56,95,16,30,55,0.43279357,0.82342074,1.48871076,0.24962092,0.69229442,1.96577713
30097,0,USMontanaSweetGrass,Montana,Sweet Grass,2021-04-04 07:29:17.614694,2021-02-01 00:00:00.000000,0.92553498,1.59265230,2.59279963,34,59,96,15,29,55,0.40938601,0.79989693,1.49521332,0.24769264,0.70551799,1.99251856
30097,0,USMontanaSweetGrass,Montana,Sweet Grass,2021-04-04 07:29:17.614694,2021-02-02 00:00:00.000000,1.00137861,1.67323929,2.76271234,37,62,103,16,30,56,0.44984256,0.80985355,1.51890466,0.24919396,0.71308582,1.99991081
30097,0,USMontanaSweetGrass,Montana,Sweet Grass,2021-04-04 07:29:17.614694,2021-02-03 00:00:00.000000,1.03293422,1.73945418,2.89521806,38,65,108,19,32,57,0.51557614,0.87617315,1.53234526,0.25019291,0.71623340,1.94723693
30097,0,USMontanaSweetGrass,Montana,Sweet Grass,2021-04-04 07:29:17.614694,2021-02-04 00:00:00.000000,1.06708683,1.88227045,3.04903296,39,70,113,19,33,58,0.52466975,0.90266984,1.57224374,0.25170570,0.71070954,1.92036983
30097,0,USMontanaSweetGrass,Montana,Sweet Grass,2021-04-04 07:29:17.614694,2021-02-05 00:00:00.000000,1.11379854,2.00814669,3.18121364,41,75,118,20,36,60,0.54223201,0.96651785,1.62704700,0.25447396,0.73404367,1.94700594
30097,0,USMontanaSweetGrass,Montana,Sweet Grass,2021-04-04 07:29:17.614694,2021-02-06 00:00:00.000000,1.15979059,2.14185388,3.32363492,43,80,124,21,37,62,0.56352783,1.00684120,1.68547028,0.25783022,0.74169165,1.99178909
30097,0,USMontanaSweetGrass,Montana,Sweet Grass,2021-04-04 07:29:17.614694,2021-02-07 00:00:00.000000,1.20409451,2.28777846,3.50152376,44,85,130,21,38,64,0.58619657,1.02622522,1.72488323,0.26019418,0.73927990,1.96442307
30097,0,USMontanaSweetGrass,Montana,Sweet Grass,2021-04-04 07:29:17.614694,2021-02-08 00:00:00.000000,1.36598555,2.38580482,3.57835406,51,89,133,22,41,67,0.60929633,1.10954118,1.79497406,0.26130376,0.73350097,1.90026284
30097,0,USMontanaSweetGrass,Montana,Sweet Grass,2021-04-04 07:29:17.614694,2021-02-09 00:00:00.000000,1.52209888,2.41622415,3.52744653,56,90,131,24,43,69,0.64371829,1.17210124,1.86085244,0.26947030,0.73420031,1.85171273
30097,0,USMontanaSweetGrass,Montana,Sweet Grass,2021-04-04 07:29:17.614694,2021-02-10 00:00:00.000000,1.58520222,2.49636734,3.53440826,59,93,132,25,45,70,0.68513735,1.20563175,1.88357747,0.27625981,0.73518316,1.82106667
30097,0,USMontanaSweetGrass,Montana,Sweet Grass,2021-04-04 07:29:17.614694,2021-02-11 00:00:00.000000,1.61638293,2.56810890,3.64475655,60,95,136,28,47,72,0.75314402,1.25802346,1.93965314,0.28019638,0.73272639,1.80120138
30097,0,USMontanaSweetGrass,Montana,Sweet Grass,2021-04-04 07:29:17.614694,2021-02-12 00:00:00.000000,1.70656465,2.59556265,3.73939640,63,96,139,29,47,75,0.79126113,1.27766036,2.01506714,0.27983790,0.72803250,1.78453227
30097,0,USMontanaSweetGrass,Montana,Sweet Grass,2021-04-04 07:29:17.614694,2021-02-13 00:00:00.000000,1.70277530,2.64851580,3.81672643,63,98,142,30,49,78,0.81106996,1.31923263,2.09183500,0.27698890,0.72346494,1.76640259
30097,0,USMontanaSweetGrass,Montana,Sweet Grass,2021-04-04 07:29:17.614694,2021-02-14 00:00:00.000000,1.59653763,2.66590638,3.90092928,59,99,145,30,50,80,0.80976104,1.34318216,2.16743380,0.27801866,0.72209701,1.70576962
30097,0,USMontanaSweetGrass,Montana,Sweet Grass,2021-04-04 07:29:17.614694,2021-02-15 00:00:00.000000,1.72202843,2.71009760,3.81318920,64,101,142,32,51,83,0.86546675,1.37267538,2.24088686,0.27941339,0.72934612,1.66021195
30097,0,USMontanaSweetGrass,Montana,Sweet Grass,2021-04-04 07:29:17.614694,2021-02-16 00:00:00.000000,1.69002466,2.71070234,3.73317351,63,101,139,33,51,83,0.89280953,1.36710848,2.24440091,0.28035536,0.76033420,1.63628669
30097,0,USMontanaSweetGrass,Montana,Sweet Grass,2021-04-04 07:29:17.614694,2021-02-17 00:00:00.000000,1.66648079,2.65594272,3.61904895,62,99,135,33,50,82,0.90080084,1.35856322,2.21193664,0.28344467,0.76117595,1.62012116
30097,0,USMontanaSweetGrass,Montana,Sweet Grass,2021-04-04 07:29:17.614694,2021-02-18 00:00:00.000000,1.65557203,2.61469130,3.58292381,61,97,133,33,50,80,0.89582273,1.35331625,2.15873544,0.27014580,0.76801397,1.56718161
30097,0,USMontanaSweetGrass,Montana,Sweet Grass,2021-04-04 07:29:17.614694,2021-02-19 00:00:00.000000,1.65298511,2.56368072,3.66001353,61,95,136,32,51,78,0.88244053,1.37112865,2.08762099,0.26281789,0.77596562,1.47277797
30097,0,USMontanaSweetGrass,Montana,Sweet Grass,2021-04-04 07:29:17.614694,2021-02-20 00:00:00.000000,1.60474321,2.54797179,3.73162125,59,95,139,32,51,76,0.87002173,1.37610801,2.03949529,0.26126714,0.78302156,1.45056146
30097,0,USMontanaSweetGrass,Montana,Sweet Grass,2021-04-04 07:29:17.614694,2021-02-21 00:00:00.000000,1.51371513,2.49502916,3.79745100,56,93,141,31,51,74,0.84262378,1.38024835,1.99583773,0.27651872,0.78188954,1.43984307
30097,0,USMontanaSweetGrass,Montana,Sweet Grass,2021-04-04 07:29:17.614694,2021-02-22 00:00:00.000000,1.49469527,2.40758941,3.64835528,55,89,136,30,51,74,0.81296878,1.36954415,2.00144866,0.26597427,0.80886880,1.43711055
30097,0,USMontanaSweetGrass,Montana,Sweet Grass,2021-04-04 07:29:17.614694,2021-02-23 00:00:00.000000,1.52628383,2.39177190,3.57921084,57,89,133,29,50,72,0.79060928,1.33898625,1.95211833,0.26574320,0.81022022,1.51274952
30097,0,USMontanaSweetGrass,Montana,Sweet Grass,2021-04-04 07:29:17.614694,2021-02-24 00:00:00.000000,1.46735439,2.31664783,3.52864286,54,86,131,28,48,72,0.76800810,1.30980218,1.93050474,0.29060350,0.81412719,1.54697827
30097,0,USMontanaSweetGrass,Montana,Sweet Grass,2021-04-04 07:29:17.614694,2021-02-25 00:00:00.000000,1.43908587,2.19354370,3.47622185,53,81,129,29,47,71,0.79510675,1.27129977,1.92180897,0.30461012,0.81237528,1.54771465
30097,0,USMontanaSweetGrass,Montana,Sweet Grass,2021-04-04 07:29:17.614694,2021-02-26 00:00:00.000000,1.39390004,2.10589241,3.42307685,52,78,127,28,46,71,0.76964865,1.23150463,1.90489074,0.31187245,0.79873924,1.55290428
30097,0,USMontanaSweetGrass,Montana,Sweet Grass,2021-04-04 07:29:17.614694,2021-02-27 00:00:00.000000,1.35393735,2.04898207,3.36937244,50,76,125,27,44,70,0.73563825,1.19692767,1.88291425,0.32713009,0.79536768,1.58131264
30097,0,USMontanaSweetGrass,Montana,Sweet Grass,2021-04-04 07:29:17.614694,2021-02-28 00:00:00.000000,1.31932920,2.01240147,3.31532615,49,75,123,26,43,69,0.70482028,1.16136308,1.84764793,0.33786908,0.80363434,1.62504897
30097,0,USMontanaSweetGrass,Montana,Sweet Grass,2021-04-04 07:29:17.614694,2021-03-01 00:00:00.000000,1.28426506,1.94363425,3.22603981,47,72,120,25,41,65,0.67671851,1.12357816,1.76439360,0.32160358,0.80596241,1.76049988
30097,0,USMontanaSweetGrass,Montana,Sweet Grass,2021-04-04 07:29:17.614694,2021-03-02 00:00:00.000000,1.25347804,1.86035347,3.13698598,46,69,117,24,40,63,0.66587008,1.08824953,1.71000134,0.30889077,0.81429903,1.78776509
30097,0,USMontanaSweetGrass,Montana,Sweet Grass,2021-04-04 07:29:17.614694,2021-03-03 00:00:00.000000,1.27179975,1.80593388,3.04319905,47,67,113,24,39,62,0.66541790,1.05052965,1.67700181,0.30788639,0.82258187,1.84325756
30097,0,USMontanaSweetGrass,Montana,Sweet Grass,2021-04-04 07:29:17.614694,2021-03-04 00:00:00.000000,1.22680483,1.79604906,2.91123564,45,67,108,23,37,60,0.64108724,1.00699741,1.62587709,0.30797864,0.81752591,1.85461576
30097,0,USMontanaSweetGrass,Montana,Sweet Grass,2021-04-04 07:29:17.614694,2021-03-05 00:00:00.000000,1.17662397,1.76583143,2.87593018,43,65,107,22,37,59,0.60754256,0.99233583,1.60432035,0.30964886,0.80483151,1.80973395
30097,0,USMontanaSweetGrass,Montana,Sweet Grass,2021-04-04 07:29:17.614694,2021-03-06 00:00:00.000000,1.11158964,1.70606055,2.85509727,41,63,106,21,36,60,0.57694058,0.96829429,1.62736180,0.31400652,0.81075297,1.77056906
30097,0,USMontanaSweetGrass,Montana,Sweet Grass,2021-04-04 07:29:17.614694,2021-03-07 00:00:00.000000,1.07028567,1.66094548,2.92656917,39,62,109,20,35,59,0.55381429,0.95156601,1.58406544,0.30365049,0.81111083,1.74151848
30097,0,USMontanaSweetGrass,Montana,Sweet Grass,2021-04-04 07:29:17.614694,2021-03-08 00:00:00.000000,1.05098231,1.67411620,2.88354555,39,62,107,20,35,59,0.54037653,0.93690766,1.58863952,0.29895254,0.80212030,1.72115636
30097,0,USMontanaSweetGrass,Montana,Sweet Grass,2021-04-04 07:29:17.614694,2021-03-09 00:00:00.000000,1.01461822,1.66599362,2.81133375,37,62,105,19,34,58,0.52842760,0.91777258,1.57670889,0.29853401,0.78906416,1.70617010
30097,0,USMontanaSweetGrass,Montana,Sweet Grass,2021-04-04 07:29:17.614694,2021-03-10 00:00:00.000000,0.95604292,1.69121446,2.70615550,35,63,101,19,33,57,0.51770077,0.90111658,1.54783672,0.28394639,0.77512820,1.72531828
30097,0,USMontanaSweetGrass,Montana,Sweet Grass,2021-04-04 07:29:17.614694,2021-03-11 00:00:00.000000,0.90251816,1.66725142,2.59326542,33,62,96,18,33,56,0.49447862,0.88708291,1.50688764,0.26461690,0.78428986,1.75766799
30097,0,USMontanaSweetGrass,Montana,Sweet Grass,2021-04-04 07:29:17.614694,2021-03-12 00:00:00.000000,0.85365512,1.62541484,2.47798593,31,60,92,17,33,54,0.46547357,0.89015586,1.45756654,0.25368040,0.80083246,1.72669129
30097,0,USMontanaSweetGrass,Montana,Sweet Grass,2021-04-04 07:29:17.614694,2021-03-13 00:00:00.000000,0.80905417,1.58316482,2.51216738,30,59,93,16,32,52,0.43898832,0.87919174,1.40289380,0.26758693,0.81082843,1.79879595
30097,0,USMontanaSweetGrass,Montana,Sweet Grass,2021-04-04 07:29:17.614694,2021-03-14 00:00:00.000000,0.76834957,1.55492638,2.62575277,28,58,98,15,32,52,0.41480583,0.85869563,1.40732935,0.28128985,0.85147924,1.90352549
30097,0,USMontanaSweetGrass,Montana,Sweet Grass,2021-04-04 07:29:17.614694,2021-03-15 00:00:00.000000,0.82557607,1.50338389,2.60453647,30,56,97,14,31,51,0.39272826,0.84864952,1.38119647,0.29036596,0.87296252,1.94760440
30097,0,USMontanaSweetGrass,Montana,Sweet Grass,2021-04-04 07:29:17.614694,2021-03-16 00:00:00.000000,0.88021999,1.46030799,2.60183142,32,54,97,14,31,51,0.38809815,0.83206376,1.36656693,0.29521902,0.87704377,1.95745571
30097,0,USMontanaSweetGrass,Montana,Sweet Grass,2021-04-04 07:29:17.614694,2021-03-17 00:00:00.000000,0.88928661,1.44570744,2.58647390,33,54,96,14,30,50,0.39498940,0.81992175,1.34147110,0.29790567,0.87452347,1.95924771
30097,0,USMontanaSweetGrass,Montana,Sweet Grass,2021-04-04 07:29:17.614694,2021-03-18 00:00:00.000000,0.88314194,1.42818513,2.54307860,33,53,95,16,29,50,0.43106283,0.79885949,1.35834020,0.29979834,0.86957378,1.95898793
30097,0,USMontanaSweetGrass,Montana,Sweet Grass,2021-04-04 07:29:17.614694,2021-03-19 00:00:00.000000,0.88669711,1.41490022,2.47692717,33,52,92,17,29,51,0.46020475,0.78482288,1.38603521,0.30147409,0.86245799,1.95463327
30097,0,USMontanaSweetGrass,Montana,Sweet Grass,2021-04-04 07:29:17.614694,2021-03-20 00:00:00.000000,0.89098255,1.37313057,2.41021607,33,51,90,17,29,51,0.45711370,0.77602507,1.38358035,0.30304217,0.86052954,1.94576274
30097,0,USMontanaSweetGrass,Montana,Sweet Grass,2021-04-04 07:29:17.614694,2021-03-21 00:00:00.000000,0.88859819,1.36103957,2.34426670,33,50,87,16,29,49,0.45381978,0.78088790,1.33486024,0.30434327,0.87354489,1.81821469
30097,0,USMontanaSweetGrass,Montana,Sweet Grass,2021-04-04 07:29:17.614694,2021-03-22 00:00:00.000000,0.84872292,1.34253304,2.27053888,31,50,84,16,28,48,0.45106031,0.77144867,1.31040670,0.30451727,0.86268826,1.75105705
30097,0,USMontanaSweetGrass,Montana,Sweet Grass,2021-04-04 07:29:17.614694,2021-03-23 00:00:00.000000,0.83322842,1.32333301,2.20803940,31,49,82,16,27,48,0.44368775,0.74658271,1.29867098,0.29034007,0.81469649,1.76362124
30097,0,USMontanaSweetGrass,Montana,Sweet Grass,2021-04-04 07:29:17.614694,2021-03-24 00:00:00.000000,0.80832161,1.32513111,2.14894287,30,49,80,16,27,47,0.44336382,0.72644044,1.27870047,0.28793093,0.81919561,1.77578974
30097,0,USMontanaSweetGrass,Montana,Sweet Grass,2021-04-04 07:29:17.614694,2021-03-25 00:00:00.000000,0.77634485,1.30920870,2.09085987,29,48,78,15,26,46,0.42600577,0.70953796,1.25337965,0.29216166,0.81257309,1.79576793
30097,0,USMontanaSweetGrass,Montana,Sweet Grass,2021-04-04 07:29:17.614694,2021-03-26 00:00:00.000000,0.73595042,1.28022119,2.08660028,27,47,77,15,26,45,0.41011285,0.69753135,1.22472962,0.28598990,0.82656275,1.83224815
30097,0,USMontanaSweetGrass,Montana,Sweet Grass,2021-04-04 07:29:17.614694,2021-03-27 00:00:00.000000,0.69921979,1.25870742,2.15743966,26,47,80,14,25,44,0.39554141,0.68039013,1.19413614,0.27939395,0.82161259,1.87607380
30097,0,USMontanaSweetGrass,Montana,Sweet Grass,2021-04-04 07:29:17.614694,2021-03-28 00:00:00.000000,0.66627281,1.23442336,2.22600644,24,46,83,14,24,46,0.38216807,0.66196958,1.25321338,0.27726424,0.81719695,1.79875333
30097,0,USMontanaSweetGrass,Montana,Sweet Grass,2021-04-04 07:29:17.614694,2021-03-29 00:00:00.000000,0.60408869,1.16764083,2.15150337,22,43,80,13,24,47,0.36686661,0.65517534,1.26539541,0.27623626,0.81651460,1.76749011
30097,0,USMontanaSweetGrass,Montana,Sweet Grass,2021-04-04 07:29:17.614694,2021-03-30 00:00:00.000000,0.54553504,1.08759778,2.07405561,20,40,77,12,23,45,0.34379101,0.63685153,1.21762587,0.26432493,0.84245739,1.78884765
30097,0,USMontanaSweetGrass,Montana,Sweet Grass,2021-04-04 07:29:17.614694,2021-03-31 00:00:00.000000,0.48967016,1.01979633,1.99143592,18,38,74,11,22,43,0.31692617,0.60960801,1.16008844,0.25846555,0.84396454,1.82276880
30097,0,USMontanaSweetGrass,Montana,Sweet Grass,2021-04-04 07:29:17.614694,2021-04-01 00:00:00.000000,0.43740652,0.94446841,1.90648581,16,35,71,10,21,42,0.29069351,0.57327718,1.12592849,0.25653073,0.83879591,1.88418957
30097,0,USMontanaSweetGrass,Montana,Sweet Grass,2021-04-04 07:29:17.614694,2021-04-02 00:00:00.000000,0.38921084,0.87918258,1.81402782,14,32,67,9,19,40,0.26270766,0.53358542,1.07397455,0.25656865,0.83146774,1.95000982
30097,0,USMontanaSweetGrass,Montana,Sweet Grass,2021-04-04 07:29:17.614694,2021-04-03 00:00:00.000000,0.34527105,0.82090624,1.71471787,12,30,64,8,18,38,0.23701246,0.49176126,1.02156037,0.25792823,0.82191809,1.98566457
30097,0,USMontanaSweetGrass,Montana,Sweet Grass,2021-04-04 07:29:17.614694,2021-04-04 00:00:00.000000,0.30557365,0.76447857,1.61944202,11,28,60,8,16,36,0.21514336,0.45161285,0.96959886,0.25790452,0.80761105,1.99996966
30097,0,USMontanaSweetGrass,Montana,Sweet Grass,2021-04-04 07:29:17.614694,2021-04-05 00:00:00.000000,0.27005550,0.69928177,1.52835425,10,26,57,7,15,34,0.19481482,0.41972240,0.91871138,0.25714135,0.80196698,2.00362979
30097,0,USMontanaSweetGrass,Montana,Sweet Grass,2021-04-04 07:29:17.614694,2021-04-06 00:00:00.000000,0.24421912,0.64713396,1.43769481,9,24,53,6,14,32,0.17593976,0.39429164,0.86931166,0.25673581,0.79993897,2.00466107
30097,0,USMontanaSweetGrass,Montana,Sweet Grass,2021-04-04 07:29:17.614694,2021-04-07 00:00:00.000000,0.22078232,0.59391357,1.34891902,8,22,50,5,13,30,0.15843593,0.36724630,0.82091385,0.25653403,0.77447482,2.00494882
30097,0,USMontanaSweetGrass,Montana,Sweet Grass,2021-04-04 07:29:17.614694,2021-04-08 00:00:00.000000,0.19954687,0.54415204,1.25563076,7,20,46,5,12,29,0.14226781,0.33824483,0.78060237,0.25647090,0.77478362,2.00502944
30097,0,USMontanaSweetGrass,Montana,Sweet Grass,2021-04-04 07:29:17.614694,2021-04-09 00:00:00.000000,0.18032237,0.49974334,1.18824739,6,18,44,4,11,27,0.12742148,0.31582366,0.74758744,0.25647803,0.77483676,2.00505229
30097,0,USMontanaSweetGrass,Montana,Sweet Grass,2021-04-04 07:29:17.614694,2021-04-10 00:00:00.000000,0.16292930,0.46283416,1.14132778,6,17,42,4,10,25,0.11356800,0.29418562,0.68368711,0.25648283,0.77484282,2.00505891
30097,0,USMontanaSweetGrass,Montana,Sweet Grass,2021-04-04 07:29:17.614694,2021-04-11 00:00:00.000000,0.14720039,0.42038631,1.09597945,5,15,40,3,10,24,0.10104003,0.27054999,0.66223005,0.25648551,0.77484208,2.00506090
30097,0,USMontanaSweetGrass,Montana,Sweet Grass,2021-04-04 07:29:17.614694,2021-04-12 00:00:00.000000,0.13298123,0.37957958,1.05218225,4,14,39,3,9,24,0.08980570,0.24874490,0.64438184,0.25648690,0.77484114,2.00506153
30097,0,USMontanaSweetGrass,Montana,Sweet Grass,2021-04-04 07:29:17.614694,2021-04-13 00:00:00.000000,0.12013007,0.34260779,1.00991053,4,12,37,2,8,23,0.07975373,0.22639325,0.62697910,0.25648760,0.77484065,2.00506175
30097,0,USMontanaSweetGrass,Montana,Sweet Grass,2021-04-04 07:29:17.614694,2021-04-14 00:00:00.000000,0.10844814,0.31016549,0.97333387,4,11,36,2,7,22,0.07077643,0.20932407,0.60998643,0.25648794,0.77484043,2.00506184
30097,0,USMontanaSweetGrass,Montana,Sweet Grass,2021-04-04 07:29:17.614694,2021-04-15 00:00:00.000000,0.09603005,0.28308802,0.93168164,3,10,34,2,7,22,0.06277147,0.19506943,0.59338098,0.25648810,0.77484034,2.00506188
30097,0,USMontanaSweetGrass,Montana,Sweet Grass,2021-04-04 07:29:17.614694,2021-04-16 00:00:00.000000,0.08500918,0.25837966,0.89291500,3,9,33,2,6,21,0.05564299,0.18189064,0.56416460,0.25648818,0.77484031,2.00506191
