FIPS,HR_UID,nameid,province,region,analysisTime,dates,pointprevalence_025,pointprevalence_50,pointprevalence_975,pointinfections_025,pointinfections_50,pointinfections_975,pointinfectious_025,pointinfectious_50,pointinfectious_975,pointinfectiousprevalence_05,pointinfectiousprevalence_50,pointinfectiousprevalence_95,infectrate_025,infectrate_50,infectrate_975
19123,0,USIowaMahaska,Iowa,Mahaska,2021-04-04 10:57:18.760969,2020-03-09 00:00:00.000000,0.00192735,0.01247514,0.03519470,0,2,7,0,1,4,0.00117887,0.00637040,0.01979910,0.37461847,0.54636468,0.70629119
19123,0,USIowaMahaska,Iowa,Mahaska,2021-04-04 10:57:18.760969,2020-03-10 00:00:00.000000,0.00200668,0.01420106,0.03596972,0,3,7,0,1,4,0.00114592,0.00641695,0.01876398,0.37462221,0.54636441,0.70613258
19123,0,USIowaMahaska,Iowa,Mahaska,2021-04-04 10:57:18.760969,2020-03-11 00:00:00.000000,0.00210820,0.01486801,0.03863024,0,3,8,0,1,4,0.00114050,0.00671424,0.01820918,0.37463013,0.54636370,0.70575244
19123,0,USIowaMahaska,Iowa,Mahaska,2021-04-04 10:57:18.760969,2020-03-12 00:00:00.000000,0.00229704,0.01632909,0.04198265,0,3,9,0,1,4,0.00117627,0.00720925,0.01829548,0.37464688,0.54636181,0.70484388
19123,0,USIowaMahaska,Iowa,Mahaska,2021-04-04 10:57:18.760969,2020-03-13 00:00:00.000000,0.00250426,0.01810804,0.04349310,0,4,9,0,1,4,0.00121528,0.00772024,0.01924651,0.37468213,0.54635670,0.70268629
19123,0,USIowaMahaska,Iowa,Mahaska,2021-04-04 10:57:18.760969,2020-03-14 00:00:00.000000,0.00273079,0.01989589,0.04634100,0,4,10,0,1,4,0.00133365,0.00835937,0.02064758,0.37475569,0.54449606,0.69764017
19123,0,USIowaMahaska,Iowa,Mahaska,2021-04-04 10:57:18.760969,2020-03-15 00:00:00.000000,0.00297748,0.02149463,0.05075886,0,4,11,0,2,4,0.00146709,0.00925014,0.02188276,0.37490698,0.53754115,0.69602358
19123,0,USIowaMahaska,Iowa,Mahaska,2021-04-04 10:57:18.760969,2020-03-16 00:00:00.000000,0.00795599,0.02670917,0.05984094,1,5,13,0,2,5,0.00161205,0.00999718,0.02289951,0.37520920,0.53181272,0.69603671
19123,0,USIowaMahaska,Iowa,Mahaska,2021-04-04 10:57:18.760969,2020-03-17 00:00:00.000000,0.01125728,0.03247577,0.06861165,2,7,15,0,2,5,0.00286649,0.01174004,0.02635890,0.37577974,0.52821843,0.69585955
19123,0,USIowaMahaska,Iowa,Mahaska,2021-04-04 10:57:18.760969,2020-03-18 00:00:00.000000,0.01492669,0.03804358,0.08560557,3,8,18,1,3,6,0.00479564,0.01428091,0.03088647,0.37674908,0.52172450,0.69420504
19123,0,USIowaMahaska,Iowa,Mahaska,2021-04-04 10:57:18.760969,2020-03-19 00:00:00.000000,0.01832170,0.04514443,0.09900049,4,9,21,1,3,7,0.00673664,0.01705195,0.03498922,0.37812988,0.50636718,0.67677515
19123,0,USIowaMahaska,Iowa,Mahaska,2021-04-04 10:57:18.760969,2020-03-20 00:00:00.000000,0.02271069,0.05145991,0.11115795,5,11,24,1,4,8,0.00880027,0.02012318,0.04058465,0.33693687,0.47942456,0.64309914
19123,0,USIowaMahaska,Iowa,Mahaska,2021-04-04 10:57:18.760969,2020-03-21 00:00:00.000000,0.02630846,0.05797559,0.12732962,5,12,28,2,5,10,0.01101924,0.02407467,0.04599533,0.31533800,0.46125837,0.63945774
19123,0,USIowaMahaska,Iowa,Mahaska,2021-04-04 10:57:18.760969,2020-03-22 00:00:00.000000,0.02971334,0.06453863,0.14866465,6,14,32,2,6,12,0.01310264,0.02793272,0.05499114,0.28178664,0.44922043,0.63242241
19123,0,USIowaMahaska,Iowa,Mahaska,2021-04-04 10:57:18.760969,2020-03-23 00:00:00.000000,0.03657144,0.07656566,0.15704557,8,16,34,3,6,13,0.01493135,0.03156172,0.06305226,0.26493515,0.43097748,0.62093748
19123,0,USIowaMahaska,Iowa,Mahaska,2021-04-04 10:57:18.760969,2020-03-24 00:00:00.000000,0.04214659,0.08943316,0.16188342,9,19,35,4,7,15,0.01811090,0.03553122,0.07006370,0.25804353,0.42546126,0.60490395
19123,0,USIowaMahaska,Iowa,Mahaska,2021-04-04 10:57:18.760969,2020-03-25 00:00:00.000000,0.04566798,0.09971717,0.17387606,10,22,38,4,8,16,0.02080927,0.03996161,0.07680969,0.25546138,0.40967549,0.58563732
19123,0,USIowaMahaska,Iowa,Mahaska,2021-04-04 10:57:18.760969,2020-03-26 00:00:00.000000,0.05221329,0.10728594,0.18371949,11,23,40,5,10,18,0.02309535,0.04564575,0.08206774,0.24759038,0.39225827,0.57969716
19123,0,USIowaMahaska,Iowa,Mahaska,2021-04-04 10:57:18.760969,2020-03-27 00:00:00.000000,0.05824154,0.11280998,0.20452622,12,24,45,5,11,19,0.02565835,0.05045798,0.08862276,0.24339213,0.38232404,0.55586357
19123,0,USIowaMahaska,Iowa,Mahaska,2021-04-04 10:57:18.760969,2020-03-28 00:00:00.000000,0.06359869,0.11922786,0.23152348,14,26,51,6,12,21,0.02784909,0.05492421,0.09596937,0.24254908,0.37063612,0.51876722
19123,0,USIowaMahaska,Iowa,Mahaska,2021-04-04 10:57:18.760969,2020-03-29 00:00:00.000000,0.06922032,0.12560082,0.25309604,15,27,55,6,13,22,0.03012993,0.06060577,0.10400425,0.23700398,0.35295860,0.52259615
19123,0,USIowaMahaska,Iowa,Mahaska,2021-04-04 10:57:18.760969,2020-03-30 00:00:00.000000,0.07788100,0.13693138,0.26722888,17,30,59,7,14,25,0.03250161,0.06597111,0.11475460,0.23356550,0.34414634,0.50813128
19123,0,USIowaMahaska,Iowa,Mahaska,2021-04-04 10:57:18.760969,2020-03-31 00:00:00.000000,0.08327145,0.15077010,0.28150607,18,33,62,7,15,27,0.03611510,0.07048833,0.12283095,0.22356021,0.34206184,0.50816642
19123,0,USIowaMahaska,Iowa,Mahaska,2021-04-04 10:57:18.760969,2020-04-01 00:00:00.000000,0.08689452,0.15573595,0.29608574,19,34,65,8,16,28,0.04036148,0.07366399,0.13006272,0.21964756,0.32386501,0.50817599
19123,0,USIowaMahaska,Iowa,Mahaska,2021-04-04 10:57:18.760969,2020-04-02 00:00:00.000000,0.09032474,0.16527613,0.31080410,19,36,68,9,17,30,0.04497438,0.07945897,0.13708588,0.21815808,0.31772494,0.50803372
19123,0,USIowaMahaska,Iowa,Mahaska,2021-04-04 10:57:18.760969,2020-04-03 00:00:00.000000,0.09648286,0.17662297,0.32557494,21,39,71,10,18,32,0.04692262,0.08425235,0.14702638,0.21758206,0.31344960,0.50004773
19123,0,USIowaMahaska,Iowa,Mahaska,2021-04-04 10:57:18.760969,2020-04-04 00:00:00.000000,0.10088481,0.18624439,0.34010138,22,41,75,11,19,34,0.05100920,0.08787612,0.15729297,0.21727184,0.31021801,0.48538388
19123,0,USIowaMahaska,Iowa,Mahaska,2021-04-04 10:57:18.760969,2020-04-05 00:00:00.000000,0.10573954,0.19545539,0.35496142,23,43,78,11,20,37,0.05299652,0.09096453,0.16774173,0.21716784,0.30863266,0.48361930
19123,0,USIowaMahaska,Iowa,Mahaska,2021-04-04 10:57:18.760969,2020-04-06 00:00:00.000000,0.11334643,0.20447168,0.36693322,25,45,81,12,20,39,0.05488463,0.09451735,0.17821285,0.21780544,0.30909500,0.47532812
19123,0,USIowaMahaska,Iowa,Mahaska,2021-04-04 10:57:18.760969,2020-04-07 00:00:00.000000,0.12157302,0.21282692,0.37853995,26,47,83,12,21,41,0.05780448,0.09870403,0.18604732,0.21498661,0.31127882,0.45811996
19123,0,USIowaMahaska,Iowa,Mahaska,2021-04-04 10:57:18.760969,2020-04-08 00:00:00.000000,0.12851180,0.22587517,0.38462738,28,49,84,13,23,42,0.06335940,0.10580272,0.19135552,0.21498163,0.31339878,0.44658965
19123,0,USIowaMahaska,Iowa,Mahaska,2021-04-04 10:57:18.760969,2020-04-09 00:00:00.000000,0.13161315,0.23228649,0.39108262,29,51,86,14,24,43,0.06699345,0.11300052,0.19471106,0.21548468,0.31551487,0.43685213
19123,0,USIowaMahaska,Iowa,Mahaska,2021-04-04 10:57:18.760969,2020-04-10 00:00:00.000000,0.13473185,0.24025835,0.40273771,29,53,88,15,25,43,0.06940836,0.11652080,0.19732403,0.21958891,0.31455490,0.43098250
19123,0,USIowaMahaska,Iowa,Mahaska,2021-04-04 10:57:18.760969,2020-04-11 00:00:00.000000,0.13783155,0.24898572,0.42439674,30,55,93,15,26,44,0.07118721,0.11979612,0.20354079,0.21797949,0.30747411,0.43085758
19123,0,USIowaMahaska,Iowa,Mahaska,2021-04-04 10:57:18.760969,2020-04-12 00:00:00.000000,0.14511098,0.25638764,0.45126895,32,56,99,16,27,47,0.07293537,0.12546038,0.21524499,0.21851463,0.30548747,0.42958776
19123,0,USIowaMahaska,Iowa,Mahaska,2021-04-04 10:57:18.760969,2020-04-13 00:00:00.000000,0.15439645,0.26632720,0.47411084,34,58,104,16,29,50,0.07468144,0.13203549,0.22814906,0.21417837,0.30844285,0.43192526
19123,0,USIowaMahaska,Iowa,Mahaska,2021-04-04 10:57:18.760969,2020-04-14 00:00:00.000000,0.15909877,0.27819688,0.49556116,35,61,109,17,30,53,0.07999695,0.13787932,0.24085884,0.21410820,0.30967288,0.43594132
19123,0,USIowaMahaska,Iowa,Mahaska,2021-04-04 10:57:18.760969,2020-04-15 00:00:00.000000,0.16535389,0.29780889,0.51644084,36,65,114,18,31,54,0.08165727,0.14367748,0.24844976,0.21461164,0.31685379,0.43796474
19123,0,USIowaMahaska,Iowa,Mahaska,2021-04-04 10:57:18.760969,2020-04-16 00:00:00.000000,0.17388263,0.31407497,0.53789965,38,69,118,18,32,57,0.08591142,0.14849209,0.26121859,0.21606342,0.31786026,0.43737220
19123,0,USIowaMahaska,Iowa,Mahaska,2021-04-04 10:57:18.760969,2020-04-17 00:00:00.000000,0.18244350,0.32677303,0.55999104,40,72,123,20,34,61,0.09237872,0.15768082,0.27838134,0.22362505,0.31881213,0.44454669
19123,0,USIowaMahaska,Iowa,Mahaska,2021-04-04 10:57:18.760969,2020-04-18 00:00:00.000000,0.19104321,0.33568409,0.58281234,42,74,128,21,36,65,0.09751189,0.16448791,0.29619899,0.22955814,0.32066256,0.44629561
19123,0,USIowaMahaska,Iowa,Mahaska,2021-04-04 10:57:18.760969,2020-04-19 00:00:00.000000,0.19986485,0.34947978,0.60642169,44,77,133,22,37,68,0.10118437,0.17045847,0.31036411,0.22861271,0.32476085,0.45100262
19123,0,USIowaMahaska,Iowa,Mahaska,2021-04-04 10:57:18.760969,2020-04-20 00:00:00.000000,0.20740737,0.36339559,0.64060403,45,80,141,23,39,71,0.10514911,0.17951422,0.32455688,0.23481037,0.33456645,0.45391709
19123,0,USIowaMahaska,Iowa,Mahaska,2021-04-04 10:57:18.760969,2020-04-21 00:00:00.000000,0.22269504,0.38228634,0.69176152,49,84,152,23,41,75,0.10758871,0.18619470,0.33995996,0.23968358,0.34188214,0.45830108
19123,0,USIowaMahaska,Iowa,Mahaska,2021-04-04 10:57:18.760969,2020-04-22 00:00:00.000000,0.22780214,0.40223204,0.72529440,50,88,160,24,42,78,0.11146966,0.19432856,0.35630624,0.24139653,0.34097186,0.47068403
19123,0,USIowaMahaska,Iowa,Mahaska,2021-04-04 10:57:18.760969,2020-04-23 00:00:00.000000,0.23291217,0.42426555,0.75893622,51,93,167,25,45,82,0.11563847,0.20434745,0.37285845,0.23362286,0.34568495,0.50373063
19123,0,USIowaMahaska,Iowa,Mahaska,2021-04-04 10:57:18.760969,2020-04-24 00:00:00.000000,0.23870115,0.44834070,0.79228010,52,99,175,26,47,86,0.11989029,0.21637002,0.38993957,0.23481886,0.35049911,0.51831776
19123,0,USIowaMahaska,Iowa,Mahaska,2021-04-04 10:57:18.760969,2020-04-25 00:00:00.000000,0.24930752,0.47843583,0.82425521,55,105,182,27,50,89,0.12445796,0.23048933,0.40729495,0.25400686,0.35742154,0.51524133
19123,0,USIowaMahaska,Iowa,Mahaska,2021-04-04 10:57:18.760969,2020-04-26 00:00:00.000000,0.26236979,0.51217375,0.87266756,57,113,192,28,53,93,0.12920669,0.24332333,0.42469189,0.25612443,0.36476114,0.52511697
19123,0,USIowaMahaska,Iowa,Mahaska,2021-04-04 10:57:18.760969,2020-04-27 00:00:00.000000,0.26424159,0.53117930,0.92006169,58,117,203,29,55,96,0.13509100,0.25275147,0.43518546,0.25709271,0.37450021,0.52782318
19123,0,USIowaMahaska,Iowa,Mahaska,2021-04-04 10:57:18.760969,2020-04-28 00:00:00.000000,0.26594770,0.54463879,0.98366233,58,120,217,30,59,98,0.13951681,0.26780562,0.44528061,0.25988950,0.38249270,0.53854495
19123,0,USIowaMahaska,Iowa,Mahaska,2021-04-04 10:57:18.760969,2020-04-29 00:00:00.000000,0.27690982,0.56996388,1.04240384,61,125,230,32,62,100,0.14529823,0.28439065,0.45552403,0.27147224,0.38647263,0.54991732
19123,0,USIowaMahaska,Iowa,Mahaska,2021-04-04 10:57:18.760969,2020-04-30 00:00:00.000000,0.29003344,0.60962738,1.10299627,64,134,243,33,67,103,0.15230669,0.30332683,0.46625780,0.27903467,0.38882338,0.57198775
19123,0,USIowaMahaska,Iowa,Mahaska,2021-04-04 10:57:18.760969,2020-05-01 00:00:00.000000,0.30387076,0.65019398,1.16598168,67,143,257,34,69,110,0.15496706,0.31679464,0.50029673,0.28962451,0.39833521,0.58860841
19123,0,USIowaMahaska,Iowa,Mahaska,2021-04-04 10:57:18.760969,2020-05-02 00:00:00.000000,0.31850867,0.67820365,1.23171582,70,149,272,35,74,118,0.16236580,0.33847705,0.53769602,0.29262080,0.40952389,0.59576901
19123,0,USIowaMahaska,Iowa,Mahaska,2021-04-04 10:57:18.760969,2020-05-03 00:00:00.000000,0.33404373,0.73288901,1.30016530,73,161,287,37,77,124,0.17070520,0.35298316,0.56423495,0.29903984,0.42174874,0.59766792
19123,0,USIowaMahaska,Iowa,Mahaska,2021-04-04 10:57:18.760969,2020-05-04 00:00:00.000000,0.36686708,0.77549458,1.37150639,81,171,303,39,82,133,0.18034874,0.37525240,0.60420174,0.30862871,0.42237452,0.59808773
19123,0,USIowaMahaska,Iowa,Mahaska,2021-04-04 10:57:18.760969,2020-05-05 00:00:00.000000,0.41176950,0.82365167,1.44520146,90,181,319,42,87,142,0.19144348,0.39800545,0.64662868,0.31471405,0.43165400,0.61126729
19123,0,USIowaMahaska,Iowa,Mahaska,2021-04-04 10:57:18.760969,2020-05-06 00:00:00.000000,0.45310937,0.87475683,1.54953239,100,193,342,44,93,152,0.20346130,0.42150161,0.69157525,0.31501930,0.43606813,0.61496002
19123,0,USIowaMahaska,Iowa,Mahaska,2021-04-04 10:57:18.760969,2020-05-07 00:00:00.000000,0.48487784,0.94379964,1.65940240,107,208,366,47,98,163,0.21718264,0.44391550,0.73812897,0.31073854,0.44184633,0.61326545
19123,0,USIowaMahaska,Iowa,Mahaska,2021-04-04 10:57:18.760969,2020-05-08 00:00:00.000000,0.51937840,0.99758430,1.72466257,114,220,381,52,105,173,0.23863109,0.47553385,0.78561002,0.32472519,0.44745831,0.60571252
19123,0,USIowaMahaska,Iowa,Mahaska,2021-04-04 10:57:18.760969,2020-05-09 00:00:00.000000,0.57164856,1.05526608,1.81114929,126,233,400,59,111,184,0.26877463,0.50550910,0.83387832,0.32684329,0.44518177,0.61858612
19123,0,USIowaMahaska,Iowa,Mahaska,2021-04-04 10:57:18.760969,2020-05-10 00:00:00.000000,0.63024873,1.11922079,1.89684929,139,247,419,63,118,195,0.28914570,0.53658380,0.88310720,0.32729823,0.44631841,0.62135025
19123,0,USIowaMahaska,Iowa,Mahaska,2021-04-04 10:57:18.760969,2020-05-11 00:00:00.000000,0.69529506,1.18152094,1.97340546,153,261,436,68,125,206,0.30936723,0.56690062,0.93355695,0.31249015,0.44447112,0.61897992
19123,0,USIowaMahaska,Iowa,Mahaska,2021-04-04 10:57:18.760969,2020-05-12 00:00:00.000000,0.76684732,1.23853151,2.04901710,169,273,452,74,132,217,0.33859326,0.60128849,0.98553968,0.31251267,0.44285510,0.61274189
19123,0,USIowaMahaska,Iowa,Mahaska,2021-04-04 10:57:18.760969,2020-05-13 00:00:00.000000,0.83970180,1.31178156,2.12086575,185,289,468,82,140,229,0.37465124,0.63507706,1.03907842,0.31631023,0.44819775,0.60840210
19123,0,USIowaMahaska,Iowa,Mahaska,2021-04-04 10:57:18.760969,2020-05-14 00:00:00.000000,0.92198272,1.38139432,2.15928753,203,305,477,91,147,240,0.41635391,0.66982550,1.08780944,0.30505863,0.44384129,0.59783739
19123,0,USIowaMahaska,Iowa,Mahaska,2021-04-04 10:57:18.760969,2020-05-15 00:00:00.000000,0.97342419,1.46404143,2.21407083,215,323,489,100,156,249,0.45489400,0.70632174,1.12845629,0.29481350,0.42825056,0.58640194
19123,0,USIowaMahaska,Iowa,Mahaska,2021-04-04 10:57:18.760969,2020-05-16 00:00:00.000000,1.02547846,1.55043203,2.27030904,226,342,501,107,165,257,0.48607991,0.75099836,1.16403939,0.26271684,0.41233244,0.56732627
19123,0,USIowaMahaska,Iowa,Mahaska,2021-04-04 10:57:18.760969,2020-05-17 00:00:00.000000,1.08480677,1.61875764,2.32267277,239,357,513,116,175,263,0.52524283,0.79302763,1.19083945,0.23419140,0.39435914,0.55962630
19123,0,USIowaMahaska,Iowa,Mahaska,2021-04-04 10:57:18.760969,2020-05-18 00:00:00.000000,1.13960862,1.67910801,2.36042646,251,370,521,122,182,277,0.55511230,0.82542485,1.25498079,0.22251891,0.37371295,0.55095090
19123,0,USIowaMahaska,Iowa,Mahaska,2021-04-04 10:57:18.760969,2020-05-19 00:00:00.000000,1.25739939,1.71986237,2.40566658,277,380,531,132,188,290,0.59991709,0.85426503,1.31592782,0.19745514,0.35015698,0.54028181
19123,0,USIowaMahaska,Iowa,Mahaska,2021-04-04 10:57:18.760969,2020-05-20 00:00:00.000000,1.26206149,1.76674090,2.42479266,278,390,535,137,194,301,0.62431618,0.87903199,1.36233887,0.19239754,0.32694597,0.50647716
19123,0,USIowaMahaska,Iowa,Mahaska,2021-04-04 10:57:18.760969,2020-05-21 00:00:00.000000,1.23361845,1.78654490,2.43274223,272,394,537,143,199,308,0.64888437,0.90191214,1.39572207,0.17195415,0.29991935,0.44286416
19123,0,USIowaMahaska,Iowa,Mahaska,2021-04-04 10:57:18.760969,2020-05-22 00:00:00.000000,1.25282685,1.79437050,2.48754550,276,396,549,148,203,313,0.67291109,0.91973236,1.41759544,0.15834609,0.27185850,0.42795038
19123,0,USIowaMahaska,Iowa,Mahaska,2021-04-04 10:57:18.760969,2020-05-23 00:00:00.000000,1.26022567,1.79199684,2.43733583,278,395,538,152,206,316,0.69233750,0.93630060,1.43230986,0.15045304,0.24506992,0.38953252
19123,0,USIowaMahaska,Iowa,Mahaska,2021-04-04 10:57:18.760969,2020-05-24 00:00:00.000000,1.26302175,1.76541061,2.39495370,279,390,529,152,209,316,0.69195426,0.94902013,1.43443431,0.14479569,0.21751033,0.36217681
19123,0,USIowaMahaska,Iowa,Mahaska,2021-04-04 10:57:18.760969,2020-05-25 00:00:00.000000,1.22445841,1.73048118,2.36778173,270,382,523,149,211,318,0.67814489,0.95593237,1.44212723,0.13494131,0.20369081,0.30409074
19123,0,USIowaMahaska,Iowa,Mahaska,2021-04-04 10:57:18.760969,2020-05-26 00:00:00.000000,1.18058642,1.69807090,2.33456657,260,375,515,143,206,314,0.64814320,0.93483797,1.42448008,0.11722942,0.19111865,0.28132186
19123,0,USIowaMahaska,Iowa,Mahaska,2021-04-04 10:57:18.760969,2020-05-27 00:00:00.000000,1.13276842,1.63866620,2.28334687,250,362,504,136,202,312,0.61982908,0.91856827,1.41259300,0.11373394,0.17374852,0.26540040
19123,0,USIowaMahaska,Iowa,Mahaska,2021-04-04 10:57:18.760969,2020-05-28 00:00:00.000000,1.08254163,1.56740970,2.20214169,239,346,486,131,198,307,0.59309617,0.89738192,1.39382983,0.10621919,0.16503056,0.26053124
19123,0,USIowaMahaska,Iowa,Mahaska,2021-04-04 10:57:18.760969,2020-05-29 00:00:00.000000,1.03094058,1.50527523,2.14818921,227,332,474,125,193,300,0.56782303,0.87551752,1.36133458,0.09132079,0.15471611,0.24392790
19123,0,USIowaMahaska,Iowa,Mahaska,2021-04-04 10:57:18.760969,2020-05-30 00:00:00.000000,0.97907834,1.43504949,2.06666280,216,317,456,120,187,290,0.54383219,0.84643843,1.31658329,0.09018632,0.14554167,0.21394316
19123,0,USIowaMahaska,Iowa,Mahaska,2021-04-04 10:57:18.760969,2020-05-31 00:00:00.000000,0.92801687,1.36956417,1.97037249,205,302,435,115,180,279,0.52095632,0.81586604,1.26409523,0.08552007,0.13729933,0.19953051
19123,0,USIowaMahaska,Iowa,Mahaska,2021-04-04 10:57:18.760969,2020-06-01 00:00:00.000000,0.87226570,1.31149651,1.88637321,192,289,416,110,172,266,0.49905275,0.78143204,1.20742423,0.08482068,0.13291212,0.19465445
19123,0,USIowaMahaska,Iowa,Mahaska,2021-04-04 10:57:18.760969,2020-06-02 00:00:00.000000,0.81863765,1.24676362,1.80415457,180,275,398,105,165,255,0.47764034,0.74916770,1.15800147,0.08307842,0.13096542,0.18928189
19123,0,USIowaMahaska,Iowa,Mahaska,2021-04-04 10:57:18.760969,2020-06-03 00:00:00.000000,0.76728570,1.19269325,1.72572012,169,263,381,100,156,248,0.45533188,0.70811096,1.12400609,0.07934566,0.12965678,0.18601806
19123,0,USIowaMahaska,Iowa,Mahaska,2021-04-04 10:57:18.760969,2020-06-04 00:00:00.000000,0.71827689,1.11568086,1.65643557,158,246,365,94,148,240,0.42743939,0.67164857,1.08968098,0.07931513,0.12795394,0.18354640
19123,0,USIowaMahaska,Iowa,Mahaska,2021-04-04 10:57:18.760969,2020-06-05 00:00:00.000000,0.67143428,1.05708893,1.59277199,148,233,351,88,140,233,0.40077765,0.63631042,1.05489712,0.07951473,0.12127505,0.17855233
19123,0,USIowaMahaska,Iowa,Mahaska,2021-04-04 10:57:18.760969,2020-06-06 00:00:00.000000,0.61607186,0.99855698,1.52558946,136,220,337,82,130,225,0.37512179,0.59153339,1.01869731,0.07692930,0.11747349,0.17274584
19123,0,USIowaMahaska,Iowa,Mahaska,2021-04-04 10:57:18.760969,2020-06-07 00:00:00.000000,0.56072960,0.93769968,1.45848094,123,207,322,77,124,216,0.35044795,0.56215272,0.98076182,0.07577518,0.11699234,0.17098691
19123,0,USIowaMahaska,Iowa,Mahaska,2021-04-04 10:57:18.760969,2020-06-08 00:00:00.000000,0.51294170,0.88058442,1.38201894,113,194,305,72,119,208,0.32701153,0.54079641,0.94173710,0.07542411,0.11610727,0.16697823
19123,0,USIowaMahaska,Iowa,Mahaska,2021-04-04 10:57:18.760969,2020-06-09 00:00:00.000000,0.46973007,0.83583259,1.29228382,103,184,285,67,113,199,0.30576778,0.51506824,0.90270796,0.07381623,0.11534997,0.16245460
19123,0,USIowaMahaska,Iowa,Mahaska,2021-04-04 10:57:18.760969,2020-06-10 00:00:00.000000,0.44223795,0.78944293,1.23061164,97,174,271,63,107,190,0.28655655,0.48614483,0.86409835,0.07320563,0.11446772,0.16778679
19123,0,USIowaMahaska,Iowa,Mahaska,2021-04-04 10:57:18.760969,2020-06-11 00:00:00.000000,0.42165826,0.75965909,1.17173062,93,167,258,58,101,181,0.26625522,0.46015767,0.82213944,0.07296225,0.11336404,0.16777315
19123,0,USIowaMahaska,Iowa,Mahaska,2021-04-04 10:57:18.760969,2020-06-12 00:00:00.000000,0.40193243,0.72226453,1.11583235,88,159,246,53,96,169,0.24416029,0.43618539,0.76920518,0.07187203,0.11147947,0.16432563
19123,0,USIowaMahaska,Iowa,Mahaska,2021-04-04 10:57:18.760969,2020-06-13 00:00:00.000000,0.38284294,0.68584126,1.06342078,84,151,234,49,91,158,0.22425697,0.41439477,0.71908028,0.06899444,0.11232125,0.16521484
19123,0,USIowaMahaska,Iowa,Mahaska,2021-04-04 10:57:18.760969,2020-06-14 00:00:00.000000,0.36437644,0.65005713,1.01525279,80,143,224,45,87,148,0.20640572,0.39762238,0.67211484,0.06880971,0.11169059,0.16588696
19123,0,USIowaMahaska,Iowa,Mahaska,2021-04-04 10:57:18.760969,2020-06-15 00:00:00.000000,0.34369783,0.60962577,0.96576279,75,134,213,42,83,138,0.19070808,0.37615016,0.62840551,0.06877428,0.11186487,0.16448447
19123,0,USIowaMahaska,Iowa,Mahaska,2021-04-04 10:57:18.760969,2020-06-16 00:00:00.000000,0.32395916,0.56903856,0.92534780,71,125,204,39,78,130,0.17804659,0.35483104,0.59221372,0.06884419,0.11306426,0.16683151
19123,0,USIowaMahaska,Iowa,Mahaska,2021-04-04 10:57:18.760969,2020-06-17 00:00:00.000000,0.30528691,0.53365876,0.88333227,67,117,195,37,74,124,0.16811528,0.33704704,0.56222457,0.06726038,0.11224261,0.16793959
19123,0,USIowaMahaska,Iowa,Mahaska,2021-04-04 10:57:18.760969,2020-06-18 00:00:00.000000,0.28796112,0.51232135,0.84323383,63,113,186,35,70,117,0.15853002,0.31690322,0.53338407,0.06851069,0.11293551,0.16892398
19123,0,USIowaMahaska,Iowa,Mahaska,2021-04-04 10:57:18.760969,2020-06-19 00:00:00.000000,0.27205291,0.48954762,0.80499026,60,108,177,33,65,113,0.14950078,0.29749548,0.51232451,0.06972944,0.11697760,0.16994738
19123,0,USIowaMahaska,Iowa,Mahaska,2021-04-04 10:57:18.760969,2020-06-20 00:00:00.000000,0.25638878,0.46393855,0.76844386,56,102,169,31,62,108,0.14145442,0.28247509,0.49294948,0.07110830,0.11799687,0.17080599
19123,0,USIowaMahaska,Iowa,Mahaska,2021-04-04 10:57:18.760969,2020-06-21 00:00:00.000000,0.24194538,0.44266336,0.73340864,53,97,162,29,59,104,0.13519873,0.26786396,0.47432533,0.07257364,0.11782721,0.17037798
19123,0,USIowaMahaska,Iowa,Mahaska,2021-04-04 10:57:18.760969,2020-06-22 00:00:00.000000,0.22780474,0.42107981,0.69940858,50,93,154,28,55,98,0.12961520,0.25076641,0.44646854,0.07191283,0.11910248,0.17229272
19123,0,USIowaMahaska,Iowa,Mahaska,2021-04-04 10:57:18.760969,2020-06-23 00:00:00.000000,0.21494552,0.40628238,0.66647917,47,89,147,27,52,93,0.12247531,0.23916877,0.42255737,0.07178060,0.11973499,0.17345404
19123,0,USIowaMahaska,Iowa,Mahaska,2021-04-04 10:57:18.760969,2020-06-24 00:00:00.000000,0.20271327,0.38902299,0.63494793,44,85,140,25,51,88,0.11580294,0.23119536,0.40177163,0.07208584,0.11873241,0.17533447
19123,0,USIowaMahaska,Iowa,Mahaska,2021-04-04 10:57:18.760969,2020-06-25 00:00:00.000000,0.18911444,0.37241197,0.60694873,41,82,134,24,49,84,0.11068416,0.22385031,0.38348039,0.07490679,0.12109333,0.17502550
19123,0,USIowaMahaska,Iowa,Mahaska,2021-04-04 10:57:18.760969,2020-06-26 00:00:00.000000,0.17775280,0.35800387,0.61767688,39,79,136,23,47,81,0.10454078,0.21615029,0.36725184,0.07779928,0.12489587,0.18119127
19123,0,USIowaMahaska,Iowa,Mahaska,2021-04-04 10:57:18.760969,2020-06-27 00:00:00.000000,0.16996328,0.34604133,0.60029769,37,76,132,21,45,77,0.09859670,0.20674545,0.35286520,0.08146743,0.12663880,0.18440929
19123,0,USIowaMahaska,Iowa,Mahaska,2021-04-04 10:57:18.760969,2020-06-28 00:00:00.000000,0.16687543,0.33884660,0.57150683,36,74,126,20,43,76,0.09270511,0.19753747,0.34743409,0.08240760,0.13061895,0.18658730
19123,0,USIowaMahaska,Iowa,Mahaska,2021-04-04 10:57:18.760969,2020-06-29 00:00:00.000000,0.15668354,0.33162084,0.54836864,34,73,121,19,41,76,0.08690746,0.18885677,0.34694844,0.08622402,0.13384942,0.18789895
19123,0,USIowaMahaska,Iowa,Mahaska,2021-04-04 10:57:18.760969,2020-06-30 00:00:00.000000,0.14757137,0.32106161,0.52684077,32,70,116,17,39,73,0.08133196,0.18097931,0.33403706,0.08809080,0.13410150,0.19141569
19123,0,USIowaMahaska,Iowa,Mahaska,2021-04-04 10:57:18.760969,2020-07-01 00:00:00.000000,0.14002447,0.30803408,0.50695858,30,68,112,17,38,71,0.07843089,0.17645751,0.32156596,0.08848197,0.13526287,0.20943092
19123,0,USIowaMahaska,Iowa,Mahaska,2021-04-04 10:57:18.760969,2020-07-02 00:00:00.000000,0.13515860,0.29542306,0.49697856,29,65,109,16,37,68,0.07600094,0.17075073,0.30977707,0.08887387,0.13786539,0.23132147
19123,0,USIowaMahaska,Iowa,Mahaska,2021-04-04 10:57:18.760969,2020-07-03 00:00:00.000000,0.13079002,0.28383658,0.49297862,28,62,108,16,36,66,0.07358042,0.16521672,0.29876843,0.08945371,0.13975502,0.24171872
19123,0,USIowaMahaska,Iowa,Mahaska,2021-04-04 10:57:18.760969,2020-07-04 00:00:00.000000,0.12685745,0.27580257,0.48546697,28,60,107,15,35,63,0.07124602,0.15941758,0.28854837,0.09052945,0.14237787,0.24840330
19123,0,USIowaMahaska,Iowa,Mahaska,2021-04-04 10:57:18.760969,2020-07-05 00:00:00.000000,0.12330817,0.27241791,0.46650478,27,60,103,15,33,61,0.06846135,0.15354342,0.27881162,0.09486425,0.14497048,0.24906128
19123,0,USIowaMahaska,Iowa,Mahaska,2021-04-04 10:57:18.760969,2020-07-06 00:00:00.000000,0.12010686,0.26949460,0.46766522,26,59,103,14,32,59,0.06547325,0.14877494,0.27023718,0.09766306,0.14827488,0.24914276
19123,0,USIowaMahaska,Iowa,Mahaska,2021-04-04 10:57:18.760969,2020-07-07 00:00:00.000000,0.11719436,0.27177605,0.47157549,25,60,104,14,32,58,0.06343026,0.14709527,0.26521439,0.10210761,0.15278591,0.24880562
19123,0,USIowaMahaska,Iowa,Mahaska,2021-04-04 10:57:18.760969,2020-07-08 00:00:00.000000,0.11453509,0.27653856,0.48151139,25,61,106,13,32,57,0.06201527,0.14711278,0.26042046,0.10236365,0.15496749,0.26666775
19123,0,USIowaMahaska,Iowa,Mahaska,2021-04-04 10:57:18.760969,2020-07-09 00:00:00.000000,0.11308906,0.27425284,0.47999529,24,60,106,13,32,56,0.06108394,0.14740459,0.25794207,0.10309892,0.15870518,0.26993794
19123,0,USIowaMahaska,Iowa,Mahaska,2021-04-04 10:57:18.760969,2020-07-10 00:00:00.000000,0.11888291,0.26677381,0.47451382,26,58,104,13,32,56,0.06196592,0.14736693,0.25556026,0.10553521,0.16764798,0.27005527
19123,0,USIowaMahaska,Iowa,Mahaska,2021-04-04 10:57:18.760969,2020-07-11 00:00:00.000000,0.12471737,0.26558265,0.47107150,27,58,104,13,32,56,0.06301796,0.14570448,0.25526074,0.10875711,0.17282247,0.26925874
19123,0,USIowaMahaska,Iowa,Mahaska,2021-04-04 10:57:18.760969,2020-07-12 00:00:00.000000,0.12238945,0.27037126,0.47009818,27,59,103,13,32,56,0.06285661,0.14588250,0.25538743,0.11551075,0.17684067,0.30211521
19123,0,USIowaMahaska,Iowa,Mahaska,2021-04-04 10:57:18.760969,2020-07-13 00:00:00.000000,0.12890807,0.26746124,0.47325982,28,59,104,13,31,56,0.06285780,0.14358244,0.25547074,0.11576669,0.18177554,0.30496811
19123,0,USIowaMahaska,Iowa,Mahaska,2021-04-04 10:57:18.760969,2020-07-14 00:00:00.000000,0.12900365,0.26483580,0.47640619,28,58,105,13,31,56,0.06280428,0.14121908,0.25626288,0.11593866,0.18413134,0.30551615
19123,0,USIowaMahaska,Iowa,Mahaska,2021-04-04 10:57:18.760969,2020-07-15 00:00:00.000000,0.12773963,0.25736809,0.49420116,28,56,109,13,31,56,0.06277664,0.14107579,0.25754401,0.11826176,0.18515536,0.30628990
19123,0,USIowaMahaska,Iowa,Mahaska,2021-04-04 10:57:18.760969,2020-07-16 00:00:00.000000,0.12607267,0.25259760,0.50120882,27,55,110,13,30,57,0.06281085,0.13980582,0.25910050,0.12368195,0.19116538,0.30752133
19123,0,USIowaMahaska,Iowa,Mahaska,2021-04-04 10:57:18.760969,2020-07-17 00:00:00.000000,0.12588853,0.24968933,0.54256470,27,55,119,13,30,57,0.06291687,0.13738008,0.26061889,0.12751149,0.19537629,0.32986084
19123,0,USIowaMahaska,Iowa,Mahaska,2021-04-04 10:57:18.760969,2020-07-18 00:00:00.000000,0.12502127,0.25092679,0.58421745,27,55,129,13,30,57,0.06271773,0.13716810,0.26223784,0.13013949,0.20306652,0.33012826
19123,0,USIowaMahaska,Iowa,Mahaska,2021-04-04 10:57:18.760969,2020-07-19 00:00:00.000000,0.12499971,0.24852200,0.62020430,27,54,137,13,30,58,0.06237039,0.13636871,0.26393761,0.14069583,0.20878791,0.34608834
19123,0,USIowaMahaska,Iowa,Mahaska,2021-04-04 10:57:18.760969,2020-07-20 00:00:00.000000,0.12968497,0.24855000,0.62072732,28,54,137,13,30,60,0.06227349,0.13634671,0.27276046,0.15223658,0.21589059,0.35364827
19123,0,USIowaMahaska,Iowa,Mahaska,2021-04-04 10:57:18.760969,2020-07-21 00:00:00.000000,0.13993587,0.25471752,0.62270091,30,56,137,14,29,60,0.06498666,0.13554949,0.27522300,0.15310114,0.22678913,0.35852755
19123,0,USIowaMahaska,Iowa,Mahaska,2021-04-04 10:57:18.760969,2020-07-22 00:00:00.000000,0.14628530,0.26146402,0.62484827,32,57,138,15,29,61,0.06881519,0.13571759,0.27826849,0.15725226,0.23389533,0.36699458
19123,0,USIowaMahaska,Iowa,Mahaska,2021-04-04 10:57:18.760969,2020-07-23 00:00:00.000000,0.15387364,0.26965968,0.62720331,33,59,138,15,30,62,0.06816932,0.13592263,0.28164780,0.16832964,0.24223255,0.38814798
19123,0,USIowaMahaska,Iowa,Mahaska,2021-04-04 10:57:18.760969,2020-07-24 00:00:00.000000,0.15361842,0.27143812,0.63018687,33,59,139,15,30,63,0.07066905,0.13963419,0.28522304,0.17578774,0.25511808,0.39954237
19123,0,USIowaMahaska,Iowa,Mahaska,2021-04-04 10:57:18.760969,2020-07-25 00:00:00.000000,0.15200949,0.27407866,0.63453355,33,60,140,16,30,63,0.07404382,0.14029755,0.28896618,0.18770308,0.26581467,0.41617373
19123,0,USIowaMahaska,Iowa,Mahaska,2021-04-04 10:57:18.760969,2020-07-26 00:00:00.000000,0.15136299,0.28535288,0.64108443,33,63,141,17,31,64,0.07749615,0.14427957,0.29302830,0.19638855,0.28028433,0.44893366
19123,0,USIowaMahaska,Iowa,Mahaska,2021-04-04 10:57:18.760969,2020-07-27 00:00:00.000000,0.15127854,0.30920401,0.64759210,33,68,143,17,32,65,0.08084696,0.14829456,0.29857486,0.21305016,0.29294884,0.46872466
19123,0,USIowaMahaska,Iowa,Mahaska,2021-04-04 10:57:18.760969,2020-07-28 00:00:00.000000,0.15274781,0.32610345,0.65766984,33,72,145,18,34,69,0.08344828,0.15596526,0.31351392,0.22516549,0.30486335,0.48038810
19123,0,USIowaMahaska,Iowa,Mahaska,2021-04-04 10:57:18.760969,2020-07-29 00:00:00.000000,0.16341945,0.34116736,0.67139669,36,75,148,18,35,72,0.08499069,0.16223729,0.32744278,0.22753963,0.31536824,0.50645959
19123,0,USIowaMahaska,Iowa,Mahaska,2021-04-04 10:57:18.760969,2020-07-30 00:00:00.000000,0.17807414,0.35578813,0.68837282,39,78,152,19,38,74,0.08626376,0.17257045,0.33913055,0.22881936,0.32481798,0.54072698
19123,0,USIowaMahaska,Iowa,Mahaska,2021-04-04 10:57:18.760969,2020-07-31 00:00:00.000000,0.19234174,0.37824401,0.70790367,42,83,156,19,39,76,0.08851552,0.17938481,0.34765311,0.22986803,0.34611021,0.60415153
19123,0,USIowaMahaska,Iowa,Mahaska,2021-04-04 10:57:18.760969,2020-08-01 00:00:00.000000,0.19532156,0.41085581,0.72934448,43,90,161,20,41,79,0.09145253,0.18885062,0.35772960,0.23216263,0.35578329,0.60547491
19123,0,USIowaMahaska,Iowa,Mahaska,2021-04-04 10:57:18.760969,2020-08-02 00:00:00.000000,0.19853682,0.42964359,0.75228750,43,94,166,20,44,81,0.09484827,0.20224118,0.36913259,0.24354384,0.37375506,0.60638546
19123,0,USIowaMahaska,Iowa,Mahaska,2021-04-04 10:57:18.760969,2020-08-03 00:00:00.000000,0.22639122,0.44865881,0.78466998,50,99,173,21,47,84,0.09856396,0.21555146,0.38163910,0.25894425,0.38641357,0.60845364
19123,0,USIowaMahaska,Iowa,Mahaska,2021-04-04 10:57:18.760969,2020-08-04 00:00:00.000000,0.24440537,0.48694206,0.81898722,54,107,180,23,50,87,0.10455195,0.22800440,0.39696020,0.27788885,0.39260493,0.61313716
19123,0,USIowaMahaska,Iowa,Mahaska,2021-04-04 10:57:18.760969,2020-08-05 00:00:00.000000,0.26492193,0.51723512,0.86048913,58,114,190,24,52,91,0.11246501,0.23912209,0.41439690,0.30143928,0.40532950,0.62064049
19123,0,USIowaMahaska,Iowa,Mahaska,2021-04-04 10:57:18.760969,2020-08-06 00:00:00.000000,0.28681263,0.54829243,0.90550689,63,121,200,27,57,97,0.12610506,0.25864564,0.43948476,0.31218429,0.42931665,0.62775258
19123,0,USIowaMahaska,Iowa,Mahaska,2021-04-04 10:57:18.760969,2020-08-07 00:00:00.000000,0.30972892,0.58395446,0.95341052,68,129,210,31,61,103,0.14188587,0.27719256,0.46928484,0.33400901,0.44986646,0.63410215
19123,0,USIowaMahaska,Iowa,Mahaska,2021-04-04 10:57:18.760969,2020-08-08 00:00:00.000000,0.33844787,0.64049820,1.00583405,74,141,222,35,64,111,0.15978448,0.29363588,0.50262196,0.33992240,0.47513095,0.64725408
19123,0,USIowaMahaska,Iowa,Mahaska,2021-04-04 10:57:18.760969,2020-08-09 00:00:00.000000,0.37402012,0.69278156,1.08858593,82,153,240,39,69,120,0.17950498,0.31304874,0.54311841,0.34751691,0.48375721,0.65318695
19123,0,USIowaMahaska,Iowa,Mahaska,2021-04-04 10:57:18.760969,2020-08-10 00:00:00.000000,0.42266429,0.74692691,1.16151200,93,165,256,44,74,129,0.20069586,0.33803720,0.58408623,0.35446496,0.50110192,0.65403516
19123,0,USIowaMahaska,Iowa,Mahaska,2021-04-04 10:57:18.760969,2020-08-11 00:00:00.000000,0.48564051,0.79955049,1.24098811,107,176,274,49,81,138,0.22185404,0.36678144,0.62720275,0.37899820,0.51749222,0.65400466
19123,0,USIowaMahaska,Iowa,Mahaska,2021-04-04 10:57:18.760969,2020-08-12 00:00:00.000000,0.53699015,0.86050580,1.33203973,118,190,294,53,87,146,0.24342523,0.39536921,0.66203311,0.38399411,0.52171919,0.65221156
19123,0,USIowaMahaska,Iowa,Mahaska,2021-04-04 10:57:18.760969,2020-08-13 00:00:00.000000,0.59148884,0.93883789,1.43787705,130,207,317,58,94,153,0.26589703,0.42653454,0.69478530,0.40432415,0.53691801,0.65535623
19123,0,USIowaMahaska,Iowa,Mahaska,2021-04-04 10:57:18.760969,2020-08-14 00:00:00.000000,0.65037896,1.00794899,1.54555960,143,222,341,66,101,159,0.30180715,0.45763936,0.72047344,0.41131497,0.54325482,0.71477113
19123,0,USIowaMahaska,Iowa,Mahaska,2021-04-04 10:57:18.760969,2020-08-15 00:00:00.000000,0.74276005,1.08436707,1.65560545,164,239,365,69,109,166,0.31330281,0.49499994,0.75225900,0.41999694,0.55435283,0.71649071
19123,0,USIowaMahaska,Iowa,Mahaska,2021-04-04 10:57:18.760969,2020-08-16 00:00:00.000000,0.81252332,1.16944188,1.76198384,179,258,389,74,118,175,0.33927636,0.53815329,0.79641406,0.41703677,0.56336080,0.76107480
19123,0,USIowaMahaska,Iowa,Mahaska,2021-04-04 10:57:18.760969,2020-08-17 00:00:00.000000,0.86925421,1.27956787,1.83770366,192,282,406,82,128,188,0.37467257,0.58237253,0.85231278,0.40862020,0.56495601,0.79365817
19123,0,USIowaMahaska,Iowa,Mahaska,2021-04-04 10:57:18.760969,2020-08-18 00:00:00.000000,0.92955806,1.37333919,1.95378914,205,303,431,93,139,204,0.42501642,0.63193637,0.92449043,0.40776947,0.56064238,0.80619900
19123,0,USIowaMahaska,Iowa,Mahaska,2021-04-04 10:57:18.760969,2020-08-19 00:00:00.000000,0.99960458,1.47176679,2.09497868,220,325,462,103,149,221,0.46699560,0.67657826,1.00396531,0.40403594,0.55802564,0.81016701
19123,0,USIowaMahaska,Iowa,Mahaska,2021-04-04 10:57:18.760969,2020-08-20 00:00:00.000000,1.10960025,1.57187070,2.25467145,245,347,498,111,160,241,0.50320079,0.72771840,1.09253761,0.39790372,0.54326985,0.77951258
19123,0,USIowaMahaska,Iowa,Mahaska,2021-04-04 10:57:18.760969,2020-08-21 00:00:00.000000,1.22111064,1.68398901,2.40650513,269,372,531,120,172,260,0.54403546,0.77948457,1.17707778,0.39416735,0.53340047,0.73910134
19123,0,USIowaMahaska,Iowa,Mahaska,2021-04-04 10:57:18.760969,2020-08-22 00:00:00.000000,1.30170123,1.78013392,2.54701715,287,393,562,132,185,272,0.59790328,0.83782336,1.23408163,0.37790301,0.51175741,0.70804789
19123,0,USIowaMahaska,Iowa,Mahaska,2021-04-04 10:57:18.760969,2020-08-23 00:00:00.000000,1.38124974,1.89001598,2.67661585,305,417,591,142,199,286,0.64563750,0.90394415,1.29708649,0.35621060,0.49139505,0.66181654
19123,0,USIowaMahaska,Iowa,Mahaska,2021-04-04 10:57:18.760969,2020-08-24 00:00:00.000000,1.46461324,1.98157713,2.79812566,323,437,618,151,210,306,0.68545803,0.95269972,1.38808893,0.34553500,0.46398649,0.63495896
19123,0,USIowaMahaska,Iowa,Mahaska,2021-04-04 10:57:18.760969,2020-08-25 00:00:00.000000,1.54991882,2.07816355,2.93375869,342,459,648,163,221,327,0.73863454,1.00121674,1.48065149,0.33026991,0.43920032,0.58138423
19123,0,USIowaMahaska,Iowa,Mahaska,2021-04-04 10:57:18.760969,2020-08-26 00:00:00.000000,1.62529883,2.16444305,3.01721560,359,478,666,172,235,346,0.78292376,1.06805058,1.56919689,0.32516961,0.42776551,0.56933853
19123,0,USIowaMahaska,Iowa,Mahaska,2021-04-04 10:57:18.760969,2020-08-27 00:00:00.000000,1.70598306,2.24246766,3.13805597,376,495,693,179,247,364,0.81419728,1.12014025,1.64834304,0.32394791,0.42064765,0.56650766
19123,0,USIowaMahaska,Iowa,Mahaska,2021-04-04 10:57:18.760969,2020-08-28 00:00:00.000000,1.75070436,2.33688888,3.21125434,386,516,709,186,257,373,0.84630355,1.16690552,1.68935780,0.30425526,0.40215383,0.56023988
19123,0,USIowaMahaska,Iowa,Mahaska,2021-04-04 10:57:18.760969,2020-08-29 00:00:00.000000,1.78762877,2.39952873,3.26459414,394,530,721,194,267,380,0.87981224,1.20862509,1.72069635,0.28789517,0.39186832,0.54657797
19123,0,USIowaMahaska,Iowa,Mahaska,2021-04-04 10:57:18.760969,2020-08-30 00:00:00.000000,1.82125043,2.45851583,3.29586166,402,543,728,201,276,385,0.91422501,1.25268140,1.74428258,0.27924186,0.38875830,0.51646791
19123,0,USIowaMahaska,Iowa,Mahaska,2021-04-04 10:57:18.760969,2020-08-31 00:00:00.000000,1.85634791,2.51378026,3.32813650,410,555,735,209,283,389,0.94956979,1.28526674,1.76265264,0.27562007,0.38138183,0.48119341
19123,0,USIowaMahaska,Iowa,Mahaska,2021-04-04 10:57:18.760969,2020-09-01 00:00:00.000000,1.89690124,2.55425761,3.35804195,419,564,741,217,291,393,0.98408419,1.31897588,1.77938765,0.27472748,0.37813431,0.47464533
19123,0,USIowaMahaska,Iowa,Mahaska,2021-04-04 10:57:18.760969,2020-09-02 00:00:00.000000,1.92018330,2.58834568,3.42512099,424,571,756,222,296,396,1.00715074,1.34081977,1.79510514,0.27556395,0.37247760,0.47712508
19123,0,USIowaMahaska,Iowa,Mahaska,2021-04-04 10:57:18.760969,2020-09-03 00:00:00.000000,1.96428011,2.65085720,3.48840347,434,585,770,226,303,405,1.02648109,1.37335658,1.83488826,0.27809750,0.36697526,0.46927972
19123,0,USIowaMahaska,Iowa,Mahaska,2021-04-04 10:57:18.760969,2020-09-04 00:00:00.000000,2.02223565,2.70402182,3.55286506,446,597,785,231,313,415,1.04933948,1.42101741,1.87858394,0.28401454,0.36530942,0.46875417
19123,0,USIowaMahaska,Iowa,Mahaska,2021-04-04 10:57:18.760969,2020-09-05 00:00:00.000000,2.07852461,2.77575881,3.61599015,459,613,798,235,321,424,1.06474318,1.45631784,1.91962720,0.29029107,0.36083825,0.46722890
19123,0,USIowaMahaska,Iowa,Mahaska,2021-04-04 10:57:18.760969,2020-09-06 00:00:00.000000,2.11350100,2.81805701,3.66309806,466,622,809,239,327,432,1.08571029,1.48449193,1.95806706,0.30044371,0.35638379,0.46910151
19123,0,USIowaMahaska,Iowa,Mahaska,2021-04-04 10:57:18.760969,2020-09-07 00:00:00.000000,2.15211062,2.85417282,3.69728249,475,630,816,245,332,440,1.11167049,1.50339587,1.99346585,0.30617141,0.35450284,0.47637495
19123,0,USIowaMahaska,Iowa,Mahaska,2021-04-04 10:57:18.760969,2020-09-08 00:00:00.000000,2.14023835,2.90255020,3.75645228,472,641,829,246,335,447,1.11518185,1.52019746,2.02558878,0.29941254,0.35449833,0.48652924
19123,0,USIowaMahaska,Iowa,Mahaska,2021-04-04 10:57:18.760969,2020-09-09 00:00:00.000000,2.15441673,2.94771587,3.83506723,476,651,847,247,341,453,1.11828248,1.54368541,2.05137045,0.28747467,0.35923887,0.48594672
19123,0,USIowaMahaska,Iowa,Mahaska,2021-04-04 10:57:18.760969,2020-09-10 00:00:00.000000,2.17367936,3.00407991,3.91456316,480,663,864,248,344,457,1.12557021,1.56120515,2.06890497,0.29021731,0.36221135,0.46863305
19123,0,USIowaMahaska,Iowa,Mahaska,2021-04-04 10:57:18.760969,2020-09-11 00:00:00.000000,2.20190894,3.04284905,3.99595441,486,672,882,249,348,464,1.12927917,1.57562443,2.10322340,0.28919051,0.36638323,0.46311369
19123,0,USIowaMahaska,Iowa,Mahaska,2021-04-04 10:57:18.760969,2020-09-12 00:00:00.000000,2.23992610,3.10120731,4.08016093,494,685,901,251,352,476,1.13927350,1.59454595,2.15477643,0.28977334,0.36652036,0.46135888
19123,0,USIowaMahaska,Iowa,Mahaska,2021-04-04 10:57:18.760969,2020-09-13 00:00:00.000000,2.29714225,3.11540361,4.15532426,507,688,918,256,355,487,1.15873718,1.60793889,2.20725318,0.27888231,0.36944329,0.46425448
19123,0,USIowaMahaska,Iowa,Mahaska,2021-04-04 10:57:18.760969,2020-09-14 00:00:00.000000,2.35929907,3.13648458,4.22863911,521,693,934,259,361,499,1.17509371,1.63510423,2.26035381,0.28063829,0.37265494,0.46667494
19123,0,USIowaMahaska,Iowa,Mahaska,2021-04-04 10:57:18.760969,2020-09-15 00:00:00.000000,2.40440106,3.20837862,4.30937129,531,708,952,260,366,507,1.17994470,1.66096230,2.29692616,0.29199009,0.37338494,0.47353884
19123,0,USIowaMahaska,Iowa,Mahaska,2021-04-04 10:57:18.760969,2020-09-16 00:00:00.000000,2.46221170,3.27469661,4.34925409,544,723,960,261,367,520,1.18236977,1.66527244,2.35641706,0.29946096,0.37586769,0.49866153
19123,0,USIowaMahaska,Iowa,Mahaska,2021-04-04 10:57:18.760969,2020-09-17 00:00:00.000000,2.45938082,3.32555185,4.35826383,543,734,962,261,370,532,1.18345796,1.67501310,2.41196369,0.30024317,0.38248321,0.49653348
19123,0,USIowaMahaska,Iowa,Mahaska,2021-04-04 10:57:18.760969,2020-09-18 00:00:00.000000,2.45839726,3.36809650,4.36512802,543,744,964,261,377,545,1.18280797,1.70871667,2.46862042,0.29081200,0.37971250,0.47196287
19123,0,USIowaMahaska,Iowa,Mahaska,2021-04-04 10:57:18.760969,2020-09-19 00:00:00.000000,2.46819363,3.40422596,4.44113606,545,752,981,262,385,556,1.18892514,1.74314253,2.51964290,0.28648083,0.37668426,0.45981583
19123,0,USIowaMahaska,Iowa,Mahaska,2021-04-04 10:57:18.760969,2020-09-20 00:00:00.000000,2.51480109,3.45484939,4.53172917,555,763,1001,264,392,567,1.19921169,1.77689338,2.56891701,0.28546926,0.37480503,0.45427369
19123,0,USIowaMahaska,Iowa,Mahaska,2021-04-04 10:57:18.760969,2020-09-21 00:00:00.000000,2.55103286,3.48902591,4.61134788,563,770,1018,267,403,571,1.21092076,1.82424000,2.58828451,0.28502587,0.37618633,0.46316113
19123,0,USIowaMahaska,Iowa,Mahaska,2021-04-04 10:57:18.760969,2020-09-22 00:00:00.000000,2.54927677,3.53215126,4.72076837,563,780,1043,270,410,572,1.22548456,1.85956421,2.59265806,0.28460318,0.37071973,0.46885409
19123,0,USIowaMahaska,Iowa,Mahaska,2021-04-04 10:57:18.760969,2020-09-23 00:00:00.000000,2.54524480,3.56433938,4.82853553,562,787,1066,275,414,573,1.24475491,1.87585334,2.59508783,0.27777617,0.36892751,0.47255659
19123,0,USIowaMahaska,Iowa,Mahaska,2021-04-04 10:57:18.760969,2020-09-24 00:00:00.000000,2.53968933,3.61010446,4.93391640,561,797,1090,283,421,573,1.28086516,1.90832647,2.59558688,0.27761351,0.36812473,0.46331772
19123,0,USIowaMahaska,Iowa,Mahaska,2021-04-04 10:57:18.760969,2020-09-25 00:00:00.000000,2.53188659,3.65560542,5.02926588,559,807,1111,291,428,577,1.31994690,1.93823313,2.61191611,0.28128251,0.36831817,0.46404990
19123,0,USIowaMahaska,Iowa,Mahaska,2021-04-04 10:57:18.760969,2020-09-26 00:00:00.000000,2.56385766,3.65183038,5.09648245,566,806,1126,300,433,581,1.36073005,1.96153112,2.63275776,0.27230358,0.37103019,0.47404944
19123,0,USIowaMahaska,Iowa,Mahaska,2021-04-04 10:57:18.760969,2020-09-27 00:00:00.000000,2.61626258,3.70306324,5.13875273,578,818,1135,309,440,586,1.40238754,1.99368316,2.65649210,0.27102279,0.37377673,0.49260751
19123,0,USIowaMahaska,Iowa,Mahaska,2021-04-04 10:57:18.760969,2020-09-28 00:00:00.000000,2.70206989,3.75899903,5.18000708,597,830,1144,313,443,596,1.41785559,2.00556443,2.70167062,0.27351888,0.37803407,0.49719516
19123,0,USIowaMahaska,Iowa,Mahaska,2021-04-04 10:57:18.760969,2020-09-29 00:00:00.000000,2.70663351,3.80357459,5.28319358,598,840,1167,310,444,606,1.40662559,2.01083346,2.74303820,0.27877357,0.37957329,0.49941128
19123,0,USIowaMahaska,Iowa,Mahaska,2021-04-04 10:57:18.760969,2020-09-30 00:00:00.000000,2.72060845,3.85679665,5.38699584,601,852,1190,313,446,615,1.41984069,2.02244470,2.78758072,0.28374531,0.38191178,0.49914446
19123,0,USIowaMahaska,Iowa,Mahaska,2021-04-04 10:57:18.760969,2020-10-01 00:00:00.000000,2.74309215,3.90333879,5.49161595,606,862,1213,313,454,624,1.42062376,2.05818598,2.82673794,0.29156068,0.38937464,0.49502269
19123,0,USIowaMahaska,Iowa,Mahaska,2021-04-04 10:57:18.760969,2020-10-02 00:00:00.000000,2.78833541,3.94036063,5.59836859,616,870,1236,314,462,631,1.42268082,2.09176361,2.86020496,0.30122186,0.39785794,0.50861084
19123,0,USIowaMahaska,Iowa,Mahaska,2021-04-04 10:57:18.760969,2020-10-03 00:00:00.000000,2.83621370,4.00944556,5.71036168,626,885,1261,315,467,638,1.42638041,2.11529400,2.88924008,0.31634184,0.40602485,0.50903695
19123,0,USIowaMahaska,Iowa,Mahaska,2021-04-04 10:57:18.760969,2020-10-04 00:00:00.000000,2.91335781,4.07167781,5.83272166,643,899,1288,319,474,643,1.44695411,2.14665608,2.91426988,0.33486721,0.41299452,0.55180241
19123,0,USIowaMahaska,Iowa,Mahaska,2021-04-04 10:57:18.760969,2020-10-05 00:00:00.000000,3.00544380,4.17722341,5.97978709,664,922,1321,329,484,653,1.49029295,2.19187834,2.95977799,0.33314511,0.42306660,0.55620112
19123,0,USIowaMahaska,Iowa,Mahaska,2021-04-04 10:57:18.760969,2020-10-06 00:00:00.000000,3.10803642,4.28501593,6.14093062,686,946,1356,342,492,663,1.55081758,2.22954828,3.00391035,0.33324110,0.43022530,0.55702133
19123,0,USIowaMahaska,Iowa,Mahaska,2021-04-04 10:57:18.760969,2020-10-07 00:00:00.000000,3.21632908,4.33089708,6.31132397,710,956,1394,358,500,673,1.62259144,2.26707685,3.05015068,0.33536113,0.43846989,0.56432095
19123,0,USIowaMahaska,Iowa,Mahaska,2021-04-04 10:57:18.760969,2020-10-08 00:00:00.000000,3.32379316,4.42068511,6.42172480,734,976,1418,361,515,684,1.63563733,2.33160855,3.09579885,0.33109564,0.44596399,0.56391074
19123,0,USIowaMahaska,Iowa,Mahaska,2021-04-04 10:57:18.760969,2020-10-09 00:00:00.000000,3.31895054,4.53609628,6.48450680,733,1002,1432,359,525,693,1.62911096,2.37627743,3.13979931,0.32812249,0.44767925,0.56194823
19123,0,USIowaMahaska,Iowa,Mahaska,2021-04-04 10:57:18.760969,2020-10-10 00:00:00.000000,3.30968062,4.62667470,6.53978444,731,1022,1444,358,535,702,1.62188317,2.42471834,3.18142937,0.32654215,0.45313645,0.56093120
19123,0,USIowaMahaska,Iowa,Mahaska,2021-04-04 10:57:18.760969,2020-10-11 00:00:00.000000,3.31755353,4.69441402,6.59096256,733,1037,1456,357,546,713,1.61600111,2.47184044,3.23047311,0.32582731,0.46000749,0.56262096
19123,0,USIowaMahaska,Iowa,Mahaska,2021-04-04 10:57:18.760969,2020-10-12 00:00:00.000000,3.35604875,4.75448248,6.63443524,741,1050,1465,358,556,728,1.62034959,2.51785212,3.29519896,0.32557796,0.46627135,0.56158947
19123,0,USIowaMahaska,Iowa,Mahaska,2021-04-04 10:57:18.760969,2020-10-13 00:00:00.000000,3.43087702,4.84092337,6.82192417,758,1069,1507,364,567,741,1.65169816,2.56877052,3.35722706,0.32977398,0.46456255,0.56545535
19123,0,USIowaMahaska,Iowa,Mahaska,2021-04-04 10:57:18.760969,2020-10-14 00:00:00.000000,3.52300957,4.93839066,7.02894367,778,1091,1553,371,576,754,1.68278184,2.60998557,3.41703529,0.33581815,0.46503027,0.56720718
19123,0,USIowaMahaska,Iowa,Mahaska,2021-04-04 10:57:18.760969,2020-10-15 00:00:00.000000,3.62420734,5.09379196,7.23691984,800,1125,1598,378,594,767,1.71336676,2.69150077,3.47498101,0.33571142,0.46729748,0.57981278
19123,0,USIowaMahaska,Iowa,Mahaska,2021-04-04 10:57:18.760969,2020-10-16 00:00:00.000000,3.73325383,5.24043335,7.44763432,824,1157,1645,384,612,790,1.74021088,2.77029470,3.57636715,0.36468560,0.47279200,0.58185639
19123,0,USIowaMahaska,Iowa,Mahaska,2021-04-04 10:57:18.760969,2020-10-17 00:00:00.000000,3.84677954,5.38793061,7.66003391,849,1190,1692,392,626,813,1.77562759,2.83399525,3.68134642,0.36674906,0.47728524,0.58662992
19123,0,USIowaMahaska,Iowa,Mahaska,2021-04-04 10:57:18.760969,2020-10-18 00:00:00.000000,3.96274787,5.52520797,7.87212027,875,1220,1739,403,637,835,1.82783084,2.88325094,3.78298613,0.37034895,0.47613834,0.61411653
19123,0,USIowaMahaska,Iowa,Mahaska,2021-04-04 10:57:18.760969,2020-10-19 00:00:00.000000,4.08155255,5.67756557,8.06179137,901,1254,1781,415,648,859,1.88250775,2.93387526,3.88811184,0.36596125,0.48313046,0.61751500
19123,0,USIowaMahaska,Iowa,Mahaska,2021-04-04 10:57:18.760969,2020-10-20 00:00:00.000000,4.20145970,5.83305409,8.15073277,928,1288,1800,428,662,881,1.93891594,2.99931779,3.99106220,0.38412242,0.49573936,0.61863570
19123,0,USIowaMahaska,Iowa,Mahaska,2021-04-04 10:57:18.760969,2020-10-21 00:00:00.000000,4.23320975,5.98778779,8.23302323,935,1323,1819,441,680,904,1.99640707,3.08009913,4.09287613,0.38689753,0.50203113,0.62061093
19123,0,USIowaMahaska,Iowa,Mahaska,2021-04-04 10:57:18.760969,2020-10-22 00:00:00.000000,4.25195508,6.11778999,8.30968324,939,1351,1836,454,700,926,2.05479616,3.16950677,4.19247925,0.39408244,0.50268139,0.62524527
19123,0,USIowaMahaska,Iowa,Mahaska,2021-04-04 10:57:18.760969,2020-10-23 00:00:00.000000,4.30005042,6.29158326,8.38270618,950,1390,1852,467,710,942,2.11440886,3.21753911,4.26573508,0.40014402,0.51081157,0.64333841
19123,0,USIowaMahaska,Iowa,Mahaska,2021-04-04 10:57:18.760969,2020-10-24 00:00:00.000000,4.41581210,6.47786394,8.45737864,975,1431,1868,480,728,960,2.17614194,3.29602941,4.34852057,0.39710297,0.51971537,0.65174631
19123,0,USIowaMahaska,Iowa,Mahaska,2021-04-04 10:57:18.760969,2020-10-25 00:00:00.000000,4.61234803,6.65080833,8.54273321,1019,1469,1887,495,740,982,2.24120595,3.35209846,4.44719886,0.40596042,0.52885017,0.69045715
19123,0,USIowaMahaska,Iowa,Mahaska,2021-04-04 10:57:18.760969,2020-10-26 00:00:00.000000,4.80531253,6.77772517,8.64775414,1061,1497,1910,510,762,1008,2.31011889,3.45180037,4.56383827,0.41440567,0.53422581,0.70418572
19123,0,USIowaMahaska,Iowa,Mahaska,2021-04-04 10:57:18.760969,2020-10-27 00:00:00.000000,4.95913180,6.96097165,8.81177410,1095,1538,1946,526,786,1031,2.38507740,3.55896399,4.66625736,0.42886574,0.53468345,0.71594821
19123,0,USIowaMahaska,Iowa,Mahaska,2021-04-04 10:57:18.760969,2020-10-28 00:00:00.000000,5.11407576,7.10823319,9.11066508,1129,1570,2013,544,811,1050,2.46307720,3.67426372,4.75285145,0.42886490,0.53674008,0.71803289
19123,0,USIowaMahaska,Iowa,Mahaska,2021-04-04 10:57:18.760969,2020-10-29 00:00:00.000000,5.29261367,7.23576360,9.40197815,1169,1598,2077,555,831,1068,2.51287276,3.76183416,4.83706352,0.42989681,0.53401909,0.71827483
19123,0,USIowaMahaska,Iowa,Mahaska,2021-04-04 10:57:18.760969,2020-10-30 00:00:00.000000,5.43966758,7.42413633,9.60101160,1201,1640,2121,567,852,1090,2.57007301,3.85611584,4.93407578,0.43829795,0.53759037,0.71796208
19123,0,USIowaMahaska,Iowa,Mahaska,2021-04-04 10:57:18.760969,2020-10-31 00:00:00.000000,5.60985051,7.65208712,9.81901952,1239,1690,2169,587,876,1116,2.66094305,3.96784927,5.05241599,0.43526518,0.54100067,0.71654981
19123,0,USIowaMahaska,Iowa,Mahaska,2021-04-04 10:57:18.760969,2020-11-01 00:00:00.000000,5.73397976,7.86900985,10.14233029,1266,1738,2240,605,907,1144,2.74132269,4.10536679,5.18019044,0.43144290,0.54133843,0.71194667
19123,0,USIowaMahaska,Iowa,Mahaska,2021-04-04 10:57:18.760969,2020-11-02 00:00:00.000000,5.83407718,8.06481191,10.36708849,1289,1781,2290,621,932,1166,2.81128932,4.22080702,5.27724034,0.42656359,0.54221915,0.69967167
19123,0,USIowaMahaska,Iowa,Mahaska,2021-04-04 10:57:18.760969,2020-11-03 00:00:00.000000,5.92093493,8.25348295,10.48907630,1308,1823,2317,634,951,1197,2.87376166,4.30617721,5.41977777,0.42266188,0.53639528,0.69339853
19123,0,USIowaMahaska,Iowa,Mahaska,2021-04-04 10:57:18.760969,2020-11-04 00:00:00.000000,5.99642407,8.38904137,10.68970467,1324,1853,2361,647,966,1227,2.92832208,4.37567149,5.55446090,0.41800240,0.53323921,0.67981457
19123,0,USIowaMahaska,Iowa,Mahaska,2021-04-04 10:57:18.760969,2020-11-05 00:00:00.000000,6.06205087,8.47644584,10.86160778,1339,1872,2399,676,981,1254,3.06385887,4.44268487,5.67855280,0.40930073,0.52211255,0.67598656
19123,0,USIowaMahaska,Iowa,Mahaska,2021-04-04 10:57:18.760969,2020-11-06 00:00:00.000000,6.11837519,8.59149301,11.01627735,1351,1898,2434,705,991,1279,3.19497417,4.48748573,5.79058586,0.39889298,0.50691106,0.66994654
19123,0,USIowaMahaska,Iowa,Mahaska,2021-04-04 10:57:18.760969,2020-11-07 00:00:00.000000,6.27344136,8.64500240,11.04464128,1386,1910,2440,716,1003,1300,3.24368006,4.54148626,5.88639377,0.39295422,0.48852906,0.63482421
19123,0,USIowaMahaska,Iowa,Mahaska,2021-04-04 10:57:18.760969,2020-11-08 00:00:00.000000,6.45131143,8.68619027,10.98609505,1425,1919,2427,726,1016,1313,3.28775743,4.59917455,5.94595073,0.38523646,0.48563153,0.62219324
19123,0,USIowaMahaska,Iowa,Mahaska,2021-04-04 10:57:18.760969,2020-11-09 00:00:00.000000,6.47084763,8.71138548,10.89165671,1429,1924,2406,734,1025,1320,3.32322350,4.64319022,5.97690355,0.37714826,0.47138216,0.60840474
19123,0,USIowaMahaska,Iowa,Mahaska,2021-04-04 10:57:18.760969,2020-11-10 00:00:00.000000,6.46688367,8.74508587,10.78277354,1428,1932,2382,738,1028,1337,3.34249002,4.65687724,6.05193083,0.37631519,0.46358483,0.60645888
19123,0,USIowaMahaska,Iowa,Mahaska,2021-04-04 10:57:18.760969,2020-11-11 00:00:00.000000,6.45237186,8.73739754,10.66081931,1425,1930,2355,739,1022,1350,3.34915817,4.62973855,6.11419150,0.37686852,0.46027905,0.60527370
19123,0,USIowaMahaska,Iowa,Mahaska,2021-04-04 10:57:18.760969,2020-11-12 00:00:00.000000,6.44695333,8.65348847,10.68170829,1424,1911,2360,739,1021,1362,3.34618259,4.62293158,6.16496436,0.37240074,0.45788892,0.58482381
19123,0,USIowaMahaska,Iowa,Mahaska,2021-04-04 10:57:18.760969,2020-11-13 00:00:00.000000,6.42259402,8.56901092,10.67670460,1419,1893,2359,736,1014,1370,3.33530733,4.59304095,6.20414780,0.37041499,0.45015817,0.58029818
19123,0,USIowaMahaska,Iowa,Mahaska,2021-04-04 10:57:18.760969,2020-11-14 00:00:00.000000,6.37479857,8.50208412,10.59370302,1408,1878,2340,732,1003,1376,3.31691394,4.54257909,6.22789220,0.37149454,0.45065198,0.57188765
19123,0,USIowaMahaska,Iowa,Mahaska,2021-04-04 10:57:18.760969,2020-11-15 00:00:00.000000,6.30858019,8.36583676,10.42530373,1393,1848,2303,726,998,1370,3.29031417,4.51761270,6.20104923,0.34934754,0.44580865,0.55268326
19123,0,USIowaMahaska,Iowa,Mahaska,2021-04-04 10:57:18.760969,2020-11-16 00:00:00.000000,6.22304039,8.19554197,10.21571783,1374,1810,2257,719,989,1359,3.25502192,4.47925944,6.15353688,0.32842358,0.44432369,0.54508030
19123,0,USIowaMahaska,Iowa,Mahaska,2021-04-04 10:57:18.760969,2020-11-17 00:00:00.000000,6.12986989,8.01003449,10.03601034,1354,1769,2217,706,978,1347,3.19793273,4.42730571,6.09709947,0.32631506,0.44341163,0.54819858
19123,0,USIowaMahaska,Iowa,Mahaska,2021-04-04 10:57:18.760969,2020-11-18 00:00:00.000000,6.02556369,7.79454898,9.93093629,1331,1722,2194,687,962,1333,3.10954350,4.35646201,6.03312480,0.32962441,0.44374978,0.54548932
19123,0,USIowaMahaska,Iowa,Mahaska,2021-04-04 10:57:18.760969,2020-11-19 00:00:00.000000,5.91432831,7.67659426,9.80120868,1306,1696,2165,667,946,1317,3.02041525,4.28210543,5.96347368,0.33243267,0.44713795,0.54516341
19123,0,USIowaMahaska,Iowa,Mahaska,2021-04-04 10:57:18.760969,2020-11-20 00:00:00.000000,5.79799889,7.60438913,9.56551865,1281,1680,2113,648,931,1301,2.93379127,4.21778066,5.88919415,0.33648403,0.45120942,0.54363628
19123,0,USIowaMahaska,Iowa,Mahaska,2021-04-04 10:57:18.760969,2020-11-21 00:00:00.000000,5.67369832,7.49563290,9.39432999,1253,1656,2075,632,914,1284,2.86314584,4.14006513,5.81371783,0.34613340,0.46000277,0.54475549
19123,0,USIowaMahaska,Iowa,Mahaska,2021-04-04 10:57:18.760969,2020-11-22 00:00:00.000000,5.55357225,7.36454421,9.30178654,1227,1627,2055,620,900,1268,2.80700455,4.07726089,5.74149901,0.35546473,0.46423915,0.57342392
19123,0,USIowaMahaska,Iowa,Mahaska,2021-04-04 10:57:18.760969,2020-11-23 00:00:00.000000,5.43970048,7.22642557,9.21265001,1201,1596,2035,608,884,1253,2.75594804,4.00266476,5.67380505,0.36651960,0.47602400,0.60971839
19123,0,USIowaMahaska,Iowa,Mahaska,2021-04-04 10:57:18.760969,2020-11-24 00:00:00.000000,5.23627790,7.07136616,9.12647546,1156,1562,2016,594,867,1236,2.69197560,3.92416860,5.59455395,0.36623533,0.48322776,0.61265109
19123,0,USIowaMahaska,Iowa,Mahaska,2021-04-04 10:57:18.760969,2020-11-25 00:00:00.000000,5.06255099,6.92819105,9.15362038,1118,1530,2022,575,853,1207,2.60663095,3.86356068,5.46570820,0.37472394,0.49214742,0.61502548
19123,0,USIowaMahaska,Iowa,Mahaska,2021-04-04 10:57:18.760969,2020-11-26 00:00:00.000000,4.94914857,6.80954207,8.99031914,1093,1504,1986,564,837,1179,2.55576046,3.79235366,5.33898738,0.38044237,0.50535459,0.63024250
19123,0,USIowaMahaska,Iowa,Mahaska,2021-04-04 10:57:18.760969,2020-11-27 00:00:00.000000,4.91779637,6.71555005,8.98557892,1086,1483,1985,554,823,1159,2.50859810,3.72495791,5.24771804,0.40339793,0.51663879,0.65767340
19123,0,USIowaMahaska,Iowa,Mahaska,2021-04-04 10:57:18.760969,2020-11-28 00:00:00.000000,4.95042811,6.64391220,9.06605931,1093,1467,2003,544,806,1157,2.46633779,3.64965186,5.23653701,0.40378354,0.54157498,0.69469082
19123,0,USIowaMahaska,Iowa,Mahaska,2021-04-04 10:57:18.760969,2020-11-29 00:00:00.000000,4.95737301,6.55662559,9.13584972,1095,1448,2018,537,798,1153,2.43045403,3.61509191,5.22270892,0.40902153,0.56185601,0.72557642
19123,0,USIowaMahaska,Iowa,Mahaska,2021-04-04 10:57:18.760969,2020-11-30 00:00:00.000000,4.92758430,6.54454345,9.08241267,1088,1446,2006,530,794,1149,2.40204162,3.59681638,5.20477010,0.42208150,0.58885112,0.75616843
19123,0,USIowaMahaska,Iowa,Mahaska,2021-04-04 10:57:18.760969,2020-12-01 00:00:00.000000,4.91095006,6.55669354,9.02482764,1085,1448,1994,527,792,1144,2.38876156,3.58687988,5.18175820,0.44891466,0.59886440,0.80209531
19123,0,USIowaMahaska,Iowa,Mahaska,2021-04-04 10:57:18.760969,2020-12-02 00:00:00.000000,4.81368799,6.57472991,9.08405285,1063,1452,2007,535,793,1138,2.42304478,3.58991942,5.15112469,0.47304809,0.60507972,0.82514978
19123,0,USIowaMahaska,Iowa,Mahaska,2021-04-04 10:57:18.760969,2020-12-03 00:00:00.000000,4.73344598,6.55245455,9.14861733,1045,1447,2021,544,801,1130,2.46472316,3.62588611,5.11568374,0.47794759,0.63292874,0.82555510
19123,0,USIowaMahaska,Iowa,Mahaska,2021-04-04 10:57:18.760969,2020-12-04 00:00:00.000000,4.68793136,6.57978842,9.21350019,1035,1453,2035,543,800,1127,2.45969477,3.62517562,5.10347730,0.49712862,0.65284235,0.82813877
19123,0,USIowaMahaska,Iowa,Mahaska,2021-04-04 10:57:18.760969,2020-12-05 00:00:00.000000,4.67988353,6.61301427,9.27764451,1034,1461,2049,543,797,1130,2.45897777,3.61030104,5.11845835,0.52318140,0.68237996,0.88298660
19123,0,USIowaMahaska,Iowa,Mahaska,2021-04-04 10:57:18.760969,2020-12-06 00:00:00.000000,4.69917377,6.64391390,9.33820245,1038,1467,2063,546,798,1136,2.47554701,3.61279677,5.14320993,0.54161611,0.72077257,0.90275574
19123,0,USIowaMahaska,Iowa,Mahaska,2021-04-04 10:57:18.760969,2020-12-07 00:00:00.000000,4.74559555,6.65883195,9.48852434,1048,1471,2096,554,799,1146,2.50815471,3.61979861,5.18882406,0.56675265,0.73487303,0.91800186
19123,0,USIowaMahaska,Iowa,Mahaska,2021-04-04 10:57:18.760969,2020-12-08 00:00:00.000000,4.79668786,6.71624516,9.52551771,1059,1483,2104,559,802,1161,2.53367650,3.63377425,5.25473927,0.58260851,0.74423964,0.92469138
19123,0,USIowaMahaska,Iowa,Mahaska,2021-04-04 10:57:18.760969,2020-12-09 00:00:00.000000,4.85227765,6.80586514,9.55010851,1072,1503,2110,566,805,1160,2.56520429,3.64674340,5.25251824,0.59118296,0.76706052,0.93550662
19123,0,USIowaMahaska,Iowa,Mahaska,2021-04-04 10:57:18.760969,2020-12-10 00:00:00.000000,4.95824104,6.82338383,9.60915632,1095,1507,2123,574,807,1159,2.60125215,3.65415943,5.24990730,0.60047591,0.77654083,0.95118590
19123,0,USIowaMahaska,Iowa,Mahaska,2021-04-04 10:57:18.760969,2020-12-11 00:00:00.000000,5.05595067,6.83521938,9.66832444,1117,1510,2136,583,806,1159,2.64062148,3.64970764,5.24872176,0.59761092,0.79132909,0.95747386
19123,0,USIowaMahaska,Iowa,Mahaska,2021-04-04 10:57:18.760969,2020-12-12 00:00:00.000000,5.13972237,6.90941376,9.72188675,1135,1526,2148,593,808,1159,2.68459792,3.65848651,5.24591769,0.59141786,0.80244894,0.97617368
19123,0,USIowaMahaska,Iowa,Mahaska,2021-04-04 10:57:18.760969,2020-12-13 00:00:00.000000,5.20662199,6.98358835,9.76824967,1150,1543,2158,603,816,1157,2.73225839,3.69741125,5.23916669,0.60042974,0.81005826,1.00146823
19123,0,USIowaMahaska,Iowa,Mahaska,2021-04-04 10:57:18.760969,2020-12-14 00:00:00.000000,5.25560634,7.05272668,9.79472307,1161,1558,2164,614,824,1154,2.78078467,3.73052894,5.22681448,0.60767286,0.81490721,1.07961809
19123,0,USIowaMahaska,Iowa,Mahaska,2021-04-04 10:57:18.760969,2020-12-15 00:00:00.000000,5.29326960,7.09265058,9.80934960,1169,1567,2167,623,834,1151,2.82416009,3.77780755,5.20957554,0.63140520,0.81074161,1.13182129
19123,0,USIowaMahaska,Iowa,Mahaska,2021-04-04 10:57:18.760969,2020-12-16 00:00:00.000000,5.32113595,7.09875315,9.78162325,1175,1568,2161,628,841,1145,2.84318892,3.80944149,5.18622815,0.63328422,0.80091557,1.17212825
19123,0,USIowaMahaska,Iowa,Mahaska,2021-04-04 10:57:18.760969,2020-12-17 00:00:00.000000,5.34005546,7.06987804,9.64175542,1179,1562,2130,631,840,1165,2.85966589,3.80388886,5.27431806,0.62598155,0.78995731,1.19533011
19123,0,USIowaMahaska,Iowa,Mahaska,2021-04-04 10:57:18.760969,2020-12-18 00:00:00.000000,5.35022586,7.05358946,9.47582476,1182,1558,2093,634,838,1186,2.87269929,3.79698097,5.36792420,0.62414982,0.78411657,1.22847542
19123,0,USIowaMahaska,Iowa,Mahaska,2021-04-04 10:57:18.760969,2020-12-19 00:00:00.000000,5.35119861,6.99690989,9.29747916,1182,1545,2054,635,834,1205,2.87512285,3.77848520,5.45560901,0.63323727,0.78668899,1.24214489
19123,0,USIowaMahaska,Iowa,Mahaska,2021-04-04 10:57:18.760969,2020-12-20 00:00:00.000000,5.34330103,6.96905901,9.25899174,1180,1539,2045,629,830,1222,2.84724774,3.75729440,5.53391560,0.65014419,0.78334182,1.24910712
19123,0,USIowaMahaska,Iowa,Mahaska,2021-04-04 10:57:18.760969,2020-12-21 00:00:00.000000,5.32081531,6.95486016,9.24288732,1175,1536,2042,621,830,1237,2.81389018,3.75873457,5.59871503,0.63749451,0.78650039,1.30249765
19123,0,USIowaMahaska,Iowa,Mahaska,2021-04-04 10:57:18.760969,2020-12-22 00:00:00.000000,5.28811493,6.95484044,9.24421370,1168,1536,2042,613,826,1247,2.77491143,3.73892057,5.64609880,0.62991845,0.79208075,1.35701843
19123,0,USIowaMahaska,Iowa,Mahaska,2021-04-04 10:57:18.760969,2020-12-23 00:00:00.000000,5.23686363,6.91116776,9.23061282,1157,1527,2039,603,824,1252,2.73164680,3.73014224,5.66906754,0.61847622,0.80161257,1.35802714
19123,0,USIowaMahaska,Iowa,Mahaska,2021-04-04 10:57:18.760969,2020-12-24 00:00:00.000000,5.15246659,6.84683372,9.20288444,1138,1512,2033,593,818,1251,2.68495265,3.70352836,5.66325978,0.60313074,0.80753569,1.35861657
19123,0,USIowaMahaska,Iowa,Mahaska,2021-04-04 10:57:18.760969,2020-12-25 00:00:00.000000,5.04055694,6.80054375,9.16097097,1113,1502,2024,582,814,1243,2.63538542,3.68592693,5.62937493,0.59521866,0.82282482,1.35855281
19123,0,USIowaMahaska,Iowa,Mahaska,2021-04-04 10:57:18.760969,2020-12-26 00:00:00.000000,4.91723039,6.75550341,9.10501139,1086,1492,2011,570,808,1231,2.58343041,3.65993010,5.57214848,0.60363558,0.82607578,1.35356288
19123,0,USIowaMahaska,Iowa,Mahaska,2021-04-04 10:57:18.760969,2020-12-27 00:00:00.000000,4.78773116,6.69081021,9.03539755,1057,1478,1996,560,800,1214,2.53644452,3.62220821,5.49816282,0.60894420,0.82530626,1.34468210
19123,0,USIowaMahaska,Iowa,Mahaska,2021-04-04 10:57:18.760969,2020-12-28 00:00:00.000000,4.66371068,6.59860300,8.95493765,1030,1457,1978,553,791,1196,2.50391179,3.58367184,5.41410932,0.59640016,0.85136668,1.37004908
19123,0,USIowaMahaska,Iowa,Mahaska,2021-04-04 10:57:18.760969,2020-12-29 00:00:00.000000,4.58728115,6.45930126,8.86202028,1013,1427,1958,546,778,1176,2.47324187,3.52244569,5.32336961,0.58634688,0.86380654,1.46387881
19123,0,USIowaMahaska,Iowa,Mahaska,2021-04-04 10:57:18.760969,2020-12-30 00:00:00.000000,4.50778916,6.34088606,8.75674554,995,1401,1934,539,767,1155,2.44239100,3.47391372,5.22851027,0.58210768,0.87111173,1.49417086
19123,0,USIowaMahaska,Iowa,Mahaska,2021-04-04 10:57:18.760969,2020-12-31 00:00:00.000000,4.42410055,6.25938210,8.63959987,977,1383,1908,532,756,1133,2.41022170,3.42185655,5.12998135,0.58067702,0.89120526,1.49983123
19123,0,USIowaMahaska,Iowa,Mahaska,2021-04-04 10:57:18.760969,2021-01-01 00:00:00.000000,4.33703716,6.18554657,8.51135574,958,1366,1880,523,740,1110,2.37126683,3.35277616,5.02758944,0.58038564,0.89585242,1.48247195
19123,0,USIowaMahaska,Iowa,Mahaska,2021-04-04 10:57:18.760969,2021-01-02 00:00:00.000000,4.24682699,6.09461917,8.37280783,938,1346,1849,510,724,1087,2.31136429,3.27931543,4.92119285,0.58083189,0.89346654,1.49919561
19123,0,USIowaMahaska,Iowa,Mahaska,2021-04-04 10:57:18.760969,2021-01-03 00:00:00.000000,4.18996750,5.99839445,8.22476225,925,1325,1817,500,711,1062,2.26369374,3.22023402,4.81086390,0.58245968,0.91573645,1.50979540
19123,0,USIowaMahaska,Iowa,Mahaska,2021-04-04 10:57:18.760969,2021-01-04 00:00:00.000000,4.15711641,5.88510311,8.06392596,918,1300,1781,492,700,1037,2.22800502,3.17100510,4.69689674,0.59699788,0.91211223,1.51131606
19123,0,USIowaMahaska,Iowa,Mahaska,2021-04-04 10:57:18.760969,2021-01-05 00:00:00.000000,4.12372842,5.73685164,7.89527533,911,1267,1744,484,686,1011,2.19100612,3.10761098,4.57971299,0.64950700,0.92139639,1.51170971
19123,0,USIowaMahaska,Iowa,Mahaska,2021-04-04 10:57:18.760969,2021-01-06 00:00:00.000000,4.08983267,5.58806843,7.71961230,903,1234,1705,474,674,985,2.14904709,3.05439787,4.46006054,0.65295160,0.91864614,1.54174792
19123,0,USIowaMahaska,Iowa,Mahaska,2021-04-04 10:57:18.760969,2021-01-07 00:00:00.000000,4.05810590,5.44002768,7.53787536,896,1201,1665,463,660,967,2.09878959,2.98914081,4.37815858,0.64193336,0.92243410,1.56539527
19123,0,USIowaMahaska,Iowa,Mahaska,2021-04-04 10:57:18.760969,2021-01-08 00:00:00.000000,4.02216644,5.28781726,7.35102428,888,1168,1624,451,647,950,2.04552791,2.92967013,4.29979302,0.66165370,0.96598078,1.56239376
19123,0,USIowaMahaska,Iowa,Mahaska,2021-04-04 10:57:18.760969,2021-01-09 00:00:00.000000,3.91867130,5.15969469,7.15995567,865,1140,1581,441,633,933,1.99634063,2.86754792,4.22333933,0.67784446,0.99090860,1.55648891
19123,0,USIowaMahaska,Iowa,Mahaska,2021-04-04 10:57:18.760969,2021-01-10 00:00:00.000000,3.80366278,5.01446060,6.96545058,840,1107,1539,430,617,916,1.95035928,2.79486637,4.14894376,0.69413148,0.99464564,1.54714292
19123,0,USIowaMahaska,Iowa,Mahaska,2021-04-04 10:57:18.760969,2021-01-11 00:00:00.000000,3.68170470,4.87054429,6.76622936,813,1076,1494,419,600,900,1.89645396,2.71841330,4.07542839,0.70023860,1.00483910,1.56061797
19123,0,USIowaMahaska,Iowa,Mahaska,2021-04-04 10:57:18.760969,2021-01-12 00:00:00.000000,3.55986723,4.72540194,6.56513147,786,1044,1450,406,583,882,1.83899225,2.64109231,3.99342631,0.70121641,1.02086910,1.63776716
19123,0,USIowaMahaska,Iowa,Mahaska,2021-04-04 10:57:18.760969,2021-01-13 00:00:00.000000,3.43825591,4.58086344,6.36288525,759,1012,1405,393,568,862,1.78065211,2.57074180,3.90527194,0.68963944,1.02700162,1.69149879
19123,0,USIowaMahaska,Iowa,Mahaska,2021-04-04 10:57:18.760969,2021-01-14 00:00:00.000000,3.31743255,4.43921224,6.16026104,732,980,1361,380,552,842,1.72201037,2.49975712,3.81263461,0.70457134,1.04533242,1.81196507
19123,0,USIowaMahaska,Iowa,Mahaska,2021-04-04 10:57:18.760969,2021-01-15 00:00:00.000000,3.19783252,4.30256488,5.95797515,706,950,1316,367,536,821,1.66345213,2.42705758,3.71677469,0.70502470,1.05367907,1.88863056
19123,0,USIowaMahaska,Iowa,Mahaska,2021-04-04 10:57:18.760969,2021-01-16 00:00:00.000000,3.07980701,4.15721058,5.75653477,680,918,1271,354,521,799,1.60525888,2.36137019,3.61872281,0.70564557,1.06584725,1.93026685
19123,0,USIowaMahaska,Iowa,Mahaska,2021-04-04 10:57:18.760969,2021-01-17 00:00:00.000000,2.96364716,4.04501231,5.55652066,654,893,1227,341,508,777,1.54764829,2.30231328,3.51941950,0.70770935,1.07991200,1.95855836
19123,0,USIowaMahaska,Iowa,Mahaska,2021-04-04 10:57:18.760969,2021-01-18 00:00:00.000000,2.85900461,3.92103867,5.36415688,631,866,1185,329,494,755,1.49079686,2.23997232,3.41996977,0.71140564,1.09686621,1.98603823
19123,0,USIowaMahaska,Iowa,Mahaska,2021-04-04 10:57:18.760969,2021-01-19 00:00:00.000000,2.75668103,3.81223449,5.20336305,609,842,1149,317,481,733,1.43729784,2.18067433,3.32180012,0.71133245,1.10909456,2.01977613
19123,0,USIowaMahaska,Iowa,Mahaska,2021-04-04 10:57:18.760969,2021-01-20 00:00:00.000000,2.65737780,3.71494382,5.06828458,587,820,1119,309,467,713,1.39887694,2.11749000,3.22743243,0.70508787,1.12120386,2.06415357
19123,0,USIowaMahaska,Iowa,Mahaska,2021-04-04 10:57:18.760969,2021-01-21 00:00:00.000000,2.56177756,3.59631215,4.93603973,566,794,1090,302,453,693,1.36867038,2.05412814,3.13873942,0.67837389,1.11713556,2.12097276
19123,0,USIowaMahaska,Iowa,Mahaska,2021-04-04 10:57:18.760969,2021-01-22 00:00:00.000000,2.46887532,3.46980738,4.75472582,545,766,1050,296,440,668,1.34228819,1.99288534,3.02718897,0.67241671,1.09670763,2.12515993
19123,0,USIowaMahaska,Iowa,Mahaska,2021-04-04 10:57:18.760969,2021-01-23 00:00:00.000000,2.37854998,3.34213736,4.56252361,525,738,1008,284,426,643,1.28701867,1.93236283,2.91304854,0.66499041,1.10050664,2.16867463
19123,0,USIowaMahaska,Iowa,Mahaska,2021-04-04 10:57:18.760969,2021-01-24 00:00:00.000000,2.29074339,3.23314181,4.37712996,506,714,967,272,412,618,1.23123678,1.86503601,2.80074360,0.72655066,1.09974809,2.36737632
19123,0,USIowaMahaska,Iowa,Mahaska,2021-04-04 10:57:18.760969,2021-01-25 00:00:00.000000,2.21676197,3.11252478,4.25261920,489,687,939,260,397,594,1.17748429,1.79826345,2.69048730,0.72615530,1.09951212,2.45851039
19123,0,USIowaMahaska,Iowa,Mahaska,2021-04-04 10:57:18.760969,2021-01-26 00:00:00.000000,2.12228121,3.03098357,4.11735507,468,669,909,248,383,570,1.12275665,1.73413667,2.58350902,0.71961057,1.09909443,2.51267755
19123,0,USIowaMahaska,Iowa,Mahaska,2021-04-04 10:57:18.760969,2021-01-27 00:00:00.000000,2.01378774,2.94888935,3.99199924,444,651,882,236,368,554,1.06843578,1.67002925,2.51038560,0.70105956,1.12036319,2.41068277
19123,0,USIowaMahaska,Iowa,Mahaska,2021-04-04 10:57:18.760969,2021-01-28 00:00:00.000000,1.91685080,2.84086948,3.86924469,423,627,854,224,357,542,1.01533907,1.61986361,2.45388198,0.72140907,1.16448184,2.44640572
19123,0,USIowaMahaska,Iowa,Mahaska,2021-04-04 10:57:18.760969,2021-01-29 00:00:00.000000,1.82959587,2.74473581,3.74811880,404,606,828,213,346,529,0.96830893,1.56956498,2.39568177,0.73139914,1.16020173,2.54783930
19123,0,USIowaMahaska,Iowa,Mahaska,2021-04-04 10:57:18.760969,2021-01-30 00:00:00.000000,1.74552216,2.62612948,3.62021897,385,580,799,204,332,516,0.92484806,1.50609937,2.33628261,0.74609669,1.13704955,2.63650114
19123,0,USIowaMahaska,Iowa,Mahaska,2021-04-04 10:57:18.760969,2021-01-31 00:00:00.000000,1.66463405,2.52298172,3.48870176,367,557,770,195,321,502,0.88280440,1.45296935,2.27605499,0.73886449,1.13375188,2.68837447
19123,0,USIowaMahaska,Iowa,Mahaska,2021-04-04 10:57:18.760969,2021-02-01 00:00:00.000000,1.58845614,2.42766747,3.35022553,350,536,740,186,308,489,0.84225345,1.39687477,2.21529101,0.72458855,1.12421961,2.71524895
19123,0,USIowaMahaska,Iowa,Mahaska,2021-04-04 10:57:18.760969,2021-02-02 00:00:00.000000,1.51536143,2.33561599,3.21536156,334,516,710,177,296,475,0.80360895,1.34393842,2.15431732,0.69479192,1.13311984,2.73588841
19123,0,USIowaMahaska,Iowa,Mahaska,2021-04-04 10:57:18.760969,2021-02-03 00:00:00.000000,1.44535096,2.24216175,3.10819906,319,495,686,169,287,462,0.76668296,1.30068259,2.09330860,0.68863840,1.12296399,2.76664358
19123,0,USIowaMahaska,Iowa,Mahaska,2021-04-04 10:57:18.760969,2021-02-04 00:00:00.000000,1.38302722,2.16141674,3.01102679,305,477,665,161,277,449,0.73135255,1.25616347,2.03242714,0.66891151,1.14673824,2.82586175
19123,0,USIowaMahaska,Iowa,Mahaska,2021-04-04 10:57:18.760969,2021-02-05 00:00:00.000000,1.32652213,2.07250652,2.91498423,293,457,644,154,265,435,0.69753162,1.20117162,1.97182367,0.65969103,1.09785789,2.93273279
19123,0,USIowaMahaska,Iowa,Mahaska,2021-04-04 10:57:18.760969,2021-02-06 00:00:00.000000,1.27202613,1.97775866,2.78922166,281,436,616,146,254,422,0.66515468,1.14973302,1.91112210,0.67071597,1.08347514,3.08778353
19123,0,USIowaMahaska,Iowa,Mahaska,2021-04-04 10:57:18.760969,2021-02-07 00:00:00.000000,1.21939556,1.90331163,2.67248953,269,420,590,140,244,408,0.63553734,1.10449911,1.85069455,0.62761160,1.06858880,3.11678722
19123,0,USIowaMahaska,Iowa,Mahaska,2021-04-04 10:57:18.760969,2021-02-08 00:00:00.000000,1.16042844,1.82980417,2.55956524,256,404,565,134,234,390,0.60930859,1.05959903,1.76685431,0.61176649,1.07694931,3.10961037
19123,0,USIowaMahaska,Iowa,Mahaska,2021-04-04 10:57:18.760969,2021-02-09 00:00:00.000000,1.10348838,1.75292460,2.49248675,243,387,550,128,224,372,0.58214395,1.01661986,1.68804696,0.60236299,1.09261630,3.11038485
19123,0,USIowaMahaska,Iowa,Mahaska,2021-04-04 10:57:18.760969,2021-02-10 00:00:00.000000,1.04850003,1.68203141,2.42976602,231,371,536,122,215,356,0.55488327,0.97538951,1.61411597,0.58137648,1.10014611,3.11543545
19123,0,USIowaMahaska,Iowa,Mahaska,2021-04-04 10:57:18.760969,2021-02-11 00:00:00.000000,0.99797735,1.61603713,2.35646822,220,357,520,116,206,341,0.52807332,0.93534635,1.54445195,0.54069594,1.09903300,3.12005409
19123,0,USIowaMahaska,Iowa,Mahaska,2021-04-04 10:57:18.760969,2021-02-12 00:00:00.000000,0.95487328,1.54608061,2.26842657,210,341,501,111,198,326,0.50387647,0.89613485,1.47889360,0.54577315,1.08918395,3.13436584
19123,0,USIowaMahaska,Iowa,Mahaska,2021-04-04 10:57:18.760969,2021-02-13 00:00:00.000000,0.91388860,1.47129323,2.18175350,201,325,482,106,189,313,0.48198465,0.85591313,1.41683758,0.54633587,1.08611180,3.17141917
19123,0,USIowaMahaska,Iowa,Mahaska,2021-04-04 10:57:18.760969,2021-02-14 00:00:00.000000,0.87499777,1.40418074,2.09602617,193,310,463,101,180,300,0.46117928,0.81556683,1.35783679,0.54350446,1.08737500,3.21948038
19123,0,USIowaMahaska,Iowa,Mahaska,2021-04-04 10:57:18.760969,2021-02-15 00:00:00.000000,0.83534908,1.34780797,2.01584727,184,297,445,97,172,287,0.44141836,0.78231371,1.30155441,0.54326197,1.09711447,3.24931426
19123,0,USIowaMahaska,Iowa,Mahaska,2021-04-04 10:57:18.760969,2021-02-16 00:00:00.000000,0.80412126,1.30117560,1.93742293,177,287,428,93,166,275,0.42202777,0.75259674,1.24908661,0.54382661,1.13128709,3.26749297
19123,0,USIowaMahaska,Iowa,Mahaska,2021-04-04 10:57:18.760969,2021-02-17 00:00:00.000000,0.77823241,1.24798499,1.85740596,171,275,410,89,160,265,0.40504283,0.72557019,1.19981586,0.54661778,1.13852895,3.29309429
19123,0,USIowaMahaska,Iowa,Mahaska,2021-04-04 10:57:18.760969,2021-02-18 00:00:00.000000,0.75432697,1.19614959,1.76765413,166,264,390,87,154,254,0.39392219,0.69730156,1.15328866,0.55736799,1.11985675,3.34444265
19123,0,USIowaMahaska,Iowa,Mahaska,2021-04-04 10:57:18.760969,2021-02-19 00:00:00.000000,0.73109511,1.14924361,1.68183139,161,253,371,83,147,245,0.37711161,0.66654043,1.10916508,0.56855963,1.11210042,3.44294577
19123,0,USIowaMahaska,Iowa,Mahaska,2021-04-04 10:57:18.760969,2021-02-20 00:00:00.000000,0.70886139,1.10524219,1.59976158,156,244,353,79,141,235,0.36164019,0.64193067,1.06718351,0.56475975,1.11063638,3.59924511
19123,0,USIowaMahaska,Iowa,Mahaska,2021-04-04 10:57:18.760969,2021-02-21 00:00:00.000000,0.68172948,1.05727173,1.52600220,150,233,337,77,136,226,0.35035619,0.61826323,1.02713479,0.55094876,1.12878021,3.78355728
19123,0,USIowaMahaska,Iowa,Mahaska,2021-04-04 10:57:18.760969,2021-02-22 00:00:00.000000,0.65402923,1.01190969,1.46570990,144,223,323,75,131,218,0.33960133,0.59310338,0.98884610,0.54449209,1.14268388,3.94014462
19123,0,USIowaMahaska,Iowa,Mahaska,2021-04-04 10:57:18.760969,2021-02-23 00:00:00.000000,0.62593263,0.97413502,1.40763277,138,215,311,73,126,210,0.33258907,0.57376652,0.95127203,0.54778844,1.15985890,4.05181976
19123,0,USIowaMahaska,Iowa,Mahaska,2021-04-04 10:57:18.760969,2021-02-24 00:00:00.000000,0.59703772,0.93211856,1.34030771,131,205,296,72,121,202,0.32782777,0.55102131,0.91460056,0.55368348,1.16942913,4.15610602
19123,0,USIowaMahaska,Iowa,Mahaska,2021-04-04 10:57:18.760969,2021-02-25 00:00:00.000000,0.56760284,0.89385118,1.29310102,125,197,285,69,116,194,0.31529035,0.52812699,0.87897157,0.50984716,1.17578481,4.27645074
19123,0,USIowaMahaska,Iowa,Mahaska,2021-04-04 10:57:18.760969,2021-02-26 00:00:00.000000,0.53863444,0.86631185,1.24513839,119,191,275,66,111,186,0.30027121,0.50676844,0.84448314,0.49179593,1.17365920,4.35710752
19123,0,USIowaMahaska,Iowa,Mahaska,2021-04-04 10:57:18.760969,2021-02-27 00:00:00.000000,0.51125681,0.83718874,1.18884304,112,184,262,63,108,178,0.28563748,0.49014376,0.80929580,0.48844536,1.16086290,4.38846151
19123,0,USIowaMahaska,Iowa,Mahaska,2021-04-04 10:57:18.760969,2021-02-28 00:00:00.000000,0.49322990,0.80251432,1.13961557,108,177,251,60,104,169,0.27155988,0.47339347,0.76634400,0.48744068,1.14614708,4.39979132
19123,0,USIowaMahaska,Iowa,Mahaska,2021-04-04 10:57:18.760969,2021-03-01 00:00:00.000000,0.48505142,0.77633772,1.10924202,107,171,245,57,100,160,0.25811453,0.45578138,0.72611845,0.48748874,1.15483942,4.40519378
19123,0,USIowaMahaska,Iowa,Mahaska,2021-04-04 10:57:18.760969,2021-03-02 00:00:00.000000,0.47757389,0.76228487,1.07244659,105,168,236,54,97,153,0.24623531,0.44220283,0.69584254,0.48934187,1.16319138,4.40955275
19123,0,USIowaMahaska,Iowa,Mahaska,2021-04-04 10:57:18.760969,2021-03-03 00:00:00.000000,0.46355116,0.73470703,1.03655422,102,162,229,52,94,149,0.23809454,0.42825915,0.67652360,0.49788854,1.17164182,4.41542277
19123,0,USIowaMahaska,Iowa,Mahaska,2021-04-04 10:57:18.760969,2021-03-04 00:00:00.000000,0.44727264,0.70598304,1.00008307,98,155,220,52,90,143,0.23597713,0.41097566,0.64878544,0.51912934,1.19051531,4.42349088
19123,0,USIowaMahaska,Iowa,Mahaska,2021-04-04 10:57:18.760969,2021-03-05 00:00:00.000000,0.43203867,0.67571332,0.96402283,95,149,213,50,87,136,0.22932419,0.39509818,0.61956614,0.53723831,1.20823732,4.43068731
19123,0,USIowaMahaska,Iowa,Mahaska,2021-04-04 10:57:18.760969,2021-03-06 00:00:00.000000,0.41775119,0.64613853,0.92960464,92,142,205,50,83,130,0.22630983,0.37985286,0.59147130,0.53457462,1.21968072,4.43307583
19123,0,USIowaMahaska,Iowa,Mahaska,2021-04-04 10:57:18.760969,2021-03-07 00:00:00.000000,0.40433187,0.61919037,0.89698683,89,136,198,49,80,124,0.22370654,0.36619135,0.56469054,0.51276709,1.22005395,4.43148681
19123,0,USIowaMahaska,Iowa,Mahaska,2021-04-04 10:57:18.760969,2021-03-08 00:00:00.000000,0.39009059,0.59643639,0.85560400,86,131,189,48,77,119,0.22138390,0.35056167,0.53917661,0.49584064,1.21958531,4.29732369
19123,0,USIowaMahaska,Iowa,Mahaska,2021-04-04 10:57:18.760969,2021-03-09 00:00:00.000000,0.37566017,0.58421784,0.81631154,83,129,180,47,74,113,0.21573069,0.33726165,0.51357908,0.49688856,1.18371642,4.30113925
19123,0,USIowaMahaska,Iowa,Mahaska,2021-04-04 10:57:18.760969,2021-03-10 00:00:00.000000,0.36044042,0.56535076,0.77913868,79,124,172,46,71,110,0.20834533,0.32464648,0.49811086,0.51526270,1.13460435,4.30491150
19123,0,USIowaMahaska,Iowa,Mahaska,2021-04-04 10:57:18.760969,2021-03-11 00:00:00.000000,0.34620683,0.55197029,0.74437302,76,121,164,44,69,106,0.20138734,0.31268619,0.48081809,0.54399520,1.14483379,4.31167233
19123,0,USIowaMahaska,Iowa,Mahaska,2021-04-04 10:57:18.760969,2021-03-12 00:00:00.000000,0.33326090,0.53463683,0.71193768,73,118,157,43,66,102,0.19476077,0.30135094,0.46226664,0.52706779,1.17855034,4.32383463
19123,0,USIowaMahaska,Iowa,Mahaska,2021-04-04 10:57:18.760969,2021-03-13 00:00:00.000000,0.32954623,0.51599914,0.68441547,72,114,151,41,64,98,0.18743988,0.29175860,0.44554063,0.49136460,1.19373474,4.34259838
19123,0,USIowaMahaska,Iowa,Mahaska,2021-04-04 10:57:18.760969,2021-03-14 00:00:00.000000,0.31922759,0.49879062,0.66336370,70,110,146,39,62,95,0.18098111,0.28444206,0.43331958,0.47133341,1.19127934,4.57812053
19123,0,USIowaMahaska,Iowa,Mahaska,2021-04-04 10:57:18.760969,2021-03-15 00:00:00.000000,0.31488638,0.48519063,0.65776427,69,107,145,38,61,92,0.17310423,0.27625194,0.42071421,0.49095048,1.19209052,4.64324734
19123,0,USIowaMahaska,Iowa,Mahaska,2021-04-04 10:57:18.760969,2021-03-16 00:00:00.000000,0.31000928,0.47082196,0.63973003,68,104,141,36,59,90,0.16633640,0.26801816,0.40806967,0.50674365,1.19333913,4.70157598
19123,0,USIowaMahaska,Iowa,Mahaska,2021-04-04 10:57:18.760969,2021-03-17 00:00:00.000000,0.30097739,0.45539450,0.62211966,66,100,137,35,57,88,0.16044029,0.25844138,0.39871181,0.49888930,1.17638810,4.61719645
19123,0,USIowaMahaska,Iowa,Mahaska,2021-04-04 10:57:18.760969,2021-03-18 00:00:00.000000,0.28525553,0.44765148,0.61573487,63,98,136,34,55,85,0.15523724,0.24906881,0.38858500,0.49145991,1.18811366,4.50742114
19123,0,USIowaMahaska,Iowa,Mahaska,2021-04-04 10:57:18.760969,2021-03-19 00:00:00.000000,0.26993499,0.43147605,0.61397879,59,95,135,33,53,83,0.15059219,0.24019297,0.37846294,0.48342679,1.18234555,4.39902793
19123,0,USIowaMahaska,Iowa,Mahaska,2021-04-04 10:57:18.760969,2021-03-20 00:00:00.000000,0.25547800,0.41738397,0.61468851,56,92,135,32,51,81,0.14640258,0.23283314,0.36871705,0.48419528,1.20881354,4.31269651
19123,0,USIowaMahaska,Iowa,Mahaska,2021-04-04 10:57:18.760969,2021-03-21 00:00:00.000000,0.24763357,0.40402749,0.61617580,54,89,136,31,50,79,0.14259004,0.22660216,0.35920813,0.48402804,1.21831401,4.50710724
19123,0,USIowaMahaska,Iowa,Mahaska,2021-04-04 10:57:18.760969,2021-03-22 00:00:00.000000,0.24040101,0.39602923,0.60467512,53,87,133,30,48,77,0.13742842,0.22073297,0.35000015,0.48384893,1.21124201,4.58043595
19123,0,USIowaMahaska,Iowa,Mahaska,2021-04-04 10:57:18.760969,2021-03-23 00:00:00.000000,0.23969616,0.38695598,0.58863668,52,85,130,29,47,75,0.13136078,0.21373679,0.34246324,0.46647456,1.20862322,4.64932297
19123,0,USIowaMahaska,Iowa,Mahaska,2021-04-04 10:57:18.760969,2021-03-24 00:00:00.000000,0.23990546,0.37964913,0.57241365,53,83,126,27,45,74,0.12602948,0.20748344,0.33613396,0.45080552,1.21399221,4.64859242
19123,0,USIowaMahaska,Iowa,Mahaska,2021-04-04 10:57:18.760969,2021-03-25 00:00:00.000000,0.23379431,0.37218513,0.55633922,51,82,122,26,44,73,0.12145473,0.20268693,0.33069169,0.43872863,1.20671121,4.62987697
19123,0,USIowaMahaska,Iowa,Mahaska,2021-04-04 10:57:18.760969,2021-03-26 00:00:00.000000,0.22483617,0.35864576,0.54663578,49,79,120,25,43,72,0.11747456,0.19835123,0.32591349,0.43272290,1.20467092,4.58585713
19123,0,USIowaMahaska,Iowa,Mahaska,2021-04-04 10:57:18.760969,2021-03-27 00:00:00.000000,0.21638725,0.34804259,0.56753492,47,76,125,25,42,71,0.11395112,0.19428182,0.32164341,0.42938523,1.19390096,4.71834796
19123,0,USIowaMahaska,Iowa,Mahaska,2021-04-04 10:57:18.760969,2021-03-28 00:00:00.000000,0.20842317,0.33612478,0.57490238,46,74,127,24,42,71,0.11010001,0.19204526,0.32431613,0.42710126,1.22190706,4.66209252
19123,0,USIowaMahaska,Iowa,Mahaska,2021-04-04 10:57:18.760969,2021-03-29 00:00:00.000000,0.19712643,0.31883482,0.55148087,43,70,121,23,41,71,0.10601426,0.18927519,0.32179756,0.42634186,1.24141816,4.83465285
19123,0,USIowaMahaska,Iowa,Mahaska,2021-04-04 10:57:18.760969,2021-03-30 00:00:00.000000,0.18626539,0.30211062,0.52819587,41,66,116,22,40,68,0.10128479,0.18292145,0.31064555,0.42813330,1.24909106,4.80716949
19123,0,USIowaMahaska,Iowa,Mahaska,2021-04-04 10:57:18.760969,2021-03-31 00:00:00.000000,0.17573655,0.28579682,0.50469559,38,63,111,21,38,65,0.09628017,0.17483401,0.29723145,0.43372540,1.23913244,4.76849426
19123,0,USIowaMahaska,Iowa,Mahaska,2021-04-04 10:57:18.760969,2021-04-01 00:00:00.000000,0.16562810,0.27032257,0.48142599,36,59,106,20,36,63,0.09122303,0.16513881,0.28563116,0.44220549,1.18353570,4.81656333
19123,0,USIowaMahaska,Iowa,Mahaska,2021-04-04 10:57:18.760969,2021-04-02 00:00:00.000000,0.15498082,0.25362347,0.45866955,34,56,101,19,34,60,0.08624545,0.15437804,0.27320193,0.44987709,1.12808977,5.00547549
19123,0,USIowaMahaska,Iowa,Mahaska,2021-04-04 10:57:18.760969,2021-04-03 00:00:00.000000,0.14380230,0.23933404,0.43660013,31,52,96,17,31,57,0.07961162,0.14364459,0.26044006,0.46621012,1.09674733,4.98084116
19123,0,USIowaMahaska,Iowa,Mahaska,2021-04-04 10:57:18.760969,2021-04-04 00:00:00.000000,0.13331772,0.22595353,0.41531943,29,49,91,16,29,54,0.07458949,0.13345196,0.24817828,0.48050301,1.07926034,5.07607867
19123,0,USIowaMahaska,Iowa,Mahaska,2021-04-04 10:57:18.760969,2021-04-05 00:00:00.000000,0.12343521,0.21256591,0.39488132,27,46,87,15,27,52,0.07024277,0.12452849,0.23670785,0.48797857,1.08282054,5.21355816
19123,0,USIowaMahaska,Iowa,Mahaska,2021-04-04 10:57:18.760969,2021-04-06 00:00:00.000000,0.11418993,0.19981784,0.37530813,25,44,82,14,26,49,0.06532760,0.11806240,0.22550845,0.49257279,1.08352271,5.28923270
19123,0,USIowaMahaska,Iowa,Mahaska,2021-04-04 10:57:18.760969,2021-04-07 00:00:00.000000,0.10558947,0.18795705,0.35660145,23,41,78,13,25,47,0.06070359,0.11344441,0.21465627,0.49092708,1.08365382,5.32348372
19123,0,USIowaMahaska,Iowa,Mahaska,2021-04-04 10:57:18.760969,2021-04-08 00:00:00.000000,0.09760307,0.17739600,0.33874949,21,39,74,12,23,45,0.05708316,0.10741123,0.20419591,0.49004452,1.08367800,5.33759544
19123,0,USIowaMahaska,Iowa,Mahaska,2021-04-04 10:57:18.760969,2021-04-09 00:00:00.000000,0.09022756,0.16739462,0.32055431,19,36,70,11,22,42,0.05276609,0.10052389,0.19415088,0.48957887,1.06839572,5.34318274
19123,0,USIowaMahaska,Iowa,Mahaska,2021-04-04 10:57:18.760969,2021-04-10 00:00:00.000000,0.08344509,0.15776675,0.30308102,18,34,66,10,20,40,0.04810804,0.09399986,0.18453064,0.48933526,1.06408706,5.34536024
19123,0,USIowaMahaska,Iowa,Mahaska,2021-04-04 10:57:18.760969,2021-04-11 00:00:00.000000,0.07716154,0.14801570,0.28651880,17,32,63,9,19,38,0.04518877,0.08784318,0.17533530,0.48920835,1.06299221,5.34620374
19123,0,USIowaMahaska,Iowa,Mahaska,2021-04-04 10:57:18.760969,2021-04-12 00:00:00.000000,0.07134322,0.13862734,0.27082836,15,30,59,9,18,36,0.04249711,0.08205026,0.16655888,0.48914236,1.06271849,5.34652976
19123,0,USIowaMahaska,Iowa,Mahaska,2021-04-04 10:57:18.760969,2021-04-13 00:00:00.000000,0.06595790,0.13032810,0.25596983,14,28,56,8,16,34,0.03997983,0.07674321,0.15819143,0.48910806,1.06265034,5.34665567
19123,0,USIowaMahaska,Iowa,Mahaska,2021-04-04 10:57:18.760969,2021-04-14 00:00:00.000000,0.06097495,0.12161477,0.24190362,13,26,53,8,15,33,0.03761935,0.07205243,0.15022054,0.48909024,1.06263339,5.34670428
19123,0,USIowaMahaska,Iowa,Mahaska,2021-04-04 10:57:18.760969,2021-04-15 00:00:00.000000,0.05712686,0.11290916,0.22859099,12,24,50,7,15,31,0.03540236,0.06806233,0.14263229,0.48908096,1.06262917,5.34672305
19123,0,USIowaMahaska,Iowa,Mahaska,2021-04-04 10:57:18.760969,2021-04-16 00:00:00.000000,0.05253122,0.10482154,0.21599438,11,23,47,7,14,29,0.03331817,0.06418789,0.13541197,0.48907613,1.06262812,5.34673030
