FIPS,HR_UID,nameid,province,region,analysisTime,dates,pointprevalence_025,pointprevalence_50,pointprevalence_975,pointinfections_025,pointinfections_50,pointinfections_975,pointinfectious_025,pointinfectious_50,pointinfectious_975,pointinfectiousprevalence_05,pointinfectiousprevalence_50,pointinfectiousprevalence_95,infectrate_025,infectrate_50,infectrate_975
29009,0,USMissouriBarry,Missouri,Barry,2021-04-04 08:07:48.672294,2020-03-09 00:00:00.000000,0.00076588,0.00724869,0.02568697,0,2,9,0,1,5,0.00042048,0.00423010,0.01558630,0.35766510,0.46203952,0.60377609
29009,0,USMissouriBarry,Missouri,Barry,2021-04-04 08:07:48.672294,2020-03-10 00:00:00.000000,0.00082345,0.00780007,0.02713935,0,2,9,0,1,5,0.00043657,0.00445077,0.01626498,0.35760853,0.46203952,0.60282220
29009,0,USMissouriBarry,Missouri,Barry,2021-04-04 08:07:48.672294,2020-03-11 00:00:00.000000,0.00088938,0.00838659,0.02849878,0,3,10,0,1,6,0.00047799,0.00481410,0.01798412,0.35744525,0.46203951,0.60273630
29009,0,USMissouriBarry,Missouri,Barry,2021-04-04 08:07:48.672294,2020-03-12 00:00:00.000000,0.00092724,0.00891668,0.02986941,0,3,10,0,1,6,0.00052527,0.00526891,0.01888438,0.35697575,0.46203948,0.60256465
29009,0,USMissouriBarry,Missouri,Barry,2021-04-04 08:07:48.672294,2020-03-13 00:00:00.000000,0.00096969,0.00953905,0.03128707,0,3,11,0,2,7,0.00056854,0.00575512,0.01978604,0.35564001,0.46203932,0.60222178
29009,0,USMissouriBarry,Missouri,Barry,2021-04-04 08:07:48.672294,2020-03-14 00:00:00.000000,0.00101900,0.01024137,0.03276473,0,3,11,0,2,7,0.00062040,0.00632009,0.02071817,0.35195220,0.46183564,0.60153768
29009,0,USMissouriBarry,Missouri,Barry,2021-04-04 08:07:48.672294,2020-03-15 00:00:00.000000,0.00110274,0.01098864,0.03435522,0,3,12,0,2,7,0.00068183,0.00692226,0.02199519,0.34256170,0.45812448,0.60017635
29009,0,USMissouriBarry,Missouri,Barry,2021-04-04 08:07:48.672294,2020-03-16 00:00:00.000000,0.00347511,0.01515354,0.04022846,1,5,14,0,2,8,0.00074197,0.00758531,0.02308522,0.33028887,0.45158918,0.59748246
29009,0,USMissouriBarry,Missouri,Barry,2021-04-04 08:07:48.672294,2020-03-17 00:00:00.000000,0.00588593,0.01958852,0.04503201,2,7,16,0,3,9,0.00197421,0.00953822,0.02553143,0.29333203,0.43580426,0.59221200
29009,0,USMissouriBarry,Missouri,Barry,2021-04-04 08:07:48.672294,2020-03-18 00:00:00.000000,0.00861258,0.02337136,0.05163472,3,8,18,1,4,10,0.00362857,0.01257962,0.02954258,0.26574123,0.42023435,0.58212939
29009,0,USMissouriBarry,Missouri,Barry,2021-04-04 08:07:48.672294,2020-03-19 00:00:00.000000,0.01162794,0.02764711,0.06100050,4,9,21,1,5,12,0.00557827,0.01559617,0.03468621,0.25175166,0.40785792,0.57209745
29009,0,USMissouriBarry,Missouri,Barry,2021-04-04 08:07:48.672294,2020-03-20 00:00:00.000000,0.01491912,0.03348918,0.06907101,5,11,24,2,6,14,0.00777281,0.01928281,0.04060403,0.24172975,0.38878165,0.56099276
29009,0,USMissouriBarry,Missouri,Barry,2021-04-04 08:07:48.672294,2020-03-21 00:00:00.000000,0.01848394,0.03940875,0.07864100,6,14,28,3,8,16,0.01019340,0.02304743,0.04686876,0.22086282,0.37384469,0.54329433
29009,0,USMissouriBarry,Missouri,Barry,2021-04-04 08:07:48.672294,2020-03-22 00:00:00.000000,0.02213673,0.04516905,0.08646326,7,16,30,4,9,18,0.01254889,0.02650114,0.05273395,0.20766071,0.34046909,0.53481913
29009,0,USMissouriBarry,Missouri,Barry,2021-04-04 08:07:48.672294,2020-03-23 00:00:00.000000,0.02505350,0.04919565,0.09412426,8,17,33,5,10,21,0.01471306,0.03002983,0.05895583,0.20171534,0.31463499,0.50195516
29009,0,USMissouriBarry,Missouri,Barry,2021-04-04 08:07:48.672294,2020-03-24 00:00:00.000000,0.02801466,0.05618610,0.10822658,10,20,38,5,12,23,0.01671616,0.03408335,0.06490844,0.19896439,0.29810061,0.45566753
29009,0,USMissouriBarry,Missouri,Barry,2021-04-04 08:07:48.672294,2020-03-25 00:00:00.000000,0.03073827,0.06122764,0.12052992,11,21,43,6,13,26,0.01863753,0.03770544,0.07426363,0.19562109,0.28411912,0.44372084
29009,0,USMissouriBarry,Missouri,Barry,2021-04-04 08:07:48.672294,2020-03-26 00:00:00.000000,0.03422435,0.06541878,0.12483280,12,23,44,7,14,28,0.02054823,0.04147935,0.07895189,0.18794747,0.26981163,0.37274422
29009,0,USMissouriBarry,Missouri,Barry,2021-04-04 08:07:48.672294,2020-03-27 00:00:00.000000,0.03672658,0.06857066,0.12756930,13,24,45,8,15,29,0.02294860,0.04425321,0.08236722,0.17894832,0.25590669,0.35791279
29009,0,USMissouriBarry,Missouri,Barry,2021-04-04 08:07:48.672294,2020-03-28 00:00:00.000000,0.03854156,0.07187618,0.12903269,13,25,46,8,17,30,0.02431837,0.04778170,0.08552036,0.16679621,0.23231661,0.35558046
29009,0,USMissouriBarry,Missouri,Barry,2021-04-04 08:07:48.672294,2020-03-29 00:00:00.000000,0.04019838,0.07588948,0.13146475,14,27,47,9,18,31,0.02551479,0.05076069,0.08899396,0.16179903,0.22179888,0.33653729
29009,0,USMissouriBarry,Missouri,Barry,2021-04-04 08:07:48.672294,2020-03-30 00:00:00.000000,0.04236351,0.07945168,0.13570603,15,28,48,9,18,32,0.02587512,0.05291017,0.09184857,0.15823335,0.20797574,0.32991932
29009,0,USMissouriBarry,Missouri,Barry,2021-04-04 08:07:48.672294,2020-03-31 00:00:00.000000,0.04362940,0.08128594,0.14157274,15,29,50,9,19,33,0.02700183,0.05561128,0.09314796,0.14939247,0.19739107,0.32413673
29009,0,USMissouriBarry,Missouri,Barry,2021-04-04 08:07:48.672294,2020-04-01 00:00:00.000000,0.04450347,0.08331784,0.14545683,15,29,52,10,20,34,0.02834043,0.05611075,0.09568034,0.14004882,0.18932160,0.31170957
29009,0,USMissouriBarry,Missouri,Barry,2021-04-04 08:07:48.672294,2020-04-02 00:00:00.000000,0.04535666,0.08513268,0.15322203,16,30,54,10,20,35,0.02972828,0.05794321,0.10044479,0.13474588,0.18607623,0.30077056
29009,0,USMissouriBarry,Missouri,Barry,2021-04-04 08:07:48.672294,2020-04-03 00:00:00.000000,0.04618186,0.08786961,0.16458155,16,31,58,11,21,37,0.03112909,0.05964104,0.10489520,0.12230478,0.18265685,0.29133894
29009,0,USMissouriBarry,Missouri,Barry,2021-04-04 08:07:48.672294,2020-04-04 00:00:00.000000,0.04701738,0.08902816,0.17441272,16,31,62,11,21,39,0.03231243,0.06113823,0.10995461,0.11576715,0.17655852,0.27294678
29009,0,USMissouriBarry,Missouri,Barry,2021-04-04 08:07:48.672294,2020-04-05 00:00:00.000000,0.04791389,0.09065488,0.17801622,17,32,63,11,22,40,0.03288874,0.06152868,0.11410382,0.11123633,0.16787766,0.25468954
29009,0,USMissouriBarry,Missouri,Barry,2021-04-04 08:07:48.672294,2020-04-06 00:00:00.000000,0.05295815,0.09139762,0.18269030,18,32,65,11,22,41,0.03351488,0.06423210,0.11698383,0.10297598,0.16223418,0.24628750
29009,0,USMissouriBarry,Missouri,Barry,2021-04-04 08:07:48.672294,2020-04-07 00:00:00.000000,0.05764526,0.09442323,0.18615280,20,33,66,12,23,42,0.03439090,0.06633094,0.11995301,0.09660480,0.15946267,0.23750600
29009,0,USMissouriBarry,Missouri,Barry,2021-04-04 08:07:48.672294,2020-04-08 00:00:00.000000,0.05737585,0.09532470,0.18581854,20,34,66,12,24,43,0.03535111,0.06759021,0.12255860,0.09252946,0.15433021,0.22894525
29009,0,USMissouriBarry,Missouri,Barry,2021-04-04 08:07:48.672294,2020-04-09 00:00:00.000000,0.05705892,0.09630293,0.18487674,20,34,66,13,24,44,0.03775915,0.06947842,0.12459794,0.09052075,0.14655203,0.22692165
29009,0,USMissouriBarry,Missouri,Barry,2021-04-04 08:07:48.672294,2020-04-10 00:00:00.000000,0.05597070,0.09802698,0.18554431,20,35,66,14,25,45,0.03924129,0.07189463,0.12719455,0.08986153,0.14593678,0.22017519
29009,0,USMissouriBarry,Missouri,Barry,2021-04-04 08:07:48.672294,2020-04-11 00:00:00.000000,0.05534338,0.09993862,0.18343611,19,35,65,13,25,45,0.03849637,0.07237693,0.12647059,0.08788558,0.14208692,0.20318941
29009,0,USMissouriBarry,Missouri,Barry,2021-04-04 08:07:48.672294,2020-04-12 00:00:00.000000,0.05599461,0.10106083,0.18896283,20,36,67,13,25,45,0.03871466,0.07213215,0.12607478,0.08531809,0.13681422,0.20082505
29009,0,USMissouriBarry,Missouri,Barry,2021-04-04 08:07:48.672294,2020-04-13 00:00:00.000000,0.05753069,0.10238167,0.18051561,20,36,64,13,26,44,0.03870352,0.07310135,0.12560621,0.08360059,0.13317806,0.19646012
29009,0,USMissouriBarry,Missouri,Barry,2021-04-04 08:07:48.672294,2020-04-14 00:00:00.000000,0.05709582,0.10292933,0.17226974,20,36,61,13,26,44,0.03889399,0.07319780,0.12408397,0.08337420,0.13035041,0.19222283
29009,0,USMissouriBarry,Missouri,Barry,2021-04-04 08:07:48.672294,2020-04-15 00:00:00.000000,0.05717624,0.10212758,0.17278810,20,36,61,14,26,43,0.03952614,0.07329826,0.12131785,0.08348410,0.12776572,0.18992003
29009,0,USMissouriBarry,Missouri,Barry,2021-04-04 08:07:48.672294,2020-04-16 00:00:00.000000,0.05808454,0.10142144,0.17549776,20,36,62,14,26,44,0.03975711,0.07334878,0.12343510,0.08367084,0.12458672,0.18244295
29009,0,USMissouriBarry,Missouri,Barry,2021-04-04 08:07:48.672294,2020-04-17 00:00:00.000000,0.05504392,0.10081495,0.17621351,19,36,63,14,25,45,0.03948328,0.07131580,0.12706397,0.07864154,0.12148077,0.18051305
29009,0,USMissouriBarry,Missouri,Barry,2021-04-04 08:07:48.672294,2020-04-18 00:00:00.000000,0.05349610,0.09892443,0.17684937,19,35,63,13,25,45,0.03852037,0.07114129,0.12774948,0.07691674,0.11747182,0.18012062
29009,0,USMissouriBarry,Missouri,Barry,2021-04-04 08:07:48.672294,2020-04-19 00:00:00.000000,0.05266423,0.09815798,0.17751526,18,35,63,13,25,46,0.03789542,0.07153697,0.12920732,0.07640578,0.11528915,0.17881160
29009,0,USMissouriBarry,Missouri,Barry,2021-04-04 08:07:48.672294,2020-04-20 00:00:00.000000,0.05455365,0.09749399,0.17797169,19,34,63,13,25,46,0.03728235,0.07053730,0.13008308,0.07554147,0.11174716,0.17673854
29009,0,USMissouriBarry,Missouri,Barry,2021-04-04 08:07:48.672294,2020-04-21 00:00:00.000000,0.05646351,0.09845025,0.17791150,20,35,63,13,24,46,0.03789727,0.06950095,0.13060805,0.07002008,0.11021992,0.17159922
29009,0,USMissouriBarry,Missouri,Barry,2021-04-04 08:07:48.672294,2020-04-22 00:00:00.000000,0.05738996,0.09805526,0.17747322,20,35,63,13,24,46,0.03903700,0.06927049,0.13079536,0.06712341,0.10937703,0.16984280
29009,0,USMissouriBarry,Missouri,Barry,2021-04-04 08:07:48.672294,2020-04-23 00:00:00.000000,0.05668323,0.09878347,0.17672488,20,35,63,14,25,46,0.03919665,0.07031810,0.13069032,0.06671738,0.10865943,0.16914992
29009,0,USMissouriBarry,Missouri,Barry,2021-04-04 08:07:48.672294,2020-04-24 00:00:00.000000,0.05435177,0.09864858,0.17310713,19,35,61,14,25,46,0.03992013,0.07026850,0.13033637,0.06644842,0.10664590,0.16570203
29009,0,USMissouriBarry,Missouri,Barry,2021-04-04 08:07:48.672294,2020-04-25 00:00:00.000000,0.05301075,0.09883408,0.16716163,18,35,59,13,24,45,0.03812056,0.06895247,0.12586852,0.06632830,0.10598764,0.16247967
29009,0,USMissouriBarry,Missouri,Barry,2021-04-04 08:07:48.672294,2020-04-26 00:00:00.000000,0.05179584,0.09892759,0.16168313,18,35,57,12,24,43,0.03630944,0.06880605,0.12161955,0.06612373,0.10335783,0.15849936
29009,0,USMissouriBarry,Missouri,Barry,2021-04-04 08:07:48.672294,2020-04-27 00:00:00.000000,0.05051684,0.09808533,0.15921420,18,35,56,12,24,44,0.03507927,0.06806847,0.12472686,0.06479629,0.10337619,0.15488864
29009,0,USMissouriBarry,Missouri,Barry,2021-04-04 08:07:48.672294,2020-04-28 00:00:00.000000,0.04855893,0.09732807,0.15750828,17,34,56,12,23,44,0.03423656,0.06671162,0.12515517,0.05864703,0.10141831,0.15425883
29009,0,USMissouriBarry,Missouri,Barry,2021-04-04 08:07:48.672294,2020-04-29 00:00:00.000000,0.04687712,0.09486053,0.15534308,16,33,55,11,24,43,0.03352833,0.06783786,0.12214496,0.05847364,0.10166939,0.15531312
29009,0,USMissouriBarry,Missouri,Barry,2021-04-04 08:07:48.672294,2020-04-30 00:00:00.000000,0.04620276,0.09442847,0.15129175,16,33,54,11,23,42,0.03224628,0.06655111,0.11826575,0.05874630,0.10227542,0.15756571
29009,0,USMissouriBarry,Missouri,Barry,2021-04-04 08:07:48.672294,2020-05-01 00:00:00.000000,0.04540763,0.09325654,0.14614242,16,33,52,11,23,40,0.03178075,0.06673325,0.11435585,0.05947681,0.10047832,0.15492220
29009,0,USMissouriBarry,Missouri,Barry,2021-04-04 08:07:48.672294,2020-05-02 00:00:00.000000,0.04357753,0.09089053,0.14757894,15,32,52,11,23,39,0.03137746,0.06459995,0.11055148,0.05983619,0.10032724,0.15705335
29009,0,USMissouriBarry,Missouri,Barry,2021-04-04 08:07:48.672294,2020-05-03 00:00:00.000000,0.04187989,0.08993311,0.14706878,14,32,52,10,22,39,0.03048371,0.06229219,0.10923135,0.05990759,0.10041554,0.15817242
29009,0,USMissouriBarry,Missouri,Barry,2021-04-04 08:07:48.672294,2020-05-04 00:00:00.000000,0.04063053,0.08934402,0.14337930,14,31,51,10,21,40,0.02928195,0.06070554,0.11190629,0.05992112,0.10151978,0.15885407
29009,0,USMissouriBarry,Missouri,Barry,2021-04-04 08:07:48.672294,2020-05-05 00:00:00.000000,0.04067522,0.08873570,0.14531416,14,31,52,10,22,39,0.02832390,0.06150905,0.11107231,0.05992501,0.10016593,0.15920287
29009,0,USMissouriBarry,Missouri,Barry,2021-04-04 08:07:48.672294,2020-05-06 00:00:00.000000,0.03937341,0.08810674,0.14216839,14,31,50,9,22,39,0.02752350,0.06160572,0.10902292,0.05918816,0.10088929,0.15933787
29009,0,USMissouriBarry,Missouri,Barry,2021-04-04 08:07:48.672294,2020-05-07 00:00:00.000000,0.03938100,0.08755010,0.14537169,14,31,52,9,21,38,0.02708098,0.06077449,0.10706887,0.05741257,0.10188617,0.15941649
29009,0,USMissouriBarry,Missouri,Barry,2021-04-04 08:07:48.672294,2020-05-08 00:00:00.000000,0.03809296,0.08671045,0.15030432,13,31,53,9,21,38,0.02711300,0.06057490,0.10856777,0.05586530,0.10298492,0.15947683
29009,0,USMissouriBarry,Missouri,Barry,2021-04-04 08:07:48.672294,2020-05-09 00:00:00.000000,0.03686856,0.08736285,0.15509096,13,31,55,9,21,40,0.02629828,0.06121969,0.11186782,0.05436854,0.10128673,0.15677876
29009,0,USMissouriBarry,Missouri,Barry,2021-04-04 08:07:48.672294,2020-05-10 00:00:00.000000,0.03572224,0.08632477,0.15975439,12,30,57,9,21,41,0.02554464,0.06138418,0.11544530,0.05378802,0.10207872,0.15227789
29009,0,USMissouriBarry,Missouri,Barry,2021-04-04 08:07:48.672294,2020-05-11 00:00:00.000000,0.03859876,0.08602287,0.15774603,13,30,56,8,21,42,0.02484161,0.06119154,0.11894115,0.05402814,0.10212975,0.15195850
29009,0,USMissouriBarry,Missouri,Barry,2021-04-04 08:07:48.672294,2020-05-12 00:00:00.000000,0.03983102,0.08677412,0.15375449,14,31,55,9,22,42,0.02536048,0.06155409,0.11866199,0.05395868,0.10191395,0.14952448
29009,0,USMissouriBarry,Missouri,Barry,2021-04-04 08:07:48.672294,2020-05-13 00:00:00.000000,0.04113399,0.08756139,0.14941541,14,31,53,9,21,41,0.02623866,0.06062523,0.11662424,0.05407063,0.10132446,0.14080366
29009,0,USMissouriBarry,Missouri,Barry,2021-04-04 08:07:48.672294,2020-05-14 00:00:00.000000,0.04230700,0.08758954,0.14509169,15,31,51,9,21,40,0.02712578,0.06145696,0.11399559,0.05384109,0.10055988,0.14059353
29009,0,USMissouriBarry,Missouri,Barry,2021-04-04 08:07:48.672294,2020-05-15 00:00:00.000000,0.04265403,0.08774573,0.14092332,15,31,50,9,22,39,0.02791003,0.06170789,0.11114136,0.05398773,0.10200160,0.14043368
29009,0,USMissouriBarry,Missouri,Barry,2021-04-04 08:07:48.672294,2020-05-16 00:00:00.000000,0.04146629,0.08817805,0.13703286,14,31,49,10,22,38,0.02859122,0.06218874,0.10824671,0.05520240,0.10259960,0.14724253
29009,0,USMissouriBarry,Missouri,Barry,2021-04-04 08:07:48.672294,2020-05-17 00:00:00.000000,0.04041368,0.08726728,0.13777913,14,31,49,10,22,37,0.02805815,0.06185929,0.10540709,0.05590080,0.10269998,0.14673431
29009,0,USMissouriBarry,Missouri,Barry,2021-04-04 08:07:48.672294,2020-05-18 00:00:00.000000,0.04405912,0.08614516,0.13412592,15,30,48,9,22,36,0.02730744,0.06149765,0.10276042,0.05614817,0.10161373,0.15444960
29009,0,USMissouriBarry,Missouri,Barry,2021-04-04 08:07:48.672294,2020-05-19 00:00:00.000000,0.04631300,0.08471209,0.13418518,16,30,48,10,21,36,0.02909977,0.06128701,0.10166668,0.05629126,0.10155038,0.15615157
29009,0,USMissouriBarry,Missouri,Barry,2021-04-04 08:07:48.672294,2020-05-20 00:00:00.000000,0.04552079,0.08351833,0.13514083,16,29,48,11,21,36,0.03117052,0.05986308,0.10137206,0.05641520,0.09963475,0.15731228
29009,0,USMissouriBarry,Missouri,Barry,2021-04-04 08:07:48.672294,2020-05-21 00:00:00.000000,0.04577502,0.08343062,0.14050309,16,29,50,11,21,36,0.03112528,0.05874981,0.10302565,0.05660091,0.10073896,0.15782345
29009,0,USMissouriBarry,Missouri,Barry,2021-04-04 08:07:48.672294,2020-05-22 00:00:00.000000,0.04503439,0.08332339,0.14596852,16,29,52,10,21,36,0.03070949,0.05990988,0.10204662,0.05695689,0.10046401,0.15822808
29009,0,USMissouriBarry,Missouri,Barry,2021-04-04 08:07:48.672294,2020-05-23 00:00:00.000000,0.04522447,0.08211764,0.15160852,16,29,54,11,21,37,0.03118188,0.05906615,0.10567479,0.05765534,0.09909043,0.15874919
29009,0,USMissouriBarry,Missouri,Barry,2021-04-04 08:07:48.672294,2020-05-24 00:00:00.000000,0.04327183,0.08096496,0.16009919,15,28,57,11,20,40,0.03127249,0.05819213,0.11257412,0.05779009,0.09639516,0.17256268
29009,0,USMissouriBarry,Missouri,Barry,2021-04-04 08:07:48.672294,2020-05-25 00:00:00.000000,0.04518258,0.08198810,0.15535744,16,29,55,11,20,42,0.03112307,0.05783258,0.11894368,0.04925330,0.09969669,0.17293252
29009,0,USMissouriBarry,Missouri,Barry,2021-04-04 08:07:48.672294,2020-05-26 00:00:00.000000,0.04590183,0.08404173,0.15062972,16,30,53,10,20,41,0.03009235,0.05847139,0.11694916,0.04400370,0.10000162,0.17424600
29009,0,USMissouriBarry,Missouri,Barry,2021-04-04 08:07:48.672294,2020-05-27 00:00:00.000000,0.04823844,0.08652687,0.15101839,17,30,54,11,21,40,0.03114489,0.05971204,0.11276825,0.04391849,0.10222414,0.17898645
29009,0,USMissouriBarry,Missouri,Barry,2021-04-04 08:07:48.672294,2020-05-28 00:00:00.000000,0.04890283,0.08605272,0.14960968,17,30,53,11,21,39,0.03259695,0.05960621,0.11092405,0.04467376,0.10346568,0.18332238
29009,0,USMissouriBarry,Missouri,Barry,2021-04-04 08:07:48.672294,2020-05-29 00:00:00.000000,0.04942684,0.08652138,0.14990169,17,30,53,11,21,40,0.03304055,0.05980616,0.11294080,0.04508838,0.10636060,0.18446323
29009,0,USMissouriBarry,Missouri,Barry,2021-04-04 08:07:48.672294,2020-05-30 00:00:00.000000,0.04924646,0.08751978,0.15272447,17,31,54,11,21,39,0.03347323,0.06082558,0.11129391,0.04539074,0.10827662,0.18504376
29009,0,USMissouriBarry,Missouri,Barry,2021-04-04 08:07:48.672294,2020-05-31 00:00:00.000000,0.04911597,0.08756346,0.15611766,17,31,55,12,21,39,0.03389140,0.06098643,0.10978479,0.04574006,0.10901386,0.18618753
29009,0,USMissouriBarry,Missouri,Barry,2021-04-04 08:07:48.672294,2020-06-01 00:00:00.000000,0.04837795,0.08770035,0.15053640,17,31,53,12,21,38,0.03380708,0.06026663,0.10872732,0.04617596,0.10903433,0.18096800
29009,0,USMissouriBarry,Missouri,Barry,2021-04-04 08:07:48.672294,2020-06-02 00:00:00.000000,0.04768484,0.08762907,0.14786792,17,31,52,11,21,38,0.03342368,0.06132151,0.10862516,0.04667668,0.11066473,0.18831853
29009,0,USMissouriBarry,Missouri,Barry,2021-04-04 08:07:48.672294,2020-06-03 00:00:00.000000,0.04700454,0.08783497,0.15427787,16,31,55,11,21,39,0.03295595,0.06087881,0.10943083,0.04717767,0.11154223,0.19837400
29009,0,USMissouriBarry,Missouri,Barry,2021-04-04 08:07:48.672294,2020-06-04 00:00:00.000000,0.04637191,0.08728874,0.16022950,16,31,57,11,21,39,0.03248483,0.06101633,0.11052406,0.04763164,0.10911108,0.19836995
29009,0,USMissouriBarry,Missouri,Barry,2021-04-04 08:07:48.672294,2020-06-05 00:00:00.000000,0.04580181,0.08706242,0.16586080,16,31,59,11,22,42,0.03204134,0.06169933,0.11759104,0.04858593,0.10856994,0.19321306
29009,0,USMissouriBarry,Missouri,Barry,2021-04-04 08:07:48.672294,2020-06-06 00:00:00.000000,0.04530401,0.08716175,0.17144569,16,31,61,11,22,44,0.03163798,0.06341620,0.12558599,0.05104660,0.10909015,0.19467483
29009,0,USMissouriBarry,Missouri,Barry,2021-04-04 08:07:48.672294,2020-06-07 00:00:00.000000,0.04488860,0.08873087,0.17277982,16,31,61,11,22,45,0.03128184,0.06375546,0.12702762,0.05084764,0.10988776,0.19369870
29009,0,USMissouriBarry,Missouri,Barry,2021-04-04 08:07:48.672294,2020-06-08 00:00:00.000000,0.04439523,0.08932196,0.17334994,15,31,62,11,22,45,0.03096166,0.06404881,0.12656209,0.05091717,0.11166772,0.19340927
29009,0,USMissouriBarry,Missouri,Barry,2021-04-04 08:07:48.672294,2020-06-09 00:00:00.000000,0.04606782,0.09137403,0.17402666,16,32,62,10,23,44,0.03065255,0.06550326,0.12537426,0.05128491,0.11221999,0.19369645
29009,0,USMissouriBarry,Missouri,Barry,2021-04-04 08:07:48.672294,2020-06-10 00:00:00.000000,0.04650267,0.09302470,0.17486241,16,33,62,11,23,46,0.03080502,0.06501009,0.12937564,0.05191494,0.11589676,0.19496646
29009,0,USMissouriBarry,Missouri,Barry,2021-04-04 08:07:48.672294,2020-06-11 00:00:00.000000,0.04644131,0.09449977,0.17536149,16,33,62,11,23,46,0.03216338,0.06570580,0.13131423,0.05234732,0.11735218,0.19846224
29009,0,USMissouriBarry,Missouri,Barry,2021-04-04 08:07:48.672294,2020-06-12 00:00:00.000000,0.04664079,0.09603190,0.17577945,16,34,62,11,23,47,0.03273568,0.06586531,0.13178606,0.05250317,0.11778085,0.20519523
29009,0,USMissouriBarry,Missouri,Barry,2021-04-04 08:07:48.672294,2020-06-13 00:00:00.000000,0.04688333,0.09617047,0.17568599,16,34,62,11,23,47,0.03285205,0.06650354,0.13204040,0.05256466,0.12110797,0.21298015
29009,0,USMissouriBarry,Missouri,Barry,2021-04-04 08:07:48.672294,2020-06-14 00:00:00.000000,0.04714947,0.09767673,0.17993557,16,34,64,11,24,48,0.03300232,0.06790155,0.13668041,0.05263315,0.12472571,0.22184239
29009,0,USMissouriBarry,Missouri,Barry,2021-04-04 08:07:48.672294,2020-06-15 00:00:00.000000,0.04912651,0.10274152,0.18512026,17,36,66,11,24,48,0.03317552,0.06968276,0.13691261,0.05281846,0.12661455,0.22215487
29009,0,USMissouriBarry,Missouri,Barry,2021-04-04 08:07:48.672294,2020-06-16 00:00:00.000000,0.05128162,0.10248216,0.18442435,18,36,66,12,25,48,0.03442038,0.07042289,0.13555863,0.05462348,0.12661073,0.22216283
29009,0,USMissouriBarry,Missouri,Barry,2021-04-04 08:07:48.672294,2020-06-17 00:00:00.000000,0.05234038,0.10222427,0.18759360,18,36,67,12,26,49,0.03580024,0.07356751,0.13929127,0.06285115,0.12806116,0.22212384
29009,0,USMissouriBarry,Missouri,Barry,2021-04-04 08:07:48.672294,2020-06-18 00:00:00.000000,0.05418754,0.10592139,0.20134903,19,37,72,12,26,49,0.03570994,0.07406231,0.13701509,0.06747192,0.12860709,0.22328917
29009,0,USMissouriBarry,Missouri,Barry,2021-04-04 08:07:48.672294,2020-06-19 00:00:00.000000,0.05692034,0.10630767,0.21294556,20,38,76,13,26,52,0.03666999,0.07291640,0.14543446,0.06675296,0.13162701,0.22516296
29009,0,USMissouriBarry,Missouri,Barry,2021-04-04 08:07:48.672294,2020-06-20 00:00:00.000000,0.05842355,0.10835606,0.22533256,20,38,80,13,27,54,0.03811438,0.07611321,0.15203895,0.06685852,0.13593512,0.23463287
29009,0,USMissouriBarry,Missouri,Barry,2021-04-04 08:07:48.672294,2020-06-21 00:00:00.000000,0.05691417,0.11296533,0.23737941,20,40,84,13,27,57,0.03889620,0.07702088,0.16104135,0.06688979,0.13930102,0.24395620
29009,0,USMissouriBarry,Missouri,Barry,2021-04-04 08:07:48.672294,2020-06-22 00:00:00.000000,0.06179749,0.11508342,0.23602282,22,41,84,13,27,60,0.03852806,0.07758733,0.16993975,0.06699217,0.13628211,0.24576853
29009,0,USMissouriBarry,Missouri,Barry,2021-04-04 08:07:48.672294,2020-06-23 00:00:00.000000,0.06244027,0.11763979,0.24031465,22,42,86,14,28,62,0.04022747,0.08030982,0.17335228,0.06730888,0.13865249,0.24597383
29009,0,USMissouriBarry,Missouri,Barry,2021-04-04 08:07:48.672294,2020-06-24 00:00:00.000000,0.06431066,0.12352410,0.25335344,23,44,90,15,29,62,0.04356935,0.08166974,0.17564662,0.06834549,0.13959390,0.24571899
29009,0,USMissouriBarry,Missouri,Barry,2021-04-04 08:07:48.672294,2020-06-25 00:00:00.000000,0.06517464,0.12890075,0.27622172,23,46,98,16,29,66,0.04669482,0.08265180,0.18656013,0.07143308,0.14096790,0.24293182
29009,0,USMissouriBarry,Missouri,Barry,2021-04-04 08:07:48.672294,2020-06-26 00:00:00.000000,0.06611047,0.13220840,0.28512924,23,47,102,17,31,72,0.04805917,0.08790828,0.20333398,0.07459310,0.14296186,0.25138513
29009,0,USMissouriBarry,Missouri,Barry,2021-04-04 08:07:48.672294,2020-06-27 00:00:00.000000,0.06634169,0.13716922,0.29000161,23,49,103,17,32,77,0.04851745,0.09121608,0.21651267,0.07178456,0.14748376,0.26026845
29009,0,USMissouriBarry,Missouri,Barry,2021-04-04 08:07:48.672294,2020-06-28 00:00:00.000000,0.06576007,0.13780744,0.31076386,23,49,111,17,33,78,0.04759345,0.09325469,0.21820709,0.07640276,0.15084597,0.26612834
29009,0,USMissouriBarry,Missouri,Barry,2021-04-04 08:07:48.672294,2020-06-29 00:00:00.000000,0.07277098,0.14546696,0.31686081,26,52,113,16,34,79,0.04665143,0.09667799,0.22127954,0.08085241,0.15183150,0.26778242
29009,0,USMissouriBarry,Missouri,Barry,2021-04-04 08:07:48.672294,2020-06-30 00:00:00.000000,0.07750560,0.15833687,0.32216068,27,56,115,18,36,81,0.05093736,0.10155963,0.22876321,0.08168844,0.15230156,0.26799811
29009,0,USMissouriBarry,Missouri,Barry,2021-04-04 08:07:48.672294,2020-07-01 00:00:00.000000,0.07827024,0.16229856,0.32590579,28,58,116,19,38,83,0.05309657,0.10775408,0.23369110,0.08189806,0.15436371,0.26742195
29009,0,USMissouriBarry,Missouri,Barry,2021-04-04 08:07:48.672294,2020-07-02 00:00:00.000000,0.07824530,0.17218478,0.33823231,28,61,121,19,40,86,0.05562505,0.11254953,0.24251044,0.08234038,0.15666328,0.26995748
29009,0,USMissouriBarry,Missouri,Barry,2021-04-04 08:07:48.672294,2020-07-03 00:00:00.000000,0.07923367,0.17645169,0.34583397,28,63,123,20,42,90,0.05663594,0.11765486,0.25175745,0.08407908,0.15649581,0.28408638
29009,0,USMissouriBarry,Missouri,Barry,2021-04-04 08:07:48.672294,2020-07-04 00:00:00.000000,0.07738918,0.17905299,0.36443267,27,64,130,19,45,90,0.05474039,0.12654979,0.25400965,0.08529796,0.15862493,0.28666706
29009,0,USMissouriBarry,Missouri,Barry,2021-04-04 08:07:48.672294,2020-07-05 00:00:00.000000,0.07736408,0.18283763,0.37473300,27,65,134,18,46,94,0.05297567,0.12995711,0.26307931,0.08202681,0.15972084,0.28742324
29009,0,USMissouriBarry,Missouri,Barry,2021-04-04 08:07:48.672294,2020-07-06 00:00:00.000000,0.08985994,0.19786287,0.38288690,32,70,137,18,47,100,0.05263631,0.13311539,0.27974295,0.08161129,0.15785059,0.29182979
29009,0,USMissouriBarry,Missouri,Barry,2021-04-04 08:07:48.672294,2020-07-07 00:00:00.000000,0.09998593,0.21205403,0.40172024,35,75,143,20,49,101,0.05797207,0.13958815,0.28488234,0.08034233,0.15679687,0.30368149
29009,0,USMissouriBarry,Missouri,Barry,2021-04-04 08:07:48.672294,2020-07-08 00:00:00.000000,0.10457786,0.22578217,0.41403063,37,80,148,24,51,105,0.06771304,0.14418087,0.29596263,0.08041720,0.15657501,0.31462349
29009,0,USMissouriBarry,Missouri,Barry,2021-04-04 08:07:48.672294,2020-07-09 00:00:00.000000,0.10691920,0.24659816,0.41349365,38,88,147,25,55,108,0.07055682,0.15417667,0.30237090,0.08096981,0.15744292,0.32301875
29009,0,USMissouriBarry,Missouri,Barry,2021-04-04 08:07:48.672294,2020-07-10 00:00:00.000000,0.10936047,0.25979981,0.41080564,39,92,147,25,57,108,0.07207672,0.16086687,0.30284977,0.08589824,0.15775181,0.32516217
29009,0,USMissouriBarry,Missouri,Barry,2021-04-04 08:07:48.672294,2020-07-11 00:00:00.000000,0.11190356,0.26932168,0.43504722,40,96,155,26,62,108,0.07368123,0.17361402,0.30192923,0.09698472,0.16015150,0.31834137
29009,0,USMissouriBarry,Missouri,Barry,2021-04-04 08:07:48.672294,2020-07-12 00:00:00.000000,0.11438042,0.27024192,0.45351896,40,96,162,26,65,108,0.07532156,0.18248170,0.30393199,0.10018150,0.16058677,0.29871475
29009,0,USMissouriBarry,Missouri,Barry,2021-04-04 08:07:48.672294,2020-07-13 00:00:00.000000,0.12633000,0.27382134,0.45177313,45,97,161,27,67,116,0.07698637,0.18769673,0.32596950,0.10043722,0.16080909,0.28613475
29009,0,USMissouriBarry,Missouri,Barry,2021-04-04 08:07:48.672294,2020-07-14 00:00:00.000000,0.13816974,0.27375512,0.44830131,49,97,160,29,69,120,0.08275270,0.19301081,0.33664716,0.09784853,0.16335056,0.27949450
29009,0,USMissouriBarry,Missouri,Barry,2021-04-04 08:07:48.672294,2020-07-15 00:00:00.000000,0.14715501,0.27741839,0.44474537,52,99,159,32,69,119,0.09019293,0.19481130,0.33512192,0.09696467,0.16540891,0.28417423
29009,0,USMissouriBarry,Missouri,Barry,2021-04-04 08:07:48.672294,2020-07-16 00:00:00.000000,0.15432354,0.27459043,0.45483768,55,98,162,33,69,118,0.09462952,0.19352481,0.33151202,0.09682594,0.16830832,0.28427707
29009,0,USMissouriBarry,Missouri,Barry,2021-04-04 08:07:48.672294,2020-07-17 00:00:00.000000,0.16165168,0.27645382,0.46427879,57,98,166,35,70,121,0.09923109,0.19674622,0.33988012,0.09681601,0.16382243,0.28221230
29009,0,USMissouriBarry,Missouri,Barry,2021-04-04 08:07:48.672294,2020-07-18 00:00:00.000000,0.16854599,0.27418240,0.47334892,60,98,169,37,70,124,0.10397894,0.19804800,0.34703182,0.09684121,0.16107715,0.27802267
29009,0,USMissouriBarry,Missouri,Barry,2021-04-04 08:07:48.672294,2020-07-19 00:00:00.000000,0.16722755,0.27472876,0.48272914,59,98,172,38,69,125,0.10869131,0.19556941,0.34926986,0.09692941,0.16084713,0.25952597
29009,0,USMissouriBarry,Missouri,Barry,2021-04-04 08:07:48.672294,2020-07-20 00:00:00.000000,0.16419525,0.26963234,0.49154442,58,96,175,40,69,127,0.11309755,0.19327835,0.35641239,0.09752282,0.15886453,0.25170748
29009,0,USMissouriBarry,Missouri,Barry,2021-04-04 08:07:48.672294,2020-07-21 00:00:00.000000,0.15885349,0.26843395,0.50039334,56,96,179,40,68,129,0.11455873,0.19173771,0.36321820,0.09948720,0.15705519,0.24804567
29009,0,USMissouriBarry,Missouri,Barry,2021-04-04 08:07:48.672294,2020-07-22 00:00:00.000000,0.15351827,0.26996945,0.50918011,54,96,182,39,68,132,0.11103554,0.19099850,0.36992453,0.09898391,0.15680674,0.25003070
29009,0,USMissouriBarry,Missouri,Barry,2021-04-04 08:07:48.672294,2020-07-23 00:00:00.000000,0.14839441,0.26963420,0.51759680,53,96,185,38,67,134,0.10743490,0.18973285,0.37657768,0.09876009,0.15613370,0.23914490
29009,0,USMissouriBarry,Missouri,Barry,2021-04-04 08:07:48.672294,2020-07-24 00:00:00.000000,0.14357904,0.26709994,0.52394635,51,95,187,37,67,136,0.10348073,0.18804745,0.38265124,0.09869382,0.15081402,0.23760629
29009,0,USMissouriBarry,Missouri,Barry,2021-04-04 08:07:48.672294,2020-07-25 00:00:00.000000,0.13802285,0.26316690,0.52700917,49,94,188,35,66,138,0.09838143,0.18572478,0.38780929,0.10044179,0.15429363,0.23620820
29009,0,USMissouriBarry,Missouri,Barry,2021-04-04 08:07:48.672294,2020-07-26 00:00:00.000000,0.13175470,0.26249758,0.52722885,47,93,188,33,66,139,0.09366773,0.18482381,0.39102168,0.09923660,0.15488691,0.23397208
29009,0,USMissouriBarry,Missouri,Barry,2021-04-04 08:07:48.672294,2020-07-27 00:00:00.000000,0.13804573,0.25782981,0.52476639,49,92,187,31,65,140,0.08940942,0.18426493,0.39214607,0.09838019,0.15534075,0.23263956
29009,0,USMissouriBarry,Missouri,Barry,2021-04-04 08:07:48.672294,2020-07-28 00:00:00.000000,0.14329950,0.25422067,0.52181191,51,90,186,32,65,140,0.09091347,0.18241098,0.39128126,0.09818156,0.15593019,0.23027133
29009,0,USMissouriBarry,Missouri,Barry,2021-04-04 08:07:48.672294,2020-07-29 00:00:00.000000,0.14886481,0.25603215,0.51859042,53,91,185,33,64,139,0.09487493,0.17968759,0.38956879,0.09839966,0.15619654,0.22660518
29009,0,USMissouriBarry,Missouri,Barry,2021-04-04 08:07:48.672294,2020-07-30 00:00:00.000000,0.15661987,0.26449676,0.51529689,56,94,184,35,64,138,0.09977689,0.17917449,0.38751520,0.09895238,0.15640853,0.22212585
29009,0,USMissouriBarry,Missouri,Barry,2021-04-04 08:07:48.672294,2020-07-31 00:00:00.000000,0.16128266,0.25976058,0.51199723,57,92,183,37,65,137,0.10520654,0.18274650,0.38532082,0.09964692,0.15766808,0.22154341
29009,0,USMissouriBarry,Missouri,Barry,2021-04-04 08:07:48.672294,2020-08-01 00:00:00.000000,0.16590786,0.25984827,0.50870563,59,92,182,39,66,137,0.10993819,0.18720040,0.38306078,0.09999930,0.15688816,0.22082125
29009,0,USMissouriBarry,Missouri,Barry,2021-04-04 08:07:48.672294,2020-08-02 00:00:00.000000,0.16770596,0.25790485,0.50540808,60,92,180,40,67,136,0.11304978,0.18740130,0.38076196,0.09799973,0.15472257,0.22179498
29009,0,USMissouriBarry,Missouri,Barry,2021-04-04 08:07:48.672294,2020-08-03 00:00:00.000000,0.16848217,0.26304313,0.51374997,60,94,183,40,67,135,0.11249919,0.18898958,0.37842787,0.09470846,0.15493508,0.22226685
29009,0,USMissouriBarry,Missouri,Barry,2021-04-04 08:07:48.672294,2020-08-04 00:00:00.000000,0.16722383,0.26331693,0.52153928,59,94,186,39,66,136,0.11075984,0.18706942,0.38194439,0.09265161,0.15706307,0.22668802
29009,0,USMissouriBarry,Missouri,Barry,2021-04-04 08:07:48.672294,2020-08-05 00:00:00.000000,0.16403569,0.26655797,0.52770945,58,95,188,40,68,138,0.11293981,0.19003521,0.38726656,0.09147860,0.15603502,0.23095766
29009,0,USMissouriBarry,Missouri,Barry,2021-04-04 08:07:48.672294,2020-08-06 00:00:00.000000,0.16241716,0.26924937,0.52921505,58,96,189,41,68,140,0.11616822,0.19093646,0.39203424,0.09262861,0.15642918,0.23092287
29009,0,USMissouriBarry,Missouri,Barry,2021-04-04 08:07:48.672294,2020-08-07 00:00:00.000000,0.15909501,0.26752350,0.52712854,56,95,188,40,69,141,0.11292419,0.19322089,0.39416294,0.09485502,0.15952301,0.23102409
29009,0,USMissouriBarry,Missouri,Barry,2021-04-04 08:07:48.672294,2020-08-08 00:00:00.000000,0.15508536,0.26507261,0.52358979,55,94,187,39,68,140,0.10993850,0.19264022,0.39360312,0.09628471,0.15960468,0.23188511
29009,0,USMissouriBarry,Missouri,Barry,2021-04-04 08:07:48.672294,2020-08-09 00:00:00.000000,0.15228189,0.26546983,0.51953061,54,95,185,38,68,140,0.10740323,0.19048145,0.39153875,0.09700875,0.16026156,0.23984458
29009,0,USMissouriBarry,Missouri,Barry,2021-04-04 08:07:48.672294,2020-08-10 00:00:00.000000,0.15020971,0.25999082,0.50501261,53,93,180,37,67,139,0.10449966,0.18860718,0.38884459,0.09739540,0.16526131,0.25482728
29009,0,USMissouriBarry,Missouri,Barry,2021-04-04 08:07:48.672294,2020-08-11 00:00:00.000000,0.14680709,0.25602263,0.49056828,52,91,175,36,67,136,0.10186153,0.18757555,0.38071329,0.09770335,0.16820666,0.25609760
29009,0,USMissouriBarry,Missouri,Barry,2021-04-04 08:07:48.672294,2020-08-12 00:00:00.000000,0.14407822,0.25492610,0.47589630,51,91,170,35,65,132,0.09849766,0.18416969,0.37069283,0.09807447,0.16828622,0.25682911
29009,0,USMissouriBarry,Missouri,Barry,2021-04-04 08:07:48.672294,2020-08-13 00:00:00.000000,0.14211728,0.25918825,0.46161766,50,92,165,34,64,128,0.09692265,0.18049704,0.36020607,0.09860395,0.16936597,0.25723844
29009,0,USMissouriBarry,Missouri,Barry,2021-04-04 08:07:48.672294,2020-08-14 00:00:00.000000,0.14126510,0.25801852,0.47009048,50,92,168,34,65,125,0.09548223,0.18253729,0.34981760,0.09844586,0.16871322,0.25746827
29009,0,USMissouriBarry,Missouri,Barry,2021-04-04 08:07:48.672294,2020-08-15 00:00:00.000000,0.13907636,0.25693434,0.48174489,49,91,172,33,65,121,0.09410116,0.18356697,0.33975010,0.09905707,0.16773024,0.25763106
29009,0,USMissouriBarry,Missouri,Barry,2021-04-04 08:07:48.672294,2020-08-16 00:00:00.000000,0.13595734,0.25975315,0.49354481,48,92,176,33,65,120,0.09419238,0.18306619,0.33789926,0.09936598,0.16667785,0.25764393
29009,0,USMissouriBarry,Missouri,Barry,2021-04-04 08:07:48.672294,2020-08-17 00:00:00.000000,0.13168545,0.26074751,0.50216307,47,93,179,33,65,123,0.09228161,0.18405136,0.34623840,0.09961177,0.16687068,0.25851483
29009,0,USMissouriBarry,Missouri,Barry,2021-04-04 08:07:48.672294,2020-08-18 00:00:00.000000,0.12823490,0.25995889,0.51122902,45,93,182,32,66,126,0.09011907,0.18527892,0.35313889,0.10013671,0.16586503,0.26071469
29009,0,USMissouriBarry,Missouri,Barry,2021-04-04 08:07:48.672294,2020-08-19 00:00:00.000000,0.12518644,0.25815042,0.52042246,44,92,186,32,66,128,0.08970530,0.18626704,0.35966654,0.10171874,0.16531990,0.26233786
29009,0,USMissouriBarry,Missouri,Barry,2021-04-04 08:07:48.672294,2020-08-20 00:00:00.000000,0.12248680,0.26120689,0.52953935,43,93,189,32,67,131,0.08945354,0.18806116,0.36619454,0.10237249,0.16516297,0.26264342
29009,0,USMissouriBarry,Missouri,Barry,2021-04-04 08:07:48.672294,2020-08-21 00:00:00.000000,0.12018487,0.26305622,0.53802648,43,94,192,31,66,133,0.08763210,0.18585562,0.37270756,0.10546535,0.16613275,0.26118324
29009,0,USMissouriBarry,Missouri,Barry,2021-04-04 08:07:48.672294,2020-08-22 00:00:00.000000,0.11832440,0.26406129,0.54464828,42,94,194,30,66,135,0.08587646,0.18645073,0.37892015,0.10821155,0.16916812,0.26264591
29009,0,USMissouriBarry,Missouri,Barry,2021-04-04 08:07:48.672294,2020-08-23 00:00:00.000000,0.11691406,0.26497714,0.54802193,41,94,196,30,66,137,0.08386827,0.18457244,0.38414875,0.10657214,0.17228708,0.25325969
29009,0,USMissouriBarry,Missouri,Barry,2021-04-04 08:07:48.672294,2020-08-24 00:00:00.000000,0.11933625,0.26439765,0.55165481,42,94,197,29,66,138,0.08180747,0.18615485,0.38749954,0.11026288,0.17327865,0.24542167
29009,0,USMissouriBarry,Missouri,Barry,2021-04-04 08:07:48.672294,2020-08-25 00:00:00.000000,0.12223662,0.26638370,0.55373988,43,95,198,28,66,139,0.08017998,0.18607060,0.39027808,0.11030200,0.17423614,0.24519759
29009,0,USMissouriBarry,Missouri,Barry,2021-04-04 08:07:48.672294,2020-08-26 00:00:00.000000,0.12535123,0.26924430,0.55529183,44,96,198,29,66,140,0.08193042,0.18507949,0.39222328,0.11021706,0.17641807,0.24839521
29009,0,USMissouriBarry,Missouri,Barry,2021-04-04 08:07:48.672294,2020-08-27 00:00:00.000000,0.12859064,0.27004718,0.55654561,46,96,199,30,66,140,0.08451201,0.18541209,0.39361520,0.10997973,0.18189878,0.24819687
29009,0,USMissouriBarry,Missouri,Barry,2021-04-04 08:07:48.672294,2020-08-28 00:00:00.000000,0.13157576,0.26961854,0.55752264,47,96,199,30,66,141,0.08527063,0.18678715,0.39469157,0.11129197,0.18816275,0.25094559
29009,0,USMissouriBarry,Missouri,Barry,2021-04-04 08:07:48.672294,2020-08-29 00:00:00.000000,0.13141877,0.26455677,0.55715713,47,94,199,30,67,141,0.08622418,0.18868291,0.39553985,0.11453394,0.19182408,0.25365443
29009,0,USMissouriBarry,Missouri,Barry,2021-04-04 08:07:48.672294,2020-08-30 00:00:00.000000,0.13164650,0.26324058,0.55073530,47,94,197,31,67,141,0.08715222,0.18768896,0.39602707,0.12270208,0.19501525,0.27859821
29009,0,USMissouriBarry,Missouri,Barry,2021-04-04 08:07:48.672294,2020-08-31 00:00:00.000000,0.13583378,0.26239025,0.54652616,48,93,195,31,67,141,0.08758511,0.18883482,0.39574959,0.12382112,0.19599342,0.27650323
29009,0,USMissouriBarry,Missouri,Barry,2021-04-04 08:07:48.672294,2020-09-01 00:00:00.000000,0.13443205,0.26041100,0.54448629,48,93,194,32,67,141,0.09051438,0.18885288,0.39400423,0.12452867,0.19895979,0.27767163
29009,0,USMissouriBarry,Missouri,Barry,2021-04-04 08:07:48.672294,2020-09-02 00:00:00.000000,0.13508122,0.26217997,0.54459571,48,93,194,32,67,140,0.09216953,0.18853132,0.39137735,0.12549859,0.20405808,0.28050332
29009,0,USMissouriBarry,Missouri,Barry,2021-04-04 08:07:48.672294,2020-09-03 00:00:00.000000,0.13860462,0.26934790,0.54540426,49,96,195,33,67,142,0.09469813,0.18928717,0.39687414,0.12754692,0.21088106,0.27942824
29009,0,USMissouriBarry,Missouri,Barry,2021-04-04 08:07:48.672294,2020-09-04 00:00:00.000000,0.14187172,0.28010634,0.54945188,50,100,196,34,68,145,0.09718284,0.19202747,0.40776548,0.13153058,0.21419130,0.27624448
29009,0,USMissouriBarry,Missouri,Barry,2021-04-04 08:07:48.672294,2020-09-05 00:00:00.000000,0.14476838,0.28421644,0.55551388,51,101,198,35,69,146,0.09952331,0.19493126,0.40976217,0.13165222,0.21604400,0.28651240
29009,0,USMissouriBarry,Missouri,Barry,2021-04-04 08:07:48.672294,2020-09-06 00:00:00.000000,0.14739206,0.28876171,0.56283457,52,103,201,36,72,147,0.10163104,0.20130730,0.41330013,0.13056110,0.21992480,0.29616705
29009,0,USMissouriBarry,Missouri,Barry,2021-04-04 08:07:48.672294,2020-09-07 00:00:00.000000,0.15297559,0.28884464,0.58636033,54,103,209,35,73,154,0.10055074,0.20460885,0.43052655,0.12987382,0.22365801,0.30026835
29009,0,USMissouriBarry,Missouri,Barry,2021-04-04 08:07:48.672294,2020-09-08 00:00:00.000000,0.15199902,0.29635439,0.61280130,54,106,219,35,73,160,0.09931841,0.20499427,0.44942203,0.13854206,0.23142577,0.30808624
29009,0,USMissouriBarry,Missouri,Barry,2021-04-04 08:07:48.672294,2020-09-09 00:00:00.000000,0.15168777,0.29832922,0.63983805,54,106,228,35,74,168,0.09840672,0.20854589,0.46946770,0.14177077,0.23266313,0.31317508
29009,0,USMissouriBarry,Missouri,Barry,2021-04-04 08:07:48.672294,2020-09-10 00:00:00.000000,0.15213303,0.31103852,0.66806502,54,111,239,35,76,175,0.09787374,0.21400268,0.49050955,0.14424595,0.23739238,0.32047279
29009,0,USMissouriBarry,Missouri,Barry,2021-04-04 08:07:48.672294,2020-09-11 00:00:00.000000,0.15318717,0.32134535,0.69252370,54,115,247,34,77,183,0.09777843,0.21544946,0.51253003,0.14802236,0.24032392,0.34116047
29009,0,USMissouriBarry,Missouri,Barry,2021-04-04 08:07:48.672294,2020-09-12 00:00:00.000000,0.15461361,0.32922996,0.71397090,55,117,255,35,79,191,0.09809925,0.22081126,0.53550281,0.15329007,0.25183357,0.36800761
29009,0,USMissouriBarry,Missouri,Barry,2021-04-04 08:07:48.672294,2020-09-13 00:00:00.000000,0.15890736,0.33976650,0.75425889,56,121,269,35,81,197,0.09942970,0.22903128,0.55195773,0.15992168,0.25496202,0.37725009
29009,0,USMissouriBarry,Missouri,Barry,2021-04-04 08:07:48.672294,2020-09-14 00:00:00.000000,0.17421101,0.35146707,0.77637985,62,125,277,37,83,199,0.10429486,0.23442623,0.55844067,0.16557317,0.25851873,0.38004797
29009,0,USMissouriBarry,Missouri,Barry,2021-04-04 08:07:48.672294,2020-09-15 00:00:00.000000,0.18911080,0.36186081,0.80072153,67,129,286,40,86,205,0.11352712,0.24229370,0.57497427,0.17328544,0.26214630,0.38116155
29009,0,USMissouriBarry,Missouri,Barry,2021-04-04 08:07:48.672294,2020-09-16 00:00:00.000000,0.20351983,0.37736920,0.82624208,72,135,295,44,88,212,0.12419303,0.24606707,0.59437522,0.17098885,0.26840159,0.38175107
29009,0,USMissouriBarry,Missouri,Barry,2021-04-04 08:07:48.672294,2020-09-17 00:00:00.000000,0.21005708,0.39226681,0.85299806,75,140,305,48,91,218,0.13570190,0.25658447,0.61067129,0.17472658,0.27353766,0.38181403
29009,0,USMissouriBarry,Missouri,Barry,2021-04-04 08:07:48.672294,2020-09-18 00:00:00.000000,0.21349942,0.41096679,0.88007426,76,147,314,50,96,223,0.14055884,0.27042678,0.62516582,0.19630833,0.28273933,0.40297684
29009,0,USMissouriBarry,Missouri,Barry,2021-04-04 08:07:48.672294,2020-09-19 00:00:00.000000,0.21755393,0.42645308,0.90639597,77,152,324,51,100,229,0.14302610,0.28105488,0.64002229,0.20620541,0.28501482,0.41731274
29009,0,USMissouriBarry,Missouri,Barry,2021-04-04 08:07:48.672294,2020-09-20 00:00:00.000000,0.22206636,0.44246390,0.94965207,79,158,339,52,105,237,0.14560334,0.29565567,0.66330110,0.21039873,0.29022207,0.42702914
29009,0,USMissouriBarry,Missouri,Barry,2021-04-04 08:07:48.672294,2020-09-21 00:00:00.000000,0.23011570,0.45191131,0.96314851,82,161,344,53,110,247,0.14844946,0.30839048,0.69241223,0.21567431,0.29354777,0.42730630
29009,0,USMissouriBarry,Missouri,Barry,2021-04-04 08:07:48.672294,2020-09-22 00:00:00.000000,0.23833203,0.46893443,0.97948846,85,167,350,54,116,251,0.15322939,0.32420859,0.70346650,0.21219766,0.30020095,0.42418819
29009,0,USMissouriBarry,Missouri,Barry,2021-04-04 08:07:48.672294,2020-09-23 00:00:00.000000,0.24701478,0.49331610,1.00199255,88,176,358,56,119,255,0.15922499,0.33383108,0.71370250,0.21159142,0.30432929,0.42062933
29009,0,USMissouriBarry,Missouri,Barry,2021-04-04 08:07:48.672294,2020-09-24 00:00:00.000000,0.25607058,0.52733150,1.02383731,91,188,366,59,124,258,0.16598059,0.34840221,0.72360168,0.21720811,0.30415295,0.41940171
29009,0,USMissouriBarry,Missouri,Barry,2021-04-04 08:07:48.672294,2020-09-25 00:00:00.000000,0.26576988,0.56326649,1.04524393,95,201,374,61,129,262,0.17323525,0.36208693,0.73326864,0.21750355,0.30859655,0.41781517
29009,0,USMissouriBarry,Missouri,Barry,2021-04-04 08:07:48.672294,2020-09-26 00:00:00.000000,0.27665411,0.57994278,1.06637230,99,207,381,64,134,267,0.18019991,0.37627131,0.74771468,0.21648410,0.31224599,0.43985679
29009,0,USMissouriBarry,Missouri,Barry,2021-04-04 08:07:48.672294,2020-09-27 00:00:00.000000,0.30770414,0.60652899,1.08731607,110,217,389,67,140,273,0.18744413,0.39354520,0.76328591,0.21417811,0.31557990,0.45631100
29009,0,USMissouriBarry,Missouri,Barry,2021-04-04 08:07:48.672294,2020-09-28 00:00:00.000000,0.33942327,0.63263865,1.15406025,121,226,413,70,150,278,0.19804826,0.42002109,0.77867150,0.21043664,0.32603374,0.48931738
29009,0,USMissouriBarry,Missouri,Barry,2021-04-04 08:07:48.672294,2020-09-29 00:00:00.000000,0.36411461,0.66385706,1.22535571,130,237,438,74,157,288,0.20845271,0.44044798,0.80586359,0.20883731,0.32988466,0.49426252
29009,0,USMissouriBarry,Missouri,Barry,2021-04-04 08:07:48.672294,2020-09-30 00:00:00.000000,0.39470052,0.69541328,1.25299541,141,248,448,78,165,304,0.22034774,0.46298933,0.85175125,0.20844713,0.33254401,0.48297475
29009,0,USMissouriBarry,Missouri,Barry,2021-04-04 08:07:48.672294,2020-10-01 00:00:00.000000,0.42297065,0.73361286,1.30763905,151,262,467,84,175,327,0.23509261,0.49058772,0.91484694,0.21402132,0.34319417,0.47270125
29009,0,USMissouriBarry,Missouri,Barry,2021-04-04 08:07:48.672294,2020-10-02 00:00:00.000000,0.45206381,0.76672721,1.36365819,161,274,488,90,183,351,0.25194551,0.51359045,0.98200426,0.22231455,0.34788667,0.47284033
29009,0,USMissouriBarry,Missouri,Barry,2021-04-04 08:07:48.672294,2020-10-03 00:00:00.000000,0.48602657,0.81134601,1.41855606,173,290,507,96,194,363,0.27069153,0.54328780,1.01484100,0.23248962,0.34843059,0.49192416
29009,0,USMissouriBarry,Missouri,Barry,2021-04-04 08:07:48.672294,2020-10-04 00:00:00.000000,0.52679130,0.85528614,1.47220628,188,306,526,104,200,371,0.29165552,0.55907058,1.03670416,0.23708515,0.35602208,0.49894984
29009,0,USMissouriBarry,Missouri,Barry,2021-04-04 08:07:48.672294,2020-10-05 00:00:00.000000,0.56215142,0.90585813,1.52285325,201,324,545,112,208,378,0.31519843,0.58206546,1.05884231,0.23828469,0.36430093,0.50309033
29009,0,USMissouriBarry,Missouri,Barry,2021-04-04 08:07:48.672294,2020-10-06 00:00:00.000000,0.58836549,0.95757489,1.57415814,210,342,563,122,223,388,0.34096623,0.62368499,1.08464868,0.24107974,0.36386338,0.50420981
29009,0,USMissouriBarry,Missouri,Barry,2021-04-04 08:07:48.672294,2020-10-07 00:00:00.000000,0.64419160,1.01232674,1.62994943,230,362,583,132,237,403,0.36944700,0.66310451,1.12715660,0.24330577,0.36591244,0.50980392
29009,0,USMissouriBarry,Missouri,Barry,2021-04-04 08:07:48.672294,2020-10-08 00:00:00.000000,0.68065488,1.08807344,1.69105887,243,389,605,143,250,424,0.40074075,0.69951789,1.18567102,0.26278872,0.36102141,0.51106038
29009,0,USMissouriBarry,Missouri,Barry,2021-04-04 08:07:48.672294,2020-10-09 00:00:00.000000,0.72098269,1.16184629,1.75753318,258,415,629,156,268,448,0.43813852,0.74974388,1.25425828,0.27015109,0.35963180,0.50722614
29009,0,USMissouriBarry,Missouri,Barry,2021-04-04 08:07:48.672294,2020-10-10 00:00:00.000000,0.76717908,1.24562394,1.88304303,274,445,673,169,286,469,0.47230681,0.80189924,1.31322904,0.26957347,0.35904135,0.50029865
29009,0,USMissouriBarry,Missouri,Barry,2021-04-04 08:07:48.672294,2020-10-11 00:00:00.000000,0.82871544,1.32245962,1.93808759,296,473,693,182,306,478,0.50854255,0.85679117,1.33585308,0.26993939,0.35858872,0.49332881
29009,0,USMissouriBarry,Missouri,Barry,2021-04-04 08:07:48.672294,2020-10-12 00:00:00.000000,0.88882566,1.37508898,1.98761904,318,492,711,196,326,485,0.54862342,0.91322721,1.35737088,0.27771722,0.35741179,0.50154326
29009,0,USMissouriBarry,Missouri,Barry,2021-04-04 08:07:48.672294,2020-10-13 00:00:00.000000,0.96124062,1.43894423,2.11759675,344,514,757,212,342,505,0.59393719,0.95787661,1.41328622,0.27738460,0.35598659,0.50712390
29009,0,USMissouriBarry,Missouri,Barry,2021-04-04 08:07:48.672294,2020-10-14 00:00:00.000000,1.02234142,1.50480810,2.23680520,365,538,800,226,357,532,0.63258503,0.99941710,1.48770313,0.27272088,0.35454187,0.50192028
29009,0,USMissouriBarry,Missouri,Barry,2021-04-04 08:07:48.672294,2020-10-15 00:00:00.000000,1.08515102,1.55509224,2.33925187,388,556,837,238,367,562,0.66545499,1.02642435,1.57239314,0.26870478,0.35806173,0.49176333
29009,0,USMissouriBarry,Missouri,Barry,2021-04-04 08:07:48.672294,2020-10-16 00:00:00.000000,1.12363012,1.62858592,2.42747164,402,582,868,252,383,599,0.70636164,1.07056584,1.67584758,0.26514295,0.35149716,0.48711272
29009,0,USMissouriBarry,Missouri,Barry,2021-04-04 08:07:48.672294,2020-10-17 00:00:00.000000,1.15894389,1.69748532,2.50710060,414,607,897,264,402,612,0.73972725,1.12585924,1.71114872,0.26640838,0.34529190,0.47709478
29009,0,USMissouriBarry,Missouri,Barry,2021-04-04 08:07:48.672294,2020-10-18 00:00:00.000000,1.24418029,1.76768519,2.61959878,445,632,937,280,418,633,0.78367388,1.16967323,1.76881806,0.26966194,0.33886735,0.46815078
29009,0,USMissouriBarry,Missouri,Barry,2021-04-04 08:07:48.672294,2020-10-19 00:00:00.000000,1.30481047,1.82902704,2.80132787,466,654,1002,296,434,676,0.82904639,1.21287237,1.88924302,0.26930327,0.33587803,0.44844529
29009,0,USMissouriBarry,Missouri,Barry,2021-04-04 08:07:48.672294,2020-10-20 00:00:00.000000,1.33673650,1.91147501,2.97845917,478,684,1065,312,449,722,0.87419375,1.25581847,2.01951239,0.26663454,0.32999338,0.44223287
29009,0,USMissouriBarry,Missouri,Barry,2021-04-04 08:07:48.672294,2020-10-21 00:00:00.000000,1.40974955,1.98619690,3.05314526,504,710,1092,329,464,763,0.92195309,1.29896482,2.13362176,0.26224071,0.32910058,0.43139931
29009,0,USMissouriBarry,Missouri,Barry,2021-04-04 08:07:48.672294,2020-10-22 00:00:00.000000,1.48551643,2.05388897,3.12662879,531,735,1118,341,486,784,0.95378087,1.36067118,2.19250654,0.25550571,0.32835479,0.42462084
29009,0,USMissouriBarry,Missouri,Barry,2021-04-04 08:07:48.672294,2020-10-23 00:00:00.000000,1.51580636,2.11630093,3.19950345,542,757,1145,344,509,804,0.96181745,1.42467997,2.24902630,0.25871873,0.32759922,0.41760372
29009,0,USMissouriBarry,Missouri,Barry,2021-04-04 08:07:48.672294,2020-10-24 00:00:00.000000,1.55476620,2.19669809,3.27149423,556,786,1170,353,530,824,0.98734659,1.48273013,2.30460258,0.26337537,0.32692021,0.40588051
29009,0,USMissouriBarry,Missouri,Barry,2021-04-04 08:07:48.672294,2020-10-25 00:00:00.000000,1.59566524,2.27171537,3.40154480,571,813,1217,365,546,844,1.02158616,1.52619620,2.35981924,0.25951984,0.32511529,0.41173690
29009,0,USMissouriBarry,Missouri,Barry,2021-04-04 08:07:48.672294,2020-10-26 00:00:00.000000,1.62743400,2.33311760,3.57122036,582,834,1278,377,566,864,1.05468804,1.58358405,2.41512793,0.25659925,0.32322151,0.40208360
29009,0,USMissouriBarry,Missouri,Barry,2021-04-04 08:07:48.672294,2020-10-27 00:00:00.000000,1.66354757,2.39828295,3.74212269,595,858,1339,389,581,897,1.08843521,1.62614495,2.50898257,0.25472757,0.32587163,0.39566974
29009,0,USMissouriBarry,Missouri,Barry,2021-04-04 08:07:48.672294,2020-10-28 00:00:00.000000,1.70550142,2.48676057,3.83864074,610,889,1373,398,603,941,1.11273508,1.68597699,2.63026023,0.25264240,0.32707360,0.39827540
29009,0,USMissouriBarry,Missouri,Barry,2021-04-04 08:07:48.672294,2020-10-29 00:00:00.000000,1.76511568,2.57422569,4.01648298,631,921,1437,404,622,986,1.13117149,1.73980984,2.75646536,0.24655420,0.32463773,0.39387641
29009,0,USMissouriBarry,Missouri,Barry,2021-04-04 08:07:48.672294,2020-10-30 00:00:00.000000,1.81574423,2.65655416,4.05810780,649,950,1452,417,635,1032,1.16705738,1.77643951,2.88582539,0.23932330,0.31776562,0.38758800
29009,0,USMissouriBarry,Missouri,Barry,2021-04-04 08:07:48.672294,2020-10-31 00:00:00.000000,1.85037171,2.72989962,4.06799891,662,977,1455,429,654,1071,1.20110210,1.82826495,2.99425098,0.23621855,0.31667950,0.38633243
29009,0,USMissouriBarry,Missouri,Barry,2021-04-04 08:07:48.672294,2020-11-01 00:00:00.000000,1.89383614,2.79487342,4.06246253,677,1000,1453,440,678,1075,1.23108261,1.89644662,3.00577953,0.23050180,0.31260963,0.38743148
29009,0,USMissouriBarry,Missouri,Barry,2021-04-04 08:07:48.672294,2020-11-02 00:00:00.000000,1.94462950,2.83863322,4.16385480,695,1015,1490,457,694,1087,1.27749309,1.94103663,3.03793416,0.22242125,0.30938277,0.38559162
29009,0,USMissouriBarry,Missouri,Barry,2021-04-04 08:07:48.672294,2020-11-03 00:00:00.000000,2.00267845,2.90872213,4.27848660,716,1041,1531,469,711,1110,1.31085192,1.98877855,3.10420010,0.21783275,0.30719154,0.37925305
29009,0,USMissouriBarry,Missouri,Barry,2021-04-04 08:07:48.672294,2020-11-04 00:00:00.000000,2.02782098,2.96174994,4.39378470,725,1059,1572,473,731,1126,1.32427607,2.04480766,3.14875241,0.21629890,0.30266526,0.37652696
29009,0,USMissouriBarry,Missouri,Barry,2021-04-04 08:07:48.672294,2020-11-05 00:00:00.000000,2.03705438,3.01024725,4.50974441,729,1077,1613,478,755,1148,1.33781078,2.11003927,3.20817718,0.21561802,0.29042371,0.37955328
29009,0,USMissouriBarry,Missouri,Barry,2021-04-04 08:07:48.672294,2020-11-06 00:00:00.000000,2.04124221,3.07521814,4.62567959,730,1100,1655,483,772,1164,1.35103786,2.15908460,3.25246257,0.21552715,0.28915340,0.37880471
29009,0,USMissouriBarry,Missouri,Barry,2021-04-04 08:07:48.672294,2020-11-07 00:00:00.000000,2.04480197,3.17302466,4.73861359,731,1135,1695,488,784,1178,1.36368971,2.19189077,3.29347112,0.21552929,0.28137232,0.36040187
29009,0,USMissouriBarry,Missouri,Barry,2021-04-04 08:07:48.672294,2020-11-08 00:00:00.000000,2.04767568,3.21825624,4.81427022,732,1151,1722,492,794,1192,1.37541230,2.21895197,3.33213289,0.20923792,0.27641615,0.35851892
29009,0,USMissouriBarry,Missouri,Barry,2021-04-04 08:07:48.672294,2020-11-09 00:00:00.000000,2.04677655,3.21961670,4.86661851,732,1152,1741,495,796,1221,1.38546242,2.22651436,3.41199371,0.20773654,0.27180025,0.35452903
29009,0,USMissouriBarry,Missouri,Barry,2021-04-04 08:07:48.672294,2020-11-10 00:00:00.000000,2.04471649,3.21939669,4.91442558,731,1152,1758,497,799,1248,1.39106179,2.23267271,3.48801533,0.20362674,0.26637433,0.35581537
29009,0,USMissouriBarry,Missouri,Barry,2021-04-04 08:07:48.672294,2020-11-11 00:00:00.000000,2.03480008,3.20990487,4.95659303,728,1148,1773,497,798,1272,1.38965651,2.23132315,3.55645454,0.19864541,0.26553260,0.35594998
29009,0,USMissouriBarry,Missouri,Barry,2021-04-04 08:07:48.672294,2020-11-12 00:00:00.000000,2.02188777,3.17953095,4.99219485,723,1137,1786,492,807,1293,1.37682288,2.25657774,3.61504092,0.19322897,0.26112015,0.35394043
29009,0,USMissouriBarry,Missouri,Barry,2021-04-04 08:07:48.672294,2020-11-13 00:00:00.000000,1.98076712,3.15690477,5.01771253,708,1129,1795,484,811,1309,1.35470087,2.26677475,3.65830931,0.18899894,0.25768205,0.34856032
29009,0,USMissouriBarry,Missouri,Barry,2021-04-04 08:07:48.672294,2020-11-14 00:00:00.000000,1.95348181,3.15733404,5.02548225,699,1129,1798,483,811,1316,1.35052122,2.26736431,3.67974608,0.17051646,0.24970237,0.33888461
29009,0,USMissouriBarry,Missouri,Barry,2021-04-04 08:07:48.672294,2020-11-15 00:00:00.000000,1.92750069,3.12278962,5.00690065,689,1117,1791,476,803,1315,1.33202871,2.24397638,3.67623577,0.16868246,0.24648554,0.33866947
29009,0,USMissouriBarry,Missouri,Barry,2021-04-04 08:07:48.672294,2020-11-16 00:00:00.000000,1.90192512,3.07189077,4.94754077,680,1099,1770,470,801,1306,1.31432738,2.23895918,3.65029550,0.15880655,0.24104960,0.32894448
29009,0,USMissouriBarry,Missouri,Barry,2021-04-04 08:07:48.672294,2020-11-17 00:00:00.000000,1.87091680,3.03692971,4.86836054,669,1086,1742,463,788,1289,1.29432715,2.20211801,3.60299491,0.15563303,0.23787714,0.32328298
29009,0,USMissouriBarry,Missouri,Barry,2021-04-04 08:07:48.672294,2020-11-18 00:00:00.000000,1.84080044,2.99408102,4.77781726,658,1071,1709,456,774,1267,1.27517079,2.16406021,3.54294913,0.15152485,0.23290479,0.31490877
29009,0,USMissouriBarry,Missouri,Barry,2021-04-04 08:07:48.672294,2020-11-19 00:00:00.000000,1.81133728,2.95866925,4.73063086,648,1058,1693,450,769,1244,1.25892645,2.15080907,3.47641697,0.14565959,0.22824692,0.30491664
29009,0,USMissouriBarry,Missouri,Barry,2021-04-04 08:07:48.672294,2020-11-20 00:00:00.000000,1.78130326,2.90858484,4.60331123,637,1040,1647,446,759,1235,1.24636646,2.12282432,3.45244197,0.14551640,0.22417824,0.29623033
29009,0,USMissouriBarry,Missouri,Barry,2021-04-04 08:07:48.672294,2020-11-21 00:00:00.000000,1.74277099,2.86581628,4.48487759,623,1025,1605,442,750,1226,1.23680906,2.09735487,3.42655178,0.13972699,0.21643664,0.28647536
29009,0,USMissouriBarry,Missouri,Barry,2021-04-04 08:07:48.672294,2020-11-22 00:00:00.000000,1.66398283,2.80188809,4.37192152,595,1002,1564,424,734,1213,1.18731441,2.05115322,3.39018562,0.13713876,0.21128846,0.28652272
29009,0,USMissouriBarry,Missouri,Barry,2021-04-04 08:07:48.672294,2020-11-23 00:00:00.000000,1.58575974,2.71846510,4.35174496,567,972,1557,405,714,1196,1.13422236,1.99505761,3.34303514,0.13629894,0.20765890,0.28111791
29009,0,USMissouriBarry,Missouri,Barry,2021-04-04 08:07:48.672294,2020-11-24 00:00:00.000000,1.52053886,2.65234039,4.34070207,544,949,1553,387,693,1170,1.08176828,1.93739475,3.27123238,0.14052957,0.20379306,0.27689577
29009,0,USMissouriBarry,Missouri,Barry,2021-04-04 08:07:48.672294,2020-11-25 00:00:00.000000,1.50428057,2.56965199,4.32342844,538,919,1547,368,672,1156,1.03096437,1.87871979,3.23230369,0.14085971,0.20531260,0.27641617
29009,0,USMissouriBarry,Missouri,Barry,2021-04-04 08:07:48.672294,2020-11-26 00:00:00.000000,1.48820192,2.47616318,4.25069465,532,886,1521,357,651,1147,1.00010114,1.82164140,3.20551224,0.13971490,0.20656722,0.27518463
29009,0,USMissouriBarry,Missouri,Barry,2021-04-04 08:07:48.672294,2020-11-27 00:00:00.000000,1.47206303,2.40071636,4.17332061,526,859,1493,354,631,1129,0.98937213,1.76383555,3.15596122,0.13897018,0.20783200,0.27271656
29009,0,USMissouriBarry,Missouri,Barry,2021-04-04 08:07:48.672294,2020-11-28 00:00:00.000000,1.45403811,2.33673799,4.08795095,520,836,1463,350,610,1113,0.97866467,1.70582691,3.11220616,0.14025321,0.20689312,0.26859994
29009,0,USMissouriBarry,Missouri,Barry,2021-04-04 08:07:48.672294,2020-11-29 00:00:00.000000,1.42781891,2.26291109,3.99422701,511,809,1429,346,589,1097,0.96711954,1.64831857,3.06671235,0.13848052,0.20845243,0.26658094
29009,0,USMissouriBarry,Missouri,Barry,2021-04-04 08:07:48.672294,2020-11-30 00:00:00.000000,1.39765830,2.19567147,3.89315138,500,785,1393,340,569,1076,0.95159405,1.59192100,3.00800331,0.13744658,0.20626056,0.26955776
29009,0,USMissouriBarry,Missouri,Barry,2021-04-04 08:07:48.672294,2020-12-01 00:00:00.000000,1.36626775,2.13308558,3.79004186,488,763,1356,333,549,1051,0.93281401,1.53505347,2.93914133,0.13669704,0.20676590,0.26833106
29009,0,USMissouriBarry,Missouri,Barry,2021-04-04 08:07:48.672294,2020-12-02 00:00:00.000000,1.33493999,2.07025526,3.68738199,477,740,1319,326,529,1025,0.91248028,1.47919549,2.86581755,0.13674909,0.20820195,0.27298412
29009,0,USMissouriBarry,Missouri,Barry,2021-04-04 08:07:48.672294,2020-12-03 00:00:00.000000,1.30416495,2.01111971,3.58640210,466,719,1283,319,513,999,0.89178901,1.43441921,2.79147294,0.13708186,0.20902972,0.28019071
29009,0,USMissouriBarry,Missouri,Barry,2021-04-04 08:07:48.672294,2020-12-04 00:00:00.000000,1.27352940,1.96142192,3.48736574,455,701,1248,311,504,972,0.87130988,1.41070031,2.71778704,0.13781615,0.21107154,0.28481322
29009,0,USMissouriBarry,Missouri,Barry,2021-04-04 08:07:48.672294,2020-12-05 00:00:00.000000,1.23903157,1.90777540,3.38996887,443,682,1213,304,495,946,0.85130565,1.38345786,2.64556999,0.13801166,0.21147761,0.28684733
29009,0,USMissouriBarry,Missouri,Barry,2021-04-04 08:07:48.672294,2020-12-06 00:00:00.000000,1.20760586,1.87916527,3.29335317,432,672,1178,297,483,921,0.83190832,1.35047831,2.57526576,0.13762944,0.21355629,0.28933063
29009,0,USMissouriBarry,Missouri,Barry,2021-04-04 08:07:48.672294,2020-12-07 00:00:00.000000,1.17917477,1.82360119,3.19345307,422,652,1142,291,472,897,0.81319581,1.31892403,2.50719357,0.13455046,0.21652299,0.29429950
29009,0,USMissouriBarry,Missouri,Barry,2021-04-04 08:07:48.672294,2020-12-08 00:00:00.000000,1.15284991,1.78404331,3.09176026,412,638,1106,285,464,874,0.79828075,1.29736414,2.44395475,0.13027865,0.21822593,0.30418627
29009,0,USMissouriBarry,Missouri,Barry,2021-04-04 08:07:48.672294,2020-12-09 00:00:00.000000,1.12827516,1.74431056,3.02230682,403,624,1081,281,455,858,0.78534612,1.27320295,2.39981580,0.12937527,0.21818212,0.30467715
29009,0,USMissouriBarry,Missouri,Barry,2021-04-04 08:07:48.672294,2020-12-10 00:00:00.000000,1.10850198,1.71506924,2.97591038,396,613,1065,276,443,848,0.77362904,1.24012979,2.37039334,0.13107723,0.21903979,0.30090519
29009,0,USMissouriBarry,Missouri,Barry,2021-04-04 08:07:48.672294,2020-12-11 00:00:00.000000,1.09304915,1.70482570,2.92407179,391,610,1046,273,433,837,0.76280468,1.21007969,2.34009321,0.13446225,0.22043388,0.30005046
29009,0,USMissouriBarry,Missouri,Barry,2021-04-04 08:07:48.672294,2020-12-12 00:00:00.000000,1.07875915,1.68993587,2.86824051,386,604,1026,269,425,826,0.75275201,1.18897821,2.30944118,0.13374730,0.22351476,0.32175206
29009,0,USMissouriBarry,Missouri,Barry,2021-04-04 08:07:48.672294,2020-12-13 00:00:00.000000,1.06540285,1.67738247,2.81625850,381,600,1007,266,423,815,0.74350671,1.18465676,2.27855114,0.13148656,0.22436219,0.31687350
29009,0,USMissouriBarry,Missouri,Barry,2021-04-04 08:07:48.672294,2020-12-14 00:00:00.000000,1.05281472,1.66912912,2.77976737,376,597,994,263,419,804,0.73541525,1.17170543,2.24774257,0.13266961,0.22665113,0.32683467
29009,0,USMissouriBarry,Missouri,Barry,2021-04-04 08:07:48.672294,2020-12-15 00:00:00.000000,1.04073014,1.65433483,2.74301290,372,592,981,259,417,793,0.72433506,1.16528998,2.21814146,0.13253673,0.22654018,0.33333419
29009,0,USMissouriBarry,Missouri,Barry,2021-04-04 08:07:48.672294,2020-12-16 00:00:00.000000,1.04827477,1.63240726,2.70662761,375,584,968,255,413,783,0.71389971,1.15433968,2.18902678,0.13269751,0.22701874,0.33644830
29009,0,USMissouriBarry,Missouri,Barry,2021-04-04 08:07:48.672294,2020-12-17 00:00:00.000000,1.04295597,1.59900651,2.67053048,373,572,955,252,412,773,0.70426843,1.15148620,2.16017547,0.13316495,0.23181297,0.33684431
29009,0,USMissouriBarry,Missouri,Barry,2021-04-04 08:07:48.672294,2020-12-18 00:00:00.000000,1.03193927,1.55407977,2.63476478,369,556,942,248,403,762,0.69440815,1.12798549,2.13153567,0.13406323,0.23624857,0.33546779
29009,0,USMissouriBarry,Missouri,Barry,2021-04-04 08:07:48.672294,2020-12-19 00:00:00.000000,1.00841586,1.51307457,2.59955977,360,541,930,245,399,752,0.68668481,1.11597888,2.10313548,0.13573727,0.24197349,0.33326519
29009,0,USMissouriBarry,Missouri,Barry,2021-04-04 08:07:48.672294,2020-12-20 00:00:00.000000,0.98619579,1.50376660,2.56569996,352,538,918,245,392,742,0.68714039,1.09575769,2.07511645,0.13915627,0.24246846,0.33797868
29009,0,USMissouriBarry,Missouri,Barry,2021-04-04 08:07:48.672294,2020-12-21 00:00:00.000000,0.97006909,1.48489128,2.53296318,347,531,906,243,387,732,0.68026990,1.08270529,2.04795781,0.14305010,0.24639155,0.33925821
29009,0,USMissouriBarry,Missouri,Barry,2021-04-04 08:07:48.672294,2020-12-22 00:00:00.000000,0.94069483,1.48624545,2.51027155,336,531,898,236,383,723,0.66166233,1.07060789,2.02168363,0.14393293,0.24719266,0.34100030
29009,0,USMissouriBarry,Missouri,Barry,2021-04-04 08:07:48.672294,2020-12-23 00:00:00.000000,0.91608344,1.47312783,2.50495213,327,527,896,231,377,713,0.64560300,1.05536905,1.99398675,0.14564105,0.24676965,0.34386319
29009,0,USMissouriBarry,Missouri,Barry,2021-04-04 08:07:48.672294,2020-12-24 00:00:00.000000,0.90555429,1.46359764,2.47207863,324,523,884,225,372,693,0.63127032,1.04166541,1.93838137,0.14669316,0.24754056,0.34815039
29009,0,USMissouriBarry,Missouri,Barry,2021-04-04 08:07:48.672294,2020-12-25 00:00:00.000000,0.89834206,1.44842281,2.40263869,321,518,859,223,373,674,0.62327909,1.04336209,1.88445726,0.14899794,0.25126748,0.35106544
29009,0,USMissouriBarry,Missouri,Barry,2021-04-04 08:07:48.672294,2020-12-26 00:00:00.000000,0.88082986,1.43819949,2.35500876,315,514,842,218,371,671,0.61140246,1.03731121,1.87697355,0.14848845,0.25255291,0.34691161
29009,0,USMissouriBarry,Missouri,Barry,2021-04-04 08:07:48.672294,2020-12-27 00:00:00.000000,0.86778827,1.43631671,2.34706674,310,514,839,213,363,669,0.59674654,1.01455941,1.87010116,0.14565015,0.25508415,0.35681294
29009,0,USMissouriBarry,Missouri,Barry,2021-04-04 08:07:48.672294,2020-12-28 00:00:00.000000,0.86581989,1.42850031,2.32579667,309,511,832,209,360,666,0.58646366,1.00669723,1.86329362,0.14391097,0.25549911,0.35749545
29009,0,USMissouriBarry,Missouri,Barry,2021-04-04 08:07:48.672294,2020-12-29 00:00:00.000000,0.85442095,1.41157732,2.30179984,305,505,823,208,357,662,0.58316462,0.99899027,1.85014980,0.14659614,0.25315194,0.36465395
29009,0,USMissouriBarry,Missouri,Barry,2021-04-04 08:07:48.672294,2020-12-30 00:00:00.000000,0.86127154,1.38649217,2.27143087,308,496,812,209,355,656,0.58591104,0.99268889,1.83308492,0.15457289,0.25514659,0.37235909
29009,0,USMissouriBarry,Missouri,Barry,2021-04-04 08:07:48.672294,2020-12-31 00:00:00.000000,0.87061875,1.37994496,2.24035945,311,493,801,208,352,648,0.58169431,0.98626269,1.81163743,0.15213487,0.25453023,0.37383360
29009,0,USMissouriBarry,Missouri,Barry,2021-04-04 08:07:48.672294,2021-01-01 00:00:00.000000,0.87767281,1.36297787,2.20761426,314,487,790,205,347,639,0.57485182,0.97206479,1.78567571,0.15573897,0.25546814,0.37355791
29009,0,USMissouriBarry,Missouri,Barry,2021-04-04 08:07:48.672294,2021-01-02 00:00:00.000000,0.87591506,1.33969542,2.17196594,313,479,777,208,342,628,0.58179753,0.95714104,1.75652853,0.15446824,0.25496798,0.37735671
29009,0,USMissouriBarry,Missouri,Barry,2021-04-04 08:07:48.672294,2021-01-03 00:00:00.000000,0.87357915,1.33205282,2.13505786,312,476,764,213,339,617,0.59624083,0.94842789,1.72572022,0.14710407,0.24988539,0.37365755
29009,0,USMissouriBarry,Missouri,Barry,2021-04-04 08:07:48.672294,2021-01-04 00:00:00.000000,0.87058775,1.31902347,2.09587874,311,472,750,214,339,606,0.59989740,0.94946583,1.69439865,0.14700609,0.24386786,0.36716959
29009,0,USMissouriBarry,Missouri,Barry,2021-04-04 08:07:48.672294,2021-01-05 00:00:00.000000,0.86717577,1.29447592,2.05591588,310,463,735,214,334,596,0.59811187,0.93392710,1.66658207,0.14706141,0.24300051,0.35970032
29009,0,USMissouriBarry,Missouri,Barry,2021-04-04 08:07:48.672294,2021-01-06 00:00:00.000000,0.86291131,1.27592415,2.03289610,308,456,727,213,330,587,0.59575261,0.92372954,1.64057191,0.14732382,0.24214168,0.35516361
29009,0,USMissouriBarry,Missouri,Barry,2021-04-04 08:07:48.672294,2021-01-07 00:00:00.000000,0.85799468,1.26701988,2.01511163,307,453,721,212,331,578,0.59266540,0.92671006,1.61566887,0.14821556,0.24136309,0.35154581
29009,0,USMissouriBarry,Missouri,Barry,2021-04-04 08:07:48.672294,2021-01-08 00:00:00.000000,0.86367329,1.25989810,1.99812099,309,450,715,210,327,569,0.58934293,0.91587441,1.59174312,0.15124400,0.24021328,0.33882319
29009,0,USMissouriBarry,Missouri,Barry,2021-04-04 08:07:48.672294,2021-01-09 00:00:00.000000,0.86748517,1.24002782,1.98160472,310,443,709,210,326,561,0.58889758,0.91100690,1.56922375,0.15262212,0.23660566,0.31824179
29009,0,USMissouriBarry,Missouri,Barry,2021-04-04 08:07:48.672294,2021-01-10 00:00:00.000000,0.85119801,1.20763582,1.95717117,304,432,700,208,319,554,0.58182013,0.89234166,1.54889117,0.15117196,0.23226915,0.30568356
29009,0,USMissouriBarry,Missouri,Barry,2021-04-04 08:07:48.672294,2021-01-11 00:00:00.000000,0.83445897,1.19220251,1.90484895,298,426,681,206,311,547,0.57778982,0.87176558,1.53084492,0.15246737,0.23175470,0.30159923
29009,0,USMissouriBarry,Missouri,Barry,2021-04-04 08:07:48.672294,2021-01-12 00:00:00.000000,0.82669508,1.17557198,1.88025400,295,420,672,205,306,541,0.57365985,0.85767777,1.51414290,0.14202122,0.22874398,0.29983995
29009,0,USMissouriBarry,Missouri,Barry,2021-04-04 08:07:48.672294,2021-01-13 00:00:00.000000,0.80113034,1.16292803,1.86250619,286,416,666,203,300,533,0.56821798,0.84019244,1.49174465,0.13874750,0.22511707,0.29991728
29009,0,USMissouriBarry,Missouri,Barry,2021-04-04 08:07:48.672294,2021-01-14 00:00:00.000000,0.76821679,1.14852537,1.84529654,274,411,660,198,294,522,0.55408404,0.82251819,1.46038261,0.14078978,0.22119591,0.29953130
29009,0,USMissouriBarry,Missouri,Barry,2021-04-04 08:07:48.672294,2021-01-15 00:00:00.000000,0.73792613,1.12656066,1.82876356,264,403,654,190,288,517,0.53132149,0.80745571,1.44504761,0.14069976,0.21805138,0.29949809
29009,0,USMissouriBarry,Missouri,Barry,2021-04-04 08:07:48.672294,2021-01-16 00:00:00.000000,0.71065812,1.08957240,1.81309529,254,389,648,182,284,511,0.51021901,0.79376653,1.42859846,0.13405997,0.21401182,0.30847280
29009,0,USMissouriBarry,Missouri,Barry,2021-04-04 08:07:48.672294,2021-01-17 00:00:00.000000,0.68657595,1.07102808,1.79841485,245,383,643,175,281,504,0.49096543,0.78792543,1.41101393,0.13589056,0.20756652,0.28764417
29009,0,USMissouriBarry,Missouri,Barry,2021-04-04 08:07:48.672294,2021-01-18 00:00:00.000000,0.66564505,1.05189372,1.77723974,238,376,636,169,279,498,0.47376708,0.78151005,1.39239775,0.13901985,0.20817708,0.28848690
29009,0,USMissouriBarry,Missouri,Barry,2021-04-04 08:07:48.672294,2021-01-19 00:00:00.000000,0.64804332,1.03255567,1.75680289,231,369,628,164,274,491,0.45866273,0.76814925,1.37253909,0.13821901,0.20850797,0.28905982
29009,0,USMissouriBarry,Missouri,Barry,2021-04-04 08:07:48.672294,2021-01-20 00:00:00.000000,0.63149633,0.99990341,1.73336055,226,357,620,159,265,483,0.44574428,0.74301133,1.35208708,0.13799265,0.20596063,0.29019368
29009,0,USMissouriBarry,Missouri,Barry,2021-04-04 08:07:48.672294,2021-01-21 00:00:00.000000,0.59545442,0.96805330,1.70754234,213,346,611,155,261,476,0.43529849,0.73019795,1.33165041,0.13836390,0.20637459,0.30153004
29009,0,USMissouriBarry,Missouri,Barry,2021-04-04 08:07:48.672294,2021-01-22 00:00:00.000000,0.56160817,0.93753736,1.68359779,200,335,602,148,256,469,0.41406821,0.71634124,1.31181765,0.13815640,0.21011008,0.30730853
29009,0,USMissouriBarry,Missouri,Barry,2021-04-04 08:07:48.672294,2021-01-23 00:00:00.000000,0.53016877,0.90879349,1.66181207,189,325,594,139,250,462,0.39078737,0.69914201,1.29308874,0.13870692,0.21301805,0.31148202
29009,0,USMissouriBarry,Missouri,Barry,2021-04-04 08:07:48.672294,2021-01-24 00:00:00.000000,0.50199037,0.88844256,1.64203213,179,317,587,132,242,456,0.36903897,0.67649991,1.27567149,0.14540593,0.21773179,0.32212850
29009,0,USMissouriBarry,Missouri,Barry,2021-04-04 08:07:48.672294,2021-01-25 00:00:00.000000,0.48631591,0.87128622,1.61666675,174,311,578,124,233,450,0.34926370,0.65183871,1.25925666,0.14357575,0.22686322,0.33574388
29009,0,USMissouriBarry,Missouri,Barry,2021-04-04 08:07:48.672294,2021-01-26 00:00:00.000000,0.48000235,0.85525865,1.59314828,171,306,570,120,224,445,0.33619340,0.62737366,1.24476117,0.14404175,0.23537586,0.33722784
29009,0,USMissouriBarry,Missouri,Barry,2021-04-04 08:07:48.672294,2021-01-27 00:00:00.000000,0.48155508,0.83652197,1.58567261,172,299,567,118,219,440,0.32982255,0.61259296,1.23172652,0.14835269,0.23623295,0.33771612
29009,0,USMissouriBarry,Missouri,Barry,2021-04-04 08:07:48.672294,2021-01-28 00:00:00.000000,0.48775408,0.82497263,1.56643003,174,295,560,117,218,436,0.32906169,0.60994995,1.21980995,0.15285337,0.24406470,0.34117574
29009,0,USMissouriBarry,Missouri,Barry,2021-04-04 08:07:48.672294,2021-01-29 00:00:00.000000,0.47685909,0.81329140,1.54782496,170,291,553,118,210,432,0.33198649,0.58942485,1.20869496,0.16117482,0.24838289,0.35572182
29009,0,USMissouriBarry,Missouri,Barry,2021-04-04 08:07:48.672294,2021-01-30 00:00:00.000000,0.46554320,0.80453253,1.53389519,166,287,548,115,206,428,0.32410513,0.57800351,1.19811100,0.16133824,0.25231557,0.36581652
29009,0,USMissouriBarry,Missouri,Barry,2021-04-04 08:07:48.672294,2021-01-31 00:00:00.000000,0.45793855,0.80262934,1.52583234,163,287,546,112,204,425,0.31572508,0.57060926,1.18782008,0.16179971,0.26115100,0.37475663
29009,0,USMissouriBarry,Missouri,Barry,2021-04-04 08:07:48.672294,2021-02-01 00:00:00.000000,0.45304250,0.79794373,1.52558714,162,285,545,110,202,421,0.30992143,0.56503129,1.17745745,0.16282112,0.27095581,0.38871438
29009,0,USMissouriBarry,Missouri,Barry,2021-04-04 08:07:48.672294,2021-02-02 00:00:00.000000,0.46214411,0.80161171,1.51938211,165,286,543,112,201,418,0.31485086,0.56322208,1.16818603,0.16431302,0.27791967,0.39128788
29009,0,USMissouriBarry,Missouri,Barry,2021-04-04 08:07:48.672294,2021-02-03 00:00:00.000000,0.47363488,0.80811192,1.51591184,169,289,542,115,200,415,0.32159067,0.56082970,1.16076927,0.17706500,0.28623602,0.42294016
29009,0,USMissouriBarry,Missouri,Barry,2021-04-04 08:07:48.672294,2021-02-04 00:00:00.000000,0.48942589,0.81425061,1.51600667,175,291,542,117,200,413,0.32943407,0.56090816,1.15627913,0.17786052,0.29215975,0.45232778
29009,0,USMissouriBarry,Missouri,Barry,2021-04-04 08:07:48.672294,2021-02-05 00:00:00.000000,0.51394640,0.82359953,1.53287120,183,294,548,121,201,413,0.33978085,0.56350475,1.15458401,0.18698428,0.30345247,0.47508895
29009,0,USMissouriBarry,Missouri,Barry,2021-04-04 08:07:48.672294,2021-02-06 00:00:00.000000,0.51173725,0.84672804,1.57634026,183,303,564,127,204,413,0.35542596,0.57029443,1.15509462,0.20385005,0.32327127,0.49378021
29009,0,USMissouriBarry,Missouri,Barry,2021-04-04 08:07:48.672294,2021-02-07 00:00:00.000000,0.50329859,0.87028916,1.60583666,180,311,574,134,208,424,0.37543652,0.58257436,1.18598763,0.21853158,0.33288042,0.53031714
29009,0,USMissouriBarry,Missouri,Barry,2021-04-04 08:07:48.672294,2021-02-08 00:00:00.000000,0.54247111,0.89322603,1.65078343,194,319,590,133,215,437,0.37417753,0.60291951,1.22369731,0.24510879,0.36353063,0.55619962
29009,0,USMissouriBarry,Missouri,Barry,2021-04-04 08:07:48.672294,2021-02-09 00:00:00.000000,0.57312351,0.92075876,1.70006537,205,329,608,132,222,452,0.37114660,0.62135840,1.26353599,0.25216963,0.40770860,0.62459222
29009,0,USMissouriBarry,Missouri,Barry,2021-04-04 08:07:48.672294,2021-02-10 00:00:00.000000,0.58755730,0.94986234,1.75252678,210,339,627,137,229,467,0.38519773,0.64123670,1.30555318,0.26545659,0.42981049,0.71294955
29009,0,USMissouriBarry,Missouri,Barry,2021-04-04 08:07:48.672294,2021-02-11 00:00:00.000000,0.60772602,1.00802754,1.80703869,217,360,646,143,239,483,0.40181051,0.67043263,1.35021198,0.28197462,0.44106465,0.79323518
29009,0,USMissouriBarry,Missouri,Barry,2021-04-04 08:07:48.672294,2021-02-12 00:00:00.000000,0.63508447,1.07103797,1.88618686,227,383,675,151,253,500,0.42333619,0.70784388,1.39844307,0.29040596,0.47884670,0.82915604
29009,0,USMissouriBarry,Missouri,Barry,2021-04-04 08:07:48.672294,2021-02-13 00:00:00.000000,0.67133552,1.12628798,1.97595403,240,403,707,158,265,516,0.44165647,0.74289432,1.44326583,0.31308397,0.50718513,0.82958309
29009,0,USMissouriBarry,Missouri,Barry,2021-04-04 08:07:48.672294,2021-02-14 00:00:00.000000,0.69429865,1.21912433,2.07635063,248,436,743,166,285,532,0.46603295,0.79759528,1.48728127,0.32602720,0.55614940,0.82988963
29009,0,USMissouriBarry,Missouri,Barry,2021-04-04 08:07:48.672294,2021-02-15 00:00:00.000000,0.77627450,1.33289241,2.24206015,277,477,802,176,301,548,0.49270294,0.84307554,1.53371247,0.33405959,0.58415559,0.84353906
29009,0,USMissouriBarry,Missouri,Barry,2021-04-04 08:07:48.672294,2021-02-16 00:00:00.000000,0.85060753,1.46170273,2.43556775,304,523,871,188,328,583,0.52749622,0.91654276,1.63062565,0.39050954,0.62504653,0.85506789
29009,0,USMissouriBarry,Missouri,Barry,2021-04-04 08:07:48.672294,2021-02-17 00:00:00.000000,0.95022915,1.60046364,2.66570214,340,572,954,205,358,629,0.57362191,1.00262940,1.76003380,0.40767187,0.66235263,0.86981178
29009,0,USMissouriBarry,Missouri,Barry,2021-04-04 08:07:48.672294,2021-02-18 00:00:00.000000,1.08627014,1.76816634,2.97444416,388,632,1064,231,401,669,0.64709454,1.12295719,1.86945940,0.45400120,0.69442001,0.96253526
29009,0,USMissouriBarry,Missouri,Barry,2021-04-04 08:07:48.672294,2021-02-19 00:00:00.000000,1.20525957,1.97105279,3.31563078,431,705,1186,262,442,713,0.73339678,1.23555242,1.99305302,0.46541861,0.73622224,1.04516334
29009,0,USMissouriBarry,Missouri,Barry,2021-04-04 08:07:48.672294,2021-02-20 00:00:00.000000,1.34244602,2.22156442,3.70203353,480,795,1324,288,489,793,0.80579499,1.36707347,2.21671715,0.51854040,0.77407836,1.06249154
29009,0,USMissouriBarry,Missouri,Barry,2021-04-04 08:07:48.672294,2021-02-21 00:00:00.000000,1.54006585,2.50116560,4.15554679,551,895,1487,331,548,892,0.92551200,1.53170518,2.49356858,0.56829613,0.80879762,1.07298805
29009,0,USMissouriBarry,Missouri,Barry,2021-04-04 08:07:48.672294,2021-02-22 00:00:00.000000,1.78726221,2.81854912,4.71434492,639,1008,1687,384,615,1004,1.07412710,1.72017615,2.80595719,0.61793629,0.82993398,1.09890950
29009,0,USMissouriBarry,Missouri,Barry,2021-04-04 08:07:48.672294,2021-02-23 00:00:00.000000,2.07607773,3.21011096,5.33754171,743,1148,1910,445,689,1129,1.24597256,1.92605719,3.15734823,0.62975395,0.85397765,1.09829104
29009,0,USMissouriBarry,Missouri,Barry,2021-04-04 08:07:48.672294,2021-02-24 00:00:00.000000,2.41091389,3.64296562,5.99951491,862,1303,2147,517,788,1271,1.44609222,2.20406955,3.55331677,0.68222939,0.87280424,1.12979927
29009,0,USMissouriBarry,Missouri,Barry,2021-04-04 08:07:48.672294,2021-02-25 00:00:00.000000,2.79435641,4.16436081,6.70971802,1000,1490,2401,600,889,1443,1.67859755,2.48572051,4.03439811,0.70370178,0.88913503,1.12990236
29009,0,USMissouriBarry,Missouri,Barry,2021-04-04 08:07:48.672294,2021-02-26 00:00:00.000000,3.23278566,4.74773428,7.65538506,1156,1699,2739,693,1015,1650,1.93902878,2.83768540,4.61244763,0.71125057,0.90370030,1.12678729
29009,0,USMissouriBarry,Missouri,Barry,2021-04-04 08:07:48.672294,2021-02-27 00:00:00.000000,3.73215985,5.41805452,8.60067394,1335,1939,3078,784,1161,1845,2.19140939,3.24520732,5.15566695,0.73341095,0.91537880,1.11493764
29009,0,USMissouriBarry,Missouri,Barry,2021-04-04 08:07:48.672294,2021-02-28 00:00:00.000000,4.29880688,6.20268910,9.72226912,1538,2219,3479,887,1327,2085,2.47883886,3.70819338,5.82703163,0.79188309,0.91910894,1.08880433
29009,0,USMissouriBarry,Missouri,Barry,2021-04-04 08:07:48.672294,2021-03-01 00:00:00.000000,4.93444763,7.07654176,10.85371919,1765,2532,3884,1012,1513,2360,2.82995462,4.22820846,6.59567539,0.82969218,0.91807395,1.07641064
29009,0,USMissouriBarry,Missouri,Barry,2021-04-04 08:07:48.672294,2021-03-02 00:00:00.000000,5.64960881,8.05035874,12.15875548,2021,2881,4351,1160,1718,2662,3.24263374,4.80068161,7.44071656,0.87118354,0.92230600,1.06678530
29009,0,USMissouriBarry,Missouri,Barry,2021-04-04 08:07:48.672294,2021-03-03 00:00:00.000000,6.44848395,9.10986108,13.54882017,2307,3260,4848,1328,1944,2990,3.71146928,5.43204526,8.35549663,0.87196279,0.92854132,1.07003076
29009,0,USMissouriBarry,Missouri,Barry,2021-04-04 08:07:48.672294,2021-03-04 00:00:00.000000,7.33534471,10.21941451,15.00746846,2625,3657,5371,1516,2198,3341,4.23811032,6.14188788,9.33537094,0.87232930,0.92760158,1.07110907
29009,0,USMissouriBarry,Missouri,Barry,2021-04-04 08:07:48.672294,2021-03-05 00:00:00.000000,8.27407538,11.40987591,16.63552883,2961,4083,5953,1726,2486,3711,4.82532001,6.94706813,10.37142267,0.87244846,0.92948641,1.07087154
29009,0,USMissouriBarry,Missouri,Barry,2021-04-04 08:07:48.672294,2021-03-06 00:00:00.000000,9.37495027,12.72639137,18.29597636,3355,4554,6547,1959,2762,4097,5.47528435,7.71989742,11.44809251,0.87011286,0.92668268,1.06838089
29009,0,USMissouriBarry,Missouri,Barry,2021-04-04 08:07:48.672294,2021-03-07 00:00:00.000000,10.49856819,14.11018330,19.87041950,3757,5049,7111,2214,3089,4491,6.18789966,8.63182498,12.54979693,0.86677991,0.92014778,1.04113805
29009,0,USMissouriBarry,Missouri,Barry,2021-04-04 08:07:48.672294,2021-03-08 00:00:00.000000,11.54168715,15.56861959,21.40384415,4130,5571,7660,2471,3414,4927,6.90590036,9.54092043,13.76689690,0.79901137,0.90377570,1.01064346
29009,0,USMissouriBarry,Missouri,Barry,2021-04-04 08:07:48.672294,2021-03-09 00:00:00.000000,12.59321307,16.84733930,22.69528447,4506,6029,8122,2737,3773,5348,7.65037370,10.54450813,14.94570198,0.58395098,0.87341260,0.99539051
29009,0,USMissouriBarry,Missouri,Barry,2021-04-04 08:07:48.672294,2021-03-10 00:00:00.000000,13.51903986,17.74693167,23.76582882,4838,6351,8505,3000,4090,5723,8.38439448,11.42996416,15.99236021,0.38396993,0.72305200,0.89646568
29009,0,USMissouriBarry,Missouri,Barry,2021-04-04 08:07:48.672294,2021-03-11 00:00:00.000000,13.66569333,17.78515186,23.72007870,4890,6365,8489,3217,4339,6122,8.99038298,12.12535955,17.10585833,0.25692515,0.48983377,0.74996066
29009,0,USMissouriBarry,Missouri,Barry,2021-04-04 08:07:48.672294,2021-03-12 00:00:00.000000,13.22918008,17.06351350,22.88979751,4734,6106,8192,3280,4446,6364,9.16731404,12.42449586,17.78383123,0.18511459,0.33366811,0.50349687
29009,0,USMissouriBarry,Missouri,Barry,2021-04-04 08:07:48.672294,2021-03-13 00:00:00.000000,12.47675879,16.32694043,22.30023708,4465,5843,7981,3205,4399,6314,8.95675937,12.29371778,17.64355387,0.15766412,0.25628177,0.40669150
29009,0,USMissouriBarry,Missouri,Barry,2021-04-04 08:07:48.672294,2021-03-14 00:00:00.000000,11.67320591,15.32479354,22.11517183,4177,5484,7914,3043,4210,6166,8.50409786,11.76473416,17.23019318,0.14667432,0.23249400,0.37799549
29009,0,USMissouriBarry,Missouri,Barry,2021-04-04 08:07:48.672294,2021-03-15 00:00:00.000000,10.84621703,14.38580969,21.35473626,3881,5148,7642,2851,3974,6080,7.96655322,11.10652594,16.99043517,0.14134172,0.21776324,0.36948213
29009,0,USMissouriBarry,Missouri,Barry,2021-04-04 08:07:48.672294,2021-03-16 00:00:00.000000,9.97741940,13.36285548,20.49140895,3570,4782,7333,2653,3745,5949,7.41361421,10.46487525,16.62502413,0.13633906,0.20364306,0.36439337
29009,0,USMissouriBarry,Missouri,Barry,2021-04-04 08:07:48.672294,2021-03-17 00:00:00.000000,9.06230508,12.34732821,19.48218840,3243,4418,6972,2456,3444,5795,6.86428890,9.62406855,16.19384555,0.13084574,0.19431566,0.35194472
29009,0,USMissouriBarry,Missouri,Barry,2021-04-04 08:07:48.672294,2021-03-18 00:00:00.000000,8.22222344,11.39769808,18.51416697,2942,4079,6626,2259,3203,5597,6.31397616,8.95169585,15.64000843,0.12588956,0.18035059,0.34162792
29009,0,USMissouriBarry,Missouri,Barry,2021-04-04 08:07:48.672294,2021-03-19 00:00:00.000000,7.43127100,10.49985263,17.58668566,2659,3757,6294,2059,2975,5315,5.75366536,8.31313862,14.85273419,0.11972073,0.17779168,0.32228520
29009,0,USMissouriBarry,Missouri,Barry,2021-04-04 08:07:48.672294,2021-03-20 00:00:00.000000,6.76720744,9.63298116,16.67251444,2421,3447,5966,1863,2752,5035,5.20744014,7.69209456,14.07051177,0.11503398,0.17159931,0.30572981
29009,0,USMissouriBarry,Missouri,Barry,2021-04-04 08:07:48.672294,2021-03-21 00:00:00.000000,6.13412376,8.87794935,15.71353353,2195,3177,5623,1676,2540,4767,4.68407836,7.09870824,13.32097589,0.10686437,0.16486323,0.28737029
29009,0,USMissouriBarry,Missouri,Barry,2021-04-04 08:07:48.672294,2021-03-22 00:00:00.000000,5.51319986,8.17733504,14.80295165,1973,2926,5297,1507,2342,4512,4.21116336,6.54459262,12.60892399,0.09828605,0.16254353,0.28715191
29009,0,USMissouriBarry,Missouri,Barry,2021-04-04 08:07:48.672294,2021-03-23 00:00:00.000000,4.89648990,7.52796756,13.93658917,1752,2694,4987,1353,2153,4271,3.78298428,6.01827514,11.93400567,0.09790377,0.16083190,0.28671527
29009,0,USMissouriBarry,Missouri,Barry,2021-04-04 08:07:48.672294,2021-03-24 00:00:00.000000,4.34642353,6.92933152,13.11339234,1555,2479,4693,1215,1987,4042,3.39736299,5.55209366,11.29493398,0.09764651,0.15942416,0.28451416
29009,0,USMissouriBarry,Missouri,Barry,2021-04-04 08:07:48.672294,2021-03-25 00:00:00.000000,3.88488691,6.37945123,12.32866233,1390,2283,4412,1091,1838,3825,3.05120315,5.13741966,10.68984465,0.09718590,0.15927036,0.28224064
29009,0,USMissouriBarry,Missouri,Barry,2021-04-04 08:07:48.672294,2021-03-26 00:00:00.000000,3.49074022,5.85369053,11.65017594,1249,2094,4169,981,1683,3620,2.74146806,4.70328753,10.11680924,0.09246502,0.15407249,0.28063771
29009,0,USMissouriBarry,Missouri,Barry,2021-04-04 08:07:48.672294,2021-03-27 00:00:00.000000,3.13081335,5.36627689,11.01669579,1120,1920,3942,879,1541,3426,2.45704413,4.30629645,9.57399551,0.08535028,0.15515797,0.29728389
29009,0,USMissouriBarry,Missouri,Barry,2021-04-04 08:07:48.672294,2021-03-28 00:00:00.000000,2.80590933,4.94400152,10.41812862,1004,1769,3728,781,1411,3242,2.18446014,3.94484415,9.05969815,0.08262029,0.15289586,0.30652270
29009,0,USMissouriBarry,Missouri,Barry,2021-04-04 08:07:48.672294,2021-03-29 00:00:00.000000,2.53764600,4.55870261,9.84431087,908,1631,3523,695,1299,3067,1.94342609,3.63210035,8.57232871,0.07894110,0.15074474,0.30767093
29009,0,USMissouriBarry,Missouri,Barry,2021-04-04 08:07:48.672294,2021-03-30 00:00:00.000000,2.28570094,4.19799980,9.30087762,818,1502,3328,617,1199,2901,1.72496098,3.35156298,8.10609731,0.07884118,0.15106801,0.30014345
29009,0,USMissouriBarry,Missouri,Barry,2021-04-04 08:07:48.672294,2021-03-31 00:00:00.000000,2.05548594,3.85494884,8.78565824,735,1379,3144,554,1106,2742,1.55045263,3.09293115,7.66248867,0.07875125,0.15281033,0.29541098
29009,0,USMissouriBarry,Missouri,Barry,2021-04-04 08:07:48.672294,2021-04-01 00:00:00.000000,1.83529659,3.52969618,8.29727260,656,1263,2969,506,1021,2591,1.41508548,2.85443224,7.24124570,0.07848175,0.15481226,0.29703473
29009,0,USMissouriBarry,Missouri,Barry,2021-04-04 08:07:48.672294,2021-04-02 00:00:00.000000,1.61819058,3.21466500,7.83384736,579,1150,2803,463,941,2448,1.29377923,2.63106574,6.84145369,0.07735268,0.15694200,0.30206345
29009,0,USMissouriBarry,Missouri,Barry,2021-04-04 08:07:48.672294,2021-04-03 00:00:00.000000,1.42761719,2.92813173,7.39320038,510,1047,2645,411,862,2312,1.14872122,2.40967189,6.46182999,0.07383450,0.15728469,0.31052107
29009,0,USMissouriBarry,Missouri,Barry,2021-04-04 08:07:48.672294,2021-04-04 00:00:00.000000,1.25995602,2.69711340,6.97392095,450,965,2495,362,787,2183,1.01371379,2.20081628,6.10082961,0.07134532,0.15507154,0.31521756
29009,0,USMissouriBarry,Missouri,Barry,2021-04-04 08:07:48.672294,2021-04-05 00:00:00.000000,1.11222826,2.49703740,6.60184354,398,893,2362,320,717,2060,0.89489857,2.00601156,5.75675992,0.06645055,0.15226548,0.33243206
29009,0,USMissouriBarry,Missouri,Barry,2021-04-04 08:07:48.672294,2021-04-06 00:00:00.000000,0.98194747,2.27517727,6.25151861,351,814,2237,282,657,1942,0.79015862,1.83776288,5.42811195,0.06574871,0.15242327,0.34068737
29009,0,USMissouriBarry,Missouri,Barry,2021-04-04 08:07:48.672294,2021-04-07 00:00:00.000000,0.86699627,2.07490797,5.92042493,310,742,2118,249,601,1830,0.69774718,1.68008231,5.11403813,0.06557967,0.15176852,0.34875467
29009,0,USMissouriBarry,Missouri,Barry,2021-04-04 08:07:48.672294,2021-04-08 00:00:00.000000,0.76554278,1.89365640,5.60674326,273,677,2006,220,549,1723,0.61617733,1.53591090,4.81448453,0.06553714,0.15020515,0.35586641
29009,0,USMissouriBarry,Missouri,Barry,2021-04-04 08:07:48.672294,2021-04-09 00:00:00.000000,0.67598741,1.72899971,5.30917923,241,618,1900,194,505,1629,0.54416076,1.41145400,4.55241293,0.06552517,0.15001365,0.35822630
29009,0,USMissouriBarry,Missouri,Barry,2021-04-04 08:07:48.672294,2021-04-10 00:00:00.000000,0.59692658,1.58644444,5.02675465,213,567,1799,171,464,1542,0.48057090,1.29767999,4.31101008,0.06552135,0.14997512,0.35948900
29009,0,USMissouriBarry,Missouri,Barry,2021-04-04 08:07:48.672294,2021-04-11 00:00:00.000000,0.52712550,1.45831918,4.75867124,188,521,1703,151,427,1460,0.42441796,1.19333052,4.08202565,0.06551998,0.14995382,0.36015605
29009,0,USMissouriBarry,Missouri,Barry,2021-04-04 08:07:48.672294,2021-04-12 00:00:00.000000,0.46549635,1.33330427,4.50423183,166,477,1612,134,392,1383,0.37483020,1.09744676,3.86473967,0.06551946,0.14994224,0.36050890
29009,0,USMissouriBarry,Missouri,Barry,2021-04-04 08:07:48.672294,2021-04-13 00:00:00.000000,0.41108012,1.21903995,4.26279783,147,436,1525,118,358,1309,0.33103893,1.00300587,3.65854099,0.06551925,0.14993600,0.36069735
29009,0,USMissouriBarry,Missouri,Barry,2021-04-04 08:07:48.672294,2021-04-14 00:00:00.000000,0.36303093,1.11460762,4.03376748,129,398,1443,104,327,1239,0.29236586,0.91404899,3.46288446,0.06551916,0.14993266,0.36079947
29009,0,USMissouriBarry,Missouri,Barry,2021-04-04 08:07:48.672294,2021-04-15 00:00:00.000000,0.32060254,1.01915999,3.81656528,114,364,1365,92,298,1172,0.25821231,0.83297964,3.27726672,0.06551913,0.14993088,0.36085581
29009,0,USMissouriBarry,Missouri,Barry,2021-04-04 08:07:48.672294,2021-04-16 00:00:00.000000,0.28313643,0.92998653,3.61063736,101,332,1292,81,272,1109,0.22892043,0.76224872,3.10121317,0.06551911,0.14992993,0.36088753
