FIPS,HR_UID,nameid,province,region,analysisTime,dates,pointprevalence_025,pointprevalence_50,pointprevalence_975,pointinfections_025,pointinfections_50,pointinfections_975,pointinfectious_025,pointinfectious_50,pointinfectious_975,pointinfectiousprevalence_05,pointinfectiousprevalence_50,pointinfectiousprevalence_95,infectrate_025,infectrate_50,infectrate_975
0,0,ChinaHubei,Hubei,,2021-04-04 00:47:00.689591,2020-03-09 00:00:00.000000,0.00000305,0.00001449,0.00004623,1,8,27,0,3,13,0.00000060,0.00000627,0.00002212,0.48158110,0.60932272,0.78070415
0,0,ChinaHubei,Hubei,,2021-04-04 00:47:00.689591,2020-03-10 00:00:00.000000,0.00000471,0.00001743,0.00004625,2,10,27,1,6,16,0.00000220,0.00001025,0.00002777,0.48158116,0.60932368,0.78070484
0,0,ChinaHubei,Hubei,,2021-04-04 00:47:00.689591,2020-03-11 00:00:00.000000,0.00000665,0.00002262,0.00005762,3,13,34,2,8,18,0.00000352,0.00001399,0.00003195,0.48158145,0.60932598,0.78070589
0,0,ChinaHubei,Hubei,,2021-04-04 00:47:00.689591,2020-03-12 00:00:00.000000,0.00000890,0.00002854,0.00006933,5,16,41,2,10,25,0.00000504,0.00001749,0.00004388,0.48158291,0.60933157,0.78070751
0,0,ChinaHubei,Hubei,,2021-04-04 00:47:00.689591,2020-03-13 00:00:00.000000,0.00001152,0.00003465,0.00007952,6,20,47,4,13,30,0.00000679,0.00002203,0.00005086,0.48159011,0.60934540,0.78070990
0,0,ChinaHubei,Hubei,,2021-04-04 00:47:00.689591,2020-03-14 00:00:00.000000,0.00001456,0.00004104,0.00009068,8,24,53,5,15,34,0.00000881,0.00002683,0.00005848,0.48162576,0.60938076,0.78071294
0,0,ChinaHubei,Hubei,,2021-04-04 00:47:00.689591,2020-03-15 00:00:00.000000,0.00001809,0.00004873,0.00010303,10,28,60,6,18,39,0.00001115,0.00003171,0.00006673,0.48180199,0.60947649,0.78071423
0,0,ChinaHubei,Hubei,,2021-04-04 00:47:00.689591,2020-03-16 00:00:00.000000,0.00002274,0.00005643,0.00011684,13,33,69,8,22,44,0.00001385,0.00003802,0.00007581,0.48233210,0.60975899,0.78069925
0,0,ChinaHubei,Hubei,,2021-04-04 00:47:00.689591,2020-03-17 00:00:00.000000,0.00002803,0.00006638,0.00013206,16,39,78,10,25,50,0.00001741,0.00004385,0.00008597,0.48233343,0.60994652,0.78059318
0,0,ChinaHubei,Hubei,,2021-04-04 00:47:00.689591,2020-03-18 00:00:00.000000,0.00003476,0.00007597,0.00014887,20,44,88,12,29,57,0.00002149,0.00005043,0.00009713,0.48233858,0.60623958,0.78003027
0,0,ChinaHubei,Hubei,,2021-04-04 00:47:00.689591,2020-03-19 00:00:00.000000,0.00004319,0.00009126,0.00016739,25,53,99,15,34,64,0.00002632,0.00005833,0.00010944,0.48235871,0.60597044,0.77731169
0,0,ChinaHubei,Hubei,,2021-04-04 00:47:00.689591,2020-03-20 00:00:00.000000,0.00005187,0.00010465,0.00018773,30,61,111,19,40,72,0.00003269,0.00006818,0.00012299,0.48243716,0.60569718,0.76660185
0,0,ChinaHubei,Hubei,,2021-04-04 00:47:00.689591,2020-03-21 00:00:00.000000,0.00005952,0.00011870,0.00021011,35,70,124,22,45,82,0.00003795,0.00007707,0.00013991,0.47474882,0.60784921,0.76322136
0,0,ChinaHubei,Hubei,,2021-04-04 00:47:00.689591,2020-03-22 00:00:00.000000,0.00007214,0.00013537,0.00023635,42,80,139,26,52,95,0.00004519,0.00008789,0.00016164,0.46495800,0.60965660,0.77622502
0,0,ChinaHubei,Hubei,,2021-04-04 00:47:00.689591,2020-03-23 00:00:00.000000,0.00009087,0.00015488,0.00026589,53,91,157,31,60,109,0.00005397,0.00010153,0.00018425,0.47031425,0.61114792,0.83827390
0,0,ChinaHubei,Hubei,,2021-04-04 00:47:00.689591,2020-03-24 00:00:00.000000,0.00010480,0.00017866,0.00029732,62,105,175,41,69,122,0.00007059,0.00011691,0.00020699,0.48653584,0.61305672,0.92396923
0,0,ChinaHubei,Hubei,,2021-04-04 00:47:00.689591,2020-03-25 00:00:00.000000,0.00012529,0.00020502,0.00033213,74,121,196,47,79,136,0.00007978,0.00013498,0.00023124,0.49758021,0.62448902,0.94347311
0,0,ChinaHubei,Hubei,,2021-04-04 00:47:00.689591,2020-03-26 00:00:00.000000,0.00014755,0.00023346,0.00037554,87,138,222,56,91,152,0.00009528,0.00015451,0.00025833,0.49925881,0.63500188,0.94563787
0,0,ChinaHubei,Hubei,,2021-04-04 00:47:00.689591,2020-03-27 00:00:00.000000,0.00017524,0.00027139,0.00042860,103,160,253,67,105,171,0.00011445,0.00017849,0.00028962,0.50464548,0.64888795,0.94852731
0,0,ChinaHubei,Hubei,,2021-04-04 00:47:00.689591,2020-03-28 00:00:00.000000,0.00020541,0.00031432,0.00049002,121,185,289,80,120,192,0.00013559,0.00020439,0.00032561,0.51515348,0.66162524,0.95977687
0,0,ChinaHubei,Hubei,,2021-04-04 00:47:00.689591,2020-03-29 00:00:00.000000,0.00023294,0.00036757,0.00056938,137,217,336,94,141,216,0.00016021,0.00023940,0.00036630,0.50244695,0.69696685,0.95898406
0,0,ChinaHubei,Hubei,,2021-04-04 00:47:00.689591,2020-03-30 00:00:00.000000,0.00027583,0.00042701,0.00065477,163,252,387,109,166,249,0.00018524,0.00028209,0.00042183,0.50379415,0.71722393,0.97957294
0,0,ChinaHubei,Hubei,,2021-04-04 00:47:00.689591,2020-03-31 00:00:00.000000,0.00032679,0.00049930,0.00075418,193,295,446,130,194,286,0.00022012,0.00032844,0.00048444,0.51524958,0.73597576,1.01438569
0,0,ChinaHubei,Hubei,,2021-04-04 00:47:00.689591,2020-04-01 00:00:00.000000,0.00038739,0.00059161,0.00086793,229,350,513,154,226,329,0.00026096,0.00038292,0.00055754,0.54300020,0.76153784,1.04732829
0,0,ChinaHubei,Hubei,,2021-04-04 00:47:00.689591,2020-04-02 00:00:00.000000,0.00045889,0.00070296,0.00100013,271,415,591,182,269,379,0.00030920,0.00045469,0.00064182,0.55152299,0.78596935,1.07524082
0,0,ChinaHubei,Hubei,,2021-04-04 00:47:00.689591,2020-04-03 00:00:00.000000,0.00054484,0.00083986,0.00115632,322,496,684,216,320,437,0.00036622,0.00054087,0.00073965,0.56115278,0.82428068,1.09093469
0,0,ChinaHubei,Hubei,,2021-04-04 00:47:00.689591,2020-04-04 00:00:00.000000,0.00065612,0.00099881,0.00137857,388,590,815,257,385,515,0.00043485,0.00065069,0.00087046,0.60949159,0.85056319,1.10452906
0,0,ChinaHubei,Hubei,,2021-04-04 00:47:00.689591,2020-04-05 00:00:00.000000,0.00078846,0.00119020,0.00164179,466,704,971,309,466,626,0.00052281,0.00078757,0.00105814,0.72422044,0.87601481,1.11525935
0,0,ChinaHubei,Hubei,,2021-04-04 00:47:00.689591,2020-04-06 00:00:00.000000,0.00093550,0.00143099,0.00196793,553,846,1164,369,556,746,0.00062414,0.00094131,0.00126093,0.75124124,0.88803083,1.15649628
0,0,ChinaHubei,Hubei,,2021-04-04 00:47:00.689591,2020-04-07 00:00:00.000000,0.00113778,0.00174566,0.00236547,673,1032,1399,443,661,894,0.00074947,0.00111873,0.00151170,0.76290599,0.89892969,1.15785887
0,0,ChinaHubei,Hubei,,2021-04-04 00:47:00.689591,2020-04-08 00:00:00.000000,0.00139201,0.00211004,0.00284530,823,1248,1683,532,797,1075,0.00089987,0.00134748,0.00181692,0.77313976,0.91708331,1.15648333
0,0,ChinaHubei,Hubei,,2021-04-04 00:47:00.689591,2020-04-09 00:00:00.000000,0.00170570,0.00257020,0.00342297,1009,1520,2025,646,969,1284,0.00109324,0.00163790,0.00217148,0.78795586,0.92226050,1.15196596
0,0,ChinaHubei,Hubei,,2021-04-04 00:47:00.689591,2020-04-10 00:00:00.000000,0.00206856,0.00311990,0.00411662,1223,1846,2435,792,1173,1513,0.00133923,0.00198374,0.00255852,0.80599441,0.93713066,1.14257331
0,0,ChinaHubei,Hubei,,2021-04-04 00:47:00.689591,2020-04-11 00:00:00.000000,0.00253659,0.00380390,0.00494979,1500,2250,2928,971,1417,1792,0.00164118,0.00239537,0.00302941,0.85299476,0.94744491,1.12978574
0,0,ChinaHubei,Hubei,,2021-04-04 00:47:00.689591,2020-04-12 00:00:00.000000,0.00312261,0.00460410,0.00595126,1847,2724,3521,1189,1706,2145,0.00201082,0.00288406,0.00362562,0.85030504,0.95171952,1.13345413
0,0,ChinaHubei,Hubei,,2021-04-04 00:47:00.689591,2020-04-13 00:00:00.000000,0.00383910,0.00556436,0.00714688,2271,3292,4228,1449,2074,2618,0.00244927,0.00350655,0.00442495,0.85348163,0.94017274,1.07937799
0,0,ChinaHubei,Hubei,,2021-04-04 00:47:00.689591,2020-04-14 00:00:00.000000,0.00470071,0.00674201,0.00858435,2781,3989,5079,1781,2506,3219,0.00301133,0.00423569,0.00544114,0.86174860,0.93764908,1.05324346
0,0,ChinaHubei,Hubei,,2021-04-04 00:47:00.689591,2020-04-15 00:00:00.000000,0.00575516,0.00816087,0.01040890,3405,4828,6158,2181,3040,3959,0.00368666,0.00513852,0.00669112,0.86527327,0.93648851,1.04615370
0,0,ChinaHubei,Hubei,,2021-04-04 00:47:00.689591,2020-04-16 00:00:00.000000,0.00705526,0.00991273,0.01279981,4174,5865,7573,2616,3700,4868,0.00442210,0.00625428,0.00822812,0.84851310,0.93077516,1.04446161
0,0,ChinaHubei,Hubei,,2021-04-04 00:47:00.689591,2020-04-17 00:00:00.000000,0.00862525,0.01191650,0.01573982,5103,7050,9313,3120,4496,5986,0.00527384,0.00759981,0.01011817,0.82794030,0.92607368,1.03399337
0,0,ChinaHubei,Hubei,,2021-04-04 00:47:00.689591,2020-04-18 00:00:00.000000,0.01028799,0.01430906,0.01906943,6087,8466,11283,3719,5436,7362,0.00628633,0.00918761,0.01244230,0.68777627,0.84872063,0.93982123
0,0,ChinaHubei,Hubei,,2021-04-04 00:47:00.689591,2020-04-19 00:00:00.000000,0.01006136,0.01425684,0.01830169,5953,8435,10829,4326,6515,8566,0.00731208,0.01101218,0.01447776,0.09189728,0.19767053,0.36300677
0,0,ChinaHubei,Hubei,,2021-04-04 00:47:00.689591,2020-04-20 00:00:00.000000,0.00931381,0.01340240,0.01724605,5510,7930,10204,4160,6410,8316,0.00703192,0.01083448,0.01405529,0.05618822,0.08279847,0.13438282
0,0,ChinaHubei,Hubei,,2021-04-04 00:47:00.689591,2020-04-21 00:00:00.000000,0.00828512,0.01205914,0.01560290,4902,7135,9232,3867,5807,7691,0.00653624,0.00981496,0.01299889,0.05194830,0.07122160,0.10025711
0,0,ChinaHubei,Hubei,,2021-04-04 00:47:00.689591,2020-04-22 00:00:00.000000,0.00732327,0.01068324,0.01392503,4333,6321,8239,3478,5195,6976,0.00587823,0.00878054,0.01178997,0.05091678,0.06940614,0.09690125
0,0,ChinaHubei,Hubei,,2021-04-04 00:47:00.689591,2020-04-23 00:00:00.000000,0.00643607,0.00944672,0.01264429,3808,5589,7481,3067,4625,6302,0.00518449,0.00781739,0.01065228,0.05078557,0.06875394,0.09550653
0,0,ChinaHubei,Hubei,,2021-04-04 00:47:00.689591,2020-04-24 00:00:00.000000,0.00560116,0.00840549,0.01140419,3314,4973,6747,2675,4115,5694,0.00452255,0.00695532,0.00962385,0.05073304,0.06873003,0.09551637
0,0,ChinaHubei,Hubei,,2021-04-04 00:47:00.689591,2020-04-25 00:00:00.000000,0.00488220,0.00751230,0.01028849,2888,4445,6087,2336,3694,5143,0.00394814,0.00624366,0.00869193,0.05065973,0.06819163,0.09552633
0,0,ChinaHubei,Hubei,,2021-04-04 00:47:00.689591,2020-04-26 00:00:00.000000,0.00426013,0.00670642,0.00927424,2520,3968,5487,2040,3287,4642,0.00344864,0.00555607,0.00784592,0.05049475,0.06642554,0.09553254
0,0,ChinaHubei,Hubei,,2021-04-04 00:47:00.689591,2020-04-27 00:00:00.000000,0.00372415,0.00596981,0.00834796,2203,3532,4939,1783,2929,4185,0.00301342,0.00495142,0.00707419,0.05010715,0.06524722,0.09553071
0,0,ChinaHubei,Hubei,,2021-04-04 00:47:00.689591,2020-04-28 00:00:00.000000,0.00325733,0.00530203,0.00750103,1927,3137,4438,1560,2599,3768,0.00263690,0.00439385,0.00636851,0.04653034,0.06363482,0.09547434
0,0,ChinaHubei,Hubei,,2021-04-04 00:47:00.689591,2020-04-29 00:00:00.000000,0.00284899,0.00470841,0.00678193,1685,2785,4012,1365,2305,3386,0.00230808,0.00389638,0.00572258,0.04269907,0.06282159,0.09525514
0,0,ChinaHubei,Hubei,,2021-04-04 00:47:00.689591,2020-04-30 00:00:00.000000,0.00248915,0.00419342,0.00613712,1472,2481,3631,1194,2036,3055,0.00201935,0.00344220,0.00516364,0.04191682,0.06021290,0.09411515
0,0,ChinaHubei,Hubei,,2021-04-04 00:47:00.689591,2020-05-01 00:00:00.000000,0.00217126,0.00372838,0.00553730,1284,2206,3276,1043,1810,2776,0.00176436,0.00305964,0.00469201,0.03887864,0.05804171,0.08992348
0,0,ChinaHubei,Hubei,,2021-04-04 00:47:00.689591,2020-05-02 00:00:00.000000,0.00189161,0.00330317,0.00498352,1119,1954,2948,910,1604,2520,0.00153882,0.00271237,0.00426019,0.03659027,0.05652251,0.08651317
0,0,ChinaHubei,Hubei,,2021-04-04 00:47:00.689591,2020-05-03 00:00:00.000000,0.00164710,0.00291232,0.00449434,974,1723,2659,793,1434,2287,0.00134044,0.00242520,0.00386615,0.03499168,0.05398819,0.08437663
0,0,ChinaHubei,Hubei,,2021-04-04 00:47:00.689591,2020-05-04 00:00:00.000000,0.00143392,0.00259050,0.00407234,848,1532,2409,690,1274,2075,0.00116720,0.00215430,0.00350790,0.03401483,0.05246720,0.08159956
0,0,ChinaHubei,Hubei,,2021-04-04 00:47:00.689591,2020-05-05 00:00:00.000000,0.00124887,0.00231999,0.00368963,738,1372,2183,601,1133,1880,0.00101628,0.00191485,0.00317828,0.03398892,0.05203455,0.08196706
0,0,ChinaHubei,Hubei,,2021-04-04 00:47:00.689591,2020-05-06 00:00:00.000000,0.00108846,0.00206816,0.00334280,644,1223,1977,523,1001,1703,0.00088529,0.00169342,0.00287934,0.03261266,0.05208989,0.08284820
0,0,ChinaHubei,Hubei,,2021-04-04 00:47:00.689591,2020-05-07 00:00:00.000000,0.00094958,0.00183846,0.00302941,561,1087,1792,456,888,1543,0.00077174,0.00150185,0.00260891,0.03096085,0.05168000,0.08064035
0,0,ChinaHubei,Hubei,,2021-04-04 00:47:00.689591,2020-05-08 00:00:00.000000,0.00082943,0.00163152,0.00274657,490,965,1625,398,787,1399,0.00067340,0.00133150,0.00236453,0.02983967,0.05133975,0.07943860
0,0,ChinaHubei,Hubei,,2021-04-04 00:47:00.689591,2020-05-09 00:00:00.000000,0.00072562,0.00144923,0.00249152,429,857,1474,348,699,1268,0.00058832,0.00118254,0.00214394,0.02911808,0.05064088,0.07864739
0,0,ChinaHubei,Hubei,,2021-04-04 00:47:00.689591,2020-05-10 00:00:00.000000,0.00063597,0.00128518,0.00226157,376,760,1338,304,621,1150,0.00051479,0.00105109,0.00194502,0.02868557,0.05069268,0.07858558
0,0,ChinaHubei,Hubei,,2021-04-04 00:47:00.689591,2020-05-11 00:00:00.000000,0.00055611,0.00113987,0.00205305,329,674,1214,267,552,1044,0.00045128,0.00093330,0.00176566,0.02844180,0.05119756,0.07656803
0,0,ChinaHubei,Hubei,,2021-04-04 00:47:00.689591,2020-05-12 00:00:00.000000,0.00048670,0.00101015,0.00185185,287,597,1095,233,491,943,0.00039457,0.00083070,0.00159377,0.02697494,0.05072041,0.07504646
0,0,ChinaHubei,Hubei,,2021-04-04 00:47:00.689591,2020-05-13 00:00:00.000000,0.00042615,0.00089440,0.00166824,252,529,987,204,438,849,0.00034516,0.00074035,0.00143533,0.02686497,0.04969599,0.07444271
0,0,ChinaHubei,Hubei,,2021-04-04 00:47:00.689591,2020-05-14 00:00:00.000000,0.00037142,0.00079327,0.00150319,219,469,889,175,388,765,0.00029604,0.00065682,0.00129300,0.02450471,0.04896659,0.07438062
0,0,ChinaHubei,Hubei,,2021-04-04 00:47:00.689591,2020-05-15 00:00:00.000000,0.00031880,0.00070413,0.00135474,188,416,801,150,343,689,0.00025392,0.00058010,0.00116505,0.02429560,0.04795530,0.07394019
0,0,ChinaHubei,Hubei,,2021-04-04 00:47:00.689591,2020-05-16 00:00:00.000000,0.00028121,0.00062520,0.00122122,166,369,722,129,303,621,0.00021803,0.00051242,0.00104998,0.02424114,0.04785137,0.07654372
0,0,ChinaHubei,Hubei,,2021-04-04 00:47:00.689591,2020-05-17 00:00:00.000000,0.00025136,0.00055511,0.00110132,148,328,651,115,268,560,0.00019442,0.00045361,0.00094649,0.02438353,0.04841144,0.07234362
0,0,ChinaHubei,Hubei,,2021-04-04 00:47:00.689591,2020-05-18 00:00:00.000000,0.00021977,0.00048938,0.00099017,130,289,585,102,241,505,0.00017379,0.00040811,0.00085357,0.02452242,0.04728954,0.07309563
0,0,ChinaHubei,Hubei,,2021-04-04 00:47:00.689591,2020-05-19 00:00:00.000000,0.00019160,0.00043369,0.00089019,113,256,526,89,213,454,0.00015173,0.00036141,0.00076730,0.02456923,0.04778693,0.07408676
0,0,ChinaHubei,Hubei,,2021-04-04 00:47:00.689591,2020-05-20 00:00:00.000000,0.00016601,0.00038405,0.00079999,98,227,473,77,189,408,0.00013180,0.00031943,0.00068960,0.02409270,0.04730964,0.07590662
0,0,ChinaHubei,Hubei,,2021-04-04 00:47:00.689591,2020-05-21 00:00:00.000000,0.00014146,0.00034045,0.00071892,83,201,425,67,166,366,0.00011451,0.00028202,0.00061979,0.02442411,0.04651476,0.07635841
0,0,ChinaHubei,Hubei,,2021-04-04 00:47:00.689591,2020-05-22 00:00:00.000000,0.00012039,0.00030125,0.00064605,71,178,382,57,147,329,0.00009767,0.00024907,0.00055703,0.02549054,0.04613594,0.08092303
0,0,ChinaHubei,Hubei,,2021-04-04 00:47:00.689591,2020-05-23 00:00:00.000000,0.00010230,0.00026577,0.00058049,60,157,343,49,130,296,0.00008310,0.00021987,0.00050059,0.02668146,0.04470267,0.08454970
0,0,ChinaHubei,Hubei,,2021-04-04 00:47:00.689591,2020-05-24 00:00:00.000000,0.00008681,0.00023395,0.00052149,51,138,308,41,114,266,0.00007059,0.00019297,0.00044980,0.02636171,0.04476960,0.08657021
0,0,ChinaHubei,Hubei,,2021-04-04 00:47:00.689591,2020-05-25 00:00:00.000000,0.00007358,0.00020473,0.00046838,43,121,277,35,100,239,0.00005988,0.00016917,0.00040408,0.02623717,0.04388370,0.08759545
0,0,ChinaHubei,Hubei,,2021-04-04 00:47:00.689591,2020-05-26 00:00:00.000000,0.00006233,0.00018075,0.00042055,36,106,248,30,88,215,0.00005074,0.00014901,0.00036397,0.02617900,0.04375828,0.08818794
0,0,ChinaHubei,Hubei,,2021-04-04 00:47:00.689591,2020-05-27 00:00:00.000000,0.00005279,0.00015956,0.00037927,31,94,224,25,78,194,0.00004298,0.00013205,0.00032845,0.02614398,0.04325608,0.08476940
0,0,ChinaHubei,Hubei,,2021-04-04 00:47:00.689591,2020-05-28 00:00:00.000000,0.00004471,0.00014096,0.00034203,26,83,202,21,69,175,0.00003641,0.00011729,0.00029639,0.02614433,0.04261617,0.08027869
0,0,ChinaHubei,Hubei,,2021-04-04 00:47:00.689591,2020-05-29 00:00:00.000000,0.00003786,0.00012464,0.00030824,22,73,182,18,61,158,0.00003084,0.00010375,0.00026739,0.02616412,0.04264797,0.07984703
0,0,ChinaHubei,Hubei,,2021-04-04 00:47:00.689591,2020-05-30 00:00:00.000000,0.00003207,0.00011028,0.00027756,18,65,164,15,54,142,0.00002612,0.00009175,0.00024098,0.02623266,0.04262413,0.08253928
0,0,ChinaHubei,Hubei,,2021-04-04 00:47:00.689591,2020-05-31 00:00:00.000000,0.00002716,0.00009761,0.00024980,16,57,147,13,48,128,0.00002212,0.00008118,0.00021699,0.02644944,0.04247426,0.08689231
0,0,ChinaHubei,Hubei,,2021-04-04 00:47:00.689591,2020-06-01 00:00:00.000000,0.00002301,0.00008644,0.00022475,13,51,132,11,42,115,0.00001874,0.00007186,0.00019528,0.02611905,0.04242419,0.09191055
0,0,ChinaHubei,Hubei,,2021-04-04 00:47:00.689591,2020-06-02 00:00:00.000000,0.00001949,0.00007658,0.00020220,11,45,119,9,37,103,0.00001588,0.00006363,0.00017571,0.02599479,0.04226588,0.09423880
0,0,ChinaHubei,Hubei,,2021-04-04 00:47:00.689591,2020-06-03 00:00:00.000000,0.00001652,0.00006788,0.00018192,9,40,107,7,33,93,0.00001346,0.00005638,0.00015809,0.02594383,0.04275745,0.09486197
0,0,ChinaHubei,Hubei,,2021-04-04 00:47:00.689591,2020-06-04 00:00:00.000000,0.00001399,0.00006021,0.00016382,8,35,96,6,29,84,0.00001140,0.00004997,0.00014224,0.02588798,0.04276844,0.09485514
0,0,ChinaHubei,Hubei,,2021-04-04 00:47:00.689591,2020-06-05 00:00:00.000000,0.00001186,0.00005346,0.00014855,7,31,87,5,26,76,0.00000966,0.00004433,0.00012865,0.02299307,0.04250449,0.09462146
0,0,ChinaHubei,Hubei,,2021-04-04 00:47:00.689591,2020-06-06 00:00:00.000000,0.00001005,0.00004720,0.00013471,5,27,79,4,23,69,0.00000819,0.00003935,0.00011665,0.02180956,0.04218946,0.09441361
0,0,ChinaHubei,Hubei,,2021-04-04 00:47:00.689591,2020-06-07 00:00:00.000000,0.00000852,0.00004158,0.00012216,5,24,72,4,20,62,0.00000694,0.00003468,0.00010579,0.02197504,0.04156253,0.09428372
0,0,ChinaHubei,Hubei,,2021-04-04 00:47:00.689591,2020-06-08 00:00:00.000000,0.00000722,0.00003661,0.00011078,4,21,65,3,18,56,0.00000592,0.00003055,0.00009593,0.02196766,0.04144845,0.09422738
0,0,ChinaHubei,Hubei,,2021-04-04 00:47:00.689591,2020-06-09 00:00:00.000000,0.00000612,0.00003220,0.00010044,3,19,59,2,15,51,0.00000507,0.00002690,0.00008699,0.02194072,0.04091543,0.09415653
0,0,ChinaHubei,Hubei,,2021-04-04 00:47:00.689591,2020-06-10 00:00:00.000000,0.00000520,0.00002829,0.00009103,3,16,53,2,13,46,0.00000433,0.00002365,0.00007887,0.02180887,0.04132943,0.09411417
0,0,ChinaHubei,Hubei,,2021-04-04 00:47:00.689591,2020-06-11 00:00:00.000000,0.00000444,0.00002485,0.00008244,2,14,48,2,12,42,0.00000370,0.00002078,0.00007148,0.02135267,0.04214512,0.09409360
0,0,ChinaHubei,Hubei,,2021-04-04 00:47:00.689591,2020-06-12 00:00:00.000000,0.00000380,0.00002201,0.00007455,2,13,44,1,10,38,0.00000316,0.00001829,0.00006473,0.02109080,0.04292578,0.09413041
0,0,ChinaHubei,Hubei,,2021-04-04 00:47:00.689591,2020-06-13 00:00:00.000000,0.00000324,0.00001958,0.00006729,1,11,39,1,9,34,0.00000270,0.00001621,0.00005852,0.02074391,0.04337326,0.09451978
0,0,ChinaHubei,Hubei,,2021-04-04 00:47:00.689591,2020-06-14 00:00:00.000000,0.00000277,0.00001730,0.00006066,1,10,35,1,8,31,0.00000231,0.00001435,0.00005282,0.01989764,0.04368041,0.09285302
0,0,ChinaHubei,Hubei,,2021-04-04 00:47:00.689591,2020-06-15 00:00:00.000000,0.00000236,0.00001526,0.00005464,1,9,32,1,7,28,0.00000197,0.00001269,0.00004761,0.01946654,0.04342789,0.09550087
0,0,ChinaHubei,Hubei,,2021-04-04 00:47:00.689591,2020-06-16 00:00:00.000000,0.00000202,0.00001345,0.00004921,1,7,29,0,6,25,0.00000168,0.00001122,0.00004289,0.01969941,0.04361066,0.09592281
0,0,ChinaHubei,Hubei,,2021-04-04 00:47:00.689591,2020-06-17 00:00:00.000000,0.00000172,0.00001189,0.00004431,1,7,26,0,5,22,0.00000144,0.00000992,0.00003863,0.01976916,0.04307929,0.09508201
0,0,ChinaHubei,Hubei,,2021-04-04 00:47:00.689591,2020-06-18 00:00:00.000000,0.00000147,0.00001052,0.00003991,0,6,23,0,5,20,0.00000123,0.00000877,0.00003479,0.01981000,0.04312963,0.09372822
0,0,ChinaHubei,Hubei,,2021-04-04 00:47:00.689591,2020-06-19 00:00:00.000000,0.00000126,0.00000930,0.00003596,0,5,21,0,4,18,0.00000105,0.00000775,0.00003134,0.01974263,0.04342439,0.09186622
0,0,ChinaHubei,Hubei,,2021-04-04 00:47:00.689591,2020-06-20 00:00:00.000000,0.00000108,0.00000823,0.00003242,0,4,19,0,4,16,0.00000090,0.00000686,0.00002824,0.01960394,0.04349174,0.09023775
0,0,ChinaHubei,Hubei,,2021-04-04 00:47:00.689591,2020-06-21 00:00:00.000000,0.00000092,0.00000729,0.00002929,0,4,17,0,3,15,0.00000077,0.00000607,0.00002546,0.01889305,0.04252021,0.09260738
0,0,ChinaHubei,Hubei,,2021-04-04 00:47:00.689591,2020-06-22 00:00:00.000000,0.00000079,0.00000645,0.00002651,0,3,15,0,3,13,0.00000066,0.00000537,0.00002297,0.01841699,0.04265233,0.09795386
0,0,ChinaHubei,Hubei,,2021-04-04 00:47:00.689591,2020-06-23 00:00:00.000000,0.00000067,0.00000571,0.00002400,0,3,14,0,2,12,0.00000056,0.00000476,0.00002073,0.01859516,0.04278583,0.10402719
0,0,ChinaHubei,Hubei,,2021-04-04 00:47:00.689591,2020-06-24 00:00:00.000000,0.00000058,0.00000506,0.00002172,0,2,12,0,2,11,0.00000048,0.00000422,0.00001875,0.01918864,0.04289624,0.10766235
0,0,ChinaHubei,Hubei,,2021-04-04 00:47:00.689591,2020-06-25 00:00:00.000000,0.00000049,0.00000448,0.00001966,0,2,11,0,2,10,0.00000041,0.00000373,0.00001697,0.01965789,0.04269046,0.10857302
0,0,ChinaHubei,Hubei,,2021-04-04 00:47:00.689591,2020-06-26 00:00:00.000000,0.00000042,0.00000396,0.00001781,0,2,10,0,1,9,0.00000035,0.00000331,0.00001536,0.01995133,0.04293459,0.10681045
0,0,ChinaHubei,Hubei,,2021-04-04 00:47:00.689591,2020-06-27 00:00:00.000000,0.00000036,0.00000350,0.00001614,0,2,9,0,1,8,0.00000030,0.00000292,0.00001391,0.02010266,0.04286229,0.10165562
0,0,ChinaHubei,Hubei,,2021-04-04 00:47:00.689591,2020-06-28 00:00:00.000000,0.00000031,0.00000309,0.00001463,0,1,8,0,1,7,0.00000026,0.00000258,0.00001261,0.02014334,0.04316742,0.10030802
0,0,ChinaHubei,Hubei,,2021-04-04 00:47:00.689591,2020-06-29 00:00:00.000000,0.00000027,0.00000273,0.00001327,0,1,7,0,1,6,0.00000022,0.00000228,0.00001143,0.01999798,0.04328564,0.10171008
0,0,ChinaHubei,Hubei,,2021-04-04 00:47:00.689591,2020-06-30 00:00:00.000000,0.00000023,0.00000241,0.00001204,0,1,7,0,1,6,0.00000019,0.00000201,0.00001037,0.01957615,0.04360489,0.10230866
0,0,ChinaHubei,Hubei,,2021-04-04 00:47:00.689591,2020-07-01 00:00:00.000000,0.00000020,0.00000212,0.00001093,0,1,6,0,1,5,0.00000017,0.00000177,0.00000941,0.01894547,0.04303606,0.10261708
0,0,ChinaHubei,Hubei,,2021-04-04 00:47:00.689591,2020-07-02 00:00:00.000000,0.00000017,0.00000186,0.00000991,0,1,5,0,0,5,0.00000014,0.00000156,0.00000854,0.01844753,0.04233448,0.10297282
0,0,ChinaHubei,Hubei,,2021-04-04 00:47:00.689591,2020-07-03 00:00:00.000000,0.00000015,0.00000163,0.00000897,0,0,5,0,0,4,0.00000012,0.00000137,0.00000774,0.01910858,0.04168943,0.10510432
0,0,ChinaHubei,Hubei,,2021-04-04 00:47:00.689591,2020-07-04 00:00:00.000000,0.00000013,0.00000143,0.00000811,0,0,4,0,0,4,0.00000010,0.00000120,0.00000701,0.01982583,0.04094554,0.10258743
0,0,ChinaHubei,Hubei,,2021-04-04 00:47:00.689591,2020-07-05 00:00:00.000000,0.00000011,0.00000125,0.00000734,0,0,4,0,0,3,0.00000009,0.00000105,0.00000634,0.02010766,0.04066885,0.10086614
0,0,ChinaHubei,Hubei,,2021-04-04 00:47:00.689591,2020-07-06 00:00:00.000000,0.00000009,0.00000110,0.00000664,0,0,3,0,0,3,0.00000008,0.00000092,0.00000573,0.02019166,0.04098787,0.10016856
0,0,ChinaHubei,Hubei,,2021-04-04 00:47:00.689591,2020-07-07 00:00:00.000000,0.00000008,0.00000097,0.00000600,0,0,3,0,0,3,0.00000007,0.00000081,0.00000518,0.02011988,0.04070100,0.09984605
0,0,ChinaHubei,Hubei,,2021-04-04 00:47:00.689591,2020-07-08 00:00:00.000000,0.00000007,0.00000086,0.00000543,0,0,3,0,0,2,0.00000006,0.00000072,0.00000469,0.02002925,0.04084411,0.09961075
0,0,ChinaHubei,Hubei,,2021-04-04 00:47:00.689591,2020-07-09 00:00:00.000000,0.00000006,0.00000076,0.00000491,0,0,2,0,0,2,0.00000005,0.00000063,0.00000424,0.01984537,0.04149914,0.09938916
0,0,ChinaHubei,Hubei,,2021-04-04 00:47:00.689591,2020-07-10 00:00:00.000000,0.00000005,0.00000067,0.00000444,0,0,2,0,0,2,0.00000004,0.00000056,0.00000384,0.01923844,0.04134370,0.09918042
0,0,ChinaHubei,Hubei,,2021-04-04 00:47:00.689591,2020-07-11 00:00:00.000000,0.00000004,0.00000059,0.00000402,0,0,2,0,0,2,0.00000004,0.00000049,0.00000347,0.01811786,0.04191365,0.09900991
0,0,ChinaHubei,Hubei,,2021-04-04 00:47:00.689591,2020-07-12 00:00:00.000000,0.00000004,0.00000052,0.00000363,0,0,2,0,0,1,0.00000003,0.00000043,0.00000314,0.01831039,0.04080937,0.09890001
0,0,ChinaHubei,Hubei,,2021-04-04 00:47:00.689591,2020-07-13 00:00:00.000000,0.00000003,0.00000046,0.00000328,0,0,1,0,0,1,0.00000003,0.00000038,0.00000284,0.01807007,0.04120986,0.09884508
0,0,ChinaHubei,Hubei,,2021-04-04 00:47:00.689591,2020-07-14 00:00:00.000000,0.00000003,0.00000040,0.00000297,0,0,1,0,0,1,0.00000002,0.00000034,0.00000257,0.01809377,0.04162214,0.09880686
0,0,ChinaHubei,Hubei,,2021-04-04 00:47:00.689591,2020-07-15 00:00:00.000000,0.00000002,0.00000036,0.00000269,0,0,1,0,0,1,0.00000002,0.00000030,0.00000232,0.01815276,0.04221799,0.09874571
0,0,ChinaHubei,Hubei,,2021-04-04 00:47:00.689591,2020-07-16 00:00:00.000000,0.00000002,0.00000031,0.00000243,0,0,1,0,0,1,0.00000002,0.00000026,0.00000210,0.01832086,0.04225704,0.09863008
0,0,ChinaHubei,Hubei,,2021-04-04 00:47:00.689591,2020-07-17 00:00:00.000000,0.00000002,0.00000028,0.00000220,0,0,1,0,0,1,0.00000001,0.00000023,0.00000190,0.01885953,0.04177653,0.09836014
0,0,ChinaHubei,Hubei,,2021-04-04 00:47:00.689591,2020-07-18 00:00:00.000000,0.00000001,0.00000025,0.00000199,0,0,1,0,0,1,0.00000001,0.00000020,0.00000172,0.02021571,0.04160744,0.09727295
0,0,ChinaHubei,Hubei,,2021-04-04 00:47:00.689591,2020-07-19 00:00:00.000000,0.00000001,0.00000022,0.00000180,0,0,1,0,0,0,0.00000001,0.00000018,0.00000155,0.02005867,0.04042633,0.09398522
0,0,ChinaHubei,Hubei,,2021-04-04 00:47:00.689591,2020-07-20 00:00:00.000000,0.00000072,0.00000406,0.00001520,0,2,8,0,0,0,0.00000001,0.00000016,0.00000141,0.01938041,0.04082490,0.09185116
0,0,ChinaHubei,Hubei,,2021-04-04 00:47:00.689591,2020-07-21 00:00:00.000000,0.00000134,0.00000765,0.00002998,0,4,17,0,1,7,0.00000058,0.00000335,0.00001253,0.01864041,0.04112704,0.09525148
0,0,ChinaHubei,Hubei,,2021-04-04 00:47:00.689591,2020-07-22 00:00:00.000000,0.00000197,0.00001154,0.00004516,1,6,26,0,3,15,0.00000108,0.00000629,0.00002583,0.01867453,0.04102523,0.09777968
0,0,ChinaHubei,Hubei,,2021-04-04 00:47:00.689591,2020-07-23 00:00:00.000000,0.00000252,0.00001493,0.00005869,1,8,34,0,5,21,0.00000153,0.00000926,0.00003636,0.01872468,0.04096122,0.10015005
0,0,ChinaHubei,Hubei,,2021-04-04 00:47:00.689591,2020-07-24 00:00:00.000000,0.00000300,0.00001781,0.00007062,1,10,41,1,6,26,0.00000192,0.00001163,0.00004549,0.01849409,0.04085125,0.10279638
0,0,ChinaHubei,Hubei,,2021-04-04 00:47:00.689591,2020-07-25 00:00:00.000000,0.00000341,0.00002033,0.00008119,2,12,48,1,8,32,0.00000226,0.00001371,0.00005422,0.01792851,0.04099291,0.10586718
0,0,ChinaHubei,Hubei,,2021-04-04 00:47:00.689591,2020-07-26 00:00:00.000000,0.00000377,0.00002255,0.00009058,2,13,53,1,9,36,0.00000256,0.00001555,0.00006205,0.01714406,0.04058040,0.10704285
0,0,ChinaHubei,Hubei,,2021-04-04 00:47:00.689591,2020-07-27 00:00:00.000000,0.00000711,0.00002359,0.00008727,4,13,51,1,10,40,0.00000282,0.00001718,0.00006903,0.01639091,0.04127709,0.10767353
0,0,ChinaHubei,Hubei,,2021-04-04 00:47:00.689591,2020-07-28 00:00:00.000000,0.00000999,0.00002434,0.00008469,5,14,50,3,10,38,0.00000608,0.00001755,0.00006579,0.01632775,0.04235068,0.10966127
0,0,ChinaHubei,Hubei,,2021-04-04 00:47:00.689591,2020-07-29 00:00:00.000000,0.00001150,0.00002622,0.00007776,6,15,46,4,11,36,0.00000788,0.00001867,0.00006168,0.01662951,0.04279853,0.11351233
0,0,ChinaHubei,Hubei,,2021-04-04 00:47:00.689591,2020-07-30 00:00:00.000000,0.00001282,0.00002776,0.00007297,7,16,43,5,11,34,0.00000898,0.00002004,0.00005793,0.01711470,0.04274790,0.11549744
0,0,ChinaHubei,Hubei,,2021-04-04 00:47:00.689591,2020-07-31 00:00:00.000000,0.00001396,0.00002791,0.00007012,8,16,41,5,12,32,0.00000994,0.00002059,0.00005455,0.01776574,0.04287312,0.11383733
0,0,ChinaHubei,Hubei,,2021-04-04 00:47:00.689591,2020-08-01 00:00:00.000000,0.00001494,0.00002950,0.00006968,8,17,41,6,12,30,0.00001077,0.00002124,0.00005146,0.01767313,0.04230953,0.11328147
0,0,ChinaHubei,Hubei,,2021-04-04 00:47:00.689591,2020-08-02 00:00:00.000000,0.00001576,0.00002947,0.00007205,9,17,42,6,12,31,0.00001163,0.00002194,0.00005332,0.01512569,0.04107255,0.11313841
0,0,ChinaHubei,Hubei,,2021-04-04 00:47:00.689591,2020-08-03 00:00:00.000000,0.00001426,0.00002676,0.00006521,8,15,38,7,12,31,0.00001207,0.00002193,0.00005346,0.01398188,0.04073451,0.11309567
0,0,ChinaHubei,Hubei,,2021-04-04 00:47:00.689591,2020-08-04 00:00:00.000000,0.00001266,0.00002396,0.00005765,7,14,34,6,11,27,0.00001064,0.00001963,0.00004658,0.01373252,0.04036944,0.11298853
0,0,ChinaHubei,Hubei,,2021-04-04 00:47:00.689591,2020-08-05 00:00:00.000000,0.00001119,0.00002126,0.00004998,6,12,29,5,10,23,0.00000923,0.00001731,0.00004046,0.01377011,0.03923773,0.11029897
0,0,ChinaHubei,Hubei,,2021-04-04 00:47:00.689591,2020-08-06 00:00:00.000000,0.00000968,0.00001890,0.00004337,5,11,25,4,9,20,0.00000802,0.00001542,0.00003517,0.01382862,0.03987958,0.10903307
0,0,ChinaHubei,Hubei,,2021-04-04 00:47:00.689591,2020-08-07 00:00:00.000000,0.00000839,0.00001695,0.00003766,4,10,22,4,8,18,0.00000691,0.00001392,0.00003058,0.01390011,0.03987503,0.10957236
0,0,ChinaHubei,Hubei,,2021-04-04 00:47:00.689591,2020-08-08 00:00:00.000000,0.00000727,0.00001510,0.00003271,4,8,19,3,7,15,0.00000591,0.00001252,0.00002659,0.01396273,0.03957978,0.10915732
0,0,ChinaHubei,Hubei,,2021-04-04 00:47:00.689591,2020-08-09 00:00:00.000000,0.00000631,0.00001319,0.00002841,3,7,16,3,6,13,0.00000511,0.00001101,0.00002311,0.01398066,0.03792990,0.10900687
0,0,ChinaHubei,Hubei,,2021-04-04 00:47:00.689591,2020-08-10 00:00:00.000000,0.00000546,0.00001162,0.00002468,3,6,14,2,5,12,0.00000457,0.00000965,0.00002055,0.01394038,0.03728014,0.10885661
0,0,ChinaHubei,Hubei,,2021-04-04 00:47:00.689591,2020-08-11 00:00:00.000000,0.00000475,0.00001026,0.00002181,2,6,12,2,5,10,0.00000392,0.00000847,0.00001830,0.01382067,0.03736276,0.10861386
0,0,ChinaHubei,Hubei,,2021-04-04 00:47:00.689591,2020-08-12 00:00:00.000000,0.00000410,0.00000906,0.00001944,2,5,11,1,4,9,0.00000334,0.00000745,0.00001630,0.01358176,0.03716623,0.10824755
0,0,ChinaHubei,Hubei,,2021-04-04 00:47:00.689591,2020-08-13 00:00:00.000000,0.00000357,0.00000803,0.00001732,2,4,10,1,3,8,0.00000289,0.00000660,0.00001452,0.01317468,0.03731142,0.10783306
0,0,ChinaHubei,Hubei,,2021-04-04 00:47:00.689591,2020-08-14 00:00:00.000000,0.00000310,0.00000711,0.00001544,1,4,9,1,3,7,0.00000251,0.00000587,0.00001294,0.01258586,0.03669175,0.10781598
0,0,ChinaHubei,Hubei,,2021-04-04 00:47:00.689591,2020-08-15 00:00:00.000000,0.00000269,0.00000616,0.00001374,1,3,8,1,3,6,0.00000218,0.00000515,0.00001154,0.01189677,0.03646163,0.10469100
0,0,ChinaHubei,Hubei,,2021-04-04 00:47:00.689591,2020-08-16 00:00:00.000000,0.00000233,0.00000533,0.00001219,1,3,7,1,2,6,0.00000189,0.00000448,0.00001026,0.01127719,0.03601882,0.10706187
0,0,ChinaHubei,Hubei,,2021-04-04 00:47:00.689591,2020-08-17 00:00:00.000000,0.00000202,0.00000467,0.00001079,1,2,6,0,2,5,0.00000164,0.00000389,0.00000910,0.01144930,0.03660211,0.10655125
0,0,ChinaHubei,Hubei,,2021-04-04 00:47:00.689591,2020-08-18 00:00:00.000000,0.00000176,0.00000411,0.00000954,1,2,5,0,2,4,0.00000142,0.00000341,0.00000809,0.01169633,0.03629844,0.10499571
0,0,ChinaHubei,Hubei,,2021-04-04 00:47:00.689591,2020-08-19 00:00:00.000000,0.00000152,0.00000364,0.00000844,0,2,4,0,1,4,0.00000123,0.00000302,0.00000724,0.01180670,0.03621847,0.10637851
0,0,ChinaHubei,Hubei,,2021-04-04 00:47:00.689591,2020-08-20 00:00:00.000000,0.00000132,0.00000320,0.00000746,0,1,4,0,1,3,0.00000107,0.00000271,0.00000648,0.01187102,0.03622973,0.10487204
0,0,ChinaHubei,Hubei,,2021-04-04 00:47:00.689591,2020-08-21 00:00:00.000000,0.00000115,0.00000282,0.00000662,0,1,3,0,1,3,0.00000093,0.00000239,0.00000580,0.01197014,0.03624496,0.10374754
0,0,ChinaHubei,Hubei,,2021-04-04 00:47:00.689591,2020-08-22 00:00:00.000000,0.00000099,0.00000250,0.00000591,0,1,3,0,1,3,0.00000081,0.00000210,0.00000519,0.01224412,0.03607968,0.10391277
0,0,ChinaHubei,Hubei,,2021-04-04 00:47:00.689591,2020-08-23 00:00:00.000000,0.00000086,0.00000222,0.00000533,0,1,3,0,1,2,0.00000070,0.00000188,0.00000463,0.01289712,0.03559273,0.10414767
0,0,ChinaHubei,Hubei,,2021-04-04 00:47:00.689591,2020-08-24 00:00:00.000000,0.00000075,0.00000195,0.00000494,0,1,2,0,0,2,0.00000061,0.00000165,0.00000413,0.01312438,0.03593249,0.10420989
0,0,ChinaHubei,Hubei,,2021-04-04 00:47:00.689591,2020-08-25 00:00:00.000000,0.00000065,0.00000171,0.00000458,0,1,2,0,0,2,0.00000053,0.00000146,0.00000382,0.01312638,0.03577372,0.10160653
0,0,ChinaHubei,Hubei,,2021-04-04 00:47:00.689591,2020-08-26 00:00:00.000000,0.00000056,0.00000150,0.00000424,0,0,2,0,0,2,0.00000046,0.00000128,0.00000353,0.01314564,0.03536380,0.10137186
0,0,ChinaHubei,Hubei,,2021-04-04 00:47:00.689591,2020-08-27 00:00:00.000000,0.00000049,0.00000133,0.00000382,0,0,2,0,0,1,0.00000040,0.00000112,0.00000316,0.01323394,0.03572509,0.10097373
0,0,ChinaHubei,Hubei,,2021-04-04 00:47:00.689591,2020-08-28 00:00:00.000000,0.00000043,0.00000118,0.00000339,0,0,2,0,0,1,0.00000034,0.00000098,0.00000281,0.01358505,0.03543171,0.10199344
0,0,ChinaHubei,Hubei,,2021-04-04 00:47:00.689591,2020-08-29 00:00:00.000000,0.00000037,0.00000104,0.00000303,0,0,1,0,0,1,0.00000030,0.00000086,0.00000253,0.01398120,0.03443216,0.10053002
0,0,ChinaHubei,Hubei,,2021-04-04 00:47:00.689591,2020-08-30 00:00:00.000000,0.00000032,0.00000091,0.00000279,0,0,1,0,0,1,0.00000026,0.00000076,0.00000233,0.01350711,0.03292613,0.09769754
0,0,ChinaHubei,Hubei,,2021-04-04 00:47:00.689591,2020-08-31 00:00:00.000000,0.00000028,0.00000079,0.00000255,0,0,1,0,0,1,0.00000023,0.00000067,0.00000214,0.01307704,0.03361179,0.10088312
0,0,ChinaHubei,Hubei,,2021-04-04 00:47:00.689591,2020-09-01 00:00:00.000000,0.00000024,0.00000069,0.00000233,0,0,1,0,0,1,0.00000020,0.00000060,0.00000196,0.01279640,0.03335018,0.10368211
0,0,ChinaHubei,Hubei,,2021-04-04 00:47:00.689591,2020-09-02 00:00:00.000000,0.00000021,0.00000061,0.00000213,0,0,1,0,0,1,0.00000017,0.00000052,0.00000179,0.01266396,0.03426720,0.10573702
0,0,ChinaHubei,Hubei,,2021-04-04 00:47:00.689591,2020-09-03 00:00:00.000000,0.00000018,0.00000054,0.00000195,0,0,1,0,0,0,0.00000015,0.00000045,0.00000163,0.01375309,0.03418786,0.10621756
0,0,ChinaHubei,Hubei,,2021-04-04 00:47:00.689591,2020-09-04 00:00:00.000000,0.00000016,0.00000047,0.00000178,0,0,1,0,0,0,0.00000013,0.00000039,0.00000149,0.01523555,0.03413521,0.10625302
0,0,ChinaHubei,Hubei,,2021-04-04 00:47:00.689591,2020-09-05 00:00:00.000000,0.00000014,0.00000041,0.00000159,0,0,0,0,0,0,0.00000011,0.00000035,0.00000136,0.01473931,0.03410564,0.10629150
0,0,ChinaHubei,Hubei,,2021-04-04 00:47:00.689591,2020-09-06 00:00:00.000000,0.00000012,0.00000036,0.00000142,0,0,0,0,0,0,0.00000010,0.00000030,0.00000123,0.01514416,0.03408906,0.10630376
0,0,ChinaHubei,Hubei,,2021-04-04 00:47:00.689591,2020-09-07 00:00:00.000000,0.00000010,0.00000031,0.00000127,0,0,0,0,0,0,0.00000008,0.00000026,0.00000110,0.01538417,0.03437359,0.10596027
0,0,ChinaHubei,Hubei,,2021-04-04 00:47:00.689591,2020-09-08 00:00:00.000000,0.00000009,0.00000027,0.00000114,0,0,0,0,0,0,0.00000007,0.00000023,0.00000098,0.01547428,0.03426406,0.10311674
0,0,ChinaHubei,Hubei,,2021-04-04 00:47:00.689591,2020-09-09 00:00:00.000000,0.00000008,0.00000024,0.00000102,0,0,0,0,0,0,0.00000006,0.00000020,0.00000088,0.01549766,0.03424963,0.09823984
0,0,ChinaHubei,Hubei,,2021-04-04 00:47:00.689591,2020-09-10 00:00:00.000000,0.00000006,0.00000021,0.00000091,0,0,0,0,0,0,0.00000005,0.00000018,0.00000079,0.01549482,0.03462678,0.09716645
0,0,ChinaHubei,Hubei,,2021-04-04 00:47:00.689591,2020-09-11 00:00:00.000000,0.00000006,0.00000019,0.00000081,0,0,0,0,0,0,0.00000005,0.00000016,0.00000070,0.01590163,0.03499041,0.09644845
0,0,ChinaHubei,Hubei,,2021-04-04 00:47:00.689591,2020-09-12 00:00:00.000000,0.00000005,0.00000016,0.00000073,0,0,0,0,0,0,0.00000004,0.00000014,0.00000063,0.01574818,0.03439252,0.09606476
0,0,ChinaHubei,Hubei,,2021-04-04 00:47:00.689591,2020-09-13 00:00:00.000000,0.00000004,0.00000014,0.00000065,0,0,0,0,0,0,0.00000003,0.00000012,0.00000056,0.01554443,0.03419496,0.09583360
0,0,ChinaHubei,Hubei,,2021-04-04 00:47:00.689591,2020-09-14 00:00:00.000000,0.00000004,0.00000013,0.00000058,0,0,0,0,0,0,0.00000003,0.00000011,0.00000050,0.01543102,0.03430280,0.09566039
0,0,ChinaHubei,Hubei,,2021-04-04 00:47:00.689591,2020-09-15 00:00:00.000000,0.00000003,0.00000011,0.00000052,0,0,0,0,0,0,0.00000002,0.00000009,0.00000045,0.01540514,0.03281795,0.09508556
0,0,ChinaHubei,Hubei,,2021-04-04 00:47:00.689591,2020-09-16 00:00:00.000000,0.00000003,0.00000010,0.00000046,0,0,0,0,0,0,0.00000002,0.00000008,0.00000040,0.01502529,0.03315530,0.09081566
0,0,ChinaHubei,Hubei,,2021-04-04 00:47:00.689591,2020-09-17 00:00:00.000000,0.00000002,0.00000009,0.00000041,0,0,0,0,0,0,0.00000002,0.00000007,0.00000036,0.01470993,0.03245581,0.08752854
0,0,ChinaHubei,Hubei,,2021-04-04 00:47:00.689591,2020-09-18 00:00:00.000000,0.00000002,0.00000008,0.00000037,0,0,0,0,0,0,0.00000002,0.00000006,0.00000032,0.01497932,0.03390441,0.08558471
0,0,ChinaHubei,Hubei,,2021-04-04 00:47:00.689591,2020-09-19 00:00:00.000000,0.00000002,0.00000007,0.00000033,0,0,0,0,0,0,0.00000001,0.00000006,0.00000029,0.01504464,0.03541974,0.08544132
0,0,ChinaHubei,Hubei,,2021-04-04 00:47:00.689591,2020-09-20 00:00:00.000000,0.00000001,0.00000006,0.00000030,0,0,0,0,0,0,0.00000001,0.00000005,0.00000026,0.01536242,0.03553721,0.08539507
0,0,ChinaHubei,Hubei,,2021-04-04 00:47:00.689591,2020-09-21 00:00:00.000000,0.00000001,0.00000005,0.00000027,0,0,0,0,0,0,0.00000001,0.00000004,0.00000023,0.01545613,0.03541729,0.09237755
0,0,ChinaHubei,Hubei,,2021-04-04 00:47:00.689591,2020-09-22 00:00:00.000000,0.00000001,0.00000005,0.00000024,0,0,0,0,0,0,0.00000001,0.00000004,0.00000021,0.01545514,0.03527617,0.10605000
0,0,ChinaHubei,Hubei,,2021-04-04 00:47:00.689591,2020-09-23 00:00:00.000000,0.00000001,0.00000004,0.00000022,0,0,0,0,0,0,0.00000001,0.00000003,0.00000019,0.01582078,0.03551934,0.11124554
0,0,ChinaHubei,Hubei,,2021-04-04 00:47:00.689591,2020-09-24 00:00:00.000000,0.00000001,0.00000004,0.00000020,0,0,0,0,0,0,0.00000001,0.00000003,0.00000017,0.01600718,0.03549792,0.11364617
0,0,ChinaHubei,Hubei,,2021-04-04 00:47:00.689591,2020-09-25 00:00:00.000000,0.00000001,0.00000003,0.00000018,0,0,0,0,0,0,0.00000001,0.00000003,0.00000015,0.01516528,0.03536329,0.11617482
0,0,ChinaHubei,Hubei,,2021-04-04 00:47:00.689591,2020-09-26 00:00:00.000000,0.00000001,0.00000003,0.00000016,0,0,0,0,0,0,0.00000000,0.00000002,0.00000014,0.01500929,0.03536521,0.11988750
0,0,ChinaHubei,Hubei,,2021-04-04 00:47:00.689591,2020-09-27 00:00:00.000000,0.00000000,0.00000003,0.00000014,0,0,0,0,0,0,0.00000000,0.00000002,0.00000012,0.01485649,0.03551112,0.12371513
0,0,ChinaHubei,Hubei,,2021-04-04 00:47:00.689591,2020-09-28 00:00:00.000000,0.00000000,0.00000002,0.00000013,0,0,0,0,0,0,0.00000000,0.00000002,0.00000011,0.01483913,0.03466911,0.12618835
0,0,ChinaHubei,Hubei,,2021-04-04 00:47:00.689591,2020-09-29 00:00:00.000000,0.00000000,0.00000002,0.00000012,0,0,0,0,0,0,0.00000000,0.00000002,0.00000010,0.01481747,0.03537647,0.12728956
0,0,ChinaHubei,Hubei,,2021-04-04 00:47:00.689591,2020-09-30 00:00:00.000000,0.00000000,0.00000002,0.00000011,0,0,0,0,0,0,0.00000000,0.00000001,0.00000009,0.01471613,0.03577687,0.12757606
0,0,ChinaHubei,Hubei,,2021-04-04 00:47:00.689591,2020-10-01 00:00:00.000000,0.00000000,0.00000001,0.00000010,0,0,0,0,0,0,0.00000000,0.00000001,0.00000008,0.01442552,0.03598923,0.12772152
0,0,ChinaHubei,Hubei,,2021-04-04 00:47:00.689591,2020-10-02 00:00:00.000000,0.00000000,0.00000001,0.00000009,0,0,0,0,0,0,0.00000000,0.00000001,0.00000008,0.01436239,0.03537050,0.12782019
0,0,ChinaHubei,Hubei,,2021-04-04 00:47:00.689591,2020-10-03 00:00:00.000000,0.00000000,0.00000001,0.00000008,0,0,0,0,0,0,0.00000000,0.00000001,0.00000007,0.01438541,0.03534156,0.12800769
0,0,ChinaHubei,Hubei,,2021-04-04 00:47:00.689591,2020-10-04 00:00:00.000000,0.00000000,0.00000001,0.00000007,0,0,0,0,0,0,0.00000000,0.00000001,0.00000006,0.01443826,0.03518358,0.12849412
0,0,ChinaHubei,Hubei,,2021-04-04 00:47:00.689591,2020-10-05 00:00:00.000000,0.00000000,0.00000001,0.00000006,0,0,0,0,0,0,0.00000000,0.00000001,0.00000006,0.01450001,0.03513377,0.12960386
0,0,ChinaHubei,Hubei,,2021-04-04 00:47:00.689591,2020-10-06 00:00:00.000000,0.00000000,0.00000001,0.00000006,0,0,0,0,0,0,0.00000000,0.00000001,0.00000005,0.01379082,0.03525217,0.12603775
0,0,ChinaHubei,Hubei,,2021-04-04 00:47:00.689591,2020-10-07 00:00:00.000000,0.00000000,0.00000001,0.00000005,0,0,0,0,0,0,0.00000000,0.00000001,0.00000005,0.01380770,0.03600469,0.10460238
0,0,ChinaHubei,Hubei,,2021-04-04 00:47:00.689591,2020-10-08 00:00:00.000000,0.00000000,0.00000001,0.00000005,0,0,0,0,0,0,0.00000000,0.00000000,0.00000004,0.01381858,0.03609034,0.08725621
0,0,ChinaHubei,Hubei,,2021-04-04 00:47:00.689591,2020-10-09 00:00:00.000000,0.00000000,0.00000000,0.00000004,0,0,0,0,0,0,0.00000000,0.00000000,0.00000004,0.01291285,0.03587284,0.08445664
0,0,ChinaHubei,Hubei,,2021-04-04 00:47:00.689591,2020-10-10 00:00:00.000000,0.00000000,0.00000000,0.00000004,0,0,0,0,0,0,0.00000000,0.00000000,0.00000003,0.01253028,0.03548913,0.08419260
0,0,ChinaHubei,Hubei,,2021-04-04 00:47:00.689591,2020-10-11 00:00:00.000000,0.00000000,0.00000000,0.00000004,0,0,0,0,0,0,0.00000000,0.00000000,0.00000003,0.01174367,0.03447184,0.08400921
0,0,ChinaHubei,Hubei,,2021-04-04 00:47:00.689591,2020-10-12 00:00:00.000000,0.00000000,0.00000000,0.00000003,0,0,0,0,0,0,0.00000000,0.00000000,0.00000003,0.01171187,0.03437379,0.08638269
0,0,ChinaHubei,Hubei,,2021-04-04 00:47:00.689591,2020-10-13 00:00:00.000000,0.00000000,0.00000000,0.00000003,0,0,0,0,0,0,0.00000000,0.00000000,0.00000003,0.01170901,0.03477829,0.08964130
0,0,ChinaHubei,Hubei,,2021-04-04 00:47:00.689591,2020-10-14 00:00:00.000000,0.00000000,0.00000000,0.00000003,0,0,0,0,0,0,0.00000000,0.00000000,0.00000002,0.01171592,0.03455327,0.08988968
0,0,ChinaHubei,Hubei,,2021-04-04 00:47:00.689591,2020-10-15 00:00:00.000000,0.00000000,0.00000000,0.00000002,0,0,0,0,0,0,0.00000000,0.00000000,0.00000002,0.01181198,0.03407264,0.08968735
0,0,ChinaHubei,Hubei,,2021-04-04 00:47:00.689591,2020-10-16 00:00:00.000000,0.00000000,0.00000000,0.00000002,0,0,0,0,0,0,0.00000000,0.00000000,0.00000002,0.01269664,0.03428292,0.08906947
0,0,ChinaHubei,Hubei,,2021-04-04 00:47:00.689591,2020-10-17 00:00:00.000000,0.00000000,0.00000000,0.00000002,0,0,0,0,0,0,0.00000000,0.00000000,0.00000002,0.01258483,0.03455759,0.08746770
0,0,ChinaHubei,Hubei,,2021-04-04 00:47:00.689591,2020-10-18 00:00:00.000000,0.00000000,0.00000000,0.00000002,0,0,0,0,0,0,0.00000000,0.00000000,0.00000002,0.01197339,0.03517469,0.08418989
0,0,ChinaHubei,Hubei,,2021-04-04 00:47:00.689591,2020-10-19 00:00:00.000000,0.00000059,0.00000278,0.00000867,0,1,5,0,0,0,0.00000000,0.00000000,0.00000001,0.01133390,0.03541872,0.08015634
0,0,ChinaHubei,Hubei,,2021-04-04 00:47:00.689591,2020-10-20 00:00:00.000000,0.00000118,0.00000556,0.00001734,0,3,10,0,1,4,0.00000044,0.00000229,0.00000768,0.01164557,0.03547387,0.07968622
0,0,ChinaHubei,Hubei,,2021-04-04 00:47:00.689591,2020-10-21 00:00:00.000000,0.00000179,0.00000839,0.00002619,1,4,15,0,2,8,0.00000091,0.00000453,0.00001481,0.01173665,0.03506793,0.07922698
0,0,ChinaHubei,Hubei,,2021-04-04 00:47:00.689591,2020-10-22 00:00:00.000000,0.00000232,0.00001090,0.00003378,1,6,19,0,3,12,0.00000133,0.00000660,0.00002100,0.01177742,0.03480992,0.07895730
0,0,ChinaHubei,Hubei,,2021-04-04 00:47:00.689591,2020-10-23 00:00:00.000000,0.00000278,0.00001310,0.00004029,1,7,23,0,4,15,0.00000169,0.00000839,0.00002637,0.01184125,0.03379151,0.07873606
0,0,ChinaHubei,Hubei,,2021-04-04 00:47:00.689591,2020-10-24 00:00:00.000000,0.00000317,0.00001503,0.00004590,1,8,27,1,5,18,0.00000200,0.00000992,0.00003104,0.01197076,0.03404568,0.07839314
0,0,ChinaHubei,Hubei,,2021-04-04 00:47:00.689591,2020-10-25 00:00:00.000000,0.00000350,0.00001673,0.00005075,2,9,30,1,6,20,0.00000226,0.00001128,0.00003509,0.01221965,0.03489969,0.07772813
0,0,ChinaHubei,Hubei,,2021-04-04 00:47:00.689591,2020-10-26 00:00:00.000000,0.00000415,0.00001848,0.00005267,2,10,31,1,7,22,0.00000248,0.00001247,0.00003861,0.01261329,0.03517297,0.07672698
0,0,ChinaHubei,Hubei,,2021-04-04 00:47:00.689591,2020-10-27 00:00:00.000000,0.00000502,0.00002056,0.00005401,2,12,31,1,8,23,0.00000314,0.00001404,0.00003963,0.01293764,0.03563301,0.07592028
0,0,ChinaHubei,Hubei,,2021-04-04 00:47:00.689591,2020-10-28 00:00:00.000000,0.00000554,0.00002120,0.00005969,3,12,35,2,9,23,0.00000381,0.00001557,0.00004039,0.01317104,0.03434937,0.07586581
0,0,ChinaHubei,Hubei,,2021-04-04 00:47:00.689591,2020-10-29 00:00:00.000000,0.00000601,0.00002230,0.00006499,3,13,38,2,9,26,0.00000420,0.00001646,0.00004488,0.01317966,0.03416468,0.07674895
0,0,ChinaHubei,Hubei,,2021-04-04 00:47:00.689591,2020-10-30 00:00:00.000000,0.00000645,0.00002216,0.00007027,3,13,41,2,9,29,0.00000456,0.00001684,0.00004908,0.01317486,0.03415332,0.07871772
0,0,ChinaHubei,Hubei,,2021-04-04 00:47:00.689591,2020-10-31 00:00:00.000000,0.00000685,0.00002303,0.00007495,4,13,44,2,9,31,0.00000489,0.00001649,0.00005292,0.01316324,0.03305966,0.08176334
0,0,ChinaHubei,Hubei,,2021-04-04 00:47:00.689591,2020-11-01 00:00:00.000000,0.00000720,0.00002258,0.00007432,4,13,43,3,9,33,0.00000518,0.00001687,0.00005636,0.01311696,0.03235530,0.08481169
0,0,ChinaHubei,Hubei,,2021-04-04 00:47:00.689591,2020-11-02 00:00:00.000000,0.00000960,0.00002427,0.00007840,5,14,46,3,10,33,0.00000546,0.00001701,0.00005661,0.01317781,0.03253137,0.08441260
0,0,ChinaHubei,Hubei,,2021-04-04 00:47:00.689591,2020-11-03 00:00:00.000000,0.00001166,0.00002504,0.00007746,6,14,45,4,10,34,0.00000716,0.00001828,0.00005853,0.01321358,0.03211986,0.08414268
0,0,ChinaHubei,Hubei,,2021-04-04 00:47:00.689591,2020-11-04 00:00:00.000000,0.00001252,0.00002515,0.00007600,7,14,44,5,11,33,0.00000856,0.00001897,0.00005740,0.01310213,0.03187325,0.08400155
0,0,ChinaHubei,Hubei,,2021-04-04 00:47:00.689591,2020-11-05 00:00:00.000000,0.00001201,0.00002605,0.00008210,7,15,48,5,11,34,0.00000901,0.00001944,0.00005850,0.01300890,0.03227089,0.08397173
0,0,ChinaHubei,Hubei,,2021-04-04 00:47:00.689591,2020-11-06 00:00:00.000000,0.00001154,0.00002581,0.00009033,6,15,53,5,11,38,0.00000880,0.00001979,0.00006511,0.01301850,0.03296975,0.08416189
0,0,ChinaHubei,Hubei,,2021-04-04 00:47:00.689591,2020-11-07 00:00:00.000000,0.00001152,0.00002646,0.00009833,6,15,58,5,11,42,0.00000848,0.00001974,0.00007203,0.01297111,0.03258043,0.08468870
0,0,ChinaHubei,Hubei,,2021-04-04 00:47:00.689591,2020-11-08 00:00:00.000000,0.00001174,0.00002627,0.00010535,6,15,62,4,11,46,0.00000842,0.00001985,0.00007788,0.01350634,0.03229113,0.08410552
0,0,ChinaHubei,Hubei,,2021-04-04 00:47:00.689591,2020-11-09 00:00:00.000000,0.00001356,0.00002682,0.00009989,8,15,59,5,11,48,0.00000860,0.00001999,0.00008255,0.01399932,0.03232503,0.08281121
0,0,ChinaHubei,Hubei,,2021-04-04 00:47:00.689591,2020-11-10 00:00:00.000000,0.00001539,0.00002826,0.00009389,9,16,55,6,11,45,0.00001035,0.00002018,0.00007702,0.01406795,0.03184741,0.08168916
0,0,ChinaHubei,Hubei,,2021-04-04 00:47:00.689591,2020-11-11 00:00:00.000000,0.00001704,0.00002840,0.00008720,10,16,51,7,12,42,0.00001191,0.00002146,0.00007143,0.01414235,0.03181207,0.08834527
0,0,ChinaHubei,Hubei,,2021-04-04 00:47:00.689591,2020-11-12 00:00:00.000000,0.00001689,0.00002887,0.00008140,9,17,48,7,13,39,0.00001229,0.00002216,0.00006638,0.01416109,0.03158518,0.08866104
0,0,ChinaHubei,Hubei,,2021-04-04 00:47:00.689591,2020-11-13 00:00:00.000000,0.00001608,0.00002893,0.00007716,9,17,45,7,12,36,0.00001227,0.00002153,0.00006186,0.01419621,0.03123463,0.08875777
0,0,ChinaHubei,Hubei,,2021-04-04 00:47:00.689591,2020-11-14 00:00:00.000000,0.00001538,0.00002938,0.00007472,9,17,44,7,13,34,0.00001211,0.00002208,0.00005834,0.01456711,0.03173960,0.08864932
0,0,ChinaHubei,Hubei,,2021-04-04 00:47:00.689591,2020-11-15 00:00:00.000000,0.00001475,0.00002932,0.00007192,8,17,42,6,13,33,0.00001114,0.00002267,0.00005700,0.01474327,0.03161327,0.08616772
0,0,ChinaHubei,Hubei,,2021-04-04 00:47:00.689591,2020-11-16 00:00:00.000000,0.00001690,0.00003024,0.00006750,9,17,39,6,13,31,0.00001078,0.00002288,0.00005399,0.01489022,0.03137057,0.08158930
0,0,ChinaHubei,Hubei,,2021-04-04 00:47:00.689591,2020-11-17 00:00:00.000000,0.00001897,0.00003105,0.00006238,11,18,36,7,13,30,0.00001192,0.00002289,0.00005148,0.01595088,0.03108367,0.07605242
0,0,ChinaHubei,Hubei,,2021-04-04 00:47:00.689591,2020-11-18 00:00:00.000000,0.00001784,0.00003206,0.00006453,10,18,38,7,14,28,0.00001310,0.00002372,0.00004760,0.01537045,0.03086613,0.07100734
0,0,ChinaHubei,Hubei,,2021-04-04 00:47:00.689591,2020-11-19 00:00:00.000000,0.00001655,0.00003153,0.00006323,9,18,37,7,14,29,0.00001254,0.00002391,0.00005033,0.01494259,0.03013140,0.07042348
0,0,ChinaHubei,Hubei,,2021-04-04 00:47:00.689591,2020-11-20 00:00:00.000000,0.00001528,0.00003154,0.00006441,9,18,38,6,13,29,0.00001153,0.00002361,0.00004905,0.01491453,0.02833855,0.07017203
0,0,ChinaHubei,Hubei,,2021-04-04 00:47:00.689591,2020-11-21 00:00:00.000000,0.00001418,0.00003211,0.00006543,8,18,38,6,14,29,0.00001066,0.00002388,0.00004992,0.01497394,0.02784882,0.07075482
0,0,ChinaHubei,Hubei,,2021-04-04 00:47:00.689591,2020-11-22 00:00:00.000000,0.00001325,0.00003197,0.00006631,7,18,39,5,14,29,0.00000991,0.00002452,0.00005068,0.01501439,0.02720615,0.06927030
0,0,ChinaHubei,Hubei,,2021-04-04 00:47:00.689591,2020-11-23 00:00:00.000000,0.00001359,0.00003172,0.00006158,8,18,36,5,14,30,0.00000928,0.00002417,0.00005134,0.01461686,0.02685478,0.06721617
0,0,ChinaHubei,Hubei,,2021-04-04 00:47:00.689591,2020-11-24 00:00:00.000000,0.00001342,0.00003128,0.00005676,7,18,33,5,14,27,0.00000968,0.00002419,0.00004676,0.01455655,0.02708524,0.06689389
0,0,ChinaHubei,Hubei,,2021-04-04 00:47:00.689591,2020-11-25 00:00:00.000000,0.00001335,0.00003074,0.00006509,7,18,38,5,13,25,0.00000961,0.00002349,0.00004327,0.01452867,0.02687688,0.06442148
0,0,ChinaHubei,Hubei,,2021-04-04 00:47:00.689591,2020-11-26 00:00:00.000000,0.00001329,0.00002990,0.00006654,7,17,39,5,13,30,0.00000956,0.00002246,0.00005111,0.01451641,0.02704718,0.06625286
0,0,ChinaHubei,Hubei,,2021-04-04 00:47:00.689591,2020-11-27 00:00:00.000000,0.00001323,0.00002905,0.00006580,7,17,38,5,13,30,0.00000951,0.00002215,0.00005072,0.01451318,0.02801470,0.06724586
0,0,ChinaHubei,Hubei,,2021-04-04 00:47:00.689591,2020-11-28 00:00:00.000000,0.00001323,0.00002841,0.00006471,7,16,38,5,12,29,0.00000947,0.00002167,0.00005017,0.01451337,0.02856692,0.07033236
0,0,ChinaHubei,Hubei,,2021-04-04 00:47:00.689591,2020-11-29 00:00:00.000000,0.00001313,0.00002793,0.00006594,7,16,39,5,12,29,0.00000953,0.00002149,0.00004969,0.01440103,0.02940840,0.07102267
0,0,ChinaHubei,Hubei,,2021-04-04 00:47:00.689591,2020-11-30 00:00:00.000000,0.00001146,0.00002511,0.00006058,6,14,35,5,12,29,0.00000939,0.00002136,0.00005007,0.01430720,0.02977877,0.06994159
0,0,ChinaHubei,Hubei,,2021-04-04 00:47:00.689591,2020-12-01 00:00:00.000000,0.00000980,0.00002241,0.00005498,5,13,32,4,11,27,0.00000800,0.00001883,0.00004614,0.01261626,0.03006987,0.06820335
0,0,ChinaHubei,Hubei,,2021-04-04 00:47:00.689591,2020-12-02 00:00:00.000000,0.00000818,0.00001965,0.00004905,4,11,29,3,9,24,0.00000666,0.00001662,0.00004147,0.01204627,0.03045499,0.06702088
0,0,ChinaHubei,Hubei,,2021-04-04 00:47:00.689591,2020-12-03 00:00:00.000000,0.00000690,0.00001721,0.00004365,4,10,25,3,8,21,0.00000559,0.00001446,0.00003707,0.01217931,0.03012791,0.06818761
0,0,ChinaHubei,Hubei,,2021-04-04 00:47:00.689591,2020-12-04 00:00:00.000000,0.00000581,0.00001503,0.00003887,3,8,22,2,7,19,0.00000472,0.00001268,0.00003310,0.01254040,0.02978138,0.06799445
0,0,ChinaHubei,Hubei,,2021-04-04 00:47:00.689591,2020-12-05 00:00:00.000000,0.00000489,0.00001318,0.00003463,2,7,20,2,6,17,0.00000399,0.00001098,0.00002954,0.01324686,0.02922884,0.06659862
0,0,ChinaHubei,Hubei,,2021-04-04 00:47:00.689591,2020-12-06 00:00:00.000000,0.00000412,0.00001153,0.00003086,2,6,18,1,5,15,0.00000336,0.00000956,0.00002635,0.01313903,0.02910638,0.06675160
0,0,ChinaHubei,Hubei,,2021-04-04 00:47:00.689591,2020-12-07 00:00:00.000000,0.00000348,0.00000998,0.00002752,2,5,16,1,4,13,0.00000284,0.00000826,0.00002351,0.01288087,0.02871728,0.06677411
0,0,ChinaHubei,Hubei,,2021-04-04 00:47:00.689591,2020-12-08 00:00:00.000000,0.00000293,0.00000861,0.00002455,1,5,14,1,4,12,0.00000239,0.00000718,0.00002097,0.01142346,0.02886977,0.06674830
0,0,ChinaHubei,Hubei,,2021-04-04 00:47:00.689591,2020-12-09 00:00:00.000000,0.00000247,0.00000747,0.00002193,1,4,12,1,3,11,0.00000202,0.00000629,0.00001872,0.01044567,0.02833425,0.06669586
0,0,ChinaHubei,Hubei,,2021-04-04 00:47:00.689591,2020-12-10 00:00:00.000000,0.00000209,0.00000656,0.00001961,1,3,11,1,3,9,0.00000170,0.00000552,0.00001673,0.01007182,0.02805218,0.06671194
0,0,ChinaHubei,Hubei,,2021-04-04 00:47:00.689591,2020-12-11 00:00:00.000000,0.00000176,0.00000577,0.00001753,1,3,10,0,2,8,0.00000144,0.00000481,0.00001495,0.00998899,0.02797149,0.06725404
0,0,ChinaHubei,Hubei,,2021-04-04 00:47:00.689591,2020-12-12 00:00:00.000000,0.00000148,0.00000507,0.00001568,0,3,9,0,2,7,0.00000121,0.00000424,0.00001337,0.01010264,0.02813754,0.06610367
0,0,ChinaHubei,Hubei,,2021-04-04 00:47:00.689591,2020-12-13 00:00:00.000000,0.00000125,0.00000447,0.00001402,0,2,8,0,2,7,0.00000102,0.00000375,0.00001196,0.01182489,0.02816885,0.06671063
0,0,ChinaHubei,Hubei,,2021-04-04 00:47:00.689591,2020-12-14 00:00:00.000000,0.00000106,0.00000393,0.00001253,0,2,7,0,1,6,0.00000086,0.00000328,0.00001069,0.01292550,0.02806727,0.06780139
0,0,ChinaHubei,Hubei,,2021-04-04 00:47:00.689591,2020-12-15 00:00:00.000000,0.00000089,0.00000348,0.00001121,0,2,6,0,1,5,0.00000073,0.00000288,0.00000956,0.01303948,0.02757114,0.06877536
0,0,ChinaHubei,Hubei,,2021-04-04 00:47:00.689591,2020-12-16 00:00:00.000000,0.00000075,0.00000303,0.00001002,0,1,5,0,1,5,0.00000062,0.00000254,0.00000855,0.01309487,0.02740902,0.06843769
0,0,ChinaHubei,Hubei,,2021-04-04 00:47:00.689591,2020-12-17 00:00:00.000000,0.00000064,0.00000264,0.00000897,0,1,5,0,1,4,0.00000052,0.00000224,0.00000764,0.01322446,0.02741127,0.06784595
0,0,ChinaHubei,Hubei,,2021-04-04 00:47:00.689591,2020-12-18 00:00:00.000000,0.00000054,0.00000231,0.00000805,0,1,4,0,1,4,0.00000044,0.00000198,0.00000684,0.01348008,0.02752757,0.06645030
0,0,ChinaHubei,Hubei,,2021-04-04 00:47:00.689591,2020-12-19 00:00:00.000000,0.00000045,0.00000204,0.00000724,0,1,4,0,1,3,0.00000037,0.00000174,0.00000613,0.01302301,0.02813563,0.06653999
0,0,ChinaHubei,Hubei,,2021-04-04 00:47:00.689591,2020-12-20 00:00:00.000000,0.00000038,0.00000179,0.00000645,0,1,3,0,0,3,0.00000031,0.00000153,0.00000548,0.01253282,0.02876140,0.06549815
0,0,ChinaHubei,Hubei,,2021-04-04 00:47:00.689591,2020-12-21 00:00:00.000000,0.00000032,0.00000158,0.00000569,0,0,3,0,0,2,0.00000026,0.00000134,0.00000483,0.01230610,0.03007673,0.06446950
0,0,ChinaHubei,Hubei,,2021-04-04 00:47:00.689591,2020-12-22 00:00:00.000000,0.00000027,0.00000140,0.00000501,0,0,2,0,0,2,0.00000022,0.00000118,0.00000426,0.01229560,0.03029698,0.06380628
0,0,ChinaHubei,Hubei,,2021-04-04 00:47:00.689591,2020-12-23 00:00:00.000000,0.00000023,0.00000123,0.00000442,0,0,2,0,0,2,0.00000019,0.00000103,0.00000376,0.01214529,0.03047125,0.06440718
0,0,ChinaHubei,Hubei,,2021-04-04 00:47:00.689591,2020-12-24 00:00:00.000000,0.00000020,0.00000108,0.00000390,0,0,2,0,0,1,0.00000016,0.00000091,0.00000331,0.01209153,0.03035472,0.06476926
0,0,ChinaHubei,Hubei,,2021-04-04 00:47:00.689591,2020-12-25 00:00:00.000000,0.00000017,0.00000095,0.00000344,0,0,2,0,0,1,0.00000014,0.00000080,0.00000292,0.01220573,0.03023407,0.06498739
0,0,ChinaHubei,Hubei,,2021-04-04 00:47:00.689591,2020-12-26 00:00:00.000000,0.00000014,0.00000083,0.00000303,0,0,1,0,0,1,0.00000011,0.00000070,0.00000261,0.01204355,0.02940879,0.06521056
0,0,ChinaHubei,Hubei,,2021-04-04 00:47:00.689591,2020-12-27 00:00:00.000000,0.00000012,0.00000073,0.00000271,0,0,1,0,0,1,0.00000010,0.00000061,0.00000235,0.01145080,0.03014849,0.06564023
0,0,ChinaHubei,Hubei,,2021-04-04 00:47:00.689591,2020-12-28 00:00:00.000000,0.00000010,0.00000064,0.00000245,0,0,1,0,0,1,0.00000008,0.00000054,0.00000212,0.01122142,0.02990491,0.06592635
0,0,ChinaHubei,Hubei,,2021-04-04 00:47:00.689591,2020-12-29 00:00:00.000000,0.00000008,0.00000056,0.00000221,0,0,1,0,0,1,0.00000007,0.00000047,0.00000191,0.01113976,0.02998185,0.06494336
0,0,ChinaHubei,Hubei,,2021-04-04 00:47:00.689591,2020-12-30 00:00:00.000000,0.00000007,0.00000049,0.00000201,0,0,1,0,0,1,0.00000006,0.00000041,0.00000173,0.01105730,0.02984078,0.06407623
0,0,ChinaHubei,Hubei,,2021-04-04 00:47:00.689591,2020-12-31 00:00:00.000000,0.00000006,0.00000044,0.00000182,0,0,1,0,0,0,0.00000005,0.00000036,0.00000157,0.01088658,0.02984057,0.06617811
0,0,ChinaHubei,Hubei,,2021-04-04 00:47:00.689591,2021-01-01 00:00:00.000000,0.00000005,0.00000038,0.00000165,0,0,0,0,0,0,0.00000004,0.00000032,0.00000142,0.01095258,0.03032872,0.06445447
0,0,ChinaHubei,Hubei,,2021-04-04 00:47:00.689591,2021-01-02 00:00:00.000000,0.00000004,0.00000034,0.00000150,0,0,0,0,0,0,0.00000003,0.00000028,0.00000129,0.00991382,0.03056905,0.06594586
0,0,ChinaHubei,Hubei,,2021-04-04 00:47:00.689591,2021-01-03 00:00:00.000000,0.00000004,0.00000030,0.00000136,0,0,0,0,0,0,0.00000003,0.00000024,0.00000117,0.00965999,0.03021850,0.06920821
0,0,ChinaHubei,Hubei,,2021-04-04 00:47:00.689591,2021-01-04 00:00:00.000000,0.00000119,0.00000354,0.00001423,0,2,8,0,0,0,0.00000002,0.00000021,0.00000104,0.00936514,0.02969301,0.06944594
0,0,ChinaHubei,Hubei,,2021-04-04 00:47:00.689591,2021-01-05 00:00:00.000000,0.00000213,0.00000668,0.00002796,1,3,16,0,1,7,0.00000090,0.00000287,0.00001238,0.00897337,0.02907185,0.06956886
0,0,ChinaHubei,Hubei,,2021-04-04 00:47:00.689591,2021-01-06 00:00:00.000000,0.00000280,0.00000982,0.00004206,1,5,24,0,3,14,0.00000158,0.00000551,0.00002381,0.00887629,0.02881529,0.06968398
0,0,ChinaHubei,Hubei,,2021-04-04 00:47:00.689591,2021-01-07 00:00:00.000000,0.00000340,0.00001253,0.00005442,2,7,32,1,4,20,0.00000206,0.00000775,0.00003381,0.00909370,0.02834878,0.06989317
0,0,ChinaHubei,Hubei,,2021-04-04 00:47:00.689591,2021-01-08 00:00:00.000000,0.00000392,0.00001487,0.00006514,2,8,38,1,5,25,0.00000249,0.00000974,0.00004252,0.00935916,0.02846204,0.07036717
0,0,ChinaHubei,Hubei,,2021-04-04 00:47:00.689591,2021-01-09 00:00:00.000000,0.00000438,0.00001693,0.00007443,2,10,44,1,6,29,0.00000287,0.00001152,0.00005010,0.00963933,0.02895647,0.07139613
0,0,ChinaHubei,Hubei,,2021-04-04 00:47:00.689591,2021-01-10 00:00:00.000000,0.00000478,0.00001874,0.00008245,2,11,48,1,7,33,0.00000320,0.00001307,0.00005670,0.00989414,0.02918425,0.07466926
0,0,ChinaHubei,Hubei,,2021-04-04 00:47:00.689591,2021-01-11 00:00:00.000000,0.00000709,0.00002128,0.00007991,4,12,47,2,8,36,0.00000349,0.00001442,0.00006240,0.01009504,0.03045817,0.07563485
0,0,ChinaHubei,Hubei,,2021-04-04 00:47:00.689591,2021-01-12 00:00:00.000000,0.00000932,0.00002274,0.00007642,5,13,45,3,9,34,0.00000542,0.00001635,0.00005905,0.01004702,0.02965247,0.07708569
0,0,ChinaHubei,Hubei,,2021-04-04 00:47:00.689591,2021-01-13 00:00:00.000000,0.00001083,0.00002502,0.00007190,6,14,42,4,10,32,0.00000686,0.00001738,0.00005543,0.01010370,0.02919680,0.07797257
0,0,ChinaHubei,Hubei,,2021-04-04 00:47:00.689591,2021-01-14 00:00:00.000000,0.00001039,0.00002690,0.00006893,6,15,40,4,11,30,0.00000796,0.00001921,0.00005226,0.01010948,0.03036212,0.07832078
0,0,ChinaHubei,Hubei,,2021-04-04 00:47:00.689591,2021-01-15 00:00:00.000000,0.00000957,0.00002846,0.00006462,5,16,38,4,12,29,0.00000726,0.00002055,0.00004981,0.01016189,0.03082322,0.07845288
0,0,ChinaHubei,Hubei,,2021-04-04 00:47:00.689591,2021-01-16 00:00:00.000000,0.00000990,0.00002956,0.00006188,5,17,36,4,12,27,0.00000692,0.00002162,0.00004724,0.01003853,0.03129764,0.07850244
0,0,ChinaHubei,Hubei,,2021-04-04 00:47:00.689591,2021-01-17 00:00:00.000000,0.00001019,0.00003098,0.00006283,6,18,37,4,13,26,0.00000716,0.00002249,0.00004535,0.00938170,0.03152744,0.07852186
0,0,ChinaHubei,Hubei,,2021-04-04 00:47:00.689591,2021-01-18 00:00:00.000000,0.00000909,0.00002786,0.00005694,5,16,33,4,13,28,0.00000737,0.00002335,0.00004823,0.00940309,0.03182334,0.07853718
0,0,ChinaHubei,Hubei,,2021-04-04 00:47:00.689591,2021-01-19 00:00:00.000000,0.00000795,0.00002459,0.00005055,4,14,29,3,12,25,0.00000655,0.00002081,0.00004256,0.00972612,0.03187868,0.07860955
0,0,ChinaHubei,Hubei,,2021-04-04 00:47:00.689591,2021-01-20 00:00:00.000000,0.00000678,0.00002168,0.00004364,4,12,25,3,10,21,0.00000562,0.00001810,0.00003694,0.00995318,0.03190531,0.07916210
0,0,ChinaHubei,Hubei,,2021-04-04 00:47:00.689591,2021-01-21 00:00:00.000000,0.00000579,0.00001887,0.00003776,3,11,22,2,9,18,0.00000481,0.00001586,0.00003210,0.01006991,0.03246671,0.08082339
0,0,ChinaHubei,Hubei,,2021-04-04 00:47:00.689591,2021-01-22 00:00:00.000000,0.00000502,0.00001654,0.00003337,2,9,19,2,8,16,0.00000409,0.00001405,0.00002830,0.00933466,0.03279310,0.08346903
0,0,ChinaHubei,Hubei,,2021-04-04 00:47:00.689591,2021-01-23 00:00:00.000000,0.00000420,0.00001467,0.00002971,2,8,17,2,7,14,0.00000343,0.00001240,0.00002524,0.00904523,0.03274174,0.08903233
0,0,ChinaHubei,Hubei,,2021-04-04 00:47:00.689591,2021-01-24 00:00:00.000000,0.00000350,0.00001287,0.00002647,2,7,15,1,6,13,0.00000291,0.00001082,0.00002251,0.00899206,0.03220504,0.08283115
0,0,ChinaHubei,Hubei,,2021-04-04 00:47:00.689591,2021-01-25 00:00:00.000000,0.00000296,0.00001125,0.00002399,1,6,14,1,5,11,0.00000247,0.00000931,0.00002023,0.00897471,0.03158371,0.07991819
0,0,ChinaHubei,Hubei,,2021-04-04 00:47:00.689591,2021-01-26 00:00:00.000000,0.00000251,0.00000971,0.00002188,1,5,12,1,4,10,0.00000210,0.00000814,0.00001846,0.00853695,0.03184200,0.07622939
0,0,ChinaHubei,Hubei,,2021-04-04 00:47:00.689591,2021-01-27 00:00:00.000000,0.00000213,0.00000849,0.00001995,1,5,11,1,4,9,0.00000178,0.00000718,0.00001683,0.00825248,0.03217231,0.07500651
0,0,ChinaHubei,Hubei,,2021-04-04 00:47:00.689591,2021-01-28 00:00:00.000000,0.00000181,0.00000749,0.00001819,1,4,10,0,3,9,0.00000151,0.00000629,0.00001535,0.00813078,0.03244828,0.07549547
0,0,ChinaHubei,Hubei,,2021-04-04 00:47:00.689591,2021-01-29 00:00:00.000000,0.00000154,0.00000646,0.00001659,0,3,9,0,3,8,0.00000129,0.00000546,0.00001400,0.00813944,0.03258944,0.07750965
0,0,ChinaHubei,Hubei,,2021-04-04 00:47:00.689591,2021-01-30 00:00:00.000000,0.00000131,0.00000558,0.00001514,0,3,8,0,2,7,0.00000109,0.00000473,0.00001277,0.00828997,0.03317229,0.07877053
0,0,ChinaHubei,Hubei,,2021-04-04 00:47:00.689591,2021-01-31 00:00:00.000000,0.00000111,0.00000485,0.00001381,0,2,8,0,2,6,0.00000093,0.00000411,0.00001165,0.00862416,0.03322876,0.08060177
0,0,ChinaHubei,Hubei,,2021-04-04 00:47:00.689591,2021-02-01 00:00:00.000000,0.00000351,0.00000758,0.00001926,2,4,11,0,2,6,0.00000079,0.00000360,0.00001063,0.00869308,0.03300995,0.08297642
0,0,ChinaHubei,Hubei,,2021-04-04 00:47:00.689591,2021-02-02 00:00:00.000000,0.00000462,0.00000970,0.00002914,2,5,17,1,3,9,0.00000246,0.00000587,0.00001600,0.00868241,0.03300620,0.08369805
0,0,ChinaHubei,Hubei,,2021-04-04 00:47:00.689591,2021-02-03 00:00:00.000000,0.00000538,0.00001275,0.00003975,3,7,23,2,4,14,0.00000354,0.00000778,0.00002387,0.00873867,0.03301617,0.08400714
0,0,ChinaHubei,Hubei,,2021-04-04 00:47:00.689591,2021-02-04 00:00:00.000000,0.00000570,0.00001534,0.00004570,3,9,27,2,5,18,0.00000406,0.00000989,0.00003147,0.00885991,0.03302591,0.08188551
0,0,ChinaHubei,Hubei,,2021-04-04 00:47:00.689591,2021-02-05 00:00:00.000000,0.00000612,0.00001724,0.00005041,3,10,29,2,6,21,0.00000429,0.00001174,0.00003598,0.00896540,0.03110156,0.08365266
0,0,ChinaHubei,Hubei,,2021-04-04 00:47:00.689591,2021-02-06 00:00:00.000000,0.00000653,0.00001883,0.00005609,3,11,33,2,7,23,0.00000448,0.00001313,0.00003983,0.00901282,0.03054146,0.08262907
0,0,ChinaHubei,Hubei,,2021-04-04 00:47:00.689591,2021-02-07 00:00:00.000000,0.00000689,0.00002024,0.00006191,4,11,36,2,8,26,0.00000477,0.00001433,0.00004464,0.00898753,0.03083638,0.08019377
0,0,ChinaHubei,Hubei,,2021-04-04 00:47:00.689591,2021-02-08 00:00:00.000000,0.00000822,0.00002141,0.00006181,4,12,36,2,9,29,0.00000503,0.00001540,0.00004908,0.00897476,0.03090965,0.07806835
0,0,ChinaHubei,Hubei,,2021-04-04 00:47:00.689591,2021-02-09 00:00:00.000000,0.00000858,0.00002256,0.00006112,5,13,36,3,9,28,0.00000624,0.00001594,0.00004807,0.00895928,0.03191573,0.07815320
0,0,ChinaHubei,Hubei,,2021-04-04 00:47:00.689591,2021-02-10 00:00:00.000000,0.00000888,0.00002366,0.00005979,5,13,35,3,9,27,0.00000664,0.00001681,0.00004580,0.00893721,0.03140418,0.07810460
0,0,ChinaHubei,Hubei,,2021-04-04 00:47:00.689591,2021-02-11 00:00:00.000000,0.00000915,0.00002451,0.00005841,5,14,34,3,10,27,0.00000675,0.00001798,0.00004619,0.00890430,0.03114577,0.07832624
0,0,ChinaHubei,Hubei,,2021-04-04 00:47:00.689591,2021-02-12 00:00:00.000000,0.00000877,0.00002532,0.00005893,5,14,34,3,10,26,0.00000658,0.00001822,0.00004513,0.00885523,0.03131277,0.07884508
0,0,ChinaHubei,Hubei,,2021-04-04 00:47:00.689591,2021-02-13 00:00:00.000000,0.00000838,0.00002579,0.00006198,4,15,36,3,11,26,0.00000627,0.00001877,0.00004417,0.00878543,0.03150173,0.07982097
0,0,ChinaHubei,Hubei,,2021-04-04 00:47:00.689591,2021-02-14 00:00:00.000000,0.00000805,0.00002539,0.00006394,4,15,37,3,11,28,0.00000613,0.00001924,0.00004737,0.00869376,0.03146049,0.08150077
0,0,ChinaHubei,Hubei,,2021-04-04 00:47:00.689591,2021-02-15 00:00:00.000000,0.00000714,0.00002279,0.00005776,4,13,34,3,11,28,0.00000603,0.00001888,0.00004881,0.00858529,0.03082787,0.08296983
0,0,ChinaHubei,Hubei,,2021-04-04 00:47:00.689591,2021-02-16 00:00:00.000000,0.00000630,0.00002026,0.00005141,3,11,30,3,10,25,0.00000546,0.00001707,0.00004262,0.00847318,0.03121309,0.08537514
0,0,ChinaHubei,Hubei,,2021-04-04 00:47:00.689591,2021-02-17 00:00:00.000000,0.00000558,0.00001780,0.00004476,3,10,26,2,8,22,0.00000487,0.00001510,0.00003743,0.00838895,0.03109755,0.09130627
0,0,ChinaHubei,Hubei,,2021-04-04 00:47:00.689591,2021-02-18 00:00:00.000000,0.00000494,0.00001565,0.00004041,2,9,23,2,7,20,0.00000433,0.00001315,0.00003417,0.00783150,0.03320711,0.09426533
0,0,ChinaHubei,Hubei,,2021-04-04 00:47:00.689591,2021-02-19 00:00:00.000000,0.00000438,0.00001384,0.00003684,2,8,21,2,6,18,0.00000384,0.00001152,0.00003121,0.00779647,0.03327004,0.09491433
0,0,ChinaHubei,Hubei,,2021-04-04 00:47:00.689591,2021-02-20 00:00:00.000000,0.00000388,0.00001208,0.00003363,2,7,19,2,6,16,0.00000341,0.00001028,0.00002852,0.00777112,0.03246204,0.09472018
0,0,ChinaHubei,Hubei,,2021-04-04 00:47:00.689591,2021-02-21 00:00:00.000000,0.00000345,0.00001063,0.00003074,2,6,18,1,5,15,0.00000303,0.00000893,0.00002608,0.00772744,0.03140255,0.09381864
0,0,ChinaHubei,Hubei,,2021-04-04 00:47:00.689591,2021-02-22 00:00:00.000000,0.00000307,0.00000937,0.00002811,1,5,16,1,4,14,0.00000265,0.00000782,0.00002386,0.00765382,0.03058557,0.09210549
0,0,ChinaHubei,Hubei,,2021-04-04 00:47:00.689591,2021-02-23 00:00:00.000000,0.00000273,0.00000824,0.00002572,1,4,15,1,4,12,0.00000228,0.00000687,0.00002183,0.00775669,0.03010982,0.08996268
0,0,ChinaHubei,Hubei,,2021-04-04 00:47:00.689591,2021-02-24 00:00:00.000000,0.00000236,0.00000719,0.00002301,1,4,13,1,3,11,0.00000196,0.00000600,0.00001998,0.00851387,0.03052451,0.08760682
0,0,ChinaHubei,Hubei,,2021-04-04 00:47:00.689591,2021-02-25 00:00:00.000000,0.00000203,0.00000628,0.00002058,1,3,12,0,3,10,0.00000169,0.00000526,0.00001799,0.00933340,0.03079889,0.08357403
0,0,ChinaHubei,Hubei,,2021-04-04 00:47:00.689591,2021-02-26 00:00:00.000000,0.00000174,0.00000552,0.00001839,1,3,10,0,2,9,0.00000145,0.00000460,0.00001609,0.00835235,0.03086893,0.08315820
0,0,ChinaHubei,Hubei,,2021-04-04 00:47:00.689591,2021-02-27 00:00:00.000000,0.00000150,0.00000492,0.00001643,0,2,9,0,2,8,0.00000125,0.00000407,0.00001437,0.00802691,0.03043418,0.08376097
0,0,ChinaHubei,Hubei,,2021-04-04 00:47:00.689591,2021-02-28 00:00:00.000000,0.00000129,0.00000449,0.00001466,0,2,8,0,2,7,0.00000107,0.00000367,0.00001283,0.00798137,0.03031000,0.08872661
0,0,ChinaHubei,Hubei,,2021-04-04 00:47:00.689591,2021-03-01 00:00:00.000000,0.00000111,0.00000396,0.00001307,0,2,7,0,1,6,0.00000093,0.00000329,0.00001145,0.00794958,0.03034484,0.09505627
0,0,ChinaHubei,Hubei,,2021-04-04 00:47:00.689591,2021-03-02 00:00:00.000000,0.00000096,0.00000342,0.00001166,0,2,6,0,1,6,0.00000080,0.00000285,0.00001021,0.00800348,0.03043634,0.08966246
0,0,ChinaHubei,Hubei,,2021-04-04 00:47:00.689591,2021-03-03 00:00:00.000000,0.00000083,0.00000292,0.00001040,0,1,6,0,1,5,0.00000069,0.00000244,0.00000911,0.00803709,0.03061206,0.08532662
0,0,ChinaHubei,Hubei,,2021-04-04 00:47:00.689591,2021-03-04 00:00:00.000000,0.00000071,0.00000250,0.00000927,0,1,5,0,1,4,0.00000059,0.00000214,0.00000812,0.00803866,0.03085289,0.08542767
0,0,ChinaHubei,Hubei,,2021-04-04 00:47:00.689591,2021-03-05 00:00:00.000000,0.00000061,0.00000218,0.00000827,0,1,4,0,1,4,0.00000050,0.00000183,0.00000725,0.00801855,0.03150923,0.08537160
0,0,ChinaHubei,Hubei,,2021-04-04 00:47:00.689591,2021-03-06 00:00:00.000000,0.00000052,0.00000188,0.00000738,0,1,4,0,0,3,0.00000042,0.00000157,0.00000646,0.00799674,0.03135770,0.08390130
0,0,ChinaHubei,Hubei,,2021-04-04 00:47:00.689591,2021-03-07 00:00:00.000000,0.00000044,0.00000164,0.00000659,0,0,3,0,0,3,0.00000036,0.00000137,0.00000577,0.00776689,0.03104454,0.08604808
0,0,ChinaHubei,Hubei,,2021-04-04 00:47:00.689591,2021-03-08 00:00:00.000000,0.00000270,0.00000545,0.00001138,1,3,6,0,0,3,0.00000030,0.00000119,0.00000515,0.00736930,0.03097979,0.09068892
0,0,ChinaHubei,Hubei,,2021-04-04 00:47:00.689591,2021-03-09 00:00:00.000000,0.00000368,0.00000817,0.00001985,2,4,11,1,2,5,0.00000207,0.00000426,0.00000929,0.00731464,0.03088919,0.09718938
0,0,ChinaHubei,Hubei,,2021-04-04 00:47:00.689591,2021-03-10 00:00:00.000000,0.00000495,0.00001130,0.00002948,2,6,17,1,3,9,0.00000304,0.00000658,0.00001577,0.00737816,0.03073089,0.10497047
0,0,ChinaHubei,Hubei,,2021-04-04 00:47:00.689591,2021-03-11 00:00:00.000000,0.00000594,0.00001418,0.00003797,3,8,22,2,5,13,0.00000396,0.00000880,0.00002297,0.00741887,0.03046366,0.11000340
0,0,ChinaHubei,Hubei,,2021-04-04 00:47:00.689591,2021-03-12 00:00:00.000000,0.00000678,0.00001662,0.00004537,4,9,26,2,6,17,0.00000465,0.00001081,0.00002936,0.00744317,0.03057000,0.10638628
0,0,ChinaHubei,Hubei,,2021-04-04 00:47:00.689591,2021-03-13 00:00:00.000000,0.00000749,0.00001868,0.00005187,4,11,30,3,7,20,0.00000524,0.00001255,0.00003503,0.00745679,0.02960480,0.10323230
0,0,ChinaHubei,Hubei,,2021-04-04 00:47:00.689591,2021-03-14 00:00:00.000000,0.00000811,0.00002046,0.00005761,4,12,34,3,8,23,0.00000575,0.00001402,0.00004005,0.00746420,0.02933537,0.10073488
0,0,ChinaHubei,Hubei,,2021-04-04 00:47:00.689591,2021-03-15 00:00:00.000000,0.00000977,0.00002136,0.00006033,5,12,35,3,9,26,0.00000619,0.00001530,0.00004451,0.00746838,0.02915921,0.10010431
0,0,ChinaHubei,Hubei,,2021-04-04 00:47:00.689591,2021-03-16 00:00:00.000000,0.00001096,0.00002389,0.00005692,6,14,33,4,9,27,0.00000764,0.00001623,0.00004635,0.00747090,0.02897564,0.10132648
0,0,ChinaHubei,Hubei,,2021-04-04 00:47:00.689591,2021-03-17 00:00:00.000000,0.00001271,0.00002561,0.00005283,7,15,31,5,10,25,0.00000854,0.00001823,0.00004303,0.00747254,0.03007768,0.10250346
0,0,ChinaHubei,Hubei,,2021-04-04 00:47:00.689591,2021-03-18 00:00:00.000000,0.00001346,0.00002726,0.00005252,7,16,31,5,11,23,0.00000926,0.00001949,0.00004008,0.00747438,0.03103607,0.10420061
0,0,ChinaHubei,Hubei,,2021-04-04 00:47:00.689591,2021-03-19 00:00:00.000000,0.00001355,0.00002797,0.00005581,8,16,33,5,12,23,0.00000988,0.00002066,0.00003970,0.00748086,0.03101428,0.10654542
0,0,ChinaHubei,Hubei,,2021-04-04 00:47:00.689591,2021-03-20 00:00:00.000000,0.00001365,0.00002853,0.00005866,8,16,34,5,12,24,0.00000996,0.00002146,0.00004210,0.00750663,0.03129793,0.10838565
0,0,ChinaHubei,Hubei,,2021-04-04 00:47:00.689591,2021-03-21 00:00:00.000000,0.00001374,0.00002927,0.00006008,8,17,35,6,12,26,0.00001018,0.00002116,0.00004417,0.00757895,0.03206052,0.10926719
0,0,ChinaHubei,Hubei,,2021-04-04 00:47:00.689591,2021-03-22 00:00:00.000000,0.00001254,0.00002664,0.00005408,7,15,32,6,12,26,0.00001018,0.00002164,0.00004470,0.00770212,0.03265379,0.10974056
0,0,ChinaHubei,Hubei,,2021-04-04 00:47:00.689591,2021-03-23 00:00:00.000000,0.00001120,0.00002364,0.00004852,6,13,28,5,11,23,0.00000908,0.00001929,0.00004012,0.00778339,0.03278229,0.11034212
0,0,ChinaHubei,Hubei,,2021-04-04 00:47:00.689591,2021-03-24 00:00:00.000000,0.00000987,0.00002038,0.00004298,5,12,25,4,9,21,0.00000803,0.00001663,0.00003579,0.00780889,0.03285371,0.11170890
0,0,ChinaHubei,Hubei,,2021-04-04 00:47:00.689591,2021-03-25 00:00:00.000000,0.00000870,0.00001741,0.00003797,5,10,22,4,8,18,0.00000709,0.00001435,0.00003160,0.00794873,0.03289310,0.11499024
0,0,ChinaHubei,Hubei,,2021-04-04 00:47:00.689591,2021-03-26 00:00:00.000000,0.00000748,0.00001502,0.00003322,4,8,19,3,7,16,0.00000622,0.00001259,0.00002771,0.00828200,0.03222657,0.12186965
0,0,ChinaHubei,Hubei,,2021-04-04 00:47:00.689591,2021-03-27 00:00:00.000000,0.00000636,0.00001334,0.00002991,3,7,17,3,6,14,0.00000528,0.00001110,0.00002505,0.00768889,0.03173430,0.12942379
0,0,ChinaHubei,Hubei,,2021-04-04 00:47:00.689591,2021-03-28 00:00:00.000000,0.00000541,0.00001183,0.00002662,3,6,15,2,5,13,0.00000450,0.00000980,0.00002231,0.00753704,0.03120794,0.12739446
0,0,ChinaHubei,Hubei,,2021-04-04 00:47:00.689591,2021-03-29 00:00:00.000000,0.00000460,0.00001053,0.00002372,2,6,14,2,5,11,0.00000383,0.00000872,0.00001988,0.00762890,0.03047365,0.12658916
0,0,ChinaHubei,Hubei,,2021-04-04 00:47:00.689591,2021-03-30 00:00:00.000000,0.00000392,0.00000913,0.00002169,2,5,12,1,4,10,0.00000327,0.00000774,0.00001772,0.00767019,0.02977351,0.12632802
0,0,ChinaHubei,Hubei,,2021-04-04 00:47:00.689591,2021-03-31 00:00:00.000000,0.00000335,0.00000818,0.00002028,1,4,12,1,4,9,0.00000279,0.00000680,0.00001652,0.00768546,0.02943507,0.12624612
0,0,ChinaHubei,Hubei,,2021-04-04 00:47:00.689591,2021-04-01 00:00:00.000000,0.00000286,0.00000727,0.00001896,1,4,11,1,3,9,0.00000238,0.00000607,0.00001544,0.00769061,0.02928310,0.12622059
0,0,ChinaHubei,Hubei,,2021-04-04 00:47:00.689591,2021-04-02 00:00:00.000000,0.00000244,0.00000644,0.00001771,1,3,10,1,3,8,0.00000203,0.00000546,0.00001444,0.00769226,0.02921794,0.12621264
0,0,ChinaHubei,Hubei,,2021-04-04 00:47:00.689591,2021-04-03 00:00:00.000000,0.00000208,0.00000564,0.00001655,1,3,9,1,2,7,0.00000173,0.00000479,0.00001349,0.00769276,0.02919062,0.12621015
0,0,ChinaHubei,Hubei,,2021-04-04 00:47:00.689591,2021-04-04 00:00:00.000000,0.00000178,0.00000492,0.00001503,1,2,8,0,2,7,0.00000148,0.00000420,0.00001260,0.00769290,0.02917928,0.12620937
0,0,ChinaHubei,Hubei,,2021-04-04 00:47:00.689591,2021-04-05 00:00:00.000000,0.00000152,0.00000434,0.00001341,0,2,7,0,2,6,0.00000126,0.00000370,0.00001177,0.00769293,0.02917459,0.12620912
0,0,ChinaHubei,Hubei,,2021-04-04 00:47:00.689591,2021-04-06 00:00:00.000000,0.00000130,0.00000383,0.00001210,0,2,7,0,1,6,0.00000108,0.00000323,0.00001050,0.00769293,0.02917265,0.12620904
0,0,ChinaHubei,Hubei,,2021-04-04 00:47:00.689591,2021-04-07 00:00:00.000000,0.00000111,0.00000334,0.00001130,0,1,6,0,1,5,0.00000092,0.00000283,0.00000936,0.00769293,0.02917186,0.12620901
0,0,ChinaHubei,Hubei,,2021-04-04 00:47:00.689591,2021-04-08 00:00:00.000000,0.00000095,0.00000294,0.00001055,0,1,6,0,1,5,0.00000079,0.00000247,0.00000864,0.00769293,0.02917153,0.12620900
0,0,ChinaHubei,Hubei,,2021-04-04 00:47:00.689591,2021-04-09 00:00:00.000000,0.00000081,0.00000259,0.00000986,0,1,5,0,1,4,0.00000067,0.00000218,0.00000807,0.00769293,0.02917139,0.12620900
0,0,ChinaHubei,Hubei,,2021-04-04 00:47:00.689591,2021-04-10 00:00:00.000000,0.00000069,0.00000228,0.00000921,0,1,5,0,1,4,0.00000057,0.00000192,0.00000754,0.00769293,0.02917134,0.12620900
0,0,ChinaHubei,Hubei,,2021-04-04 00:47:00.689591,2021-04-11 00:00:00.000000,0.00000059,0.00000200,0.00000860,0,1,5,0,0,4,0.00000049,0.00000168,0.00000704,0.00769293,0.02917131,0.12620900
0,0,ChinaHubei,Hubei,,2021-04-04 00:47:00.689591,2021-04-12 00:00:00.000000,0.00000050,0.00000177,0.00000803,0,1,4,0,0,3,0.00000042,0.00000148,0.00000658,0.00769293,0.02917130,0.12620900
0,0,ChinaHubei,Hubei,,2021-04-04 00:47:00.689591,2021-04-13 00:00:00.000000,0.00000043,0.00000156,0.00000750,0,0,4,0,0,3,0.00000036,0.00000131,0.00000614,0.00769293,0.02917130,0.12620900
0,0,ChinaHubei,Hubei,,2021-04-04 00:47:00.689591,2021-04-14 00:00:00.000000,0.00000037,0.00000136,0.00000701,0,0,4,0,0,3,0.00000030,0.00000114,0.00000574,0.00769293,0.02917130,0.12620900
0,0,ChinaHubei,Hubei,,2021-04-04 00:47:00.689591,2021-04-15 00:00:00.000000,0.00000031,0.00000119,0.00000655,0,0,3,0,0,3,0.00000026,0.00000100,0.00000536,0.00769293,0.02917130,0.12620900
0,0,ChinaHubei,Hubei,,2021-04-04 00:47:00.689591,2021-04-16 00:00:00.000000,0.00000027,0.00000105,0.00000612,0,0,3,0,0,2,0.00000022,0.00000088,0.00000501,0.00769293,0.02917130,0.12620900
0,0,ChinaHubei,Hubei,,2021-04-04 00:47:00.689591,2021-04-17 00:00:00.000000,0.00000023,0.00000092,0.00000571,0,0,3,0,0,2,0.00000019,0.00000077,0.00000468,0.00769293,0.02917130,0.12620900
