FIPS,HR_UID,nameid,province,region,analysisTime,dates,pointprevalence_025,pointprevalence_50,pointprevalence_975,pointinfections_025,pointinfections_50,pointinfections_975,pointinfectious_025,pointinfectious_50,pointinfectious_975,pointinfectiousprevalence_05,pointinfectiousprevalence_50,pointinfectiousprevalence_95,infectrate_025,infectrate_50,infectrate_975
18035,0,USIndianaDelaware,Indiana,Delaware,2021-04-04 11:49:23.867136,2020-03-09 00:00:00.000000,0.00181488,0.00525201,0.01361991,2,5,15,0,2,8,0.00029193,0.00211410,0.00746355,0.45372875,0.58611206,0.86754720
18035,0,USIndianaDelaware,Indiana,Delaware,2021-04-04 11:49:23.867136,2020-03-10 00:00:00.000000,0.00250501,0.00785166,0.01582339,2,8,18,0,2,8,0.00065914,0.00245946,0.00769144,0.45368816,0.58606969,0.86716875
18035,0,USIndianaDelaware,Indiana,Delaware,2021-04-04 11:49:23.867136,2020-03-11 00:00:00.000000,0.00328910,0.01016808,0.01820279,3,11,20,1,3,9,0.00106244,0.00340182,0.00849243,0.45360386,0.58598855,0.86650913
18035,0,USIndianaDelaware,Indiana,Delaware,2021-04-04 11:49:23.867136,2020-03-12 00:00:00.000000,0.00418978,0.01206822,0.02190263,4,13,24,1,5,10,0.00169422,0.00468978,0.00960773,0.45342946,0.58583333,0.86536421
18035,0,USIndianaDelaware,Indiana,Delaware,2021-04-04 11:49:23.867136,2020-03-13 00:00:00.000000,0.00522463,0.01438683,0.02671805,5,16,30,2,6,13,0.00231421,0.00575430,0.01146703,0.45307121,0.58553709,0.86339141
18035,0,USIndianaDelaware,Indiana,Delaware,2021-04-04 11:49:23.867136,2020-03-14 00:00:00.000000,0.00641341,0.01690171,0.03207794,7,19,36,3,7,15,0.00290708,0.00698152,0.01371589,0.45234639,0.58497414,0.86003422
18035,0,USIndianaDelaware,Indiana,Delaware,2021-04-04 11:49:23.867136,2020-03-15 00:00:00.000000,0.00726829,0.01946023,0.03633937,8,22,41,4,9,18,0.00354317,0.00843371,0.01603472,0.45092369,0.58391315,0.85458421
18035,0,USIndianaDelaware,Indiana,Delaware,2021-04-04 11:49:23.867136,2020-03-16 00:00:00.000000,0.00874218,0.02216533,0.04181074,9,25,47,4,11,21,0.00404434,0.01028570,0.01840959,0.44829052,0.57561870,0.85445624
18035,0,USIndianaDelaware,Indiana,Delaware,2021-04-04 11:49:23.867136,2020-03-17 00:00:00.000000,0.01074061,0.02590176,0.04768066,12,29,54,5,13,24,0.00470375,0.01199124,0.02160143,0.44390780,0.57433008,0.85405781
18035,0,USIndianaDelaware,Indiana,Delaware,2021-04-04 11:49:23.867136,2020-03-18 00:00:00.000000,0.01296463,0.03068729,0.05404525,14,35,61,6,15,28,0.00546680,0.01389077,0.02525885,0.43775877,0.57060746,0.82350177
18035,0,USIndianaDelaware,Indiana,Delaware,2021-04-04 11:49:23.867136,2020-03-19 00:00:00.000000,0.01543391,0.03467765,0.06095274,17,39,69,7,18,32,0.00631301,0.01584440,0.02884666,0.43091600,0.56823598,0.79013219
18035,0,USIndianaDelaware,Indiana,Delaware,2021-04-04 11:49:23.867136,2020-03-20 00:00:00.000000,0.01842628,0.03913068,0.07069874,21,44,80,8,20,37,0.00723318,0.01795297,0.03275280,0.43040982,0.55034999,0.77018734
18035,0,USIndianaDelaware,Indiana,Delaware,2021-04-04 11:49:23.867136,2020-03-21 00:00:00.000000,0.02128587,0.04390935,0.08045347,24,50,91,9,23,42,0.00822545,0.02042246,0.03703847,0.42041101,0.53288040,0.76771792
18035,0,USIndianaDelaware,Indiana,Delaware,2021-04-04 11:49:23.867136,2020-03-22 00:00:00.000000,0.02457353,0.04952431,0.09247053,28,56,105,11,26,47,0.00993988,0.02305512,0.04162280,0.41563080,0.52650114,0.75431854
18035,0,USIndianaDelaware,Indiana,Delaware,2021-04-04 11:49:23.867136,2020-03-23 00:00:00.000000,0.02874435,0.05634692,0.10126693,32,64,115,13,29,53,0.01190502,0.02586602,0.04688779,0.38926621,0.51419316,0.72712533
18035,0,USIndianaDelaware,Indiana,Delaware,2021-04-04 11:49:23.867136,2020-03-24 00:00:00.000000,0.03350464,0.06169924,0.10880738,38,70,124,16,33,61,0.01406676,0.02927098,0.05382497,0.37646862,0.50100624,0.69972152
18035,0,USIndianaDelaware,Indiana,Delaware,2021-04-04 11:49:23.867136,2020-03-25 00:00:00.000000,0.03881013,0.06980081,0.11655814,44,79,133,18,38,70,0.01630314,0.03397123,0.06166405,0.37151793,0.49716920,0.69670970
18035,0,USIndianaDelaware,Indiana,Delaware,2021-04-04 11:49:23.867136,2020-03-26 00:00:00.000000,0.04378189,0.07890131,0.12439178,49,90,141,21,43,79,0.01866615,0.03807731,0.07008707,0.36592145,0.49183635,0.69247675
18035,0,USIndianaDelaware,Indiana,Delaware,2021-04-04 11:49:23.867136,2020-03-27 00:00:00.000000,0.04862604,0.08781873,0.13769129,55,100,157,25,47,89,0.02222695,0.04191805,0.07873525,0.36179786,0.47841599,0.68446174
18035,0,USIndianaDelaware,Indiana,Delaware,2021-04-04 11:49:23.867136,2020-03-28 00:00:00.000000,0.05468970,0.09610889,0.15409687,62,109,175,29,52,99,0.02609561,0.04615462,0.08732915,0.34961447,0.45800059,0.66929491
18035,0,USIndianaDelaware,Indiana,Delaware,2021-04-04 11:49:23.867136,2020-03-29 00:00:00.000000,0.06226513,0.10559668,0.17120610,71,120,195,34,58,109,0.03026628,0.05142206,0.09581157,0.34253154,0.45440167,0.65206037
18035,0,USIndianaDelaware,Indiana,Delaware,2021-04-04 11:49:23.867136,2020-03-30 00:00:00.000000,0.06827510,0.11445068,0.18155909,77,130,207,37,64,118,0.03323325,0.05694185,0.10425373,0.33323177,0.45096140,0.62945214
18035,0,USIndianaDelaware,Indiana,Delaware,2021-04-04 11:49:23.867136,2020-03-31 00:00:00.000000,0.07479608,0.12484961,0.19233857,85,142,219,41,70,128,0.03640215,0.06152964,0.11241202,0.32996269,0.44595416,0.62295309
18035,0,USIndianaDelaware,Indiana,Delaware,2021-04-04 11:49:23.867136,2020-04-01 00:00:00.000000,0.08084117,0.13420214,0.20269213,92,153,231,45,76,137,0.04005659,0.06745508,0.12039771,0.32005034,0.43549138,0.62684995
18035,0,USIndianaDelaware,Indiana,Delaware,2021-04-04 11:49:23.867136,2020-04-02 00:00:00.000000,0.08620021,0.14481121,0.21470970,98,165,245,50,84,146,0.04413744,0.07421478,0.12848716,0.30664646,0.42328723,0.62265627
18035,0,USIndianaDelaware,Indiana,Delaware,2021-04-04 11:49:23.867136,2020-04-03 00:00:00.000000,0.09181896,0.15572478,0.23890640,104,177,272,55,90,156,0.04861521,0.07971654,0.13683549,0.29364618,0.41374934,0.61387815
18035,0,USIndianaDelaware,Indiana,Delaware,2021-04-04 11:49:23.867136,2020-04-04 00:00:00.000000,0.09978999,0.16696899,0.26504271,113,190,302,61,98,166,0.05352293,0.08625221,0.14560552,0.28968469,0.39991097,0.60003063
18035,0,USIndianaDelaware,Indiana,Delaware,2021-04-04 11:49:23.867136,2020-04-05 00:00:00.000000,0.10837343,0.18089801,0.29209061,123,206,333,65,105,176,0.05702556,0.09240356,0.15495658,0.28674892,0.39682340,0.57882994
18035,0,USIndianaDelaware,Indiana,Delaware,2021-04-04 11:49:23.867136,2020-04-06 00:00:00.000000,0.12026140,0.19129021,0.31756931,137,218,362,68,112,188,0.06014561,0.09896717,0.16497662,0.28614845,0.38168149,0.57338572
18035,0,USIndianaDelaware,Indiana,Delaware,2021-04-04 11:49:23.867136,2020-04-07 00:00:00.000000,0.12853394,0.20177151,0.33310662,146,230,380,72,120,200,0.06340478,0.10582236,0.17559690,0.28645419,0.36993591,0.58165445
18035,0,USIndianaDelaware,Indiana,Delaware,2021-04-04 11:49:23.867136,2020-04-08 00:00:00.000000,0.13318781,0.21389521,0.34651005,152,244,395,76,126,212,0.06686288,0.11116709,0.18647215,0.28753929,0.36682055,0.60161653
18035,0,USIndianaDelaware,Indiana,Delaware,2021-04-04 11:49:23.867136,2020-04-09 00:00:00.000000,0.13728200,0.22745463,0.36883877,156,259,420,82,133,227,0.07214285,0.11706702,0.19895070,0.27998783,0.36613570,0.59553391
18035,0,USIndianaDelaware,Indiana,Delaware,2021-04-04 11:49:23.867136,2020-04-10 00:00:00.000000,0.14210384,0.23980298,0.38807690,162,273,442,89,143,241,0.07834118,0.12564459,0.21144007,0.28270376,0.36250423,0.58325916
18035,0,USIndianaDelaware,Indiana,Delaware,2021-04-04 11:49:23.867136,2020-04-11 00:00:00.000000,0.14804823,0.25213737,0.40268565,168,287,459,93,152,249,0.08171777,0.13376298,0.21827054,0.28417306,0.36556401,0.56756906
18035,0,USIndianaDelaware,Indiana,Delaware,2021-04-04 11:49:23.867136,2020-04-12 00:00:00.000000,0.15524283,0.26458023,0.42534218,177,301,485,97,162,258,0.08529801,0.14267397,0.22631895,0.28477673,0.35805390,0.54616952
18035,0,USIndianaDelaware,Indiana,Delaware,2021-04-04 11:49:23.867136,2020-04-13 00:00:00.000000,0.17016367,0.27812143,0.44071140,194,317,503,102,172,270,0.08980303,0.15131541,0.23695132,0.28422767,0.35636924,0.51022564
18035,0,USIndianaDelaware,Indiana,Delaware,2021-04-04 11:49:23.867136,2020-04-14 00:00:00.000000,0.17921775,0.29123127,0.45185702,204,332,515,108,182,280,0.09511903,0.15951542,0.24613489,0.26905161,0.35327920,0.47302242
18035,0,USIndianaDelaware,Indiana,Delaware,2021-04-04 11:49:23.867136,2020-04-15 00:00:00.000000,0.18753415,0.30818084,0.45967725,214,351,524,114,190,290,0.10064168,0.16662480,0.25436466,0.25741976,0.35244639,0.46453747
18035,0,USIndianaDelaware,Indiana,Delaware,2021-04-04 11:49:23.867136,2020-04-16 00:00:00.000000,0.19656010,0.32139039,0.46529329,224,366,531,121,197,299,0.10642316,0.17298579,0.26206552,0.25029663,0.34255622,0.46143314
18035,0,USIndianaDelaware,Indiana,Delaware,2021-04-04 11:49:23.867136,2020-04-17 00:00:00.000000,0.20617657,0.33504127,0.46999888,235,382,536,128,204,307,0.11249436,0.17943379,0.26949255,0.24267000,0.33602423,0.43849891
18035,0,USIndianaDelaware,Indiana,Delaware,2021-04-04 11:49:23.867136,2020-04-18 00:00:00.000000,0.21631008,0.34920717,0.48937403,246,398,558,135,215,318,0.11894885,0.18866717,0.27875618,0.23545189,0.33212552,0.44107935
18035,0,USIndianaDelaware,Indiana,Delaware,2021-04-04 11:49:23.867136,2020-04-19 00:00:00.000000,0.22693875,0.35975613,0.50654658,259,410,578,143,223,329,0.12573831,0.19577218,0.28841035,0.23296182,0.32593417,0.42388847
18035,0,USIndianaDelaware,Indiana,Delaware,2021-04-04 11:49:23.867136,2020-04-20 00:00:00.000000,0.23993211,0.36937166,0.52069657,273,421,594,151,232,339,0.13288351,0.20384062,0.29766946,0.23218511,0.31453771,0.42799558
18035,0,USIndianaDelaware,Indiana,Delaware,2021-04-04 11:49:23.867136,2020-04-21 00:00:00.000000,0.25325427,0.37821041,0.53455028,289,431,610,161,239,351,0.14153705,0.20996548,0.30822953,0.23165637,0.30926729,0.44115741
18035,0,USIndianaDelaware,Indiana,Delaware,2021-04-04 11:49:23.867136,2020-04-22 00:00:00.000000,0.26720251,0.38893208,0.54825949,304,443,625,172,247,365,0.15151773,0.21700101,0.32020624,0.23074921,0.30611492,0.43229588
18035,0,USIndianaDelaware,Indiana,Delaware,2021-04-04 11:49:23.867136,2020-04-23 00:00:00.000000,0.28180727,0.40243254,0.56181908,321,459,641,182,258,377,0.16011047,0.22623194,0.33094362,0.22765803,0.30195031,0.43877040
18035,0,USIndianaDelaware,Indiana,Delaware,2021-04-04 11:49:23.867136,2020-04-24 00:00:00.000000,0.29661083,0.41299348,0.57524092,338,471,656,194,268,388,0.17018403,0.23511423,0.34072537,0.22384875,0.29770204,0.42474986
18035,0,USIndianaDelaware,Indiana,Delaware,2021-04-04 11:49:23.867136,2020-04-25 00:00:00.000000,0.31102855,0.42289232,0.58815092,354,482,671,198,274,399,0.17389520,0.24090204,0.34961229,0.21441138,0.30024847,0.42377007
18035,0,USIndianaDelaware,Indiana,Delaware,2021-04-04 11:49:23.867136,2020-04-26 00:00:00.000000,0.32166911,0.43149323,0.60013832,367,492,684,199,279,407,0.17482727,0.24472277,0.35738677,0.20741082,0.28401073,0.39620865
18035,0,USIndianaDelaware,Indiana,Delaware,2021-04-04 11:49:23.867136,2020-04-27 00:00:00.000000,0.32833148,0.44393820,0.61239733,374,506,698,206,288,415,0.18076833,0.25242747,0.36372295,0.20272212,0.28150730,0.39241455
18035,0,USIndianaDelaware,Indiana,Delaware,2021-04-04 11:49:23.867136,2020-04-28 00:00:00.000000,0.33427813,0.45146970,0.62399878,381,515,712,209,295,422,0.18340446,0.25912407,0.36992356,0.19494059,0.27695138,0.38836439
18035,0,USIndianaDelaware,Indiana,Delaware,2021-04-04 11:49:23.867136,2020-04-29 00:00:00.000000,0.34007709,0.46276776,0.63477334,388,528,724,215,304,428,0.18858217,0.26643451,0.37560293,0.19310040,0.27667711,0.38965831
18035,0,USIndianaDelaware,Indiana,Delaware,2021-04-04 11:49:23.867136,2020-04-30 00:00:00.000000,0.34652294,0.47770841,0.64360987,395,545,734,221,315,434,0.19413276,0.27634712,0.38071581,0.18957901,0.27320770,0.38791976
18035,0,USIndianaDelaware,Indiana,Delaware,2021-04-04 11:49:23.867136,2020-05-01 00:00:00.000000,0.35346031,0.48376128,0.64826922,403,552,739,226,315,439,0.19852285,0.27615156,0.38534724,0.18099802,0.26517768,0.38560696
18035,0,USIndianaDelaware,Indiana,Delaware,2021-04-04 11:49:23.867136,2020-05-02 00:00:00.000000,0.36041799,0.48620371,0.65768496,411,554,750,230,317,449,0.20193205,0.27781673,0.39377542,0.18045158,0.25948062,0.35668189
18035,0,USIndianaDelaware,Indiana,Delaware,2021-04-04 11:49:23.867136,2020-05-03 00:00:00.000000,0.36687394,0.49239083,0.68182730,418,561,778,233,321,470,0.20463682,0.28129098,0.41245996,0.17928863,0.25629168,0.35461114
18035,0,USIndianaDelaware,Indiana,Delaware,2021-04-04 11:49:23.867136,2020-05-04 00:00:00.000000,0.37084472,0.49582941,0.70638871,423,565,806,236,323,490,0.20687233,0.28364177,0.43001052,0.17598646,0.25280954,0.34893467
18035,0,USIndianaDelaware,Indiana,Delaware,2021-04-04 11:49:23.867136,2020-05-05 00:00:00.000000,0.36851125,0.49670601,0.72869701,420,566,831,237,325,502,0.20838149,0.28536445,0.44010204,0.17263288,0.24897909,0.33963125
18035,0,USIndianaDelaware,Indiana,Delaware,2021-04-04 11:49:23.867136,2020-05-06 00:00:00.000000,0.36564294,0.50063945,0.71769746,417,571,819,238,332,502,0.20897268,0.29106025,0.43994758,0.17006332,0.24653832,0.33174381
18035,0,USIndianaDelaware,Indiana,Delaware,2021-04-04 11:49:23.867136,2020-05-07 00:00:00.000000,0.36254221,0.50239788,0.72278113,413,573,824,238,340,512,0.20895530,0.29818485,0.44895917,0.16750161,0.24207229,0.32560649
18035,0,USIndianaDelaware,Indiana,Delaware,2021-04-04 11:49:23.867136,2020-05-08 00:00:00.000000,0.35934660,0.50538529,0.72737007,410,576,830,237,346,520,0.20846975,0.30353195,0.45621492,0.16284056,0.23809522,0.32111230
18035,0,USIndianaDelaware,Indiana,Delaware,2021-04-04 11:49:23.867136,2020-05-09 00:00:00.000000,0.35897304,0.51124484,0.72818983,409,583,831,234,352,526,0.20557290,0.30867951,0.46129781,0.15969029,0.23346876,0.31897191
18035,0,USIndianaDelaware,Indiana,Delaware,2021-04-04 11:49:23.867136,2020-05-10 00:00:00.000000,0.36096374,0.51402575,0.72607612,411,586,828,231,357,529,0.20258097,0.31358488,0.46407268,0.15849295,0.22397937,0.29272971
18035,0,USIndianaDelaware,Indiana,Delaware,2021-04-04 11:49:23.867136,2020-05-11 00:00:00.000000,0.35746210,0.51287364,0.72203137,407,585,824,228,358,530,0.20021094,0.31370284,0.46474782,0.15100986,0.21704884,0.27700340
18035,0,USIndianaDelaware,Indiana,Delaware,2021-04-04 11:49:23.867136,2020-05-12 00:00:00.000000,0.35315892,0.50997446,0.72622580,403,582,828,229,357,529,0.20107201,0.31300308,0.46376121,0.14634944,0.20542357,0.26596748
18035,0,USIndianaDelaware,Indiana,Delaware,2021-04-04 11:49:23.867136,2020-05-13 00:00:00.000000,0.34475540,0.50871450,0.73106763,393,580,834,227,360,526,0.19890098,0.31587918,0.46128041,0.13321701,0.19989850,0.25256039
18035,0,USIndianaDelaware,Indiana,Delaware,2021-04-04 11:49:23.867136,2020-05-14 00:00:00.000000,0.33643217,0.49901455,0.73163780,383,569,835,224,358,534,0.19690418,0.31422434,0.46845291,0.12862263,0.19514291,0.24951590
18035,0,USIndianaDelaware,Indiana,Delaware,2021-04-04 11:49:23.867136,2020-05-15 00:00:00.000000,0.32825864,0.49329842,0.72809071,374,563,831,221,356,540,0.19422118,0.31230134,0.47352901,0.12825531,0.18952876,0.24163312
18035,0,USIndianaDelaware,Indiana,Delaware,2021-04-04 11:49:23.867136,2020-05-16 00:00:00.000000,0.32078508,0.48938709,0.72120427,366,558,823,217,352,543,0.19058416,0.30871733,0.47620106,0.12164909,0.18267890,0.23276399
18035,0,USIndianaDelaware,Indiana,Delaware,2021-04-04 11:49:23.867136,2020-05-17 00:00:00.000000,0.31539106,0.48155920,0.71209873,359,549,812,211,347,544,0.18550498,0.30456869,0.47665148,0.12080671,0.17634322,0.22149776
18035,0,USIndianaDelaware,Indiana,Delaware,2021-04-04 11:49:23.867136,2020-05-18 00:00:00.000000,0.30672427,0.47616800,0.70069003,350,543,799,204,339,542,0.17927355,0.29787582,0.47533175,0.11477856,0.16830313,0.21372209
18035,0,USIndianaDelaware,Indiana,Delaware,2021-04-04 11:49:23.867136,2020-05-19 00:00:00.000000,0.30013473,0.46763312,0.68856874,342,533,785,199,330,542,0.17483403,0.28969238,0.47527737,0.11310580,0.15876327,0.21128070
18035,0,USIndianaDelaware,Indiana,Delaware,2021-04-04 11:49:23.867136,2020-05-20 00:00:00.000000,0.29377784,0.44910091,0.67598080,335,512,771,195,322,542,0.17108224,0.28263637,0.47557982,0.09673408,0.15254083,0.21071373
18035,0,USIndianaDelaware,Indiana,Delaware,2021-04-04 11:49:23.867136,2020-05-21 00:00:00.000000,0.28762332,0.43441865,0.65688897,328,495,749,191,314,533,0.16740334,0.27564461,0.46709471,0.09470628,0.14602238,0.20958033
18035,0,USIndianaDelaware,Indiana,Delaware,2021-04-04 11:49:23.867136,2020-05-22 00:00:00.000000,0.28162136,0.41816981,0.64953398,321,477,741,187,307,519,0.16389252,0.26957392,0.45473225,0.09235194,0.13908768,0.20424034
18035,0,USIndianaDelaware,Indiana,Delaware,2021-04-04 11:49:23.867136,2020-05-23 00:00:00.000000,0.26943991,0.40015456,0.63465160,307,456,724,183,299,504,0.16046384,0.26280849,0.44164908,0.09154705,0.13382861,0.19662443
18035,0,USIndianaDelaware,Indiana,Delaware,2021-04-04 11:49:23.867136,2020-05-24 00:00:00.000000,0.25536128,0.38160103,0.61768229,291,435,704,179,287,488,0.15707113,0.25169394,0.42804387,0.08828151,0.13179603,0.19488444
18035,0,USIndianaDelaware,Indiana,Delaware,2021-04-04 11:49:23.867136,2020-05-25 00:00:00.000000,0.24645794,0.36393783,0.59691415,281,415,681,175,276,478,0.15360063,0.24199263,0.41881596,0.08441731,0.12999218,0.19349947
18035,0,USIndianaDelaware,Indiana,Delaware,2021-04-04 11:49:23.867136,2020-05-26 00:00:00.000000,0.23421773,0.34805857,0.57487839,267,397,656,171,268,466,0.15009136,0.23510626,0.40833082,0.08235586,0.12648744,0.19224841
18035,0,USIndianaDelaware,Indiana,Delaware,2021-04-04 11:49:23.867136,2020-05-27 00:00:00.000000,0.22355665,0.33400936,0.55246096,255,381,630,163,256,452,0.14331687,0.22485677,0.39661676,0.07862701,0.12067190,0.19075837
18035,0,USIndianaDelaware,Indiana,Delaware,2021-04-04 11:49:23.867136,2020-05-28 00:00:00.000000,0.21079080,0.31819858,0.53026910,240,363,605,155,244,438,0.13613816,0.21418498,0.38402901,0.07756704,0.11898695,0.18987335
18035,0,USIndianaDelaware,Indiana,Delaware,2021-04-04 11:49:23.867136,2020-05-29 00:00:00.000000,0.19917769,0.30287016,0.50861530,227,345,580,147,233,423,0.12888962,0.20500465,0.37090883,0.07612101,0.11862354,0.18687382
18035,0,USIndianaDelaware,Indiana,Delaware,2021-04-04 11:49:23.867136,2020-05-30 00:00:00.000000,0.18862468,0.28999713,0.48772904,215,330,556,138,223,408,0.12174137,0.19572212,0.35754742,0.07622286,0.11951867,0.17598681
18035,0,USIndianaDelaware,Indiana,Delaware,2021-04-04 11:49:23.867136,2020-05-31 00:00:00.000000,0.17862660,0.27847320,0.47376085,203,317,540,130,214,392,0.11471896,0.18801837,0.34418509,0.07898953,0.11862633,0.17588542
18035,0,USIndianaDelaware,Indiana,Delaware,2021-04-04 11:49:23.867136,2020-06-01 00:00:00.000000,0.17007178,0.26502950,0.46301837,194,302,528,123,206,377,0.10779994,0.18068922,0.33110644,0.07442915,0.11781789,0.17580547
18035,0,USIndianaDelaware,Indiana,Delaware,2021-04-04 11:49:23.867136,2020-06-02 00:00:00.000000,0.16109666,0.25139065,0.45258058,183,286,516,117,199,364,0.10270832,0.17519530,0.31938170,0.07216131,0.11803551,0.17554807
18035,0,USIndianaDelaware,Indiana,Delaware,2021-04-04 11:49:23.867136,2020-06-03 00:00:00.000000,0.15234141,0.23856620,0.44237858,173,272,504,111,190,352,0.09791248,0.16709578,0.30885599,0.07309030,0.11940184,0.17362610
18035,0,USIndianaDelaware,Indiana,Delaware,2021-04-04 11:49:23.867136,2020-06-04 00:00:00.000000,0.14415662,0.22661834,0.42772715,164,258,488,106,180,341,0.09323925,0.15851225,0.29928177,0.07445364,0.11851073,0.16767948
18035,0,USIndianaDelaware,Indiana,Delaware,2021-04-04 11:49:23.867136,2020-06-05 00:00:00.000000,0.13657817,0.21772341,0.41438020,155,248,472,101,173,331,0.08878794,0.15169981,0.29046254,0.07604268,0.11871635,0.16850687
18035,0,USIndianaDelaware,Indiana,Delaware,2021-04-04 11:49:23.867136,2020-06-06 00:00:00.000000,0.12963414,0.21056509,0.40232301,147,240,459,96,165,322,0.08459827,0.14507385,0.28225260,0.07753503,0.11992888,0.17068617
18035,0,USIndianaDelaware,Indiana,Delaware,2021-04-04 11:49:23.867136,2020-06-07 00:00:00.000000,0.12301559,0.20236334,0.39113803,140,230,446,92,157,313,0.08067865,0.13819760,0.27453213,0.07948742,0.12151818,0.17268583
18035,0,USIndianaDelaware,Indiana,Delaware,2021-04-04 11:49:23.867136,2020-06-08 00:00:00.000000,0.11725850,0.19468972,0.38129959,133,222,435,87,150,304,0.07702268,0.13177331,0.26718105,0.08414473,0.12165647,0.17442554
18035,0,USIndianaDelaware,Indiana,Delaware,2021-04-04 11:49:23.867136,2020-06-09 00:00:00.000000,0.11183216,0.18713480,0.37224059,127,213,424,84,144,297,0.07402627,0.12671964,0.26106812,0.08464213,0.12200307,0.17655237
18035,0,USIndianaDelaware,Indiana,Delaware,2021-04-04 11:49:23.867136,2020-06-10 00:00:00.000000,0.10702933,0.18171010,0.36385560,122,207,415,81,139,291,0.07150582,0.12178950,0.25583607,0.08515161,0.12380819,0.18255743
18035,0,USIndianaDelaware,Indiana,Delaware,2021-04-04 11:49:23.867136,2020-06-11 00:00:00.000000,0.10292290,0.17689555,0.35611907,117,201,406,79,133,286,0.06936957,0.11705400,0.25126487,0.08717682,0.12771814,0.19400756
18035,0,USIndianaDelaware,Indiana,Delaware,2021-04-04 11:49:23.867136,2020-06-12 00:00:00.000000,0.09888810,0.17302777,0.34926791,112,197,398,76,129,282,0.06727789,0.11359436,0.24721609,0.08976409,0.13261863,0.20461914
18035,0,USIndianaDelaware,Indiana,Delaware,2021-04-04 11:49:23.867136,2020-06-13 00:00:00.000000,0.09558878,0.16922919,0.34346118,109,193,392,72,126,277,0.06310987,0.11080359,0.24356294,0.09206922,0.13797847,0.20770848
18035,0,USIndianaDelaware,Indiana,Delaware,2021-04-04 11:49:23.867136,2020-06-14 00:00:00.000000,0.09357170,0.16394266,0.33788639,106,187,385,67,122,272,0.05934415,0.10699565,0.23890727,0.09491084,0.14444807,0.21972701
18035,0,USIndianaDelaware,Indiana,Delaware,2021-04-04 11:49:23.867136,2020-06-15 00:00:00.000000,0.09415535,0.16028232,0.33272442,107,182,379,64,118,264,0.05627794,0.10349886,0.23183038,0.09583976,0.14688975,0.22930208
18035,0,USIndianaDelaware,Indiana,Delaware,2021-04-04 11:49:23.867136,2020-06-16 00:00:00.000000,0.09497800,0.15714492,0.32780990,108,179,374,62,115,257,0.05487010,0.10116154,0.22536884,0.09621461,0.14965496,0.23650918
18035,0,USIndianaDelaware,Indiana,Delaware,2021-04-04 11:49:23.867136,2020-06-17 00:00:00.000000,0.09431908,0.15557037,0.32313506,107,177,368,62,113,250,0.05444809,0.09908632,0.21968445,0.10089128,0.15578351,0.24149574
18035,0,USIndianaDelaware,Indiana,Delaware,2021-04-04 11:49:23.867136,2020-06-18 00:00:00.000000,0.09309501,0.15323230,0.31865836,106,174,363,62,109,245,0.05458509,0.09629998,0.21472334,0.10533572,0.16321917,0.24435317
18035,0,USIndianaDelaware,Indiana,Delaware,2021-04-04 11:49:23.867136,2020-06-19 00:00:00.000000,0.09261591,0.15022376,0.31215487,105,171,356,62,106,240,0.05503815,0.09363310,0.21036250,0.11200227,0.17124442,0.24658117
18035,0,USIndianaDelaware,Indiana,Delaware,2021-04-04 11:49:23.867136,2020-06-20 00:00:00.000000,0.09401290,0.14894212,0.30361215,107,169,346,63,104,235,0.05567618,0.09162646,0.20650829,0.11374486,0.17501739,0.26289113
18035,0,USIndianaDelaware,Indiana,Delaware,2021-04-04 11:49:23.867136,2020-06-21 00:00:00.000000,0.09560510,0.14838114,0.29527075,109,169,337,64,103,231,0.05643744,0.09066176,0.20314782,0.11542450,0.17911722,0.27335029
18035,0,USIndianaDelaware,Indiana,Delaware,2021-04-04 11:49:23.867136,2020-06-22 00:00:00.000000,0.09432403,0.14858386,0.28840436,107,169,329,65,102,228,0.05702362,0.08956291,0.20037307,0.11133210,0.18668366,0.29504975
18035,0,USIndianaDelaware,Indiana,Delaware,2021-04-04 11:49:23.867136,2020-06-23 00:00:00.000000,0.09534577,0.15138957,0.28252870,108,172,322,65,101,225,0.05730031,0.08897700,0.19747564,0.12255168,0.18872286,0.29784496
18035,0,USIndianaDelaware,Indiana,Delaware,2021-04-04 11:49:23.867136,2020-06-24 00:00:00.000000,0.09331971,0.15258593,0.27877587,106,174,318,64,102,220,0.05653724,0.08986024,0.19290163,0.12784446,0.19557796,0.30775324
18035,0,USIndianaDelaware,Indiana,Delaware,2021-04-04 11:49:23.867136,2020-06-25 00:00:00.000000,0.09276816,0.15255207,0.27399747,105,174,312,62,102,215,0.05494970,0.08942714,0.18909396,0.13149191,0.20743245,0.32764307
18035,0,USIndianaDelaware,Indiana,Delaware,2021-04-04 11:49:23.867136,2020-06-26 00:00:00.000000,0.09321554,0.15385391,0.27485555,106,175,313,61,103,212,0.05365679,0.09032335,0.18608582,0.13696813,0.22222478,0.33895376
18035,0,USIndianaDelaware,Indiana,Delaware,2021-04-04 11:49:23.867136,2020-06-27 00:00:00.000000,0.09414331,0.15714178,0.27396742,107,179,312,60,105,209,0.05272033,0.09235135,0.18360676,0.13723153,0.23515845,0.34668396
18035,0,USIndianaDelaware,Indiana,Delaware,2021-04-04 11:49:23.867136,2020-06-28 00:00:00.000000,0.09543435,0.16082051,0.27502481,108,183,313,59,108,207,0.05214152,0.09533185,0.18170489,0.14012488,0.24472234,0.36485323
18035,0,USIndianaDelaware,Indiana,Delaware,2021-04-04 11:49:23.867136,2020-06-29 00:00:00.000000,0.10006593,0.16401494,0.27705697,114,187,316,59,111,206,0.05191630,0.09794430,0.18059876,0.14384696,0.25265220,0.38294400
18035,0,USIndianaDelaware,Indiana,Delaware,2021-04-04 11:49:23.867136,2020-06-30 00:00:00.000000,0.09851489,0.16885426,0.28569516,112,192,326,59,114,205,0.05227381,0.09997617,0.18025037,0.14926762,0.25415990,0.38738902
18035,0,USIndianaDelaware,Indiana,Delaware,2021-04-04 11:49:23.867136,2020-07-01 00:00:00.000000,0.09999047,0.17064246,0.28523874,114,194,325,60,116,206,0.05312612,0.10206847,0.18075554,0.15029645,0.25758578,0.38753610
18035,0,USIndianaDelaware,Indiana,Delaware,2021-04-04 11:49:23.867136,2020-07-02 00:00:00.000000,0.10335474,0.17472330,0.28935999,117,199,330,62,117,207,0.05433829,0.10271482,0.18216937,0.15184073,0.26703400,0.38638803
18035,0,USIndianaDelaware,Indiana,Delaware,2021-04-04 11:49:23.867136,2020-07-03 00:00:00.000000,0.10715957,0.17744978,0.29382783,122,202,335,63,118,210,0.05582433,0.10385852,0.18414386,0.15230896,0.27522146,0.40608259
18035,0,USIndianaDelaware,Indiana,Delaware,2021-04-04 11:49:23.867136,2020-07-04 00:00:00.000000,0.11152896,0.18351733,0.29856873,127,209,340,64,121,212,0.05686862,0.10631785,0.18643120,0.15330853,0.28384777,0.41515805
18035,0,USIndianaDelaware,Indiana,Delaware,2021-04-04 11:49:23.867136,2020-07-05 00:00:00.000000,0.11596700,0.18882390,0.30463859,132,215,347,67,123,215,0.05888905,0.10849162,0.18894628,0.15822610,0.29484370,0.42007183
18035,0,USIndianaDelaware,Indiana,Delaware,2021-04-04 11:49:23.867136,2020-07-06 00:00:00.000000,0.12183617,0.19545938,0.31657282,139,223,361,69,126,218,0.06120970,0.11094185,0.19183503,0.18098888,0.30350925,0.41668467
18035,0,USIndianaDelaware,Indiana,Delaware,2021-04-04 11:49:23.867136,2020-07-07 00:00:00.000000,0.12706093,0.20113606,0.32950718,145,229,376,72,132,224,0.06357317,0.11649816,0.19628664,0.20966857,0.30911439,0.41344795
18035,0,USIndianaDelaware,Indiana,Delaware,2021-04-04 11:49:23.867136,2020-07-08 00:00:00.000000,0.12957572,0.20914266,0.33813923,147,238,385,75,137,231,0.06597054,0.12088087,0.20241383,0.21276058,0.31335055,0.41439073
18035,0,USIndianaDelaware,Indiana,Delaware,2021-04-04 11:49:23.867136,2020-07-09 00:00:00.000000,0.13387129,0.21842878,0.34769573,152,249,396,78,141,239,0.06840517,0.12434227,0.20983215,0.21754845,0.31653284,0.42115588
18035,0,USIndianaDelaware,Indiana,Delaware,2021-04-04 11:49:23.867136,2020-07-10 00:00:00.000000,0.13855254,0.22774452,0.35674135,158,259,407,80,145,249,0.07088310,0.12738181,0.21830126,0.22174100,0.31864730,0.43703545
18035,0,USIndianaDelaware,Indiana,Delaware,2021-04-04 11:49:23.867136,2020-07-11 00:00:00.000000,0.14352961,0.23524297,0.36499989,163,268,416,83,150,259,0.07342117,0.13223581,0.22766177,0.23073088,0.32193604,0.46448194
18035,0,USIndianaDelaware,Indiana,Delaware,2021-04-04 11:49:23.867136,2020-07-12 00:00:00.000000,0.14923969,0.24392387,0.37230864,170,278,424,86,157,271,0.07608805,0.13815335,0.23785793,0.22311357,0.32265916,0.48385914
18035,0,USIndianaDelaware,Indiana,Delaware,2021-04-04 11:49:23.867136,2020-07-13 00:00:00.000000,0.15505820,0.25329269,0.37670151,176,289,429,88,164,275,0.07768585,0.14389445,0.24135740,0.21948860,0.33279322,0.49083651
18035,0,USIndianaDelaware,Indiana,Delaware,2021-04-04 11:49:23.867136,2020-07-14 00:00:00.000000,0.16670631,0.26431998,0.38672169,190,301,441,93,170,278,0.08203130,0.14950580,0.24369576,0.22840262,0.33900636,0.49303229
18035,0,USIndianaDelaware,Indiana,Delaware,2021-04-04 11:49:23.867136,2020-07-15 00:00:00.000000,0.17245919,0.27591143,0.39777199,196,314,453,97,177,280,0.08537220,0.15559701,0.24603943,0.23974053,0.34005795,0.49468340
18035,0,USIndianaDelaware,Indiana,Delaware,2021-04-04 11:49:23.867136,2020-07-16 00:00:00.000000,0.17927813,0.28912270,0.40794182,204,329,465,101,184,286,0.08912861,0.16144253,0.25132498,0.24111487,0.34287245,0.49900686
18035,0,USIndianaDelaware,Indiana,Delaware,2021-04-04 11:49:23.867136,2020-07-17 00:00:00.000000,0.18911171,0.30001323,0.42252164,215,342,482,107,190,297,0.09401846,0.16696744,0.26100207,0.24361357,0.35058645,0.51444874
18035,0,USIndianaDelaware,Indiana,Delaware,2021-04-04 11:49:23.867136,2020-07-18 00:00:00.000000,0.20154875,0.31690077,0.45063482,230,361,514,114,198,309,0.10014040,0.17356485,0.27085374,0.25160031,0.35641578,0.51370696
18035,0,USIndianaDelaware,Indiana,Delaware,2021-04-04 11:49:23.867136,2020-07-19 00:00:00.000000,0.21563949,0.33234517,0.48107578,246,379,549,122,206,320,0.10738095,0.18071946,0.28080041,0.26875368,0.36245764,0.52040815
18035,0,USIndianaDelaware,Indiana,Delaware,2021-04-04 11:49:23.867136,2020-07-20 00:00:00.000000,0.22986979,0.34715439,0.50969519,262,396,581,132,216,333,0.11590307,0.18947441,0.29233220,0.27042292,0.36766173,0.52173085
18035,0,USIndianaDelaware,Indiana,Delaware,2021-04-04 11:49:23.867136,2020-07-21 00:00:00.000000,0.24568386,0.36194297,0.53819886,280,413,614,143,226,353,0.12578965,0.19886047,0.30957830,0.25886953,0.36844740,0.52176295
18035,0,USIndianaDelaware,Indiana,Delaware,2021-04-04 11:49:23.867136,2020-07-22 00:00:00.000000,0.26591249,0.37831004,0.56659916,303,431,646,156,241,372,0.13703739,0.21132311,0.32616694,0.25724919,0.36882843,0.52451032
18035,0,USIndianaDelaware,Indiana,Delaware,2021-04-04 11:49:23.867136,2020-07-23 00:00:00.000000,0.28904495,0.39874089,0.60668803,329,455,692,164,253,389,0.14411550,0.22180265,0.34147285,0.26286126,0.36743775,0.52848179
18035,0,USIndianaDelaware,Indiana,Delaware,2021-04-04 11:49:23.867136,2020-07-24 00:00:00.000000,0.30307336,0.42195391,0.64181111,345,481,732,173,264,408,0.15163444,0.23192676,0.35789738,0.27856316,0.36645627,0.53193185
18035,0,USIndianaDelaware,Indiana,Delaware,2021-04-04 11:49:23.867136,2020-07-25 00:00:00.000000,0.31371629,0.43956230,0.67347708,358,501,768,182,277,428,0.15957870,0.24289570,0.37522784,0.27342547,0.36360799,0.53416735
18035,0,USIndianaDelaware,Indiana,Delaware,2021-04-04 11:49:23.867136,2020-07-26 00:00:00.000000,0.32106395,0.46408884,0.70449348,366,529,804,195,289,450,0.17157460,0.25369077,0.39500337,0.27710830,0.36423450,0.53537702
18035,0,USIndianaDelaware,Indiana,Delaware,2021-04-04 11:49:23.867136,2020-07-27 00:00:00.000000,0.33511790,0.48880104,0.73722154,382,557,841,212,303,476,0.18582094,0.26564353,0.41714928,0.27559268,0.36470197,0.53613834
18035,0,USIndianaDelaware,Indiana,Delaware,2021-04-04 11:49:23.867136,2020-07-28 00:00:00.000000,0.35082180,0.51118699,0.77077651,400,583,879,221,317,501,0.19367728,0.27840807,0.43903309,0.28101035,0.36826663,0.53776040
18035,0,USIndianaDelaware,Indiana,Delaware,2021-04-04 11:49:23.867136,2020-07-29 00:00:00.000000,0.36650710,0.53818663,0.80501338,418,614,918,229,332,525,0.20143235,0.29134927,0.46052267,0.28186643,0.36819826,0.54038871
18035,0,USIndianaDelaware,Indiana,Delaware,2021-04-04 11:49:23.867136,2020-07-30 00:00:00.000000,0.38303446,0.56571160,0.83907373,437,645,957,237,347,549,0.20818923,0.30478172,0.48177709,0.28893913,0.36795092,0.54231916
18035,0,USIndianaDelaware,Indiana,Delaware,2021-04-04 11:49:23.867136,2020-07-31 00:00:00.000000,0.40099133,0.59256578,0.87240068,457,676,995,243,365,574,0.21357806,0.32038097,0.50300216,0.28469787,0.36834245,0.51372643
18035,0,USIndianaDelaware,Indiana,Delaware,2021-04-04 11:49:23.867136,2020-08-01 00:00:00.000000,0.42099463,0.61830653,0.90572967,480,705,1033,255,383,606,0.22362724,0.33599354,0.53110210,0.28393194,0.36753944,0.50101576
18035,0,USIndianaDelaware,Indiana,Delaware,2021-04-04 11:49:23.867136,2020-08-02 00:00:00.000000,0.44346276,0.64393620,0.93969703,506,734,1072,267,408,640,0.23406596,0.35756683,0.56092945,0.27964120,0.36263881,0.50174612
18035,0,USIndianaDelaware,Indiana,Delaware,2021-04-04 11:49:23.867136,2020-08-03 00:00:00.000000,0.46012933,0.66986177,0.96992226,525,764,1107,279,431,675,0.24497387,0.37780308,0.59168038,0.27930403,0.36232836,0.49286548
18035,0,USIndianaDelaware,Indiana,Delaware,2021-04-04 11:49:23.867136,2020-08-04 00:00:00.000000,0.47886510,0.69886247,1.00111642,546,797,1142,291,451,712,0.25583445,0.39563324,0.62439433,0.27327855,0.37062891,0.49518924
18035,0,USIndianaDelaware,Indiana,Delaware,2021-04-04 11:49:23.867136,2020-08-05 00:00:00.000000,0.49754155,0.73226924,1.05617071,567,835,1205,305,472,748,0.26724317,0.41415228,0.65573598,0.27256813,0.36990449,0.49418043
18035,0,USIndianaDelaware,Indiana,Delaware,2021-04-04 11:49:23.867136,2020-08-06 00:00:00.000000,0.51458950,0.76061727,1.10023888,587,868,1255,319,492,773,0.27955883,0.43144702,0.67808324,0.27285630,0.36587975,0.49415883
18035,0,USIndianaDelaware,Indiana,Delaware,2021-04-04 11:49:23.867136,2020-08-07 00:00:00.000000,0.53294564,0.79457455,1.15769556,608,906,1321,334,509,799,0.29283538,0.44659696,0.70082538,0.27583210,0.36903440,0.48942075
18035,0,USIndianaDelaware,Indiana,Delaware,2021-04-04 11:49:23.867136,2020-08-08 00:00:00.000000,0.55283375,0.82940119,1.23782389,630,946,1412,347,533,826,0.30434295,0.46715716,0.72430705,0.28397039,0.37254735,0.47946905
18035,0,USIndianaDelaware,Indiana,Delaware,2021-04-04 11:49:23.867136,2020-08-09 00:00:00.000000,0.57456858,0.87383970,1.33918902,655,997,1528,359,553,857,0.31523405,0.48466935,0.75127748,0.28430810,0.38081589,0.49285569
18035,0,USIndianaDelaware,Indiana,Delaware,2021-04-04 11:49:23.867136,2020-08-10 00:00:00.000000,0.59761791,0.92109883,1.45489170,682,1051,1660,373,579,916,0.32703127,0.50800572,0.80298390,0.28633655,0.38781635,0.50309418
18035,0,USIndianaDelaware,Indiana,Delaware,2021-04-04 11:49:23.867136,2020-08-11 00:00:00.000000,0.62288848,0.97017895,1.56163430,710,1107,1782,387,611,976,0.33966830,0.53548734,0.85514668,0.28281701,0.39661307,0.54029246
18035,0,USIndianaDelaware,Indiana,Delaware,2021-04-04 11:49:23.867136,2020-08-12 00:00:00.000000,0.65035871,1.03336452,1.64911337,742,1179,1882,403,645,1036,0.35338204,0.56568456,0.90778167,0.28315538,0.40267294,0.54257302
18035,0,USIndianaDelaware,Indiana,Delaware,2021-04-04 11:49:23.867136,2020-08-13 00:00:00.000000,0.68011870,1.09747376,1.73752627,776,1252,1983,420,681,1096,0.36830866,0.59745700,0.96113213,0.28734759,0.40957603,0.54347903
18035,0,USIndianaDelaware,Indiana,Delaware,2021-04-04 11:49:23.867136,2020-08-14 00:00:00.000000,0.72887742,1.17313254,1.82826038,831,1338,2086,438,720,1158,0.38454445,0.63100770,1.01540209,0.30667384,0.41795908,0.54367957
18035,0,USIndianaDelaware,Indiana,Delaware,2021-04-04 11:49:23.867136,2020-08-15 00:00:00.000000,0.78571279,1.24542910,1.92181917,896,1421,2193,459,763,1222,0.40249108,0.66937505,1.07081387,0.34105454,0.43274058,0.54313800
18035,0,USIndianaDelaware,Indiana,Delaware,2021-04-04 11:49:23.867136,2020-08-16 00:00:00.000000,0.84808245,1.31385136,2.01866657,967,1499,2304,487,803,1287,0.42702709,0.70412920,1.12762957,0.34972390,0.44567793,0.55581871
18035,0,USIndianaDelaware,Indiana,Delaware,2021-04-04 11:49:23.867136,2020-08-17 00:00:00.000000,0.91529811,1.40758662,2.11528437,1044,1606,2414,530,848,1353,0.46478930,0.74351251,1.18612458,0.35830833,0.46471944,0.56394263
18035,0,USIndianaDelaware,Indiana,Delaware,2021-04-04 11:49:23.867136,2020-08-18 00:00:00.000000,0.99834647,1.49950709,2.21573084,1139,1711,2528,578,897,1421,0.50664320,0.78668510,1.24557959,0.35772924,0.47606538,0.60069249
18035,0,USIndianaDelaware,Indiana,Delaware,2021-04-04 11:49:23.867136,2020-08-19 00:00:00.000000,1.07583961,1.58566304,2.31984770,1227,1809,2647,629,950,1504,0.55146222,0.83303774,1.31805758,0.35629695,0.49129605,0.62455838
18035,0,USIndianaDelaware,Indiana,Delaware,2021-04-04 11:49:23.867136,2020-08-20 00:00:00.000000,1.15150459,1.67408709,2.45022392,1314,1910,2796,685,1010,1608,0.60051667,0.88563842,1.40888878,0.36867814,0.49543353,0.62468561
18035,0,USIndianaDelaware,Indiana,Delaware,2021-04-04 11:49:23.867136,2020-08-21 00:00:00.000000,1.23917058,1.78005899,2.63364619,1414,2031,3005,746,1066,1716,0.65446450,0.93471453,1.50419930,0.36672240,0.49773039,0.62275699
18035,0,USIndianaDelaware,Indiana,Delaware,2021-04-04 11:49:23.867136,2020-08-22 00:00:00.000000,1.34879268,1.91444151,2.82956762,1539,2185,3229,807,1128,1828,0.70712307,0.98894016,1.60240883,0.36351388,0.49399029,0.61580585
18035,0,USIndianaDelaware,Indiana,Delaware,2021-04-04 11:49:23.867136,2020-08-23 00:00:00.000000,1.48476127,2.02348037,3.03756443,1694,2309,3466,866,1211,1943,0.75950182,1.06104166,1.70254247,0.36259905,0.49407317,0.59019585
18035,0,USIndianaDelaware,Indiana,Delaware,2021-04-04 11:49:23.867136,2020-08-24 00:00:00.000000,1.60303932,2.13647526,3.24571149,1829,2438,3704,922,1291,2059,0.80807362,1.13171377,1.80472666,0.34913716,0.48383484,0.59014171
18035,0,USIndianaDelaware,Indiana,Delaware,2021-04-04 11:49:23.867136,2020-08-25 00:00:00.000000,1.71804745,2.28099983,3.41180639,1960,2603,3894,980,1372,2191,0.85926184,1.20249304,1.91998558,0.33027842,0.47373986,0.59357242
18035,0,USIndianaDelaware,Indiana,Delaware,2021-04-04 11:49:23.867136,2020-08-26 00:00:00.000000,1.83598591,2.44264473,3.55707256,2095,2787,4059,1041,1449,2310,0.91241062,1.26974131,2.02400443,0.30188759,0.47275793,0.59162565
18035,0,USIndianaDelaware,Indiana,Delaware,2021-04-04 11:49:23.867136,2020-08-27 00:00:00.000000,1.95931863,2.56201695,3.68904547,2236,2924,4210,1093,1553,2429,0.95808278,1.36121922,2.12898926,0.28218759,0.46135551,0.57060200
18035,0,USIndianaDelaware,Indiana,Delaware,2021-04-04 11:49:23.867136,2020-08-28 00:00:00.000000,2.08772148,2.66138712,3.78082721,2382,3037,4315,1170,1646,2558,1.02534904,1.44251600,2.24181558,0.26013430,0.44131070,0.54556153
18035,0,USIndianaDelaware,Indiana,Delaware,2021-04-04 11:49:23.867136,2020-08-29 00:00:00.000000,2.21951941,2.74731912,3.83792811,2533,3135,4380,1246,1749,2685,1.09205702,1.53285648,2.35332627,0.24255649,0.40393041,0.53026945
18035,0,USIndianaDelaware,Indiana,Delaware,2021-04-04 11:49:23.867136,2020-08-30 00:00:00.000000,2.27620391,2.87281922,3.96087232,2597,3278,4520,1319,1848,2806,1.15603863,1.61932552,2.45878159,0.21725867,0.35389249,0.50210128
18035,0,USIndianaDelaware,Indiana,Delaware,2021-04-04 11:49:23.867136,2020-08-31 00:00:00.000000,2.28830213,2.95751197,3.99923075,2611,3375,4564,1379,1929,2913,1.20867017,1.69083962,2.55281282,0.20936120,0.31341419,0.42477489
18035,0,USIndianaDelaware,Indiana,Delaware,2021-04-04 11:49:23.867136,2020-09-01 00:00:00.000000,2.27135676,2.98426156,4.04931883,2592,3406,4621,1407,2007,3003,1.23290009,1.75921580,2.63182279,0.19912953,0.27162105,0.37741394
18035,0,USIndianaDelaware,Indiana,Delaware,2021-04-04 11:49:23.867136,2020-09-02 00:00:00.000000,2.23247452,2.99372974,4.04046005,2548,3416,4611,1417,2072,3074,1.24164699,1.81544122,2.69338454,0.17389038,0.25016787,0.34534206
18035,0,USIndianaDelaware,Indiana,Delaware,2021-04-04 11:49:23.867136,2020-09-03 00:00:00.000000,2.18164788,2.97510505,3.96336146,2490,3395,4523,1412,2115,3106,1.23757757,1.85312235,2.72183850,0.15328149,0.22626551,0.30184458
18035,0,USIndianaDelaware,Indiana,Delaware,2021-04-04 11:49:23.867136,2020-09-04 00:00:00.000000,2.12399826,2.95155195,3.91560979,2424,3368,4469,1396,2132,3103,1.22336588,1.86807697,2.71908302,0.14692676,0.20405363,0.28472600
18035,0,USIndianaDelaware,Indiana,Delaware,2021-04-04 11:49:23.867136,2020-09-05 00:00:00.000000,2.06302037,2.87054400,3.83385646,2354,3276,4375,1371,2116,3077,1.20177969,1.85444405,2.69608267,0.14222145,0.19599090,0.26405301
18035,0,USIndianaDelaware,Indiana,Delaware,2021-04-04 11:49:23.867136,2020-09-06 00:00:00.000000,2.00076192,2.80087012,3.74788153,2283,3196,4277,1341,2097,3036,1.17523006,1.83809927,2.66041558,0.14054473,0.18921895,0.24558974
18035,0,USIndianaDelaware,Indiana,Delaware,2021-04-04 11:49:23.867136,2020-09-07 00:00:00.000000,1.93915282,2.72529514,3.65071507,2213,3110,4166,1307,2075,2986,1.14556229,1.81881032,2.61679736,0.13882301,0.18382231,0.23923664
18035,0,USIndianaDelaware,Indiana,Delaware,2021-04-04 11:49:23.867136,2020-09-08 00:00:00.000000,1.87790926,2.64770951,3.54918141,2143,3021,4050,1271,2012,2932,1.11426084,1.76332271,2.56928073,0.13800158,0.18265751,0.23489969
18035,0,USIndianaDelaware,Indiana,Delaware,2021-04-04 11:49:23.867136,2020-09-09 00:00:00.000000,1.81707758,2.56565075,3.45719355,2073,2928,3945,1235,1978,2875,1.08210938,1.73312323,2.51951533,0.13760198,0.18162178,0.23286154
18035,0,USIndianaDelaware,Indiana,Delaware,2021-04-04 11:49:23.867136,2020-09-10 00:00:00.000000,1.75617020,2.49593982,3.35679312,2004,2848,3831,1197,1922,2817,1.04955646,1.68468375,2.46849407,0.13731726,0.17908637,0.23181374
18035,0,USIndianaDelaware,Indiana,Delaware,2021-04-04 11:49:23.867136,2020-09-11 00:00:00.000000,1.69433675,2.43260509,3.26557885,1933,2776,3727,1160,1876,2758,1.01676702,1.64417167,2.41658598,0.13614244,0.18006781,0.22924619
18035,0,USIndianaDelaware,Indiana,Delaware,2021-04-04 11:49:23.867136,2020-09-12 00:00:00.000000,1.63100947,2.37147129,3.18817704,1861,2706,3638,1108,1828,2697,0.97113753,1.60205529,2.36339691,0.13241330,0.17819521,0.22937865
18035,0,USIndianaDelaware,Indiana,Delaware,2021-04-04 11:49:23.867136,2020-09-13 00:00:00.000000,1.56726483,2.30677151,3.12140599,1788,2632,3562,1059,1776,2634,0.92796998,1.55632859,2.30822896,0.13111290,0.17794023,0.23005507
18035,0,USIndianaDelaware,Indiana,Delaware,2021-04-04 11:49:23.867136,2020-09-14 00:00:00.000000,1.50287662,2.24453680,3.04623924,1715,2561,3476,1014,1729,2569,0.88868820,1.51548365,2.25152179,0.13166729,0.17829826,0.23349927
18035,0,USIndianaDelaware,Indiana,Delaware,2021-04-04 11:49:23.867136,2020-09-15 00:00:00.000000,1.43990793,2.17440335,2.98109588,1643,2481,3402,974,1679,2505,0.85423163,1.47190590,2.19501336,0.13247808,0.18200122,0.24049044
18035,0,USIndianaDelaware,Indiana,Delaware,2021-04-04 11:49:23.867136,2020-09-16 00:00:00.000000,1.39214950,2.11598905,2.93585251,1588,2415,3350,948,1623,2445,0.83063648,1.42217940,2.14241612,0.13134736,0.18368131,0.25190842
18035,0,USIndianaDelaware,Indiana,Delaware,2021-04-04 11:49:23.867136,2020-09-17 00:00:00.000000,1.36574517,2.06504295,2.90622464,1558,2356,3317,926,1574,2394,0.81208255,1.37946058,2.09836902,0.13095582,0.18730240,0.26861889
18035,0,USIndianaDelaware,Indiana,Delaware,2021-04-04 11:49:23.867136,2020-09-18 00:00:00.000000,1.34565214,2.02002196,2.88721341,1535,2305,3295,897,1529,2357,0.78653332,1.34014126,2.06576405,0.13101623,0.19536602,0.28102722
18035,0,USIndianaDelaware,Indiana,Delaware,2021-04-04 11:49:23.867136,2020-09-19 00:00:00.000000,1.33123676,1.97446885,2.87564177,1519,2253,3282,884,1497,2333,0.77527273,1.31161311,2.04421499,0.13437411,0.20508204,0.29640357
18035,0,USIndianaDelaware,Indiana,Delaware,2021-04-04 11:49:23.867136,2020-09-20 00:00:00.000000,1.31846906,1.93303695,2.86777510,1504,2206,3273,871,1449,2318,0.76317695,1.26970793,2.03175923,0.13687089,0.21755696,0.33158298
18035,0,USIndianaDelaware,Indiana,Delaware,2021-04-04 11:49:23.867136,2020-09-21 00:00:00.000000,1.31554593,1.92103643,2.85781576,1501,2192,3261,853,1419,2313,0.74769405,1.24406499,2.02655739,0.14182492,0.22960816,0.34537825
18035,0,USIndianaDelaware,Indiana,Delaware,2021-04-04 11:49:23.867136,2020-09-22 00:00:00.000000,1.31916581,1.89989822,2.84883919,1505,2168,3251,840,1386,2313,0.73642857,1.21510578,2.02705438,0.15194426,0.24393883,0.35862478
18035,0,USIndianaDelaware,Indiana,Delaware,2021-04-04 11:49:23.867136,2020-09-23 00:00:00.000000,1.32648570,1.89272823,2.84072242,1513,2160,3242,831,1371,2308,0.72857754,1.20203616,2.02219415,0.16416857,0.25249662,0.37143879
18035,0,USIndianaDelaware,Indiana,Delaware,2021-04-04 11:49:23.867136,2020-09-24 00:00:00.000000,1.33717630,1.88795203,2.83400767,1526,2154,3234,825,1361,2304,0.72345264,1.19322451,2.01895427,0.18601092,0.26219549,0.39217614
18035,0,USIndianaDelaware,Indiana,Delaware,2021-04-04 11:49:23.867136,2020-09-25 00:00:00.000000,1.35341714,1.89625448,2.82985639,1544,2164,3229,822,1345,2302,0.72049311,1.17917038,2.01762644,0.19545108,0.27188893,0.40551095
18035,0,USIndianaDelaware,Indiana,Delaware,2021-04-04 11:49:23.867136,2020-09-26 00:00:00.000000,1.34516346,1.90481575,2.83032298,1535,2174,3230,821,1334,2302,0.71942199,1.16933414,2.01752817,0.20949511,0.29888511,0.42262762
18035,0,USIndianaDelaware,Indiana,Delaware,2021-04-04 11:49:23.867136,2020-09-27 00:00:00.000000,1.34324650,1.93854392,2.83850394,1533,2212,3239,822,1331,2304,0.72064970,1.16669366,2.01882707,0.21910397,0.31845075,0.43462108
18035,0,USIndianaDelaware,Indiana,Delaware,2021-04-04 11:49:23.867136,2020-09-28 00:00:00.000000,1.36113732,1.99940820,2.86013635,1553,2282,3264,827,1345,2309,0.72538648,1.17880961,2.02347989,0.23658275,0.32766182,0.46227135
18035,0,USIndianaDelaware,Indiana,Delaware,2021-04-04 11:49:23.867136,2020-09-29 00:00:00.000000,1.38398100,2.02818022,2.89533463,1579,2314,3304,836,1364,2324,0.73327581,1.19555758,2.03631761,0.24412070,0.33778177,0.50055371
18035,0,USIndianaDelaware,Indiana,Delaware,2021-04-04 11:49:23.867136,2020-09-30 00:00:00.000000,1.40975774,2.05005032,2.96308611,1609,2339,3381,849,1385,2352,0.74389889,1.21397359,2.06158398,0.24649458,0.35169293,0.52383876
18035,0,USIndianaDelaware,Indiana,Delaware,2021-04-04 11:49:23.867136,2020-10-01 00:00:00.000000,1.43857258,2.08563582,3.05741529,1641,2380,3489,863,1411,2398,0.75675842,1.23689610,2.10145391,0.25006915,0.35867688,0.53494457
18035,0,USIndianaDelaware,Indiana,Delaware,2021-04-04 11:49:23.867136,2020-10-02 00:00:00.000000,1.47165916,2.14908503,3.16048028,1679,2452,3607,880,1453,2459,0.77133081,1.27333243,2.15507014,0.26925468,0.36371789,0.53833225
18035,0,USIndianaDelaware,Indiana,Delaware,2021-04-04 11:49:23.867136,2020-10-03 00:00:00.000000,1.54717062,2.21482671,3.26805685,1765,2527,3729,900,1492,2532,0.78910632,1.30740306,2.21874925,0.27039598,0.37435234,0.53751029
18035,0,USIndianaDelaware,Indiana,Delaware,2021-04-04 11:49:23.867136,2020-10-04 00:00:00.000000,1.61728716,2.29327842,3.37869686,1845,2617,3856,936,1535,2612,0.82066676,1.34519920,2.28906317,0.27325392,0.38283246,0.53301463
18035,0,USIndianaDelaware,Indiana,Delaware,2021-04-04 11:49:23.867136,2020-10-05 00:00:00.000000,1.66633901,2.37649165,3.49146592,1901,2712,3984,976,1583,2697,0.85579458,1.38752442,2.36379070,0.27863045,0.39386417,0.52937093
18035,0,USIndianaDelaware,Indiana,Delaware,2021-04-04 11:49:23.867136,2020-10-06 00:00:00.000000,1.71956124,2.47046210,3.60637977,1962,2819,4116,1018,1634,2786,0.89241785,1.43191797,2.44152817,0.27869149,0.39717261,0.52257593
18035,0,USIndianaDelaware,Indiana,Delaware,2021-04-04 11:49:23.867136,2020-10-07 00:00:00.000000,1.77514468,2.56595428,3.72309474,2026,2928,4249,1074,1680,2878,0.94108503,1.47233081,2.52158892,0.27171448,0.39801653,0.50303900
18035,0,USIndianaDelaware,Indiana,Delaware,2021-04-04 11:49:23.867136,2020-10-08 00:00:00.000000,1.83249724,2.66409271,3.84038159,2091,3040,4383,1128,1726,2971,0.98912115,1.51300409,2.60351483,0.26743180,0.39131893,0.49443735
18035,0,USIndianaDelaware,Indiana,Delaware,2021-04-04 11:49:23.867136,2020-10-09 00:00:00.000000,1.89139598,2.74391856,3.95314729,2158,3131,4511,1188,1791,3066,1.04110491,1.56993047,2.68663774,0.27563912,0.38526818,0.49472783
18035,0,USIndianaDelaware,Indiana,Delaware,2021-04-04 11:49:23.867136,2020-10-10 00:00:00.000000,1.96242519,2.83505867,4.05043750,2239,3235,4622,1244,1859,3160,1.08997138,1.62929218,2.76882149,0.26777291,0.37946372,0.48363225
18035,0,USIndianaDelaware,Indiana,Delaware,2021-04-04 11:49:23.867136,2020-10-11 00:00:00.000000,2.05709180,2.92192993,4.13180881,2347,3334,4715,1296,1919,3247,1.13572452,1.68215796,2.84509472,0.26015419,0.37190594,0.48150601
18035,0,USIndianaDelaware,Indiana,Delaware,2021-04-04 11:49:23.867136,2020-10-12 00:00:00.000000,2.09641231,2.99504261,4.20517777,2392,3418,4799,1343,1972,3309,1.17686732,1.72784014,2.89958882,0.25811587,0.36238460,0.46457361
18035,0,USIndianaDelaware,Indiana,Delaware,2021-04-04 11:49:23.867136,2020-10-13 00:00:00.000000,2.14427341,3.08323697,4.27463693,2447,3519,4878,1383,2017,3348,1.21240460,1.76798729,2.93365113,0.25604533,0.36120184,0.44071522
18035,0,USIndianaDelaware,Indiana,Delaware,2021-04-04 11:49:23.867136,2020-10-14 00:00:00.000000,2.21124704,3.14445039,4.34042495,2523,3588,4953,1418,2094,3383,1.24273107,1.83507283,2.96471425,0.25420884,0.35554159,0.42862910
18035,0,USIndianaDelaware,Indiana,Delaware,2021-04-04 11:49:23.867136,2020-10-15 00:00:00.000000,2.27645687,3.21974270,4.40237257,2598,3674,5024,1448,2166,3416,1.26868254,1.89847441,2.99310357,0.25154493,0.34663852,0.42493842
18035,0,USIndianaDelaware,Indiana,Delaware,2021-04-04 11:49:23.867136,2020-10-16 00:00:00.000000,2.33236982,3.26720760,4.46064580,2662,3729,5091,1473,2213,3445,1.29119111,1.93947353,3.01917540,0.25091427,0.34206670,0.42261026
18035,0,USIndianaDelaware,Indiana,Delaware,2021-04-04 11:49:23.867136,2020-10-17 00:00:00.000000,2.38037319,3.29606794,4.49032756,2716,3761,5125,1496,2227,3473,1.31106173,1.95205083,3.04310749,0.24956036,0.32996043,0.41550527
18035,0,USIndianaDelaware,Indiana,Delaware,2021-04-04 11:49:23.867136,2020-10-18 00:00:00.000000,2.42570371,3.35417316,4.51429874,2768,3828,5152,1506,2256,3498,1.32007902,1.97733090,3.06506429,0.24835509,0.32641143,0.41756816
18035,0,USIndianaDelaware,Indiana,Delaware,2021-04-04 11:49:23.867136,2020-10-19 00:00:00.000000,2.46781005,3.39615842,4.53578110,2816,3876,5176,1531,2291,3521,1.34177190,2.00808446,3.08506027,0.24527672,0.32459801,0.41977598
18035,0,USIndianaDelaware,Indiana,Delaware,2021-04-04 11:49:23.867136,2020-10-20 00:00:00.000000,2.45639253,3.41958603,4.55443898,2803,3902,5198,1552,2343,3541,1.36038218,2.05342937,3.10319592,0.24571478,0.31859551,0.42081134
18035,0,USIndianaDelaware,Indiana,Delaware,2021-04-04 11:49:23.867136,2020-10-21 00:00:00.000000,2.44509122,3.46125533,4.59020373,2790,3950,5239,1570,2359,3560,1.37567208,2.06723405,3.11936411,0.24335592,0.31533629,0.42076979
18035,0,USIndianaDelaware,Indiana,Delaware,2021-04-04 11:49:23.867136,2020-10-22 00:00:00.000000,2.43671980,3.49470762,4.64224338,2781,3988,5298,1587,2376,3576,1.39072065,2.08205243,3.13350451,0.23633357,0.31810605,0.41621848
18035,0,USIndianaDelaware,Indiana,Delaware,2021-04-04 11:49:23.867136,2020-10-23 00:00:00.000000,2.43389319,3.49752575,4.69083908,2777,3991,5353,1603,2383,3590,1.40484804,2.08837877,3.14578257,0.23068066,0.31362770,0.41091842
18035,0,USIndianaDelaware,Indiana,Delaware,2021-04-04 11:49:23.867136,2020-10-24 00:00:00.000000,2.46366036,3.48825255,4.73637859,2811,3981,5405,1620,2378,3602,1.42013098,2.08376247,3.15658881,0.24107567,0.30657369,0.41274230
18035,0,USIndianaDelaware,Indiana,Delaware,2021-04-04 11:49:23.867136,2020-10-25 00:00:00.000000,2.49347193,3.49858629,4.77839859,2845,3993,5453,1637,2387,3614,1.43505374,2.09175509,3.16655401,0.24220745,0.30868400,0.41644941
18035,0,USIndianaDelaware,Indiana,Delaware,2021-04-04 11:49:23.867136,2020-10-26 00:00:00.000000,2.48732057,3.50703824,4.81658945,2838,4002,5497,1640,2399,3625,1.43753486,2.10236895,3.17673375,0.24270131,0.30868729,0.41648262
18035,0,USIndianaDelaware,Indiana,Delaware,2021-04-04 11:49:23.867136,2020-10-27 00:00:00.000000,2.44908599,3.50261656,4.84816339,2795,3997,5533,1628,2412,3639,1.42643048,2.11387815,3.18841006,0.24316187,0.31277944,0.41644752
18035,0,USIndianaDelaware,Indiana,Delaware,2021-04-04 11:49:23.867136,2020-10-28 00:00:00.000000,2.45197387,3.52231321,4.87200101,2798,4020,5560,1610,2411,3656,1.41084256,2.11282661,3.20339999,0.24435314,0.31790898,0.41510692
18035,0,USIndianaDelaware,Indiana,Delaware,2021-04-04 11:49:23.867136,2020-10-29 00:00:00.000000,2.46229794,3.53700627,4.88925761,2810,4036,5580,1594,2455,3662,1.39675425,2.15166511,3.20872329,0.24732225,0.32256866,0.41688873
18035,0,USIndianaDelaware,Indiana,Delaware,2021-04-04 11:49:23.867136,2020-10-30 00:00:00.000000,2.47858138,3.58082025,4.87244991,2828,4086,5561,1564,2480,3659,1.37091448,2.17309700,3.20670787,0.25141430,0.32492844,0.43813714
18035,0,USIndianaDelaware,Indiana,Delaware,2021-04-04 11:49:23.867136,2020-10-31 00:00:00.000000,2.50711552,3.60356112,4.90333044,2861,4112,5596,1542,2524,3678,1.35116619,2.21193518,3.22296870,0.26160585,0.33081920,0.44423912
18035,0,USIndianaDelaware,Indiana,Delaware,2021-04-04 11:49:23.867136,2020-11-01 00:00:00.000000,2.55325801,3.64452185,4.94742129,2914,4159,5646,1522,2544,3695,1.33365749,2.22950813,3.23795197,0.26586064,0.34191929,0.44819475
18035,0,USIndianaDelaware,Indiana,Delaware,2021-04-04 11:49:23.867136,2020-11-02 00:00:00.000000,2.61449178,3.68296049,5.02941138,2984,4203,5740,1526,2586,3712,1.33774621,2.26603775,3.25314369,0.27025881,0.35356205,0.47198090
18035,0,USIndianaDelaware,Indiana,Delaware,2021-04-04 11:49:23.867136,2020-11-03 00:00:00.000000,2.68809829,3.75736426,5.11280354,3068,4288,5835,1555,2625,3732,1.36277963,2.29991355,3.26989206,0.27423933,0.36238234,0.48996023
18035,0,USIndianaDelaware,Indiana,Delaware,2021-04-04 11:49:23.867136,2020-11-04 00:00:00.000000,2.77601312,3.82160035,5.25394274,3168,4361,5996,1592,2662,3788,1.39490810,2.33272935,3.31912158,0.28585357,0.37216098,0.49386556
18035,0,USIndianaDelaware,Indiana,Delaware,2021-04-04 11:49:23.867136,2020-11-05 00:00:00.000000,2.87771824,3.89056638,5.39762188,3284,4440,6160,1637,2700,3878,1.43435619,2.36636486,3.39826570,0.28831830,0.37893859,0.49363502
18035,0,USIndianaDelaware,Indiana,Delaware,2021-04-04 11:49:23.867136,2020-11-06 00:00:00.000000,2.98799241,3.98438468,5.54120955,3410,4547,6324,1690,2723,3979,1.48114483,2.38591500,3.48639829,0.29110553,0.39047988,0.50895230
18035,0,USIndianaDelaware,Indiana,Delaware,2021-04-04 11:49:23.867136,2020-11-07 00:00:00.000000,3.05759400,4.08850327,5.68020364,3489,4666,6483,1750,2778,4089,1.53395926,2.43403672,3.58319317,0.29456957,0.40063468,0.54219667
18035,0,USIndianaDelaware,Indiana,Delaware,2021-04-04 11:49:23.867136,2020-11-08 00:00:00.000000,3.14184645,4.19903271,5.81414500,3585,4792,6635,1816,2848,4216,1.59127564,2.49573808,3.69410539,0.30122325,0.41285859,0.58030391
18035,0,USIndianaDelaware,Indiana,Delaware,2021-04-04 11:49:23.867136,2020-11-09 00:00:00.000000,3.24439487,4.33025393,5.94742152,3702,4942,6788,1885,2917,4367,1.65201102,2.55625339,3.82659720,0.30701689,0.42076152,0.59568073
18035,0,USIndianaDelaware,Indiana,Delaware,2021-04-04 11:49:23.867136,2020-11-10 00:00:00.000000,3.35928423,4.48967193,6.07922812,3834,5124,6938,1954,2988,4523,1.71221776,2.61840070,3.96320142,0.31053624,0.42837406,0.59249880
18035,0,USIndianaDelaware,Indiana,Delaware,2021-04-04 11:49:23.867136,2020-11-11 00:00:00.000000,3.48359047,4.65389598,6.20852140,3975,5311,7086,2002,3046,4629,1.75466526,2.66955474,4.05606149,0.31176146,0.42961650,0.58987639
18035,0,USIndianaDelaware,Indiana,Delaware,2021-04-04 11:49:23.867136,2020-11-12 00:00:00.000000,3.57517447,4.76771494,6.38527569,4080,5441,7287,2052,3184,4734,1.79831316,2.78970995,4.14817260,0.31152020,0.42893380,0.60535789
18035,0,USIndianaDelaware,Indiana,Delaware,2021-04-04 11:49:23.867136,2020-11-13 00:00:00.000000,3.65007401,4.92840964,6.53002477,4166,5625,7453,2103,3276,4836,1.84269217,2.87114450,4.23744837,0.31124827,0.42542679,0.60501851
18035,0,USIndianaDelaware,Indiana,Delaware,2021-04-04 11:49:23.867136,2020-11-14 00:00:00.000000,3.70912991,5.06311035,6.65483394,4233,5778,7595,2154,3337,4932,1.88743932,2.92444225,4.32158261,0.32042496,0.42356133,0.58657521
18035,0,USIndianaDelaware,Indiana,Delaware,2021-04-04 11:49:23.867136,2020-11-15 00:00:00.000000,3.75268115,5.15943545,6.77205298,4283,5888,7729,2205,3404,5018,1.93221000,2.98243893,4.39695610,0.31237916,0.42166862,0.55795869
18035,0,USIndianaDelaware,Indiana,Delaware,2021-04-04 11:49:23.867136,2020-11-16 00:00:00.000000,3.78403155,5.24327123,6.99915267,4318,5984,7988,2255,3483,5126,1.97658184,3.05168487,4.49141615,0.31357907,0.42214566,0.55380124
18035,0,USIndianaDelaware,Indiana,Delaware,2021-04-04 11:49:23.867136,2020-11-17 00:00:00.000000,3.80600835,5.33200787,7.21459008,4343,6085,8234,2346,3555,5309,2.05547735,3.11512334,4.65161693,0.31587186,0.42064588,0.55426876
18035,0,USIndianaDelaware,Indiana,Delaware,2021-04-04 11:49:23.867136,2020-11-18 00:00:00.000000,3.83391851,5.42419184,7.48292366,4375,6190,8540,2373,3668,5484,2.07914136,3.21419287,4.80560190,0.31961258,0.41839684,0.54821851
18035,0,USIndianaDelaware,Indiana,Delaware,2021-04-04 11:49:23.867136,2020-11-19 00:00:00.000000,3.99906879,5.49300003,7.74563117,4564,6269,8840,2392,3786,5648,2.09607769,3.31768656,4.94927792,0.32318521,0.41618240,0.55276861
18035,0,USIndianaDelaware,Indiana,Delaware,2021-04-04 11:49:23.867136,2020-11-20 00:00:00.000000,4.15529265,5.63950315,7.96922636,4742,6436,9095,2429,3888,5801,2.12833401,3.40734521,5.08290945,0.31357411,0.41613903,0.55683905
18035,0,USIndianaDelaware,Indiana,Delaware,2021-04-04 11:49:23.867136,2020-11-21 00:00:00.000000,4.29852416,5.72463650,8.12454363,4906,6533,9272,2461,3970,5890,2.15683535,3.47882653,5.16137530,0.31612620,0.41073188,0.56423603
18035,0,USIndianaDelaware,Indiana,Delaware,2021-04-04 11:49:23.867136,2020-11-22 00:00:00.000000,4.35641728,5.83386188,8.22877880,4972,6658,9391,2490,4018,5947,2.18234548,3.52113639,5.21057647,0.31433489,0.40228244,0.56702002
18035,0,USIndianaDelaware,Indiana,Delaware,2021-04-04 11:49:23.867136,2020-11-23 00:00:00.000000,4.42826788,5.92201770,8.31039298,5054,6759,9485,2517,4058,5992,2.20563382,3.55566369,5.25003691,0.31426566,0.40197808,0.56753026
18035,0,USIndianaDelaware,Indiana,Delaware,2021-04-04 11:49:23.867136,2020-11-24 00:00:00.000000,4.51812266,6.00805327,8.38704424,5156,6857,9572,2543,4102,6033,2.22811327,3.59484422,5.28630796,0.31416340,0.40178479,0.56756878
18035,0,USIndianaDelaware,Indiana,Delaware,2021-04-04 11:49:23.867136,2020-11-25 00:00:00.000000,4.61909462,6.09096889,8.52520395,5272,6951,9730,2566,4162,6163,2.24893698,3.64704937,5.40015567,0.31396182,0.40534086,0.56740191
18035,0,USIndianaDelaware,Indiana,Delaware,2021-04-04 11:49:23.867136,2020-11-26 00:00:00.000000,4.72498740,6.13148377,8.65194112,5392,6998,9874,2599,4215,6285,2.27721553,3.69363688,5.50746677,0.31451515,0.40565820,0.56720179
18035,0,USIndianaDelaware,Indiana,Delaware,2021-04-04 11:49:23.867136,2020-11-27 00:00:00.000000,4.83257244,6.20706845,8.76454260,5515,7084,10003,2655,4250,6399,2.32676248,3.72417947,5.60664364,0.31108960,0.41083376,0.56571938
18035,0,USIndianaDelaware,Indiana,Delaware,2021-04-04 11:49:23.867136,2020-11-28 00:00:00.000000,4.94006592,6.27815743,8.86157038,5638,7165,10114,2712,4307,6501,2.37656736,3.77385735,5.69622646,0.30741210,0.41006907,0.55934042
18035,0,USIndianaDelaware,Indiana,Delaware,2021-04-04 11:49:23.867136,2020-11-29 00:00:00.000000,5.00446319,6.36547104,8.94363126,5711,7265,10207,2769,4353,6592,2.42680070,3.81434440,5.77570139,0.30956909,0.41232551,0.54408515
18035,0,USIndianaDelaware,Indiana,Delaware,2021-04-04 11:49:23.867136,2020-11-30 00:00:00.000000,5.03106658,6.47839619,9.04918479,5742,7394,10328,2827,4412,6671,2.47742188,3.86640317,5.84553742,0.31289399,0.40494431,0.54333064
18035,0,USIndianaDelaware,Indiana,Delaware,2021-04-04 11:49:23.867136,2020-12-01 00:00:00.000000,5.01376731,6.58851099,9.16006958,5722,7519,10454,2887,4457,6741,2.52951444,3.90545499,5.90688816,0.31454911,0.40409614,0.54121713
18035,0,USIndianaDelaware,Indiana,Delaware,2021-04-04 11:49:23.867136,2020-12-02 00:00:00.000000,4.96618089,6.64741791,9.29075937,5668,7587,10604,2947,4489,6803,2.58290077,3.93349049,5.96061871,0.31288177,0.40571452,0.53491123
18035,0,USIndianaDelaware,Indiana,Delaware,2021-04-04 11:49:23.867136,2020-12-03 00:00:00.000000,4.92453851,6.67521121,9.40266385,5620,7618,10731,3009,4518,6856,2.63676738,3.95882203,6.00741912,0.30515985,0.39845184,0.50730632
18035,0,USIndianaDelaware,Indiana,Delaware,2021-04-04 11:49:23.867136,2020-12-04 00:00:00.000000,4.94452194,6.69530231,9.46319775,5643,7641,10800,3070,4556,6902,2.68996804,3.99235489,6.04773201,0.30454957,0.39460727,0.50313102
18035,0,USIndianaDelaware,Indiana,Delaware,2021-04-04 11:49:23.867136,2020-12-05 00:00:00.000000,4.93758404,6.66260173,9.45110800,5635,7604,10787,3128,4605,6941,2.74105484,4.03523648,6.08171776,0.30027065,0.38943929,0.49737229
18035,0,USIndianaDelaware,Indiana,Delaware,2021-04-04 11:49:23.867136,2020-12-06 00:00:00.000000,4.86615767,6.64702474,9.37123437,5553,7586,10695,3181,4641,6972,2.78749822,4.06694383,6.10916985,0.29536815,0.38616491,0.49436283
18035,0,USIndianaDelaware,Indiana,Delaware,2021-04-04 11:49:23.867136,2020-12-07 00:00:00.000000,4.85191595,6.60026081,9.35258971,5537,7533,10674,3227,4662,6995,2.82797542,4.08539484,6.12930215,0.29499661,0.38163492,0.48840623
18035,0,USIndianaDelaware,Indiana,Delaware,2021-04-04 11:49:23.867136,2020-12-08 00:00:00.000000,4.86320253,6.54953483,9.35115043,5550,7475,10672,3193,4637,7008,2.79835598,4.06356202,6.14074269,0.29381820,0.37493036,0.49396317
18035,0,USIndianaDelaware,Indiana,Delaware,2021-04-04 11:49:23.867136,2020-12-09 00:00:00.000000,4.84348722,6.51458228,9.32893450,5528,7435,10647,3139,4614,7007,2.75053615,4.04339236,6.13991425,0.29114816,0.36622829,0.49285370
18035,0,USIndianaDelaware,Indiana,Delaware,2021-04-04 11:49:23.867136,2020-12-10 00:00:00.000000,4.85299608,6.47000572,9.28618347,5538,7384,10598,3082,4590,7010,2.70039200,4.02232701,6.14231763,0.28308166,0.36522813,0.48482828
18035,0,USIndianaDelaware,Indiana,Delaware,2021-04-04 11:49:23.867136,2020-12-11 00:00:00.000000,4.80065581,6.42674904,9.22159240,5479,7335,10525,3085,4577,6966,2.70304206,4.01095212,6.10416348,0.26329926,0.35522572,0.47996113
18035,0,USIndianaDelaware,Indiana,Delaware,2021-04-04 11:49:23.867136,2020-12-12 00:00:00.000000,4.75708932,6.36870618,9.05678611,5429,7268,10336,3077,4570,6926,2.69658851,4.00454871,6.06905154,0.26078084,0.34890934,0.47373751
18035,0,USIndianaDelaware,Indiana,Delaware,2021-04-04 11:49:23.867136,2020-12-13 00:00:00.000000,4.63926042,6.32933294,8.93987071,5295,7223,10203,3044,4555,6896,2.66757359,3.99120009,6.04218565,0.25120941,0.34435106,0.47126716
18035,0,USIndianaDelaware,Indiana,Delaware,2021-04-04 11:49:23.867136,2020-12-14 00:00:00.000000,4.51681657,6.27887990,8.84161251,5155,7166,10091,2994,4501,6816,2.62331610,3.94407639,5.97262723,0.24401663,0.34187900,0.45368398
18035,0,USIndianaDelaware,Indiana,Delaware,2021-04-04 11:49:23.867136,2020-12-15 00:00:00.000000,4.41405593,6.21334761,8.73685076,5037,7091,9971,2932,4456,6725,2.56929911,3.90486556,5.89270951,0.23786690,0.33916795,0.46781264
18035,0,USIndianaDelaware,Indiana,Delaware,2021-04-04 11:49:23.867136,2020-12-16 00:00:00.000000,4.33626184,6.11691377,8.62620580,4949,6981,9845,2864,4402,6707,2.50987493,3.85693102,5.87654886,0.23595555,0.34378127,0.46654749
18035,0,USIndianaDelaware,Indiana,Delaware,2021-04-04 11:49:23.867136,2020-12-17 00:00:00.000000,4.26104139,6.00861671,8.49291852,4863,6857,9693,2782,4323,6672,2.43771662,3.78762045,5.84642873,0.23539095,0.34661400,0.47071333
18035,0,USIndianaDelaware,Indiana,Delaware,2021-04-04 11:49:23.867136,2020-12-18 00:00:00.000000,4.18711525,5.93142079,8.35750039,4778,6769,9538,2693,4237,6578,2.35971248,3.71268061,5.76414556,0.23534727,0.34909787,0.50429504
18035,0,USIndianaDelaware,Indiana,Delaware,2021-04-04 11:49:23.867136,2020-12-19 00:00:00.000000,4.11378287,5.80127152,8.28783715,4695,6621,9459,2625,4156,6482,2.29991290,3.64204856,5.68006450,0.23564261,0.35651306,0.52502143
18035,0,USIndianaDelaware,Indiana,Delaware,2021-04-04 11:49:23.867136,2020-12-20 00:00:00.000000,4.04057340,5.71989323,8.18381074,4611,6528,9340,2594,4121,6391,2.27331711,3.61083455,5.59995650,0.24114846,0.37172163,0.53047467
18035,0,USIndianaDelaware,Indiana,Delaware,2021-04-04 11:49:23.867136,2020-12-21 00:00:00.000000,3.96503773,5.69030112,8.07557660,4525,6494,9217,2537,4100,6307,2.22332272,3.59240026,5.52662047,0.25420458,0.38164068,0.53293140
18035,0,USIndianaDelaware,Indiana,Delaware,2021-04-04 11:49:23.867136,2020-12-22 00:00:00.000000,3.88930654,5.63087945,7.97858921,4439,6426,9106,2486,4025,6230,2.17818253,3.52664908,5.45908124,0.26123185,0.40135626,0.54588033
18035,0,USIndianaDelaware,Indiana,Delaware,2021-04-04 11:49:23.867136,2020-12-23 00:00:00.000000,3.81346845,5.53598660,7.92258576,4352,6318,9042,2440,3948,6160,2.13800072,3.45907335,5.39778063,0.26096716,0.41282233,0.55766923
18035,0,USIndianaDelaware,Indiana,Delaware,2021-04-04 11:49:23.867136,2020-12-24 00:00:00.000000,3.73826829,5.46633968,7.89901988,4266,6239,9015,2401,3875,6101,2.10390730,3.39579835,5.34593724,0.26302652,0.42241329,0.56445404
18035,0,USIndianaDelaware,Indiana,Delaware,2021-04-04 11:49:23.867136,2020-12-25 00:00:00.000000,3.69387096,5.44297547,7.90226944,4215,6212,9019,2372,3836,6058,2.07874254,3.36153736,5.30811960,0.27486111,0.44103835,0.60054447
18035,0,USIndianaDelaware,Indiana,Delaware,2021-04-04 11:49:23.867136,2020-12-26 00:00:00.000000,3.66295468,5.44199822,7.91808737,4180,6211,9037,2356,3805,6032,2.06449615,3.33451507,5.28574000,0.31229832,0.46319985,0.64337222
18035,0,USIndianaDelaware,Indiana,Delaware,2021-04-04 11:49:23.867136,2020-12-27 00:00:00.000000,3.66051249,5.45810006,7.94928541,4177,6229,9072,2351,3781,6021,2.06015045,3.31335440,5.27599138,0.34025040,0.49903035,0.70930046
18035,0,USIndianaDelaware,Indiana,Delaware,2021-04-04 11:49:23.867136,2020-12-28 00:00:00.000000,3.68910249,5.48488060,8.00285062,4210,6260,9134,2354,3804,6020,2.06332242,3.33333760,5.27458236,0.36292655,0.51799958,0.74706216
18035,0,USIndianaDelaware,Indiana,Delaware,2021-04-04 11:49:23.867136,2020-12-29 00:00:00.000000,3.72054836,5.50590881,8.05137438,4246,6284,9189,2381,3828,6024,2.08660054,3.35415229,5.27796285,0.36606774,0.52652777,0.76040186
18035,0,USIndianaDelaware,Indiana,Delaware,2021-04-04 11:49:23.867136,2020-12-30 00:00:00.000000,3.81281591,5.57761710,8.09355698,4351,6366,9237,2424,3858,6030,2.12450050,3.38052565,5.28328049,0.36620640,0.53513638,0.76002834
18035,0,USIndianaDelaware,Indiana,Delaware,2021-04-04 11:49:23.867136,2020-12-31 00:00:00.000000,3.84429134,5.63068234,8.12817082,4387,6426,9277,2478,3878,6036,2.17112220,3.39826825,5.28854019,0.36519358,0.53575077,0.78029917
18035,0,USIndianaDelaware,Indiana,Delaware,2021-04-04 11:49:23.867136,2021-01-01 00:00:00.000000,3.86683277,5.69390054,8.15375647,4413,6498,9306,2539,3907,6040,2.22468874,3.42365252,5.29231217,0.36344777,0.53468364,0.82540949
18035,0,USIndianaDelaware,Indiana,Delaware,2021-04-04 11:49:23.867136,2021-01-02 00:00:00.000000,3.88369358,5.75191566,8.16818457,4432,6564,9322,2563,3963,6041,2.24596108,3.47250830,5.29347926,0.36148667,0.52247730,0.82409019
18035,0,USIndianaDelaware,Indiana,Delaware,2021-04-04 11:49:23.867136,2021-01-03 00:00:00.000000,3.93341159,5.80214867,8.25571281,4489,6622,9422,2586,4008,6038,2.26608291,3.51195940,5.29102540,0.35867449,0.51879234,0.78715517
18035,0,USIndianaDelaware,Indiana,Delaware,2021-04-04 11:49:23.867136,2021-01-04 00:00:00.000000,3.97097510,5.80497907,8.35566218,4532,6625,9536,2608,4048,6031,2.28555549,3.54718271,5.28426972,0.35749795,0.50273488,0.76528981
18035,0,USIndianaDelaware,Indiana,Delaware,2021-04-04 11:49:23.867136,2021-01-05 00:00:00.000000,3.99381675,5.78242702,8.40800831,4558,6599,9596,2629,4076,6018,2.30355935,3.57133647,5.27303118,0.35677411,0.49522216,0.75281168
18035,0,USIndianaDelaware,Indiana,Delaware,2021-04-04 11:49:23.867136,2021-01-06 00:00:00.000000,4.00159414,5.73225339,8.30071405,4567,6542,9474,2647,4118,6024,2.31977150,3.60833551,5.27864642,0.34504156,0.47581441,0.71456749
18035,0,USIndianaDelaware,Indiana,Delaware,2021-04-04 11:49:23.867136,2021-01-07 00:00:00.000000,3.98437010,5.68237063,8.08120789,4547,6485,9223,2662,4119,6037,2.33300121,3.60893815,5.28945522,0.32125765,0.46329285,0.67299188
18035,0,USIndianaDelaware,Indiana,Delaware,2021-04-04 11:49:23.867136,2021-01-08 00:00:00.000000,3.93141618,5.61950810,7.85176560,4487,6413,8961,2670,4097,5986,2.33969292,3.58961510,5.24553582,0.29920111,0.45448248,0.64653248
18035,0,USIndianaDelaware,Indiana,Delaware,2021-04-04 11:49:23.867136,2021-01-09 00:00:00.000000,3.92945523,5.54359880,7.70996131,4484,6327,8799,2663,4040,5889,2.33333917,3.54033652,5.16046269,0.26076007,0.44730948,0.61992228
18035,0,USIndianaDelaware,Indiana,Delaware,2021-04-04 11:49:23.867136,2021-01-10 00:00:00.000000,3.92130701,5.48437796,7.55447261,4475,6259,8622,2636,3988,5840,2.31035347,3.49469874,5.11682429,0.26015592,0.42630222,0.59186241
18035,0,USIndianaDelaware,Indiana,Delaware,2021-04-04 11:49:23.867136,2021-01-11 00:00:00.000000,3.81649712,5.37374519,7.38955148,4355,6133,8434,2569,3925,5782,2.25101522,3.43901993,5.06620900,0.25699174,0.40102924,0.57569752
18035,0,USIndianaDelaware,Indiana,Delaware,2021-04-04 11:49:23.867136,2021-01-12 00:00:00.000000,3.70722873,5.26470001,7.21883726,4231,6008,8239,2467,3873,5694,2.16176136,3.39381419,4.98940817,0.24076697,0.39144804,0.57299125
18035,0,USIndianaDelaware,Indiana,Delaware,2021-04-04 11:49:23.867136,2021-01-13 00:00:00.000000,3.59730136,5.13976669,7.08775803,4105,5866,8089,2369,3799,5584,2.07614080,3.32914129,4.89303197,0.23227842,0.38296921,0.57060301
18035,0,USIndianaDelaware,Indiana,Delaware,2021-04-04 11:49:23.867136,2021-01-14 00:00:00.000000,3.48802379,5.02256778,6.95730185,3981,5732,7940,2361,3719,5460,2.06884507,3.25903314,4.78425120,0.22670682,0.37628712,0.54180115
18035,0,USIndianaDelaware,Indiana,Delaware,2021-04-04 11:49:23.867136,2021-01-15 00:00:00.000000,3.38011185,4.89848462,6.80684138,3857,5590,7768,2345,3641,5328,2.05491021,3.19009187,4.66902058,0.22959777,0.36868450,0.51904223
18035,0,USIndianaDelaware,Indiana,Delaware,2021-04-04 11:49:23.867136,2021-01-16 00:00:00.000000,3.27385870,4.73362535,6.63683324,3736,5402,7574,2275,3557,5194,1.99367178,3.11706926,4.55141370,0.23321029,0.35715733,0.50140805
18035,0,USIndianaDelaware,Indiana,Delaware,2021-04-04 11:49:23.867136,2021-01-17 00:00:00.000000,3.16823857,4.55258052,6.44959843,3616,5196,7361,2196,3470,5060,1.92423501,3.04030268,4.43368711,0.22159763,0.34358964,0.49947790
18035,0,USIndianaDelaware,Indiana,Delaware,2021-04-04 11:49:23.867136,2021-01-18 00:00:00.000000,3.05468428,4.38685055,6.24861957,3486,5006,7131,2119,3364,4927,1.85696679,2.94803726,4.31683879,0.20937818,0.33557882,0.49845698
18035,0,USIndianaDelaware,Indiana,Delaware,2021-04-04 11:49:23.867136,2021-01-19 00:00:00.000000,2.92849069,4.26599978,6.03875275,3342,4868,6892,2044,3253,4796,1.79172109,2.85095301,4.20281458,0.20254897,0.33108067,0.49715108
18035,0,USIndianaDelaware,Indiana,Delaware,2021-04-04 11:49:23.867136,2021-01-20 00:00:00.000000,2.78285992,4.11513539,5.82380006,3176,4696,6646,1972,3140,4669,1.72836293,2.75147784,4.09096053,0.19964774,0.32775141,0.49462757
18035,0,USIndianaDelaware,Indiana,Delaware,2021-04-04 11:49:23.867136,2021-01-21 00:00:00.000000,2.64427438,3.95079113,5.60650060,3018,4509,6398,1892,3017,4543,1.65821014,2.64344549,3.98074078,0.19862662,0.32658724,0.51154639
18035,0,USIndianaDelaware,Indiana,Delaware,2021-04-04 11:49:23.867136,2021-01-22 00:00:00.000000,2.51206200,3.79050412,5.38851969,2867,4326,6150,1800,2898,4418,1.57784772,2.53962132,3.87155132,0.19843450,0.32508952,0.51202909
18035,0,USIndianaDelaware,Indiana,Delaware,2021-04-04 11:49:23.867136,2021-01-23 00:00:00.000000,2.38578129,3.63596557,5.17079523,2723,4149,5901,1709,2785,4294,1.49801518,2.44011893,3.76222343,0.19873143,0.32651146,0.52258953
18035,0,USIndianaDelaware,Indiana,Delaware,2021-04-04 11:49:23.867136,2021-01-24 00:00:00.000000,2.26473827,3.47927365,4.96383348,2584,3971,5665,1620,2679,4166,1.42003814,2.34771286,3.65021197,0.19906903,0.31961799,0.53475263
18035,0,USIndianaDelaware,Indiana,Delaware,2021-04-04 11:49:23.867136,2021-01-25 00:00:00.000000,2.14770475,3.32464170,4.79466981,2451,3794,5472,1534,2583,4031,1.34470712,2.26333116,3.53187591,0.19886725,0.31830959,0.54143194
18035,0,USIndianaDelaware,Indiana,Delaware,2021-04-04 11:49:23.867136,2021-01-26 00:00:00.000000,2.03510114,3.16011894,4.61780211,2322,3606,5270,1451,2488,3885,1.27214783,2.18068591,3.40428401,0.19856011,0.31616684,0.54304958
18035,0,USIndianaDelaware,Indiana,Delaware,2021-04-04 11:49:23.867136,2021-01-27 00:00:00.000000,1.94668562,3.02472427,4.42285758,2221,3452,5048,1373,2389,3732,1.20302554,2.09333935,3.27018188,0.19800925,0.31500554,0.53936679
18035,0,USIndianaDelaware,Indiana,Delaware,2021-04-04 11:49:23.867136,2021-01-28 00:00:00.000000,1.86415672,2.92905005,4.22693030,2127,3343,4824,1309,2285,3584,1.14703422,2.00229918,3.14041225,0.19710650,0.31421863,0.52911186
18035,0,USIndianaDelaware,Indiana,Delaware,2021-04-04 11:49:23.867136,2021-01-29 00:00:00.000000,1.78420892,2.79799032,4.04165858,2036,3193,4612,1254,2180,3443,1.09942057,1.91037413,3.01729285,0.19570514,0.31286404,0.51143140
18035,0,USIndianaDelaware,Indiana,Delaware,2021-04-04 11:49:23.867136,2021-01-30 00:00:00.000000,1.70678158,2.67127147,3.86217556,1948,3048,4408,1202,2080,3302,1.05333740,1.82300027,2.89325528,0.19366038,0.30627187,0.49626727
18035,0,USIndianaDelaware,Indiana,Delaware,2021-04-04 11:49:23.867136,2021-01-31 00:00:00.000000,1.63191330,2.54068388,3.68942882,1862,2899,4210,1151,1989,3162,1.00874540,1.74279175,2.77069533,0.18219960,0.29889686,0.49222295
18035,0,USIndianaDelaware,Indiana,Delaware,2021-04-04 11:49:23.867136,2021-02-01 00:00:00.000000,1.56130887,2.42187042,3.52728260,1781,2764,4025,1102,1899,3026,0.96564234,1.66388262,2.65128007,0.17360501,0.29637744,0.48556579
18035,0,USIndianaDelaware,Indiana,Delaware,2021-04-04 11:49:23.867136,2021-02-02 00:00:00.000000,1.49356321,2.31264929,3.37263423,1704,2639,3849,1055,1817,2895,0.92435751,1.59252105,2.53649101,0.17342895,0.29012854,0.49620503
18035,0,USIndianaDelaware,Indiana,Delaware,2021-04-04 11:49:23.867136,2021-02-03 00:00:00.000000,1.42932194,2.21718295,3.22402958,1631,2530,3679,1009,1735,2769,0.88478954,1.52090099,2.42644656,0.17283752,0.28697123,0.50534806
18035,0,USIndianaDelaware,Indiana,Delaware,2021-04-04 11:49:23.867136,2021-02-04 00:00:00.000000,1.36417337,2.12120796,3.07992688,1556,2421,3515,966,1660,2648,0.84687185,1.45470700,2.32082217,0.17171603,0.28691085,0.50451242
18035,0,USIndianaDelaware,Indiana,Delaware,2021-04-04 11:49:23.867136,2021-02-05 00:00:00.000000,1.29209705,2.02369363,2.93979694,1474,2309,3355,925,1587,2532,0.81055926,1.39126975,2.21902717,0.16986034,0.28763180,0.50572000
18035,0,USIndianaDelaware,Indiana,Delaware,2021-04-04 11:49:23.867136,2021-02-06 00:00:00.000000,1.22324826,1.92758943,2.80420461,1396,2200,3200,885,1525,2420,0.77582431,1.33653185,2.12056830,0.16741096,0.28914648,0.50642581
18035,0,USIndianaDelaware,Indiana,Delaware,2021-04-04 11:49:23.867136,2021-02-07 00:00:00.000000,1.15084352,1.83942172,2.67368178,1313,2099,3051,847,1452,2311,0.74264955,1.27241346,2.02529609,0.16495502,0.30083803,0.50212618
18035,0,USIndianaDelaware,Indiana,Delaware,2021-04-04 11:49:23.867136,2021-02-08 00:00:00.000000,1.08291811,1.74544058,2.54625498,1235,1992,2906,806,1388,2206,0.70685158,1.21692632,1.93326645,0.16347058,0.29905395,0.49785072
18035,0,USIndianaDelaware,Indiana,Delaware,2021-04-04 11:49:23.867136,2021-02-09 00:00:00.000000,1.01937157,1.65321464,2.43460110,1163,1886,2778,758,1327,2104,0.66496350,1.16285544,1.84402095,0.16210457,0.29051225,0.49672686
18035,0,USIndianaDelaware,Indiana,Delaware,2021-04-04 11:49:23.867136,2021-02-10 00:00:00.000000,0.96006434,1.56901752,2.33853624,1095,1790,2669,714,1264,2005,0.62568931,1.10771199,1.75750012,0.16131620,0.28876589,0.49670543
18035,0,USIndianaDelaware,Indiana,Delaware,2021-04-04 11:49:23.867136,2021-02-11 00:00:00.000000,0.90487411,1.48955798,2.23353039,1032,1700,2549,672,1201,1909,0.58892708,1.05272670,1.67320521,0.16039752,0.29411099,0.50189781
18035,0,USIndianaDelaware,Indiana,Delaware,2021-04-04 11:49:23.867136,2021-02-12 00:00:00.000000,0.85461259,1.42361730,2.12467138,975,1624,2424,632,1142,1815,0.55459062,1.00059243,1.59052800,0.15840858,0.30172466,0.52794691
18035,0,USIndianaDelaware,Indiana,Delaware,2021-04-04 11:49:23.867136,2021-02-13 00:00:00.000000,0.81276860,1.36417519,2.03669277,927,1557,2324,596,1087,1730,0.52278735,0.95276908,1.51639755,0.15713491,0.30646507,0.52873839
18035,0,USIndianaDelaware,Indiana,Delaware,2021-04-04 11:49:23.867136,2021-02-14 00:00:00.000000,0.77744986,1.29852672,1.95732612,887,1482,2233,564,1038,1650,0.49430623,0.90947887,1.44628470,0.15852439,0.31195129,0.57994141
18035,0,USIndianaDelaware,Indiana,Delaware,2021-04-04 11:49:23.867136,2021-02-15 00:00:00.000000,0.74300394,1.23856944,1.88114632,848,1413,2147,535,987,1573,0.46926841,0.86529787,1.37822281,0.16937733,0.31687530,0.59380699
18035,0,USIndianaDelaware,Indiana,Delaware,2021-04-04 11:49:23.867136,2021-02-16 00:00:00.000000,0.71082955,1.17559926,1.80580008,811,1341,2061,509,942,1498,0.44656064,0.82575061,1.31289150,0.17244830,0.32242140,0.59690378
18035,0,USIndianaDelaware,Indiana,Delaware,2021-04-04 11:49:23.867136,2021-02-17 00:00:00.000000,0.68057956,1.12886547,1.73066288,776,1288,1975,485,897,1457,0.42575333,0.78625122,1.27715071,0.17476889,0.32932412,0.59812820
18035,0,USIndianaDelaware,Indiana,Delaware,2021-04-04 11:49:23.867136,2021-02-18 00:00:00.000000,0.64855095,1.07908849,1.65697027,740,1231,1891,463,850,1423,0.40652886,0.74521846,1.24717666,0.17497777,0.34186017,0.59896332
18035,0,USIndianaDelaware,Indiana,Delaware,2021-04-04 11:49:23.867136,2021-02-19 00:00:00.000000,0.61603270,1.03026218,1.59725304,703,1175,1823,442,808,1390,0.38798373,0.70844679,1.21827663,0.17568484,0.33997743,0.60038016
18035,0,USIndianaDelaware,Indiana,Delaware,2021-04-04 11:49:23.867136,2021-02-20 00:00:00.000000,0.58585764,0.98881070,1.56037766,668,1128,1780,420,769,1358,0.36813835,0.67451279,1.19006844,0.17797992,0.35230551,0.61001417
18035,0,USIndianaDelaware,Indiana,Delaware,2021-04-04 11:49:23.867136,2021-02-21 00:00:00.000000,0.55804840,0.94768529,1.52408720,636,1081,1739,400,733,1326,0.35095200,0.64300718,1.16242590,0.18462472,0.36368125,0.63083751
18035,0,USIndianaDelaware,Indiana,Delaware,2021-04-04 11:49:23.867136,2021-02-22 00:00:00.000000,0.53297004,0.91002289,1.47022566,608,1038,1678,386,702,1295,0.33833411,0.61591288,1.13530337,0.19700400,0.36875293,0.65551956
18035,0,USIndianaDelaware,Indiana,Delaware,2021-04-04 11:49:23.867136,2021-02-23 00:00:00.000000,0.51023349,0.87276425,1.41539207,582,996,1615,369,666,1252,0.32353853,0.58430196,1.09730196,0.20832383,0.37407104,0.71077066
18035,0,USIndianaDelaware,Indiana,Delaware,2021-04-04 11:49:23.867136,2021-02-24 00:00:00.000000,0.48969756,0.83446839,1.39290538,558,952,1589,350,633,1200,0.30718384,0.55494640,1.05169603,0.21414966,0.38230755,0.76193566
18035,0,USIndianaDelaware,Indiana,Delaware,2021-04-04 11:49:23.867136,2021-02-25 00:00:00.000000,0.46948662,0.80348295,1.37223971,535,917,1566,333,609,1151,0.29194821,0.53427836,1.00866801,0.21838568,0.38706110,0.81932568
18035,0,USIndianaDelaware,Indiana,Delaware,2021-04-04 11:49:23.867136,2021-02-26 00:00:00.000000,0.45554388,0.76537653,1.35025068,519,873,1541,317,588,1105,0.27779424,0.51597638,0.96835245,0.22661438,0.39136349,0.87269020
18035,0,USIndianaDelaware,Indiana,Delaware,2021-04-04 11:49:23.867136,2021-02-27 00:00:00.000000,0.44246734,0.73593755,1.31281047,505,839,1498,303,567,1062,0.26593373,0.49684522,0.93129394,0.23491340,0.40401418,0.89435998
18035,0,USIndianaDelaware,Indiana,Delaware,2021-04-04 11:49:23.867136,2021-02-28 00:00:00.000000,0.43009254,0.70432289,1.27298136,490,803,1452,292,547,1024,0.25595759,0.47938464,0.89796363,0.24626417,0.41763618,0.90124157
18035,0,USIndianaDelaware,Indiana,Delaware,2021-04-04 11:49:23.867136,2021-03-01 00:00:00.000000,0.41809621,0.68780058,1.23150441,477,785,1405,281,533,990,0.24678318,0.46728627,0.86808646,0.24887738,0.42807370,0.91820843
18035,0,USIndianaDelaware,Indiana,Delaware,2021-04-04 11:49:23.867136,2021-03-02 00:00:00.000000,0.40815106,0.67504335,1.18976016,465,770,1357,272,519,959,0.23913497,0.45516918,0.84075106,0.25760616,0.44095080,0.93641502
18035,0,USIndianaDelaware,Indiana,Delaware,2021-04-04 11:49:23.867136,2021-03-03 00:00:00.000000,0.39796084,0.66841905,1.14814937,454,762,1310,265,507,930,0.23256878,0.44426460,0.81564664,0.27079819,0.44787344,0.94593905
18035,0,USIndianaDelaware,Indiana,Delaware,2021-04-04 11:49:23.867136,2021-03-04 00:00:00.000000,0.38994402,0.65944169,1.10750531,445,752,1264,260,491,904,0.22819870,0.43092005,0.79265987,0.28248731,0.44902086,0.95187957
18035,0,USIndianaDelaware,Indiana,Delaware,2021-04-04 11:49:23.867136,2021-03-05 00:00:00.000000,0.38466005,0.64679056,1.06827466,439,738,1219,265,479,885,0.23227417,0.42036411,0.77558024,0.28264079,0.46508240,0.95851252
18035,0,USIndianaDelaware,Indiana,Delaware,2021-04-04 11:49:23.867136,2021-03-06 00:00:00.000000,0.38423962,0.63616420,1.03083970,438,726,1176,269,473,879,0.23637584,0.41508458,0.77039043,0.28303943,0.48124802,0.96784450
18035,0,USIndianaDelaware,Indiana,Delaware,2021-04-04 11:49:23.867136,2021-03-07 00:00:00.000000,0.38974141,0.63354462,1.00060512,444,723,1142,273,466,873,0.23990174,0.40868235,0.76521985,0.28399824,0.49765629,0.97909663
18035,0,USIndianaDelaware,Indiana,Delaware,2021-04-04 11:49:23.867136,2021-03-08 00:00:00.000000,0.39813925,0.62730188,0.98316466,454,715,1122,269,459,854,0.23582947,0.40250073,0.74845684,0.28643460,0.50527203,0.98895348
18035,0,USIndianaDelaware,Indiana,Delaware,2021-04-04 11:49:23.867136,2021-03-09 00:00:00.000000,0.38977950,0.61564796,0.96622093,444,702,1102,264,452,826,0.23186983,0.39645298,0.72410591,0.29331168,0.51983154,0.99473429
18035,0,USIndianaDelaware,Indiana,Delaware,2021-04-04 11:49:23.867136,2021-03-10 00:00:00.000000,0.38277885,0.60252376,0.94979803,436,687,1084,260,445,801,0.22812943,0.39026449,0.70200888,0.31188499,0.51734426,0.99492281
18035,0,USIndianaDelaware,Indiana,Delaware,2021-04-04 11:49:23.867136,2021-03-11 00:00:00.000000,0.37831152,0.59355131,0.93386198,431,677,1065,256,438,778,0.22450380,0.38398478,0.68204897,0.34551241,0.52456297,1.01440997
18035,0,USIndianaDelaware,Indiana,Delaware,2021-04-04 11:49:23.867136,2021-03-12 00:00:00.000000,0.37712231,0.58813519,0.91869830,430,671,1048,255,430,759,0.22422364,0.37694479,0.66544233,0.33713492,0.55333611,1.05544535
18035,0,USIndianaDelaware,Indiana,Delaware,2021-04-04 11:49:23.867136,2021-03-13 00:00:00.000000,0.37887762,0.58800392,0.90617733,432,671,1034,262,421,746,0.22985133,0.36920109,0.65383973,0.33204268,0.56726695,1.10053519
18035,0,USIndianaDelaware,Indiana,Delaware,2021-04-04 11:49:23.867136,2021-03-14 00:00:00.000000,0.38187621,0.58976207,0.90038451,435,673,1027,263,415,734,0.23059128,0.36413018,0.64333888,0.33174259,0.56805833,1.14325391
18035,0,USIndianaDelaware,Indiana,Delaware,2021-04-04 11:49:23.867136,2021-03-15 00:00:00.000000,0.38504975,0.59157644,0.89666249,439,675,1023,263,411,725,0.23069670,0.36082665,0.63536070,0.33825190,0.60458148,1.17552934
18035,0,USIndianaDelaware,Indiana,Delaware,2021-04-04 11:49:23.867136,2021-03-16 00:00:00.000000,0.38865604,0.59286841,0.89499873,443,676,1021,264,414,718,0.23155141,0.36306357,0.62949190,0.35774723,0.61838042,1.21022395
18035,0,USIndianaDelaware,Indiana,Delaware,2021-04-04 11:49:23.867136,2021-03-17 00:00:00.000000,0.39247754,0.59016064,0.89533392,447,673,1021,265,416,713,0.23292616,0.36472842,0.62543902,0.37401193,0.64093187,1.22847930
18035,0,USIndianaDelaware,Indiana,Delaware,2021-04-04 11:49:23.867136,2021-03-18 00:00:00.000000,0.39367087,0.58941431,0.89781474,449,672,1024,267,415,711,0.23465124,0.36444750,0.62301432,0.37772953,0.65504988,1.23231367
18035,0,USIndianaDelaware,Indiana,Delaware,2021-04-04 11:49:23.867136,2021-03-19 00:00:00.000000,0.39223586,0.59433809,0.90169465,447,678,1029,270,415,710,0.23663674,0.36379639,0.62214657,0.38872909,0.66562531,1.22492327
18035,0,USIndianaDelaware,Indiana,Delaware,2021-04-04 11:49:23.867136,2021-03-20 00:00:00.000000,0.39114343,0.59985537,0.92102486,446,684,1051,271,414,710,0.23828285,0.36359371,0.62260349,0.39339553,0.66994608,1.21908276
18035,0,USIndianaDelaware,Indiana,Delaware,2021-04-04 11:49:23.867136,2021-03-21 00:00:00.000000,0.39057831,0.59936815,0.94178867,445,684,1074,271,415,711,0.23748139,0.36361227,0.62378023,0.39709941,0.68777619,1.22410911
18035,0,USIndianaDelaware,Indiana,Delaware,2021-04-04 11:49:23.867136,2021-03-22 00:00:00.000000,0.38899530,0.59952761,0.96569449,443,684,1102,270,417,710,0.23689513,0.36563393,0.62270863,0.39956494,0.69184082,1.23792715
18035,0,USIndianaDelaware,Indiana,Delaware,2021-04-04 11:49:23.867136,2021-03-23 00:00:00.000000,0.38753573,0.60103376,0.97178159,442,685,1109,269,419,693,0.23613769,0.36731168,0.60776414,0.38778177,0.70879502,1.25228329
18035,0,USIndianaDelaware,Indiana,Delaware,2021-04-04 11:49:23.867136,2021-03-24 00:00:00.000000,0.38647138,0.60570517,0.94740458,441,691,1081,268,422,694,0.23531016,0.37024599,0.60859512,0.38438155,0.71967931,1.26194242
18035,0,USIndianaDelaware,Indiana,Delaware,2021-04-04 11:49:23.867136,2021-03-25 00:00:00.000000,0.38737366,0.61128391,0.92381311,442,697,1054,267,425,713,0.23456340,0.37282521,0.62516055,0.37931871,0.72766575,1.26717860
18035,0,USIndianaDelaware,Indiana,Delaware,2021-04-04 11:49:23.867136,2021-03-26 00:00:00.000000,0.39294825,0.62091731,0.93796283,448,708,1070,267,426,723,0.23442668,0.37411330,0.63405348,0.37198634,0.73399178,1.26981313
18035,0,USIndianaDelaware,Indiana,Delaware,2021-04-04 11:49:23.867136,2021-03-27 00:00:00.000000,0.38962204,0.61930278,0.95079407,444,706,1085,265,433,723,0.23277915,0.38012190,0.63362187,0.36177823,0.73963156,1.27133955
18035,0,USIndianaDelaware,Indiana,Delaware,2021-04-04 11:49:23.867136,2021-03-28 00:00:00.000000,0.37685767,0.62676665,0.96337583,430,715,1099,262,439,721,0.22989536,0.38493548,0.63180020,0.34838381,0.73911920,1.27186045
18035,0,USIndianaDelaware,Indiana,Delaware,2021-04-04 11:49:23.867136,2021-03-29 00:00:00.000000,0.36341766,0.63759645,0.97327824,414,727,1110,254,446,718,0.22299401,0.39101300,0.62908508,0.33863275,0.73747371,1.27011921
18035,0,USIndianaDelaware,Indiana,Delaware,2021-04-04 11:49:23.867136,2021-03-30 00:00:00.000000,0.35035871,0.64293974,0.98347748,399,733,1122,246,446,713,0.21568042,0.39114290,0.62524933,0.32941076,0.73901505,1.26664103
18035,0,USIndianaDelaware,Indiana,Delaware,2021-04-04 11:49:23.867136,2021-03-31 00:00:00.000000,0.33770455,0.64729250,0.98942069,385,738,1129,237,450,716,0.20834224,0.39433163,0.62743443,0.32755017,0.73669145,1.26235821
18035,0,USIndianaDelaware,Indiana,Delaware,2021-04-04 11:49:23.867136,2021-04-01 00:00:00.000000,0.33181087,0.64267744,0.99995836,378,733,1141,229,452,730,0.20108069,0.39649283,0.64044433,0.32644181,0.73199006,1.25627250
18035,0,USIndianaDelaware,Indiana,Delaware,2021-04-04 11:49:23.867136,2021-04-02 00:00:00.000000,0.32847237,0.64572994,1.02434351,374,737,1169,221,458,730,0.19396961,0.40181259,0.64030679,0.32418301,0.72836280,1.24963579
18035,0,USIndianaDelaware,Indiana,Delaware,2021-04-04 11:49:23.867136,2021-04-03 00:00:00.000000,0.32497220,0.65806300,1.04351151,370,751,1191,213,456,730,0.18706975,0.39966965,0.63961781,0.31732096,0.70884699,1.27240085
18035,0,USIndianaDelaware,Indiana,Delaware,2021-04-04 11:49:23.867136,2021-04-04 00:00:00.000000,0.32136678,0.65949399,1.06427475,366,752,1214,208,452,728,0.18246958,0.39685914,0.63827651,0.31007596,0.70309359,1.30335880
18035,0,USIndianaDelaware,Indiana,Delaware,2021-04-04 11:49:23.867136,2021-04-05 00:00:00.000000,0.31770862,0.66822849,1.08924396,362,762,1243,206,454,732,0.18054453,0.39812131,0.64134738,0.29827439,0.71553431,1.32344857
18035,0,USIndianaDelaware,Indiana,Delaware,2021-04-04 11:49:23.867136,2021-04-06 00:00:00.000000,0.30591345,0.66825048,1.13265223,349,762,1292,203,459,756,0.17855713,0.40275707,0.66274509,0.29224808,0.70899823,1.33158225
18035,0,USIndianaDelaware,Indiana,Delaware,2021-04-04 11:49:23.867136,2021-04-07 00:00:00.000000,0.28624210,0.66797375,1.17928449,326,762,1345,201,456,783,0.17657044,0.40020298,0.68640226,0.29102940,0.70713410,1.33433253
18035,0,USIndianaDelaware,Indiana,Delaware,2021-04-04 11:49:23.867136,2021-04-08 00:00:00.000000,0.26762606,0.66753385,1.22176366,305,761,1394,199,458,812,0.17456615,0.40215124,0.71225451,0.29082224,0.70899303,1.33518629
18035,0,USIndianaDelaware,Indiana,Delaware,2021-04-04 11:49:23.867136,2021-04-09 00:00:00.000000,0.25063132,0.67184466,1.25572377,286,766,1433,190,457,844,0.16705223,0.40100692,0.74016452,0.29078705,0.70988563,1.33544407
18035,0,USIndianaDelaware,Indiana,Delaware,2021-04-04 11:49:23.867136,2021-04-10 00:00:00.000000,0.24180242,0.67757349,1.29017216,275,773,1472,178,458,878,0.15648601,0.40194219,0.76997561,0.29078052,0.71024616,1.33552117
18035,0,USIndianaDelaware,Indiana,Delaware,2021-04-04 11:49:23.867136,2021-04-11 00:00:00.000000,0.23326375,0.68363253,1.32508230,266,780,1512,167,459,914,0.14645027,0.40248970,0.80154509,0.29077900,0.71039101,1.33554415
18035,0,USIndianaDelaware,Indiana,Delaware,2021-04-04 11:49:23.867136,2021-04-12 00:00:00.000000,0.22501295,0.68382426,1.36042607,256,780,1552,156,460,952,0.13695981,0.40387588,0.83475848,0.29077850,0.71044955,1.33555097
18035,0,USIndianaDelaware,Indiana,Delaware,2021-04-04 11:49:23.867136,2021-04-13 00:00:00.000000,0.21708917,0.67897755,1.39617354,247,774,1593,149,463,992,0.13135470,0.40583705,0.86953187,0.29077829,0.71047349,1.33555300
18035,0,USIndianaDelaware,Indiana,Delaware,2021-04-04 11:49:23.867136,2021-04-14 00:00:00.000000,0.20949844,0.67372064,1.43647820,239,768,1639,144,464,1033,0.12673923,0.40671671,0.90580836,0.29077818,0.71048342,1.33555360
18035,0,USIndianaDelaware,Indiana,Delaware,2021-04-04 11:49:23.867136,2021-04-15 00:00:00.000000,0.20216527,0.66631480,1.48016304,230,760,1689,139,464,1076,0.12227413,0.40662507,0.94355253,0.29077812,0.71048761,1.33555377
18035,0,USIndianaDelaware,Indiana,Delaware,2021-04-04 11:49:23.867136,2021-04-16 00:00:00.000000,0.19508251,0.67147110,1.52378048,222,766,1739,134,465,1118,0.11799779,0.40747700,0.98017216,0.29077809,0.71048940,1.33555382
