FIPS,HR_UID,nameid,province,region,analysisTime,dates,pointprevalence_025,pointprevalence_50,pointprevalence_975,pointinfections_025,pointinfections_50,pointinfections_975,pointinfectious_025,pointinfectious_50,pointinfectious_975,pointinfectiousprevalence_05,pointinfectiousprevalence_50,pointinfectiousprevalence_95,infectrate_025,infectrate_50,infectrate_975
36047,0,USNewYorkKings,New York,Kings,2021-04-04 08:10:38.799334,2020-03-09 00:00:00.000000,0.00808485,0.01020494,0.01339089,206,261,342,166,213,265,0.00651051,0.00833609,0.01037807,1.07332829,1.42088694,1.97004721
36047,0,USNewYorkKings,New York,Kings,2021-04-04 08:10:38.799334,2020-03-10 00:00:00.000000,0.01190015,0.01481122,0.01892004,304,379,484,174,224,284,0.00680727,0.00877378,0.01112073,1.07332822,1.42086913,1.97003951
36047,0,USNewYorkKings,New York,Kings,2021-04-04 08:10:38.799334,2020-03-11 00:00:00.000000,0.01491421,0.01871121,0.02334411,381,478,597,245,311,378,0.00959272,0.01217882,0.01477217,1.07332804,1.42082882,1.97000889
36047,0,USNewYorkKings,New York,Kings,2021-04-04 08:10:38.799334,2020-03-12 00:00:00.000000,0.01939521,0.02435691,0.02983039,496,623,763,312,399,480,0.01221634,0.01558656,0.01877495,1.07332761,1.42036740,1.96988670
36047,0,USNewYorkKings,New York,Kings,2021-04-04 08:10:38.799334,2020-03-13 00:00:00.000000,0.02482076,0.03151211,0.03792455,635,806,970,405,518,625,0.01585989,0.02027325,0.02442991,1.07332656,1.41669509,1.96939881
36047,0,USNewYorkKings,New York,Kings,2021-04-04 08:10:38.799334,2020-03-14 00:00:00.000000,0.03178995,0.04054996,0.04840816,813,1038,1239,523,669,806,0.02046834,0.02617127,0.03151125,1.07332393,1.41667995,1.96745237
36047,0,USNewYorkKings,New York,Kings,2021-04-04 08:10:38.799334,2020-03-15 00:00:00.000000,0.04095532,0.05199073,0.06222190,1048,1330,1592,676,860,1049,0.02643391,0.03363383,0.04098601,1.07331724,1.41567670,1.95973495
36047,0,USNewYorkKings,New York,Kings,2021-04-04 08:10:38.799334,2020-03-16 00:00:00.000000,0.05244031,0.06675479,0.08083505,1342,1708,2069,860,1105,1364,0.03360488,0.04318053,0.05330086,1.07329968,1.40599606,1.92991472
36047,0,USNewYorkKings,New York,Kings,2021-04-04 08:10:38.799334,2020-03-17 00:00:00.000000,0.06737088,0.08546987,0.10535712,1724,2187,2697,1092,1417,1744,0.04268121,0.05538319,0.06814724,1.07325142,1.39317556,1.82535707
36047,0,USNewYorkKings,New York,Kings,2021-04-04 08:10:38.799334,2020-03-18 00:00:00.000000,0.08613757,0.10917167,0.13674681,2205,2794,3500,1387,1806,2258,0.05419553,0.07055456,0.08820743,1.05963817,1.37646787,1.81637131
36047,0,USNewYorkKings,New York,Kings,2021-04-04 08:10:38.799334,2020-03-19 00:00:00.000000,0.10931171,0.13952259,0.17468596,2798,3571,4471,1761,2307,2898,0.06879729,0.09014923,0.11321226,1.01437134,1.32739046,1.81418932
36047,0,USNewYorkKings,New York,Kings,2021-04-04 08:10:38.799334,2020-03-20 00:00:00.000000,0.13870119,0.17750241,0.22462717,3550,4543,5750,2235,2949,3708,0.08731543,0.11521001,0.14485413,0.93723897,1.25804542,1.68702519
36047,0,USNewYorkKings,New York,Kings,2021-04-04 08:10:38.799334,2020-03-21 00:00:00.000000,0.17596733,0.22689698,0.28725249,4504,5808,7353,2836,3787,4753,0.11079818,0.14795911,0.18570067,0.89422604,1.14727413,1.62179054
36047,0,USNewYorkKings,New York,Kings,2021-04-04 08:10:38.799334,2020-03-22 00:00:00.000000,0.22321184,0.29003766,0.36723896,5714,7424,9400,3598,4852,6177,0.14057295,0.18955826,0.24131573,0.86034240,1.08176852,1.50173261
36047,0,USNewYorkKings,New York,Kings,2021-04-04 08:10:38.799334,2020-03-23 00:00:00.000000,0.28083135,0.37090773,0.46929721,7189,9494,12013,4564,6199,7854,0.17831906,0.24216451,0.30684376,0.81212859,0.98565516,1.32805118
36047,0,USNewYorkKings,New York,Kings,2021-04-04 08:10:38.799334,2020-03-24 00:00:00.000000,0.35226573,0.47196448,0.59954272,9017,12081,15347,5744,7935,10100,0.22438439,0.30998365,0.39457937,0.75898745,0.92909381,1.23771878
36047,0,USNewYorkKings,New York,Kings,2021-04-04 08:10:38.799334,2020-03-25 00:00:00.000000,0.44128082,0.59970189,0.76496459,11296,15351,19582,7205,10073,12888,0.28147729,0.39349722,0.50348710,0.72530781,0.88193871,1.18327086
36047,0,USNewYorkKings,New York,Kings,2021-04-04 08:10:38.799334,2020-03-26 00:00:00.000000,0.55641227,0.75813278,0.97776730,14243,19407,25029,9118,12782,16521,0.35619750,0.49934637,0.64540087,0.66807522,0.84709874,1.13729051
36047,0,USNewYorkKings,New York,Kings,2021-04-04 08:10:38.799334,2020-03-27 00:00:00.000000,0.70361606,0.94189935,1.20229622,18011,24111,30777,11534,16011,21163,0.45060280,0.62548110,0.82672001,0.63237599,0.81952264,1.05388767
36047,0,USNewYorkKings,New York,Kings,2021-04-04 08:10:38.799334,2020-03-28 00:00:00.000000,0.88931449,1.16118583,1.49104821,22765,29725,38169,14586,19817,26109,0.56979955,0.77416846,1.01995009,0.58798387,0.77262480,1.03510557
36047,0,USNewYorkKings,New York,Kings,2021-04-04 08:10:38.799334,2020-03-29 00:00:00.000000,1.10669176,1.40408282,1.77733948,28330,35943,45498,18435,24699,31348,0.72015719,0.96485472,1.22459051,0.53658088,0.70335758,1.00080541
36047,0,USNewYorkKings,New York,Kings,2021-04-04 08:10:38.799334,2020-03-30 00:00:00.000000,1.30165614,1.65557361,2.13298265,33321,42381,54602,22733,29694,37916,0.88807974,1.15999929,1.48118258,0.48685041,0.63850752,0.94243854
36047,0,USNewYorkKings,New York,Kings,2021-04-04 08:10:38.799334,2020-03-31 00:00:00.000000,1.50173736,1.91092775,2.47145803,38443,48917,63266,26836,34945,45307,1.04835120,1.36510343,1.76988854,0.42483047,0.56963505,0.83007121
36047,0,USNewYorkKings,New York,Kings,2021-04-04 08:10:38.799334,2020-04-01 00:00:00.000000,1.73399628,2.16888921,2.70786775,44388,55521,69318,31788,40181,52408,1.24178312,1.56964116,2.04728506,0.36818835,0.49871538,0.69748927
36047,0,USNewYorkKings,New York,Kings,2021-04-04 08:10:38.799334,2020-04-02 00:00:00.000000,1.95949450,2.35599849,2.89532392,50161,60311,74117,37049,45125,58492,1.44730052,1.76277900,2.28494575,0.25164688,0.39566688,0.55102723
36047,0,USNewYorkKings,New York,Kings,2021-04-04 08:10:38.799334,2020-04-03 00:00:00.000000,2.09762401,2.45441580,2.99304085,53697,62830,76618,40098,49185,62103,1.56640172,1.92138425,2.42601916,0.20745736,0.30362885,0.43792982
36047,0,USNewYorkKings,New York,Kings,2021-04-04 08:10:38.799334,2020-04-04 00:00:00.000000,2.17952137,2.55271740,3.04363987,55793,65347,77914,43210,51685,63905,1.68796586,2.01902912,2.49639800,0.18873436,0.25572700,0.34265107
36047,0,USNewYorkKings,New York,Kings,2021-04-04 08:10:38.799334,2020-04-05 00:00:00.000000,2.23834220,2.63277349,3.07547191,57299,67396,78729,45013,53631,64987,1.75840501,2.09505372,2.53867556,0.18010921,0.23533692,0.31327452
36047,0,USNewYorkKings,New York,Kings,2021-04-04 08:10:38.799334,2020-04-06 00:00:00.000000,2.29384487,2.65405227,3.13110200,58720,67941,80153,46034,54781,65779,1.79827778,2.13996962,2.56959840,0.17518205,0.22004227,0.28338114
36047,0,USNewYorkKings,New York,Kings,2021-04-04 08:10:38.799334,2020-04-07 00:00:00.000000,2.34698466,2.67680893,3.17356658,60080,68523,81240,47174,55474,66409,1.84284223,2.16706245,2.59420470,0.16794532,0.21244977,0.26518305
36047,0,USNewYorkKings,New York,Kings,2021-04-04 08:10:38.799334,2020-04-08 00:00:00.000000,2.37490060,2.69111770,3.19719160,60795,68890,81845,48376,56182,67029,1.88977374,2.19472500,2.61842698,0.16598193,0.20133836,0.25624045
36047,0,USNewYorkKings,New York,Kings,2021-04-04 08:10:38.799334,2020-04-09 00:00:00.000000,2.34749975,2.70284369,3.18693126,60093,69190,81582,48401,56615,68286,1.89075652,2.21162937,2.66755897,0.16397841,0.19469154,0.25478849
36047,0,USNewYorkKings,New York,Kings,2021-04-04 08:10:38.799334,2020-04-10 00:00:00.000000,2.31672536,2.70185439,3.21578036,59305,69164,82320,48080,57586,69570,1.87820602,2.24955606,2.71770508,0.15869957,0.19045871,0.25286075
36047,0,USNewYorkKings,New York,Kings,2021-04-04 08:10:38.799334,2020-04-11 00:00:00.000000,2.29303498,2.69191530,3.24687038,58699,68910,83116,47386,57434,69771,1.85108893,2.24362873,2.72557176,0.14992712,0.18134891,0.24841022
36047,0,USNewYorkKings,New York,Kings,2021-04-04 08:10:38.799334,2020-04-12 00:00:00.000000,2.25677045,2.66290511,3.23318524,57771,68167,82766,46356,57306,70529,1.81086012,2.23861514,2.75515612,0.13791293,0.17630236,0.22812428
36047,0,USNewYorkKings,New York,Kings,2021-04-04 08:10:38.799334,2020-04-13 00:00:00.000000,2.22074036,2.62785355,3.24621119,56848,67270,83099,45793,56805,71272,1.78887280,2.21903791,2.78417815,0.12842723,0.17362355,0.21701827
36047,0,USNewYorkKings,New York,Kings,2021-04-04 08:10:38.799334,2020-04-14 00:00:00.000000,2.18531839,2.59011464,3.22838422,55942,66304,82643,45158,56176,71052,1.76407968,2.19446468,2.77558561,0.12554492,0.16650586,0.20815169
36047,0,USNewYorkKings,New York,Kings,2021-04-04 08:10:38.799334,2020-04-15 00:00:00.000000,2.14977104,2.55772177,3.20108159,55032,65475,81944,44205,55428,71000,1.72683025,2.16527063,2.77355346,0.12474408,0.16205342,0.20344614
36047,0,USNewYorkKings,New York,Kings,2021-04-04 08:10:38.799334,2020-04-16 00:00:00.000000,2.11022247,2.52513738,3.17046935,54019,64641,81160,43029,54763,70511,1.68088733,2.13928754,2.75444097,0.12460806,0.15745252,0.19764443
36047,0,USNewYorkKings,New York,Kings,2021-04-04 08:10:38.799334,2020-04-17 00:00:00.000000,2.05132848,2.49243864,3.13783983,52512,63804,80325,41674,54083,69891,1.62796168,2.11271500,2.73023199,0.12536549,0.15347094,0.19183436
36047,0,USNewYorkKings,New York,Kings,2021-04-04 08:10:38.799334,2020-04-18 00:00:00.000000,1.97798430,2.45415288,3.09770724,50634,62823,79298,40239,53351,69026,1.57193086,2.08411707,2.69643796,0.12150970,0.14752621,0.18936877
36047,0,USNewYorkKings,New York,Kings,2021-04-04 08:10:38.799334,2020-04-19 00:00:00.000000,1.90603815,2.41281851,3.04963412,48792,61765,78067,38810,52525,68546,1.51609340,2.05186273,2.67770315,0.11618506,0.14247900,0.18801396
36047,0,USNewYorkKings,New York,Kings,2021-04-04 08:10:38.799334,2020-04-20 00:00:00.000000,1.83613206,2.37358467,3.02330514,47003,60761,77393,37417,51432,67830,1.46166404,2.00915474,2.64971723,0.11062993,0.14086986,0.17854109
36047,0,USNewYorkKings,New York,Kings,2021-04-04 08:10:38.799334,2020-04-21 00:00:00.000000,1.76857561,2.33051794,2.97899842,45273,59658,76259,36063,50310,66967,1.40879310,1.96533939,2.61602793,0.10879999,0.13754515,0.17842104
36047,0,USNewYorkKings,New York,Kings,2021-04-04 08:10:38.799334,2020-04-22 00:00:00.000000,1.70362560,2.27988157,2.93195419,43611,58362,75055,34944,49379,66026,1.36508419,1.92895651,2.57924201,0.10795866,0.13532275,0.17802725
36047,0,USNewYorkKings,New York,Kings,2021-04-04 08:10:38.799334,2020-04-23 00:00:00.000000,1.64102674,2.23187171,2.88235534,42008,57133,73785,33929,48449,65014,1.32540224,1.89264793,2.53971227,0.10160408,0.13419662,0.17623704
36047,0,USNewYorkKings,New York,Kings,2021-04-04 08:10:38.799334,2020-04-24 00:00:00.000000,1.58070978,2.17955566,2.82954386,40464,55794,72433,32967,47407,63940,1.28785004,1.85192055,2.49776429,0.09697103,0.13152764,0.16950001
36047,0,USNewYorkKings,New York,Kings,2021-04-04 08:10:38.799334,2020-04-25 00:00:00.000000,1.52254121,2.11743776,2.77242619,38975,54204,70971,32088,46128,62798,1.25350343,1.80196532,2.45314398,0.09469291,0.12697168,0.16787972
36047,0,USNewYorkKings,New York,Kings,2021-04-04 08:10:38.799334,2020-04-26 00:00:00.000000,1.46637311,2.06540253,2.71046477,37537,52872,69385,31259,45128,61558,1.22110811,1.76291706,2.40473771,0.09365537,0.12255315,0.16873067
36047,0,USNewYorkKings,New York,Kings,2021-04-04 08:10:38.799334,2020-04-27 00:00:00.000000,1.42734938,2.00896475,2.63382121,36538,51427,67423,30230,43939,60144,1.18094251,1.71646638,2.34949166,0.09032609,0.12145807,0.16916388
36047,0,USNewYorkKings,New York,Kings,2021-04-04 08:10:38.799334,2020-04-28 00:00:00.000000,1.37996427,1.95207013,2.55415662,35325,49971,65383,28908,42947,58380,1.12927762,1.67768460,2.28055857,0.08764410,0.11917549,0.16881361
36047,0,USNewYorkKings,New York,Kings,2021-04-04 08:10:38.799334,2020-04-29 00:00:00.000000,1.31927992,1.89270969,2.47753534,33772,48451,63422,27640,41572,56666,1.07973957,1.62397520,2.21360657,0.08565664,0.11639961,0.17190913
36047,0,USNewYorkKings,New York,Kings,2021-04-04 08:10:38.799334,2020-04-30 00:00:00.000000,1.26166477,1.82775125,2.41136535,32297,46788,61728,26430,40261,55010,1.03246535,1.57279281,2.14893796,0.08408282,0.11447204,0.17405276
36047,0,USNewYorkKings,New York,Kings,2021-04-04 08:10:38.799334,2020-05-01 00:00:00.000000,1.20731210,1.76525699,2.36820797,30906,45188,60623,25281,39172,53477,0.98760331,1.53021663,2.08902977,0.08332226,0.11377891,0.17443065
36047,0,USNewYorkKings,New York,Kings,2021-04-04 08:10:38.799334,2020-05-02 00:00:00.000000,1.15638364,1.71010287,2.31479619,29602,43776,59256,24199,37899,52528,0.94531487,1.48049599,2.05198025,0.08389585,0.11013955,0.17274394
36047,0,USNewYorkKings,New York,Kings,2021-04-04 08:10:38.799334,2020-05-03 00:00:00.000000,1.10377505,1.65261292,2.24973708,28255,42305,57591,23185,36387,51523,0.90572766,1.42144905,2.01270088,0.08226203,0.10987755,0.17246617
36047,0,USNewYorkKings,New York,Kings,2021-04-04 08:10:38.799334,2020-05-04 00:00:00.000000,1.05500204,1.59401344,2.18420342,27007,40805,55913,22240,35091,50150,0.86881305,1.37080067,1.95907528,0.08025257,0.10757152,0.17158525
36047,0,USNewYorkKings,New York,Kings,2021-04-04 08:10:38.799334,2020-05-05 00:00:00.000000,1.00871611,1.53273299,2.11989020,25822,39236,54267,21357,33903,48703,0.83429003,1.32439653,1.90255297,0.07960026,0.10547038,0.16931561
36047,0,USNewYorkKings,New York,Kings,2021-04-04 08:10:38.799334,2020-05-06 00:00:00.000000,0.96438100,1.47523521,2.05745002,24687,37764,52668,20373,32660,47286,0.79585999,1.27584030,1.84718184,0.07943233,0.10425005,0.16745339
36047,0,USNewYorkKings,New York,Kings,2021-04-04 08:10:38.799334,2020-05-07 00:00:00.000000,0.92201163,1.42242948,1.99709302,23602,36412,51123,19437,31422,45904,0.75929326,1.22749871,1.79322029,0.07938184,0.10433333,0.16663482
36047,0,USNewYorkKings,New York,Kings,2021-04-04 08:10:38.799334,2020-05-08 00:00:00.000000,0.88157154,1.37011918,1.93874619,22567,35073,49630,18565,30305,44499,0.72526129,1.18385669,1.73830875,0.07887335,0.10501215,0.16491433
36047,0,USNewYorkKings,New York,Kings,2021-04-04 08:10:38.799334,2020-05-09 00:00:00.000000,0.84297697,1.31762449,1.88217900,21579,33729,48181,17762,29206,43164,0.69388090,1.14091286,1.68616899,0.07747862,0.10429252,0.16285137
36047,0,USNewYorkKings,New York,Kings,2021-04-04 08:10:38.799334,2020-05-10 00:00:00.000000,0.80611857,1.27155295,1.82634806,20635,32550,46752,17026,28140,41930,0.66511209,1.09928078,1.63797409,0.07622441,0.10345053,0.16101974
36047,0,USNewYorkKings,New York,Kings,2021-04-04 08:10:38.799334,2020-05-11 00:00:00.000000,0.77482973,1.22928791,1.76986473,19834,31468,45306,16350,27113,40786,0.63871907,1.05914657,1.59327775,0.07105347,0.10325298,0.15968306
36047,0,USNewYorkKings,New York,Kings,2021-04-04 08:10:38.799334,2020-05-12 00:00:00.000000,0.74681250,1.18745412,1.71413441,19117,30397,43880,15727,26189,39528,0.61439567,1.02306650,1.54412924,0.07098085,0.10321814,0.15887354
36047,0,USNewYorkKings,New York,Kings,2021-04-04 08:10:38.799334,2020-05-13 00:00:00.000000,0.72138074,1.14563407,1.65978653,18466,29327,42488,15152,25300,38288,0.59191147,0.98834461,1.49568618,0.07100418,0.10307408,0.16122563
36047,0,USNewYorkKings,New York,Kings,2021-04-04 08:10:38.799334,2020-05-14 00:00:00.000000,0.69758576,1.10430447,1.60712877,17857,28269,41140,14609,24404,37082,0.57069851,0.95331967,1.44859106,0.06824532,0.10339469,0.16250016
36047,0,USNewYorkKings,New York,Kings,2021-04-04 08:10:38.799334,2020-05-15 00:00:00.000000,0.67459438,1.06402574,1.55095286,17268,27238,39702,13969,23545,35848,0.54571254,0.91976880,1.40040345,0.06950400,0.10366094,0.16310743
36047,0,USNewYorkKings,New York,Kings,2021-04-04 08:10:38.799334,2020-05-16 00:00:00.000000,0.65245316,1.02510121,1.49209362,16702,26241,38196,13349,22703,34508,0.52148373,0.88687244,1.34803633,0.07082740,0.10324848,0.16336972
36047,0,USNewYorkKings,New York,Kings,2021-04-04 08:10:38.799334,2020-05-17 00:00:00.000000,0.63102641,0.98640175,1.43575985,16153,25250,36754,12783,21896,33218,0.49935996,0.85536041,1.29764563,0.07098294,0.10392566,0.16347271
36047,0,USNewYorkKings,New York,Kings,2021-04-04 08:10:38.799334,2020-05-18 00:00:00.000000,0.61051786,0.94870823,1.38207403,15628,24286,35379,12408,21121,31982,0.48471417,0.82509048,1.24934955,0.07082458,0.10432167,0.16402215
36047,0,USNewYorkKings,New York,Kings,2021-04-04 08:10:38.799334,2020-05-19 00:00:00.000000,0.59064969,0.91331371,1.33087332,15120,23379,34069,12030,20370,30800,0.46995692,0.79574138,1.20319421,0.07001374,0.10374095,0.16482681
36047,0,USNewYorkKings,New York,Kings,2021-04-04 08:10:38.799334,2020-05-20 00:00:00.000000,0.57143770,0.88139459,1.28217533,14628,22562,32822,11651,19636,29670,0.45516951,0.76707031,1.15905183,0.06791495,0.10376276,0.16454466
36047,0,USNewYorkKings,New York,Kings,2021-04-04 08:10:38.799334,2020-05-21 00:00:00.000000,0.55286987,0.84924819,1.23605767,14152,21739,31641,11274,18915,28593,0.44043673,0.73890356,1.11696849,0.06787480,0.10193695,0.16379781
36047,0,USNewYorkKings,New York,Kings,2021-04-04 08:10:38.799334,2020-05-22 00:00:00.000000,0.53504210,0.81596164,1.19318217,13696,20887,30544,10898,18201,27571,0.42573013,0.71102430,1.07705033,0.06861276,0.10200937,0.16253972
36047,0,USNewYorkKings,New York,Kings,2021-04-04 08:10:38.799334,2020-05-23 00:00:00.000000,0.51756650,0.78519400,1.15311035,13249,20100,29518,10485,17463,26605,0.40958703,0.68218874,1.03931700,0.07001197,0.10234912,0.16315767
36047,0,USNewYorkKings,New York,Kings,2021-04-04 08:10:38.799334,2020-05-24 00:00:00.000000,0.49324371,0.75834327,1.11432823,12626,19412,28525,10003,16773,25699,0.39076968,0.65524782,1.00393346,0.07096531,0.10182530,0.16570791
36047,0,USNewYorkKings,New York,Kings,2021-04-04 08:10:38.799334,2020-05-25 00:00:00.000000,0.46954678,0.73105435,1.07693009,12019,18714,27568,9527,16177,24837,0.37219733,0.63194857,0.97026271,0.07136842,0.10069493,0.16727066
36047,0,USNewYorkKings,New York,Kings,2021-04-04 08:10:38.799334,2020-05-26 00:00:00.000000,0.44695465,0.70774247,1.04085314,11441,18117,26644,9075,15587,24006,0.35450650,0.60891130,0.93778471,0.07112839,0.09978759,0.16832786
36047,0,USNewYorkKings,New York,Kings,2021-04-04 08:10:38.799334,2020-05-27 00:00:00.000000,0.42551181,0.68248231,1.00612277,10892,17470,25755,8643,15039,23203,0.33765034,0.58751518,0.90643583,0.07028965,0.09963585,0.16754552
36047,0,USNewYorkKings,New York,Kings,2021-04-04 08:10:38.799334,2020-05-28 00:00:00.000000,0.40514363,0.65715188,0.97284672,10371,16822,24903,8232,14556,22430,0.32159467,0.56862934,0.87623601,0.06850531,0.09769742,0.16535692
36047,0,USNewYorkKings,New York,Kings,2021-04-04 08:10:38.799334,2020-05-29 00:00:00.000000,0.38578542,0.63198192,0.94108979,9875,16178,24090,7841,14083,21689,0.30630382,0.55015979,0.84728857,0.06796046,0.09743501,0.16546102
36047,0,USNewYorkKings,New York,Kings,2021-04-04 08:10:38.799334,2020-05-30 00:00:00.000000,0.36737758,0.60491321,0.91065644,9404,15485,23311,7468,13508,20982,0.29174253,0.52769515,0.81965023,0.06651108,0.09595327,0.16554520
36047,0,USNewYorkKings,New York,Kings,2021-04-04 08:10:38.799334,2020-05-31 00:00:00.000000,0.34985738,0.58150169,0.88132257,8956,14885,22561,7113,12946,20303,0.27787591,0.50575422,0.79314158,0.06456785,0.09452709,0.16553607
36047,0,USNewYorkKings,New York,Kings,2021-04-04 08:10:38.799334,2020-06-01 00:00:00.000000,0.33319298,0.55785151,0.85288659,8529,14280,21833,6775,12457,19648,0.26466358,0.48665706,0.76756256,0.06300722,0.09450885,0.17652021
36047,0,USNewYorkKings,New York,Kings,2021-04-04 08:10:38.799334,2020-06-02 00:00:00.000000,0.31716038,0.53538844,0.82534666,8118,13705,21128,6452,12024,19013,0.25206731,0.46972772,0.74275437,0.06173973,0.09185768,0.17907128
36047,0,USNewYorkKings,New York,Kings,2021-04-04 08:10:38.799334,2020-06-03 00:00:00.000000,0.30140698,0.51404451,0.79865519,7715,13159,20444,6141,11560,18398,0.23989897,0.45158642,0.71873170,0.06163446,0.09262890,0.17507603
36047,0,USNewYorkKings,New York,Kings,2021-04-04 08:10:38.799334,2020-06-04 00:00:00.000000,0.28571607,0.49381642,0.77276219,7314,12641,19781,5834,11093,17803,0.22790489,0.43337095,0.69546329,0.06102870,0.09483556,0.16919941
36047,0,USNewYorkKings,New York,Kings,2021-04-04 08:10:38.799334,2020-06-05 00:00:00.000000,0.27914097,0.47413633,0.74757159,7145,12137,19137,5610,10633,17225,0.21917503,0.41537442,0.67289791,0.06106028,0.09592895,0.16443322
36047,0,USNewYorkKings,New York,Kings,2021-04-04 08:10:38.799334,2020-06-06 00:00:00.000000,0.26374042,0.45405903,0.72302085,6751,11623,18508,5523,10168,16663,0.21577913,0.39721866,0.65094986,0.06105341,0.09477329,0.16280257
36047,0,USNewYorkKings,New York,Kings,2021-04-04 08:10:38.799334,2020-06-07 00:00:00.000000,0.25737599,0.43371754,0.69916561,6588,11102,17897,5369,9709,16116,0.20977046,0.37929283,0.62956492,0.06118392,0.09486291,0.16079659
36047,0,USNewYorkKings,New York,Kings,2021-04-04 08:10:38.799334,2020-06-08 00:00:00.000000,0.25144349,0.41469651,0.67609639,6436,10615,17307,5184,9277,15584,0.20251359,0.36241044,0.60879587,0.05994961,0.09488776,0.15869938
36047,0,USNewYorkKings,New York,Kings,2021-04-04 08:10:38.799334,2020-06-09 00:00:00.000000,0.24565606,0.39797007,0.65379593,6288,10187,16736,5064,8906,15070,0.19783473,0.34790989,0.58872317,0.05951989,0.09459836,0.15459226
36047,0,USNewYorkKings,New York,Kings,2021-04-04 08:10:38.799334,2020-06-10 00:00:00.000000,0.24001226,0.38286444,0.63222702,6144,9800,16184,4947,8554,14574,0.19325978,0.33416311,0.56932320,0.05929485,0.09533322,0.14736903
36047,0,USNewYorkKings,New York,Kings,2021-04-04 08:10:38.799334,2020-06-11 00:00:00.000000,0.23341366,0.36873719,0.61126100,5975,9439,15647,4832,8252,14093,0.18877560,0.32239366,0.55055366,0.05943966,0.09554940,0.14685126
36047,0,USNewYorkKings,New York,Kings,2021-04-04 08:10:38.799334,2020-06-12 00:00:00.000000,0.22422979,0.35551839,0.59066060,5740,9100,15120,4717,7910,13626,0.18427479,0.30903046,0.53230351,0.06021008,0.09541877,0.14696465
36047,0,USNewYorkKings,New York,Kings,2021-04-04 08:10:38.799334,2020-06-13 00:00:00.000000,0.21540320,0.34230931,0.57035904,5514,8762,14600,4573,7601,13167,0.17866355,0.29694592,0.51436751,0.06243156,0.09789691,0.14719750
36047,0,USNewYorkKings,New York,Kings,2021-04-04 08:10:38.799334,2020-06-14 00:00:00.000000,0.20692744,0.32886640,0.55054728,5297,8418,14093,4393,7331,12714,0.17161612,0.28640230,0.49669509,0.06536194,0.09783171,0.15336964
36047,0,USNewYorkKings,New York,Kings,2021-04-04 08:10:38.799334,2020-06-15 00:00:00.000000,0.19887400,0.31750232,0.53136779,5090,8127,13602,4220,7080,12273,0.16485236,0.27659712,0.47946962,0.06693126,0.09804195,0.17556123
36047,0,USNewYorkKings,New York,Kings,2021-04-04 08:10:38.799334,2020-06-16 00:00:00.000000,0.19221288,0.30636749,0.51285692,4920,7842,13128,4055,6815,11847,0.15843193,0.26625469,0.46281621,0.06758107,0.09905757,0.18661517
36047,0,USNewYorkKings,New York,Kings,2021-04-04 08:10:38.799334,2020-06-17 00:00:00.000000,0.18614312,0.29487282,0.49503060,4765,7548,12672,3921,6540,11436,0.15317161,0.25548923,0.44674532,0.06876403,0.09965168,0.18966971
36047,0,USNewYorkKings,New York,Kings,2021-04-04 08:10:38.799334,2020-06-18 00:00:00.000000,0.18041078,0.28283910,0.47789284,4618,7240,12233,3799,6289,11039,0.14841099,0.24568133,0.43125872,0.06917967,0.10213456,0.18415748
36047,0,USNewYorkKings,New York,Kings,2021-04-04 08:10:38.799334,2020-06-19 00:00:00.000000,0.17490479,0.27276814,0.46146265,4477,6982,11812,3681,6063,10658,0.14383060,0.23687124,0.41636051,0.06994031,0.10325663,0.18515496
36047,0,USNewYorkKings,New York,Kings,2021-04-04 08:10:38.799334,2020-06-20 00:00:00.000000,0.16812941,0.26359774,0.44582165,4303,6747,11412,3565,5852,10292,0.13927254,0.22861286,0.40206844,0.07155040,0.10331619,0.18634148
36047,0,USNewYorkKings,New York,Kings,2021-04-04 08:10:38.799334,2020-06-21 00:00:00.000000,0.16145607,0.25689522,0.43111920,4133,6576,11036,3417,5657,9944,0.13349310,0.22101088,0.38845482,0.07307878,0.10695110,0.19965512
36047,0,USNewYorkKings,New York,Kings,2021-04-04 08:10:38.799334,2020-06-22 00:00:00.000000,0.15528831,0.25022519,0.41744991,3975,6405,10686,3281,5496,9616,0.12816945,0.21470043,0.37565036,0.07329728,0.11172724,0.20245305
36047,0,USNewYorkKings,New York,Kings,2021-04-04 08:10:38.799334,2020-06-23 00:00:00.000000,0.14957842,0.24255355,0.40467484,3829,6209,10359,3154,5358,9311,0.12324391,0.20932941,0.36373314,0.07391636,0.11667315,0.20691468
36047,0,USNewYorkKings,New York,Kings,2021-04-04 08:10:38.799334,2020-06-24 00:00:00.000000,0.14466413,0.23495962,0.39273631,3703,6014,10053,3037,5208,9025,0.11867429,0.20347022,0.35257190,0.07402468,0.12067576,0.21286538
36047,0,USNewYorkKings,New York,Kings,2021-04-04 08:10:38.799334,2020-06-25 00:00:00.000000,0.14247214,0.23058876,0.38149737,3647,5902,9765,2935,5042,8757,0.11468517,0.19696506,0.34211183,0.07412181,0.12132818,0.21717892
36047,0,USNewYorkKings,New York,Kings,2021-04-04 08:10:38.799334,2020-06-26 00:00:00.000000,0.13850049,0.22493369,0.37081427,3545,5758,9492,2882,4896,8505,0.11261557,0.19127500,0.33224867,0.07567144,0.12328925,0.22051993
36047,0,USNewYorkKings,New York,Kings,2021-04-04 08:10:38.799334,2020-06-27 00:00:00.000000,0.13380970,0.21944287,0.36056308,3425,5617,9230,2782,4826,8264,0.10867795,0.18852728,0.32286165,0.07605552,0.12462634,0.22195345
36047,0,USNewYorkKings,New York,Kings,2021-04-04 08:10:38.799334,2020-06-28 00:00:00.000000,0.12945994,0.21448771,0.35065546,3314,5490,8976,2689,4688,8034,0.10508111,0.18315720,0.31385069,0.07656914,0.12487903,0.22839320
36047,0,USNewYorkKings,New York,Kings,2021-04-04 08:10:38.799334,2020-06-29 00:00:00.000000,0.12526818,0.20906697,0.34100035,3206,5351,8729,2603,4603,7811,0.10170342,0.17982486,0.30514680,0.07710916,0.12779390,0.23894357
36047,0,USNewYorkKings,New York,Kings,2021-04-04 08:10:38.799334,2020-06-30 00:00:00.000000,0.12643770,0.20356730,0.33160737,3236,5211,8488,2587,4498,7594,0.10107310,0.17572288,0.29667539,0.07753143,0.12941547,0.24321884
36047,0,USNewYorkKings,New York,Kings,2021-04-04 08:10:38.799334,2020-07-01 00:00:00.000000,0.12777637,0.19743005,0.32246460,3270,5054,8254,2613,4381,7383,0.10210428,0.17115779,0.28844629,0.07779497,0.13201509,0.24347677
36047,0,USNewYorkKings,New York,Kings,2021-04-04 08:10:38.799334,2020-07-02 00:00:00.000000,0.12909906,0.19261060,0.31358095,3304,4930,8027,2640,4258,7179,0.10314434,0.16634505,0.28045155,0.07812483,0.13570966,0.24242364
36047,0,USNewYorkKings,New York,Kings,2021-04-04 08:10:38.799334,2020-07-03 00:00:00.000000,0.12889786,0.18967669,0.30498888,3299,4855,7807,2666,4156,6980,0.10417583,0.16238211,0.27269342,0.08321226,0.13591500,0.24181179
36047,0,USNewYorkKings,New York,Kings,2021-04-04 08:10:38.799334,2020-07-04 00:00:00.000000,0.12484141,0.18713557,0.29679147,3195,4790,7597,2666,4071,6788,0.10415402,0.15906257,0.26519772,0.08368941,0.13725371,0.24164798
36047,0,USNewYorkKings,New York,Kings,2021-04-04 08:10:38.799334,2020-07-05 00:00:00.000000,0.12066425,0.18446598,0.28925046,3088,4722,7404,2595,3975,6605,0.10137188,0.15530696,0.25805208,0.08881668,0.14414218,0.24161417
36047,0,USNewYorkKings,New York,Kings,2021-04-04 08:10:38.799334,2020-07-06 00:00:00.000000,0.11728825,0.18057598,0.28263285,3002,4622,7235,2507,3914,6437,0.09796456,0.15293452,0.25148215,0.09296071,0.15048976,0.24258634
36047,0,USNewYorkKings,New York,Kings,2021-04-04 08:10:38.799334,2020-07-07 00:00:00.000000,0.11476582,0.17748490,0.27703097,2937,4543,7091,2438,3863,6290,0.09526426,0.15094268,0.24571427,0.09072316,0.14911247,0.24309764
36047,0,USNewYorkKings,New York,Kings,2021-04-04 08:10:38.799334,2020-07-08 00:00:00.000000,0.11331364,0.17471262,0.27188375,2900,4472,6959,2386,3798,6164,0.09324342,0.14839182,0.24081085,0.08894768,0.15084200,0.24270737
36047,0,USNewYorkKings,New York,Kings,2021-04-04 08:10:38.799334,2020-07-09 00:00:00.000000,0.11498470,0.17200840,0.26685871,2943,4403,6831,2349,3716,6048,0.09176151,0.14519220,0.23626388,0.08785544,0.15493858,0.24267906
36047,0,USNewYorkKings,New York,Kings,2021-04-04 08:10:38.799334,2020-07-10 00:00:00.000000,0.11669959,0.16989605,0.26185998,2987,4349,6703,2324,3647,5933,0.09080116,0.14250429,0.23178033,0.09715423,0.15509157,0.24405854
36047,0,USNewYorkKings,New York,Kings,2021-04-04 08:10:38.799334,2020-07-11 00:00:00.000000,0.11462788,0.16695879,0.25687969,2934,4273,6575,2317,3587,5819,0.09052995,0.14013260,0.22732785,0.09915963,0.15413466,0.24786456
36047,0,USNewYorkKings,New York,Kings,2021-04-04 08:10:38.799334,2020-07-12 00:00:00.000000,0.11299790,0.16514377,0.25193174,2892,4227,6449,2329,3544,5706,0.09098419,0.13847096,0.22292243,0.09704447,0.15723109,0.25573149
36047,0,USNewYorkKings,New York,Kings,2021-04-04 08:10:38.799334,2020-07-13 00:00:00.000000,0.11358996,0.16328965,0.24702091,2907,4180,6323,2352,3502,5595,0.09188204,0.13682387,0.21857136,0.09185872,0.15954731,0.26159736
36047,0,USNewYorkKings,New York,Kings,2021-04-04 08:10:38.799334,2020-07-14 00:00:00.000000,0.11270568,0.16104115,0.24218866,2885,4122,6199,2367,3460,5485,0.09247657,0.13517226,0.21427088,0.09761055,0.16135921,0.26455257
36047,0,USNewYorkKings,New York,Kings,2021-04-04 08:10:38.799334,2020-07-15 00:00:00.000000,0.11236538,0.15851437,0.23760905,2876,4057,6082,2351,3413,5377,0.09186160,0.13334679,0.21005192,0.10349358,0.16077346,0.27012051
36047,0,USNewYorkKings,New York,Kings,2021-04-04 08:10:38.799334,2020-07-16 00:00:00.000000,0.11221294,0.15617068,0.23392034,2872,3997,5988,2346,3361,5275,0.09166597,0.13130740,0.20606419,0.10186230,0.16034373,0.27366550
36047,0,USNewYorkKings,New York,Kings,2021-04-04 08:10:38.799334,2020-07-17 00:00:00.000000,0.11103177,0.15417503,0.23073846,2842,3946,5906,2330,3299,5193,0.09103230,0.12887798,0.20286282,0.09976553,0.15864883,0.27326488
36047,0,USNewYorkKings,New York,Kings,2021-04-04 08:10:38.799334,2020-07-18 00:00:00.000000,0.10969759,0.15353629,0.22570167,2808,3930,5777,2305,3261,5122,0.09006905,0.12740172,0.20009894,0.10066432,0.15778827,0.27069286
36047,0,USNewYorkKings,New York,Kings,2021-04-04 08:10:38.799334,2020-07-19 00:00:00.000000,0.10719437,0.15187680,0.22105914,2744,3887,5658,2281,3217,5032,0.08912007,0.12567886,0.19658703,0.10212906,0.15787810,0.26063488
36047,0,USNewYorkKings,New York,Kings,2021-04-04 08:10:38.799334,2020-07-20 00:00:00.000000,0.10477493,0.15064799,0.21643200,2682,3856,5540,2257,3221,4929,0.08816816,0.12585473,0.19256816,0.10210380,0.15725523,0.25470745
36047,0,USNewYorkKings,New York,Kings,2021-04-04 08:10:38.799334,2020-07-21 00:00:00.000000,0.10273744,0.14882739,0.21194713,2629,3809,5425,2223,3181,4825,0.08686690,0.12426538,0.18852090,0.10211747,0.15892119,0.25171082
36047,0,USNewYorkKings,New York,Kings,2021-04-04 08:10:38.799334,2020-07-22 00:00:00.000000,0.10160575,0.14602954,0.20752372,2601,3738,5312,2181,3143,4724,0.08523164,0.12280731,0.18454465,0.10217557,0.15747495,0.24642286
36047,0,USNewYorkKings,New York,Kings,2021-04-04 08:10:38.799334,2020-07-23 00:00:00.000000,0.10043809,0.14383439,0.20321550,2571,3682,5202,2127,3096,4624,0.08309616,0.12094555,0.18065373,0.10228959,0.15642366,0.24377561
36047,0,USNewYorkKings,New York,Kings,2021-04-04 08:10:38.799334,2020-07-24 00:00:00.000000,0.09734923,0.14128783,0.19958433,2492,3616,5109,2059,3055,4527,0.08047068,0.11935168,0.17687661,0.10280041,0.15689811,0.24019069
36047,0,USNewYorkKings,New York,Kings,2021-04-04 08:10:38.799334,2020-07-25 00:00:00.000000,0.09455956,0.13853755,0.19781172,2420,3546,5063,1997,3026,4435,0.07803418,0.11823864,0.17328124,0.10769113,0.15629846,0.23689816
36047,0,USNewYorkKings,New York,Kings,2021-04-04 08:10:38.799334,2020-07-26 00:00:00.000000,0.09216370,0.13658961,0.19603621,2359,3496,5018,1941,2959,4350,0.07584663,0.11559348,0.16996063,0.10892596,0.15908401,0.23643336
36047,0,USNewYorkKings,New York,Kings,2021-04-04 08:10:38.799334,2020-07-27 00:00:00.000000,0.09021772,0.13711198,0.19426198,2309,3509,4972,1894,2909,4302,0.07398958,0.11365109,0.16808787,0.10928439,0.16006626,0.23166200
36047,0,USNewYorkKings,New York,Kings,2021-04-04 08:10:38.799334,2020-07-28 00:00:00.000000,0.08885221,0.13458532,0.19234207,2274,3445,4923,1856,2883,4263,0.07250350,0.11264466,0.16656569,0.10876577,0.15933479,0.23086678
36047,0,USNewYorkKings,New York,Kings,2021-04-04 08:10:38.799334,2020-07-29 00:00:00.000000,0.08818931,0.13062938,0.19019901,2257,3343,4868,1830,2839,4221,0.07150034,0.11092428,0.16491016,0.10594787,0.15851208,0.23807311
36047,0,USNewYorkKings,New York,Kings,2021-04-04 08:10:38.799334,2020-07-30 00:00:00.000000,0.08851954,0.12847066,0.18763631,2266,3288,4803,1819,2800,4174,0.07108344,0.10939168,0.16305516,0.10696347,0.15826651,0.24273344
36047,0,USNewYorkKings,New York,Kings,2021-04-04 08:10:38.799334,2020-07-31 00:00:00.000000,0.08560723,0.12652525,0.18482551,2191,3238,4731,1759,2734,4117,0.06871996,0.10682981,0.16083596,0.10982502,0.15916010,0.25908969
36047,0,USNewYorkKings,New York,Kings,2021-04-04 08:10:38.799334,2020-08-01 00:00:00.000000,0.08210981,0.12509444,0.18197672,2101,3202,4658,1728,2685,4055,0.06750528,0.10491411,0.15842323,0.11150888,0.16044386,0.26926830
36047,0,USNewYorkKings,New York,Kings,2021-04-04 08:10:38.799334,2020-08-02 00:00:00.000000,0.08029346,0.12466966,0.17916778,2055,3191,4586,1711,2663,3993,0.06684893,0.10402838,0.15601714,0.11279267,0.16168245,0.24339777
36047,0,USNewYorkKings,New York,Kings,2021-04-04 08:10:38.799334,2020-08-03 00:00:00.000000,0.07965961,0.12377345,0.17637751,2039,3168,4515,1693,2645,3933,0.06613673,0.10335727,0.15365747,0.11295065,0.16349526,0.24626657
36047,0,USNewYorkKings,New York,Kings,2021-04-04 08:10:38.799334,2020-08-04 00:00:00.000000,0.07936929,0.12241433,0.17365210,2031,3133,4445,1681,2616,3873,0.06566951,0.10222729,0.15130127,0.11299134,0.16397542,0.25229762
36047,0,USNewYorkKings,New York,Kings,2021-04-04 08:10:38.799334,2020-08-05 00:00:00.000000,0.07953087,0.12084431,0.17098202,2035,3093,4376,1673,2591,3814,0.06536856,0.10122059,0.14899188,0.11312920,0.16710589,0.25383831
36047,0,USNewYorkKings,New York,Kings,2021-04-04 08:10:38.799334,2020-08-06 00:00:00.000000,0.07978487,0.11981020,0.16836761,2042,3067,4310,1648,2581,3756,0.06441159,0.10084222,0.14672571,0.11295565,0.16848221,0.25278926
36047,0,USNewYorkKings,New York,Kings,2021-04-04 08:10:38.799334,2020-08-07 00:00:00.000000,0.07945125,0.11843524,0.16773645,2033,3031,4293,1625,2555,3699,0.06348746,0.09983783,0.14450018,0.11293622,0.16860774,0.25059477
36047,0,USNewYorkKings,New York,Kings,2021-04-04 08:10:38.799334,2020-08-08 00:00:00.000000,0.07978512,0.11687924,0.16719507,2042,2991,4280,1604,2523,3654,0.06267456,0.09856241,0.14276767,0.11315982,0.16889289,0.25509696
36047,0,USNewYorkKings,New York,Kings,2021-04-04 08:10:38.799334,2020-08-09 00:00:00.000000,0.08007739,0.11570030,0.16699159,2049,2961,4274,1610,2500,3646,0.06291832,0.09766460,0.14246501,0.11391406,0.16935601,0.26125960
36047,0,USNewYorkKings,New York,Kings,2021-04-04 08:10:38.799334,2020-08-10 00:00:00.000000,0.08022204,0.11502136,0.16835345,2053,2944,4309,1616,2482,3643,0.06314062,0.09697700,0.14233908,0.11458912,0.16941277,0.26465600
36047,0,USNewYorkKings,New York,Kings,2021-04-04 08:10:38.799334,2020-08-11 00:00:00.000000,0.08036355,0.11407815,0.17050527,2057,2920,4364,1618,2470,3645,0.06323356,0.09650663,0.14238930,0.12087309,0.16936932,0.26292273
36047,0,USNewYorkKings,New York,Kings,2021-04-04 08:10:38.799334,2020-08-12 00:00:00.000000,0.08049087,0.11379527,0.16906456,2060,2913,4327,1621,2450,3666,0.06333575,0.09574178,0.14324534,0.12754619,0.17130137,0.26429160
36047,0,USNewYorkKings,New York,Kings,2021-04-04 08:10:38.799334,2020-08-13 00:00:00.000000,0.08062617,0.11318185,0.16790626,2063,2897,4298,1624,2425,3738,0.06344043,0.09474876,0.14604403,0.12773457,0.17580995,0.26689577
36047,0,USNewYorkKings,New York,Kings,2021-04-04 08:10:38.799334,2020-08-14 00:00:00.000000,0.08076640,0.11236183,0.16789795,2067,2876,4298,1626,2415,3713,0.06354992,0.09434340,0.14506096,0.13096228,0.17943176,0.26632768
36047,0,USNewYorkKings,New York,Kings,2021-04-04 08:10:38.799334,2020-08-15 00:00:00.000000,0.08090517,0.11181325,0.16780284,2071,2862,4295,1629,2405,3695,0.06366251,0.09396250,0.14436942,0.12944048,0.17818348,0.26645760
36047,0,USNewYorkKings,New York,Kings,2021-04-04 08:10:38.799334,2020-08-16 00:00:00.000000,0.08103262,0.11145384,0.16826730,2074,2853,4307,1632,2397,3685,0.06377244,0.09363821,0.14398388,0.13238094,0.17955385,0.26663820
36047,0,USNewYorkKings,New York,Kings,2021-04-04 08:10:38.799334,2020-08-17 00:00:00.000000,0.08118539,0.11071245,0.16890602,2078,2834,4323,1635,2382,3683,0.06387149,0.09307165,0.14389452,0.13384186,0.18428830,0.26495472
36047,0,USNewYorkKings,New York,Kings,2021-04-04 08:10:38.799334,2020-08-18 00:00:00.000000,0.08109032,0.11002989,0.17092364,2075,2816,4375,1638,2359,3723,0.06399546,0.09218695,0.14545502,0.13467758,0.18740782,0.26024931
36047,0,USNewYorkKings,New York,Kings,2021-04-04 08:10:38.799334,2020-08-19 00:00:00.000000,0.08137820,0.10895753,0.17311479,2083,2789,4431,1654,2343,3767,0.06463529,0.09154265,0.14717063,0.13768536,0.18952761,0.25841052
36047,0,USNewYorkKings,New York,Kings,2021-04-04 08:10:38.799334,2020-08-20 00:00:00.000000,0.08141991,0.10900067,0.17544662,2084,2790,4491,1663,2329,3814,0.06498887,0.09100095,0.14902067,0.13967735,0.18926833,0.26578883
36047,0,USNewYorkKings,New York,Kings,2021-04-04 08:10:38.799334,2020-08-21 00:00:00.000000,0.08119893,0.10916035,0.17788214,2078,2794,4553,1656,2309,3865,0.06472748,0.09021704,0.15099164,0.14075439,0.18923422,0.27467966
36047,0,USNewYorkKings,New York,Kings,2021-04-04 08:10:38.799334,2020-08-22 00:00:00.000000,0.08083252,0.10931095,0.18042345,2069,2798,4618,1657,2299,3918,0.06475605,0.08982180,0.15305501,0.14448642,0.19254172,0.27588364
36047,0,USNewYorkKings,New York,Kings,2021-04-04 08:10:38.799334,2020-08-23 00:00:00.000000,0.08043841,0.11028284,0.18312876,2059,2823,4687,1646,2316,3973,0.06429954,0.09048645,0.15521414,0.14441457,0.19647359,0.27022404
36047,0,USNewYorkKings,New York,Kings,2021-04-04 08:10:38.799334,2020-08-24 00:00:00.000000,0.08006992,0.11194112,0.18225723,2049,2865,4665,1635,2336,3986,0.06390705,0.09129068,0.15571990,0.14199854,0.19768427,0.27346297
36047,0,USNewYorkKings,New York,Kings,2021-04-04 08:10:38.799334,2020-08-25 00:00:00.000000,0.08129722,0.11389151,0.17873885,2081,2915,4575,1637,2363,3913,0.06397165,0.09233649,0.15288595,0.14041874,0.20169228,0.28743227
36047,0,USNewYorkKings,New York,Kings,2021-04-04 08:10:38.799334,2020-08-26 00:00:00.000000,0.08104667,0.11589150,0.17535928,2074,2966,4489,1670,2396,3843,0.06525349,0.09359997,0.15015134,0.14319942,0.20601859,0.28720733
36047,0,USNewYorkKings,New York,Kings,2021-04-04 08:10:38.799334,2020-08-27 00:00:00.000000,0.08079166,0.11659355,0.17199677,2068,2984,4402,1635,2432,3775,0.06388911,0.09500844,0.14747021,0.14400407,0.20770195,0.28849334
36047,0,USNewYorkKings,New York,Kings,2021-04-04 08:10:38.799334,2020-08-28 00:00:00.000000,0.08208196,0.11668369,0.16848730,2101,2986,4313,1633,2473,3705,0.06380925,0.09661530,0.14474839,0.14505122,0.21034703,0.29817260
36047,0,USNewYorkKings,New York,Kings,2021-04-04 08:10:38.799334,2020-08-29 00:00:00.000000,0.08250915,0.11710702,0.16480246,2112,2997,4218,1658,2470,3631,0.06478785,0.09651060,0.14187086,0.14643391,0.21381927,0.30270700
36047,0,USNewYorkKings,New York,Kings,2021-04-04 08:10:38.799334,2020-08-30 00:00:00.000000,0.08218237,0.11817871,0.16299787,2103,3025,4172,1652,2492,3553,0.06453614,0.09736830,0.13882923,0.14825725,0.21689541,0.30607739
36047,0,USNewYorkKings,New York,Kings,2021-04-04 08:10:38.799334,2020-08-31 00:00:00.000000,0.08239208,0.11993455,0.16478600,2109,3070,4218,1647,2522,3519,0.06435142,0.09853275,0.13747144,0.14967257,0.22001064,0.32267093
36047,0,USNewYorkKings,New York,Kings,2021-04-04 08:10:38.799334,2020-09-01 00:00:00.000000,0.08297435,0.12238787,0.16812134,2124,3133,4303,1643,2556,3565,0.06421485,0.09986980,0.13926537,0.15119803,0.22402464,0.32937182
36047,0,USNewYorkKings,New York,Kings,2021-04-04 08:10:38.799334,2020-09-02 00:00:00.000000,0.08378678,0.12454850,0.17148493,2144,3188,4389,1644,2612,3636,0.06423511,0.10206466,0.14205762,0.15465920,0.22607932,0.33172773
36047,0,USNewYorkKings,New York,Kings,2021-04-04 08:10:38.799334,2020-09-03 00:00:00.000000,0.08567692,0.12711581,0.17488944,2193,3254,4476,1650,2640,3708,0.06446875,0.10314736,0.14488819,0.15827959,0.22903275,0.33251485
36047,0,USNewYorkKings,New York,Kings,2021-04-04 08:10:38.799334,2020-09-04 00:00:00.000000,0.08702531,0.12979052,0.17832519,2227,3322,4564,1718,2701,3782,0.06714195,0.10551599,0.14775485,0.16503065,0.23487946,0.33271917
36047,0,USNewYorkKings,New York,Kings,2021-04-04 08:10:38.799334,2020-09-05 00:00:00.000000,0.09116135,0.13347736,0.18398610,2333,3416,4709,1791,2764,3856,0.06996390,0.10800549,0.15064880,0.17242464,0.23754882,0.35657628
36047,0,USNewYorkKings,New York,Kings,2021-04-04 08:10:38.799334,2020-09-06 00:00:00.000000,0.09564568,0.13655342,0.19129540,2448,3495,4896,1867,2821,3939,0.07293604,0.11021046,0.15389541,0.17065996,0.24266751,0.36074986
36047,0,USNewYorkKings,New York,Kings,2021-04-04 08:10:38.799334,2020-09-07 00:00:00.000000,0.09755521,0.13789491,0.19234398,2497,3529,4923,1947,2887,4093,0.07607059,0.11281667,0.15991107,0.17037886,0.24791057,0.36732757
36047,0,USNewYorkKings,New York,Kings,2021-04-04 08:10:38.799334,2020-09-08 00:00:00.000000,0.09965363,0.14029363,0.19326754,2551,3591,4947,1996,2935,4240,0.07799974,0.11465491,0.16564817,0.17185559,0.24982774,0.36993916
36047,0,USNewYorkKings,New York,Kings,2021-04-04 08:10:38.799334,2020-09-09 00:00:00.000000,0.10194278,0.14432724,0.20584401,2609,3694,5269,2036,3019,4249,0.07954764,0.11796916,0.16601016,0.18548740,0.25454915,0.37006380
36047,0,USNewYorkKings,New York,Kings,2021-04-04 08:10:38.799334,2020-09-10 00:00:00.000000,0.10438320,0.14765503,0.21917729,2672,3779,5610,2076,3093,4522,0.08112594,0.12085234,0.17665994,0.18659607,0.25592331,0.37026594
36047,0,USNewYorkKings,New York,Kings,2021-04-04 08:10:38.799334,2020-09-11 00:00:00.000000,0.10688799,0.15017889,0.23327594,2736,3844,5971,2118,3155,4812,0.08274293,0.12325139,0.18798381,0.19696836,0.26061151,0.38996193
36047,0,USNewYorkKings,New York,Kings,2021-04-04 08:10:38.799334,2020-09-12 00:00:00.000000,0.10904274,0.15379895,0.24719599,2791,3937,6327,2160,3215,5043,0.08440435,0.12560278,0.19701868,0.20033797,0.26598499,0.39717726
36047,0,USNewYorkKings,New York,Kings,2021-04-04 08:10:38.799334,2020-09-13 00:00:00.000000,0.11127406,0.15924011,0.26091006,2848,4076,6679,2204,3287,5299,0.08610288,0.12841335,0.20700895,0.20153620,0.27403871,0.39848981
36047,0,USNewYorkKings,New York,Kings,2021-04-04 08:10:38.799334,2020-09-14 00:00:00.000000,0.11363867,0.16508689,0.27504800,2909,4226,7040,2249,3360,5581,0.08786515,0.13128405,0.21804932,0.20740581,0.28044062,0.39921442
36047,0,USNewYorkKings,New York,Kings,2021-04-04 08:10:38.799334,2020-09-15 00:00:00.000000,0.11794367,0.17052748,0.28687615,3019,4365,7343,2297,3493,5888,0.08974329,0.13647239,0.23003874,0.20810193,0.28410721,0.40149760
36047,0,USNewYorkKings,New York,Kings,2021-04-04 08:10:38.799334,2020-09-16 00:00:00.000000,0.12272206,0.17679728,0.29266819,3141,4525,7492,2381,3657,6214,0.09303886,0.14288921,0.24278253,0.20956861,0.28474907,0.40835082
36047,0,USNewYorkKings,New York,Kings,2021-04-04 08:10:38.799334,2020-09-17 00:00:00.000000,0.12872898,0.18257106,0.29880526,3295,4673,7649,2494,3756,6503,0.09746384,0.14675408,0.25404740,0.21365938,0.28619946,0.40796901
36047,0,USNewYorkKings,New York,Kings,2021-04-04 08:10:38.799334,2020-09-18 00:00:00.000000,0.13566468,0.19169160,0.30551105,3472,4907,7820,2621,3888,6641,0.10241218,0.15190385,0.25942458,0.21636006,0.28731442,0.40366219
36047,0,USNewYorkKings,New York,Kings,2021-04-04 08:10:38.799334,2020-09-19 00:00:00.000000,0.14288621,0.20045414,0.31313733,3657,5131,8016,2715,4018,6792,0.10609766,0.15696766,0.26532560,0.21817459,0.28659342,0.39984361
36047,0,USNewYorkKings,New York,Kings,2021-04-04 08:10:38.799334,2020-09-20 00:00:00.000000,0.15057189,0.20816019,0.32203444,3854,5328,8243,2797,4184,6962,0.10926559,0.16345678,0.27199021,0.21972629,0.28896079,0.40380028
36047,0,USNewYorkKings,New York,Kings,2021-04-04 08:10:38.799334,2020-09-21 00:00:00.000000,0.15876437,0.21744096,0.33230400,4064,5566,8506,2934,4407,7161,0.11465189,0.17218897,0.27974858,0.22092116,0.29581038,0.40566183
36047,0,USNewYorkKings,New York,Kings,2021-04-04 08:10:38.799334,2020-09-22 00:00:00.000000,0.16470267,0.22549512,0.34381939,4216,5772,8801,3133,4606,7389,0.12240843,0.17993317,0.28866130,0.22274004,0.29989415,0.41225458
36047,0,USNewYorkKings,New York,Kings,2021-04-04 08:10:38.799334,2020-09-23 00:00:00.000000,0.17252145,0.23683709,0.35629567,4416,6062,9120,3380,4834,7643,0.13206441,0.18885873,0.29859035,0.22565893,0.30233572,0.41241509
36047,0,USNewYorkKings,New York,Kings,2021-04-04 08:10:38.799334,2020-09-24 00:00:00.000000,0.17618046,0.24522626,0.36947406,4510,6277,9458,3470,5044,7917,0.13557102,0.19706781,0.30929253,0.23165789,0.30259832,0.41228087
36047,0,USNewYorkKings,New York,Kings,2021-04-04 08:10:38.799334,2020-09-25 00:00:00.000000,0.18044289,0.25450320,0.37523688,4619,6515,9605,3617,5240,8136,0.14131495,0.20473093,0.31783685,0.23157934,0.30327498,0.41379501
36047,0,USNewYorkKings,New York,Kings,2021-04-04 08:10:38.799334,2020-09-26 00:00:00.000000,0.18552984,0.26614104,0.37977107,4749,6812,9721,3808,5443,8244,0.14877482,0.21263704,0.32204851,0.23147248,0.30003200,0.40886875
36047,0,USNewYorkKings,New York,Kings,2021-04-04 08:10:38.799334,2020-09-27 00:00:00.000000,0.19140505,0.27608156,0.38392098,4899,7067,9828,3972,5681,8343,0.15519929,0.22195002,0.32592923,0.23142475,0.29897326,0.41010233
36047,0,USNewYorkKings,New York,Kings,2021-04-04 08:10:38.799334,2020-09-28 00:00:00.000000,0.19803054,0.28523095,0.39489175,5069,7301,10108,4096,5914,8438,0.16004311,0.23103279,0.32962724,0.22750393,0.29790593,0.41078698
36047,0,USNewYorkKings,New York,Kings,2021-04-04 08:10:38.799334,2020-09-29 00:00:00.000000,0.20575017,0.29645433,0.41264021,5267,7588,10563,4237,6177,8555,0.16553407,0.24130339,0.33422228,0.22810346,0.29444696,0.41037433
36047,0,USNewYorkKings,New York,Kings,2021-04-04 08:10:38.799334,2020-09-30 00:00:00.000000,0.21769919,0.30734562,0.42176050,5572,7867,10796,4390,6378,8900,0.17151340,0.24918581,0.34769781,0.22932775,0.29233208,0.40774231
36047,0,USNewYorkKings,New York,Kings,2021-04-04 08:10:38.799334,2020-10-01 00:00:00.000000,0.23021304,0.32009040,0.42801616,5893,8194,10956,4555,6626,9034,0.17796072,0.25886343,0.35290537,0.22865366,0.28756401,0.39794606
36047,0,USNewYorkKings,New York,Kings,2021-04-04 08:10:38.799334,2020-10-02 00:00:00.000000,0.24317209,0.33190783,0.43437670,6224,8496,11119,4812,6922,9169,0.18800878,0.27042882,0.35818786,0.22059180,0.28562935,0.37203589
36047,0,USNewYorkKings,New York,Kings,2021-04-04 08:10:38.799334,2020-10-03 00:00:00.000000,0.25657350,0.34391743,0.44943316,6568,8803,11505,5080,7136,9306,0.19847915,0.27877264,0.36354633,0.21564342,0.28005489,0.36724705
36047,0,USNewYorkKings,New York,Kings,2021-04-04 08:10:38.799334,2020-10-04 00:00:00.000000,0.27047842,0.35503542,0.46980134,6923,9088,12026,5342,7417,9636,0.20871360,0.28973783,0.37643120,0.21013911,0.27584424,0.36349595
36047,0,USNewYorkKings,New York,Kings,2021-04-04 08:10:38.799334,2020-10-05 00:00:00.000000,0.28091921,0.36337161,0.48577402,7191,9301,12435,5530,7619,9880,0.21604552,0.29765447,0.38598467,0.19774763,0.27299476,0.35720205
36047,0,USNewYorkKings,New York,Kings,2021-04-04 08:10:38.799334,2020-10-06 00:00:00.000000,0.29361860,0.37078188,0.49617000,7516,9491,12701,5764,7814,10061,0.22517128,0.30526440,0.39305657,0.19339995,0.26322812,0.35385788
36047,0,USNewYorkKings,New York,Kings,2021-04-04 08:10:38.799334,2020-10-07 00:00:00.000000,0.29633924,0.38147234,0.50357381,7585,9765,12891,6023,7986,10337,0.23528771,0.31198115,0.40382562,0.19237585,0.26123659,0.35633610
36047,0,USNewYorkKings,New York,Kings,2021-04-04 08:10:38.799334,2020-10-08 00:00:00.000000,0.30700835,0.39565690,0.50942468,7859,10128,13040,6236,8154,10701,0.24363822,0.31856037,0.41803809,0.19138053,0.25735283,0.35539289
36047,0,USNewYorkKings,New York,Kings,2021-04-04 08:10:38.799334,2020-10-09 00:00:00.000000,0.31549637,0.40588181,0.52216794,8076,10390,13366,6378,8433,11026,0.24915107,0.32945787,0.43072119,0.18598586,0.25212227,0.34386707
36047,0,USNewYorkKings,New York,Kings,2021-04-04 08:10:38.799334,2020-10-10 00:00:00.000000,0.31730084,0.41136096,0.53347697,8122,10530,13656,6459,8560,11311,0.25234231,0.33440913,0.44185391,0.18204915,0.23722608,0.30815951
36047,0,USNewYorkKings,New York,Kings,2021-04-04 08:10:38.799334,2020-10-11 00:00:00.000000,0.31798722,0.41488529,0.54189319,8140,10620,13871,6485,8701,11558,0.25334578,0.33992577,0.45152734,0.18065113,0.23332315,0.28450870
36047,0,USNewYorkKings,New York,Kings,2021-04-04 08:10:38.799334,2020-10-12 00:00:00.000000,0.31813889,0.42014686,0.54575125,8144,10755,13970,6497,8793,11769,0.25382013,0.34351883,0.45974899,0.17898247,0.22894260,0.27949171
36047,0,USNewYorkKings,New York,Kings,2021-04-04 08:10:38.799334,2020-10-13 00:00:00.000000,0.31799693,0.42213004,0.54919756,8140,10806,14058,6503,8800,11936,0.25404741,0.34378733,0.46628341,0.16463177,0.22704435,0.27630944
36047,0,USNewYorkKings,New York,Kings,2021-04-04 08:10:38.799334,2020-10-14 00:00:00.000000,0.31785798,0.42493497,0.55243871,8136,10877,14141,6508,8867,12039,0.25425636,0.34640944,0.47032228,0.16376618,0.22333902,0.27166204
36047,0,USNewYorkKings,New York,Kings,2021-04-04 08:10:38.799334,2020-10-15 00:00:00.000000,0.31782780,0.42558808,0.55562607,8136,10894,14223,6513,9012,12101,0.25443590,0.35204641,0.47271632,0.16632648,0.22571835,0.26727805
36047,0,USNewYorkKings,New York,Kings,2021-04-04 08:10:38.799334,2020-10-16 00:00:00.000000,0.31795079,0.43018092,0.55882252,8139,11012,14305,6517,9088,12146,0.25461595,0.35504321,0.47447307,0.16726952,0.22229538,0.27355817
36047,0,USNewYorkKings,New York,Kings,2021-04-04 08:10:38.799334,2020-10-17 00:00:00.000000,0.31822643,0.43268486,0.56198943,8146,11076,14386,6523,9117,12184,0.25482675,0.35615219,0.47597215,0.17074048,0.21730742,0.28065443
36047,0,USNewYorkKings,New York,Kings,2021-04-04 08:10:38.799334,2020-10-18 00:00:00.000000,0.31886707,0.43618437,0.56320556,8162,11165,14417,6531,9161,12219,0.25513971,0.35787966,0.47734421,0.17140049,0.21250360,0.27100815
36047,0,USNewYorkKings,New York,Kings,2021-04-04 08:10:38.799334,2020-10-19 00:00:00.000000,0.32044508,0.43896452,0.56419806,8203,11237,14442,6546,9209,12252,0.25574009,0.35974733,0.47865077,0.15966980,0.21545782,0.26178017
36047,0,USNewYorkKings,New York,Kings,2021-04-04 08:10:38.799334,2020-10-20 00:00:00.000000,0.32310481,0.44241247,0.56681202,8271,11325,14509,6579,9251,12279,0.25703566,0.36141444,0.47967360,0.15113985,0.21611591,0.26978181
36047,0,USNewYorkKings,New York,Kings,2021-04-04 08:10:38.799334,2020-10-21 00:00:00.000000,0.32587702,0.44483005,0.56914474,8342,11387,14569,6574,9305,12306,0.25683852,0.36349823,0.48072491,0.15174646,0.21622350,0.27652364
36047,0,USNewYorkKings,New York,Kings,2021-04-04 08:10:38.799334,2020-10-22 00:00:00.000000,0.32691582,0.44979964,0.57068969,8368,11514,14609,6572,9404,12345,0.25673948,0.36737105,0.48225159,0.17067630,0.21796734,0.27744420
36047,0,USNewYorkKings,New York,Kings,2021-04-04 08:10:38.799334,2020-10-23 00:00:00.000000,0.33261540,0.45589787,0.57387676,8514,11670,14690,6574,9489,12497,0.25681348,0.37070388,0.48820854,0.17201781,0.22009037,0.27749095
36047,0,USNewYorkKings,New York,Kings,2021-04-04 08:10:38.799334,2020-10-24 00:00:00.000000,0.33784641,0.45805926,0.57888918,8648,11725,14819,6590,9659,12617,0.25745503,0.37732708,0.49287960,0.17418647,0.21864946,0.28591218
36047,0,USNewYorkKings,New York,Kings,2021-04-04 08:10:38.799334,2020-10-25 00:00:00.000000,0.33976329,0.46308314,0.58323991,8697,11854,14930,6716,9730,12728,0.26235412,0.38013098,0.49721076,0.17729786,0.22115045,0.29463716
36047,0,USNewYorkKings,New York,Kings,2021-04-04 08:10:38.799334,2020-10-26 00:00:00.000000,0.34070828,0.46414823,0.58829111,8721,11881,15059,6850,9747,12832,0.26760165,0.38076566,0.50129297,0.17814967,0.22184227,0.30251246
36047,0,USNewYorkKings,New York,Kings,2021-04-04 08:10:38.799334,2020-10-27 00:00:00.000000,0.34197715,0.46971732,0.59409661,8754,12024,15208,6987,9876,12950,0.27294843,0.38581116,0.50588237,0.17931979,0.22280213,0.31473187
36047,0,USNewYorkKings,New York,Kings,2021-04-04 08:10:38.799334,2020-10-28 00:00:00.000000,0.34980000,0.47370386,0.59793882,8954,12126,15306,6999,9965,13044,0.27342357,0.38930753,0.50955549,0.18168346,0.22836590,0.32390312
36047,0,USNewYorkKings,New York,Kings,2021-04-04 08:10:38.799334,2020-10-29 00:00:00.000000,0.35814642,0.47929809,0.60042710,9168,12269,15370,7093,10106,13074,0.27709720,0.39481906,0.51075992,0.18647024,0.23300191,0.33235559
36047,0,USNewYorkKings,New York,Kings,2021-04-04 08:10:38.799334,2020-10-30 00:00:00.000000,0.36681369,0.48888374,0.60940725,9390,12514,15600,7261,10316,13130,0.28367508,0.40300645,0.51293659,0.19343512,0.23872123,0.32153272
36047,0,USNewYorkKings,New York,Kings,2021-04-04 08:10:38.799334,2020-10-31 00:00:00.000000,0.37577404,0.49762474,0.62539924,9619,12738,16009,7435,10440,13270,0.29047949,0.40785083,0.51839721,0.19762743,0.24251178,0.32181623
36047,0,USNewYorkKings,New York,Kings,2021-04-04 08:10:38.799334,2020-11-01 00:00:00.000000,0.38505751,0.50749061,0.64039071,9857,12991,16393,7616,10649,13600,0.29752026,0.41599675,0.53130467,0.20039414,0.24632551,0.32229746
36047,0,USNewYorkKings,New York,Kings,2021-04-04 08:10:38.799334,2020-11-02 00:00:00.000000,0.39471310,0.51760944,0.65320329,10104,13250,16721,7803,10838,13953,0.30483168,0.42340785,0.54508336,0.20112619,0.25083958,0.32695310
36047,0,USNewYorkKings,New York,Kings,2021-04-04 08:10:38.799334,2020-11-03 00:00:00.000000,0.40503945,0.52558420,0.66706094,10368,13454,17076,7927,11005,14312,0.30968458,0.42990571,0.55911994,0.20299118,0.25849726,0.33093921
36047,0,USNewYorkKings,New York,Kings,2021-04-04 08:10:38.799334,2020-11-04 00:00:00.000000,0.41660732,0.53324194,0.68202350,10664,13650,17459,8050,11159,14679,0.31447594,0.43592260,0.57343486,0.20902884,0.26159916,0.33291344
36047,0,USNewYorkKings,New York,Kings,2021-04-04 08:10:38.799334,2020-11-05 00:00:00.000000,0.42817813,0.54897057,0.69813079,10960,14053,17871,8177,11331,15012,0.31943976,0.44267170,0.58645954,0.21259411,0.26179174,0.34788422
36047,0,USNewYorkKings,New York,Kings,2021-04-04 08:10:38.799334,2020-11-06 00:00:00.000000,0.43661710,0.56429420,0.71530939,11176,14445,18311,8315,11627,15364,0.32483182,0.45420472,0.60018035,0.21388278,0.26254903,0.35802338
36047,0,USNewYorkKings,New York,Kings,2021-04-04 08:10:38.799334,2020-11-07 00:00:00.000000,0.44809513,0.57913188,0.73337979,11470,14825,18773,8627,11974,15738,0.33701403,0.46779029,0.61480931,0.21767429,0.27417301,0.37416422
36047,0,USNewYorkKings,New York,Kings,2021-04-04 08:10:38.799334,2020-11-08 00:00:00.000000,0.46311215,0.59977511,0.75214246,11855,15353,19254,9207,12314,16132,0.35967485,0.48104801,0.63018451,0.22240577,0.27854933,0.38816626
36047,0,USNewYorkKings,New York,Kings,2021-04-04 08:10:38.799334,2020-11-09 00:00:00.000000,0.48334225,0.61798072,0.77661697,12373,15819,19880,9505,12675,16540,0.37131503,0.49516505,0.64614164,0.22586633,0.28141525,0.38793974
36047,0,USNewYorkKings,New York,Kings,2021-04-04 08:10:38.799334,2020-11-10 00:00:00.000000,0.50321922,0.63842516,0.80914107,12881,16343,20713,9935,13158,16960,0.38813516,0.51400502,0.66254744,0.22872881,0.28384776,0.38098533
36047,0,USNewYorkKings,New York,Kings,2021-04-04 08:10:38.799334,2020-11-11 00:00:00.000000,0.52451104,0.65687041,0.83608148,13426,16815,21402,10478,13598,17391,0.40933618,0.53120618,0.67937128,0.23074632,0.28616995,0.37776927
36047,0,USNewYorkKings,New York,Kings,2021-04-04 08:10:38.799334,2020-11-12 00:00:00.000000,0.54294638,0.67832036,0.85959064,13898,17364,22004,10866,14015,17855,0.42448037,0.54748406,0.69749810,0.23199016,0.28682436,0.37354654
36047,0,USNewYorkKings,New York,Kings,2021-04-04 08:10:38.799334,2020-11-13 00:00:00.000000,0.56294160,0.70350084,0.88387829,14410,18008,22626,11126,14530,18458,0.43464862,0.56761626,0.72107042,0.22958673,0.29275704,0.37225419
36047,0,USNewYorkKings,New York,Kings,2021-04-04 08:10:38.799334,2020-11-14 00:00:00.000000,0.59009097,0.72720916,0.90902616,15105,18615,23270,11560,15051,19053,0.45159915,0.58798424,0.74432293,0.23044073,0.28954995,0.37826071
36047,0,USNewYorkKings,New York,Kings,2021-04-04 08:10:38.799334,2020-11-15 00:00:00.000000,0.62167256,0.75515245,0.93504878,15914,19331,23936,12138,15496,19657,0.47417582,0.60533801,0.76789818,0.23300546,0.29074942,0.37851793
36047,0,USNewYorkKings,New York,Kings,2021-04-04 08:10:38.799334,2020-11-16 00:00:00.000000,0.64214774,0.78191373,0.96513960,16438,20016,24706,12689,16180,20274,0.49571181,0.63206475,0.79200096,0.22997366,0.29139253,0.37622725
36047,0,USNewYorkKings,New York,Kings,2021-04-04 08:10:38.799334,2020-11-17 00:00:00.000000,0.67364850,0.80794712,1.00843674,17244,20682,25815,13051,16711,20900,0.50986277,0.65282823,0.81646196,0.22898467,0.29185035,0.38583377
36047,0,USNewYorkKings,New York,Kings,2021-04-04 08:10:38.799334,2020-11-18 00:00:00.000000,0.68576257,0.83717297,1.04518232,17554,21430,26755,13414,17403,21563,0.52403423,0.67984882,0.84235265,0.22906230,0.28846824,0.38624783
36047,0,USNewYorkKings,New York,Kings,2021-04-04 08:10:38.799334,2020-11-19 00:00:00.000000,0.69746239,0.86071329,1.07717803,17854,22033,27574,13824,17769,22236,0.54005472,0.69414180,0.86866287,0.23085285,0.29505958,0.38442267
36047,0,USNewYorkKings,New York,Kings,2021-04-04 08:10:38.799334,2020-11-20 00:00:00.000000,0.71498188,0.89160079,1.11055100,18302,22824,28429,14232,18200,22929,0.55596393,0.71099806,0.89572431,0.22955836,0.29473428,0.37516995
36047,0,USNewYorkKings,New York,Kings,2021-04-04 08:10:38.799334,2020-11-21 00:00:00.000000,0.72668497,0.92346645,1.14414079,18602,23639,29288,14700,18824,23654,0.57424086,0.73534545,0.92405207,0.23713141,0.29546344,0.37271689
36047,0,USNewYorkKings,New York,Kings,2021-04-04 08:10:38.799334,2020-11-22 00:00:00.000000,0.73895816,0.94979171,1.18007746,18916,24313,30208,15163,19627,24407,0.59235563,0.76671535,0.95346316,0.23555575,0.29009900,0.37906753
36047,0,USNewYorkKings,New York,Kings,2021-04-04 08:10:38.799334,2020-11-23 00:00:00.000000,0.77895674,0.98924680,1.21774928,19940,25323,31173,15428,20235,25179,0.60271164,0.79049004,0.98359485,0.22874823,0.29260695,0.38231445
36047,0,USNewYorkKings,New York,Kings,2021-04-04 08:10:38.799334,2020-11-24 00:00:00.000000,0.82683282,1.01596989,1.25640118,21166,26007,32162,15914,20921,25962,0.62167928,0.81728727,1.01421258,0.23009028,0.29583071,0.38312642
36047,0,USNewYorkKings,New York,Kings,2021-04-04 08:10:38.799334,2020-11-25 00:00:00.000000,0.85987963,1.04953997,1.29418974,22012,26867,33130,16620,21553,26756,0.64926903,0.84196604,1.04522794,0.22768475,0.29583854,0.38414883
36047,0,USNewYorkKings,New York,Kings,2021-04-04 08:10:38.799334,2020-11-26 00:00:00.000000,0.88453713,1.08581380,1.33216390,22643,27795,34102,17398,22180,27617,0.67965558,0.86646968,1.07884211,0.22999809,0.29656836,0.38416574
36047,0,USNewYorkKings,New York,Kings,2021-04-04 08:10:38.799334,2020-11-27 00:00:00.000000,0.91185305,1.12464545,1.36833937,23342,28789,35028,18166,22926,28615,0.70963996,0.89559671,1.11782469,0.23559608,0.29966512,0.38431373
36047,0,USNewYorkKings,New York,Kings,2021-04-04 08:10:38.799334,2020-11-28 00:00:00.000000,0.94316256,1.16498602,1.40826398,24144,29822,36050,18895,23868,29522,0.73815000,0.93241195,1.15328090,0.23734614,0.29985880,0.38311225
36047,0,USNewYorkKings,New York,Kings,2021-04-04 08:10:38.799334,2020-11-29 00:00:00.000000,0.98246280,1.20753149,1.47114876,25150,30911,37659,19616,24534,30809,0.76630132,0.95841160,1.20353267,0.24152592,0.30450623,0.38187790
36047,0,USNewYorkKings,New York,Kings,2021-04-04 08:10:38.799334,2020-11-30 00:00:00.000000,1.01774626,1.24551617,1.53667836,26053,31884,39337,20133,25311,32180,0.78649669,0.98877096,1.25711631,0.24441716,0.30365010,0.38112685
36047,0,USNewYorkKings,New York,Kings,2021-04-04 08:10:38.799334,2020-12-01 00:00:00.000000,1.05957124,1.29061106,1.60222456,27123,33038,41015,20715,26438,33525,0.80921047,1.03277929,1.30965098,0.24216796,0.30449804,0.38046036
36047,0,USNewYorkKings,New York,Kings,2021-04-04 08:10:38.799334,2020-12-02 00:00:00.000000,1.10006682,1.33743975,1.66655600,28160,34237,42662,21378,27424,34895,0.83513794,1.07130691,1.36313774,0.24389095,0.30434407,0.38004977
36047,0,USNewYorkKings,New York,Kings,2021-04-04 08:10:38.799334,2020-12-03 00:00:00.000000,1.12039580,1.38872965,1.72605112,28681,35550,44185,22138,28468,36241,0.86481244,1.11210526,1.41574256,0.24585700,0.30456796,0.37797709
36047,0,USNewYorkKings,New York,Kings,2021-04-04 08:10:38.799334,2020-12-04 00:00:00.000000,1.16623309,1.44313262,1.78095890,29854,36942,45590,22998,29498,37516,0.89841027,1.15233322,1.46555700,0.25379223,0.30027588,0.37608761
36047,0,USNewYorkKings,New York,Kings,2021-04-04 08:10:38.799334,2020-12-05 00:00:00.000000,1.21629821,1.49092594,1.83098055,31136,38166,46871,23953,30528,38689,0.93571125,1.19257889,1.51137783,0.25109608,0.29489443,0.37341847
36047,0,USNewYorkKings,New York,Kings,2021-04-04 08:10:38.799334,2020-12-06 00:00:00.000000,1.26985887,1.53578495,1.87703838,32507,39314,48050,24955,31703,39762,0.97487745,1.23846635,1.55327349,0.24457062,0.29400356,0.37051415
36047,0,USNewYorkKings,New York,Kings,2021-04-04 08:10:38.799334,2020-12-07 00:00:00.000000,1.32740644,1.58704956,1.92246359,33980,40626,49213,25715,32944,40761,1.00456253,1.28696281,1.59231683,0.23884407,0.28999191,0.36660312
36047,0,USNewYorkKings,New York,Kings,2021-04-04 08:10:38.799334,2020-12-08 00:00:00.000000,1.38677572,1.63443877,1.98171111,35500,41840,50729,26922,33926,42080,1.05169660,1.32531716,1.64383711,0.23030530,0.29106477,0.36272323
36047,0,USNewYorkKings,New York,Kings,2021-04-04 08:10:38.799334,2020-12-09 00:00:00.000000,1.44231049,1.69371399,2.05975002,36921,43357,52727,27923,34971,43400,1.09081941,1.36613725,1.69541344,0.22566813,0.28960655,0.36237739
36047,0,USNewYorkKings,New York,Kings,2021-04-04 08:10:38.799334,2020-12-10 00:00:00.000000,1.47355054,1.74424455,2.10861816,37721,44650,53978,28569,36012,45273,1.11604785,1.40677564,1.76854815,0.22178161,0.28593075,0.36111707
36047,0,USNewYorkKings,New York,Kings,2021-04-04 08:10:38.799334,2020-12-11 00:00:00.000000,1.50369106,1.79816952,2.15729930,38493,46031,55224,29715,37105,46739,1.16079282,1.44948095,1.82581627,0.22666948,0.28096605,0.35224786
36047,0,USNewYorkKings,New York,Kings,2021-04-04 08:10:38.799334,2020-12-12 00:00:00.000000,1.53280847,1.83856462,2.20632123,39238,47065,56479,30580,38003,47649,1.19460922,1.48457939,1.86137182,0.22335435,0.27728100,0.35018013
36047,0,USNewYorkKings,New York,Kings,2021-04-04 08:10:38.799334,2020-12-13 00:00:00.000000,1.55696713,1.87499961,2.24427943,39856,47998,57451,31317,38894,48516,1.22340007,1.51938503,1.89525135,0.22056295,0.27207907,0.34767819
36047,0,USNewYorkKings,New York,Kings,2021-04-04 08:10:38.799334,2020-12-14 00:00:00.000000,1.58266606,1.91024875,2.28730441,40514,48900,58552,31910,39674,49346,1.24656008,1.54985342,1.92767478,0.21855295,0.26807960,0.34340108
36047,0,USNewYorkKings,New York,Kings,2021-04-04 08:10:38.799334,2020-12-15 00:00:00.000000,1.61594689,1.95714964,2.34392146,41366,50101,60002,32515,40571,50156,1.27020247,1.58486997,1.95932165,0.21559224,0.26739030,0.33959107
36047,0,USNewYorkKings,New York,Kings,2021-04-04 08:10:38.799334,2020-12-16 00:00:00.000000,1.65530852,1.99947027,2.40129894,42374,51184,61470,33233,41299,50962,1.29824175,1.61330426,1.99081175,0.21581720,0.26384376,0.33145608
36047,0,USNewYorkKings,New York,Kings,2021-04-04 08:10:38.799334,2020-12-17 00:00:00.000000,1.69366299,2.02613666,2.45308570,43356,51867,62796,33992,42141,52208,1.32788517,1.64621698,2.03948702,0.21502406,0.25722141,0.32093256
36047,0,USNewYorkKings,New York,Kings,2021-04-04 08:10:38.799334,2020-12-18 00:00:00.000000,1.73046347,2.04382777,2.50223906,44298,52320,64054,34885,42900,53473,1.36276151,1.67585684,2.08886954,0.21316750,0.25389878,0.31387676
36047,0,USNewYorkKings,New York,Kings,2021-04-04 08:10:38.799334,2020-12-19 00:00:00.000000,1.75220082,2.06101495,2.55124253,44854,52759,65309,35419,43653,54753,1.38361810,1.70529297,2.13887597,0.20476478,0.25456142,0.30767251
36047,0,USNewYorkKings,New York,Kings,2021-04-04 08:10:38.799334,2020-12-20 00:00:00.000000,1.76440568,2.09807290,2.59959703,45167,53708,66547,35598,44075,56050,1.39060052,1.72176885,2.18953648,0.20369787,0.25301089,0.31835135
36047,0,USNewYorkKings,New York,Kings,2021-04-04 08:10:38.799334,2020-12-21 00:00:00.000000,1.78767165,2.13284985,2.64638956,45762,54598,67745,35513,44365,57369,1.38729541,1.73309751,2.24106385,0.20490110,0.25278235,0.32244839
36047,0,USNewYorkKings,New York,Kings,2021-04-04 08:10:38.799334,2020-12-22 00:00:00.000000,1.78933030,2.15654352,2.69115940,45805,55205,68891,35356,45282,58733,1.38114742,1.76892726,2.29437556,0.20787257,0.25049003,0.32329343
36047,0,USNewYorkKings,New York,Kings,2021-04-04 08:10:38.799334,2020-12-23 00:00:00.000000,1.79386122,2.19110370,2.73546559,45921,56090,70025,35173,45779,59778,1.37403244,1.78834192,2.33516884,0.20449992,0.25102805,0.32183889
36047,0,USNewYorkKings,New York,Kings,2021-04-04 08:10:38.799334,2020-12-24 00:00:00.000000,1.80345822,2.21666495,2.78032221,46166,56744,71173,35009,46283,60769,1.36759768,1.80802796,2.37390721,0.20672564,0.25192911,0.31811219
36047,0,USNewYorkKings,New York,Kings,2021-04-04 08:10:38.799334,2020-12-25 00:00:00.000000,1.81810803,2.24508027,2.82655867,46541,57471,72357,34993,46826,61795,1.36698423,1.82921509,2.41398289,0.21114155,0.25297790,0.33641339
36047,0,USNewYorkKings,New York,Kings,2021-04-04 08:10:38.799334,2020-12-26 00:00:00.000000,1.83730481,2.27071162,2.87427630,47033,58128,73578,35292,47261,62839,1.37866641,1.84622662,2.45474805,0.21364886,0.25533837,0.31886725
36047,0,USNewYorkKings,New York,Kings,2021-04-04 08:10:38.799334,2020-12-27 00:00:00.000000,1.86020738,2.31158297,2.92303800,47619,59174,74826,35675,47731,63906,1.39363083,1.86456468,2.49645292,0.21218410,0.25920539,0.31564908
36047,0,USNewYorkKings,New York,Kings,2021-04-04 08:10:38.799334,2020-12-28 00:00:00.000000,1.87535480,2.33736385,2.97239695,48007,59834,76090,36125,48416,64992,1.41122150,1.89135663,2.53888437,0.21353820,0.26014570,0.33204253
36047,0,USNewYorkKings,New York,Kings,2021-04-04 08:10:38.799334,2020-12-29 00:00:00.000000,1.89823502,2.36808821,3.02226261,48592,60620,77366,36626,48969,66090,1.43078571,1.91293965,2.58174558,0.21199485,0.26511618,0.34131375
36047,0,USNewYorkKings,New York,Kings,2021-04-04 08:10:38.799334,2020-12-30 00:00:00.000000,1.93055398,2.38901474,3.07252548,49420,61156,78653,37167,49726,67198,1.45191958,1.94252735,2.62503920,0.21651492,0.27011546,0.35612737
36047,0,USNewYorkKings,New York,Kings,2021-04-04 08:10:38.799334,2020-12-31 00:00:00.000000,1.97371507,2.42907350,3.12328021,50525,62181,79952,37989,50667,68316,1.48401072,1.97928542,2.66869784,0.21914717,0.27322176,0.36864005
36047,0,USNewYorkKings,New York,Kings,2021-04-04 08:10:38.799334,2021-01-01 00:00:00.000000,2.01658618,2.49413489,3.17464511,51622,63847,81267,39255,51673,69441,1.53346411,2.01855544,2.71267964,0.23031964,0.27511780,0.37834480
36047,0,USNewYorkKings,New York,Kings,2021-04-04 08:10:38.799334,2021-01-02 00:00:00.000000,2.05038558,2.55528999,3.22682615,52487,65412,82603,40182,52830,70563,1.56967198,2.06375052,2.75650756,0.23083552,0.27839736,0.38315569
36047,0,USNewYorkKings,New York,Kings,2021-04-04 08:10:38.799334,2021-01-03 00:00:00.000000,2.10150213,2.61011203,3.28265621,53796,66816,84032,41248,54020,71729,1.61134503,2.11023911,2.80203239,0.23282622,0.28661435,0.39057112
36047,0,USNewYorkKings,New York,Kings,2021-04-04 08:10:38.799334,2021-01-04 00:00:00.000000,2.17786069,2.66264812,3.34455849,55751,68161,85617,42688,55129,72686,1.66757980,2.15359150,2.83940911,0.23979789,0.29155965,0.39400016
36047,0,USNewYorkKings,New York,Kings,2021-04-04 08:10:38.799334,2021-01-05 00:00:00.000000,2.25840733,2.72446436,3.40287836,57813,69743,87110,44238,56299,73086,1.72814397,2.19927787,2.85506216,0.24277417,0.29247359,0.41144650
36047,0,USNewYorkKings,New York,Kings,2021-04-04 08:10:38.799334,2021-01-06 00:00:00.000000,2.33254681,2.78938006,3.49954977,59710,71405,89585,45881,57421,74867,1.79232349,2.24311309,2.92461880,0.24383323,0.29543904,0.42366344
36047,0,USNewYorkKings,New York,Kings,2021-04-04 08:10:38.799334,2021-01-07 00:00:00.000000,2.37460942,2.85175571,3.59918823,60787,73002,92135,47587,58685,76763,1.85896775,2.29247093,2.99868821,0.24329702,0.29655055,0.41623840
36047,0,USNewYorkKings,New York,Kings,2021-04-04 08:10:38.799334,2021-01-08 00:00:00.000000,2.42605717,2.92868855,3.71513965,62104,74971,95103,49169,60389,78680,1.92076205,2.35907356,3.07356180,0.24028176,0.30087511,0.41420652
36047,0,USNewYorkKings,New York,Kings,2021-04-04 08:10:38.799334,2021-01-09 00:00:00.000000,2.50438101,2.99787629,3.84779233,64109,76742,98499,50635,61845,81482,1.97803857,2.41591348,3.18303211,0.24188417,0.29914240,0.40821560
36047,0,USNewYorkKings,New York,Kings,2021-04-04 08:10:38.799334,2021-01-10 00:00:00.000000,2.58004372,3.08162641,3.96452129,66046,78886,101487,52343,63241,84229,2.04475345,2.47045118,3.29034590,0.24510849,0.29761293,0.39909954
36047,0,USNewYorkKings,New York,Kings,2021-04-04 08:10:38.799334,2021-01-11 00:00:00.000000,2.66674937,3.14043295,4.04063251,68266,80392,103436,53524,64798,86526,2.09087797,2.53127559,3.38006624,0.22782631,0.29499405,0.38905809
36047,0,USNewYorkKings,New York,Kings,2021-04-04 08:10:38.799334,2021-01-12 00:00:00.000000,2.73440472,3.18938690,4.06485143,69998,81645,104056,55061,65996,87628,2.15093966,2.57809995,3.42313436,0.23066251,0.29269132,0.38031814
36047,0,USNewYorkKings,New York,Kings,2021-04-04 08:10:38.799334,2021-01-13 00:00:00.000000,2.80764184,3.21488033,4.09987752,71872,82297,104952,55981,66794,88667,2.18687891,2.60924384,3.46371762,0.22593093,0.28377298,0.37382866
36047,0,USNewYorkKings,New York,Kings,2021-04-04 08:10:38.799334,2021-01-14 00:00:00.000000,2.86983214,3.27118168,4.18229052,73464,83739,107062,56704,67985,90144,2.21508677,2.65579830,3.52139523,0.22398988,0.27934875,0.36828210
36047,0,USNewYorkKings,New York,Kings,2021-04-04 08:10:38.799334,2021-01-15 00:00:00.000000,2.92064452,3.34191497,4.25910665,74765,85549,109028,57315,69116,91964,2.23896752,2.69994984,3.59251427,0.21738008,0.27611905,0.36250198
36047,0,USNewYorkKings,New York,Kings,2021-04-04 08:10:38.799334,2021-01-16 00:00:00.000000,2.93288884,3.40798227,4.31281420,75079,87241,110403,57843,70430,93662,2.25958094,2.75130286,3.65884090,0.21513995,0.27037427,0.36024242
36047,0,USNewYorkKings,New York,Kings,2021-04-04 08:10:38.799334,2021-01-17 00:00:00.000000,2.92630176,3.44872337,4.32499933,74910,88283,110715,58328,71538,94409,2.27854975,2.79459048,3.68802971,0.21150843,0.26326827,0.35006793
36047,0,USNewYorkKings,New York,Kings,2021-04-04 08:10:38.799334,2021-01-18 00:00:00.000000,2.91065058,3.49362270,4.33492606,74509,89433,110969,58828,72679,94748,2.29806064,2.83916756,3.70125212,0.20806391,0.25925305,0.35026871
36047,0,USNewYorkKings,New York,Kings,2021-04-04 08:10:38.799334,2021-01-19 00:00:00.000000,2.89150802,3.51677592,4.34338919,74019,90026,111186,59392,73885,95033,2.32012106,2.88627970,3.71237294,0.20657155,0.25676284,0.34506548
36047,0,USNewYorkKings,New York,Kings,2021-04-04 08:10:38.799334,2021-01-20 00:00:00.000000,2.91585062,3.56667456,4.35711175,74642,91303,111537,60008,74643,95276,2.34418358,2.91586040,3.72186554,0.20583568,0.25498548,0.32550067
36047,0,USNewYorkKings,New York,Kings,2021-04-04 08:10:38.799334,2021-01-21 00:00:00.000000,2.91608421,3.57455571,4.38213073,74648,91505,112178,60069,75177,95955,2.34654722,2.93672194,3.74840181,0.20345314,0.25294404,0.31643979
36047,0,USNewYorkKings,New York,Kings,2021-04-04 08:10:38.799334,2021-01-22 00:00:00.000000,2.88226654,3.58980678,4.38477613,73783,91895,112246,59855,75766,96663,2.33819859,2.95972488,3.77606648,0.20000180,0.24783129,0.30944180
36047,0,USNewYorkKings,New York,Kings,2021-04-04 08:10:38.799334,2021-01-23 00:00:00.000000,2.90152120,3.58219668,4.38815053,74276,91700,112332,59177,76171,96786,2.31171360,2.97556867,3.78087177,0.19878717,0.24192300,0.30746443
36047,0,USNewYorkKings,New York,Kings,2021-04-04 08:10:38.799334,2021-01-24 00:00:00.000000,2.91303611,3.57000261,4.39215228,74570,91388,112434,58573,76130,96908,2.28813144,2.97394165,3.78564686,0.19683305,0.23481100,0.31002117
36047,0,USNewYorkKings,New York,Kings,2021-04-04 08:10:38.799334,2021-01-25 00:00:00.000000,2.82831943,3.55882218,4.39660321,72402,91102,112548,58076,75930,97031,2.26870475,2.96616450,3.79044665,0.19251401,0.23381549,0.31669526
36047,0,USNewYorkKings,New York,Kings,2021-04-04 08:10:38.799334,2021-01-26 00:00:00.000000,2.78538331,3.54298453,4.39078018,71303,90696,112399,57629,75671,97124,2.25123456,2.95601982,3.79406190,0.18178693,0.23144480,0.30981460
36047,0,USNewYorkKings,New York,Kings,2021-04-04 08:10:38.799334,2021-01-27 00:00:00.000000,2.76120663,3.51718000,4.37356433,70684,90036,111959,57193,75145,96796,2.23420483,2.93550041,3.78125115,0.18026506,0.23074588,0.30573036
36047,0,USNewYorkKings,New York,Kings,2021-04-04 08:10:38.799334,2021-01-28 00:00:00.000000,2.73857308,3.49018902,4.35805377,70104,89345,111561,56785,74626,96466,2.21827669,2.91522482,3.76835689,0.17911366,0.22991714,0.29748738
36047,0,USNewYorkKings,New York,Kings,2021-04-04 08:10:38.799334,2021-01-29 00:00:00.000000,2.70737094,3.47110114,4.34617235,69306,88856,111257,56309,74178,96165,2.19967088,2.89769552,3.75660776,0.17837178,0.22812425,0.29421199
36047,0,USNewYorkKings,New York,Kings,2021-04-04 08:10:38.799334,2021-01-30 00:00:00.000000,2.67293547,3.45012468,4.33971128,68424,88319,111092,55629,74000,95936,2.17312442,2.89073601,3.74764638,0.17797838,0.22803786,0.29933827
36047,0,USNewYorkKings,New York,Kings,2021-04-04 08:10:38.799334,2021-01-31 00:00:00.000000,2.63748744,3.44371723,4.33868185,67517,88155,111066,54896,73431,95818,2.14446031,2.86851845,3.74304137,0.17815055,0.22254434,0.30275672
36047,0,USNewYorkKings,New York,Kings,2021-04-04 08:10:38.799334,2021-02-01 00:00:00.000000,2.60208131,3.40014535,4.34118298,66610,87040,111130,54166,72807,95810,2.11593990,2.84416393,3.74275823,0.17667224,0.22034780,0.30158215
36047,0,USNewYorkKings,New York,Kings,2021-04-04 08:10:38.799334,2021-02-02 00:00:00.000000,2.56682298,3.35318823,4.32510993,65708,85838,110718,53238,72162,95870,2.07971332,2.81896843,3.74508803,0.17596905,0.22040883,0.29984269
36047,0,USNewYorkKings,New York,Kings,2021-04-04 08:10:38.799334,2021-02-03 00:00:00.000000,2.53172779,3.31524399,4.28460639,64809,84867,109681,51761,71410,95667,2.02202128,2.78956944,3.73715559,0.17479849,0.21976665,0.29999486
36047,0,USNewYorkKings,New York,Kings,2021-04-04 08:10:38.799334,2021-02-04 00:00:00.000000,2.49684876,3.27739565,4.24338583,63916,83898,108626,50291,70860,94818,1.96460441,2.76808108,3.70398616,0.17495700,0.22007953,0.30005275
36047,0,USNewYorkKings,New York,Kings,2021-04-04 08:10:38.799334,2021-02-05 00:00:00.000000,2.45067845,3.23921683,4.20281842,62734,82920,107588,48833,70126,93956,1.90763131,2.73943532,3.67033267,0.18177957,0.22021382,0.30021989
36047,0,USNewYorkKings,New York,Kings,2021-04-04 08:10:38.799334,2021-02-06 00:00:00.000000,2.38069628,3.21257332,4.16525163,60943,82238,106626,47738,69374,93101,1.86484738,2.71005901,3.63690942,0.18413943,0.22085878,0.29941238
36047,0,USNewYorkKings,New York,Kings,2021-04-04 08:10:38.799334,2021-02-07 00:00:00.000000,2.33408523,3.17745237,4.13889830,59750,81339,105951,46825,68381,92302,1.82920327,2.67125640,3.60569985,0.18428707,0.22682629,0.29838096
36047,0,USNewYorkKings,New York,Kings,2021-04-04 08:10:38.799334,2021-02-08 00:00:00.000000,2.28755861,3.14943993,4.12577587,58559,80622,105615,45919,67444,91745,1.79381390,2.63465838,3.58395497,0.18445284,0.22632135,0.29785805
36047,0,USNewYorkKings,New York,Kings,2021-04-04 08:10:38.799334,2021-02-09 00:00:00.000000,2.24228566,3.12435846,4.11679601,57400,79980,105385,45034,66917,91473,1.75924621,2.61405530,3.57330084,0.18463235,0.22717218,0.29774301
36047,0,USNewYorkKings,New York,Kings,2021-04-04 08:10:38.799334,2021-02-10 00:00:00.000000,2.20650609,3.08702066,4.10812188,56484,79024,105163,44345,66240,91264,1.73232559,2.58763468,3.56515392,0.18468273,0.22977646,0.30029615
36047,0,USNewYorkKings,New York,Kings,2021-04-04 08:10:38.799334,2021-02-11 00:00:00.000000,2.22226069,3.06440631,4.09800232,56887,78445,104904,44567,65716,91038,1.74097207,2.56713997,3.55632112,0.18564850,0.23331042,0.30405926
36047,0,USNewYorkKings,New York,Kings,2021-04-04 08:10:38.799334,2021-02-12 00:00:00.000000,2.23952870,3.04606037,4.08620139,57329,77976,104602,44924,65157,90783,1.75491563,2.54532486,3.54636269,0.18824312,0.23406581,0.30940379
36047,0,USNewYorkKings,New York,Kings,2021-04-04 08:10:38.799334,2021-02-13 00:00:00.000000,2.25113468,3.01393014,4.07306025,57626,77153,104266,45268,64318,90501,1.76836605,2.51253950,3.53534080,0.18464452,0.23630278,0.31031592
36047,0,USNewYorkKings,New York,Kings,2021-04-04 08:10:38.799334,2021-02-14 00:00:00.000000,2.23471893,2.99846039,4.05934466,57206,76757,103915,45464,63768,90197,1.77602807,2.49106644,3.52348492,0.18404416,0.23470197,0.31046136
36047,0,USNewYorkKings,New York,Kings,2021-04-04 08:10:38.799334,2021-02-15 00:00:00.000000,2.21463792,2.97622656,4.04650424,56692,76188,103586,45372,63385,89887,1.77244410,2.47607594,3.51136815,0.17723688,0.23433685,0.31264258
36047,0,USNewYorkKings,New York,Kings,2021-04-04 08:10:38.799334,2021-02-16 00:00:00.000000,2.19471880,2.95227860,4.03551790,56182,75575,103305,45026,63024,89601,1.75891474,2.46200223,3.50017314,0.17700654,0.23402470,0.32152119
36047,0,USNewYorkKings,New York,Kings,2021-04-04 08:10:38.799334,2021-02-17 00:00:00.000000,2.17541774,2.93944507,4.02581956,55688,75246,103057,44567,62748,89357,1.74098510,2.45120130,3.49065480,0.18148163,0.23860022,0.33547638
36047,0,USNewYorkKings,New York,Kings,2021-04-04 08:10:38.799334,2021-02-18 00:00:00.000000,2.15769890,2.92353119,4.01635011,55234,74839,102814,44071,62451,89140,1.72161959,2.43958950,3.48218085,0.18286836,0.24028695,0.34238849
36047,0,USNewYorkKings,New York,Kings,2021-04-04 08:10:38.799334,2021-02-19 00:00:00.000000,2.14032149,2.90693661,3.99219813,54790,74414,102196,43561,62236,88925,1.70168267,2.43122105,3.47377375,0.18320991,0.23996410,0.32120913
36047,0,USNewYorkKings,New York,Kings,2021-04-04 08:10:38.799334,2021-02-20 00:00:00.000000,2.11489570,2.89195118,3.95646700,54139,74031,101281,43044,62080,88338,1.68147111,2.42512171,3.45085501,0.18646625,0.24354213,0.31702737
36047,0,USNewYorkKings,New York,Kings,2021-04-04 08:10:38.799334,2021-02-21 00:00:00.000000,2.08962871,2.88579389,3.91786801,53492,73873,100293,42526,61715,87552,1.66126638,2.41085863,3.42016151,0.18681033,0.24033654,0.32348068
36047,0,USNewYorkKings,New York,Kings,2021-04-04 08:10:38.799334,2021-02-22 00:00:00.000000,2.06497163,2.86873976,3.87601297,52861,73436,99222,42021,61392,86691,1.64153170,2.39824923,3.38650875,0.18199102,0.24059121,0.33304383
36047,0,USNewYorkKings,New York,Kings,2021-04-04 08:10:38.799334,2021-02-23 00:00:00.000000,2.04181401,2.85106879,3.83137785,52268,72984,98079,41529,61114,85760,1.62232299,2.38738181,3.35015644,0.17977788,0.23937696,0.32754422
36047,0,USNewYorkKings,New York,Kings,2021-04-04 08:10:38.799334,2021-02-24 00:00:00.000000,2.02171380,2.82623544,3.78477547,51753,72348,96886,41071,60613,84775,1.60442127,2.36779306,3.31166089,0.18043106,0.24372969,0.32594974
36047,0,USNewYorkKings,New York,Kings,2021-04-04 08:10:38.799334,2021-02-25 00:00:00.000000,2.00690714,2.81527449,3.73697226,51374,72068,95662,40681,60111,83751,1.58917519,2.34821089,3.27165414,0.18025341,0.24529125,0.33483349
36047,0,USNewYorkKings,New York,Kings,2021-04-04 08:10:38.799334,2021-02-26 00:00:00.000000,1.99948532,2.80604862,3.68879293,51184,71832,94429,40407,59682,82703,1.57847202,2.33143292,3.23072022,0.18154232,0.24842717,0.34800391
36047,0,USNewYorkKings,New York,Kings,2021-04-04 08:10:38.799334,2021-02-27 00:00:00.000000,1.99989432,2.78136082,3.64176890,51195,71200,93225,40295,59456,81648,1.57410131,2.32261619,3.18950566,0.18924435,0.25003409,0.36189776
36047,0,USNewYorkKings,New York,Kings,2021-04-04 08:10:38.799334,2021-02-28 00:00:00.000000,2.00700440,2.78320999,3.59996628,51377,71247,92155,40350,59081,80618,1.57623446,2.30797284,3.14929711,0.19019682,0.25181931,0.37240290
36047,0,USNewYorkKings,New York,Kings,2021-04-04 08:10:38.799334,2021-03-01 00:00:00.000000,2.01852740,2.77796809,3.56868162,51672,71113,91354,40527,58949,79705,1.58316296,2.30280705,3.11361407,0.19481735,0.25574376,0.36775868
36047,0,USNewYorkKings,New York,Kings,2021-04-04 08:10:38.799334,2021-03-02 00:00:00.000000,2.03204122,2.75440541,3.54551399,52018,70510,90761,40773,58844,79024,1.59275615,2.29868225,3.08701969,0.19572947,0.25815762,0.34801719
36047,0,USNewYorkKings,New York,Kings,2021-04-04 08:10:38.799334,2021-03-03 00:00:00.000000,2.04400579,2.74186820,3.52522831,52324,70189,90242,41046,58399,78515,1.60345312,2.28131129,3.06714551,0.19639159,0.25806006,0.33901773
36047,0,USNewYorkKings,New York,Kings,2021-04-04 08:10:38.799334,2021-03-04 00:00:00.000000,2.03884232,2.73333963,3.50520897,52192,69970,89729,41319,58294,78052,1.61411291,2.27723002,3.04905343,0.19714020,0.25713412,0.34298296
36047,0,USNewYorkKings,New York,Kings,2021-04-04 08:10:38.799334,2021-03-05 00:00:00.000000,2.03276665,2.70394853,3.48439597,52036,69218,89197,41562,57943,77585,1.62358239,2.26349471,3.03078346,0.19827502,0.25665727,0.37898777
36047,0,USNewYorkKings,New York,Kings,2021-04-04 08:10:38.799334,2021-03-06 00:00:00.000000,2.02620922,2.67516672,3.46260734,51868,68481,88639,41727,57491,77102,1.63003175,2.24584317,3.01191678,0.20113898,0.25610819,0.36316314
36047,0,USNewYorkKings,New York,Kings,2021-04-04 08:10:38.799334,2021-03-07 00:00:00.000000,2.02099624,2.65884521,3.44002326,51735,68063,88061,41690,57135,76603,1.62861005,2.23193954,2.99243688,0.19998123,0.26009380,0.34999529
36047,0,USNewYorkKings,New York,Kings,2021-04-04 08:10:38.799334,2021-03-08 00:00:00.000000,2.01301947,2.64285768,3.44989186,51531,67654,88313,41488,56772,76092,1.62072133,2.21774227,2.97247997,0.20005641,0.25974844,0.33955578
36047,0,USNewYorkKings,New York,Kings,2021-04-04 08:10:38.799334,2021-03-09 00:00:00.000000,1.99737441,2.62388070,3.46318443,51130,67168,88654,40935,56066,75608,1.59909215,2.19019479,2.95357884,0.19899851,0.26170888,0.34290179
36047,0,USNewYorkKings,New York,Kings,2021-04-04 08:10:38.799334,2021-03-10 00:00:00.000000,1.96019168,2.62172799,3.47454475,50179,67113,88944,40167,55514,75791,1.56909099,2.16862312,2.96072456,0.19942459,0.26610615,0.34897346
36047,0,USNewYorkKings,New York,Kings,2021-04-04 08:10:38.799334,2021-03-11 00:00:00.000000,1.92051204,2.62089676,3.45622053,49163,67092,88475,39331,55455,76007,1.53644074,2.16629388,2.96917483,0.20110758,0.26888934,0.35327645
36047,0,USNewYorkKings,New York,Kings,2021-04-04 08:10:38.799334,2021-03-12 00:00:00.000000,1.88710187,2.61136660,3.44329395,48307,66848,88144,38547,55384,76163,1.50580642,2.16355557,2.97523275,0.20536044,0.27592525,0.38738399
36047,0,USNewYorkKings,New York,Kings,2021-04-04 08:10:38.799334,2021-03-13 00:00:00.000000,1.86481295,2.59466684,3.44629592,47737,66420,88221,37913,55241,76248,1.48106503,2.15794518,2.97856699,0.21180474,0.28269996,0.39690424
36047,0,USNewYorkKings,New York,Kings,2021-04-04 08:10:38.799334,2021-03-14 00:00:00.000000,1.85715770,2.59177677,3.46265809,47541,66346,88640,37524,55169,76269,1.46584436,2.15513701,2.97940631,0.22021414,0.29005073,0.39855197
36047,0,USNewYorkKings,New York,Kings,2021-04-04 08:10:38.799334,2021-03-15 00:00:00.000000,1.86474746,2.60553859,3.48307312,47735,66699,89163,37442,55152,76238,1.46266904,2.15446638,2.97816691,0.22929165,0.29468886,0.41558275
36047,0,USNewYorkKings,New York,Kings,2021-04-04 08:10:38.799334,2021-03-16 00:00:00.000000,1.88563957,2.63719654,3.47773906,48270,67509,89026,37668,55371,76165,1.47149052,2.16302405,2.97534032,0.23274216,0.30707052,0.42303898
36047,0,USNewYorkKings,New York,Kings,2021-04-04 08:10:38.799334,2021-03-17 00:00:00.000000,1.91763581,2.65629664,3.47120507,49089,67998,88859,38148,55875,76102,1.49023025,2.18273640,2.97286555,0.23603528,0.32064322,0.44049017
36047,0,USNewYorkKings,New York,Kings,2021-04-04 08:10:38.799334,2021-03-18 00:00:00.000000,1.96175131,2.69924420,3.53203983,50218,69098,90416,38835,56248,76553,1.51706404,2.19729591,2.99048915,0.24627984,0.33166561,0.46304385
36047,0,USNewYorkKings,New York,Kings,2021-04-04 08:10:38.799334,2021-03-19 00:00:00.000000,2.02617804,2.77797265,3.61508567,51868,71113,92542,39765,57004,77988,1.55339317,2.22681188,3.04652403,0.25288593,0.36795108,0.52885098
36047,0,USNewYorkKings,New York,Kings,2021-04-04 08:10:38.799334,2021-03-20 00:00:00.000000,2.12790172,2.89492061,3.74542918,54472,74107,95879,41137,58568,79933,1.60700048,2.28790853,3.12253295,0.27964465,0.42894309,0.61975126
36047,0,USNewYorkKings,New York,Kings,2021-04-04 08:10:38.799334,2021-03-21 00:00:00.000000,2.22482035,3.09076108,3.93136743,56953,79120,100639,43337,61302,82991,1.69293705,2.39473160,3.24199517,0.36430647,0.49418166,0.66617010
36047,0,USNewYorkKings,New York,Kings,2021-04-04 08:10:38.799334,2021-03-22 00:00:00.000000,2.37706768,3.26745211,4.18007731,60850,83643,107005,46199,65484,87608,1.80472799,2.55808005,3.42234659,0.40919796,0.55618862,0.69457935
36047,0,USNewYorkKings,New York,Kings,2021-04-04 08:10:38.799334,2021-03-23 00:00:00.000000,2.62247566,3.49713485,4.43838537,67132,89523,113618,49474,68897,92713,1.93267448,2.69140152,3.62177047,0.41892994,0.56847891,0.76753114
36047,0,USNewYorkKings,New York,Kings,2021-04-04 08:10:38.799334,2021-03-24 00:00:00.000000,2.90837606,3.74194990,4.63792747,74451,95790,118726,54777,73256,97495,2.13982655,2.86169064,3.80857521,0.41234662,0.56551568,0.79775384
36047,0,USNewYorkKings,New York,Kings,2021-04-04 08:10:38.799334,2021-03-25 00:00:00.000000,3.12902871,3.87529947,4.80734937,80100,99203,123063,60038,78204,101780,2.34532638,3.05498355,3.97595647,0.29873424,0.48691608,0.71475004
36047,0,USNewYorkKings,New York,Kings,2021-04-04 08:10:38.799334,2021-03-26 00:00:00.000000,3.15243589,3.85835805,4.76754050,80699,98770,122044,62039,81657,105303,2.42349323,3.18985344,4.11358888,0.19312109,0.31042453,0.50465814
36047,0,USNewYorkKings,New York,Kings,2021-04-04 08:10:38.799334,2021-03-27 00:00:00.000000,3.08801546,3.81124183,4.70902223,79050,97564,120546,62820,81334,103563,2.45403338,3.17725785,4.04558598,0.18956681,0.24995669,0.37843762
36047,0,USNewYorkKings,New York,Kings,2021-04-04 08:10:38.799334,2021-03-28 00:00:00.000000,3.01102267,3.75787292,4.62354951,77079,96197,118358,62455,80707,102201,2.43977956,3.15274399,3.99240854,0.18580801,0.24226674,0.35101842
36047,0,USNewYorkKings,New York,Kings,2021-04-04 08:10:38.799334,2021-03-29 00:00:00.000000,2.93208723,3.69246170,4.52102550,75058,94523,115733,61459,78960,100245,2.40087121,3.08450463,3.91599760,0.18554307,0.24012327,0.34421762
36047,0,USNewYorkKings,New York,Kings,2021-04-04 08:10:38.799334,2021-03-30 00:00:00.000000,2.85092497,3.62281495,4.42037149,72980,92740,113157,59882,77504,98240,2.33925123,3.02762793,3.83765771,0.17786831,0.23593236,0.34232064
36047,0,USNewYorkKings,New York,Kings,2021-04-04 08:10:38.799334,2021-03-31 00:00:00.000000,2.76616582,3.52973996,4.36002045,70811,90357,111612,58244,76099,96358,2.27524707,2.97274814,3.76413242,0.17433656,0.23571786,0.34159210
36047,0,USNewYorkKings,New York,Kings,2021-04-04 08:10:38.799334,2021-04-01 00:00:00.000000,2.67994546,3.45631496,4.29729975,68604,88478,110006,56515,74423,94841,2.20773688,2.90726960,3.70488609,0.17234303,0.23538664,0.35545941
36047,0,USNewYorkKings,New York,Kings,2021-04-04 08:10:38.799334,2021-04-02 00:00:00.000000,2.59441113,3.39454657,4.20848265,66414,86897,107733,54714,72756,93523,2.13738257,2.84214079,3.65340814,0.17065930,0.23566091,0.36163985
36047,0,USNewYorkKings,New York,Kings,2021-04-04 08:10:38.799334,2021-04-03 00:00:00.000000,2.47936880,3.32176760,4.14741663,63469,85034,106169,52030,71805,92354,2.03251685,2.80500359,3.60775064,0.16703744,0.23638552,0.36874271
36047,0,USNewYorkKings,New York,Kings,2021-04-04 08:10:38.799334,2021-04-04 00:00:00.000000,2.35412640,3.24987198,4.09580686,60263,83193,104848,49449,70397,91237,1.93170880,2.75002478,3.56411890,0.16546219,0.23743743,0.37078551
36047,0,USNewYorkKings,New York,Kings,2021-04-04 08:10:38.799334,2021-04-05 00:00:00.000000,2.26946402,3.20594567,4.04487188,58096,82069,103544,46986,69074,90132,1.83548973,2.69831272,3.52095022,0.16201072,0.23948585,0.37124037
36047,0,USNewYorkKings,New York,Kings,2021-04-04 08:10:38.799334,2021-04-06 00:00:00.000000,2.21569237,3.17345424,4.08142383,56719,81237,104480,44652,67791,89036,1.74430767,2.64822202,3.47810807,0.16063025,0.23976538,0.37134068
36047,0,USNewYorkKings,New York,Kings,2021-04-04 08:10:38.799334,2021-04-07 00:00:00.000000,2.16331066,3.10787941,4.04311072,55378,79558,103499,43598,67429,89948,1.70313595,2.63405727,3.51374614,0.16028555,0.23981937,0.37136258
36047,0,USNewYorkKings,New York,Kings,2021-04-04 08:10:38.799334,2021-04-08 00:00:00.000000,2.09261664,3.01834771,4.13750313,53568,77266,105916,42554,65761,89516,1.66235720,2.56891567,3.49686400,0.16012612,0.24122775,0.37363499
36047,0,USNewYorkKings,New York,Kings,2021-04-04 08:10:38.799334,2021-04-09 00:00:00.000000,1.98375985,2.93723291,4.21536435,50782,75190,107909,41522,64244,88701,1.62203776,2.50966134,3.46504872,0.16003791,0.24073454,0.37377077
36047,0,USNewYorkKings,New York,Kings,2021-04-04 08:10:38.799334,2021-04-10 00:00:00.000000,1.88095987,2.88067664,4.25408867,48150,73742,108900,40516,63205,90532,1.58272016,2.46905916,3.53656023,0.15959377,0.23981767,0.37383686
36047,0,USNewYorkKings,New York,Kings,2021-04-04 08:10:38.799334,2021-04-11 00:00:00.000000,1.78377117,2.83220383,4.29864472,45662,72501,110041,39122,62093,93207,1.52826984,2.42563179,3.64104011,0.15861069,0.23981595,0.37386746
36047,0,USNewYorkKings,New York,Kings,2021-04-04 08:10:38.799334,2021-04-12 00:00:00.000000,1.70761211,2.78386575,4.32248814,43713,71264,110651,37115,60716,94223,1.44988245,2.37184695,3.68074035,0.15803496,0.23981505,0.37388129
36047,0,USNewYorkKings,New York,Kings,2021-04-04 08:10:38.799334,2021-04-13 00:00:00.000000,1.64490626,2.73152307,4.35525369,42108,69924,111490,35213,59626,94920,1.37556513,2.32925458,3.70795781,0.15770023,0.23981460,0.37388747
36047,0,USNewYorkKings,New York,Kings,2021-04-04 08:10:38.799334,2021-04-14 00:00:00.000000,1.58416750,2.67305348,4.38615086,40553,68427,112281,33408,58570,94036,1.30508401,2.28798408,3.67343446,0.15750644,0.23981438,0.37389023
36047,0,USNewYorkKings,New York,Kings,2021-04-04 08:10:38.799334,2021-04-15 00:00:00.000000,1.52535528,2.60490764,4.41517781,39047,66683,113024,31697,57507,94788,1.23822502,2.24646582,3.70280342,0.15739452,0.23981427,0.37389145
36047,0,USNewYorkKings,New York,Kings,2021-04-04 08:10:38.799334,2021-04-16 00:00:00.000000,1.46842980,2.53932410,4.44232577,37590,65004,113719,30073,56241,96017,1.17479083,2.19699753,3.75082060,0.15732997,0.23981422,0.37389199
