FIPS,HR_UID,nameid,province,region,analysisTime,dates,pointprevalence_025,pointprevalence_50,pointprevalence_975,pointinfections_025,pointinfections_50,pointinfections_975,pointinfectious_025,pointinfectious_50,pointinfectious_975,pointinfectiousprevalence_05,pointinfectiousprevalence_50,pointinfectiousprevalence_95,infectrate_025,infectrate_50,infectrate_975
46115,0,USSouthDakotaSpink,South Dakota,Spink,2021-04-04 04:30:40.669713,2020-03-09 00:00:00.000000,0.00720891,0.04391344,0.12868290,0,2,8,0,1,4,0.00327891,0.02372509,0.07587972,0.32915586,0.47804327,0.62121004
46115,0,USSouthDakotaSpink,South Dakota,Spink,2021-04-04 04:30:40.669713,2020-03-10 00:00:00.000000,0.00765848,0.04720022,0.13876502,0,3,8,0,1,4,0.00344588,0.02325020,0.07336882,0.32915569,0.47793445,0.62121003
46115,0,USSouthDakotaSpink,South Dakota,Spink,2021-04-04 04:30:40.669713,2020-03-11 00:00:00.000000,0.00811775,0.05102255,0.14890474,0,3,9,0,1,4,0.00369683,0.02322893,0.07431819,0.32915519,0.47771821,0.62121002
46115,0,USSouthDakotaSpink,South Dakota,Spink,2021-04-04 04:30:40.669713,2020-03-12 00:00:00.000000,0.00859418,0.05491605,0.15823358,0,3,10,0,1,4,0.00396783,0.02490663,0.07621415,0.32915367,0.47608981,0.62120997
46115,0,USSouthDakotaSpink,South Dakota,Spink,2021-04-04 04:30:40.669713,2020-03-13 00:00:00.000000,0.00909285,0.05894498,0.16464321,0,3,10,0,1,5,0.00414226,0.02627428,0.07878621,0.32914900,0.47591137,0.62120983
46115,0,USSouthDakotaSpink,South Dakota,Spink,2021-04-04 04:30:40.669713,2020-03-14 00:00:00.000000,0.00961748,0.06221488,0.17136586,0,3,10,0,1,5,0.00437354,0.02871168,0.08183236,0.32913455,0.47403691,0.62120905
46115,0,USSouthDakotaSpink,South Dakota,Spink,2021-04-04 04:30:40.669713,2020-03-15 00:00:00.000000,0.01017097,0.06695460,0.17840893,0,4,11,0,1,5,0.00464843,0.03113226,0.08529965,0.32908987,0.46581971,0.62120363
46115,0,USSouthDakotaSpink,South Dakota,Spink,2021-04-04 04:30:40.669713,2020-03-16 00:00:00.000000,0.02230893,0.08378945,0.20774796,1,5,13,0,2,5,0.00495847,0.03357368,0.08912469,0.32581846,0.45985820,0.62116014
46115,0,USSouthDakotaSpink,South Dakota,Spink,2021-04-04 04:30:40.669713,2020-03-17 00:00:00.000000,0.03233770,0.10074412,0.25450890,2,6,16,0,2,6,0.00715878,0.03796108,0.09473365,0.32143564,0.45060051,0.62079425
46115,0,USSouthDakotaSpink,South Dakota,Spink,2021-04-04 04:30:40.669713,2020-03-18 00:00:00.000000,0.04010707,0.12034862,0.30225554,2,7,19,0,2,6,0.01009178,0.04361685,0.10760980,0.29885211,0.44164951,0.61770727
46115,0,USSouthDakotaSpink,South Dakota,Spink,2021-04-04 04:30:40.669713,2020-03-19 00:00:00.000000,0.04682516,0.13827100,0.34921545,2,8,22,0,3,8,0.01379663,0.05188107,0.12730854,0.27162729,0.42615345,0.59319972
46115,0,USSouthDakotaSpink,South Dakota,Spink,2021-04-04 04:30:40.669713,2020-03-20 00:00:00.000000,0.05550047,0.15786412,0.39367975,3,10,25,1,3,9,0.01805062,0.06002189,0.14948546,0.24872283,0.39806469,0.56349142
46115,0,USSouthDakotaSpink,South Dakota,Spink,2021-04-04 04:30:40.669713,2020-03-21 00:00:00.000000,0.06554831,0.17957533,0.44365781,4,11,28,1,4,11,0.02273574,0.06891372,0.17377068,0.22608351,0.37566072,0.52122486
46115,0,USSouthDakotaSpink,South Dakota,Spink,2021-04-04 04:30:40.669713,2020-03-22 00:00:00.000000,0.07603769,0.19454693,0.49149724,4,12,31,1,4,12,0.02834311,0.07749404,0.19980581,0.21658907,0.34381455,0.48074912
46115,0,USSouthDakotaSpink,South Dakota,Spink,2021-04-04 04:30:40.669713,2020-03-23 00:00:00.000000,0.09871259,0.21965107,0.51296857,6,14,32,2,5,14,0.03458824,0.08648392,0.22718020,0.20801039,0.32247975,0.45954077
46115,0,USSouthDakotaSpink,South Dakota,Spink,2021-04-04 04:30:40.669713,2020-03-24 00:00:00.000000,0.11756712,0.24460994,0.52763802,7,15,33,2,6,15,0.04295227,0.09658051,0.24432148,0.20018501,0.30656499,0.45215529
46115,0,USSouthDakotaSpink,South Dakota,Spink,2021-04-04 04:30:40.669713,2020-03-25 00:00:00.000000,0.13859458,0.26831822,0.54071471,8,17,34,3,6,16,0.05338394,0.10721550,0.25841547,0.19560955,0.29813540,0.43940082
46115,0,USSouthDakotaSpink,South Dakota,Spink,2021-04-04 04:30:40.669713,2020-03-26 00:00:00.000000,0.14822612,0.29533282,0.55222380,9,18,35,4,7,17,0.06307930,0.12018163,0.27026097,0.19161782,0.28257479,0.41882932
46115,0,USSouthDakotaSpink,South Dakota,Spink,2021-04-04 04:30:40.669713,2020-03-27 00:00:00.000000,0.15742519,0.31742595,0.58779902,10,20,37,4,8,19,0.07180746,0.13352486,0.30076469,0.17919615,0.25668325,0.39212604
46115,0,USSouthDakotaSpink,South Dakota,Spink,2021-04-04 04:30:40.669713,2020-03-28 00:00:00.000000,0.16494132,0.34031094,0.64088129,10,21,40,4,9,21,0.07685447,0.14663148,0.33602726,0.17341003,0.23701512,0.36539630
46115,0,USSouthDakotaSpink,South Dakota,Spink,2021-04-04 04:30:40.669713,2020-03-29 00:00:00.000000,0.17069887,0.35976515,0.66726334,10,22,42,5,10,22,0.08119964,0.15973661,0.35115120,0.16651653,0.22764854,0.34476286
46115,0,USSouthDakotaSpink,South Dakota,Spink,2021-04-04 04:30:40.669713,2020-03-30 00:00:00.000000,0.18845435,0.37569689,0.69542607,12,23,44,5,10,23,0.08291976,0.17083708,0.36708854,0.15730988,0.21988271,0.33743741
46115,0,USSouthDakotaSpink,South Dakota,Spink,2021-04-04 04:30:40.669713,2020-03-31 00:00:00.000000,0.20437003,0.39535410,0.71599235,13,25,45,5,11,24,0.08714999,0.18137583,0.38907863,0.14975456,0.20877887,0.32448178
46115,0,USSouthDakotaSpink,South Dakota,Spink,2021-04-04 04:30:40.669713,2020-04-01 00:00:00.000000,0.22020888,0.41624820,0.73547549,14,26,46,5,12,25,0.09299000,0.19246360,0.40441021,0.14073664,0.20357802,0.32094459
46115,0,USSouthDakotaSpink,South Dakota,Spink,2021-04-04 04:30:40.669713,2020-04-02 00:00:00.000000,0.23612700,0.44093465,0.75400309,15,28,48,6,12,26,0.09982238,0.20248418,0.42213125,0.12922119,0.19513620,0.31922565
46115,0,USSouthDakotaSpink,South Dakota,Spink,2021-04-04 04:30:40.669713,2020-04-03 00:00:00.000000,0.25091825,0.46683626,0.78854186,15,29,50,6,13,27,0.10860277,0.21263229,0.43296055,0.12041976,0.19095091,0.31820687
46115,0,USSouthDakotaSpink,South Dakota,Spink,2021-04-04 04:30:40.669713,2020-04-04 00:00:00.000000,0.26091573,0.47937205,0.82837825,16,30,52,7,14,28,0.11878660,0.22202679,0.44365943,0.11494089,0.18055093,0.30961556
46115,0,USSouthDakotaSpink,South Dakota,Spink,2021-04-04 04:30:40.669713,2020-04-05 00:00:00.000000,0.27065101,0.49983159,0.86607319,17,31,55,8,14,28,0.12906601,0.23517452,0.45294676,0.10309817,0.17158098,0.27713167
46115,0,USSouthDakotaSpink,South Dakota,Spink,2021-04-04 04:30:40.669713,2020-04-06 00:00:00.000000,0.26500814,0.49104804,0.84711379,16,31,54,8,15,29,0.13928530,0.24024172,0.46017818,0.08867053,0.16747726,0.23971888
46115,0,USSouthDakotaSpink,South Dakota,Spink,2021-04-04 04:30:40.669713,2020-04-07 00:00:00.000000,0.25410279,0.48184380,0.83347733,16,30,53,9,16,30,0.14487818,0.25152883,0.47376540,0.08649314,0.16205109,0.22975899
46115,0,USSouthDakotaSpink,South Dakota,Spink,2021-04-04 04:30:40.669713,2020-04-08 00:00:00.000000,0.24512751,0.47535947,0.81811802,15,30,52,9,16,29,0.14443231,0.25842987,0.46999728,0.08460842,0.15577157,0.22953882
46115,0,USSouthDakotaSpink,South Dakota,Spink,2021-04-04 04:30:40.669713,2020-04-09 00:00:00.000000,0.24440926,0.46741853,0.80138013,15,29,51,8,16,29,0.13997499,0.25733253,0.45887854,0.08301031,0.14752974,0.22881445
46115,0,USSouthDakotaSpink,South Dakota,Spink,2021-04-04 04:30:40.669713,2020-04-10 00:00:00.000000,0.23515690,0.45429140,0.78085352,14,28,49,8,16,28,0.13465588,0.25312153,0.45324502,0.08267410,0.14856763,0.22658443
46115,0,USSouthDakotaSpink,South Dakota,Spink,2021-04-04 04:30:40.669713,2020-04-11 00:00:00.000000,0.21920110,0.44040395,0.74961391,13,28,47,8,15,28,0.12953262,0.24730769,0.44425749,0.08244066,0.14039237,0.21605852
46115,0,USSouthDakotaSpink,South Dakota,Spink,2021-04-04 04:30:40.669713,2020-04-12 00:00:00.000000,0.20407926,0.42614526,0.71706282,13,27,45,8,15,27,0.12661843,0.24204753,0.43413095,0.08226270,0.13762139,0.20473427
46115,0,USSouthDakotaSpink,South Dakota,Spink,2021-04-04 04:30:40.669713,2020-04-13 00:00:00.000000,0.19084940,0.41217958,0.68396196,12,26,43,7,15,27,0.12260712,0.23824847,0.42437635,0.07421325,0.13471901,0.19526735
46115,0,USSouthDakotaSpink,South Dakota,Spink,2021-04-04 04:30:40.669713,2020-04-14 00:00:00.000000,0.18364409,0.39802780,0.65097369,11,25,41,7,14,26,0.11567089,0.23179588,0.41386032,0.06781950,0.13253041,0.18718555
46115,0,USSouthDakotaSpink,South Dakota,Spink,2021-04-04 04:30:40.669713,2020-04-15 00:00:00.000000,0.17374965,0.37921200,0.62856797,11,24,40,6,14,25,0.10869424,0.22784166,0.40283822,0.06671157,0.12837971,0.18556063
46115,0,USSouthDakotaSpink,South Dakota,Spink,2021-04-04 04:30:40.669713,2020-04-16 00:00:00.000000,0.16183414,0.36136472,0.61768893,10,23,39,6,14,25,0.10185164,0.22013472,0.39661759,0.06654224,0.12415594,0.18206562
46115,0,USSouthDakotaSpink,South Dakota,Spink,2021-04-04 04:30:40.669713,2020-04-17 00:00:00.000000,0.15063325,0.34193481,0.60678200,9,21,38,6,13,24,0.09526457,0.21263540,0.38970876,0.06606154,0.11875736,0.17611725
46115,0,USSouthDakotaSpink,South Dakota,Spink,2021-04-04 04:30:40.669713,2020-04-18 00:00:00.000000,0.14018951,0.32761551,0.59583544,8,20,37,5,13,24,0.08896266,0.20412117,0.38173306,0.06192453,0.11798639,0.17578165
46115,0,USSouthDakotaSpink,South Dakota,Spink,2021-04-04 04:30:40.669713,2020-04-19 00:00:00.000000,0.13053417,0.31388173,0.58483646,8,20,37,5,12,23,0.08378226,0.19633097,0.37267828,0.06100287,0.11576495,0.17567140
46115,0,USSouthDakotaSpink,South Dakota,Spink,2021-04-04 04:30:40.669713,2020-04-20 00:00:00.000000,0.14299277,0.31559528,0.59632288,9,20,38,5,11,23,0.07866413,0.18618504,0.36276724,0.05916322,0.11207834,0.17458183
46115,0,USSouthDakotaSpink,South Dakota,Spink,2021-04-04 04:30:40.669713,2020-04-21 00:00:00.000000,0.15654906,0.32260531,0.60128284,9,20,38,5,11,22,0.07865326,0.18072229,0.35655117,0.05888136,0.10758951,0.17571374
46115,0,USSouthDakotaSpink,South Dakota,Spink,2021-04-04 04:30:40.669713,2020-04-22 00:00:00.000000,0.16303085,0.33575417,0.59399421,10,21,37,5,11,22,0.08190318,0.17649331,0.35976773,0.05877786,0.10655922,0.17633890
46115,0,USSouthDakotaSpink,South Dakota,Spink,2021-04-04 04:30:40.669713,2020-04-23 00:00:00.000000,0.16090240,0.34017689,0.64739581,10,21,41,5,11,23,0.08501071,0.17700541,0.36758314,0.05847899,0.10672334,0.17280240
46115,0,USSouthDakotaSpink,South Dakota,Spink,2021-04-04 04:30:40.669713,2020-04-24 00:00:00.000000,0.15930665,0.34269579,0.66523107,10,21,42,5,11,22,0.08288342,0.18439345,0.36004597,0.05803849,0.10467236,0.16916667
46115,0,USSouthDakotaSpink,South Dakota,Spink,2021-04-04 04:30:40.669713,2020-04-25 00:00:00.000000,0.15901459,0.34738824,0.68088145,10,22,43,5,11,23,0.08122136,0.18782835,0.37357858,0.05641081,0.10212307,0.16418938
46115,0,USSouthDakotaSpink,South Dakota,Spink,2021-04-04 04:30:40.669713,2020-04-26 00:00:00.000000,0.16170000,0.34572023,0.69607163,10,22,44,5,12,25,0.07995206,0.19167204,0.40464639,0.05349016,0.09905951,0.16096202
46115,0,USSouthDakotaSpink,South Dakota,Spink,2021-04-04 04:30:40.669713,2020-04-27 00:00:00.000000,0.16999675,0.37170251,0.70975078,10,23,45,5,12,26,0.08223068,0.19186745,0.41839613,0.05166004,0.09742023,0.15896200
46115,0,USSouthDakotaSpink,South Dakota,Spink,2021-04-04 04:30:40.669713,2020-04-28 00:00:00.000000,0.18255653,0.37403180,0.72316293,11,23,46,5,12,27,0.08350699,0.19736015,0.42961302,0.05105046,0.09668801,0.16024763
46115,0,USSouthDakotaSpink,South Dakota,Spink,2021-04-04 04:30:40.669713,2020-04-29 00:00:00.000000,0.19559272,0.38676734,0.73628829,12,24,46,5,13,27,0.08404870,0.20538111,0.43900809,0.05087827,0.09672204,0.16111660
46115,0,USSouthDakotaSpink,South Dakota,Spink,2021-04-04 04:30:40.669713,2020-04-30 00:00:00.000000,0.19765248,0.39295931,0.74915047,12,25,47,5,13,28,0.08788673,0.20986168,0.44709481,0.05078955,0.09533417,0.15653845
46115,0,USSouthDakotaSpink,South Dakota,Spink,2021-04-04 04:30:40.669713,2020-05-01 00:00:00.000000,0.19923106,0.39428653,0.76176585,12,25,48,5,13,28,0.09289436,0.21088934,0.45424385,0.05057836,0.09394363,0.15576727
46115,0,USSouthDakotaSpink,South Dakota,Spink,2021-04-04 04:30:40.669713,2020-05-02 00:00:00.000000,0.19634374,0.39827361,0.77414767,12,25,49,6,13,29,0.09843275,0.21913532,0.46073137,0.04902919,0.09412701,0.15585405
46115,0,USSouthDakotaSpink,South Dakota,Spink,2021-04-04 04:30:40.669713,2020-05-03 00:00:00.000000,0.18989188,0.39876642,0.78687814,12,25,50,6,14,29,0.10440297,0.22078632,0.46679489,0.04585613,0.09209228,0.15626141
46115,0,USSouthDakotaSpink,South Dakota,Spink,2021-04-04 04:30:40.669713,2020-05-04 00:00:00.000000,0.17636559,0.38040631,0.77481338,11,24,49,6,14,29,0.10634125,0.22286468,0.46584031,0.04494311,0.08994076,0.15660072
46115,0,USSouthDakotaSpink,South Dakota,Spink,2021-04-04 04:30:40.669713,2020-05-05 00:00:00.000000,0.16296811,0.36168442,0.76008977,10,23,48,6,14,28,0.10207883,0.22044898,0.45444636,0.04483807,0.08935321,0.15574473
46115,0,USSouthDakotaSpink,South Dakota,Spink,2021-04-04 04:30:40.669713,2020-05-06 00:00:00.000000,0.14981243,0.34449667,0.74244614,9,21,47,6,13,28,0.09677402,0.21506197,0.43921464,0.04482914,0.08797496,0.15307028
46115,0,USSouthDakotaSpink,South Dakota,Spink,2021-04-04 04:30:40.669713,2020-05-07 00:00:00.000000,0.13898125,0.32979098,0.72195229,8,21,46,5,13,26,0.09089091,0.20832234,0.42159314,0.04484503,0.08529618,0.14807015
46115,0,USSouthDakotaSpink,South Dakota,Spink,2021-04-04 04:30:40.669713,2020-05-08 00:00:00.000000,0.12954293,0.31544795,0.70008015,8,20,44,5,12,25,0.08474976,0.20012774,0.40221366,0.04488880,0.08349259,0.14624799
46115,0,USSouthDakotaSpink,South Dakota,Spink,2021-04-04 04:30:40.669713,2020-05-09 00:00:00.000000,0.12021218,0.30119196,0.67704695,7,19,43,4,12,24,0.07816170,0.19197407,0.38998554,0.04476622,0.08318639,0.14483380
46115,0,USSouthDakotaSpink,South Dakota,Spink,2021-04-04 04:30:40.669713,2020-05-10 00:00:00.000000,0.11110631,0.28470713,0.65305784,7,18,41,4,11,24,0.07170411,0.18374165,0.38495816,0.04459392,0.08172087,0.14246918
46115,0,USSouthDakotaSpink,South Dakota,Spink,2021-04-04 04:30:40.669713,2020-05-11 00:00:00.000000,0.11997815,0.29439957,0.63804523,7,18,40,4,11,24,0.06654250,0.17541209,0.37908039,0.04178858,0.08076118,0.14221370
46115,0,USSouthDakotaSpink,South Dakota,Spink,2021-04-04 04:30:40.669713,2020-05-12 00:00:00.000000,0.12083691,0.29947779,0.62291089,7,19,39,4,10,23,0.06598923,0.17084481,0.37173457,0.03884693,0.08033205,0.14131398
46115,0,USSouthDakotaSpink,South Dakota,Spink,2021-04-04 04:30:40.669713,2020-05-13 00:00:00.000000,0.12258630,0.31243984,0.60810883,7,19,38,4,10,22,0.06653198,0.16921745,0.35691082,0.03982972,0.07959436,0.14263339
46115,0,USSouthDakotaSpink,South Dakota,Spink,2021-04-04 04:30:40.669713,2020-05-14 00:00:00.000000,0.12543494,0.31564982,0.59373514,7,20,37,4,10,21,0.06610589,0.16715828,0.34429134,0.04228674,0.07890723,0.14333715
46115,0,USSouthDakotaSpink,South Dakota,Spink,2021-04-04 04:30:40.669713,2020-05-15 00:00:00.000000,0.12864295,0.32120430,0.58872874,8,20,37,4,11,22,0.06640645,0.17500272,0.34758622,0.04475227,0.07885608,0.14361031
46115,0,USSouthDakotaSpink,South Dakota,Spink,2021-04-04 04:30:40.669713,2020-05-16 00:00:00.000000,0.13434604,0.33216109,0.63183341,8,21,40,4,11,22,0.06773334,0.17664957,0.35390006,0.04597655,0.07835116,0.14369337
46115,0,USSouthDakotaSpink,South Dakota,Spink,2021-04-04 04:30:40.669713,2020-05-17 00:00:00.000000,0.13983565,0.34351179,0.68340303,8,21,43,4,11,23,0.07053405,0.17771661,0.36092073,0.04328756,0.07822158,0.14365459
46115,0,USSouthDakotaSpink,South Dakota,Spink,2021-04-04 04:30:40.669713,2020-05-18 00:00:00.000000,0.16528259,0.34970174,0.66802153,10,22,42,4,11,23,0.07414413,0.18109569,0.36838796,0.04013841,0.07804443,0.14343840
46115,0,USSouthDakotaSpink,South Dakota,Spink,2021-04-04 04:30:40.669713,2020-05-19 00:00:00.000000,0.19042648,0.36311766,0.64997724,12,23,41,5,11,23,0.08095953,0.18384551,0.36620720,0.03970052,0.07822387,0.14287832
46115,0,USSouthDakotaSpink,South Dakota,Spink,2021-04-04 04:30:40.669713,2020-05-20 00:00:00.000000,0.19228137,0.36375155,0.65572928,12,23,41,5,11,23,0.08630822,0.18775291,0.36165405,0.03965856,0.07866528,0.13899974
46115,0,USSouthDakotaSpink,South Dakota,Spink,2021-04-04 04:30:40.669713,2020-05-21 00:00:00.000000,0.20504829,0.36043184,0.63914970,13,22,40,5,12,22,0.08977695,0.19064939,0.35594341,0.03965069,0.07919411,0.13717463
46115,0,USSouthDakotaSpink,South Dakota,Spink,2021-04-04 04:30:40.669713,2020-05-22 00:00:00.000000,0.21765284,0.37004588,0.62261604,13,23,39,6,12,22,0.09872523,0.19787295,0.34940294,0.03968493,0.07850449,0.13710190
46115,0,USSouthDakotaSpink,South Dakota,Spink,2021-04-04 04:30:40.669713,2020-05-23 00:00:00.000000,0.21801717,0.37731963,0.61429591,13,24,39,6,12,21,0.10775300,0.19997191,0.34228075,0.04015923,0.07854486,0.13508658
46115,0,USSouthDakotaSpink,South Dakota,Spink,2021-04-04 04:30:40.669713,2020-05-24 00:00:00.000000,0.21774853,0.38148287,0.62374903,13,24,39,7,13,21,0.11658199,0.20605898,0.33475211,0.03925882,0.07841229,0.13315422
46115,0,USSouthDakotaSpink,South Dakota,Spink,2021-04-04 04:30:40.669713,2020-05-25 00:00:00.000000,0.20359116,0.36793063,0.60311722,12,23,38,7,13,21,0.12049340,0.20990291,0.33313232,0.03867956,0.07889543,0.13431387
46115,0,USSouthDakotaSpink,South Dakota,Spink,2021-04-04 04:30:40.669713,2020-05-26 00:00:00.000000,0.18980339,0.35395709,0.58488896,12,22,37,7,13,20,0.11584803,0.20712820,0.32827544,0.03856924,0.08022851,0.13781949
46115,0,USSouthDakotaSpink,South Dakota,Spink,2021-04-04 04:30:40.669713,2020-05-27 00:00:00.000000,0.17630701,0.33489769,0.56531877,11,21,36,7,12,20,0.11021099,0.20381258,0.32047742,0.03851963,0.08194453,0.13781300
46115,0,USSouthDakotaSpink,South Dakota,Spink,2021-04-04 04:30:40.669713,2020-05-28 00:00:00.000000,0.16329630,0.31438583,0.54505095,10,20,34,6,12,19,0.10510811,0.19904434,0.31365446,0.03843844,0.08187489,0.13830426
46115,0,USSouthDakotaSpink,South Dakota,Spink,2021-04-04 04:30:40.669713,2020-05-29 00:00:00.000000,0.15220710,0.29561936,0.52464993,9,18,33,6,12,19,0.09982898,0.19338417,0.30465203,0.03826122,0.08192164,0.13926346
46115,0,USSouthDakotaSpink,South Dakota,Spink,2021-04-04 04:30:40.669713,2020-05-30 00:00:00.000000,0.14167313,0.28035115,0.50573476,9,17,32,5,11,18,0.09407491,0.18620575,0.29392437,0.03788425,0.08271723,0.13967379
46115,0,USSouthDakotaSpink,South Dakota,Spink,2021-04-04 04:30:40.669713,2020-05-31 00:00:00.000000,0.13162066,0.26530877,0.49202236,8,16,31,5,11,17,0.08816998,0.17748731,0.28229320,0.03716891,0.08189789,0.13991608
46115,0,USSouthDakotaSpink,South Dakota,Spink,2021-04-04 04:30:40.669713,2020-06-01 00:00:00.000000,0.14838786,0.28165308,0.50395000,9,17,32,5,10,17,0.08231855,0.16722056,0.27030137,0.03607252,0.08229298,0.14023823
46115,0,USSouthDakotaSpink,South Dakota,Spink,2021-04-04 04:30:40.669713,2020-06-02 00:00:00.000000,0.14986156,0.29115260,0.51531190,9,18,32,5,10,16,0.08587222,0.16306008,0.26365664,0.03476755,0.08236436,0.14102413
46115,0,USSouthDakotaSpink,South Dakota,Spink,2021-04-04 04:30:40.669713,2020-06-03 00:00:00.000000,0.15223926,0.30893569,0.52701284,9,19,33,5,10,16,0.08858374,0.16235074,0.26400543,0.03359597,0.08248591,0.14215802
46115,0,USSouthDakotaSpink,South Dakota,Spink,2021-04-04 04:30:40.669713,2020-06-04 00:00:00.000000,0.15520676,0.32340386,0.53900185,9,20,34,5,10,17,0.08750311,0.16390087,0.26863279,0.03267736,0.08033383,0.14962849
46115,0,USSouthDakotaSpink,South Dakota,Spink,2021-04-04 04:30:40.669713,2020-06-05 00:00:00.000000,0.15865209,0.34167359,0.55292955,10,21,35,5,10,17,0.08744957,0.16715124,0.27487141,0.03187198,0.07973097,0.14406199
46115,0,USSouthDakotaSpink,South Dakota,Spink,2021-04-04 04:30:40.669713,2020-06-06 00:00:00.000000,0.16257217,0.35627738,0.58863149,10,22,37,5,10,18,0.08813167,0.16972006,0.28231618,0.03255447,0.07954053,0.14287530
46115,0,USSouthDakotaSpink,South Dakota,Spink,2021-04-04 04:30:40.669713,2020-06-07 00:00:00.000000,0.16669009,0.36308376,0.64439022,10,23,41,5,11,18,0.08936977,0.17372757,0.29047556,0.03431249,0.07936179,0.14329756
46115,0,USSouthDakotaSpink,South Dakota,Spink,2021-04-04 04:30:40.669713,2020-06-08 00:00:00.000000,0.18329341,0.37383336,0.64546787,11,23,41,5,11,20,0.09099702,0.17733731,0.32299295,0.03571196,0.07998844,0.14301412
46115,0,USSouthDakotaSpink,South Dakota,Spink,2021-04-04 04:30:40.669713,2020-06-09 00:00:00.000000,0.19979733,0.37867620,0.64456859,12,24,41,6,11,21,0.09543312,0.18192264,0.34078317,0.03627584,0.07993386,0.14085486
46115,0,USSouthDakotaSpink,South Dakota,Spink,2021-04-04 04:30:40.669713,2020-06-10 00:00:00.000000,0.21627590,0.38438643,0.64111949,13,24,40,6,11,21,0.10168799,0.18704326,0.33787389,0.03693906,0.07937243,0.13773444
46115,0,USSouthDakotaSpink,South Dakota,Spink,2021-04-04 04:30:40.669713,2020-06-11 00:00:00.000000,0.23151585,0.39097070,0.66083024,14,24,42,6,12,22,0.10905919,0.19528291,0.34731300,0.03813905,0.07826554,0.13660402
46115,0,USSouthDakotaSpink,South Dakota,Spink,2021-04-04 04:30:40.669713,2020-06-12 00:00:00.000000,0.23221068,0.39598976,0.72884684,14,25,46,7,13,23,0.11706622,0.20438600,0.36616285,0.03962504,0.07950076,0.13625310
46115,0,USSouthDakotaSpink,South Dakota,Spink,2021-04-04 04:30:40.669713,2020-06-13 00:00:00.000000,0.23100218,0.39979342,0.79023118,14,25,50,7,13,24,0.11825434,0.21041319,0.38519905,0.04119368,0.08076317,0.14308260
46115,0,USSouthDakotaSpink,South Dakota,Spink,2021-04-04 04:30:40.669713,2020-06-14 00:00:00.000000,0.22902278,0.40380107,0.79090862,14,25,50,7,13,25,0.11712976,0.21503718,0.40408562,0.04267156,0.08153992,0.14918933
46115,0,USSouthDakotaSpink,South Dakota,Spink,2021-04-04 04:30:40.669713,2020-06-15 00:00:00.000000,0.23279755,0.40608333,0.79669751,14,25,50,7,13,26,0.11591525,0.21739635,0.42260408,0.04394098,0.08362224,0.14287566
46115,0,USSouthDakotaSpink,South Dakota,Spink,2021-04-04 04:30:40.669713,2020-06-16 00:00:00.000000,0.23212665,0.41733059,0.80500164,14,26,51,7,14,27,0.11912684,0.22099628,0.43452421,0.04495768,0.08392355,0.14535017
46115,0,USSouthDakotaSpink,South Dakota,Spink,2021-04-04 04:30:40.669713,2020-06-17 00:00:00.000000,0.23647673,0.43342700,0.80515931,15,27,51,7,14,28,0.12291502,0.22512018,0.45221196,0.04574668,0.08401938,0.13991074
46115,0,USSouthDakotaSpink,South Dakota,Spink,2021-04-04 04:30:40.669713,2020-06-18 00:00:00.000000,0.24031336,0.43650247,0.83285059,15,27,53,8,14,29,0.12747280,0.23031954,0.46939252,0.04639889,0.08455764,0.13258010
46115,0,USSouthDakotaSpink,South Dakota,Spink,2021-04-04 04:30:40.669713,2020-06-19 00:00:00.000000,0.24393821,0.43657615,0.83686313,15,27,53,8,14,30,0.13240051,0.23189661,0.48576521,0.04711137,0.08359191,0.13466724
46115,0,USSouthDakotaSpink,South Dakota,Spink,2021-04-04 04:30:40.669713,2020-06-20 00:00:00.000000,0.24760832,0.43732504,0.84142910,15,27,53,8,15,31,0.13736014,0.23565383,0.49018163,0.04798575,0.08445813,0.13949425
46115,0,USSouthDakotaSpink,South Dakota,Spink,2021-04-04 04:30:40.669713,2020-06-21 00:00:00.000000,0.25130464,0.43744651,0.87810263,16,27,55,8,15,30,0.13818835,0.23820671,0.48531118,0.04648108,0.08595300,0.14531110
46115,0,USSouthDakotaSpink,South Dakota,Spink,2021-04-04 04:30:40.669713,2020-06-22 00:00:00.000000,0.25347106,0.43902451,0.89232110,16,27,56,8,15,30,0.13918136,0.23816493,0.48032458,0.04535437,0.08613390,0.14418933
46115,0,USSouthDakotaSpink,South Dakota,Spink,2021-04-04 04:30:40.669713,2020-06-23 00:00:00.000000,0.26128482,0.44001506,0.88204353,16,28,56,8,15,30,0.13905096,0.23825578,0.48061911,0.04511724,0.08711906,0.14648568
46115,0,USSouthDakotaSpink,South Dakota,Spink,2021-04-04 04:30:40.669713,2020-06-24 00:00:00.000000,0.25710977,0.44500432,0.86355723,16,28,55,8,15,30,0.13702437,0.24507201,0.48450675,0.04513877,0.08887196,0.14583764
46115,0,USSouthDakotaSpink,South Dakota,Spink,2021-04-04 04:30:40.669713,2020-06-25 00:00:00.000000,0.25840431,0.46482451,0.84468514,16,29,53,8,15,31,0.13610559,0.24476649,0.49080880,0.04530384,0.09120182,0.14130792
46115,0,USSouthDakotaSpink,South Dakota,Spink,2021-04-04 04:30:40.669713,2020-06-26 00:00:00.000000,0.25821578,0.47033015,0.84122013,16,29,53,8,15,31,0.13411005,0.24712398,0.49871944,0.04975078,0.09166066,0.14117705
46115,0,USSouthDakotaSpink,South Dakota,Spink,2021-04-04 04:30:40.669713,2020-06-27 00:00:00.000000,0.25415757,0.47628191,0.85903285,16,30,54,8,16,32,0.13205518,0.25312933,0.50741316,0.05268461,0.09298514,0.14776365
46115,0,USSouthDakotaSpink,South Dakota,Spink,2021-04-04 04:30:40.669713,2020-06-28 00:00:00.000000,0.25046349,0.47395471,0.87697990,15,30,55,8,16,32,0.13000575,0.25609820,0.51683060,0.05516647,0.09630874,0.14961423
46115,0,USSouthDakotaSpink,South Dakota,Spink,2021-04-04 04:30:40.669713,2020-06-29 00:00:00.000000,0.25417242,0.48033698,0.87023314,16,30,55,8,16,33,0.12801047,0.26372445,0.52596564,0.05491245,0.09828113,0.14948585
46115,0,USSouthDakotaSpink,South Dakota,Spink,2021-04-04 04:30:40.669713,2020-06-30 00:00:00.000000,0.26727899,0.50661039,0.86314714,17,32,55,8,17,32,0.12747757,0.26984987,0.51681076,0.05640422,0.09815129,0.15345548
46115,0,USSouthDakotaSpink,South Dakota,Spink,2021-04-04 04:30:40.669713,2020-07-01 00:00:00.000000,0.27055102,0.52077114,0.87594685,17,33,55,8,17,32,0.13018196,0.27663569,0.51098798,0.05799260,0.09754607,0.15345639
46115,0,USSouthDakotaSpink,South Dakota,Spink,2021-04-04 04:30:40.669713,2020-07-02 00:00:00.000000,0.27331602,0.52588841,0.90725958,17,33,57,8,17,32,0.13525931,0.28027327,0.50926952,0.05933002,0.09862278,0.15471596
46115,0,USSouthDakotaSpink,South Dakota,Spink,2021-04-04 04:30:40.669713,2020-07-03 00:00:00.000000,0.27603689,0.53033839,0.91998067,17,33,58,9,18,32,0.14128645,0.28244580,0.50665793,0.06303997,0.10013101,0.15484886
46115,0,USSouthDakotaSpink,South Dakota,Spink,2021-04-04 04:30:40.669713,2020-07-04 00:00:00.000000,0.27563364,0.52313701,0.91989857,17,33,58,9,18,33,0.14785362,0.28697252,0.52394751,0.06505302,0.10100758,0.15486758
46115,0,USSouthDakotaSpink,South Dakota,Spink,2021-04-04 04:30:40.669713,2020-07-05 00:00:00.000000,0.27970281,0.52289450,1.00614040,17,33,64,9,18,33,0.15187123,0.28857395,0.52324843,0.06402648,0.10512095,0.16070611
46115,0,USSouthDakotaSpink,South Dakota,Spink,2021-04-04 04:30:40.669713,2020-07-06 00:00:00.000000,0.30386477,0.52595583,1.00795937,19,33,64,9,18,33,0.14839710,0.28574423,0.52014449,0.06272903,0.10708854,0.16680205
46115,0,USSouthDakotaSpink,South Dakota,Spink,2021-04-04 04:30:40.669713,2020-07-07 00:00:00.000000,0.32456325,0.53352268,1.00923228,20,34,64,9,18,35,0.15304401,0.29291451,0.54973433,0.06284644,0.10667363,0.16925029
46115,0,USSouthDakotaSpink,South Dakota,Spink,2021-04-04 04:30:40.669713,2020-07-08 00:00:00.000000,0.32522270,0.53016954,1.00799720,20,33,64,9,18,34,0.15591761,0.29317529,0.54643095,0.06169500,0.10738131,0.17056192
46115,0,USSouthDakotaSpink,South Dakota,Spink,2021-04-04 04:30:40.669713,2020-07-09 00:00:00.000000,0.32561896,0.54118161,1.00066281,20,34,63,10,18,34,0.16248888,0.29605698,0.53640754,0.06105950,0.10702012,0.17602553
46115,0,USSouthDakotaSpink,South Dakota,Spink,2021-04-04 04:30:40.669713,2020-07-10 00:00:00.000000,0.32753616,0.54572528,0.99198925,20,34,63,10,19,33,0.16476860,0.30047467,0.52487110,0.06339960,0.11068341,0.17742831
46115,0,USSouthDakotaSpink,South Dakota,Spink,2021-04-04 04:30:40.669713,2020-07-11 00:00:00.000000,0.33032709,0.57219018,0.98330509,21,36,62,10,19,32,0.17007516,0.29989253,0.51259851,0.06714910,0.11282219,0.17882158
46115,0,USSouthDakotaSpink,South Dakota,Spink,2021-04-04 04:30:40.669713,2020-07-12 00:00:00.000000,0.33702574,0.59189584,0.97565145,21,37,62,11,19,31,0.17577245,0.30193512,0.50022365,0.06811208,0.11515966,0.18238252
46115,0,USSouthDakotaSpink,South Dakota,Spink,2021-04-04 04:30:40.669713,2020-07-13 00:00:00.000000,0.36085205,0.59811154,1.01046522,23,38,64,11,19,31,0.18427135,0.30448952,0.49729355,0.06789693,0.11654351,0.18602895
46115,0,USSouthDakotaSpink,South Dakota,Spink,2021-04-04 04:30:40.669713,2020-07-14 00:00:00.000000,0.35731119,0.60816393,1.01078769,22,38,64,11,19,31,0.18787736,0.31166472,0.49807022,0.06779911,0.11562831,0.18933764
46115,0,USSouthDakotaSpink,South Dakota,Spink,2021-04-04 04:30:40.669713,2020-07-15 00:00:00.000000,0.34806600,0.61120776,1.01058547,22,38,64,11,20,32,0.18820095,0.31715966,0.51141193,0.06783745,0.11793518,0.19106958
46115,0,USSouthDakotaSpink,South Dakota,Spink,2021-04-04 04:30:40.669713,2020-07-16 00:00:00.000000,0.33964928,0.61031637,1.01054991,21,38,64,12,20,33,0.18999797,0.32120816,0.53004931,0.06808027,0.12164134,0.19192039
46115,0,USSouthDakotaSpink,South Dakota,Spink,2021-04-04 04:30:40.669713,2020-07-17 00:00:00.000000,0.33239410,0.60961573,1.03954616,21,38,66,12,20,33,0.18956184,0.32417167,0.52980540,0.06867295,0.12257545,0.19348318
46115,0,USSouthDakotaSpink,South Dakota,Spink,2021-04-04 04:30:40.669713,2020-07-18 00:00:00.000000,0.32639894,0.60950085,1.07503401,20,38,68,11,20,35,0.18448022,0.32725253,0.55500440,0.07033889,0.12610199,0.20674692
46115,0,USSouthDakotaSpink,South Dakota,Spink,2021-04-04 04:30:40.669713,2020-07-19 00:00:00.000000,0.32152429,0.60437837,1.10961349,20,38,70,11,20,37,0.17986119,0.32922993,0.58959657,0.07389256,0.12854091,0.21527462
46115,0,USSouthDakotaSpink,South Dakota,Spink,2021-04-04 04:30:40.669713,2020-07-20 00:00:00.000000,0.34587109,0.61654753,1.12791406,22,39,71,11,21,39,0.17572530,0.33418439,0.61301164,0.07337049,0.13104400,0.21935600
46115,0,USSouthDakotaSpink,South Dakota,Spink,2021-04-04 04:30:40.669713,2020-07-21 00:00:00.000000,0.34583104,0.63310897,1.14555577,22,40,73,11,21,40,0.17558468,0.33901820,0.63118978,0.07407134,0.13178037,0.22101918
46115,0,USSouthDakotaSpink,South Dakota,Spink,2021-04-04 04:30:40.669713,2020-07-22 00:00:00.000000,0.34637924,0.64463290,1.16283799,22,41,74,11,21,41,0.17724939,0.34282421,0.64704709,0.07726354,0.13513878,0.23091654
46115,0,USSouthDakotaSpink,South Dakota,Spink,2021-04-04 04:30:40.669713,2020-07-23 00:00:00.000000,0.34749969,0.66183120,1.26453069,22,42,80,11,22,42,0.17422690,0.34943393,0.66124358,0.07755240,0.13718998,0.24557613
46115,0,USSouthDakotaSpink,South Dakota,Spink,2021-04-04 04:30:40.669713,2020-07-24 00:00:00.000000,0.34933268,0.66334409,1.27997767,22,42,81,11,22,45,0.17601393,0.35770772,0.71509922,0.08100394,0.14226719,0.24118130
46115,0,USSouthDakotaSpink,South Dakota,Spink,2021-04-04 04:30:40.669713,2020-07-25 00:00:00.000000,0.34871787,0.67305473,1.30544133,22,42,83,11,23,48,0.18004593,0.36168326,0.76131273,0.08501228,0.14839295,0.25209386
46115,0,USSouthDakotaSpink,South Dakota,Spink,2021-04-04 04:30:40.669713,2020-07-26 00:00:00.000000,0.34739513,0.67825667,1.40821537,22,43,89,11,23,49,0.18478699,0.36537150,0.78197280,0.08864278,0.14969998,0.25623644
46115,0,USSouthDakotaSpink,South Dakota,Spink,2021-04-04 04:30:40.669713,2020-07-27 00:00:00.000000,0.37938475,0.68622611,1.41337339,24,43,90,11,23,50,0.18751270,0.37603202,0.79435675,0.09063174,0.15605799,0.26193382
46115,0,USSouthDakotaSpink,South Dakota,Spink,2021-04-04 04:30:40.669713,2020-07-28 00:00:00.000000,0.40978887,0.70789523,1.41695447,26,45,90,12,23,51,0.19638956,0.37568417,0.80480628,0.09139521,0.15891019,0.27148335
46115,0,USSouthDakotaSpink,South Dakota,Spink,2021-04-04 04:30:40.669713,2020-07-29 00:00:00.000000,0.42106985,0.72059685,1.41750885,26,45,90,13,23,52,0.20962289,0.37230015,0.81665805,0.09457479,0.16197933,0.28427724
46115,0,USSouthDakotaSpink,South Dakota,Spink,2021-04-04 04:30:40.669713,2020-07-30 00:00:00.000000,0.43226556,0.73824680,1.41598438,27,47,90,14,24,52,0.22566508,0.38143245,0.82949931,0.10137075,0.16351492,0.29745998
46115,0,USSouthDakotaSpink,South Dakota,Spink,2021-04-04 04:30:40.669713,2020-07-31 00:00:00.000000,0.43267530,0.74813798,1.42898509,27,47,91,14,24,53,0.22730207,0.38612827,0.84304682,0.10930679,0.16697361,0.30738173
46115,0,USSouthDakotaSpink,South Dakota,Spink,2021-04-04 04:30:40.669713,2020-08-01 00:00:00.000000,0.42439158,0.75851039,1.48584973,27,48,94,13,24,54,0.21775865,0.39119251,0.85713581,0.11239174,0.17116608,0.31350357
46115,0,USSouthDakotaSpink,South Dakota,Spink,2021-04-04 04:30:40.669713,2020-08-02 00:00:00.000000,0.44111993,0.78848283,1.50871096,28,50,96,14,25,55,0.22275185,0.40706746,0.87174345,0.11817724,0.17585587,0.32245760
46115,0,USSouthDakotaSpink,South Dakota,Spink,2021-04-04 04:30:40.669713,2020-08-03 00:00:00.000000,0.48418611,0.82067916,1.55034986,30,52,98,15,26,57,0.24198368,0.41531577,0.90931390,0.12151681,0.18242229,0.32920174
46115,0,USSouthDakotaSpink,South Dakota,Spink,2021-04-04 04:30:40.669713,2020-08-04 00:00:00.000000,0.49450528,0.85065341,1.59204718,31,54,101,17,26,59,0.27063678,0.42171959,0.93629139,0.12164182,0.18504821,0.34070848
46115,0,USSouthDakotaSpink,South Dakota,Spink,2021-04-04 04:30:40.669713,2020-08-05 00:00:00.000000,0.49677251,0.87342861,1.62599882,31,55,103,18,27,60,0.29010265,0.42926365,0.94877563,0.12209461,0.19320245,0.34844047
46115,0,USSouthDakotaSpink,South Dakota,Spink,2021-04-04 04:30:40.669713,2020-08-06 00:00:00.000000,0.49981208,0.90971556,1.63766778,31,58,104,18,27,61,0.29351023,0.43735134,0.95997489,0.12425248,0.19795352,0.34851340
46115,0,USSouthDakotaSpink,South Dakota,Spink,2021-04-04 04:30:40.669713,2020-08-07 00:00:00.000000,0.50368276,0.96904308,1.65904538,32,61,105,18,28,61,0.29591456,0.45088853,0.97131112,0.13300805,0.20459887,0.36067839
46115,0,USSouthDakotaSpink,South Dakota,Spink,2021-04-04 04:30:40.669713,2020-08-08 00:00:00.000000,0.50850393,1.01562069,1.70700579,32,64,108,18,30,62,0.29767003,0.47757883,0.98504080,0.13468076,0.20764359,0.35902056
46115,0,USSouthDakotaSpink,South Dakota,Spink,2021-04-04 04:30:40.669713,2020-08-09 00:00:00.000000,0.51436399,1.05904811,1.75855769,32,67,112,19,31,63,0.29841556,0.50172819,1.00116385,0.13612816,0.21708901,0.37220146
46115,0,USSouthDakotaSpink,South Dakota,Spink,2021-04-04 04:30:40.669713,2020-08-10 00:00:00.000000,0.55492745,1.13541809,1.79217435,35,72,114,19,33,64,0.29855210,0.52906095,1.01924497,0.14426150,0.21938386,0.38092604
46115,0,USSouthDakotaSpink,South Dakota,Spink,2021-04-04 04:30:40.669713,2020-08-11 00:00:00.000000,0.60140646,1.20814163,1.82789142,38,77,116,19,34,67,0.30228532,0.54738936,1.05238261,0.15315373,0.22843695,0.38615635
46115,0,USSouthDakotaSpink,South Dakota,Spink,2021-04-04 04:30:40.669713,2020-08-12 00:00:00.000000,0.64415265,1.27574526,1.86406693,41,81,118,19,36,69,0.30802618,0.57763148,1.09740919,0.15558333,0.23518539,0.39551323
46115,0,USSouthDakotaSpink,South Dakota,Spink,2021-04-04 04:30:40.669713,2020-08-13 00:00:00.000000,0.66137512,1.37395976,1.90141582,42,87,121,20,39,72,0.31498591,0.61567443,1.13275512,0.16036115,0.24269755,0.40273429
46115,0,USSouthDakotaSpink,South Dakota,Spink,2021-04-04 04:30:40.669713,2020-08-14 00:00:00.000000,0.67936876,1.45246544,2.01296917,43,92,128,20,42,73,0.32870108,0.66238246,1.15374931,0.16661940,0.24994647,0.40873894
46115,0,USSouthDakotaSpink,South Dakota,Spink,2021-04-04 04:30:40.669713,2020-08-15 00:00:00.000000,0.70679851,1.50503557,2.14557989,45,95,136,21,45,74,0.34391522,0.70598001,1.17471395,0.17943774,0.25424761,0.40880345
46115,0,USSouthDakotaSpink,South Dakota,Spink,2021-04-04 04:30:40.669713,2020-08-16 00:00:00.000000,0.75145383,1.57673662,2.26636211,47,100,144,22,47,76,0.36036600,0.74021115,1.19691318,0.18580898,0.26631760,0.44512220
46115,0,USSouthDakotaSpink,South Dakota,Spink,2021-04-04 04:30:40.669713,2020-08-17 00:00:00.000000,0.90889016,1.69958044,2.38660510,57,108,152,24,51,77,0.37768523,0.80329858,1.22055758,0.19148992,0.27263981,0.46309109
46115,0,USSouthDakotaSpink,South Dakota,Spink,2021-04-04 04:30:40.669713,2020-08-18 00:00:00.000000,1.05323307,1.81351316,2.49612230,67,115,159,27,54,81,0.42370577,0.85748781,1.27845296,0.19075476,0.28328096,0.46530571
46115,0,USSouthDakotaSpink,South Dakota,Spink,2021-04-04 04:30:40.669713,2020-08-19 00:00:00.000000,1.15189401,1.91173575,2.58678572,73,121,164,31,57,83,0.48903481,0.90650585,1.30333944,0.19126427,0.28319988,0.46089138
46115,0,USSouthDakotaSpink,South Dakota,Spink,2021-04-04 04:30:40.669713,2020-08-20 00:00:00.000000,1.29883853,2.01048756,2.65223759,82,128,169,35,60,87,0.56393220,0.95329216,1.36631039,0.19170000,0.28197868,0.45188491
46115,0,USSouthDakotaSpink,South Dakota,Spink,2021-04-04 04:30:40.669713,2020-08-21 00:00:00.000000,1.43789902,2.12346711,2.75108618,91,135,175,41,63,92,0.64485890,0.99704403,1.45701796,0.19484278,0.28592426,0.43861779
46115,0,USSouthDakotaSpink,South Dakota,Spink,2021-04-04 04:30:40.669713,2020-08-22 00:00:00.000000,1.51873943,2.25078367,2.90086845,96,143,184,45,66,98,0.70578438,1.04484668,1.54478326,0.20435633,0.29002174,0.43242272
46115,0,USSouthDakotaSpink,South Dakota,Spink,2021-04-04 04:30:40.669713,2020-08-23 00:00:00.000000,1.59462867,2.33685494,3.07533103,101,148,196,46,70,103,0.73408645,1.10790754,1.62569269,0.20629047,0.29499164,0.43669911
46115,0,USSouthDakotaSpink,South Dakota,Spink,2021-04-04 04:30:40.669713,2020-08-24 00:00:00.000000,1.65477476,2.43384369,3.30182789,105,155,210,49,74,108,0.77559384,1.17265250,1.70096534,0.20909547,0.30172576,0.43946929
46115,0,USSouthDakotaSpink,South Dakota,Spink,2021-04-04 04:30:40.669713,2020-08-25 00:00:00.000000,1.77958020,2.52318872,3.53280760,113,160,225,53,78,112,0.83849896,1.23645100,1.76496521,0.21310914,0.30093528,0.46260240
46115,0,USSouthDakotaSpink,South Dakota,Spink,2021-04-04 04:30:40.669713,2020-08-26 00:00:00.000000,1.93496810,2.59144012,3.77015121,123,165,240,55,82,116,0.87570211,1.29365801,1.82319974,0.21914312,0.30367371,0.45697674
46115,0,USSouthDakotaSpink,South Dakota,Spink,2021-04-04 04:30:40.669713,2020-08-27 00:00:00.000000,2.04115102,2.65923907,4.01446190,130,169,255,57,86,121,0.90660916,1.36095857,1.89913034,0.22867829,0.30291844,0.46043499
46115,0,USSouthDakotaSpink,South Dakota,Spink,2021-04-04 04:30:40.669713,2020-08-28 00:00:00.000000,2.09445990,2.76885135,4.26546612,133,176,271,59,90,125,0.93628917,1.41864497,1.97504609,0.23633554,0.30891356,0.46382514
46115,0,USSouthDakotaSpink,South Dakota,Spink,2021-04-04 04:30:40.669713,2020-08-29 00:00:00.000000,2.15137790,2.88982514,4.51821168,137,184,288,61,94,130,0.96575781,1.48716715,2.05052104,0.24250914,0.30757006,0.43907559
46115,0,USSouthDakotaSpink,South Dakota,Spink,2021-04-04 04:30:40.669713,2020-08-30 00:00:00.000000,2.21165460,3.00090009,4.76111794,141,191,303,63,98,135,0.99715497,1.54929299,2.12595858,0.24062343,0.31095982,0.41442012
46115,0,USSouthDakotaSpink,South Dakota,Spink,2021-04-04 04:30:40.669713,2020-08-31 00:00:00.000000,2.25441003,3.10171415,4.95485767,143,197,315,65,102,141,1.03384368,1.60113904,2.22180349,0.23787374,0.31219727,0.39632586
46115,0,USSouthDakotaSpink,South Dakota,Spink,2021-04-04 04:30:40.669713,2020-09-01 00:00:00.000000,2.29884090,3.20045428,5.13845940,146,204,327,68,105,148,1.08172050,1.65345064,2.32476270,0.23687193,0.31115560,0.38865211
46115,0,USSouthDakotaSpink,South Dakota,Spink,2021-04-04 04:30:40.669713,2020-09-02 00:00:00.000000,2.37996576,3.33327105,5.30368681,151,212,338,72,109,154,1.13679537,1.71484632,2.42497849,0.22952430,0.30888109,0.39107804
46115,0,USSouthDakotaSpink,South Dakota,Spink,2021-04-04 04:30:40.669713,2020-09-03 00:00:00.000000,2.47923510,3.45049573,5.44960303,158,220,347,74,113,160,1.17341960,1.78115163,2.52157944,0.22745159,0.30882093,0.39465784
46115,0,USSouthDakotaSpink,South Dakota,Spink,2021-04-04 04:30:40.669713,2020-09-04 00:00:00.000000,2.52970287,3.53623844,5.58261925,161,225,355,79,116,165,1.24360555,1.82808576,2.59402277,0.22071849,0.30525772,0.39902700
46115,0,USSouthDakotaSpink,South Dakota,Spink,2021-04-04 04:30:40.669713,2020-09-05 00:00:00.000000,2.58049332,3.66923905,5.70890368,164,233,363,81,121,171,1.28294066,1.89788283,2.68959389,0.21826213,0.30475262,0.41205165
46115,0,USSouthDakotaSpink,South Dakota,Spink,2021-04-04 04:30:40.669713,2020-09-06 00:00:00.000000,2.63540867,3.83586696,5.83118067,168,244,371,84,125,178,1.32129314,1.97391941,2.79268898,0.21526186,0.30616088,0.42067613
46115,0,USSouthDakotaSpink,South Dakota,Spink,2021-04-04 04:30:40.669713,2020-09-07 00:00:00.000000,2.72552914,3.96341115,5.94628751,173,252,379,86,128,184,1.35882403,2.02319751,2.88878806,0.21646620,0.30593225,0.44221294
46115,0,USSouthDakotaSpink,South Dakota,Spink,2021-04-04 04:30:40.669713,2020-09-08 00:00:00.000000,2.83527671,4.05450346,6.05907972,180,258,386,88,133,188,1.39272411,2.09227142,2.95601689,0.22298776,0.30960679,0.45110265
46115,0,USSouthDakotaSpink,South Dakota,Spink,2021-04-04 04:30:40.669713,2020-09-09 00:00:00.000000,2.89510145,4.15383478,6.16819723,184,264,393,90,136,191,1.42468762,2.13948105,3.00798132,0.22966517,0.30544812,0.44492541
46115,0,USSouthDakotaSpink,South Dakota,Spink,2021-04-04 04:30:40.669713,2020-09-10 00:00:00.000000,3.02210255,4.24763456,6.27041894,192,270,399,94,139,194,1.48388692,2.19379601,3.05699530,0.22304875,0.30723996,0.42614286
46115,0,USSouthDakotaSpink,South Dakota,Spink,2021-04-04 04:30:40.669713,2020-09-11 00:00:00.000000,3.15640240,4.35837075,6.36216514,201,277,405,98,143,199,1.54722052,2.24604244,3.13291980,0.22345290,0.30052473,0.41956264
46115,0,USSouthDakotaSpink,South Dakota,Spink,2021-04-04 04:30:40.669713,2020-09-12 00:00:00.000000,3.23568297,4.46128263,6.44334273,206,284,410,102,147,204,1.61293145,2.31062523,3.20514828,0.21832852,0.29428437,0.41458537
46115,0,USSouthDakotaSpink,South Dakota,Spink,2021-04-04 04:30:40.669713,2020-09-13 00:00:00.000000,3.33153592,4.57267427,6.51723181,212,291,415,105,149,210,1.65103082,2.34321239,3.30326629,0.21434733,0.29549166,0.41348683
46115,0,USSouthDakotaSpink,South Dakota,Spink,2021-04-04 04:30:40.669713,2020-09-14 00:00:00.000000,3.43636790,4.66421998,6.61172676,219,297,421,107,152,216,1.68289327,2.39321679,3.39170516,0.20800827,0.29077996,0.40657037
46115,0,USSouthDakotaSpink,South Dakota,Spink,2021-04-04 04:30:40.669713,2020-09-15 00:00:00.000000,3.54361092,4.76873363,6.70307797,225,304,427,109,156,220,1.71585952,2.45935359,3.45705831,0.20705413,0.28876294,0.39830582
46115,0,USSouthDakotaSpink,South Dakota,Spink,2021-04-04 04:30:40.669713,2020-09-16 00:00:00.000000,3.63183784,4.86797691,6.79218718,231,310,433,112,161,224,1.76099762,2.53539985,3.52049887,0.20538125,0.28187942,0.39717502
46115,0,USSouthDakotaSpink,South Dakota,Spink,2021-04-04 04:30:40.669713,2020-09-17 00:00:00.000000,3.69130903,4.97047152,6.87309923,235,316,438,114,166,228,1.78939605,2.61411557,3.58125756,0.19737641,0.28794933,0.39196469
46115,0,USSouthDakotaSpink,South Dakota,Spink,2021-04-04 04:30:40.669713,2020-09-18 00:00:00.000000,3.74656500,5.04371465,6.93645760,238,321,442,115,172,231,1.81562732,2.69882243,3.63863851,0.20010190,0.28806767,0.38194692
46115,0,USSouthDakotaSpink,South Dakota,Spink,2021-04-04 04:30:40.669713,2020-09-19 00:00:00.000000,3.79635463,5.13783910,7.01838287,242,327,447,118,175,235,1.85979455,2.75043721,3.69403602,0.20262155,0.28231969,0.37710072
46115,0,USSouthDakotaSpink,South Dakota,Spink,2021-04-04 04:30:40.669713,2020-09-20 00:00:00.000000,3.84023440,5.22761660,7.09908626,244,333,452,121,177,241,1.90442518,2.78717494,3.78393922,0.21037701,0.27922286,0.36673909
46115,0,USSouthDakotaSpink,South Dakota,Spink,2021-04-04 04:30:40.669713,2020-09-21 00:00:00.000000,3.88496622,5.31904705,7.16901613,247,339,457,123,178,247,1.94066776,2.80575158,3.87392072,0.20951609,0.28118187,0.35669303
46115,0,USSouthDakotaSpink,South Dakota,Spink,2021-04-04 04:30:40.669713,2020-09-22 00:00:00.000000,3.92653792,5.39392257,7.20389061,250,343,459,125,180,252,1.96829963,2.83640182,3.96611203,0.20869840,0.28103586,0.35989064
46115,0,USSouthDakotaSpink,South Dakota,Spink,2021-04-04 04:30:40.669713,2020-09-23 00:00:00.000000,3.96503086,5.43728462,7.22097690,252,346,460,126,185,253,1.98942848,2.91076625,3.97975892,0.21017619,0.28042192,0.36025626
46115,0,USSouthDakotaSpink,South Dakota,Spink,2021-04-04 04:30:40.669713,2020-09-24 00:00:00.000000,3.99903366,5.51065059,7.22519321,254,351,460,127,189,251,2.00649970,2.97518198,3.94260439,0.21162575,0.27811665,0.35801742
46115,0,USSouthDakotaSpink,South Dakota,Spink,2021-04-04 04:30:40.669713,2020-09-25 00:00:00.000000,4.02654650,5.56701336,7.23439441,256,354,461,128,191,249,2.02237819,3.00634690,3.90592622,0.21447878,0.27895963,0.35310645
46115,0,USSouthDakotaSpink,South Dakota,Spink,2021-04-04 04:30:40.669713,2020-09-26 00:00:00.000000,4.04694692,5.61152688,7.46163410,258,357,475,130,194,249,2.03963595,3.05050872,3.91724765,0.21933623,0.27809339,0.35840129
46115,0,USSouthDakotaSpink,South Dakota,Spink,2021-04-04 04:30:40.669713,2020-09-27 00:00:00.000000,4.08595165,5.67006271,7.69837438,260,361,490,131,197,253,2.05905116,3.09484344,3.96925508,0.22284286,0.28048402,0.36568761
46115,0,USSouthDakotaSpink,South Dakota,Spink,2021-04-04 04:30:40.669713,2020-09-28 00:00:00.000000,4.15278362,5.76253608,7.82881561,264,367,499,132,200,259,2.08028063,3.14253055,4.06797550,0.22267590,0.28461537,0.36980133
46115,0,USSouthDakotaSpink,South Dakota,Spink,2021-04-04 04:30:40.669713,2020-09-29 00:00:00.000000,4.23897692,5.82078388,7.90705974,270,371,504,134,203,265,2.10552485,3.18500584,4.16541932,0.22309467,0.28509085,0.37175560
46115,0,USSouthDakotaSpink,South Dakota,Spink,2021-04-04 04:30:40.669713,2020-09-30 00:00:00.000000,4.29331448,5.91285272,7.97814026,273,377,508,136,204,271,2.13493131,3.20369999,4.26226813,0.23245969,0.28559668,0.37257254
46115,0,USSouthDakotaSpink,South Dakota,Spink,2021-04-04 04:30:40.669713,2020-10-01 00:00:00.000000,4.30423539,5.97856319,8.04549287,274,381,512,138,206,277,2.17936155,3.24011448,4.35938196,0.23763648,0.28779990,0.37286311
46115,0,USSouthDakotaSpink,South Dakota,Spink,2021-04-04 04:30:40.669713,2020-10-02 00:00:00.000000,4.40762665,6.08855154,8.11081644,281,388,517,142,209,284,2.23313324,3.29101331,4.45773640,0.23920902,0.29391617,0.37790416
46115,0,USSouthDakotaSpink,South Dakota,Spink,2021-04-04 04:30:40.669713,2020-10-03 00:00:00.000000,4.48863814,6.20003049,8.19044605,286,395,522,145,214,290,2.28759255,3.35877072,4.55872045,0.24301381,0.30383243,0.38997780
46115,0,USSouthDakotaSpink,South Dakota,Spink,2021-04-04 04:30:40.669713,2020-10-04 00:00:00.000000,4.55613859,6.30674348,8.31521287,290,402,530,149,216,297,2.34226075,3.39703985,4.66386469,0.24764964,0.31054348,0.39432779
46115,0,USSouthDakotaSpink,South Dakota,Spink,2021-04-04 04:30:40.669713,2020-10-05 00:00:00.000000,4.67407674,6.41040400,8.46793350,298,408,539,152,220,303,2.39679751,3.46565821,4.75750021,0.25383584,0.31481675,0.41736230
46115,0,USSouthDakotaSpink,South Dakota,Spink,2021-04-04 04:30:40.669713,2020-10-06 00:00:00.000000,4.73427164,6.52229985,8.68696399,301,415,553,154,225,310,2.42199174,3.53052040,4.86358966,0.25546040,0.31729949,0.43223783
46115,0,USSouthDakotaSpink,South Dakota,Spink,2021-04-04 04:30:40.669713,2020-10-07 00:00:00.000000,4.79406883,6.55172875,8.82657079,305,417,562,156,228,317,2.44827899,3.58702621,4.97680484,0.25645277,0.32203919,0.44122972
46115,0,USSouthDakotaSpink,South Dakota,Spink,2021-04-04 04:30:40.669713,2020-10-08 00:00:00.000000,4.85613538,6.65470862,9.05563265,309,424,577,158,231,324,2.48110104,3.63565330,5.09090507,0.25638507,0.33181189,0.44873704
46115,0,USSouthDakotaSpink,South Dakota,Spink,2021-04-04 04:30:40.669713,2020-10-09 00:00:00.000000,4.95238163,6.81273788,9.37938902,315,434,598,160,234,333,2.52217745,3.68346448,5.22607829,0.26066963,0.33866448,0.45436707
46115,0,USSouthDakotaSpink,South Dakota,Spink,2021-04-04 04:30:40.669713,2020-10-10 00:00:00.000000,5.08806513,6.93500511,9.75606218,324,442,622,162,237,341,2.54984069,3.72445811,5.35437126,0.26744784,0.34900637,0.46457883
46115,0,USSouthDakotaSpink,South Dakota,Spink,2021-04-04 04:30:40.669713,2020-10-11 00:00:00.000000,5.24910356,7.14433498,9.91727787,334,455,632,164,241,349,2.57990727,3.78499387,5.48100164,0.27317554,0.36234826,0.49192339
46115,0,USSouthDakotaSpink,South Dakota,Spink,2021-04-04 04:30:40.669713,2020-10-12 00:00:00.000000,5.42466589,7.29921788,9.98631704,345,465,636,167,246,357,2.63300616,3.87348710,5.60640105,0.27925081,0.38107362,0.51128264
46115,0,USSouthDakotaSpink,South Dakota,Spink,2021-04-04 04:30:40.669713,2020-10-13 00:00:00.000000,5.54357084,7.47108199,10.09532808,353,476,643,173,250,365,2.71917580,3.92494382,5.73279003,0.28151869,0.39227646,0.51244110
46115,0,USSouthDakotaSpink,South Dakota,Spink,2021-04-04 04:30:40.669713,2020-10-14 00:00:00.000000,5.73175255,7.80035591,10.61141307,365,497,676,178,256,373,2.79899215,4.01558968,5.86324718,0.28250864,0.40043843,0.52071007
46115,0,USSouthDakotaSpink,South Dakota,Spink,2021-04-04 04:30:40.669713,2020-10-15 00:00:00.000000,5.94702418,8.10490007,10.96020378,379,516,698,181,264,382,2.84366701,4.15170122,6.00100038,0.28394341,0.41206355,0.53458789
46115,0,USSouthDakotaSpink,South Dakota,Spink,2021-04-04 04:30:40.669713,2020-10-16 00:00:00.000000,6.17718274,8.36944097,11.30212733,393,533,720,184,273,391,2.88949048,4.28306024,6.14430398,0.28810050,0.42963146,0.56153894
46115,0,USSouthDakotaSpink,South Dakota,Spink,2021-04-04 04:30:40.669713,2020-10-17 00:00:00.000000,6.41017760,8.66677203,11.69645144,408,552,745,188,280,402,2.95375083,4.40114706,6.31228450,0.30141964,0.44933806,0.58003432
46115,0,USSouthDakotaSpink,South Dakota,Spink,2021-04-04 04:30:40.669713,2020-10-18 00:00:00.000000,6.68699596,9.00931538,12.11958562,426,574,772,194,287,413,3.05321333,4.50464261,6.49223481,0.33866600,0.47143472,0.61633741
46115,0,USSouthDakotaSpink,South Dakota,Spink,2021-04-04 04:30:40.669713,2020-10-19 00:00:00.000000,6.92509571,9.34178664,12.63014137,441,595,805,205,297,426,3.22401919,4.66114987,6.68394180,0.34288303,0.48645601,0.61805321
46115,0,USSouthDakotaSpink,South Dakota,Spink,2021-04-04 04:30:40.669713,2020-10-20 00:00:00.000000,7.17561690,9.66549032,13.14255457,457,616,837,213,308,439,3.35221142,4.83973008,6.89592169,0.34371865,0.50183270,0.61813847
46115,0,USSouthDakotaSpink,South Dakota,Spink,2021-04-04 04:30:40.669713,2020-10-21 00:00:00.000000,7.55444749,10.01651663,13.65467521,481,638,870,220,319,454,3.45447640,5.01479806,7.12651731,0.37881989,0.51382415,0.65915790
46115,0,USSouthDakotaSpink,South Dakota,Spink,2021-04-04 04:30:40.669713,2020-10-22 00:00:00.000000,7.99285244,10.41501899,14.16393472,509,664,903,230,332,470,3.61433684,5.20817117,7.37243820,0.39884059,0.51783918,0.66639022
46115,0,USSouthDakotaSpink,South Dakota,Spink,2021-04-04 04:30:40.669713,2020-10-23 00:00:00.000000,8.34798192,10.83511470,14.66812222,532,690,935,241,345,486,3.78333088,5.42343787,7.63097123,0.40214875,0.52936534,0.66751409
46115,0,USSouthDakotaSpink,South Dakota,Spink,2021-04-04 04:30:40.669713,2020-10-24 00:00:00.000000,8.60600621,11.32143025,15.16450788,548,721,966,252,360,503,3.95843378,5.65726066,7.89906855,0.40340480,0.53469208,0.68863322
46115,0,USSouthDakotaSpink,South Dakota,Spink,2021-04-04 04:30:40.669713,2020-10-25 00:00:00.000000,8.87078889,11.87875020,15.64950911,565,757,997,267,377,521,4.19056214,5.92498948,8.17359888,0.41245455,0.54166278,0.69358750
46115,0,USSouthDakotaSpink,South Dakota,Spink,2021-04-04 04:30:40.669713,2020-10-26 00:00:00.000000,9.26040649,12.44290863,16.08912054,590,793,1025,275,395,543,4.31678923,6.20854321,8.52308046,0.45273907,0.54609212,0.70314220
46115,0,USSouthDakotaSpink,South Dakota,Spink,2021-04-04 04:30:40.669713,2020-10-27 00:00:00.000000,9.67980217,13.07628688,16.76557847,617,833,1068,286,413,567,4.50001318,6.48215598,8.90111058,0.42931336,0.54639412,0.72508227
46115,0,USSouthDakotaSpink,South Dakota,Spink,2021-04-04 04:30:40.669713,2020-10-28 00:00:00.000000,10.11466580,13.72502160,17.56355517,644,875,1119,298,432,589,4.68602685,6.78543318,9.25204542,0.42192757,0.54437001,0.73831575
46115,0,USSouthDakotaSpink,South Dakota,Spink,2021-04-04 04:30:40.669713,2020-10-29 00:00:00.000000,10.54189033,14.22569898,18.34630847,672,907,1169,310,451,613,4.87450614,7.07755735,9.62788692,0.40505171,0.53861205,0.73915422
46115,0,USSouthDakotaSpink,South Dakota,Spink,2021-04-04 04:30:40.669713,2020-10-30 00:00:00.000000,10.92963974,14.71504150,19.09044149,696,938,1217,323,472,639,5.06590124,7.41472572,10.03612661,0.39557980,0.52889808,0.71535336
46115,0,USSouthDakotaSpink,South Dakota,Spink,2021-04-04 04:30:40.669713,2020-10-31 00:00:00.000000,11.26731492,15.05636376,19.25402064,718,959,1227,335,492,661,5.25605174,7.72396434,10.37920375,0.38740686,0.50195188,0.65107227
46115,0,USSouthDakotaSpink,South Dakota,Spink,2021-04-04 04:30:40.669713,2020-11-01 00:00:00.000000,11.57269222,15.36098093,19.37791655,737,979,1235,346,509,679,5.43647425,7.99321256,10.65509005,0.38032445,0.48254314,0.64779609
46115,0,USSouthDakotaSpink,South Dakota,Spink,2021-04-04 04:30:40.669713,2020-11-02 00:00:00.000000,11.78548053,15.68670192,19.43536593,751,1000,1239,357,527,693,5.61267100,8.27158636,10.87235160,0.35459089,0.46244120,0.63523396
46115,0,USSouthDakotaSpink,South Dakota,Spink,2021-04-04 04:30:40.669713,2020-11-03 00:00:00.000000,11.95105893,15.82671788,19.42572746,761,1009,1238,367,539,702,5.76264803,8.46288162,11.01457206,0.33539022,0.44051069,0.60905114
46115,0,USSouthDakotaSpink,South Dakota,Spink,2021-04-04 04:30:40.669713,2020-11-04 00:00:00.000000,12.01719587,15.91380842,19.53030660,766,1014,1245,376,548,710,5.91034865,8.60593622,11.13586610,0.32118462,0.42592779,0.57116495
46115,0,USSouthDakotaSpink,South Dakota,Spink,2021-04-04 04:30:40.669713,2020-11-05 00:00:00.000000,12.08074900,15.94059737,19.65006769,770,1016,1252,383,554,727,6.01951062,8.69971460,11.41545018,0.30924860,0.41875000,0.55883438
46115,0,USSouthDakotaSpink,South Dakota,Spink,2021-04-04 04:30:40.669713,2020-11-06 00:00:00.000000,12.12533492,15.88800976,19.58724482,773,1013,1248,384,560,725,6.02521464,8.79274612,11.37403022,0.30425122,0.40424525,0.53434979
46115,0,USSouthDakotaSpink,South Dakota,Spink,2021-04-04 04:30:40.669713,2020-11-07 00:00:00.000000,11.85757331,15.79569473,19.44233942,756,1007,1239,385,562,721,6.04379347,8.82677330,11.32280495,0.29771084,0.39238405,0.49241555
46115,0,USSouthDakotaSpink,South Dakota,Spink,2021-04-04 04:30:40.669713,2020-11-08 00:00:00.000000,11.76607621,15.60608681,19.64107809,750,995,1252,385,560,722,6.03906925,8.79074717,11.32793839,0.28797127,0.38582702,0.48603692
46115,0,USSouthDakotaSpink,South Dakota,Spink,2021-04-04 04:30:40.669713,2020-11-09 00:00:00.000000,11.65108185,15.46815685,19.66599063,742,986,1253,383,558,729,6.01655780,8.76525984,11.44071319,0.28591582,0.38562612,0.48640673
46115,0,USSouthDakotaSpink,South Dakota,Spink,2021-04-04 04:30:40.669713,2020-11-10 00:00:00.000000,11.50093492,15.36207337,19.40635584,733,979,1237,381,557,735,5.98143583,8.74048050,11.54134252,0.28918801,0.38463890,0.48289769
46115,0,USSouthDakotaSpink,South Dakota,Spink,2021-04-04 04:30:40.669713,2020-11-11 00:00:00.000000,11.34120361,15.25010213,19.14763072,723,972,1220,378,553,741,5.93624200,8.67850370,11.62526426,0.29237857,0.38223292,0.48326590
46115,0,USSouthDakotaSpink,South Dakota,Spink,2021-04-04 04:30:40.669713,2020-11-12 00:00:00.000000,11.16938261,15.05481909,19.11038432,712,959,1218,375,547,745,5.88276204,8.59456958,11.68998880,0.30047068,0.38477503,0.47521797
46115,0,USSouthDakotaSpink,South Dakota,Spink,2021-04-04 04:30:40.669713,2020-11-13 00:00:00.000000,10.98873789,14.76392270,19.04277422,700,941,1214,368,541,748,5.77422716,8.49404290,11.73236366,0.31310187,0.38254147,0.47875534
46115,0,USSouthDakotaSpink,South Dakota,Spink,2021-04-04 04:30:40.669713,2020-11-14 00:00:00.000000,10.80425956,14.54950422,18.95306424,688,927,1208,365,534,749,5.73530533,8.37881890,11.74914383,0.31783497,0.38737814,0.50356167
46115,0,USSouthDakotaSpink,South Dakota,Spink,2021-04-04 04:30:40.669713,2020-11-15 00:00:00.000000,10.64588150,14.28286065,18.85332797,678,910,1202,361,527,748,5.67478013,8.27568688,11.73648193,0.32392420,0.39268447,0.52201816
46115,0,USSouthDakotaSpink,South Dakota,Spink,2021-04-04 04:30:40.669713,2020-11-16 00:00:00.000000,10.52619483,14.09071338,18.72418964,671,898,1193,356,521,745,5.59131355,8.18123696,11.69749918,0.33074940,0.39846014,0.53826585
46115,0,USSouthDakotaSpink,South Dakota,Spink,2021-04-04 04:30:40.669713,2020-11-17 00:00:00.000000,10.31982463,13.91642489,18.36098496,657,887,1170,350,515,741,5.49920025,8.08847520,11.63492258,0.33360326,0.40700328,0.56576695
46115,0,USSouthDakotaSpink,South Dakota,Spink,2021-04-04 04:30:40.669713,2020-11-18 00:00:00.000000,10.17432399,13.71068560,17.98000196,648,874,1146,344,509,736,5.40056638,7.99476278,11.55102813,0.33371029,0.41212473,0.57052983
46115,0,USSouthDakotaSpink,South Dakota,Spink,2021-04-04 04:30:40.669713,2020-11-19 00:00:00.000000,10.02437280,13.44167365,17.81177162,639,857,1135,337,502,729,5.29702699,7.87654412,11.44806086,0.33387652,0.41582789,0.57540730
46115,0,USSouthDakotaSpink,South Dakota,Spink,2021-04-04 04:30:40.669713,2020-11-20 00:00:00.000000,9.86733340,13.18120850,17.78060022,629,840,1133,330,493,722,5.19008921,7.73676402,11.32803459,0.34300264,0.42128689,0.58533695
46115,0,USSouthDakotaSpink,South Dakota,Spink,2021-04-04 04:30:40.669713,2020-11-21 00:00:00.000000,9.70307209,12.93125940,17.56805743,618,824,1120,324,487,713,5.08247809,7.64059540,11.19255610,0.34781517,0.43905051,0.59020614
46115,0,USSouthDakotaSpink,South Dakota,Spink,2021-04-04 04:30:40.669713,2020-11-22 00:00:00.000000,9.53243455,12.69575279,17.45560193,607,809,1112,317,480,704,4.98219719,7.53790460,11.04256156,0.35007284,0.44919752,0.60348275
46115,0,USSouthDakotaSpink,South Dakota,Spink,2021-04-04 04:30:40.669713,2020-11-23 00:00:00.000000,9.35338223,12.46615035,17.34180077,596,794,1105,312,475,693,4.90111905,7.45328673,10.87892438,0.34902138,0.45941476,0.61106372
46115,0,USSouthDakotaSpink,South Dakota,Spink,2021-04-04 04:30:40.669713,2020-11-24 00:00:00.000000,9.25673174,12.30628258,17.21010052,590,784,1097,308,467,682,4.83732754,7.32998226,10.70182553,0.34856350,0.46438171,0.61186402
46115,0,USSouthDakotaSpink,South Dakota,Spink,2021-04-04 04:30:40.669713,2020-11-25 00:00:00.000000,9.17450128,12.07857588,17.05825122,584,770,1087,305,459,670,4.78498519,7.20673854,10.51491677,0.33991662,0.47079863,0.62630976
46115,0,USSouthDakotaSpink,South Dakota,Spink,2021-04-04 04:30:40.669713,2020-11-26 00:00:00.000000,9.03471222,11.83822378,16.88633555,576,754,1076,302,449,657,4.73682034,7.04789463,10.31947354,0.34158800,0.47521321,0.63635522
46115,0,USSouthDakotaSpink,South Dakota,Spink,2021-04-04 04:30:40.669713,2020-11-27 00:00:00.000000,8.84984566,11.62881074,16.69105943,564,741,1064,298,438,645,4.68002052,6.87487603,10.11673460,0.34497705,0.47377017,0.64244629
46115,0,USSouthDakotaSpink,South Dakota,Spink,2021-04-04 04:30:40.669713,2020-11-28 00:00:00.000000,8.65351412,11.41689255,16.47866360,551,727,1050,293,431,631,4.60857763,6.75975793,9.90793048,0.35062017,0.47913150,0.66361379
46115,0,USSouthDakotaSpink,South Dakota,Spink,2021-04-04 04:30:40.669713,2020-11-29 00:00:00.000000,8.45131739,11.11350556,16.10638053,538,708,1026,288,421,618,4.52588066,6.61821414,9.69402783,0.35577435,0.48100181,0.68045267
46115,0,USSouthDakotaSpink,South Dakota,Spink,2021-04-04 04:30:40.669713,2020-11-30 00:00:00.000000,8.31505126,10.88764045,15.62609416,530,694,996,282,414,610,4.43549728,6.49673499,9.57694561,0.35855037,0.47796849,0.69027261
46115,0,USSouthDakotaSpink,South Dakota,Spink,2021-04-04 04:30:40.669713,2020-12-01 00:00:00.000000,8.22453889,10.64736829,15.32433637,524,678,977,276,405,607,4.33822233,6.35597918,9.52347663,0.36040576,0.47671935,0.67972128
46115,0,USSouthDakotaSpink,South Dakota,Spink,2021-04-04 04:30:40.669713,2020-12-02 00:00:00.000000,8.02500150,10.40262527,15.14775894,511,663,965,270,395,602,4.23652266,6.20484268,9.45683839,0.35483350,0.47645709,0.65734736
46115,0,USSouthDakotaSpink,South Dakota,Spink,2021-04-04 04:30:40.669713,2020-12-03 00:00:00.000000,7.81422113,10.15627510,14.94560744,498,647,952,263,387,597,4.13104754,6.07053896,9.37638437,0.34441532,0.47641097,0.63195717
46115,0,USSouthDakotaSpink,South Dakota,Spink,2021-04-04 04:30:40.669713,2020-12-04 00:00:00.000000,7.58914818,9.90592110,14.69037085,483,631,936,256,378,583,4.02209708,5.93694509,9.15164502,0.33824930,0.47545745,0.61993531
46115,0,USSouthDakotaSpink,South Dakota,Spink,2021-04-04 04:30:40.669713,2020-12-05 00:00:00.000000,7.34817627,9.62353239,14.29239614,468,613,911,249,371,569,3.90957183,5.83206984,8.93119135,0.33777125,0.46741415,0.60133555
46115,0,USSouthDakotaSpink,South Dakota,Spink,2021-04-04 04:30:40.669713,2020-12-06 00:00:00.000000,7.09256373,9.32893185,13.81873918,452,594,881,241,362,555,3.79450838,5.68305626,8.71349216,0.31600798,0.45696537,0.57473252
46115,0,USSouthDakotaSpink,South Dakota,Spink,2021-04-04 04:30:40.669713,2020-12-07 00:00:00.000000,6.84242702,9.05030401,13.34781350,436,577,851,239,351,541,3.76078181,5.51538269,8.49739798,0.28686501,0.45518446,0.58259766
46115,0,USSouthDakotaSpink,South Dakota,Spink,2021-04-04 04:30:40.669713,2020-12-08 00:00:00.000000,6.58719292,8.77310657,12.87609556,419,559,820,233,341,528,3.65753864,5.35042463,8.28124722,0.28776043,0.44580822,0.60008522
46115,0,USSouthDakotaSpink,South Dakota,Spink,2021-04-04 04:30:40.669713,2020-12-09 00:00:00.000000,6.33207092,8.47780759,12.41306364,403,540,791,224,329,516,3.52795886,5.16349603,8.09736310,0.29640867,0.43990750,0.62368659
46115,0,USSouthDakotaSpink,South Dakota,Spink,2021-04-04 04:30:40.669713,2020-12-10 00:00:00.000000,6.02935777,8.16123473,12.04472122,384,520,767,216,319,508,3.39377431,5.00607393,7.96773159,0.30961482,0.44325705,0.62278239
46115,0,USSouthDakotaSpink,South Dakota,Spink,2021-04-04 04:30:40.669713,2020-12-11 00:00:00.000000,5.74130167,7.85522590,11.74943949,366,500,749,207,311,498,3.25812604,4.87848939,7.82289827,0.32040490,0.44556150,0.62217478
46115,0,USSouthDakotaSpink,South Dakota,Spink,2021-04-04 04:30:40.669713,2020-12-12 00:00:00.000000,5.48036908,7.53832827,11.39844824,349,480,726,199,300,484,3.12326087,4.70527095,7.59253424,0.32606605,0.44472583,0.62269162
46115,0,USSouthDakotaSpink,South Dakota,Spink,2021-04-04 04:30:40.669713,2020-12-13 00:00:00.000000,5.26162790,7.23287140,11.05141952,335,461,704,190,289,469,2.99085626,4.53419034,7.35642047,0.32836485,0.44914600,0.62891342
46115,0,USSouthDakotaSpink,South Dakota,Spink,2021-04-04 04:30:40.669713,2020-12-14 00:00:00.000000,5.05348553,6.93922984,10.75856617,322,442,685,182,280,454,2.86226356,4.40134940,7.13117049,0.32918777,0.45184925,0.62927484
46115,0,USSouthDakotaSpink,South Dakota,Spink,2021-04-04 04:30:40.669713,2020-12-15 00:00:00.000000,4.85224079,6.67356975,10.45831150,309,425,666,175,272,441,2.74571562,4.27614961,6.91998043,0.32956587,0.45672704,0.63651072
46115,0,USSouthDakotaSpink,South Dakota,Spink,2021-04-04 04:30:40.669713,2020-12-16 00:00:00.000000,4.66539762,6.41264929,10.12446701,297,408,645,168,264,428,2.63826822,4.14808270,6.71920845,0.32977413,0.45742553,0.64515390
46115,0,USSouthDakotaSpink,South Dakota,Spink,2021-04-04 04:30:40.669713,2020-12-17 00:00:00.000000,4.50430889,6.21831014,9.79131980,287,396,624,161,256,416,2.53405652,4.02363885,6.52627064,0.32540922,0.46069957,0.65027964
46115,0,USSouthDakotaSpink,South Dakota,Spink,2021-04-04 04:30:40.669713,2020-12-18 00:00:00.000000,4.36818207,6.00244269,9.46779673,278,382,603,155,246,404,2.43325558,3.87082303,6.34512645,0.32305028,0.46320071,0.64319774
46115,0,USSouthDakotaSpink,South Dakota,Spink,2021-04-04 04:30:40.669713,2020-12-19 00:00:00.000000,4.25261370,5.82769498,9.18483755,271,371,585,148,235,393,2.33596431,3.69478896,6.16760943,0.32149591,0.46600917,0.64796031
46115,0,USSouthDakotaSpink,South Dakota,Spink,2021-04-04 04:30:40.669713,2020-12-20 00:00:00.000000,4.06854786,5.66534616,8.89803440,259,361,567,142,226,382,2.24221721,3.54917594,5.99146634,0.32225645,0.47136096,0.65668849
46115,0,USSouthDakotaSpink,South Dakota,Spink,2021-04-04 04:30:40.669713,2020-12-21 00:00:00.000000,3.87372027,5.50460446,8.59727819,246,350,548,137,217,370,2.15198334,3.41713399,5.81670696,0.31603504,0.47639817,0.66118914
46115,0,USSouthDakotaSpink,South Dakota,Spink,2021-04-04 04:30:40.669713,2020-12-22 00:00:00.000000,3.68966103,5.34844732,8.29671356,235,341,528,131,209,359,2.06780106,3.28764187,5.64607128,0.31322192,0.47363536,0.67505732
46115,0,USSouthDakotaSpink,South Dakota,Spink,2021-04-04 04:30:40.669713,2020-12-23 00:00:00.000000,3.52672353,5.19302346,8.01790216,224,331,511,126,202,349,1.98843660,3.17211763,5.47987821,0.31432703,0.49735846,0.69483993
46115,0,USSouthDakotaSpink,South Dakota,Spink,2021-04-04 04:30:40.669713,2020-12-24 00:00:00.000000,3.39555137,5.02853435,7.74444223,216,320,493,121,195,339,1.91318571,3.06898544,5.32076595,0.32220591,0.51043137,0.71733690
46115,0,USSouthDakotaSpink,South Dakota,Spink,2021-04-04 04:30:40.669713,2020-12-25 00:00:00.000000,3.27055891,4.83707894,7.48865750,208,308,477,117,189,329,1.84168600,2.97126270,5.17301900,0.32992806,0.51505579,0.74699181
46115,0,USSouthDakotaSpink,South Dakota,Spink,2021-04-04 04:30:40.669713,2020-12-26 00:00:00.000000,3.15376222,4.74552073,7.25734358,201,302,462,113,183,321,1.77366317,2.88230716,5.03773967,0.33181716,0.53498642,0.78549111
46115,0,USSouthDakotaSpink,South Dakota,Spink,2021-04-04 04:30:40.669713,2020-12-27 00:00:00.000000,3.05578171,4.64826573,7.04994803,194,296,449,109,178,313,1.72145042,2.79765837,4.91262911,0.33811315,0.55473720,0.84694626
46115,0,USSouthDakotaSpink,South Dakota,Spink,2021-04-04 04:30:40.669713,2020-12-28 00:00:00.000000,2.99910810,4.54107823,6.81951389,191,289,434,105,174,304,1.65090330,2.72907065,4.77302549,0.34948368,0.57331494,0.85924581
46115,0,USSouthDakotaSpink,South Dakota,Spink,2021-04-04 04:30:40.669713,2020-12-29 00:00:00.000000,2.88971940,4.39757287,6.64029795,184,280,423,101,169,295,1.59012502,2.66016848,4.63575982,0.35574824,0.57812307,0.85754367
46115,0,USSouthDakotaSpink,South Dakota,Spink,2021-04-04 04:30:40.669713,2020-12-30 00:00:00.000000,2.81044694,4.26289677,6.50259495,179,271,414,98,164,286,1.54124854,2.58717459,4.50081848,0.37446757,0.59268193,0.87764624
46115,0,USSouthDakotaSpink,South Dakota,Spink,2021-04-04 04:30:40.669713,2020-12-31 00:00:00.000000,2.75791350,4.15795417,6.34292098,175,265,404,95,160,276,1.50268863,2.51637587,4.33867400,0.38254771,0.61348286,0.88259694
46115,0,USSouthDakotaSpink,South Dakota,Spink,2021-04-04 04:30:40.669713,2021-01-01 00:00:00.000000,2.71034088,4.07647028,6.17772758,172,259,393,93,156,266,1.47255734,2.45513848,4.18408524,0.38394995,0.65182673,0.90403216
46115,0,USSouthDakotaSpink,South Dakota,Spink,2021-04-04 04:30:40.669713,2021-01-02 00:00:00.000000,2.67446891,3.98392153,6.01612335,170,254,383,92,152,259,1.45025196,2.39718169,4.06372991,0.37357950,0.67078382,0.93929105
46115,0,USSouthDakotaSpink,South Dakota,Spink,2021-04-04 04:30:40.669713,2021-01-03 00:00:00.000000,2.61825127,3.90469581,5.85903038,166,248,373,91,149,253,1.43478496,2.34276608,3.97329669,0.39052729,0.69795348,0.95025834
46115,0,USSouthDakotaSpink,South Dakota,Spink,2021-04-04 04:30:40.669713,2021-01-04 00:00:00.000000,2.57461195,3.92620890,5.70255320,164,250,363,90,146,248,1.42459205,2.29039619,3.88975747,0.42084833,0.71183624,0.99263523
46115,0,USSouthDakotaSpink,South Dakota,Spink,2021-04-04 04:30:40.669713,2021-01-05 00:00:00.000000,2.53992315,3.89131805,5.56580956,161,248,354,89,143,241,1.40770401,2.24359212,3.78519910,0.43228958,0.72530527,1.04779462
46115,0,USSouthDakotaSpink,South Dakota,Spink,2021-04-04 04:30:40.669713,2021-01-06 00:00:00.000000,2.61028680,3.84327005,5.47690815,166,245,349,87,140,235,1.37902197,2.20166698,3.68718115,0.44178959,0.73537491,1.09674177
46115,0,USSouthDakotaSpink,South Dakota,Spink,2021-04-04 04:30:40.669713,2021-01-07 00:00:00.000000,2.59809498,3.82292621,5.39454583,165,243,343,86,138,229,1.35780736,2.17787685,3.59413717,0.45909680,0.75478553,1.12953509
46115,0,USSouthDakotaSpink,South Dakota,Spink,2021-04-04 04:30:40.669713,2021-01-08 00:00:00.000000,2.51020774,3.82400513,5.31058630,160,243,338,85,137,223,1.34184388,2.14932254,3.51121002,0.46513025,0.77568882,1.14609867
46115,0,USSouthDakotaSpink,South Dakota,Spink,2021-04-04 04:30:40.669713,2021-01-09 00:00:00.000000,2.48541026,3.79047791,5.22497854,158,241,333,84,136,222,1.32958393,2.13465487,3.48320438,0.46549466,0.78871205,1.13331052
46115,0,USSouthDakotaSpink,South Dakota,Spink,2021-04-04 04:30:40.669713,2021-01-10 00:00:00.000000,2.48135064,3.78609896,5.17183958,158,241,329,84,135,220,1.31994868,2.13059889,3.46294280,0.46692524,0.80577185,1.14396340
46115,0,USSouthDakotaSpink,South Dakota,Spink,2021-04-04 04:30:40.669713,2021-01-11 00:00:00.000000,2.47081415,3.76635092,5.18415754,157,240,330,83,135,218,1.31239027,2.11932367,3.42797526,0.47165356,0.81777251,1.15317539
46115,0,USSouthDakotaSpink,South Dakota,Spink,2021-04-04 04:30:40.669713,2021-01-12 00:00:00.000000,2.46315893,3.74072024,5.17795429,157,238,330,82,133,215,1.29852419,2.09098385,3.37837100,0.48187869,0.83161821,1.20185464
46115,0,USSouthDakotaSpink,South Dakota,Spink,2021-04-04 04:30:40.669713,2021-01-13 00:00:00.000000,2.45564202,3.70570073,5.13583467,156,236,327,81,132,212,1.28016004,2.07400705,3.33599610,0.49016188,0.84845416,1.28534198
46115,0,USSouthDakotaSpink,South Dakota,Spink,2021-04-04 04:30:40.669713,2021-01-14 00:00:00.000000,2.44835708,3.65215877,5.09246520,156,232,324,80,130,210,1.26035260,2.04860402,3.29844629,0.50045679,0.84873358,1.37470282
46115,0,USSouthDakotaSpink,South Dakota,Spink,2021-04-04 04:30:40.669713,2021-01-15 00:00:00.000000,2.48531122,3.61509855,5.04761373,158,230,321,79,129,208,1.25317182,2.03502169,3.26399604,0.52479006,0.86172133,1.35400190
46115,0,USSouthDakotaSpink,South Dakota,Spink,2021-04-04 04:30:40.669713,2021-01-16 00:00:00.000000,2.50575826,3.58938099,4.99901813,159,228,318,79,129,206,1.24832995,2.02869243,3.23141330,0.53086190,0.86281000,1.41128983
46115,0,USSouthDakotaSpink,South Dakota,Spink,2021-04-04 04:30:40.669713,2021-01-17 00:00:00.000000,2.47633134,3.53915023,4.94825297,157,225,315,79,128,204,1.24374392,2.01717938,3.19982583,0.53419303,0.86644319,1.43854057
46115,0,USSouthDakotaSpink,South Dakota,Spink,2021-04-04 04:30:40.669713,2021-01-18 00:00:00.000000,2.42669035,3.52178032,4.92448106,154,224,313,79,127,202,1.23945877,1.99581254,3.16846669,0.53690698,0.87319132,1.44412836
46115,0,USSouthDakotaSpink,South Dakota,Spink,2021-04-04 04:30:40.669713,2021-01-19 00:00:00.000000,2.39102011,3.49249971,4.80442312,152,222,306,78,126,200,1.23333032,1.97833321,3.14352205,0.53972226,0.86825227,1.44585119
46115,0,USSouthDakotaSpink,South Dakota,Spink,2021-04-04 04:30:40.669713,2021-01-20 00:00:00.000000,2.35154190,3.44653193,4.75157690,149,219,302,77,125,199,1.21984048,1.96586374,3.12392416,0.55192328,0.86224437,1.44631354
46115,0,USSouthDakotaSpink,South Dakota,Spink,2021-04-04 04:30:40.669713,2021-01-21 00:00:00.000000,2.29491924,3.41019348,4.78148418,146,217,304,76,124,198,1.20188282,1.95105408,3.10783183,0.54315494,0.86374169,1.44584382
46115,0,USSouthDakotaSpink,South Dakota,Spink,2021-04-04 04:30:40.669713,2021-01-22 00:00:00.000000,2.24497274,3.33043592,4.74025590,143,212,302,75,122,197,1.18763528,1.92268341,3.09390725,0.54333363,0.86596148,1.47898462
46115,0,USSouthDakotaSpink,South Dakota,Spink,2021-04-04 04:30:40.669713,2021-01-23 00:00:00.000000,2.19541750,3.24473354,4.64523566,139,206,296,76,120,195,1.20067886,1.89040291,3.07260093,0.54332412,0.86101366,1.53726658
46115,0,USSouthDakotaSpink,South Dakota,Spink,2021-04-04 04:30:40.669713,2021-01-24 00:00:00.000000,2.12643150,3.20962179,4.54988514,135,204,290,75,118,190,1.18721366,1.86430984,2.99427840,0.52858187,0.85885765,1.53373202
46115,0,USSouthDakotaSpink,South Dakota,Spink,2021-04-04 04:30:40.669713,2021-01-25 00:00:00.000000,2.19390421,3.21904513,4.55463855,139,205,290,74,118,185,1.16159147,1.85681769,2.91547351,0.52014136,0.85809694,1.54856009
46115,0,USSouthDakotaSpink,South Dakota,Spink,2021-04-04 04:30:40.669713,2021-01-26 00:00:00.000000,2.20657691,3.19757347,4.55955542,140,203,290,71,117,182,1.12714156,1.84033894,2.86401520,0.51259864,0.86598846,1.55000606
46115,0,USSouthDakotaSpink,South Dakota,Spink,2021-04-04 04:30:40.669713,2021-01-27 00:00:00.000000,2.23499538,3.17270010,4.55939910,142,202,290,69,116,180,1.09445697,1.82273620,2.83156383,0.44732344,0.86132547,1.54921471
46115,0,USSouthDakotaSpink,South Dakota,Spink,2021-04-04 04:30:40.669713,2021-01-28 00:00:00.000000,2.17639744,3.15479033,4.45541474,138,201,284,67,114,179,1.06356503,1.79749973,2.81219260,0.45206635,0.85299396,1.54606032
46115,0,USSouthDakotaSpink,South Dakota,Spink,2021-04-04 04:30:40.669713,2021-01-29 00:00:00.000000,2.15453429,3.10530548,4.34684352,137,197,277,67,112,178,1.05899587,1.76672667,2.80168705,0.45685001,0.83312668,1.45153098
46115,0,USSouthDakotaSpink,South Dakota,Spink,2021-04-04 04:30:40.669713,2021-01-30 00:00:00.000000,2.16034341,3.08347819,4.37788788,137,196,279,68,111,178,1.07224739,1.75008464,2.79705018,0.46042316,0.82453464,1.34275964
46115,0,USSouthDakotaSpink,South Dakota,Spink,2021-04-04 04:30:40.669713,2021-01-31 00:00:00.000000,2.16566015,3.05500004,4.40739733,138,194,281,69,109,178,1.08688279,1.72336707,2.79615208,0.45619814,0.81339365,1.32887126
46115,0,USSouthDakotaSpink,South Dakota,Spink,2021-04-04 04:30:40.669713,2021-02-01 00:00:00.000000,2.13277543,2.98091922,4.30407107,135,190,274,69,108,178,1.09774103,1.70242925,2.79748148,0.41230531,0.81101377,1.39490239
46115,0,USSouthDakotaSpink,South Dakota,Spink,2021-04-04 04:30:40.669713,2021-02-02 00:00:00.000000,2.09620619,2.89447774,4.19875796,133,184,267,68,106,176,1.06755756,1.66990524,2.77179091,0.39096251,0.80744280,1.43505755
46115,0,USSouthDakotaSpink,South Dakota,Spink,2021-04-04 04:30:40.669713,2021-02-03 00:00:00.000000,2.04022425,2.80648186,4.09018406,130,178,260,66,104,173,1.04184539,1.64511825,2.72716288,0.37928491,0.79007587,1.44284960
46115,0,USSouthDakotaSpink,South Dakota,Spink,2021-04-04 04:30:40.669713,2021-02-04 00:00:00.000000,1.97615806,2.72659511,4.01023726,125,173,255,65,102,170,1.01947211,1.60905220,2.66942441,0.37505545,0.78215761,1.46294359
46115,0,USSouthDakotaSpink,South Dakota,Spink,2021-04-04 04:30:40.669713,2021-02-05 00:00:00.000000,1.91128651,2.68208900,3.97559085,121,171,253,63,101,165,0.99963359,1.58414214,2.60278704,0.36193627,0.75425315,1.57041294
46115,0,USSouthDakotaSpink,South Dakota,Spink,2021-04-04 04:30:40.669713,2021-02-06 00:00:00.000000,1.81808107,2.60533198,3.92781307,115,166,250,62,99,161,0.98175202,1.55366626,2.53030271,0.34115493,0.73949687,1.72907916
46115,0,USSouthDakotaSpink,South Dakota,Spink,2021-04-04 04:30:40.669713,2021-02-07 00:00:00.000000,1.72008821,2.53750025,3.79363522,109,161,241,61,96,156,0.96540255,1.51766694,2.45418898,0.33142528,0.72050384,1.76584109
46115,0,USSouthDakotaSpink,South Dakota,Spink,2021-04-04 04:30:40.669713,2021-02-08 00:00:00.000000,1.66016945,2.45084952,3.70630249,105,156,236,60,94,151,0.94988104,1.47799700,2.37606122,0.32301515,0.71542726,1.76645399
46115,0,USSouthDakotaSpink,South Dakota,Spink,2021-04-04 04:30:40.669713,2021-02-09 00:00:00.000000,1.60300396,2.36414199,3.57940983,102,150,228,57,91,148,0.90379348,1.43259182,2.32583250,0.32112306,0.70284503,1.76632711
46115,0,USSouthDakotaSpink,South Dakota,Spink,2021-04-04 04:30:40.669713,2021-02-10 00:00:00.000000,1.52685459,2.27478262,3.41985629,97,145,218,54,88,144,0.85992764,1.38880823,2.26113871,0.32073288,0.69869232,1.76682572
46115,0,USSouthDakotaSpink,South Dakota,Spink,2021-04-04 04:30:40.669713,2021-02-11 00:00:00.000000,1.44333346,2.18073861,3.33409633,92,139,212,52,86,139,0.81838258,1.34982313,2.18557418,0.32148781,0.68615657,1.76668971
46115,0,USSouthDakotaSpink,South Dakota,Spink,2021-04-04 04:30:40.669713,2021-02-12 00:00:00.000000,1.36223190,2.10274127,3.32246310,86,134,211,49,83,134,0.77950161,1.31278150,2.10352630,0.32386339,0.68051421,1.76223120
46115,0,USSouthDakotaSpink,South Dakota,Spink,2021-04-04 04:30:40.669713,2021-02-13 00:00:00.000000,1.29367029,2.03500795,3.29279041,82,129,209,47,81,128,0.74350356,1.27421459,2.01884436,0.32794603,0.68345298,1.83464784
46115,0,USSouthDakotaSpink,South Dakota,Spink,2021-04-04 04:30:40.669713,2021-02-14 00:00:00.000000,1.24095168,1.95716775,3.26054354,79,124,207,45,78,124,0.71036429,1.23126594,1.95356583,0.32905560,0.67589365,1.93673972
46115,0,USSouthDakotaSpink,South Dakota,Spink,2021-04-04 04:30:40.669713,2021-02-15 00:00:00.000000,1.19528858,1.90259429,3.16649098,76,121,201,43,76,122,0.67988666,1.19945432,1.92358027,0.32819656,0.65933072,1.87863813
46115,0,USSouthDakotaSpink,South Dakota,Spink,2021-04-04 04:30:40.669713,2021-02-16 00:00:00.000000,1.15304236,1.82644928,3.07081389,73,116,195,41,74,121,0.65215184,1.16499287,1.91024961,0.32561932,0.65491713,1.85499368
46115,0,USSouthDakotaSpink,South Dakota,Spink,2021-04-04 04:30:40.669713,2021-02-17 00:00:00.000000,1.11454438,1.74638924,2.97604217,71,111,189,39,71,119,0.62677044,1.12834723,1.88069814,0.32524624,0.66305495,1.84928738
46115,0,USSouthDakotaSpink,South Dakota,Spink,2021-04-04 04:30:40.669713,2021-02-18 00:00:00.000000,1.09017753,1.68926637,2.88229498,69,107,183,38,68,115,0.60342082,1.08042676,1.81801447,0.32509818,0.66459681,1.85171417
46115,0,USSouthDakotaSpink,South Dakota,Spink,2021-04-04 04:30:40.669713,2021-02-19 00:00:00.000000,1.04279873,1.64976660,2.78611984,66,105,177,37,66,112,0.58185258,1.04172749,1.75713351,0.32501316,0.64420190,1.88344365
46115,0,USSouthDakotaSpink,South Dakota,Spink,2021-04-04 04:30:40.669713,2021-02-20 00:00:00.000000,1.01064137,1.61183524,2.67569022,64,102,170,35,64,108,0.56188463,1.01620823,1.70049297,0.32484229,0.64091859,1.89351020
46115,0,USSouthDakotaSpink,South Dakota,Spink,2021-04-04 04:30:40.669713,2021-02-21 00:00:00.000000,0.98087683,1.57978852,2.60121285,62,100,165,34,63,105,0.54376954,0.99146612,1.65665781,0.32425248,0.65042898,1.91376727
46115,0,USSouthDakotaSpink,South Dakota,Spink,2021-04-04 04:30:40.669713,2021-02-22 00:00:00.000000,0.97968133,1.53420251,2.51691072,62,97,160,34,61,102,0.53357772,0.96376897,1.60144253,0.32238239,0.65993229,1.96266658
46115,0,USSouthDakotaSpink,South Dakota,Spink,2021-04-04 04:30:40.669713,2021-02-23 00:00:00.000000,0.95941125,1.48905361,2.43352026,61,94,155,32,59,98,0.51577998,0.93349059,1.54791178,0.31831366,0.65394808,2.00577670
46115,0,USSouthDakotaSpink,South Dakota,Spink,2021-04-04 04:30:40.669713,2021-02-24 00:00:00.000000,0.92688722,1.46652110,2.35286716,59,93,150,32,57,95,0.50838047,0.90378008,1.50517044,0.31401140,0.66155400,2.01142448
46115,0,USSouthDakotaSpink,South Dakota,Spink,2021-04-04 04:30:40.669713,2021-02-25 00:00:00.000000,0.89499954,1.43045828,2.29128439,57,91,146,31,55,93,0.50053648,0.87207965,1.47025973,0.31268346,0.67122924,2.00203074
46115,0,USSouthDakotaSpink,South Dakota,Spink,2021-04-04 04:30:40.669713,2021-02-26 00:00:00.000000,0.86431610,1.40449419,2.23533725,55,89,142,30,54,92,0.48361624,0.84796762,1.44538758,0.31478730,0.67267398,2.04921135
46115,0,USSouthDakotaSpink,South Dakota,Spink,2021-04-04 04:30:40.669713,2021-02-27 00:00:00.000000,0.83506073,1.38721019,2.18209807,53,88,139,29,52,90,0.46739093,0.83005141,1.42181427,0.31149508,0.66840129,2.12968352
46115,0,USSouthDakotaSpink,South Dakota,Spink,2021-04-04 04:30:40.669713,2021-02-28 00:00:00.000000,0.80722160,1.35803783,2.13987254,51,86,136,29,51,89,0.45490980,0.81087012,1.40089290,0.30815863,0.66748982,2.19540784
46115,0,USSouthDakotaSpink,South Dakota,Spink,2021-04-04 04:30:40.669713,2021-03-01 00:00:00.000000,0.84638456,1.37343808,2.15494359,53,87,137,28,50,88,0.45043095,0.79204755,1.38207282,0.30607602,0.67308902,2.15777714
46115,0,USSouthDakotaSpink,South Dakota,Spink,2021-04-04 04:30:40.669713,2021-03-02 00:00:00.000000,0.88609283,1.39076633,2.14369677,56,88,136,28,49,87,0.44658160,0.78349618,1.37158217,0.30123603,0.67916525,2.13428993
46115,0,USSouthDakotaSpink,South Dakota,Spink,2021-04-04 04:30:40.669713,2021-03-03 00:00:00.000000,0.90223463,1.40720560,2.09051153,57,89,133,28,48,87,0.44009596,0.76796142,1.36722435,0.29345241,0.67308800,2.12599268
46115,0,USSouthDakotaSpink,South Dakota,Spink,2021-04-04 04:30:40.669713,2021-03-04 00:00:00.000000,0.87135276,1.40926606,2.08460912,55,89,132,28,47,87,0.44065483,0.75167940,1.36732104,0.28015259,0.65866521,2.12416369
46115,0,USSouthDakotaSpink,South Dakota,Spink,2021-04-04 04:30:40.669713,2021-03-05 00:00:00.000000,0.84395160,1.43807519,2.09057075,53,91,133,27,49,87,0.43773660,0.76986429,1.36656269,0.26020519,0.65710423,2.13040261
46115,0,USSouthDakotaSpink,South Dakota,Spink,2021-04-04 04:30:40.669713,2021-03-06 00:00:00.000000,0.81996386,1.43704197,2.16967454,52,91,138,27,49,85,0.43663730,0.77619252,1.33479973,0.23735085,0.67097029,2.18590499
46115,0,USSouthDakotaSpink,South Dakota,Spink,2021-04-04 04:30:40.669713,2021-03-07 00:00:00.000000,0.79899374,1.43206755,2.24600126,50,91,143,28,50,82,0.44172742,0.78969597,1.30165935,0.23699412,0.67543861,2.20344779
46115,0,USSouthDakotaSpink,South Dakota,Spink,2021-04-04 04:30:40.669713,2021-03-08 00:00:00.000000,0.85194609,1.39853074,2.21667793,54,89,141,27,51,84,0.42806585,0.80301919,1.33090806,0.24338341,0.68268239,2.17491062
46115,0,USSouthDakotaSpink,South Dakota,Spink,2021-04-04 04:30:40.669713,2021-03-09 00:00:00.000000,0.84806500,1.40112281,2.16540712,54,89,138,27,50,86,0.42419854,0.79359245,1.35376886,0.25042552,0.69848383,2.17977266
46115,0,USSouthDakotaSpink,South Dakota,Spink,2021-04-04 04:30:40.669713,2021-03-10 00:00:00.000000,0.89093044,1.37909059,2.11271661,56,87,134,26,49,86,0.42046688,0.78152216,1.36137835,0.25698993,0.72551495,2.20074046
46115,0,USSouthDakotaSpink,South Dakota,Spink,2021-04-04 04:30:40.669713,2021-03-11 00:00:00.000000,0.87383021,1.39145948,2.05956063,55,88,131,26,50,85,0.41684346,0.78782117,1.34061829,0.26258416,0.72344740,2.27093150
46115,0,USSouthDakotaSpink,South Dakota,Spink,2021-04-04 04:30:40.669713,2021-03-12 00:00:00.000000,0.84172368,1.37379264,2.00664140,53,87,127,26,49,83,0.41320841,0.78179343,1.31309883,0.26813791,0.72419136,2.30764700
46115,0,USSouthDakotaSpink,South Dakota,Spink,2021-04-04 04:30:40.669713,2021-03-13 00:00:00.000000,0.80341000,1.34521253,2.01075049,51,85,128,26,49,81,0.40954834,0.77225886,1.28393041,0.27627180,0.71446675,2.31618099
46115,0,USSouthDakotaSpink,South Dakota,Spink,2021-04-04 04:30:40.669713,2021-03-14 00:00:00.000000,0.79452423,1.31386993,2.02002170,50,83,128,26,48,79,0.41073986,0.76098423,1.25353931,0.28038239,0.70274257,2.31075637
46115,0,USSouthDakotaSpink,South Dakota,Spink,2021-04-04 04:30:40.669713,2021-03-15 00:00:00.000000,0.79236698,1.30606647,1.95226534,50,83,124,26,47,77,0.41301590,0.75079206,1.22222991,0.27605525,0.70274839,2.29568508
46115,0,USSouthDakotaSpink,South Dakota,Spink,2021-04-04 04:30:40.669713,2021-03-16 00:00:00.000000,0.75675593,1.30798537,1.88533905,48,83,120,26,47,76,0.41462829,0.74319067,1.19202605,0.27111218,0.71662936,2.28522418
46115,0,USSouthDakotaSpink,South Dakota,Spink,2021-04-04 04:30:40.669713,2021-03-17 00:00:00.000000,0.72173547,1.28169247,1.81907840,46,81,115,26,46,74,0.41578438,0.73414782,1.16276223,0.26801527,0.71703158,2.26914393
46115,0,USSouthDakotaSpink,South Dakota,Spink,2021-04-04 04:30:40.669713,2021-03-18 00:00:00.000000,0.68738285,1.23872968,1.75426741,43,78,111,26,45,72,0.41406874,0.71268786,1.13434206,0.26732166,0.70063712,2.22873253
46115,0,USSouthDakotaSpink,South Dakota,Spink,2021-04-04 04:30:40.669713,2021-03-19 00:00:00.000000,0.65475743,1.20094994,1.69141907,41,76,107,24,44,70,0.38981746,0.69910606,1.10672291,0.26756893,0.70794606,2.17098771
46115,0,USSouthDakotaSpink,South Dakota,Spink,2021-04-04 04:30:40.669713,2021-03-20 00:00:00.000000,0.62398161,1.17514266,1.63085652,39,74,103,23,44,68,0.36721815,0.69214914,1.07989285,0.27531101,0.69913721,2.12967529
46115,0,USSouthDakotaSpink,South Dakota,Spink,2021-04-04 04:30:40.669713,2021-03-21 00:00:00.000000,0.59508568,1.15532271,1.57276642,37,73,100,23,43,67,0.36887446,0.67792587,1.05385248,0.26805398,0.71159164,2.24093911
46115,0,USSouthDakotaSpink,South Dakota,Spink,2021-04-04 04:30:40.669713,2021-03-22 00:00:00.000000,0.59288273,1.14072685,1.56434428,37,72,99,22,42,65,0.35178207,0.66493750,1.02860314,0.26920594,0.70887725,2.29891229
46115,0,USSouthDakotaSpink,South Dakota,Spink,2021-04-04 04:30:40.669713,2021-03-23 00:00:00.000000,0.58094665,1.12041769,1.58969432,37,71,101,21,41,63,0.34121840,0.65646227,1.00321863,0.27180185,0.71370250,2.32287126
46115,0,USSouthDakotaSpink,South Dakota,Spink,2021-04-04 04:30:40.669713,2021-03-24 00:00:00.000000,0.56897055,1.10850042,1.62389591,36,70,103,21,41,62,0.33507167,0.65069433,0.97770842,0.27464803,0.72492001,2.33163864
46115,0,USSouthDakotaSpink,South Dakota,Spink,2021-04-04 04:30:40.669713,2021-03-25 00:00:00.000000,0.55848091,1.09559068,1.65658418,35,69,105,21,41,60,0.33189356,0.64325471,0.95216856,0.27641230,0.71968372,2.33353673
46115,0,USSouthDakotaSpink,South Dakota,Spink,2021-04-04 04:30:40.669713,2021-03-26 00:00:00.000000,0.54912652,1.06735059,1.67460446,35,68,106,21,40,59,0.33069119,0.63115817,0.93138486,0.27775395,0.70790981,2.44292143
46115,0,USSouthDakotaSpink,South Dakota,Spink,2021-04-04 04:30:40.669713,2021-03-27 00:00:00.000000,0.54064067,1.02932735,1.62169377,34,65,103,21,39,59,0.33078473,0.61928371,0.92782550,0.27848112,0.70216966,2.44892100
46115,0,USSouthDakotaSpink,South Dakota,Spink,2021-04-04 04:30:40.669713,2021-03-28 00:00:00.000000,0.53273821,1.01115380,1.56992889,33,64,100,20,38,58,0.32484860,0.60981323,0.90976503,0.26767184,0.69937641,2.46989825
46115,0,USSouthDakotaSpink,South Dakota,Spink,2021-04-04 04:30:40.669713,2021-03-29 00:00:00.000000,0.50314326,0.96421929,1.51168728,32,61,96,20,37,56,0.31628584,0.59512641,0.89276450,0.26418855,0.68525731,2.48351899
46115,0,USSouthDakotaSpink,South Dakota,Spink,2021-04-04 04:30:40.669713,2021-03-30 00:00:00.000000,0.47299198,0.92089352,1.46638503,30,58,93,19,36,56,0.30462544,0.57393081,0.87959408,0.26315461,0.68484342,2.45342240
46115,0,USSouthDakotaSpink,South Dakota,Spink,2021-04-04 04:30:40.669713,2021-03-31 00:00:00.000000,0.44168971,0.86605046,1.41988395,28,55,90,18,35,54,0.29116318,0.55450708,0.86121249,0.26292769,0.69391245,2.41105916
46115,0,USSouthDakotaSpink,South Dakota,Spink,2021-04-04 04:30:40.669713,2021-04-01 00:00:00.000000,0.41025054,0.82555762,1.37251748,26,52,87,17,34,53,0.27475194,0.53443770,0.83560488,0.26331990,0.70190367,2.36422818
46115,0,USSouthDakotaSpink,South Dakota,Spink,2021-04-04 04:30:40.669713,2021-04-02 00:00:00.000000,0.37962342,0.78961154,1.32437408,24,50,84,16,32,51,0.25600323,0.50679867,0.80517461,0.27187158,0.70657012,2.30811973
46115,0,USSouthDakotaSpink,South Dakota,Spink,2021-04-04 04:30:40.669713,2021-04-03 00:00:00.000000,0.35034820,0.75532003,1.27543158,22,48,81,15,31,49,0.23758249,0.48753277,0.77182643,0.28268172,0.69778688,2.29084213
46115,0,USSouthDakotaSpink,South Dakota,Spink,2021-04-04 04:30:40.669713,2021-04-04 00:00:00.000000,0.32269250,0.71926656,1.22574138,20,45,78,14,29,46,0.21984729,0.46338386,0.73702591,0.26442482,0.71511619,2.31959346
46115,0,USSouthDakotaSpink,South Dakota,Spink,2021-04-04 04:30:40.669713,2021-04-05 00:00:00.000000,0.29677249,0.68190717,1.17557237,18,43,74,12,28,45,0.20301015,0.44124447,0.70954336,0.25530767,0.73747406,2.34389873
46115,0,USSouthDakotaSpink,South Dakota,Spink,2021-04-04 04:30:40.669713,2021-04-06 00:00:00.000000,0.27261536,0.64247969,1.12539984,17,40,71,11,26,44,0.18722670,0.41822770,0.69951889,0.24615259,0.73941516,2.37530876
46115,0,USSouthDakotaSpink,South Dakota,Spink,2021-04-04 04:30:40.669713,2021-04-07 00:00:00.000000,0.25019503,0.60510219,1.07576380,15,38,68,11,25,43,0.17270027,0.39840992,0.68684713,0.24368798,0.74976632,2.40219564
46115,0,USSouthDakotaSpink,South Dakota,Spink,2021-04-04 04:30:40.669713,2021-04-08 00:00:00.000000,0.22945276,0.57168961,1.02754354,14,36,65,10,24,41,0.15947774,0.37802370,0.65338382,0.24270366,0.75325397,2.42142768
46115,0,USSouthDakotaSpink,South Dakota,Spink,2021-04-04 04:30:40.669713,2021-04-09 00:00:00.000000,0.21031007,0.54150629,0.98122123,13,34,62,9,22,39,0.14741727,0.35468516,0.62093879,0.24232052,0.75326993,2.43348803
46115,0,USSouthDakotaSpink,South Dakota,Spink,2021-04-04 04:30:40.669713,2021-04-10 00:00:00.000000,0.19267740,0.50789647,0.93639549,12,32,59,8,21,37,0.13637081,0.33361190,0.58964508,0.24217289,0.75329927,2.44043819
46115,0,USSouthDakotaSpink,South Dakota,Spink,2021-04-04 04:30:40.669713,2021-04-11 00:00:00.000000,0.17647764,0.47575216,0.89319151,11,30,56,8,20,35,0.12621868,0.31600331,0.55958179,0.24211622,0.75331454,2.44424979
46115,0,USSouthDakotaSpink,South Dakota,Spink,2021-04-04 04:30:40.669713,2021-04-12 00:00:00.000000,0.16161368,0.44997972,0.85166952,10,28,54,7,19,33,0.11686524,0.29822874,0.53078894,0.24209450,0.75332100,2.44628349
46115,0,USSouthDakotaSpink,South Dakota,Spink,2021-04-04 04:30:40.669713,2021-04-13 00:00:00.000000,0.14936092,0.42716820,0.81184648,9,27,51,6,17,32,0.10823229,0.27988759,0.50327845,0.24208618,0.75332353,2.44735268
46115,0,USSouthDakotaSpink,South Dakota,Spink,2021-04-04 04:30:40.669713,2021-04-14 00:00:00.000000,0.13824669,0.40547777,0.77371102,8,25,49,6,16,30,0.10025429,0.26201176,0.47704218,0.24208300,0.75332448,2.44791044
46115,0,USSouthDakotaSpink,South Dakota,Spink,2021-04-04 04:30:40.669713,2021-04-15 00:00:00.000000,0.12794740,0.38485905,0.73723342,8,24,47,5,15,28,0.09287501,0.24640836,0.45444625,0.24208177,0.75332483,2.44997187
46115,0,USSouthDakotaSpink,South Dakota,Spink,2021-04-04 04:30:40.669713,2021-04-16 00:00:00.000000,0.11840618,0.36328863,0.70237223,7,23,44,5,14,27,0.08604530,0.23303205,0.43380910,0.24208131,0.75332496,2.45370126
