FIPS,HR_UID,nameid,province,region,analysisTime,dates,pointprevalence_025,pointprevalence_50,pointprevalence_975,pointinfections_025,pointinfections_50,pointinfections_975,pointinfectious_025,pointinfectious_50,pointinfectious_975,pointinfectiousprevalence_05,pointinfectiousprevalence_50,pointinfectiousprevalence_95,infectrate_025,infectrate_50,infectrate_975
42129,0,USPennsylvaniaWestmoreland,Pennsylvania,Westmoreland,2021-04-04 05:42:00.831832,2020-03-09 00:00:00.000000,0.00107073,0.00251418,0.00461756,3,8,16,0,2,6,0.00024579,0.00080904,0.00191326,0.56594156,0.73271836,0.94026598
42129,0,USPennsylvaniaWestmoreland,Pennsylvania,Westmoreland,2021-04-04 05:42:00.831832,2020-03-10 00:00:00.000000,0.00163519,0.00354675,0.00665995,5,12,23,1,4,8,0.00045143,0.00118114,0.00229842,0.56594136,0.73284337,0.94025454
42129,0,USPennsylvaniaWestmoreland,Pennsylvania,Westmoreland,2021-04-04 05:42:00.831832,2020-03-11 00:00:00.000000,0.00237381,0.00489635,0.00960968,8,17,33,2,5,10,0.00076197,0.00170016,0.00293110,0.56594105,0.73302995,0.94022062
42129,0,USPennsylvaniaWestmoreland,Pennsylvania,Westmoreland,2021-04-04 05:42:00.831832,2020-03-12 00:00:00.000000,0.00315324,0.00644324,0.01279818,11,22,44,4,8,14,0.00116112,0.00237976,0.00423628,0.56594052,0.73303532,0.94011921
42129,0,USPennsylvaniaWestmoreland,Pennsylvania,Westmoreland,2021-04-04 05:42:00.831832,2020-03-13 00:00:00.000000,0.00378401,0.00803902,0.01634114,13,28,57,5,11,19,0.00148905,0.00316159,0.00570704,0.56593919,0.73298709,0.93981468
42129,0,USPennsylvaniaWestmoreland,Pennsylvania,Westmoreland,2021-04-04 05:42:00.831832,2020-03-14 00:00:00.000000,0.00449682,0.00999362,0.02027573,15,34,70,6,13,26,0.00180454,0.00398059,0.00759720,0.56593350,0.73285949,0.93889981
42129,0,USPennsylvaniaWestmoreland,Pennsylvania,Westmoreland,2021-04-04 05:42:00.831832,2020-03-15 00:00:00.000000,0.00530249,0.01211217,0.02464303,18,42,85,7,17,34,0.00216158,0.00494741,0.00990370,0.56590192,0.73248054,0.93616971
42129,0,USPennsylvaniaWestmoreland,Pennsylvania,Westmoreland,2021-04-04 05:42:00.831832,2020-03-16 00:00:00.000000,0.00777890,0.01416984,0.02739544,27,49,95,9,20,43,0.00258083,0.00599101,0.01246089,0.56571760,0.73085542,0.92821937
42129,0,USPennsylvaniaWestmoreland,Pennsylvania,Westmoreland,2021-04-04 05:42:00.831832,2020-03-17 00:00:00.000000,0.00980024,0.01670309,0.03066918,34,58,107,13,25,50,0.00384375,0.00721887,0.01442274,0.56465718,0.72910662,0.90668455
42129,0,USPennsylvaniaWestmoreland,Pennsylvania,Westmoreland,2021-04-04 05:42:00.831832,2020-03-18 00:00:00.000000,0.01155430,0.01985114,0.03425097,40,69,119,16,29,56,0.00465873,0.00857014,0.01633239,0.56641390,0.72849106,0.89027145
42129,0,USPennsylvaniaWestmoreland,Pennsylvania,Westmoreland,2021-04-04 05:42:00.831832,2020-03-19 00:00:00.000000,0.01397272,0.02306232,0.03815338,48,80,133,20,35,65,0.00596125,0.01031702,0.01871327,0.57494856,0.70877598,0.87309933
42129,0,USPennsylvaniaWestmoreland,Pennsylvania,Westmoreland,2021-04-04 05:42:00.831832,2020-03-20 00:00:00.000000,0.01652623,0.02615645,0.04236157,57,91,147,23,41,75,0.00686762,0.01200988,0.02160269,0.56585585,0.71012036,0.85980781
42129,0,USPennsylvaniaWestmoreland,Pennsylvania,Westmoreland,2021-04-04 05:42:00.831832,2020-03-21 00:00:00.000000,0.01933358,0.02979402,0.04720652,67,103,164,29,48,86,0.00858361,0.01387498,0.02479283,0.55967073,0.69489187,0.85800144
42129,0,USPennsylvaniaWestmoreland,Pennsylvania,Westmoreland,2021-04-04 05:42:00.831832,2020-03-22 00:00:00.000000,0.02211335,0.03395621,0.05545704,77,118,193,34,56,97,0.00979414,0.01614715,0.02808267,0.51317250,0.67492809,0.84647150
42129,0,USPennsylvaniaWestmoreland,Pennsylvania,Westmoreland,2021-04-04 05:42:00.831832,2020-03-23 00:00:00.000000,0.02553243,0.03850288,0.06612166,89,134,230,38,65,113,0.01097608,0.01872596,0.03259961,0.47767520,0.67025122,0.84711441
42129,0,USPennsylvaniaWestmoreland,Pennsylvania,Westmoreland,2021-04-04 05:42:00.831832,2020-03-24 00:00:00.000000,0.02929678,0.04413048,0.07433028,102,153,259,42,74,130,0.01230817,0.02132103,0.03753065,0.47605521,0.65941325,0.83259440
42129,0,USPennsylvaniaWestmoreland,Pennsylvania,Westmoreland,2021-04-04 05:42:00.831832,2020-03-25 00:00:00.000000,0.03359430,0.05022012,0.08570372,117,175,299,50,85,149,0.01451496,0.02450746,0.04295298,0.47380611,0.65159274,0.80525409
42129,0,USPennsylvaniaWestmoreland,Pennsylvania,Westmoreland,2021-04-04 05:42:00.831832,2020-03-26 00:00:00.000000,0.03906627,0.05735707,0.09505717,136,200,331,60,97,170,0.01730100,0.02807152,0.04894435,0.47056513,0.62517943,0.79692464
42129,0,USPennsylvaniaWestmoreland,Pennsylvania,Westmoreland,2021-04-04 05:42:00.831832,2020-03-27 00:00:00.000000,0.04324686,0.06348020,0.10449211,150,221,364,71,111,193,0.02040061,0.03208829,0.05554907,0.44982977,0.60805127,0.77829199
42129,0,USPennsylvaniaWestmoreland,Pennsylvania,Westmoreland,2021-04-04 05:42:00.831832,2020-03-28 00:00:00.000000,0.04906973,0.07091978,0.11450042,171,247,399,82,125,219,0.02377671,0.03596481,0.06277947,0.43534182,0.58042206,0.75856314
42129,0,USPennsylvaniaWestmoreland,Pennsylvania,Westmoreland,2021-04-04 05:42:00.831832,2020-03-29 00:00:00.000000,0.05300611,0.07753249,0.12659918,184,270,441,95,138,245,0.02733990,0.03960235,0.07047538,0.42310043,0.54300254,0.74963183
42129,0,USPennsylvaniaWestmoreland,Pennsylvania,Westmoreland,2021-04-04 05:42:00.831832,2020-03-30 00:00:00.000000,0.05687945,0.08406519,0.13736370,198,293,479,103,150,274,0.02962812,0.04305453,0.07857395,0.37179039,0.52181845,0.68948720
42129,0,USPennsylvaniaWestmoreland,Pennsylvania,Westmoreland,2021-04-04 05:42:00.831832,2020-03-31 00:00:00.000000,0.06261494,0.09132123,0.15365247,218,318,536,111,161,299,0.03191732,0.04625308,0.08571517,0.32784011,0.49792538,0.67993951
42129,0,USPennsylvaniaWestmoreland,Pennsylvania,Westmoreland,2021-04-04 05:42:00.831832,2020-04-01 00:00:00.000000,0.06898059,0.09754960,0.16677864,240,340,581,119,175,322,0.03421740,0.05017353,0.09243562,0.29191916,0.47374953,0.66609697
42129,0,USPennsylvaniaWestmoreland,Pennsylvania,Westmoreland,2021-04-04 05:42:00.831832,2020-04-02 00:00:00.000000,0.07436526,0.10496438,0.17730721,259,366,618,127,188,345,0.03662932,0.05404761,0.09894730,0.25491165,0.44898415,0.63505374
42129,0,USPennsylvaniaWestmoreland,Pennsylvania,Westmoreland,2021-04-04 05:42:00.831832,2020-04-03 00:00:00.000000,0.07938482,0.10998325,0.18779238,276,383,655,136,202,372,0.03914882,0.05810116,0.10686073,0.24719109,0.42971225,0.60175221
42129,0,USPennsylvaniaWestmoreland,Pennsylvania,Westmoreland,2021-04-04 05:42:00.831832,2020-04-04 00:00:00.000000,0.08462320,0.11569251,0.19682555,295,403,686,145,213,396,0.04176862,0.06123849,0.11365556,0.24614980,0.40551793,0.56329498
42129,0,USPennsylvaniaWestmoreland,Pennsylvania,Westmoreland,2021-04-04 05:42:00.831832,2020-04-05 00:00:00.000000,0.08855073,0.12138143,0.20180449,308,423,704,156,227,413,0.04478876,0.06523554,0.11840642,0.23920184,0.37900689,0.51588741
42129,0,USPennsylvaniaWestmoreland,Pennsylvania,Westmoreland,2021-04-04 05:42:00.831832,2020-04-06 00:00:00.000000,0.09070569,0.12658478,0.20526793,316,441,716,165,242,427,0.04731828,0.06937106,0.12263831,0.23348768,0.36084017,0.47110911
42129,0,USPennsylvaniaWestmoreland,Pennsylvania,Westmoreland,2021-04-04 05:42:00.831832,2020-04-07 00:00:00.000000,0.09322132,0.13038516,0.20850574,325,454,727,170,253,438,0.04896776,0.07270316,0.12558562,0.22796143,0.34360100,0.45189739
42129,0,USPennsylvaniaWestmoreland,Pennsylvania,Westmoreland,2021-04-04 05:42:00.831832,2020-04-08 00:00:00.000000,0.09601292,0.13299428,0.21157919,334,464,738,176,264,446,0.05056234,0.07582430,0.12795656,0.22048491,0.32653289,0.41721290
42129,0,USPennsylvaniaWestmoreland,Pennsylvania,Westmoreland,2021-04-04 05:42:00.831832,2020-04-09 00:00:00.000000,0.09670859,0.13657627,0.21452846,337,476,748,179,272,453,0.05153666,0.07824544,0.13003235,0.21620616,0.30959523,0.40662185
42129,0,USPennsylvaniaWestmoreland,Pennsylvania,Westmoreland,2021-04-04 05:42:00.831832,2020-04-10 00:00:00.000000,0.09586270,0.13854948,0.21303156,334,483,743,177,279,460,0.05090990,0.08017330,0.13196126,0.21042479,0.29473807,0.38987128
42129,0,USPennsylvaniaWestmoreland,Pennsylvania,Westmoreland,2021-04-04 05:42:00.831832,2020-04-11 00:00:00.000000,0.09481463,0.13892359,0.21101839,330,484,736,175,278,466,0.05041535,0.07991870,0.13380739,0.18962931,0.28277547,0.38741202
42129,0,USPennsylvaniaWestmoreland,Pennsylvania,Westmoreland,2021-04-04 05:42:00.831832,2020-04-12 00:00:00.000000,0.09424398,0.13778644,0.21436583,328,480,747,176,281,473,0.05069803,0.08066250,0.13563828,0.17905705,0.27365734,0.36520231
42129,0,USPennsylvaniaWestmoreland,Pennsylvania,Westmoreland,2021-04-04 05:42:00.831832,2020-04-13 00:00:00.000000,0.09356129,0.14034343,0.21811428,326,489,760,176,284,478,0.05069767,0.08157333,0.13724347,0.17896987,0.26566534,0.35181049
42129,0,USPennsylvaniaWestmoreland,Pennsylvania,Westmoreland,2021-04-04 05:42:00.831832,2020-04-14 00:00:00.000000,0.09281171,0.14038287,0.22161710,323,489,773,176,282,481,0.05050486,0.08107528,0.13802125,0.17892030,0.25741558,0.34526218
42129,0,USPennsylvaniaWestmoreland,Pennsylvania,Westmoreland,2021-04-04 05:42:00.831832,2020-04-15 00:00:00.000000,0.09201983,0.14040128,0.22466817,321,489,783,175,284,482,0.05020401,0.08165789,0.13823732,0.16869682,0.24760902,0.32888308
42129,0,USPennsylvaniaWestmoreland,Pennsylvania,Westmoreland,2021-04-04 05:42:00.831832,2020-04-16 00:00:00.000000,0.09118452,0.13813337,0.22191844,318,481,774,173,287,481,0.04984059,0.08250589,0.13801155,0.16054501,0.24047403,0.31874570
42129,0,USPennsylvaniaWestmoreland,Pennsylvania,Westmoreland,2021-04-04 05:42:00.831832,2020-04-17 00:00:00.000000,0.08944258,0.13445819,0.21685706,312,469,756,172,284,479,0.04943448,0.08142485,0.13743135,0.14448244,0.22343967,0.31069183
42129,0,USPennsylvaniaWestmoreland,Pennsylvania,Westmoreland,2021-04-04 05:42:00.831832,2020-04-18 00:00:00.000000,0.08691557,0.13142020,0.21046478,303,458,734,170,284,477,0.04898454,0.08140882,0.13691938,0.13565734,0.21004656,0.29684486
42129,0,USPennsylvaniaWestmoreland,Pennsylvania,Westmoreland,2021-04-04 05:42:00.831832,2020-04-19 00:00:00.000000,0.08394189,0.12699301,0.20366050,292,443,710,169,275,472,0.04847990,0.07891865,0.13551851,0.13461551,0.19966197,0.28402968
42129,0,USPennsylvaniaWestmoreland,Pennsylvania,Westmoreland,2021-04-04 05:42:00.831832,2020-04-20 00:00:00.000000,0.08116810,0.12358328,0.19600233,283,431,683,167,268,472,0.04792237,0.07708416,0.13555603,0.13454964,0.19106778,0.27615865
42129,0,USPennsylvaniaWestmoreland,Pennsylvania,Westmoreland,2021-04-04 05:42:00.831832,2020-04-21 00:00:00.000000,0.07802711,0.12076449,0.19058497,272,421,664,165,263,471,0.04736471,0.07561455,0.13512533,0.13217911,0.18215229,0.26371860
42129,0,USPennsylvaniaWestmoreland,Pennsylvania,Westmoreland,2021-04-04 05:42:00.831832,2020-04-22 00:00:00.000000,0.07472950,0.11652646,0.18371851,260,406,640,163,256,468,0.04680459,0.07355875,0.13415432,0.12782692,0.17693006,0.25351226
42129,0,USPennsylvaniaWestmoreland,Pennsylvania,Westmoreland,2021-04-04 05:42:00.831832,2020-04-23 00:00:00.000000,0.07140535,0.11231242,0.17695549,249,391,617,159,248,450,0.04558301,0.07131393,0.12912679,0.11733224,0.17055466,0.24254969
42129,0,USPennsylvaniaWestmoreland,Pennsylvania,Westmoreland,2021-04-04 05:42:00.831832,2020-04-24 00:00:00.000000,0.06811153,0.10826426,0.17256733,237,377,602,153,243,433,0.04387633,0.06977496,0.12419996,0.10406190,0.16288303,0.23380099
42129,0,USPennsylvaniaWestmoreland,Pennsylvania,Westmoreland,2021-04-04 05:42:00.831832,2020-04-25 00:00:00.000000,0.06483809,0.10244872,0.16730568,226,357,583,146,236,420,0.04209104,0.06765545,0.12039983,0.09595161,0.15329169,0.23182222
42129,0,USPennsylvaniaWestmoreland,Pennsylvania,Westmoreland,2021-04-04 05:42:00.831832,2020-04-26 00:00:00.000000,0.06161994,0.09730430,0.16136997,214,339,563,140,223,408,0.04024598,0.06408421,0.11705326,0.09282067,0.14713910,0.21153364
42129,0,USPennsylvaniaWestmoreland,Pennsylvania,Westmoreland,2021-04-04 05:42:00.831832,2020-04-27 00:00:00.000000,0.05858870,0.09293396,0.15569598,204,324,543,133,211,396,0.03824458,0.06055661,0.11369041,0.08985252,0.14398032,0.21048721
42129,0,USPennsylvaniaWestmoreland,Pennsylvania,Westmoreland,2021-04-04 05:42:00.831832,2020-04-28 00:00:00.000000,0.05611231,0.08704150,0.15040753,195,303,524,126,198,384,0.03628413,0.05701870,0.11016293,0.08899548,0.14216899,0.21029287
42129,0,USPennsylvaniaWestmoreland,Pennsylvania,Westmoreland,2021-04-04 05:42:00.831832,2020-04-29 00:00:00.000000,0.05375333,0.08167475,0.14403300,187,284,502,120,186,371,0.03441175,0.05333573,0.10660902,0.08839320,0.13939935,0.20960654
42129,0,USPennsylvaniaWestmoreland,Pennsylvania,Westmoreland,2021-04-04 05:42:00.831832,2020-04-30 00:00:00.000000,0.04942672,0.07632188,0.13751074,172,266,479,113,177,359,0.03265938,0.05085475,0.10310844,0.08417833,0.13661685,0.20888158
42129,0,USPennsylvaniaWestmoreland,Pennsylvania,Westmoreland,2021-04-04 05:42:00.831832,2020-05-01 00:00:00.000000,0.04514415,0.07220751,0.13070413,157,251,456,107,169,341,0.03086478,0.04853420,0.09774106,0.08055046,0.13553521,0.20861138
42129,0,USPennsylvaniaWestmoreland,Pennsylvania,Westmoreland,2021-04-04 05:42:00.831832,2020-05-02 00:00:00.000000,0.04127669,0.06768642,0.12409106,144,236,432,98,160,322,0.02818076,0.04593486,0.09257230,0.07768219,0.13296971,0.20827459
42129,0,USPennsylvaniaWestmoreland,Pennsylvania,Westmoreland,2021-04-04 05:42:00.831832,2020-05-03 00:00:00.000000,0.03831716,0.06428981,0.11777176,133,224,410,89,151,305,0.02574940,0.04332894,0.08765478,0.07637019,0.13133481,0.20767925
42129,0,USPennsylvaniaWestmoreland,Pennsylvania,Westmoreland,2021-04-04 05:42:00.831832,2020-05-04 00:00:00.000000,0.03624339,0.06039872,0.11075046,126,210,386,82,141,289,0.02355235,0.04060927,0.08299505,0.07555348,0.13102011,0.20777437
42129,0,USPennsylvaniaWestmoreland,Pennsylvania,Westmoreland,2021-04-04 05:42:00.831832,2020-05-05 00:00:00.000000,0.03433007,0.05634292,0.10407355,119,196,363,75,130,273,0.02175553,0.03746315,0.07826131,0.07518302,0.12799137,0.20866781
42129,0,USPennsylvaniaWestmoreland,Pennsylvania,Westmoreland,2021-04-04 05:42:00.831832,2020-05-06 00:00:00.000000,0.03255822,0.05307154,0.09760765,113,185,340,70,121,257,0.02025556,0.03486440,0.07366327,0.07584722,0.12753346,0.20878223
42129,0,USPennsylvaniaWestmoreland,Pennsylvania,Westmoreland,2021-04-04 05:42:00.831832,2020-05-07 00:00:00.000000,0.03090914,0.05009010,0.09213024,107,174,321,66,113,241,0.01898697,0.03239806,0.06926682,0.07703149,0.12971299,0.20853960
42129,0,USPennsylvaniaWestmoreland,Pennsylvania,Westmoreland,2021-04-04 05:42:00.831832,2020-05-08 00:00:00.000000,0.02936977,0.04760989,0.08823497,102,166,307,62,107,227,0.01790992,0.03070849,0.06510102,0.07897669,0.12938055,0.20855706
42129,0,USPennsylvaniaWestmoreland,Pennsylvania,Westmoreland,2021-04-04 05:42:00.831832,2020-05-09 00:00:00.000000,0.02793150,0.04530705,0.08534699,97,158,297,59,101,214,0.01699940,0.02904061,0.06148609,0.08185540,0.12810239,0.20850950
42129,0,USPennsylvaniaWestmoreland,Pennsylvania,Westmoreland,2021-04-04 05:42:00.831832,2020-05-10 00:00:00.000000,0.02622496,0.04269640,0.08263171,91,148,288,56,97,205,0.01623204,0.02780227,0.05889086,0.08525181,0.13080185,0.20816503
42129,0,USPennsylvaniaWestmoreland,Pennsylvania,Westmoreland,2021-04-04 05:42:00.831832,2020-05-11 00:00:00.000000,0.02567753,0.04076252,0.07879980,89,142,274,54,90,192,0.01558135,0.02606688,0.05528181,0.08891085,0.13288923,0.20630591
42129,0,USPennsylvaniaWestmoreland,Pennsylvania,Westmoreland,2021-04-04 05:42:00.831832,2020-05-12 00:00:00.000000,0.02488930,0.03892924,0.07544325,86,135,263,51,87,184,0.01490122,0.02501286,0.05275080,0.09314060,0.13244346,0.20113074
42129,0,USPennsylvaniaWestmoreland,Pennsylvania,Westmoreland,2021-04-04 05:42:00.831832,2020-05-13 00:00:00.000000,0.02396493,0.03689479,0.07282906,83,128,254,49,83,178,0.01423657,0.02391908,0.05103515,0.09568827,0.13576825,0.20047992
42129,0,USPennsylvaniaWestmoreland,Pennsylvania,Westmoreland,2021-04-04 05:42:00.831832,2020-05-14 00:00:00.000000,0.02233827,0.03526889,0.07025355,77,123,245,47,80,172,0.01359919,0.02299206,0.04936340,0.09727526,0.13902984,0.20395539
42129,0,USPennsylvaniaWestmoreland,Pennsylvania,Westmoreland,2021-04-04 05:42:00.831832,2020-05-15 00:00:00.000000,0.02087470,0.03382213,0.06773724,72,118,236,45,75,166,0.01298247,0.02177545,0.04774368,0.09831650,0.14115222,0.20724013
42129,0,USPennsylvaniaWestmoreland,Pennsylvania,Westmoreland,2021-04-04 05:42:00.831832,2020-05-16 00:00:00.000000,0.01957914,0.03261621,0.06530610,68,113,227,43,71,161,0.01240729,0.02053722,0.04618025,0.09903170,0.14551656,0.21070552
42129,0,USPennsylvaniaWestmoreland,Pennsylvania,Westmoreland,2021-04-04 05:42:00.831832,2020-05-17 00:00:00.000000,0.01856391,0.03155601,0.06297773,64,110,219,41,68,155,0.01187725,0.01968239,0.04467549,0.10011966,0.15130520,0.21170884
42129,0,USPennsylvaniaWestmoreland,Pennsylvania,Westmoreland,2021-04-04 05:42:00.831832,2020-05-18 00:00:00.000000,0.01818435,0.03067661,0.06020547,63,107,210,39,66,150,0.01139458,0.01894081,0.04323385,0.10439178,0.15506847,0.23115623
42129,0,USPennsylvaniaWestmoreland,Pennsylvania,Westmoreland,2021-04-04 05:42:00.831832,2020-05-19 00:00:00.000000,0.01760320,0.02954931,0.05755189,61,103,200,38,64,145,0.01092214,0.01836976,0.04184245,0.11308402,0.16140226,0.23578093
42129,0,USPennsylvaniaWestmoreland,Pennsylvania,Westmoreland,2021-04-04 05:42:00.831832,2020-05-20 00:00:00.000000,0.01719478,0.02894462,0.05499946,59,100,191,36,62,140,0.01052017,0.01793368,0.04014090,0.11393848,0.16569837,0.23864852
42129,0,USPennsylvaniaWestmoreland,Pennsylvania,Westmoreland,2021-04-04 05:42:00.831832,2020-05-21 00:00:00.000000,0.01672280,0.02801032,0.05256999,58,97,183,35,60,133,0.01021468,0.01738563,0.03838856,0.11673729,0.17159251,0.24620355
42129,0,USPennsylvaniaWestmoreland,Pennsylvania,Westmoreland,2021-04-04 05:42:00.831832,2020-05-22 00:00:00.000000,0.01646449,0.02780379,0.05029490,57,97,175,34,58,128,0.00982685,0.01675665,0.03670070,0.12004311,0.17527313,0.25624712
42129,0,USPennsylvaniaWestmoreland,Pennsylvania,Westmoreland,2021-04-04 05:42:00.831832,2020-05-23 00:00:00.000000,0.01627331,0.02709960,0.04918824,56,94,171,33,57,122,0.00965201,0.01644201,0.03511936,0.12695464,0.17979810,0.26621951
42129,0,USPennsylvaniaWestmoreland,Pennsylvania,Westmoreland,2021-04-04 05:42:00.831832,2020-05-24 00:00:00.000000,0.01615257,0.02643788,0.04820241,56,92,168,33,56,119,0.00952227,0.01632133,0.03434348,0.12823286,0.19197226,0.30432790
42129,0,USPennsylvaniaWestmoreland,Pennsylvania,Westmoreland,2021-04-04 05:42:00.831832,2020-05-25 00:00:00.000000,0.01620490,0.02653315,0.04731068,56,92,165,32,55,117,0.00917488,0.01603691,0.03363031,0.13618758,0.20403376,0.33732037
42129,0,USPennsylvaniaWestmoreland,Pennsylvania,Westmoreland,2021-04-04 05:42:00.831832,2020-05-26 00:00:00.000000,0.01604774,0.02702995,0.04713906,55,94,164,31,54,114,0.00894946,0.01569399,0.03283840,0.14940984,0.21302312,0.37069724
42129,0,USPennsylvaniaWestmoreland,Pennsylvania,Westmoreland,2021-04-04 05:42:00.831832,2020-05-27 00:00:00.000000,0.01603378,0.02727446,0.04702901,55,95,164,31,54,112,0.00903024,0.01566220,0.03217790,0.15011349,0.22050087,0.37894394
42129,0,USPennsylvaniaWestmoreland,Pennsylvania,Westmoreland,2021-04-04 05:42:00.831832,2020-05-28 00:00:00.000000,0.01601472,0.02721425,0.04720955,55,94,164,32,54,111,0.00925053,0.01563650,0.03182408,0.15035676,0.23088091,0.38912270
42129,0,USPennsylvaniaWestmoreland,Pennsylvania,Westmoreland,2021-04-04 05:42:00.831832,2020-05-29 00:00:00.000000,0.01570931,0.02779161,0.04749990,54,96,165,32,56,110,0.00935387,0.01615757,0.03179658,0.15157356,0.24004623,0.40496874
42129,0,USPennsylvaniaWestmoreland,Pennsylvania,Westmoreland,2021-04-04 05:42:00.831832,2020-05-30 00:00:00.000000,0.01533004,0.02792773,0.04785440,53,97,166,31,58,111,0.00914593,0.01671087,0.03201281,0.16503854,0.25252740,0.42368583
42129,0,USPennsylvaniaWestmoreland,Pennsylvania,Westmoreland,2021-04-04 05:42:00.831832,2020-05-31 00:00:00.000000,0.01509263,0.02811607,0.04830576,52,98,168,31,59,113,0.00893040,0.01709723,0.03239849,0.17816005,0.26837737,0.42593849
42129,0,USPennsylvaniaWestmoreland,Pennsylvania,Westmoreland,2021-04-04 05:42:00.831832,2020-06-01 00:00:00.000000,0.01623183,0.02931957,0.04953467,56,102,172,31,61,114,0.00908591,0.01751346,0.03290901,0.18785669,0.28305577,0.44536886
42129,0,USPennsylvaniaWestmoreland,Pennsylvania,Westmoreland,2021-04-04 05:42:00.831832,2020-06-02 00:00:00.000000,0.01759135,0.03066436,0.05141043,61,106,179,33,62,116,0.00956888,0.01794078,0.03348811,0.19732702,0.29631632,0.45447248
42129,0,USPennsylvaniaWestmoreland,Pennsylvania,Westmoreland,2021-04-04 05:42:00.831832,2020-06-03 00:00:00.000000,0.01850003,0.03166398,0.05329632,64,110,185,35,63,119,0.01019936,0.01825736,0.03418112,0.22169444,0.30394796,0.47204654
42129,0,USPennsylvaniaWestmoreland,Pennsylvania,Westmoreland,2021-04-04 05:42:00.831832,2020-06-04 00:00:00.000000,0.01917909,0.03271860,0.05519796,66,114,192,35,65,121,0.01030759,0.01890336,0.03494546,0.22775816,0.31905708,0.57397624
42129,0,USPennsylvaniaWestmoreland,Pennsylvania,Westmoreland,2021-04-04 05:42:00.831832,2020-06-05 00:00:00.000000,0.01995719,0.03391678,0.05713219,69,118,199,38,68,124,0.01114113,0.01958843,0.03581676,0.23185986,0.32996862,0.60124283
42129,0,USPennsylvaniaWestmoreland,Pennsylvania,Westmoreland,2021-04-04 05:42:00.831832,2020-06-06 00:00:00.000000,0.02090958,0.03527282,0.05911576,72,123,206,41,70,128,0.01177870,0.02019985,0.03683282,0.24013331,0.35259636,0.60166087
42129,0,USPennsylvaniaWestmoreland,Pennsylvania,Westmoreland,2021-04-04 05:42:00.831832,2020-06-07 00:00:00.000000,0.02227163,0.03696469,0.06262414,77,128,218,43,72,132,0.01240073,0.02089950,0.03804016,0.25608289,0.37184486,0.60178433
42129,0,USPennsylvaniaWestmoreland,Pennsylvania,Westmoreland,2021-04-04 05:42:00.831832,2020-06-08 00:00:00.000000,0.02443090,0.03873698,0.06684914,85,135,233,45,76,137,0.01308710,0.02180527,0.03947161,0.27165332,0.39494505,0.61413408
42129,0,USPennsylvaniaWestmoreland,Pennsylvania,Westmoreland,2021-04-04 05:42:00.831832,2020-06-09 00:00:00.000000,0.02651048,0.04150348,0.07198376,92,144,251,48,80,144,0.01402107,0.02294958,0.04146743,0.29018491,0.40868807,0.61291355
42129,0,USPennsylvaniaWestmoreland,Pennsylvania,Westmoreland,2021-04-04 05:42:00.831832,2020-06-10 00:00:00.000000,0.02824315,0.04499778,0.07741710,98,156,270,53,85,152,0.01528834,0.02459837,0.04380750,0.30536702,0.42522245,0.61013132
42129,0,USPennsylvaniaWestmoreland,Pennsylvania,Westmoreland,2021-04-04 05:42:00.831832,2020-06-11 00:00:00.000000,0.03036430,0.04852854,0.08304200,105,169,289,56,91,161,0.01627762,0.02619441,0.04639061,0.30896828,0.43651906,0.60935826
42129,0,USPennsylvaniaWestmoreland,Pennsylvania,Westmoreland,2021-04-04 05:42:00.831832,2020-06-12 00:00:00.000000,0.03326569,0.05261395,0.08873639,116,183,309,61,98,171,0.01761265,0.02821419,0.04916619,0.32226384,0.45300616,0.60248871
42129,0,USPennsylvaniaWestmoreland,Pennsylvania,Westmoreland,2021-04-04 05:42:00.831832,2020-06-13 00:00:00.000000,0.03635698,0.05697031,0.09662107,126,198,337,66,106,181,0.01893346,0.03048536,0.05210819,0.35681077,0.47690684,0.59557094
42129,0,USPennsylvaniaWestmoreland,Pennsylvania,Westmoreland,2021-04-04 05:42:00.831832,2020-06-14 00:00:00.000000,0.03986839,0.06158932,0.10519962,139,214,367,70,115,192,0.02034418,0.03310083,0.05520187,0.35978289,0.48529946,0.61948396
42129,0,USPennsylvaniaWestmoreland,Pennsylvania,Westmoreland,2021-04-04 05:42:00.831832,2020-06-15 00:00:00.000000,0.04355353,0.06712190,0.11411181,151,234,398,76,125,203,0.02197456,0.03600535,0.05843103,0.36882772,0.49678582,0.67227033
42129,0,USPennsylvaniaWestmoreland,Pennsylvania,Westmoreland,2021-04-04 05:42:00.831832,2020-06-16 00:00:00.000000,0.04771501,0.07338630,0.12378528,166,256,431,83,134,215,0.02381340,0.03861288,0.06165303,0.37963746,0.50632811,0.71358853
42129,0,USPennsylvaniaWestmoreland,Pennsylvania,Westmoreland,2021-04-04 05:42:00.831832,2020-06-17 00:00:00.000000,0.05224532,0.08099701,0.13425825,182,282,468,90,147,231,0.02602481,0.04221272,0.06637264,0.38030253,0.51875341,0.73699475
42129,0,USPennsylvaniaWestmoreland,Pennsylvania,Westmoreland,2021-04-04 05:42:00.831832,2020-06-18 00:00:00.000000,0.05717463,0.08895652,0.14561431,199,310,508,99,160,251,0.02854561,0.04590628,0.07199230,0.37985539,0.53621847,0.73263704
42129,0,USPennsylvaniaWestmoreland,Pennsylvania,Westmoreland,2021-04-04 05:42:00.831832,2020-06-19 00:00:00.000000,0.06338888,0.09486900,0.15796075,221,330,551,108,175,273,0.03114768,0.05022123,0.07825900,0.39908157,0.53774954,0.71099666
42129,0,USPennsylvaniaWestmoreland,Pennsylvania,Westmoreland,2021-04-04 05:42:00.831832,2020-06-20 00:00:00.000000,0.06795046,0.10414636,0.17133368,237,363,597,116,192,297,0.03327722,0.05505947,0.08537482,0.40453480,0.54874582,0.70368859
42129,0,USPennsylvaniaWestmoreland,Pennsylvania,Westmoreland,2021-04-04 05:42:00.831832,2020-06-21 00:00:00.000000,0.07370018,0.11504901,0.18575631,257,401,648,128,207,324,0.03691490,0.05933892,0.09311374,0.40907930,0.55931727,0.72951498
42129,0,USPennsylvaniaWestmoreland,Pennsylvania,Westmoreland,2021-04-04 05:42:00.831832,2020-06-22 00:00:00.000000,0.08024697,0.12569821,0.20154020,279,438,703,141,226,354,0.04068985,0.06502309,0.10151488,0.40880366,0.55513955,0.71808433
42129,0,USPennsylvaniaWestmoreland,Pennsylvania,Westmoreland,2021-04-04 05:42:00.831832,2020-06-23 00:00:00.000000,0.08775094,0.13847767,0.21842347,306,483,762,153,248,386,0.04397657,0.07113183,0.11072270,0.40836883,0.55485252,0.72554334
42129,0,USPennsylvaniaWestmoreland,Pennsylvania,Westmoreland,2021-04-04 05:42:00.831832,2020-06-24 00:00:00.000000,0.09707506,0.15285819,0.23534003,338,533,821,170,270,421,0.04881428,0.07738999,0.12072205,0.40735838,0.54962991,0.72381594
42129,0,USPennsylvaniaWestmoreland,Pennsylvania,Westmoreland,2021-04-04 05:42:00.831832,2020-06-25 00:00:00.000000,0.10713235,0.16493011,0.25577629,373,575,892,189,294,458,0.05441479,0.08446480,0.13151791,0.40489233,0.54218815,0.70740297
42129,0,USPennsylvaniaWestmoreland,Pennsylvania,Westmoreland,2021-04-04 05:42:00.831832,2020-06-26 00:00:00.000000,0.11684287,0.17550118,0.27461377,407,612,958,206,318,499,0.05914055,0.09125361,0.14309975,0.39805543,0.53330661,0.69077293
42129,0,USPennsylvaniaWestmoreland,Pennsylvania,Westmoreland,2021-04-04 05:42:00.831832,2020-06-27 00:00:00.000000,0.12731293,0.19141511,0.28992497,444,667,1011,221,341,542,0.06340897,0.09776183,0.15541147,0.38795157,0.51840278,0.68949883
42129,0,USPennsylvaniaWestmoreland,Pennsylvania,Westmoreland,2021-04-04 05:42:00.831832,2020-06-28 00:00:00.000000,0.13864978,0.20640897,0.30820868,483,720,1075,236,370,587,0.06790364,0.10627217,0.16832745,0.38312715,0.50048183,0.67964725
42129,0,USPennsylvaniaWestmoreland,Pennsylvania,Westmoreland,2021-04-04 05:42:00.831832,2020-06-29 00:00:00.000000,0.15087301,0.21950935,0.33205310,526,765,1158,253,406,633,0.07265341,0.11660678,0.18165464,0.37586569,0.47892662,0.65448481
42129,0,USPennsylvaniaWestmoreland,Pennsylvania,Westmoreland,2021-04-04 05:42:00.831832,2020-06-30 00:00:00.000000,0.16422423,0.23435396,0.35567853,572,817,1240,271,436,676,0.07773545,0.12502466,0.19386030,0.37156608,0.46931100,0.63445072
42129,0,USPennsylvaniaWestmoreland,Pennsylvania,Westmoreland,2021-04-04 05:42:00.831832,2020-07-01 00:00:00.000000,0.17885327,0.25267921,0.37686045,624,881,1314,293,462,718,0.08426448,0.13258810,0.20597514,0.33680611,0.45624345,0.62953378
42129,0,USPennsylvaniaWestmoreland,Pennsylvania,Westmoreland,2021-04-04 05:42:00.831832,2020-07-02 00:00:00.000000,0.19394939,0.26636664,0.39987699,676,929,1395,318,493,762,0.09131919,0.14153829,0.21842688,0.32790851,0.44009351,0.60746443
42129,0,USPennsylvaniaWestmoreland,Pennsylvania,Westmoreland,2021-04-04 05:42:00.831832,2020-07-03 00:00:00.000000,0.20267461,0.27921638,0.42217420,707,974,1472,344,526,805,0.09883973,0.15092012,0.23079667,0.30291206,0.41095899,0.60133007
42129,0,USPennsylvaniaWestmoreland,Pennsylvania,Westmoreland,2021-04-04 05:42:00.831832,2020-07-04 00:00:00.000000,0.21130184,0.29296273,0.44284200,737,1022,1545,372,559,857,0.10678342,0.16040125,0.24563147,0.28021884,0.38821807,0.59735585
42129,0,USPennsylvaniaWestmoreland,Pennsylvania,Westmoreland,2021-04-04 05:42:00.831832,2020-07-05 00:00:00.000000,0.22172863,0.30332740,0.46094411,773,1058,1608,403,586,907,0.11559392,0.16808251,0.26014538,0.26409689,0.37567902,0.57683614
42129,0,USPennsylvaniaWestmoreland,Pennsylvania,Westmoreland,2021-04-04 05:42:00.831832,2020-07-06 00:00:00.000000,0.23404727,0.31373679,0.47649353,816,1094,1662,422,614,945,0.12109600,0.17601970,0.27099470,0.26047927,0.36076166,0.50602311
42129,0,USPennsylvaniaWestmoreland,Pennsylvania,Westmoreland,2021-04-04 05:42:00.831832,2020-07-07 00:00:00.000000,0.24041988,0.32223300,0.48980085,838,1124,1708,441,649,975,0.12639785,0.18627373,0.27946819,0.24714908,0.34492682,0.45254780
42129,0,USPennsylvaniaWestmoreland,Pennsylvania,Westmoreland,2021-04-04 05:42:00.831832,2020-07-08 00:00:00.000000,0.24852751,0.32393574,0.49804137,867,1130,1737,460,668,997,0.13189439,0.19148897,0.28585500,0.23675730,0.32816698,0.44640597
42129,0,USPennsylvaniaWestmoreland,Pennsylvania,Westmoreland,2021-04-04 05:42:00.831832,2020-07-09 00:00:00.000000,0.25411035,0.32752829,0.49925008,886,1142,1741,476,687,1031,0.13660371,0.19696990,0.29551043,0.22842581,0.31450018,0.43079067
42129,0,USPennsylvaniaWestmoreland,Pennsylvania,Westmoreland,2021-04-04 05:42:00.831832,2020-07-10 00:00:00.000000,0.25616273,0.33216175,0.49931999,893,1158,1742,495,700,1057,0.14215535,0.20064631,0.30323685,0.22237108,0.30773862,0.41253829
42129,0,USPennsylvaniaWestmoreland,Pennsylvania,Westmoreland,2021-04-04 05:42:00.831832,2020-07-11 00:00:00.000000,0.25936097,0.33369417,0.49779561,904,1164,1736,507,701,1076,0.14555135,0.20116640,0.30851750,0.21477494,0.30236952,0.38847055
42129,0,USPennsylvaniaWestmoreland,Pennsylvania,Westmoreland,2021-04-04 05:42:00.831832,2020-07-12 00:00:00.000000,0.26177790,0.33611454,0.49487204,913,1172,1726,508,698,1086,0.14573859,0.20022774,0.31148831,0.21238699,0.29208172,0.37870101
42129,0,USPennsylvaniaWestmoreland,Pennsylvania,Westmoreland,2021-04-04 05:42:00.831832,2020-07-13 00:00:00.000000,0.26264389,0.33664059,0.49077968,916,1174,1712,509,697,1092,0.14599036,0.20004220,0.31304848,0.20905043,0.27870615,0.36690570
42129,0,USPennsylvaniaWestmoreland,Pennsylvania,Westmoreland,2021-04-04 05:42:00.831832,2020-07-14 00:00:00.000000,0.26252239,0.33661673,0.48621148,915,1174,1696,510,702,1097,0.14639538,0.20123186,0.31453560,0.20683878,0.27209022,0.35642517
42129,0,USPennsylvaniaWestmoreland,Pennsylvania,Westmoreland,2021-04-04 05:42:00.831832,2020-07-15 00:00:00.000000,0.26136903,0.33519592,0.49120670,911,1169,1713,512,698,1101,0.14688470,0.20006526,0.31583426,0.20201779,0.26899943,0.35703995
42129,0,USPennsylvaniaWestmoreland,Pennsylvania,Westmoreland,2021-04-04 05:42:00.831832,2020-07-16 00:00:00.000000,0.26077241,0.33531392,0.49413136,909,1169,1724,514,697,1105,0.14737023,0.19998335,0.31694588,0.19609751,0.25837887,0.34135666
42129,0,USPennsylvaniaWestmoreland,Pennsylvania,Westmoreland,2021-04-04 05:42:00.831832,2020-07-17 00:00:00.000000,0.25581228,0.33222893,0.49044033,892,1159,1711,511,697,1108,0.14658272,0.20004489,0.31782521,0.18996419,0.24869338,0.34093233
42129,0,USPennsylvaniaWestmoreland,Pennsylvania,Westmoreland,2021-04-04 05:42:00.831832,2020-07-18 00:00:00.000000,0.25107125,0.32750331,0.48384160,875,1142,1688,502,691,1110,0.14409862,0.19809053,0.31834400,0.18484478,0.24288766,0.33964935
42129,0,USPennsylvaniaWestmoreland,Pennsylvania,Westmoreland,2021-04-04 05:42:00.831832,2020-07-19 00:00:00.000000,0.24428701,0.32239681,0.47658420,852,1124,1662,490,685,1106,0.14063752,0.19643150,0.31701567,0.18039922,0.23920623,0.33614674
42129,0,USPennsylvaniaWestmoreland,Pennsylvania,Westmoreland,2021-04-04 05:42:00.831832,2020-07-20 00:00:00.000000,0.23647635,0.31979432,0.47076974,825,1115,1642,486,674,1081,0.13941202,0.19324725,0.30984122,0.17633751,0.24044977,0.32812159
42129,0,USPennsylvaniaWestmoreland,Pennsylvania,Westmoreland,2021-04-04 05:42:00.831832,2020-07-21 00:00:00.000000,0.22929335,0.31315122,0.46483140,800,1092,1621,484,667,1057,0.13897883,0.19135154,0.30297396,0.17227091,0.23801850,0.31487226
42129,0,USPennsylvaniaWestmoreland,Pennsylvania,Westmoreland,2021-04-04 05:42:00.831832,2020-07-22 00:00:00.000000,0.22209952,0.30839070,0.45892422,774,1075,1601,476,664,1045,0.13653817,0.19042150,0.29952504,0.16764306,0.23571083,0.30970508
42129,0,USPennsylvaniaWestmoreland,Pennsylvania,Westmoreland,2021-04-04 05:42:00.831832,2020-07-23 00:00:00.000000,0.21549780,0.30594935,0.44706996,751,1067,1559,462,656,1032,0.13260113,0.18806313,0.29603272,0.16502467,0.23538423,0.31529902
42129,0,USPennsylvaniaWestmoreland,Pennsylvania,Westmoreland,2021-04-04 05:42:00.831832,2020-07-24 00:00:00.000000,0.20972770,0.30009938,0.43320537,731,1047,1511,449,643,1020,0.12871866,0.18442962,0.29252149,0.16305566,0.23342140,0.31353618
42129,0,USPennsylvaniaWestmoreland,Pennsylvania,Westmoreland,2021-04-04 05:42:00.831832,2020-07-25 00:00:00.000000,0.20789683,0.29355222,0.42716650,725,1024,1490,435,626,1008,0.12491555,0.17952327,0.28897766,0.16196431,0.23467300,0.31118026
42129,0,USPennsylvaniaWestmoreland,Pennsylvania,Westmoreland,2021-04-04 05:42:00.831832,2020-07-26 00:00:00.000000,0.20665611,0.28616041,0.42101448,721,998,1468,422,615,995,0.12113994,0.17649392,0.28532457,0.16075358,0.22823618,0.30799951
42129,0,USPennsylvaniaWestmoreland,Pennsylvania,Westmoreland,2021-04-04 05:42:00.831832,2020-07-27 00:00:00.000000,0.20568317,0.27891987,0.41510441,717,973,1448,408,603,981,0.11720317,0.17299687,0.28141083,0.15751501,0.22053048,0.30342401
42129,0,USPennsylvaniaWestmoreland,Pennsylvania,Westmoreland,2021-04-04 05:42:00.831832,2020-07-28 00:00:00.000000,0.20419550,0.27239941,0.40922875,712,950,1427,393,591,966,0.11285185,0.16945017,0.27711792,0.15404207,0.21840319,0.30140860
42129,0,USPennsylvaniaWestmoreland,Pennsylvania,Westmoreland,2021-04-04 05:42:00.831832,2020-07-29 00:00:00.000000,0.20232525,0.26463822,0.40360794,705,923,1408,390,575,950,0.11201305,0.16497969,0.27247633,0.15198407,0.21545132,0.30138864
42129,0,USPennsylvaniaWestmoreland,Pennsylvania,Westmoreland,2021-04-04 05:42:00.831832,2020-07-30 00:00:00.000000,0.19475423,0.25836518,0.39847483,679,901,1390,380,562,933,0.10901851,0.16134505,0.26761342,0.14225592,0.21374034,0.30127377
42129,0,USPennsylvaniaWestmoreland,Pennsylvania,Westmoreland,2021-04-04 05:42:00.831832,2020-07-31 00:00:00.000000,0.18603187,0.25243411,0.39092283,649,880,1363,376,549,916,0.10799710,0.15739504,0.26265724,0.13947355,0.21298834,0.30067296
42129,0,USPennsylvaniaWestmoreland,Pennsylvania,Westmoreland,2021-04-04 05:42:00.831832,2020-08-01 00:00:00.000000,0.17772908,0.24698352,0.37756646,620,861,1317,370,538,899,0.10611046,0.15430558,0.25770213,0.14328113,0.21296717,0.29787540
42129,0,USPennsylvaniaWestmoreland,Pennsylvania,Westmoreland,2021-04-04 05:42:00.831832,2020-08-02 00:00:00.000000,0.16982505,0.24102580,0.36486290,592,840,1273,356,525,881,0.10223013,0.15052756,0.25272719,0.14422669,0.21489352,0.28962024
42129,0,USPennsylvaniaWestmoreland,Pennsylvania,Westmoreland,2021-04-04 05:42:00.831832,2020-08-03 00:00:00.000000,0.16260812,0.23325257,0.35283937,567,813,1231,343,512,864,0.09855128,0.14702213,0.24776966,0.14392636,0.21536209,0.28062245
42129,0,USPennsylvaniaWestmoreland,Pennsylvania,Westmoreland,2021-04-04 05:42:00.831832,2020-08-04 00:00:00.000000,0.15581526,0.22688402,0.34120774,543,791,1190,332,501,846,0.09518597,0.14387841,0.24256139,0.14328202,0.21460942,0.27796653
42129,0,USPennsylvaniaWestmoreland,Pennsylvania,Westmoreland,2021-04-04 05:42:00.831832,2020-08-05 00:00:00.000000,0.14970450,0.22345316,0.32991928,522,779,1151,321,491,827,0.09207784,0.14085896,0.23729547,0.14248532,0.21518362,0.27646804
42129,0,USPennsylvaniaWestmoreland,Pennsylvania,Westmoreland,2021-04-04 05:42:00.831832,2020-08-06 00:00:00.000000,0.14518097,0.21805121,0.31893457,506,760,1112,311,472,809,0.08918790,0.13546835,0.23208799,0.14159635,0.21456522,0.27428419
42129,0,USPennsylvaniaWestmoreland,Pennsylvania,Westmoreland,2021-04-04 05:42:00.831832,2020-08-07 00:00:00.000000,0.14286678,0.21143590,0.31395657,498,737,1095,301,460,788,0.08649192,0.13200758,0.22594016,0.14070142,0.21921607,0.27411350
42129,0,USPennsylvaniaWestmoreland,Pennsylvania,Westmoreland,2021-04-04 05:42:00.831832,2020-08-08 00:00:00.000000,0.14170809,0.20640204,0.31019275,494,720,1082,292,443,761,0.08397350,0.12725375,0.21839578,0.14359600,0.21808169,0.27402363
42129,0,USPennsylvaniaWestmoreland,Pennsylvania,Westmoreland,2021-04-04 05:42:00.831832,2020-08-09 00:00:00.000000,0.14098708,0.20241238,0.30754118,491,706,1073,284,427,736,0.08161617,0.12258251,0.21106286,0.14379542,0.21748754,0.27433406
42129,0,USPennsylvaniaWestmoreland,Pennsylvania,Westmoreland,2021-04-04 05:42:00.831832,2020-08-10 00:00:00.000000,0.13904953,0.19624094,0.30548981,485,684,1065,277,414,711,0.07940890,0.11883817,0.20397593,0.14323264,0.21873850,0.27614207
42129,0,USPennsylvaniaWestmoreland,Pennsylvania,Westmoreland,2021-04-04 05:42:00.831832,2020-08-11 00:00:00.000000,0.13548797,0.19083094,0.30352611,472,665,1058,269,403,692,0.07719401,0.11553430,0.19852911,0.14390715,0.21950021,0.28009310
42129,0,USPennsylvaniaWestmoreland,Pennsylvania,Westmoreland,2021-04-04 05:42:00.831832,2020-08-12 00:00:00.000000,0.13204930,0.18527416,0.30157908,460,646,1052,261,387,679,0.07496392,0.11093833,0.19478368,0.14799238,0.21794652,0.29936699
42129,0,USPennsylvaniaWestmoreland,Pennsylvania,Westmoreland,2021-04-04 05:42:00.831832,2020-08-13 00:00:00.000000,0.12872374,0.17897571,0.29943241,449,624,1044,253,375,665,0.07272116,0.10760526,0.19065026,0.15369234,0.22095532,0.30359355
42129,0,USPennsylvaniaWestmoreland,Pennsylvania,Westmoreland,2021-04-04 05:42:00.831832,2020-08-14 00:00:00.000000,0.12550947,0.17561989,0.29654893,437,612,1034,245,371,649,0.07045755,0.10635980,0.18624794,0.15843091,0.22908417,0.30983450
42129,0,USPennsylvaniaWestmoreland,Pennsylvania,Westmoreland,2021-04-04 05:42:00.831832,2020-08-15 00:00:00.000000,0.12148580,0.17182500,0.29344844,423,599,1023,237,364,656,0.06816744,0.10432821,0.18822432,0.16543314,0.22925955,0.33502026
42129,0,USPennsylvaniaWestmoreland,Pennsylvania,Westmoreland,2021-04-04 05:42:00.831832,2020-08-16 00:00:00.000000,0.11702790,0.16783813,0.29007091,408,585,1012,235,353,660,0.06741861,0.10143190,0.18922046,0.16868523,0.23260289,0.33070719
42129,0,USPennsylvaniaWestmoreland,Pennsylvania,Westmoreland,2021-04-04 05:42:00.831832,2020-08-17 00:00:00.000000,0.11810183,0.16653996,0.28620942,412,581,998,233,342,647,0.06682806,0.09826005,0.18555778,0.16943650,0.23408006,0.32122787
42129,0,USPennsylvaniaWestmoreland,Pennsylvania,Westmoreland,2021-04-04 05:42:00.831832,2020-08-18 00:00:00.000000,0.11726895,0.16452338,0.28225365,409,574,984,229,337,634,0.06566150,0.09668480,0.18188785,0.17164932,0.23778410,0.31012907
42129,0,USPennsylvaniaWestmoreland,Pennsylvania,Westmoreland,2021-04-04 05:42:00.831832,2020-08-19 00:00:00.000000,0.11505420,0.16041841,0.27827798,401,559,970,226,331,621,0.06482568,0.09494924,0.17824979,0.17223453,0.24038318,0.30195130
42129,0,USPennsylvaniaWestmoreland,Pennsylvania,Westmoreland,2021-04-04 05:42:00.831832,2020-08-20 00:00:00.000000,0.11195066,0.15751555,0.27431536,390,549,957,223,328,609,0.06418422,0.09402054,0.17472077,0.17244906,0.24284206,0.30136186
42129,0,USPennsylvaniaWestmoreland,Pennsylvania,Westmoreland,2021-04-04 05:42:00.831832,2020-08-21 00:00:00.000000,0.10865827,0.15590179,0.27037843,379,543,943,222,323,597,0.06366231,0.09270260,0.17137365,0.17247407,0.24393950,0.30009028
42129,0,USPennsylvaniaWestmoreland,Pennsylvania,Westmoreland,2021-04-04 05:42:00.831832,2020-08-22 00:00:00.000000,0.10365804,0.15545260,0.26647326,361,542,929,220,320,586,0.06322092,0.09172933,0.16823371,0.17318764,0.24868203,0.31096099
42129,0,USPennsylvaniaWestmoreland,Pennsylvania,Westmoreland,2021-04-04 05:42:00.831832,2020-08-23 00:00:00.000000,0.09986081,0.15363091,0.26260255,348,536,916,218,314,576,0.06248530,0.09000427,0.16527931,0.17552191,0.25176346,0.32857171
42129,0,USPennsylvaniaWestmoreland,Pennsylvania,Westmoreland,2021-04-04 05:42:00.831832,2020-08-24 00:00:00.000000,0.10004082,0.15305732,0.26007435,349,534,907,208,310,567,0.05963620,0.08893702,0.16266786,0.18099154,0.25051002,0.33172603
42129,0,USPennsylvaniaWestmoreland,Pennsylvania,Westmoreland,2021-04-04 05:42:00.831832,2020-08-25 00:00:00.000000,0.10046181,0.14922184,0.25758860,350,520,898,197,307,560,0.05664929,0.08805897,0.16071609,0.18293419,0.25523874,0.33096372
42129,0,USPennsylvaniaWestmoreland,Pennsylvania,Westmoreland,2021-04-04 05:42:00.831832,2020-08-26 00:00:00.000000,0.09843100,0.14739605,0.25521869,343,514,890,187,304,554,0.05383555,0.08739975,0.15900270,0.18303905,0.26035066,0.33570575
42129,0,USPennsylvaniaWestmoreland,Pennsylvania,Westmoreland,2021-04-04 05:42:00.831832,2020-08-27 00:00:00.000000,0.09616532,0.14673350,0.25296893,335,511,882,184,301,549,0.05283849,0.08634005,0.15743202,0.18354250,0.26105377,0.34731863
42129,0,USPennsylvaniaWestmoreland,Pennsylvania,Westmoreland,2021-04-04 05:42:00.831832,2020-08-28 00:00:00.000000,0.09499596,0.14715331,0.25090977,331,513,875,185,301,544,0.05311396,0.08643465,0.15596373,0.19671183,0.26584239,0.37027944
42129,0,USPennsylvaniaWestmoreland,Pennsylvania,Westmoreland,2021-04-04 05:42:00.831832,2020-08-29 00:00:00.000000,0.09254043,0.14750166,0.24664743,322,514,860,186,303,539,0.05350432,0.08686164,0.15460298,0.19592190,0.27156449,0.37251882
42129,0,USPennsylvaniaWestmoreland,Pennsylvania,Westmoreland,2021-04-04 05:42:00.831832,2020-08-30 00:00:00.000000,0.08980711,0.14773784,0.24163544,313,515,843,187,305,535,0.05380088,0.08761993,0.15339425,0.19455446,0.27956661,0.38074894
42129,0,USPennsylvaniaWestmoreland,Pennsylvania,Westmoreland,2021-04-04 05:42:00.831832,2020-08-31 00:00:00.000000,0.08827779,0.15004172,0.23642496,308,523,824,181,306,531,0.05203632,0.08773713,0.15237396,0.19346745,0.28550098,0.39661607
42129,0,USPennsylvaniaWestmoreland,Pennsylvania,Westmoreland,2021-04-04 05:42:00.831832,2020-09-01 00:00:00.000000,0.08778264,0.15108490,0.23121481,306,527,806,177,308,527,0.05079559,0.08850145,0.15128023,0.19266193,0.29173668,0.39838949
42129,0,USPennsylvaniaWestmoreland,Pennsylvania,Westmoreland,2021-04-04 05:42:00.831832,2020-09-02 00:00:00.000000,0.08816237,0.15296936,0.23593456,307,533,823,175,311,523,0.05017095,0.08934144,0.15017897,0.19358998,0.29505528,0.39922448
42129,0,USPennsylvaniaWestmoreland,Pennsylvania,Westmoreland,2021-04-04 05:42:00.831832,2020-09-03 00:00:00.000000,0.08929155,0.15502703,0.24115827,311,540,841,174,316,520,0.04996011,0.09061084,0.14908809,0.19487353,0.29991847,0.40185256
42129,0,USPennsylvaniaWestmoreland,Pennsylvania,Westmoreland,2021-04-04 05:42:00.831832,2020-09-04 00:00:00.000000,0.09169315,0.15735854,0.23974661,319,549,836,175,319,513,0.05038874,0.09145284,0.14706547,0.19675366,0.30715584,0.41037713
42129,0,USPennsylvaniaWestmoreland,Pennsylvania,Westmoreland,2021-04-04 05:42:00.831832,2020-09-05 00:00:00.000000,0.09592993,0.16174077,0.23832035,334,564,831,182,322,515,0.05231989,0.09234219,0.14767483,0.20113036,0.31499220,0.43009992
42129,0,USPennsylvaniaWestmoreland,Pennsylvania,Westmoreland,2021-04-04 05:42:00.831832,2020-09-06 00:00:00.000000,0.10002845,0.16591508,0.23680379,348,578,826,190,327,518,0.05453070,0.09376029,0.14851373,0.22873933,0.32437024,0.43619241
42129,0,USPennsylvaniaWestmoreland,Pennsylvania,Westmoreland,2021-04-04 05:42:00.831832,2020-09-07 00:00:00.000000,0.10337283,0.16820920,0.24298357,360,586,847,193,335,521,0.05556379,0.09623450,0.14943329,0.24491230,0.32840802,0.43984183
42129,0,USPennsylvaniaWestmoreland,Pennsylvania,Westmoreland,2021-04-04 05:42:00.831832,2020-09-08 00:00:00.000000,0.10759403,0.17160273,0.25305737,375,598,882,205,341,530,0.05896805,0.09798608,0.15201928,0.24067195,0.33639447,0.44236871
42129,0,USPennsylvaniaWestmoreland,Pennsylvania,Westmoreland,2021-04-04 05:42:00.831832,2020-09-09 00:00:00.000000,0.11198019,0.17439610,0.26364834,390,608,919,215,345,539,0.06169395,0.09892218,0.15476190,0.24077856,0.33907005,0.44520986
42129,0,USPennsylvaniaWestmoreland,Pennsylvania,Westmoreland,2021-04-04 05:42:00.831832,2020-09-10 00:00:00.000000,0.11449885,0.17594524,0.27508322,399,613,959,223,350,550,0.06395384,0.10049578,0.15772582,0.25622789,0.34418336,0.45040415
42129,0,USPennsylvaniaWestmoreland,Pennsylvania,Westmoreland,2021-04-04 05:42:00.831832,2020-09-11 00:00:00.000000,0.11723793,0.17893813,0.28439670,409,624,992,227,356,562,0.06527353,0.10206915,0.16110655,0.25876740,0.35261380,0.46094055
42129,0,USPennsylvaniaWestmoreland,Pennsylvania,Westmoreland,2021-04-04 05:42:00.831832,2020-09-12 00:00:00.000000,0.12095347,0.18159690,0.29063193,422,633,1014,232,362,576,0.06677083,0.10388387,0.16515571,0.26144807,0.36715545,0.47783696
42129,0,USPennsylvaniaWestmoreland,Pennsylvania,Westmoreland,2021-04-04 05:42:00.831832,2020-09-13 00:00:00.000000,0.12708792,0.18590291,0.29891143,443,648,1042,239,371,592,0.06872367,0.10654547,0.16989529,0.26838700,0.38606516,0.49609459
42129,0,USPennsylvaniaWestmoreland,Pennsylvania,Westmoreland,2021-04-04 05:42:00.831832,2020-09-14 00:00:00.000000,0.13261492,0.19311373,0.31552015,462,673,1100,250,383,611,0.07190514,0.10993825,0.17535034,0.28670456,0.39457901,0.51833210
42129,0,USPennsylvaniaWestmoreland,Pennsylvania,Westmoreland,2021-04-04 05:42:00.831832,2020-09-15 00:00:00.000000,0.14006021,0.20041249,0.32689310,488,699,1140,261,395,641,0.07494529,0.11334127,0.18377277,0.28140451,0.40947083,0.55643031
42129,0,USPennsylvaniaWestmoreland,Pennsylvania,Westmoreland,2021-04-04 05:42:00.831832,2020-09-16 00:00:00.000000,0.14853131,0.21314076,0.34133540,518,743,1190,273,411,678,0.07838132,0.11781805,0.19435505,0.28113582,0.41907641,0.56873709
42129,0,USPennsylvaniaWestmoreland,Pennsylvania,Westmoreland,2021-04-04 05:42:00.831832,2020-09-17 00:00:00.000000,0.15381690,0.22528828,0.35864134,536,786,1251,282,431,718,0.08089150,0.12356189,0.20597023,0.28479957,0.42282329,0.58084180
42129,0,USPennsylvaniaWestmoreland,Pennsylvania,Westmoreland,2021-04-04 05:42:00.831832,2020-09-18 00:00:00.000000,0.16418982,0.23644773,0.37817895,572,824,1319,291,457,762,0.08355920,0.13100134,0.21853152,0.29174226,0.43895457,0.60105483
42129,0,USPennsylvaniaWestmoreland,Pennsylvania,Westmoreland,2021-04-04 05:42:00.831832,2020-09-19 00:00:00.000000,0.17342877,0.25089146,0.39935699,605,875,1393,301,480,806,0.08651745,0.13774613,0.23103132,0.30031324,0.45163768,0.61926987
42129,0,USPennsylvaniaWestmoreland,Pennsylvania,Westmoreland,2021-04-04 05:42:00.831832,2020-09-20 00:00:00.000000,0.17765204,0.26485604,0.42220903,619,924,1473,318,506,832,0.09136404,0.14510230,0.23856260,0.31374190,0.45818191,0.62616903
42129,0,USPennsylvaniaWestmoreland,Pennsylvania,Westmoreland,2021-04-04 05:42:00.831832,2020-09-21 00:00:00.000000,0.18986136,0.27659497,0.44862869,662,965,1565,343,530,883,0.09839849,0.15207613,0.25323051,0.32997102,0.46692762,0.62929596
42129,0,USPennsylvaniaWestmoreland,Pennsylvania,Westmoreland,2021-04-04 05:42:00.831832,2020-09-22 00:00:00.000000,0.20573026,0.29565723,0.47688109,717,1031,1663,371,554,952,0.10633822,0.15889438,0.27288500,0.35258528,0.47532924,0.63082046
42129,0,USPennsylvaniaWestmoreland,Pennsylvania,Westmoreland,2021-04-04 05:42:00.831832,2020-09-23 00:00:00.000000,0.22342860,0.31493844,0.50313899,779,1098,1755,401,593,1025,0.11514993,0.17022540,0.29396188,0.35827514,0.48087722,0.63190818
42129,0,USPennsylvaniaWestmoreland,Pennsylvania,Westmoreland,2021-04-04 05:42:00.831832,2020-09-24 00:00:00.000000,0.24222670,0.34043729,0.53632721,845,1187,1871,435,637,1084,0.12490757,0.18285302,0.31071046,0.37825556,0.49090792,0.63353944
42129,0,USPennsylvaniaWestmoreland,Pennsylvania,Westmoreland,2021-04-04 05:42:00.831832,2020-09-25 00:00:00.000000,0.26008305,0.36685344,0.57397047,907,1279,2002,465,688,1146,0.13341980,0.19725470,0.32867180,0.38907612,0.49499090,0.64776967
42129,0,USPennsylvaniaWestmoreland,Pennsylvania,Westmoreland,2021-04-04 05:42:00.831832,2020-09-26 00:00:00.000000,0.28108413,0.39584396,0.61098312,980,1381,2131,488,735,1215,0.13998738,0.21081159,0.34845537,0.40376930,0.51213357,0.65763062
42129,0,USPennsylvaniaWestmoreland,Pennsylvania,Westmoreland,2021-04-04 05:42:00.831832,2020-09-27 00:00:00.000000,0.30458527,0.42163707,0.65076745,1062,1471,2270,530,780,1291,0.15208036,0.22367816,0.37003925,0.40909490,0.51884413,0.67642561
42129,0,USPennsylvaniaWestmoreland,Pennsylvania,Westmoreland,2021-04-04 05:42:00.831832,2020-09-28 00:00:00.000000,0.32917528,0.45428048,0.69707571,1148,1584,2432,574,834,1373,0.16470736,0.23914649,0.39372348,0.41894850,0.53123104,0.68354932
42129,0,USPennsylvaniaWestmoreland,Pennsylvania,Westmoreland,2021-04-04 05:42:00.831832,2020-09-29 00:00:00.000000,0.35131171,0.48407218,0.74838881,1225,1688,2611,615,896,1462,0.17643806,0.25681597,0.41925422,0.42027134,0.52823798,0.68296376
42129,0,USPennsylvaniaWestmoreland,Pennsylvania,Westmoreland,2021-04-04 05:42:00.831832,2020-09-30 00:00:00.000000,0.37383808,0.52034399,0.80262642,1304,1815,2800,656,963,1529,0.18817338,0.27606772,0.43824662,0.41810488,0.53298492,0.68132346
42129,0,USPennsylvaniaWestmoreland,Pennsylvania,Westmoreland,2021-04-04 05:42:00.831832,2020-10-01 00:00:00.000000,0.39869584,0.56459442,0.85950551,1391,1969,2998,699,1034,1650,0.20061430,0.29655954,0.47316146,0.41709589,0.53237847,0.67769081
42129,0,USPennsylvaniaWestmoreland,Pennsylvania,Westmoreland,2021-04-04 05:42:00.831832,2020-10-02 00:00:00.000000,0.43128757,0.61143835,0.91881341,1504,2133,3205,760,1111,1772,0.21798898,0.31867107,0.50814701,0.41690228,0.52464863,0.64469229
42129,0,USPennsylvaniaWestmoreland,Pennsylvania,Westmoreland,2021-04-04 05:42:00.831832,2020-10-03 00:00:00.000000,0.46626189,0.65797346,0.98011996,1626,2295,3419,828,1195,1890,0.23733850,0.34271864,0.54198263,0.41682836,0.52447356,0.64741823
42129,0,USPennsylvaniaWestmoreland,Pennsylvania,Westmoreland,2021-04-04 05:42:00.831832,2020-10-04 00:00:00.000000,0.50335925,0.71561024,1.04716673,1756,2496,3653,903,1288,2016,0.25897142,0.36919924,0.57792584,0.40977702,0.52132247,0.64072946
42129,0,USPennsylvaniaWestmoreland,Pennsylvania,Westmoreland,2021-04-04 05:42:00.831832,2020-10-05 00:00:00.000000,0.54158032,0.77059262,1.12401011,1889,2688,3921,988,1399,2149,0.28321824,0.40122554,0.61609990,0.40468776,0.51958024,0.63962728
42129,0,USPennsylvaniaWestmoreland,Pennsylvania,Westmoreland,2021-04-04 05:42:00.831832,2020-10-06 00:00:00.000000,0.57940798,0.83223608,1.19526018,2021,2903,4170,1077,1508,2290,0.30869975,0.43233224,0.65662733,0.40209680,0.51694435,0.63981581
42129,0,USPennsylvaniaWestmoreland,Pennsylvania,Westmoreland,2021-04-04 05:42:00.831832,2020-10-07 00:00:00.000000,0.61773214,0.89364184,1.25277357,2155,3117,4370,1159,1610,2434,0.33238783,0.46147782,0.69767044,0.39141445,0.51012856,0.64017769
42129,0,USPennsylvaniaWestmoreland,Pennsylvania,Westmoreland,2021-04-04 05:42:00.831832,2020-10-08 00:00:00.000000,0.65651212,0.95317984,1.31253004,2290,3325,4579,1247,1729,2585,0.35763488,0.49562255,0.74099570,0.38254054,0.50309595,0.63943647
42129,0,USPennsylvaniaWestmoreland,Pennsylvania,Westmoreland,2021-04-04 05:42:00.831832,2020-10-09 00:00:00.000000,0.69516230,1.01089480,1.37414924,2425,3527,4794,1322,1849,2730,0.37918591,0.53002683,0.78257422,0.36044475,0.48288810,0.62027772
42129,0,USPennsylvaniaWestmoreland,Pennsylvania,Westmoreland,2021-04-04 05:42:00.831832,2020-10-10 00:00:00.000000,0.73305376,1.06224331,1.43602762,2557,3706,5010,1397,1979,2870,0.40060517,0.56749575,0.82284644,0.33789670,0.46595352,0.58459442
42129,0,USPennsylvaniaWestmoreland,Pennsylvania,Westmoreland,2021-04-04 05:42:00.831832,2020-10-11 00:00:00.000000,0.76972700,1.10532041,1.49381435,2685,3856,5211,1472,2093,3038,0.42197321,0.60016776,0.87075455,0.32117652,0.43240847,0.57543759
42129,0,USPennsylvaniaWestmoreland,Pennsylvania,Westmoreland,2021-04-04 05:42:00.831832,2020-10-12 00:00:00.000000,0.80488964,1.13568857,1.54239074,2808,3962,5381,1545,2193,3233,0.44282761,0.62859180,0.92677312,0.32027806,0.41382158,0.55805161
42129,0,USPennsylvaniaWestmoreland,Pennsylvania,Westmoreland,2021-04-04 05:42:00.831832,2020-10-13 00:00:00.000000,0.83870251,1.17998679,1.58444876,2926,4116,5528,1613,2283,3421,0.46252531,0.65460926,0.98058301,0.29321092,0.39202031,0.51210399
42129,0,USPennsylvaniaWestmoreland,Pennsylvania,Westmoreland,2021-04-04 05:42:00.831832,2020-10-14 00:00:00.000000,0.87145695,1.21539445,1.62312709,3040,4240,5663,1676,2384,3594,0.48052822,0.68329449,1.03031352,0.27678458,0.37598749,0.48546520
42129,0,USPennsylvaniaWestmoreland,Pennsylvania,Westmoreland,2021-04-04 05:42:00.831832,2020-10-15 00:00:00.000000,0.90339432,1.23696018,1.66628712,3151,4315,5813,1720,2501,3715,0.49306172,0.71686118,1.06483640,0.27197973,0.34863959,0.47420026
42129,0,USPennsylvaniaWestmoreland,Pennsylvania,Westmoreland,2021-04-04 05:42:00.831832,2020-10-16 00:00:00.000000,0.93166539,1.25733983,1.71096924,3250,4386,5969,1754,2560,3783,0.50290358,0.73396706,1.08436469,0.26893642,0.32982410,0.45323955
42129,0,USPennsylvaniaWestmoreland,Pennsylvania,Westmoreland,2021-04-04 05:42:00.831832,2020-10-17 00:00:00.000000,0.96353909,1.26885643,1.72307602,3361,4427,6011,1764,2623,3856,0.50567836,0.75191034,1.10546293,0.24885184,0.31851674,0.42293975
42129,0,USPennsylvaniaWestmoreland,Pennsylvania,Westmoreland,2021-04-04 05:42:00.831832,2020-10-18 00:00:00.000000,0.98875021,1.27519556,1.76534036,3449,4449,6159,1828,2679,3957,0.52419893,0.76806450,1.13429636,0.24305685,0.30786426,0.38868452
42129,0,USPennsylvaniaWestmoreland,Pennsylvania,Westmoreland,2021-04-04 05:42:00.831832,2020-10-19 00:00:00.000000,1.00021511,1.27778823,1.80773154,3489,4458,6307,1875,2674,4033,0.53754375,0.76666540,1.15619432,0.24208689,0.29920955,0.38728570
42129,0,USPennsylvaniaWestmoreland,Pennsylvania,Westmoreland,2021-04-04 05:42:00.831832,2020-10-20 00:00:00.000000,1.00592231,1.27214290,1.83356653,3509,4438,6397,1900,2677,4069,0.54461990,0.76740031,1.16626435,0.24243515,0.29564296,0.38094203
42129,0,USPennsylvaniaWestmoreland,Pennsylvania,Westmoreland,2021-04-04 05:42:00.831832,2020-10-21 00:00:00.000000,1.00008322,1.26513636,1.85786820,3489,4414,6482,1897,2684,4088,0.54377824,0.76935942,1.17193478,0.24033164,0.29266291,0.38287320
42129,0,USPennsylvaniaWestmoreland,Pennsylvania,Westmoreland,2021-04-04 05:42:00.831832,2020-10-22 00:00:00.000000,0.99411442,1.26253318,1.87910608,3468,4404,6556,1899,2684,4167,0.54453426,0.76936756,1.19442230,0.23401071,0.29472375,0.38333253
42129,0,USPennsylvaniaWestmoreland,Pennsylvania,Westmoreland,2021-04-04 05:42:00.831832,2020-10-23 00:00:00.000000,0.98846219,1.26508672,1.88625811,3448,4413,6581,1914,2681,4282,0.54863780,0.76844121,1.22741780,0.22813937,0.29729193,0.38097256
42129,0,USPennsylvaniaWestmoreland,Pennsylvania,Westmoreland,2021-04-04 05:42:00.831832,2020-10-24 00:00:00.000000,0.98215893,1.26845646,1.89181085,3426,4425,6600,1896,2683,4350,0.54369877,0.76918276,1.24693082,0.23582551,0.30073359,0.37620607
42129,0,USPennsylvaniaWestmoreland,Pennsylvania,Westmoreland,2021-04-04 05:42:00.831832,2020-10-25 00:00:00.000000,0.97837885,1.27450957,1.89576787,3413,4446,6614,1876,2703,4408,0.53778206,0.77477199,1.26350122,0.24424268,0.30097769,0.38843569
42129,0,USPennsylvaniaWestmoreland,Pennsylvania,Westmoreland,2021-04-04 05:42:00.831832,2020-10-26 00:00:00.000000,0.97435528,1.28295916,1.90264786,3399,4476,6638,1876,2726,4464,0.53786563,0.78132782,1.27949408,0.24412042,0.30644862,0.39914957
42129,0,USPennsylvaniaWestmoreland,Pennsylvania,Westmoreland,2021-04-04 05:42:00.831832,2020-10-27 00:00:00.000000,0.96887198,1.29274117,1.92558876,3380,4510,6718,1880,2736,4517,0.53898342,0.78445543,1.29478770,0.24408977,0.31072561,0.40925724
42129,0,USPennsylvaniaWestmoreland,Pennsylvania,Westmoreland,2021-04-04 05:42:00.831832,2020-10-28 00:00:00.000000,0.96680518,1.30521785,1.99162554,3373,4553,6948,1872,2758,4569,0.53667102,0.79050024,1.30961180,0.24408643,0.31800181,0.41253634
42129,0,USPennsylvaniaWestmoreland,Pennsylvania,Westmoreland,2021-04-04 05:42:00.831832,2020-10-29 00:00:00.000000,0.97125937,1.32643072,2.06563124,3388,4627,7206,1867,2776,4620,0.53519792,0.79577528,1.32422339,0.24492960,0.32460890,0.43167786
42129,0,USPennsylvaniaWestmoreland,Pennsylvania,Westmoreland,2021-04-04 05:42:00.831832,2020-10-30 00:00:00.000000,0.98940480,1.34361087,2.09384615,3452,4687,7305,1870,2793,4656,0.53620342,0.80057810,1.33469182,0.25118020,0.34204193,0.44406167
42129,0,USPennsylvaniaWestmoreland,Pennsylvania,Westmoreland,2021-04-04 05:42:00.831832,2020-10-31 00:00:00.000000,1.00404057,1.37236902,2.09292988,3503,4788,7302,1895,2809,4654,0.54336150,0.80534753,1.33403207,0.25501891,0.35467467,0.47572296
42129,0,USPennsylvaniaWestmoreland,Pennsylvania,Westmoreland,2021-04-04 05:42:00.831832,2020-11-01 00:00:00.000000,1.02248709,1.40220465,2.09971457,3567,4892,7325,1951,2810,4652,0.55946888,0.80545723,1.33337158,0.26673528,0.36933225,0.49351878
42129,0,USPennsylvaniaWestmoreland,Pennsylvania,Westmoreland,2021-04-04 05:42:00.831832,2020-11-02 00:00:00.000000,1.06661787,1.43027409,2.18448339,3721,4990,7621,2014,2835,4658,0.57745462,0.81273170,1.33509375,0.28424934,0.39687838,0.52821816
42129,0,USPennsylvaniaWestmoreland,Pennsylvania,Westmoreland,2021-04-04 05:42:00.831832,2020-11-03 00:00:00.000000,1.13557722,1.46846106,2.30893644,3962,5123,8055,2065,2881,4762,0.59214733,0.82599495,1.36507078,0.29779287,0.41091719,0.53696334
42129,0,USPennsylvaniaWestmoreland,Pennsylvania,Westmoreland,2021-04-04 05:42:00.831832,2020-11-04 00:00:00.000000,1.18185459,1.52015096,2.43745055,4123,5303,8504,2144,2957,4953,0.61463197,0.84772157,1.41986228,0.31161094,0.43821750,0.54170438
42129,0,USPennsylvaniaWestmoreland,Pennsylvania,Westmoreland,2021-04-04 05:42:00.831832,2020-11-05 00:00:00.000000,1.19970066,1.58180449,2.56854808,4185,5518,8961,2239,3063,5159,0.64186628,0.87796628,1.47873494,0.32451110,0.45601733,0.55245657
42129,0,USPennsylvaniaWestmoreland,Pennsylvania,Westmoreland,2021-04-04 05:42:00.831832,2020-11-06 00:00:00.000000,1.22336792,1.67091137,2.70120887,4268,5829,9424,2349,3205,5363,0.67350915,0.91870722,1.53735224,0.33779123,0.47081160,0.57946949
42129,0,USPennsylvaniaWestmoreland,Pennsylvania,Westmoreland,2021-04-04 05:42:00.831832,2020-11-07 00:00:00.000000,1.26616592,1.75100363,2.83325741,4417,6109,9885,2472,3351,5577,0.70855699,0.96064154,1.59873217,0.35372135,0.47473665,0.61658624
42129,0,USPennsylvaniaWestmoreland,Pennsylvania,Westmoreland,2021-04-04 05:42:00.831832,2020-11-08 00:00:00.000000,1.35907351,1.84100784,2.96548128,4741,6423,10346,2606,3541,5825,0.74719544,1.01494507,1.66958565,0.37990803,0.48001007,0.63717064
42129,0,USPennsylvaniaWestmoreland,Pennsylvania,Westmoreland,2021-04-04 05:42:00.831832,2020-11-09 00:00:00.000000,1.48153772,1.94744142,3.13004667,5169,6794,10920,2778,3742,6163,0.79638584,1.07279359,1.76646069,0.39348066,0.48325451,0.64048571
42129,0,USPennsylvaniaWestmoreland,Pennsylvania,Westmoreland,2021-04-04 05:42:00.831832,2020-11-10 00:00:00.000000,1.62062060,2.07384520,3.23528473,5654,7235,11287,2973,3979,6521,0.85227014,1.14047968,1.86913257,0.39130100,0.49263759,0.65033272
42129,0,USPennsylvaniaWestmoreland,Pennsylvania,Westmoreland,2021-04-04 05:42:00.831832,2020-11-11 00:00:00.000000,1.77558992,2.19506669,3.34412126,6195,7658,11667,3184,4226,6897,0.91284309,1.21136872,1.97698683,0.38922469,0.49100937,0.64611788
42129,0,USPennsylvaniaWestmoreland,Pennsylvania,Westmoreland,2021-04-04 05:42:00.831832,2020-11-12 00:00:00.000000,1.87703453,2.32885230,3.45994732,6548,8125,12071,3407,4479,7287,0.97672128,1.28389741,2.08879768,0.38517572,0.48964330,0.62981893
42129,0,USPennsylvaniaWestmoreland,Pennsylvania,Westmoreland,2021-04-04 05:42:00.831832,2020-11-13 00:00:00.000000,1.99368252,2.45747791,3.58699614,6955,8574,12514,3623,4776,7682,1.03861867,1.36894250,2.20178450,0.38335417,0.47918583,0.60145282
42129,0,USPennsylvaniaWestmoreland,Pennsylvania,Westmoreland,2021-04-04 05:42:00.831832,2020-11-14 00:00:00.000000,2.09992068,2.57434841,3.72676560,7326,8981,13002,3814,5071,8056,1.09335143,1.45371223,2.30911070,0.36826188,0.47401827,0.59106276
42129,0,USPennsylvaniaWestmoreland,Pennsylvania,Westmoreland,2021-04-04 05:42:00.831832,2020-11-15 00:00:00.000000,2.18298138,2.69084481,3.87677284,7616,9388,13526,4026,5351,8374,1.15391950,1.53373833,2.40015998,0.35482983,0.47121790,0.57445446
42129,0,USPennsylvaniaWestmoreland,Pennsylvania,Westmoreland,2021-04-04 05:42:00.831832,2020-11-16 00:00:00.000000,2.26182633,2.80764390,4.03449918,7891,9795,14076,4243,5619,8614,1.21626520,1.61063409,2.46911698,0.35175169,0.45990553,0.55750995
42129,0,USPennsylvaniaWestmoreland,Pennsylvania,Westmoreland,2021-04-04 05:42:00.831832,2020-11-17 00:00:00.000000,2.33460727,2.93013695,4.28696752,8145,10223,14957,4470,5809,8957,1.28141788,1.66515930,2.56730316,0.34520245,0.45332217,0.54927282
42129,0,USPennsylvaniaWestmoreland,Pennsylvania,Westmoreland,2021-04-04 05:42:00.831832,2020-11-18 00:00:00.000000,2.41854779,3.02936279,4.52113236,8438,10569,15774,4687,6002,9335,1.34341440,1.72048279,2.67575511,0.33836548,0.44738519,0.53820957
42129,0,USPennsylvaniaWestmoreland,Pennsylvania,Westmoreland,2021-04-04 05:42:00.831832,2020-11-19 00:00:00.000000,2.51094630,3.14921383,4.64829164,8760,10987,16217,4864,6222,9695,1.39425137,1.78336067,2.77895158,0.33714672,0.43548338,0.53795865
42129,0,USPennsylvaniaWestmoreland,Pennsylvania,Westmoreland,2021-04-04 05:42:00.831832,2020-11-20 00:00:00.000000,2.60559816,3.22914581,4.80551208,9090,11266,16766,5049,6418,10036,1.44713161,1.83952578,2.87661945,0.33507275,0.42968495,0.53334565
42129,0,USPennsylvaniaWestmoreland,Pennsylvania,Westmoreland,2021-04-04 05:42:00.831832,2020-11-21 00:00:00.000000,2.69677422,3.33655342,5.04784427,9409,11641,17611,5213,6677,10360,1.49436555,1.91385171,2.96954121,0.34075085,0.42609890,0.52256725
42129,0,USPennsylvaniaWestmoreland,Pennsylvania,Westmoreland,2021-04-04 05:42:00.831832,2020-11-22 00:00:00.000000,2.79245177,3.45920515,5.17373847,9742,12069,18051,5321,6858,10673,1.52515180,1.96584307,3.05913033,0.35051569,0.42800844,0.52043873
42129,0,USPennsylvaniaWestmoreland,Pennsylvania,Westmoreland,2021-04-04 05:42:00.831832,2020-11-23 00:00:00.000000,2.92096638,3.57667855,5.28949333,10191,12478,18454,5430,7083,11033,1.55651603,2.03031021,3.16232632,0.35330762,0.42378219,0.51397019
42129,0,USPennsylvaniaWestmoreland,Pennsylvania,Westmoreland,2021-04-04 05:42:00.831832,2020-11-24 00:00:00.000000,3.00034093,3.68681394,5.40205818,10468,12863,18847,5544,7241,11426,1.58916575,2.07546720,3.27503248,0.35643952,0.42143241,0.53128735
42129,0,USPennsylvaniaWestmoreland,Pennsylvania,Westmoreland,2021-04-04 05:42:00.831832,2020-11-25 00:00:00.000000,3.07759433,3.79507449,5.51328250,10737,13240,19235,5660,7471,11802,1.62234734,2.14145707,3.38265021,0.36596483,0.42791773,0.53799073
42129,0,USPennsylvaniaWestmoreland,Pennsylvania,Westmoreland,2021-04-04 05:42:00.831832,2020-11-26 00:00:00.000000,3.15862273,3.92932601,5.62377268,11020,13709,19621,5884,7716,12167,1.68652467,2.21174132,3.48743167,0.37249694,0.43371537,0.53826898
42129,0,USPennsylvaniaWestmoreland,Pennsylvania,Westmoreland,2021-04-04 05:42:00.831832,2020-11-27 00:00:00.000000,3.24768362,4.10230933,5.73651885,11331,14312,20014,6149,7993,12529,1.76253144,2.29117407,3.59108422,0.37419736,0.44242106,0.53842368
42129,0,USPennsylvaniaWestmoreland,Pennsylvania,Westmoreland,2021-04-04 05:42:00.831832,2020-11-28 00:00:00.000000,3.34230517,4.26567170,5.86421214,11661,14882,20460,6277,8269,13073,1.79936691,2.37004499,3.74712367,0.37754641,0.46175357,0.55851181
42129,0,USPennsylvaniaWestmoreland,Pennsylvania,Westmoreland,2021-04-04 05:42:00.831832,2020-11-29 00:00:00.000000,3.50292226,4.43369209,6.06813708,12221,15469,21171,6422,8608,13629,1.84084955,2.46738598,3.90637950,0.38132354,0.48719502,0.60936032
42129,0,USPennsylvaniaWestmoreland,Pennsylvania,Westmoreland,2021-04-04 05:42:00.831832,2020-11-30 00:00:00.000000,3.62938119,4.63567332,6.34589426,12662,16173,22140,6711,8995,14138,1.92370381,2.57822844,4.05232058,0.38209698,0.49598176,0.62927335
42129,0,USPennsylvaniaWestmoreland,Pennsylvania,Westmoreland,2021-04-04 05:42:00.831832,2020-12-01 00:00:00.000000,3.74564246,4.87122118,6.74131483,13068,16995,23520,6927,9427,14580,1.98561967,2.70202017,4.17899160,0.38135260,0.50549014,0.63125971
42129,0,USPennsylvaniaWestmoreland,Pennsylvania,Westmoreland,2021-04-04 05:42:00.831832,2020-12-02 00:00:00.000000,3.90297562,5.09428159,7.08971161,13617,17773,24735,7191,9791,15109,2.06118388,2.80631726,4.33074370,0.38208875,0.50929704,0.66608433
42129,0,USPennsylvaniaWestmoreland,Pennsylvania,Westmoreland,2021-04-04 05:42:00.831832,2020-12-03 00:00:00.000000,4.06547316,5.28781061,7.28554062,14184,18449,25419,7489,10122,15840,2.14664734,2.90114277,4.54001764,0.39006173,0.51058679,0.64765224
42129,0,USPennsylvaniaWestmoreland,Pennsylvania,Westmoreland,2021-04-04 05:42:00.831832,2020-12-04 00:00:00.000000,4.22017844,5.52578117,7.48628770,14724,19279,26119,7809,10605,16519,2.23825204,3.03972063,4.73465950,0.39507614,0.50006216,0.63363379
42129,0,USPennsylvaniaWestmoreland,Pennsylvania,Westmoreland,2021-04-04 05:42:00.831832,2020-12-05 00:00:00.000000,4.33369744,5.77095603,7.75930106,15120,20134,27072,8142,11164,17080,2.33381970,3.19995864,4.89554198,0.38179089,0.49379899,0.61828567
42129,0,USPennsylvaniaWestmoreland,Pennsylvania,Westmoreland,2021-04-04 05:42:00.831832,2020-12-06 00:00:00.000000,4.49677039,5.99137487,8.00704134,15689,20903,27936,8487,11668,17586,2.43270778,3.34439934,5.04052366,0.38028276,0.49411995,0.61532895
42129,0,USPennsylvaniaWestmoreland,Pennsylvania,Westmoreland,2021-04-04 05:42:00.831832,2020-12-07 00:00:00.000000,4.65396282,6.19649712,8.22635688,16237,21619,28701,8850,12039,18030,2.53659740,3.45072156,5.16789494,0.36611457,0.48446619,0.59779448
42129,0,USPennsylvaniaWestmoreland,Pennsylvania,Westmoreland,2021-04-04 05:42:00.831832,2020-12-08 00:00:00.000000,4.80609159,6.41217161,8.36441448,16768,22372,29183,9250,12446,18411,2.65132402,3.56730029,5.27700144,0.35050863,0.47607049,0.59022041
42129,0,USPennsylvaniaWestmoreland,Pennsylvania,Westmoreland,2021-04-04 05:42:00.831832,2020-12-09 00:00:00.000000,4.95104938,6.55684623,8.58651928,17274,22876,29958,9703,12841,18726,2.78104469,3.68058158,5.36721407,0.33366436,0.45898875,0.57869676
42129,0,USPennsylvaniaWestmoreland,Pennsylvania,Westmoreland,2021-04-04 05:42:00.831832,2020-12-10 00:00:00.000000,5.08317269,6.61020822,8.73234654,17735,23062,30467,10192,13200,18975,2.92128389,3.78359203,5.43863488,0.31170442,0.43257835,0.54514885
42129,0,USPennsylvaniaWestmoreland,Pennsylvania,Westmoreland,2021-04-04 05:42:00.831832,2020-12-11 00:00:00.000000,5.18752099,6.61791286,8.85517190,18099,23089,30895,10580,13470,19244,3.03267598,3.86083617,5.51577295,0.27514628,0.39796395,0.53755547
42129,0,USPennsylvaniaWestmoreland,Pennsylvania,Westmoreland,2021-04-04 05:42:00.831832,2020-12-12 00:00:00.000000,5.29832371,6.60460809,8.95551349,18485,23043,31245,10911,13616,19811,3.12736027,3.90278474,5.67819344,0.26712211,0.36802618,0.49014728
42129,0,USPennsylvaniaWestmoreland,Pennsylvania,Westmoreland,2021-04-04 05:42:00.831832,2020-12-13 00:00:00.000000,5.40075633,6.54841941,9.03820559,18843,22847,31534,10938,13677,20516,3.13523676,3.92027744,5.88046052,0.26404502,0.34263971,0.45222229
42129,0,USPennsylvaniaWestmoreland,Pennsylvania,Westmoreland,2021-04-04 05:42:00.831832,2020-12-14 00:00:00.000000,5.36678019,6.43300640,9.02207981,18724,22444,31477,10856,13558,20976,3.11173128,3.88599884,6.01231749,0.25771203,0.31997236,0.42523622
42129,0,USPennsylvaniaWestmoreland,Pennsylvania,Westmoreland,2021-04-04 05:42:00.831832,2020-12-15 00:00:00.000000,5.24273722,6.33025960,8.94737190,18291,22086,31217,10701,13477,21177,3.06736227,3.86286599,6.06986945,0.24781484,0.31388714,0.41031215
42129,0,USPennsylvaniaWestmoreland,Pennsylvania,Westmoreland,2021-04-04 05:42:00.831832,2020-12-16 00:00:00.000000,5.09212203,6.19148258,8.85925356,17766,21602,30909,10475,13263,21172,3.00250290,3.80142147,6.06850649,0.24540336,0.30816459,0.40126981
42129,0,USPennsylvaniaWestmoreland,Pennsylvania,Westmoreland,2021-04-04 05:42:00.831832,2020-12-17 00:00:00.000000,4.92684320,6.04022398,8.75608609,17189,21074,30549,10204,12884,21003,2.92487730,3.69282500,6.01987349,0.24207907,0.30349348,0.38481441
42129,0,USPennsylvaniaWestmoreland,Pennsylvania,Westmoreland,2021-04-04 05:42:00.831832,2020-12-18 00:00:00.000000,4.79647325,5.87845585,8.62941135,16734,20509,30107,9913,12545,20642,2.84128115,3.59582798,5.91649684,0.23443841,0.30141568,0.37484096
42129,0,USPennsylvaniaWestmoreland,Pennsylvania,Westmoreland,2021-04-04 05:42:00.831832,2020-12-19 00:00:00.000000,4.66782995,5.71985166,8.46100866,16286,19956,29520,9613,12268,20089,2.75550543,3.51626936,5.75785034,0.22832325,0.29766168,0.38568776
42129,0,USPennsylvaniaWestmoreland,Pennsylvania,Westmoreland,2021-04-04 05:42:00.831832,2020-12-20 00:00:00.000000,4.48933600,5.56274178,8.24676514,15663,19408,28772,9293,11982,19416,2.66372115,3.43440149,5.56515295,0.22721082,0.29560428,0.39004965
42129,0,USPennsylvaniaWestmoreland,Pennsylvania,Westmoreland,2021-04-04 05:42:00.831832,2020-12-21 00:00:00.000000,4.35338057,5.40750881,8.00873571,15188,18866,27942,8902,11677,18846,2.55153391,3.34709933,5.40177225,0.22605407,0.30233670,0.39240953
42129,0,USPennsylvaniaWestmoreland,Pennsylvania,Westmoreland,2021-04-04 05:42:00.831832,2020-12-22 00:00:00.000000,4.25300066,5.22989591,7.75714145,14838,18247,27064,8620,11388,18527,2.47084312,3.26399164,5.31037891,0.22617546,0.30521909,0.39714056
42129,0,USPennsylvaniaWestmoreland,Pennsylvania,Westmoreland,2021-04-04 05:42:00.831832,2020-12-23 00:00:00.000000,4.13507729,5.10768226,7.50923641,14427,17820,26199,8402,11107,18282,2.40819682,3.18355854,5.24006724,0.23524275,0.30925152,0.40261254
42129,0,USPennsylvaniaWestmoreland,Pennsylvania,Westmoreland,2021-04-04 05:42:00.831832,2020-12-24 00:00:00.000000,4.04227551,4.97078234,7.29992378,14103,17343,25469,8199,10847,18018,2.35018875,3.10916542,5.16448547,0.24510262,0.33128783,0.40796209
42129,0,USPennsylvaniaWestmoreland,Pennsylvania,Westmoreland,2021-04-04 05:42:00.831832,2020-12-25 00:00:00.000000,3.94360035,4.84352347,7.18848578,13759,16899,25080,8014,10571,17743,2.29694446,3.03005308,5.08568698,0.25165715,0.34475346,0.42924344
42129,0,USPennsylvaniaWestmoreland,Pennsylvania,Westmoreland,2021-04-04 05:42:00.831832,2020-12-26 00:00:00.000000,3.83041737,4.78629801,7.05329929,13364,16699,24608,7763,10307,17472,2.22508490,2.95430642,5.00797477,0.26100184,0.35264623,0.44567552
42129,0,USPennsylvaniaWestmoreland,Pennsylvania,Westmoreland,2021-04-04 05:42:00.831832,2020-12-27 00:00:00.000000,3.74579295,4.74238430,6.91528083,13069,16546,24127,7521,10017,17193,2.15566750,2.87119239,4.92779827,0.27187902,0.36792609,0.46278880
42129,0,USPennsylvaniaWestmoreland,Pennsylvania,Westmoreland,2021-04-04 05:42:00.831832,2020-12-28 00:00:00.000000,3.68424418,4.70585194,6.81839876,12854,16418,23789,7329,9860,16912,2.10084115,2.82619553,4.84747061,0.27182898,0.38410543,0.48801741
42129,0,USPennsylvaniaWestmoreland,Pennsylvania,Westmoreland,2021-04-04 05:42:00.831832,2020-12-29 00:00:00.000000,3.63037040,4.67185671,6.72254044,12666,16300,23454,7186,9809,16656,2.05966232,2.81161885,4.77406680,0.28306606,0.38878853,0.49954140
42129,0,USPennsylvaniaWestmoreland,Pennsylvania,Westmoreland,2021-04-04 05:42:00.831832,2020-12-30 00:00:00.000000,3.57107671,4.61749518,6.62820542,12459,16110,23125,7075,9735,16412,2.02808483,2.79044973,4.70396452,0.28012131,0.39434620,0.50322358
42129,0,USPennsylvaniaWestmoreland,Pennsylvania,Westmoreland,2021-04-04 05:42:00.831832,2020-12-31 00:00:00.000000,3.53427358,4.56322333,6.53738883,12331,15921,22808,6978,9725,16174,2.00001241,2.78741487,4.63593630,0.27628440,0.39042210,0.49828838
42129,0,USPennsylvaniaWestmoreland,Pennsylvania,Westmoreland,2021-04-04 05:42:00.831832,2021-01-01 00:00:00.000000,3.47260671,4.50080843,6.43670133,12115,15703,22457,6876,9654,15945,1.97102951,2.76705014,4.57025297,0.27207935,0.38811757,0.48760041
42129,0,USPennsylvaniaWestmoreland,Pennsylvania,Westmoreland,2021-04-04 05:42:00.831832,2021-01-02 00:00:00.000000,3.40597607,4.45378440,6.31543591,11883,15539,22034,6764,9651,15668,1.93884400,2.76628282,4.49089730,0.27222550,0.39545577,0.48319920
42129,0,USPennsylvaniaWestmoreland,Pennsylvania,Westmoreland,2021-04-04 05:42:00.831832,2021-01-03 00:00:00.000000,3.33649422,4.39820830,6.19123478,11640,15345,21601,6642,9581,15379,1.90378989,2.74606853,4.40810114,0.27150627,0.38046061,0.48877740
42129,0,USPennsylvaniaWestmoreland,Pennsylvania,Westmoreland,2021-04-04 05:42:00.831832,2021-01-04 00:00:00.000000,3.26656371,4.30901043,6.06508730,11397,15034,21161,6513,9457,15083,1.86682461,2.71068386,4.32311270,0.26702019,0.37355044,0.50248641
42129,0,USPennsylvaniaWestmoreland,Pennsylvania,Westmoreland,2021-04-04 05:42:00.831832,2021-01-05 00:00:00.000000,3.19374971,4.23567998,5.93625030,11142,14778,20711,6380,9316,14781,1.82861370,2.67014418,4.23649945,0.26085719,0.36767236,0.50459710
42129,0,USPennsylvaniaWestmoreland,Pennsylvania,Westmoreland,2021-04-04 05:42:00.831832,2021-01-06 00:00:00.000000,3.12071594,4.16766497,5.80270536,10888,14540,20245,6242,9203,14472,1.78933374,2.63782317,4.14815123,0.25742831,0.35770547,0.49191508
42129,0,USPennsylvaniaWestmoreland,Pennsylvania,Westmoreland,2021-04-04 05:42:00.831832,2021-01-07 00:00:00.000000,3.04806700,4.07301275,5.65913521,10634,14210,19744,6103,8968,14155,1.74931871,2.57062149,4.05709036,0.25321877,0.34992476,0.47284894
42129,0,USPennsylvaniaWestmoreland,Pennsylvania,Westmoreland,2021-04-04 05:42:00.831832,2021-01-08 00:00:00.000000,2.97532543,3.95355403,5.51195738,10380,13793,19231,5963,8729,13819,1.70910287,2.50210883,3.96092587,0.24399659,0.33808400,0.45687518
42129,0,USPennsylvaniaWestmoreland,Pennsylvania,Westmoreland,2021-04-04 05:42:00.831832,2021-01-09 00:00:00.000000,2.90211187,3.83625566,5.36341640,10125,13384,18712,5822,8508,13448,1.66876192,2.43876295,3.85441482,0.23934546,0.32576429,0.45250362
42129,0,USPennsylvaniaWestmoreland,Pennsylvania,Westmoreland,2021-04-04 05:42:00.831832,2021-01-10 00:00:00.000000,2.82606862,3.71132376,5.24147047,9860,12948,18287,5680,8241,13022,1.62814313,2.36223097,3.73244116,0.23005756,0.30848636,0.44542423
42129,0,USPennsylvaniaWestmoreland,Pennsylvania,Westmoreland,2021-04-04 05:42:00.831832,2021-01-11 00:00:00.000000,2.74030137,3.55565899,5.10872446,9560,12405,17824,5535,7922,12558,1.58642125,2.27057750,3.59952207,0.21934006,0.30080894,0.44080837
42129,0,USPennsylvaniaWestmoreland,Pennsylvania,Westmoreland,2021-04-04 05:42:00.831832,2021-01-12 00:00:00.000000,2.63889519,3.38423472,4.95490589,9207,11807,17287,5376,7613,12258,1.54110811,2.18218181,3.51362309,0.21746520,0.29765051,0.43084365
42129,0,USPennsylvaniaWestmoreland,Pennsylvania,Westmoreland,2021-04-04 05:42:00.831832,2021-01-13 00:00:00.000000,2.52699056,3.23531051,4.78444868,8816,11287,16692,5194,7295,11923,1.48878412,2.09096766,3.41743876,0.21438557,0.28995425,0.41581484
42129,0,USPennsylvaniaWestmoreland,Pennsylvania,Westmoreland,2021-04-04 05:42:00.831832,2021-01-14 00:00:00.000000,2.41262593,3.09721626,4.60150031,8417,10806,16054,4989,6984,11549,1.43007691,2.00181547,3.31022588,0.21881003,0.28704334,0.40456259
42129,0,USPennsylvaniaWestmoreland,Pennsylvania,Westmoreland,2021-04-04 05:42:00.831832,2021-01-15 00:00:00.000000,2.29970052,2.95903555,4.40407352,8023,10324,15365,4773,6681,11141,1.36818385,1.91513369,3.19346541,0.21597017,0.28322686,0.38298748
42129,0,USPennsylvaniaWestmoreland,Pennsylvania,Westmoreland,2021-04-04 05:42:00.831832,2021-01-16 00:00:00.000000,2.18602204,2.82367401,4.19701890,7627,9851,14643,4555,6367,10701,1.30573355,1.82509797,3.06714786,0.21125211,0.28296674,0.38892843
42129,0,USPennsylvaniaWestmoreland,Pennsylvania,Westmoreland,2021-04-04 05:42:00.831832,2021-01-17 00:00:00.000000,2.06126555,2.69260027,3.98904599,7191,9394,13917,4296,6075,10233,1.23140132,1.74125364,2.93302286,0.20722155,0.28334039,0.38675639
42129,0,USPennsylvaniaWestmoreland,Pennsylvania,Westmoreland,2021-04-04 05:42:00.831832,2021-01-18 00:00:00.000000,1.96071535,2.57261981,3.79060492,6840,8975,13225,4030,5773,9752,1.15534036,1.65485082,2.79523275,0.20471812,0.29124870,0.38449523
42129,0,USPennsylvaniaWestmoreland,Pennsylvania,Westmoreland,2021-04-04 05:42:00.831832,2021-01-19 00:00:00.000000,1.87098946,2.45864101,3.63854103,6527,8578,12694,3810,5509,9272,1.09207707,1.57912478,2.65778896,0.20348023,0.29397056,0.38543538
42129,0,USPennsylvaniaWestmoreland,Pennsylvania,Westmoreland,2021-04-04 05:42:00.831832,2021-01-20 00:00:00.000000,1.78770937,2.34491825,3.49201104,6237,8181,12183,3621,5254,8804,1.03785434,1.50610030,2.52345610,0.21293336,0.29564711,0.38570642
42129,0,USPennsylvaniaWestmoreland,Pennsylvania,Westmoreland,2021-04-04 05:42:00.831832,2021-01-21 00:00:00.000000,1.70854423,2.24028153,3.35130885,5961,7816,11692,3452,5039,8437,0.98943078,1.44445331,2.41831667,0.22641061,0.29685170,0.38557944
42129,0,USPennsylvaniaWestmoreland,Pennsylvania,Westmoreland,2021-04-04 05:42:00.831832,2021-01-22 00:00:00.000000,1.63158794,2.15084984,3.21681075,5692,7504,11223,3295,4834,8099,0.94467479,1.38566506,2.32136584,0.22654170,0.30294243,0.38791690
42129,0,USPennsylvaniaWestmoreland,Pennsylvania,Westmoreland,2021-04-04 05:42:00.831832,2021-01-23 00:00:00.000000,1.55555184,2.06669824,3.12736074,5427,7210,10911,3147,4610,7774,0.90212031,1.32157258,2.22832478,0.22704923,0.30772665,0.39290539
42129,0,USPennsylvaniaWestmoreland,Pennsylvania,Westmoreland,2021-04-04 05:42:00.831832,2021-01-24 00:00:00.000000,1.47961668,1.98779892,3.03857138,5162,6935,10601,3002,4382,7464,0.86067648,1.25600806,2.13943896,0.24057807,0.31454789,0.40735314
42129,0,USPennsylvaniaWestmoreland,Pennsylvania,Westmoreland,2021-04-04 05:42:00.831832,2021-01-25 00:00:00.000000,1.40405471,1.90510824,2.93978908,4898,6646,10256,2859,4197,7169,0.81968770,1.20297067,2.05480994,0.24476121,0.31439066,0.41769624
42129,0,USPennsylvaniaWestmoreland,Pennsylvania,Westmoreland,2021-04-04 05:42:00.831832,2021-01-26 00:00:00.000000,1.34365103,1.83441756,2.81327391,4687,6400,9815,2717,4044,6888,0.77896287,1.15934486,1.97429114,0.25032700,0.31980910,0.42354503
42129,0,USPennsylvaniaWestmoreland,Pennsylvania,Westmoreland,2021-04-04 05:42:00.831832,2021-01-27 00:00:00.000000,1.29162118,1.76431406,2.69240199,4506,6155,9393,2580,3913,6623,0.73965594,1.12159582,1.89827217,0.25102974,0.33089778,0.42631112
42129,0,USPennsylvaniaWestmoreland,Pennsylvania,Westmoreland,2021-04-04 05:42:00.831832,2021-01-28 00:00:00.000000,1.24177430,1.69767409,2.58637686,4332,5923,9023,2466,3787,6377,0.70681328,1.08562556,1.82782614,0.25652671,0.34298010,0.43830032
42129,0,USPennsylvaniaWestmoreland,Pennsylvania,Westmoreland,2021-04-04 05:42:00.831832,2021-01-29 00:00:00.000000,1.19903107,1.63265806,2.49748296,4183,5696,8713,2372,3693,6153,0.67987680,1.05870759,1.76374285,0.25937845,0.34992518,0.46682650
42129,0,USPennsylvaniaWestmoreland,Pennsylvania,Westmoreland,2021-04-04 05:42:00.831832,2021-01-30 00:00:00.000000,1.16201187,1.58931792,2.42402771,4054,5545,8457,2290,3588,5952,0.65655088,1.02845794,1.70601190,0.26269445,0.35533830,0.49244446
42129,0,USPennsylvaniaWestmoreland,Pennsylvania,Westmoreland,2021-04-04 05:42:00.831832,2021-01-31 00:00:00.000000,1.12854626,1.56219834,2.36154253,3937,5450,8239,2221,3457,5770,0.63670212,0.99099203,1.65392304,0.26785261,0.36116535,0.50937300
42129,0,USPennsylvaniaWestmoreland,Pennsylvania,Westmoreland,2021-04-04 05:42:00.831832,2021-02-01 00:00:00.000000,1.10628048,1.52763376,2.30731538,3859,5329,8050,2172,3341,5604,0.62267208,0.95769644,1.60641986,0.27118278,0.36821223,0.51943170
42129,0,USPennsylvaniaWestmoreland,Pennsylvania,Westmoreland,2021-04-04 05:42:00.831832,2021-02-02 00:00:00.000000,1.08682756,1.50250236,2.25720453,3791,5242,7875,2127,3250,5451,0.60981798,0.93167629,1.56237150,0.27253809,0.37230072,0.52878960
42129,0,USPennsylvaniaWestmoreland,Pennsylvania,Westmoreland,2021-04-04 05:42:00.831832,2021-02-03 00:00:00.000000,1.06228037,1.45848333,2.20959183,3706,5088,7709,2087,3147,5306,0.59832309,0.90217310,1.52090655,0.28474167,0.37564488,0.52632261
42129,0,USPennsylvaniaWestmoreland,Pennsylvania,Westmoreland,2021-04-04 05:42:00.831832,2021-02-04 00:00:00.000000,1.03129763,1.42139960,2.16350841,3598,4959,7548,2053,3064,5175,0.58868221,0.87839343,1.48339612,0.28496578,0.37737075,0.51996356
42129,0,USPennsylvaniaWestmoreland,Pennsylvania,Westmoreland,2021-04-04 05:42:00.831832,2021-02-05 00:00:00.000000,1.01910090,1.40194054,2.11841549,3555,4891,7391,2026,3012,5099,0.58090834,0.86351183,1.46148291,0.28726412,0.38286000,0.53361517
42129,0,USPennsylvaniaWestmoreland,Pennsylvania,Westmoreland,2021-04-04 05:42:00.831832,2021-02-06 00:00:00.000000,1.00842205,1.37139735,2.07376104,3518,4784,7235,2004,2960,5024,0.57447480,0.84845276,1.43996161,0.29268174,0.38969658,0.53382972
42129,0,USPennsylvaniaWestmoreland,Pennsylvania,Westmoreland,2021-04-04 05:42:00.831832,2021-02-07 00:00:00.000000,0.99846566,1.33463314,2.02732642,3483,4656,7073,1984,2893,4949,0.56882151,0.82920592,1.41869251,0.29364841,0.40331246,0.53392529
42129,0,USPennsylvaniaWestmoreland,Pennsylvania,Westmoreland,2021-04-04 05:42:00.831832,2021-02-08 00:00:00.000000,0.98796724,1.30718970,1.97083256,3447,4560,6876,1966,2830,4876,0.56356484,0.81123120,1.39761197,0.29711851,0.40985365,0.53399587
42129,0,USPennsylvaniaWestmoreland,Pennsylvania,Westmoreland,2021-04-04 05:42:00.831832,2021-02-09 00:00:00.000000,0.97760631,1.28583800,1.93077369,3410,4486,6736,1947,2762,4804,0.55820250,0.79168151,1.37696132,0.29552873,0.41313726,0.54105876
42129,0,USPennsylvaniaWestmoreland,Pennsylvania,Westmoreland,2021-04-04 05:42:00.831832,2021-02-10 00:00:00.000000,0.96603579,1.25851242,1.90356809,3370,4390,6641,1928,2694,4705,0.55275801,0.77220526,1.34880387,0.29511835,0.41584797,0.54752053
42129,0,USPennsylvaniaWestmoreland,Pennsylvania,Westmoreland,2021-04-04 05:42:00.831832,2021-02-11 00:00:00.000000,0.94035338,1.23346380,1.87789794,3280,4303,6551,1901,2638,4559,0.54505079,0.75625653,1.30686522,0.29626822,0.42377595,0.54736809
42129,0,USPennsylvaniaWestmoreland,Pennsylvania,Westmoreland,2021-04-04 05:42:00.831832,2021-02-12 00:00:00.000000,0.91217421,1.21514194,1.85106270,3182,4239,6458,1869,2587,4469,0.53574920,0.74167963,1.28092146,0.30199568,0.42967390,0.56628323
42129,0,USPennsylvaniaWestmoreland,Pennsylvania,Westmoreland,2021-04-04 05:42:00.831832,2021-02-13 00:00:00.000000,0.88627634,1.19112902,1.81860825,3092,4155,6345,1837,2543,4407,0.52674092,0.72889737,1.26325260,0.30992031,0.42835869,0.56718064
42129,0,USPennsylvaniaWestmoreland,Pennsylvania,Westmoreland,2021-04-04 05:42:00.831832,2021-02-14 00:00:00.000000,0.86676860,1.17735867,1.78612525,3024,4107,6231,1807,2495,4340,0.51795096,0.71524138,1.24411656,0.31765544,0.43140658,0.55592655
42129,0,USPennsylvaniaWestmoreland,Pennsylvania,Westmoreland,2021-04-04 05:42:00.831832,2021-02-15 00:00:00.000000,0.85844906,1.15724942,1.74930996,2995,4037,6103,1777,2443,4264,0.50934968,0.70032347,1.22238188,0.31596451,0.43224368,0.56258776
42129,0,USPennsylvaniaWestmoreland,Pennsylvania,Westmoreland,2021-04-04 05:42:00.831832,2021-02-16 00:00:00.000000,0.85447805,1.13803664,1.71968740,2981,3970,5999,1747,2409,4182,0.50094687,0.69061239,1.19868683,0.31051364,0.43279401,0.58485491
42129,0,USPennsylvaniaWestmoreland,Pennsylvania,Westmoreland,2021-04-04 05:42:00.831832,2021-02-17 00:00:00.000000,0.85198265,1.12046318,1.69799391,2972,3909,5924,1719,2368,4096,0.49280861,0.67880682,1.17404238,0.31068515,0.43624092,0.58532744
42129,0,USPennsylvaniaWestmoreland,Pennsylvania,Westmoreland,2021-04-04 05:42:00.831832,2021-02-18 00:00:00.000000,0.84604977,1.10713232,1.67179578,2951,3862,5832,1692,2336,4009,0.48513129,0.66957766,1.14913406,0.31603271,0.43972768,0.58559041
42129,0,USPennsylvaniaWestmoreland,Pennsylvania,Westmoreland,2021-04-04 05:42:00.831832,2021-02-19 00:00:00.000000,0.83661269,1.09006085,1.65619661,2918,3803,5778,1669,2299,3922,0.47846430,0.65901917,1.12424272,0.32703758,0.44096701,0.58822418
42129,0,USPennsylvaniaWestmoreland,Pennsylvania,Westmoreland,2021-04-04 05:42:00.831832,2021-02-20 00:00:00.000000,0.82694118,1.07199828,1.62874323,2885,3740,5682,1653,2265,3836,0.47386073,0.64922410,1.09950208,0.32058226,0.44253552,0.61206917
42129,0,USPennsylvaniaWestmoreland,Pennsylvania,Westmoreland,2021-04-04 05:42:00.831832,2021-02-21 00:00:00.000000,0.80310026,1.05446888,1.61103559,2802,3679,5620,1627,2255,3751,0.46651839,0.64632164,1.07524211,0.31352286,0.45694288,0.62013098
42129,0,USPennsylvaniaWestmoreland,Pennsylvania,Westmoreland,2021-04-04 05:42:00.831832,2021-02-22 00:00:00.000000,0.78600094,1.04918841,1.59493080,2742,3660,5564,1577,2228,3708,0.45215005,0.63870708,1.06303018,0.31588161,0.46248283,0.62718076
42129,0,USPennsylvaniaWestmoreland,Pennsylvania,Westmoreland,2021-04-04 05:42:00.831832,2021-02-23 00:00:00.000000,0.77545222,1.03810406,1.57978220,2705,3621,5511,1537,2207,3705,0.44075819,0.63268573,1.06198200,0.32865320,0.46553614,0.62383388
42129,0,USPennsylvaniaWestmoreland,Pennsylvania,Westmoreland,2021-04-04 05:42:00.831832,2021-02-24 00:00:00.000000,0.76943703,1.02670885,1.56518015,2684,3582,5460,1510,2199,3696,0.43296684,0.63038006,1.05958903,0.35334244,0.47902650,0.63280701
42129,0,USPennsylvaniaWestmoreland,Pennsylvania,Westmoreland,2021-04-04 05:42:00.831832,2021-02-25 00:00:00.000000,0.76520991,1.01524450,1.55090524,2669,3542,5411,1493,2185,3685,0.42813819,0.62630016,1.05628083,0.35205825,0.47694451,0.63316841
42129,0,USPennsylvaniaWestmoreland,Pennsylvania,Westmoreland,2021-04-04 05:42:00.831832,2021-02-26 00:00:00.000000,0.76410025,1.00518434,1.53703584,2665,3507,5362,1482,2162,3671,0.42502281,0.61992841,1.05226921,0.36569980,0.48244709,0.63323874
42129,0,USPennsylvaniaWestmoreland,Pennsylvania,Westmoreland,2021-04-04 05:42:00.831832,2021-02-27 00:00:00.000000,0.76553486,0.99641879,1.52397216,2670,3476,5317,1474,2149,3654,0.42260785,0.61604993,1.04756846,0.36594333,0.49147948,0.65367476
42129,0,USPennsylvaniaWestmoreland,Pennsylvania,Westmoreland,2021-04-04 05:42:00.831832,2021-02-28 00:00:00.000000,0.76714842,0.99459494,1.51175381,2676,3470,5274,1466,2154,3635,0.42034798,0.61759564,1.04196746,0.36698350,0.49885110,0.67120717
42129,0,USPennsylvaniaWestmoreland,Pennsylvania,Westmoreland,2021-04-04 05:42:00.831832,2021-03-01 00:00:00.000000,0.76867148,0.99794223,1.50022846,2681,3481,5234,1458,2159,3611,0.41803070,0.61886938,1.03498464,0.37108538,0.50644901,0.69572972
42129,0,USPennsylvaniaWestmoreland,Pennsylvania,Westmoreland,2021-04-04 05:42:00.831832,2021-03-02 00:00:00.000000,0.77027580,1.00309102,1.48864436,2687,3499,5193,1449,2142,3579,0.41536756,0.61400974,1.02583430,0.35955081,0.51131006,0.71907208
42129,0,USPennsylvaniaWestmoreland,Pennsylvania,Westmoreland,2021-04-04 05:42:00.831832,2021-03-03 00:00:00.000000,0.77234546,1.00901113,1.48866975,2694,3520,5193,1439,2141,3542,0.41251570,0.61375025,1.01522328,0.35719000,0.51757085,0.72252595
42129,0,USPennsylvaniaWestmoreland,Pennsylvania,Westmoreland,2021-04-04 05:42:00.831832,2021-03-04 00:00:00.000000,0.77694588,1.01187111,1.50499637,2710,3530,5250,1429,2146,3547,0.40959341,0.61525975,1.01673210,0.38731718,0.52664357,0.72910144
42129,0,USPennsylvaniaWestmoreland,Pennsylvania,Westmoreland,2021-04-04 05:42:00.831832,2021-03-05 00:00:00.000000,0.78438944,1.01539709,1.51531472,2736,3542,5286,1419,2144,3556,0.40674405,0.61479001,1.01935144,0.40030189,0.54368256,0.73686614
42129,0,USPennsylvaniaWestmoreland,Pennsylvania,Westmoreland,2021-04-04 05:42:00.831832,2021-03-06 00:00:00.000000,0.76778859,1.03570861,1.50889752,2678,3613,5264,1427,2145,3546,0.40917819,0.61494179,1.01654322,0.40887373,0.56130953,0.74710270
42129,0,USPennsylvaniaWestmoreland,Pennsylvania,Westmoreland,2021-04-04 05:42:00.831832,2021-03-07 00:00:00.000000,0.75619219,1.05204251,1.52010482,2638,3670,5303,1447,2148,3520,0.41497690,0.61574240,1.00909233,0.43691283,0.58316958,0.80564809
42129,0,USPennsylvaniaWestmoreland,Pennsylvania,Westmoreland,2021-04-04 05:42:00.831832,2021-03-08 00:00:00.000000,0.77442086,1.07076778,1.54087567,2701,3735,5376,1473,2177,3496,0.42231297,0.62417189,1.00223907,0.45589284,0.59571178,0.85930108
42129,0,USPennsylvaniaWestmoreland,Pennsylvania,Westmoreland,2021-04-04 05:42:00.831832,2021-03-09 00:00:00.000000,0.80101492,1.09817462,1.57429132,2794,3831,5492,1502,2220,3477,0.43075646,0.63641394,0.99679369,0.47459964,0.61018280,0.87122585
42129,0,USPennsylvaniaWestmoreland,Pennsylvania,Westmoreland,2021-04-04 05:42:00.831832,2021-03-10 00:00:00.000000,0.81014231,1.12522635,1.64158109,2826,3925,5727,1534,2270,3465,0.43992550,0.65081724,0.99317194,0.49389588,0.61205433,0.88416363
42129,0,USPennsylvaniaWestmoreland,Pennsylvania,Westmoreland,2021-04-04 05:42:00.831832,2021-03-11 00:00:00.000000,0.83776601,1.15180253,1.66869242,2922,4018,5822,1604,2325,3460,0.45975396,0.66661530,0.99173627,0.49673742,0.63748267,0.94421627
42129,0,USPennsylvaniaWestmoreland,Pennsylvania,Westmoreland,2021-04-04 05:42:00.831832,2021-03-12 00:00:00.000000,0.88084502,1.19171399,1.71451454,3073,4157,5981,1651,2373,3563,0.47330910,0.68018882,1.02123282,0.50553028,0.66740807,0.97556259
42129,0,USPennsylvaniaWestmoreland,Pennsylvania,Westmoreland,2021-04-04 05:42:00.831832,2021-03-13 00:00:00.000000,0.93318935,1.23743183,1.75506949,3255,4317,6123,1706,2420,3705,0.48912598,0.69386161,1.06193461,0.52097947,0.70135598,0.98064077
42129,0,USPennsylvaniaWestmoreland,Pennsylvania,Westmoreland,2021-04-04 05:42:00.831832,2021-03-14 00:00:00.000000,0.95365776,1.28941818,1.79110305,3327,4498,6249,1785,2480,3863,0.51188917,0.71107258,1.10738502,0.54679922,0.70876654,1.04013789
42129,0,USPennsylvaniaWestmoreland,Pennsylvania,Westmoreland,2021-04-04 05:42:00.831832,2021-03-15 00:00:00.000000,0.99668662,1.35116159,1.82572368,3477,4714,6369,1872,2576,4031,0.53658963,0.73834593,1.15558522,0.56206174,0.74321144,1.04917488
42129,0,USPennsylvaniaWestmoreland,Pennsylvania,Westmoreland,2021-04-04 05:42:00.831832,2021-03-16 00:00:00.000000,1.06763194,1.40992697,1.89295750,3724,4919,6604,1930,2680,4187,0.55329696,0.76820701,1.20022495,0.57034425,0.76739021,1.04692102
42129,0,USPennsylvaniaWestmoreland,Pennsylvania,Westmoreland,2021-04-04 05:42:00.831832,2021-03-17 00:00:00.000000,1.11720081,1.48208515,1.99024250,3897,5170,6943,2021,2771,4324,0.57948170,0.79427317,1.23936093,0.58102247,0.78077536,1.07353598
42129,0,USPennsylvaniaWestmoreland,Pennsylvania,Westmoreland,2021-04-04 05:42:00.831832,2021-03-18 00:00:00.000000,1.17224343,1.54202590,2.08971048,4089,5380,7290,2147,2881,4496,0.61563011,0.82602415,1.28882783,0.59093299,0.78350925,1.07586384
42129,0,USPennsylvaniaWestmoreland,Pennsylvania,Westmoreland,2021-04-04 05:42:00.831832,2021-03-19 00:00:00.000000,1.22799404,1.60570992,2.18202157,4284,5602,7613,2281,3019,4682,0.65385684,0.86539196,1.34218776,0.61561201,0.78935168,1.11189830
42129,0,USPennsylvaniaWestmoreland,Pennsylvania,Westmoreland,2021-04-04 05:42:00.831832,2021-03-20 00:00:00.000000,1.29011264,1.67813546,2.27674935,4501,5854,7943,2419,3172,4906,0.69345867,0.90931905,1.40635470,0.62917319,0.79761977,1.13770219
42129,0,USPennsylvaniaWestmoreland,Pennsylvania,Westmoreland,2021-04-04 05:42:00.831832,2021-03-21 00:00:00.000000,1.35489527,1.74833004,2.37444149,4727,6099,8284,2546,3330,5156,0.72972815,0.95443776,1.47787695,0.63882904,0.80053861,1.14608083
42129,0,USPennsylvaniaWestmoreland,Pennsylvania,Westmoreland,2021-04-04 05:42:00.831832,2021-03-22 00:00:00.000000,1.41850832,1.81729241,2.48283880,4949,6340,8662,2660,3476,5378,0.76244725,0.99653741,1.54147639,0.63609638,0.80148787,1.14339174
42129,0,USPennsylvaniaWestmoreland,Pennsylvania,Westmoreland,2021-04-04 05:42:00.831832,2021-03-23 00:00:00.000000,1.48745809,1.90695464,2.61129067,5189,6653,9110,2772,3657,5588,0.79460603,1.04832091,1.60177824,0.60587891,0.79818813,1.13692261
42129,0,USPennsylvaniaWestmoreland,Pennsylvania,Westmoreland,2021-04-04 05:42:00.831832,2021-03-24 00:00:00.000000,1.55024148,1.97799597,2.72736307,5408,6901,9515,2892,3804,5801,0.82904856,1.09050244,1.66279869,0.57504864,0.79301603,1.14940852
42129,0,USPennsylvaniaWestmoreland,Pennsylvania,Westmoreland,2021-04-04 05:42:00.831832,2021-03-25 00:00:00.000000,1.61368694,2.04820306,2.82923870,5630,7146,9871,3046,3957,6015,0.87325073,1.13439948,1.72427422,0.55393252,0.78362131,1.14997919
42129,0,USPennsylvaniaWestmoreland,Pennsylvania,Westmoreland,2021-04-04 05:42:00.831832,2021-03-26 00:00:00.000000,1.68166829,2.12830451,2.91442503,5867,7425,10168,3178,4123,6231,0.91105293,1.18190546,1.78618383,0.55275184,0.76251536,1.15040321
42129,0,USPennsylvaniaWestmoreland,Pennsylvania,Westmoreland,2021-04-04 05:42:00.831832,2021-03-27 00:00:00.000000,1.73421337,2.18371078,3.01868427,6050,7618,10532,3274,4277,6462,0.93865842,1.22599124,1.85213137,0.54594166,0.72342749,1.15082564
42129,0,USPennsylvaniaWestmoreland,Pennsylvania,Westmoreland,2021-04-04 05:42:00.831832,2021-03-28 00:00:00.000000,1.77266261,2.25351266,3.09762967,6184,7862,10807,3364,4383,6722,0.96439490,1.25651698,1.92686110,0.52898658,0.69164829,1.15388740
42129,0,USPennsylvaniaWestmoreland,Pennsylvania,Westmoreland,2021-04-04 05:42:00.831832,2021-03-29 00:00:00.000000,1.80595077,2.30550220,3.13473690,6300,8043,10937,3489,4513,6973,1.00028743,1.29355135,1.99878871,0.49050240,0.66749345,1.20669845
42129,0,USPennsylvaniaWestmoreland,Pennsylvania,Westmoreland,2021-04-04 05:42:00.831832,2021-03-30 00:00:00.000000,1.83751145,2.36221418,3.18710922,6411,8241,11119,3618,4676,7097,1.03718224,1.34032063,2.03433551,0.48462555,0.65308715,1.21578435
42129,0,USPennsylvaniaWestmoreland,Pennsylvania,Westmoreland,2021-04-04 05:42:00.831832,2021-03-31 00:00:00.000000,1.88617933,2.38489963,3.35048328,6580,8320,11689,3667,4801,7182,1.05127390,1.37624800,2.05864952,0.48969604,0.64702419,1.21970557
42129,0,USPennsylvaniaWestmoreland,Pennsylvania,Westmoreland,2021-04-04 05:42:00.831832,2021-04-01 00:00:00.000000,1.89562052,2.41432780,3.44385869,6613,8423,12015,3801,4836,7476,1.08944131,1.38623401,2.14290482,0.49889968,0.63911654,1.22765407
42129,0,USPennsylvaniaWestmoreland,Pennsylvania,Westmoreland,2021-04-04 05:42:00.831832,2021-04-02 00:00:00.000000,1.90312749,2.42501144,3.50550429,6639,8460,12230,3793,4906,7651,1.08720993,1.40630730,2.19312882,0.48198035,0.62990967,1.26820397
42129,0,USPennsylvaniaWestmoreland,Pennsylvania,Westmoreland,2021-04-04 05:42:00.831832,2021-04-03 00:00:00.000000,1.89319863,2.42236906,3.57154916,6605,8451,12461,3804,4980,7761,1.09056486,1.42758540,2.22453644,0.45397191,0.62821209,1.29606015
42129,0,USPennsylvaniaWestmoreland,Pennsylvania,Westmoreland,2021-04-04 05:42:00.831832,2021-04-04 00:00:00.000000,1.87825331,2.45924411,3.68925779,6553,8580,12871,3758,5068,8014,1.07721664,1.45260783,2.29700430,0.43774825,0.63105740,1.36383388
42129,0,USPennsylvaniaWestmoreland,Pennsylvania,Westmoreland,2021-04-04 05:42:00.831832,2021-04-05 00:00:00.000000,1.82940917,2.50451395,3.81462522,6382,8738,13309,3730,5171,8265,1.06921940,1.48220854,2.36906072,0.42378019,0.62795043,1.38509501
42129,0,USPennsylvaniaWestmoreland,Pennsylvania,Westmoreland,2021-04-04 05:42:00.831832,2021-04-06 00:00:00.000000,1.77168129,2.51954122,3.94217254,6181,8790,13754,3633,5223,8515,1.04142142,1.49708068,2.44064942,0.42975377,0.62794198,1.43856567
42129,0,USPennsylvaniaWestmoreland,Pennsylvania,Westmoreland,2021-04-04 05:42:00.831832,2021-04-07 00:00:00.000000,1.78276339,2.53583044,4.07101239,6220,8847,14203,3576,5228,8763,1.02508353,1.49849933,2.51162657,0.44428098,0.62716278,1.47359705
42129,0,USPennsylvaniaWestmoreland,Pennsylvania,Westmoreland,2021-04-04 05:42:00.831832,2021-04-08 00:00:00.000000,1.70857600,2.56348848,4.20031372,5961,8943,14654,3521,5245,9007,1.00917989,1.50335093,2.58179735,0.44770975,0.63317692,1.49283656
42129,0,USPennsylvaniaWestmoreland,Pennsylvania,Westmoreland,2021-04-04 05:42:00.831832,2021-04-09 00:00:00.000000,1.63657887,2.55138803,4.32949623,5710,8901,15105,3467,5242,9249,0.99371420,1.50257265,2.65093689,0.44741740,0.63289984,1.51147110
42129,0,USPennsylvaniaWestmoreland,Pennsylvania,Westmoreland,2021-04-04 05:42:00.831832,2021-04-10 00:00:00.000000,1.56695966,2.53858243,4.45808611,5467,8857,15554,3414,5236,9416,0.97861126,1.50076801,2.69883333,0.44732416,0.63274058,1.52687507
42129,0,USPennsylvaniaWestmoreland,Pennsylvania,Westmoreland,2021-04-04 05:42:00.831832,2021-04-11 00:00:00.000000,1.49979044,2.52283791,4.58563570,5232,8802,15999,3362,5210,9565,0.96376655,1.49332476,2.74152186,0.44729457,0.63264610,1.53403560
42129,0,USPennsylvaniaWestmoreland,Pennsylvania,Westmoreland,2021-04-04 05:42:00.831832,2021-04-12 00:00:00.000000,1.43508050,2.51479860,4.71169572,5006,8774,16439,3245,5234,9704,0.93014222,1.50037700,2.78154671,0.44728519,0.63258881,1.53730266
42129,0,USPennsylvaniaWestmoreland,Pennsylvania,Westmoreland,2021-04-04 05:42:00.831832,2021-04-13 00:00:00.000000,1.37280474,2.50752239,4.83580742,4789,8748,16872,3106,5291,9834,0.89050910,1.51666640,2.81874347,0.44728222,0.63255357,1.53878061
42129,0,USPennsylvaniaWestmoreland,Pennsylvania,Westmoreland,2021-04-04 05:42:00.831832,2021-04-14 00:00:00.000000,1.31291895,2.50869932,5.04863378,4580,8752,17614,2973,5242,10063,0.85229652,1.50257746,2.88447111,0.44728128,0.63253170,1.53944663
42129,0,USPennsylvaniaWestmoreland,Pennsylvania,Westmoreland,2021-04-04 05:42:00.831832,2021-04-15 00:00:00.000000,1.25540795,2.48573516,5.17826255,4380,8672,18066,2845,5282,10331,0.81549698,1.51413790,2.96106937,0.44728098,0.63251805,1.53974624
42129,0,USPennsylvaniaWestmoreland,Pennsylvania,Westmoreland,2021-04-04 05:42:00.831832,2021-04-16 00:00:00.000000,1.20033821,2.48504627,5.27035630,4187,8670,18388,2721,5282,10593,0.78009000,1.51398428,3.03625888,0.44728089,0.63250949,1.53988091
