FIPS,HR_UID,nameid,province,region,analysisTime,dates,pointprevalence_025,pointprevalence_50,pointprevalence_975,pointinfections_025,pointinfections_50,pointinfections_975,pointinfectious_025,pointinfectious_50,pointinfectious_975,pointinfectiousprevalence_05,pointinfectiousprevalence_50,pointinfectiousprevalence_95,infectrate_025,infectrate_50,infectrate_975
48373,0,USTexasPolk,Texas,Polk,2021-04-04 04:33:23.902358,2020-03-09 00:00:00.000000,0.00162778,0.00948724,0.02422595,0,4,12,0,2,6,0.00086916,0.00496266,0.01342956,0.35007135,0.52120981,0.68450613
48373,0,USTexasPolk,Texas,Polk,2021-04-04 04:33:23.902358,2020-03-10 00:00:00.000000,0.00175959,0.01013400,0.02461746,0,5,12,0,2,6,0.00089363,0.00534424,0.01320045,0.35007070,0.52117282,0.68444034
48373,0,USTexasPolk,Texas,Polk,2021-04-04 04:33:23.902358,2020-03-11 00:00:00.000000,0.00190097,0.01014890,0.02562007,0,5,13,0,2,6,0.00096556,0.00576429,0.01355835,0.35006961,0.52107241,0.68431261
48373,0,USTexasPolk,Texas,Polk,2021-04-04 04:33:23.902358,2020-03-12 00:00:00.000000,0.00204847,0.01087308,0.02679000,1,5,13,0,2,7,0.00105671,0.00576151,0.01385215,0.35006777,0.52079983,0.68406487
48373,0,USTexasPolk,Texas,Polk,2021-04-04 04:33:23.902358,2020-03-13 00:00:00.000000,0.00220035,0.01156022,0.02836835,1,5,14,0,3,7,0.00115558,0.00628905,0.01433130,0.35006471,0.52001454,0.68358525
48373,0,USTexasPolk,Texas,Polk,2021-04-04 04:33:23.902358,2020-03-14 00:00:00.000000,0.00235495,0.01171841,0.02946376,1,6,15,0,3,7,0.00125753,0.00652713,0.01531118,0.35005958,0.51932795,0.68265993
48373,0,USTexasPolk,Texas,Polk,2021-04-04 04:33:23.902358,2020-03-15 00:00:00.000000,0.00250972,0.01202747,0.03053895,1,6,15,0,3,8,0.00136053,0.00659765,0.01648798,0.35005107,0.51782692,0.68234637
48373,0,USTexasPolk,Texas,Polk,2021-04-04 04:33:23.902358,2020-03-16 00:00:00.000000,0.00625609,0.01428505,0.03674298,3,7,18,0,3,8,0.00146312,0.00686313,0.01720984,0.35003715,0.51487045,0.68220873
48373,0,USTexasPolk,Texas,Polk,2021-04-04 04:33:23.902358,2020-03-17 00:00:00.000000,0.00848345,0.01757629,0.04172001,4,9,21,1,4,9,0.00313918,0.00800391,0.01874277,0.35001553,0.50687756,0.68177036
48373,0,USTexasPolk,Texas,Polk,2021-04-04 04:33:23.902358,2020-03-18 00:00:00.000000,0.01055940,0.02077877,0.04874030,5,10,25,2,4,10,0.00429804,0.00966751,0.02115467,0.33829164,0.48722762,0.68037952
48373,0,USTexasPolk,Texas,Polk,2021-04-04 04:33:23.902358,2020-03-19 00:00:00.000000,0.01276982,0.02462955,0.05612785,6,12,28,3,6,12,0.00596513,0.01181463,0.02462992,0.31948701,0.47095326,0.67602790
48373,0,USTexasPolk,Texas,Polk,2021-04-04 04:33:23.902358,2020-03-20 00:00:00.000000,0.01490578,0.02902136,0.06378094,7,14,32,3,7,14,0.00736103,0.01381529,0.02873975,0.31368963,0.45065203,0.66302469
48373,0,USTexasPolk,Texas,Polk,2021-04-04 04:33:23.902358,2020-03-21 00:00:00.000000,0.01623383,0.03286659,0.07144976,8,16,36,4,8,16,0.00865545,0.01586943,0.03289790,0.30294130,0.42382023,0.62958913
48373,0,USTexasPolk,Texas,Polk,2021-04-04 04:33:23.902358,2020-03-22 00:00:00.000000,0.01786999,0.03505996,0.07824254,9,18,40,4,9,19,0.00939217,0.01769731,0.03714058,0.28616054,0.38732309,0.57127670
48373,0,USTexasPolk,Texas,Polk,2021-04-04 04:33:23.902358,2020-03-23 00:00:00.000000,0.02061454,0.03734666,0.08268393,10,19,42,5,9,21,0.01011984,0.01902355,0.04112635,0.27050909,0.36084968,0.54313676
48373,0,USTexasPolk,Texas,Polk,2021-04-04 04:33:23.902358,2020-03-24 00:00:00.000000,0.02199023,0.03934829,0.08793913,11,20,45,5,10,23,0.01122585,0.02031658,0.04537756,0.23094134,0.35304744,0.53230280
48373,0,USTexasPolk,Texas,Polk,2021-04-04 04:33:23.902358,2020-03-25 00:00:00.000000,0.02411612,0.04281670,0.09196743,12,21,47,6,11,25,0.01248901,0.02257897,0.04927571,0.21293366,0.33378762,0.51848160
48373,0,USTexasPolk,Texas,Polk,2021-04-04 04:33:23.902358,2020-03-26 00:00:00.000000,0.02712492,0.04879472,0.09683548,13,25,49,7,13,26,0.01377121,0.02580526,0.05228962,0.20855590,0.32254708,0.50374234
48373,0,USTexasPolk,Texas,Polk,2021-04-04 04:33:23.902358,2020-03-27 00:00:00.000000,0.02948448,0.05109865,0.10364071,15,26,53,7,14,30,0.01503507,0.02744818,0.05883510,0.20379989,0.30524207,0.49458024
48373,0,USTexasPolk,Texas,Polk,2021-04-04 04:33:23.902358,2020-03-28 00:00:00.000000,0.03057603,0.05229764,0.11027599,15,26,56,8,14,34,0.01627472,0.02904125,0.06634985,0.19434930,0.29694817,0.46282650
48373,0,USTexasPolk,Texas,Polk,2021-04-04 04:33:23.902358,2020-03-29 00:00:00.000000,0.03135225,0.05320235,0.11678759,16,27,59,8,15,35,0.01705311,0.03080593,0.06878482,0.18470020,0.28797370,0.42929030
48373,0,USTexasPolk,Texas,Polk,2021-04-04 04:33:23.902358,2020-03-30 00:00:00.000000,0.03357985,0.05660571,0.12134805,17,29,62,8,16,36,0.01739423,0.03211770,0.07117961,0.17983162,0.27759768,0.39337734
48373,0,USTexasPolk,Texas,Polk,2021-04-04 04:33:23.902358,2020-03-31 00:00:00.000000,0.03617866,0.06037325,0.12529395,18,31,64,9,17,37,0.01865538,0.03430133,0.07333551,0.17734939,0.27414536,0.39156788
48373,0,USTexasPolk,Texas,Polk,2021-04-04 04:33:23.902358,2020-04-01 00:00:00.000000,0.03837973,0.06200465,0.12856915,19,31,66,10,18,38,0.02064583,0.03566063,0.07533129,0.17514952,0.26893372,0.38917344
48373,0,USTexasPolk,Texas,Polk,2021-04-04 04:33:23.902358,2020-04-02 00:00:00.000000,0.04069101,0.06263853,0.13104590,20,32,67,11,18,39,0.02197105,0.03670014,0.07726953,0.16789904,0.26499707,0.37956249
48373,0,USTexasPolk,Texas,Polk,2021-04-04 04:33:23.902358,2020-04-03 00:00:00.000000,0.04094697,0.06484662,0.13242254,21,33,68,11,18,40,0.02283199,0.03693810,0.07916303,0.16548680,0.25405912,0.36350154
48373,0,USTexasPolk,Texas,Polk,2021-04-04 04:33:23.902358,2020-04-04 00:00:00.000000,0.04172774,0.06439487,0.13294026,21,33,68,12,19,41,0.02346140,0.03764007,0.08158136,0.16287865,0.24766233,0.34204095
48373,0,USTexasPolk,Texas,Polk,2021-04-04 04:33:23.902358,2020-04-05 00:00:00.000000,0.04150186,0.06680825,0.13582374,21,34,69,12,19,42,0.02377115,0.03842181,0.08317909,0.16030716,0.23912986,0.34535858
48373,0,USTexasPolk,Texas,Polk,2021-04-04 04:33:23.902358,2020-04-06 00:00:00.000000,0.04174436,0.06879327,0.14040073,21,35,72,12,20,43,0.02346677,0.03975170,0.08435860,0.15654341,0.23136832,0.32509415
48373,0,USTexasPolk,Texas,Polk,2021-04-04 04:33:23.902358,2020-04-07 00:00:00.000000,0.04183697,0.06974757,0.14464677,21,35,74,12,20,44,0.02414971,0.04031717,0.08623355,0.15576631,0.22534310,0.31075659
48373,0,USTexasPolk,Texas,Polk,2021-04-04 04:33:23.902358,2020-04-08 00:00:00.000000,0.04031131,0.06973260,0.14164247,20,35,72,11,21,45,0.02330717,0.04122023,0.08910068,0.15435492,0.22280540,0.30786574
48373,0,USTexasPolk,Texas,Polk,2021-04-04 04:33:23.902358,2020-04-09 00:00:00.000000,0.03739574,0.07094215,0.13776514,19,36,70,11,21,47,0.02245204,0.04188951,0.09175419,0.15329049,0.22147062,0.30905781
48373,0,USTexasPolk,Texas,Polk,2021-04-04 04:33:23.902358,2020-04-10 00:00:00.000000,0.03465945,0.07085902,0.13302528,17,36,68,11,21,47,0.02162050,0.04250102,0.09218494,0.14264526,0.21473004,0.29543459
48373,0,USTexasPolk,Texas,Polk,2021-04-04 04:33:23.902358,2020-04-11 00:00:00.000000,0.03233791,0.07243721,0.13477256,16,37,69,10,21,45,0.02003647,0.04282950,0.08934846,0.13557020,0.21335637,0.29116102
48373,0,USTexasPolk,Texas,Polk,2021-04-04 04:33:23.902358,2020-04-12 00:00:00.000000,0.03152724,0.07243927,0.13994323,16,37,71,9,21,44,0.01861937,0.04276315,0.08597299,0.13142864,0.20983466,0.29147449
48373,0,USTexasPolk,Texas,Polk,2021-04-04 04:33:23.902358,2020-04-13 00:00:00.000000,0.03052613,0.07405175,0.14168887,15,38,72,8,21,45,0.01738731,0.04145107,0.08785118,0.12529292,0.20843797,0.30378717
48373,0,USTexasPolk,Texas,Polk,2021-04-04 04:33:23.902358,2020-04-14 00:00:00.000000,0.02961855,0.07269070,0.14701263,15,37,75,8,21,45,0.01686061,0.04255127,0.08912782,0.12481830,0.20678834,0.30893538
48373,0,USTexasPolk,Texas,Polk,2021-04-04 04:33:23.902358,2020-04-15 00:00:00.000000,0.02877120,0.07175603,0.15228934,14,36,78,8,21,47,0.01634694,0.04243197,0.09295162,0.12470488,0.20523789,0.30529315
48373,0,USTexasPolk,Texas,Polk,2021-04-04 04:33:23.902358,2020-04-16 00:00:00.000000,0.02800295,0.07098033,0.15131287,14,36,77,8,21,48,0.01587383,0.04211793,0.09431759,0.12425066,0.20362809,0.29744761
48373,0,USTexasPolk,Texas,Polk,2021-04-04 04:33:23.902358,2020-04-17 00:00:00.000000,0.02731387,0.07081892,0.14882978,14,36,76,7,21,50,0.01544714,0.04189453,0.09766368,0.12195116,0.20106986,0.30722583
48373,0,USTexasPolk,Texas,Polk,2021-04-04 04:33:23.902358,2020-04-18 00:00:00.000000,0.02669690,0.07042457,0.14813518,13,36,76,7,21,51,0.01506526,0.04114994,0.10083702,0.11982427,0.19683670,0.29544322
48373,0,USTexasPolk,Texas,Polk,2021-04-04 04:33:23.902358,2020-04-19 00:00:00.000000,0.02614064,0.06948269,0.15042991,13,35,77,7,21,53,0.01472377,0.04116415,0.10352798,0.11995452,0.19018207,0.29611320
48373,0,USTexasPolk,Texas,Polk,2021-04-04 04:33:23.902358,2020-04-20 00:00:00.000000,0.02799435,0.06876979,0.15053041,14,35,77,7,20,54,0.01441635,0.04050375,0.10521202,0.12267469,0.18436044,0.30650306
48373,0,USTexasPolk,Texas,Polk,2021-04-04 04:33:23.902358,2020-04-21 00:00:00.000000,0.02988328,0.06823713,0.15124974,15,35,77,7,20,52,0.01522543,0.04011056,0.10310517,0.12596442,0.18240642,0.30522325
48373,0,USTexasPolk,Texas,Polk,2021-04-04 04:33:23.902358,2020-04-22 00:00:00.000000,0.03167469,0.06791314,0.15183017,16,34,77,8,20,51,0.01636057,0.04022113,0.09994462,0.13154471,0.18019706,0.29400284
48373,0,USTexasPolk,Texas,Polk,2021-04-04 04:33:23.902358,2020-04-23 00:00:00.000000,0.03140539,0.06753664,0.15233427,16,34,78,8,20,49,0.01752116,0.04073230,0.09657861,0.13510701,0.17975648,0.29559972
48373,0,USTexasPolk,Texas,Polk,2021-04-04 04:33:23.902358,2020-04-24 00:00:00.000000,0.03113983,0.06814695,0.15279245,15,34,78,9,20,47,0.01844498,0.04003699,0.09326548,0.13818620,0.18162058,0.29686802
48373,0,USTexasPolk,Texas,Polk,2021-04-04 04:33:23.902358,2020-04-25 00:00:00.000000,0.03089070,0.06930218,0.15320611,15,35,78,9,20,47,0.01828906,0.03940084,0.09262736,0.13593984,0.18222962,0.31086592
48373,0,USTexasPolk,Texas,Polk,2021-04-04 04:33:23.902358,2020-04-26 00:00:00.000000,0.03065963,0.07002499,0.15034750,15,35,77,9,19,47,0.01814094,0.03890192,0.09291960,0.13237316,0.19194688,0.32019192
48373,0,USTexasPolk,Texas,Polk,2021-04-04 04:33:23.902358,2020-04-27 00:00:00.000000,0.03151914,0.06892506,0.14560458,16,35,74,9,20,47,0.01800434,0.03919669,0.09315750,0.13191329,0.20199663,0.32024824
48373,0,USTexasPolk,Texas,Polk,2021-04-04 04:33:23.902358,2020-04-28 00:00:00.000000,0.03142377,0.06861215,0.14056999,16,35,72,9,20,47,0.01763104,0.03928844,0.09332359,0.13257476,0.20684314,0.31959945
48373,0,USTexasPolk,Texas,Polk,2021-04-04 04:33:23.902358,2020-04-29 00:00:00.000000,0.03126906,0.06819232,0.13590348,16,35,69,8,20,47,0.01732925,0.03976646,0.09157909,0.12980241,0.20404712,0.31888643
48373,0,USTexasPolk,Texas,Polk,2021-04-04 04:33:23.902358,2020-04-30 00:00:00.000000,0.03103240,0.06751847,0.13498754,15,34,69,8,20,45,0.01714491,0.03995616,0.08837937,0.12025828,0.19851938,0.31743122
48373,0,USTexasPolk,Texas,Polk,2021-04-04 04:33:23.902358,2020-05-01 00:00:00.000000,0.02959882,0.06885532,0.13443366,15,35,69,8,20,43,0.01705176,0.04009541,0.08504525,0.12056503,0.19970602,0.31531159
48373,0,USTexasPolk,Texas,Polk,2021-04-04 04:33:23.902358,2020-05-02 00:00:00.000000,0.02812374,0.06796387,0.13449948,14,34,69,8,20,43,0.01634289,0.03996018,0.08405297,0.12392055,0.20009485,0.31256571
48373,0,USTexasPolk,Texas,Polk,2021-04-04 04:33:23.902358,2020-05-03 00:00:00.000000,0.02684951,0.06816126,0.13840797,13,35,71,7,20,43,0.01552355,0.04017216,0.08395279,0.12437586,0.20340152,0.31321368
48373,0,USTexasPolk,Texas,Polk,2021-04-04 04:33:23.902358,2020-05-04 00:00:00.000000,0.02761911,0.06678395,0.13753511,14,34,70,7,20,43,0.01481646,0.04085316,0.08384629,0.11226303,0.20356819,0.31147431
48373,0,USTexasPolk,Texas,Polk,2021-04-04 04:33:23.902358,2020-05-05 00:00:00.000000,0.02862770,0.06644004,0.13640345,14,34,70,7,20,42,0.01507025,0.04086072,0.08302411,0.11131584,0.20353999,0.32693871
48373,0,USTexasPolk,Texas,Polk,2021-04-04 04:33:23.902358,2020-05-06 00:00:00.000000,0.02991258,0.06918194,0.13764312,15,35,70,8,20,42,0.01569105,0.04040020,0.08199811,0.11325028,0.20534021,0.34252761
48373,0,USTexasPolk,Texas,Polk,2021-04-04 04:33:23.902358,2020-05-07 00:00:00.000000,0.02928315,0.07009711,0.13891560,15,35,71,8,20,41,0.01649812,0.04075256,0.08176482,0.12142054,0.20616562,0.34046316
48373,0,USTexasPolk,Texas,Polk,2021-04-04 04:33:23.902358,2020-05-08 00:00:00.000000,0.03003654,0.07288249,0.14019675,15,37,71,8,21,42,0.01662918,0.04119844,0.08302061,0.12197051,0.20908932,0.33626221
48373,0,USTexasPolk,Texas,Polk,2021-04-04 04:33:23.902358,2020-05-09 00:00:00.000000,0.03129008,0.07293722,0.14527429,16,37,74,8,21,44,0.01728577,0.04202592,0.08633869,0.12364546,0.21719369,0.33196184
48373,0,USTexasPolk,Texas,Polk,2021-04-04 04:33:23.902358,2020-05-10 00:00:00.000000,0.03053768,0.07345317,0.15113107,15,37,77,9,21,46,0.01800179,0.04268268,0.08976523,0.12656335,0.22371856,0.31709725
48373,0,USTexasPolk,Texas,Polk,2021-04-04 04:33:23.902358,2020-05-11 00:00:00.000000,0.03157221,0.07447466,0.14866452,16,38,76,9,22,47,0.01844251,0.04376150,0.09334540,0.12817029,0.22393551,0.30798083
48373,0,USTexasPolk,Texas,Polk,2021-04-04 04:33:23.902358,2020-05-12 00:00:00.000000,0.03059950,0.07548866,0.14918351,15,38,76,9,22,48,0.01829186,0.04344883,0.09409387,0.12773727,0.22391622,0.30804480
48373,0,USTexasPolk,Texas,Polk,2021-04-04 04:33:23.902358,2020-05-13 00:00:00.000000,0.02931819,0.07525813,0.16160775,15,38,82,9,22,48,0.01763167,0.04359428,0.09347929,0.12817290,0.22427907,0.29519137
48373,0,USTexasPolk,Texas,Polk,2021-04-04 04:33:23.902358,2020-05-14 00:00:00.000000,0.02859608,0.07404682,0.16170148,14,38,83,8,22,47,0.01684890,0.04327959,0.09222622,0.12989454,0.22390454,0.29792801
48373,0,USTexasPolk,Texas,Polk,2021-04-04 04:33:23.902358,2020-05-15 00:00:00.000000,0.02946696,0.07361095,0.15885736,15,37,81,8,22,50,0.01614430,0.04285164,0.09900318,0.13476685,0.22382115,0.30019374
48373,0,USTexasPolk,Texas,Polk,2021-04-04 04:33:23.902358,2020-05-16 00:00:00.000000,0.02897443,0.07425965,0.15627645,14,38,80,8,22,50,0.01563753,0.04320847,0.09785305,0.13545871,0.22390460,0.32052227
48373,0,USTexasPolk,Texas,Polk,2021-04-04 04:33:23.902358,2020-05-17 00:00:00.000000,0.02771266,0.07418748,0.15420761,14,38,79,8,22,49,0.01608639,0.04291203,0.09628841,0.13642047,0.22619580,0.32654571
48373,0,USTexasPolk,Texas,Polk,2021-04-04 04:33:23.902358,2020-05-18 00:00:00.000000,0.02925466,0.07459850,0.15458230,15,38,79,7,22,48,0.01536892,0.04352340,0.09490264,0.13907034,0.22580494,0.32973399
48373,0,USTexasPolk,Texas,Polk,2021-04-04 04:33:23.902358,2020-05-19 00:00:00.000000,0.03181743,0.07423675,0.15679982,16,38,80,8,22,48,0.01650397,0.04374821,0.09382693,0.14053093,0.22775058,0.33605339
48373,0,USTexasPolk,Texas,Polk,2021-04-04 04:33:23.902358,2020-05-20 00:00:00.000000,0.03275687,0.07530815,0.15727804,16,38,80,8,23,47,0.01751051,0.04508160,0.09303494,0.14485596,0.22917021,0.33977946
48373,0,USTexasPolk,Texas,Polk,2021-04-04 04:33:23.902358,2020-05-21 00:00:00.000000,0.03371054,0.07564397,0.15774875,17,38,81,9,23,47,0.01803826,0.04541709,0.09336263,0.14721565,0.23121274,0.33478125
48373,0,USTexasPolk,Texas,Polk,2021-04-04 04:33:23.902358,2020-05-22 00:00:00.000000,0.03464434,0.07686620,0.15819292,17,39,81,9,23,48,0.01857073,0.04509283,0.09473128,0.14731134,0.23897121,0.33066120
48373,0,USTexasPolk,Texas,Polk,2021-04-04 04:33:23.902358,2020-05-23 00:00:00.000000,0.03554570,0.07817863,0.15835659,18,40,81,9,23,49,0.01909102,0.04600931,0.09634400,0.14753487,0.25019701,0.34236183
48373,0,USTexasPolk,Texas,Polk,2021-04-04 04:33:23.902358,2020-05-24 00:00:00.000000,0.03641015,0.07926198,0.15791231,18,40,81,10,24,50,0.01966590,0.04688867,0.09866243,0.14805832,0.25438323,0.35327171
48373,0,USTexasPolk,Texas,Polk,2021-04-04 04:33:23.902358,2020-05-25 00:00:00.000000,0.03800104,0.08217831,0.15750835,19,42,80,10,24,51,0.02007431,0.04747900,0.09956887,0.15434328,0.25838696,0.35373111
48373,0,USTexasPolk,Texas,Polk,2021-04-04 04:33:23.902358,2020-05-26 00:00:00.000000,0.03955600,0.08336858,0.15704351,20,42,80,10,24,51,0.02086449,0.04718288,0.09933786,0.15576356,0.26198196,0.36247206
48373,0,USTexasPolk,Texas,Polk,2021-04-04 04:33:23.902358,2020-05-27 00:00:00.000000,0.04090918,0.08464994,0.15658119,21,43,80,11,24,50,0.02169283,0.04790675,0.09907139,0.16721354,0.26468579,0.36668323
48373,0,USTexasPolk,Texas,Polk,2021-04-04 04:33:23.902358,2020-05-28 00:00:00.000000,0.04221100,0.08509162,0.15614817,21,43,80,11,25,50,0.02255386,0.04922012,0.09878981,0.17041932,0.27258701,0.36879465
48373,0,USTexasPolk,Texas,Polk,2021-04-04 04:33:23.902358,2020-05-29 00:00:00.000000,0.04361714,0.08684181,0.15588123,22,44,80,12,25,50,0.02339066,0.05023343,0.09851225,0.17691829,0.28044965,0.37012362
48373,0,USTexasPolk,Texas,Polk,2021-04-04 04:33:23.902358,2020-05-30 00:00:00.000000,0.04495900,0.08760862,0.16513819,23,44,84,12,26,51,0.02419838,0.05146307,0.09933646,0.18646055,0.29040545,0.37590479
48373,0,USTexasPolk,Texas,Polk,2021-04-04 04:33:23.902358,2020-05-31 00:00:00.000000,0.04641600,0.09073053,0.17505515,23,46,89,12,27,54,0.02498632,0.05293927,0.10522386,0.19958299,0.30586149,0.38571214
48373,0,USTexasPolk,Texas,Polk,2021-04-04 04:33:23.902358,2020-06-01 00:00:00.000000,0.04707410,0.09441872,0.18444250,24,48,94,13,27,57,0.02582115,0.05356648,0.11151856,0.20927800,0.30941814,0.40074653
48373,0,USTexasPolk,Texas,Polk,2021-04-04 04:33:23.902358,2020-06-02 00:00:00.000000,0.04714613,0.09972261,0.19447678,24,51,99,13,28,60,0.02707997,0.05462129,0.11775728,0.21251610,0.32244907,0.40940095
48373,0,USTexasPolk,Texas,Polk,2021-04-04 04:33:23.902358,2020-06-03 00:00:00.000000,0.04798623,0.10148716,0.20503191,24,52,105,14,29,62,0.02872771,0.05715446,0.12108809,0.21240368,0.33600036,0.41779427
48373,0,USTexasPolk,Texas,Polk,2021-04-04 04:33:23.902358,2020-06-04 00:00:00.000000,0.04784757,0.10556619,0.21615431,24,54,111,15,30,63,0.02942417,0.05966831,0.12460244,0.21212520,0.34418910,0.42550070
48373,0,USTexasPolk,Texas,Polk,2021-04-04 04:33:23.902358,2020-06-05 00:00:00.000000,0.04773819,0.10980484,0.22797082,24,56,117,15,31,66,0.02932309,0.06102759,0.12872939,0.22446511,0.34914113,0.43053906
48373,0,USTexasPolk,Texas,Polk,2021-04-04 04:33:23.902358,2020-06-06 00:00:00.000000,0.04979976,0.11391474,0.23869502,25,58,122,15,32,69,0.02922913,0.06390022,0.13606682,0.22705144,0.36462318,0.44851870
48373,0,USTexasPolk,Texas,Polk,2021-04-04 04:33:23.902358,2020-06-07 00:00:00.000000,0.05240341,0.11797723,0.24779862,26,60,127,15,33,74,0.02972425,0.06616249,0.14524902,0.23666945,0.37402062,0.47580947
48373,0,USTexasPolk,Texas,Polk,2021-04-04 04:33:23.902358,2020-06-08 00:00:00.000000,0.05883230,0.12256489,0.26909215,30,62,138,16,34,79,0.03124104,0.06751370,0.15484279,0.25454945,0.38713034,0.47983788
48373,0,USTexasPolk,Texas,Polk,2021-04-04 04:33:23.902358,2020-06-09 00:00:00.000000,0.06083419,0.12818518,0.29180974,31,65,149,17,36,84,0.03490434,0.07079608,0.16382581,0.28061457,0.39864163,0.50509130
48373,0,USTexasPolk,Texas,Polk,2021-04-04 04:33:23.902358,2020-06-10 00:00:00.000000,0.06308820,0.13222923,0.30459090,32,67,156,20,37,88,0.03942906,0.07396217,0.17287766,0.28198678,0.41288837,0.52331667
48373,0,USTexasPolk,Texas,Polk,2021-04-04 04:33:23.902358,2020-06-11 00:00:00.000000,0.06863954,0.13619233,0.31450725,35,69,161,21,39,93,0.04105717,0.07710587,0.18249126,0.28467133,0.42215448,0.54103046
48373,0,USTexasPolk,Texas,Polk,2021-04-04 04:33:23.902358,2020-06-12 00:00:00.000000,0.07594815,0.14748951,0.32598629,39,75,167,21,41,98,0.04274451,0.08073365,0.19249761,0.32215158,0.43193046,0.58572166
48373,0,USTexasPolk,Texas,Polk,2021-04-04 04:33:23.902358,2020-06-13 00:00:00.000000,0.08509442,0.15840583,0.34051933,43,81,174,23,43,104,0.04593541,0.08546024,0.20282502,0.32994838,0.45812116,0.60350486
48373,0,USTexasPolk,Texas,Polk,2021-04-04 04:33:23.902358,2020-06-14 00:00:00.000000,0.09550879,0.16696678,0.35871826,49,85,184,26,46,109,0.05086773,0.09090944,0.21373896,0.34520472,0.47834014,0.61695970
48373,0,USTexasPolk,Texas,Polk,2021-04-04 04:33:23.902358,2020-06-15 00:00:00.000000,0.10491944,0.18511833,0.38090367,53,95,195,29,49,115,0.05700445,0.09661653,0.22540397,0.36727489,0.49663791,0.64261392
48373,0,USTexasPolk,Texas,Polk,2021-04-04 04:33:23.902358,2020-06-16 00:00:00.000000,0.11801040,0.20127894,0.40508188,60,103,208,31,53,121,0.06212207,0.10477444,0.23752941,0.36725842,0.50891495,0.66337264
48373,0,USTexasPolk,Texas,Polk,2021-04-04 04:33:23.902358,2020-06-17 00:00:00.000000,0.13296068,0.22481166,0.44360961,68,115,227,35,59,128,0.06908607,0.11622448,0.25044073,0.38639669,0.52036671,0.69103979
48373,0,USTexasPolk,Texas,Polk,2021-04-04 04:33:23.902358,2020-06-18 00:00:00.000000,0.14635746,0.25474734,0.49269894,75,130,253,38,66,136,0.07559502,0.12952953,0.26581375,0.41498296,0.53772163,0.70595008
48373,0,USTexasPolk,Texas,Polk,2021-04-04 04:33:23.902358,2020-06-19 00:00:00.000000,0.16145371,0.28214455,0.54386814,82,144,279,42,75,152,0.08268288,0.14623112,0.29628777,0.42202080,0.55450812,0.74609422
48373,0,USTexasPolk,Texas,Polk,2021-04-04 04:33:23.902358,2020-06-20 00:00:00.000000,0.17817301,0.31031133,0.60146838,91,159,308,46,83,169,0.09072066,0.16217508,0.32928629,0.44469379,0.57194400,0.78395028
48373,0,USTexasPolk,Texas,Polk,2021-04-04 04:33:23.902358,2020-06-21 00:00:00.000000,0.19661032,0.34111868,0.66603562,100,175,342,51,91,187,0.10025875,0.17894593,0.36505993,0.44808540,0.59946995,0.79736329
48373,0,USTexasPolk,Texas,Polk,2021-04-04 04:33:23.902358,2020-06-22 00:00:00.000000,0.22494707,0.38354892,0.73317465,115,196,376,57,100,207,0.11202944,0.19494078,0.40411825,0.44847219,0.62928590,0.80135274
48373,0,USTexasPolk,Texas,Polk,2021-04-04 04:33:23.902358,2020-06-23 00:00:00.000000,0.25612167,0.43047130,0.77982877,131,221,400,66,113,227,0.12864882,0.22020974,0.44249565,0.43930058,0.64987905,0.80472184
48373,0,USTexasPolk,Texas,Polk,2021-04-04 04:33:23.902358,2020-06-24 00:00:00.000000,0.29900665,0.47042014,0.82603658,153,241,424,74,127,247,0.14569313,0.24851989,0.48254837,0.43026136,0.65867684,0.80378021
48373,0,USTexasPolk,Texas,Polk,2021-04-04 04:33:23.902358,2020-06-25 00:00:00.000000,0.34410568,0.52092542,0.88646385,176,267,455,83,140,262,0.16289471,0.27362070,0.51031120,0.42877312,0.65665273,0.82026989
48373,0,USTexasPolk,Texas,Polk,2021-04-04 04:33:23.902358,2020-06-26 00:00:00.000000,0.37881418,0.59089902,0.94387720,194,303,484,93,156,286,0.18244744,0.30436376,0.55841927,0.43745079,0.65305734,0.83549088
48373,0,USTexasPolk,Texas,Polk,2021-04-04 04:33:23.902358,2020-06-27 00:00:00.000000,0.41802382,0.66970185,1.01477057,214,343,521,105,174,304,0.20465811,0.33960229,0.59276558,0.46080942,0.65974291,0.85389796
48373,0,USTexasPolk,Texas,Polk,2021-04-04 04:33:23.902358,2020-06-28 00:00:00.000000,0.47333435,0.75427830,1.09032704,243,387,559,117,194,324,0.22948124,0.37789915,0.63123076,0.47723377,0.66307524,0.88757825
48373,0,USTexasPolk,Texas,Polk,2021-04-04 04:33:23.902358,2020-06-29 00:00:00.000000,0.53288294,0.82721806,1.17423415,273,424,603,132,218,346,0.25708662,0.42478341,0.67565474,0.48602198,0.66496244,0.90528467
48373,0,USTexasPolk,Texas,Polk,2021-04-04 04:33:23.902358,2020-06-30 00:00:00.000000,0.59441319,0.91517864,1.31830572,305,469,676,147,240,374,0.28807955,0.46800113,0.72977227,0.50483972,0.65045185,0.89993821
48373,0,USTexasPolk,Texas,Polk,2021-04-04 04:33:23.902358,2020-07-01 00:00:00.000000,0.66566747,1.02782100,1.42602487,341,527,732,163,269,406,0.31846006,0.52574692,0.79162327,0.50770352,0.64545744,0.85210073
48373,0,USTexasPolk,Texas,Polk,2021-04-04 04:33:23.902358,2020-07-02 00:00:00.000000,0.75528270,1.13776285,1.53380156,387,584,787,185,302,444,0.36076460,0.58968733,0.86528078,0.49233138,0.64486820,0.83670510
48373,0,USTexasPolk,Texas,Polk,2021-04-04 04:33:23.902358,2020-07-03 00:00:00.000000,0.84177798,1.24432974,1.64684830,432,639,845,208,335,498,0.40584709,0.65381089,0.97078149,0.48645458,0.64544992,0.82950912
48373,0,USTexasPolk,Texas,Polk,2021-04-04 04:33:23.902358,2020-07-04 00:00:00.000000,0.92864197,1.36232015,1.77800222,476,699,913,232,376,529,0.45200541,0.73231408,1.03122888,0.48610870,0.63223119,0.82699158
48373,0,USTexasPolk,Texas,Polk,2021-04-04 04:33:23.902358,2020-07-05 00:00:00.000000,1.01806547,1.49002662,1.94710434,522,765,999,258,413,561,0.50323806,0.80515961,1.09402770,0.45520413,0.60905598,0.81673772
48373,0,USTexasPolk,Texas,Polk,2021-04-04 04:33:23.902358,2020-07-06 00:00:00.000000,1.09470345,1.61277918,2.12771785,562,828,1092,287,452,605,0.56002698,0.88021134,1.17955171,0.44000213,0.59670994,0.77863574
48373,0,USTexasPolk,Texas,Polk,2021-04-04 04:33:23.902358,2020-07-07 00:00:00.000000,1.14523177,1.73053488,2.31831943,588,888,1190,312,488,650,0.60764407,0.95163881,1.26683951,0.41913041,0.56347720,0.71740773
48373,0,USTexasPolk,Texas,Polk,2021-04-04 04:33:23.902358,2020-07-08 00:00:00.000000,1.21207818,1.85124964,2.51396427,622,950,1290,323,530,697,0.63083557,1.03219104,1.35918932,0.39934930,0.55198261,0.71532646
48373,0,USTexasPolk,Texas,Polk,2021-04-04 04:33:23.902358,2020-07-09 00:00:00.000000,1.28002406,1.95176780,2.70817265,657,1002,1390,338,561,752,0.66012635,1.09342774,1.46547444,0.38356709,0.53065147,0.70950622
48373,0,USTexasPolk,Texas,Polk,2021-04-04 04:33:23.902358,2020-07-10 00:00:00.000000,1.35128127,2.06306742,2.86877619,693,1059,1473,357,602,804,0.69595791,1.17305799,1.56705348,0.38312061,0.50824633,0.70155426
48373,0,USTexasPolk,Texas,Polk,2021-04-04 04:33:23.902358,2020-07-11 00:00:00.000000,1.42679170,2.17970514,3.01445182,732,1119,1548,373,641,872,0.72653734,1.24950772,1.69961061,0.37408468,0.48988911,0.69410316
48373,0,USTexasPolk,Texas,Polk,2021-04-04 04:33:23.902358,2020-07-12 00:00:00.000000,1.50671364,2.28284027,3.19460456,773,1172,1640,388,681,916,0.75741527,1.32747105,1.78488013,0.35729681,0.45852131,0.69036971
48373,0,USTexasPolk,Texas,Polk,2021-04-04 04:33:23.902358,2020-07-13 00:00:00.000000,1.56344820,2.35747082,3.35115046,802,1210,1720,404,709,946,0.78842693,1.38118516,1.84292899,0.35313522,0.43910674,0.64302072
48373,0,USTexasPolk,Texas,Polk,2021-04-04 04:33:23.902358,2020-07-14 00:00:00.000000,1.58890609,2.44277018,3.47315760,815,1254,1783,421,731,972,0.82018334,1.42373762,1.89472233,0.31255974,0.43211162,0.60719990
48373,0,USTexasPolk,Texas,Polk,2021-04-04 04:33:23.902358,2020-07-15 00:00:00.000000,1.60603750,2.51831938,3.57654178,824,1293,1836,437,756,1000,0.85245464,1.47342206,1.94868752,0.30932641,0.41751002,0.53695955
48373,0,USTexasPolk,Texas,Polk,2021-04-04 04:33:23.902358,2020-07-16 00:00:00.000000,1.61275284,2.55481282,3.66846723,828,1311,1883,454,781,1041,0.88433539,1.52125160,2.02734923,0.30726777,0.40594243,0.52647633
48373,0,USTexasPolk,Texas,Polk,2021-04-04 04:33:23.902358,2020-07-17 00:00:00.000000,1.60680014,2.57931048,3.76292294,825,1324,1932,456,798,1095,0.88855574,1.55562915,2.13308079,0.28202182,0.39440902,0.51608524
48373,0,USTexasPolk,Texas,Polk,2021-04-04 04:33:23.902358,2020-07-18 00:00:00.000000,1.62225738,2.59989037,3.89963527,833,1335,2002,454,819,1133,0.88585285,1.59558567,2.20685037,0.25121490,0.36326700,0.51031076
48373,0,USTexasPolk,Texas,Polk,2021-04-04 04:33:23.902358,2020-07-19 00:00:00.000000,1.63421309,2.63290491,3.81169328,839,1352,1957,463,815,1162,0.90251046,1.58782800,2.26302718,0.23056316,0.34741503,0.50277257
48373,0,USTexasPolk,Texas,Polk,2021-04-04 04:33:23.902358,2020-07-20 00:00:00.000000,1.61782796,2.62479565,3.68846096,830,1347,1894,467,811,1182,0.91103133,1.57980420,2.30251090,0.21564830,0.32460061,0.46644864
48373,0,USTexasPolk,Texas,Polk,2021-04-04 04:33:23.902358,2020-07-21 00:00:00.000000,1.57876970,2.55802478,3.65218600,810,1313,1875,464,808,1220,0.90429125,1.57385695,2.37595700,0.20988319,0.30297608,0.38473404
48373,0,USTexasPolk,Texas,Polk,2021-04-04 04:33:23.902358,2020-07-22 00:00:00.000000,1.51967999,2.49473449,3.57779429,780,1281,1837,453,789,1197,0.88395157,1.53696474,2.33226215,0.20499051,0.27442468,0.37380828
48373,0,USTexasPolk,Texas,Polk,2021-04-04 04:33:23.902358,2020-07-23 00:00:00.000000,1.44379450,2.41008759,3.49799700,741,1237,1796,437,774,1179,0.85214079,1.50828277,2.29698359,0.17346311,0.26175240,0.36856285
48373,0,USTexasPolk,Texas,Polk,2021-04-04 04:33:23.902358,2020-07-24 00:00:00.000000,1.35491740,2.28425114,3.36574256,695,1173,1728,416,759,1147,0.81077496,1.47933413,2.23407083,0.16091544,0.24061300,0.35779777
48373,0,USTexasPolk,Texas,Polk,2021-04-04 04:33:23.902358,2020-07-25 00:00:00.000000,1.26687725,2.18441826,3.26400265,650,1121,1676,391,727,1105,0.76190630,1.41744742,2.15251647,0.15229019,0.22334300,0.34088871
48373,0,USTexasPolk,Texas,Polk,2021-04-04 04:33:23.902358,2020-07-26 00:00:00.000000,1.19063060,2.06823041,3.16165868,611,1062,1623,363,686,1078,0.70846656,1.33666776,2.09920978,0.14840296,0.21538273,0.32501108
48373,0,USTexasPolk,Texas,Polk,2021-04-04 04:33:23.902358,2020-07-27 00:00:00.000000,1.10700875,1.95485321,3.03968341,568,1003,1560,338,641,1040,0.65876893,1.24992679,2.02649878,0.14764601,0.20530298,0.28152403
48373,0,USTexasPolk,Texas,Polk,2021-04-04 04:33:23.902358,2020-07-28 00:00:00.000000,1.02211908,1.84855478,2.90779730,524,949,1493,314,610,1012,0.61269359,1.18949568,1.97201723,0.14611549,0.19846456,0.27697519
48373,0,USTexasPolk,Texas,Polk,2021-04-04 04:33:23.902358,2020-07-29 00:00:00.000000,0.93928095,1.73593643,2.77386106,482,891,1424,290,582,972,0.56551163,1.13374413,1.89371762,0.14207581,0.19499685,0.27447826
48373,0,USTexasPolk,Texas,Polk,2021-04-04 04:33:23.902358,2020-07-30 00:00:00.000000,0.86017224,1.63804630,2.64077595,441,841,1356,266,550,930,0.51950722,1.07113432,1.81147339,0.12472843,0.19336426,0.25043321
48373,0,USTexasPolk,Texas,Polk,2021-04-04 04:33:23.902358,2020-07-31 00:00:00.000000,0.78524094,1.52851390,2.50721020,403,784,1287,244,517,887,0.47568588,1.00845510,1.72806864,0.12139021,0.19386420,0.25061662
48373,0,USTexasPolk,Texas,Polk,2021-04-04 04:33:23.902358,2020-08-01 00:00:00.000000,0.71419306,1.43001716,2.37476250,366,734,1219,223,483,844,0.43426440,0.94233837,1.64384913,0.11507621,0.19170990,0.24712092
48373,0,USTexasPolk,Texas,Polk,2021-04-04 04:33:23.902358,2020-08-02 00:00:00.000000,0.64652459,1.34187585,2.24707150,332,689,1153,202,451,800,0.39504909,0.87849403,1.55935084,0.11003018,0.18367507,0.24655707
48373,0,USTexasPolk,Texas,Polk,2021-04-04 04:33:23.902358,2020-08-03 00:00:00.000000,0.58304034,1.26346079,2.11958774,299,648,1088,183,418,758,0.35772793,0.81414212,1.47626701,0.10644505,0.18095726,0.24031671
48373,0,USTexasPolk,Texas,Polk,2021-04-04 04:33:23.902358,2020-08-04 00:00:00.000000,0.52281833,1.18529450,2.00238960,268,608,1028,165,392,716,0.32260648,0.76428002,1.39446313,0.10626068,0.17666673,0.24058585
48373,0,USTexasPolk,Texas,Polk,2021-04-04 04:33:23.902358,2020-08-05 00:00:00.000000,0.46653671,1.10791518,1.89345091,239,568,972,148,365,675,0.28938482,0.71245043,1.31500240,0.10625128,0.17163434,0.24098539
48373,0,USTexasPolk,Texas,Polk,2021-04-04 04:33:23.902358,2020-08-06 00:00:00.000000,0.41497089,1.03205313,1.80139547,213,529,925,132,340,637,0.25825465,0.66307106,1.24129310,0.10560335,0.17035650,0.23181263
48373,0,USTexasPolk,Texas,Polk,2021-04-04 04:33:23.902358,2020-08-07 00:00:00.000000,0.36883033,0.95373653,1.70270337,189,489,874,117,316,606,0.22966265,0.61580680,1.18196219,0.10267153,0.16429542,0.23175923
48373,0,USTexasPolk,Texas,Polk,2021-04-04 04:33:23.902358,2020-08-08 00:00:00.000000,0.33739349,0.87274186,1.60480166,173,448,824,106,293,575,0.20767084,0.57075477,1.12152149,0.09638562,0.16056280,0.23022324
48373,0,USTexasPolk,Texas,Polk,2021-04-04 04:33:23.902358,2020-08-09 00:00:00.000000,0.30908350,0.79934271,1.50804387,158,410,774,97,271,543,0.18996363,0.52817245,1.05856975,0.09286848,0.15424008,0.22605466
48373,0,USTexasPolk,Texas,Polk,2021-04-04 04:33:23.902358,2020-08-10 00:00:00.000000,0.28187561,0.72740366,1.40966413,144,373,723,89,250,511,0.17402278,0.48825562,0.99626848,0.09075761,0.15459296,0.21778054
48373,0,USTexasPolk,Texas,Polk,2021-04-04 04:33:23.902358,2020-08-11 00:00:00.000000,0.25731758,0.66715891,1.31376592,132,342,674,81,230,479,0.15892536,0.44874181,0.93346989,0.08957416,0.15406230,0.21178931
48373,0,USTexasPolk,Texas,Polk,2021-04-04 04:33:23.902358,2020-08-12 00:00:00.000000,0.23516896,0.61896947,1.22110239,120,317,627,74,207,447,0.14475935,0.40323928,0.87150124,0.08861816,0.15481990,0.21227452
48373,0,USTexasPolk,Texas,Polk,2021-04-04 04:33:23.902358,2020-08-13 00:00:00.000000,0.21478233,0.57255421,1.13267947,110,294,581,67,188,416,0.13228168,0.36621974,0.81129243,0.08826198,0.15413095,0.21166542
48373,0,USTexasPolk,Texas,Polk,2021-04-04 04:33:23.902358,2020-08-14 00:00:00.000000,0.19659074,0.53012326,1.04920903,100,272,538,62,171,386,0.12116153,0.33482415,0.75353738,0.08893502,0.15053174,0.21288694
48373,0,USTexasPolk,Texas,Polk,2021-04-04 04:33:23.902358,2020-08-15 00:00:00.000000,0.18056411,0.49126497,0.98731368,92,252,507,57,159,358,0.11134540,0.30969883,0.69874618,0.09201893,0.15031397,0.21703893
48373,0,USTexasPolk,Texas,Polk,2021-04-04 04:33:23.902358,2020-08-16 00:00:00.000000,0.16637172,0.45563969,0.93149433,85,233,478,52,147,333,0.10272499,0.28668504,0.64885070,0.09328660,0.15013390,0.22178423
48373,0,USTexasPolk,Texas,Polk,2021-04-04 04:33:23.902358,2020-08-17 00:00:00.000000,0.15417717,0.42753393,0.87199742,79,219,447,48,136,319,0.09514588,0.26559762,0.62222520,0.09172814,0.15219073,0.22499071
48373,0,USTexasPolk,Texas,Polk,2021-04-04 04:33:23.902358,2020-08-18 00:00:00.000000,0.14335527,0.40176530,0.82835185,73,206,425,45,126,306,0.08857315,0.24692775,0.59610228,0.09178370,0.15316737,0.22680565
48373,0,USTexasPolk,Texas,Polk,2021-04-04 04:33:23.902358,2020-08-19 00:00:00.000000,0.13376520,0.37512970,0.79788534,68,192,409,42,118,291,0.08257271,0.23016813,0.56672745,0.09192390,0.15423916,0.22771469
48373,0,USTexasPolk,Texas,Polk,2021-04-04 04:33:23.902358,2020-08-20 00:00:00.000000,0.12524463,0.34698516,0.75506551,64,178,387,39,110,273,0.07701114,0.21562273,0.53309734,0.09505022,0.15565446,0.22831132
48373,0,USTexasPolk,Texas,Polk,2021-04-04 04:33:23.902358,2020-08-21 00:00:00.000000,0.11780801,0.32080224,0.71470199,60,164,367,36,104,257,0.07199059,0.20324357,0.50158253,0.10169415,0.15824192,0.22921766
48373,0,USTexasPolk,Texas,Polk,2021-04-04 04:33:23.902358,2020-08-22 00:00:00.000000,0.11191727,0.29952204,0.67061583,57,153,344,34,96,242,0.06745776,0.18819341,0.47188133,0.10253683,0.16385928,0.23213561
48373,0,USTexasPolk,Texas,Polk,2021-04-04 04:33:23.902358,2020-08-23 00:00:00.000000,0.10671756,0.27642455,0.62756074,54,141,322,32,90,229,0.06340102,0.17551976,0.44593532,0.10285034,0.16762671,0.24147733
48373,0,USTexasPolk,Texas,Polk,2021-04-04 04:33:23.902358,2020-08-24 00:00:00.000000,0.10121447,0.25900767,0.58991779,51,133,302,30,85,220,0.05988295,0.16630427,0.43009436,0.10272484,0.17022954,0.25809125
48373,0,USTexasPolk,Texas,Polk,2021-04-04 04:33:23.902358,2020-08-25 00:00:00.000000,0.09566567,0.24141280,0.56371696,49,123,289,29,80,213,0.05745094,0.15640341,0.41534222,0.10445737,0.17404890,0.27778257
48373,0,USTexasPolk,Texas,Polk,2021-04-04 04:33:23.902358,2020-08-26 00:00:00.000000,0.09046283,0.22447734,0.53482990,46,115,274,28,75,202,0.05529666,0.14610200,0.39462340,0.11014984,0.17788064,0.29480977
48373,0,USTexasPolk,Texas,Polk,2021-04-04 04:33:23.902358,2020-08-27 00:00:00.000000,0.08581834,0.21002527,0.50326716,44,107,258,26,71,191,0.05225163,0.13873193,0.37269686,0.11451853,0.18264868,0.30900607
48373,0,USTexasPolk,Texas,Polk,2021-04-04 04:33:23.902358,2020-08-28 00:00:00.000000,0.08181129,0.19858734,0.48063635,42,101,246,25,67,181,0.04954119,0.13118238,0.35284763,0.12530583,0.19094602,0.32043115
48373,0,USTexasPolk,Texas,Polk,2021-04-04 04:33:23.902358,2020-08-29 00:00:00.000000,0.07843538,0.18844476,0.46555980,40,96,239,24,63,170,0.04720206,0.12382140,0.33215023,0.12622707,0.19374038,0.33142313
48373,0,USTexasPolk,Texas,Polk,2021-04-04 04:33:23.902358,2020-08-30 00:00:00.000000,0.07482434,0.18193964,0.45323444,38,93,232,23,59,160,0.04523109,0.11597792,0.31248197,0.12799230,0.19970308,0.33760247
48373,0,USTexasPolk,Texas,Polk,2021-04-04 04:33:23.902358,2020-08-31 00:00:00.000000,0.07183374,0.17401786,0.45115837,36,89,231,22,55,153,0.04358706,0.10882871,0.29840578,0.12824690,0.20781033,0.34409193
48373,0,USTexasPolk,Texas,Polk,2021-04-04 04:33:23.902358,2020-09-01 00:00:00.000000,0.06972784,0.16621315,0.43936263,35,85,225,21,53,147,0.04200940,0.10366766,0.28666344,0.12828519,0.21502539,0.34980544
48373,0,USTexasPolk,Texas,Polk,2021-04-04 04:33:23.902358,2020-09-02 00:00:00.000000,0.06784194,0.16050962,0.42459907,34,82,218,20,50,142,0.04058117,0.09857885,0.27804227,0.12833402,0.22556088,0.35539193
48373,0,USTexasPolk,Texas,Polk,2021-04-04 04:33:23.902358,2020-09-03 00:00:00.000000,0.06619528,0.15617022,0.41301963,33,80,212,20,48,139,0.03930961,0.09458610,0.27207439,0.13278897,0.23657945,0.36143966
48373,0,USTexasPolk,Texas,Polk,2021-04-04 04:33:23.902358,2020-09-04 00:00:00.000000,0.06481452,0.15473525,0.40486932,33,79,207,19,47,136,0.03819542,0.09159814,0.26628300,0.13710673,0.23507133,0.38959209
48373,0,USTexasPolk,Texas,Polk,2021-04-04 04:33:23.902358,2020-09-05 00:00:00.000000,0.06372332,0.15061728,0.39744299,32,77,204,19,47,134,0.03725033,0.09172399,0.26095998,0.14765750,0.24317527,0.40853429
48373,0,USTexasPolk,Texas,Polk,2021-04-04 04:33:23.902358,2020-09-06 00:00:00.000000,0.06292687,0.15026699,0.39067278,32,77,200,18,47,131,0.03650140,0.09190770,0.25593486,0.15097745,0.25090436,0.41321997
48373,0,USTexasPolk,Texas,Polk,2021-04-04 04:33:23.902358,2020-09-07 00:00:00.000000,0.06223322,0.15017501,0.38513803,31,77,197,18,47,129,0.03602929,0.09204547,0.25125461,0.15481733,0.26440968,0.41416894
48373,0,USTexasPolk,Texas,Polk,2021-04-04 04:33:23.902358,2020-09-08 00:00:00.000000,0.06182997,0.15320029,0.37507358,31,78,192,18,46,124,0.03563627,0.09034603,0.24164161,0.15696258,0.27242161,0.41436311
48373,0,USTexasPolk,Texas,Polk,2021-04-04 04:33:23.902358,2020-09-09 00:00:00.000000,0.06192526,0.16038638,0.36521847,31,82,187,18,45,119,0.03538051,0.08915726,0.23324071,0.15943864,0.27449848,0.42696005
48373,0,USTexasPolk,Texas,Polk,2021-04-04 04:33:23.902358,2020-09-10 00:00:00.000000,0.06344023,0.16008039,0.35641928,32,82,183,18,45,116,0.03529287,0.08936423,0.22604963,0.16262391,0.27632506,0.47867436
48373,0,USTexasPolk,Texas,Polk,2021-04-04 04:33:23.902358,2020-09-11 00:00:00.000000,0.06586654,0.16062967,0.34838205,33,82,178,18,45,112,0.03538009,0.08874212,0.21965773,0.16854410,0.27933018,0.51406933
48373,0,USTexasPolk,Texas,Polk,2021-04-04 04:33:23.902358,2020-09-12 00:00:00.000000,0.06887648,0.16418964,0.34154542,35,84,175,18,47,109,0.03614821,0.09342939,0.21401885,0.18317178,0.28598419,0.50331770
48373,0,USTexasPolk,Texas,Polk,2021-04-04 04:33:23.902358,2020-09-13 00:00:00.000000,0.07223990,0.16574191,0.33541924,37,85,172,19,49,107,0.03781215,0.09620871,0.20912093,0.20265313,0.28790360,0.52409583
48373,0,USTexasPolk,Texas,Polk,2021-04-04 04:33:23.902358,2020-09-14 00:00:00.000000,0.07838587,0.17159477,0.32955060,40,88,169,20,49,105,0.03967559,0.09559954,0.20500024,0.22119841,0.30302225,0.53248206
48373,0,USTexasPolk,Texas,Polk,2021-04-04 04:33:23.902358,2020-09-15 00:00:00.000000,0.08468881,0.17175912,0.32418191,43,88,166,21,49,103,0.04283679,0.09689951,0.20147790,0.22189346,0.31581700,0.53436714
48373,0,USTexasPolk,Texas,Polk,2021-04-04 04:33:23.902358,2020-09-16 00:00:00.000000,0.09148072,0.17690371,0.31932933,46,90,163,23,50,101,0.04641155,0.09923306,0.19846056,0.22195190,0.33151380,0.53449714
48373,0,USTexasPolk,Texas,Polk,2021-04-04 04:33:23.902358,2020-09-17 00:00:00.000000,0.09854889,0.18155766,0.31483976,50,93,161,25,52,100,0.05017403,0.10230159,0.19584031,0.22212293,0.34496096,0.53456160
48373,0,USTexasPolk,Texas,Polk,2021-04-04 04:33:23.902358,2020-09-18 00:00:00.000000,0.10499055,0.18499041,0.31280017,53,94,160,27,52,99,0.05406760,0.10295812,0.19356331,0.22296053,0.36441244,0.53456880
48373,0,USTexasPolk,Texas,Polk,2021-04-04 04:33:23.902358,2020-09-19 00:00:00.000000,0.10692721,0.19227250,0.31233067,54,98,160,29,53,98,0.05807787,0.10460101,0.19165982,0.22581708,0.37748404,0.54713442
48373,0,USTexasPolk,Texas,Polk,2021-04-04 04:33:23.902358,2020-09-20 00:00:00.000000,0.10793431,0.19732534,0.31244796,55,101,160,31,55,97,0.06219009,0.10789458,0.19019413,0.23980023,0.39963582,0.56140522
48373,0,USTexasPolk,Texas,Polk,2021-04-04 04:33:23.902358,2020-09-21 00:00:00.000000,0.11211687,0.20699565,0.32151041,57,106,165,32,57,97,0.06335560,0.11284312,0.19016324,0.25105245,0.42445341,0.59647583
48373,0,USTexasPolk,Texas,Polk,2021-04-04 04:33:23.902358,2020-09-22 00:00:00.000000,0.11742236,0.21458732,0.33883786,60,110,174,33,61,100,0.06556446,0.11917131,0.19639246,0.25655669,0.43768995,0.62457306
48373,0,USTexasPolk,Texas,Polk,2021-04-04 04:33:23.902358,2020-09-23 00:00:00.000000,0.12621657,0.22450308,0.35615003,64,115,182,35,64,106,0.06875124,0.12573403,0.20704731,0.26452828,0.45015643,0.62959838
48373,0,USTexasPolk,Texas,Polk,2021-04-04 04:33:23.902358,2020-09-24 00:00:00.000000,0.14164033,0.23680221,0.37442296,72,121,192,37,67,111,0.07376719,0.13088425,0.21804826,0.27755414,0.45335955,0.67438210
48373,0,USTexasPolk,Texas,Polk,2021-04-04 04:33:23.902358,2020-09-25 00:00:00.000000,0.15629191,0.24917128,0.39383451,80,127,202,41,70,117,0.08010268,0.13643968,0.22922003,0.29645563,0.48759544,0.75072256
48373,0,USTexasPolk,Texas,Polk,2021-04-04 04:33:23.902358,2020-09-26 00:00:00.000000,0.16027243,0.25782560,0.40453546,82,132,207,46,74,123,0.09037885,0.14481627,0.24104038,0.32702051,0.49782096,0.78563179
48373,0,USTexasPolk,Texas,Polk,2021-04-04 04:33:23.902358,2020-09-27 00:00:00.000000,0.17220021,0.27832980,0.43067595,88,142,221,49,77,130,0.09553555,0.15084864,0.25362202,0.34162453,0.51981169,0.81424351
48373,0,USTexasPolk,Texas,Polk,2021-04-04 04:33:23.902358,2020-09-28 00:00:00.000000,0.18684896,0.29899678,0.46343595,95,153,237,51,81,133,0.10051965,0.15852363,0.25965827,0.34341594,0.54425571,0.83640149
48373,0,USTexasPolk,Texas,Polk,2021-04-04 04:33:23.902358,2020-09-29 00:00:00.000000,0.19143343,0.31747605,0.49935285,98,163,256,55,85,134,0.10821153,0.16725471,0.26264128,0.34703855,0.55514932,0.85939249
48373,0,USTexasPolk,Texas,Polk,2021-04-04 04:33:23.902358,2020-09-30 00:00:00.000000,0.19700629,0.34237029,0.53788572,101,175,276,61,91,141,0.11975014,0.17816517,0.27563163,0.35659973,0.58155929,0.91521671
48373,0,USTexasPolk,Texas,Polk,2021-04-04 04:33:23.902358,2020-10-01 00:00:00.000000,0.20408548,0.37065715,0.57921407,104,190,297,68,99,153,0.13281785,0.19339189,0.29890315,0.40530378,0.63344741,0.94441596
48373,0,USTexasPolk,Texas,Polk,2021-04-04 04:33:23.902358,2020-10-02 00:00:00.000000,0.21947601,0.42163688,0.63155355,112,216,324,73,110,165,0.14276642,0.21447637,0.32238552,0.42900205,0.67542771,0.96059404
48373,0,USTexasPolk,Texas,Polk,2021-04-04 04:33:23.902358,2020-10-03 00:00:00.000000,0.24793702,0.47094308,0.70411294,127,241,361,76,120,176,0.14927382,0.23558222,0.34356377,0.44597827,0.71072689,1.02069846
48373,0,USTexasPolk,Texas,Polk,2021-04-04 04:33:23.902358,2020-10-04 00:00:00.000000,0.28457312,0.52358590,0.78845622,146,268,404,81,134,194,0.15849249,0.26219320,0.37830918,0.46811224,0.73777468,1.03232310
48373,0,USTexasPolk,Texas,Polk,2021-04-04 04:33:23.902358,2020-10-05 00:00:00.000000,0.33108919,0.59075468,0.89137700,170,303,457,87,150,213,0.17093250,0.29367523,0.41657537,0.50075681,0.75689752,1.03210655
48373,0,USTexasPolk,Texas,Polk,2021-04-04 04:33:23.902358,2020-10-06 00:00:00.000000,0.36662980,0.66735162,1.00593721,188,342,516,99,169,238,0.19309942,0.33100255,0.46493121,0.51527864,0.77973897,1.03426698
48373,0,USTexasPolk,Texas,Polk,2021-04-04 04:33:23.902358,2020-10-07 00:00:00.000000,0.40210250,0.75651487,1.11764803,206,388,573,115,190,270,0.22426314,0.37129394,0.52709215,0.51458059,0.79181076,1.04129261
48373,0,USTexasPolk,Texas,Polk,2021-04-04 04:33:23.902358,2020-10-08 00:00:00.000000,0.46803564,0.85901594,1.24221410,240,441,637,131,211,306,0.25696731,0.41282560,0.59616285,0.55197932,0.82165976,1.05788523
48373,0,USTexasPolk,Texas,Polk,2021-04-04 04:33:23.902358,2020-10-09 00:00:00.000000,0.52445597,0.98017054,1.38947846,269,503,713,153,239,345,0.29889875,0.46725723,0.67263345,0.62196024,0.86898332,1.12953576
48373,0,USTexasPolk,Texas,Polk,2021-04-04 04:33:23.902358,2020-10-10 00:00:00.000000,0.58410701,1.10513519,1.56638288,299,567,804,178,273,389,0.34723687,0.53266566,0.75826313,0.64533976,0.89031691,1.19600791
48373,0,USTexasPolk,Texas,Polk,2021-04-04 04:33:23.902358,2020-10-11 00:00:00.000000,0.65169439,1.24331529,1.76743055,334,638,907,197,306,438,0.38415563,0.59729876,0.85403153,0.67524394,0.90459063,1.22127766
48373,0,USTexasPolk,Texas,Polk,2021-04-04 04:33:23.902358,2020-10-12 00:00:00.000000,0.72609651,1.40236494,1.98708473,372,720,1020,219,346,493,0.42691456,0.67540822,0.96100653,0.68747961,0.90879438,1.21985908
48373,0,USTexasPolk,Texas,Polk,2021-04-04 04:33:23.902358,2020-10-13 00:00:00.000000,0.81034054,1.58911928,2.23310731,416,816,1146,248,390,554,0.48397806,0.76046979,1.07925774,0.70020917,0.91123016,1.21619775
48373,0,USTexasPolk,Texas,Polk,2021-04-04 04:33:23.902358,2020-10-14 00:00:00.000000,0.94426841,1.79167856,2.52215799,484,920,1295,283,440,628,0.55232272,0.85749617,1.22451901,0.72023804,0.91036275,1.20419632
48373,0,USTexasPolk,Texas,Polk,2021-04-04 04:33:23.902358,2020-10-15 00:00:00.000000,1.10455142,2.01156920,2.88367895,567,1033,1480,321,503,718,0.62560009,0.97969069,1.39843951,0.73550324,0.91637597,1.15785999
48373,0,USTexasPolk,Texas,Polk,2021-04-04 04:33:23.902358,2020-10-16 00:00:00.000000,1.29112952,2.27664485,3.24494385,663,1169,1666,363,571,816,0.70851687,1.11326662,1.59016751,0.77194327,0.92333342,1.12158180
48373,0,USTexasPolk,Texas,Polk,2021-04-04 04:33:23.902358,2020-10-17 00:00:00.000000,1.50820858,2.59048606,3.67876095,774,1330,1889,416,642,927,0.81052894,1.25091834,1.80608118,0.81852636,0.94151030,1.11391411
48373,0,USTexasPolk,Texas,Polk,2021-04-04 04:33:23.902358,2020-10-18 00:00:00.000000,1.76045011,2.94314859,4.16426312,904,1511,2138,476,720,1052,0.92808765,1.40213563,2.04865455,0.84376606,0.94438733,1.12670162
48373,0,USTexasPolk,Texas,Polk,2021-04-04 04:33:23.902358,2020-10-19 00:00:00.000000,2.04011827,3.31528488,4.71989050,1047,1702,2423,545,811,1191,1.06235489,1.57988510,2.32044342,0.84653784,0.95780015,1.15420099
48373,0,USTexasPolk,Texas,Polk,2021-04-04 04:33:23.902358,2020-10-20 00:00:00.000000,2.33619678,3.70431777,5.33585112,1199,1902,2740,626,909,1350,1.21911619,1.77063874,2.62928844,0.85592900,0.96216578,1.15242865
48373,0,USTexasPolk,Texas,Polk,2021-04-04 04:33:23.902358,2020-10-21 00:00:00.000000,2.67177926,4.15808487,6.01829575,1372,2135,3090,733,1024,1527,1.42806652,1.99444037,2.97474776,0.85675542,0.95963912,1.14950522
48373,0,USTexasPolk,Texas,Polk,2021-04-04 04:33:23.902358,2020-10-22 00:00:00.000000,3.05058693,4.64097403,6.77041067,1566,2383,3476,857,1161,1724,1.66991526,2.26220711,3.35837538,0.85529587,0.95220878,1.14451130
48373,0,USTexasPolk,Texas,Polk,2021-04-04 04:33:23.902358,2020-10-23 00:00:00.000000,3.47689891,5.16731201,7.59741286,1785,2653,3901,996,1302,1985,1.93993439,2.53662781,3.86580499,0.83390535,0.94141272,1.13489114
48373,0,USTexasPolk,Texas,Polk,2021-04-04 04:33:23.902358,2020-10-24 00:00:00.000000,3.95510537,5.79263379,8.49030829,2031,2974,4360,1131,1467,2261,2.20297132,2.85860154,4.40412187,0.79791423,0.93150526,1.11511743
48373,0,USTexasPolk,Texas,Polk,2021-04-04 04:33:23.902358,2020-10-25 00:00:00.000000,4.55979890,6.43514977,9.45468872,2341,3304,4855,1282,1645,2542,2.49785605,3.20502344,4.95114096,0.76734170,0.92383047,1.08284598
48373,0,USTexasPolk,Texas,Polk,2021-04-04 04:33:23.902358,2020-10-26 00:00:00.000000,5.26409811,7.11355822,10.39084829,2703,3653,5336,1451,1832,2829,2.82662412,3.56900975,5.50936088,0.72172169,0.89802910,1.05954794
48373,0,USTexasPolk,Texas,Polk,2021-04-04 04:33:23.902358,2020-10-27 00:00:00.000000,6.01830439,7.86475049,11.41320320,3090,4038,5861,1629,2053,3098,3.17356328,3.99949141,6.03323737,0.71496254,0.87201338,1.02897277
48373,0,USTexasPolk,Texas,Polk,2021-04-04 04:33:23.902358,2020-10-28 00:00:00.000000,6.67457229,8.62946123,12.22825338,3427,4431,6279,1815,2293,3443,3.53521548,4.46628286,6.70494855,0.68917605,0.84502012,0.98883433
48373,0,USTexasPolk,Texas,Polk,2021-04-04 04:33:23.902358,2020-10-29 00:00:00.000000,7.37789500,9.41522087,13.18988369,3788,4834,6773,2013,2568,3811,3.92162625,5.00175303,7.42217965,0.62064860,0.81289683,0.95662357
48373,0,USTexasPolk,Texas,Polk,2021-04-04 04:33:23.902358,2020-10-30 00:00:00.000000,7.99198810,10.12089486,14.06656927,4104,5197,7223,2209,2837,4211,4.30268542,5.52541987,8.20090909,0.50090076,0.72252909,0.92487121
48373,0,USTexasPolk,Texas,Polk,2021-04-04 04:33:23.902358,2020-10-31 00:00:00.000000,8.19360854,10.65104096,14.41237102,4207,5469,7401,2316,3033,4565,4.51153963,5.90716020,8.89020140,0.40170654,0.62823853,0.84250786
48373,0,USTexasPolk,Texas,Polk,2021-04-04 04:33:23.902358,2020-11-01 00:00:00.000000,7.88699624,10.88688429,14.45155874,4050,5590,7421,2349,3192,4761,4.57499475,6.21774596,9.27146498,0.34207233,0.51472374,0.68224470
48373,0,USTexasPolk,Texas,Polk,2021-04-04 04:33:23.902358,2020-11-02 00:00:00.000000,7.54089297,10.87257253,14.71704530,3872,5583,7557,2320,3264,4805,4.51836222,6.35760510,9.35695452,0.31066335,0.44252079,0.61771571
48373,0,USTexasPolk,Texas,Polk,2021-04-04 04:33:23.902358,2020-11-03 00:00:00.000000,7.24614013,10.68954063,14.83559850,3721,5489,7618,2256,3281,4959,4.39503694,6.39046219,9.65789470,0.27952756,0.40986383,0.54084616
48373,0,USTexasPolk,Texas,Polk,2021-04-04 04:33:23.902358,2020-11-04 00:00:00.000000,6.89589566,10.42288561,14.56897005,3541,5352,7481,2165,3226,4928,4.21647376,6.28330227,9.59814913,0.26975964,0.38053911,0.48400723
48373,0,USTexasPolk,Texas,Polk,2021-04-04 04:33:23.902358,2020-11-05 00:00:00.000000,6.50609109,10.00040652,13.97255959,3341,5135,7175,2067,3205,4846,4.02646148,6.24153078,9.43694819,0.26143480,0.36178671,0.45897555
48373,0,USTexasPolk,Texas,Polk,2021-04-04 04:33:23.902358,2020-11-06 00:00:00.000000,6.10291784,9.53427471,13.35663290,3134,4896,6859,1979,3125,4679,3.85496243,6.08616965,9.11324623,0.25230882,0.34792469,0.43553408
48373,0,USTexasPolk,Texas,Polk,2021-04-04 04:33:23.902358,2020-11-07 00:00:00.000000,5.76993015,9.10927684,12.74087681,2963,4677,6542,1894,3011,4449,3.68898554,5.86358015,8.66476232,0.24625302,0.33888800,0.42600124
48373,0,USTexasPolk,Texas,Polk,2021-04-04 04:33:23.902358,2020-11-08 00:00:00.000000,5.44129588,8.68602823,12.27052027,2794,4460,6301,1812,2880,4252,3.52949545,5.60857734,8.28145203,0.24425079,0.33383467,0.42607461
48373,0,USTexasPolk,Texas,Polk,2021-04-04 04:33:23.902358,2020-11-09 00:00:00.000000,5.12380957,8.23933590,11.73173160,2631,4231,6024,1730,2760,4077,3.36925866,5.37584309,7.94009735,0.24620251,0.33260248,0.42176234
48373,0,USTexasPolk,Texas,Polk,2021-04-04 04:33:23.902358,2020-11-10 00:00:00.000000,4.82058520,7.83116776,11.25004170,2475,4021,5777,1636,2605,3900,3.18763858,5.07389531,7.59638876,0.25003692,0.33250386,0.42228957
48373,0,USTexasPolk,Texas,Polk,2021-04-04 04:33:23.902358,2020-11-11 00:00:00.000000,4.53362005,7.40857368,10.86432784,2328,3804,5579,1545,2470,3725,3.00888490,4.81151054,7.25493082,0.25245080,0.33348608,0.42339570
48373,0,USTexasPolk,Texas,Polk,2021-04-04 04:33:23.902358,2020-11-12 00:00:00.000000,4.26544018,6.98552902,10.48087972,2190,3587,5382,1428,2334,3580,2.78111992,4.54667260,6.97248244,0.25862579,0.33315244,0.42564980
48373,0,USTexasPolk,Texas,Polk,2021-04-04 04:33:23.902358,2020-11-13 00:00:00.000000,4.01766387,6.62849892,10.09876050,2063,3403,5186,1304,2200,3427,2.54061358,4.28465720,6.67368637,0.25388303,0.33508689,0.42452105
48373,0,USTexasPolk,Texas,Polk,2021-04-04 04:33:23.902358,2020-11-14 00:00:00.000000,3.77806723,6.28621550,9.71969748,1940,3228,4991,1192,2094,3281,2.32170703,4.07815720,6.39071417,0.25016858,0.34132266,0.43948022
48373,0,USTexasPolk,Texas,Polk,2021-04-04 04:33:23.902358,2020-11-15 00:00:00.000000,3.48571723,5.90260129,9.34433008,1790,3031,4798,1091,1995,3163,2.12631603,3.88601260,6.16078591,0.25327604,0.35082119,0.45669975
48373,0,USTexasPolk,Texas,Polk,2021-04-04 04:33:23.902358,2020-11-16 00:00:00.000000,3.24649139,5.59738566,8.96638085,1667,2874,4604,1005,1905,3046,1.95751866,3.71023962,5.93176547,0.25670265,0.35976802,0.48970259
48373,0,USTexasPolk,Texas,Polk,2021-04-04 04:33:23.902358,2020-11-17 00:00:00.000000,3.04512595,5.28743757,8.59467165,1563,2715,4413,939,1796,2928,1.82976513,3.49929482,5.70233762,0.25600716,0.36445331,0.51522938
48373,0,USTexasPolk,Texas,Polk,2021-04-04 04:33:23.902358,2020-11-18 00:00:00.000000,2.92124934,5.04061252,8.23484677,1500,2588,4228,903,1704,2811,1.75909603,3.31880734,5.47441975,0.25593478,0.37475596,0.53059438
48373,0,USTexasPolk,Texas,Polk,2021-04-04 04:33:23.902358,2020-11-19 00:00:00.000000,2.87124996,4.77730640,7.89403003,1474,2453,4053,878,1600,2696,1.71146008,3.11617813,5.25085282,0.26751401,0.38223773,0.55240169
48373,0,USTexasPolk,Texas,Polk,2021-04-04 04:33:23.902358,2020-11-20 00:00:00.000000,2.79855420,4.53630403,7.57748565,1437,2329,3891,858,1516,2585,1.67081384,2.95404743,5.03525396,0.29812442,0.38898484,0.57601128
48373,0,USTexasPolk,Texas,Polk,2021-04-04 04:33:23.902358,2020-11-21 00:00:00.000000,2.68987005,4.32640550,7.37253363,1381,2221,3786,826,1441,2499,1.60856096,2.80723308,4.86713886,0.30067146,0.40317439,0.60769013
48373,0,USTexasPolk,Texas,Polk,2021-04-04 04:33:23.902358,2020-11-22 00:00:00.000000,2.61365074,4.15977961,7.19353101,1342,2136,3694,796,1364,2433,1.55134530,2.65772825,4.73949851,0.30741463,0.41470013,0.62974792
48373,0,USTexasPolk,Texas,Polk,2021-04-04 04:33:23.902358,2020-11-23 00:00:00.000000,2.51770377,3.98958980,7.03336531,1292,2048,3611,770,1296,2372,1.50079464,2.52552089,4.62040941,0.31638758,0.43127303,0.65028710
48373,0,USTexasPolk,Texas,Polk,2021-04-04 04:33:23.902358,2020-11-24 00:00:00.000000,2.42475802,3.83601785,6.87012108,1245,1969,3528,742,1229,2316,1.44562420,2.39369053,4.51174635,0.31969874,0.44276326,0.64952164
48373,0,USTexasPolk,Texas,Polk,2021-04-04 04:33:23.902358,2020-11-25 00:00:00.000000,2.33547811,3.72300488,6.57556241,1199,1911,3376,714,1173,2270,1.39220959,2.28474664,4.42124046,0.32157548,0.45797565,0.64623216
48373,0,USTexasPolk,Texas,Polk,2021-04-04 04:33:23.902358,2020-11-26 00:00:00.000000,2.25386162,3.57298178,6.32220025,1157,1834,3246,688,1136,2226,1.34135652,2.21240992,4.33503811,0.32616270,0.47349320,0.63972896
48373,0,USTexasPolk,Texas,Polk,2021-04-04 04:33:23.902358,2020-11-27 00:00:00.000000,2.19275352,3.51597773,6.12288861,1126,1805,3144,665,1109,2136,1.29541399,2.16025522,4.16018910,0.32731000,0.48724461,0.67372215
48373,0,USTexasPolk,Texas,Polk,2021-04-04 04:33:23.902358,2020-11-28 00:00:00.000000,2.16718491,3.40065657,5.95054185,1112,1746,3055,647,1073,2061,1.26005439,2.09134493,4.01356196,0.33139384,0.51128168,0.67515770
48373,0,USTexasPolk,Texas,Polk,2021-04-04 04:33:23.902358,2020-11-29 00:00:00.000000,2.19450667,3.32173446,5.78842874,1126,1705,2972,637,1045,1997,1.24102188,2.03560919,3.88927249,0.33983831,0.52443124,0.70337414
48373,0,USTexasPolk,Texas,Polk,2021-04-04 04:33:23.902358,2020-11-30 00:00:00.000000,2.22845490,3.24095131,5.60195392,1144,1664,2876,633,1024,1940,1.23270304,1.99499695,3.77801449,0.34252600,0.53201933,0.70880776
48373,0,USTexasPolk,Texas,Polk,2021-04-04 04:33:23.902358,2020-12-01 00:00:00.000000,2.26738144,3.19050258,5.35961346,1164,1638,2752,630,1012,1885,1.22699686,1.97135441,3.67193251,0.34271601,0.53918550,0.70930620
48373,0,USTexasPolk,Texas,Polk,2021-04-04 04:33:23.902358,2020-12-02 00:00:00.000000,2.23957999,3.14326380,5.13629012,1150,1614,2637,632,1000,1832,1.23187003,1.94884126,3.56828984,0.34357404,0.54606531,0.70959312
48373,0,USTexasPolk,Texas,Polk,2021-04-04 04:33:23.902358,2020-12-03 00:00:00.000000,2.18702604,3.09842126,4.93204985,1123,1591,2532,639,972,1780,1.24558299,1.89429961,3.46696995,0.35597261,0.55761924,0.71869631
48373,0,USTexasPolk,Texas,Polk,2021-04-04 04:33:23.902358,2020-12-04 00:00:00.000000,2.12020022,3.06869583,4.74684846,1088,1575,2437,621,965,1729,1.21101065,1.88083551,3.36736153,0.36979062,0.56211956,0.71985939
48373,0,USTexasPolk,Texas,Polk,2021-04-04 04:33:23.902358,2020-12-05 00:00:00.000000,2.08092607,3.07184261,4.76813813,1068,1577,2448,618,959,1678,1.20490982,1.86806745,3.26925408,0.38409280,0.57003771,0.75425510
48373,0,USTexasPolk,Texas,Polk,2021-04-04 04:33:23.902358,2020-12-06 00:00:00.000000,2.06410934,3.04467052,4.72400450,1059,1563,2425,613,948,1621,1.19438216,1.84756105,3.15748328,0.39865337,0.58098001,0.76832901
48373,0,USTexasPolk,Texas,Polk,2021-04-04 04:33:23.902358,2020-12-07 00:00:00.000000,2.05225243,3.01863886,4.58781218,1053,1550,2355,606,938,1582,1.18162656,1.82693077,3.08126172,0.41817501,0.59015891,0.72864903
48373,0,USTexasPolk,Texas,Polk,2021-04-04 04:33:23.902358,2020-12-08 00:00:00.000000,2.03450465,3.00164747,4.62053421,1044,1541,2372,600,926,1550,1.16986706,1.80382293,3.01896479,0.44492562,0.59517607,0.76959709
48373,0,USTexasPolk,Texas,Polk,2021-04-04 04:33:23.902358,2020-12-09 00:00:00.000000,1.99862244,2.94004368,4.65703148,1026,1509,2391,594,916,1541,1.15824661,1.78478592,3.00177252,0.45517544,0.60030027,0.79739767
48373,0,USTexasPolk,Texas,Polk,2021-04-04 04:33:23.902358,2020-12-10 00:00:00.000000,1.99205295,2.90072472,4.55467395,1022,1489,2338,589,913,1529,1.14848879,1.77892644,2.97775479,0.46180818,0.60242732,0.77735433
48373,0,USTexasPolk,Texas,Polk,2021-04-04 04:33:23.902358,2020-12-11 00:00:00.000000,1.98979238,2.87675271,4.45725202,1021,1477,2288,577,910,1515,1.12483770,1.77230366,2.95054900,0.46959194,0.61526397,0.78878440
48373,0,USTexasPolk,Texas,Polk,2021-04-04 04:33:23.902358,2020-12-12 00:00:00.000000,1.99485388,2.86645788,4.36372090,1024,1472,2240,574,893,1499,1.11844964,1.73911424,2.92034870,0.48579540,0.64384863,0.82164419
48373,0,USTexasPolk,Texas,Polk,2021-04-04 04:33:23.902358,2020-12-13 00:00:00.000000,1.98680977,2.86188999,4.29233014,1020,1469,2204,575,874,1482,1.12031082,1.70351441,2.88749777,0.49563759,0.65071982,0.85493881
48373,0,USTexasPolk,Texas,Polk,2021-04-04 04:33:23.902358,2020-12-14 00:00:00.000000,1.98234896,2.81479947,4.24003044,1017,1445,2177,570,861,1465,1.11174337,1.67723238,2.85333614,0.49820058,0.65902558,0.90463639
48373,0,USTexasPolk,Texas,Polk,2021-04-04 04:33:23.902358,2020-12-15 00:00:00.000000,1.98168832,2.85809801,4.18722493,1017,1467,2150,569,853,1447,1.10821519,1.66248174,2.81902152,0.49706550,0.66423069,0.94790774
48373,0,USTexasPolk,Texas,Polk,2021-04-04 04:33:23.902358,2020-12-16 00:00:00.000000,1.98203503,2.88660300,4.18241025,1017,1482,2147,568,846,1429,1.10786792,1.64857730,2.78448077,0.51160012,0.67109845,0.98145741
48373,0,USTexasPolk,Texas,Polk,2021-04-04 04:33:23.902358,2020-12-17 00:00:00.000000,1.98268973,2.90260554,4.20645940,1018,1490,2160,569,847,1411,1.10958627,1.65083157,2.74930733,0.52071299,0.67611841,1.03094025
48373,0,USTexasPolk,Texas,Polk,2021-04-04 04:33:23.902358,2020-12-18 00:00:00.000000,1.98293445,2.87935249,4.22651148,1018,1478,2170,570,851,1393,1.11109475,1.65808831,2.71328504,0.52361508,0.70505124,1.06338826
48373,0,USTexasPolk,Texas,Polk,2021-04-04 04:33:23.902358,2020-12-19 00:00:00.000000,2.00675656,2.86751711,4.24082637,1030,1472,2177,572,866,1390,1.11410419,1.68818508,2.70786787,0.52831309,0.71765618,1.09998766
48373,0,USTexasPolk,Texas,Polk,2021-04-04 04:33:23.902358,2020-12-20 00:00:00.000000,2.04817669,2.88521672,4.24631434,1051,1481,2180,573,875,1395,1.11763210,1.70472859,2.71701637,0.55541453,0.73377302,1.10738622
48373,0,USTexasPolk,Texas,Polk,2021-04-04 04:33:23.902358,2020-12-21 00:00:00.000000,2.08913357,2.91108325,4.24105773,1072,1494,2177,578,880,1397,1.12705078,1.71451789,2.72090656,0.55601653,0.74002981,1.11088599
48373,0,USTexasPolk,Texas,Polk,2021-04-04 04:33:23.902358,2020-12-22 00:00:00.000000,2.12907720,2.96111500,4.24586556,1093,1520,2180,590,883,1395,1.14984613,1.72080832,2.71840914,0.60695317,0.76456293,1.11298234
48373,0,USTexasPolk,Texas,Polk,2021-04-04 04:33:23.902358,2020-12-23 00:00:00.000000,2.16818191,3.02665187,4.30626258,1113,1554,2211,601,886,1390,1.17197002,1.72574642,2.70785365,0.60679114,0.81082385,1.11854576
48373,0,USTexasPolk,Texas,Polk,2021-04-04 04:33:23.902358,2020-12-24 00:00:00.000000,2.20583338,3.06409065,4.36268969,1132,1573,2240,612,905,1380,1.19332694,1.76301136,2.68874014,0.60577035,0.85037423,1.12606074
48373,0,USTexasPolk,Texas,Polk,2021-04-04 04:33:23.902358,2020-12-25 00:00:00.000000,2.19346212,3.09806103,4.41385215,1126,1590,2266,623,924,1399,1.21385219,1.80122618,2.72499602,0.60581795,0.89103711,1.12795914
48373,0,USTexasPolk,Texas,Polk,2021-04-04 04:33:23.902358,2020-12-26 00:00:00.000000,2.21862655,3.13981297,4.45899057,1139,1612,2289,633,941,1416,1.23405799,1.83374236,2.75877632,0.64177835,0.90251121,1.15857879
48373,0,USTexasPolk,Texas,Polk,2021-04-04 04:33:23.902358,2020-12-27 00:00:00.000000,2.27979838,3.20152855,4.49834796,1170,1644,2310,643,952,1432,1.25329799,1.85459924,2.78929559,0.63221059,0.90430484,1.22539153
48373,0,USTexasPolk,Texas,Polk,2021-04-04 04:33:23.902358,2020-12-28 00:00:00.000000,2.34204570,3.25830791,4.54728463,1202,1673,2335,652,973,1446,1.27145389,1.89563385,2.81633014,0.63038399,0.90820779,1.29435744
48373,0,USTexasPolk,Texas,Polk,2021-04-04 04:33:23.902358,2020-12-29 00:00:00.000000,2.37148581,3.28278260,4.61107691,1217,1685,2367,661,993,1457,1.28875426,1.93452209,2.83798259,0.63427657,0.92384590,1.33314133
48373,0,USTexasPolk,Texas,Polk,2021-04-04 04:33:23.902358,2020-12-30 00:00:00.000000,2.42864169,3.33996195,4.67992113,1247,1715,2403,670,1007,1475,1.30490690,1.96276596,2.87244330,0.64718831,0.93205033,1.36638221
48373,0,USTexasPolk,Texas,Polk,2021-04-04 04:33:23.902358,2020-12-31 00:00:00.000000,2.49745754,3.37213064,4.77561872,1282,1731,2452,688,1022,1506,1.34027990,1.99208583,2.93440368,0.67158000,0.93788124,1.43789515
48373,0,USTexasPolk,Texas,Polk,2021-04-04 04:33:23.902358,2021-01-01 00:00:00.000000,2.56547963,3.41606003,4.86983975,1317,1754,2500,708,1034,1529,1.37873915,2.01534646,2.97925917,0.69544020,0.93654946,1.43682714
48373,0,USTexasPolk,Texas,Polk,2021-04-04 04:33:23.902358,2021-01-02 00:00:00.000000,2.62835655,3.49029988,4.95743070,1349,1792,2545,727,1058,1561,1.41684829,2.06046024,3.04085300,0.70763163,0.94694911,1.46088119
48373,0,USTexasPolk,Texas,Polk,2021-04-04 04:33:23.902358,2021-01-03 00:00:00.000000,2.63177451,3.51887583,5.03093886,1351,1807,2583,746,1057,1591,1.45441515,2.05891865,3.09884346,0.70774743,0.95182749,1.47706862
48373,0,USTexasPolk,Texas,Polk,2021-04-04 04:33:23.902358,2021-01-04 00:00:00.000000,2.63736060,3.54331819,5.08592472,1354,1819,2611,765,1067,1619,1.49128229,2.07826762,3.15325952,0.70806142,0.95921099,1.57471701
48373,0,USTexasPolk,Texas,Polk,2021-04-04 04:33:23.902358,2021-01-05 00:00:00.000000,2.64362244,3.56777271,5.12710288,1357,1832,2632,781,1067,1641,1.52243295,2.07933704,3.19654573,0.70922031,0.96646759,1.58203370
48373,0,USTexasPolk,Texas,Polk,2021-04-04 04:33:23.902358,2021-01-06 00:00:00.000000,2.65073804,3.61121531,5.15665282,1361,1854,2648,784,1066,1658,1.52784642,2.07724251,3.22899550,0.71280724,0.98282416,1.58150729
48373,0,USTexasPolk,Texas,Polk,2021-04-04 04:33:23.902358,2021-01-07 00:00:00.000000,2.66261060,3.61710177,5.18185046,1367,1857,2661,785,1069,1670,1.52917938,2.08233516,3.25377922,0.72296859,1.01002755,1.57913245
48373,0,USTexasPolk,Texas,Polk,2021-04-04 04:33:23.902358,2021-01-08 00:00:00.000000,2.61008510,3.64751184,5.25925842,1340,1873,2700,785,1070,1680,1.52877086,2.08475899,3.27177326,0.72367186,1.02386686,1.64717612
48373,0,USTexasPolk,Texas,Polk,2021-04-04 04:33:23.902358,2021-01-09 00:00:00.000000,2.53219109,3.64554359,5.32817048,1300,1872,2736,783,1079,1686,1.52662353,2.10114905,3.28389636,0.72681290,1.04072438,1.76904827
48373,0,USTexasPolk,Texas,Polk,2021-04-04 04:33:23.902358,2021-01-10 00:00:00.000000,2.49429845,3.63608320,5.33571331,1280,1867,2740,781,1072,1690,1.52274826,2.08913277,3.29096603,0.74901739,1.04210364,1.73779240
48373,0,USTexasPolk,Texas,Polk,2021-04-04 04:33:23.902358,2021-01-11 00:00:00.000000,2.48923918,3.65792123,5.30996494,1278,1878,2726,779,1070,1691,1.51716386,2.08507488,3.29372908,0.78261024,1.04409942,1.71045791
48373,0,USTexasPolk,Texas,Polk,2021-04-04 04:33:23.902358,2021-01-12 00:00:00.000000,2.48224736,3.66795390,5.27499153,1274,1883,2708,772,1078,1692,1.50479448,2.09931695,3.29621709,0.78224120,1.05025360,1.84382126
48373,0,USTexasPolk,Texas,Polk,2021-04-04 04:33:23.902358,2021-01-13 00:00:00.000000,2.48464973,3.67040467,5.23039092,1275,1884,2685,764,1081,1699,1.48921634,2.10520532,3.30860754,0.78756083,1.05833046,1.87778277
48373,0,USTexasPolk,Texas,Polk,2021-04-04 04:33:23.902358,2021-01-14 00:00:00.000000,2.50603316,3.66733268,5.23365330,1286,1883,2687,755,1085,1697,1.47200786,2.11471801,3.30622943,0.77838531,1.05252945,1.88426655
48373,0,USTexasPolk,Texas,Polk,2021-04-04 04:33:23.902358,2021-01-15 00:00:00.000000,2.52544873,3.65905013,5.26679105,1296,1879,2704,746,1085,1690,1.45324855,2.11299973,3.29236068,0.78182608,1.04598379,1.91521308
48373,0,USTexasPolk,Texas,Polk,2021-04-04 04:33:23.902358,2021-01-16 00:00:00.000000,2.54182948,3.64795549,5.24669666,1305,1873,2694,735,1080,1679,1.43311371,2.10427410,3.26981519,0.78092567,1.06899420,1.91542197
48373,0,USTexasPolk,Texas,Polk,2021-04-04 04:33:23.902358,2021-01-17 00:00:00.000000,2.50409453,3.63178868,5.18268178,1285,1865,2661,725,1073,1663,1.41196302,2.08969861,3.24029468,0.78098744,1.06405321,1.96023658
48373,0,USTexasPolk,Texas,Polk,2021-04-04 04:33:23.902358,2021-01-18 00:00:00.000000,2.46345424,3.60009173,5.11160010,1265,1848,2624,713,1075,1665,1.38954401,2.09430530,3.24420429,0.78117416,1.08542529,1.97728602
48373,0,USTexasPolk,Texas,Polk,2021-04-04 04:33:23.902358,2021-01-19 00:00:00.000000,2.42022007,3.54496753,5.09857243,1242,1820,2618,703,1076,1669,1.37029023,2.09684762,3.25189011,0.80638657,1.10497902,1.98496173
48373,0,USTexasPolk,Texas,Polk,2021-04-04 04:33:23.902358,2021-01-20 00:00:00.000000,2.37574901,3.48970034,5.08106596,1220,1792,2609,694,1076,1667,1.35269755,2.09713597,3.24709131,0.79286605,1.11929145,1.98832367
48373,0,USTexasPolk,Texas,Polk,2021-04-04 04:33:23.902358,2021-01-21 00:00:00.000000,2.32987129,3.46870413,5.06543396,1196,1781,2601,681,1078,1665,1.32792267,2.09991590,3.24265657,0.80267092,1.15708041,1.97769398
48373,0,USTexasPolk,Texas,Polk,2021-04-04 04:33:23.902358,2021-01-22 00:00:00.000000,2.28279455,3.43017352,5.03647210,1172,1761,2586,668,1074,1644,1.30233811,2.09174890,3.20213940,0.81430836,1.17053242,1.95820097
48373,0,USTexasPolk,Texas,Polk,2021-04-04 04:33:23.902358,2021-01-23 00:00:00.000000,2.25380018,3.39809834,4.99867882,1157,1745,2566,655,1058,1618,1.27599487,2.06177725,3.15225267,0.82682519,1.15519874,1.93141520
48373,0,USTexasPolk,Texas,Polk,2021-04-04 04:33:23.902358,2021-01-24 00:00:00.000000,2.20713185,3.36845764,4.95235802,1133,1729,2543,642,1042,1596,1.25080383,2.02954580,3.10981571,0.83344663,1.15796882,1.95008428
48373,0,USTexasPolk,Texas,Polk,2021-04-04 04:33:23.902358,2021-01-25 00:00:00.000000,2.15557923,3.35351454,4.89451898,1106,1722,2513,629,1029,1592,1.22506957,2.00433185,3.10065544,0.84581090,1.16247468,1.96732145
48373,0,USTexasPolk,Texas,Polk,2021-04-04 04:33:23.902358,2021-01-26 00:00:00.000000,2.10350138,3.32878464,4.82811947,1080,1709,2479,614,1018,1583,1.19708227,1.98294144,3.08395032,0.81761935,1.16567009,1.97325554
48373,0,USTexasPolk,Texas,Polk,2021-04-04 04:33:23.902358,2021-01-27 00:00:00.000000,2.05042155,3.26910764,4.75405845,1052,1678,2441,599,1004,1571,1.16808395,1.95653109,3.06099962,0.83172342,1.17753671,1.97552554
48373,0,USTexasPolk,Texas,Polk,2021-04-04 04:33:23.902358,2021-01-28 00:00:00.000000,2.00463049,3.18295693,4.67318305,1029,1634,2399,584,989,1558,1.13856566,1.92755257,3.03547939,0.85132019,1.17362504,1.96199987
48373,0,USTexasPolk,Texas,Polk,2021-04-04 04:33:23.902358,2021-01-29 00:00:00.000000,1.95974337,3.10688355,4.59609312,1006,1595,2360,569,973,1540,1.10887034,1.89635270,3.00011815,0.85139284,1.13276989,1.95469170
48373,0,USTexasPolk,Texas,Polk,2021-04-04 04:33:23.902358,2021-01-30 00:00:00.000000,1.91415026,3.04918048,4.52555321,982,1565,2324,554,956,1520,1.08034561,1.86307069,2.96147566,0.83016968,1.11604109,1.96517268
48373,0,USTexasPolk,Texas,Polk,2021-04-04 04:33:23.902358,2021-01-31 00:00:00.000000,1.85972924,2.98820438,4.44858019,955,1534,2284,541,938,1498,1.05525300,1.82806119,2.91875553,0.83511756,1.12096238,1.97053276
48373,0,USTexasPolk,Texas,Polk,2021-04-04 04:33:23.902358,2021-02-01 00:00:00.000000,1.80354902,2.92526665,4.37382864,926,1502,2246,528,914,1474,1.02984713,1.78135219,2.87149853,0.82449092,1.11746622,2.01239116
48373,0,USTexasPolk,Texas,Polk,2021-04-04 04:33:23.902358,2021-02-02 00:00:00.000000,1.74767529,2.86059496,4.32075635,897,1469,2218,515,897,1450,1.00439562,1.74787008,2.82385653,0.83056394,1.13033386,2.05297272
48373,0,USTexasPolk,Texas,Polk,2021-04-04 04:33:23.902358,2021-02-03 00:00:00.000000,1.69229115,2.79786772,4.26879685,869,1436,2192,502,880,1424,0.97883514,1.71402201,2.77397819,0.83605268,1.13308100,2.07848411
48373,0,USTexasPolk,Texas,Polk,2021-04-04 04:33:23.902358,2021-02-04 00:00:00.000000,1.63746821,2.75257136,4.21300376,840,1413,2163,489,857,1397,0.95319484,1.66906168,2.72133843,0.84779429,1.13802687,2.06897952
48373,0,USTexasPolk,Texas,Polk,2021-04-04 04:33:23.902358,2021-02-05 00:00:00.000000,1.58330135,2.70508124,4.15351455,813,1389,2132,476,831,1369,0.92752940,1.61900547,2.66593188,0.86126492,1.17122899,1.99585570
48373,0,USTexasPolk,Texas,Polk,2021-04-04 04:33:23.902358,2021-02-06 00:00:00.000000,1.52988564,2.65119297,4.05738765,785,1361,2083,463,811,1339,0.90189863,1.58067269,2.60795830,0.85380143,1.18113721,1.98385533
48373,0,USTexasPolk,Texas,Polk,2021-04-04 04:33:23.902358,2021-02-07 00:00:00.000000,1.47730938,2.57674930,3.94187301,758,1323,2024,450,791,1305,0.87636129,1.54180912,2.54247421,0.87203561,1.18544047,1.94124277
48373,0,USTexasPolk,Texas,Polk,2021-04-04 04:33:23.902358,2021-02-08 00:00:00.000000,1.43091131,2.51154724,3.82562353,734,1289,1964,434,773,1276,0.84706283,1.50693340,2.48599202,0.88150074,1.18171006,1.91565527
48373,0,USTexasPolk,Texas,Polk,2021-04-04 04:33:23.902358,2021-02-09 00:00:00.000000,1.38550306,2.44595260,3.70860725,711,1256,1904,421,755,1242,0.81997327,1.47072032,2.42021872,0.88213165,1.17736151,1.91426548
48373,0,USTexasPolk,Texas,Polk,2021-04-04 04:33:23.902358,2021-02-10 00:00:00.000000,1.34162464,2.37494423,3.59897553,688,1219,1848,407,736,1207,0.79415151,1.43377091,2.35203267,0.88586297,1.19595621,1.91525482
48373,0,USTexasPolk,Texas,Polk,2021-04-04 04:33:23.902358,2021-02-11 00:00:00.000000,1.29884877,2.29169687,3.51814789,666,1176,1806,394,717,1172,0.76907076,1.39640560,2.28241451,0.87821814,1.22051997,1.91432125
48373,0,USTexasPolk,Texas,Polk,2021-04-04 04:33:23.902358,2021-02-12 00:00:00.000000,1.25706626,2.21076917,3.43589003,645,1135,1764,382,695,1135,0.74458068,1.35463114,2.21194439,0.88399018,1.28453611,1.91041159
48373,0,USTexasPolk,Texas,Polk,2021-04-04 04:33:23.902358,2021-02-13 00:00:00.000000,1.21626404,2.13658773,3.35249951,624,1097,1721,370,673,1106,0.72064724,1.31226051,2.15419798,0.89066451,1.24476728,1.88957776
48373,0,USTexasPolk,Texas,Polk,2021-04-04 04:33:23.902358,2021-02-14 00:00:00.000000,1.17645583,2.06333536,3.26826364,604,1059,1678,358,653,1080,0.69727132,1.27225209,2.10367704,0.90672136,1.30481649,1.73920555
48373,0,USTexasPolk,Texas,Polk,2021-04-04 04:33:23.902358,2021-02-15 00:00:00.000000,1.13235130,1.99228178,3.17388993,581,1023,1629,346,634,1054,0.67446303,1.23538583,2.05248721,0.93981763,1.33596544,1.72105015
48373,0,USTexasPolk,Texas,Polk,2021-04-04 04:33:23.902358,2021-02-16 00:00:00.000000,1.08927680,1.92242620,3.07920824,559,987,1581,333,613,1025,0.64881449,1.19539749,1.99762430,0.94756801,1.36234367,1.71524832
48373,0,USTexasPolk,Texas,Polk,2021-04-04 04:33:23.902358,2021-02-17 00:00:00.000000,1.04677550,1.85817957,2.98408967,537,954,1532,319,592,996,0.62213502,1.15376160,1.94083484,0.94989380,1.37186318,1.70665134
48373,0,USTexasPolk,Texas,Polk,2021-04-04 04:33:23.902358,2021-02-18 00:00:00.000000,1.00534496,1.80043514,2.88912065,516,924,1483,306,575,967,0.59647550,1.11996977,1.88311336,0.95155047,1.36971157,1.75223500
48373,0,USTexasPolk,Texas,Polk,2021-04-04 04:33:23.902358,2021-02-19 00:00:00.000000,0.96514659,1.74350054,2.79470857,495,895,1435,293,559,937,0.57177056,1.09006347,1.82505660,0.95430127,1.37491343,2.02623954
48373,0,USTexasPolk,Texas,Polk,2021-04-04 04:33:23.902358,2021-02-20 00:00:00.000000,0.92623125,1.68602678,2.70115810,475,865,1387,281,545,907,0.54798410,1.06150483,1.76704732,0.97593626,1.39227527,2.30265023
48373,0,USTexasPolk,Texas,Polk,2021-04-04 04:33:23.902358,2021-02-21 00:00:00.000000,0.88843138,1.62774872,2.60871118,456,835,1339,269,529,877,0.52509192,1.03152067,1.70935002,0.97874841,1.39611716,2.31503592
48373,0,USTexasPolk,Texas,Polk,2021-04-04 04:33:23.902358,2021-02-22 00:00:00.000000,0.85341116,1.58359640,2.51980122,438,813,1293,258,512,848,0.50307414,0.99850412,1.65216111,1.00420823,1.38990741,2.31832529
48373,0,USTexasPolk,Texas,Polk,2021-04-04 04:33:23.902358,2021-02-23 00:00:00.000000,0.81779548,1.54101979,2.43236522,419,791,1249,247,493,819,0.48228858,0.96176136,1.59638000,1.03736654,1.40959795,2.31954332
48373,0,USTexasPolk,Texas,Polk,2021-04-04 04:33:23.902358,2021-02-24 00:00:00.000000,0.78331009,1.48934325,2.34663246,402,764,1205,237,475,791,0.46249056,0.92570160,1.54176213,1.08070234,1.41449196,2.32249196
48373,0,USTexasPolk,Texas,Polk,2021-04-04 04:33:23.902358,2021-02-25 00:00:00.000000,0.75117560,1.42831473,2.26264349,385,733,1161,227,457,764,0.44355962,0.89046450,1.48821673,1.11171446,1.43785811,2.38617133
48373,0,USTexasPolk,Texas,Polk,2021-04-04 04:33:23.902358,2021-02-26 00:00:00.000000,0.72029851,1.37309863,2.18046096,369,705,1119,218,441,737,0.42543071,0.85998586,1.43572915,1.10441516,1.44018880,2.54975523
48373,0,USTexasPolk,Texas,Polk,2021-04-04 04:33:23.902358,2021-02-27 00:00:00.000000,0.69064213,1.31959028,2.10015247,354,677,1078,209,431,710,0.40806333,0.83931327,1.38432044,1.06072876,1.42240718,2.57863240
48373,0,USTexasPolk,Texas,Polk,2021-04-04 04:33:23.902358,2021-02-28 00:00:00.000000,0.66217469,1.26778753,2.02178192,340,651,1038,201,417,685,0.39142766,0.81287976,1.33402619,1.04799043,1.42801590,2.46200958
48373,0,USTexasPolk,Texas,Polk,2021-04-04 04:33:23.902358,2021-03-01 00:00:00.000000,0.64050054,1.22119065,1.94506236,328,627,998,192,400,659,0.37549853,0.78038519,1.28488572,1.02567710,1.44356661,2.38372335
48373,0,USTexasPolk,Texas,Polk,2021-04-04 04:33:23.902358,2021-03-02 00:00:00.000000,0.61974432,1.17011584,1.87038327,318,600,960,185,384,635,0.36075236,0.74807161,1.23680966,1.01674171,1.45906269,2.37340517
48373,0,USTexasPolk,Texas,Polk,2021-04-04 04:33:23.902358,2021-03-03 00:00:00.000000,0.59223024,1.12965968,1.79776647,304,580,923,179,368,611,0.34889922,0.71704163,1.18989952,1.00190907,1.46601908,2.35683027
48373,0,USTexasPolk,Texas,Polk,2021-04-04 04:33:23.902358,2021-03-04 00:00:00.000000,0.56584898,1.09123641,1.72725447,290,560,886,173,353,587,0.33775597,0.68764957,1.14421711,1.01989948,1.47896788,2.30696481
48373,0,USTexasPolk,Texas,Polk,2021-04-04 04:33:23.902358,2021-03-05 00:00:00.000000,0.54156646,1.05184820,1.65887187,278,540,851,167,339,564,0.32714548,0.66201401,1.09980102,1.00520679,1.49263768,2.22010522
48373,0,USTexasPolk,Texas,Polk,2021-04-04 04:33:23.902358,2021-03-06 00:00:00.000000,0.52393054,1.01340458,1.59263014,269,520,817,162,327,542,0.31612995,0.63731642,1.05667517,0.99857126,1.51339087,2.33525776
48373,0,USTexasPolk,Texas,Polk,2021-04-04 04:33:23.902358,2021-03-07 00:00:00.000000,0.50709577,0.97547058,1.52853044,260,500,784,156,315,521,0.30413455,0.61350072,1.01485341,1.01184222,1.54145786,2.38363606
48373,0,USTexasPolk,Texas,Polk,2021-04-04 04:33:23.902358,2021-03-08 00:00:00.000000,0.48822542,0.93735862,1.46660681,250,481,753,150,303,500,0.29268877,0.59070990,0.97434205,1.03412693,1.57589280,2.43187526
48373,0,USTexasPolk,Texas,Polk,2021-04-04 04:33:23.902358,2021-03-09 00:00:00.000000,0.47016687,0.89971558,1.40680315,241,462,722,143,292,480,0.28013282,0.56877790,0.93516580,1.09519444,1.59984966,2.45025629
48373,0,USTexasPolk,Texas,Polk,2021-04-04 04:33:23.902358,2021-03-10 00:00:00.000000,0.45257673,0.86621942,1.34910187,232,444,692,137,280,460,0.26767027,0.54670933,0.89730330,1.17503884,1.67377479,2.46482157
48373,0,USTexasPolk,Texas,Polk,2021-04-04 04:33:23.902358,2021-03-11 00:00:00.000000,0.43564700,0.84577214,1.29347244,223,434,664,131,269,442,0.25564816,0.52512509,0.86073842,1.17479607,1.73797749,2.50312050
48373,0,USTexasPolk,Texas,Polk,2021-04-04 04:33:23.902358,2021-03-12 00:00:00.000000,0.41942884,0.81422658,1.23988203,215,418,636,125,258,423,0.24415563,0.50423462,0.82545559,1.16742080,1.74023062,2.53800897
48373,0,USTexasPolk,Texas,Polk,2021-04-04 04:33:23.902358,2021-03-13 00:00:00.000000,0.40631573,0.78180482,1.18829481,208,401,610,120,249,406,0.23480019,0.48657207,0.79197958,1.13735568,1.76839475,2.68932812
48373,0,USTexasPolk,Texas,Polk,2021-04-04 04:33:23.902358,2021-03-14 00:00:00.000000,0.39311034,0.75647975,1.13867183,201,388,584,116,241,390,0.22605533,0.47123777,0.75994025,1.10928501,1.76140463,3.00254534
48373,0,USTexasPolk,Texas,Polk,2021-04-04 04:33:23.902358,2021-03-15 00:00:00.000000,0.38024190,0.72662507,1.09219551,195,373,560,111,234,374,0.21775616,0.45754914,0.72903855,1.08527688,1.76884392,3.09256918
48373,0,USTexasPolk,Texas,Polk,2021-04-04 04:33:23.902358,2021-03-16 00:00:00.000000,0.36695596,0.70172862,1.04759738,188,360,537,107,226,359,0.21019151,0.44165928,0.69980263,1.05237235,1.75584122,3.10725157
48373,0,USTexasPolk,Texas,Polk,2021-04-04 04:33:23.902358,2021-03-17 00:00:00.000000,0.35384638,0.68001843,1.00487143,181,349,516,104,218,345,0.20279630,0.42632551,0.67194732,1.02457880,1.72695849,3.11284410
48373,0,USTexasPolk,Texas,Polk,2021-04-04 04:33:23.902358,2021-03-18 00:00:00.000000,0.34124465,0.65700648,0.96392174,175,337,495,100,210,331,0.19555570,0.40914172,0.64530439,0.99348713,1.71766979,3.12218237
48373,0,USTexasPolk,Texas,Polk,2021-04-04 04:33:23.902358,2021-03-19 00:00:00.000000,0.32920119,0.63545124,0.92467416,169,326,474,96,202,318,0.18857623,0.39423707,0.61976974,0.95572161,1.67190861,3.14084371
48373,0,USTexasPolk,Texas,Polk,2021-04-04 04:33:23.902358,2021-03-20 00:00:00.000000,0.31772352,0.61145405,0.88706604,163,313,455,93,194,305,0.18189708,0.37923834,0.59527428,0.91038263,1.62834960,3.10122279
48373,0,USTexasPolk,Texas,Polk,2021-04-04 04:33:23.902358,2021-03-21 00:00:00.000000,0.30680048,0.58945394,0.85104077,157,302,437,90,187,293,0.17552750,0.36601546,0.57176808,0.86935038,1.59633505,3.16028744
48373,0,USTexasPolk,Texas,Polk,2021-04-04 04:33:23.902358,2021-03-22 00:00:00.000000,0.29402815,0.56374612,0.81583353,150,289,418,87,181,282,0.16946360,0.35248595,0.54921159,0.84985273,1.62755824,3.11039249
48373,0,USTexasPolk,Texas,Polk,2021-04-04 04:33:23.902358,2021-03-23 00:00:00.000000,0.28176955,0.53945885,0.78210417,144,277,401,83,174,270,0.16280030,0.33974781,0.52661526,0.82229672,1.65311114,3.20590425
48373,0,USTexasPolk,Texas,Polk,2021-04-04 04:33:23.902358,2021-03-24 00:00:00.000000,0.26986905,0.51790369,0.74977940,138,265,385,80,167,259,0.15606591,0.32623190,0.50441338,0.81339784,1.65977253,3.20560369
48373,0,USTexasPolk,Texas,Polk,2021-04-04 04:33:23.902358,2021-03-25 00:00:00.000000,0.25845513,0.49588778,0.71883736,132,254,369,76,160,247,0.14948900,0.31287734,0.48283414,0.80869345,1.65046881,3.34395235
48373,0,USTexasPolk,Texas,Polk,2021-04-04 04:33:23.902358,2021-03-26 00:00:00.000000,0.24756990,0.47578521,0.68924350,127,244,353,73,154,237,0.14316348,0.30037115,0.46199148,0.80074979,1.64715111,3.36825743
48373,0,USTexasPolk,Texas,Polk,2021-04-04 04:33:23.902358,2021-03-27 00:00:00.000000,0.23721723,0.45638824,0.66095669,121,234,339,70,148,226,0.13712294,0.28894680,0.44193600,0.74266284,1.64050625,3.42666285
48373,0,USTexasPolk,Texas,Polk,2021-04-04 04:33:23.902358,2021-03-28 00:00:00.000000,0.22738447,0.43928692,0.63393268,116,225,325,67,142,217,0.13137418,0.27797124,0.42268313,0.69888359,1.60322811,3.71981457
48373,0,USTexasPolk,Texas,Polk,2021-04-04 04:33:23.902358,2021-03-29 00:00:00.000000,0.21583460,0.41427344,0.60377080,110,212,310,64,137,207,0.12591227,0.26815601,0.40463303,0.66493883,1.59704973,4.02951118
48373,0,USTexasPolk,Texas,Polk,2021-04-04 04:33:23.902358,2021-03-30 00:00:00.000000,0.20476326,0.39407857,0.57478050,105,202,295,61,131,198,0.11989085,0.25631270,0.38666370,0.65808668,1.62690242,4.20581878
48373,0,USTexasPolk,Texas,Polk,2021-04-04 04:33:23.902358,2021-03-31 00:00:00.000000,0.19402391,0.37470876,0.54677815,99,192,280,58,125,189,0.11380464,0.24358506,0.36871051,0.65712240,1.64840630,4.29159848
48373,0,USTexasPolk,Texas,Polk,2021-04-04 04:33:23.902358,2021-04-01 00:00:00.000000,0.18373626,0.35504421,0.52132712,94,182,267,55,119,180,0.10786610,0.23210107,0.35113684,0.65734437,1.64322816,4.32217603
48373,0,USTexasPolk,Texas,Polk,2021-04-04 04:33:23.902358,2021-04-02 00:00:00.000000,0.17393861,0.33574564,0.49927442,89,172,256,52,113,171,0.10216173,0.22062588,0.33412773,0.65798339,1.63167818,4.33156315
48373,0,USTexasPolk,Texas,Polk,2021-04-04 04:33:23.902358,2021-04-03 00:00:00.000000,0.16463356,0.31805363,0.47713349,84,163,245,49,107,163,0.09672193,0.20962945,0.31815503,0.65872505,1.61625885,4.33430164
48373,0,USTexasPolk,Texas,Polk,2021-04-04 04:33:23.902358,2021-04-04 00:00:00.000000,0.15580838,0.30094456,0.45341681,80,154,232,47,102,155,0.09155229,0.19890797,0.30288041,0.65927891,1.60201106,4.40116904
48373,0,USTexasPolk,Texas,Polk,2021-04-04 04:33:23.902358,2021-04-05 00:00:00.000000,0.14744413,0.28416037,0.43023452,75,145,220,44,96,148,0.08664765,0.18881516,0.28827885,0.65992405,1.57579255,4.44889701
48373,0,USTexasPolk,Texas,Polk,2021-04-04 04:33:23.902358,2021-04-06 00:00:00.000000,0.13951973,0.26910264,0.40788031,71,138,209,42,92,140,0.08199835,0.17928364,0.27433294,0.66494652,1.55874101,4.46489848
48373,0,USTexasPolk,Texas,Polk,2021-04-04 04:33:23.902358,2021-04-07 00:00:00.000000,0.13201376,0.25369189,0.38646947,67,130,198,39,87,134,0.07759308,0.17020675,0.26102157,0.66688927,1.56751081,4.46744001
48373,0,USTexasPolk,Texas,Polk,2021-04-04 04:33:23.902358,2021-04-08 00:00:00.000000,0.12490520,0.24024994,0.36604944,64,123,187,37,82,127,0.07342014,0.16156718,0.24832187,0.66733362,1.55673827,4.46807763
48373,0,USTexasPolk,Texas,Polk,2021-04-04 04:33:23.902358,2021-04-09 00:00:00.000000,0.11817379,0.22750350,0.34662304,60,116,178,35,78,121,0.06946794,0.15281993,0.23621030,0.66743347,1.55653067,4.46831418
48373,0,USTexasPolk,Texas,Polk,2021-04-04 04:33:23.902358,2021-04-10 00:00:00.000000,0.11180015,0.21528430,0.32816936,57,110,168,33,74,115,0.06575964,0.14435014,0.22466326,0.66745581,1.55644479,4.46842078
48373,0,USTexasPolk,Texas,Polk,2021-04-04 04:33:23.902358,2021-04-11 00:00:00.000000,0.10576579,0.20335618,0.31072108,54,104,159,31,70,109,0.06230161,0.13678914,0.21365743,0.66746080,1.55640987,4.46847193
48373,0,USTexasPolk,Texas,Polk,2021-04-04 04:33:23.902358,2021-04-12 00:00:00.000000,0.09969176,0.19269044,0.29495338,51,98,151,30,66,104,0.05902219,0.12950208,0.20317001,0.66746190,1.55639600,4.46849690
48373,0,USTexasPolk,Texas,Polk,2021-04-04 04:33:23.902358,2021-04-13 00:00:00.000000,0.09441746,0.18246120,0.28012346,48,93,143,28,62,99,0.05591253,0.12221578,0.19317877,0.66746214,1.55639070,4.46850915
48373,0,USTexasPolk,Texas,Polk,2021-04-04 04:33:23.902358,2021-04-14 00:00:00.000000,0.08942395,0.17197279,0.26771006,45,88,137,27,59,94,0.05289491,0.11533219,0.18366219,0.66746219,1.55638881,4.46851517
48373,0,USTexasPolk,Texas,Polk,2021-04-04 04:33:23.902358,2021-04-15 00:00:00.000000,0.08464412,0.16267807,0.25581851,43,83,131,25,55,89,0.04981103,0.10883000,0.17459941,0.66746219,1.55638823,4.46851812
48373,0,USTexasPolk,Texas,Polk,2021-04-04 04:33:23.902358,2021-04-16 00:00:00.000000,0.08004908,0.15385130,0.24442940,41,79,125,24,52,85,0.04708612,0.10268887,0.16597034,0.66746219,1.55638813,4.46851957
