FIPS,HR_UID,nameid,province,region,analysisTime,dates,pointprevalence_025,pointprevalence_50,pointprevalence_975,pointinfections_025,pointinfections_50,pointinfections_975,pointinfectious_025,pointinfectious_50,pointinfectious_975,pointinfectiousprevalence_05,pointinfectiousprevalence_50,pointinfectiousprevalence_95,infectrate_025,infectrate_50,infectrate_975
19089,0,USIowaHoward,Iowa,Howard,2021-04-04 10:53:07.721885,2020-03-09 00:00:00.000000,0.00574806,0.03167014,0.11726430,0,2,10,0,1,6,0.00316155,0.01894483,0.07274510,0.33485772,0.43997480,0.61108748
19089,0,USIowaHoward,Iowa,Howard,2021-04-04 10:53:07.721885,2020-03-10 00:00:00.000000,0.00624225,0.03433251,0.12084427,0,3,11,0,1,6,0.00336323,0.01814784,0.07133312,0.33485663,0.43996802,0.61107965
19089,0,USIowaHoward,Iowa,Howard,2021-04-04 10:53:07.721885,2020-03-11 00:00:00.000000,0.00678147,0.03715651,0.12733928,0,3,11,0,1,6,0.00372534,0.01873061,0.07408315,0.33485483,0.43952325,0.61106072
19089,0,USIowaHoward,Iowa,Howard,2021-04-04 10:53:07.721885,2020-03-12 00:00:00.000000,0.00733212,0.04048347,0.13422968,0,3,12,0,1,7,0.00412768,0.01979946,0.07862764,0.33485169,0.43882007,0.61101493
19089,0,USIowaHoward,Iowa,Howard,2021-04-04 10:53:07.721885,2020-03-13 00:00:00.000000,0.00788714,0.04186936,0.14151646,0,3,12,0,1,7,0.00453422,0.02100439,0.08356367,0.33484580,0.43854341,0.61090427
19089,0,USIowaHoward,Iowa,Howard,2021-04-04 10:53:07.721885,2020-03-14 00:00:00.000000,0.00844766,0.04413729,0.14919727,0,4,13,0,2,8,0.00493677,0.02204151,0.08867259,0.33483380,0.43782076,0.61063739
19089,0,USIowaHoward,Iowa,Howard,2021-04-04 10:53:07.721885,2020-03-15 00:00:00.000000,0.00901637,0.04591452,0.15728288,0,4,14,0,2,8,0.00533592,0.02382626,0.09397289,0.33430911,0.43691778,0.60999740
19089,0,USIowaHoward,Iowa,Howard,2021-04-04 10:53:07.721885,2020-03-16 00:00:00.000000,0.01989910,0.06482021,0.17414787,1,5,15,0,2,9,0.00573435,0.02520219,0.09947185,0.33082230,0.43490579,0.60848403
19089,0,USIowaHoward,Iowa,Howard,2021-04-04 10:53:07.721885,2020-03-17 00:00:00.000000,0.02530704,0.08337103,0.19874492,2,7,18,0,2,9,0.00930642,0.03040108,0.10807484,0.29532904,0.43150125,0.60047020
19089,0,USIowaHoward,Iowa,Howard,2021-04-04 10:53:07.721885,2020-03-18 00:00:00.000000,0.03402411,0.10268550,0.21105374,3,9,19,1,3,10,0.01201627,0.03819985,0.11627060,0.28390293,0.41818334,0.59762658
19089,0,USIowaHoward,Iowa,Howard,2021-04-04 10:53:07.721885,2020-03-19 00:00:00.000000,0.04295511,0.11948205,0.22995521,3,10,21,1,4,11,0.01731649,0.04668162,0.12409382,0.24268435,0.39463880,0.58716600
19089,0,USIowaHoward,Iowa,Howard,2021-04-04 10:53:07.721885,2020-03-20 00:00:00.000000,0.05173888,0.13467624,0.25027702,4,12,22,2,5,12,0.02215270,0.05781179,0.14079756,0.23232467,0.37219049,0.57457209
19089,0,USIowaHoward,Iowa,Howard,2021-04-04 10:53:07.721885,2020-03-21 00:00:00.000000,0.05843580,0.15073949,0.27090650,5,13,24,2,6,14,0.02741638,0.06563159,0.15541060,0.22522252,0.34470394,0.54659919
19089,0,USIowaHoward,Iowa,Howard,2021-04-04 10:53:07.721885,2020-03-22 00:00:00.000000,0.06382607,0.16488282,0.29089184,5,15,26,3,6,15,0.03294365,0.07386960,0.16888801,0.22455905,0.32252724,0.53054423
19089,0,USIowaHoward,Iowa,Howard,2021-04-04 10:53:07.721885,2020-03-23 00:00:00.000000,0.07658231,0.17841141,0.30689149,7,16,28,3,7,16,0.03843670,0.08531085,0.18231832,0.21328338,0.31197793,0.52191490
19089,0,USIowaHoward,Iowa,Howard,2021-04-04 10:53:07.721885,2020-03-24 00:00:00.000000,0.10062856,0.19677668,0.32045002,9,18,29,3,8,17,0.04162392,0.09266177,0.19433046,0.20320188,0.30569977,0.51297068
19089,0,USIowaHoward,Iowa,Howard,2021-04-04 10:53:07.721885,2020-03-25 00:00:00.000000,0.10755088,0.21402975,0.34430428,9,19,31,4,9,18,0.04473182,0.10076821,0.20476397,0.19511420,0.29561633,0.50770713
19089,0,USIowaHoward,Iowa,Howard,2021-04-04 10:53:07.721885,2020-03-26 00:00:00.000000,0.11443566,0.23443789,0.39048344,10,21,35,4,10,19,0.05303217,0.11246655,0.21362651,0.18604298,0.28071690,0.49795836
19089,0,USIowaHoward,Iowa,Howard,2021-04-04 10:53:07.721885,2020-03-27 00:00:00.000000,0.12126478,0.25760123,0.42094793,11,23,38,5,11,21,0.05688935,0.12068768,0.22994685,0.17974194,0.26754268,0.48091496
19089,0,USIowaHoward,Iowa,Howard,2021-04-04 10:53:07.721885,2020-03-28 00:00:00.000000,0.12801327,0.27122302,0.43573491,11,24,39,5,11,21,0.06072301,0.12938343,0.23979719,0.17007781,0.25363310,0.46596981
19089,0,USIowaHoward,Iowa,Howard,2021-04-04 10:53:07.721885,2020-03-29 00:00:00.000000,0.13464149,0.28135722,0.47505583,12,25,43,5,12,22,0.06452490,0.13760664,0.24888328,0.16280391,0.24689403,0.41845564
19089,0,USIowaHoward,Iowa,Howard,2021-04-04 10:53:07.721885,2020-03-30 00:00:00.000000,0.14418889,0.29394863,0.48910388,13,26,44,6,13,23,0.06895180,0.14746493,0.25756851,0.15781868,0.23269737,0.40966005
19089,0,USIowaHoward,Iowa,Howard,2021-04-04 10:53:07.721885,2020-03-31 00:00:00.000000,0.15348108,0.30008836,0.50000951,14,27,45,6,14,24,0.07619390,0.15570468,0.26637658,0.14542821,0.22278134,0.37630915
19089,0,USIowaHoward,Iowa,Howard,2021-04-04 10:53:07.721885,2020-04-01 00:00:00.000000,0.16624786,0.30610528,0.50725156,15,28,46,7,14,25,0.08492618,0.16168832,0.28284804,0.13770998,0.21664579,0.35333741
19089,0,USIowaHoward,Iowa,Howard,2021-04-04 10:53:07.721885,2020-04-02 00:00:00.000000,0.18240800,0.31590171,0.51064240,16,28,46,8,15,27,0.09442204,0.16777319,0.29661622,0.12814579,0.21081772,0.34198001
19089,0,USIowaHoward,Iowa,Howard,2021-04-04 10:53:07.721885,2020-04-03 00:00:00.000000,0.19815443,0.32435921,0.51074597,18,29,46,9,15,27,0.10424733,0.17446511,0.30486580,0.11654712,0.20738832,0.33170226
19089,0,USIowaHoward,Iowa,Howard,2021-04-04 10:53:07.721885,2020-04-04 00:00:00.000000,0.21319792,0.33355935,0.51601764,19,30,47,10,16,28,0.11410196,0.17899701,0.30795710,0.11426327,0.19890289,0.31781712
19089,0,USIowaHoward,Iowa,Howard,2021-04-04 10:53:07.721885,2020-04-05 00:00:00.000000,0.22736717,0.33485996,0.52828082,20,30,48,11,16,28,0.12193831,0.18560001,0.30971972,0.11099527,0.19299569,0.30658707
19089,0,USIowaHoward,Iowa,Howard,2021-04-04 10:53:07.721885,2020-04-06 00:00:00.000000,0.23386743,0.34004146,0.53029601,21,31,48,11,17,29,0.12396889,0.19052266,0.31674648,0.10179678,0.18976157,0.30152726
19089,0,USIowaHoward,Iowa,Howard,2021-04-04 10:53:07.721885,2020-04-07 00:00:00.000000,0.23961880,0.34251617,0.54895197,21,31,50,11,17,29,0.12747798,0.19143489,0.32251255,0.09709137,0.18475037,0.30032856
19089,0,USIowaHoward,Iowa,Howard,2021-04-04 10:53:07.721885,2020-04-08 00:00:00.000000,0.23304910,0.34895118,0.57098432,21,31,52,12,17,31,0.13322548,0.19353712,0.33893997,0.09193909,0.17901355,0.29662805
19089,0,USIowaHoward,Iowa,Howard,2021-04-04 10:53:07.721885,2020-04-09 00:00:00.000000,0.23983872,0.36090831,0.59290954,21,33,54,12,18,32,0.13419229,0.19664564,0.35603904,0.08822224,0.17545280,0.29139466
19089,0,USIowaHoward,Iowa,Howard,2021-04-04 10:53:07.721885,2020-04-10 00:00:00.000000,0.23081081,0.35932321,0.61436668,21,32,56,12,18,34,0.13481777,0.19735366,0.37237234,0.08641446,0.17060608,0.28598829
19089,0,USIowaHoward,Iowa,Howard,2021-04-04 10:53:07.721885,2020-04-11 00:00:00.000000,0.22002242,0.36851987,0.63494835,20,33,58,12,18,35,0.13460680,0.20102537,0.38330042,0.08620079,0.16336714,0.27695438
19089,0,USIowaHoward,Iowa,Howard,2021-04-04 10:53:07.721885,2020-04-12 00:00:00.000000,0.21564747,0.37399171,0.65432775,19,34,59,12,18,36,0.13467880,0.20325377,0.39320615,0.08588961,0.16007132,0.26646222
19089,0,USIowaHoward,Iowa,Howard,2021-04-04 10:53:07.721885,2020-04-13 00:00:00.000000,0.22550324,0.37556216,0.67031759,20,34,61,12,18,36,0.13188423,0.20228293,0.40146329,0.08553850,0.15433048,0.26004985
19089,0,USIowaHoward,Iowa,Howard,2021-04-04 10:53:07.721885,2020-04-14 00:00:00.000000,0.22668193,0.37094806,0.68430429,20,33,62,12,18,36,0.13314590,0.20091747,0.40095620,0.08569250,0.15194004,0.25742165
19089,0,USIowaHoward,Iowa,Howard,2021-04-04 10:53:07.721885,2020-04-15 00:00:00.000000,0.22169501,0.38389661,0.69591012,20,35,63,12,18,37,0.13252412,0.20677528,0.40444101,0.08538977,0.14736404,0.25716874
19089,0,USIowaHoward,Iowa,Howard,2021-04-04 10:53:07.721885,2020-04-16 00:00:00.000000,0.21712030,0.37622646,0.70495568,19,34,64,11,18,37,0.12998976,0.20634349,0.41317163,0.08319768,0.14264776,0.25640117
19089,0,USIowaHoward,Iowa,Howard,2021-04-04 10:53:07.721885,2020-04-17 00:00:00.000000,0.21289748,0.38198327,0.70552793,19,34,64,11,19,38,0.12682740,0.21173063,0.42057672,0.08253481,0.13866422,0.25431140
19089,0,USIowaHoward,Iowa,Howard,2021-04-04 10:53:07.721885,2020-04-18 00:00:00.000000,0.20905676,0.38872947,0.70474453,19,35,64,11,19,39,0.12403423,0.21501230,0.42639785,0.08116457,0.13846724,0.25089802
19089,0,USIowaHoward,Iowa,Howard,2021-04-04 10:53:07.721885,2020-04-19 00:00:00.000000,0.20538714,0.38740939,0.70518518,18,35,64,11,20,39,0.12160623,0.22014491,0.42783974,0.07745643,0.13291161,0.24287412
19089,0,USIowaHoward,Iowa,Howard,2021-04-04 10:53:07.721885,2020-04-20 00:00:00.000000,0.20384371,0.39731626,0.69727331,18,36,63,11,19,39,0.12180052,0.21832757,0.42779229,0.07339008,0.13019003,0.23497292
19089,0,USIowaHoward,Iowa,Howard,2021-04-04 10:53:07.721885,2020-04-21 00:00:00.000000,0.20251886,0.39679593,0.70479435,18,36,64,10,19,39,0.11876572,0.21794213,0.42700153,0.07137402,0.12801327,0.24223523
19089,0,USIowaHoward,Iowa,Howard,2021-04-04 10:53:07.721885,2020-04-22 00:00:00.000000,0.20155395,0.39126344,0.70948860,18,35,64,10,19,38,0.11669258,0.21740916,0.42053543,0.07115769,0.12789139,0.23754965
19089,0,USIowaHoward,Iowa,Howard,2021-04-04 10:53:07.721885,2020-04-23 00:00:00.000000,0.19973931,0.38799434,0.70801514,18,35,64,10,19,40,0.11591920,0.21789123,0.43743853,0.07088624,0.12519620,0.22269938
19089,0,USIowaHoward,Iowa,Howard,2021-04-04 10:53:07.721885,2020-04-24 00:00:00.000000,0.19210288,0.39546546,0.70650824,17,36,64,10,20,39,0.11450685,0.22282130,0.43605609,0.07059860,0.12603221,0.21396856
19089,0,USIowaHoward,Iowa,Howard,2021-04-04 10:53:07.721885,2020-04-25 00:00:00.000000,0.18479909,0.39301329,0.70511653,16,35,64,10,20,39,0.11143621,0.22259813,0.43479560,0.07036033,0.12512061,0.21467019
19089,0,USIowaHoward,Iowa,Howard,2021-04-04 10:53:07.721885,2020-04-26 00:00:00.000000,0.17767232,0.39196461,0.71227098,16,35,65,9,20,40,0.10913292,0.22462189,0.43892705,0.06908438,0.12582929,0.21400356
19089,0,USIowaHoward,Iowa,Howard,2021-04-04 10:53:07.721885,2020-04-27 00:00:00.000000,0.18167320,0.39019619,0.71444996,16,35,65,9,20,41,0.10408114,0.22422297,0.45440272,0.06854175,0.12794600,0.21162161
19089,0,USIowaHoward,Iowa,Howard,2021-04-04 10:53:07.721885,2020-04-28 00:00:00.000000,0.18111966,0.38836659,0.72472711,16,35,66,9,20,41,0.10318942,0.22559203,0.45313906,0.06887425,0.12691925,0.21543683
19089,0,USIowaHoward,Iowa,Howard,2021-04-04 10:53:07.721885,2020-04-29 00:00:00.000000,0.17404384,0.37980115,0.73292505,15,34,67,9,20,40,0.10448418,0.21946789,0.44369607,0.06764523,0.12354802,0.21569114
19089,0,USIowaHoward,Iowa,Howard,2021-04-04 10:53:07.721885,2020-04-30 00:00:00.000000,0.17388283,0.36939212,0.73550489,15,33,67,9,20,40,0.10684941,0.21900185,0.44350392,0.06526665,0.12193932,0.21386580
19089,0,USIowaHoward,Iowa,Howard,2021-04-04 10:53:07.721885,2020-05-01 00:00:00.000000,0.17636708,0.36662390,0.73402504,16,33,67,10,19,40,0.10982683,0.21363459,0.44673961,0.06197770,0.12137137,0.21309910
19089,0,USIowaHoward,Iowa,Howard,2021-04-04 10:53:07.721885,2020-05-02 00:00:00.000000,0.17858310,0.36972039,0.73072550,16,33,66,10,19,41,0.11294561,0.21301025,0.44816868,0.05869783,0.12008787,0.21276541
19089,0,USIowaHoward,Iowa,Howard,2021-04-04 10:53:07.721885,2020-05-03 00:00:00.000000,0.18045752,0.35925477,0.72659151,16,32,66,10,19,41,0.11398734,0.21043494,0.44808472,0.06455176,0.11866545,0.21253408
19089,0,USIowaHoward,Iowa,Howard,2021-04-04 10:53:07.721885,2020-05-04 00:00:00.000000,0.16717395,0.34345557,0.68447293,15,31,62,10,19,40,0.11112065,0.21232268,0.44695202,0.06282229,0.11617140,0.21179098
19089,0,USIowaHoward,Iowa,Howard,2021-04-04 10:53:07.721885,2020-05-05 00:00:00.000000,0.15581243,0.32258291,0.64232595,14,29,58,9,18,39,0.10683064,0.20312676,0.43541922,0.06055532,0.11591330,0.21600034
19089,0,USIowaHoward,Iowa,Howard,2021-04-04 10:53:07.721885,2020-05-06 00:00:00.000000,0.14631781,0.30197224,0.59992033,13,27,54,9,17,38,0.10174215,0.19489651,0.41762067,0.06003610,0.11483079,0.22266647
19089,0,USIowaHoward,Iowa,Howard,2021-04-04 10:53:07.721885,2020-05-07 00:00:00.000000,0.13673541,0.28349671,0.55843134,12,25,51,8,16,36,0.09625758,0.18529443,0.39630924,0.06010909,0.11455406,0.22842553
19089,0,USIowaHoward,Iowa,Howard,2021-04-04 10:53:07.721885,2020-05-08 00:00:00.000000,0.12739095,0.26461160,0.51845875,11,24,47,8,15,34,0.08779544,0.17211268,0.37329406,0.06028593,0.11395271,0.23283764
19089,0,USIowaHoward,Iowa,Howard,2021-04-04 10:53:07.721885,2020-05-09 00:00:00.000000,0.11845613,0.24689506,0.49281208,10,22,45,7,14,32,0.08215811,0.15959453,0.35153850,0.06041749,0.11581921,0.22157739
19089,0,USIowaHoward,Iowa,Howard,2021-04-04 10:53:07.721885,2020-05-10 00:00:00.000000,0.11001318,0.22726186,0.47092857,10,20,43,6,13,30,0.07542758,0.14819532,0.33737257,0.05803356,0.11619928,0.20717724
19089,0,USIowaHoward,Iowa,Howard,2021-04-04 10:53:07.721885,2020-05-11 00:00:00.000000,0.10181870,0.20991568,0.44976072,9,19,41,6,12,29,0.06852228,0.13872674,0.32320886,0.05796406,0.11729135,0.20582828
19089,0,USIowaHoward,Iowa,Howard,2021-04-04 10:53:07.721885,2020-05-12 00:00:00.000000,0.09038354,0.19543437,0.42931020,8,17,39,5,11,28,0.06237003,0.13043002,0.30926564,0.05767584,0.11592009,0.20269455
19089,0,USIowaHoward,Iowa,Howard,2021-04-04 10:53:07.721885,2020-05-13 00:00:00.000000,0.08010729,0.18178676,0.41142194,7,16,37,5,11,27,0.05693928,0.12173403,0.29565292,0.05642522,0.11570029,0.20017440
19089,0,USIowaHoward,Iowa,Howard,2021-04-04 10:53:07.721885,2020-05-14 00:00:00.000000,0.07092594,0.16900048,0.39635424,6,15,36,4,10,25,0.05206035,0.11358183,0.28237060,0.05463093,0.11444268,0.21526566
19089,0,USIowaHoward,Iowa,Howard,2021-04-04 10:53:07.721885,2020-05-15 00:00:00.000000,0.06275894,0.15669353,0.38188521,5,14,34,4,9,24,0.04612134,0.10509969,0.26944040,0.05566613,0.11591563,0.22280443
19089,0,USIowaHoward,Iowa,Howard,2021-04-04 10:53:07.721885,2020-05-16 00:00:00.000000,0.05791152,0.14503523,0.36798127,5,13,33,3,8,23,0.04081127,0.09683661,0.25691835,0.05515563,0.11593449,0.22661259
19089,0,USIowaHoward,Iowa,Howard,2021-04-04 10:53:07.721885,2020-05-17 00:00:00.000000,0.05307312,0.13519531,0.35463862,4,12,32,3,8,22,0.03608079,0.08918903,0.24483751,0.05699508,0.11566553,0.22519772
19089,0,USIowaHoward,Iowa,Howard,2021-04-04 10:53:07.721885,2020-05-18 00:00:00.000000,0.04675844,0.12561475,0.34186475,4,11,31,2,7,21,0.03187801,0.08237407,0.23320554,0.05974775,0.11660254,0.23024548
19089,0,USIowaHoward,Iowa,Howard,2021-04-04 10:53:07.721885,2020-05-19 00:00:00.000000,0.04126037,0.11675491,0.32971268,3,10,30,2,6,20,0.02818771,0.07643056,0.22200590,0.06067241,0.11761320,0.23122750
19089,0,USIowaHoward,Iowa,Howard,2021-04-04 10:53:07.721885,2020-05-20 00:00:00.000000,0.03646921,0.10863280,0.31829339,3,9,29,2,6,19,0.02555949,0.07087769,0.21120682,0.06089333,0.12024935,0.23141853
19089,0,USIowaHoward,Iowa,Howard,2021-04-04 10:53:07.721885,2020-05-21 00:00:00.000000,0.03229242,0.10160288,0.30770377,2,9,28,2,6,18,0.02329976,0.06649143,0.20191239,0.06045798,0.12081862,0.23224945
19089,0,USIowaHoward,Iowa,Howard,2021-04-04 10:53:07.721885,2020-05-22 00:00:00.000000,0.02864437,0.09523686,0.29789128,2,8,27,1,5,17,0.02062188,0.06243663,0.19494797,0.06033221,0.12016547,0.23865549
19089,0,USIowaHoward,Iowa,Howard,2021-04-04 10:53:07.721885,2020-05-23 00:00:00.000000,0.02544718,0.08894835,0.28868855,2,8,26,1,5,17,0.01828401,0.05860823,0.18843475,0.06031480,0.12103374,0.24656765
19089,0,USIowaHoward,Iowa,Howard,2021-04-04 10:53:07.721885,2020-05-24 00:00:00.000000,0.02263583,0.08180329,0.27995493,2,7,25,1,4,16,0.01623693,0.05436145,0.18233593,0.06007487,0.12178166,0.24642784
19089,0,USIowaHoward,Iowa,Howard,2021-04-04 10:53:07.721885,2020-05-25 00:00:00.000000,0.02015957,0.07593266,0.27160404,1,6,24,1,4,16,0.01443847,0.05056158,0.17659279,0.05843729,0.12251049,0.23648740
19089,0,USIowaHoward,Iowa,Howard,2021-04-04 10:53:07.721885,2020-05-26 00:00:00.000000,0.01798014,0.07168138,0.26359419,1,6,24,1,4,15,0.01285488,0.04706175,0.17114960,0.06034355,0.12493382,0.22968615
19089,0,USIowaHoward,Iowa,Howard,2021-04-04 10:53:07.721885,2020-05-27 00:00:00.000000,0.01606838,0.06696853,0.25592787,1,6,23,1,4,15,0.01146052,0.04415162,0.16596471,0.06036812,0.12631586,0.22817560
19089,0,USIowaHoward,Iowa,Howard,2021-04-04 10:53:07.721885,2020-05-28 00:00:00.000000,0.01439864,0.06273412,0.24810664,1,5,22,0,3,14,0.01023594,0.04143804,0.16101581,0.06057156,0.12667740,0.22702626
19089,0,USIowaHoward,Iowa,Howard,2021-04-04 10:53:07.721885,2020-05-29 00:00:00.000000,0.01294258,0.05883516,0.23539802,1,5,21,0,3,14,0.00916488,0.03863193,0.15629974,0.07052885,0.12830424,0.23267479
19089,0,USIowaHoward,Iowa,Howard,2021-04-04 10:53:07.721885,2020-05-30 00:00:00.000000,0.01166792,0.05532384,0.22624245,1,5,20,0,3,13,0.00823046,0.03651167,0.15182418,0.07009790,0.13049094,0.24094512
19089,0,USIowaHoward,Iowa,Howard,2021-04-04 10:53:07.721885,2020-05-31 00:00:00.000000,0.01054340,0.05216734,0.21870083,0,4,20,0,3,13,0.00741352,0.03427461,0.14758934,0.06868800,0.12964953,0.22947461
19089,0,USIowaHoward,Iowa,Howard,2021-04-04 10:53:07.721885,2020-06-01 00:00:00.000000,0.02561089,0.06947433,0.23762156,2,6,21,0,2,13,0.00669461,0.03217767,0.14287366,0.06810625,0.13226149,0.22260378
19089,0,USIowaHoward,Iowa,Howard,2021-04-04 10:53:07.721885,2020-06-02 00:00:00.000000,0.03817138,0.08286114,0.24818549,3,7,22,1,3,13,0.01317272,0.03573755,0.14343798,0.06888951,0.13479767,0.22251352
19089,0,USIowaHoward,Iowa,Howard,2021-04-04 10:53:07.721885,2020-06-03 00:00:00.000000,0.04465869,0.09936309,0.26865281,4,9,24,1,3,13,0.01744947,0.04283903,0.14730474,0.07117097,0.13630577,0.22224631
19089,0,USIowaHoward,Iowa,Howard,2021-04-04 10:53:07.721885,2020-06-04 00:00:00.000000,0.05064416,0.11016579,0.32198473,4,10,29,2,4,14,0.02251549,0.04832681,0.15954653,0.07421251,0.13849644,0.22146519
19089,0,USIowaHoward,Iowa,Howard,2021-04-04 10:53:07.721885,2020-06-05 00:00:00.000000,0.05641741,0.12189611,0.39024718,5,11,35,2,4,15,0.02603416,0.05437377,0.17305038,0.07482169,0.14019753,0.21932666
19089,0,USIowaHoward,Iowa,Howard,2021-04-04 10:53:07.721885,2020-06-06 00:00:00.000000,0.06125416,0.13556674,0.45665636,5,12,41,2,5,17,0.02899595,0.06199651,0.19596505,0.07617937,0.14074040,0.22018546
19089,0,USIowaHoward,Iowa,Howard,2021-04-04 10:53:07.721885,2020-06-07 00:00:00.000000,0.06617129,0.14525823,0.51261043,6,13,46,2,6,21,0.03211104,0.07096680,0.23532051,0.07532300,0.14526873,0.22576309
19089,0,USIowaHoward,Iowa,Howard,2021-04-04 10:53:07.721885,2020-06-08 00:00:00.000000,0.07839570,0.17011683,0.52361811,7,15,47,3,7,24,0.03542517,0.07970697,0.27081081,0.07489693,0.14508886,0.22931249
19089,0,USIowaHoward,Iowa,Howard,2021-04-04 10:53:07.721885,2020-06-09 00:00:00.000000,0.08590916,0.18916151,0.53415502,7,17,48,3,7,26,0.04265200,0.08664613,0.28917662,0.07471161,0.14257265,0.23090539
19089,0,USIowaHoward,Iowa,Howard,2021-04-04 10:53:07.721885,2020-06-10 00:00:00.000000,0.09333359,0.21012698,0.54382832,8,19,49,4,8,27,0.04885898,0.09451615,0.30270060,0.07463573,0.14582382,0.23320187
19089,0,USIowaHoward,Iowa,Howard,2021-04-04 10:53:07.721885,2020-06-11 00:00:00.000000,0.10071322,0.22299076,0.55346831,9,20,50,4,9,28,0.05333323,0.09890684,0.31314182,0.07461085,0.14701535,0.24494634
19089,0,USIowaHoward,Iowa,Howard,2021-04-04 10:53:07.721885,2020-06-12 00:00:00.000000,0.10815950,0.24241391,0.56358715,9,22,51,5,9,29,0.05780169,0.10776336,0.32173975,0.07462835,0.14892124,0.24621004
19089,0,USIowaHoward,Iowa,Howard,2021-04-04 10:53:07.721885,2020-06-13 00:00:00.000000,0.11564672,0.25729498,0.57435143,10,23,52,5,11,30,0.06230647,0.12278759,0.32935366,0.07787367,0.14994414,0.24764858
19089,0,USIowaHoward,Iowa,Howard,2021-04-04 10:53:07.721885,2020-06-14 00:00:00.000000,0.12306224,0.26782528,0.58567060,11,24,53,6,11,30,0.06683546,0.13098961,0.33653641,0.07769389,0.15368368,0.25043270
19089,0,USIowaHoward,Iowa,Howard,2021-04-04 10:53:07.721885,2020-06-15 00:00:00.000000,0.14476538,0.30277433,0.59382849,13,27,54,6,12,31,0.07079535,0.13870039,0.34359648,0.07856120,0.15334779,0.26842795
19089,0,USIowaHoward,Iowa,Howard,2021-04-04 10:53:07.721885,2020-06-16 00:00:00.000000,0.15579752,0.32130669,0.58204220,14,29,53,7,13,32,0.07690428,0.15264974,0.34982568,0.07987807,0.15162914,0.27500866
19089,0,USIowaHoward,Iowa,Howard,2021-04-04 10:53:07.721885,2020-06-17 00:00:00.000000,0.15943619,0.35606084,0.61969839,14,32,56,7,15,31,0.08159110,0.16669721,0.34748126,0.08200617,0.15269740,0.28077674
19089,0,USIowaHoward,Iowa,Howard,2021-04-04 10:53:07.721885,2020-06-18 00:00:00.000000,0.16277791,0.36342844,0.68457195,14,33,62,7,16,31,0.08386612,0.18135923,0.33966166,0.08268312,0.15353804,0.28252818
19089,0,USIowaHoward,Iowa,Howard,2021-04-04 10:53:07.721885,2020-06-19 00:00:00.000000,0.16588959,0.37023903,0.77414084,15,33,70,7,18,33,0.08585729,0.19867203,0.36723286,0.08260010,0.15506756,0.28285310
19089,0,USIowaHoward,Iowa,Howard,2021-04-04 10:53:07.721885,2020-06-20 00:00:00.000000,0.16879264,0.38883927,0.86262445,15,35,78,8,19,36,0.08767410,0.20787510,0.39421688,0.08376809,0.15491299,0.28857971
19089,0,USIowaHoward,Iowa,Howard,2021-04-04 10:53:07.721885,2020-06-21 00:00:00.000000,0.17149801,0.40249131,0.94772741,15,36,86,8,19,39,0.08935780,0.21441844,0.42969434,0.08512111,0.15648856,0.28286245
19089,0,USIowaHoward,Iowa,Howard,2021-04-04 10:53:07.721885,2020-06-22 00:00:00.000000,0.23053527,0.45250701,0.94464944,21,41,86,8,20,42,0.09091912,0.22295396,0.46441559,0.08577666,0.15787231,0.28113405
19089,0,USIowaHoward,Iowa,Howard,2021-04-04 10:53:07.721885,2020-06-23 00:00:00.000000,0.28412011,0.51451579,0.96818874,26,47,88,9,22,44,0.10615164,0.24237438,0.48502188,0.08607531,0.16126017,0.28092117
19089,0,USIowaHoward,Iowa,Howard,2021-04-04 10:53:07.721885,2020-06-24 00:00:00.000000,0.32713678,0.56082028,0.98326637,29,51,90,12,24,45,0.14105478,0.26677199,0.49974391,0.08633312,0.16527795,0.28083509
19089,0,USIowaHoward,Iowa,Howard,2021-04-04 10:53:07.721885,2020-06-25 00:00:00.000000,0.36329269,0.62761067,0.97425072,33,57,89,15,26,47,0.16624312,0.28720837,0.51619019,0.08706005,0.16883404,0.28043240
19089,0,USIowaHoward,Iowa,Howard,2021-04-04 10:53:07.721885,2020-06-26 00:00:00.000000,0.37675562,0.68257975,1.00232737,34,62,91,16,29,48,0.18127582,0.31912923,0.52927498,0.08996299,0.17113540,0.27814627
19089,0,USIowaHoward,Iowa,Howard,2021-04-04 10:53:07.721885,2020-06-27 00:00:00.000000,0.39060051,0.69504863,1.05323722,35,63,96,17,32,51,0.18642136,0.35289296,0.56596167,0.09817527,0.16722345,0.26829719
19089,0,USIowaHoward,Iowa,Howard,2021-04-04 10:53:07.721885,2020-06-28 00:00:00.000000,0.40536268,0.72813969,1.12166766,37,66,102,17,34,55,0.19074947,0.37882061,0.60623481,0.10416249,0.16034837,0.27980332
19089,0,USIowaHoward,Iowa,Howard,2021-04-04 10:53:07.721885,2020-06-29 00:00:00.000000,0.41759837,0.73075002,1.13896390,38,66,104,18,37,58,0.19943052,0.40819781,0.64385493,0.10932126,0.16198898,0.27623426
19089,0,USIowaHoward,Iowa,Howard,2021-04-04 10:53:07.721885,2020-06-30 00:00:00.000000,0.42555307,0.73671460,1.15286061,38,67,105,19,38,61,0.20858417,0.42316614,0.67226078,0.11508390,0.16679583,0.27295998
19089,0,USIowaHoward,Iowa,Howard,2021-04-04 10:53:07.721885,2020-07-01 00:00:00.000000,0.43130995,0.73281606,1.15962825,39,67,106,19,38,63,0.21407760,0.42317709,0.69530780,0.11641754,0.17017268,0.25915898
19089,0,USIowaHoward,Iowa,Howard,2021-04-04 10:53:07.721885,2020-07-02 00:00:00.000000,0.43635432,0.72594611,1.15706174,39,66,105,19,38,64,0.21771057,0.42188466,0.70270587,0.12264339,0.17036701,0.25400226
19089,0,USIowaHoward,Iowa,Howard,2021-04-04 10:53:07.721885,2020-07-03 00:00:00.000000,0.44173319,0.72429150,1.15224556,40,66,105,20,38,64,0.22054580,0.41785267,0.69928683,0.12444229,0.17037377,0.25705782
19089,0,USIowaHoward,Iowa,Howard,2021-04-04 10:53:07.721885,2020-07-04 00:00:00.000000,0.43449379,0.72125374,1.14572589,39,66,104,20,38,63,0.22326228,0.41763136,0.69283538,0.12462377,0.17110259,0.25772240
19089,0,USIowaHoward,Iowa,Howard,2021-04-04 10:53:07.721885,2020-07-05 00:00:00.000000,0.41796308,0.71439246,1.13782744,38,65,104,20,38,62,0.22627675,0.42002458,0.68336052,0.12500004,0.17089728,0.25640058
19089,0,USIowaHoward,Iowa,Howard,2021-04-04 10:53:07.721885,2020-07-06 00:00:00.000000,0.42701505,0.71321805,1.10697794,39,65,101,21,38,61,0.22975674,0.41697452,0.67218652,0.12468860,0.17353262,0.25788373
19089,0,USIowaHoward,Iowa,Howard,2021-04-04 10:53:07.721885,2020-07-07 00:00:00.000000,0.42929003,0.70945245,1.09515208,39,64,100,20,38,61,0.22785252,0.41918237,0.66730932,0.12266844,0.17453059,0.25799946
19089,0,USIowaHoward,Iowa,Howard,2021-04-04 10:53:07.721885,2020-07-08 00:00:00.000000,0.41742671,0.71492117,1.10350067,38,65,101,20,38,60,0.22361769,0.42522041,0.66562410,0.12123711,0.17677423,0.25984612
19089,0,USIowaHoward,Iowa,Howard,2021-04-04 10:53:07.721885,2020-07-09 00:00:00.000000,0.41395048,0.71439454,1.11125211,37,65,101,20,39,60,0.22130382,0.42652522,0.66576425,0.12034067,0.18029616,0.27494269
19089,0,USIowaHoward,Iowa,Howard,2021-04-04 10:53:07.721885,2020-07-10 00:00:00.000000,0.40344409,0.71494105,1.09780912,36,65,100,20,38,61,0.22363789,0.42196403,0.66716897,0.11985646,0.18141538,0.27512817
19089,0,USIowaHoward,Iowa,Howard,2021-04-04 10:53:07.721885,2020-07-11 00:00:00.000000,0.39379904,0.71501333,1.10859265,36,65,101,20,38,60,0.22058338,0.41732726,0.66081258,0.12041497,0.18373000,0.27513856
19089,0,USIowaHoward,Iowa,Howard,2021-04-04 10:53:07.721885,2020-07-12 00:00:00.000000,0.38609673,0.71487820,1.11896715,35,65,102,19,37,58,0.21364871,0.41132901,0.64125272,0.12812996,0.18675561,0.28300317
19089,0,USIowaHoward,Iowa,Howard,2021-04-04 10:53:07.721885,2020-07-13 00:00:00.000000,0.40926429,0.70832398,1.10922067,37,64,101,18,37,58,0.20667235,0.40685379,0.63840485,0.12872630,0.19190959,0.29361320
19089,0,USIowaHoward,Iowa,Howard,2021-04-04 10:53:07.721885,2020-07-14 00:00:00.000000,0.41735409,0.71857002,1.08648703,38,65,99,19,37,58,0.21496753,0.40691663,0.64190454,0.12471322,0.19513520,0.29619783
19089,0,USIowaHoward,Iowa,Howard,2021-04-04 10:53:07.721885,2020-07-15 00:00:00.000000,0.40982603,0.71263211,1.06539267,37,65,97,20,37,59,0.22059687,0.41199841,0.64669148,0.13385288,0.19968153,0.29491874
19089,0,USIowaHoward,Iowa,Howard,2021-04-04 10:53:07.721885,2020-07-16 00:00:00.000000,0.40327385,0.71036345,1.05302503,36,65,96,20,37,58,0.22585939,0.41081910,0.63864049,0.13880345,0.19936927,0.31093850
19089,0,USIowaHoward,Iowa,Howard,2021-04-04 10:53:07.721885,2020-07-17 00:00:00.000000,0.39748249,0.70824879,1.06162919,36,64,97,19,37,58,0.21428743,0.41028946,0.63864428,0.14322178,0.20849028,0.31307911
19089,0,USIowaHoward,Iowa,Howard,2021-04-04 10:53:07.721885,2020-07-18 00:00:00.000000,0.39263581,0.71112222,1.07902161,35,65,98,18,37,58,0.20481124,0.40554430,0.64386682,0.14292893,0.21683545,0.32328055
19089,0,USIowaHoward,Iowa,Howard,2021-04-04 10:53:07.721885,2020-07-19 00:00:00.000000,0.38858079,0.71437589,1.09850289,35,65,100,18,36,59,0.19937828,0.40310716,0.65167418,0.15014043,0.22250462,0.31579562
19089,0,USIowaHoward,Iowa,Howard,2021-04-04 10:53:07.721885,2020-07-20 00:00:00.000000,0.37461500,0.72923868,1.13199786,34,66,103,17,37,60,0.19592772,0.40592840,0.65712022,0.15016945,0.22847482,0.32492106
19089,0,USIowaHoward,Iowa,Howard,2021-04-04 10:53:07.721885,2020-07-21 00:00:00.000000,0.37749598,0.74086820,1.16599406,34,67,106,17,37,61,0.19358561,0.41034623,0.66715679,0.15441455,0.23577994,0.32759215
19089,0,USIowaHoward,Iowa,Howard,2021-04-04 10:53:07.721885,2020-07-22 00:00:00.000000,0.38003641,0.74383563,1.19991146,34,68,109,18,38,61,0.19705775,0.41848698,0.66854045,0.16708500,0.24522177,0.32845540
19089,0,USIowaHoward,Iowa,Howard,2021-04-04 10:53:07.721885,2020-07-23 00:00:00.000000,0.38297729,0.76803893,1.23496400,35,70,113,18,38,61,0.20235542,0.42512057,0.66836890,0.18196986,0.24827710,0.33179386
19089,0,USIowaHoward,Iowa,Howard,2021-04-04 10:53:07.721885,2020-07-24 00:00:00.000000,0.39030216,0.78445284,1.27161948,35,71,116,19,39,62,0.20860604,0.43557892,0.68230086,0.18300201,0.25567212,0.33566179
19089,0,USIowaHoward,Iowa,Howard,2021-04-04 10:53:07.721885,2020-07-25 00:00:00.000000,0.39808800,0.82096775,1.31087743,36,75,120,19,40,65,0.21566827,0.44644244,0.71659159,0.17215797,0.26556766,0.36170151
19089,0,USIowaHoward,Iowa,Howard,2021-04-04 10:53:07.721885,2020-07-26 00:00:00.000000,0.41007045,0.83655491,1.33717749,37,76,122,20,41,67,0.22360572,0.45831317,0.74247135,0.17317234,0.27489490,0.38746565
19089,0,USIowaHoward,Iowa,Howard,2021-04-04 10:53:07.721885,2020-07-27 00:00:00.000000,0.41258055,0.87204101,1.37027701,37,79,125,19,42,68,0.21834534,0.46554122,0.75212241,0.18423403,0.29332310,0.41064837
19089,0,USIowaHoward,Iowa,Howard,2021-04-04 10:53:07.721885,2020-07-28 00:00:00.000000,0.41869399,0.89618318,1.40513801,38,82,128,21,43,70,0.22955591,0.47752216,0.76511689,0.18894946,0.30841488,0.43508476
19089,0,USIowaHoward,Iowa,Howard,2021-04-04 10:53:07.721885,2020-07-29 00:00:00.000000,0.46637763,0.94116164,1.44269006,42,86,132,22,45,71,0.25025808,0.49725370,0.78054021,0.19414600,0.32175761,0.44905965
19089,0,USIowaHoward,Iowa,Howard,2021-04-04 10:53:07.721885,2020-07-30 00:00:00.000000,0.48595528,0.97518581,1.49326325,44,89,136,23,47,73,0.25746699,0.51368528,0.80098345,0.21060920,0.33026574,0.45578301
19089,0,USIowaHoward,Iowa,Howard,2021-04-04 10:53:07.721885,2020-07-31 00:00:00.000000,0.50217113,0.99389089,1.56401297,45,91,143,24,48,76,0.26297630,0.53424969,0.84023567,0.21496673,0.33721031,0.48057066
19089,0,USIowaHoward,Iowa,Howard,2021-04-04 10:53:07.721885,2020-08-01 00:00:00.000000,0.50330461,1.02739750,1.63526079,46,94,149,25,50,80,0.27405071,0.55573705,0.87475033,0.23250507,0.35215828,0.50704591
19089,0,USIowaHoward,Iowa,Howard,2021-04-04 10:53:07.721885,2020-08-02 00:00:00.000000,0.51781225,1.07858067,1.76278728,47,98,161,27,53,81,0.30374653,0.58295734,0.88532234,0.25380426,0.36145896,0.51779138
19089,0,USIowaHoward,Iowa,Howard,2021-04-04 10:53:07.721885,2020-08-03 00:00:00.000000,0.57830003,1.14893233,1.82229253,52,105,166,30,55,84,0.32825299,0.60691872,0.92575404,0.27270149,0.37885748,0.54852746
19089,0,USIowaHoward,Iowa,Howard,2021-04-04 10:53:07.721885,2020-08-04 00:00:00.000000,0.65477287,1.22415981,1.90504843,59,112,174,32,58,88,0.35696572,0.63864929,0.96358263,0.29014663,0.39689212,0.55842292
19089,0,USIowaHoward,Iowa,Howard,2021-04-04 10:53:07.721885,2020-08-05 00:00:00.000000,0.74355012,1.32944146,2.02301166,68,121,185,36,61,91,0.39969282,0.67462472,1.00123424,0.30546278,0.41601154,0.55980918
19089,0,USIowaHoward,Iowa,Howard,2021-04-04 10:53:07.721885,2020-08-06 00:00:00.000000,0.79926100,1.43583654,2.15762007,73,131,197,39,66,97,0.42696585,0.72797350,1.06822305,0.31758317,0.42665519,0.59250886
19089,0,USIowaHoward,Iowa,Howard,2021-04-04 10:53:07.721885,2020-08-07 00:00:00.000000,0.86058250,1.55055856,2.21713312,78,142,203,41,71,104,0.45568672,0.78094166,1.13644939,0.32842135,0.45409642,0.61914749
19089,0,USIowaHoward,Iowa,Howard,2021-04-04 10:53:07.721885,2020-08-08 00:00:00.000000,0.93131798,1.67729432,2.33803341,85,153,214,45,76,110,0.50213518,0.83003807,1.20666175,0.33878500,0.47289685,0.62978279
19089,0,USIowaHoward,Iowa,Howard,2021-04-04 10:53:07.721885,2020-08-09 00:00:00.000000,0.99225727,1.79716150,2.47268897,90,164,226,47,80,117,0.52343275,0.87844758,1.28401530,0.34605712,0.48373141,0.63537221
19089,0,USIowaHoward,Iowa,Howard,2021-04-04 10:53:07.721885,2020-08-10 00:00:00.000000,1.08147415,1.94508817,2.69663803,99,178,246,50,86,127,0.54647141,0.94278097,1.39014247,0.34629542,0.49068003,0.63088131
19089,0,USIowaHoward,Iowa,Howard,2021-04-04 10:53:07.721885,2020-08-11 00:00:00.000000,1.17824331,2.12025069,2.94670130,107,194,269,54,92,138,0.59244014,1.01124544,1.51009443,0.35019885,0.49833165,0.63289497
19089,0,USIowaHoward,Iowa,Howard,2021-04-04 10:53:07.721885,2020-08-12 00:00:00.000000,1.27992402,2.27994425,3.20448576,117,208,293,59,98,150,0.65298007,1.07984736,1.64443245,0.35253764,0.49968886,0.64982299
19089,0,USIowaHoward,Iowa,Howard,2021-04-04 10:53:07.721885,2020-08-13 00:00:00.000000,1.40469891,2.47416733,3.48685065,128,226,319,66,106,160,0.72350657,1.16061043,1.74711444,0.35030174,0.49715715,0.64940771
19089,0,USIowaHoward,Iowa,Howard,2021-04-04 10:53:07.721885,2020-08-14 00:00:00.000000,1.55331415,2.62241971,3.73814727,142,240,342,73,114,168,0.80277636,1.25459658,1.83921138,0.34644322,0.48907508,0.64728104
19089,0,USIowaHoward,Iowa,Howard,2021-04-04 10:53:07.721885,2020-08-15 00:00:00.000000,1.72305789,2.79764638,3.92930661,157,256,359,79,124,183,0.86623708,1.35947167,1.99875178,0.34421567,0.48799413,0.64080818
19089,0,USIowaHoward,Iowa,Howard,2021-04-04 10:53:07.721885,2020-08-16 00:00:00.000000,1.90704978,2.97283341,4.08159292,174,272,373,83,133,194,0.91503274,1.46257758,2.12798715,0.34320191,0.48209031,0.65101250
19089,0,USIowaHoward,Iowa,Howard,2021-04-04 10:53:07.721885,2020-08-17 00:00:00.000000,2.02888239,3.15106849,4.30676261,185,288,394,91,144,210,0.99692207,1.57724228,2.29737020,0.33363956,0.46957589,0.62909286
19089,0,USIowaHoward,Iowa,Howard,2021-04-04 10:53:07.721885,2020-08-18 00:00:00.000000,2.19630133,3.36921760,4.52334460,201,308,414,99,153,220,1.08904522,1.67913505,2.40679713,0.32635989,0.46047843,0.62205706
19089,0,USIowaHoward,Iowa,Howard,2021-04-04 10:53:07.721885,2020-08-19 00:00:00.000000,2.38556158,3.58118931,4.70389734,218,327,430,108,163,231,1.18712554,1.78087375,2.53277425,0.31589767,0.44988043,0.61750263
19089,0,USIowaHoward,Iowa,Howard,2021-04-04 10:53:07.721885,2020-08-20 00:00:00.000000,2.58646306,3.78808229,4.86319535,236,346,445,116,172,243,1.27279397,1.88766140,2.65798174,0.30262448,0.42974221,0.60801351
19089,0,USIowaHoward,Iowa,Howard,2021-04-04 10:53:07.721885,2020-08-21 00:00:00.000000,2.79721702,4.00349671,5.07444748,256,366,464,122,183,257,1.34003843,2.00005187,2.81351331,0.27356827,0.41343636,0.58434636
19089,0,USIowaHoward,Iowa,Howard,2021-04-04 10:53:07.721885,2020-08-22 00:00:00.000000,2.99613662,4.14899020,5.35588936,274,379,490,130,193,268,1.42731399,2.10945676,2.93555178,0.23915888,0.38284088,0.53745820
19089,0,USIowaHoward,Iowa,Howard,2021-04-04 10:53:07.721885,2020-08-23 00:00:00.000000,3.02319461,4.21806894,5.65336961,276,386,517,136,202,279,1.49404318,2.21544290,3.05477611,0.22354562,0.35686495,0.48622318
19089,0,USIowaHoward,Iowa,Howard,2021-04-04 10:53:07.721885,2020-08-24 00:00:00.000000,3.05556734,4.19789993,5.89325180,279,384,539,141,211,294,1.54392405,2.30582863,3.21720237,0.21791923,0.31604953,0.45528331
19089,0,USIowaHoward,Iowa,Howard,2021-04-04 10:53:07.721885,2020-08-25 00:00:00.000000,3.06964062,4.17273148,5.93705531,281,382,543,144,218,307,1.58275278,2.38234783,3.35714314,0.19287081,0.29177346,0.41452556
19089,0,USIowaHoward,Iowa,Howard,2021-04-04 10:53:07.721885,2020-08-26 00:00:00.000000,3.01221441,4.16647078,5.95727094,275,381,545,147,220,317,1.61165516,2.41001100,3.46954306,0.18234439,0.26532162,0.36240201
19089,0,USIowaHoward,Iowa,Howard,2021-04-04 10:53:07.721885,2020-08-27 00:00:00.000000,2.91582878,4.13832358,5.98822831,267,378,548,147,220,324,1.61480234,2.40342648,3.54754340,0.17482911,0.25387667,0.34094471
19089,0,USIowaHoward,Iowa,Howard,2021-04-04 10:53:07.721885,2020-08-28 00:00:00.000000,2.81894732,4.06508635,5.95595083,258,372,545,146,216,327,1.59897023,2.36313231,3.57822481,0.16299904,0.23946889,0.32849146
19089,0,USIowaHoward,Iowa,Howard,2021-04-04 10:53:07.721885,2020-08-29 00:00:00.000000,2.72208443,3.97394997,5.79445751,249,363,530,142,212,328,1.55782836,2.32247356,3.58616266,0.15820175,0.22661116,0.32652071
19089,0,USIowaHoward,Iowa,Howard,2021-04-04 10:53:07.721885,2020-08-30 00:00:00.000000,2.61982218,3.88424931,5.62446169,239,355,515,138,210,327,1.50832686,2.29794837,3.57282019,0.15236599,0.21933644,0.32386759
19089,0,USIowaHoward,Iowa,Howard,2021-04-04 10:53:07.721885,2020-08-31 00:00:00.000000,2.51826246,3.79926885,5.44939259,230,347,499,133,204,324,1.45445988,2.23689448,3.54196742,0.14967511,0.21534576,0.31649654
19089,0,USIowaHoward,Iowa,Howard,2021-04-04 10:53:07.721885,2020-09-01 00:00:00.000000,2.41977274,3.69891972,5.33158681,221,338,488,127,200,320,1.38896861,2.18899244,3.49529047,0.15001259,0.21208692,0.30909921
19089,0,USIowaHoward,Iowa,Howard,2021-04-04 10:53:07.721885,2020-09-02 00:00:00.000000,2.32536712,3.56153652,5.26552208,212,326,482,121,195,314,1.32450908,2.13344144,3.43786134,0.14344193,0.20867927,0.30231400
19089,0,USIowaHoward,Iowa,Howard,2021-04-04 10:53:07.721885,2020-09-03 00:00:00.000000,2.23736838,3.45507041,5.18217459,204,316,474,116,189,308,1.26863399,2.06666587,3.37264087,0.13842097,0.20476930,0.30128834
19089,0,USIowaHoward,Iowa,Howard,2021-04-04 10:53:07.721885,2020-09-04 00:00:00.000000,2.13401603,3.38415818,5.07650224,195,309,464,111,184,302,1.21425541,2.01730495,3.30067824,0.13935362,0.20032893,0.29982274
19089,0,USIowaHoward,Iowa,Howard,2021-04-04 10:53:07.721885,2020-09-05 00:00:00.000000,2.00598352,3.27682095,4.94305939,183,300,452,104,179,295,1.14553668,1.96431427,3.22190761,0.13487875,0.19458202,0.28787613
19089,0,USIowaHoward,Iowa,Howard,2021-04-04 10:53:07.721885,2020-09-06 00:00:00.000000,1.88355817,3.13319384,4.78324633,172,286,438,98,173,287,1.07586895,1.89817364,3.13678623,0.13127319,0.19032877,0.25850231
19089,0,USIowaHoward,Iowa,Howard,2021-04-04 10:53:07.721885,2020-09-07 00:00:00.000000,1.80286033,3.02797154,4.61685691,165,277,422,92,169,279,1.00837924,1.85296622,3.04683618,0.13000894,0.18735479,0.25254792
19089,0,USIowaHoward,Iowa,Howard,2021-04-04 10:53:07.721885,2020-09-08 00:00:00.000000,1.68891668,2.88732124,4.44811038,154,264,407,86,162,270,0.94529794,1.77968603,2.95519938,0.12968412,0.18322179,0.26754510
19089,0,USIowaHoward,Iowa,Howard,2021-04-04 10:53:07.721885,2020-09-09 00:00:00.000000,1.60668891,2.75393039,4.30674114,147,252,394,81,155,262,0.88581054,1.69589641,2.86260166,0.12209626,0.18382277,0.25936516
19089,0,USIowaHoward,Iowa,Howard,2021-04-04 10:53:07.721885,2020-09-10 00:00:00.000000,1.55183946,2.65030054,4.20941258,142,242,385,76,148,253,0.83019385,1.62204140,2.76911164,0.12177965,0.18621184,0.25230678
19089,0,USIowaHoward,Iowa,Howard,2021-04-04 10:53:07.721885,2020-09-11 00:00:00.000000,1.49812306,2.52427635,4.08594840,137,231,374,74,143,244,0.81124300,1.56452136,2.67448939,0.11938108,0.18453647,0.25387221
19089,0,USIowaHoward,Iowa,Howard,2021-04-04 10:53:07.721885,2020-09-12 00:00:00.000000,1.44625739,2.41962359,3.91816340,132,221,358,72,139,236,0.79399991,1.52216188,2.57919944,0.11747540,0.18285618,0.26527744
19089,0,USIowaHoward,Iowa,Howard,2021-04-04 10:53:07.721885,2020-09-13 00:00:00.000000,1.39675558,2.34668404,3.75289831,127,214,343,70,134,227,0.76547988,1.46969943,2.48421519,0.11702862,0.18197638,0.27781554
19089,0,USIowaHoward,Iowa,Howard,2021-04-04 10:53:07.721885,2020-09-14 00:00:00.000000,1.32016242,2.29524764,3.61058116,120,210,330,66,131,218,0.72333481,1.43391090,2.39053593,0.11692974,0.18184411,0.29463976
19089,0,USIowaHoward,Iowa,Howard,2021-04-04 10:53:07.721885,2020-09-15 00:00:00.000000,1.23639623,2.20822521,3.47298873,113,202,318,62,126,211,0.68549632,1.38513247,2.30510504,0.11691092,0.18342945,0.30847814
19089,0,USIowaHoward,Iowa,Howard,2021-04-04 10:53:07.721885,2020-09-16 00:00:00.000000,1.17027871,2.13246726,3.35251887,107,195,307,59,122,206,0.65097683,1.33261432,2.25448991,0.11691979,0.18514608,0.31249955
19089,0,USIowaHoward,Iowa,Howard,2021-04-04 10:53:07.721885,2020-09-17 00:00:00.000000,1.13848506,2.07512352,3.26170912,104,190,298,56,117,201,0.61929367,1.28015044,2.19917749,0.11697925,0.18735393,0.32309060
19089,0,USIowaHoward,Iowa,Howard,2021-04-04 10:53:07.721885,2020-09-18 00:00:00.000000,1.11279214,2.00919137,3.18399690,101,184,291,54,113,193,0.59035185,1.23893692,2.11739037,0.11724398,0.18926039,0.32580072
19089,0,USIowaHoward,Iowa,Howard,2021-04-04 10:53:07.721885,2020-09-19 00:00:00.000000,1.07481579,1.93952274,3.09018861,98,177,282,52,109,186,0.57178859,1.19361592,2.03968605,0.11834034,0.19589005,0.32839737
19089,0,USIowaHoward,Iowa,Howard,2021-04-04 10:53:07.721885,2020-09-20 00:00:00.000000,1.03239287,1.88694760,3.00930963,94,172,275,51,105,180,0.55945172,1.15137087,1.96595950,0.11985467,0.20021759,0.33216829
19089,0,USIowaHoward,Iowa,Howard,2021-04-04 10:53:07.721885,2020-09-21 00:00:00.000000,1.00755305,1.85470216,2.94267307,92,169,269,50,101,173,0.54845254,1.10816038,1.89631242,0.12239805,0.20968843,0.33450956
19089,0,USIowaHoward,Iowa,Howard,2021-04-04 10:53:07.721885,2020-09-22 00:00:00.000000,1.02334595,1.80074778,2.87843528,93,164,263,49,98,168,0.53711098,1.07376786,1.83609168,0.12795821,0.21411012,0.33580749
19089,0,USIowaHoward,Iowa,Howard,2021-04-04 10:53:07.721885,2020-09-23 00:00:00.000000,1.00485417,1.75136026,2.82441976,92,160,258,48,95,163,0.52638030,1.04313928,1.78411863,0.12816164,0.22454253,0.34815690
19089,0,USIowaHoward,Iowa,Howard,2021-04-04 10:53:07.721885,2020-09-24 00:00:00.000000,0.98465122,1.72458448,2.78517479,90,157,255,47,94,159,0.51955907,1.03144893,1.74124346,0.12859586,0.23074787,0.35505227
19089,0,USIowaHoward,Iowa,Howard,2021-04-04 10:53:07.721885,2020-09-25 00:00:00.000000,0.96533069,1.70137605,2.74753968,88,155,251,48,93,156,0.53354662,1.01912963,1.70795360,0.12907293,0.23862903,0.35597264
19089,0,USIowaHoward,Iowa,Howard,2021-04-04 10:53:07.721885,2020-09-26 00:00:00.000000,0.95004580,1.69480827,2.74428638,87,155,251,49,91,154,0.54524082,1.00282475,1.68405625,0.13162462,0.24430641,0.37756083
19089,0,USIowaHoward,Iowa,Howard,2021-04-04 10:53:07.721885,2020-09-27 00:00:00.000000,0.93656741,1.64311715,2.74716145,85,150,251,48,91,150,0.52919925,0.99570414,1.64716117,0.13447237,0.25572365,0.40271448
19089,0,USIowaHoward,Iowa,Howard,2021-04-04 10:53:07.721885,2020-09-28 00:00:00.000000,0.95074779,1.64476031,2.74917217,87,150,251,47,89,146,0.51770840,0.98151799,1.59883018,0.14644226,0.26678832,0.41405157
19089,0,USIowaHoward,Iowa,Howard,2021-04-04 10:53:07.721885,2020-09-29 00:00:00.000000,0.93865451,1.66156402,2.73691285,85,152,250,47,89,143,0.51898877,0.97189376,1.57214161,0.15697003,0.27919330,0.42322391
19089,0,USIowaHoward,Iowa,Howard,2021-04-04 10:53:07.721885,2020-09-30 00:00:00.000000,0.93681401,1.65747776,2.72128394,85,151,249,48,90,143,0.52761324,0.98297522,1.57067212,0.16890461,0.29207620,0.42852873
19089,0,USIowaHoward,Iowa,Howard,2021-04-04 10:53:07.721885,2020-10-01 00:00:00.000000,0.94492147,1.68742003,2.74371722,86,154,251,48,89,143,0.53322364,0.98054985,1.57033350,0.18334920,0.29738112,0.43742503
19089,0,USIowaHoward,Iowa,Howard,2021-04-04 10:53:07.721885,2020-10-02 00:00:00.000000,0.96701975,1.71191854,2.76337557,88,156,253,48,90,143,0.53386956,0.98353593,1.57104614,0.19389478,0.30606189,0.46760608
19089,0,USIowaHoward,Iowa,Howard,2021-04-04 10:53:07.721885,2020-10-03 00:00:00.000000,1.00234681,1.76124683,2.76449033,91,161,253,50,91,144,0.55341037,0.99902139,1.58154910,0.20301620,0.31814015,0.47138802
19089,0,USIowaHoward,Iowa,Howard,2021-04-04 10:53:07.721885,2020-10-04 00:00:00.000000,1.03811256,1.78874694,2.76397335,95,163,253,52,92,146,0.57777536,1.00532797,1.60287108,0.20616707,0.33244834,0.49981660
19089,0,USIowaHoward,Iowa,Howard,2021-04-04 10:53:07.721885,2020-10-05 00:00:00.000000,1.10525917,1.83917339,2.76824540,101,168,253,51,93,147,0.56671811,1.01677819,1.61578012,0.20797367,0.34403464,0.50535654
19089,0,USIowaHoward,Iowa,Howard,2021-04-04 10:53:07.721885,2020-10-06 00:00:00.000000,1.18316980,1.89693157,2.77545079,108,173,254,54,94,149,0.59031717,1.03221180,1.63404652,0.21838758,0.35178562,0.51000326
19089,0,USIowaHoward,Iowa,Howard,2021-04-04 10:53:07.721885,2020-10-07 00:00:00.000000,1.27903169,1.98413583,2.82160662,117,181,258,56,96,151,0.61912455,1.05476564,1.65616843,0.22273736,0.36304374,0.55195212
19089,0,USIowaHoward,Iowa,Howard,2021-04-04 10:53:07.721885,2020-10-08 00:00:00.000000,1.38161102,2.06093351,2.89088900,126,188,264,59,100,153,0.65164961,1.09542295,1.68119683,0.23150117,0.37030742,0.55379867
19089,0,USIowaHoward,Iowa,Howard,2021-04-04 10:53:07.721885,2020-10-09 00:00:00.000000,1.48000141,2.13986731,2.96800452,135,195,271,62,103,156,0.68682782,1.13335964,1.70891680,0.25209849,0.38119102,0.55228685
19089,0,USIowaHoward,Iowa,Howard,2021-04-04 10:53:07.721885,2020-10-10 00:00:00.000000,1.49840193,2.21697051,3.07277851,137,203,281,66,107,159,0.72547641,1.17158603,1.74007556,0.26645984,0.39028968,0.54130665
19089,0,USIowaHoward,Iowa,Howard,2021-04-04 10:53:07.721885,2020-10-11 00:00:00.000000,1.58496347,2.29598507,3.18054857,145,210,291,70,110,162,0.76960015,1.21185043,1.77666593,0.27151430,0.39072969,0.56504803
19089,0,USIowaHoward,Iowa,Howard,2021-04-04 10:53:07.721885,2020-10-12 00:00:00.000000,1.65310182,2.36769218,3.20193421,151,216,293,74,114,167,0.80974180,1.25125270,1.83419811,0.27836817,0.39258303,0.60098681
19089,0,USIowaHoward,Iowa,Howard,2021-04-04 10:53:07.721885,2020-10-13 00:00:00.000000,1.71240071,2.42912252,3.35103741,156,222,306,78,117,173,0.86236446,1.28592157,1.89003121,0.28042817,0.39871596,0.60457984
19089,0,USIowaHoward,Iowa,Howard,2021-04-04 10:53:07.721885,2020-10-14 00:00:00.000000,1.78149247,2.50114256,3.44909654,163,229,315,83,122,177,0.90821632,1.33257725,1.93969432,0.28403625,0.40648780,0.61341672
19089,0,USIowaHoward,Iowa,Howard,2021-04-04 10:53:07.721885,2020-10-15 00:00:00.000000,1.86046760,2.57219881,3.55563241,170,235,325,86,125,183,0.94867026,1.37019251,2.00140866,0.29205115,0.41589205,0.60794496
19089,0,USIowaHoward,Iowa,Howard,2021-04-04 10:53:07.721885,2020-10-16 00:00:00.000000,1.90614379,2.65545162,3.67473626,174,243,336,90,129,188,0.98977594,1.41826923,2.06085798,0.29211165,0.42114543,0.60325767
19089,0,USIowaHoward,Iowa,Howard,2021-04-04 10:53:07.721885,2020-10-17 00:00:00.000000,1.93848316,2.74470266,3.81052465,177,251,348,94,134,194,1.03132823,1.46993797,2.12231304,0.28794623,0.42570425,0.59819164
19089,0,USIowaHoward,Iowa,Howard,2021-04-04 10:53:07.721885,2020-10-18 00:00:00.000000,1.99687711,2.81835966,3.96244161,182,258,362,96,139,199,1.04973993,1.52078246,2.18036280,0.29433056,0.43383605,0.58585361
19089,0,USIowaHoward,Iowa,Howard,2021-04-04 10:53:07.721885,2020-10-19 00:00:00.000000,2.07453826,2.91522006,4.15789734,189,266,380,97,144,205,1.06510390,1.57396639,2.24745571,0.29106952,0.43260083,0.59070860
19089,0,USIowaHoward,Iowa,Howard,2021-04-04 10:53:07.721885,2020-10-20 00:00:00.000000,2.15928739,3.01627181,4.36255009,197,276,399,100,148,213,1.09355606,1.62026858,2.33019727,0.29167622,0.42862918,0.59388395
19089,0,USIowaHoward,Iowa,Howard,2021-04-04 10:53:07.721885,2020-10-21 00:00:00.000000,2.22433019,3.11428939,4.57687065,203,285,419,103,149,222,1.13060781,1.63697519,2.42602984,0.30013025,0.43183416,0.59569987
19089,0,USIowaHoward,Iowa,Howard,2021-04-04 10:53:07.721885,2020-10-22 00:00:00.000000,2.31268614,3.20579775,4.80379859,211,293,439,107,154,233,1.16897867,1.68845748,2.54496578,0.31111435,0.44344674,0.59858994
19089,0,USIowaHoward,Iowa,Howard,2021-04-04 10:53:07.721885,2020-10-23 00:00:00.000000,2.34173045,3.29150586,5.05259063,214,301,462,111,159,244,1.21626730,1.74572060,2.67187389,0.32033529,0.45305010,0.62029846
19089,0,USIowaHoward,Iowa,Howard,2021-04-04 10:53:07.721885,2020-10-24 00:00:00.000000,2.37390718,3.43003994,5.33748256,217,314,488,116,165,256,1.26784359,1.80222243,2.79762500,0.32506980,0.47307253,0.64959608
19089,0,USIowaHoward,Iowa,Howard,2021-04-04 10:53:07.721885,2020-10-25 00:00:00.000000,2.40546807,3.59437285,5.65984585,220,329,518,121,171,267,1.32308223,1.87555952,2.91618547,0.33513438,0.49055709,0.67549603
19089,0,USIowaHoward,Iowa,Howard,2021-04-04 10:53:07.721885,2020-10-26 00:00:00.000000,2.43683431,3.74928393,5.95725684,223,343,545,126,178,277,1.38286202,1.95395270,3.03118668,0.35166930,0.50117941,0.68803641
19089,0,USIowaHoward,Iowa,Howard,2021-04-04 10:53:07.721885,2020-10-27 00:00:00.000000,2.49198783,3.91579884,6.18308421,228,358,566,132,186,294,1.44773916,2.03982673,3.21216742,0.37767210,0.50989729,0.69234656
19089,0,USIowaHoward,Iowa,Howard,2021-04-04 10:53:07.721885,2020-10-28 00:00:00.000000,2.61222051,4.09777070,6.41096439,239,375,587,136,194,312,1.48735896,2.12219597,3.40799307,0.38880644,0.52843815,0.71304185
19089,0,USIowaHoward,Iowa,Howard,2021-04-04 10:53:07.721885,2020-10-29 00:00:00.000000,2.74022213,4.31217141,6.64042495,250,394,608,141,203,329,1.54424424,2.21888910,3.59473305,0.40524393,0.53845644,0.72002952
19089,0,USIowaHoward,Iowa,Howard,2021-04-04 10:53:07.721885,2020-10-30 00:00:00.000000,2.88280886,4.55601465,6.87238625,264,417,629,147,213,345,1.61129288,2.33620031,3.77000461,0.43015652,0.56209579,0.75610134
19089,0,USIowaHoward,Iowa,Howard,2021-04-04 10:53:07.721885,2020-10-31 00:00:00.000000,3.07497502,4.88589767,7.11959602,281,447,652,152,225,360,1.66978522,2.45858531,3.93836563,0.46241716,0.57884916,0.77445362
19089,0,USIowaHoward,Iowa,Howard,2021-04-04 10:53:07.721885,2020-11-01 00:00:00.000000,3.28558725,5.19031895,7.42682631,300,475,680,163,239,376,1.78202951,2.61001348,4.11099574,0.46828686,0.60521548,0.81564857
19089,0,USIowaHoward,Iowa,Howard,2021-04-04 10:53:07.721885,2020-11-02 00:00:00.000000,3.50683686,5.53632457,7.75186501,321,507,709,174,253,394,1.90174515,2.76530939,4.30489752,0.48976070,0.63018682,0.83422619
19089,0,USIowaHoward,Iowa,Howard,2021-04-04 10:53:07.721885,2020-11-03 00:00:00.000000,3.75529478,5.89702901,8.08705920,343,540,740,183,269,415,2.00019368,2.93985072,4.53353419,0.49154439,0.64713636,0.88027321
19089,0,USIowaHoward,Iowa,Howard,2021-04-04 10:53:07.721885,2020-11-04 00:00:00.000000,4.04485557,6.26508852,8.42667880,370,573,771,194,284,439,2.12211514,3.10174786,4.79874293,0.51008365,0.66356979,0.88533168
19089,0,USIowaHoward,Iowa,Howard,2021-04-04 10:53:07.721885,2020-11-05 00:00:00.000000,4.36524050,6.70016833,8.76840913,399,613,803,206,303,466,2.25881367,3.31327380,5.09354411,0.50617971,0.67117116,0.88539402
19089,0,USIowaHoward,Iowa,Howard,2021-04-04 10:53:07.721885,2020-11-06 00:00:00.000000,4.72001489,7.12567902,9.19172247,432,652,841,220,324,495,2.40553270,3.54674646,5.40775598,0.50035225,0.66789798,0.88223575
19089,0,USIowaHoward,Iowa,Howard,2021-04-04 10:53:07.721885,2020-11-07 00:00:00.000000,5.10549162,7.50440770,9.72111308,467,687,890,238,349,521,2.60837461,3.81332525,5.69879603,0.50615932,0.66157447,0.87229666
19089,0,USIowaHoward,Iowa,Howard,2021-04-04 10:53:07.721885,2020-11-08 00:00:00.000000,5.50780722,7.87921244,10.25520620,504,721,939,260,368,538,2.84312432,4.02771005,5.87634117,0.50479395,0.64434245,0.85060069
19089,0,USIowaHoward,Iowa,Howard,2021-04-04 10:53:07.721885,2020-11-09 00:00:00.000000,5.92111024,8.35164628,10.77228647,542,764,986,282,390,563,3.08266130,4.25904131,6.15233185,0.49139553,0.63294307,0.82834300
19089,0,USIowaHoward,Iowa,Howard,2021-04-04 10:53:07.721885,2020-11-10 00:00:00.000000,6.31333464,8.82029442,11.27587532,578,807,1032,300,412,591,3.27940441,4.50001895,6.45855983,0.48201858,0.61690601,0.81437725
19089,0,USIowaHoward,Iowa,Howard,2021-04-04 10:53:07.721885,2020-11-11 00:00:00.000000,6.70427440,9.14592737,11.74822557,613,837,1075,314,437,618,3.43012254,4.77780304,6.75158862,0.47137841,0.60876698,0.79515015
19089,0,USIowaHoward,Iowa,Howard,2021-04-04 10:53:07.721885,2020-11-12 00:00:00.000000,7.10295930,9.54051859,12.17077093,650,873,1114,326,456,644,3.56708894,4.98772017,7.03582790,0.45591190,0.59305247,0.78716903
19089,0,USIowaHoward,Iowa,Howard,2021-04-04 10:53:07.721885,2020-11-13 00:00:00.000000,7.49243431,9.82992853,12.51851547,686,900,1146,336,477,669,3.67286981,5.21313702,7.31233391,0.41645588,0.57450592,0.77242142
19089,0,USIowaHoward,Iowa,Howard,2021-04-04 10:53:07.721885,2020-11-14 00:00:00.000000,7.80927571,10.01579682,12.82074523,715,917,1174,343,493,694,3.75341998,5.39218116,7.57981466,0.38891969,0.54096145,0.74013763
19089,0,USIowaHoward,Iowa,Howard,2021-04-04 10:53:07.721885,2020-11-15 00:00:00.000000,7.87498855,10.20688822,13.07234957,721,934,1197,349,505,717,3.81625517,5.51693170,7.83348825,0.33583763,0.52347624,0.70274325
19089,0,USIowaHoward,Iowa,Howard,2021-04-04 10:53:07.721885,2020-11-16 00:00:00.000000,7.82246442,10.30366676,13.29774448,716,943,1217,353,515,738,3.86330774,5.63211473,8.05876148,0.32914154,0.49535649,0.66969846
19089,0,USIowaHoward,Iowa,Howard,2021-04-04 10:53:07.721885,2020-11-17 00:00:00.000000,7.86292726,10.40388768,13.55305775,720,952,1241,356,529,752,3.88736456,5.77898017,8.22098157,0.32510996,0.46812633,0.61147453
19089,0,USIowaHoward,Iowa,Howard,2021-04-04 10:53:07.721885,2020-11-18 00:00:00.000000,7.84129266,10.33056570,13.44327633,718,946,1231,357,532,758,3.90562729,5.81322773,8.28400101,0.31428949,0.44362854,0.56387748
19089,0,USIowaHoward,Iowa,Howard,2021-04-04 10:53:07.721885,2020-11-19 00:00:00.000000,7.70193234,10.21774698,13.50002418,705,935,1236,357,535,772,3.90739136,5.84883764,8.43956802,0.27081148,0.41984496,0.55807817
19089,0,USIowaHoward,Iowa,Howard,2021-04-04 10:53:07.721885,2020-11-20 00:00:00.000000,7.50113124,10.16640896,13.52899583,686,931,1238,357,540,768,3.90089548,5.89739993,8.38745320,0.25852581,0.39883807,0.54879083
19089,0,USIowaHoward,Iowa,Howard,2021-04-04 10:53:07.721885,2020-11-21 00:00:00.000000,7.18147704,10.06296233,13.48967031,657,921,1235,354,535,756,3.86934012,5.84206859,8.26246917,0.24280159,0.37889686,0.52828736
19089,0,USIowaHoward,Iowa,Howard,2021-04-04 10:53:07.721885,2020-11-22 00:00:00.000000,6.96270785,9.83277733,13.33288366,637,900,1221,344,527,754,3.76192564,5.75616200,8.24133312,0.23144285,0.36380733,0.50635580
19089,0,USIowaHoward,Iowa,Howard,2021-04-04 10:53:07.721885,2020-11-23 00:00:00.000000,6.73741692,9.52359031,13.14012900,617,872,1203,332,518,753,3.62550885,5.66159174,8.22629600,0.23147936,0.35313742,0.48644886
19089,0,USIowaHoward,Iowa,Howard,2021-04-04 10:53:07.721885,2020-11-24 00:00:00.000000,6.41949038,9.29448316,12.93013091,587,851,1184,317,509,748,3.46217733,5.56734472,8.17436895,0.23208451,0.34324826,0.48725792
19089,0,USIowaHoward,Iowa,Howard,2021-04-04 10:53:07.721885,2020-11-25 00:00:00.000000,6.07656411,8.94586514,12.70813269,556,819,1163,302,496,741,3.30249181,5.42315017,8.09562179,0.23313999,0.33810040,0.48214448
19089,0,USIowaHoward,Iowa,Howard,2021-04-04 10:53:07.721885,2020-11-26 00:00:00.000000,5.76343655,8.63046683,12.47645181,527,790,1142,288,478,732,3.14694921,5.22444262,7.99737526,0.23470899,0.33590790,0.46414538
19089,0,USIowaHoward,Iowa,Howard,2021-04-04 10:53:07.721885,2020-11-27 00:00:00.000000,5.50423834,8.31633432,12.23464501,504,761,1120,274,462,722,2.99798269,5.04591895,7.88454979,0.23685013,0.33189942,0.45938181
19089,0,USIowaHoward,Iowa,Howard,2021-04-04 10:53:07.721885,2020-11-28 00:00:00.000000,5.26876276,7.98087109,11.97663064,482,730,1096,261,446,710,2.85802547,4.87614616,7.76002956,0.23961685,0.33097083,0.45497339
19089,0,USIowaHoward,Iowa,Howard,2021-04-04 10:53:07.721885,2020-11-29 00:00:00.000000,5.02405597,7.63690200,11.70349861,460,699,1071,249,432,698,2.72844753,4.71759458,7.62419619,0.24152024,0.33452773,0.45196186
19089,0,USIowaHoward,Iowa,Howard,2021-04-04 10:53:07.721885,2020-11-30 00:00:00.000000,4.75669724,7.29070496,11.41305891,435,667,1045,239,417,687,2.61028599,4.55636338,7.50492609,0.24328164,0.33910399,0.45228543
19089,0,USIowaHoward,Iowa,Howard,2021-04-04 10:53:07.721885,2020-12-01 00:00:00.000000,4.56957051,6.99068156,11.12223597,418,640,1018,227,399,670,2.48020101,4.36547113,7.32284288,0.24514608,0.34012433,0.46571968
19089,0,USIowaHoward,Iowa,Howard,2021-04-04 10:53:07.721885,2020-12-02 00:00:00.000000,4.41853896,6.70192817,10.82994512,404,613,991,215,382,655,2.35209849,4.17847089,7.15976777,0.25068916,0.34490275,0.49216773
19089,0,USIowaHoward,Iowa,Howard,2021-04-04 10:53:07.721885,2020-12-03 00:00:00.000000,4.28463184,6.47932887,10.53603009,392,593,964,206,367,640,2.25110766,4.01748056,6.99116544,0.25305941,0.35271829,0.50108117
19089,0,USIowaHoward,Iowa,Howard,2021-04-04 10:53:07.721885,2020-12-04 00:00:00.000000,4.17145063,6.25447180,10.24229677,382,572,937,199,353,624,2.17709933,3.85539489,6.81896665,0.26380731,0.36475394,0.51505241
19089,0,USIowaHoward,Iowa,Howard,2021-04-04 10:53:07.721885,2020-12-05 00:00:00.000000,4.08766453,6.05172654,9.95277023,374,554,911,193,340,608,2.11312319,3.71392724,6.64466889,0.28405111,0.38055216,0.55309582
19089,0,USIowaHoward,Iowa,Howard,2021-04-04 10:53:07.721885,2020-12-06 00:00:00.000000,4.00615325,5.85287402,9.66806599,366,536,885,188,329,592,2.06197468,3.59500288,6.46955535,0.29004445,0.39637549,0.58992783
19089,0,USIowaHoward,Iowa,Howard,2021-04-04 10:53:07.721885,2020-12-07 00:00:00.000000,3.91076600,5.67137209,9.39019728,358,519,859,185,317,576,2.02660014,3.47182799,6.29478490,0.28947226,0.41645033,0.63975409
19089,0,USIowaHoward,Iowa,Howard,2021-04-04 10:53:07.721885,2020-12-08 00:00:00.000000,3.81859578,5.50781924,9.11807510,349,504,835,184,308,560,2.00985740,3.37178586,6.12178046,0.30916319,0.43478714,0.65142456
19089,0,USIowaHoward,Iowa,Howard,2021-04-04 10:53:07.721885,2020-12-09 00:00:00.000000,3.78175687,5.37278666,8.85587263,346,492,811,183,301,544,2.00752037,3.29336427,5.95061948,0.31102099,0.43893722,0.67807954
19089,0,USIowaHoward,Iowa,Howard,2021-04-04 10:53:07.721885,2020-12-10 00:00:00.000000,3.85493956,5.29359283,8.61598767,353,484,789,182,294,529,1.98768718,3.21469362,5.78268071,0.31879170,0.45078575,0.71564023
19089,0,USIowaHoward,Iowa,Howard,2021-04-04 10:53:07.721885,2020-12-11 00:00:00.000000,3.80503228,5.22940918,8.40926044,348,478,770,177,288,514,1.93851813,3.15417664,5.62214762,0.33563410,0.46736438,0.72456866
19089,0,USIowaHoward,Iowa,Howard,2021-04-04 10:53:07.721885,2020-12-12 00:00:00.000000,3.78734925,5.18401834,8.22389969,346,474,753,172,283,501,1.88552970,3.09626349,5.47382223,0.34504982,0.48614819,0.74153295
19089,0,USIowaHoward,Iowa,Howard,2021-04-04 10:53:07.721885,2020-12-13 00:00:00.000000,3.73917297,5.14782752,8.04692510,342,471,736,170,281,488,1.85929134,3.06974684,5.33797993,0.35790087,0.51116571,0.78463818
19089,0,USIowaHoward,Iowa,Howard,2021-04-04 10:53:07.721885,2020-12-14 00:00:00.000000,3.59709301,5.06937178,7.89422793,329,464,722,169,278,477,1.85578252,3.03645139,5.21173166,0.36715745,0.52291016,0.80114681
19089,0,USIowaHoward,Iowa,Howard,2021-04-04 10:53:07.721885,2020-12-15 00:00:00.000000,3.51016383,5.01454816,7.74376325,321,459,709,170,273,466,1.86106999,2.98753801,5.09693634,0.38045379,0.55189691,0.82772139
19089,0,USIowaHoward,Iowa,Howard,2021-04-04 10:53:07.721885,2020-12-16 00:00:00.000000,3.50578985,5.01624313,7.82602018,321,459,716,168,270,456,1.84419946,2.95018306,4.98982657,0.38481082,0.56521871,0.86871250
19089,0,USIowaHoward,Iowa,Howard,2021-04-04 10:53:07.721885,2020-12-17 00:00:00.000000,3.52258508,5.02910765,7.97386692,322,460,730,168,267,447,1.83732761,2.92330781,4.88795735,0.38675933,0.57826249,0.95168796
19089,0,USIowaHoward,Iowa,Howard,2021-04-04 10:53:07.721885,2020-12-18 00:00:00.000000,3.54639222,5.05256054,7.98297868,324,462,731,168,265,438,1.84224050,2.90257902,4.78991065,0.39215284,0.60743684,0.99770730
19089,0,USIowaHoward,Iowa,Howard,2021-04-04 10:53:07.721885,2020-12-19 00:00:00.000000,3.57384625,5.10011276,7.97680786,327,467,730,170,264,429,1.86213571,2.88560179,4.69527718,0.40082374,0.64486103,1.08490224
19089,0,USIowaHoward,Iowa,Howard,2021-04-04 10:53:07.721885,2020-12-20 00:00:00.000000,3.64321511,5.11945293,8.01345897,333,468,733,172,262,427,1.88767460,2.86862394,4.66411411,0.41716037,0.67261864,1.12824229
19089,0,USIowaHoward,Iowa,Howard,2021-04-04 10:53:07.721885,2020-12-21 00:00:00.000000,3.74308741,5.18479414,8.10217268,342,474,741,175,264,431,1.91452833,2.89226177,4.70703492,0.41886374,0.68512329,1.17411146
19089,0,USIowaHoward,Iowa,Howard,2021-04-04 10:53:07.721885,2020-12-22 00:00:00.000000,3.83788818,5.27048033,8.25388707,351,482,755,179,265,436,1.96523279,2.90441837,4.76396550,0.45320535,0.70781114,1.21551206
19089,0,USIowaHoward,Iowa,Howard,2021-04-04 10:53:07.721885,2020-12-23 00:00:00.000000,3.93101982,5.33920710,8.38179009,360,488,767,185,269,442,2.02574468,2.94519844,4.82769236,0.49345117,0.72706685,1.24898698
19089,0,USIowaHoward,Iowa,Howard,2021-04-04 10:53:07.721885,2020-12-24 00:00:00.000000,3.94884367,5.40047858,8.40473455,361,494,769,189,273,447,2.06960430,2.98363216,4.88388518,0.51641203,0.76445603,1.28490091
19089,0,USIowaHoward,Iowa,Howard,2021-04-04 10:53:07.721885,2020-12-25 00:00:00.000000,3.98211814,5.45283023,8.42919728,364,499,771,191,276,450,2.09572265,3.01493995,4.91970582,0.52472053,0.79615238,1.32588809
19089,0,USIowaHoward,Iowa,Howard,2021-04-04 10:53:07.721885,2020-12-26 00:00:00.000000,4.03712855,5.49057349,8.46368162,369,502,775,194,280,451,2.11946338,3.06533413,4.93350053,0.52367825,0.83160082,1.37064619
19089,0,USIowaHoward,Iowa,Howard,2021-04-04 10:53:07.721885,2020-12-27 00:00:00.000000,4.12305326,5.52580995,8.50091004,377,506,778,196,284,451,2.14059742,3.10203897,4.93057959,0.52482387,0.84809285,1.41510955
19089,0,USIowaHoward,Iowa,Howard,2021-04-04 10:53:07.721885,2020-12-28 00:00:00.000000,4.24386705,5.59929823,8.41562775,388,512,770,197,288,451,2.15896631,3.15303943,4.93442142,0.52556979,0.85816597,1.51370926
19089,0,USIowaHoward,Iowa,Howard,2021-04-04 10:53:07.721885,2020-12-29 00:00:00.000000,4.37485890,5.66372635,8.32414347,400,518,762,200,294,454,2.18594536,3.21407006,4.96260684,0.51799312,0.87198888,1.66329630
19089,0,USIowaHoward,Iowa,Howard,2021-04-04 10:53:07.721885,2020-12-30 00:00:00.000000,4.47107294,5.70443496,8.23037225,409,522,753,203,297,457,2.22133071,3.25370778,4.99732327,0.51764764,0.87804962,1.72973048
19089,0,USIowaHoward,Iowa,Howard,2021-04-04 10:53:07.721885,2020-12-31 00:00:00.000000,4.52639925,5.77179423,8.14260872,414,528,745,206,300,461,2.25382448,3.28077768,5.03556072,0.51745296,0.88289013,1.77027753
19089,0,USIowaHoward,Iowa,Howard,2021-04-04 10:53:07.721885,2021-01-01 00:00:00.000000,4.61831798,5.89746394,8.19268139,422,540,750,209,304,464,2.28313734,3.32043907,5.07464393,0.50902817,0.90095293,1.80330977
19089,0,USIowaHoward,Iowa,Howard,2021-04-04 10:53:07.721885,2021-01-02 00:00:00.000000,4.66410635,5.98069256,8.23800799,427,547,754,211,308,468,2.30906256,3.36406905,5.11196621,0.49106924,0.91144816,1.91966864
19089,0,USIowaHoward,Iowa,Howard,2021-04-04 10:53:07.721885,2021-01-03 00:00:00.000000,4.67934896,6.06347257,8.27143047,428,555,757,213,310,471,2.33144176,3.38899037,5.14536974,0.48596543,0.94154225,1.96136068
19089,0,USIowaHoward,Iowa,Howard,2021-04-04 10:53:07.721885,2021-01-04 00:00:00.000000,4.66205206,6.08946471,8.25607617,426,557,756,215,312,473,2.35015065,3.41359919,5.17325906,0.48487431,0.94372072,2.02810573
19089,0,USIowaHoward,Iowa,Howard,2021-04-04 10:53:07.721885,2021-01-05 00:00:00.000000,4.66011027,6.12607446,8.22346780,426,561,753,216,316,474,2.35968889,3.45335836,5.18466986,0.48466857,0.94601533,2.08877238
19089,0,USIowaHoward,Iowa,Howard,2021-04-04 10:53:07.721885,2021-01-06 00:00:00.000000,4.62720054,6.13079326,8.26974082,423,561,757,216,319,475,2.36295190,3.48401395,5.19006207,0.48394061,0.96371875,2.10948582
19089,0,USIowaHoward,Iowa,Howard,2021-04-04 10:53:07.721885,2021-01-07 00:00:00.000000,4.58214904,6.09572347,8.33077650,419,558,762,216,320,477,2.36125411,3.50344999,5.21911013,0.48285803,0.96628969,2.12437003
19089,0,USIowaHoward,Iowa,Howard,2021-04-04 10:53:07.721885,2021-01-08 00:00:00.000000,4.53204390,6.11791061,8.36918626,415,560,766,215,320,479,2.35521595,3.50204879,5.23712395,0.47497727,0.96179933,2.15480913
19089,0,USIowaHoward,Iowa,Howard,2021-04-04 10:53:07.721885,2021-01-09 00:00:00.000000,4.47744173,6.15668300,8.34508977,410,563,764,214,320,480,2.34515952,3.49691093,5.24214611,0.47214205,0.96751188,2.21222685
19089,0,USIowaHoward,Iowa,Howard,2021-04-04 10:53:07.721885,2021-01-10 00:00:00.000000,4.41876552,6.17144121,8.26924151,404,565,757,213,321,478,2.33128549,3.50812786,5.22729790,0.47145692,0.99396514,2.30987365
19089,0,USIowaHoward,Iowa,Howard,2021-04-04 10:53:07.721885,2021-01-11 00:00:00.000000,4.36119111,6.14868604,8.19057436,399,563,750,211,322,480,2.31375182,3.51629880,5.24439927,0.47174452,1.00493128,2.38782888
19089,0,USIowaHoward,Iowa,Howard,2021-04-04 10:53:07.721885,2021-01-12 00:00:00.000000,4.30021788,6.08675161,8.07392633,393,557,739,208,321,480,2.28204260,3.51386869,5.24287093,0.47371994,1.02053059,2.43509906
19089,0,USIowaHoward,Iowa,Howard,2021-04-04 10:53:07.721885,2021-01-13 00:00:00.000000,4.23635421,6.03665887,8.01352423,387,552,733,204,321,476,2.23427564,3.51339453,5.19775118,0.48020668,1.03179174,2.46437642
19089,0,USIowaHoward,Iowa,Howard,2021-04-04 10:53:07.721885,2021-01-14 00:00:00.000000,4.16973860,5.98017236,7.92397596,381,547,725,200,321,471,2.18445453,3.51172233,5.14822873,0.48033909,1.04153071,2.50354966
19089,0,USIowaHoward,Iowa,Howard,2021-04-04 10:53:07.721885,2021-01-15 00:00:00.000000,4.09946274,5.94699063,7.89247056,375,544,722,195,321,466,2.13292322,3.50745256,5.09616209,0.47734756,1.04417696,2.58889547
19089,0,USIowaHoward,Iowa,Howard,2021-04-04 10:53:07.721885,2021-01-16 00:00:00.000000,3.99013469,5.89317950,7.88096020,365,539,721,190,319,462,2.07998494,3.48459433,5.05205204,0.46965697,1.04243027,2.79426611
19089,0,USIowaHoward,Iowa,Howard,2021-04-04 10:53:07.721885,2021-01-17 00:00:00.000000,3.87936920,5.82135246,7.85768818,355,533,719,185,317,460,2.02591896,3.46179205,5.02340751,0.46140933,1.05569212,3.07542672
19089,0,USIowaHoward,Iowa,Howard,2021-04-04 10:53:07.721885,2021-01-18 00:00:00.000000,3.84227649,5.74986297,7.85347234,351,526,719,180,312,458,1.97098783,3.41562471,5.00302804,0.45815820,1.08639731,3.31325144
19089,0,USIowaHoward,Iowa,Howard,2021-04-04 10:53:07.721885,2021-01-19 00:00:00.000000,3.80468349,5.68170402,7.83770179,348,520,717,177,307,456,1.93781245,3.35640800,4.98832040,0.45776093,1.10779416,3.41870044
19089,0,USIowaHoward,Iowa,Howard,2021-04-04 10:53:07.721885,2021-01-20 00:00:00.000000,3.77066624,5.59795798,7.81045104,345,512,715,175,302,455,1.91474815,3.30548315,4.97426149,0.46753403,1.12115422,3.46920928
19089,0,USIowaHoward,Iowa,Howard,2021-04-04 10:53:07.721885,2021-01-21 00:00:00.000000,3.73704591,5.52334466,7.77140746,342,505,711,173,297,454,1.89599164,3.25280339,4.95778769,0.48908274,1.12356636,3.48733071
19089,0,USIowaHoward,Iowa,Howard,2021-04-04 10:53:07.721885,2021-01-22 00:00:00.000000,3.66551382,5.43356648,7.72062462,335,497,707,172,294,451,1.87867771,3.21382765,4.93134913,0.50090967,1.12758407,3.50994824
19089,0,USIowaHoward,Iowa,Howard,2021-04-04 10:53:07.721885,2021-01-23 00:00:00.000000,3.62180876,5.32966077,7.65535132,331,488,701,170,288,443,1.86142174,3.15371427,4.84340760,0.50498420,1.14129944,3.53832492
19089,0,USIowaHoward,Iowa,Howard,2021-04-04 10:53:07.721885,2021-01-24 00:00:00.000000,3.57626348,5.22148192,7.57893760,327,478,694,168,283,434,1.84358599,3.09281635,4.74839204,0.51848311,1.16004151,3.14789375
19089,0,USIowaHoward,Iowa,Howard,2021-04-04 10:53:07.721885,2021-01-25 00:00:00.000000,3.48624176,5.11717471,7.44635905,319,468,681,167,277,430,1.82490936,3.03061995,4.69977356,0.50322968,1.14112370,3.00713905
19089,0,USIowaHoward,Iowa,Howard,2021-04-04 10:53:07.721885,2021-01-26 00:00:00.000000,3.39104182,5.01893026,7.28609579,310,459,667,163,271,425,1.78297893,2.96879332,4.65050242,0.47194596,1.16744072,3.16708549
19089,0,USIowaHoward,Iowa,Howard,2021-04-04 10:53:07.721885,2021-01-27 00:00:00.000000,3.27194062,4.88823745,7.12236011,299,447,652,158,265,419,1.72968191,2.90271349,4.58091955,0.46206289,1.17411656,3.19753056
19089,0,USIowaHoward,Iowa,Howard,2021-04-04 10:53:07.721885,2021-01-28 00:00:00.000000,3.17409833,4.80533488,7.02571184,290,440,643,153,260,411,1.67117901,2.84872797,4.49693279,0.46121845,1.21606516,3.19214963
19089,0,USIowaHoward,Iowa,Howard,2021-04-04 10:53:07.721885,2021-01-29 00:00:00.000000,3.11027231,4.68657940,6.95059007,284,429,636,147,255,403,1.61069416,2.78846094,4.40233837,0.46025214,1.22357581,3.16184001
19089,0,USIowaHoward,Iowa,Howard,2021-04-04 10:53:07.721885,2021-01-30 00:00:00.000000,3.01340258,4.57798975,6.78941112,275,419,621,141,250,399,1.54993830,2.73248334,4.35932587,0.44775764,1.23146932,3.10569804
19089,0,USIowaHoward,Iowa,Howard,2021-04-04 10:53:07.721885,2021-01-31 00:00:00.000000,2.91746170,4.45073658,6.58866195,267,407,603,138,245,395,1.51062749,2.68316027,4.31655900,0.42928725,1.22712775,3.12864621
19089,0,USIowaHoward,Iowa,Howard,2021-04-04 10:53:07.721885,2021-02-01 00:00:00.000000,2.83508053,4.29251944,6.40213744,259,393,586,134,238,390,1.47328638,2.60643815,4.26936482,0.41417823,1.24806810,3.30124153
19089,0,USIowaHoward,Iowa,Howard,2021-04-04 10:53:07.721885,2021-02-02 00:00:00.000000,2.75424231,4.17026583,6.21355349,252,381,569,131,230,385,1.43351468,2.52147710,4.21382959,0.40099914,1.28191080,3.45018588
19089,0,USIowaHoward,Iowa,Howard,2021-04-04 10:53:07.721885,2021-02-03 00:00:00.000000,2.67570480,4.02153339,6.02334141,245,368,551,127,223,375,1.39265468,2.44023816,4.10373952,0.37460609,1.27189821,3.46134733
19089,0,USIowaHoward,Iowa,Howard,2021-04-04 10:53:07.721885,2021-02-04 00:00:00.000000,2.59909634,3.87822917,5.83296536,238,355,534,122,218,365,1.34163017,2.38587914,3.99337644,0.36976496,1.27005498,3.02887276
19089,0,USIowaHoward,Iowa,Howard,2021-04-04 10:53:07.721885,2021-02-05 00:00:00.000000,2.49458271,3.74490024,5.64310720,228,342,516,118,212,355,1.29486021,2.32002093,3.88297885,0.37134794,1.27444141,3.04267935
19089,0,USIowaHoward,Iowa,Howard,2021-04-04 10:53:07.721885,2021-02-06 00:00:00.000000,2.39032389,3.61177314,5.45436584,218,330,499,115,205,345,1.25771539,2.24543143,3.77281254,0.35608605,1.26459309,3.05707678
19089,0,USIowaHoward,Iowa,Howard,2021-04-04 10:53:07.721885,2021-02-07 00:00:00.000000,2.28885365,3.48072181,5.26732750,209,318,482,111,197,335,1.22145716,2.15627414,3.66315251,0.33391741,1.26867602,3.07160682
19089,0,USIowaHoward,Iowa,Howard,2021-04-04 10:53:07.721885,2021-02-08 00:00:00.000000,2.23997045,3.34142491,5.06853156,205,306,464,108,189,325,1.18606447,2.06951857,3.55251279,0.32881582,1.26700586,3.07493287
19089,0,USIowaHoward,Iowa,Howard,2021-04-04 10:53:07.721885,2021-02-09 00:00:00.000000,2.13354105,3.19026550,4.87250149,195,292,446,104,181,314,1.14552072,1.98018556,3.43737563,0.32192481,1.26627541,3.07605715
19089,0,USIowaHoward,Iowa,Howard,2021-04-04 10:53:07.721885,2021-02-10 00:00:00.000000,2.03113346,3.04390817,4.67940679,186,278,428,100,173,304,1.09907270,1.89873528,3.32028128,0.31844555,1.27080349,3.07681421
19089,0,USIowaHoward,Iowa,Howard,2021-04-04 10:53:07.721885,2021-02-11 00:00:00.000000,1.93291279,2.93690464,4.49004023,177,268,411,95,166,293,1.04664814,1.82018955,3.20284059,0.31681204,1.29161849,3.07636205
19089,0,USIowaHoward,Iowa,Howard,2021-04-04 10:53:07.721885,2021-02-12 00:00:00.000000,1.83893291,2.82073929,4.30643917,168,258,394,91,159,282,0.99614292,1.74599473,3.08626960,0.31619306,1.26519782,3.07580786
19089,0,USIowaHoward,Iowa,Howard,2021-04-04 10:53:07.721885,2021-02-13 00:00:00.000000,1.74917841,2.67855803,4.13955332,160,245,379,86,152,272,0.94767559,1.66526337,2.97153127,0.31657388,1.23832608,3.36813872
19089,0,USIowaHoward,Iowa,Howard,2021-04-04 10:53:07.721885,2021-02-14 00:00:00.000000,1.69805400,2.56975424,3.98431102,155,235,364,82,146,261,0.90129219,1.60052905,2.85971620,0.31098402,1.24429788,3.36171831
19089,0,USIowaHoward,Iowa,Howard,2021-04-04 10:53:07.721885,2021-02-15 00:00:00.000000,1.61726254,2.45731321,3.83261113,148,225,350,78,139,252,0.86086469,1.52680053,2.75246336,0.28190437,1.20934891,3.43479461
19089,0,USIowaHoward,Iowa,Howard,2021-04-04 10:53:07.721885,2021-02-16 00:00:00.000000,1.53798912,2.35256688,3.68571897,140,215,337,75,133,242,0.82872036,1.45300508,2.64891263,0.25369945,1.20443439,3.56201786
19089,0,USIowaHoward,Iowa,Howard,2021-04-04 10:53:07.721885,2021-02-17 00:00:00.000000,1.45849108,2.26414350,3.54364884,133,207,324,72,127,233,0.79120576,1.39363482,2.54877368,0.24247009,1.17425063,3.68685411
19089,0,USIowaHoward,Iowa,Howard,2021-04-04 10:53:07.721885,2021-02-18 00:00:00.000000,1.39784826,2.18219278,3.40643112,128,199,311,68,122,224,0.75194543,1.34299395,2.45189760,0.24212728,1.15204010,3.80611346
19089,0,USIowaHoward,Iowa,Howard,2021-04-04 10:53:07.721885,2021-02-19 00:00:00.000000,1.34051393,2.09751503,3.27404417,122,192,299,65,118,215,0.71614081,1.29711545,2.35820953,0.24210335,1.16752323,3.88110286
19089,0,USIowaHoward,Iowa,Howard,2021-04-04 10:53:07.721885,2021-02-20 00:00:00.000000,1.28624713,2.01733185,3.14644587,117,184,288,62,115,207,0.68638889,1.26156965,2.26766349,0.24283597,1.19210583,3.94314584
19089,0,USIowaHoward,Iowa,Howard,2021-04-04 10:53:07.721885,2021-02-21 00:00:00.000000,1.23486129,1.95259710,3.02358214,113,178,276,60,112,199,0.65840546,1.23174423,2.18022400,0.24635453,1.20858812,4.00143497
19089,0,USIowaHoward,Iowa,Howard,2021-04-04 10:53:07.721885,2021-02-22 00:00:00.000000,1.19732169,1.87439256,2.94735820,109,171,269,57,110,191,0.63194119,1.20230654,2.09585819,0.25499727,1.21864969,4.11235937
19089,0,USIowaHoward,Iowa,Howard,2021-04-04 10:53:07.721885,2021-02-23 00:00:00.000000,1.13353411,1.80346712,2.87572798,103,165,263,56,105,185,0.61378611,1.15656925,2.02436556,0.26239616,1.22366669,4.10521209
19089,0,USIowaHoward,Iowa,Howard,2021-04-04 10:53:07.721885,2021-02-24 00:00:00.000000,1.07604428,1.73750704,2.80905780,98,159,257,53,101,179,0.58718676,1.11023392,1.96222520,0.26578232,1.25287288,4.02125734
19089,0,USIowaHoward,Iowa,Howard,2021-04-04 10:53:07.721885,2021-02-25 00:00:00.000000,1.02376039,1.66757291,2.74634160,93,152,251,51,97,174,0.56186239,1.06360169,1.90700505,0.26723900,1.28293113,3.93199618
19089,0,USIowaHoward,Iowa,Howard,2021-04-04 10:53:07.721885,2021-02-26 00:00:00.000000,0.96882471,1.61027532,2.62822737,88,147,240,49,92,170,0.53811732,1.00876112,1.85701759,0.25571132,1.35281756,4.01277008
19089,0,USIowaHoward,Iowa,Howard,2021-04-04 10:53:07.721885,2021-02-27 00:00:00.000000,0.91500382,1.54533035,2.50399239,83,141,229,47,88,165,0.51565549,0.96385545,1.81108551,0.25730255,1.34023801,4.05106144
19089,0,USIowaHoward,Iowa,Howard,2021-04-04 10:53:07.721885,2021-02-28 00:00:00.000000,0.86643489,1.48434281,2.38327710,79,135,218,45,84,158,0.49435989,0.92140486,1.73494901,0.25774402,1.39141036,3.99017538
19089,0,USIowaHoward,Iowa,Howard,2021-04-04 10:53:07.721885,2021-03-01 00:00:00.000000,0.85763012,1.43589266,2.29635670,78,131,210,43,81,151,0.47415130,0.88650761,1.65379955,0.25750914,1.41409810,3.95504283
19089,0,USIowaHoward,Iowa,Howard,2021-04-04 10:53:07.721885,2021-03-02 00:00:00.000000,0.83939511,1.38203866,2.21459069,76,126,202,42,78,144,0.45931945,0.85460074,1.58183395,0.25633001,1.41573988,3.93817397
19089,0,USIowaHoward,Iowa,Howard,2021-04-04 10:53:07.721885,2021-03-03 00:00:00.000000,0.78689644,1.32356565,2.15683633,72,121,197,40,75,138,0.44758672,0.82040349,1.51746549,0.23244891,1.35016351,3.90372084
19089,0,USIowaHoward,Iowa,Howard,2021-04-04 10:53:07.721885,2021-03-04 00:00:00.000000,0.75538156,1.27826664,2.10597544,69,117,192,40,71,133,0.43770940,0.78512861,1.45901650,0.22246732,1.30410743,3.85860819
19089,0,USIowaHoward,Iowa,Howard,2021-04-04 10:53:07.721885,2021-03-05 00:00:00.000000,0.76326436,1.23545502,2.05654479,69,113,188,39,69,129,0.42914255,0.75782774,1.40873389,0.22734905,1.28234143,3.80254397
19089,0,USIowaHoward,Iowa,Howard,2021-04-04 10:53:07.721885,2021-03-06 00:00:00.000000,0.75876769,1.17602635,2.00860742,69,107,183,39,67,125,0.42792726,0.73879910,1.37424512,0.22304817,1.25539472,3.80499915
19089,0,USIowaHoward,Iowa,Howard,2021-04-04 10:53:07.721885,2021-03-07 00:00:00.000000,0.71305646,1.14277469,1.96204325,65,104,179,39,64,122,0.42866951,0.70471836,1.34124964,0.22774564,1.18639813,3.76702949
19089,0,USIowaHoward,Iowa,Howard,2021-04-04 10:53:07.721885,2021-03-08 00:00:00.000000,0.72782432,1.11504020,1.88326642,66,102,172,37,61,119,0.40689697,0.67236198,1.30950816,0.23135081,1.17015607,3.66317100
19089,0,USIowaHoward,Iowa,Howard,2021-04-04 10:53:07.721885,2021-03-09 00:00:00.000000,0.69976323,1.07889408,1.80716215,64,98,165,36,59,116,0.39865986,0.65065740,1.27537953,0.22734843,1.17283177,3.48838248
19089,0,USIowaHoward,Iowa,Howard,2021-04-04 10:53:07.721885,2021-03-10 00:00:00.000000,0.66516187,1.03386059,1.73392910,60,94,158,35,58,112,0.39013944,0.63591254,1.22955135,0.22413477,1.22511468,3.44203055
19089,0,USIowaHoward,Iowa,Howard,2021-04-04 10:53:07.721885,2021-03-11 00:00:00.000000,0.64887750,1.00818392,1.66403254,59,92,152,34,57,108,0.38110286,0.62444116,1.17963245,0.22198393,1.28011557,3.79189752
19089,0,USIowaHoward,Iowa,Howard,2021-04-04 10:53:07.721885,2021-03-12 00:00:00.000000,0.62503660,0.98854293,1.59742873,57,90,146,33,55,103,0.36942444,0.61090560,1.13021181,0.22083082,1.30745362,3.90507931
19089,0,USIowaHoward,Iowa,Howard,2021-04-04 10:53:07.721885,2021-03-13 00:00:00.000000,0.60264690,0.98712148,1.53197043,55,90,140,32,54,99,0.35553662,0.59004205,1.08218699,0.21457995,1.28806541,3.91080671
19089,0,USIowaHoward,Iowa,Howard,2021-04-04 10:53:07.721885,2021-03-14 00:00:00.000000,0.58160457,0.95934069,1.46808655,53,87,134,31,52,94,0.34253601,0.57551072,1.03590218,0.21129783,1.25569677,3.89686681
19089,0,USIowaHoward,Iowa,Howard,2021-04-04 10:53:07.721885,2021-03-15 00:00:00.000000,0.56367981,0.93024443,1.39461218,51,85,127,30,51,90,0.33034723,0.56162642,0.99155364,0.21027547,1.28444871,3.47345180
19089,0,USIowaHoward,Iowa,Howard,2021-04-04 10:53:07.721885,2021-03-16 00:00:00.000000,0.53906195,0.90022704,1.32266698,49,82,121,29,49,86,0.32388988,0.54596807,0.94719496,0.21018764,1.31089885,3.58607234
19089,0,USIowaHoward,Iowa,Howard,2021-04-04 10:53:07.721885,2021-03-17 00:00:00.000000,0.51845886,0.87341289,1.26818062,47,79,116,28,48,82,0.31179544,0.52982813,0.90360759,0.20970971,1.37250413,3.77197103
19089,0,USIowaHoward,Iowa,Howard,2021-04-04 10:53:07.721885,2021-03-18 00:00:00.000000,0.50069918,0.84377696,1.25231032,45,77,114,27,46,78,0.29797750,0.51124037,0.86132183,0.20509281,1.41872245,3.81829512
19089,0,USIowaHoward,Iowa,Howard,2021-04-04 10:53:07.721885,2021-03-19 00:00:00.000000,0.48527408,0.81545809,1.21790125,44,74,111,26,44,75,0.28458846,0.48983438,0.82081148,0.20032940,1.44403713,3.79628453
19089,0,USIowaHoward,Iowa,Howard,2021-04-04 10:53:07.721885,2021-03-20 00:00:00.000000,0.46530347,0.79143077,1.19688444,42,72,109,24,43,72,0.27176027,0.47309380,0.79693510,0.19551496,1.45124326,3.82918076
19089,0,USIowaHoward,Iowa,Howard,2021-04-04 10:53:07.721885,2021-03-21 00:00:00.000000,0.44111572,0.75637715,1.18699033,40,69,108,23,41,71,0.25955742,0.45245715,0.78594984,0.18808371,1.46324799,3.94157731
19089,0,USIowaHoward,Iowa,Howard,2021-04-04 10:53:07.721885,2021-03-22 00:00:00.000000,0.42434721,0.71653295,1.15269016,38,65,105,22,40,70,0.24800696,0.44081780,0.76774199,0.17843002,1.46214210,3.91533917
19089,0,USIowaHoward,Iowa,Howard,2021-04-04 10:53:07.721885,2021-03-23 00:00:00.000000,0.41079192,0.69098116,1.11485829,37,63,102,21,39,67,0.23705802,0.42966698,0.73984901,0.17799205,1.45975841,3.90293507
19089,0,USIowaHoward,Iowa,Howard,2021-04-04 10:53:07.721885,2021-03-24 00:00:00.000000,0.39981881,0.68098743,1.06563883,36,62,97,20,38,66,0.22677119,0.41540347,0.72328266,0.17830953,1.45577144,3.96932478
19089,0,USIowaHoward,Iowa,Howard,2021-04-04 10:53:07.721885,2021-03-25 00:00:00.000000,0.38681650,0.66134156,1.01733270,35,60,93,19,36,64,0.21706563,0.39858922,0.69937615,0.17863025,1.44678252,4.26149637
19089,0,USIowaHoward,Iowa,Howard,2021-04-04 10:53:07.721885,2021-03-26 00:00:00.000000,0.36787326,0.64492883,0.97839955,33,59,89,19,35,61,0.20792417,0.38917946,0.67163831,0.17298817,1.44442111,4.25419351
19089,0,USIowaHoward,Iowa,Howard,2021-04-04 10:53:07.721885,2021-03-27 00:00:00.000000,0.35127041,0.62683065,0.96245196,32,57,88,18,34,58,0.19932401,0.37598298,0.64399311,0.16628891,1.43894361,4.19763693
19089,0,USIowaHoward,Iowa,Howard,2021-04-04 10:53:07.721885,2021-03-28 00:00:00.000000,0.33765844,0.62059380,0.94748759,30,56,86,17,33,57,0.19123957,0.36689661,0.62488106,0.16074072,1.48437284,4.04428057
19089,0,USIowaHoward,Iowa,Howard,2021-04-04 10:53:07.721885,2021-03-29 00:00:00.000000,0.31316592,0.58598067,0.89855248,28,53,82,16,33,55,0.18364426,0.36176386,0.60703085,0.15978068,1.48561907,4.04209235
19089,0,USIowaHoward,Iowa,Howard,2021-04-04 10:53:07.721885,2021-03-30 00:00:00.000000,0.29120496,0.55011881,0.85042847,26,50,77,16,31,53,0.17482602,0.34628831,0.58275367,0.16981816,1.45079587,4.03931682
19089,0,USIowaHoward,Iowa,Howard,2021-04-04 10:53:07.721885,2021-03-31 00:00:00.000000,0.27072559,0.51676526,0.80253222,24,47,73,15,30,50,0.16562605,0.32902608,0.55509575,0.16962245,1.44429646,4.10795744
19089,0,USIowaHoward,Iowa,Howard,2021-04-04 10:53:07.721885,2021-04-01 00:00:00.000000,0.25233296,0.48549919,0.75889515,23,44,69,14,28,48,0.15598684,0.31168871,0.52601370,0.15175153,1.42860712,4.14501653
19089,0,USIowaHoward,Iowa,Howard,2021-04-04 10:53:07.721885,2021-04-02 00:00:00.000000,0.23572383,0.45299758,0.72147198,21,41,66,13,27,45,0.14662849,0.29529061,0.49686319,0.13228903,1.42074762,4.21471636
19089,0,USIowaHoward,Iowa,Howard,2021-04-04 10:53:07.721885,2021-04-03 00:00:00.000000,0.22010358,0.42445341,0.68518921,20,38,62,12,25,42,0.13767332,0.27880281,0.46880393,0.12490109,1.42146501,4.28580451
19089,0,USIowaHoward,Iowa,Howard,2021-04-04 10:53:07.721885,2021-04-04 00:00:00.000000,0.20096946,0.39827856,0.65016485,18,36,59,11,23,40,0.12912550,0.25787572,0.44264584,0.12278267,1.43205299,4.34958909
19089,0,USIowaHoward,Iowa,Howard,2021-04-04 10:53:07.721885,2021-04-05 00:00:00.000000,0.18379002,0.37288395,0.61654872,16,34,56,11,22,38,0.12102009,0.24229945,0.41844617,0.12229186,1.45552988,4.39570259
19089,0,USIowaHoward,Iowa,Howard,2021-04-04 10:53:07.721885,2021-04-06 00:00:00.000000,0.16834707,0.34846525,0.58440342,15,31,53,10,20,36,0.11336693,0.22794776,0.39594657,0.12218079,1.47713914,4.42373675
19089,0,USIowaHoward,Iowa,Howard,2021-04-04 10:53:07.721885,2021-04-07 00:00:00.000000,0.15236701,0.32556019,0.55373987,13,29,50,9,19,34,0.10420426,0.21433713,0.37489610,0.12215892,1.48989918,4.45289496
19089,0,USIowaHoward,Iowa,Howard,2021-04-04 10:53:07.721885,2021-04-08 00:00:00.000000,0.13490003,0.30410016,0.52453864,12,27,48,8,18,32,0.09715836,0.20016835,0.35510700,0.12215623,1.49462132,4.49233667
19089,0,USIowaHoward,Iowa,Howard,2021-04-04 10:53:07.721885,2021-04-09 00:00:00.000000,0.11933104,0.28401035,0.49676270,10,26,45,8,16,30,0.09057497,0.18549594,0.33644316,0.12215686,1.49613659,4.51686325
19089,0,USIowaHoward,Iowa,Howard,2021-04-04 10:53:07.721885,2021-04-10 00:00:00.000000,0.10632982,0.26521418,0.47036517,9,24,43,7,15,29,0.08117313,0.17274957,0.31880323,0.12215762,1.49663926,4.53110170
19089,0,USIowaHoward,Iowa,Howard,2021-04-04 10:53:07.721885,2021-04-11 00:00:00.000000,0.09700805,0.24763586,0.44529400,8,22,40,6,14,27,0.07238256,0.16085449,0.30202957,0.12215810,1.49682195,4.53904087
19089,0,USIowaHoward,Iowa,Howard,2021-04-04 10:53:07.721885,2021-04-12 00:00:00.000000,0.08865396,0.23127623,0.42142668,8,21,38,6,13,26,0.06601272,0.14936110,0.28610503,0.12215835,1.49689492,4.54336935
19089,0,USIowaHoward,Iowa,Howard,2021-04-04 10:53:07.721885,2021-04-13 00:00:00.000000,0.08170960,0.21368386,0.39869644,7,19,36,5,12,24,0.06023987,0.13965937,0.27101923,0.12215848,1.49692631,4.54570123
19089,0,USIowaHoward,Iowa,Howard,2021-04-04 10:53:07.721885,2021-04-14 00:00:00.000000,0.07366826,0.19886220,0.37714497,6,18,34,5,11,23,0.05498703,0.13059139,0.25672374,0.12215854,1.49694049,4.54695010
19089,0,USIowaHoward,Iowa,Howard,2021-04-04 10:53:07.721885,2021-04-15 00:00:00.000000,0.06717712,0.18600091,0.35671738,6,17,32,4,11,22,0.05019029,0.12210133,0.24317496,0.12215856,1.49694709,4.54761741
19089,0,USIowaHoward,Iowa,Howard,2021-04-04 10:53:07.721885,2021-04-16 00:00:00.000000,0.06125848,0.17396377,0.33676695,5,15,30,4,10,21,0.04548997,0.11297389,0.23033295,0.12215858,1.49695022,4.54797403
