FIPS,HR_UID,nameid,province,region,analysisTime,dates,pointprevalence_025,pointprevalence_50,pointprevalence_975,pointinfections_025,pointinfections_50,pointinfections_975,pointinfectious_025,pointinfectious_50,pointinfectious_975,pointinfectiousprevalence_05,pointinfectiousprevalence_50,pointinfectiousprevalence_95,infectrate_025,infectrate_50,infectrate_975
34027,0,USNewJerseyMorris,New Jersey,Morris,2021-04-04 08:08:45.705903,2020-03-09 00:00:00.000000,0.02666392,0.04443676,0.07577461,131,218,372,63,94,150,0.01299374,0.01931415,0.03052809,0.77346441,0.92748291,1.08714075
34027,0,USNewJerseyMorris,New Jersey,Morris,2021-04-04 08:08:45.705903,2020-03-10 00:00:00.000000,0.03358021,0.05312142,0.08875328,165,261,436,78,116,182,0.01592676,0.02364877,0.03715706,0.77346440,0.92733298,1.08714075
34027,0,USNewJerseyMorris,New Jersey,Morris,2021-04-04 08:08:45.705903,2020-03-11 00:00:00.000000,0.04188621,0.06363618,0.10431403,206,312,513,98,139,217,0.02008651,0.02843478,0.04431683,0.77346439,0.92709469,1.08714074
34027,0,USNewJerseyMorris,New Jersey,Morris,2021-04-04 08:08:45.705903,2020-03-12 00:00:00.000000,0.05171631,0.07611264,0.12262589,254,374,603,121,169,258,0.02476451,0.03453483,0.05252557,0.77346437,0.92671632,1.08714071
34027,0,USNewJerseyMorris,New Jersey,Morris,2021-04-04 08:08:45.705903,2020-03-13 00:00:00.000000,0.06250887,0.09120954,0.14402156,307,448,708,147,204,305,0.03001160,0.04155568,0.06212021,0.77346433,0.92611669,1.08714063
34027,0,USNewJerseyMorris,New Jersey,Morris,2021-04-04 08:08:45.705903,2020-03-14 00:00:00.000000,0.07548668,0.10807679,0.16894910,371,531,830,178,245,361,0.03633379,0.04995470,0.07340208,0.77346425,0.92884319,1.08714045
34027,0,USNewJerseyMorris,New Jersey,Morris,2021-04-04 08:08:45.705903,2020-03-15 00:00:00.000000,0.09109463,0.12915953,0.19791933,448,635,973,216,293,426,0.04393876,0.05959748,0.08669259,0.77346412,0.92864159,1.08714003
34027,0,USNewJerseyMorris,New Jersey,Morris,2021-04-04 08:08:45.705903,2020-03-16 00:00:00.000000,0.10968876,0.15394299,0.22985602,539,757,1130,261,351,503,0.05308335,0.07144559,0.10235821,0.77346404,0.92833119,1.08713917
34027,0,USNewJerseyMorris,New Jersey,Morris,2021-04-04 08:08:45.705903,2020-03-17 00:00:00.000000,0.13208468,0.18401132,0.26723972,649,905,1314,313,421,595,0.06376525,0.08567991,0.12115594,0.77349080,0.92633881,1.08713939
34027,0,USNewJerseyMorris,New Jersey,Morris,2021-04-04 08:08:45.705903,2020-03-18 00:00:00.000000,0.15902007,0.21925041,0.31250265,782,1078,1537,369,509,720,0.07515542,0.10353302,0.14639975,0.77360702,0.92242291,1.10409775
34027,0,USNewJerseyMorris,New Jersey,Morris,2021-04-04 08:08:45.705903,2020-03-19 00:00:00.000000,0.18826005,0.26140927,0.37350195,925,1285,1837,434,614,869,0.08838205,0.12487217,0.17674268,0.77616740,0.92078353,1.12129759
34027,0,USNewJerseyMorris,New Jersey,Morris,2021-04-04 08:08:45.705903,2020-03-20 00:00:00.000000,0.22331605,0.31148441,0.44628734,1098,1532,2195,523,730,1048,0.10649614,0.14847918,0.21321767,0.77065061,0.91337732,1.12564981
34027,0,USNewJerseyMorris,New Jersey,Morris,2021-04-04 08:08:45.705903,2020-03-21 00:00:00.000000,0.26603456,0.36903570,0.53311725,1308,1815,2622,632,872,1264,0.12866600,0.17736383,0.25702360,0.76671704,0.89986229,1.13167966
34027,0,USNewJerseyMorris,New Jersey,Morris,2021-04-04 08:08:45.705903,2020-03-22 00:00:00.000000,0.31760034,0.43570979,0.63667271,1562,2143,3131,750,1041,1520,0.15257459,0.21181009,0.30918144,0.74843117,0.88902925,1.13189272
34027,0,USNewJerseyMorris,New Jersey,Morris,2021-04-04 08:08:45.705903,2020-03-23 00:00:00.000000,0.38248831,0.51424967,0.76080433,1881,2529,3741,874,1231,1819,0.17779611,0.25044350,0.36987069,0.71540524,0.86117816,1.12506997
34027,0,USNewJerseyMorris,New Jersey,Morris,2021-04-04 08:08:45.705903,2020-03-24 00:00:00.000000,0.45235982,0.59949191,0.90860048,2224,2948,4468,1018,1455,2210,0.20717521,0.29600692,0.44946860,0.67137449,0.85397332,1.12493107
34027,0,USNewJerseyMorris,New Jersey,Morris,2021-04-04 08:08:45.705903,2020-03-25 00:00:00.000000,0.53840084,0.69909034,1.06814173,2648,3438,5253,1187,1714,2593,0.24134617,0.34859358,0.52737498,0.66437816,0.82945217,1.12376788
34027,0,USNewJerseyMorris,New Jersey,Morris,2021-04-04 08:08:45.705903,2020-03-26 00:00:00.000000,0.63880597,0.82610875,1.22803131,3141,4063,6040,1382,2028,3045,0.28106455,0.41252144,0.61910974,0.63276991,0.80976266,1.10635263
34027,0,USNewJerseyMorris,New Jersey,Morris,2021-04-04 08:08:45.705903,2020-03-27 00:00:00.000000,0.74705442,0.96251597,1.40790231,3674,4734,6924,1609,2391,3654,0.32721189,0.48619195,0.74293391,0.61764262,0.78883155,1.03280363
34027,0,USNewJerseyMorris,New Jersey,Morris,2021-04-04 08:08:45.705903,2020-03-28 00:00:00.000000,0.84932159,1.12904165,1.60367309,4177,5553,7887,1872,2786,4344,0.38080880,0.56651820,0.88337889,0.58057325,0.75801731,0.95977246
34027,0,USNewJerseyMorris,New Jersey,Morris,2021-04-04 08:08:45.705903,2020-03-29 00:00:00.000000,0.96066494,1.31385511,1.84366688,4724,6462,9067,2179,3247,4993,0.44310401,0.66023443,1.01521959,0.51806243,0.71820517,0.92954901
34027,0,USNewJerseyMorris,New Jersey,Morris,2021-04-04 08:08:45.705903,2020-03-30 00:00:00.000000,1.07103930,1.49528667,2.14106361,5267,7354,10530,2538,3787,5684,0.51620949,0.77005658,1.15577043,0.45734766,0.64827007,0.90703368
34027,0,USNewJerseyMorris,New Jersey,Morris,2021-04-04 08:08:45.705903,2020-03-31 00:00:00.000000,1.18203406,1.67516362,2.44271339,5813,8239,12014,2947,4325,6391,0.59921063,0.87946205,1.29947203,0.38926712,0.56549609,0.83234778
34027,0,USNewJerseyMorris,New Jersey,Morris,2021-04-04 08:08:45.705903,2020-04-01 00:00:00.000000,1.32440420,1.84744659,2.67146916,6514,9086,13139,3393,4875,7074,0.68990044,0.99132988,1.43842568,0.31534695,0.51105213,0.74777394
34027,0,USNewJerseyMorris,New Jersey,Morris,2021-04-04 08:08:45.705903,2020-04-02 00:00:00.000000,1.47336892,1.99104182,2.86973960,7246,9792,14114,3840,5440,7701,0.78093608,1.10623172,1.56591024,0.29767686,0.44573298,0.64638462
34027,0,USNewJerseyMorris,New Jersey,Morris,2021-04-04 08:08:45.705903,2020-04-03 00:00:00.000000,1.61733548,2.12366730,3.04037622,7954,10445,14953,4201,6024,8258,0.85419925,1.22492737,1.67911531,0.25532266,0.38562683,0.54224421
34027,0,USNewJerseyMorris,New Jersey,Morris,2021-04-04 08:08:45.705903,2020-04-04 00:00:00.000000,1.67027014,2.19446758,3.19026765,8215,10793,15691,4552,6498,8748,0.92560418,1.32129981,1.77880284,0.23356326,0.33465413,0.49994116
34027,0,USNewJerseyMorris,New Jersey,Morris,2021-04-04 08:08:45.705903,2020-04-05 00:00:00.000000,1.69652390,2.24493259,3.28698815,8344,11041,16166,4878,6844,9173,0.99179514,1.39162211,1.86518030,0.20282925,0.29216321,0.43920675
34027,0,USNewJerseyMorris,New Jersey,Morris,2021-04-04 08:08:45.705903,2020-04-06 00:00:00.000000,1.72509295,2.27609629,3.32617482,8484,11194,16359,5034,7108,9634,1.02360232,1.44522229,1.95885623,0.18927388,0.26437676,0.37852217
34027,0,USNewJerseyMorris,New Jersey,Morris,2021-04-04 08:08:45.705903,2020-04-07 00:00:00.000000,1.72728753,2.30329525,3.33928056,8495,11328,16424,5164,7346,10116,1.04999459,1.49368580,2.05686898,0.17120320,0.24491457,0.34480035
34027,0,USNewJerseyMorris,New Jersey,Morris,2021-04-04 08:08:45.705903,2020-04-08 00:00:00.000000,1.72934479,2.31423816,3.31869721,8505,11382,16322,5275,7448,10547,1.07267626,1.51444052,2.14456653,0.17014005,0.21981827,0.31447898
34027,0,USNewJerseyMorris,New Jersey,Morris,2021-04-04 08:08:45.705903,2020-04-09 00:00:00.000000,1.74039384,2.34360316,3.30189767,8560,11526,16240,5289,7524,10891,1.07543452,1.52980796,2.21449036,0.15129996,0.20751086,0.29282203
34027,0,USNewJerseyMorris,New Jersey,Morris,2021-04-04 08:08:45.705903,2020-04-10 00:00:00.000000,1.74623840,2.36306443,3.32159906,8588,11622,16337,5261,7555,11078,1.06973653,1.53620838,2.25242417,0.14654711,0.19861415,0.26971527
34027,0,USNewJerseyMorris,New Jersey,Morris,2021-04-04 08:08:45.705903,2020-04-11 00:00:00.000000,1.71163716,2.32908869,3.27413631,8418,11455,16103,5261,7549,10977,1.06972652,1.53500172,2.23191791,0.13946956,0.19463960,0.25379734
34027,0,USNewJerseyMorris,New Jersey,Morris,2021-04-04 08:08:45.705903,2020-04-12 00:00:00.000000,1.69625114,2.28611822,3.21071551,8342,11244,15791,5139,7480,10846,1.04493320,1.52084709,2.20528966,0.13534133,0.18862586,0.24349585
34027,0,USNewJerseyMorris,New Jersey,Morris,2021-04-04 08:08:45.705903,2020-04-13 00:00:00.000000,1.66072869,2.24808197,3.15821468,8168,11057,15533,5059,7444,10842,1.02867619,1.51355946,2.20445472,0.13314746,0.18235248,0.23981223
34027,0,USNewJerseyMorris,New Jersey,Morris,2021-04-04 08:08:45.705903,2020-04-14 00:00:00.000000,1.62528016,2.22709621,3.11838438,7993,10953,15337,4977,7383,10827,1.01196893,1.50110672,2.20142256,0.12842404,0.17340059,0.23953174
34027,0,USNewJerseyMorris,New Jersey,Morris,2021-04-04 08:08:45.705903,2020-04-15 00:00:00.000000,1.58853881,2.18593317,3.07799076,7813,10751,15138,4892,7303,10617,0.99469389,1.48493328,2.15867207,0.10545755,0.16775805,0.23655029
34027,0,USNewJerseyMorris,New Jersey,Morris,2021-04-04 08:08:45.705903,2020-04-16 00:00:00.000000,1.54913431,2.14730102,3.03612801,7619,10561,14933,4805,7151,10388,0.97713592,1.45400154,2.11222948,0.09319065,0.16422685,0.23408830
34027,0,USNewJerseyMorris,New Jersey,Morris,2021-04-04 08:08:45.705903,2020-04-17 00:00:00.000000,1.50418010,2.09674366,2.98731916,7398,10312,14692,4718,7038,10150,0.95943778,1.43108988,2.06380591,0.09078388,0.15541354,0.22997785
34027,0,USNewJerseyMorris,New Jersey,Morris,2021-04-04 08:08:45.705903,2020-04-18 00:00:00.000000,1.45396485,2.02925048,2.91619238,7151,9980,14343,4630,6897,9907,0.94135686,1.40230772,2.01426068,0.09059846,0.14927074,0.22899069
34027,0,USNewJerseyMorris,New Jersey,Morris,2021-04-04 08:08:45.705903,2020-04-19 00:00:00.000000,1.39941811,1.97254499,2.82308981,6882,9701,13885,4538,6747,9669,0.92268752,1.37187042,1.96599595,0.09053429,0.14447734,0.22807666
34027,0,USNewJerseyMorris,New Jersey,Morris,2021-04-04 08:08:45.705903,2020-04-20 00:00:00.000000,1.34247381,1.89928945,2.72385553,6602,9341,13397,4344,6557,9459,0.88328288,1.33318136,1.92316993,0.09047130,0.14057972,0.21293376
34027,0,USNewJerseyMorris,New Jersey,Morris,2021-04-04 08:08:45.705903,2020-04-21 00:00:00.000000,1.27952062,1.83503229,2.62316474,6293,9025,12901,4119,6389,9216,0.83749045,1.29910734,1.87381051,0.09032312,0.13560496,0.20673080
34027,0,USNewJerseyMorris,New Jersey,Morris,2021-04-04 08:08:45.705903,2020-04-22 00:00:00.000000,1.20363532,1.77664743,2.52131960,5920,8738,12400,3955,6170,8939,0.80426385,1.25453262,1.81746301,0.08991344,0.13023804,0.18797149
34027,0,USNewJerseyMorris,New Jersey,Morris,2021-04-04 08:08:45.705903,2020-04-23 00:00:00.000000,1.12752127,1.71727990,2.41584308,5545,8446,11882,3789,5954,8643,0.77050842,1.21065634,1.75734950,0.08885859,0.12565257,0.18275049
34027,0,USNewJerseyMorris,New Jersey,Morris,2021-04-04 08:08:45.705903,2020-04-24 00:00:00.000000,1.05396447,1.65364498,2.30016551,5183,8133,11313,3621,5753,8385,0.73623219,1.16974288,1.70488066,0.08669865,0.12304796,0.16907607
34027,0,USNewJerseyMorris,New Jersey,Morris,2021-04-04 08:08:45.705903,2020-04-25 00:00:00.000000,0.98403345,1.58349667,2.16012793,4839,7788,10624,3449,5525,8119,0.70137234,1.12334030,1.65074674,0.08381576,0.11810766,0.16457679
34027,0,USNewJerseyMorris,New Jersey,Morris,2021-04-04 08:08:45.705903,2020-04-26 00:00:00.000000,0.91820121,1.50715758,2.06983324,4516,7412,10180,3272,5334,7848,0.66539923,1.08468429,1.59566511,0.08155953,0.11370529,0.16511105
34027,0,USNewJerseyMorris,New Jersey,Morris,2021-04-04 08:08:45.705903,2020-04-27 00:00:00.000000,0.85707189,1.43205810,1.95596438,4215,7043,9620,3089,5145,7644,0.62811013,1.04606807,1.55434252,0.08040543,0.10894744,0.16507305
34027,0,USNewJerseyMorris,New Jersey,Morris,2021-04-04 08:08:45.705903,2020-04-28 00:00:00.000000,0.80025339,1.36060322,1.85984564,3936,6692,9147,2903,4941,7311,0.59033696,1.00466799,1.48650215,0.07856894,0.10760512,0.16502531
34027,0,USNewJerseyMorris,New Jersey,Morris,2021-04-04 08:08:45.705903,2020-04-29 00:00:00.000000,0.74820821,1.29296896,1.77113305,3680,6359,8711,2720,4713,7051,0.55308796,0.95827934,1.43376970,0.07766117,0.10649338,0.16485818
34027,0,USNewJerseyMorris,New Jersey,Morris,2021-04-04 08:08:45.705903,2020-04-30 00:00:00.000000,0.70161722,1.22892404,1.70319943,3450,6044,8377,2543,4492,6798,0.51711044,0.91331900,1.38225755,0.07735066,0.10643409,0.16435202
34027,0,USNewJerseyMorris,New Jersey,Morris,2021-04-04 08:08:45.705903,2020-05-01 00:00:00.000000,0.65993036,1.17071055,1.63929138,3245,5758,8062,2374,4275,6551,0.48287043,0.86934300,1.33211787,0.07718662,0.10606655,0.16298039
34027,0,USNewJerseyMorris,New Jersey,Morris,2021-04-04 08:08:45.705903,2020-05-02 00:00:00.000000,0.62179472,1.10583100,1.57694236,3058,5438,7756,2216,4068,6311,0.45063054,0.82718389,1.28332793,0.07519474,0.10594464,0.16000086
34027,0,USNewJerseyMorris,New Jersey,Morris,2021-04-04 08:08:45.705903,2020-05-03 00:00:00.000000,0.58639209,1.04903227,1.51599164,2884,5159,7456,2068,3862,6078,0.42051922,0.78534378,1.23576556,0.07358949,0.10454046,0.16008213
34027,0,USNewJerseyMorris,New Jersey,Morris,2021-04-04 08:08:45.705903,2020-05-04 00:00:00.000000,0.55305426,0.99646216,1.45695801,2720,4901,7165,1930,3664,5849,0.39257595,0.74508275,1.18931273,0.07118400,0.10555038,0.15909754
34027,0,USNewJerseyMorris,New Jersey,Morris,2021-04-04 08:08:45.705903,2020-05-05 00:00:00.000000,0.52173837,0.94209134,1.39962064,2566,4633,6883,1804,3481,5627,0.36689099,0.70785278,1.14408319,0.07034483,0.10600515,0.16039022
34027,0,USNewJerseyMorris,New Jersey,Morris,2021-04-04 08:08:45.705903,2020-05-06 00:00:00.000000,0.49226092,0.89273902,1.34424671,2421,4390,6611,1688,3304,5410,0.34333938,0.67195802,1.10007535,0.07015746,0.10611803,0.16760014
34027,0,USNewJerseyMorris,New Jersey,Morris,2021-04-04 08:08:45.705903,2020-05-07 00:00:00.000000,0.46452549,0.84648537,1.29094710,2284,4163,6349,1582,3136,5200,0.32177403,0.63760672,1.05737655,0.07073862,0.10778417,0.16721759
34027,0,USNewJerseyMorris,New Jersey,Morris,2021-04-04 08:08:45.705903,2020-05-08 00:00:00.000000,0.43849937,0.80197074,1.23973809,2156,3944,6097,1485,2978,4997,0.30203471,0.60559872,1.01607615,0.07198266,0.10959927,0.16678708
34027,0,USNewJerseyMorris,New Jersey,Morris,2021-04-04 08:08:45.705903,2020-05-09 00:00:00.000000,0.41417592,0.76001122,1.19057919,2037,3738,5855,1396,2832,4789,0.28396425,0.57593824,0.97385049,0.07161019,0.11144319,0.16827332
34027,0,USNewJerseyMorris,New Jersey,Morris,2021-04-04 08:08:45.705903,2020-05-10 00:00:00.000000,0.39181723,0.72118469,1.14337109,1927,3547,5623,1315,2681,4557,0.26738709,0.54517589,0.92652786,0.07153499,0.11380113,0.17233230
34027,0,USNewJerseyMorris,New Jersey,Morris,2021-04-04 08:08:45.705903,2020-05-11 00:00:00.000000,0.37193194,0.68489593,1.09739658,1829,3368,5397,1240,2548,4336,0.25212949,0.51824495,0.88175175,0.07154587,0.11547621,0.17571857
34027,0,USNewJerseyMorris,New Jersey,Morris,2021-04-04 08:08:45.705903,2020-05-12 00:00:00.000000,0.35461816,0.65216839,1.05324040,1744,3207,5180,1170,2431,4129,0.23796299,0.49443537,0.83954850,0.07168435,0.11777750,0.17843041
34027,0,USNewJerseyMorris,New Jersey,Morris,2021-04-04 08:08:45.705903,2020-05-13 00:00:00.000000,0.33890377,0.62505461,1.01082805,1666,3074,4971,1108,2318,3933,0.22528023,0.47133367,0.79975866,0.07251775,0.11852536,0.18429298
34027,0,USNewJerseyMorris,New Jersey,Morris,2021-04-04 08:08:45.705903,2020-05-14 00:00:00.000000,0.32428477,0.59734157,0.97012231,1594,2937,4771,1055,2211,3748,0.21462749,0.44956093,0.76216839,0.07589136,0.11966926,0.18497380
34027,0,USNewJerseyMorris,New Jersey,Morris,2021-04-04 08:08:45.705903,2020-05-15 00:00:00.000000,0.31068926,0.57253785,0.93128994,1528,2815,4580,1011,2123,3573,0.20569507,0.43167335,0.72657673,0.07836589,0.12492878,0.20658551
34027,0,USNewJerseyMorris,New Jersey,Morris,2021-04-04 08:08:45.705903,2020-05-16 00:00:00.000000,0.29873408,0.55062616,0.89548055,1469,2708,4404,973,2043,3407,0.19797082,0.41545571,0.69287638,0.08433942,0.12772663,0.21150694
34027,0,USNewJerseyMorris,New Jersey,Morris,2021-04-04 08:08:45.705903,2020-05-17 00:00:00.000000,0.28924661,0.53021015,0.86321660,1422,2607,4245,939,1961,3253,0.19110101,0.39876037,0.66147654,0.08658211,0.13246767,0.21432694
34027,0,USNewJerseyMorris,New Jersey,Morris,2021-04-04 08:08:45.705903,2020-05-18 00:00:00.000000,0.28101344,0.51009803,0.83118164,1382,2508,4088,909,1880,3113,0.18484999,0.38241563,0.63307228,0.08896302,0.13721894,0.21664499
34027,0,USNewJerseyMorris,New Jersey,Morris,2021-04-04 08:08:45.705903,2020-05-19 00:00:00.000000,0.27345851,0.49289307,0.80374091,1344,2424,3953,880,1803,2986,0.17899796,0.36664763,0.60715439,0.08994405,0.13776466,0.21982960
34027,0,USNewJerseyMorris,New Jersey,Morris,2021-04-04 08:08:45.705903,2020-05-20 00:00:00.000000,0.26630199,0.47684354,0.77600205,1309,2345,3816,853,1738,2868,0.17345647,0.35349517,0.58325200,0.09119788,0.13974906,0.22145529
34027,0,USNewJerseyMorris,New Jersey,Morris,2021-04-04 08:08:45.705903,2020-05-21 00:00:00.000000,0.25943250,0.46016244,0.74915134,1276,2263,3684,827,1671,2769,0.16816639,0.33975973,0.56298446,0.09318162,0.13985479,0.21970022
34027,0,USNewJerseyMorris,New Jersey,Morris,2021-04-04 08:08:45.705903,2020-05-22 00:00:00.000000,0.25280587,0.44292511,0.72327755,1243,2178,3557,802,1607,2678,0.16309318,0.32687092,0.54458802,0.09424177,0.14023329,0.22314404
34027,0,USNewJerseyMorris,New Jersey,Morris,2021-04-04 08:08:45.705903,2020-05-23 00:00:00.000000,0.24645054,0.42816782,0.69832983,1212,2105,3434,778,1552,2591,0.15822211,0.31558334,0.52687520,0.09394942,0.14044294,0.22294800
34027,0,USNewJerseyMorris,New Jersey,Morris,2021-04-04 08:08:45.705903,2020-05-24 00:00:00.000000,0.24059336,0.41812971,0.67428055,1183,2056,3316,755,1503,2505,0.15356087,0.30574369,0.50946361,0.09410601,0.14259861,0.23144055
34027,0,USNewJerseyMorris,New Jersey,Morris,2021-04-04 08:08:45.705903,2020-05-25 00:00:00.000000,0.23625947,0.40840800,0.65116269,1162,2008,3202,733,1454,2420,0.14914648,0.29582046,0.49204654,0.09450647,0.14595094,0.24148011
34027,0,USNewJerseyMorris,New Jersey,Morris,2021-04-04 08:08:45.705903,2020-05-26 00:00:00.000000,0.23179143,0.39871709,0.62903938,1140,1961,3093,713,1405,2337,0.14501891,0.28578679,0.47520203,0.09522850,0.14687162,0.23165244
34027,0,USNewJerseyMorris,New Jersey,Morris,2021-04-04 08:08:45.705903,2020-05-27 00:00:00.000000,0.22565859,0.38737592,0.60794377,1109,1905,2990,694,1351,2256,0.14120455,0.27479735,0.45877482,0.09642532,0.14650463,0.23445803
34027,0,USNewJerseyMorris,New Jersey,Morris,2021-04-04 08:08:45.705903,2020-05-28 00:00:00.000000,0.21975048,0.37639000,0.58779559,1080,1851,2891,677,1307,2177,0.13766791,0.26582762,0.44277582,0.09817875,0.14948357,0.23545510
34027,0,USNewJerseyMorris,New Jersey,Morris,2021-04-04 08:08:45.705903,2020-05-29 00:00:00.000000,0.21401626,0.36554390,0.56884447,1052,1797,2797,660,1274,2101,0.13434494,0.25915532,0.42723033,0.10036467,0.14417789,0.23495037
34027,0,USNewJerseyMorris,New Jersey,Morris,2021-04-04 08:08:45.705903,2020-05-30 00:00:00.000000,0.20846061,0.35493263,0.55193974,1025,1745,2714,645,1246,2027,0.13116763,0.25345271,0.41212528,0.10193821,0.14156677,0.23184280
34027,0,USNewJerseyMorris,New Jersey,Morris,2021-04-04 08:08:45.705903,2020-05-31 00:00:00.000000,0.20308723,0.34445933,0.53636417,998,1694,2638,629,1209,1954,0.12804790,0.24590352,0.39738825,0.09974195,0.14171251,0.22579093
34027,0,USNewJerseyMorris,New Jersey,Morris,2021-04-04 08:08:45.705903,2020-06-01 00:00:00.000000,0.19785000,0.33318702,0.52111775,973,1638,2563,617,1175,1886,0.12561701,0.23907823,0.38347326,0.09544046,0.13964254,0.21592897
34027,0,USNewJerseyMorris,New Jersey,Morris,2021-04-04 08:08:45.705903,2020-06-02 00:00:00.000000,0.19277965,0.32115723,0.50487694,948,1579,2483,609,1143,1831,0.12390291,0.23242433,0.37246638,0.09150372,0.13822689,0.20512731
34027,0,USNewJerseyMorris,New Jersey,Morris,2021-04-04 08:08:45.705903,2020-06-03 00:00:00.000000,0.18786860,0.31052493,0.48577593,924,1527,2389,593,1102,1781,0.12072592,0.22414165,0.36224819,0.08940972,0.13736017,0.21047246
34027,0,USNewJerseyMorris,New Jersey,Morris,2021-04-04 08:08:45.705903,2020-06-04 00:00:00.000000,0.18313296,0.30089050,0.46573698,900,1479,2290,578,1062,1734,0.11754904,0.21598357,0.35258378,0.08969195,0.13539973,0.20797161
34027,0,USNewJerseyMorris,New Jersey,Morris,2021-04-04 08:08:45.705903,2020-06-05 00:00:00.000000,0.18049756,0.28961789,0.44634304,887,1424,2195,563,1024,1688,0.11447229,0.20825656,0.34319770,0.09215416,0.13642826,0.20762994
34027,0,USNewJerseyMorris,New Jersey,Morris,2021-04-04 08:08:45.705903,2020-06-06 00:00:00.000000,0.17676423,0.28046394,0.42816758,869,1379,2105,546,982,1641,0.11114599,0.19983860,0.33375809,0.09541213,0.13851106,0.21229182
34027,0,USNewJerseyMorris,New Jersey,Morris,2021-04-04 08:08:45.705903,2020-06-07 00:00:00.000000,0.17030779,0.26976625,0.41152942,837,1326,2024,529,954,1594,0.10761381,0.19402325,0.32411302,0.09682526,0.13909132,0.21666792
34027,0,USNewJerseyMorris,New Jersey,Morris,2021-04-04 08:08:45.705903,2020-06-08 00:00:00.000000,0.16592493,0.26039640,0.39673204,816,1280,1951,511,920,1546,0.10407972,0.18717011,0.31435960,0.09639920,0.13999024,0.22117848
34027,0,USNewJerseyMorris,New Jersey,Morris,2021-04-04 08:08:45.705903,2020-06-09 00:00:00.000000,0.15968753,0.25189312,0.38337945,785,1238,1885,494,891,1498,0.10044263,0.18124246,0.30465440,0.09775994,0.14092118,0.22303721
34027,0,USNewJerseyMorris,New Jersey,Morris,2021-04-04 08:08:45.705903,2020-06-10 00:00:00.000000,0.15382758,0.24457949,0.37119272,756,1202,1825,476,861,1451,0.09681916,0.17516113,0.29514205,0.09921519,0.14102601,0.22349257
34027,0,USNewJerseyMorris,New Jersey,Morris,2021-04-04 08:08:45.705903,2020-06-11 00:00:00.000000,0.14856735,0.23768204,0.35990332,730,1169,1770,461,830,1406,0.09378509,0.16892641,0.28592498,0.10012418,0.14146038,0.23249212
34027,0,USNewJerseyMorris,New Jersey,Morris,2021-04-04 08:08:45.705903,2020-06-12 00:00:00.000000,0.14331454,0.23092493,0.34932076,704,1135,1718,454,804,1362,0.09248084,0.16346694,0.27706546,0.10085629,0.14431391,0.24044618
34027,0,USNewJerseyMorris,New Jersey,Morris,2021-04-04 08:08:45.705903,2020-06-13 00:00:00.000000,0.13869023,0.22447436,0.33932956,682,1104,1668,448,776,1321,0.09119400,0.15789110,0.26859085,0.10127561,0.14790737,0.24138436
34027,0,USNewJerseyMorris,New Jersey,Morris,2021-04-04 08:08:45.705903,2020-06-14 00:00:00.000000,0.13382869,0.21833149,0.33083530,658,1073,1627,434,756,1281,0.08837640,0.15371345,0.26050088,0.10208066,0.14883896,0.24626921
34027,0,USNewJerseyMorris,New Jersey,Morris,2021-04-04 08:08:45.705903,2020-06-15 00:00:00.000000,0.12918473,0.21136048,0.32381648,635,1039,1592,417,737,1243,0.08482610,0.14991916,0.25277681,0.10274347,0.14967270,0.24212142
34027,0,USNewJerseyMorris,New Jersey,Morris,2021-04-04 08:08:45.705903,2020-06-16 00:00:00.000000,0.12527148,0.20393031,0.31704327,616,1003,1559,401,719,1207,0.08158901,0.14631559,0.24546187,0.10371383,0.15066028,0.24142370
34027,0,USNewJerseyMorris,New Jersey,Morris,2021-04-04 08:08:45.705903,2020-06-17 00:00:00.000000,0.12242248,0.19771263,0.31041973,602,972,1526,397,702,1173,0.08073970,0.14284569,0.23849831,0.10505242,0.15172879,0.24135511
34027,0,USNewJerseyMorris,New Jersey,Morris,2021-04-04 08:08:45.705903,2020-06-18 00:00:00.000000,0.11938659,0.19271665,0.30389288,587,947,1494,389,683,1140,0.07928743,0.13890394,0.23182508,0.10509061,0.15126962,0.24120016
34027,0,USNewJerseyMorris,New Jersey,Morris,2021-04-04 08:08:45.705903,2020-06-19 00:00:00.000000,0.11505784,0.18724486,0.29742789,565,920,1462,373,660,1108,0.07602149,0.13421981,0.22528876,0.10625053,0.15284391,0.24112599
34027,0,USNewJerseyMorris,New Jersey,Morris,2021-04-04 08:08:45.705903,2020-06-20 00:00:00.000000,0.11028252,0.18176246,0.29100128,542,893,1431,358,641,1076,0.07280156,0.13040226,0.21881917,0.11031076,0.15189502,0.24066179
34027,0,USNewJerseyMorris,New Jersey,Morris,2021-04-04 08:08:45.705903,2020-06-21 00:00:00.000000,0.10583251,0.17627158,0.28458346,520,866,1399,343,622,1044,0.06975185,0.12665644,0.21245640,0.11502040,0.15821580,0.25132019
34027,0,USNewJerseyMorris,New Jersey,Morris,2021-04-04 08:08:45.705903,2020-06-22 00:00:00.000000,0.10119219,0.17125324,0.27863347,497,842,1370,328,605,1014,0.06688780,0.12303757,0.20623212,0.11904916,0.15881967,0.25298449
34027,0,USNewJerseyMorris,New Jersey,Morris,2021-04-04 08:08:45.705903,2020-06-23 00:00:00.000000,0.09716568,0.16655077,0.27257669,477,819,1340,315,587,990,0.06404797,0.11940333,0.20137821,0.11962665,0.16180483,0.25669821
34027,0,USNewJerseyMorris,New Jersey,Morris,2021-04-04 08:08:45.705903,2020-06-24 00:00:00.000000,0.09399185,0.16182831,0.26537826,462,795,1305,302,571,969,0.06141252,0.11625033,0.19707929,0.12073939,0.16272283,0.26488215
34027,0,USNewJerseyMorris,New Jersey,Morris,2021-04-04 08:08:45.705903,2020-06-25 00:00:00.000000,0.09174769,0.15781885,0.25723428,451,776,1265,290,553,948,0.05916053,0.11250117,0.19275850,0.12003594,0.16521116,0.27369094
34027,0,USNewJerseyMorris,New Jersey,Morris,2021-04-04 08:08:45.705903,2020-06-26 00:00:00.000000,0.09012428,0.15594421,0.25182097,443,767,1238,282,539,926,0.05739966,0.10970582,0.18836353,0.12175246,0.16755797,0.27560296
34027,0,USNewJerseyMorris,New Jersey,Morris,2021-04-04 08:08:45.705903,2020-06-27 00:00:00.000000,0.08882081,0.15375134,0.24697184,436,756,1214,275,524,904,0.05607455,0.10673722,0.18388686,0.12322409,0.17415039,0.27498018
34027,0,USNewJerseyMorris,New Jersey,Morris,2021-04-04 08:08:45.705903,2020-06-28 00:00:00.000000,0.08768477,0.15258093,0.24056196,431,750,1183,270,511,898,0.05505269,0.10394125,0.18268568,0.12203127,0.17935316,0.27320643
34027,0,USNewJerseyMorris,New Jersey,Morris,2021-04-04 08:08:45.705903,2020-06-29 00:00:00.000000,0.08730777,0.15187824,0.23757923,429,747,1168,266,500,895,0.05421911,0.10173629,0.18206264,0.11979793,0.18535593,0.28413146
34027,0,USNewJerseyMorris,New Jersey,Morris,2021-04-04 08:08:45.705903,2020-06-30 00:00:00.000000,0.08702427,0.14889603,0.23407577,428,732,1151,264,495,891,0.05370819,0.10073905,0.18119694,0.12031409,0.18960230,0.28897850
34027,0,USNewJerseyMorris,New Jersey,Morris,2021-04-04 08:08:45.705903,2020-07-01 00:00:00.000000,0.08680529,0.14709484,0.23016059,426,723,1132,262,487,878,0.05337186,0.09915040,0.17859387,0.12069910,0.19235679,0.28620421
34027,0,USNewJerseyMorris,New Jersey,Morris,2021-04-04 08:08:45.705903,2020-07-02 00:00:00.000000,0.08694792,0.14609133,0.22633641,427,718,1113,261,482,863,0.05313065,0.09816134,0.17549818,0.12067473,0.19417459,0.28131338
34027,0,USNewJerseyMorris,New Jersey,Morris,2021-04-04 08:08:45.705903,2020-07-03 00:00:00.000000,0.08837557,0.14494446,0.22260512,434,712,1094,260,481,848,0.05297544,0.09785828,0.17250004,0.12328713,0.19738762,0.29624178
34027,0,USNewJerseyMorris,New Jersey,Morris,2021-04-04 08:08:45.705903,2020-07-04 00:00:00.000000,0.09050265,0.14341516,0.21898783,445,705,1077,259,475,834,0.05285356,0.09663440,0.16958793,0.12682668,0.19802754,0.30711927
34027,0,USNewJerseyMorris,New Jersey,Morris,2021-04-04 08:08:45.705903,2020-07-05 00:00:00.000000,0.09047459,0.14155942,0.21554398,444,696,1060,259,471,820,0.05274843,0.09587696,0.16676293,0.12802910,0.20249462,0.32215312
34027,0,USNewJerseyMorris,New Jersey,Morris,2021-04-04 08:08:45.705903,2020-07-06 00:00:00.000000,0.08936764,0.13983217,0.21229173,439,687,1044,265,467,806,0.05406953,0.09508662,0.16404615,0.13064398,0.20551277,0.32050277
34027,0,USNewJerseyMorris,New Jersey,Morris,2021-04-04 08:08:45.705903,2020-07-07 00:00:00.000000,0.08832328,0.13915558,0.20950697,434,684,1030,274,461,794,0.05577346,0.09390135,0.16145435,0.13499361,0.21367530,0.31157639
34027,0,USNewJerseyMorris,New Jersey,Morris,2021-04-04 08:08:45.705903,2020-07-08 00:00:00.000000,0.08731846,0.13789344,0.20735641,429,678,1019,272,457,782,0.05541373,0.09296202,0.15908868,0.13540252,0.22014962,0.31403936
34027,0,USNewJerseyMorris,New Jersey,Morris,2021-04-04 08:08:45.705903,2020-07-09 00:00:00.000000,0.08639179,0.13770506,0.20584048,424,677,1012,269,455,772,0.05475378,0.09264052,0.15706013,0.13611009,0.21964282,0.31637634
34027,0,USNewJerseyMorris,New Jersey,Morris,2021-04-04 08:08:45.705903,2020-07-10 00:00:00.000000,0.08564903,0.13765918,0.20473887,421,677,1006,266,448,764,0.05412885,0.09109509,0.15542840,0.13796938,0.21741347,0.31703213
34027,0,USNewJerseyMorris,New Jersey,Morris,2021-04-04 08:08:45.705903,2020-07-11 00:00:00.000000,0.08509936,0.13806608,0.20418499,418,679,1004,263,446,757,0.05357191,0.09069117,0.15409111,0.14101184,0.21653023,0.31630604
34027,0,USNewJerseyMorris,New Jersey,Morris,2021-04-04 08:08:45.705903,2020-07-12 00:00:00.000000,0.08488408,0.13781950,0.20718867,417,677,1019,261,446,752,0.05312280,0.09085842,0.15298307,0.14806307,0.21649746,0.31408375
34027,0,USNewJerseyMorris,New Jersey,Morris,2021-04-04 08:08:45.705903,2020-07-13 00:00:00.000000,0.08582732,0.13878157,0.20942711,422,682,1030,259,447,747,0.05273852,0.09100831,0.15199067,0.15492693,0.21693020,0.31143038
34027,0,USNewJerseyMorris,New Jersey,Morris,2021-04-04 08:08:45.705903,2020-07-14 00:00:00.000000,0.08680782,0.13829269,0.21016342,426,680,1033,258,449,742,0.05248616,0.09140878,0.15100963,0.15227891,0.21782407,0.31132240
34027,0,USNewJerseyMorris,New Jersey,Morris,2021-04-04 08:08:45.705903,2020-07-15 00:00:00.000000,0.08775395,0.13769330,0.20863319,431,677,1026,259,449,737,0.05270215,0.09145130,0.15000720,0.15181083,0.21652569,0.31275279
34027,0,USNewJerseyMorris,New Jersey,Morris,2021-04-04 08:08:45.705903,2020-07-16 00:00:00.000000,0.08868172,0.13897512,0.20996290,436,683,1032,257,453,732,0.05243414,0.09228701,0.14897353,0.15178258,0.21835370,0.31302429
34027,0,USNewJerseyMorris,New Jersey,Morris,2021-04-04 08:08:45.705903,2020-07-17 00:00:00.000000,0.08959556,0.14087913,0.20941683,440,692,1030,256,457,731,0.05220095,0.09304463,0.14873267,0.15240677,0.22311888,0.31745033
34027,0,USNewJerseyMorris,New Jersey,Morris,2021-04-04 08:08:45.705903,2020-07-18 00:00:00.000000,0.09024906,0.14189344,0.20679563,443,697,1017,255,459,733,0.05203515,0.09335759,0.14907848,0.15726874,0.22480800,0.32345350
34027,0,USNewJerseyMorris,New Jersey,Morris,2021-04-04 08:08:45.705903,2020-07-19 00:00:00.000000,0.09054118,0.14219499,0.20465979,445,699,1006,255,457,730,0.05198653,0.09309856,0.14854304,0.16029460,0.22935971,0.32651004
34027,0,USNewJerseyMorris,New Jersey,Morris,2021-04-04 08:08:45.705903,2020-07-20 00:00:00.000000,0.09129209,0.14412624,0.20280572,449,708,997,262,454,725,0.05332415,0.09239451,0.14745215,0.16008447,0.23500468,0.33287361
34027,0,USNewJerseyMorris,New Jersey,Morris,2021-04-04 08:08:45.705903,2020-07-21 00:00:00.000000,0.09196018,0.14452436,0.20118130,452,710,989,272,453,717,0.05533604,0.09223678,0.14589850,0.15993326,0.23739763,0.33556503
34027,0,USNewJerseyMorris,New Jersey,Morris,2021-04-04 08:08:45.705903,2020-07-22 00:00:00.000000,0.09277269,0.14288375,0.19968903,456,702,982,278,454,708,0.05657172,0.09249980,0.14410930,0.16020245,0.23545296,0.33660022
34027,0,USNewJerseyMorris,New Jersey,Morris,2021-04-04 08:08:45.705903,2020-07-23 00:00:00.000000,0.09269952,0.14274227,0.20054971,455,702,986,277,462,707,0.05637772,0.09400055,0.14391677,0.16177568,0.23835311,0.33430744
34027,0,USNewJerseyMorris,New Jersey,Morris,2021-04-04 08:08:45.705903,2020-07-24 00:00:00.000000,0.09291715,0.14433307,0.20084559,457,709,987,282,469,709,0.05743114,0.09537084,0.14417450,0.16205014,0.23585213,0.33060330
34027,0,USNewJerseyMorris,New Jersey,Morris,2021-04-04 08:08:45.705903,2020-07-25 00:00:00.000000,0.09341366,0.14463700,0.20067928,459,711,987,284,471,703,0.05783429,0.09580466,0.14295397,0.15969695,0.23155082,0.33467189
34027,0,USNewJerseyMorris,New Jersey,Morris,2021-04-04 08:08:45.705903,2020-07-26 00:00:00.000000,0.09399306,0.14585274,0.20026081,462,717,984,286,471,698,0.05824696,0.09588688,0.14194912,0.16034481,0.22734898,0.34961520
34027,0,USNewJerseyMorris,New Jersey,Morris,2021-04-04 08:08:45.705903,2020-07-27 00:00:00.000000,0.09425790,0.14718483,0.20007480,463,723,984,288,472,697,0.05860700,0.09598782,0.14182096,0.16264492,0.22457532,0.35771189
34027,0,USNewJerseyMorris,New Jersey,Morris,2021-04-04 08:08:45.705903,2020-07-28 00:00:00.000000,0.09469944,0.14687254,0.20166363,465,722,991,286,469,697,0.05828724,0.09548390,0.14181987,0.16403447,0.22180368,0.36088436
34027,0,USNewJerseyMorris,New Jersey,Morris,2021-04-04 08:08:45.705903,2020-07-29 00:00:00.000000,0.09533444,0.14767532,0.20214305,468,726,994,284,467,698,0.05788520,0.09513247,0.14192488,0.15840077,0.22147776,0.35973726
34027,0,USNewJerseyMorris,New Jersey,Morris,2021-04-04 08:08:45.705903,2020-07-30 00:00:00.000000,0.09485211,0.14867367,0.20183972,466,731,992,282,473,698,0.05744588,0.09625701,0.14210337,0.14877239,0.21755925,0.35205369
34027,0,USNewJerseyMorris,New Jersey,Morris,2021-04-04 08:08:45.705903,2020-07-31 00:00:00.000000,0.09218324,0.14805814,0.20108536,453,728,989,280,482,700,0.05701755,0.09815473,0.14233271,0.13904061,0.21735250,0.34874170
34027,0,USNewJerseyMorris,New Jersey,Morris,2021-04-04 08:08:45.705903,2020-08-01 00:00:00.000000,0.08963924,0.14737604,0.20005999,440,724,983,278,490,701,0.05666502,0.09963073,0.14260412,0.13249528,0.22014691,0.34488141
34027,0,USNewJerseyMorris,New Jersey,Morris,2021-04-04 08:08:45.705903,2020-08-02 00:00:00.000000,0.08820958,0.14916611,0.19887594,433,733,978,277,492,702,0.05644937,0.10022357,0.14291971,0.12917333,0.21628443,0.33030018
34027,0,USNewJerseyMorris,New Jersey,Morris,2021-04-04 08:08:45.705903,2020-08-03 00:00:00.000000,0.08908763,0.14841981,0.19794159,438,729,973,277,490,704,0.05640622,0.09977624,0.14328577,0.12772543,0.21614042,0.33550664
34027,0,USNewJerseyMorris,New Jersey,Morris,2021-04-04 08:08:45.705903,2020-08-04 00:00:00.000000,0.09015091,0.14813833,0.20217662,443,728,994,278,493,706,0.05660985,0.10034257,0.14358876,0.12713645,0.21452042,0.32831065
34027,0,USNewJerseyMorris,New Jersey,Morris,2021-04-04 08:08:45.705903,2020-08-05 00:00:00.000000,0.09131012,0.14792079,0.20620526,449,727,1014,280,492,707,0.05699878,0.10005769,0.14388505,0.12690427,0.21270333,0.31949793
34027,0,USNewJerseyMorris,New Jersey,Morris,2021-04-04 08:08:45.705903,2020-08-06 00:00:00.000000,0.09082817,0.14879058,0.20632402,446,731,1014,282,489,709,0.05751469,0.09960323,0.14415585,0.12683374,0.21227446,0.32566229
34027,0,USNewJerseyMorris,New Jersey,Morris,2021-04-04 08:08:45.705903,2020-08-07 00:00:00.000000,0.09028032,0.14757503,0.20132888,444,725,990,283,486,709,0.05757532,0.09882816,0.14435175,0.12744316,0.20734855,0.32507082
34027,0,USNewJerseyMorris,New Jersey,Morris,2021-04-04 08:08:45.705903,2020-08-08 00:00:00.000000,0.09152882,0.14708779,0.19822083,450,723,974,279,485,711,0.05674401,0.09868910,0.14457617,0.14027279,0.20673280,0.30758516
34027,0,USNewJerseyMorris,New Jersey,Morris,2021-04-04 08:08:45.705903,2020-08-09 00:00:00.000000,0.09287250,0.14660109,0.19819443,456,721,974,277,487,712,0.05650283,0.09912590,0.14482593,0.14677962,0.20635307,0.30257090
34027,0,USNewJerseyMorris,New Jersey,Morris,2021-04-04 08:08:45.705903,2020-08-10 00:00:00.000000,0.09588597,0.14509567,0.19721742,471,713,970,280,486,713,0.05693176,0.09884748,0.14509517,0.14466358,0.20267557,0.29911666
34027,0,USNewJerseyMorris,New Jersey,Morris,2021-04-04 08:08:45.705903,2020-08-11 00:00:00.000000,0.09576936,0.14321165,0.19687526,471,704,968,285,482,705,0.05802432,0.09808989,0.14344271,0.14376865,0.20830861,0.29346517
34027,0,USNewJerseyMorris,New Jersey,Morris,2021-04-04 08:08:45.705903,2020-08-12 00:00:00.000000,0.09583180,0.14146174,0.19690835,471,695,968,293,479,687,0.05957191,0.09746210,0.13969300,0.14338002,0.21049137,0.28641396
34027,0,USNewJerseyMorris,New Jersey,Morris,2021-04-04 08:08:45.705903,2020-08-13 00:00:00.000000,0.09549625,0.14069427,0.19683405,469,691,968,301,476,669,0.06140013,0.09690879,0.13614275,0.14053453,0.21237734,0.27891927
34027,0,USNewJerseyMorris,New Jersey,Morris,2021-04-04 08:08:45.705903,2020-08-14 00:00:00.000000,0.09519754,0.13924994,0.19699905,468,684,968,305,469,654,0.06219451,0.09542003,0.13299296,0.14366870,0.20885301,0.27660960
34027,0,USNewJerseyMorris,New Jersey,Morris,2021-04-04 08:08:45.705903,2020-08-15 00:00:00.000000,0.09474418,0.13753151,0.20010805,465,676,984,307,462,642,0.06257832,0.09394066,0.13071002,0.14222963,0.20834510,0.27618967
34027,0,USNewJerseyMorris,New Jersey,Morris,2021-04-04 08:08:45.705903,2020-08-16 00:00:00.000000,0.09401913,0.13719936,0.20324482,462,674,999,309,455,641,0.06294443,0.09251642,0.13042569,0.14093195,0.20981739,0.27709730
34027,0,USNewJerseyMorris,New Jersey,Morris,2021-04-04 08:08:45.705903,2020-08-17 00:00:00.000000,0.09291208,0.13686067,0.20658298,456,673,1016,311,446,651,0.06329469,0.09076927,0.13249831,0.14094290,0.21319325,0.29092494
34027,0,USNewJerseyMorris,New Jersey,Morris,2021-04-04 08:08:45.705903,2020-08-18 00:00:00.000000,0.09179827,0.13632448,0.20996093,451,670,1032,310,442,662,0.06322175,0.08993350,0.13463774,0.14273853,0.21272734,0.29752749
34027,0,USNewJerseyMorris,New Jersey,Morris,2021-04-04 08:08:45.705903,2020-08-19 00:00:00.000000,0.09079767,0.13598626,0.21212320,446,668,1043,307,441,675,0.06256090,0.08986435,0.13735254,0.14280006,0.21221755,0.29873873
34027,0,USNewJerseyMorris,New Jersey,Morris,2021-04-04 08:08:45.705903,2020-08-20 00:00:00.000000,0.09004217,0.13591577,0.21094610,442,668,1037,304,442,692,0.06189109,0.09004469,0.14076470,0.14303472,0.21305099,0.29179451
34027,0,USNewJerseyMorris,New Jersey,Morris,2021-04-04 08:08:45.705903,2020-08-21 00:00:00.000000,0.08964910,0.13639810,0.21329465,440,670,1049,301,444,696,0.06130131,0.09043057,0.14160658,0.14352540,0.21724654,0.29001267
34027,0,USNewJerseyMorris,New Jersey,Morris,2021-04-04 08:08:45.705903,2020-08-22 00:00:00.000000,0.08965903,0.13516313,0.21412885,440,664,1053,299,444,706,0.06087596,0.09037754,0.14369836,0.14437611,0.21984676,0.29695173
34027,0,USNewJerseyMorris,New Jersey,Morris,2021-04-04 08:08:45.705903,2020-08-23 00:00:00.000000,0.09001096,0.13472175,0.21469235,442,662,1055,298,447,710,0.06067124,0.09101971,0.14447940,0.15359423,0.22198753,0.31579636
34027,0,USNewJerseyMorris,New Jersey,Morris,2021-04-04 08:08:45.705903,2020-08-24 00:00:00.000000,0.09046490,0.13573789,0.21346440,444,667,1049,298,444,710,0.06069421,0.09041469,0.14437660,0.15810427,0.22343219,0.32495955
34027,0,USNewJerseyMorris,New Jersey,Morris,2021-04-04 08:08:45.705903,2020-08-25 00:00:00.000000,0.09106278,0.13706480,0.21275403,447,674,1046,298,440,709,0.06062297,0.08966007,0.14422753,0.16406920,0.22144880,0.33086610
34027,0,USNewJerseyMorris,New Jersey,Morris,2021-04-04 08:08:45.705903,2020-08-26 00:00:00.000000,0.09173673,0.13710576,0.21232708,451,674,1044,297,440,708,0.06051825,0.08948557,0.14400651,0.16315860,0.22396386,0.33746287
34027,0,USNewJerseyMorris,New Jersey,Morris,2021-04-04 08:08:45.705903,2020-08-27 00:00:00.000000,0.09245000,0.14056204,0.21147565,454,691,1040,297,444,706,0.06050392,0.09027365,0.14372381,0.16779396,0.22726183,0.34591034
34027,0,USNewJerseyMorris,New Jersey,Morris,2021-04-04 08:08:45.705903,2020-08-28 00:00:00.000000,0.09317811,0.14046849,0.21023770,458,690,1034,297,447,705,0.06055354,0.09098829,0.14346653,0.17551929,0.23149129,0.35682599
34027,0,USNewJerseyMorris,New Jersey,Morris,2021-04-04 08:08:45.705903,2020-08-29 00:00:00.000000,0.09390408,0.14152391,0.20939855,461,696,1029,298,450,706,0.06065020,0.09157644,0.14368146,0.18110134,0.23239997,0.36073275
34027,0,USNewJerseyMorris,New Jersey,Morris,2021-04-04 08:08:45.705903,2020-08-30 00:00:00.000000,0.09447916,0.14174702,0.21117924,464,697,1038,299,450,710,0.06080438,0.09167113,0.14439952,0.18163888,0.23595655,0.36644900
34027,0,USNewJerseyMorris,New Jersey,Morris,2021-04-04 08:08:45.705903,2020-08-31 00:00:00.000000,0.09465910,0.14330045,0.21649351,465,704,1064,300,457,715,0.06109359,0.09310951,0.14543018,0.18305556,0.23470726,0.37829817
34027,0,USNewJerseyMorris,New Jersey,Morris,2021-04-04 08:08:45.705903,2020-09-01 00:00:00.000000,0.09691702,0.14448428,0.22160228,476,710,1089,302,460,721,0.06151000,0.09371006,0.14672906,0.18315519,0.23769423,0.37264624
34027,0,USNewJerseyMorris,New Jersey,Morris,2021-04-04 08:08:45.705903,2020-09-02 00:00:00.000000,0.09803867,0.14473869,0.23207164,482,711,1141,300,463,734,0.06107686,0.09422500,0.14933458,0.18468345,0.24098438,0.36704382
34027,0,USNewJerseyMorris,New Jersey,Morris,2021-04-04 08:08:45.705903,2020-09-03 00:00:00.000000,0.09925463,0.14482766,0.23728867,488,712,1167,298,464,751,0.06069709,0.09448768,0.15282677,0.18783648,0.23834631,0.36592969
34027,0,USNewJerseyMorris,New Jersey,Morris,2021-04-04 08:08:45.705903,2020-09-04 00:00:00.000000,0.10062813,0.14594113,0.24270011,494,717,1193,300,467,768,0.06099916,0.09505459,0.15616986,0.19302232,0.23983774,0.36208979
34027,0,USNewJerseyMorris,New Jersey,Morris,2021-04-04 08:08:45.705903,2020-09-05 00:00:00.000000,0.10050930,0.14746320,0.24817044,494,725,1220,309,469,793,0.06295260,0.09539624,0.16135814,0.18932071,0.24254321,0.35541813
34027,0,USNewJerseyMorris,New Jersey,Morris,2021-04-04 08:08:45.705903,2020-09-06 00:00:00.000000,0.10147071,0.14791552,0.25355237,499,727,1247,315,473,836,0.06413053,0.09622846,0.17004982,0.19085036,0.24661708,0.36026279
34027,0,USNewJerseyMorris,New Jersey,Morris,2021-04-04 08:08:45.705903,2020-09-07 00:00:00.000000,0.10216601,0.14958177,0.25845310,502,735,1271,315,479,855,0.06414361,0.09754535,0.17396569,0.19845345,0.25058400,0.36731992
34027,0,USNewJerseyMorris,New Jersey,Morris,2021-04-04 08:08:45.705903,2020-09-08 00:00:00.000000,0.10314147,0.15123881,0.26299999,507,743,1293,316,486,873,0.06433633,0.09900065,0.17751070,0.19526257,0.25139465,0.36955838
34027,0,USNewJerseyMorris,New Jersey,Morris,2021-04-04 08:08:45.705903,2020-09-09 00:00:00.000000,0.10490696,0.15253728,0.26710668,515,750,1313,318,492,889,0.06470529,0.10012599,0.18087098,0.19107793,0.25455950,0.36955342
34027,0,USNewJerseyMorris,New Jersey,Morris,2021-04-04 08:08:45.705903,2020-09-10 00:00:00.000000,0.10787611,0.15475594,0.27059678,530,761,1330,321,498,904,0.06537794,0.10130359,0.18398901,0.19206588,0.25686056,0.37085388
34027,0,USNewJerseyMorris,New Jersey,Morris,2021-04-04 08:08:45.705903,2020-09-11 00:00:00.000000,0.11187325,0.15711749,0.27320261,550,772,1343,327,506,918,0.06656664,0.10293039,0.18677592,0.19533909,0.25719071,0.36938141
34027,0,USNewJerseyMorris,New Jersey,Morris,2021-04-04 08:08:45.705903,2020-09-12 00:00:00.000000,0.11695200,0.15982110,0.27603572,575,786,1357,336,516,930,0.06834651,0.10505395,0.18909527,0.20025902,0.25859591,0.36789768
34027,0,USNewJerseyMorris,New Jersey,Morris,2021-04-04 08:08:45.705903,2020-09-13 00:00:00.000000,0.12355136,0.16337024,0.28210518,607,803,1387,347,527,938,0.07074122,0.10733375,0.19080667,0.20570507,0.26231417,0.38919728
34027,0,USNewJerseyMorris,New Jersey,Morris,2021-04-04 08:08:45.705903,2020-09-14 00:00:00.000000,0.12551843,0.16710684,0.28812799,617,821,1417,363,535,943,0.07389212,0.10893884,0.19184961,0.19348565,0.26280854,0.41457107
34027,0,USNewJerseyMorris,New Jersey,Morris,2021-04-04 08:08:45.705903,2020-09-15 00:00:00.000000,0.12476754,0.17118939,0.29431276,613,841,1447,375,542,956,0.07631049,0.11019751,0.19442155,0.19014070,0.26624358,0.41361227
34027,0,USNewJerseyMorris,New Jersey,Morris,2021-04-04 08:08:45.705903,2020-09-16 00:00:00.000000,0.12769175,0.17452003,0.30062328,628,858,1478,374,550,976,0.07615792,0.11194098,0.19857352,0.19165245,0.27179323,0.40959971
34027,0,USNewJerseyMorris,New Jersey,Morris,2021-04-04 08:08:45.705903,2020-09-17 00:00:00.000000,0.12738470,0.17938875,0.30699332,626,882,1509,373,561,997,0.07600520,0.11414098,0.20282454,0.19246633,0.27521840,0.40215123
34027,0,USNewJerseyMorris,New Jersey,Morris,2021-04-04 08:08:45.705903,2020-09-18 00:00:00.000000,0.12728529,0.18357268,0.31342347,626,902,1541,376,571,1018,0.07658414,0.11629605,0.20716747,0.19921612,0.28106759,0.39508000
34027,0,USNewJerseyMorris,New Jersey,Morris,2021-04-04 08:08:45.705903,2020-09-19 00:00:00.000000,0.12761241,0.18749418,0.31999737,627,922,1573,374,589,1040,0.07618715,0.11991987,0.21159892,0.20818960,0.28461206,0.38657867
34027,0,USNewJerseyMorris,New Jersey,Morris,2021-04-04 08:08:45.705903,2020-09-20 00:00:00.000000,0.12874702,0.19286618,0.32675384,633,948,1607,373,602,1062,0.07595263,0.12253494,0.21611796,0.21477368,0.28947593,0.39594498
34027,0,USNewJerseyMorris,New Jersey,Morris,2021-04-04 08:08:45.705903,2020-09-21 00:00:00.000000,0.13072312,0.19720482,0.33365635,642,969,1641,373,617,1085,0.07597048,0.12552288,0.22072705,0.20929308,0.29110137,0.39087130
34027,0,USNewJerseyMorris,New Jersey,Morris,2021-04-04 08:08:45.705903,2020-09-22 00:00:00.000000,0.13392075,0.20423611,0.34105050,658,1004,1677,376,632,1108,0.07661388,0.12853863,0.22539706,0.20889550,0.29312745,0.39618185
34027,0,USNewJerseyMorris,New Jersey,Morris,2021-04-04 08:08:45.705903,2020-09-23 00:00:00.000000,0.13822657,0.20949627,0.34981410,679,1030,1720,382,648,1132,0.07777263,0.13178802,0.23025817,0.21149989,0.29460432,0.39864526
34027,0,USNewJerseyMorris,New Jersey,Morris,2021-04-04 08:08:45.705903,2020-09-24 00:00:00.000000,0.14349948,0.21812632,0.36016520,705,1072,1771,391,669,1159,0.07950635,0.13619774,0.23569044,0.21676072,0.29717917,0.39935094
34027,0,USNewJerseyMorris,New Jersey,Morris,2021-04-04 08:08:45.705903,2020-09-25 00:00:00.000000,0.14534410,0.22589167,0.37071657,714,1111,1823,402,690,1190,0.08181395,0.14031330,0.24194624,0.22536152,0.30519084,0.39874873
34027,0,USNewJerseyMorris,New Jersey,Morris,2021-04-04 08:08:45.705903,2020-09-26 00:00:00.000000,0.14472543,0.23252637,0.38066139,711,1143,1872,416,717,1221,0.08465449,0.14581731,0.24829126,0.23646752,0.31276707,0.40313183
34027,0,USNewJerseyMorris,New Jersey,Morris,2021-04-04 08:08:45.705903,2020-09-27 00:00:00.000000,0.14427864,0.24338369,0.38996190,709,1197,1918,432,741,1243,0.08796908,0.15079640,0.25275272,0.24724847,0.31384917,0.42269082
34027,0,USNewJerseyMorris,New Jersey,Morris,2021-04-04 08:08:45.705903,2020-09-28 00:00:00.000000,0.15150743,0.25461160,0.39901494,745,1252,1962,451,767,1268,0.09169920,0.15597457,0.25791351,0.25455388,0.31836224,0.42717176
34027,0,USNewJerseyMorris,New Jersey,Morris,2021-04-04 08:08:45.705903,2020-09-29 00:00:00.000000,0.16296896,0.26249241,0.40801807,801,1291,2006,453,792,1298,0.09223880,0.16112488,0.26399573,0.25031516,0.32506914,0.42577190
34027,0,USNewJerseyMorris,New Jersey,Morris,2021-04-04 08:08:45.705903,2020-09-30 00:00:00.000000,0.16765873,0.27070316,0.41717618,824,1331,2051,454,818,1332,0.09234952,0.16643293,0.27083358,0.26993649,0.32588302,0.42601063
34027,0,USNewJerseyMorris,New Jersey,Morris,2021-04-04 08:08:45.705903,2020-10-01 00:00:00.000000,0.17162397,0.28053271,0.42994415,844,1379,2114,481,843,1371,0.09794886,0.17147011,0.27879475,0.27194786,0.33179066,0.44838516
34027,0,USNewJerseyMorris,New Jersey,Morris,2021-04-04 08:08:45.705903,2020-10-02 00:00:00.000000,0.17636586,0.29059147,0.44730525,867,1429,2200,504,873,1410,0.10256240,0.17754691,0.28674611,0.29548710,0.35209278,0.48696264
34027,0,USNewJerseyMorris,New Jersey,Morris,2021-04-04 08:08:45.705903,2020-10-03 00:00:00.000000,0.18589842,0.30247534,0.47534171,914,1487,2337,515,907,1449,0.10481736,0.18441236,0.29477029,0.30296710,0.36661190,0.49537708
34027,0,USNewJerseyMorris,New Jersey,Morris,2021-04-04 08:08:45.705903,2020-10-04 00:00:00.000000,0.20068312,0.31916105,0.49127712,987,1569,2416,528,946,1493,0.10752565,0.19249373,0.30362306,0.30758868,0.38029304,0.49821066
34027,0,USNewJerseyMorris,New Jersey,Morris,2021-04-04 08:08:45.705903,2020-10-05 00:00:00.000000,0.21703437,0.34117579,0.50814877,1067,1678,2499,559,989,1540,0.11365680,0.20127684,0.31312858,0.29776209,0.38671832,0.50194003
34027,0,USNewJerseyMorris,New Jersey,Morris,2021-04-04 08:08:45.705903,2020-10-06 00:00:00.000000,0.23476637,0.36386585,0.53280782,1154,1789,2620,602,1034,1616,0.12251722,0.21039306,0.32867666,0.29885954,0.39629962,0.53339713
34027,0,USNewJerseyMorris,New Jersey,Morris,2021-04-04 08:08:45.705903,2020-10-07 00:00:00.000000,0.25391381,0.38337895,0.57289100,1248,1885,2817,650,1086,1702,0.13229179,0.22080950,0.34614709,0.30366196,0.40598181,0.54691768
34027,0,USNewJerseyMorris,New Jersey,Morris,2021-04-04 08:08:45.705903,2020-10-08 00:00:00.000000,0.26912660,0.40553491,0.60287662,1323,1994,2965,703,1151,1782,0.14293967,0.23415229,0.36240953,0.31155168,0.41001871,0.55210291
34027,0,USNewJerseyMorris,New Jersey,Morris,2021-04-04 08:08:45.705903,2020-10-09 00:00:00.000000,0.28571109,0.42542050,0.62602011,1405,2092,3079,759,1213,1858,0.15449926,0.24672175,0.37787391,0.32244786,0.41317807,0.55648856
34027,0,USNewJerseyMorris,New Jersey,Morris,2021-04-04 08:08:45.705903,2020-10-10 00:00:00.000000,0.30625500,0.45179801,0.65085933,1506,2222,3201,821,1282,1933,0.16709107,0.26080815,0.39312964,0.33417760,0.41438935,0.58248899
34027,0,USNewJerseyMorris,New Jersey,Morris,2021-04-04 08:08:45.705903,2020-10-11 00:00:00.000000,0.33011469,0.47843288,0.68727627,1623,2353,3380,877,1354,2010,0.17844547,0.27545624,0.40877689,0.34203595,0.41320092,0.61710623
34027,0,USNewJerseyMorris,New Jersey,Morris,2021-04-04 08:08:45.705903,2020-10-12 00:00:00.000000,0.35667456,0.51023603,0.73741282,1754,2509,3626,936,1443,2119,0.19040472,0.29348748,0.43101629,0.33728111,0.41412418,0.62457834
34027,0,USNewJerseyMorris,New Jersey,Morris,2021-04-04 08:08:45.705903,2020-10-13 00:00:00.000000,0.38239213,0.54437506,0.79150598,1880,2677,3892,998,1531,2252,0.20299399,0.31134984,0.45790444,0.33541545,0.41658936,0.62538324
34027,0,USNewJerseyMorris,New Jersey,Morris,2021-04-04 08:08:45.705903,2020-10-14 00:00:00.000000,0.40900703,0.57614391,0.84951386,2011,2833,4178,1110,1640,2410,0.22569776,0.33354727,0.49017828,0.33801409,0.41791881,0.63757599
34027,0,USNewJerseyMorris,New Jersey,Morris,2021-04-04 08:08:45.705903,2020-10-15 00:00:00.000000,0.43687797,0.61480304,0.91137325,2148,3023,4482,1219,1753,2598,0.24803677,0.35652851,0.52824256,0.34541823,0.41666500,0.63856815
34027,0,USNewJerseyMorris,New Jersey,Morris,2021-04-04 08:08:45.705903,2020-10-16 00:00:00.000000,0.46600303,0.65818420,0.97682360,2292,3237,4804,1303,1872,2800,0.26509243,0.38074239,0.56932090,0.35197515,0.41901194,0.62111160
34027,0,USNewJerseyMorris,New Jersey,Morris,2021-04-04 08:08:45.705903,2020-10-17 00:00:00.000000,0.49639754,0.70078443,1.04650531,2441,3446,5147,1384,1986,3017,0.28144054,0.40386407,0.61343161,0.34961440,0.41569701,0.58516491
34027,0,USNewJerseyMorris,New Jersey,Morris,2021-04-04 08:08:45.705903,2020-10-18 00:00:00.000000,0.52835406,0.74322418,1.12076403,2598,3655,5512,1456,2132,3215,0.29607268,0.43352836,0.65372353,0.34718346,0.41431935,0.57361409
34027,0,USNewJerseyMorris,New Jersey,Morris,2021-04-04 08:08:45.705903,2020-10-19 00:00:00.000000,0.56213337,0.78404286,1.20000536,2764,3856,5902,1576,2295,3402,0.32055801,0.46675799,0.69173593,0.34506225,0.41491759,0.56661393
34027,0,USNewJerseyMorris,New Jersey,Morris,2021-04-04 08:08:45.705903,2020-10-20 00:00:00.000000,0.60563910,0.83082454,1.26105546,2978,4086,6202,1683,2442,3591,0.34219767,0.49669461,0.73030659,0.34358816,0.41417168,0.56116663
34027,0,USNewJerseyMorris,New Jersey,Morris,2021-04-04 08:08:45.705903,2020-10-21 00:00:00.000000,0.66777638,0.87717223,1.32302201,3284,4314,6507,1790,2589,3807,0.36398862,0.52649451,0.77407048,0.34261232,0.41479466,0.54630387
34027,0,USNewJerseyMorris,New Jersey,Morris,2021-04-04 08:08:45.705903,2020-10-22 00:00:00.000000,0.70805506,0.93219453,1.39550534,3482,4584,6863,1905,2732,4027,0.38747088,0.55560371,0.81894318,0.34187640,0.40903306,0.53270564
34027,0,USNewJerseyMorris,New Jersey,Morris,2021-04-04 08:08:45.705903,2020-10-23 00:00:00.000000,0.73854603,0.98348949,1.47601459,3632,4837,7259,2067,2882,4238,0.42030588,0.58613587,0.86166870,0.34112438,0.40546043,0.51763289
34027,0,USNewJerseyMorris,New Jersey,Morris,2021-04-04 08:08:45.705903,2020-10-24 00:00:00.000000,0.78084211,1.04607952,1.56220076,3840,5145,7683,2176,3027,4515,0.44243376,0.61555287,0.91804722,0.33981524,0.40337911,0.50686439
34027,0,USNewJerseyMorris,New Jersey,Morris,2021-04-04 08:08:45.705903,2020-10-25 00:00:00.000000,0.82771286,1.10487676,1.65275529,4071,5434,8128,2309,3191,4804,0.46946932,0.64878750,0.97692340,0.33565165,0.40254363,0.51320720
34027,0,USNewJerseyMorris,New Jersey,Morris,2021-04-04 08:08:45.705903,2020-10-26 00:00:00.000000,0.88583982,1.16344817,1.74694602,4356,5722,8592,2470,3341,5103,0.50234046,0.67934954,1.03754167,0.31950924,0.39805539,0.50214834
34027,0,USNewJerseyMorris,New Jersey,Morris,2021-04-04 08:08:45.705903,2020-10-27 00:00:00.000000,0.94470633,1.22352450,1.84434275,4646,6017,9071,2625,3504,5404,0.53383783,0.71261037,1.09872478,0.31424236,0.39760754,0.50032606
34027,0,USNewJerseyMorris,New Jersey,Morris,2021-04-04 08:08:45.705903,2020-10-28 00:00:00.000000,1.00174085,1.28171793,1.94492024,4927,6304,9565,2751,3690,5703,0.55944408,0.75027890,1.15954736,0.31511163,0.39638452,0.49615861
34027,0,USNewJerseyMorris,New Jersey,Morris,2021-04-04 08:08:45.705903,2020-10-29 00:00:00.000000,1.05703870,1.34379706,2.04891574,5198,6609,10077,2882,3913,6002,0.58610828,0.79576549,1.22034536,0.30843852,0.39350329,0.50404585
34027,0,USNewJerseyMorris,New Jersey,Morris,2021-04-04 08:08:45.705903,2020-10-30 00:00:00.000000,1.10905333,1.41184157,2.15667268,5454,6944,10607,3018,4164,6303,0.61370690,0.84679203,1.28152610,0.30615437,0.38754151,0.49824631
34027,0,USNewJerseyMorris,New Jersey,Morris,2021-04-04 08:08:45.705903,2020-10-31 00:00:00.000000,1.16706298,1.48595721,2.26865903,5740,7308,11158,3175,4400,6608,0.64553389,0.89465296,1.34358509,0.31010762,0.37828339,0.48740587
34027,0,USNewJerseyMorris,New Jersey,Morris,2021-04-04 08:08:45.705903,2020-11-01 00:00:00.000000,1.22422046,1.56120039,2.38526835,6021,7678,11731,3363,4607,6883,0.68383051,0.93678459,1.39960974,0.30433317,0.37203860,0.48102150
34027,0,USNewJerseyMorris,New Jersey,Morris,2021-04-04 08:08:45.705903,2020-11-02 00:00:00.000000,1.28459772,1.62687831,2.50667938,6318,8001,12328,3567,4822,7213,0.72537926,0.98046924,1.46653624,0.30423324,0.36529823,0.46586598
34027,0,USNewJerseyMorris,New Jersey,Morris,2021-04-04 08:08:45.705903,2020-11-03 00:00:00.000000,1.34721882,1.69709757,2.63288052,6626,8347,12949,3789,5037,7559,0.77047089,1.02415461,1.53699389,0.30425550,0.36391553,0.46525953
34027,0,USNewJerseyMorris,New Jersey,Morris,2021-04-04 08:08:45.705903,2020-11-04 00:00:00.000000,1.41214667,1.76598529,2.75585191,6945,8685,13554,4027,5274,7880,0.81886980,1.07234739,1.60232521,0.30421917,0.36221931,0.46161883
34027,0,USNewJerseyMorris,New Jersey,Morris,2021-04-04 08:08:45.705903,2020-11-05 00:00:00.000000,1.46973758,1.84182695,2.82711032,7228,9058,13905,4259,5500,8203,0.86594729,1.11833230,1.66780258,0.30420884,0.35835860,0.45638301
34027,0,USNewJerseyMorris,New Jersey,Morris,2021-04-04 08:08:45.705903,2020-11-06 00:00:00.000000,1.51550662,1.89108581,2.89683403,7453,9301,14247,4369,5708,8526,0.88847120,1.16064611,1.73366767,0.30409045,0.35408137,0.44720715
34027,0,USNewJerseyMorris,New Jersey,Morris,2021-04-04 08:08:45.705903,2020-11-07 00:00:00.000000,1.56127668,1.97724771,2.96506928,7679,9724,14583,4460,5928,8850,0.90690397,1.20539284,1.79943955,0.29748768,0.34557331,0.44128185
34027,0,USNewJerseyMorris,New Jersey,Morris,2021-04-04 08:08:45.705903,2020-11-08 00:00:00.000000,1.60850749,2.04736418,2.98416180,7911,10069,14677,4550,6150,9169,0.92513644,1.25059340,1.86425954,0.28798789,0.33748735,0.43778109
34027,0,USNewJerseyMorris,New Jersey,Morris,2021-04-04 08:08:45.705903,2020-11-09 00:00:00.000000,1.65669405,2.12226875,2.99937911,8148,10438,14752,4639,6361,9372,0.94322708,1.29329975,1.90550700,0.28259431,0.33816217,0.43507390
34027,0,USNewJerseyMorris,New Jersey,Morris,2021-04-04 08:08:45.705903,2020-11-10 00:00:00.000000,1.70615295,2.19609775,3.05571258,8391,10801,15029,4726,6567,9460,0.96091554,1.33522100,1.92357175,0.27661329,0.33623217,0.43210867
34027,0,USNewJerseyMorris,New Jersey,Morris,2021-04-04 08:08:45.705903,2020-11-11 00:00:00.000000,1.74740870,2.25121867,3.13094583,8594,11072,15399,4898,6785,9526,0.99596372,1.37962016,1.93687299,0.26960401,0.33242883,0.42819365
34027,0,USNewJerseyMorris,New Jersey,Morris,2021-04-04 08:08:45.705903,2020-11-12 00:00:00.000000,1.78688173,2.29914122,3.19520379,8788,11308,15715,5092,6983,9577,1.03535245,1.41988839,1.94719319,0.26072817,0.32664625,0.42278920
34027,0,USNewJerseyMorris,New Jersey,Morris,2021-04-04 08:08:45.705903,2020-11-13 00:00:00.000000,1.82700811,2.34627227,3.24576802,8986,11540,15964,5291,7205,9874,1.07592483,1.46495219,2.00761996,0.25013663,0.32144488,0.41546945
34027,0,USNewJerseyMorris,New Jersey,Morris,2021-04-04 08:08:45.705903,2020-11-14 00:00:00.000000,1.86827203,2.39221552,3.29062046,9189,11765,16184,5496,7420,10183,1.11759228,1.50866088,2.07047765,0.24514011,0.31665965,0.41825774
34027,0,USNewJerseyMorris,New Jersey,Morris,2021-04-04 08:08:45.705903,2020-11-15 00:00:00.000000,1.91102426,2.44620504,3.33527946,9399,12031,16404,5706,7579,10479,1.16021448,1.54097004,2.13070803,0.24319734,0.31079031,0.42301782
34027,0,USNewJerseyMorris,New Jersey,Morris,2021-04-04 08:08:45.705903,2020-11-16 00:00:00.000000,1.95528196,2.49707042,3.38196520,9616,12281,16634,5847,7726,10763,1.18897390,1.57101550,2.18835063,0.24253218,0.31000100,0.43433265
34027,0,USNewJerseyMorris,New Jersey,Morris,2021-04-04 08:08:45.705903,2020-11-17 00:00:00.000000,2.00086910,2.54446586,3.43071076,9841,12514,16873,5888,7892,11035,1.19722981,1.60462131,2.24373033,0.24231328,0.31135747,0.44302608
34027,0,USNewJerseyMorris,New Jersey,Morris,2021-04-04 08:08:45.705903,2020-11-18 00:00:00.000000,2.04525341,2.58980721,3.48177027,10059,12737,17124,5927,8065,11299,1.20518927,1.63987800,2.29743833,0.24224107,0.31004431,0.43839703
34027,0,USNewJerseyMorris,New Jersey,Morris,2021-04-04 08:08:45.705903,2020-11-19 00:00:00.000000,2.08066788,2.65381085,3.53514346,10233,13052,17387,5969,8270,11558,1.21366971,1.68143102,2.35004447,0.23630020,0.30845235,0.42930785
34027,0,USNewJerseyMorris,New Jersey,Morris,2021-04-04 08:08:45.705903,2020-11-20 00:00:00.000000,2.10302185,2.72239472,3.66778393,10343,13389,18039,6017,8491,11788,1.22343115,1.72649131,2.39677457,0.24219608,0.30904963,0.40977167
34027,0,USNewJerseyMorris,New Jersey,Morris,2021-04-04 08:08:45.705903,2020-11-21 00:00:00.000000,2.12945007,2.77833637,3.80739591,10473,13665,18726,6075,8758,12037,1.23516799,1.78072199,2.44732259,0.24216889,0.30921549,0.39869661
34027,0,USNewJerseyMorris,New Jersey,Morris,2021-04-04 08:08:45.705903,2020-11-22 00:00:00.000000,2.15995929,2.84529447,3.94921599,10623,13994,19424,6143,8940,12339,1.24899518,1.81764629,2.50882743,0.23798140,0.31059075,0.40421633
34027,0,USNewJerseyMorris,New Jersey,Morris,2021-04-04 08:08:45.705903,2020-11-23 00:00:00.000000,2.19472369,2.89145299,4.09336267,10794,14221,20132,6222,9094,12618,1.26507996,1.84897708,2.56546522,0.23888761,0.31714768,0.42093565
34027,0,USNewJerseyMorris,New Jersey,Morris,2021-04-04 08:08:45.705903,2020-11-24 00:00:00.000000,2.23338753,2.93266612,4.23721226,10984,14424,20840,6313,9248,12910,1.28358226,1.88035238,2.62491086,0.23987554,0.31910368,0.42806755
34027,0,USNewJerseyMorris,New Jersey,Morris,2021-04-04 08:08:45.705903,2020-11-25 00:00:00.000000,2.27682077,2.97007193,4.36762242,11198,14608,21481,6416,9401,13213,1.30447873,1.91151771,2.68649127,0.24231154,0.31805095,0.42728045
34027,0,USNewJerseyMorris,New Jersey,Morris,2021-04-04 08:08:45.705903,2020-11-26 00:00:00.000000,2.32355862,3.01833815,4.42872994,11428,14845,21782,6620,9573,13520,1.34599288,1.94649502,2.74903398,0.24885268,0.31773242,0.41890486
34027,0,USNewJerseyMorris,New Jersey,Morris,2021-04-04 08:08:45.705903,2020-11-27 00:00:00.000000,2.36128924,3.07841590,4.49317330,11613,15141,22099,6843,9765,13921,1.39143069,1.98556777,2.83041877,0.25867160,0.31939825,0.41224747
34027,0,USNewJerseyMorris,New Jersey,Morris,2021-04-04 08:08:45.705903,2020-11-28 00:00:00.000000,2.40405916,3.15791232,4.56245886,11824,15532,22440,7074,9947,14346,1.43840517,2.02239057,2.91687262,0.25597867,0.32216340,0.40910565
34027,0,USNewJerseyMorris,New Jersey,Morris,2021-04-04 08:08:45.705903,2020-11-29 00:00:00.000000,2.44350526,3.22522395,4.63614540,12018,15863,22802,7312,10110,14751,1.48676066,2.05561118,2.99926230,0.25522829,0.31846405,0.41449294
34027,0,USNewJerseyMorris,New Jersey,Morris,2021-04-04 08:08:45.705903,2020-11-30 00:00:00.000000,2.48789114,3.28654189,4.71254421,12236,16164,23178,7501,10271,14945,1.52527355,2.08835675,3.03867375,0.25521654,0.31732263,0.41279957
34027,0,USNewJerseyMorris,New Jersey,Morris,2021-04-04 08:08:45.705903,2020-12-01 00:00:00.000000,2.53605375,3.34542080,4.78995063,12473,16454,23559,7638,10473,15117,1.55293349,2.12944788,3.07357125,0.25510149,0.31526588,0.40981556
34027,0,USNewJerseyMorris,New Jersey,Morris,2021-04-04 08:08:45.705903,2020-12-02 00:00:00.000000,2.58645706,3.40692239,4.86708427,12721,16756,23938,7782,10665,15273,1.58231741,2.16854671,3.10540142,0.25461779,0.31269904,0.40450270
34027,0,USNewJerseyMorris,New Jersey,Morris,2021-04-04 08:08:45.705903,2020-12-03 00:00:00.000000,2.63891150,3.48208224,4.94300524,12979,17126,24311,7934,10923,15419,1.61323409,2.22088798,3.13498043,0.24566112,0.30829379,0.39402762
34027,0,USNewJerseyMorris,New Jersey,Morris,2021-04-04 08:08:45.705903,2020-12-04 00:00:00.000000,2.69391435,3.53998800,5.01617178,13249,17411,24671,8004,11189,15555,1.62746547,2.27490796,3.16270145,0.23291917,0.30312310,0.39510306
34027,0,USNewJerseyMorris,New Jersey,Morris,2021-04-04 08:08:45.705903,2020-12-05 00:00:00.000000,2.70938210,3.58722332,5.08590426,13325,17643,25014,8063,11410,15907,1.63937703,2.31984636,3.23421980,0.22804978,0.29310695,0.39671510
34027,0,USNewJerseyMorris,New Jersey,Morris,2021-04-04 08:08:45.705903,2020-12-06 00:00:00.000000,2.70492463,3.61619945,5.15163143,13304,17786,25338,8114,11550,16232,1.64980731,2.34842333,3.30041198,0.21220136,0.28116391,0.39614560
34027,0,USNewJerseyMorris,New Jersey,Morris,2021-04-04 08:08:45.705903,2020-12-07 00:00:00.000000,2.69815283,3.63422430,5.21078228,13270,17874,25628,8138,11646,16512,1.65466621,2.36795562,3.35724282,0.20559395,0.27051898,0.39361119
34027,0,USNewJerseyMorris,New Jersey,Morris,2021-04-04 08:08:45.705903,2020-12-08 00:00:00.000000,2.68993096,3.62438361,5.19936921,13230,17826,25572,8131,11678,16735,1.65320347,2.37447257,3.40255243,0.20543267,0.26033282,0.36751746
34027,0,USNewJerseyMorris,New Jersey,Morris,2021-04-04 08:08:45.705903,2020-12-09 00:00:00.000000,2.68040258,3.63074457,5.09516152,13183,17857,25060,8103,11622,16752,1.64761258,2.36304220,3.40600110,0.19849800,0.25278423,0.34627241
34027,0,USNewJerseyMorris,New Jersey,Morris,2021-04-04 08:08:45.705903,2020-12-10 00:00:00.000000,2.66935235,3.62469380,4.98340606,13129,17827,24510,8064,11642,16508,1.63963844,2.36714449,3.35642990,0.19614694,0.24871040,0.33773164
34027,0,USNewJerseyMorris,New Jersey,Morris,2021-04-04 08:08:45.705903,2020-12-11 00:00:00.000000,2.65589953,3.60698976,4.92817895,13062,17740,24239,8019,11685,16454,1.63052168,2.37575514,3.34543605,0.19529996,0.24522884,0.33618254
34027,0,USNewJerseyMorris,New Jersey,Morris,2021-04-04 08:08:45.705903,2020-12-12 00:00:00.000000,2.61110878,3.60371730,4.89046465,12842,17724,24053,7971,11671,16357,1.62075868,2.37303443,3.32565746,0.19110161,0.24575138,0.33495503
34027,0,USNewJerseyMorris,New Jersey,Morris,2021-04-04 08:08:45.705903,2020-12-13 00:00:00.000000,2.56018279,3.57028072,4.84088509,12592,17560,23809,7921,11655,16230,1.61046795,2.36983276,3.29987561,0.18790711,0.24437714,0.33897135
34027,0,USNewJerseyMorris,New Jersey,Morris,2021-04-04 08:08:45.705903,2020-12-14 00:00:00.000000,2.51995377,3.52909975,4.78416699,12394,17357,23530,7867,11701,16084,1.59968818,2.37910842,3.27017573,0.18750210,0.24264073,0.33964360
34027,0,USNewJerseyMorris,New Jersey,Morris,2021-04-04 08:08:45.705903,2020-12-15 00:00:00.000000,2.47303951,3.49181476,4.78677393,12163,17174,23543,7813,11690,15925,1.58854396,2.37679833,3.23789897,0.18797143,0.24333659,0.33663113
34027,0,USNewJerseyMorris,New Jersey,Morris,2021-04-04 08:08:45.705903,2020-12-16 00:00:00.000000,2.42788126,3.45806431,4.79194711,11941,17008,23568,7756,11602,15758,1.57699404,2.35892828,3.20400586,0.19014695,0.24406940,0.33271549
34027,0,USNewJerseyMorris,New Jersey,Morris,2021-04-04 08:08:45.705903,2020-12-17 00:00:00.000000,2.39931977,3.43191265,4.69723391,11800,16879,23103,7697,11444,15608,1.56499226,2.32691791,3.17347971,0.19522571,0.24843986,0.35251491
34027,0,USNewJerseyMorris,New Jersey,Morris,2021-04-04 08:08:45.705903,2020-12-18 00:00:00.000000,2.37523208,3.41603482,4.56256673,11682,16801,22440,7635,11326,15584,1.55249856,2.30290032,3.16861920,0.19775552,0.24916371,0.35686070
34027,0,USNewJerseyMorris,New Jersey,Morris,2021-04-04 08:08:45.705903,2020-12-19 00:00:00.000000,2.35125452,3.39534969,4.52653738,11564,16699,22263,7516,11254,15563,1.52819486,2.28822680,3.16437307,0.20069997,0.25186203,0.35729058
34027,0,USNewJerseyMorris,New Jersey,Morris,2021-04-04 08:08:45.705903,2020-12-20 00:00:00.000000,2.32583017,3.38682473,4.50192802,11439,16657,22142,7404,11154,15545,1.50554268,2.26780762,3.16075054,0.20149337,0.25613849,0.35013996
34027,0,USNewJerseyMorris,New Jersey,Morris,2021-04-04 08:08:45.705903,2020-12-21 00:00:00.000000,2.30119969,3.36666144,4.48105883,11318,16558,22039,7312,11049,15529,1.48668046,2.24649620,3.15745603,0.20218749,0.26412572,0.34867780
34027,0,USNewJerseyMorris,New Jersey,Morris,2021-04-04 08:08:45.705903,2020-12-22 00:00:00.000000,2.29008666,3.34705776,4.46114039,11263,16462,21941,7238,10916,15472,1.47169540,2.21950908,3.14581557,0.20538599,0.26918187,0.35759514
34027,0,USNewJerseyMorris,New Jersey,Morris,2021-04-04 08:08:45.705903,2020-12-23 00:00:00.000000,2.28083038,3.29803308,4.44120605,11218,16221,21843,7189,10878,15378,1.46175074,2.21178806,3.12669990,0.20562985,0.27106610,0.35868999
34027,0,USNewJerseyMorris,New Jersey,Morris,2021-04-04 08:08:45.705903,2020-12-24 00:00:00.000000,2.27317580,3.28447930,4.42130022,11180,16154,21745,7154,10911,15281,1.45470705,2.21839910,3.10696919,0.20600462,0.27288912,0.36032409
34027,0,USNewJerseyMorris,New Jersey,Morris,2021-04-04 08:08:45.705903,2020-12-25 00:00:00.000000,2.27782456,3.29160702,4.40262787,11203,16189,21654,7122,10959,15207,1.44819877,2.22820292,3.09195390,0.21744285,0.27994029,0.39136836
34027,0,USNewJerseyMorris,New Jersey,Morris,2021-04-04 08:08:45.705903,2020-12-26 00:00:00.000000,2.29337468,3.28945085,4.38866550,11279,16178,21585,7094,10981,15171,1.44251906,2.23269041,3.08453742,0.22226233,0.28844378,0.42175191
34027,0,USNewJerseyMorris,New Jersey,Morris,2021-04-04 08:08:45.705903,2020-12-27 00:00:00.000000,2.32255453,3.31134676,4.38693670,11423,16286,21576,7079,10971,15173,1.43941812,2.23068094,3.08494482,0.22445986,0.29631027,0.43304437
34027,0,USNewJerseyMorris,New Jersey,Morris,2021-04-04 08:08:45.705903,2020-12-28 00:00:00.000000,2.37719195,3.31608486,4.40767919,11692,16309,21678,7092,10903,15207,1.44199080,2.21691724,3.09183854,0.23722527,0.30333787,0.44482675
34027,0,USNewJerseyMorris,New Jersey,Morris,2021-04-04 08:08:45.705903,2020-12-29 00:00:00.000000,2.40624171,3.33067709,4.49814926,11834,16381,22123,7133,10898,15264,1.45034550,2.21585713,3.10348646,0.23976985,0.30728621,0.45698233
34027,0,USNewJerseyMorris,New Jersey,Morris,2021-04-04 08:08:45.705903,2020-12-30 00:00:00.000000,2.42542147,3.39225671,4.59053467,11929,16684,22578,7192,10962,15356,1.46227375,2.22880840,3.12221331,0.24264090,0.31409825,0.46334725
34027,0,USNewJerseyMorris,New Jersey,Morris,2021-04-04 08:08:45.705903,2020-12-31 00:00:00.000000,2.44457713,3.43068144,4.63781592,12023,16873,22810,7262,11101,15512,1.47649028,2.25718871,3.15393116,0.24649411,0.32337198,0.46359107
34027,0,USNewJerseyMorris,New Jersey,Morris,2021-04-04 08:08:45.705903,2021-01-01 00:00:00.000000,2.46344724,3.46745971,4.68794701,12116,17054,23057,7341,11263,15718,1.49258048,2.29010352,3.19589391,0.25138955,0.32735732,0.46364211
34027,0,USNewJerseyMorris,New Jersey,Morris,2021-04-04 08:08:45.705903,2021-01-02 00:00:00.000000,2.48199173,3.49543936,4.75713946,12207,17192,23397,7429,11331,15910,1.51058237,2.30390492,3.23493234,0.25634193,0.33145446,0.46784939
34027,0,USNewJerseyMorris,New Jersey,Morris,2021-04-04 08:08:45.705903,2021-01-03 00:00:00.000000,2.50395977,3.53571040,4.83945813,12315,17390,23802,7527,11459,16181,1.53040118,2.32988868,3.28988899,0.25023432,0.33300424,0.47789217
34027,0,USNewJerseyMorris,New Jersey,Morris,2021-04-04 08:08:45.705903,2021-01-04 00:00:00.000000,2.53845642,3.58866283,4.93262942,12485,17650,24260,7631,11604,16423,1.55162170,2.35941213,3.33924413,0.24816717,0.33850049,0.49890650
34027,0,USNewJerseyMorris,New Jersey,Morris,2021-04-04 08:08:45.705903,2021-01-05 00:00:00.000000,2.57377283,3.64082656,4.98573699,12658,17907,24522,7739,11754,16624,1.57347402,2.38986742,3.38004249,0.25149879,0.34049827,0.50619777
34027,0,USNewJerseyMorris,New Jersey,Morris,2021-04-04 08:08:45.705903,2021-01-06 00:00:00.000000,2.61088735,3.70245908,5.04823080,12841,18210,24829,7848,11916,16781,1.59579534,2.42280026,3.41196655,0.25782531,0.33905404,0.50949153
34027,0,USNewJerseyMorris,New Jersey,Morris,2021-04-04 08:08:45.705903,2021-01-07 00:00:00.000000,2.65559454,3.73841398,5.11522177,13061,18387,25158,7959,12064,16899,1.61825772,2.45283572,3.43599560,0.25732195,0.34000875,0.50923228
34027,0,USNewJerseyMorris,New Jersey,Morris,2021-04-04 08:08:45.705903,2021-01-08 00:00:00.000000,2.69849216,3.75528885,5.17921159,13272,18470,25473,8069,12181,16987,1.64060653,2.47667237,3.45374025,0.25628846,0.33776970,0.50536006
34027,0,USNewJerseyMorris,New Jersey,Morris,2021-04-04 08:08:45.705903,2021-01-09 00:00:00.000000,2.73962230,3.78779803,5.23669429,13474,18630,25756,8177,12316,17057,1.66265488,2.50413835,3.46797654,0.25382851,0.33629584,0.49974886
34027,0,USNewJerseyMorris,New Jersey,Morris,2021-04-04 08:08:45.705903,2021-01-10 00:00:00.000000,2.77946975,3.83270833,5.28009910,13670,18850,25969,8283,12427,17187,1.68422676,2.52671768,3.49458139,0.25089751,0.33390736,0.49463409
34027,0,USNewJerseyMorris,New Jersey,Morris,2021-04-04 08:08:45.705903,2021-01-11 00:00:00.000000,2.81831736,3.86627831,5.31034392,13861,19016,26118,8386,12548,17359,1.70505420,2.55135376,3.52956468,0.25020000,0.32935829,0.47780152
34027,0,USNewJerseyMorris,New Jersey,Morris,2021-04-04 08:08:45.705903,2021-01-12 00:00:00.000000,2.85635512,3.89051073,5.33442748,14048,19135,26237,8483,12651,17632,1.72490333,2.57221455,3.58504531,0.24921853,0.32479404,0.47265094
34027,0,USNewJerseyMorris,New Jersey,Morris,2021-04-04 08:08:45.705903,2021-01-13 00:00:00.000000,2.89355734,3.91699221,5.35499884,14231,19265,26338,8573,12701,17954,1.74308005,2.58244043,3.65039419,0.24842823,0.32171940,0.47179490
34027,0,USNewJerseyMorris,New Jersey,Morris,2021-04-04 08:08:45.705903,2021-01-14 00:00:00.000000,2.92982841,3.94891129,5.37221736,14410,19422,26422,8653,12758,18280,1.75933648,2.59391948,3.71663526,0.24552483,0.32107631,0.47188162
34027,0,USNewJerseyMorris,New Jersey,Morris,2021-04-04 08:08:45.705903,2021-01-15 00:00:00.000000,2.96530256,3.97112307,5.39895609,14584,19531,26554,8725,12803,18522,1.77394815,2.60323327,3.76588590,0.24165858,0.31984599,0.47249064
34027,0,USNewJerseyMorris,New Jersey,Morris,2021-04-04 08:08:45.705903,2021-01-16 00:00:00.000000,2.97534488,3.98677779,5.44483124,14634,19608,26780,8791,12953,18587,1.78746396,2.63365825,3.77906443,0.24137395,0.31787815,0.47303681
34027,0,USNewJerseyMorris,New Jersey,Morris,2021-04-04 08:08:45.705903,2021-01-17 00:00:00.000000,2.97429385,3.99999061,5.47904581,14628,19673,26948,8863,13062,18630,1.80207129,2.65579785,3.78790042,0.24013787,0.31895661,0.46468600
34027,0,USNewJerseyMorris,New Jersey,Morris,2021-04-04 08:08:45.705903,2021-01-18 00:00:00.000000,2.97117379,4.01240745,5.50099066,14613,19734,27056,8969,13123,18641,1.82365050,2.66812827,3.79016549,0.23713398,0.31756283,0.45890638
34027,0,USNewJerseyMorris,New Jersey,Morris,2021-04-04 08:08:45.705903,2021-01-19 00:00:00.000000,2.96596011,4.02183479,5.50800597,14587,19781,27090,9072,13150,18615,1.84464975,2.67377604,3.78484083,0.23414682,0.31395676,0.45506176
34027,0,USNewJerseyMorris,New Jersey,Morris,2021-04-04 08:08:45.705903,2021-01-20 00:00:00.000000,2.95830047,4.02781619,5.49751153,14550,19810,27039,9064,13152,18562,1.84295221,2.67413624,3.77404843,0.23301679,0.31693674,0.45046190
34027,0,USNewJerseyMorris,New Jersey,Morris,2021-04-04 08:08:45.705903,2021-01-21 00:00:00.000000,2.94783864,4.01691459,5.46674091,14498,19756,26887,9084,13131,18538,1.84711364,2.66991681,3.76910796,0.23097518,0.31498756,0.44099725
34027,0,USNewJerseyMorris,New Jersey,Morris,2021-04-04 08:08:45.705903,2021-01-22 00:00:00.000000,2.93428690,4.00891275,5.41406088,14432,19717,26628,9091,13097,18473,1.84841168,2.66283821,3.75597703,0.22719186,0.31307973,0.43125634
34027,0,USNewJerseyMorris,New Jersey,Morris,2021-04-04 08:08:45.705903,2021-01-23 00:00:00.000000,2.91754378,3.99329760,5.34032446,14349,19640,26266,9075,13047,18352,1.84525412,2.65270867,3.73144708,0.22407283,0.30410612,0.43235632
34027,0,USNewJerseyMorris,New Jersey,Morris,2021-04-04 08:08:45.705903,2021-01-24 00:00:00.000000,2.89777479,3.97066943,5.24882402,14252,19529,25816,9080,12980,18162,1.84620641,2.63914407,3.69263223,0.21721065,0.29848774,0.41734595
34027,0,USNewJerseyMorris,New Jersey,Morris,2021-04-04 08:08:45.705903,2021-01-25 00:00:00.000000,2.85990267,3.94281593,5.16847627,14066,19392,25420,8950,12925,17958,1.81976644,2.62796250,3.65122297,0.21095644,0.28862863,0.40596233
34027,0,USNewJerseyMorris,New Jersey,Morris,2021-04-04 08:08:45.705903,2021-01-26 00:00:00.000000,2.78757169,3.89963776,5.13801068,13710,19180,25271,8757,12872,17806,1.78058281,2.61723596,3.62037674,0.20498897,0.27662833,0.38882306
34027,0,USNewJerseyMorris,New Jersey,Morris,2021-04-04 08:08:45.705903,2021-01-27 00:00:00.000000,2.71301270,3.84430448,5.09815638,13343,18908,25075,8667,12817,17654,1.76214542,2.60591861,3.58952019,0.20439759,0.27276287,0.38519127
34027,0,USNewJerseyMorris,New Jersey,Morris,2021-04-04 08:08:45.705903,2021-01-28 00:00:00.000000,2.65136278,3.77722114,5.04385045,13040,18578,24807,8579,12739,17528,1.74427985,2.59005013,3.56390656,0.19195793,0.26707917,0.37840347
34027,0,USNewJerseyMorris,New Jersey,Morris,2021-04-04 08:08:45.705903,2021-01-29 00:00:00.000000,2.60568824,3.70251401,4.94696409,12815,18210,24331,8468,12507,17313,1.72184187,2.54304774,3.52010278,0.18558243,0.26170628,0.37573260
34027,0,USNewJerseyMorris,New Jersey,Morris,2021-04-04 08:08:45.705903,2021-01-30 00:00:00.000000,2.55611056,3.62901673,4.86065052,12572,17849,23906,8336,12292,17181,1.69488267,2.49935850,3.49323736,0.18494465,0.25807796,0.38402351
34027,0,USNewJerseyMorris,New Jersey,Morris,2021-04-04 08:08:45.705903,2021-01-31 00:00:00.000000,2.50465292,3.59468406,4.77175419,12319,17680,23469,8186,12115,17029,1.66446596,2.46319613,3.46229810,0.18575297,0.25215376,0.38947115
34027,0,USNewJerseyMorris,New Jersey,Morris,2021-04-04 08:08:45.705903,2021-02-01 00:00:00.000000,2.45268795,3.54630808,4.68107142,12063,17442,23023,7967,11920,16797,1.61982787,2.42362223,3.41515377,0.19181002,0.24974287,0.39196598
34027,0,USNewJerseyMorris,New Jersey,Morris,2021-04-04 08:08:45.705903,2021-02-02 00:00:00.000000,2.40057722,3.47392225,4.58967730,11807,17086,22574,7756,11710,16504,1.57700583,2.38091434,3.35561917,0.19136299,0.24637467,0.39349719
34027,0,USNewJerseyMorris,New Jersey,Morris,2021-04-04 08:08:45.705903,2021-02-03 00:00:00.000000,2.34887260,3.38842111,4.49756192,11552,16665,22121,7564,11494,16202,1.53807897,2.33700211,3.29418113,0.19056459,0.24286675,0.39371009
34027,0,USNewJerseyMorris,New Jersey,Morris,2021-04-04 08:08:45.705903,2021-02-04 00:00:00.000000,2.29880582,3.29227866,4.40406903,11306,16192,21661,7400,11334,15894,1.50456942,2.30449527,3.23158147,0.18455431,0.24242927,0.39251275
34027,0,USNewJerseyMorris,New Jersey,Morris,2021-04-04 08:08:45.705903,2021-02-05 00:00:00.000000,2.23974616,3.20841771,4.30782539,11016,15780,21187,7260,11073,15641,1.47619454,2.25148828,3.18017289,0.18732660,0.24344611,0.39155091
34027,0,USNewJerseyMorris,New Jersey,Morris,2021-04-04 08:08:45.705903,2021-02-06 00:00:00.000000,2.16768293,3.12727839,4.20731038,10661,15381,20693,7139,10796,15423,1.45165440,2.19501731,3.13582004,0.18843746,0.24437822,0.39222005
34027,0,USNewJerseyMorris,New Jersey,Morris,2021-04-04 08:08:45.705903,2021-02-07 00:00:00.000000,2.10058880,3.05799826,4.10998251,10331,15040,20214,7031,10548,15181,1.42968157,2.14458208,3.08658498,0.18577926,0.24566647,0.40242290
34027,0,USNewJerseyMorris,New Jersey,Morris,2021-04-04 08:08:45.705903,2021-02-08 00:00:00.000000,2.04072282,2.99676869,4.00728496,10037,14739,19709,6931,10313,14906,1.40936563,2.09693162,3.03075866,0.18719846,0.24846663,0.40963937
34027,0,USNewJerseyMorris,New Jersey,Morris,2021-04-04 08:08:45.705903,2021-02-09 00:00:00.000000,1.98818467,2.94163559,3.89625214,9778,14468,19163,6707,10048,14594,1.36376362,2.04293961,2.96729507,0.18267452,0.24871178,0.40692350
34027,0,USNewJerseyMorris,New Jersey,Morris,2021-04-04 08:08:45.705903,2021-02-10 00:00:00.000000,1.94065399,2.87665477,3.78511783,9545,14148,18616,6506,9786,14248,1.32295497,1.98974652,2.89699479,0.18158992,0.25167406,0.40116115
34027,0,USNewJerseyMorris,New Jersey,Morris,2021-04-04 08:08:45.705903,2021-02-11 00:00:00.000000,1.89633234,2.81040453,3.68755402,9327,13822,18137,6302,9579,13905,1.28129837,1.94757102,2.82713525,0.18206091,0.25310278,0.40377649
34027,0,USNewJerseyMorris,New Jersey,Morris,2021-04-04 08:08:45.705903,2021-02-12 00:00:00.000000,1.85458116,2.74668285,3.60162179,9121,13509,17714,6112,9377,13671,1.24286673,1.90656695,2.77968544,0.18732067,0.25725552,0.41844789
34027,0,USNewJerseyMorris,New Jersey,Morris,2021-04-04 08:08:45.705903,2021-02-13 00:00:00.000000,1.81127632,2.69618175,3.54591009,8908,13261,17440,5953,9212,13410,1.21051063,1.87311205,2.72665590,0.18974592,0.26152185,0.44372117
34027,0,USNewJerseyMorris,New Jersey,Morris,2021-04-04 08:08:45.705903,2021-02-14 00:00:00.000000,1.78085093,2.63061218,3.52202762,8759,12938,17322,5828,9079,13045,1.18512515,1.84609709,2.65230528,0.19317540,0.27087703,0.47617626
34027,0,USNewJerseyMorris,New Jersey,Morris,2021-04-04 08:08:45.705903,2021-02-15 00:00:00.000000,1.75271343,2.55854452,3.49938720,8620,12584,17211,5728,8947,12691,1.16476214,1.81912846,2.58046492,0.19715011,0.27727997,0.51455727
34027,0,USNewJerseyMorris,New Jersey,Morris,2021-04-04 08:08:45.705903,2021-02-16 00:00:00.000000,1.73035783,2.50531516,3.44216473,8510,12322,16930,5643,8765,12409,1.14734302,1.78214961,2.52295777,0.20323075,0.28267583,0.53334387
34027,0,USNewJerseyMorris,New Jersey,Morris,2021-04-04 08:08:45.705903,2021-02-17 00:00:00.000000,1.70946981,2.46069370,3.37730894,8407,12102,16611,5565,8562,12412,1.13147217,1.74082486,2.52370564,0.20873527,0.29100103,0.53809356
34027,0,USNewJerseyMorris,New Jersey,Morris,2021-04-04 08:08:45.705903,2021-02-18 00:00:00.000000,1.69049989,2.42961120,3.37249866,8314,11949,16587,5485,8386,12430,1.11531684,1.70514630,2.52724897,0.21429785,0.30007088,0.53983576
34027,0,USNewJerseyMorris,New Jersey,Morris,2021-04-04 08:08:45.705903,2021-02-19 00:00:00.000000,1.67803450,2.41900074,3.41505448,8253,11897,16796,5355,8200,12381,1.08882407,1.66729530,2.51728483,0.22051486,0.31634412,0.55090944
34027,0,USNewJerseyMorris,New Jersey,Morris,2021-04-04 08:08:45.705903,2021-02-20 00:00:00.000000,1.66526560,2.41274301,3.39664091,8190,11866,16706,5242,8062,12292,1.06580274,1.63916279,2.49927415,0.23350391,0.32940367,0.61381403
34027,0,USNewJerseyMorris,New Jersey,Morris,2021-04-04 08:08:45.705903,2021-02-21 00:00:00.000000,1.67315586,2.41465041,3.37995919,8229,11876,16624,5161,7977,12216,1.04942122,1.62199982,2.48372521,0.25133679,0.34886001,0.61501716
34027,0,USNewJerseyMorris,New Jersey,Morris,2021-04-04 08:08:45.705903,2021-02-22 00:00:00.000000,1.68726103,2.42637987,3.36837482,8298,11934,16567,5127,7940,12157,1.04241262,1.61433853,2.47181826,0.26856284,0.36761579,0.61763071
34027,0,USNewJerseyMorris,New Jersey,Morris,2021-04-04 08:08:45.705903,2021-02-23 00:00:00.000000,1.69405100,2.41442794,3.37294260,8332,11875,16589,5129,7979,12139,1.04295727,1.62232608,2.46818191,0.27569915,0.37987133,0.62335187
34027,0,USNewJerseyMorris,New Jersey,Morris,2021-04-04 08:08:45.705903,2021-02-24 00:00:00.000000,1.72282708,2.42813769,3.44962523,8473,11942,16966,5156,8048,12177,1.04833969,1.63639157,2.47591219,0.27856605,0.38642191,0.63572304
34027,0,USNewJerseyMorris,New Jersey,Morris,2021-04-04 08:08:45.705903,2021-02-25 00:00:00.000000,1.74956505,2.47318009,3.52576613,8605,12164,17341,5197,8024,12262,1.05673217,1.63146964,2.49322839,0.28939496,0.40031074,0.66450833
34027,0,USNewJerseyMorris,New Jersey,Morris,2021-04-04 08:08:45.705903,2021-02-26 00:00:00.000000,1.77675474,2.49693698,3.60089206,8738,12281,17710,5249,8057,12380,1.06730423,1.63819031,2.51707381,0.30427164,0.41826127,0.70608253
34027,0,USNewJerseyMorris,New Jersey,Morris,2021-04-04 08:08:45.705903,2021-02-27 00:00:00.000000,1.81599281,2.54340862,3.67463588,8931,12509,18073,5273,8119,12517,1.07219064,1.65092575,2.54493968,0.31528100,0.43331282,0.71661158
34027,0,USNewJerseyMorris,New Jersey,Morris,2021-04-04 08:08:45.705903,2021-02-28 00:00:00.000000,1.85921624,2.59604448,3.74672684,9144,12768,18428,5345,8236,12542,1.08677365,1.67455456,2.55016299,0.32704785,0.44869313,0.72162150
34027,0,USNewJerseyMorris,New Jersey,Morris,2021-04-04 08:08:45.705903,2021-03-01 00:00:00.000000,1.90954654,2.64449005,3.81686296,9392,13006,18773,5457,8396,12539,1.10967049,1.70712663,2.54956532,0.33218844,0.46287077,0.73102731
34027,0,USNewJerseyMorris,New Jersey,Morris,2021-04-04 08:08:45.705903,2021-03-02 00:00:00.000000,1.96661739,2.70004851,3.88494742,9672,13280,19107,5610,8501,12558,1.14076959,1.72858419,2.55335998,0.33764632,0.46707089,0.73777536
34027,0,USNewJerseyMorris,New Jersey,Morris,2021-04-04 08:08:45.705903,2021-03-03 00:00:00.000000,2.02673142,2.76905660,3.95074638,9968,13619,19431,5788,8606,12741,1.17689301,1.74984460,2.59054395,0.34203529,0.47055979,0.74241515
34027,0,USNewJerseyMorris,New Jersey,Morris,2021-04-04 08:08:45.705903,2021-03-04 00:00:00.000000,2.08827609,2.84186382,4.01399859,10271,13977,19742,5982,8786,12944,1.21631117,1.78650493,2.63181491,0.35468213,0.46957281,0.75559138
34027,0,USNewJerseyMorris,New Jersey,Morris,2021-04-04 08:08:45.705903,2021-03-05 00:00:00.000000,2.14990013,2.92440415,4.07420692,10574,14383,20038,6170,8955,13178,1.25455581,1.82080196,2.67930028,0.35534749,0.47227506,0.78907250
34027,0,USNewJerseyMorris,New Jersey,Morris,2021-04-04 08:08:45.705903,2021-03-06 00:00:00.000000,2.20934048,3.00061723,4.13035979,10866,14758,20314,6322,9177,13447,1.28537477,1.86592674,2.73409190,0.35543396,0.47280949,0.80253731
34027,0,USNewJerseyMorris,New Jersey,Morris,2021-04-04 08:08:45.705903,2021-03-07 00:00:00.000000,2.26300857,3.03830686,4.18039604,11130,14943,20561,6475,9386,13751,1.31654987,1.90841387,2.79598093,0.35553478,0.47162508,0.79734619
34027,0,USNewJerseyMorris,New Jersey,Morris,2021-04-04 08:08:45.705903,2021-03-08 00:00:00.000000,2.30870846,3.11280063,4.22151666,11355,15310,20763,6630,9605,14049,1.34817200,1.95285822,2.85651310,0.35314703,0.46970189,0.78560597
34027,0,USNewJerseyMorris,New Jersey,Morris,2021-04-04 08:08:45.705903,2021-03-09 00:00:00.000000,2.34649290,3.15542920,4.28168141,11541,15519,21059,6818,9911,14243,1.38627276,2.01516965,2.89587325,0.34197117,0.46874477,0.77003181
34027,0,USNewJerseyMorris,New Jersey,Morris,2021-04-04 08:08:45.705903,2021-03-10 00:00:00.000000,2.39969698,3.21021086,4.38139327,11802,15789,21549,7029,10149,14439,1.42928922,2.06350260,2.93575193,0.34401757,0.46299967,0.75773256
34027,0,USNewJerseyMorris,New Jersey,Morris,2021-04-04 08:08:45.705903,2021-03-11 00:00:00.000000,2.47930042,3.27607710,4.47858290,12194,16113,22027,7143,10441,14636,1.45247668,2.12294001,2.97578732,0.33138650,0.45975485,0.75016602
34027,0,USNewJerseyMorris,New Jersey,Morris,2021-04-04 08:08:45.705903,2021-03-12 00:00:00.000000,2.52110185,3.34080676,4.57113904,12399,16431,22482,7251,10752,14841,1.47435167,2.18606690,3.01742442,0.32003167,0.44978233,0.74396348
34027,0,USNewJerseyMorris,New Jersey,Morris,2021-04-04 08:08:45.705903,2021-03-13 00:00:00.000000,2.52119774,3.38775188,4.65562362,12400,16662,22898,7353,10975,15176,1.49515912,2.23139448,3.08556012,0.29626883,0.43593507,0.73667526
34027,0,USNewJerseyMorris,New Jersey,Morris,2021-04-04 08:08:45.705903,2021-03-14 00:00:00.000000,2.51902277,3.43951315,4.72782209,12389,16917,23253,7416,11143,15502,1.50779214,2.26555792,3.15198511,0.28044183,0.41611406,0.71745565
34027,0,USNewJerseyMorris,New Jersey,Morris,2021-04-04 08:08:45.705903,2021-03-15 00:00:00.000000,2.51518182,3.47371506,4.78556272,12370,17085,23537,7432,11219,15746,1.51114361,2.28116802,3.20151345,0.27893016,0.40320570,0.68820188
34027,0,USNewJerseyMorris,New Jersey,Morris,2021-04-04 08:08:45.705903,2021-03-16 00:00:00.000000,2.51001828,3.48356369,4.82985841,12345,17133,23755,7443,11308,15981,1.51335786,2.29912176,3.24939536,0.27806714,0.39314841,0.68490187
34027,0,USNewJerseyMorris,New Jersey,Morris,2021-04-04 08:08:45.705903,2021-03-17 00:00:00.000000,2.50385241,3.50488800,4.86319944,12315,17238,23919,7449,11453,16136,1.51464630,2.32873254,3.28073994,0.27624796,0.38736379,0.69634203
34027,0,USNewJerseyMorris,New Jersey,Morris,2021-04-04 08:08:45.705903,2021-03-18 00:00:00.000000,2.49011957,3.51049487,4.88562412,12247,17266,24029,7452,11645,16106,1.51521207,2.36779307,3.27471587,0.27082248,0.38124742,0.71980359
34027,0,USNewJerseyMorris,New Jersey,Morris,2021-04-04 08:08:45.705903,2021-03-19 00:00:00.000000,2.46503102,3.50537396,4.89374095,12124,17241,24069,7452,11805,16165,1.51527276,2.40025457,3.28674445,0.26671086,0.38053465,0.73216848
34027,0,USNewJerseyMorris,New Jersey,Morris,2021-04-04 08:08:45.705903,2021-03-20 00:00:00.000000,2.43938702,3.50419758,4.88407202,11998,17235,24022,7451,11827,16209,1.51507167,2.40465221,3.29572599,0.25793661,0.37862135,0.76555894
34027,0,USNewJerseyMorris,New Jersey,Morris,2021-04-04 08:08:45.705903,2021-03-21 00:00:00.000000,2.42451724,3.49118877,4.85857528,11924,17171,23896,7450,11744,16242,1.51489727,2.38787447,3.30240894,0.25107260,0.37783364,0.72590939
34027,0,USNewJerseyMorris,New Jersey,Morris,2021-04-04 08:08:45.705903,2021-03-22 00:00:00.000000,2.41996509,3.47085807,4.82142139,11902,17071,23713,7451,11582,16266,1.51508927,2.35488889,3.30718410,0.25081665,0.37899388,0.68179945
34027,0,USNewJerseyMorris,New Jersey,Morris,2021-04-04 08:08:45.705903,2021-03-23 00:00:00.000000,2.40584523,3.44116762,4.77527878,11833,16925,23486,7457,11507,16276,1.51618961,2.33957482,3.30933909,0.25113998,0.37514562,0.65199732
34027,0,USNewJerseyMorris,New Jersey,Morris,2021-04-04 08:08:45.705903,2021-03-24 00:00:00.000000,2.39520631,3.40867033,4.72186768,11780,16765,23224,7468,11473,16272,1.51843998,2.33268555,3.30843350,0.24245408,0.37437230,0.63835797
34027,0,USNewJerseyMorris,New Jersey,Morris,2021-04-04 08:08:45.705903,2021-03-25 00:00:00.000000,2.38379366,3.36934985,4.66164453,11724,16571,22928,7486,11360,16175,1.52205449,2.30977487,3.28877749,0.23308514,0.37852491,0.63339327
34027,0,USNewJerseyMorris,New Jersey,Morris,2021-04-04 08:08:45.705903,2021-03-26 00:00:00.000000,2.37242291,3.34382922,4.59515008,11668,16446,22601,7433,11273,16156,1.51134415,2.29207802,3.28483255,0.22780775,0.38224561,0.62885331
34027,0,USNewJerseyMorris,New Jersey,Morris,2021-04-04 08:08:45.705903,2021-03-27 00:00:00.000000,2.36461446,3.32553282,4.52331553,11630,16356,22247,7287,11158,16192,1.48165571,2.26866401,3.29227270,0.22581241,0.38267126,0.62369574
34027,0,USNewJerseyMorris,New Jersey,Morris,2021-04-04 08:08:45.705903,2021-03-28 00:00:00.000000,2.35895893,3.28804452,4.50301210,11602,16172,22147,7153,11065,16167,1.45449734,2.24969494,3.28718775,0.22483980,0.38744748,0.62201846
34027,0,USNewJerseyMorris,New Jersey,Morris,2021-04-04 08:08:45.705903,2021-03-29 00:00:00.000000,2.34276054,3.24427969,4.49272400,11522,15956,22097,7087,10913,16147,1.44094787,2.21880112,3.28299184,0.22350880,0.38999291,0.61811669
34027,0,USNewJerseyMorris,New Jersey,Morris,2021-04-04 08:08:45.705903,2021-03-30 00:00:00.000000,2.33623830,3.22327676,4.47722147,11490,15853,22020,7083,10742,16140,1.44028431,2.18420844,3.28165864,0.22267344,0.39537988,0.61517355
34027,0,USNewJerseyMorris,New Jersey,Morris,2021-04-04 08:08:45.705903,2021-03-31 00:00:00.000000,2.28302378,3.19678242,4.45444624,11228,15723,21908,7083,10621,16077,1.44022763,2.15957520,3.26884242,0.22238339,0.39198170,0.64236988
34027,0,USNewJerseyMorris,New Jersey,Morris,2021-04-04 08:08:45.705903,2021-04-01 00:00:00.000000,2.22277318,3.17560442,4.47523036,10932,15619,22011,7081,10533,16013,1.43972921,2.14169951,3.25586362,0.22224633,0.39336116,0.66855801
34027,0,USNewJerseyMorris,New Jersey,Morris,2021-04-04 08:08:45.705903,2021-04-02 00:00:00.000000,2.15949380,3.16784889,4.50040108,10621,15580,22134,7027,10496,15918,1.42870317,2.13408695,3.23643584,0.22207755,0.39389699,0.69000674
34027,0,USNewJerseyMorris,New Jersey,Morris,2021-04-04 08:08:45.705903,2021-04-03 00:00:00.000000,2.09227280,3.15204856,4.50179662,10290,15503,22141,6839,10509,15776,1.39060386,2.13676712,3.20770127,0.22043812,0.39155494,0.70537455
34027,0,USNewJerseyMorris,New Jersey,Morris,2021-04-04 08:08:45.705903,2021-04-04 00:00:00.000000,2.05993382,3.14665824,4.54632295,10131,15476,22360,6689,10511,15614,1.36014657,2.13718304,3.17463857,0.20607937,0.38802385,0.79533339
34027,0,USNewJerseyMorris,New Jersey,Morris,2021-04-04 08:08:45.705903,2021-04-05 00:00:00.000000,2.05187118,3.14839238,4.56730102,10092,15485,22464,6661,10408,15647,1.35446355,2.11618613,3.18139084,0.18839241,0.38179795,0.95771103
34027,0,USNewJerseyMorris,New Jersey,Morris,2021-04-04 08:08:45.705903,2021-04-06 00:00:00.000000,2.04434017,3.16782569,4.61156289,10054,15580,22681,6634,10351,15616,1.34895411,2.10470155,3.17517101,0.18589723,0.37997127,1.04128313
34027,0,USNewJerseyMorris,New Jersey,Morris,2021-04-04 08:08:45.705903,2021-04-07 00:00:00.000000,2.03342634,3.14754307,4.66469481,10001,15481,22943,6489,10418,15892,1.31934532,2.11815255,3.23125353,0.18634061,0.37888955,1.06547581
34027,0,USNewJerseyMorris,New Jersey,Morris,2021-04-04 08:08:45.705903,2021-04-08 00:00:00.000000,1.96377535,3.10606785,4.73592526,9658,15277,23293,6271,10280,16157,1.27500865,2.09020230,3.28500167,0.18645404,0.37866955,1.07121513
34027,0,USNewJerseyMorris,New Jersey,Morris,2021-04-04 08:08:45.705903,2021-04-09 00:00:00.000000,1.89566948,3.04055065,4.84073816,9323,14954,23808,6057,10176,16408,1.23157279,2.06902550,3.33609112,0.18647689,0.37856564,1.07251481
34027,0,USNewJerseyMorris,New Jersey,Morris,2021-04-04 08:08:45.705903,2021-04-10 00:00:00.000000,1.82925169,2.98481738,4.93663881,8997,14680,24280,5850,10187,16650,1.18941702,2.07131235,3.38526011,0.18648144,0.37851635,1.07280897
34027,0,USNewJerseyMorris,New Jersey,Morris,2021-04-04 08:08:45.705903,2021-04-11 00:00:00.000000,1.79248149,2.96725316,5.01372308,8816,14594,24659,5647,10002,16881,1.14818756,2.03364612,3.43233199,0.18648234,0.37849282,1.07287719
34027,0,USNewJerseyMorris,New Jersey,Morris,2021-04-04 08:08:45.705903,2021-04-12 00:00:00.000000,1.74440436,2.93170062,5.08749822,8579,14419,25022,5449,9878,17102,1.10796884,2.00852811,3.47714516,0.18648252,0.37848150,1.07289400
34027,0,USNewJerseyMorris,New Jersey,Morris,2021-04-04 08:08:45.705903,2021-04-13 00:00:00.000000,1.66944866,2.88960640,5.15760542,8211,14212,25367,5256,9790,17313,1.06881034,1.99062948,3.52021272,0.18648255,0.37847602,1.07289869
34027,0,USNewJerseyMorris,New Jersey,Morris,2021-04-04 08:08:45.705903,2021-04-14 00:00:00.000000,1.59716881,2.87723930,5.22373751,7855,14151,25692,5144,9597,17516,1.04601676,1.95141498,3.56139598,0.18648256,0.37847334,1.07290027
34027,0,USNewJerseyMorris,New Jersey,Morris,2021-04-04 08:08:45.705903,2021-04-15 00:00:00.000000,1.52751917,2.85298330,5.28562389,7513,14032,25997,5062,9457,17705,1.02934945,1.92292773,3.59989619,0.18648256,0.37847202,1.07290094
34027,0,USNewJerseyMorris,New Jersey,Morris,2021-04-04 08:08:45.705903,2021-04-16 00:00:00.000000,1.46351246,2.82691639,5.34302228,7198,13904,26279,4874,9244,17881,0.99110596,1.87947867,3.63558688,0.18648256,0.37847136,1.07290126
