FIPS,HR_UID,nameid,province,region,analysisTime,dates,pointprevalence_025,pointprevalence_50,pointprevalence_975,pointinfections_025,pointinfections_50,pointinfections_975,pointinfectious_025,pointinfectious_50,pointinfectious_975,pointinfectiousprevalence_05,pointinfectiousprevalence_50,pointinfectiousprevalence_95,infectrate_025,infectrate_50,infectrate_975
17139,0,USIllinoisMoultrie,Illinois,Moultrie,2021-04-04 11:46:35.509037,2020-03-09 00:00:00.000000,0.00150483,0.02050488,0.06717695,0,2,9,0,1,6,0.00079365,0.01173522,0.04415635,0.32992871,0.47197609,0.70530174
17139,0,USIllinoisMoultrie,Illinois,Moultrie,2021-04-04 11:46:35.509037,2020-03-10 00:00:00.000000,0.00167765,0.02381749,0.07208912,0,3,10,0,1,5,0.00076705,0.01159961,0.04077914,0.32992841,0.47194660,0.70527502
17139,0,USIllinoisMoultrie,Illinois,Moultrie,2021-04-04 11:46:35.509037,2020-03-11 00:00:00.000000,0.00184651,0.02576812,0.07710585,0,3,11,0,1,5,0.00077879,0.01146255,0.03958078,0.32992745,0.47189472,0.70522055
17139,0,USIllinoisMoultrie,Illinois,Moultrie,2021-04-04 11:46:35.509037,2020-03-12 00:00:00.000000,0.00201512,0.02788806,0.08227357,0,4,11,0,1,5,0.00081460,0.01227260,0.03965975,0.32992429,0.47144259,0.70510934
17139,0,USIllinoisMoultrie,Illinois,Moultrie,2021-04-04 11:46:35.509037,2020-03-13 00:00:00.000000,0.00218622,0.02842209,0.08762120,0,4,12,0,1,6,0.00087052,0.01274756,0.04198766,0.32991357,0.46927272,0.70488228
17139,0,USIllinoisMoultrie,Illinois,Moultrie,2021-04-04 11:46:35.509037,2020-03-14 00:00:00.000000,0.00236190,0.02843091,0.09315995,0,4,13,0,1,6,0.00094746,0.01378618,0.04460362,0.32987649,0.46643976,0.70441893
17139,0,USIllinoisMoultrie,Illinois,Moultrie,2021-04-04 11:46:35.509037,2020-03-15 00:00:00.000000,0.00254387,0.03019732,0.09887245,0,4,14,0,2,6,0.00102869,0.01445068,0.04745804,0.32975152,0.46526007,0.70347545
17139,0,USIllinoisMoultrie,Illinois,Moultrie,2021-04-04 11:46:35.509037,2020-03-16 00:00:00.000000,0.00619794,0.04104240,0.10867273,0,5,15,0,2,7,0.00111380,0.01528496,0.05051319,0.32732542,0.46187214,0.70156400
17139,0,USIllinoisMoultrie,Illinois,Moultrie,2021-04-04 11:46:35.509037,2020-03-17 00:00:00.000000,0.00987052,0.05270697,0.11803866,1,7,17,0,2,7,0.00185953,0.01759788,0.05511229,0.30786337,0.45463667,0.69773276
17139,0,USIllinoisMoultrie,Illinois,Moultrie,2021-04-04 11:46:35.509037,2020-03-18 00:00:00.000000,0.01372759,0.06288034,0.12602333,1,9,18,0,3,8,0.00322601,0.02237964,0.06063467,0.28610117,0.44493603,0.69018907
17139,0,USIllinoisMoultrie,Illinois,Moultrie,2021-04-04 11:46:35.509037,2020-03-19 00:00:00.000000,0.01780246,0.07310385,0.13944980,2,10,20,0,4,9,0.00503805,0.02806936,0.06658291,0.26119344,0.43487580,0.67605792
17139,0,USIllinoisMoultrie,Illinois,Moultrie,2021-04-04 11:46:35.509037,2020-03-20 00:00:00.000000,0.02242372,0.08249178,0.16244687,3,11,23,1,4,10,0.00719046,0.03235179,0.07265392,0.24209832,0.39900545,0.64307347
17139,0,USIllinoisMoultrie,Illinois,Moultrie,2021-04-04 11:46:35.509037,2020-03-21 00:00:00.000000,0.02774762,0.09352956,0.18321005,4,13,26,1,5,11,0.00923613,0.03654224,0.07872199,0.23018781,0.37167936,0.60897950
17139,0,USIllinoisMoultrie,Illinois,Moultrie,2021-04-04 11:46:35.509037,2020-03-22 00:00:00.000000,0.03204863,0.10311372,0.20768617,4,14,30,1,5,12,0.01143517,0.04094375,0.08472217,0.21634444,0.35393691,0.58058448
17139,0,USIllinoisMoultrie,Illinois,Moultrie,2021-04-04 11:46:35.509037,2020-03-23 00:00:00.000000,0.04428830,0.11612676,0.22357700,6,16,32,1,6,13,0.01376200,0.04552635,0.09370718,0.20840532,0.34724992,0.56082717
17139,0,USIllinoisMoultrie,Illinois,Moultrie,2021-04-04 11:46:35.509037,2020-03-24 00:00:00.000000,0.05250249,0.12951501,0.24108517,7,18,34,2,7,15,0.01853895,0.05068031,0.10362703,0.19850176,0.33200364,0.53809283
17139,0,USIllinoisMoultrie,Illinois,Moultrie,2021-04-04 11:46:35.509037,2020-03-25 00:00:00.000000,0.06284260,0.14332963,0.25708776,9,20,37,3,8,15,0.02283908,0.05598676,0.10879727,0.19730987,0.32514125,0.49957001
17139,0,USIllinoisMoultrie,Illinois,Moultrie,2021-04-04 11:46:35.509037,2020-03-26 00:00:00.000000,0.07306907,0.15480665,0.27336264,10,22,39,4,8,17,0.02815870,0.06081770,0.11765298,0.19647349,0.31036853,0.46814392
17139,0,USIllinoisMoultrie,Illinois,Moultrie,2021-04-04 11:46:35.509037,2020-03-27 00:00:00.000000,0.08306759,0.16539715,0.28628533,12,23,41,4,9,18,0.03316224,0.06623466,0.12658490,0.17404518,0.29620594,0.43679020
17139,0,USIllinoisMoultrie,Illinois,Moultrie,2021-04-04 11:46:35.509037,2020-03-28 00:00:00.000000,0.09273010,0.17587857,0.29909480,13,25,43,5,10,19,0.03805038,0.07351928,0.13465103,0.16143041,0.26824756,0.39974996
17139,0,USIllinoisMoultrie,Illinois,Moultrie,2021-04-04 11:46:35.509037,2020-03-29 00:00:00.000000,0.09316223,0.18344595,0.31639259,13,26,45,5,11,20,0.03847296,0.07884634,0.14213626,0.15563863,0.25656661,0.38860097
17139,0,USIllinoisMoultrie,Illinois,Moultrie,2021-04-04 11:46:35.509037,2020-03-30 00:00:00.000000,0.10912334,0.19703905,0.33338215,15,28,48,5,12,21,0.03875500,0.08411857,0.14939115,0.14958231,0.24590209,0.38350565
17139,0,USIllinoisMoultrie,Illinois,Moultrie,2021-04-04 11:46:35.509037,2020-03-31 00:00:00.000000,0.11618993,0.20497429,0.35478961,16,29,51,5,13,22,0.04126056,0.09118740,0.15816336,0.14610687,0.23429069,0.35849853
17139,0,USIllinoisMoultrie,Illinois,Moultrie,2021-04-04 11:46:35.509037,2020-04-01 00:00:00.000000,0.12476708,0.21505049,0.37414864,18,31,54,6,14,24,0.04602465,0.09703803,0.16788192,0.14358551,0.22901025,0.34248758
17139,0,USIllinoisMoultrie,Illinois,Moultrie,2021-04-04 11:46:35.509037,2020-04-02 00:00:00.000000,0.12870085,0.22194898,0.38924090,18,32,56,7,15,26,0.05193180,0.10611316,0.17954466,0.13527428,0.22239410,0.34107907
17139,0,USIllinoisMoultrie,Illinois,Moultrie,2021-04-04 11:46:35.509037,2020-04-03 00:00:00.000000,0.13104055,0.22656284,0.40353442,19,32,58,8,16,28,0.05814636,0.11139833,0.19446970,0.11743650,0.21627360,0.33325147
17139,0,USIllinoisMoultrie,Illinois,Moultrie,2021-04-04 11:46:35.509037,2020-04-04 00:00:00.000000,0.13023119,0.23240139,0.41574844,18,33,60,9,16,30,0.06444113,0.11502037,0.20927252,0.10355186,0.20563100,0.30878889
17139,0,USIllinoisMoultrie,Illinois,Moultrie,2021-04-04 11:46:35.509037,2020-04-05 00:00:00.000000,0.13091858,0.23802133,0.43157884,18,34,62,9,17,31,0.06736489,0.11985276,0.21720611,0.10109919,0.19915434,0.28857304
17139,0,USIllinoisMoultrie,Illinois,Moultrie,2021-04-04 11:46:35.509037,2020-04-06 00:00:00.000000,0.13592586,0.24765871,0.44512044,19,35,64,9,17,32,0.06844970,0.12232088,0.22268266,0.09749850,0.18717854,0.27085304
17139,0,USIllinoisMoultrie,Illinois,Moultrie,2021-04-04 11:46:35.509037,2020-04-07 00:00:00.000000,0.14069033,0.25465553,0.44819984,20,36,64,10,18,33,0.06927256,0.12472677,0.23032701,0.09739367,0.18152650,0.26885570
17139,0,USIllinoisMoultrie,Illinois,Moultrie,2021-04-04 11:46:35.509037,2020-04-08 00:00:00.000000,0.14537936,0.26409544,0.43904024,21,38,63,10,18,34,0.07163611,0.12771297,0.23881079,0.09687951,0.17403556,0.26743699
17139,0,USIllinoisMoultrie,Illinois,Moultrie,2021-04-04 11:46:35.509037,2020-04-09 00:00:00.000000,0.14917888,0.26995803,0.43127569,21,39,62,10,18,35,0.07398679,0.13081001,0.24532938,0.09592884,0.16812290,0.26592260
17139,0,USIllinoisMoultrie,Illinois,Moultrie,2021-04-04 11:46:35.509037,2020-04-10 00:00:00.000000,0.14916547,0.27484788,0.42704580,21,39,61,11,19,36,0.07604470,0.13518001,0.25018503,0.09430618,0.16089432,0.26363490
17139,0,USIllinoisMoultrie,Illinois,Moultrie,2021-04-04 11:46:35.509037,2020-04-11 00:00:00.000000,0.14889761,0.28085365,0.42227283,21,40,61,11,20,36,0.07775781,0.14006420,0.25409760,0.09172794,0.15805783,0.25969755
17139,0,USIllinoisMoultrie,Illinois,Moultrie,2021-04-04 11:46:35.509037,2020-04-12 00:00:00.000000,0.14836661,0.28459343,0.43285006,21,41,62,11,20,37,0.07905033,0.14344957,0.25751810,0.08776074,0.15230834,0.24302024
17139,0,USIllinoisMoultrie,Illinois,Moultrie,2021-04-04 11:46:35.509037,2020-04-13 00:00:00.000000,0.15365564,0.28908991,0.43371998,22,41,62,11,21,37,0.07997730,0.14526130,0.26069582,0.08353336,0.14887782,0.24394404
17139,0,USIllinoisMoultrie,Illinois,Moultrie,2021-04-04 11:46:35.509037,2020-04-14 00:00:00.000000,0.15890163,0.29291366,0.43443779,23,42,62,11,21,38,0.08009074,0.14764127,0.26228985,0.07938089,0.14807877,0.23557157
17139,0,USIllinoisMoultrie,Illinois,Moultrie,2021-04-04 11:46:35.509037,2020-04-15 00:00:00.000000,0.16417297,0.29326035,0.43493885,23,42,63,11,21,38,0.07971412,0.14939775,0.26292332,0.07730396,0.14719775,0.22557835
17139,0,USIllinoisMoultrie,Illinois,Moultrie,2021-04-04 11:46:35.509037,2020-04-16 00:00:00.000000,0.16938923,0.29981703,0.43558793,24,43,63,11,21,38,0.07905425,0.14992936,0.26296410,0.07696675,0.14511724,0.20387817
17139,0,USIllinoisMoultrie,Illinois,Moultrie,2021-04-04 11:46:35.509037,2020-04-17 00:00:00.000000,0.17448518,0.29989728,0.43183523,25,43,62,11,21,38,0.07823834,0.15127036,0.26442026,0.07641718,0.14216950,0.20069478
17139,0,USIllinoisMoultrie,Illinois,Moultrie,2021-04-04 11:46:35.509037,2020-04-18 00:00:00.000000,0.17940677,0.29896833,0.42686945,26,43,61,11,22,38,0.07849020,0.15360166,0.26645681,0.07553004,0.13842907,0.19648072
17139,0,USIllinoisMoultrie,Illinois,Moultrie,2021-04-04 11:46:35.509037,2020-04-19 00:00:00.000000,0.18016416,0.29859659,0.43333008,26,43,62,11,22,38,0.08056892,0.15573645,0.26631807,0.07395957,0.13389043,0.19485192
17139,0,USIllinoisMoultrie,Illinois,Moultrie,2021-04-04 11:46:35.509037,2020-04-20 00:00:00.000000,0.17809980,0.29912309,0.43497287,25,43,63,11,22,38,0.08267076,0.15748694,0.26388803,0.07330549,0.13112973,0.19423806
17139,0,USIllinoisMoultrie,Illinois,Moultrie,2021-04-04 11:46:35.509037,2020-04-21 00:00:00.000000,0.17934197,0.29691032,0.43621541,26,43,63,12,22,38,0.08350339,0.15784781,0.26288216,0.07266879,0.12720871,0.19278259
17139,0,USIllinoisMoultrie,Illinois,Moultrie,2021-04-04 11:46:35.509037,2020-04-22 00:00:00.000000,0.18194266,0.29758591,0.43979688,26,43,63,11,22,38,0.08236805,0.15829919,0.26305293,0.07199572,0.12596389,0.18836245
17139,0,USIllinoisMoultrie,Illinois,Moultrie,2021-04-04 11:46:35.509037,2020-04-23 00:00:00.000000,0.18542778,0.29857010,0.44620641,26,43,64,12,23,38,0.08315618,0.15906262,0.26416517,0.07072712,0.12346833,0.18158378
17139,0,USIllinoisMoultrie,Illinois,Moultrie,2021-04-04 11:46:35.509037,2020-04-24 00:00:00.000000,0.18299386,0.30353045,0.46436082,26,44,67,12,22,38,0.08535352,0.15816926,0.26598923,0.06938838,0.12098346,0.17359382
17139,0,USIllinoisMoultrie,Illinois,Moultrie,2021-04-04 11:46:35.509037,2020-04-25 00:00:00.000000,0.18342167,0.30437811,0.47088122,26,44,68,12,23,38,0.08739122,0.15901453,0.26829062,0.06807733,0.12050388,0.17169264
17139,0,USIllinoisMoultrie,Illinois,Moultrie,2021-04-04 11:46:35.509037,2020-04-26 00:00:00.000000,0.18198867,0.29937045,0.47210133,26,43,68,12,23,39,0.08929426,0.15906083,0.27080248,0.06616100,0.11700602,0.16819211
17139,0,USIllinoisMoultrie,Illinois,Moultrie,2021-04-04 11:46:35.509037,2020-04-27 00:00:00.000000,0.18940199,0.29907345,0.47211860,27,43,68,13,23,39,0.09108373,0.16063314,0.27323208,0.06611763,0.11386064,0.16784368
17139,0,USIllinoisMoultrie,Illinois,Moultrie,2021-04-04 11:46:35.509037,2020-04-28 00:00:00.000000,0.18666910,0.29924791,0.48283849,27,43,70,13,23,39,0.09232841,0.16010521,0.27403117,0.06521100,0.11166472,0.16641474
17139,0,USIllinoisMoultrie,Illinois,Moultrie,2021-04-04 11:46:35.509037,2020-04-29 00:00:00.000000,0.18586642,0.29861975,0.50207509,26,43,72,13,23,40,0.09316356,0.15876221,0.27625730,0.06485632,0.11100944,0.16702434
17139,0,USIllinoisMoultrie,Illinois,Moultrie,2021-04-04 11:46:35.509037,2020-04-30 00:00:00.000000,0.18204720,0.29615616,0.50121225,26,42,72,13,22,40,0.09316502,0.15702650,0.27857677,0.06429310,0.11133448,0.16470110
17139,0,USIllinoisMoultrie,Illinois,Moultrie,2021-04-04 11:46:35.509037,2020-05-01 00:00:00.000000,0.17867826,0.29589774,0.52329285,25,42,75,13,22,40,0.09202474,0.15556417,0.27972880,0.06330940,0.10951346,0.16286277
17139,0,USIllinoisMoultrie,Illinois,Moultrie,2021-04-04 11:46:35.509037,2020-05-02 00:00:00.000000,0.17535139,0.29236745,0.54581626,25,42,79,13,22,41,0.09367581,0.15528987,0.28849931,0.06173344,0.10544929,0.16374414
17139,0,USIllinoisMoultrie,Illinois,Moultrie,2021-04-04 11:46:35.509037,2020-05-03 00:00:00.000000,0.17221713,0.28869937,0.53913681,24,41,78,13,22,43,0.09440057,0.15408696,0.29786858,0.06154259,0.10797952,0.16397341
17139,0,USIllinoisMoultrie,Illinois,Moultrie,2021-04-04 11:46:35.509037,2020-05-04 00:00:00.000000,0.18371918,0.28842683,0.54091068,26,41,78,13,21,44,0.09345994,0.15126890,0.31008735,0.06334402,0.10496161,0.16402949
17139,0,USIllinoisMoultrie,Illinois,Moultrie,2021-04-04 11:46:35.509037,2020-05-05 00:00:00.000000,0.18284839,0.28530658,0.54284557,26,41,78,13,21,45,0.09250701,0.15048368,0.31691114,0.06263857,0.10071985,0.16404308
17139,0,USIllinoisMoultrie,Illinois,Moultrie,2021-04-04 11:46:35.509037,2020-05-06 00:00:00.000000,0.17918357,0.28301194,0.54516479,25,41,79,13,21,46,0.09295193,0.14937802,0.31972390,0.06142286,0.10045187,0.16404164
17139,0,USIllinoisMoultrie,Illinois,Moultrie,2021-04-04 11:46:35.509037,2020-05-07 00:00:00.000000,0.18522628,0.28205832,0.54760087,26,40,79,13,21,46,0.09431265,0.14660317,0.31956819,0.05873477,0.09968264,0.16394223
17139,0,USIllinoisMoultrie,Illinois,Moultrie,2021-04-04 11:46:35.509037,2020-05-08 00:00:00.000000,0.18651534,0.27978839,0.53564330,27,40,77,13,21,46,0.09651734,0.14624946,0.31722350,0.05706362,0.09892550,0.16224150
17139,0,USIllinoisMoultrie,Illinois,Moultrie,2021-04-04 11:46:35.509037,2020-05-09 00:00:00.000000,0.18062084,0.27966091,0.52153491,26,40,75,14,21,45,0.09752181,0.14691197,0.31326184,0.05632244,0.09971756,0.16681730
17139,0,USIllinoisMoultrie,Illinois,Moultrie,2021-04-04 11:46:35.509037,2020-05-10 00:00:00.000000,0.17395609,0.27920396,0.50683064,25,40,73,13,20,44,0.09501752,0.14461778,0.30808656,0.05616749,0.09861902,0.17089035
17139,0,USIllinoisMoultrie,Illinois,Moultrie,2021-04-04 11:46:35.509037,2020-05-11 00:00:00.000000,0.17090855,0.27928612,0.50504194,24,40,73,13,20,43,0.09535187,0.14472751,0.30196409,0.05634271,0.09741645,0.16845630
17139,0,USIllinoisMoultrie,Illinois,Moultrie,2021-04-04 11:46:35.509037,2020-05-12 00:00:00.000000,0.16864337,0.28285882,0.51604323,24,41,74,13,20,43,0.09649959,0.14351436,0.29734339,0.05637277,0.09703953,0.16652077
17139,0,USIllinoisMoultrie,Illinois,Moultrie,2021-04-04 11:46:35.509037,2020-05-13 00:00:00.000000,0.17087805,0.28622103,0.52766956,24,41,76,14,20,42,0.09666197,0.14057579,0.29442352,0.05737427,0.09746184,0.16735422
17139,0,USIllinoisMoultrie,Illinois,Moultrie,2021-04-04 11:46:35.509037,2020-05-14 00:00:00.000000,0.16433091,0.28628670,0.52591925,23,41,76,13,20,43,0.09647267,0.14082269,0.30103282,0.05817024,0.09789028,0.16889920
17139,0,USIllinoisMoultrie,Illinois,Moultrie,2021-04-04 11:46:35.509037,2020-05-15 00:00:00.000000,0.16209198,0.28746711,0.52328603,23,41,75,13,20,44,0.09433915,0.14263619,0.30775338,0.05835197,0.09885645,0.17210714
17139,0,USIllinoisMoultrie,Illinois,Moultrie,2021-04-04 11:46:35.509037,2020-05-16 00:00:00.000000,0.15680957,0.28672299,0.51990588,22,41,75,13,21,45,0.09070618,0.14872647,0.31454839,0.05794987,0.09937379,0.17228345
17139,0,USIllinoisMoultrie,Illinois,Moultrie,2021-04-04 11:46:35.509037,2020-05-17 00:00:00.000000,0.15163277,0.28717626,0.51589525,21,41,74,12,21,46,0.08601667,0.15142634,0.31999403,0.05887094,0.10327666,0.17054398
17139,0,USIllinoisMoultrie,Illinois,Moultrie,2021-04-04 11:46:35.509037,2020-05-18 00:00:00.000000,0.14951048,0.28469079,0.50613515,21,41,73,11,22,46,0.08182070,0.15204661,0.31825138,0.05925100,0.10472728,0.17612791
17139,0,USIllinoisMoultrie,Illinois,Moultrie,2021-04-04 11:46:35.509037,2020-05-19 00:00:00.000000,0.14754511,0.28155147,0.49644308,21,40,71,11,22,45,0.08127897,0.15245297,0.31520076,0.05738275,0.10435534,0.17599028
17139,0,USIllinoisMoultrie,Illinois,Moultrie,2021-04-04 11:46:35.509037,2020-05-20 00:00:00.000000,0.14578063,0.27685892,0.49038955,21,40,71,11,21,45,0.08080818,0.15028797,0.31109156,0.05575771,0.10398635,0.17555508
17139,0,USIllinoisMoultrie,Illinois,Moultrie,2021-04-04 11:46:35.509037,2020-05-21 00:00:00.000000,0.14415410,0.27081653,0.48778159,20,39,70,11,21,44,0.08036093,0.14762383,0.30637979,0.05475552,0.10161640,0.17504020
17139,0,USIllinoisMoultrie,Illinois,Moultrie,2021-04-04 11:46:35.509037,2020-05-22 00:00:00.000000,0.14266079,0.26946770,0.48521355,20,39,70,11,21,43,0.07946387,0.14552858,0.30132799,0.05557797,0.10113891,0.18913576
17139,0,USIllinoisMoultrie,Illinois,Moultrie,2021-04-04 11:46:35.509037,2020-05-23 00:00:00.000000,0.14130853,0.26652887,0.48270389,20,38,69,11,20,42,0.07763137,0.14428319,0.29610338,0.05851672,0.10123959,0.19973874
17139,0,USIllinoisMoultrie,Illinois,Moultrie,2021-04-04 11:46:35.509037,2020-05-24 00:00:00.000000,0.14009159,0.26522361,0.48026152,20,38,69,10,21,42,0.07488624,0.14570407,0.29083322,0.06102280,0.10137547,0.20546749
17139,0,USIllinoisMoultrie,Illinois,Moultrie,2021-04-04 11:46:35.509037,2020-05-25 00:00:00.000000,0.14252677,0.26851817,0.47220245,20,38,68,10,21,41,0.07327713,0.14622516,0.28562029,0.06055001,0.10432526,0.20399113
17139,0,USIllinoisMoultrie,Illinois,Moultrie,2021-04-04 11:46:35.509037,2020-05-26 00:00:00.000000,0.14748207,0.26828909,0.46421108,21,38,67,10,20,41,0.07294690,0.14461331,0.28276180,0.06045559,0.10387395,0.20187898
17139,0,USIllinoisMoultrie,Illinois,Moultrie,2021-04-04 11:46:35.509037,2020-05-27 00:00:00.000000,0.15044680,0.26844902,0.46285176,21,38,67,10,20,41,0.07338185,0.14340555,0.28373867,0.06089119,0.10511789,0.20082165
17139,0,USIllinoisMoultrie,Illinois,Moultrie,2021-04-04 11:46:35.509037,2020-05-28 00:00:00.000000,0.14911104,0.27057796,0.46820908,21,39,67,10,21,41,0.07259398,0.14490578,0.28826396,0.06188880,0.10519753,0.19816589
17139,0,USIllinoisMoultrie,Illinois,Moultrie,2021-04-04 11:46:35.509037,2020-05-29 00:00:00.000000,0.14805222,0.27245484,0.47391943,21,39,68,10,20,42,0.07032583,0.14439248,0.29319391,0.06375176,0.10721634,0.19580323
17139,0,USIllinoisMoultrie,Illinois,Moultrie,2021-04-04 11:46:35.509037,2020-05-30 00:00:00.000000,0.14735049,0.27433733,0.47981978,21,39,69,9,20,43,0.06803701,0.14476529,0.29834708,0.06433994,0.10752807,0.20107162
17139,0,USIllinoisMoultrie,Illinois,Moultrie,2021-04-04 11:46:35.509037,2020-05-31 00:00:00.000000,0.14791191,0.27608841,0.48584909,21,40,70,9,20,44,0.06579345,0.14457323,0.30360144,0.06527011,0.11274216,0.20172028
17139,0,USIllinoisMoultrie,Illinois,Moultrie,2021-04-04 11:46:35.509037,2020-06-01 00:00:00.000000,0.14671973,0.27981850,0.47746725,21,40,69,9,20,44,0.06363996,0.14328153,0.30887375,0.06759104,0.11622399,0.20236553
17139,0,USIllinoisMoultrie,Illinois,Moultrie,2021-04-04 11:46:35.509037,2020-06-02 00:00:00.000000,0.14572567,0.28263588,0.47775145,21,40,69,9,20,45,0.06331324,0.14407880,0.31121033,0.07174282,0.11672120,0.20284175
17139,0,USIllinoisMoultrie,Illinois,Moultrie,2021-04-04 11:46:35.509037,2020-06-03 00:00:00.000000,0.14473630,0.28399205,0.48980254,20,41,71,9,21,45,0.06427806,0.14500318,0.31161436,0.07183879,0.11893289,0.20312122
17139,0,USIllinoisMoultrie,Illinois,Moultrie,2021-04-04 11:46:35.509037,2020-06-04 00:00:00.000000,0.14377467,0.28395183,0.50203323,20,41,72,9,21,45,0.06615218,0.14521280,0.31073961,0.07185313,0.12079012,0.20326152
17139,0,USIllinoisMoultrie,Illinois,Moultrie,2021-04-04 11:46:35.509037,2020-06-05 00:00:00.000000,0.14288687,0.28519711,0.51438671,20,41,74,9,20,44,0.06866186,0.14409170,0.30899433,0.07219485,0.12313132,0.20336360
17139,0,USIllinoisMoultrie,Illinois,Moultrie,2021-04-04 11:46:35.509037,2020-06-06 00:00:00.000000,0.14767100,0.28573251,0.51223432,21,41,74,10,20,44,0.07160318,0.14433918,0.30660849,0.07350602,0.12341706,0.20355358
17139,0,USIllinoisMoultrie,Illinois,Moultrie,2021-04-04 11:46:35.509037,2020-06-07 00:00:00.000000,0.15427670,0.28488399,0.50770046,22,41,73,10,20,45,0.07393626,0.14354285,0.31178181,0.07177858,0.12421480,0.19931266
17139,0,USIllinoisMoultrie,Illinois,Moultrie,2021-04-04 11:46:35.509037,2020-06-08 00:00:00.000000,0.16266624,0.28489788,0.50875739,23,41,73,10,21,46,0.07384002,0.14518521,0.31897341,0.06647980,0.12577198,0.20436677
17139,0,USIllinoisMoultrie,Illinois,Moultrie,2021-04-04 11:46:35.509037,2020-06-09 00:00:00.000000,0.15895519,0.28794460,0.50925210,23,41,73,10,21,47,0.07450429,0.14839213,0.32591807,0.06360429,0.12734810,0.21013480
17139,0,USIllinoisMoultrie,Illinois,Moultrie,2021-04-04 11:46:35.509037,2020-06-10 00:00:00.000000,0.15506973,0.29364525,0.50955194,22,42,73,10,21,47,0.07572812,0.14934603,0.32527514,0.06342365,0.12967599,0.21630975
17139,0,USIllinoisMoultrie,Illinois,Moultrie,2021-04-04 11:46:35.509037,2020-06-11 00:00:00.000000,0.15756774,0.29545711,0.50979442,22,42,73,11,21,47,0.07735810,0.15140769,0.32488750,0.06337383,0.13187104,0.24106027
17139,0,USIllinoisMoultrie,Illinois,Moultrie,2021-04-04 11:46:35.509037,2020-06-12 00:00:00.000000,0.16129699,0.29900178,0.51002921,23,43,73,11,21,47,0.07918116,0.15123393,0.32466346,0.06512866,0.13409050,0.24383645
17139,0,USIllinoisMoultrie,Illinois,Moultrie,2021-04-04 11:46:35.509037,2020-06-13 00:00:00.000000,0.16526921,0.30315605,0.53632047,23,43,77,11,22,47,0.08110630,0.15265743,0.32455029,0.07408024,0.13830383,0.24173946
17139,0,USIllinoisMoultrie,Illinois,Moultrie,2021-04-04 11:46:35.509037,2020-06-14 00:00:00.000000,0.16651737,0.30768603,0.57820318,24,44,83,12,22,47,0.08308088,0.15589337,0.32636090,0.07904286,0.14294544,0.23886720
17139,0,USIllinoisMoultrie,Illinois,Moultrie,2021-04-04 11:46:35.509037,2020-06-15 00:00:00.000000,0.17255431,0.31125267,0.57394463,25,45,83,12,22,49,0.08507835,0.15671582,0.34421194,0.07116716,0.14395710,0.23593599
17139,0,USIllinoisMoultrie,Illinois,Moultrie,2021-04-04 11:46:35.509037,2020-06-16 00:00:00.000000,0.17591877,0.31987584,0.56839650,25,46,82,12,23,51,0.08770024,0.16097542,0.35832658,0.06599041,0.14624978,0.23660881
17139,0,USIllinoisMoultrie,Illinois,Moultrie,2021-04-04 11:46:35.509037,2020-06-17 00:00:00.000000,0.18709750,0.32543243,0.56091802,27,47,81,13,23,52,0.09076561,0.16428002,0.36405240,0.06634309,0.14941834,0.23931339
17139,0,USIllinoisMoultrie,Illinois,Moultrie,2021-04-04 11:46:35.509037,2020-06-18 00:00:00.000000,0.20025078,0.32862916,0.58760577,29,47,85,13,24,52,0.09502304,0.16613868,0.36475305,0.06651856,0.15621772,0.24314045
17139,0,USIllinoisMoultrie,Illinois,Moultrie,2021-04-04 11:46:35.509037,2020-06-19 00:00:00.000000,0.19494646,0.34080323,0.60867137,28,49,88,14,24,52,0.10018705,0.17056651,0.36241054,0.06655092,0.16019659,0.24942339
17139,0,USIllinoisMoultrie,Illinois,Moultrie,2021-04-04 11:46:35.509037,2020-06-20 00:00:00.000000,0.19037970,0.34861206,0.66960326,27,50,97,15,25,52,0.10462722,0.17348637,0.36451987,0.06652424,0.16366083,0.27257981
17139,0,USIllinoisMoultrie,Illinois,Moultrie,2021-04-04 11:46:35.509037,2020-06-21 00:00:00.000000,0.19453931,0.35659947,0.69337517,28,51,100,15,25,52,0.10501893,0.17538687,0.36219710,0.06737872,0.17010136,0.28054668
17139,0,USIllinoisMoultrie,Illinois,Moultrie,2021-04-04 11:46:35.509037,2020-06-22 00:00:00.000000,0.20183323,0.36361517,0.69618523,29,52,100,14,26,52,0.10253708,0.18089115,0.36114019,0.07122630,0.17640157,0.28470794
17139,0,USIllinoisMoultrie,Illinois,Moultrie,2021-04-04 11:46:35.509037,2020-06-23 00:00:00.000000,0.21170297,0.36800247,0.69884116,30,53,101,14,27,53,0.10161420,0.18648033,0.36658476,0.07604457,0.17976014,0.28404863
17139,0,USIllinoisMoultrie,Illinois,Moultrie,2021-04-04 11:46:35.509037,2020-06-24 00:00:00.000000,0.21162982,0.37984257,0.71566851,30,55,103,15,27,54,0.10428456,0.19208105,0.37698923,0.08110307,0.18318171,0.29532405
17139,0,USIllinoisMoultrie,Illinois,Moultrie,2021-04-04 11:46:35.509037,2020-06-25 00:00:00.000000,0.21730284,0.38396152,0.73360694,31,55,106,15,28,56,0.10906599,0.19651844,0.39118404,0.08639999,0.18547392,0.29857980
17139,0,USIllinoisMoultrie,Illinois,Moultrie,2021-04-04 11:46:35.509037,2020-06-26 00:00:00.000000,0.22094262,0.39564215,0.75195730,32,57,109,16,29,58,0.11068660,0.20236843,0.40038587,0.09351473,0.18979609,0.30265053
17139,0,USIllinoisMoultrie,Illinois,Moultrie,2021-04-04 11:46:35.509037,2020-06-27 00:00:00.000000,0.21489625,0.40601033,0.77079059,31,58,111,15,30,58,0.10582912,0.20704329,0.40521689,0.10489646,0.19967648,0.31191385
17139,0,USIllinoisMoultrie,Illinois,Moultrie,2021-04-04 11:46:35.509037,2020-06-28 00:00:00.000000,0.21536698,0.41435752,0.79005744,31,60,114,15,30,59,0.10775120,0.21275097,0.40971755,0.10731430,0.20753808,0.33053652
17139,0,USIllinoisMoultrie,Illinois,Moultrie,2021-04-04 11:46:35.509037,2020-06-29 00:00:00.000000,0.23676268,0.43534612,0.82234875,34,63,119,16,31,60,0.11043336,0.21577670,0.41418980,0.10752950,0.21509809,0.33516058
17139,0,USIllinoisMoultrie,Illinois,Moultrie,2021-04-04 11:46:35.509037,2020-06-30 00:00:00.000000,0.25621294,0.45886209,0.88181785,37,66,127,16,32,60,0.11352765,0.22275581,0.42062594,0.10783644,0.22867975,0.33672530
17139,0,USIllinoisMoultrie,Illinois,Moultrie,2021-04-04 11:46:35.509037,2020-07-01 00:00:00.000000,0.26562721,0.48515645,0.94182186,38,70,136,17,33,62,0.11920258,0.23088466,0.42908810,0.10839447,0.23681198,0.33714665
17139,0,USIllinoisMoultrie,Illinois,Moultrie,2021-04-04 11:46:35.509037,2020-07-02 00:00:00.000000,0.28257387,0.50980497,1.00232146,40,73,145,17,34,64,0.12389761,0.23841216,0.44377419,0.10878738,0.23792384,0.34034965
17139,0,USIllinoisMoultrie,Illinois,Moultrie,2021-04-04 11:46:35.509037,2020-07-03 00:00:00.000000,0.30129216,0.53018379,1.04323467,43,76,151,19,35,67,0.13527894,0.24528841,0.46741774,0.11124187,0.23824051,0.34998165
17139,0,USIllinoisMoultrie,Illinois,Moultrie,2021-04-04 11:46:35.509037,2020-07-04 00:00:00.000000,0.30709515,0.55543078,1.07753308,44,80,156,20,37,71,0.14471463,0.25896373,0.49260059,0.11585590,0.24821194,0.36765739
17139,0,USIllinoisMoultrie,Illinois,Moultrie,2021-04-04 11:46:35.509037,2020-07-05 00:00:00.000000,0.31350526,0.57852183,1.11259306,45,83,161,22,39,73,0.15507589,0.26974790,0.50951087,0.11803412,0.26207849,0.38796900
17139,0,USIllinoisMoultrie,Illinois,Moultrie,2021-04-04 11:46:35.509037,2020-07-06 00:00:00.000000,0.35970724,0.61519836,1.15127754,52,89,166,24,40,76,0.16596962,0.28248401,0.52732992,0.11910290,0.27626781,0.40431480
17139,0,USIllinoisMoultrie,Illinois,Moultrie,2021-04-04 11:46:35.509037,2020-07-07 00:00:00.000000,0.36942005,0.65215715,1.19282989,53,94,172,25,43,78,0.17418651,0.29828007,0.54221604,0.11989303,0.29124072,0.40965358
17139,0,USIllinoisMoultrie,Illinois,Moultrie,2021-04-04 11:46:35.509037,2020-07-08 00:00:00.000000,0.37889022,0.67752936,1.23950685,54,98,179,26,45,80,0.18257902,0.31160198,0.55505616,0.12123228,0.29856415,0.41680807
17139,0,USIllinoisMoultrie,Illinois,Moultrie,2021-04-04 11:46:35.509037,2020-07-09 00:00:00.000000,0.40471737,0.70931581,1.27681410,58,102,185,27,47,82,0.18918075,0.32811445,0.56646668,0.12433813,0.30283456,0.42256788
17139,0,USIllinoisMoultrie,Illinois,Moultrie,2021-04-04 11:46:35.509037,2020-07-10 00:00:00.000000,0.42589707,0.74230233,1.29628166,61,107,187,28,50,83,0.19523713,0.34480432,0.57693669,0.13117275,0.30675109,0.42806836
17139,0,USIllinoisMoultrie,Illinois,Moultrie,2021-04-04 11:46:35.509037,2020-07-11 00:00:00.000000,0.42239634,0.78218931,1.31284078,61,113,190,30,52,85,0.20891108,0.35898084,0.58750524,0.14309113,0.31676851,0.42734050
17139,0,USIllinoisMoultrie,Illinois,Moultrie,2021-04-04 11:46:35.509037,2020-07-12 00:00:00.000000,0.42013465,0.82258369,1.32831445,60,119,192,33,54,87,0.22998884,0.37413730,0.60653671,0.15722793,0.31628744,0.45658221
17139,0,USIllinoisMoultrie,Illinois,Moultrie,2021-04-04 11:46:35.509037,2020-07-13 00:00:00.000000,0.47942854,0.86406445,1.38371933,69,125,200,34,56,92,0.24087912,0.39088262,0.64075125,0.16843419,0.32052633,0.45995184
17139,0,USIllinoisMoultrie,Illinois,Moultrie,2021-04-04 11:46:35.509037,2020-07-14 00:00:00.000000,0.53989929,0.90574884,1.47077329,78,131,213,36,60,98,0.25017037,0.41526242,0.67672936,0.17652915,0.32680053,0.46787523
17139,0,USIllinoisMoultrie,Illinois,Moultrie,2021-04-04 11:46:35.509037,2020-07-15 00:00:00.000000,0.57005570,0.93838845,1.52585375,82,136,221,37,64,101,0.26055589,0.44465961,0.70326911,0.18648067,0.32549731,0.47860921
17139,0,USIllinoisMoultrie,Illinois,Moultrie,2021-04-04 11:46:35.509037,2020-07-16 00:00:00.000000,0.59324265,1.00915675,1.57282304,86,146,228,38,68,104,0.26850470,0.47521244,0.71798508,0.19010495,0.33472304,0.48022838
17139,0,USIllinoisMoultrie,Illinois,Moultrie,2021-04-04 11:46:35.509037,2020-07-17 00:00:00.000000,0.61971515,1.06676360,1.62312804,89,154,235,39,72,107,0.27204404,0.49904623,0.74014375,0.21214825,0.34177679,0.48223253
17139,0,USIllinoisMoultrie,Illinois,Moultrie,2021-04-04 11:46:35.509037,2020-07-18 00:00:00.000000,0.65108946,1.11349156,1.67589318,94,161,243,40,76,110,0.27657916,0.52678183,0.76155234,0.22852459,0.35413559,0.48067898
17139,0,USIllinoisMoultrie,Illinois,Moultrie,2021-04-04 11:46:35.509037,2020-07-19 00:00:00.000000,0.68101145,1.17877012,1.73149768,98,170,251,42,81,114,0.29299221,0.56069409,0.79046844,0.23725814,0.36931612,0.49129793
17139,0,USIllinoisMoultrie,Illinois,Moultrie,2021-04-04 11:46:35.509037,2020-07-20 00:00:00.000000,0.72729128,1.24545772,1.82371554,105,180,264,44,85,122,0.30985334,0.58618307,0.84786425,0.23826937,0.37320943,0.50821574
17139,0,USIllinoisMoultrie,Illinois,Moultrie,2021-04-04 11:46:35.509037,2020-07-21 00:00:00.000000,0.78935568,1.32088412,1.96206745,114,191,284,47,88,130,0.32866951,0.61085732,0.89874363,0.23447211,0.37342885,0.51514973
17139,0,USIllinoisMoultrie,Illinois,Moultrie,2021-04-04 11:46:35.509037,2020-07-22 00:00:00.000000,0.85442662,1.38462307,2.10260852,123,200,304,50,94,137,0.35096735,0.65346319,0.94577489,0.23412030,0.37366480,0.54332032
17139,0,USIllinoisMoultrie,Illinois,Moultrie,2021-04-04 11:46:35.509037,2020-07-23 00:00:00.000000,0.92408725,1.45506531,2.19248898,134,210,317,54,100,143,0.37390490,0.69283288,0.99066856,0.23469283,0.37006272,0.54641207
17139,0,USIllinoisMoultrie,Illinois,Moultrie,2021-04-04 11:46:35.509037,2020-07-24 00:00:00.000000,1.00109480,1.53959659,2.24360577,145,223,325,57,104,150,0.39818523,0.72130487,1.03472214,0.23606894,0.37087256,0.55759221
17139,0,USIllinoisMoultrie,Illinois,Moultrie,2021-04-04 11:46:35.509037,2020-07-25 00:00:00.000000,1.01924050,1.59788029,2.29226724,147,231,332,61,109,157,0.42401008,0.75487639,1.08730222,0.23921077,0.36606032,0.56631014
17139,0,USIllinoisMoultrie,Illinois,Moultrie,2021-04-04 11:46:35.509037,2020-07-26 00:00:00.000000,1.06221967,1.66255150,2.34008603,154,241,339,65,114,166,0.45158398,0.78655759,1.15159628,0.24531757,0.37384062,0.56704214
17139,0,USIllinoisMoultrie,Illinois,Moultrie,2021-04-04 11:46:35.509037,2020-07-27 00:00:00.000000,1.15311333,1.73193509,2.41148660,167,251,349,69,118,176,0.48089555,0.81668067,1.21529751,0.25439645,0.37543218,0.56640123
17139,0,USIllinoisMoultrie,Illinois,Moultrie,2021-04-04 11:46:35.509037,2020-07-28 00:00:00.000000,1.24869006,1.80139267,2.49514646,181,261,361,74,123,184,0.51044482,0.85256444,1.27183477,0.25473374,0.37638078,0.56525731
17139,0,USIllinoisMoultrie,Illinois,Moultrie,2021-04-04 11:46:35.509037,2020-07-29 00:00:00.000000,1.34949380,1.90508614,2.64187881,195,276,383,78,130,191,0.54042836,0.90229621,1.31898303,0.25453092,0.37262582,0.55494417
17139,0,USIllinoisMoultrie,Illinois,Moultrie,2021-04-04 11:46:35.509037,2020-07-30 00:00:00.000000,1.42887242,2.00772806,2.76757458,207,291,401,82,137,199,0.57081540,0.95004385,1.37396943,0.25542367,0.36810443,0.52042692
17139,0,USIllinoisMoultrie,Illinois,Moultrie,2021-04-04 11:46:35.509037,2020-07-31 00:00:00.000000,1.50157381,2.10094961,2.88834973,217,304,418,87,145,207,0.60141535,1.00498821,1.42823764,0.24716523,0.35918392,0.53959018
17139,0,USIllinoisMoultrie,Illinois,Moultrie,2021-04-04 11:46:35.509037,2020-08-01 00:00:00.000000,1.57715504,2.17929271,3.01237862,228,316,436,91,153,217,0.63191105,1.06193375,1.49791968,0.22767291,0.35384647,0.56153005
17139,0,USIllinoisMoultrie,Illinois,Moultrie,2021-04-04 11:46:35.509037,2020-08-02 00:00:00.000000,1.65351281,2.25625443,3.07385919,239,327,445,95,160,227,0.66188791,1.10699375,1.56927346,0.21865845,0.34235765,0.53434724
17139,0,USIllinoisMoultrie,Illinois,Moultrie,2021-04-04 11:46:35.509037,2020-08-03 00:00:00.000000,1.72383889,2.35622672,3.12349614,249,341,452,100,167,237,0.69091315,1.15222820,1.63631237,0.21407941,0.32967576,0.51984309
17139,0,USIllinoisMoultrie,Illinois,Moultrie,2021-04-04 11:46:35.509037,2020-08-04 00:00:00.000000,1.73641513,2.44743948,3.18724713,251,354,462,104,174,246,0.72323153,1.19998760,1.69887846,0.20989051,0.32530398,0.52985831
17139,0,USIllinoisMoultrie,Illinois,Moultrie,2021-04-04 11:46:35.509037,2020-08-05 00:00:00.000000,1.74856136,2.53183414,3.28890274,253,367,476,109,180,255,0.75700721,1.24290234,1.76236905,0.20503819,0.31901023,0.52941416
17139,0,USIllinoisMoultrie,Illinois,Moultrie,2021-04-04 11:46:35.509037,2020-08-06 00:00:00.000000,1.76137599,2.59909739,3.41537253,255,376,495,114,184,264,0.79109127,1.27188335,1.82668863,0.19766946,0.30848087,0.47556339
17139,0,USIllinoisMoultrie,Illinois,Moultrie,2021-04-04 11:46:35.509037,2020-08-07 00:00:00.000000,1.80090238,2.71389981,3.47853359,261,393,504,119,189,272,0.82462375,1.30980875,1.87950511,0.19033570,0.30038476,0.44510199
17139,0,USIllinoisMoultrie,Illinois,Moultrie,2021-04-04 11:46:35.509037,2020-08-08 00:00:00.000000,1.88208801,2.77911179,3.56347389,272,402,516,124,197,279,0.85662612,1.36244464,1.92675186,0.18486584,0.28769883,0.42724706
17139,0,USIllinoisMoultrie,Illinois,Moultrie,2021-04-04 11:46:35.509037,2020-08-09 00:00:00.000000,1.95363920,2.82207449,3.63293535,283,409,526,128,207,285,0.88576849,1.42861952,1.96864932,0.18137892,0.27141368,0.41462665
17139,0,USIllinoisMoultrie,Illinois,Moultrie,2021-04-04 11:46:35.509037,2020-08-10 00:00:00.000000,1.97853656,2.86752704,3.70486362,286,415,537,132,211,290,0.91118547,1.46071399,2.00423916,0.17870954,0.26669256,0.40044842
17139,0,USIllinoisMoultrie,Illinois,Moultrie,2021-04-04 11:46:35.509037,2020-08-11 00:00:00.000000,1.98050249,2.90623535,3.77433652,287,421,547,134,216,299,0.93063312,1.49212315,2.06555062,0.16967961,0.25974776,0.38663515
17139,0,USIllinoisMoultrie,Illinois,Moultrie,2021-04-04 11:46:35.509037,2020-08-12 00:00:00.000000,1.95196594,2.92912388,3.83608647,283,424,556,136,219,303,0.94274057,1.51628263,2.09375295,0.15995674,0.25072812,0.37564089
17139,0,USIllinoisMoultrie,Illinois,Moultrie,2021-04-04 11:46:35.509037,2020-08-13 00:00:00.000000,1.91747822,2.92325651,3.83055434,278,423,555,137,223,306,0.94899346,1.54298094,2.11504372,0.15930755,0.24503666,0.37175497
17139,0,USIllinoisMoultrie,Illinois,Moultrie,2021-04-04 11:46:35.509037,2020-08-14 00:00:00.000000,1.88069201,2.96205060,3.82053633,272,429,554,137,224,308,0.95034964,1.54990473,2.12884476,0.15495162,0.23653523,0.34690467
17139,0,USIllinoisMoultrie,Illinois,Moultrie,2021-04-04 11:46:35.509037,2020-08-15 00:00:00.000000,1.86302346,2.95109235,3.80558531,270,427,551,137,226,310,0.94741816,1.55915575,2.14267790,0.13661238,0.22219849,0.33057132
17139,0,USIllinoisMoultrie,Illinois,Moultrie,2021-04-04 11:46:35.509037,2020-08-16 00:00:00.000000,1.87624615,2.91318038,3.80143608,272,422,551,136,228,313,0.94058771,1.57442222,2.16065888,0.13621052,0.21290474,0.31201944
17139,0,USIllinoisMoultrie,Illinois,Moultrie,2021-04-04 11:46:35.509037,2020-08-17 00:00:00.000000,1.89278222,2.89525730,3.78529192,274,419,548,134,230,314,0.93031627,1.58669964,2.16590246,0.13623502,0.20196422,0.30394116
17139,0,USIllinoisMoultrie,Illinois,Moultrie,2021-04-04 11:46:35.509037,2020-08-18 00:00:00.000000,1.90920855,2.86692404,3.75662537,276,415,544,133,229,313,0.91893334,1.58182539,2.15869496,0.13654571,0.19830429,0.30089179
17139,0,USIllinoisMoultrie,Illinois,Moultrie,2021-04-04 11:46:35.509037,2020-08-19 00:00:00.000000,1.92539686,2.84418269,3.77381256,279,412,547,131,227,310,0.90585181,1.56736201,2.14340824,0.12762000,0.19546486,0.29914498
17139,0,USIllinoisMoultrie,Illinois,Moultrie,2021-04-04 11:46:35.509037,2020-08-20 00:00:00.000000,1.94008449,2.81967438,3.79268177,281,408,549,129,224,310,0.89100064,1.54943705,2.14371637,0.12537401,0.19341577,0.29400201
17139,0,USIllinoisMoultrie,Illinois,Moultrie,2021-04-04 11:46:35.509037,2020-08-21 00:00:00.000000,1.88223382,2.78675529,3.77980287,272,404,548,126,222,310,0.87423116,1.53228798,2.14274648,0.12694387,0.18603823,0.28089872
17139,0,USIllinoisMoultrie,Illinois,Moultrie,2021-04-04 11:46:35.509037,2020-08-22 00:00:00.000000,1.82180510,2.73535250,3.75625714,264,396,544,123,219,307,0.85495824,1.51194406,2.11949835,0.13025483,0.18529917,0.26852799
17139,0,USIllinoisMoultrie,Illinois,Moultrie,2021-04-04 11:46:35.509037,2020-08-23 00:00:00.000000,1.76945542,2.71741053,3.72164358,256,394,539,120,216,305,0.83281972,1.49423559,2.10968887,0.12314791,0.17840760,0.26416826
17139,0,USIllinoisMoultrie,Illinois,Moultrie,2021-04-04 11:46:35.509037,2020-08-24 00:00:00.000000,1.70158700,2.66492964,3.64990206,246,386,529,117,213,304,0.80846617,1.47461518,2.09930458,0.12482637,0.17789779,0.25893738
17139,0,USIllinoisMoultrie,Illinois,Moultrie,2021-04-04 11:46:35.509037,2020-08-25 00:00:00.000000,1.63871072,2.59152064,3.57563058,237,375,518,113,210,303,0.78519349,1.45052610,2.09203104,0.12364049,0.17839466,0.25293586
17139,0,USIllinoisMoultrie,Illinois,Moultrie,2021-04-04 11:46:35.509037,2020-08-26 00:00:00.000000,1.57867263,2.52563562,3.50092188,228,366,507,111,206,302,0.76553151,1.42500099,2.08306194,0.12267810,0.17938195,0.25173054
17139,0,USIllinoisMoultrie,Illinois,Moultrie,2021-04-04 11:46:35.509037,2020-08-27 00:00:00.000000,1.52115477,2.48648657,3.42787731,220,360,497,109,203,298,0.75488666,1.40400176,2.05714918,0.12195518,0.17609022,0.25146706
17139,0,USIllinoisMoultrie,Illinois,Moultrie,2021-04-04 11:46:35.509037,2020-08-28 00:00:00.000000,1.46613763,2.44814037,3.39583165,212,355,492,107,199,295,0.74458018,1.37894621,2.03874674,0.12142850,0.17734723,0.25124697
17139,0,USIllinoisMoultrie,Illinois,Moultrie,2021-04-04 11:46:35.509037,2020-08-29 00:00:00.000000,1.41796076,2.40208957,3.36541170,205,348,488,106,196,294,0.73447546,1.35427197,2.03205918,0.12041833,0.17675436,0.25105779
17139,0,USIllinoisMoultrie,Illinois,Moultrie,2021-04-04 11:46:35.509037,2020-08-30 00:00:00.000000,1.39239046,2.34243476,3.32808939,201,339,482,105,192,293,0.72457930,1.33029583,2.02411256,0.11881578,0.17775075,0.25033744
17139,0,USIllinoisMoultrie,Illinois,Moultrie,2021-04-04 11:46:35.509037,2020-08-31 00:00:00.000000,1.36921853,2.28511541,3.27301704,198,331,474,103,188,292,0.71467036,1.30190267,2.01516986,0.11693458,0.17916821,0.25360868
17139,0,USIllinoisMoultrie,Illinois,Moultrie,2021-04-04 11:46:35.509037,2020-09-01 00:00:00.000000,1.34819631,2.22093820,3.21093740,195,322,465,102,184,289,0.70619234,1.27541383,1.99584191,0.11551210,0.18110138,0.25895795
17139,0,USIllinoisMoultrie,Illinois,Moultrie,2021-04-04 11:46:35.509037,2020-09-02 00:00:00.000000,1.32960078,2.16221742,3.14460897,192,313,455,102,182,285,0.70425977,1.25994300,1.96929884,0.11478246,0.18325757,0.27015007
17139,0,USIllinoisMoultrie,Illinois,Moultrie,2021-04-04 11:46:35.509037,2020-09-03 00:00:00.000000,1.32055042,2.12095672,3.10090590,191,307,449,101,179,281,0.70213710,1.24023155,1.93868545,0.11449962,0.18074904,0.28771867
17139,0,USIllinoisMoultrie,Illinois,Moultrie,2021-04-04 11:46:35.509037,2020-09-04 00:00:00.000000,1.31847775,2.07295791,3.07393512,191,300,445,100,176,277,0.69267686,1.21376378,1.91363831,0.11458900,0.18345267,0.30482175
17139,0,USIllinoisMoultrie,Illinois,Moultrie,2021-04-04 11:46:35.509037,2020-09-05 00:00:00.000000,1.30411511,2.04197582,3.04921297,189,296,442,99,173,274,0.68306518,1.19822528,1.89551004,0.11612025,0.18954511,0.30908830
17139,0,USIllinoisMoultrie,Illinois,Moultrie,2021-04-04 11:46:35.509037,2020-09-06 00:00:00.000000,1.30804305,2.03298376,3.02632612,189,294,438,97,170,272,0.67422018,1.17235276,1.87777606,0.11827163,0.19084736,0.31239719
17139,0,USIllinoisMoultrie,Illinois,Moultrie,2021-04-04 11:46:35.509037,2020-09-07 00:00:00.000000,1.30871372,2.02790797,3.00415460,189,294,435,97,167,269,0.67000401,1.15419648,1.86146108,0.12565533,0.19467223,0.31486747
17139,0,USIllinoisMoultrie,Illinois,Moultrie,2021-04-04 11:46:35.509037,2020-09-08 00:00:00.000000,1.28372244,2.02683479,2.98299352,186,293,432,96,165,267,0.66768518,1.14196194,1.84561356,0.13056814,0.19833818,0.31661471
17139,0,USIllinoisMoultrie,Illinois,Moultrie,2021-04-04 11:46:35.509037,2020-09-09 00:00:00.000000,1.25989134,2.01173817,2.96253299,182,291,429,96,163,265,0.66744202,1.13021499,1.83082953,0.13302370,0.20322597,0.32094519
17139,0,USIllinoisMoultrie,Illinois,Moultrie,2021-04-04 11:46:35.509037,2020-09-10 00:00:00.000000,1.23801666,1.98361162,2.92817953,179,287,424,97,162,263,0.66939468,1.11763506,1.81731050,0.13455330,0.20695347,0.32623343
17139,0,USIllinoisMoultrie,Illinois,Moultrie,2021-04-04 11:46:35.509037,2020-09-11 00:00:00.000000,1.21942924,1.96440242,2.91047927,176,284,422,96,160,261,0.66462301,1.10486775,1.80562984,0.13648598,0.21224067,0.34165860
17139,0,USIllinoisMoultrie,Illinois,Moultrie,2021-04-04 11:46:35.509037,2020-09-12 00:00:00.000000,1.22365218,1.94813046,2.90617940,177,282,421,95,158,260,0.66035367,1.09280889,1.79689901,0.14697129,0.22021359,0.35018034
17139,0,USIllinoisMoultrie,Illinois,Moultrie,2021-04-04 11:46:35.509037,2020-09-13 00:00:00.000000,1.22914550,1.95533551,2.88900843,178,283,418,95,157,259,0.65592814,1.08849150,1.79201988,0.15138173,0.22932115,0.35620841
17139,0,USIllinoisMoultrie,Illinois,Moultrie,2021-04-04 11:46:35.509037,2020-09-14 00:00:00.000000,1.23557932,1.98714096,2.87075148,179,288,416,94,156,259,0.64868293,1.07840631,1.79099878,0.15982687,0.23713001,0.36127017
17139,0,USIllinoisMoultrie,Illinois,Moultrie,2021-04-04 11:46:35.509037,2020-09-15 00:00:00.000000,1.24229942,2.01704705,2.86561483,180,292,415,93,154,260,0.64376919,1.06875833,1.79410612,0.16350754,0.24538171,0.36644323
17139,0,USIllinoisMoultrie,Illinois,Moultrie,2021-04-04 11:46:35.509037,2020-09-16 00:00:00.000000,1.23355647,2.03958048,2.90551907,178,295,421,93,155,259,0.64209733,1.07436452,1.79210239,0.17734941,0.25335743,0.37365633
17139,0,USIllinoisMoultrie,Illinois,Moultrie,2021-04-04 11:46:35.509037,2020-09-17 00:00:00.000000,1.22126900,2.05828586,2.94568017,177,298,427,93,156,258,0.64401064,1.07858636,1.78070661,0.18614887,0.26566653,0.40380848
17139,0,USIllinoisMoultrie,Illinois,Moultrie,2021-04-04 11:46:35.509037,2020-09-18 00:00:00.000000,1.20916579,2.08221955,2.98565275,175,301,432,94,157,258,0.64987905,1.08430584,1.78407637,0.18902534,0.28224416,0.43515019
17139,0,USIllinoisMoultrie,Illinois,Moultrie,2021-04-04 11:46:35.509037,2020-09-19 00:00:00.000000,1.19746134,2.10875863,3.05506192,173,305,443,94,156,258,0.64867350,1.07697769,1.78267102,0.19091343,0.29250566,0.45775363
17139,0,USIllinoisMoultrie,Illinois,Moultrie,2021-04-04 11:46:35.509037,2020-09-20 00:00:00.000000,1.20742817,2.15179649,3.08554368,175,312,447,93,158,256,0.64242868,1.09282729,1.77140305,0.20600044,0.30454396,0.48918899
17139,0,USIllinoisMoultrie,Illinois,Moultrie,2021-04-04 11:46:35.509037,2020-09-21 00:00:00.000000,1.24695887,2.17950914,3.13634737,180,316,454,92,161,255,0.63631761,1.11473727,1.76486767,0.21615689,0.31013351,0.50702586
17139,0,USIllinoisMoultrie,Illinois,Moultrie,2021-04-04 11:46:35.509037,2020-09-22 00:00:00.000000,1.30166928,2.22971645,3.25405282,188,323,471,91,165,255,0.63196928,1.14166479,1.76292291,0.22840262,0.32156821,0.51922825
17139,0,USIllinoisMoultrie,Illinois,Moultrie,2021-04-04 11:46:35.509037,2020-09-23 00:00:00.000000,1.36931335,2.30660967,3.32015154,198,334,481,91,168,256,0.63106014,1.16541648,1.76637985,0.24075427,0.35215395,0.53563837
17139,0,USIllinoisMoultrie,Illinois,Moultrie,2021-04-04 11:46:35.509037,2020-09-24 00:00:00.000000,1.43836408,2.37731169,3.42726516,208,344,496,92,171,257,0.63849269,1.18378781,1.77590511,0.25046091,0.37214980,0.54230058
17139,0,USIllinoisMoultrie,Illinois,Moultrie,2021-04-04 11:46:35.509037,2020-09-25 00:00:00.000000,1.50975984,2.46274754,3.61134348,218,357,523,94,175,259,0.65437280,1.21224089,1.79173398,0.25829019,0.40084613,0.54512445
17139,0,USIllinoisMoultrie,Illinois,Moultrie,2021-04-04 11:46:35.509037,2020-09-26 00:00:00.000000,1.58593283,2.55698600,3.80326176,229,370,551,98,182,266,0.68174234,1.25690229,1.83955532,0.27348316,0.40910110,0.64437143
17139,0,USIllinoisMoultrie,Illinois,Moultrie,2021-04-04 11:46:35.509037,2020-09-27 00:00:00.000000,1.66534609,2.66527609,4.00195127,241,386,580,106,188,278,0.73188255,1.29844600,1.91983085,0.28947159,0.43818093,0.64810379
17139,0,USIllinoisMoultrie,Illinois,Moultrie,2021-04-04 11:46:35.509037,2020-09-28 00:00:00.000000,1.74715136,2.83042934,4.19701407,253,410,608,114,199,291,0.79041408,1.37430063,2.00817635,0.29061089,0.45066741,0.64908693
17139,0,USIllinoisMoultrie,Illinois,Moultrie,2021-04-04 11:46:35.509037,2020-09-29 00:00:00.000000,1.88411563,2.99127429,4.40046991,273,433,638,117,207,304,0.81209064,1.42862105,2.10202948,0.29262784,0.47237740,0.66447928
17139,0,USIllinoisMoultrie,Illinois,Moultrie,2021-04-04 11:46:35.509037,2020-09-30 00:00:00.000000,2.04513103,3.10783323,4.61350528,296,450,669,122,218,319,0.84213054,1.50572706,2.20115588,0.31432588,0.48185686,0.68621241
17139,0,USIllinoisMoultrie,Illinois,Moultrie,2021-04-04 11:46:35.509037,2020-10-01 00:00:00.000000,2.22288693,3.28313143,4.93710750,322,476,715,134,232,334,0.92427148,1.60632360,2.30563778,0.34356633,0.50544300,0.69661137
17139,0,USIllinoisMoultrie,Illinois,Moultrie,2021-04-04 11:46:35.509037,2020-10-02 00:00:00.000000,2.38005461,3.47989464,5.30208471,345,504,768,147,245,350,1.01462029,1.69434842,2.41623191,0.35148409,0.52314076,0.71968434
17139,0,USIllinoisMoultrie,Illinois,Moultrie,2021-04-04 11:46:35.509037,2020-10-03 00:00:00.000000,2.56210890,3.73238508,5.66851140,371,541,821,161,260,367,1.11329417,1.79867213,2.53512464,0.37918900,0.54598543,0.72788495
17139,0,USIllinoisMoultrie,Illinois,Moultrie,2021-04-04 11:46:35.509037,2020-10-04 00:00:00.000000,2.77518555,3.99846922,6.00010124,402,579,870,176,275,389,1.22027993,1.90162615,2.68259421,0.40104785,0.56253600,0.75646622
17139,0,USIllinoisMoultrie,Illinois,Moultrie,2021-04-04 11:46:35.509037,2020-10-05 00:00:00.000000,3.03308814,4.25460196,6.27884697,439,616,910,193,287,410,1.33595314,1.97964819,2.83394015,0.41569583,0.56893098,0.77680868
17139,0,USIllinoisMoultrie,Illinois,Moultrie,2021-04-04 11:46:35.509037,2020-10-06 00:00:00.000000,3.31866208,4.53563035,6.56527763,481,657,952,211,299,432,1.45811638,2.06234087,2.98149406,0.41918570,0.56951774,0.78770932
17139,0,USIllinoisMoultrie,Illinois,Moultrie,2021-04-04 11:46:35.509037,2020-10-07 00:00:00.000000,3.59029896,4.83134578,6.97874214,520,700,1011,229,315,459,1.58085358,2.17324238,3.16590729,0.42233678,0.57357968,0.79746285
17139,0,USIllinoisMoultrie,Illinois,Moultrie,2021-04-04 11:46:35.509037,2020-10-08 00:00:00.000000,3.87538092,5.20279462,7.44138056,561,754,1079,243,335,488,1.67811434,2.31264246,3.36682003,0.41811625,0.57612617,0.78834102
17139,0,USIllinoisMoultrie,Illinois,Moultrie,2021-04-04 11:46:35.509037,2020-10-09 00:00:00.000000,4.15452851,5.54919660,7.92118199,602,804,1148,259,359,519,1.78736585,2.48222377,3.58359397,0.42009690,0.56874601,0.77391050
17139,0,USIllinoisMoultrie,Illinois,Moultrie,2021-04-04 11:46:35.509037,2020-10-10 00:00:00.000000,4.44816575,5.93422778,8.41422704,645,860,1220,276,385,552,1.90848497,2.66048407,3.81015576,0.40409290,0.56287725,0.75724638
17139,0,USIllinoisMoultrie,Illinois,Moultrie,2021-04-04 11:46:35.509037,2020-10-11 00:00:00.000000,4.75598383,6.27665549,8.83667901,689,910,1281,296,415,584,2.04151124,2.86566705,4.02952802,0.39795380,0.55219336,0.74278743
17139,0,USIllinoisMoultrie,Illinois,Moultrie,2021-04-04 11:46:35.509037,2020-10-12 00:00:00.000000,5.04234902,6.60086734,9.26411680,731,957,1343,313,443,615,2.15906414,3.05712594,4.24160367,0.39686174,0.53620381,0.71138338
17139,0,USIllinoisMoultrie,Illinois,Moultrie,2021-04-04 11:46:35.509037,2020-10-13 00:00:00.000000,5.33968574,6.93622461,9.70034857,774,1005,1406,326,468,645,2.25000506,3.23392691,4.44802072,0.39668302,0.50877169,0.69302311
17139,0,USIllinoisMoultrie,Illinois,Moultrie,2021-04-04 11:46:35.509037,2020-10-14 00:00:00.000000,5.63836432,7.21654278,9.91227640,817,1046,1437,338,493,674,2.33740235,3.40119498,4.65131718,0.37957275,0.48873812,0.65275402
17139,0,USIllinoisMoultrie,Illinois,Moultrie,2021-04-04 11:46:35.509037,2020-10-15 00:00:00.000000,5.92163126,7.50220069,10.24896577,858,1087,1486,351,518,703,2.42254006,3.57728982,4.85295744,0.36493085,0.46946796,0.64387077
17139,0,USIllinoisMoultrie,Illinois,Moultrie,2021-04-04 11:46:35.509037,2020-10-16 00:00:00.000000,6.17696359,7.77246235,10.54401643,895,1127,1528,363,542,732,2.50573325,3.73899132,5.05310923,0.35554496,0.44822666,0.63596386
17139,0,USIllinoisMoultrie,Illinois,Moultrie,2021-04-04 11:46:35.509037,2020-10-17 00:00:00.000000,6.47892051,8.03048015,10.82348759,939,1164,1569,375,563,773,2.58620873,3.88874041,5.33197797,0.34339310,0.44117112,0.61244398
17139,0,USIllinoisMoultrie,Illinois,Moultrie,2021-04-04 11:46:35.509037,2020-10-18 00:00:00.000000,6.64819993,8.26727421,11.27033042,964,1198,1634,386,588,817,2.66227937,4.05821995,5.63909370,0.34083045,0.42559324,0.58455671
17139,0,USIllinoisMoultrie,Illinois,Moultrie,2021-04-04 11:46:35.509037,2020-10-19 00:00:00.000000,6.74214170,8.49844981,11.55431404,977,1232,1675,396,610,851,2.73251018,4.21313301,5.87433321,0.34014637,0.41885048,0.58310301
17139,0,USIllinoisMoultrie,Illinois,Moultrie,2021-04-04 11:46:35.509037,2020-10-20 00:00:00.000000,6.82682768,8.70140039,11.96295506,989,1261,1734,406,633,876,2.80525911,4.36791196,6.04556675,0.32848723,0.41593770,0.57897551
17139,0,USIllinoisMoultrie,Illinois,Moultrie,2021-04-04 11:46:35.509037,2020-10-21 00:00:00.000000,6.90546668,8.91391625,12.48935570,1001,1292,1811,417,651,900,2.87740481,4.49336769,6.20708778,0.32163214,0.41186764,0.58971837
17139,0,USIllinoisMoultrie,Illinois,Moultrie,2021-04-04 11:46:35.509037,2020-10-22 00:00:00.000000,6.98368267,9.11753023,12.85879205,1012,1322,1864,427,666,922,2.94737361,4.59635673,6.36066393,0.32533945,0.40594576,0.59168859
17139,0,USIllinoisMoultrie,Illinois,Moultrie,2021-04-04 11:46:35.509037,2020-10-23 00:00:00.000000,7.07240775,9.28382875,13.20160236,1025,1346,1914,437,678,943,3.01400433,4.68105826,6.50772231,0.32645995,0.41000280,0.57676863
17139,0,USIllinoisMoultrie,Illinois,Moultrie,2021-04-04 11:46:35.509037,2020-10-24 00:00:00.000000,7.18244831,9.46604520,13.51495666,1041,1372,1959,446,692,964,3.07610538,4.77783002,6.64962250,0.32034211,0.41749418,0.55999253
17139,0,USIllinoisMoultrie,Illinois,Moultrie,2021-04-04 11:46:35.509037,2020-10-25 00:00:00.000000,7.30988472,9.67714864,13.80331835,1060,1403,2001,454,708,986,3.13242182,4.88327121,6.80005741,0.31847333,0.42201265,0.56463337
17139,0,USIllinoisMoultrie,Illinois,Moultrie,2021-04-04 11:46:35.509037,2020-10-26 00:00:00.000000,7.45372524,9.86368949,14.07416539,1080,1430,2040,461,721,1011,3.18184038,4.97662085,6.97860866,0.31517545,0.41419271,0.55696698
17139,0,USIllinoisMoultrie,Illinois,Moultrie,2021-04-04 11:46:35.509037,2020-10-27 00:00:00.000000,7.59954248,10.07630510,14.33258698,1102,1461,2078,467,737,1035,3.22400934,5.08793963,7.13828072,0.31311041,0.41936033,0.57178748
17139,0,USIllinoisMoultrie,Illinois,Moultrie,2021-04-04 11:46:35.509037,2020-10-28 00:00:00.000000,7.74669251,10.29543364,14.58036789,1123,1492,2114,472,747,1056,3.25871722,5.15679790,7.28251658,0.31219922,0.41747654,0.58388335
17139,0,USIllinoisMoultrie,Illinois,Moultrie,2021-04-04 11:46:35.509037,2020-10-29 00:00:00.000000,7.84963186,10.52329063,14.81157282,1138,1525,2147,476,763,1075,3.28645752,5.26653406,7.41419593,0.31269527,0.42031238,0.57964072
17139,0,USIllinoisMoultrie,Illinois,Moultrie,2021-04-04 11:46:35.509037,2020-10-30 00:00:00.000000,7.97371140,10.68158936,15.03376003,1156,1548,2180,479,781,1092,3.30835326,5.38647847,7.53548559,0.31511968,0.43312370,0.58674711
17139,0,USIllinoisMoultrie,Illinois,Moultrie,2021-04-04 11:46:35.509037,2020-10-31 00:00:00.000000,8.02607569,10.82649472,15.21733486,1163,1569,2206,482,797,1113,3.33012393,5.49801403,7.68030939,0.31989523,0.43379842,0.59615663
17139,0,USIllinoisMoultrie,Illinois,Moultrie,2021-04-04 11:46:35.509037,2020-11-01 00:00:00.000000,8.27476775,11.00385506,15.13720214,1199,1595,2195,498,807,1138,3.43618362,5.56550128,7.85024785,0.32631647,0.44759524,0.60644612
17139,0,USIllinoisMoultrie,Illinois,Moultrie,2021-04-04 11:46:35.509037,2020-11-02 00:00:00.000000,8.52536093,11.22073992,15.37535796,1236,1627,2229,514,822,1156,3.54855869,5.67112329,7.97557389,0.32761279,0.44917757,0.61533027
17139,0,USIllinoisMoultrie,Illinois,Moultrie,2021-04-04 11:46:35.509037,2020-11-03 00:00:00.000000,8.70353138,11.38824319,15.64971334,1262,1651,2269,531,836,1166,3.66531119,5.76823737,8.04541016,0.32822018,0.44904413,0.62157016
17139,0,USIllinoisMoultrie,Illinois,Moultrie,2021-04-04 11:46:35.509037,2020-11-04 00:00:00.000000,8.88015433,11.54134599,15.91009031,1287,1673,2307,548,857,1194,3.78318051,5.91648879,8.23832758,0.32732609,0.44758033,0.62508334
17139,0,USIllinoisMoultrie,Illinois,Moultrie,2021-04-04 11:46:35.509037,2020-11-05 00:00:00.000000,8.99893494,11.69248985,16.15330850,1304,1695,2342,565,869,1222,3.89894956,5.99304941,8.42702098,0.32945428,0.44699165,0.62662139
17139,0,USIllinoisMoultrie,Illinois,Moultrie,2021-04-04 11:46:35.509037,2020-11-06 00:00:00.000000,9.17919763,11.80081697,16.37348312,1331,1711,2374,581,875,1248,4.00966697,6.04031422,8.61069558,0.33478625,0.44521970,0.62448558
17139,0,USIllinoisMoultrie,Illinois,Moultrie,2021-04-04 11:46:35.509037,2020-11-07 00:00:00.000000,9.39980997,11.91135176,16.56621069,1363,1727,2402,596,881,1274,4.11286349,6.08041113,8.78811589,0.33438063,0.44599631,0.62746094
17139,0,USIllinoisMoultrie,Illinois,Moultrie,2021-04-04 11:46:35.509037,2020-11-08 00:00:00.000000,9.50034049,11.96754885,16.73973428,1377,1735,2427,610,894,1298,4.20695789,6.17147682,8.95749740,0.33483863,0.45125486,0.65535253
17139,0,USIllinoisMoultrie,Illinois,Moultrie,2021-04-04 11:46:35.509037,2020-11-09 00:00:00.000000,9.46722401,12.06064117,16.67585358,1372,1748,2418,622,908,1318,4.29159000,6.26169984,9.09123061,0.33310684,0.45112443,0.66381940
17139,0,USIllinoisMoultrie,Illinois,Moultrie,2021-04-04 11:46:35.509037,2020-11-10 00:00:00.000000,9.43574302,12.08929906,16.58580365,1368,1753,2405,632,919,1335,4.36446364,6.33909999,9.21131564,0.33363421,0.45452497,0.66930815
17139,0,USIllinoisMoultrie,Illinois,Moultrie,2021-04-04 11:46:35.509037,2020-11-11 00:00:00.000000,9.40509801,12.19921602,16.81035205,1363,1769,2437,640,922,1351,4.42024437,6.36237496,9.32147313,0.33531122,0.45164058,0.66929009
17139,0,USIllinoisMoultrie,Illinois,Moultrie,2021-04-04 11:46:35.509037,2020-11-12 00:00:00.000000,9.37791722,12.36963563,16.97550664,1359,1793,2461,649,931,1366,4.47770786,6.42026959,9.42102413,0.32885690,0.44490497,0.66686614
17139,0,USIllinoisMoultrie,Illinois,Moultrie,2021-04-04 11:46:35.509037,2020-11-13 00:00:00.000000,9.36904949,12.30437371,17.07503844,1358,1784,2476,655,945,1378,4.51973975,6.51789051,9.50894994,0.32446430,0.45241104,0.66436091
17139,0,USIllinoisMoultrie,Illinois,Moultrie,2021-04-04 11:46:35.509037,2020-11-14 00:00:00.000000,9.41510721,12.29804754,17.11161655,1365,1783,2481,660,945,1394,4.55287061,6.52106261,9.61395514,0.31868521,0.45938312,0.65830931
17139,0,USIllinoisMoultrie,Illinois,Moultrie,2021-04-04 11:46:35.509037,2020-11-15 00:00:00.000000,9.53429103,12.34236064,17.09484204,1382,1789,2478,663,940,1409,4.57721585,6.48570252,9.71669418,0.30691777,0.46923271,0.64928459
17139,0,USIllinoisMoultrie,Illinois,Moultrie,2021-04-04 11:46:35.509037,2020-11-16 00:00:00.000000,9.44420784,12.28283451,17.02187931,1369,1781,2468,665,951,1414,4.59236232,6.56159851,9.75390155,0.30020836,0.46451252,0.63848977
17139,0,USIllinoisMoultrie,Illinois,Moultrie,2021-04-04 11:46:35.509037,2020-11-17 00:00:00.000000,9.31964482,12.24306115,16.91638868,1351,1775,2453,666,958,1426,4.59889606,6.61010787,9.83548339,0.29575394,0.46267929,0.63662785
17139,0,USIllinoisMoultrie,Illinois,Moultrie,2021-04-04 11:46:35.509037,2020-11-18 00:00:00.000000,9.18625324,12.26780128,16.77276769,1332,1778,2432,666,962,1429,4.59571062,6.63447429,9.85498229,0.29336290,0.45571188,0.63623497
17139,0,USIllinoisMoultrie,Illinois,Moultrie,2021-04-04 11:46:35.509037,2020-11-19 00:00:00.000000,9.04446313,12.31785816,16.62982637,1311,1786,2411,658,964,1425,4.54069826,6.65054712,9.82984190,0.29189853,0.45295659,0.63010441
17139,0,USIllinoisMoultrie,Illinois,Moultrie,2021-04-04 11:46:35.509037,2020-11-20 00:00:00.000000,8.89488761,12.36763893,16.45283530,1289,1793,2385,649,963,1431,4.47912243,6.64194089,9.87308047,0.29596456,0.45396738,0.63738041
17139,0,USIllinoisMoultrie,Illinois,Moultrie,2021-04-04 11:46:35.509037,2020-11-21 00:00:00.000000,8.73875282,12.25951588,16.25358159,1267,1777,2356,640,958,1443,4.41359914,6.61265336,9.95322982,0.29027050,0.46093490,0.64336588
17139,0,USIllinoisMoultrie,Illinois,Moultrie,2021-04-04 11:46:35.509037,2020-11-22 00:00:00.000000,8.57682890,12.26601924,16.06087939,1243,1778,2328,629,955,1429,4.34425174,6.58972930,9.85890768,0.28988129,0.45912211,0.66589675
17139,0,USIllinoisMoultrie,Illinois,Moultrie,2021-04-04 11:46:35.509037,2020-11-23 00:00:00.000000,8.39755838,12.19314551,16.08261515,1217,1768,2332,619,954,1410,4.27128060,6.58136255,9.72796743,0.28965611,0.46028120,0.67243761
17139,0,USIllinoisMoultrie,Illinois,Moultrie,2021-04-04 11:46:35.509037,2020-11-24 00:00:00.000000,8.21375440,12.04358361,16.08335197,1191,1746,2332,607,955,1407,4.19267902,6.58667693,9.70958634,0.28951782,0.45913050,0.66655864
17139,0,USIllinoisMoultrie,Illinois,Moultrie,2021-04-04 11:46:35.509037,2020-11-25 00:00:00.000000,8.13369529,11.95694447,16.06427558,1179,1733,2329,595,951,1404,4.10975220,6.55832348,9.68762778,0.30937682,0.45781232,0.66359716
17139,0,USIllinoisMoultrie,Illinois,Moultrie,2021-04-04 11:46:35.509037,2020-11-26 00:00:00.000000,8.05215680,11.74220059,16.01824808,1167,1702,2322,583,941,1400,4.02668588,6.49360273,9.65731454,0.30542578,0.46018188,0.68261427
17139,0,USIllinoisMoultrie,Illinois,Moultrie,2021-04-04 11:46:35.509037,2020-11-27 00:00:00.000000,7.96622420,11.50535746,15.85897367,1155,1668,2299,574,936,1394,3.96292528,6.45488945,9.61329643,0.29190982,0.46057198,0.66147882
17139,0,USIllinoisMoultrie,Illinois,Moultrie,2021-04-04 11:46:35.509037,2020-11-28 00:00:00.000000,7.87578193,11.22509642,15.69798699,1142,1627,2276,570,920,1395,3.93311477,6.35103243,9.62151117,0.29112396,0.46205393,0.65784088
17139,0,USIllinoisMoultrie,Illinois,Moultrie,2021-04-04 11:46:35.509037,2020-11-29 00:00:00.000000,7.78087204,11.09980448,15.56026706,1128,1609,2256,565,904,1396,3.89787786,6.23462252,9.63375108,0.29108818,0.46103050,0.67163771
17139,0,USIllinoisMoultrie,Illinois,Moultrie,2021-04-04 11:46:35.509037,2020-11-30 00:00:00.000000,7.68821903,10.96836059,15.34355970,1114,1590,2224,559,892,1398,3.85720722,6.15557157,9.64198516,0.29117072,0.46339513,0.67764599
17139,0,USIllinoisMoultrie,Illinois,Moultrie,2021-04-04 11:46:35.509037,2020-12-01 00:00:00.000000,7.58820697,10.80715946,15.11992403,1100,1567,2192,552,877,1399,3.80825288,6.04865069,9.64972822,0.29142055,0.47416023,0.68545423
17139,0,USIllinoisMoultrie,Illinois,Moultrie,2021-04-04 11:46:35.509037,2020-12-02 00:00:00.000000,7.47977353,10.62711090,14.96394511,1084,1541,2169,544,857,1399,3.75270372,5.91237723,9.65086319,0.29208255,0.47580410,0.69048314
17139,0,USIllinoisMoultrie,Illinois,Moultrie,2021-04-04 11:46:35.509037,2020-12-03 00:00:00.000000,7.37938127,10.36156483,14.91026314,1070,1502,2162,535,839,1398,3.69228686,5.78718517,9.64087386,0.30718221,0.47838992,0.69106290
17139,0,USIllinoisMoultrie,Illinois,Moultrie,2021-04-04 11:46:35.509037,2020-12-04 00:00:00.000000,7.28718716,10.13511822,14.81148656,1056,1469,2147,526,827,1394,3.62892828,5.70693220,9.61540526,0.33195236,0.48267735,0.68745101
17139,0,USIllinoisMoultrie,Illinois,Moultrie,2021-04-04 11:46:35.509037,2020-12-05 00:00:00.000000,7.15639816,9.94609608,14.67612101,1037,1442,2128,516,817,1379,3.56501344,5.63585817,9.51350844,0.35731622,0.49266620,0.69772730
17139,0,USIllinoisMoultrie,Illinois,Moultrie,2021-04-04 11:46:35.509037,2020-12-06 00:00:00.000000,6.91204933,9.78993780,14.51448663,1002,1419,2104,508,807,1364,3.50341760,5.57064496,9.40643236,0.36054469,0.50495091,0.70222075
17139,0,USIllinoisMoultrie,Illinois,Moultrie,2021-04-04 11:46:35.509037,2020-12-07 00:00:00.000000,6.76018036,9.60629815,14.34180875,980,1393,2079,499,798,1348,3.44675167,5.50903802,9.30018043,0.36540520,0.50884693,0.71054106
17139,0,USIllinoisMoultrie,Illinois,Moultrie,2021-04-04 11:46:35.509037,2020-12-08 00:00:00.000000,6.69230816,9.42235028,14.15260351,970,1366,2052,492,789,1333,3.39720113,5.44625192,9.19286596,0.37225639,0.51345943,0.74094808
17139,0,USIllinoisMoultrie,Illinois,Moultrie,2021-04-04 11:46:35.509037,2020-12-09 00:00:00.000000,6.64100665,9.30274692,13.94916839,963,1348,2022,486,780,1317,3.35376580,5.38015633,9.08259301,0.37583370,0.52026060,0.77168070
17139,0,USIllinoisMoultrie,Illinois,Moultrie,2021-04-04 11:46:35.509037,2020-12-10 00:00:00.000000,6.59407066,9.08289169,13.73453257,956,1317,1991,480,766,1292,3.31454971,5.28764230,8.91647690,0.37525988,0.52201392,0.79232039
17139,0,USIllinoisMoultrie,Illinois,Moultrie,2021-04-04 11:46:35.509037,2020-12-11 00:00:00.000000,6.52521066,8.91784135,13.51753158,946,1293,1960,475,745,1277,3.27764467,5.13974007,8.80858899,0.37611433,0.52270351,0.81191056
17139,0,USIllinoisMoultrie,Illinois,Moultrie,2021-04-04 11:46:35.509037,2020-12-12 00:00:00.000000,6.40776844,8.77740784,13.29189548,929,1272,1927,470,730,1260,3.24148645,5.03453035,8.69312219,0.37544387,0.52621081,0.81806869
17139,0,USIllinoisMoultrie,Illinois,Moultrie,2021-04-04 11:46:35.509037,2020-12-13 00:00:00.000000,6.29905356,8.66581364,13.05626302,913,1256,1893,467,714,1242,3.22296893,4.92790800,8.57098047,0.35686381,0.54950336,0.88199146
17139,0,USIllinoisMoultrie,Illinois,Moultrie,2021-04-04 11:46:35.509037,2020-12-14 00:00:00.000000,6.23734627,8.49200706,12.91889830,904,1231,1873,466,706,1224,3.21766861,4.87085351,8.44234031,0.34567931,0.56060191,0.94068746
17139,0,USIllinoisMoultrie,Illinois,Moultrie,2021-04-04 11:46:35.509037,2020-12-15 00:00:00.000000,6.17088783,8.30366734,12.77353123,894,1204,1852,465,689,1204,3.21280404,4.75479673,8.30706333,0.34167220,0.57582628,0.95651818
17139,0,USIllinoisMoultrie,Illinois,Moultrie,2021-04-04 11:46:35.509037,2020-12-16 00:00:00.000000,6.09765586,8.12963144,12.61697819,884,1178,1829,459,678,1184,3.16813668,4.68043446,8.16562539,0.33993915,0.58962512,0.96598162
17139,0,USIllinoisMoultrie,Illinois,Moultrie,2021-04-04 11:46:35.509037,2020-12-17 00:00:00.000000,6.01864852,7.97413902,12.44942096,872,1156,1805,452,665,1162,3.11881322,4.58683481,8.01854340,0.33837657,0.59072261,0.99409096
17139,0,USIllinoisMoultrie,Illinois,Moultrie,2021-04-04 11:46:35.509037,2020-12-18 00:00:00.000000,5.93905835,7.85064670,12.26748911,861,1138,1778,445,651,1140,3.06889405,4.49557368,7.86636025,0.33644860,0.59027712,1.02101488
17139,0,USIllinoisMoultrie,Illinois,Moultrie,2021-04-04 11:46:35.509037,2020-12-19 00:00:00.000000,5.86921402,7.72805926,11.97464000,851,1120,1736,437,639,1117,3.01761636,4.41036320,7.70963446,0.33663441,0.59114241,1.15023213
17139,0,USIllinoisMoultrie,Illinois,Moultrie,2021-04-04 11:46:35.509037,2020-12-20 00:00:00.000000,5.80303729,7.60073076,11.67024524,841,1102,1692,429,626,1094,2.96458060,4.32068072,7.54828915,0.35170908,0.59030470,1.15427250
17139,0,USIllinoisMoultrie,Illinois,Moultrie,2021-04-04 11:46:35.509037,2020-12-21 00:00:00.000000,5.73488319,7.46894376,11.32889458,831,1083,1642,421,613,1070,2.90962547,4.22974722,7.38288990,0.36863356,0.59240261,1.14957356
17139,0,USIllinoisMoultrie,Illinois,Moultrie,2021-04-04 11:46:35.509037,2020-12-22 00:00:00.000000,5.66155725,7.32719741,10.98278979,820,1062,1592,414,600,1046,2.85565307,4.14034810,7.21656682,0.36853527,0.60558372,1.15346165
17139,0,USIllinoisMoultrie,Illinois,Moultrie,2021-04-04 11:46:35.509037,2020-12-23 00:00:00.000000,5.58311231,7.15796638,10.63927925,809,1037,1542,406,590,1022,2.80171762,4.07346874,7.05018462,0.36976849,0.61152767,1.19313203
17139,0,USIllinoisMoultrie,Illinois,Moultrie,2021-04-04 11:46:35.509037,2020-12-24 00:00:00.000000,5.44090594,6.99696041,10.32655564,788,1014,1497,398,580,998,2.74727727,4.00645726,6.88402890,0.37485754,0.61986098,1.21634640
17139,0,USIllinoisMoultrie,Illinois,Moultrie,2021-04-04 11:46:35.509037,2020-12-25 00:00:00.000000,5.28184721,6.83442180,10.03978610,765,991,1455,390,566,974,2.69205012,3.90793877,6.71803823,0.39069053,0.61986627,1.17995422
17139,0,USIllinoisMoultrie,Illinois,Moultrie,2021-04-04 11:46:35.509037,2020-12-26 00:00:00.000000,5.12551393,6.64160759,9.75758922,743,963,1414,382,556,950,2.63590949,3.84082080,6.55224586,0.39728545,0.63124553,1.17148336
17139,0,USIllinoisMoultrie,Illinois,Moultrie,2021-04-04 11:46:35.509037,2020-12-27 00:00:00.000000,4.97412727,6.45817168,9.47895640,721,936,1374,373,547,927,2.57883910,3.77347274,6.39792572,0.39372886,0.64035644,1.17071913
17139,0,USIllinoisMoultrie,Illinois,Moultrie,2021-04-04 11:46:35.509037,2020-12-28 00:00:00.000000,4.82304225,6.34446051,9.31815800,699,920,1351,365,537,910,2.52090210,3.70457005,6.28161897,0.39012345,0.65451984,1.17248829
17139,0,USIllinoisMoultrie,Illinois,Moultrie,2021-04-04 11:46:35.509037,2020-12-29 00:00:00.000000,4.68601304,6.23852671,9.21507682,679,904,1336,357,525,893,2.46432181,3.62053638,6.16219977,0.39046674,0.66592136,1.17687290
17139,0,USIllinoisMoultrie,Illinois,Moultrie,2021-04-04 11:46:35.509037,2020-12-30 00:00:00.000000,4.58599648,6.13769890,9.09808245,665,890,1319,349,515,875,2.40848646,3.55287061,6.04094339,0.39172198,0.67003732,1.18345723
17139,0,USIllinoisMoultrie,Illinois,Moultrie,2021-04-04 11:46:35.509037,2020-12-31 00:00:00.000000,4.49593411,6.02838253,8.96025353,651,874,1299,341,503,858,2.35304642,3.46960340,5.91943792,0.40094366,0.67875271,1.18917258
17139,0,USIllinoisMoultrie,Illinois,Moultrie,2021-04-04 11:46:35.509037,2021-01-01 00:00:00.000000,4.41498496,5.91823356,8.80171200,640,858,1276,333,489,841,2.29782353,3.37769862,5.80053641,0.40460282,0.70415171,1.22597697
17139,0,USIllinoisMoultrie,Illinois,Moultrie,2021-04-04 11:46:35.509037,2021-01-02 00:00:00.000000,4.35460836,5.81566765,8.62769636,631,843,1251,325,482,824,2.24275080,3.32411068,5.68821409,0.42649799,0.73016743,1.28824030
17139,0,USIllinoisMoultrie,Illinois,Moultrie,2021-04-04 11:46:35.509037,2021-01-03 00:00:00.000000,4.31570909,5.71213510,8.44431874,625,828,1224,317,468,809,2.18783220,3.23378525,5.58431309,0.42537173,0.74377940,1.29534383
17139,0,USIllinoisMoultrie,Illinois,Moultrie,2021-04-04 11:46:35.509037,2021-01-04 00:00:00.000000,4.26987231,5.58398623,8.24795572,619,809,1196,309,457,795,2.13311580,3.15797195,5.48707214,0.42322804,0.74640069,1.30024959
17139,0,USIllinoisMoultrie,Illinois,Moultrie,2021-04-04 11:46:35.509037,2021-01-05 00:00:00.000000,4.23523054,5.46967653,8.04797766,614,793,1167,300,450,781,2.07420999,3.10933270,5.39130184,0.42022291,0.75901578,1.30250563
17139,0,USIllinoisMoultrie,Illinois,Moultrie,2021-04-04 11:46:35.509037,2021-01-06 00:00:00.000000,4.16968704,5.32972298,7.84233636,604,772,1137,292,444,767,2.01500661,3.06623078,5.29505950,0.41594643,0.76623729,1.29983772
17139,0,USIllinoisMoultrie,Illinois,Moultrie,2021-04-04 11:46:35.509037,2021-01-07 00:00:00.000000,4.05223192,5.21562927,7.63397824,587,756,1107,284,433,753,1.96172607,2.99180012,5.19620613,0.41006113,0.77145998,1.31847855
17139,0,USIllinoisMoultrie,Illinois,Moultrie,2021-04-04 11:46:35.509037,2021-01-08 00:00:00.000000,3.94306675,5.10117726,7.42900701,571,739,1077,276,427,738,1.90859293,2.94550223,5.09422892,0.40255161,0.78637627,1.40937522
17139,0,USIllinoisMoultrie,Illinois,Moultrie,2021-04-04 11:46:35.509037,2021-01-09 00:00:00.000000,3.84823416,5.00489230,7.22748853,558,725,1048,269,419,723,1.85571837,2.89131640,4.98903443,0.39394727,0.79558177,1.40044226
17139,0,USIllinoisMoultrie,Illinois,Moultrie,2021-04-04 11:46:35.509037,2021-01-10 00:00:00.000000,3.77064111,4.90517903,7.02448899,546,711,1018,261,412,707,1.80320930,2.84213642,4.88056473,0.37855134,0.79062582,1.38192691
17139,0,USIllinoisMoultrie,Illinois,Moultrie,2021-04-04 11:46:35.509037,2021-01-11 00:00:00.000000,3.68615710,4.80335070,6.81753775,534,696,988,253,404,691,1.75116689,2.79003164,4.76900978,0.36987754,0.80890394,1.47326994
17139,0,USIllinoisMoultrie,Illinois,Moultrie,2021-04-04 11:46:35.509037,2021-01-12 00:00:00.000000,3.55952885,4.69657873,6.62529823,516,681,960,246,396,674,1.70034202,2.73243302,4.65457628,0.36316288,0.81157881,1.49466415
17139,0,USIllinoisMoultrie,Illinois,Moultrie,2021-04-04 11:46:35.509037,2021-01-13 00:00:00.000000,3.42258046,4.59313133,6.48087882,496,666,939,239,387,658,1.65058390,2.67195893,4.53764694,0.36343622,0.78557386,1.51285798
17139,0,USIllinoisMoultrie,Illinois,Moultrie,2021-04-04 11:46:35.509037,2021-01-14 00:00:00.000000,3.28946972,4.46238065,6.30459411,477,647,914,232,378,640,1.60181285,2.60706388,4.41850430,0.35201990,0.77094472,1.55012008
17139,0,USIllinoisMoultrie,Illinois,Moultrie,2021-04-04 11:46:35.509037,2021-01-15 00:00:00.000000,3.16031321,4.32330276,6.13053655,458,626,888,225,366,624,1.55399408,2.53072503,4.30731807,0.34751243,0.75299924,1.57356141
17139,0,USIllinoisMoultrie,Illinois,Moultrie,2021-04-04 11:46:35.509037,2021-01-16 00:00:00.000000,3.03518783,4.18012881,5.95858381,440,606,864,218,355,607,1.50712033,2.45267868,4.19153285,0.34292500,0.74902345,1.59271056
17139,0,USIllinoisMoultrie,Illinois,Moultrie,2021-04-04 11:46:35.509037,2021-01-17 00:00:00.000000,2.91413844,4.03924553,5.84414699,422,585,847,211,345,591,1.46120055,2.38026856,4.07754225,0.33841533,0.74124004,1.68969688
17139,0,USIllinoisMoultrie,Illinois,Moultrie,2021-04-04 11:46:35.509037,2021-01-18 00:00:00.000000,2.80085267,3.89227232,5.71689509,406,564,829,205,334,575,1.41625238,2.30488155,3.96529730,0.33424416,0.73075963,1.72588801
17139,0,USIllinoisMoultrie,Illinois,Moultrie,2021-04-04 11:46:35.509037,2021-01-19 00:00:00.000000,2.69165791,3.77808283,5.57971597,390,547,809,198,324,559,1.37168320,2.23475111,3.85660805,0.32888932,0.72700487,1.75177612
17139,0,USIllinoisMoultrie,Illinois,Moultrie,2021-04-04 11:46:35.509037,2021-01-20 00:00:00.000000,2.60058070,3.67312991,5.42821429,377,532,787,192,313,543,1.32773793,2.16248069,3.75104457,0.32145617,0.72762853,1.92802301
17139,0,USIllinoisMoultrie,Illinois,Moultrie,2021-04-04 11:46:35.509037,2021-01-21 00:00:00.000000,2.52786983,3.56007978,5.26220005,366,516,763,186,302,528,1.28458728,2.08822412,3.64675510,0.31528105,0.73068493,2.08529402
17139,0,USIllinoisMoultrie,Illinois,Moultrie,2021-04-04 11:46:35.509037,2021-01-22 00:00:00.000000,2.45765115,3.42909804,5.08703506,356,497,737,180,292,513,1.24235054,2.01520511,3.54262052,0.30689604,0.71518577,2.07676237
17139,0,USIllinoisMoultrie,Illinois,Moultrie,2021-04-04 11:46:35.509037,2021-01-23 00:00:00.000000,2.38967636,3.31632826,4.90874221,346,480,711,174,282,498,1.20111084,1.94732876,3.43841064,0.30045311,0.69749906,2.01623998
17139,0,USIllinoisMoultrie,Illinois,Moultrie,2021-04-04 11:46:35.509037,2021-01-24 00:00:00.000000,2.31294145,3.20418424,4.75069415,335,464,688,168,273,483,1.16092558,1.88736197,3.33442152,0.29636719,0.67799998,1.92254364
17139,0,USIllinoisMoultrie,Illinois,Moultrie,2021-04-04 11:46:35.509037,2021-01-25 00:00:00.000000,2.23428744,3.11028532,4.62195518,323,451,670,162,265,468,1.12183346,1.82825108,3.23111288,0.29426731,0.66871659,1.92620410
17139,0,USIllinoisMoultrie,Illinois,Moultrie,2021-04-04 11:46:35.509037,2021-01-26 00:00:00.000000,2.15834158,3.01215869,4.49343233,312,436,651,156,256,453,1.08193566,1.76840563,3.12936357,0.29531320,0.67417229,1.92790610
17139,0,USIllinoisMoultrie,Illinois,Moultrie,2021-04-04 11:46:35.509037,2021-01-27 00:00:00.000000,2.07807074,2.91695123,4.36547073,301,422,633,151,246,439,1.04194424,1.70199350,3.02942645,0.30373173,0.67915557,1.92866814
17139,0,USIllinoisMoultrie,Illinois,Moultrie,2021-04-04 11:46:35.509037,2021-01-28 00:00:00.000000,1.99978554,2.82371547,4.23834857,289,409,614,145,238,425,1.00233650,1.64132082,2.93150419,0.30720629,0.67461466,1.92895492
17139,0,USIllinoisMoultrie,Illinois,Moultrie,2021-04-04 11:46:35.509037,2021-01-29 00:00:00.000000,1.92379518,2.72878624,4.11232498,278,395,596,139,231,411,0.96343024,1.59307485,2.83574900,0.30739238,0.67509500,2.02520347
17139,0,USIllinoisMoultrie,Illinois,Moultrie,2021-04-04 11:46:35.509037,2021-01-30 00:00:00.000000,1.85028169,2.61295230,3.98764037,268,378,578,134,224,397,0.92543443,1.54751830,2.74226730,0.30732479,0.65728353,2.16919601
17139,0,USIllinoisMoultrie,Illinois,Moultrie,2021-04-04 11:46:35.509037,2021-01-31 00:00:00.000000,1.77934327,2.50806345,3.86451787,258,363,560,128,217,384,0.88848364,1.49905010,2.65233472,0.30722363,0.64760385,2.25311373
17139,0,USIllinoisMoultrie,Illinois,Moultrie,2021-04-04 11:46:35.509037,2021-02-01 00:00:00.000000,1.70728655,2.40329639,3.74400599,247,348,542,123,209,372,0.85266125,1.44452133,2.57027226,0.30689194,0.64302162,2.16959578
17139,0,USIllinoisMoultrie,Illinois,Moultrie,2021-04-04 11:46:35.509037,2021-02-02 00:00:00.000000,1.63785259,2.31658561,3.62546367,237,335,525,118,201,360,0.81891840,1.39241390,2.48873731,0.30540210,0.66710886,2.23199262
17139,0,USIllinoisMoultrie,Illinois,Moultrie,2021-04-04 11:46:35.509037,2021-02-03 00:00:00.000000,1.57094505,2.23301676,3.50907847,227,323,508,114,195,349,0.78695091,1.34980398,2.40818827,0.29901647,0.69145855,2.29473741
17139,0,USIllinoisMoultrie,Illinois,Moultrie,2021-04-04 11:46:35.509037,2021-02-04 00:00:00.000000,1.50662585,2.13999548,3.39497466,218,310,492,109,190,337,0.75654360,1.31285878,2.32907253,0.28926550,0.72302233,2.34843857
17139,0,USIllinoisMoultrie,Illinois,Moultrie,2021-04-04 11:46:35.509037,2021-02-05 00:00:00.000000,1.44490726,2.05598890,3.28324531,209,298,476,105,184,326,0.72754121,1.27352986,2.25175870,0.27914350,0.73732716,2.27753823
17139,0,USIllinoisMoultrie,Illinois,Moultrie,2021-04-04 11:46:35.509037,2021-02-06 00:00:00.000000,1.37750089,1.97599984,3.17397605,199,286,460,101,176,315,0.69982889,1.21690763,2.17655512,0.26405066,0.75352575,2.44809191
17139,0,USIllinoisMoultrie,Illinois,Moultrie,2021-04-04 11:46:35.509037,2021-02-07 00:00:00.000000,1.31268615,1.91660780,3.06724828,190,277,444,97,169,305,0.67331899,1.16754706,2.10378293,0.25565343,0.76836892,2.45890083
17139,0,USIllinoisMoultrie,Illinois,Moultrie,2021-04-04 11:46:35.509037,2021-02-08 00:00:00.000000,1.26510063,1.85048197,2.96920099,183,268,430,93,163,294,0.64794227,1.12918170,2.03388340,0.25197167,0.77812008,2.47843808
17139,0,USIllinoisMoultrie,Illinois,Moultrie,2021-04-04 11:46:35.509037,2021-02-09 00:00:00.000000,1.22039726,1.79609782,2.87381660,176,260,416,90,158,285,0.62258815,1.09172072,1.96758249,0.24812011,0.75463629,2.53524822
17139,0,USIllinoisMoultrie,Illinois,Moultrie,2021-04-04 11:46:35.509037,2021-02-10 00:00:00.000000,1.17872153,1.74460330,2.78118386,170,252,403,86,152,276,0.59759010,1.04983342,1.90544642,0.24178741,0.74683196,2.58982461
17139,0,USIllinoisMoultrie,Illinois,Moultrie,2021-04-04 11:46:35.509037,2021-02-11 00:00:00.000000,1.13958676,1.69987949,2.69119562,165,246,390,83,146,267,0.57316448,1.00698297,1.84763166,0.23806433,0.74460506,2.64446188
17139,0,USIllinoisMoultrie,Illinois,Moultrie,2021-04-04 11:46:35.509037,2021-02-12 00:00:00.000000,1.10265005,1.63656133,2.60373602,159,237,377,79,141,260,0.54944794,0.97646672,1.79381773,0.23929677,0.76574668,2.69710885
17139,0,USIllinoisMoultrie,Illinois,Moultrie,2021-04-04 11:46:35.509037,2021-02-13 00:00:00.000000,1.06766504,1.58198114,2.52640654,154,229,366,76,136,252,0.52652287,0.94357000,1.74345806,0.24013724,0.77123618,2.74561751
17139,0,USIllinoisMoultrie,Illinois,Moultrie,2021-04-04 11:46:35.509037,2021-02-14 00:00:00.000000,1.03445012,1.50842595,2.45780761,150,218,356,73,132,245,0.50443469,0.91531461,1.69602094,0.24060130,0.76793231,2.78845854
17139,0,USIllinoisMoultrie,Illinois,Moultrie,2021-04-04 11:46:35.509037,2021-02-15 00:00:00.000000,1.00597772,1.47859570,2.36588472,145,214,343,70,129,239,0.48320377,0.89108115,1.65108273,0.24083886,0.77016233,2.86576577
17139,0,USIllinoisMoultrie,Illinois,Moultrie,2021-04-04 11:46:35.509037,2021-02-16 00:00:00.000000,0.97902850,1.44078688,2.28995119,141,208,332,67,125,233,0.46495568,0.86478272,1.60779662,0.24095434,0.78026090,2.90582007
17139,0,USIllinoisMoultrie,Illinois,Moultrie,2021-04-04 11:46:35.509037,2021-02-17 00:00:00.000000,0.95356444,1.40296940,2.22041432,138,203,321,65,120,227,0.44891319,0.83147865,1.56610258,0.24100486,0.78990600,2.91456065
17139,0,USIllinoisMoultrie,Illinois,Moultrie,2021-04-04 11:46:35.509037,2021-02-18 00:00:00.000000,0.92942668,1.37109084,2.15331642,134,198,312,63,116,221,0.43453824,0.80620091,1.52594703,0.24101103,0.79688270,2.91250971
17139,0,USIllinoisMoultrie,Illinois,Moultrie,2021-04-04 11:46:35.509037,2021-02-19 00:00:00.000000,0.90257726,1.33931709,2.08857166,130,194,302,61,112,215,0.42145633,0.77895055,1.48725344,0.24094897,0.81957413,2.95073374
17139,0,USIllinoisMoultrie,Illinois,Moultrie,2021-04-04 11:46:35.509037,2021-02-20 00:00:00.000000,0.87232377,1.31250446,2.02610586,126,190,293,59,108,209,0.40940490,0.75022280,1.44435263,0.24068870,0.85136227,2.98390633
17139,0,USIllinoisMoultrie,Illinois,Moultrie,2021-04-04 11:46:35.509037,2021-02-21 00:00:00.000000,0.83445094,1.27439765,1.98545237,121,184,287,57,105,201,0.39819815,0.72747143,1.39125890,0.23984826,0.88317940,3.00808333
17139,0,USIllinoisMoultrie,Illinois,Moultrie,2021-04-04 11:46:35.509037,2021-02-22 00:00:00.000000,0.80809734,1.22357955,1.94476403,117,177,282,56,102,194,0.38770299,0.70437854,1.34142992,0.23795195,0.92157572,3.02274914
17139,0,USIllinoisMoultrie,Illinois,Moultrie,2021-04-04 11:46:35.509037,2021-02-23 00:00:00.000000,0.77136549,1.19371458,1.90459240,111,173,276,55,98,187,0.38477897,0.67918558,1.29434448,0.23578371,0.90449429,3.01930384
17139,0,USIllinoisMoultrie,Illinois,Moultrie,2021-04-04 11:46:35.509037,2021-02-24 00:00:00.000000,0.77069908,1.16391530,1.86490802,111,168,270,56,95,181,0.38724016,0.65566477,1.24993398,0.23492300,0.89139024,3.03985643
17139,0,USIllinoisMoultrie,Illinois,Moultrie,2021-04-04 11:46:35.509037,2021-02-25 00:00:00.000000,0.72581304,1.12732551,1.81447463,105,163,263,56,91,176,0.39266159,0.63300779,1.21446689,0.23557165,0.90684598,2.89566948
17139,0,USIllinoisMoultrie,Illinois,Moultrie,2021-04-04 11:46:35.509037,2021-02-26 00:00:00.000000,0.68276390,1.08930116,1.78624188,99,157,259,55,90,173,0.38048821,0.62191958,1.19653757,0.23760174,0.91692654,2.90406421
17139,0,USIllinoisMoultrie,Illinois,Moultrie,2021-04-04 11:46:35.509037,2021-02-27 00:00:00.000000,0.64184120,1.04799404,1.75094883,93,151,253,52,87,171,0.35999528,0.60210603,1.17965920,0.24109686,0.91222249,2.97263328
17139,0,USIllinoisMoultrie,Illinois,Moultrie,2021-04-04 11:46:35.509037,2021-02-28 00:00:00.000000,0.61147102,1.00956443,1.71447118,88,146,248,53,84,166,0.36640171,0.58539480,1.15026204,0.24570454,0.90967139,3.05195310
17139,0,USIllinoisMoultrie,Illinois,Moultrie,2021-04-04 11:46:35.509037,2021-03-01 00:00:00.000000,0.60409959,0.98376149,1.68390017,87,142,244,54,83,161,0.37632697,0.57518590,1.11301326,0.25022748,0.90872424,3.12645383
17139,0,USIllinoisMoultrie,Illinois,Moultrie,2021-04-04 11:46:35.509037,2021-03-02 00:00:00.000000,0.59876042,0.96481748,1.64467193,86,139,238,52,81,156,0.36232219,0.55911688,1.07689129,0.25336198,0.90929638,3.18301779
17139,0,USIllinoisMoultrie,Illinois,Moultrie,2021-04-04 11:46:35.509037,2021-03-03 00:00:00.000000,0.59528005,0.95313420,1.62568543,86,138,235,50,79,151,0.34912325,0.54699204,1.04176751,0.25466077,0.90214349,3.23874932
17139,0,USIllinoisMoultrie,Illinois,Moultrie,2021-04-04 11:46:35.509037,2021-03-04 00:00:00.000000,0.58936755,0.94213268,1.60749948,85,136,233,48,77,146,0.33665991,0.53695351,1.00753801,0.25458719,0.88541553,3.25429113
17139,0,USIllinoisMoultrie,Illinois,Moultrie,2021-04-04 11:46:35.509037,2021-03-05 00:00:00.000000,0.58728400,0.91805433,1.59412535,85,133,231,47,74,142,0.32487795,0.51651411,0.98052187,0.25335416,0.84860204,3.26716372
17139,0,USIllinoisMoultrie,Illinois,Moultrie,2021-04-04 11:46:35.509037,2021-03-06 00:00:00.000000,0.56205391,0.89371267,1.56303836,81,129,226,45,72,138,0.31373084,0.50198655,0.95775432,0.25140712,0.86034524,3.27395834
17139,0,USIllinoisMoultrie,Illinois,Moultrie,2021-04-04 11:46:35.509037,2021-03-07 00:00:00.000000,0.53853595,0.87950065,1.53340795,78,127,222,43,71,135,0.30317534,0.49116016,0.93555347,0.24912839,0.87448658,3.29508563
17139,0,USIllinoisMoultrie,Illinois,Moultrie,2021-04-04 11:46:35.509037,2021-03-08 00:00:00.000000,0.52150654,0.85540605,1.48335894,75,124,215,42,70,132,0.29317196,0.48482420,0.91538329,0.24688175,0.89447822,3.66335184
17139,0,USIllinoisMoultrie,Illinois,Moultrie,2021-04-04 11:46:35.509037,2021-03-09 00:00:00.000000,0.51266529,0.84275549,1.44992500,74,122,210,41,68,131,0.28721234,0.47516455,0.90824248,0.24507943,0.89757875,4.14662982
17139,0,USIllinoisMoultrie,Illinois,Moultrie,2021-04-04 11:46:35.509037,2021-03-10 00:00:00.000000,0.50725658,0.82811139,1.43801549,73,120,208,41,67,129,0.28758144,0.46605228,0.89405249,0.24443411,0.92124134,4.17493039
17139,0,USIllinoisMoultrie,Illinois,Moultrie,2021-04-04 11:46:35.509037,2021-03-11 00:00:00.000000,0.50256864,0.80756147,1.40478641,72,117,203,40,65,126,0.27962961,0.44890444,0.87478870,0.24634461,0.91490542,4.24457947
17139,0,USIllinoisMoultrie,Illinois,Moultrie,2021-04-04 11:46:35.509037,2021-03-12 00:00:00.000000,0.49839668,0.79884663,1.38107402,72,115,200,39,63,123,0.27280989,0.43993021,0.85142095,0.25121576,0.89057260,4.42507296
17139,0,USIllinoisMoultrie,Illinois,Moultrie,2021-04-04 11:46:35.509037,2021-03-13 00:00:00.000000,0.49109697,0.79487596,1.40639517,71,115,203,38,63,119,0.26678471,0.43563073,0.82750808,0.25538565,0.90787918,4.16050040
17139,0,USIllinoisMoultrie,Illinois,Moultrie,2021-04-04 11:46:35.509037,2021-03-14 00:00:00.000000,0.47600766,0.78177436,1.39478656,69,113,202,37,62,117,0.26033806,0.42859012,0.81278670,0.25694655,0.89339079,4.13824805
17139,0,USIllinoisMoultrie,Illinois,Moultrie,2021-04-04 11:46:35.509037,2021-03-15 00:00:00.000000,0.46833077,0.75805449,1.39638574,67,109,202,37,61,115,0.25527388,0.42467629,0.79876485,0.25721558,0.89554263,4.20360426
17139,0,USIllinoisMoultrie,Illinois,Moultrie,2021-04-04 11:46:35.509037,2021-03-16 00:00:00.000000,0.46150206,0.73594501,1.38142498,66,106,200,36,59,114,0.25074611,0.41315913,0.78770954,0.25714180,0.90188473,4.21832756
17139,0,USIllinoisMoultrie,Illinois,Moultrie,2021-04-04 11:46:35.509037,2021-03-17 00:00:00.000000,0.46972276,0.72325825,1.35813031,68,104,196,35,58,113,0.24784464,0.40405750,0.78191493,0.25702038,0.89536801,4.22958120
17139,0,USIllinoisMoultrie,Illinois,Moultrie,2021-04-04 11:46:35.509037,2021-03-18 00:00:00.000000,0.47830569,0.71015727,1.36177967,69,102,197,35,57,112,0.24621416,0.39522267,0.77719871,0.25690923,0.90261213,4.26560403
17139,0,USIllinoisMoultrie,Illinois,Moultrie,2021-04-04 11:46:35.509037,2021-03-19 00:00:00.000000,0.48698111,0.69837773,1.34869201,70,101,195,34,56,111,0.23958791,0.38637250,0.76666013,0.25679087,0.90230916,4.49895622
17139,0,USIllinoisMoultrie,Illinois,Moultrie,2021-04-04 11:46:35.509037,2021-03-20 00:00:00.000000,0.48554251,0.68385692,1.31852381,70,99,191,34,55,110,0.23616372,0.38130826,0.75865824,0.25658974,0.90262228,4.86764787
17139,0,USIllinoisMoultrie,Illinois,Moultrie,2021-04-04 11:46:35.509037,2021-03-21 00:00:00.000000,0.47378366,0.67174506,1.28951782,68,97,186,33,55,108,0.23377050,0.38046454,0.74765563,0.25610145,0.88604948,5.01683882
17139,0,USIllinoisMoultrie,Illinois,Moultrie,2021-04-04 11:46:35.509037,2021-03-22 00:00:00.000000,0.46262445,0.66322815,1.25133605,67,96,181,33,54,107,0.22960267,0.37822996,0.73987545,0.25487381,0.88148218,5.05855056
17139,0,USIllinoisMoultrie,Illinois,Moultrie,2021-04-04 11:46:35.509037,2021-03-23 00:00:00.000000,0.45196888,0.67115812,1.21454767,65,97,176,32,53,106,0.22679520,0.36891064,0.73324350,0.26535270,0.87205324,5.07639766
17139,0,USIllinoisMoultrie,Illinois,Moultrie,2021-04-04 11:46:35.509037,2021-03-24 00:00:00.000000,0.44136486,0.68176895,1.17907195,64,98,170,32,52,105,0.22440148,0.35871013,0.72474645,0.27126466,0.84677867,5.12901432
17139,0,USIllinoisMoultrie,Illinois,Moultrie,2021-04-04 11:46:35.509037,2021-03-25 00:00:00.000000,0.43083465,0.66503051,1.16627039,62,96,169,32,51,102,0.22124625,0.35409023,0.70486705,0.27162293,0.84048489,5.25738600
17139,0,USIllinoisMoultrie,Illinois,Moultrie,2021-04-04 11:46:35.509037,2021-03-26 00:00:00.000000,0.40481617,0.64239101,1.16731895,58,93,169,31,51,100,0.21441168,0.35735957,0.69507365,0.26923725,0.84899614,5.40766354
17139,0,USIllinoisMoultrie,Illinois,Moultrie,2021-04-04 11:46:35.509037,2021-03-27 00:00:00.000000,0.39523736,0.63065730,1.20200420,57,91,174,30,50,99,0.20788137,0.35052776,0.68372447,0.26662516,0.86228741,5.48257320
17139,0,USIllinoisMoultrie,Illinois,Moultrie,2021-04-04 11:46:35.509037,2021-03-28 00:00:00.000000,0.39085460,0.62043575,1.23620551,56,89,179,29,49,97,0.20178082,0.34407084,0.67120621,0.28015602,0.87832842,5.50480073
17139,0,USIllinoisMoultrie,Illinois,Moultrie,2021-04-04 11:46:35.509037,2021-03-29 00:00:00.000000,0.36908538,0.59678208,1.19803275,53,86,173,28,50,97,0.19575120,0.34664343,0.67435455,0.28713329,0.91052796,5.51028976
17139,0,USIllinoisMoultrie,Illinois,Moultrie,2021-04-04 11:46:35.509037,2021-03-30 00:00:00.000000,0.34796558,0.57250873,1.15098506,50,83,166,27,48,98,0.18860850,0.33486713,0.68098558,0.28931312,0.93373513,5.51157903
17139,0,USIllinoisMoultrie,Illinois,Moultrie,2021-04-04 11:46:35.509037,2021-03-31 00:00:00.000000,0.32749586,0.54720258,1.10314235,47,79,159,26,46,97,0.18086731,0.31780603,0.67234934,0.27760784,0.93594236,5.51186557
17139,0,USIllinoisMoultrie,Illinois,Moultrie,2021-04-04 11:46:35.509037,2021-04-01 00:00:00.000000,0.30781823,0.52228991,1.05189604,44,75,152,24,43,94,0.17158367,0.30247234,0.65093150,0.26482899,0.94182731,5.51189579
17139,0,USIllinoisMoultrie,Illinois,Moultrie,2021-04-04 11:46:35.509037,2021-04-02 00:00:00.000000,0.28901631,0.49712816,1.00179684,41,72,145,23,41,91,0.16379142,0.28854538,0.62955921,0.26251973,0.93067934,5.51222634
17139,0,USIllinoisMoultrie,Illinois,Moultrie,2021-04-04 11:46:35.509037,2021-04-03 00:00:00.000000,0.27251793,0.47048307,0.96391990,39,68,139,22,39,88,0.15597129,0.27467768,0.60842511,0.26239258,0.98420481,5.43576606
17139,0,USIllinoisMoultrie,Illinois,Moultrie,2021-04-04 11:46:35.509037,2021-04-04 00:00:00.000000,0.25448220,0.44598067,0.92477210,36,64,134,21,37,85,0.14819870,0.26182611,0.58765271,0.26014881,0.98406784,5.21243982
17139,0,USIllinoisMoultrie,Illinois,Moultrie,2021-04-04 11:46:35.509037,2021-04-05 00:00:00.000000,0.23735700,0.42630073,0.88000131,34,61,127,20,36,82,0.14057347,0.24959069,0.56739186,0.25161629,0.98293380,5.04678794
17139,0,USIllinoisMoultrie,Illinois,Moultrie,2021-04-04 11:46:35.509037,2021-04-06 00:00:00.000000,0.22121276,0.40921937,0.83557233,32,59,121,19,34,79,0.13316360,0.23873160,0.54774748,0.24974550,0.98269526,5.01292957
17139,0,USIllinoisMoultrie,Illinois,Moultrie,2021-04-04 11:46:35.509037,2021-04-07 00:00:00.000000,0.20612707,0.39235494,0.79233887,29,56,114,18,33,76,0.12601369,0.22968171,0.52880791,0.24940796,0.97543735,5.01802567
17139,0,USIllinoisMoultrie,Illinois,Moultrie,2021-04-04 11:46:35.509037,2021-04-08 00:00:00.000000,0.19195777,0.37482143,0.75900790,27,54,110,17,31,74,0.11915126,0.21942324,0.51064506,0.24934769,0.96900982,5.01923863
17139,0,USIllinoisMoultrie,Illinois,Moultrie,2021-04-04 11:46:35.509037,2021-04-09 00:00:00.000000,0.17867950,0.35803246,0.73292643,25,51,106,16,30,71,0.11226479,0.20945828,0.49330429,0.24933622,0.96480426,5.01952721
17139,0,USIllinoisMoultrie,Illinois,Moultrie,2021-04-04 11:46:35.509037,2021-04-10 00:00:00.000000,0.16625759,0.33984232,0.70762064,24,49,102,15,28,69,0.10422546,0.19985882,0.47673924,0.24933369,0.96213329,5.01959589
17139,0,USIllinoisMoultrie,Illinois,Moultrie,2021-04-04 11:46:35.509037,2021-04-11 00:00:00.000000,0.15447638,0.32277304,0.68308511,22,46,99,14,27,66,0.09670216,0.19069841,0.46085881,0.24933299,0.96462244,5.02656869
17139,0,USIllinoisMoultrie,Illinois,Moultrie,2021-04-04 11:46:35.509037,2021-04-12 00:00:00.000000,0.14324843,0.30684537,0.65931047,20,44,95,13,26,64,0.08967479,0.18258987,0.44559289,0.24933275,0.96961858,5.03153838
17139,0,USIllinoisMoultrie,Illinois,Moultrie,2021-04-04 11:46:35.509037,2021-04-13 00:00:00.000000,0.13311494,0.29410712,0.63628455,19,42,92,12,25,62,0.08312083,0.17478992,0.43088699,0.24933265,0.97271957,5.03334320
17139,0,USIllinoisMoultrie,Illinois,Moultrie,2021-04-04 11:46:35.509037,2021-04-14 00:00:00.000000,0.12368307,0.27938621,0.61399316,17,40,89,11,24,60,0.07758242,0.16729510,0.41669816,0.24933261,0.97457085,5.03399241
17139,0,USIllinoisMoultrie,Illinois,Moultrie,2021-04-04 11:46:35.509037,2021-04-15 00:00:00.000000,0.11490818,0.26363132,0.59242070,16,38,85,10,23,58,0.07300403,0.16058851,0.40299205,0.24933259,0.97565099,5.03422513
17139,0,USIllinoisMoultrie,Illinois,Moultrie,2021-04-04 11:46:35.509037,2021-04-16 00:00:00.000000,0.10662652,0.24656432,0.57155059,15,35,82,9,22,56,0.06869192,0.15377064,0.38974071,0.24933258,0.97627311,5.03430846
