FIPS,HR_UID,nameid,province,region,analysisTime,dates,pointprevalence_025,pointprevalence_50,pointprevalence_975,pointinfections_025,pointinfections_50,pointinfections_975,pointinfectious_025,pointinfectious_50,pointinfectious_975,pointinfectiousprevalence_05,pointinfectiousprevalence_50,pointinfectiousprevalence_95,infectrate_025,infectrate_50,infectrate_975
21005,0,USKentuckyAnderson,Kentucky,Anderson,2021-04-04 10:19:08.623722,2020-03-09 00:00:00.000000,0.00771781,0.02448013,0.06845421,1,5,15,0,2,7,0.00293902,0.01095891,0.03490725,0.34683260,0.48517550,0.67402454
21005,0,USKentuckyAnderson,Kentucky,Anderson,2021-04-04 10:19:08.623722,2020-03-10 00:00:00.000000,0.01022716,0.03045323,0.07910131,2,6,17,0,2,7,0.00308224,0.01132114,0.03489364,0.34678565,0.48516719,0.67398487
21005,0,USKentuckyAnderson,Kentucky,Anderson,2021-04-04 10:19:08.623722,2020-03-11 00:00:00.000000,0.01281901,0.03703130,0.09008931,2,8,20,0,2,8,0.00350009,0.01203727,0.03722314,0.34672512,0.48514886,0.67389986
21005,0,USKentuckyAnderson,Kentucky,Anderson,2021-04-04 10:19:08.623722,2020-03-12 00:00:00.000000,0.01552347,0.04578138,0.10819269,3,10,24,0,3,9,0.00418976,0.01341950,0.04106194,0.34664736,0.48510829,0.67371776
21005,0,USKentuckyAnderson,Kentucky,Anderson,2021-04-04 10:19:08.623722,2020-03-13 00:00:00.000000,0.01836403,0.05474864,0.12310952,4,12,28,1,3,10,0.00500916,0.01711622,0.04594909,0.34654781,0.48501836,0.67332815
21005,0,USKentuckyAnderson,Kentucky,Anderson,2021-04-04 10:19:08.623722,2020-03-14 00:00:00.000000,0.02136036,0.06185214,0.13636017,4,14,31,1,4,11,0.00594668,0.01935638,0.05159770,0.34642045,0.48481890,0.67249693
21005,0,USKentuckyAnderson,Kentucky,Anderson,2021-04-04 10:19:08.623722,2020-03-15 00:00:00.000000,0.02452999,0.06820222,0.15529999,5,15,35,1,4,13,0.00697171,0.02186854,0.05783010,0.34625377,0.48437753,0.67073431
21005,0,USKentuckyAnderson,Kentucky,Anderson,2021-04-04 10:19:08.623722,2020-03-16 00:00:00.000000,0.03418064,0.07945998,0.16637380,7,18,37,1,5,14,0.00806487,0.02538685,0.06453723,0.34599557,0.48340909,0.66704491
21005,0,USKentuckyAnderson,Kentucky,Anderson,2021-04-04 10:19:08.623722,2020-03-17 00:00:00.000000,0.04229466,0.08971484,0.17824436,9,20,40,2,6,16,0.01004842,0.02900468,0.07037755,0.34524531,0.47492752,0.65952915
21005,0,USKentuckyAnderson,Kentucky,Anderson,2021-04-04 10:19:08.623722,2020-03-18 00:00:00.000000,0.05072719,0.09842338,0.19266099,11,22,43,2,7,17,0.01313178,0.03214922,0.07763792,0.31848481,0.45045923,0.64503227
21005,0,USKentuckyAnderson,Kentucky,Anderson,2021-04-04 10:19:08.623722,2020-03-19 00:00:00.000000,0.05865670,0.10992281,0.21032123,13,25,47,3,8,18,0.01693586,0.03724566,0.08352432,0.27811242,0.44039576,0.61980099
21005,0,USKentuckyAnderson,Kentucky,Anderson,2021-04-04 10:19:08.623722,2020-03-20 00:00:00.000000,0.06344532,0.12125311,0.22735677,14,27,51,4,9,21,0.01948232,0.04200816,0.09361150,0.25160366,0.41768519,0.59390711
21005,0,USKentuckyAnderson,Kentucky,Anderson,2021-04-04 10:19:08.623722,2020-03-21 00:00:00.000000,0.07079096,0.13178147,0.24136075,16,29,54,5,10,23,0.02263758,0.04622934,0.10376645,0.24376807,0.39635846,0.55457182
21005,0,USKentuckyAnderson,Kentucky,Anderson,2021-04-04 10:19:08.623722,2020-03-22 00:00:00.000000,0.07498476,0.13991005,0.25288227,17,31,57,5,11,25,0.02623561,0.05097963,0.11366920,0.22620940,0.36500093,0.53479452
21005,0,USKentuckyAnderson,Kentucky,Anderson,2021-04-04 10:19:08.623722,2020-03-23 00:00:00.000000,0.08517788,0.14933105,0.26232112,19,33,59,6,12,27,0.02884621,0.05617278,0.12283593,0.21886965,0.34197381,0.50796897
21005,0,USKentuckyAnderson,Kentucky,Anderson,2021-04-04 10:19:08.623722,2020-03-24 00:00:00.000000,0.09451964,0.16190822,0.27142098,21,36,61,7,14,29,0.03139117,0.06200197,0.13071815,0.21006981,0.32405304,0.48161754
21005,0,USKentuckyAnderson,Kentucky,Anderson,2021-04-04 10:19:08.623722,2020-03-25 00:00:00.000000,0.09999300,0.17390403,0.29291564,22,39,66,7,15,31,0.03408336,0.06710771,0.13818909,0.20238311,0.31210777,0.46479259
21005,0,USKentuckyAnderson,Kentucky,Anderson,2021-04-04 10:19:08.623722,2020-03-26 00:00:00.000000,0.10965419,0.18405357,0.29965527,24,41,68,8,16,33,0.03716371,0.07227359,0.14539109,0.19591848,0.29173345,0.45184538
21005,0,USKentuckyAnderson,Kentucky,Anderson,2021-04-04 10:19:08.623722,2020-03-27 00:00:00.000000,0.11439972,0.19154686,0.30611888,26,43,69,9,17,35,0.03971275,0.07681260,0.15715715,0.17398003,0.28508919,0.42099472
21005,0,USKentuckyAnderson,Kentucky,Anderson,2021-04-04 10:19:08.623722,2020-03-28 00:00:00.000000,0.11613579,0.19911881,0.31750086,26,45,72,9,18,37,0.04255641,0.08195514,0.16530796,0.15807791,0.26887930,0.40266653
21005,0,USKentuckyAnderson,Kentucky,Anderson,2021-04-04 10:19:08.623722,2020-03-29 00:00:00.000000,0.11770952,0.20924201,0.33118683,26,47,75,10,19,39,0.04540174,0.08683473,0.17203351,0.15748439,0.25099002,0.36854947
21005,0,USKentuckyAnderson,Kentucky,Anderson,2021-04-04 10:19:08.623722,2020-03-30 00:00:00.000000,0.12167017,0.21581157,0.34095742,27,49,77,10,20,40,0.04696658,0.09063973,0.17773423,0.14745553,0.24258386,0.35985383
21005,0,USKentuckyAnderson,Kentucky,Anderson,2021-04-04 10:19:08.623722,2020-03-31 00:00:00.000000,0.12553858,0.22237361,0.35024452,28,50,79,11,21,41,0.04861908,0.09640847,0.18077109,0.14531800,0.23205057,0.35337061
21005,0,USKentuckyAnderson,Kentucky,Anderson,2021-04-04 10:19:08.623722,2020-04-01 00:00:00.000000,0.12956539,0.22939077,0.35810931,29,52,81,11,23,41,0.05048256,0.10209714,0.18196214,0.14239583,0.22720819,0.34231012
21005,0,USKentuckyAnderson,Kentucky,Anderson,2021-04-04 10:19:08.623722,2020-04-02 00:00:00.000000,0.13359941,0.23343900,0.36186128,30,53,82,11,24,42,0.05249748,0.10679650,0.18675816,0.14084376,0.22580798,0.33847015
21005,0,USKentuckyAnderson,Kentucky,Anderson,2021-04-04 10:19:08.623722,2020-04-03 00:00:00.000000,0.13920508,0.24040483,0.37330953,31,54,84,12,25,43,0.05461987,0.11147535,0.19263795,0.12241712,0.21654390,0.33193459
21005,0,USKentuckyAnderson,Kentucky,Anderson,2021-04-04 10:19:08.623722,2020-04-04 00:00:00.000000,0.14137886,0.24581675,0.38290386,32,55,87,12,26,44,0.05681742,0.11616588,0.19776963,0.10826067,0.21019016,0.32502251
21005,0,USKentuckyAnderson,Kentucky,Anderson,2021-04-04 10:19:08.623722,2020-04-05 00:00:00.000000,0.14278764,0.24979384,0.39201924,32,56,89,13,27,46,0.05906715,0.12070807,0.20237638,0.10641352,0.20312773,0.31798941
21005,0,USKentuckyAnderson,Kentucky,Anderson,2021-04-04 10:19:08.623722,2020-04-06 00:00:00.000000,0.14679286,0.25544029,0.40594036,33,58,92,13,28,46,0.06135554,0.12368271,0.20643049,0.10398192,0.19494444,0.30984802
21005,0,USKentuckyAnderson,Kentucky,Anderson,2021-04-04 10:19:08.623722,2020-04-07 00:00:00.000000,0.15089081,0.25837498,0.42063300,34,58,95,14,29,47,0.06358843,0.12817266,0.21016366,0.10370182,0.19005959,0.30338428
21005,0,USKentuckyAnderson,Kentucky,Anderson,2021-04-04 10:19:08.623722,2020-04-08 00:00:00.000000,0.15470606,0.26703331,0.43528444,35,60,99,14,29,50,0.06491939,0.12837353,0.22045065,0.10319085,0.18586101,0.29671565
21005,0,USKentuckyAnderson,Kentucky,Anderson,2021-04-04 10:19:08.623722,2020-04-09 00:00:00.000000,0.15831182,0.27226804,0.45004486,36,61,102,14,29,49,0.06513320,0.13083642,0.21937542,0.10191537,0.17636158,0.28985632
21005,0,USKentuckyAnderson,Kentucky,Anderson,2021-04-04 10:19:08.623722,2020-04-10 00:00:00.000000,0.16176934,0.27235165,0.46906996,36,61,106,14,30,51,0.06540480,0.13197138,0.22629051,0.10142313,0.17263211,0.28124042
21005,0,USKentuckyAnderson,Kentucky,Anderson,2021-04-04 10:19:08.623722,2020-04-11 00:00:00.000000,0.16256733,0.27215214,0.48501953,36,61,110,14,30,52,0.06568519,0.13243509,0.23234256,0.09837213,0.16482193,0.26917051
21005,0,USKentuckyAnderson,Kentucky,Anderson,2021-04-04 10:19:08.623722,2020-04-12 00:00:00.000000,0.16270975,0.27736451,0.49445459,37,63,112,14,30,54,0.06593803,0.13374846,0.24041317,0.09690658,0.16204097,0.26323113
21005,0,USKentuckyAnderson,Kentucky,Anderson,2021-04-04 10:19:08.623722,2020-04-13 00:00:00.000000,0.15780688,0.27981386,0.51257173,35,63,116,15,30,56,0.06612981,0.13344275,0.24811441,0.08648393,0.15704996,0.25788155
21005,0,USKentuckyAnderson,Kentucky,Anderson,2021-04-04 10:19:08.623722,2020-04-14 00:00:00.000000,0.15270397,0.27831293,0.52966191,34,63,120,14,30,58,0.06547397,0.13549796,0.25521339,0.07982190,0.15521044,0.25615509
21005,0,USKentuckyAnderson,Kentucky,Anderson,2021-04-04 10:19:08.623722,2020-04-15 00:00:00.000000,0.14743045,0.27588069,0.54528764,33,62,124,14,31,59,0.06511341,0.13641945,0.26169646,0.08091798,0.15304884,0.25383959
21005,0,USKentuckyAnderson,Kentucky,Anderson,2021-04-04 10:19:08.623722,2020-04-16 00:00:00.000000,0.14215664,0.27549457,0.55904062,32,62,127,14,31,60,0.06570282,0.13699103,0.26757502,0.07956461,0.15046631,0.24916328
21005,0,USKentuckyAnderson,Kentucky,Anderson,2021-04-04 10:19:08.623722,2020-04-17 00:00:00.000000,0.13698634,0.27460015,0.57133818,31,62,129,15,31,62,0.06614877,0.13786297,0.27287701,0.07582931,0.14757285,0.24101756
21005,0,USKentuckyAnderson,Kentucky,Anderson,2021-04-04 10:19:08.623722,2020-04-18 00:00:00.000000,0.13570875,0.27400632,0.58287422,30,62,132,15,31,63,0.06643564,0.13852799,0.27764283,0.07405783,0.14423902,0.24452500
21005,0,USKentuckyAnderson,Kentucky,Anderson,2021-04-04 10:19:08.623722,2020-04-19 00:00:00.000000,0.13551342,0.27241283,0.59395863,30,61,135,15,31,64,0.06654923,0.13720782,0.28192886,0.07356258,0.14178793,0.23941783
21005,0,USKentuckyAnderson,Kentucky,Anderson,2021-04-04 10:19:08.623722,2020-04-20 00:00:00.000000,0.13977220,0.27422170,0.58943018,31,62,134,15,31,65,0.06648179,0.13897116,0.28580371,0.07284887,0.14144685,0.20771022
21005,0,USKentuckyAnderson,Kentucky,Anderson,2021-04-04 10:19:08.623722,2020-04-21 00:00:00.000000,0.15131967,0.27505473,0.58464554,34,62,132,15,31,65,0.06648799,0.13928961,0.28935647,0.07267926,0.13922948,0.21551222
21005,0,USKentuckyAnderson,Kentucky,Anderson,2021-04-04 10:19:08.623722,2020-04-22 00:00:00.000000,0.15101378,0.27167327,0.57927517,34,61,131,15,31,66,0.06652408,0.13902137,0.29264450,0.07268579,0.13734529,0.22061141
21005,0,USKentuckyAnderson,Kentucky,Anderson,2021-04-04 10:19:08.623722,2020-04-23 00:00:00.000000,0.15234287,0.26917801,0.57329990,34,61,130,15,31,67,0.06656998,0.13858664,0.29571407,0.07287216,0.13582979,0.22097651
21005,0,USKentuckyAnderson,Kentucky,Anderson,2021-04-04 10:19:08.623722,2020-04-24 00:00:00.000000,0.15035299,0.26782093,0.56680942,34,60,128,15,31,67,0.06667403,0.13869231,0.29859744,0.07310803,0.13509633,0.20958493
21005,0,USKentuckyAnderson,Kentucky,Anderson,2021-04-04 10:19:08.623722,2020-04-25 00:00:00.000000,0.14998670,0.26833204,0.56043732,34,61,127,16,31,68,0.07114130,0.13693241,0.30130524,0.07354137,0.13539973,0.19878415
21005,0,USKentuckyAnderson,Kentucky,Anderson,2021-04-04 10:19:08.623722,2020-04-26 00:00:00.000000,0.14967400,0.26990637,0.56184860,34,61,127,16,31,69,0.07184978,0.13686805,0.30379420,0.07557362,0.13398022,0.19771330
21005,0,USKentuckyAnderson,Kentucky,Anderson,2021-04-04 10:19:08.623722,2020-04-27 00:00:00.000000,0.16978389,0.26813068,0.56139077,38,60,127,16,30,69,0.07144850,0.13617228,0.30590612,0.07104567,0.13325043,0.19640077
21005,0,USKentuckyAnderson,Kentucky,Anderson,2021-04-04 10:19:08.623722,2020-04-28 00:00:00.000000,0.17289816,0.27019851,0.55997612,39,61,127,16,30,69,0.07138461,0.13597988,0.30747679,0.07154300,0.13384173,0.19536640
21005,0,USKentuckyAnderson,Kentucky,Anderson,2021-04-04 10:19:08.623722,2020-04-29 00:00:00.000000,0.17515010,0.27067680,0.55792472,39,61,126,16,30,70,0.07155831,0.13461428,0.30850681,0.07180402,0.13261037,0.19439486
21005,0,USKentuckyAnderson,Kentucky,Anderson,2021-04-04 10:19:08.623722,2020-04-30 00:00:00.000000,0.17448103,0.27203220,0.55521571,39,61,126,16,30,70,0.07189452,0.13391012,0.30904392,0.07381639,0.13184400,0.19314788
21005,0,USKentuckyAnderson,Kentucky,Anderson,2021-04-04 10:19:08.623722,2020-05-01 00:00:00.000000,0.17203495,0.26813791,0.55175914,39,60,125,16,30,70,0.07233774,0.13413836,0.30912151,0.07221367,0.13235056,0.19054888
21005,0,USKentuckyAnderson,Kentucky,Anderson,2021-04-04 10:19:08.623722,2020-05-02 00:00:00.000000,0.16971053,0.26895329,0.55189151,38,61,125,16,30,70,0.07284777,0.13375029,0.30875151,0.07246907,0.13305447,0.19133032
21005,0,USKentuckyAnderson,Kentucky,Anderson,2021-04-04 10:19:08.623722,2020-05-03 00:00:00.000000,0.16746515,0.26958125,0.55567658,38,61,126,16,30,70,0.07339657,0.13391425,0.30793431,0.07242707,0.13451601,0.19527991
21005,0,USKentuckyAnderson,Kentucky,Anderson,2021-04-04 10:19:08.623722,2020-05-04 00:00:00.000000,0.16719953,0.26658360,0.55789315,38,60,126,16,30,69,0.07396795,0.13363488,0.30659835,0.07245958,0.13527726,0.19739125
21005,0,USKentuckyAnderson,Kentucky,Anderson,2021-04-04 10:19:08.623722,2020-05-05 00:00:00.000000,0.16607523,0.26651183,0.55994075,37,60,127,16,30,69,0.07372447,0.13296974,0.30551489,0.07255182,0.13565837,0.19413230
21005,0,USKentuckyAnderson,Kentucky,Anderson,2021-04-04 10:19:08.623722,2020-05-06 00:00:00.000000,0.16225744,0.27259601,0.56193739,36,62,127,16,30,69,0.07294415,0.13412745,0.30465255,0.07276261,0.13560850,0.19867845
21005,0,USKentuckyAnderson,Kentucky,Anderson,2021-04-04 10:19:08.623722,2020-05-07 00:00:00.000000,0.15896408,0.27426801,0.56414106,36,62,128,16,30,69,0.07181807,0.13597761,0.30390946,0.07320586,0.13432345,0.19696281
21005,0,USKentuckyAnderson,Kentucky,Anderson,2021-04-04 10:19:08.623722,2020-05-08 00:00:00.000000,0.15472618,0.27447773,0.56696864,35,62,128,16,31,68,0.07048020,0.13746394,0.30322510,0.07305678,0.13288655,0.18900309
21005,0,USKentuckyAnderson,Kentucky,Anderson,2021-04-04 10:19:08.623722,2020-05-09 00:00:00.000000,0.14970857,0.27501992,0.57070002,34,62,129,15,31,69,0.06902351,0.13828495,0.30603776,0.07324444,0.13052037,0.18444034
21005,0,USKentuckyAnderson,Kentucky,Anderson,2021-04-04 10:19:08.623722,2020-05-10 00:00:00.000000,0.14390669,0.27303798,0.57688071,32,62,131,15,30,70,0.06751236,0.13572235,0.30926351,0.07531794,0.13120364,0.18901387
21005,0,USKentuckyAnderson,Kentucky,Anderson,2021-04-04 10:19:08.623722,2020-05-11 00:00:00.000000,0.14733162,0.27124789,0.57958508,33,61,131,15,30,70,0.06599165,0.13278837,0.31211926,0.07334772,0.12668366,0.18901602
21005,0,USKentuckyAnderson,Kentucky,Anderson,2021-04-04 10:19:08.623722,2020-05-12 00:00:00.000000,0.15142656,0.26774262,0.58411184,34,60,132,15,30,72,0.06601889,0.13321191,0.31828490,0.07285348,0.12832952,0.19302797
21005,0,USKentuckyAnderson,Kentucky,Anderson,2021-04-04 10:19:08.623722,2020-05-13 00:00:00.000000,0.15136533,0.26610004,0.58688540,34,60,133,15,30,74,0.06690067,0.13394453,0.32681805,0.07298707,0.12990204,0.19405825
21005,0,USKentuckyAnderson,Kentucky,Anderson,2021-04-04 10:19:08.623722,2020-05-14 00:00:00.000000,0.14749916,0.27000066,0.58832199,33,61,133,15,30,76,0.06743457,0.13310282,0.33699200,0.07362808,0.12696190,0.19342680
21005,0,USKentuckyAnderson,Kentucky,Anderson,2021-04-04 10:19:08.623722,2020-05-15 00:00:00.000000,0.14372961,0.26687147,0.58837601,32,60,133,15,30,79,0.07031068,0.13251639,0.34816001,0.07474324,0.12316717,0.19165504
21005,0,USKentuckyAnderson,Kentucky,Anderson,2021-04-04 10:19:08.623722,2020-05-16 00:00:00.000000,0.14381062,0.26473858,0.59001680,32,60,134,16,30,78,0.07172584,0.13207093,0.34481077,0.07443469,0.12154033,0.18879257
21005,0,USKentuckyAnderson,Kentucky,Anderson,2021-04-04 10:19:08.623722,2020-05-17 00:00:00.000000,0.14650002,0.26138136,0.61628218,33,59,140,16,30,77,0.07256389,0.13390003,0.34016750,0.07468362,0.12118154,0.18646804
21005,0,USKentuckyAnderson,Kentucky,Anderson,2021-04-04 10:19:08.623722,2020-05-18 00:00:00.000000,0.14322105,0.26324249,0.61515549,32,59,139,16,30,76,0.07208098,0.13610786,0.33553944,0.07468326,0.12156669,0.18544792
21005,0,USKentuckyAnderson,Kentucky,Anderson,2021-04-04 10:19:08.623722,2020-05-19 00:00:00.000000,0.13795862,0.26318709,0.61511064,31,59,139,16,30,75,0.07081733,0.13603966,0.33071998,0.07477494,0.12247264,0.18487086
21005,0,USKentuckyAnderson,Kentucky,Anderson,2021-04-04 10:19:08.623722,2020-05-20 00:00:00.000000,0.13793342,0.26497022,0.61635029,31,60,140,15,30,74,0.06905979,0.13507535,0.32571413,0.07381335,0.12238028,0.18413379
21005,0,USKentuckyAnderson,Kentucky,Anderson,2021-04-04 10:19:08.623722,2020-05-21 00:00:00.000000,0.13868853,0.26689502,0.61829092,31,60,140,15,30,72,0.06699524,0.13346707,0.32051333,0.07344354,0.12292030,0.18608929
21005,0,USKentuckyAnderson,Kentucky,Anderson,2021-04-04 10:19:08.623722,2020-05-22 00:00:00.000000,0.13810050,0.27222117,0.63514075,31,61,144,14,30,72,0.06545868,0.13539229,0.31876402,0.07328083,0.12463544,0.18618968
21005,0,USKentuckyAnderson,Kentucky,Anderson,2021-04-04 10:19:08.623722,2020-05-23 00:00:00.000000,0.13219127,0.26922131,0.64991052,30,61,147,15,30,74,0.06599999,0.13623637,0.32749020,0.07323351,0.12339620,0.18621374
21005,0,USKentuckyAnderson,Kentucky,Anderson,2021-04-04 10:19:08.623722,2020-05-24 00:00:00.000000,0.12650735,0.27073498,0.64259799,28,61,146,15,31,76,0.06666306,0.13669448,0.33713615,0.07336429,0.12039615,0.18622046
21005,0,USKentuckyAnderson,Kentucky,Anderson,2021-04-04 10:19:08.623722,2020-05-25 00:00:00.000000,0.13283993,0.27233105,0.63278571,30,61,143,14,31,79,0.06455657,0.13666548,0.34754208,0.07357426,0.12072369,0.18591829
21005,0,USKentuckyAnderson,Kentucky,Anderson,2021-04-04 10:19:08.623722,2020-05-26 00:00:00.000000,0.13939077,0.27036212,0.64001975,31,61,145,14,31,80,0.06442238,0.13667120,0.35534011,0.07376304,0.12046100,0.18687753
21005,0,USKentuckyAnderson,Kentucky,Anderson,2021-04-04 10:19:08.623722,2020-05-27 00:00:00.000000,0.14622444,0.27219555,0.64723672,33,61,147,14,31,82,0.06572669,0.13771308,0.36115574,0.07436855,0.11975123,0.18833286
21005,0,USKentuckyAnderson,Kentucky,Anderson,2021-04-04 10:19:08.623722,2020-05-28 00:00:00.000000,0.15293173,0.28292385,0.65442199,34,64,148,15,31,83,0.06795703,0.13774527,0.36511510,0.07460531,0.12029405,0.18895044
21005,0,USKentuckyAnderson,Kentucky,Anderson,2021-04-04 10:19:08.623722,2020-05-29 00:00:00.000000,0.15196924,0.29639226,0.66151766,34,67,150,16,32,81,0.07053162,0.14092834,0.35979378,0.07446700,0.12047884,0.18904558
21005,0,USKentuckyAnderson,Kentucky,Anderson,2021-04-04 10:19:08.623722,2020-05-30 00:00:00.000000,0.14863156,0.29406693,0.66824675,33,66,152,16,32,80,0.07347602,0.14393069,0.35432912,0.07560132,0.12247197,0.18891137
21005,0,USKentuckyAnderson,Kentucky,Anderson,2021-04-04 10:19:08.623722,2020-05-31 00:00:00.000000,0.15311550,0.29713276,0.67355319,34,67,153,16,33,79,0.07410275,0.14533558,0.34876047,0.07685068,0.12629518,0.18932638
21005,0,USKentuckyAnderson,Kentucky,Anderson,2021-04-04 10:19:08.623722,2020-06-01 00:00:00.000000,0.15537739,0.29630679,0.67025248,35,67,152,16,33,78,0.07304306,0.14612596,0.34307487,0.07914017,0.12831046,0.19506552
21005,0,USKentuckyAnderson,Kentucky,Anderson,2021-04-04 10:19:08.623722,2020-06-02 00:00:00.000000,0.15735614,0.29552907,0.66313451,35,67,150,16,33,76,0.07221009,0.14728445,0.33847973,0.08047716,0.13089272,0.20580188
21005,0,USKentuckyAnderson,Kentucky,Anderson,2021-04-04 10:19:08.623722,2020-06-03 00:00:00.000000,0.15842108,0.29394146,0.65596496,36,66,149,16,33,76,0.07155048,0.14746394,0.33469641,0.07992667,0.13236327,0.20743284
21005,0,USKentuckyAnderson,Kentucky,Anderson,2021-04-04 10:19:08.623722,2020-06-04 00:00:00.000000,0.15927698,0.29026852,0.64900940,36,66,147,16,33,75,0.07102384,0.14641584,0.33153677,0.07890233,0.13157466,0.20799592
21005,0,USKentuckyAnderson,Kentucky,Anderson,2021-04-04 10:19:08.623722,2020-06-05 00:00:00.000000,0.15699788,0.28705307,0.64222330,35,65,146,16,32,75,0.07059954,0.14412324,0.33046848,0.07864756,0.13471191,0.20851872
21005,0,USKentuckyAnderson,Kentucky,Anderson,2021-04-04 10:19:08.623722,2020-06-06 00:00:00.000000,0.15481489,0.28348889,0.63554449,35,64,144,15,32,75,0.07025450,0.14273842,0.33223007,0.07560675,0.13539494,0.21052792
21005,0,USKentuckyAnderson,Kentucky,Anderson,2021-04-04 10:19:08.623722,2020-06-07 00:00:00.000000,0.15084439,0.28318083,0.62895040,34,64,143,15,32,75,0.06997177,0.14415878,0.33377836,0.07379303,0.13396957,0.22551737
21005,0,USKentuckyAnderson,Kentucky,Anderson,2021-04-04 10:19:08.623722,2020-06-08 00:00:00.000000,0.15040329,0.28561655,0.62777228,34,64,142,15,32,76,0.06940106,0.14394040,0.33519006,0.07373051,0.13524524,0.26440875
21005,0,USKentuckyAnderson,Kentucky,Anderson,2021-04-04 10:19:08.623722,2020-06-09 00:00:00.000000,0.15038626,0.29281067,0.62668429,34,66,142,15,32,76,0.06830023,0.14427946,0.33638045,0.07472463,0.13848977,0.26531148
21005,0,USKentuckyAnderson,Kentucky,Anderson,2021-04-04 10:19:08.623722,2020-06-10 00:00:00.000000,0.14624715,0.29496088,0.62574377,33,67,142,15,32,76,0.06721138,0.14389898,0.33742185,0.07724710,0.14023472,0.26574929
21005,0,USKentuckyAnderson,Kentucky,Anderson,2021-04-04 10:19:08.623722,2020-06-11 00:00:00.000000,0.14093323,0.29983569,0.62492322,32,68,142,15,32,76,0.06665247,0.14443157,0.33837838,0.07983097,0.14015322,0.26600260
21005,0,USKentuckyAnderson,Kentucky,Anderson,2021-04-04 10:19:08.623722,2020-06-12 00:00:00.000000,0.13586917,0.30090789,0.62029005,30,68,141,14,33,77,0.06527466,0.14519135,0.33931332,0.08095860,0.14014787,0.26623181
21005,0,USKentuckyAnderson,Kentucky,Anderson,2021-04-04 10:19:08.623722,2020-06-13 00:00:00.000000,0.13113971,0.30390957,0.61452192,29,69,139,14,33,77,0.06377705,0.14610549,0.34028292,0.08134840,0.14001915,0.26647058
21005,0,USKentuckyAnderson,Kentucky,Anderson,2021-04-04 10:19:08.623722,2020-06-14 00:00:00.000000,0.12994103,0.30282394,0.60880290,29,68,138,14,33,77,0.06569153,0.14654826,0.34132189,0.08182341,0.13951729,0.26651906
21005,0,USKentuckyAnderson,Kentucky,Anderson,2021-04-04 10:19:08.623722,2020-06-15 00:00:00.000000,0.13258067,0.30558315,0.61892948,30,69,140,14,33,77,0.06390171,0.14683389,0.34243939,0.08361877,0.13907773,0.26611351
21005,0,USKentuckyAnderson,Kentucky,Anderson,2021-04-04 10:19:08.623722,2020-06-16 00:00:00.000000,0.13876978,0.30284232,0.61561499,31,68,140,14,33,78,0.06309299,0.14926477,0.34424512,0.08392373,0.14142215,0.26508384
21005,0,USKentuckyAnderson,Kentucky,Anderson,2021-04-04 10:19:08.623722,2020-06-17 00:00:00.000000,0.14064417,0.31258636,0.61385133,31,71,139,14,34,78,0.06299521,0.15102271,0.34622227,0.08325818,0.14266747,0.26748016
21005,0,USKentuckyAnderson,Kentucky,Anderson,2021-04-04 10:19:08.623722,2020-06-18 00:00:00.000000,0.13977499,0.31235259,0.61353732,31,71,139,14,34,78,0.06343572,0.15083642,0.34490030,0.08292227,0.14678960,0.27979919
21005,0,USKentuckyAnderson,Kentucky,Anderson,2021-04-04 10:19:08.623722,2020-06-19 00:00:00.000000,0.13899807,0.32313417,0.61406533,31,73,139,14,34,78,0.06429061,0.15211643,0.34381830,0.08534459,0.15190247,0.28745743
21005,0,USKentuckyAnderson,Kentucky,Anderson,2021-04-04 10:19:08.623722,2020-06-20 00:00:00.000000,0.13827105,0.32399265,0.61465198,31,73,139,14,35,78,0.06543451,0.15594153,0.34304643,0.08510672,0.15550921,0.29560732
21005,0,USKentuckyAnderson,Kentucky,Anderson,2021-04-04 10:19:08.623722,2020-06-21 00:00:00.000000,0.13756256,0.33079497,0.63644031,31,75,144,15,35,78,0.06676703,0.15472615,0.34316920,0.08509383,0.15791849,0.30552158
21005,0,USKentuckyAnderson,Kentucky,Anderson,2021-04-04 10:19:08.623722,2020-06-22 00:00:00.000000,0.14184196,0.33666519,0.64856840,32,76,147,15,35,78,0.06821512,0.15684001,0.34432196,0.08542066,0.15921645,0.31645153
21005,0,USKentuckyAnderson,Kentucky,Anderson,2021-04-04 10:19:08.623722,2020-06-23 00:00:00.000000,0.14623876,0.34725744,0.67477396,33,78,153,16,36,78,0.07149310,0.15836452,0.34630488,0.08785879,0.16061073,0.32620836
21005,0,USKentuckyAnderson,Kentucky,Anderson,2021-04-04 10:19:08.623722,2020-06-24 00:00:00.000000,0.15106165,0.35613234,0.68599594,34,81,156,16,36,79,0.07316402,0.15893475,0.34889268,0.08820288,0.16490365,0.33196936
21005,0,USKentuckyAnderson,Kentucky,Anderson,2021-04-04 10:19:08.623722,2020-06-25 00:00:00.000000,0.15603845,0.36736632,0.69659681,35,83,158,16,38,80,0.07351291,0.16789775,0.35173703,0.09084607,0.16428641,0.33282514
21005,0,USKentuckyAnderson,Kentucky,Anderson,2021-04-04 10:19:08.623722,2020-06-26 00:00:00.000000,0.16101581,0.38202516,0.72102340,36,86,164,17,38,81,0.07505935,0.17047740,0.35740841,0.09951264,0.16818773,0.33145185
21005,0,USKentuckyAnderson,Kentucky,Anderson,2021-04-04 10:19:08.623722,2020-06-27 00:00:00.000000,0.16597170,0.39249112,0.74584930,37,89,169,17,39,83,0.07686233,0.17202263,0.36545664,0.10954163,0.16629037,0.33114139
21005,0,USKentuckyAnderson,Kentucky,Anderson,2021-04-04 10:19:08.623722,2020-06-28 00:00:00.000000,0.16990014,0.40145022,0.74721417,38,91,169,17,39,83,0.07885081,0.17483272,0.36566443,0.11379022,0.17116250,0.33180484
21005,0,USKentuckyAnderson,Kentucky,Anderson,2021-04-04 10:19:08.623722,2020-06-29 00:00:00.000000,0.16963217,0.40031542,0.74391505,38,91,169,17,41,83,0.07893485,0.18085605,0.36624648,0.11155436,0.17170480,0.33246314
21005,0,USKentuckyAnderson,Kentucky,Anderson,2021-04-04 10:19:08.623722,2020-06-30 00:00:00.000000,0.16945671,0.41366639,0.74100643,38,94,168,17,42,84,0.07650782,0.18738730,0.36948097,0.11568618,0.17095966,0.33520290
21005,0,USKentuckyAnderson,Kentucky,Anderson,2021-04-04 10:19:08.623722,2020-07-01 00:00:00.000000,0.16146394,0.42136971,0.73843074,36,95,167,16,43,84,0.07369460,0.19158406,0.37227338,0.11671385,0.17377484,0.33951049
21005,0,USKentuckyAnderson,Kentucky,Anderson,2021-04-04 10:19:08.623722,2020-07-02 00:00:00.000000,0.15348642,0.42600320,0.75066096,34,96,170,16,44,85,0.07067571,0.19395271,0.37505556,0.11576268,0.17789534,0.34625282
21005,0,USKentuckyAnderson,Kentucky,Anderson,2021-04-04 10:19:08.623722,2020-07-03 00:00:00.000000,0.14575810,0.43501076,0.76546190,33,98,174,15,45,86,0.06826997,0.19850296,0.37816001,0.11534283,0.18309146,0.34658165
21005,0,USKentuckyAnderson,Kentucky,Anderson,2021-04-04 10:19:08.623722,2020-07-04 00:00:00.000000,0.13835472,0.44987372,0.78070599,31,102,177,15,45,86,0.06925561,0.19946718,0.38180903,0.12230080,0.18687980,0.34526689
21005,0,USKentuckyAnderson,Kentucky,Anderson,2021-04-04 10:19:08.623722,2020-07-05 00:00:00.000000,0.13133341,0.45571634,0.79660329,29,103,181,15,46,87,0.07031987,0.20340753,0.38616113,0.12148446,0.19447241,0.34390472
21005,0,USKentuckyAnderson,Kentucky,Anderson,2021-04-04 10:19:08.623722,2020-07-06 00:00:00.000000,0.14124357,0.46072255,0.80762262,32,104,183,16,47,89,0.07142280,0.20825831,0.39140668,0.12117201,0.19662753,0.35340629
21005,0,USKentuckyAnderson,Kentucky,Anderson,2021-04-04 10:19:08.623722,2020-07-07 00:00:00.000000,0.15474435,0.47738604,0.82342840,35,108,187,17,49,91,0.07525120,0.21722376,0.40005619,0.12108873,0.20340882,0.35831170
21005,0,USKentuckyAnderson,Kentucky,Anderson,2021-04-04 10:19:08.623722,2020-07-08 00:00:00.000000,0.16793058,0.48863573,0.86583851,38,111,196,18,50,93,0.08046756,0.22357420,0.41131867,0.12121130,0.21064438,0.37184379
21005,0,USKentuckyAnderson,Kentucky,Anderson,2021-04-04 10:19:08.623722,2020-07-09 00:00:00.000000,0.16895949,0.51751929,0.88295474,38,117,200,18,51,95,0.08029423,0.22847503,0.42157505,0.12190677,0.21406222,0.37853863
21005,0,USKentuckyAnderson,Kentucky,Anderson,2021-04-04 10:19:08.623722,2020-07-10 00:00:00.000000,0.17865842,0.54258503,0.92038380,40,123,209,18,53,98,0.08013463,0.23548988,0.43109319,0.12469520,0.22229024,0.38613762
21005,0,USKentuckyAnderson,Kentucky,Anderson,2021-04-04 10:19:08.623722,2020-07-11 00:00:00.000000,0.18872469,0.55580454,0.95913399,42,126,218,18,54,100,0.07998997,0.23952900,0.44374693,0.11839697,0.22565889,0.38663712
21005,0,USKentuckyAnderson,Kentucky,Anderson,2021-04-04 10:19:08.623722,2020-07-12 00:00:00.000000,0.19919746,0.58897037,0.99941402,45,133,227,18,55,102,0.07986603,0.24219067,0.44950859,0.13038759,0.22433980,0.38197102
21005,0,USKentuckyAnderson,Kentucky,Anderson,2021-04-04 10:19:08.623722,2020-07-13 00:00:00.000000,0.23345324,0.59387694,1.02357930,53,135,232,18,57,104,0.07977567,0.25116691,0.45871823,0.13339941,0.22390745,0.37926814
21005,0,USKentuckyAnderson,Kentucky,Anderson,2021-04-04 10:19:08.623722,2020-07-14 00:00:00.000000,0.27094814,0.59889274,1.04330606,61,136,237,19,58,106,0.08562030,0.25763257,0.46748883,0.13328397,0.22594950,0.37802886
21005,0,USKentuckyAnderson,Kentucky,Anderson,2021-04-04 10:19:08.623722,2020-07-15 00:00:00.000000,0.30065316,0.61022189,1.05635458,68,138,240,21,61,108,0.09577833,0.26896134,0.47614197,0.13338558,0.22579203,0.37752981
21005,0,USKentuckyAnderson,Kentucky,Anderson,2021-04-04 10:19:08.623722,2020-07-16 00:00:00.000000,0.33001649,0.63138131,1.08119885,75,143,245,24,63,110,0.10959678,0.27980832,0.48498705,0.13409390,0.22555747,0.38013055
21005,0,USKentuckyAnderson,Kentucky,Anderson,2021-04-04 10:19:08.623722,2020-07-17 00:00:00.000000,0.35743715,0.65950444,1.11052970,81,150,252,28,66,112,0.12433584,0.29289602,0.49425577,0.13550299,0.23064646,0.39226103
21005,0,USKentuckyAnderson,Kentucky,Anderson,2021-04-04 10:19:08.623722,2020-07-18 00:00:00.000000,0.38523897,0.69962686,1.11574565,87,159,253,32,70,114,0.14093611,0.30935564,0.50403908,0.13782137,0.23368255,0.40456760
21005,0,USKentuckyAnderson,Kentucky,Anderson,2021-04-04 10:19:08.623722,2020-07-19 00:00:00.000000,0.41336318,0.71872651,1.11892389,94,163,254,36,74,116,0.15880054,0.32587764,0.51430729,0.14125049,0.23565574,0.41363303
21005,0,USKentuckyAnderson,Kentucky,Anderson,2021-04-04 10:19:08.623722,2020-07-20 00:00:00.000000,0.44491484,0.73198794,1.13850949,101,166,258,40,76,119,0.17748471,0.33544300,0.52496800,0.14617752,0.23398540,0.41856822
21005,0,USKentuckyAnderson,Kentucky,Anderson,2021-04-04 10:19:08.623722,2020-07-21 00:00:00.000000,0.45630804,0.74868054,1.16024688,103,170,263,42,78,121,0.18707870,0.34375325,0.53570631,0.14647107,0.22975961,0.41984409
21005,0,USKentuckyAnderson,Kentucky,Anderson,2021-04-04 10:19:08.623722,2020-07-22 00:00:00.000000,0.46926676,0.76561747,1.18239918,106,174,268,44,81,124,0.19671013,0.35773101,0.54645370,0.14536001,0.22982259,0.41702799
21005,0,USKentuckyAnderson,Kentucky,Anderson,2021-04-04 10:19:08.623722,2020-07-23 00:00:00.000000,0.48455099,0.78666440,1.20467269,110,178,274,46,83,126,0.20253765,0.36771250,0.55708657,0.14385963,0.23128748,0.37879755
21005,0,USKentuckyAnderson,Kentucky,Anderson,2021-04-04 10:19:08.623722,2020-07-24 00:00:00.000000,0.49537298,0.82561818,1.22630823,112,187,278,47,87,129,0.20868596,0.38275561,0.56741273,0.14216211,0.22870625,0.37157636
21005,0,USKentuckyAnderson,Kentucky,Anderson,2021-04-04 10:19:08.623722,2020-07-25 00:00:00.000000,0.49704322,0.84171753,1.25296774,113,191,285,48,89,132,0.21504370,0.39183908,0.58443637,0.14961734,0.22052852,0.35149046
21005,0,USKentuckyAnderson,Kentucky,Anderson,2021-04-04 10:19:08.623722,2020-07-26 00:00:00.000000,0.49861016,0.86344373,1.29268572,113,196,294,50,91,135,0.21997291,0.40370883,0.59736218,0.14819199,0.21919176,0.34278470
21005,0,USKentuckyAnderson,Kentucky,Anderson,2021-04-04 10:19:08.623722,2020-07-27 00:00:00.000000,0.50505225,0.87615830,1.31285533,114,199,298,49,95,139,0.21965429,0.42100026,0.61441070,0.14694051,0.21813645,0.33740177
21005,0,USKentuckyAnderson,Kentucky,Anderson,2021-04-04 10:19:08.623722,2020-07-28 00:00:00.000000,0.50653095,0.88217178,1.32933827,115,200,302,50,97,143,0.22393159,0.43007587,0.62990749,0.14573301,0.21343304,0.33212500
21005,0,USKentuckyAnderson,Kentucky,Anderson,2021-04-04 10:19:08.623722,2020-07-29 00:00:00.000000,0.50616625,0.89169504,1.33789634,115,202,304,51,99,147,0.22483975,0.43585202,0.64633560,0.14455673,0.21252807,0.31853995
21005,0,USKentuckyAnderson,Kentucky,Anderson,2021-04-04 10:19:08.623722,2020-07-30 00:00:00.000000,0.50659840,0.89526907,1.35365393,115,203,307,51,100,149,0.22630157,0.44044624,0.65506777,0.14343477,0.21015235,0.32241774
21005,0,USKentuckyAnderson,Kentucky,Anderson,2021-04-04 10:19:08.623722,2020-07-31 00:00:00.000000,0.52429640,0.89759958,1.35532488,119,204,308,51,100,153,0.22819332,0.44302980,0.67315404,0.14360907,0.21083260,0.31927125
21005,0,USKentuckyAnderson,Kentucky,Anderson,2021-04-04 10:19:08.623722,2020-08-01 00:00:00.000000,0.53735584,0.89999079,1.33892101,122,204,304,52,101,156,0.23032370,0.44426121,0.68906603,0.14177967,0.20907082,0.31002847
21005,0,USKentuckyAnderson,Kentucky,Anderson,2021-04-04 10:19:08.623722,2020-08-02 00:00:00.000000,0.53738453,0.90033689,1.34167992,122,204,305,52,102,159,0.23246746,0.45026826,0.70016151,0.13840577,0.20821293,0.30857296
21005,0,USKentuckyAnderson,Kentucky,Anderson,2021-04-04 10:19:08.623722,2020-08-03 00:00:00.000000,0.52443311,0.89950223,1.33749006,119,204,304,53,103,161,0.23442209,0.45394939,0.71049747,0.13705392,0.20670741,0.31574373
21005,0,USKentuckyAnderson,Kentucky,Anderson,2021-04-04 10:19:08.623722,2020-08-04 00:00:00.000000,0.53609019,0.90323471,1.33296557,121,205,303,53,103,163,0.23520442,0.45380485,0.71776501,0.13488252,0.20871461,0.31085743
21005,0,USKentuckyAnderson,Kentucky,Anderson,2021-04-04 10:19:08.623722,2020-08-05 00:00:00.000000,0.55211330,0.90074564,1.32809240,125,204,302,53,103,166,0.23504879,0.45447002,0.72983093,0.13401109,0.20625859,0.31383153
21005,0,USKentuckyAnderson,Kentucky,Anderson,2021-04-04 10:19:08.623722,2020-08-06 00:00:00.000000,0.56824113,0.89434243,1.34565138,129,203,306,53,103,169,0.23418668,0.45369473,0.74519528,0.13406515,0.20367525,0.31843774
21005,0,USKentuckyAnderson,Kentucky,Anderson,2021-04-04 10:19:08.623722,2020-08-07 00:00:00.000000,0.56779499,0.89574055,1.36962073,129,203,311,52,103,172,0.23284385,0.45574927,0.75832417,0.13520076,0.20406937,0.32005848
21005,0,USKentuckyAnderson,Kentucky,Anderson,2021-04-04 10:19:08.623722,2020-08-08 00:00:00.000000,0.56511736,0.88768641,1.37026415,128,201,311,52,104,175,0.23123072,0.45778499,0.76978697,0.13446190,0.20594223,0.32055342
21005,0,USKentuckyAnderson,Kentucky,Anderson,2021-04-04 10:19:08.623722,2020-08-09 00:00:00.000000,0.56224429,0.88173903,1.36892578,127,200,311,52,104,176,0.22952437,0.45913262,0.77392022,0.13814801,0.20412384,0.32075061
21005,0,USKentuckyAnderson,Kentucky,Anderson,2021-04-04 10:19:08.623722,2020-08-10 00:00:00.000000,0.56082779,0.88299370,1.36516752,127,200,310,51,103,175,0.22784715,0.45452515,0.77124192,0.13699641,0.20549010,0.32578389
21005,0,USKentuckyAnderson,Kentucky,Anderson,2021-04-04 10:19:08.623722,2020-08-11 00:00:00.000000,0.55758301,0.88427444,1.39057855,126,201,316,51,103,174,0.22692288,0.45662856,0.76785534,0.13575663,0.20313654,0.32133936
21005,0,USKentuckyAnderson,Kentucky,Anderson,2021-04-04 10:19:08.623722,2020-08-12 00:00:00.000000,0.54290239,0.90747491,1.41476781,123,206,321,51,104,173,0.22656196,0.45765012,0.76384873,0.13550651,0.20224154,0.32163825
21005,0,USKentuckyAnderson,Kentucky,Anderson,2021-04-04 10:19:08.623722,2020-08-13 00:00:00.000000,0.52850425,0.91098635,1.43735887,120,207,326,51,104,172,0.22661466,0.45840791,0.75932708,0.13758850,0.20167323,0.32257750
21005,0,USKentuckyAnderson,Kentucky,Anderson,2021-04-04 10:19:08.623722,2020-08-14 00:00:00.000000,0.51447699,0.89962215,1.45815823,117,204,331,51,104,171,0.22684745,0.46054774,0.75435198,0.13928984,0.20109707,0.32720058
21005,0,USKentuckyAnderson,Kentucky,Anderson,2021-04-04 10:19:08.623722,2020-08-15 00:00:00.000000,0.50090187,0.90891724,1.46446197,113,206,333,51,104,170,0.22477113,0.45991861,0.74973291,0.13823620,0.20239646,0.33197372
21005,0,USKentuckyAnderson,Kentucky,Anderson,2021-04-04 10:19:08.623722,2020-08-16 00:00:00.000000,0.48790127,0.91915044,1.46982532,110,209,334,50,104,171,0.22158374,0.46084266,0.75579948,0.13700324,0.20187496,0.33372938
21005,0,USKentuckyAnderson,Kentucky,Anderson,2021-04-04 10:19:08.623722,2020-08-17 00:00:00.000000,0.47788347,0.92487849,1.49659768,108,210,340,50,105,170,0.22108953,0.46299260,0.74968386,0.13644140,0.20267080,0.34248312
21005,0,USKentuckyAnderson,Kentucky,Anderson,2021-04-04 10:19:08.623722,2020-08-18 00:00:00.000000,0.46950881,0.92397365,1.49720218,106,210,340,50,106,171,0.22286311,0.46716917,0.75397373,0.14108487,0.20270501,0.37272890
21005,0,USKentuckyAnderson,Kentucky,Anderson,2021-04-04 10:19:08.623722,2020-08-19 00:00:00.000000,0.47790587,0.92375646,1.49643339,108,210,340,51,107,173,0.22627980,0.47054324,0.76056719,0.14422778,0.20294522,0.38084021
21005,0,USKentuckyAnderson,Kentucky,Anderson,2021-04-04 10:19:08.623722,2020-08-20 00:00:00.000000,0.48757480,0.92925908,1.49435886,110,211,339,52,107,174,0.22919164,0.47395151,0.76898623,0.13957207,0.20507996,0.38336873
21005,0,USKentuckyAnderson,Kentucky,Anderson,2021-04-04 10:19:08.623722,2020-08-21 00:00:00.000000,0.49718678,0.92582715,1.49076641,113,210,339,51,108,177,0.22684465,0.47605092,0.77878274,0.14210254,0.20457672,0.38537772
21005,0,USKentuckyAnderson,Kentucky,Anderson,2021-04-04 10:19:08.623722,2020-08-22 00:00:00.000000,0.50649942,0.92982517,1.50780648,115,211,342,51,108,182,0.22474428,0.47542805,0.80072122,0.14221982,0.20506838,0.39164146
21005,0,USKentuckyAnderson,Kentucky,Anderson,2021-04-04 10:19:08.623722,2020-08-23 00:00:00.000000,0.51533638,0.94185340,1.52564773,117,214,347,50,107,189,0.22296253,0.47192401,0.83264147,0.14138251,0.21175472,0.40216391
21005,0,USKentuckyAnderson,Kentucky,Anderson,2021-04-04 10:19:08.623722,2020-08-24 00:00:00.000000,0.52066520,0.94632246,1.54804124,118,215,352,50,108,192,0.22170233,0.47652993,0.84727640,0.14562884,0.21034411,0.42355827
21005,0,USKentuckyAnderson,Kentucky,Anderson,2021-04-04 10:19:08.623722,2020-08-25 00:00:00.000000,0.52586234,0.95661805,1.57536003,119,217,358,50,108,195,0.22160109,0.47758376,0.86046411,0.14109123,0.20986449,0.44216699
21005,0,USKentuckyAnderson,Kentucky,Anderson,2021-04-04 10:19:08.623722,2020-08-26 00:00:00.000000,0.53530446,0.95600463,1.59074540,121,217,361,50,109,198,0.22322895,0.47989695,0.87242232,0.14131241,0.20981317,0.44896321
21005,0,USKentuckyAnderson,Kentucky,Anderson,2021-04-04 10:19:08.623722,2020-08-27 00:00:00.000000,0.53823337,0.96523164,1.60266129,122,219,364,51,109,200,0.22670088,0.48258035,0.88308111,0.14246727,0.21135227,0.44607513
21005,0,USKentuckyAnderson,Kentucky,Anderson,2021-04-04 10:19:08.623722,2020-08-28 00:00:00.000000,0.54724835,0.97165668,1.61563391,124,221,367,52,110,203,0.23196149,0.48510979,0.89280275,0.14708101,0.21259611,0.44419752
21005,0,USKentuckyAnderson,Kentucky,Anderson,2021-04-04 10:19:08.623722,2020-08-29 00:00:00.000000,0.55773482,0.99104237,1.63070554,126,225,370,54,110,204,0.23887595,0.48789499,0.90087008,0.15627512,0.22354282,0.45654715
21005,0,USKentuckyAnderson,Kentucky,Anderson,2021-04-04 10:19:08.623722,2020-08-30 00:00:00.000000,0.56867903,0.99462371,1.64915136,129,226,375,56,111,206,0.24723948,0.49071639,0.90985803,0.14638220,0.22694033,0.45029596
21005,0,USKentuckyAnderson,Kentucky,Anderson,2021-04-04 10:19:08.623722,2020-08-31 00:00:00.000000,0.58950814,1.00482419,1.67140359,134,228,380,56,113,206,0.24997093,0.49697267,0.90637744,0.14591720,0.22536731,0.40973264
21005,0,USKentuckyAnderson,Kentucky,Anderson,2021-04-04 10:19:08.623722,2020-09-01 00:00:00.000000,0.58137213,1.02314519,1.69673767,132,232,385,57,113,204,0.25427686,0.49934438,0.89931215,0.14758425,0.22696965,0.39569846
21005,0,USKentuckyAnderson,Kentucky,Anderson,2021-04-04 10:19:08.623722,2020-09-02 00:00:00.000000,0.57593889,1.03349133,1.72336235,131,235,392,59,113,202,0.25974336,0.50086582,0.89241583,0.14770109,0.22756402,0.39151061
21005,0,USKentuckyAnderson,Kentucky,Anderson,2021-04-04 10:19:08.623722,2020-09-03 00:00:00.000000,0.57351825,1.04318893,1.72379043,130,237,392,60,113,202,0.26606280,0.50116084,0.89084897,0.14834649,0.22835970,0.39284060
21005,0,USKentuckyAnderson,Kentucky,Anderson,2021-04-04 10:19:08.623722,2020-09-04 00:00:00.000000,0.57259864,1.04997393,1.71531494,130,238,390,62,114,203,0.27302669,0.50501993,0.89252089,0.14898992,0.23195525,0.38848697
21005,0,USKentuckyAnderson,Kentucky,Anderson,2021-04-04 10:19:08.623722,2020-09-05 00:00:00.000000,0.57225227,1.05588668,1.70778174,130,240,388,62,116,203,0.27628521,0.51000965,0.89459234,0.14977955,0.23219645,0.37741676
21005,0,USKentuckyAnderson,Kentucky,Anderson,2021-04-04 10:19:08.623722,2020-09-06 00:00:00.000000,0.57226099,1.06760522,1.73632635,130,242,394,63,117,204,0.28052784,0.51541870,0.89699930,0.15750781,0.23413508,0.37254944
21005,0,USKentuckyAnderson,Kentucky,Anderson,2021-04-04 10:19:08.623722,2020-09-07 00:00:00.000000,0.57935209,1.07510284,1.75792994,131,244,399,65,118,207,0.28688874,0.51955157,0.91394971,0.16487578,0.24222979,0.38441968
21005,0,USKentuckyAnderson,Kentucky,Anderson,2021-04-04 10:19:08.623722,2020-09-08 00:00:00.000000,0.58798569,1.08080662,1.77824801,133,245,404,66,119,207,0.29301738,0.52348979,0.91177888,0.16661803,0.24649491,0.39233328
21005,0,USKentuckyAnderson,Kentucky,Anderson,2021-04-04 10:19:08.623722,2020-09-09 00:00:00.000000,0.60008851,1.09762902,1.79758956,136,249,408,67,119,207,0.29883926,0.52658693,0.91010648,0.16579519,0.24786221,0.39647957
21005,0,USKentuckyAnderson,Kentucky,Anderson,2021-04-04 10:19:08.623722,2020-09-10 00:00:00.000000,0.61624247,1.12342018,1.81639720,140,255,413,69,120,207,0.30452319,0.52910767,0.91142729,0.16722725,0.24538980,0.39834135
21005,0,USKentuckyAnderson,Kentucky,Anderson,2021-04-04 10:19:08.623722,2020-09-11 00:00:00.000000,0.64152587,1.14907322,1.83503079,145,261,417,70,121,207,0.31015577,0.53449184,0.91364849,0.17080983,0.24710166,0.39889811
21005,0,USKentuckyAnderson,Kentucky,Anderson,2021-04-04 10:19:08.623722,2020-09-12 00:00:00.000000,0.66939198,1.17135147,1.85388062,152,266,421,71,123,208,0.31576878,0.54485328,0.91706086,0.16350941,0.25263353,0.40521804
21005,0,USKentuckyAnderson,Kentucky,Anderson,2021-04-04 10:19:08.623722,2020-09-13 00:00:00.000000,0.70106653,1.19503997,1.87330730,159,271,426,74,125,209,0.32572376,0.55012927,0.92172220,0.15265428,0.26280678,0.42055083
21005,0,USKentuckyAnderson,Kentucky,Anderson,2021-04-04 10:19:08.623722,2020-09-14 00:00:00.000000,0.73987679,1.22201910,1.88673130,168,277,429,75,127,211,0.33250859,0.55864519,0.92762835,0.15104646,0.26662215,0.43792672
21005,0,USKentuckyAnderson,Kentucky,Anderson,2021-04-04 10:19:08.623722,2020-09-15 00:00:00.000000,0.75209837,1.24257129,1.90082804,171,282,432,76,130,211,0.33632340,0.57298203,0.92936138,0.17533743,0.26536096,0.44036808
21005,0,USKentuckyAnderson,Kentucky,Anderson,2021-04-04 10:19:08.623722,2020-09-16 00:00:00.000000,0.78377810,1.25177033,1.92708487,178,284,438,77,133,210,0.34168071,0.58698277,0.92704695,0.18252218,0.26623838,0.45981940
21005,0,USKentuckyAnderson,Kentucky,Anderson,2021-04-04 10:19:08.623722,2020-09-17 00:00:00.000000,0.80771197,1.27005944,1.97753783,183,288,449,79,134,210,0.34945680,0.59227554,0.92349335,0.18237851,0.26865316,0.46235264
21005,0,USKentuckyAnderson,Kentucky,Anderson,2021-04-04 10:19:08.623722,2020-09-18 00:00:00.000000,0.81124639,1.28287236,2.01123322,184,291,457,81,136,212,0.35904692,0.59812221,0.93252768,0.18219006,0.27649783,0.46317167
21005,0,USKentuckyAnderson,Kentucky,Anderson,2021-04-04 10:19:08.623722,2020-09-19 00:00:00.000000,0.81750038,1.30428969,2.02026455,185,296,459,84,136,214,0.36934402,0.59977223,0.94428793,0.18202148,0.28121629,0.46522316
21005,0,USKentuckyAnderson,Kentucky,Anderson,2021-04-04 10:19:08.623722,2020-09-20 00:00:00.000000,0.82555648,1.32644583,2.03092974,187,301,461,85,137,217,0.37750024,0.60433969,0.95653515,0.18390533,0.28501342,0.46184340
21005,0,USKentuckyAnderson,Kentucky,Anderson,2021-04-04 10:19:08.623722,2020-09-21 00:00:00.000000,0.85214257,1.36013059,2.04468285,193,309,465,86,139,220,0.38151488,0.61486177,0.96936797,0.18146469,0.28635330,0.48426570
21005,0,USKentuckyAnderson,Kentucky,Anderson,2021-04-04 10:19:08.623722,2020-09-22 00:00:00.000000,0.90310248,1.39200518,2.06740499,205,316,470,89,142,223,0.39509121,0.62704580,0.98344980,0.18178703,0.29120005,0.49018672
21005,0,USKentuckyAnderson,Kentucky,Anderson,2021-04-04 10:19:08.623722,2020-09-23 00:00:00.000000,0.95704089,1.42383506,2.09046623,217,323,475,93,146,227,0.41106839,0.64197492,0.99863079,0.18393374,0.29282782,0.48701985
21005,0,USKentuckyAnderson,Kentucky,Anderson,2021-04-04 10:19:08.623722,2020-09-24 00:00:00.000000,0.98003129,1.45633862,2.14499423,222,331,487,94,150,229,0.41609246,0.66072190,1.01059871,0.18724465,0.29653843,0.47631286
21005,0,USKentuckyAnderson,Kentucky,Anderson,2021-04-04 10:19:08.623722,2020-09-25 00:00:00.000000,0.97864779,1.49330234,2.19359749,222,339,498,95,152,232,0.42063124,0.67019342,1.02072760,0.20246321,0.30242323,0.45234643
21005,0,USKentuckyAnderson,Kentucky,Anderson,2021-04-04 10:19:08.623722,2020-09-26 00:00:00.000000,0.99328102,1.52732921,2.27850611,225,347,518,96,155,239,0.42559754,0.68278896,1.05195144,0.21159466,0.30556108,0.45518376
21005,0,USKentuckyAnderson,Kentucky,Anderson,2021-04-04 10:19:08.623722,2020-09-27 00:00:00.000000,1.01114680,1.55020214,2.38011851,230,352,541,98,159,244,0.43095927,0.70249079,1.07312864,0.22461222,0.30845289,0.46182422
21005,0,USKentuckyAnderson,Kentucky,Anderson,2021-04-04 10:19:08.623722,2020-09-28 00:00:00.000000,1.02087809,1.57324924,2.47214169,232,357,562,99,165,250,0.43673002,0.72652985,1.09955046,0.22573697,0.30985498,0.46311292
21005,0,USKentuckyAnderson,Kentucky,Anderson,2021-04-04 10:19:08.623722,2020-09-29 00:00:00.000000,1.02778975,1.59727163,2.55553941,233,363,581,101,168,259,0.44510330,0.74061488,1.14051905,0.22533759,0.31336296,0.45811841
21005,0,USKentuckyAnderson,Kentucky,Anderson,2021-04-04 10:19:08.623722,2020-09-30 00:00:00.000000,1.03551743,1.63132355,2.63027949,235,371,598,103,172,269,0.45578423,0.76024927,1.18314285,0.22639331,0.31905372,0.45269466
21005,0,USKentuckyAnderson,Kentucky,Anderson,2021-04-04 10:19:08.623722,2020-10-01 00:00:00.000000,1.04941919,1.66228825,2.69619224,238,378,613,106,177,278,0.46896145,0.78096699,1.22642964,0.22930884,0.31802342,0.44837486
21005,0,USKentuckyAnderson,Kentucky,Anderson,2021-04-04 10:19:08.623722,2020-10-02 00:00:00.000000,1.10030224,1.72027767,2.75265759,250,391,626,110,183,288,0.48500911,0.80584973,1.27039106,0.23789966,0.31803911,0.44536449
21005,0,USKentuckyAnderson,Kentucky,Anderson,2021-04-04 10:19:08.623722,2020-10-03 00:00:00.000000,1.14979175,1.77858961,2.80019807,261,404,636,114,186,294,0.50400671,0.82106224,1.29628127,0.23359754,0.31924028,0.44341622
21005,0,USKentuckyAnderson,Kentucky,Anderson,2021-04-04 10:19:08.623722,2020-10-04 00:00:00.000000,1.15162775,1.82523027,2.83545052,261,415,644,119,191,298,0.52568260,0.84189300,1.31287817,0.23354284,0.32489601,0.44236040
21005,0,USKentuckyAnderson,Kentucky,Anderson,2021-04-04 10:19:08.623722,2020-10-05 00:00:00.000000,1.17190786,1.87570712,2.88503649,266,426,656,124,195,313,0.54612244,0.85916082,1.37893950,0.23613826,0.32597864,0.44513981
21005,0,USKentuckyAnderson,Kentucky,Anderson,2021-04-04 10:19:08.623722,2020-10-06 00:00:00.000000,1.19681097,1.93041498,2.92687308,272,439,665,127,200,328,0.56155500,0.87955700,1.44370824,0.23627239,0.32303860,0.45675560
21005,0,USKentuckyAnderson,Kentucky,Anderson,2021-04-04 10:19:08.623722,2020-10-07 00:00:00.000000,1.22915589,1.98157335,2.96769373,279,450,675,129,205,336,0.57144217,0.90358607,1.47950645,0.23750291,0.32767567,0.47123323
21005,0,USKentuckyAnderson,Kentucky,Anderson,2021-04-04 10:19:08.623722,2020-10-08 00:00:00.000000,1.27740428,2.03518933,3.06466829,290,462,697,132,210,340,0.58160314,0.92646431,1.49902207,0.24277161,0.32834881,0.47620336
21005,0,USKentuckyAnderson,Kentucky,Anderson,2021-04-04 10:19:08.623722,2020-10-09 00:00:00.000000,1.33071399,2.09972022,3.12425853,302,477,710,134,216,345,0.59171187,0.95296864,1.51865443,0.25006261,0.33357527,0.50312586
21005,0,USKentuckyAnderson,Kentucky,Anderson,2021-04-04 10:19:08.623722,2020-10-10 00:00:00.000000,1.38909167,2.15888357,3.19842599,315,491,727,137,221,350,0.60385480,0.97202145,1.54055359,0.25291100,0.34594081,0.52423417
21005,0,USKentuckyAnderson,Kentucky,Anderson,2021-04-04 10:19:08.623722,2020-10-11 00:00:00.000000,1.45422949,2.21626081,3.25031096,330,504,739,145,225,356,0.63929060,0.99300003,1.56598995,0.25739524,0.34785496,0.52884903
21005,0,USKentuckyAnderson,Kentucky,Anderson,2021-04-04 10:19:08.623722,2020-10-12 00:00:00.000000,1.50054630,2.26211348,3.30892419,341,514,752,154,231,362,0.67805391,1.01927741,1.59508902,0.25774617,0.34848022,0.52832598
21005,0,USKentuckyAnderson,Kentucky,Anderson,2021-04-04 10:19:08.623722,2020-10-13 00:00:00.000000,1.53658915,2.34406436,3.36667316,349,533,765,157,238,370,0.69383682,1.05027907,1.62991810,0.25790848,0.35204044,0.52340529
21005,0,USKentuckyAnderson,Kentucky,Anderson,2021-04-04 10:19:08.623722,2020-10-14 00:00:00.000000,1.58663808,2.43748679,3.44376209,360,554,783,159,246,382,0.70247362,1.08536551,1.68184776,0.25801846,0.35239637,0.51424871
21005,0,USKentuckyAnderson,Kentucky,Anderson,2021-04-04 10:19:08.623722,2020-10-15 00:00:00.000000,1.61290591,2.49550458,3.55374251,366,567,808,161,255,396,0.71125051,1.12249018,1.74443514,0.25842960,0.35284341,0.53578913
21005,0,USKentuckyAnderson,Kentucky,Anderson,2021-04-04 10:19:08.623722,2020-10-16 00:00:00.000000,1.64352536,2.56752470,3.66732285,373,584,834,163,262,406,0.71995418,1.15338522,1.78522037,0.25978632,0.35901607,0.54700913
21005,0,USKentuckyAnderson,Kentucky,Anderson,2021-04-04 10:19:08.623722,2020-10-17 00:00:00.000000,1.67760496,2.60953938,3.78335569,381,593,860,165,268,413,0.72863185,1.17864311,1.81766506,0.26286199,0.36073228,0.54746105
21005,0,USKentuckyAnderson,Kentucky,Anderson,2021-04-04 10:19:08.623722,2020-10-18 00:00:00.000000,1.71320812,2.64814598,3.90129369,389,602,887,172,273,424,0.75646789,1.20272490,1.86624067,0.27823314,0.36997632,0.54773303
21005,0,USKentuckyAnderson,Kentucky,Anderson,2021-04-04 10:19:08.623722,2020-10-19 00:00:00.000000,1.75341376,2.69671753,4.07085270,398,613,925,179,281,437,0.79025207,1.23542571,1.92237255,0.28059898,0.37648502,0.54817334
21005,0,USKentuckyAnderson,Kentucky,Anderson,2021-04-04 10:19:08.623722,2020-10-20 00:00:00.000000,1.79438207,2.79067560,4.23148431,408,634,962,188,293,449,0.82660178,1.29130532,1.97799949,0.28146363,0.37874873,0.58493085
21005,0,USKentuckyAnderson,Kentucky,Anderson,2021-04-04 10:19:08.623722,2020-10-21 00:00:00.000000,1.83707671,2.93157751,4.30803429,417,666,979,192,303,462,0.84832877,1.33436839,2.03335429,0.28267683,0.38020615,0.61824460
21005,0,USKentuckyAnderson,Kentucky,Anderson,2021-04-04 10:19:08.623722,2020-10-22 00:00:00.000000,1.90760997,3.08191210,4.37294649,433,701,994,197,313,475,0.86782674,1.37912611,2.08847644,0.28516908,0.38426304,0.63318699
21005,0,USKentuckyAnderson,Kentucky,Anderson,2021-04-04 10:19:08.623722,2020-10-23 00:00:00.000000,1.98618805,3.19139827,4.49378998,451,725,1022,201,324,485,0.88769806,1.42548584,2.13512243,0.29005519,0.38573969,0.64596181
21005,0,USKentuckyAnderson,Kentucky,Anderson,2021-04-04 10:19:08.623722,2020-10-24 00:00:00.000000,2.07005110,3.33315369,4.64713755,470,758,1057,206,335,495,0.90855537,1.47686874,2.17883226,0.28213671,0.38894127,0.65418227
21005,0,USKentuckyAnderson,Kentucky,Anderson,2021-04-04 10:19:08.623722,2020-10-25 00:00:00.000000,2.15768941,3.47475605,4.82246368,490,790,1096,212,347,511,0.93344641,1.52974139,2.24802622,0.29152478,0.40081618,0.66041831
21005,0,USKentuckyAnderson,Kentucky,Anderson,2021-04-04 10:19:08.623722,2020-10-26 00:00:00.000000,2.24990216,3.58694601,5.00484299,511,815,1138,220,360,522,0.96796570,1.58344089,2.29568894,0.29182190,0.41209428,0.66528315
21005,0,USKentuckyAnderson,Kentucky,Anderson,2021-04-04 10:19:08.623722,2020-10-27 00:00:00.000000,2.34579744,3.72120933,5.19159882,533,846,1180,232,372,532,1.02064238,1.63898745,2.34105707,0.29003682,0.41502155,0.66794256
21005,0,USKentuckyAnderson,Kentucky,Anderson,2021-04-04 10:19:08.623722,2020-10-28 00:00:00.000000,2.44527400,3.88240503,5.38152983,556,883,1224,245,384,546,1.07782727,1.69192775,2.40333802,0.29394717,0.41221072,0.66928510
21005,0,USKentuckyAnderson,Kentucky,Anderson,2021-04-04 10:19:08.623722,2020-10-29 00:00:00.000000,2.56409130,4.05283125,5.57101967,583,921,1267,259,400,561,1.13906047,1.76087799,2.46940395,0.29717875,0.41598386,0.66760142
21005,0,USKentuckyAnderson,Kentucky,Anderson,2021-04-04 10:19:08.623722,2020-10-30 00:00:00.000000,2.76394398,4.20582491,5.76369779,628,956,1311,273,416,581,1.20388747,1.83153397,2.55817131,0.30445592,0.41758314,0.63924746
21005,0,USKentuckyAnderson,Kentucky,Anderson,2021-04-04 10:19:08.623722,2020-10-31 00:00:00.000000,2.90637890,4.38833495,5.97578392,661,998,1359,284,436,601,1.25111471,1.91744549,2.64506357,0.31040251,0.41997222,0.62940807
21005,0,USKentuckyAnderson,Kentucky,Anderson,2021-04-04 10:19:08.623722,2020-11-01 00:00:00.000000,2.99949222,4.54398713,6.21909376,682,1033,1414,291,457,622,1.28183593,2.01143832,2.73580295,0.32202897,0.43008440,0.59596786
21005,0,USKentuckyAnderson,Kentucky,Anderson,2021-04-04 10:19:08.623722,2020-11-02 00:00:00.000000,3.11285700,4.69379221,6.47275137,708,1067,1472,299,477,645,1.31787779,2.09867249,2.83761251,0.32280768,0.42989797,0.57711822
21005,0,USKentuckyAnderson,Kentucky,Anderson,2021-04-04 10:19:08.623722,2020-11-03 00:00:00.000000,3.22570287,4.88637694,6.73315778,733,1111,1531,309,493,669,1.36262842,2.17059222,2.94226694,0.32116054,0.43025669,0.58785868
21005,0,USKentuckyAnderson,Kentucky,Anderson,2021-04-04 10:19:08.623722,2020-11-04 00:00:00.000000,3.27345657,5.10231941,7.00012557,744,1160,1592,322,514,693,1.41939668,2.26151167,3.04918221,0.31957712,0.42985346,0.57909346
21005,0,USKentuckyAnderson,Kentucky,Anderson,2021-04-04 10:19:08.623722,2020-11-05 00:00:00.000000,3.32185023,5.30383461,7.27332568,755,1206,1654,339,536,718,1.49112610,2.35676055,3.15810969,0.31992973,0.42999474,0.57825946
21005,0,USKentuckyAnderson,Kentucky,Anderson,2021-04-04 10:19:08.623722,2020-11-06 00:00:00.000000,3.37470280,5.47232191,7.55244778,767,1244,1717,347,556,743,1.52931896,2.44606368,3.26919136,0.32314456,0.42712735,0.58496339
21005,0,USKentuckyAnderson,Kentucky,Anderson,2021-04-04 10:19:08.623722,2020-11-07 00:00:00.000000,3.48132978,5.64028412,7.83748833,791,1282,1782,352,577,769,1.55169674,2.53784028,3.38297070,0.33298881,0.42653227,0.57316613
21005,0,USKentuckyAnderson,Kentucky,Anderson,2021-04-04 10:19:08.623722,2020-11-08 00:00:00.000000,3.73950411,5.84733242,8.12862632,850,1330,1849,363,599,796,1.60002956,2.63455097,3.49974012,0.32641893,0.43052035,0.57138783
21005,0,USKentuckyAnderson,Kentucky,Anderson,2021-04-04 10:19:08.623722,2020-11-09 00:00:00.000000,4.05197103,6.07136854,8.41712748,921,1381,1914,378,619,823,1.66233582,2.72178410,3.61937230,0.32491546,0.43107534,0.57067460
21005,0,USKentuckyAnderson,Kentucky,Anderson,2021-04-04 10:19:08.623722,2020-11-10 00:00:00.000000,4.21222361,6.21593187,8.69300854,958,1413,1977,391,637,851,1.72302854,2.80122733,3.74158046,0.32488588,0.42943921,0.58671794
21005,0,USKentuckyAnderson,Kentucky,Anderson,2021-04-04 10:19:08.623722,2020-11-11 00:00:00.000000,4.36862945,6.39433833,8.95927360,993,1454,2037,405,660,881,1.78367329,2.90481387,3.87430089,0.32661647,0.42962256,0.58299942
21005,0,USKentuckyAnderson,Kentucky,Anderson,2021-04-04 10:19:08.623722,2020-11-12 00:00:00.000000,4.51260151,6.61174771,9.22973208,1026,1503,2099,419,685,914,1.84479020,3.01546389,4.01928438,0.33372800,0.42914523,0.57537814
21005,0,USKentuckyAnderson,Kentucky,Anderson,2021-04-04 10:19:08.623722,2020-11-13 00:00:00.000000,4.67511965,6.79019287,9.50497175,1063,1544,2162,433,709,945,1.90717994,3.12040444,4.15773383,0.33631755,0.42544561,0.58238931
21005,0,USKentuckyAnderson,Kentucky,Anderson,2021-04-04 10:19:08.623722,2020-11-14 00:00:00.000000,4.83745932,6.93663419,9.78540355,1100,1577,2225,448,730,975,1.97148994,3.21180764,4.28894261,0.33669364,0.42293090,0.58575607
21005,0,USKentuckyAnderson,Kentucky,Anderson,2021-04-04 10:19:08.623722,2020-11-15 00:00:00.000000,4.99127058,7.19288701,10.05397225,1135,1636,2286,463,755,1003,2.03799162,3.32013223,4.41297001,0.31197177,0.41999987,0.58492939
21005,0,USKentuckyAnderson,Kentucky,Anderson,2021-04-04 10:19:08.623722,2020-11-16 00:00:00.000000,5.15148736,7.37919890,10.21544012,1171,1678,2323,479,777,1030,2.10647615,3.41647202,4.53033305,0.31030299,0.42397645,0.58614516
21005,0,USKentuckyAnderson,Kentucky,Anderson,2021-04-04 10:19:08.623722,2020-11-17 00:00:00.000000,5.31530683,7.60261515,10.50986522,1209,1729,2390,495,795,1070,2.18031498,3.49615163,4.70533005,0.31071653,0.42633065,0.58665567
21005,0,USKentuckyAnderson,Kentucky,Anderson,2021-04-04 10:19:08.623722,2020-11-18 00:00:00.000000,5.48164966,7.79793968,10.84650501,1246,1773,2467,513,818,1111,2.25691914,3.59747180,4.88612158,0.29702242,0.42786386,0.58531781
21005,0,USKentuckyAnderson,Kentucky,Anderson,2021-04-04 10:19:08.623722,2020-11-19 00:00:00.000000,5.69877663,7.96000460,11.18327885,1296,1810,2543,531,842,1139,2.33481011,3.70259008,5.00725834,0.29220941,0.42223718,0.58148885
21005,0,USKentuckyAnderson,Kentucky,Anderson,2021-04-04 10:19:08.623722,2020-11-20 00:00:00.000000,6.02110201,8.16575489,11.51725804,1369,1857,2619,555,871,1161,2.44054291,3.83346257,5.10529808,0.29204430,0.42030616,0.58138709
21005,0,USKentuckyAnderson,Kentucky,Anderson,2021-04-04 10:19:08.623722,2020-11-21 00:00:00.000000,6.18671590,8.39768212,11.82309954,1407,1910,2689,586,899,1196,2.57985504,3.95340405,5.25951850,0.29449497,0.42667699,0.58172530
21005,0,USKentuckyAnderson,Kentucky,Anderson,2021-04-04 10:19:08.623722,2020-11-22 00:00:00.000000,6.27802362,8.59493476,12.09432776,1428,1955,2751,612,925,1233,2.69333253,4.06693584,5.42050477,0.30230464,0.42766145,0.58562984
21005,0,USKentuckyAnderson,Kentucky,Anderson,2021-04-04 10:19:08.623722,2020-11-23 00:00:00.000000,6.39164310,8.73740664,12.37051151,1453,1987,2813,617,950,1268,2.71306708,4.17748669,5.57719664,0.31123787,0.43363669,0.60889590
21005,0,USKentuckyAnderson,Kentucky,Anderson,2021-04-04 10:19:08.623722,2020-11-24 00:00:00.000000,6.54213040,8.97611137,12.65504910,1488,2041,2878,621,975,1302,2.73134330,4.29014604,5.72433099,0.31768901,0.42733537,0.61844958
21005,0,USKentuckyAnderson,Kentucky,Anderson,2021-04-04 10:19:08.623722,2020-11-25 00:00:00.000000,6.57147432,9.25387333,12.95653601,1494,2104,2947,636,1001,1333,2.79678094,4.40320446,5.86127573,0.32798073,0.43541071,0.59715762
21005,0,USKentuckyAnderson,Kentucky,Anderson,2021-04-04 10:19:08.623722,2020-11-26 00:00:00.000000,6.74736648,9.47137225,13.28256688,1534,2154,3021,661,1026,1362,2.90673136,4.51231979,5.98904941,0.33728365,0.43762891,0.58810177
21005,0,USKentuckyAnderson,Kentucky,Anderson,2021-04-04 10:19:08.623722,2020-11-27 00:00:00.000000,6.94766004,9.69144970,13.61505008,1580,2204,3097,686,1052,1402,3.01824614,4.62909580,6.16703184,0.34306701,0.44150544,0.58230046
21005,0,USKentuckyAnderson,Kentucky,Anderson,2021-04-04 10:19:08.623722,2020-11-28 00:00:00.000000,7.00176257,10.06704079,13.99741111,1592,2289,3183,712,1082,1444,3.13036480,4.75975520,6.35184225,0.34341472,0.45268660,0.58644087
21005,0,USKentuckyAnderson,Kentucky,Anderson,2021-04-04 10:19:08.623722,2020-11-29 00:00:00.000000,7.05710547,10.41133451,14.41803738,1605,2368,3279,718,1114,1487,3.15786606,4.90141948,6.53713891,0.34439352,0.45615102,0.59759821
21005,0,USKentuckyAnderson,Kentucky,Anderson,2021-04-04 10:19:08.623722,2020-11-30 00:00:00.000000,7.13729565,10.61285716,14.81427335,1623,2414,3369,724,1147,1529,3.18483622,5.04334417,6.72260227,0.35434442,0.46018055,0.61723488
21005,0,USKentuckyAnderson,Kentucky,Anderson,2021-04-04 10:19:08.623722,2020-12-01 00:00:00.000000,7.29947512,10.84268050,15.17935320,1660,2466,3452,731,1175,1571,3.21431749,5.16940493,6.90777268,0.37102169,0.46458831,0.62175283
21005,0,USKentuckyAnderson,Kentucky,Anderson,2021-04-04 10:19:08.623722,2020-12-02 00:00:00.000000,7.52400483,11.12026960,15.55697263,1711,2529,3538,748,1195,1612,3.29059724,5.25663217,7.08681856,0.37044570,0.46627311,0.62456796
21005,0,USKentuckyAnderson,Kentucky,Anderson,2021-04-04 10:19:08.623722,2020-12-03 00:00:00.000000,7.75017233,11.44306005,15.96246588,1762,2602,3630,768,1216,1651,3.37725636,5.34610027,7.26179640,0.37132236,0.47387051,0.62592790
21005,0,USKentuckyAnderson,Kentucky,Anderson,2021-04-04 10:19:08.623722,2020-12-04 00:00:00.000000,7.97752902,11.75989841,16.31870494,1814,2675,3712,788,1247,1693,3.46510267,5.48588011,7.44275950,0.38267830,0.47891828,0.62685231
21005,0,USKentuckyAnderson,Kentucky,Anderson,2021-04-04 10:19:08.623722,2020-12-05 00:00:00.000000,8.20588258,11.96181027,16.65498503,1866,2720,3788,808,1279,1738,3.55235490,5.62505962,7.64259926,0.38290347,0.48433127,0.64878449
21005,0,USKentuckyAnderson,Kentucky,Anderson,2021-04-04 10:19:08.623722,2020-12-06 00:00:00.000000,8.43849418,12.25684660,16.96903172,1919,2788,3859,827,1311,1790,3.63757288,5.76340003,7.86950768,0.36015449,0.48690219,0.65788483
21005,0,USKentuckyAnderson,Kentucky,Anderson,2021-04-04 10:19:08.623722,2020-12-07 00:00:00.000000,8.68294610,12.51538986,17.26663568,1975,2846,3927,846,1342,1847,3.71977629,5.90113973,8.12297984,0.35418769,0.48974537,0.67366415
21005,0,USKentuckyAnderson,Kentucky,Anderson,2021-04-04 10:19:08.623722,2020-12-08 00:00:00.000000,8.94392302,12.88246347,17.68201602,2034,2930,4022,863,1373,1909,3.79649635,6.03990360,8.39526727,0.35100747,0.49372559,0.67934881
21005,0,USKentuckyAnderson,Kentucky,Anderson,2021-04-04 10:19:08.623722,2020-12-09 00:00:00.000000,9.21627289,13.06789470,18.20784647,2096,2972,4141,879,1405,1974,3.86827347,6.18096085,8.68084396,0.35184951,0.49501573,0.68474416
21005,0,USKentuckyAnderson,Kentucky,Anderson,2021-04-04 10:19:08.623722,2020-12-10 00:00:00.000000,9.48827848,13.24762445,18.75132464,2158,3013,4265,895,1438,2041,3.93576661,6.32380891,8.97446020,0.35626009,0.50132187,0.69932849
21005,0,USKentuckyAnderson,Kentucky,Anderson,2021-04-04 10:19:08.623722,2020-12-11 00:00:00.000000,9.74829694,13.45081293,19.14891608,2217,3059,4355,909,1472,2108,3.99980436,6.47217480,9.27126894,0.35007844,0.50647411,0.71093851
21005,0,USKentuckyAnderson,Kentucky,Anderson,2021-04-04 10:19:08.623722,2020-12-12 00:00:00.000000,9.98499573,13.68550558,19.29405134,2271,3113,4388,923,1501,2176,4.06150057,6.60063757,9.56647096,0.35244626,0.50642118,0.70676916
21005,0,USKentuckyAnderson,Kentucky,Anderson,2021-04-04 10:19:08.623722,2020-12-13 00:00:00.000000,10.15357934,13.97277297,19.38820048,2309,3178,4410,940,1510,2232,4.13515237,6.63873832,9.81609950,0.37642779,0.50463508,0.74823411
21005,0,USKentuckyAnderson,Kentucky,Anderson,2021-04-04 10:19:08.623722,2020-12-14 00:00:00.000000,10.26170777,14.23051705,19.46277788,2334,3237,4427,960,1540,2266,4.22119920,6.77092379,9.96607450,0.37303318,0.50610923,0.80275397
21005,0,USKentuckyAnderson,Kentucky,Anderson,2021-04-04 10:19:08.623722,2020-12-15 00:00:00.000000,10.28095791,14.46999244,19.69296473,2338,3291,4479,970,1571,2296,4.26609624,6.91035428,10.09392071,0.36824252,0.50937831,0.81537596
21005,0,USKentuckyAnderson,Kentucky,Anderson,2021-04-04 10:19:08.623722,2020-12-16 00:00:00.000000,10.34479952,14.70923117,19.86552868,2353,3345,4518,987,1594,2320,4.34141083,7.00843348,10.20170999,0.36923335,0.52000485,0.80875626
21005,0,USKentuckyAnderson,Kentucky,Anderson,2021-04-04 10:19:08.623722,2020-12-17 00:00:00.000000,10.55599636,14.95381576,19.97490330,2401,3401,4543,1003,1619,2341,4.41022624,7.11752872,10.29183387,0.36935487,0.53426923,0.80386815
21005,0,USKentuckyAnderson,Kentucky,Anderson,2021-04-04 10:19:08.623722,2020-12-18 00:00:00.000000,10.64267621,15.09653363,20.04141197,2420,3434,4558,1016,1637,2358,4.46895201,7.19813895,10.36714549,0.36968981,0.55010355,0.80270651
21005,0,USKentuckyAnderson,Kentucky,Anderson,2021-04-04 10:19:08.623722,2020-12-19 00:00:00.000000,10.75605243,15.30033034,20.35574348,2446,3480,4630,1033,1653,2373,4.54474395,7.27019148,10.43289745,0.38021612,0.55278796,0.80411755
21005,0,USKentuckyAnderson,Kentucky,Anderson,2021-04-04 10:19:08.623722,2020-12-20 00:00:00.000000,10.91396900,15.53320815,20.80142907,2482,3533,4731,1052,1681,2387,4.62485761,7.39272535,10.49780277,0.39976185,0.56735189,0.80636845
21005,0,USKentuckyAnderson,Kentucky,Anderson,2021-04-04 10:19:08.623722,2020-12-21 00:00:00.000000,11.04253364,15.69169127,21.24514095,2511,3569,4832,1071,1706,2422,4.71082663,7.50148634,10.65069442,0.40997532,0.57074874,0.80863254
21005,0,USKentuckyAnderson,Kentucky,Anderson,2021-04-04 10:19:08.623722,2020-12-22 00:00:00.000000,11.15302211,15.80635633,21.33703416,2536,3595,4853,1090,1722,2471,4.79620785,7.57305647,10.86379677,0.42130568,0.58717513,0.81208060
21005,0,USKentuckyAnderson,Kentucky,Anderson,2021-04-04 10:19:08.623722,2020-12-23 00:00:00.000000,11.33019888,15.82608625,21.42379495,2577,3599,4873,1109,1743,2520,4.87924684,7.66486022,11.08244297,0.43644133,0.58519409,0.86366380
21005,0,USKentuckyAnderson,Kentucky,Anderson,2021-04-04 10:19:08.623722,2020-12-24 00:00:00.000000,11.47783208,15.91216459,21.77054981,2610,3619,4952,1127,1766,2568,4.95804127,7.76800883,11.29338539,0.43821181,0.59348110,0.87080877
21005,0,USKentuckyAnderson,Kentucky,Anderson,2021-04-04 10:19:08.623722,2020-12-25 00:00:00.000000,11.57126982,16.05733100,22.05696195,2632,3652,5017,1144,1789,2571,5.02988652,7.86507025,11.30489823,0.44417730,0.59591491,0.85102944
21005,0,USKentuckyAnderson,Kentucky,Anderson,2021-04-04 10:19:08.623722,2020-12-26 00:00:00.000000,11.63919570,16.20091767,22.24838631,2647,3685,5060,1158,1809,2576,5.09170309,7.95335697,11.32503302,0.44083694,0.59490765,0.83181960
21005,0,USKentuckyAnderson,Kentucky,Anderson,2021-04-04 10:19:08.623722,2020-12-27 00:00:00.000000,11.67525758,16.17778539,22.34733897,2655,3679,5083,1169,1831,2579,5.13927362,8.05158053,11.34020877,0.45069932,0.58787021,0.82002807
21005,0,USKentuckyAnderson,Kentucky,Anderson,2021-04-04 10:19:08.623722,2020-12-28 00:00:00.000000,11.67142364,16.24674247,22.39290860,2654,3695,5093,1175,1854,2581,5.16985618,8.15432785,11.34902290,0.43077859,0.58318239,0.82884445
21005,0,USKentuckyAnderson,Kentucky,Anderson,2021-04-04 10:19:08.623722,2020-12-29 00:00:00.000000,11.70498716,16.39089097,22.38957683,2662,3728,5092,1180,1874,2607,5.18753141,8.23961455,11.46307036,0.42524502,0.57681425,0.82692008
21005,0,USKentuckyAnderson,Kentucky,Anderson,2021-04-04 10:19:08.623722,2020-12-30 00:00:00.000000,11.77003066,16.51537840,22.35302400,2677,3756,5084,1181,1882,2633,5.19461332,8.27568751,11.57670396,0.43377706,0.57788655,0.82643480
21005,0,USKentuckyAnderson,Kentucky,Anderson,2021-04-04 10:19:08.623722,2020-12-31 00:00:00.000000,11.79218505,16.53594375,22.30778679,2682,3761,5074,1181,1886,2653,5.19208239,8.29412874,11.66509865,0.43784678,0.56997385,0.82658723
21005,0,USKentuckyAnderson,Kentucky,Anderson,2021-04-04 10:19:08.623722,2021-01-01 00:00:00.000000,11.76725661,16.44504070,22.28050538,2676,3740,5068,1178,1886,2650,5.18075984,8.29539415,11.65060729,0.43597680,0.56823881,0.82714512
21005,0,USKentuckyAnderson,Kentucky,Anderson,2021-04-04 10:19:08.623722,2021-01-02 00:00:00.000000,11.69717921,16.37561793,22.25293851,2660,3724,5061,1174,1883,2639,5.16145127,8.28082005,11.60495228,0.39625301,0.56131003,0.82391403
21005,0,USKentuckyAnderson,Kentucky,Anderson,2021-04-04 10:19:08.623722,2021-01-03 00:00:00.000000,11.59056950,16.26514729,22.17321688,2636,3699,5043,1168,1874,2623,5.13537201,8.23982530,11.53156248,0.39763211,0.55480199,0.81858438
21005,0,USKentuckyAnderson,Kentucky,Anderson,2021-04-04 10:19:08.623722,2021-01-04 00:00:00.000000,11.39043911,16.07092340,21.90466170,2590,3655,4982,1161,1854,2600,5.10492480,8.15486719,11.43375460,0.39883063,0.55367592,0.82304147
21005,0,USKentuckyAnderson,Kentucky,Anderson,2021-04-04 10:19:08.623722,2021-01-05 00:00:00.000000,11.17031032,15.88520073,21.61054481,2540,3613,4915,1153,1834,2580,5.07124684,8.06655484,11.34308620,0.39327196,0.55078363,0.82543682
21005,0,USKentuckyAnderson,Kentucky,Anderson,2021-04-04 10:19:08.623722,2021-01-06 00:00:00.000000,10.93929107,15.61969741,21.31471756,2488,3553,4848,1145,1813,2570,5.03442638,7.97306385,11.30061471,0.38839743,0.55128001,0.82744711
21005,0,USKentuckyAnderson,Kentucky,Anderson,2021-04-04 10:19:08.623722,2021-01-07 00:00:00.000000,10.70154957,15.25460419,21.19234323,2434,3469,4820,1135,1790,2557,4.99019706,7.87192589,11.24475751,0.38602762,0.55953381,0.82964280
21005,0,USKentuckyAnderson,Kentucky,Anderson,2021-04-04 10:19:08.623722,2021-01-08 00:00:00.000000,10.46322242,14.99100832,20.98866065,2380,3410,4774,1122,1768,2542,4.93344365,7.77536648,11.17568590,0.38502246,0.56636077,0.87432215
21005,0,USKentuckyAnderson,Kentucky,Anderson,2021-04-04 10:19:08.623722,2021-01-09 00:00:00.000000,10.23302491,14.75318503,20.68751256,2327,3355,4705,1106,1750,2523,4.86255345,7.69372371,11.09321655,0.38490613,0.57901758,0.90798427
21005,0,USKentuckyAnderson,Kentucky,Anderson,2021-04-04 10:19:08.623722,2021-01-10 00:00:00.000000,10.01982388,14.42771290,20.30461026,2279,3281,4618,1087,1727,2501,4.77914124,7.59518233,10.99683390,0.38600940,0.59750224,0.90578656
21005,0,USKentuckyAnderson,Kentucky,Anderson,2021-04-04 10:19:08.623722,2021-01-11 00:00:00.000000,9.82412094,14.26580050,19.87614766,2234,3245,4521,1065,1700,2479,4.68574644,7.47488051,10.90228577,0.39656085,0.60926510,0.90681382
21005,0,USKentuckyAnderson,Kentucky,Anderson,2021-04-04 10:19:08.623722,2021-01-12 00:00:00.000000,9.64397631,14.13298600,19.42579928,2193,3214,4418,1042,1672,2451,4.58432949,7.35151133,10.77778962,0.41561683,0.61609065,0.90753704
21005,0,USKentuckyAnderson,Kentucky,Anderson,2021-04-04 10:19:08.623722,2021-01-13 00:00:00.000000,9.47274226,13.91977324,18.97431626,2154,3166,4316,1018,1645,2417,4.47691827,7.23440454,10.62698076,0.42887645,0.63266319,0.94296271
21005,0,USKentuckyAnderson,Kentucky,Anderson,2021-04-04 10:19:08.623722,2021-01-14 00:00:00.000000,9.30570093,13.62942401,18.53289554,2116,3100,4215,992,1622,2380,4.36514750,7.13248887,10.46528422,0.43140978,0.64615362,0.95069985
21005,0,USKentuckyAnderson,Kentucky,Anderson,2021-04-04 10:19:08.623722,2021-01-15 00:00:00.000000,9.13927078,13.29639237,18.09520613,2078,3024,4116,966,1589,2342,4.25081283,6.98918350,10.29974886,0.43637375,0.65664050,0.97045295
21005,0,USKentuckyAnderson,Kentucky,Anderson,2021-04-04 10:19:08.623722,2021-01-16 00:00:00.000000,8.96968453,13.10041205,17.65108956,2040,2979,4015,941,1548,2303,4.13883857,6.80935069,10.12530248,0.45753573,0.67468662,0.99587793
21005,0,USKentuckyAnderson,Kentucky,Anderson,2021-04-04 10:19:08.623722,2021-01-17 00:00:00.000000,8.84809677,12.88060521,17.19861844,2012,2929,3912,917,1516,2262,4.03483118,6.66766460,9.94512131,0.46767689,0.68734522,1.01840564
21005,0,USKentuckyAnderson,Kentucky,Anderson,2021-04-04 10:19:08.623722,2021-01-18 00:00:00.000000,8.75008035,12.58071215,16.74549309,1990,2861,3809,895,1491,2220,3.93728805,6.55671679,9.76278396,0.46485807,0.69829681,1.02647075
21005,0,USKentuckyAnderson,Kentucky,Anderson,2021-04-04 10:19:08.623722,2021-01-19 00:00:00.000000,8.64640607,12.32163287,16.28363971,1966,2802,3704,874,1461,2179,3.84395628,6.42714807,9.58091337,0.47785098,0.70473696,1.04030926
21005,0,USKentuckyAnderson,Kentucky,Anderson,2021-04-04 10:19:08.623722,2021-01-20 00:00:00.000000,8.53504786,11.96381640,15.83918992,1941,2721,3602,853,1433,2138,3.75311385,6.30345266,9.40094036,0.47704063,0.72219666,1.06077483
21005,0,USKentuckyAnderson,Kentucky,Anderson,2021-04-04 10:19:08.623722,2021-01-21 00:00:00.000000,8.41543930,11.68487282,15.41525931,1914,2657,3506,833,1415,2097,3.66365162,6.22214623,9.22299966,0.46391160,0.73676051,1.06741795
21005,0,USKentuckyAnderson,Kentucky,Anderson,2021-04-04 10:19:08.623722,2021-01-22 00:00:00.000000,8.29016861,11.38002882,15.01420607,1885,2588,3415,813,1395,2048,3.57489223,6.13706614,9.00652373,0.46467773,0.73892097,1.06922618
21005,0,USKentuckyAnderson,Kentucky,Anderson,2021-04-04 10:19:08.623722,2021-01-23 00:00:00.000000,8.16458216,11.09382341,14.69431151,1857,2523,3342,793,1370,1993,3.48645356,6.02539247,8.76337770,0.46576237,0.73856492,1.07672018
21005,0,USKentuckyAnderson,Kentucky,Anderson,2021-04-04 10:19:08.623722,2021-01-24 00:00:00.000000,7.98983547,10.73157350,14.36254274,1817,2441,3267,772,1339,1936,3.39815171,5.88870626,8.51493506,0.46689551,0.74028836,1.06865076
21005,0,USKentuckyAnderson,Kentucky,Anderson,2021-04-04 10:19:08.623722,2021-01-25 00:00:00.000000,7.81262253,10.37175683,14.01614737,1777,2359,3188,752,1306,1885,3.30993231,5.74384711,8.28788804,0.42007645,0.75089875,1.07634058
21005,0,USKentuckyAnderson,Kentucky,Anderson,2021-04-04 10:19:08.623722,2021-01-26 00:00:00.000000,7.50175285,10.08560051,13.63642913,1706,2294,3101,733,1272,1841,3.22366571,5.59254456,8.09522064,0.39584361,0.75435585,1.10433582
21005,0,USKentuckyAnderson,Kentucky,Anderson,2021-04-04 10:19:08.623722,2021-01-27 00:00:00.000000,7.15486446,9.78538756,13.24384944,1627,2225,3012,713,1241,1795,3.13884044,5.45963138,7.89455714,0.38752810,0.75287698,1.10564340
21005,0,USKentuckyAnderson,Kentucky,Anderson,2021-04-04 10:19:08.623722,2021-01-28 00:00:00.000000,6.90622496,9.46712939,12.85091537,1570,2153,2923,694,1209,1748,3.05512867,5.31914506,7.68704641,0.37762104,0.74730566,1.10316382
21005,0,USKentuckyAnderson,Kentucky,Anderson,2021-04-04 10:19:08.623722,2021-01-29 00:00:00.000000,6.66428331,9.18500082,12.46035528,1515,2089,2834,676,1171,1700,2.97226758,5.15207273,7.47382108,0.37239986,0.72985354,1.10378053
21005,0,USKentuckyAnderson,Kentucky,Anderson,2021-04-04 10:19:08.623722,2021-01-30 00:00:00.000000,6.42975816,8.86624035,12.07019878,1462,2016,2745,657,1131,1650,2.88972816,4.97423773,7.25598126,0.36822601,0.70576367,1.14538849
21005,0,USKentuckyAnderson,Kentucky,Anderson,2021-04-04 10:19:08.623722,2021-01-31 00:00:00.000000,6.20334758,8.51021447,11.68145981,1411,1935,2657,638,1090,1600,2.80558874,4.79247768,7.03457962,0.36454082,0.68256768,1.14737880
21005,0,USKentuckyAnderson,Kentucky,Anderson,2021-04-04 10:19:08.623722,2021-02-01 00:00:00.000000,5.93577925,8.14705401,11.28140669,1350,1853,2566,617,1047,1549,2.71608910,4.60670908,6.81061473,0.35783596,0.65980275,1.14785763
21005,0,USKentuckyAnderson,Kentucky,Anderson,2021-04-04 10:19:08.623722,2021-02-02 00:00:00.000000,5.62334474,7.81645213,10.88788271,1279,1778,2476,595,1010,1498,2.61769896,4.44312827,6.58577276,0.33052757,0.65432653,1.14606192
21005,0,USKentuckyAnderson,Kentucky,Anderson,2021-04-04 10:19:08.623722,2021-02-03 00:00:00.000000,5.32362842,7.47058894,10.50041177,1210,1699,2388,571,976,1446,2.51314205,4.29188418,6.36010630,0.32460382,0.62932119,1.13709323
21005,0,USKentuckyAnderson,Kentucky,Anderson,2021-04-04 10:19:08.623722,2021-02-04 00:00:00.000000,5.03741833,7.12867921,10.11605423,1145,1621,2301,547,941,1395,2.40479509,4.13746684,6.13352085,0.32244626,0.62072868,1.08163782
21005,0,USKentuckyAnderson,Kentucky,Anderson,2021-04-04 10:19:08.623722,2021-02-05 00:00:00.000000,4.76533172,6.82195611,9.73002763,1083,1551,2213,521,904,1343,2.29405151,3.97639803,5.90576993,0.32121715,0.61855951,1.01997691
21005,0,USKentuckyAnderson,Kentucky,Anderson,2021-04-04 10:19:08.623722,2021-02-06 00:00:00.000000,4.50828501,6.52342953,9.34215665,1025,1483,2125,496,862,1290,2.18201034,3.79344744,5.67429184,0.32035019,0.62102793,1.04868470
21005,0,USKentuckyAnderson,Kentucky,Anderson,2021-04-04 10:19:08.623722,2021-02-07 00:00:00.000000,4.26806390,6.21992818,8.95839797,970,1414,2037,470,822,1238,2.07006173,3.61506464,5.44572801,0.31961987,0.61590013,1.15357079
21005,0,USKentuckyAnderson,Kentucky,Anderson,2021-04-04 10:19:08.623722,2021-02-08 00:00:00.000000,4.02674348,5.97236095,8.58827175,915,1358,1953,445,783,1188,1.95961194,3.44545263,5.22679500,0.31886383,0.59610095,1.12135996
21005,0,USKentuckyAnderson,Kentucky,Anderson,2021-04-04 10:19:08.623722,2021-02-09 00:00:00.000000,3.80771297,5.70387033,8.22946127,866,1297,1871,421,743,1141,1.85379393,3.26794160,5.01629126,0.31787682,0.59302112,1.10585139
21005,0,USKentuckyAnderson,Kentucky,Anderson,2021-04-04 10:19:08.623722,2021-02-10 00:00:00.000000,3.61125979,5.42032197,7.88277847,821,1232,1793,398,702,1093,1.75280479,3.08973259,4.80630589,0.31635193,0.59420505,1.10091553
21005,0,USKentuckyAnderson,Kentucky,Anderson,2021-04-04 10:19:08.623722,2021-02-11 00:00:00.000000,3.43324615,5.14324957,7.54850230,780,1169,1717,376,669,1048,1.65678662,2.94307866,4.60906593,0.31386228,0.60022041,1.14869455
21005,0,USKentuckyAnderson,Kentucky,Anderson,2021-04-04 10:19:08.623722,2021-02-12 00:00:00.000000,3.26388444,4.88841626,7.22682274,742,1111,1643,356,639,1009,1.56600712,2.81347395,4.43631552,0.30995015,0.61495552,1.18839651
21005,0,USKentuckyAnderson,Kentucky,Anderson,2021-04-04 10:19:08.623722,2021-02-13 00:00:00.000000,3.10276094,4.65107372,6.84671251,705,1057,1557,336,611,970,1.48136771,2.68643317,4.26743740,0.30445891,0.64267807,1.19558820
21005,0,USKentuckyAnderson,Kentucky,Anderson,2021-04-04 10:19:08.623722,2021-02-14 00:00:00.000000,2.94923746,4.43605628,6.49682336,670,1009,1477,319,582,933,1.40449334,2.56249293,4.10283458,0.29805206,0.66887585,1.20325748
21005,0,USKentuckyAnderson,Kentucky,Anderson,2021-04-04 10:19:08.623722,2021-02-15 00:00:00.000000,2.80229158,4.22266382,6.22151892,637,960,1415,303,555,896,1.33570671,2.44207129,3.94320872,0.29519668,0.67781940,1.20588323
21005,0,USKentuckyAnderson,Kentucky,Anderson,2021-04-04 10:19:08.623722,2021-02-16 00:00:00.000000,2.66815076,4.01845701,5.95472831,606,914,1354,289,529,861,1.27376775,2.32597231,3.78899612,0.29574723,0.67873087,1.21078353
21005,0,USKentuckyAnderson,Kentucky,Anderson,2021-04-04 10:19:08.623722,2021-02-17 00:00:00.000000,2.53794405,3.84402489,5.69628146,577,874,1295,276,503,828,1.21736373,2.21426577,3.64023587,0.29596194,0.67520331,1.21289497
21005,0,USKentuckyAnderson,Kentucky,Anderson,2021-04-04 10:19:08.623722,2021-02-18 00:00:00.000000,2.42904678,3.68070641,5.47454251,552,837,1245,264,479,791,1.16243163,2.10698054,3.47904171,0.29631045,0.67208718,1.21444355
21005,0,USKentuckyAnderson,Kentucky,Anderson,2021-04-04 10:19:08.623722,2021-02-19 00:00:00.000000,2.30637139,3.50057585,5.26246884,524,796,1197,251,455,755,1.10402276,2.00411910,3.32229106,0.29829119,0.68799640,1.21595055
21005,0,USKentuckyAnderson,Kentucky,Anderson,2021-04-04 10:19:08.623722,2021-02-20 00:00:00.000000,2.19318173,3.32793631,5.05737694,498,757,1150,240,433,724,1.05762573,1.90567468,3.18338340,0.30959542,0.69313030,1.21744476
21005,0,USKentuckyAnderson,Kentucky,Anderson,2021-04-04 10:19:08.623722,2021-02-21 00:00:00.000000,2.08728102,3.16409155,4.82791048,474,719,1098,230,411,693,1.01547317,1.81100310,3.04852633,0.33843176,0.70214116,1.22691267
21005,0,USKentuckyAnderson,Kentucky,Anderson,2021-04-04 10:19:08.623722,2021-02-22 00:00:00.000000,1.98513465,3.00312610,4.60342626,451,683,1047,221,392,663,0.97544092,1.72487639,2.91781421,0.34888576,0.69746829,1.23444601
21005,0,USKentuckyAnderson,Kentucky,Anderson,2021-04-04 10:19:08.623722,2021-02-23 00:00:00.000000,1.87768048,2.85557434,4.38771252,427,649,998,213,374,634,0.93670266,1.64501941,2.79045846,0.35380847,0.71754617,1.23897688
21005,0,USKentuckyAnderson,Kentucky,Anderson,2021-04-04 10:19:08.623722,2021-02-24 00:00:00.000000,1.76529651,2.72403589,4.18056083,401,619,950,204,356,606,0.89910054,1.56889532,2.66669685,0.36014419,0.72196569,1.24320873
21005,0,USKentuckyAnderson,Kentucky,Anderson,2021-04-04 10:19:08.623722,2021-02-25 00:00:00.000000,1.69165055,2.58197398,3.98182632,384,587,905,196,339,579,0.86258779,1.49445611,2.54670469,0.36602591,0.72320213,1.25052183
21005,0,USKentuckyAnderson,Kentucky,Anderson,2021-04-04 10:19:08.623722,2021-02-26 00:00:00.000000,1.58736234,2.45316989,3.79149550,361,558,862,188,324,552,0.82695191,1.42453567,2.43060484,0.37136207,0.72319335,1.26577009
21005,0,USKentuckyAnderson,Kentucky,Anderson,2021-04-04 10:19:08.623722,2021-02-27 00:00:00.000000,1.48850576,2.32309894,3.60955996,338,528,821,180,308,527,0.79166312,1.35432867,2.32007542,0.37572787,0.72522719,1.29102447
21005,0,USKentuckyAnderson,Kentucky,Anderson,2021-04-04 10:19:08.623722,2021-02-28 00:00:00.000000,1.39764343,2.19677013,3.43591839,317,499,781,172,291,507,0.75638589,1.28057035,2.23147896,0.37898013,0.73667596,1.31654361
21005,0,USKentuckyAnderson,Kentucky,Anderson,2021-04-04 10:19:08.623722,2021-03-01 00:00:00.000000,1.33156430,2.09944986,3.26722788,302,477,743,161,275,489,0.71158397,1.21198786,2.15274168,0.38129275,0.74930907,1.33357690
21005,0,USKentuckyAnderson,Kentucky,Anderson,2021-04-04 10:19:08.623722,2021-03-02 00:00:00.000000,1.25197023,1.99783344,3.10639547,284,454,706,152,261,472,0.67255681,1.14857806,2.07682207,0.38272793,0.73272914,1.34189507
21005,0,USKentuckyAnderson,Kentucky,Anderson,2021-04-04 10:19:08.623722,2021-03-03 00:00:00.000000,1.16088255,1.90229024,2.95315779,264,432,671,147,247,455,0.64724553,1.08994154,2.00348923,0.35030477,0.74127212,1.34547844
21005,0,USKentuckyAnderson,Kentucky,Anderson,2021-04-04 10:19:08.623722,2021-03-04 00:00:00.000000,1.09131416,1.82300387,2.80731162,248,414,638,140,235,439,0.61826780,1.03565621,1.93256894,0.33037131,0.73928614,1.38133205
21005,0,USKentuckyAnderson,Kentucky,Anderson,2021-04-04 10:19:08.623722,2021-03-05 00:00:00.000000,1.03605411,1.75879108,2.69245377,235,400,612,133,224,423,0.58633198,0.98815012,1.86392861,0.32626113,0.73941964,1.35406917
21005,0,USKentuckyAnderson,Kentucky,Anderson,2021-04-04 10:19:08.623722,2021-03-06 00:00:00.000000,0.98467767,1.67571772,2.58213329,223,381,587,126,215,405,0.55585653,0.94926607,1.78477587,0.32707110,0.76602505,1.34385068
21005,0,USKentuckyAnderson,Kentucky,Anderson,2021-04-04 10:19:08.623722,2021-03-07 00:00:00.000000,0.93700011,1.60322519,2.48894753,213,364,566,119,207,388,0.52696339,0.91303806,1.70777755,0.31199812,0.78144943,1.29229663
21005,0,USKentuckyAnderson,Kentucky,Anderson,2021-04-04 10:19:08.623722,2021-03-08 00:00:00.000000,0.89589487,1.53649634,2.39719400,203,349,545,113,199,371,0.49973162,0.87632878,1.63388529,0.29741853,0.76952173,1.24286848
21005,0,USKentuckyAnderson,Kentucky,Anderson,2021-04-04 10:19:08.623722,2021-03-09 00:00:00.000000,0.85974572,1.48291155,2.32043389,195,337,527,108,189,357,0.47750709,0.83181839,1.56945699,0.29446502,0.77728812,1.27614668
21005,0,USKentuckyAnderson,Kentucky,Anderson,2021-04-04 10:19:08.623722,2021-03-10 00:00:00.000000,0.82738689,1.43658009,2.24636753,188,326,510,104,180,343,0.46078699,0.79471000,1.51198690,0.29428547,0.78033724,1.30121244
21005,0,USKentuckyAnderson,Kentucky,Anderson,2021-04-04 10:19:08.623722,2021-03-11 00:00:00.000000,0.79775690,1.37293641,2.17491624,181,312,494,100,173,327,0.44268631,0.76440662,1.44011462,0.29513361,0.80010813,1.32118757
21005,0,USKentuckyAnderson,Kentucky,Anderson,2021-04-04 10:19:08.623722,2021-03-12 00:00:00.000000,0.77070599,1.32147996,2.10595478,175,300,479,97,167,312,0.42775444,0.73767433,1.37187185,0.29719955,0.80745869,1.33793648
21005,0,USKentuckyAnderson,Kentucky,Anderson,2021-04-04 10:19:08.623722,2021-03-13 00:00:00.000000,0.74646289,1.26439564,2.03936320,169,287,463,92,162,297,0.40788981,0.71440821,1.30822537,0.30139991,0.81392088,1.35077779
21005,0,USKentuckyAnderson,Kentucky,Anderson,2021-04-04 10:19:08.623722,2021-03-14 00:00:00.000000,0.70665328,1.21972916,1.97505642,160,277,449,87,157,284,0.38464824,0.69154237,1.25128248,0.30880741,0.81906067,1.36903718
21005,0,USKentuckyAnderson,Kentucky,Anderson,2021-04-04 10:19:08.623722,2021-03-15 00:00:00.000000,0.67585489,1.16415944,1.90797326,153,264,434,82,150,272,0.36267672,0.66359996,1.19679754,0.31940546,0.81566249,1.40353825
21005,0,USKentuckyAnderson,Kentucky,Anderson,2021-04-04 10:19:08.623722,2021-03-16 00:00:00.000000,0.64525986,1.11108439,1.84304603,146,252,419,78,145,260,0.34326128,0.64114588,1.14596821,0.32013775,0.81815715,1.45985396
21005,0,USKentuckyAnderson,Kentucky,Anderson,2021-04-04 10:19:08.623722,2021-03-17 00:00:00.000000,0.60286748,1.06108861,1.78017606,137,241,404,74,142,249,0.32598290,0.62623738,1.09863926,0.31615339,0.81558977,1.53956959
21005,0,USKentuckyAnderson,Kentucky,Anderson,2021-04-04 10:19:08.623722,2021-03-18 00:00:00.000000,0.56431616,1.01437949,1.71936771,128,230,391,70,137,239,0.31050403,0.60340503,1.05454626,0.31427735,0.82504936,1.57993618
21005,0,USKentuckyAnderson,Kentucky,Anderson,2021-04-04 10:19:08.623722,2021-03-19 00:00:00.000000,0.52933528,0.97572345,1.66060912,120,221,377,67,130,230,0.29654819,0.57273762,1.01338492,0.31363083,0.83808679,1.60104825
21005,0,USKentuckyAnderson,Kentucky,Anderson,2021-04-04 10:19:08.623722,2021-03-20 00:00:00.000000,0.49772876,0.93521639,1.60387666,113,212,364,63,123,221,0.27750523,0.54316827,0.97486239,0.31433659,0.84208433,1.61812294
21005,0,USKentuckyAnderson,Kentucky,Anderson,2021-04-04 10:19:08.623722,2021-03-21 00:00:00.000000,0.46955521,0.89511809,1.54914003,106,203,352,59,118,213,0.26007553,0.51904785,0.93871096,0.31886789,0.84042496,1.63686782
21005,0,USKentuckyAnderson,Kentucky,Anderson,2021-04-04 10:19:08.623722,2021-03-22 00:00:00.000000,0.44452322,0.87895757,1.50050817,101,199,341,55,112,205,0.24424477,0.49612075,0.90469092,0.32488254,0.84169425,1.65753404
21005,0,USKentuckyAnderson,Kentucky,Anderson,2021-04-04 10:19:08.623722,2021-03-23 00:00:00.000000,0.42120706,0.85613390,1.45381195,95,194,330,52,108,198,0.23228761,0.47683902,0.87224280,0.32850832,0.84924335,1.67885013
21005,0,USKentuckyAnderson,Kentucky,Anderson,2021-04-04 10:19:08.623722,2021-03-24 00:00:00.000000,0.39909809,0.81868474,1.41600661,90,186,322,50,104,191,0.22171930,0.45892772,0.84117825,0.33234519,0.85337892,1.70261359
21005,0,USKentuckyAnderson,Kentucky,Anderson,2021-04-04 10:19:08.623722,2021-03-25 00:00:00.000000,0.37808842,0.80055296,1.38856427,86,182,315,48,100,184,0.21218245,0.44372878,0.81127380,0.33808910,0.86318201,1.89730183
21005,0,USKentuckyAnderson,Kentucky,Anderson,2021-04-04 10:19:08.623722,2021-03-26 00:00:00.000000,0.35825409,0.77702616,1.36053366,81,176,309,46,98,176,0.20352096,0.43324279,0.77724458,0.33963862,0.86698741,1.89668429
21005,0,USKentuckyAnderson,Kentucky,Anderson,2021-04-04 10:19:08.623722,2021-03-27 00:00:00.000000,0.33962420,0.75406433,1.33166390,77,171,302,44,94,168,0.19558372,0.41656993,0.74154804,0.33858733,0.86459706,1.81589478
21005,0,USKentuckyAnderson,Kentucky,Anderson,2021-04-04 10:19:08.623722,2021-03-28 00:00:00.000000,0.32788226,0.73102998,1.30229630,74,166,296,42,92,163,0.18822435,0.40570647,0.71841157,0.31580322,0.87357709,1.79261460
21005,0,USKentuckyAnderson,Kentucky,Anderson,2021-04-04 10:19:08.623722,2021-03-29 00:00:00.000000,0.30565230,0.69252104,1.26511332,69,157,287,41,88,158,0.18133845,0.39014482,0.69625578,0.30082260,0.85977082,1.78702715
21005,0,USKentuckyAnderson,Kentucky,Anderson,2021-04-04 10:19:08.623722,2021-03-30 00:00:00.000000,0.28416336,0.65522892,1.22828741,64,149,279,39,85,153,0.17296240,0.37575573,0.67675578,0.29437596,0.85839576,1.78490389
21005,0,USKentuckyAnderson,Kentucky,Anderson,2021-04-04 10:19:08.623722,2021-03-31 00:00:00.000000,0.26524262,0.61554116,1.19177613,60,140,271,37,81,148,0.16367427,0.36041522,0.65165814,0.29145927,0.85763939,1.78327331
21005,0,USKentuckyAnderson,Kentucky,Anderson,2021-04-04 10:19:08.623722,2021-04-01 00:00:00.000000,0.24823813,0.58349042,1.14657046,56,132,260,35,78,142,0.15391164,0.34460975,0.62694889,0.28946755,0.86998753,1.76511627
21005,0,USKentuckyAnderson,Kentucky,Anderson,2021-04-04 10:19:08.623722,2021-04-02 00:00:00.000000,0.23219926,0.55580353,1.09771540,52,126,249,32,74,137,0.14399692,0.32757572,0.60272089,0.28735447,0.87818865,1.74765293
21005,0,USKentuckyAnderson,Kentucky,Anderson,2021-04-04 10:19:08.623722,2021-04-03 00:00:00.000000,0.21710356,0.52555678,1.05099544,49,119,239,30,70,131,0.13416205,0.31111486,0.57905413,0.28476163,0.87646735,1.74772317
21005,0,USKentuckyAnderson,Kentucky,Anderson,2021-04-04 10:19:08.623722,2021-04-04 00:00:00.000000,0.20292092,0.49646305,1.00635158,46,112,228,28,67,126,0.12456965,0.29623172,0.55602112,0.28170859,0.88796418,1.78482847
21005,0,USKentuckyAnderson,Kentucky,Anderson,2021-04-04 10:19:08.623722,2021-04-05 00:00:00.000000,0.18962092,0.46744437,0.96362886,43,106,219,26,64,121,0.11533024,0.28217147,0.53367495,0.27848043,0.89116166,2.02261879
21005,0,USKentuckyAnderson,Kentucky,Anderson,2021-04-04 10:19:08.623722,2021-04-06 00:00:00.000000,0.17719211,0.44364640,0.92267990,40,100,209,24,61,116,0.10651595,0.26978341,0.51204495,0.27547226,0.89240570,2.06837895
21005,0,USKentuckyAnderson,Kentucky,Anderson,2021-04-04 10:19:08.623722,2021-04-07 00:00:00.000000,0.16568959,0.41671765,0.88339942,37,94,200,22,58,111,0.09817096,0.25784708,0.49114200,0.27298915,0.89174529,2.07230739
21005,0,USKentuckyAnderson,Kentucky,Anderson,2021-04-04 10:19:08.623722,2021-04-08 00:00:00.000000,0.15520294,0.39316372,0.84571148,35,89,192,20,56,107,0.09031942,0.24637658,0.47096587,0.27113816,0.88966343,2.07283701
21005,0,USKentuckyAnderson,Kentucky,Anderson,2021-04-04 10:19:08.623722,2021-04-09 00:00:00.000000,0.14560478,0.37440162,0.80955429,33,85,184,18,53,102,0.08297079,0.23537478,0.45150981,0.26986100,0.88963353,2.07291130
21005,0,USKentuckyAnderson,Kentucky,Anderson,2021-04-04 10:19:08.623722,2021-04-10 00:00:00.000000,0.13669840,0.35758346,0.77487221,31,81,176,17,51,98,0.07622852,0.22483644,0.43276318,0.26902615,0.88962689,2.07292233
21005,0,USKentuckyAnderson,Kentucky,Anderson,2021-04-04 10:19:08.623722,2021-04-11 00:00:00.000000,0.12838382,0.33936014,0.74161236,29,77,168,16,48,94,0.07143610,0.21444721,0.41541708,0.26849958,0.88962543,2.07292407
21005,0,USKentuckyAnderson,Kentucky,Anderson,2021-04-04 10:19:08.623722,2021-04-12 00:00:00.000000,0.12060447,0.32153639,0.70972343,27,73,161,15,46,91,0.06698962,0.20426385,0.40063612,0.26817489,0.88962510,2.07292435
21005,0,USKentuckyAnderson,Kentucky,Anderson,2021-04-04 10:19:08.623722,2021-04-13 00:00:00.000000,0.11331742,0.30437287,0.67915531,25,69,154,14,44,87,0.06285347,0.19505450,0.38631099,0.26797748,0.88962503,2.07292440
21005,0,USKentuckyAnderson,Kentucky,Anderson,2021-04-04 10:19:08.623722,2021-04-14 00:00:00.000000,0.10648610,0.28764214,0.64985897,24,65,147,13,42,84,0.05899770,0.18479556,0.37243851,0.26785849,0.88962502,2.07292441
21005,0,USKentuckyAnderson,Kentucky,Anderson,2021-04-04 10:19:08.623722,2021-04-15 00:00:00.000000,0.09809437,0.27155156,0.62178653,22,61,141,12,39,81,0.05539704,0.17509739,0.35901332,0.26778713,0.88962501,2.07292441
21005,0,USKentuckyAnderson,Kentucky,Anderson,2021-04-04 10:19:08.623722,2021-04-16 00:00:00.000000,0.08983957,0.25707887,0.59489130,20,58,135,11,37,78,0.05202997,0.16532013,0.34602835,0.26774446,0.88962501,2.07292441
