FIPS,HR_UID,nameid,province,region,analysisTime,dates,pointprevalence_025,pointprevalence_50,pointprevalence_975,pointinfections_025,pointinfections_50,pointinfections_975,pointinfectious_025,pointinfectious_50,pointinfectious_975,pointinfectiousprevalence_05,pointinfectiousprevalence_50,pointinfectiousprevalence_95,infectrate_025,infectrate_50,infectrate_975
51193,0,USVirginiaWestmoreland,Virginia,Westmoreland,2021-04-04 02:25:16.438997,2020-03-09 00:00:00.000000,0.00439386,0.02077482,0.07007672,0,3,12,0,2,6,0.00238107,0.01122490,0.03764382,0.40110802,0.53617532,0.76354573
51193,0,USVirginiaWestmoreland,Virginia,Westmoreland,2021-04-04 02:25:16.438997,2020-03-10 00:00:00.000000,0.00467512,0.02276355,0.07656828,0,4,13,0,1,6,0.00229772,0.01104807,0.03843279,0.40110340,0.53597985,0.76354475
51193,0,USVirginiaWestmoreland,Virginia,Westmoreland,2021-04-04 02:25:16.438997,2020-03-11 00:00:00.000000,0.00501338,0.02447390,0.08360503,0,4,15,0,2,7,0.00243462,0.01167055,0.04186019,0.40109140,0.53565164,0.76354201
51193,0,USVirginiaWestmoreland,Virginia,Westmoreland,2021-04-04 02:25:16.438997,2020-03-12 00:00:00.000000,0.00538050,0.02599019,0.09124064,0,4,16,0,2,8,0.00265375,0.01227187,0.04513407,0.40105977,0.53509680,0.76353438
51193,0,USVirginiaWestmoreland,Virginia,Westmoreland,2021-04-04 02:25:16.438997,2020-03-13 00:00:00.000000,0.00576408,0.02751447,0.09953324,1,4,17,0,2,8,0.00290168,0.01347158,0.04907274,0.40097518,0.53434445,0.76351323
51193,0,USVirginiaWestmoreland,Virginia,Westmoreland,2021-04-04 02:25:16.438997,2020-03-14 00:00:00.000000,0.00615701,0.02997892,0.10854320,1,5,19,0,2,9,0.00315840,0.01444556,0.05351262,0.40074716,0.53240411,0.76345504
51193,0,USVirginiaWestmoreland,Virginia,Westmoreland,2021-04-04 02:25:16.438997,2020-03-15 00:00:00.000000,0.00655303,0.03188428,0.11832828,1,5,21,0,2,10,0.00341642,0.01563929,0.05839910,0.40013306,0.53117925,0.76329864
51193,0,USVirginiaWestmoreland,Virginia,Westmoreland,2021-04-04 02:25:16.438997,2020-03-16 00:00:00.000000,0.01114872,0.04153075,0.14020372,2,7,25,0,3,11,0.00367233,0.01689301,0.06372701,0.39851560,0.52813081,0.76290341
51193,0,USVirginiaWestmoreland,Virginia,Westmoreland,2021-04-04 02:25:16.438997,2020-03-17 00:00:00.000000,0.01533483,0.04999627,0.15991255,2,9,28,0,3,13,0.00530954,0.02007386,0.07255778,0.39455551,0.51860766,0.76204172
51193,0,USVirginiaWestmoreland,Virginia,Westmoreland,2021-04-04 02:25:16.438997,2020-03-18 00:00:00.000000,0.02069405,0.05984645,0.17255685,3,10,31,1,4,14,0.00744408,0.02450181,0.07832670,0.38309782,0.51364239,0.76062981
51193,0,USVirginiaWestmoreland,Virginia,Westmoreland,2021-04-04 02:25:16.438997,2020-03-19 00:00:00.000000,0.02582945,0.07015574,0.18512912,4,12,33,1,5,15,0.00960909,0.03003403,0.08456124,0.37080904,0.49551176,0.75893221
51193,0,USVirginiaWestmoreland,Virginia,Westmoreland,2021-04-04 02:25:16.438997,2020-03-20 00:00:00.000000,0.03109356,0.08052472,0.19707921,5,14,35,2,6,16,0.01308213,0.03519556,0.09100184,0.35199000,0.47892063,0.73941170
51193,0,USVirginiaWestmoreland,Virginia,Westmoreland,2021-04-04 02:25:16.438997,2020-03-21 00:00:00.000000,0.03640995,0.08938258,0.20810172,6,16,37,2,7,17,0.01628078,0.04122508,0.09748964,0.33055951,0.45345790,0.72246053
51193,0,USVirginiaWestmoreland,Virginia,Westmoreland,2021-04-04 02:25:16.438997,2020-03-22 00:00:00.000000,0.04122266,0.09915307,0.22744320,7,17,40,3,8,19,0.01908083,0.04689510,0.10902393,0.31079665,0.43248671,0.68013613
51193,0,USVirginiaWestmoreland,Virginia,Westmoreland,2021-04-04 02:25:16.438997,2020-03-23 00:00:00.000000,0.04627062,0.11313553,0.24209019,8,20,43,3,9,21,0.02148924,0.05188212,0.12045771,0.30483464,0.42484176,0.66237034
51193,0,USVirginiaWestmoreland,Virginia,Westmoreland,2021-04-04 02:25:16.438997,2020-03-24 00:00:00.000000,0.05448846,0.12669931,0.25526345,9,22,45,4,10,23,0.02607600,0.05724171,0.12995005,0.30295823,0.40504485,0.55468058
51193,0,USVirginiaWestmoreland,Virginia,Westmoreland,2021-04-04 02:25:16.438997,2020-03-25 00:00:00.000000,0.06073179,0.14047768,0.27252057,10,25,49,5,11,24,0.02979076,0.06553757,0.13804694,0.28243402,0.39712609,0.53652616
51193,0,USVirginiaWestmoreland,Virginia,Westmoreland,2021-04-04 02:25:16.438997,2020-03-26 00:00:00.000000,0.06696997,0.15431641,0.29107125,12,27,52,6,13,26,0.03354403,0.07369404,0.14502419,0.27095000,0.38344403,0.52623049
51193,0,USVirginiaWestmoreland,Virginia,Westmoreland,2021-04-04 02:25:16.438997,2020-03-27 00:00:00.000000,0.07311733,0.16548397,0.31991282,13,29,57,6,14,27,0.03723611,0.08042053,0.15347525,0.26532813,0.37937076,0.51294231
51193,0,USVirginiaWestmoreland,Virginia,Westmoreland,2021-04-04 02:25:16.438997,2020-03-28 00:00:00.000000,0.07942304,0.17810819,0.35206542,14,32,63,7,15,29,0.04041971,0.08690447,0.16561182,0.25328117,0.36972153,0.50099990
51193,0,USVirginiaWestmoreland,Virginia,Westmoreland,2021-04-04 02:25:16.438997,2020-03-29 00:00:00.000000,0.08485187,0.19235405,0.38013262,15,34,68,7,16,33,0.04412852,0.09286964,0.18415200,0.24570217,0.35856968,0.49412813
51193,0,USVirginiaWestmoreland,Virginia,Westmoreland,2021-04-04 02:25:16.438997,2020-03-30 00:00:00.000000,0.09480935,0.20435366,0.39935617,17,36,71,8,17,36,0.04798611,0.09764046,0.20177009,0.23491947,0.34343543,0.49036145
51193,0,USVirginiaWestmoreland,Virginia,Westmoreland,2021-04-04 02:25:16.438997,2020-03-31 00:00:00.000000,0.10343454,0.21289636,0.41580564,18,38,74,9,18,38,0.05255672,0.10291752,0.21562583,0.22726950,0.34038546,0.48706080
51193,0,USVirginiaWestmoreland,Virginia,Westmoreland,2021-04-04 02:25:16.438997,2020-04-01 00:00:00.000000,0.11121621,0.22143233,0.43520971,20,39,78,10,19,40,0.05665815,0.10876325,0.22705133,0.22455058,0.33045618,0.48239620
51193,0,USVirginiaWestmoreland,Virginia,Westmoreland,2021-04-04 02:25:16.438997,2020-04-02 00:00:00.000000,0.11567324,0.23078362,0.45319162,20,41,81,10,20,42,0.06033278,0.11650813,0.23720555,0.22410656,0.32419650,0.46902721
51193,0,USVirginiaWestmoreland,Virginia,Westmoreland,2021-04-04 02:25:16.438997,2020-04-03 00:00:00.000000,0.12151983,0.24399678,0.46715392,21,43,84,11,22,44,0.06477533,0.12212914,0.24699860,0.22367317,0.31908232,0.45772760
51193,0,USVirginiaWestmoreland,Virginia,Westmoreland,2021-04-04 02:25:16.438997,2020-04-04 00:00:00.000000,0.12786925,0.25063410,0.48471367,23,45,87,12,23,46,0.06923120,0.13156366,0.25685982,0.21176712,0.31033991,0.44467249
51193,0,USVirginiaWestmoreland,Virginia,Westmoreland,2021-04-04 02:25:16.438997,2020-04-05 00:00:00.000000,0.13392443,0.25994959,0.50287775,24,46,90,12,24,48,0.07123578,0.13800604,0.26685644,0.21809898,0.30733126,0.43027026
51193,0,USVirginiaWestmoreland,Virginia,Westmoreland,2021-04-04 02:25:16.438997,2020-04-06 00:00:00.000000,0.14369881,0.26710271,0.52421672,25,48,94,13,24,49,0.07311790,0.13873346,0.27694724,0.20956638,0.29994960,0.42866644
51193,0,USVirginiaWestmoreland,Virginia,Westmoreland,2021-04-04 02:25:16.438997,2020-04-07 00:00:00.000000,0.15017473,0.27672590,0.54524492,27,49,98,13,26,51,0.07623936,0.14539928,0.28481397,0.19760521,0.29036647,0.42678750
51193,0,USVirginiaWestmoreland,Virginia,Westmoreland,2021-04-04 02:25:16.438997,2020-04-08 00:00:00.000000,0.15105665,0.28043458,0.53372453,27,50,96,14,26,52,0.08240660,0.14935608,0.29145299,0.19580406,0.28328892,0.42315268
51193,0,USVirginiaWestmoreland,Virginia,Westmoreland,2021-04-04 02:25:16.438997,2020-04-09 00:00:00.000000,0.16222863,0.29329436,0.52960215,29,52,95,15,27,53,0.08565333,0.15539072,0.29691491,0.19517382,0.27355078,0.41164041
51193,0,USVirginiaWestmoreland,Virginia,Westmoreland,2021-04-04 02:25:16.438997,2020-04-10 00:00:00.000000,0.16062627,0.30086292,0.52311899,28,54,94,16,28,53,0.08984453,0.15875819,0.29919192,0.18795880,0.26640317,0.37894888
51193,0,USVirginiaWestmoreland,Virginia,Westmoreland,2021-04-04 02:25:16.438997,2020-04-11 00:00:00.000000,0.15895897,0.30994026,0.54767401,28,55,98,16,29,54,0.09157080,0.16517562,0.30508311,0.18416132,0.26156870,0.36890032
51193,0,USVirginiaWestmoreland,Virginia,Westmoreland,2021-04-04 02:25:16.438997,2020-04-12 00:00:00.000000,0.16113769,0.32046839,0.57125905,29,57,102,16,30,54,0.09026969,0.17096250,0.30304279,0.18230789,0.25708601,0.36858692
51193,0,USVirginiaWestmoreland,Virginia,Westmoreland,2021-04-04 02:25:16.438997,2020-04-13 00:00:00.000000,0.16255589,0.32404796,0.58746539,29,58,105,16,31,55,0.08950207,0.17414080,0.31073871,0.18089376,0.25687415,0.36836347
51193,0,USVirginiaWestmoreland,Virginia,Westmoreland,2021-04-04 02:25:16.438997,2020-04-14 00:00:00.000000,0.16958889,0.32951143,0.60253904,30,59,108,16,32,57,0.09076928,0.17960890,0.31679966,0.18014436,0.25571033,0.36774607
51193,0,USVirginiaWestmoreland,Virginia,Westmoreland,2021-04-04 02:25:16.438997,2020-04-15 00:00:00.000000,0.17674513,0.33267723,0.61640668,31,59,111,17,33,57,0.09444513,0.18498499,0.32169690,0.18019788,0.25708439,0.36308236
51193,0,USVirginiaWestmoreland,Virginia,Westmoreland,2021-04-04 02:25:16.438997,2020-04-16 00:00:00.000000,0.18378973,0.33161501,0.62938823,33,59,113,17,34,58,0.09842680,0.18993984,0.32575362,0.17997405,0.25319098,0.33489486
51193,0,USVirginiaWestmoreland,Virginia,Westmoreland,2021-04-04 02:25:16.438997,2020-04-17 00:00:00.000000,0.19060030,0.34089651,0.64172276,34,61,115,18,34,59,0.10188395,0.19248825,0.32919676,0.17870757,0.25298403,0.32491589
51193,0,USVirginiaWestmoreland,Virginia,Westmoreland,2021-04-04 02:25:16.438997,2020-04-18 00:00:00.000000,0.19715703,0.35516165,0.64170642,35,63,115,18,35,59,0.10250727,0.19527260,0.33217694,0.17882405,0.25047650,0.32793644
51193,0,USVirginiaWestmoreland,Virginia,Westmoreland,2021-04-04 02:25:16.438997,2020-04-19 00:00:00.000000,0.20346048,0.36072320,0.62636638,36,64,112,18,35,61,0.10332774,0.19871906,0.34394992,0.17836952,0.24849520,0.32926642
51193,0,USVirginiaWestmoreland,Virginia,Westmoreland,2021-04-04 02:25:16.438997,2020-04-20 00:00:00.000000,0.20633180,0.36654874,0.62952520,37,66,113,18,36,64,0.10436103,0.20345616,0.35703899,0.17588237,0.24820511,0.33412934
51193,0,USVirginiaWestmoreland,Virginia,Westmoreland,2021-04-04 02:25:16.438997,2020-04-21 00:00:00.000000,0.20815505,0.36802049,0.64371215,37,66,115,18,37,66,0.10492022,0.20732737,0.36866392,0.17202872,0.24615524,0.33325926
51193,0,USVirginiaWestmoreland,Virginia,Westmoreland,2021-04-04 02:25:16.438997,2020-04-22 00:00:00.000000,0.20797493,0.38561736,0.65777341,37,69,118,20,38,67,0.11236975,0.21356664,0.37309631,0.17097464,0.24581297,0.33268499
51193,0,USVirginiaWestmoreland,Virginia,Westmoreland,2021-04-04 02:25:16.438997,2020-04-23 00:00:00.000000,0.20771791,0.39342526,0.67159591,37,70,120,20,39,67,0.11102479,0.22145694,0.37415209,0.17082785,0.24335227,0.33280458
51193,0,USVirginiaWestmoreland,Virginia,Westmoreland,2021-04-04 02:25:16.438997,2020-04-24 00:00:00.000000,0.20745876,0.39257081,0.68273050,37,70,122,19,41,70,0.11010849,0.22824565,0.39055011,0.17106806,0.24286353,0.33285954
51193,0,USVirginiaWestmoreland,Virginia,Westmoreland,2021-04-04 02:25:16.438997,2020-04-25 00:00:00.000000,0.20739002,0.39569973,0.67621102,37,71,121,19,41,73,0.10946906,0.22883704,0.40737479,0.17168037,0.23861977,0.33313462
51193,0,USVirginiaWestmoreland,Virginia,Westmoreland,2021-04-04 02:25:16.438997,2020-04-26 00:00:00.000000,0.21126163,0.40755113,0.69766086,38,73,125,20,41,74,0.11172992,0.22892377,0.41362957,0.17226978,0.23981298,0.33455609
51193,0,USVirginiaWestmoreland,Virginia,Westmoreland,2021-04-04 02:25:16.438997,2020-04-27 00:00:00.000000,0.22534183,0.40722543,0.71476500,40,73,128,20,41,74,0.11564689,0.22917145,0.41261528,0.17277186,0.24269607,0.33905515
51193,0,USVirginiaWestmoreland,Virginia,Westmoreland,2021-04-04 02:25:16.438997,2020-04-28 00:00:00.000000,0.23938840,0.41058689,0.72439750,43,73,130,21,41,75,0.12166913,0.23287191,0.41784816,0.17356974,0.23958753,0.34381488
51193,0,USVirginiaWestmoreland,Virginia,Westmoreland,2021-04-04 02:25:16.438997,2020-04-29 00:00:00.000000,0.25066724,0.41142519,0.73410936,45,74,132,23,43,78,0.12887171,0.24029378,0.43618231,0.17522424,0.23789897,0.34689433
51193,0,USVirginiaWestmoreland,Virginia,Westmoreland,2021-04-04 02:25:16.438997,2020-04-30 00:00:00.000000,0.24884899,0.41925715,0.74406774,44,75,134,23,43,80,0.13019550,0.24180899,0.44484766,0.17849086,0.23730887,0.35204130
51193,0,USVirginiaWestmoreland,Virginia,Westmoreland,2021-04-04 02:25:16.438997,2020-05-01 00:00:00.000000,0.24743942,0.41982546,0.75444139,44,75,135,23,43,81,0.13102786,0.24021938,0.45132520,0.17812671,0.23847078,0.35165666
51193,0,USVirginiaWestmoreland,Virginia,Westmoreland,2021-04-04 02:25:16.438997,2020-05-02 00:00:00.000000,0.24629620,0.41878027,0.76660925,44,75,138,23,42,82,0.13188548,0.23815590,0.46018604,0.17429519,0.23819678,0.36024754
51193,0,USVirginiaWestmoreland,Virginia,Westmoreland,2021-04-04 02:25:16.438997,2020-05-03 00:00:00.000000,0.24541015,0.41868589,0.78492187,44,75,141,23,43,85,0.12907455,0.24042162,0.47208386,0.17174128,0.23871031,0.36213811
51193,0,USVirginiaWestmoreland,Virginia,Westmoreland,2021-04-04 02:25:16.438997,2020-05-04 00:00:00.000000,0.25681131,0.42764661,0.79818050,46,77,143,22,44,87,0.12751329,0.24830490,0.48378634,0.17078147,0.23897879,0.36406411
51193,0,USVirginiaWestmoreland,Virginia,Westmoreland,2021-04-04 02:25:16.438997,2020-05-05 00:00:00.000000,0.25735305,0.43767757,0.81958563,46,78,147,23,45,87,0.13099864,0.25221631,0.48771403,0.16528654,0.23873902,0.36743060
51193,0,USVirginiaWestmoreland,Virginia,Westmoreland,2021-04-04 02:25:16.438997,2020-05-06 00:00:00.000000,0.25725817,0.45051927,0.84134776,46,81,151,23,46,88,0.13184920,0.25824661,0.49065933,0.17051984,0.24249910,0.37330091
51193,0,USVirginiaWestmoreland,Virginia,Westmoreland,2021-04-04 02:25:16.438997,2020-05-07 00:00:00.000000,0.25739523,0.46323739,0.84914909,46,83,152,24,47,90,0.13856544,0.26404872,0.50214994,0.17213908,0.24210264,0.38085458
51193,0,USVirginiaWestmoreland,Virginia,Westmoreland,2021-04-04 02:25:16.438997,2020-05-08 00:00:00.000000,0.25226928,0.47300708,0.83789720,45,85,150,24,48,92,0.13728189,0.26648820,0.51439344,0.17626314,0.24373257,0.38714277
51193,0,USVirginiaWestmoreland,Virginia,Westmoreland,2021-04-04 02:25:16.438997,2020-05-09 00:00:00.000000,0.24785594,0.48566410,0.82657444,44,87,148,24,48,92,0.13686107,0.26645162,0.51405536,0.17621817,0.24353781,0.38825204
51193,0,USVirginiaWestmoreland,Virginia,Westmoreland,2021-04-04 02:25:16.438997,2020-05-10 00:00:00.000000,0.24403045,0.48420993,0.81526382,43,87,146,24,48,91,0.13423344,0.26780925,0.50762092,0.17818436,0.24353046,0.38843590
51193,0,USVirginiaWestmoreland,Virginia,Westmoreland,2021-04-04 02:25:16.438997,2020-05-11 00:00:00.000000,0.25445743,0.49134724,0.80358411,45,88,144,23,48,90,0.13194456,0.26701904,0.50100028,0.18267441,0.24516487,0.38818317
51193,0,USVirginiaWestmoreland,Virginia,Westmoreland,2021-04-04 02:25:16.438997,2020-05-12 00:00:00.000000,0.25167662,0.50581871,0.80577094,45,91,145,23,48,89,0.12996548,0.27171238,0.49419003,0.18076526,0.24654385,0.35247743
51193,0,USVirginiaWestmoreland,Virginia,Westmoreland,2021-04-04 02:25:16.438997,2020-05-13 00:00:00.000000,0.24855291,0.50722998,0.81033520,44,91,145,22,49,87,0.12750253,0.27487632,0.48732528,0.18026425,0.24859376,0.34145344
51193,0,USVirginiaWestmoreland,Virginia,Westmoreland,2021-04-04 02:25:16.438997,2020-05-14 00:00:00.000000,0.24601788,0.50892570,0.83235616,44,91,149,22,49,86,0.12556404,0.27505185,0.48050062,0.18067127,0.24942228,0.34338520
51193,0,USVirginiaWestmoreland,Virginia,Westmoreland,2021-04-04 02:25:16.438997,2020-05-15 00:00:00.000000,0.24406397,0.50992825,0.86284590,43,91,155,22,49,87,0.12707939,0.27331251,0.48471189,0.18260389,0.25065637,0.34396495
51193,0,USVirginiaWestmoreland,Virginia,Westmoreland,2021-04-04 02:25:16.438997,2020-05-16 00:00:00.000000,0.24291385,0.51488843,0.89356541,43,92,160,23,49,90,0.12932834,0.27388612,0.50253575,0.18697792,0.25920231,0.34384119
51193,0,USVirginiaWestmoreland,Virginia,Westmoreland,2021-04-04 02:25:16.438997,2020-05-17 00:00:00.000000,0.24288646,0.51787832,0.92443981,43,93,166,23,49,93,0.13132097,0.27749770,0.52070561,0.19283636,0.26386467,0.34431969
51193,0,USVirginiaWestmoreland,Virginia,Westmoreland,2021-04-04 02:25:16.438997,2020-05-18 00:00:00.000000,0.26163659,0.51966071,0.94647046,47,93,170,23,50,97,0.13306762,0.28254844,0.53910264,0.19534133,0.26930062,0.34355150
51193,0,USVirginiaWestmoreland,Virginia,Westmoreland,2021-04-04 02:25:16.438997,2020-05-19 00:00:00.000000,0.26111614,0.51390946,0.96855263,47,92,174,26,51,100,0.14534074,0.28579623,0.55514550,0.19799426,0.27125504,0.35358728
51193,0,USVirginiaWestmoreland,Virginia,Westmoreland,2021-04-04 02:25:16.438997,2020-05-20 00:00:00.000000,0.26198212,0.52392116,0.99018144,47,94,178,26,52,102,0.14564995,0.28921915,0.56985320,0.20446408,0.27925847,0.36427196
51193,0,USVirginiaWestmoreland,Virginia,Westmoreland,2021-04-04 02:25:16.438997,2020-05-21 00:00:00.000000,0.26418265,0.52697595,1.01107101,47,94,182,26,53,105,0.14570549,0.29714882,0.58376941,0.20984970,0.28558768,0.37128948
51193,0,USVirginiaWestmoreland,Virginia,Westmoreland,2021-04-04 02:25:16.438997,2020-05-22 00:00:00.000000,0.27548756,0.53569332,1.02964320,49,96,185,26,53,107,0.14649678,0.29839161,0.59707942,0.21444860,0.28912458,0.37712426
51193,0,USVirginiaWestmoreland,Virginia,Westmoreland,2021-04-04 02:25:16.438997,2020-05-23 00:00:00.000000,0.28225742,0.54058932,1.04229313,50,97,187,26,53,109,0.14813125,0.29844688,0.60942196,0.21239287,0.29147915,0.38903218
51193,0,USVirginiaWestmoreland,Virginia,Westmoreland,2021-04-04 02:25:16.438997,2020-05-24 00:00:00.000000,0.27833079,0.54597890,1.04810049,50,98,188,26,54,111,0.14625132,0.30221182,0.61956954,0.20967428,0.27668469,0.39490826
51193,0,USVirginiaWestmoreland,Virginia,Westmoreland,2021-04-04 02:25:16.438997,2020-05-25 00:00:00.000000,0.29051270,0.54500402,1.04690507,52,98,188,26,55,112,0.14862833,0.30637490,0.62657773,0.20989026,0.28074257,0.40200962
51193,0,USVirginiaWestmoreland,Virginia,Westmoreland,2021-04-04 02:25:16.438997,2020-05-26 00:00:00.000000,0.30260040,0.56071068,1.04421496,54,101,188,27,55,113,0.15229882,0.31080074,0.62990244,0.20840079,0.28133571,0.40871088
51193,0,USVirginiaWestmoreland,Virginia,Westmoreland,2021-04-04 02:25:16.438997,2020-05-27 00:00:00.000000,0.31464117,0.57833879,1.04067805,56,104,187,28,56,113,0.15902389,0.31146719,0.63083055,0.20904092,0.28223433,0.41106989
51193,0,USVirginiaWestmoreland,Virginia,Westmoreland,2021-04-04 02:25:16.438997,2020-05-28 00:00:00.000000,0.32492876,0.58246576,1.03679367,58,104,186,29,56,113,0.16331809,0.31439547,0.63029675,0.21286847,0.28501947,0.41185415
51193,0,USVirginiaWestmoreland,Virginia,Westmoreland,2021-04-04 02:25:16.438997,2020-05-29 00:00:00.000000,0.33256463,0.59146110,1.03360633,59,106,186,29,58,113,0.16607883,0.32277570,0.62891885,0.21519859,0.29060138,0.41235200
51193,0,USVirginiaWestmoreland,Virginia,Westmoreland,2021-04-04 02:25:16.438997,2020-05-30 00:00:00.000000,0.33869745,0.59617725,1.03579314,61,107,186,29,58,113,0.16637814,0.32668157,0.62730398,0.21834776,0.30106624,0.41753637
51193,0,USVirginiaWestmoreland,Virginia,Westmoreland,2021-04-04 02:25:16.438997,2020-05-31 00:00:00.000000,0.34415236,0.61185171,1.04565634,61,110,188,30,59,112,0.16932671,0.32868524,0.62708881,0.21648841,0.30715795,0.42798619
51193,0,USVirginiaWestmoreland,Virginia,Westmoreland,2021-04-04 02:25:16.438997,2020-06-01 00:00:00.000000,0.35014615,0.60794492,1.07807630,63,109,194,31,59,113,0.17349791,0.33138462,0.62983043,0.21182112,0.30921743,0.42811183
51193,0,USVirginiaWestmoreland,Virginia,Westmoreland,2021-04-04 02:25:16.438997,2020-06-02 00:00:00.000000,0.35605865,0.60851511,1.11925381,64,109,201,32,61,114,0.17867728,0.34025500,0.63555441,0.21337004,0.31247637,0.43536193
51193,0,USVirginiaWestmoreland,Virginia,Westmoreland,2021-04-04 02:25:16.438997,2020-06-03 00:00:00.000000,0.36228986,0.61487765,1.15191559,65,110,207,33,61,115,0.18439126,0.34359219,0.64313082,0.22528340,0.32467443,0.45162063
51193,0,USVirginiaWestmoreland,Virginia,Westmoreland,2021-04-04 02:25:16.438997,2020-06-04 00:00:00.000000,0.36923128,0.62636802,1.18696286,66,112,213,34,62,117,0.19042025,0.34633517,0.65199476,0.22582768,0.33014828,0.45808668
51193,0,USVirginiaWestmoreland,Virginia,Westmoreland,2021-04-04 02:25:16.438997,2020-06-05 00:00:00.000000,0.37606651,0.64324970,1.22625919,67,115,220,34,63,120,0.19148751,0.35403980,0.67035479,0.23002380,0.34377529,0.45311193
51193,0,USVirginiaWestmoreland,Virginia,Westmoreland,2021-04-04 02:25:16.438997,2020-06-06 00:00:00.000000,0.37696361,0.66046516,1.27003091,67,118,228,34,65,124,0.19171493,0.36591393,0.69248014,0.23339314,0.35204418,0.45638188
51193,0,USVirginiaWestmoreland,Virginia,Westmoreland,2021-04-04 02:25:16.438997,2020-06-07 00:00:00.000000,0.37882555,0.68658223,1.31824538,68,123,237,34,67,129,0.19212229,0.37518306,0.71610843,0.23472209,0.35804932,0.46806767
51193,0,USVirginiaWestmoreland,Virginia,Westmoreland,2021-04-04 02:25:16.438997,2020-06-08 00:00:00.000000,0.38344908,0.70974657,1.39360152,69,127,251,34,69,133,0.19287702,0.38480542,0.74171252,0.23559826,0.36497821,0.48616285
51193,0,USVirginiaWestmoreland,Virginia,Westmoreland,2021-04-04 02:25:16.438997,2020-06-09 00:00:00.000000,0.39068438,0.73423907,1.47270057,70,132,265,35,70,139,0.19464259,0.39294984,0.77495174,0.24348513,0.37444914,0.49767218
51193,0,USVirginiaWestmoreland,Virginia,Westmoreland,2021-04-04 02:25:16.438997,2020-06-10 00:00:00.000000,0.41083756,0.74210029,1.55638237,74,133,280,35,73,146,0.19768095,0.40589112,0.81380945,0.24703214,0.38692305,0.50395784
51193,0,USVirginiaWestmoreland,Virginia,Westmoreland,2021-04-04 02:25:16.438997,2020-06-11 00:00:00.000000,0.44176795,0.76385735,1.64440259,79,137,296,37,75,154,0.20887711,0.41674684,0.85704065,0.24927152,0.40072131,0.52029315
51193,0,USVirginiaWestmoreland,Virginia,Westmoreland,2021-04-04 02:25:16.438997,2020-06-12 00:00:00.000000,0.46364929,0.78715741,1.73612381,83,141,312,40,77,162,0.22468356,0.43131345,0.90387266,0.25363119,0.40970982,0.53268376
51193,0,USVirginiaWestmoreland,Virginia,Westmoreland,2021-04-04 02:25:16.438997,2020-06-13 00:00:00.000000,0.47951874,0.81384789,1.83235351,86,146,330,43,78,171,0.24138385,0.43668212,0.95383184,0.26339866,0.42110271,0.55706704
51193,0,USVirginiaWestmoreland,Virginia,Westmoreland,2021-04-04 02:25:16.438997,2020-06-14 00:00:00.000000,0.49704626,0.86027530,1.93557659,89,154,348,46,80,181,0.25914163,0.44875268,1.00669130,0.28159278,0.43595902,0.61094237
51193,0,USVirginiaWestmoreland,Virginia,Westmoreland,2021-04-04 02:25:16.438997,2020-06-15 00:00:00.000000,0.52069955,0.91727442,2.03423330,93,165,366,50,84,191,0.27792970,0.46866196,1.06282500,0.30580293,0.45575585,0.62163438
51193,0,USVirginiaWestmoreland,Virginia,Westmoreland,2021-04-04 02:25:16.438997,2020-06-16 00:00:00.000000,0.54525503,0.98391289,2.15609169,98,177,388,53,89,201,0.29471831,0.49644462,1.11979412,0.32613091,0.46369892,0.64635842
51193,0,USVirginiaWestmoreland,Virginia,Westmoreland,2021-04-04 02:25:16.438997,2020-06-17 00:00:00.000000,0.57138476,1.04753880,2.28960024,102,188,412,55,94,213,0.31063206,0.52495931,1.18276626,0.34546264,0.47428477,0.67989551
51193,0,USVirginiaWestmoreland,Virginia,Westmoreland,2021-04-04 02:25:16.438997,2020-06-18 00:00:00.000000,0.60987103,1.11333594,2.43120532,109,200,437,58,99,225,0.32632389,0.55090065,1.25225930,0.36049774,0.48660533,0.67574317
51193,0,USVirginiaWestmoreland,Virginia,Westmoreland,2021-04-04 02:25:16.438997,2020-06-19 00:00:00.000000,0.65630336,1.19030388,2.58080777,118,214,464,61,105,239,0.34234367,0.58696623,1.32757389,0.36855307,0.49721041,0.67754885
51193,0,USVirginiaWestmoreland,Virginia,Westmoreland,2021-04-04 02:25:16.438997,2020-06-20 00:00:00.000000,0.70794394,1.25647822,2.73860654,127,226,493,64,111,253,0.35947915,0.61844849,1.40821238,0.40062632,0.52016736,0.68398583
51193,0,USVirginiaWestmoreland,Virginia,Westmoreland,2021-04-04 02:25:16.438997,2020-06-21 00:00:00.000000,0.77093339,1.35654871,2.90471503,138,244,523,68,119,269,0.37885348,0.66246259,1.49393526,0.43610347,0.53635432,0.69940482
51193,0,USVirginiaWestmoreland,Virginia,Westmoreland,2021-04-04 02:25:16.438997,2020-06-22 00:00:00.000000,0.81535333,1.47203887,3.08081629,146,265,555,72,129,285,0.40131805,0.71739447,1.58465508,0.43990630,0.56061195,0.72660965
51193,0,USVirginiaWestmoreland,Virginia,Westmoreland,2021-04-04 02:25:16.438997,2020-06-23 00:00:00.000000,0.86580560,1.57872122,3.26510865,155,284,588,78,138,302,0.43787614,0.77107378,1.68073670,0.42317554,0.57596281,0.78076856
51193,0,USVirginiaWestmoreland,Virginia,Westmoreland,2021-04-04 02:25:16.438997,2020-06-24 00:00:00.000000,0.92581359,1.72708317,3.45703745,166,311,622,87,150,321,0.48335291,0.83710144,1.78198772,0.44176704,0.58395856,0.80281633
51193,0,USVirginiaWestmoreland,Virginia,Westmoreland,2021-04-04 02:25:16.438997,2020-06-25 00:00:00.000000,1.00543790,1.89543003,3.65472906,181,341,658,94,164,340,0.52238630,0.91309470,1.88814843,0.44154905,0.58896502,0.80167001
51193,0,USVirginiaWestmoreland,Virginia,Westmoreland,2021-04-04 02:25:16.438997,2020-06-26 00:00:00.000000,1.10942806,2.05111729,3.85378211,199,369,694,102,176,360,0.56670264,0.98193055,1.99863724,0.43313305,0.60060956,0.79481128
51193,0,USVirginiaWestmoreland,Virginia,Westmoreland,2021-04-04 02:25:16.438997,2020-06-27 00:00:00.000000,1.22726566,2.22258622,4.02511266,221,400,725,111,192,380,0.61904253,1.06837586,2.11203374,0.41990579,0.60279452,0.78300873
51193,0,USVirginiaWestmoreland,Virginia,Westmoreland,2021-04-04 02:25:16.438997,2020-06-28 00:00:00.000000,1.33441427,2.39152902,4.19014779,240,430,754,123,208,400,0.68573320,1.15869899,2.22500458,0.41521752,0.60535134,0.76311060
51193,0,USVirginiaWestmoreland,Virginia,Westmoreland,2021-04-04 02:25:16.438997,2020-06-29 00:00:00.000000,1.44110469,2.58985281,4.36730359,259,466,786,134,223,420,0.74720273,1.24302141,2.33264429,0.39557076,0.60868543,0.76894037
51193,0,USVirginiaWestmoreland,Virginia,Westmoreland,2021-04-04 02:25:16.438997,2020-06-30 00:00:00.000000,1.55957771,2.80394079,4.51675088,280,505,813,146,243,438,0.81267076,1.35042835,2.43331316,0.38871493,0.60137827,0.77038878
51193,0,USVirginiaWestmoreland,Virginia,Westmoreland,2021-04-04 02:25:16.438997,2020-07-01 00:00:00.000000,1.68799136,3.00322872,4.71880553,304,541,850,156,264,455,0.86810942,1.46730869,2.52811700,0.37898421,0.59230481,0.77030339
51193,0,USVirginiaWestmoreland,Virginia,Westmoreland,2021-04-04 02:25:16.438997,2020-07-02 00:00:00.000000,1.82732061,3.16505620,4.95439278,329,570,892,166,286,475,0.92469653,1.58913424,2.64129034,0.37075918,0.58378111,0.76879099
51193,0,USVirginiaWestmoreland,Virginia,Westmoreland,2021-04-04 02:25:16.438997,2020-07-03 00:00:00.000000,1.97768774,3.34857085,5.19178173,356,603,935,177,305,499,0.98329949,1.69536400,2.77015451,0.32716050,0.58314686,0.76426024
51193,0,USVirginiaWestmoreland,Virginia,Westmoreland,2021-04-04 02:25:16.438997,2020-07-04 00:00:00.000000,2.13759635,3.52960740,5.27981315,385,635,951,188,326,520,1.04436831,1.81266467,2.88790586,0.31439384,0.57171343,0.76256095
51193,0,USVirginiaWestmoreland,Virginia,Westmoreland,2021-04-04 02:25:16.438997,2020-07-05 00:00:00.000000,2.30055246,3.72600715,5.33637896,414,671,961,200,344,539,1.11189410,1.91335063,2.99445249,0.30756828,0.53633345,0.73827148
51193,0,USVirginiaWestmoreland,Virginia,Westmoreland,2021-04-04 02:25:16.438997,2020-07-06 00:00:00.000000,2.48334180,3.87666864,5.54585760,447,698,999,216,363,569,1.20035441,2.01944120,3.16031607,0.27191704,0.48680804,0.69454407
51193,0,USVirginiaWestmoreland,Virginia,Westmoreland,2021-04-04 02:25:16.438997,2020-07-07 00:00:00.000000,2.62107911,3.98401947,5.74163231,472,717,1034,233,378,586,1.29340372,2.10306357,3.25764514,0.21633757,0.40896381,0.64794972
51193,0,USVirginiaWestmoreland,Virginia,Westmoreland,2021-04-04 02:25:16.438997,2020-07-08 00:00:00.000000,2.74888986,4.01010588,5.80799573,495,722,1046,250,392,591,1.38894002,2.18009301,3.28278643,0.18857169,0.34905188,0.59462903
51193,0,USVirginiaWestmoreland,Virginia,Westmoreland,2021-04-04 02:25:16.438997,2020-07-09 00:00:00.000000,2.85692744,3.99054459,5.76292534,514,718,1038,269,400,592,1.49431058,2.22133035,3.28969329,0.18747888,0.29038954,0.49902991
51193,0,USVirginiaWestmoreland,Virginia,Westmoreland,2021-04-04 02:25:16.438997,2020-07-10 00:00:00.000000,2.86916569,3.93494194,5.58083862,516,708,1005,288,403,598,1.59914068,2.23971818,3.32377959,0.17679918,0.25283870,0.44774332
51193,0,USVirginiaWestmoreland,Virginia,Westmoreland,2021-04-04 02:25:16.438997,2020-07-11 00:00:00.000000,2.78890191,3.82117171,5.35116858,502,688,964,287,399,600,1.59363075,2.21989403,3.33456039,0.15042496,0.22623353,0.42390600
51193,0,USVirginiaWestmoreland,Virginia,Westmoreland,2021-04-04 02:25:16.438997,2020-07-12 00:00:00.000000,2.67608534,3.60965454,5.19600793,482,650,936,277,389,588,1.53998820,2.16120262,3.26704378,0.14466783,0.20155518,0.35514301
51193,0,USVirginiaWestmoreland,Virginia,Westmoreland,2021-04-04 02:25:16.438997,2020-07-13 00:00:00.000000,2.52530147,3.45163231,4.97823125,454,621,896,257,373,571,1.42789344,2.07254673,3.17147741,0.13825263,0.19404661,0.26658250
51193,0,USVirginiaWestmoreland,Virginia,Westmoreland,2021-04-04 02:25:16.438997,2020-07-14 00:00:00.000000,2.37923695,3.26059084,4.70642200,428,587,847,242,354,546,1.34788454,1.96655368,3.03210914,0.13021900,0.18914619,0.25392431
51193,0,USVirginiaWestmoreland,Virginia,Westmoreland,2021-04-04 02:25:16.438997,2020-07-15 00:00:00.000000,2.23850159,3.04817856,4.43439257,403,549,798,234,337,523,1.30138412,1.87510538,2.90612836,0.12355191,0.17855270,0.25275367
51193,0,USVirginiaWestmoreland,Virginia,Westmoreland,2021-04-04 02:25:16.438997,2020-07-16 00:00:00.000000,2.10341523,2.87836788,4.23036375,378,518,762,225,321,506,1.24940175,1.78562002,2.80985046,0.11852780,0.17229322,0.25155345
51193,0,USVirginiaWestmoreland,Virginia,Westmoreland,2021-04-04 02:25:16.438997,2020-07-17 00:00:00.000000,1.97435285,2.69114107,4.04094387,355,484,727,207,303,487,1.15229592,1.68482644,2.70592150,0.11628873,0.16927031,0.24740612
51193,0,USVirginiaWestmoreland,Virginia,Westmoreland,2021-04-04 02:25:16.438997,2020-07-18 00:00:00.000000,1.84162147,2.50326841,3.86576311,331,450,696,191,285,468,1.06110494,1.58382397,2.59786321,0.11168839,0.16739874,0.23418275
51193,0,USVirginiaWestmoreland,Virginia,Westmoreland,2021-04-04 02:25:16.438997,2020-07-19 00:00:00.000000,1.70120254,2.36012380,3.70272179,306,425,667,175,264,448,0.97615568,1.46877793,2.48845756,0.10939667,0.16464105,0.22711242
51193,0,USVirginiaWestmoreland,Virginia,Westmoreland,2021-04-04 02:25:16.438997,2020-07-20 00:00:00.000000,1.56415702,2.22110726,3.53685778,281,400,637,161,246,428,0.89744021,1.36629927,2.37973085,0.10760226,0.16254657,0.22253325
51193,0,USVirginiaWestmoreland,Virginia,Westmoreland,2021-04-04 02:25:16.438997,2020-07-21 00:00:00.000000,1.43838945,2.05918563,3.37929405,259,370,608,148,230,409,0.82505633,1.28161913,2.27038154,0.10601594,0.16140119,0.21650152
51193,0,USVirginiaWestmoreland,Virginia,Westmoreland,2021-04-04 02:25:16.438997,2020-07-22 00:00:00.000000,1.32318063,1.91996745,3.22869063,238,345,581,136,218,389,0.75860018,1.21459515,2.16232872,0.10558016,0.15881413,0.21726115
51193,0,USVirginiaWestmoreland,Virginia,Westmoreland,2021-04-04 02:25:16.438997,2020-07-23 00:00:00.000000,1.21775600,1.82907325,3.08416693,219,329,555,125,202,370,0.69766339,1.12373384,2.05680752,0.10393963,0.15852157,0.21887739
51193,0,USVirginiaWestmoreland,Virginia,Westmoreland,2021-04-04 02:25:16.438997,2020-07-24 00:00:00.000000,1.12166678,1.70642339,2.94437900,202,307,530,115,189,352,0.64185051,1.05409669,1.95457277,0.10338531,0.15817349,0.21328765
51193,0,USVirginiaWestmoreland,Virginia,Westmoreland,2021-04-04 02:25:16.438997,2020-07-25 00:00:00.000000,1.03424123,1.59475514,2.80979831,186,287,506,106,178,334,0.59079715,0.99296730,1.85604763,0.10315811,0.15751173,0.21140915
51193,0,USVirginiaWestmoreland,Virginia,Westmoreland,2021-04-04 02:25:16.438997,2020-07-26 00:00:00.000000,0.95456964,1.48394367,2.67851688,171,267,482,98,167,317,0.54418403,0.93238077,1.76143401,0.10305380,0.15820459,0.22244973
51193,0,USVirginiaWestmoreland,Virginia,Westmoreland,2021-04-04 02:25:16.438997,2020-07-27 00:00:00.000000,0.87911536,1.37626791,2.54411474,158,247,458,90,157,300,0.50169618,0.87559122,1.67079709,0.10300602,0.15901224,0.22339250
51193,0,USVirginiaWestmoreland,Virginia,Westmoreland,2021-04-04 02:25:16.438997,2020-07-28 00:00:00.000000,0.80652475,1.28612796,2.40988127,145,231,434,83,148,285,0.46259845,0.82411144,1.58488341,0.10301369,0.15795362,0.22802419
51193,0,USVirginiaWestmoreland,Virginia,Westmoreland,2021-04-04 02:25:16.438997,2020-07-29 00:00:00.000000,0.74095985,1.20768138,2.27779309,133,217,410,76,139,271,0.42671072,0.77471210,1.50506627,0.10301338,0.15575900,0.23362424
51193,0,USVirginiaWestmoreland,Virginia,Westmoreland,2021-04-04 02:25:16.438997,2020-07-30 00:00:00.000000,0.69083449,1.14421906,2.15017302,124,206,387,70,131,257,0.39380447,0.72777687,1.42678907,0.10300522,0.15689419,0.23141639
51193,0,USVirginiaWestmoreland,Virginia,Westmoreland,2021-04-04 02:25:16.438997,2020-07-31 00:00:00.000000,0.63697649,1.07905930,2.02826199,114,194,365,70,122,243,0.38954719,0.68145737,1.35309181,0.10301970,0.15486087,0.23961032
51193,0,USVirginiaWestmoreland,Virginia,Westmoreland,2021-04-04 02:25:16.438997,2020-08-01 00:00:00.000000,0.58774629,1.02154743,1.91255351,105,184,344,65,115,231,0.36576384,0.64126188,1.28448311,0.10307479,0.15549102,0.24597571
51193,0,USVirginiaWestmoreland,Virginia,Westmoreland,2021-04-04 02:25:16.438997,2020-08-02 00:00:00.000000,0.54292560,0.95700869,1.80316890,97,172,324,60,107,219,0.33696598,0.59807117,1.22070012,0.10322941,0.15662866,0.25062278
51193,0,USVirginiaWestmoreland,Virginia,Westmoreland,2021-04-04 02:25:16.438997,2020-08-03 00:00:00.000000,0.50354799,0.90254547,1.70493375,90,162,307,56,100,208,0.31103162,0.55854078,1.15813608,0.10363004,0.15763797,0.25380028
51193,0,USVirginiaWestmoreland,Virginia,Westmoreland,2021-04-04 02:25:16.438997,2020-08-04 00:00:00.000000,0.47188234,0.85301826,1.62907894,85,153,293,51,94,195,0.28624532,0.52627163,1.08456782,0.10450610,0.15965264,0.25583621
51193,0,USVirginiaWestmoreland,Virginia,Westmoreland,2021-04-04 02:25:16.438997,2020-08-05 00:00:00.000000,0.43664326,0.81265951,1.57674480,78,146,284,47,89,182,0.26317436,0.49815067,1.01564959,0.10449715,0.16164418,0.25696577
51193,0,USVirginiaWestmoreland,Virginia,Westmoreland,2021-04-04 02:25:16.438997,2020-08-06 00:00:00.000000,0.40548253,0.77764005,1.52353897,73,140,274,43,85,173,0.24213409,0.47375527,0.96114536,0.10626488,0.16366881,0.25740221
51193,0,USVirginiaWestmoreland,Virginia,Westmoreland,2021-04-04 02:25:16.438997,2020-08-07 00:00:00.000000,0.38595566,0.73870546,1.46635805,69,133,264,40,81,167,0.22317684,0.45300292,0.92973879,0.10893467,0.16456743,0.25735386
51193,0,USVirginiaWestmoreland,Virginia,Westmoreland,2021-04-04 02:25:16.438997,2020-08-08 00:00:00.000000,0.36195937,0.69828485,1.39923759,65,125,252,37,77,162,0.20638716,0.43095767,0.90443411,0.11158264,0.16575938,0.25771686
51193,0,USVirginiaWestmoreland,Virginia,Westmoreland,2021-04-04 02:25:16.438997,2020-08-09 00:00:00.000000,0.33741947,0.65995416,1.32551569,60,118,238,35,74,158,0.19500650,0.41087133,0.88163658,0.11901363,0.16662717,0.26636280
51193,0,USVirginiaWestmoreland,Virginia,Westmoreland,2021-04-04 02:25:16.438997,2020-08-10 00:00:00.000000,0.32173866,0.62508312,1.24963458,57,112,225,33,70,154,0.18701419,0.39259509,0.85930025,0.12151026,0.16956961,0.27528713
51193,0,USVirginiaWestmoreland,Virginia,Westmoreland,2021-04-04 02:25:16.438997,2020-08-11 00:00:00.000000,0.30788809,0.60242060,1.20556081,55,108,217,31,67,148,0.17504556,0.37255194,0.82640661,0.12028425,0.17467765,0.29433174
51193,0,USVirginiaWestmoreland,Virginia,Westmoreland,2021-04-04 02:25:16.438997,2020-08-12 00:00:00.000000,0.29584928,0.58561606,1.16405884,53,105,209,29,63,143,0.16195468,0.35321605,0.79562045,0.11986296,0.17626558,0.29339162
51193,0,USVirginiaWestmoreland,Virginia,Westmoreland,2021-04-04 02:25:16.438997,2020-08-13 00:00:00.000000,0.28538478,0.57032608,1.12446001,51,102,202,27,61,138,0.15386965,0.33931815,0.76682851,0.12045767,0.18367782,0.29225312
51193,0,USVirginiaWestmoreland,Virginia,Westmoreland,2021-04-04 02:25:16.438997,2020-08-14 00:00:00.000000,0.27623066,0.55640722,1.08698059,49,100,195,26,59,133,0.14812657,0.32778332,0.73982151,0.12259091,0.18856210,0.29427998
51193,0,USVirginiaWestmoreland,Virginia,Westmoreland,2021-04-04 02:25:16.438997,2020-08-15 00:00:00.000000,0.26818992,0.54404776,1.05162322,48,98,189,25,56,128,0.14312572,0.31397715,0.71437944,0.12626288,0.19030126,0.30795156
51193,0,USVirginiaWestmoreland,Virginia,Westmoreland,2021-04-04 02:25:16.438997,2020-08-16 00:00:00.000000,0.26107891,0.52604024,1.01814474,47,94,183,24,54,124,0.13874356,0.30264573,0.69031698,0.12936161,0.18993028,0.31843418
51193,0,USVirginiaWestmoreland,Virginia,Westmoreland,2021-04-04 02:25:16.438997,2020-08-17 00:00:00.000000,0.26921020,0.50293441,0.99454608,48,90,179,24,52,120,0.13488049,0.29268439,0.66748709,0.13086334,0.19184828,0.32531362
51193,0,USVirginiaWestmoreland,Virginia,Westmoreland,2021-04-04 02:25:16.438997,2020-08-18 00:00:00.000000,0.25729979,0.49074901,0.97606310,46,88,175,24,51,116,0.13614645,0.28363872,0.64870995,0.13156115,0.19733822,0.32947608
51193,0,USVirginiaWestmoreland,Virginia,Westmoreland,2021-04-04 02:25:16.438997,2020-08-19 00:00:00.000000,0.24652236,0.48799267,0.96149565,44,87,173,25,49,114,0.13988712,0.27578581,0.63283086,0.13225134,0.20213191,0.33215136
51193,0,USVirginiaWestmoreland,Virginia,Westmoreland,2021-04-04 02:25:16.438997,2020-08-20 00:00:00.000000,0.23685900,0.47631675,0.95190292,42,85,171,25,48,111,0.13964726,0.26887071,0.61913039,0.13405024,0.20600545,0.33461747
51193,0,USVirginiaWestmoreland,Virginia,Westmoreland,2021-04-04 02:25:16.438997,2020-08-21 00:00:00.000000,0.22805157,0.46280372,0.94248276,41,83,169,24,47,109,0.13334641,0.26496870,0.60729193,0.14086077,0.21032222,0.34485176
51193,0,USVirginiaWestmoreland,Virginia,Westmoreland,2021-04-04 02:25:16.438997,2020-08-22 00:00:00.000000,0.21977132,0.45754300,0.94332427,39,82,169,23,47,107,0.12792828,0.26387165,0.59887451,0.15926008,0.21862305,0.37073933
51193,0,USVirginiaWestmoreland,Virginia,Westmoreland,2021-04-04 02:25:16.438997,2020-08-23 00:00:00.000000,0.21182898,0.44491640,0.94753271,38,80,170,22,46,106,0.12323041,0.25572304,0.58991562,0.16151205,0.22706761,0.37645699
51193,0,USVirginiaWestmoreland,Virginia,Westmoreland,2021-04-04 02:25:16.438997,2020-08-24 00:00:00.000000,0.20813114,0.44194798,0.93573126,37,79,168,21,45,103,0.11909887,0.25385254,0.57680225,0.16285594,0.23735635,0.37869434
51193,0,USVirginiaWestmoreland,Virginia,Westmoreland,2021-04-04 02:25:16.438997,2020-08-25 00:00:00.000000,0.22151190,0.43548816,0.93134397,39,78,167,20,44,102,0.11359806,0.24875521,0.56965433,0.16502248,0.24358212,0.39070094
51193,0,USVirginiaWestmoreland,Virginia,Westmoreland,2021-04-04 02:25:16.438997,2020-08-26 00:00:00.000000,0.21270576,0.43381212,0.92810758,38,78,167,20,44,102,0.11283917,0.24526788,0.56994357,0.16871557,0.24971123,0.39580707
51193,0,USVirginiaWestmoreland,Virginia,Westmoreland,2021-04-04 02:25:16.438997,2020-08-27 00:00:00.000000,0.20511311,0.42092600,0.92298246,36,75,166,19,43,102,0.10832250,0.24236116,0.57172932,0.17101627,0.25609003,0.40006780
51193,0,USVirginiaWestmoreland,Virginia,Westmoreland,2021-04-04 02:25:16.438997,2020-08-28 00:00:00.000000,0.19847764,0.41687779,0.91851962,35,75,165,18,43,103,0.10412686,0.24113005,0.57468257,0.17357003,0.26263636,0.40448526
51193,0,USVirginiaWestmoreland,Virginia,Westmoreland,2021-04-04 02:25:16.438997,2020-08-29 00:00:00.000000,0.20215380,0.41570769,0.91459207,36,74,164,18,44,104,0.10046106,0.24480947,0.57739258,0.17275646,0.27226576,0.41703355
51193,0,USVirginiaWestmoreland,Virginia,Westmoreland,2021-04-04 02:25:16.438997,2020-08-30 00:00:00.000000,0.20913133,0.43136263,0.91104306,37,77,164,17,43,103,0.09742244,0.23875141,0.57450080,0.17570531,0.28190873,0.42300362
51193,0,USVirginiaWestmoreland,Virginia,Westmoreland,2021-04-04 02:25:16.438997,2020-08-31 00:00:00.000000,0.21329427,0.44470677,0.91708001,38,80,165,18,43,103,0.09997439,0.23883433,0.57186279,0.18067867,0.28519864,0.49339026
51193,0,USVirginiaWestmoreland,Virginia,Westmoreland,2021-04-04 02:25:16.438997,2020-09-01 00:00:00.000000,0.21742783,0.45479657,0.92930743,39,81,167,18,44,102,0.10260637,0.24478193,0.57170831,0.18316196,0.28882831,0.49873329
51193,0,USVirginiaWestmoreland,Virginia,Westmoreland,2021-04-04 02:25:16.438997,2020-09-02 00:00:00.000000,0.22133748,0.46301094,0.94834597,39,83,170,18,45,103,0.10488675,0.25178071,0.57319737,0.18578828,0.28867085,0.49932187
51193,0,USVirginiaWestmoreland,Virginia,Westmoreland,2021-04-04 02:25:16.438997,2020-09-03 00:00:00.000000,0.22509108,0.47743245,0.96335051,40,86,173,19,46,103,0.10695740,0.25834608,0.57582371,0.19452217,0.29186583,0.49978812
51193,0,USVirginiaWestmoreland,Virginia,Westmoreland,2021-04-04 02:25:16.438997,2020-09-04 00:00:00.000000,0.22875600,0.48306397,0.96183097,41,87,173,19,47,104,0.10889588,0.26384239,0.57934011,0.20240344,0.29622420,0.50085170
51193,0,USVirginiaWestmoreland,Virginia,Westmoreland,2021-04-04 02:25:16.438997,2020-09-05 00:00:00.000000,0.23246030,0.49108768,0.96215944,41,88,173,19,47,105,0.11075331,0.26353705,0.58371598,0.21190624,0.30579700,0.50304367
51193,0,USVirginiaWestmoreland,Virginia,Westmoreland,2021-04-04 02:25:16.438997,2020-09-06 00:00:00.000000,0.23634546,0.49428414,0.97416572,42,89,175,20,47,106,0.11258697,0.26385622,0.58874158,0.22103990,0.32985987,0.55419632
51193,0,USVirginiaWestmoreland,Virginia,Westmoreland,2021-04-04 02:25:16.438997,2020-09-07 00:00:00.000000,0.24226276,0.51906968,0.98673509,43,93,177,20,48,107,0.11446015,0.26700315,0.59578251,0.22276762,0.33634015,0.57612120
51193,0,USVirginiaWestmoreland,Virginia,Westmoreland,2021-04-04 02:25:16.438997,2020-09-08 00:00:00.000000,0.24852190,0.53483084,1.01150295,44,96,182,21,49,108,0.11687952,0.27577275,0.60057979,0.24639859,0.34506914,0.58303617
51193,0,USVirginiaWestmoreland,Virginia,Westmoreland,2021-04-04 02:25:16.438997,2020-09-09 00:00:00.000000,0.28988756,0.57411412,1.04603087,52,103,188,21,52,109,0.11967297,0.28976377,0.60612381,0.24112084,0.35560445,0.58893363
51193,0,USVirginiaWestmoreland,Virginia,Westmoreland,2021-04-04 02:25:16.438997,2020-09-10 00:00:00.000000,0.31138590,0.59310163,1.09271323,56,106,196,24,54,112,0.13697984,0.30404198,0.62174274,0.24241445,0.36067070,0.59250082
51193,0,USVirginiaWestmoreland,Virginia,Westmoreland,2021-04-04 02:25:16.438997,2020-09-11 00:00:00.000000,0.31123160,0.61270728,1.14422940,56,110,206,29,56,115,0.16648875,0.31530858,0.64345751,0.25078204,0.37479495,0.58071308
51193,0,USVirginiaWestmoreland,Virginia,Westmoreland,2021-04-04 02:25:16.438997,2020-09-12 00:00:00.000000,0.31439369,0.63546289,1.19807533,56,114,215,31,58,120,0.17230667,0.32500620,0.66986208,0.25132386,0.38771542,0.60227506
51193,0,USVirginiaWestmoreland,Virginia,Westmoreland,2021-04-04 02:25:16.438997,2020-09-13 00:00:00.000000,0.32168291,0.65371345,1.25376063,57,117,225,31,61,124,0.17547765,0.34124398,0.69383048,0.26259449,0.40235724,0.58081010
51193,0,USVirginiaWestmoreland,Virginia,Westmoreland,2021-04-04 02:25:16.438997,2020-09-14 00:00:00.000000,0.33609820,0.67306746,1.29760218,60,121,233,32,65,128,0.17872336,0.36262296,0.71307429,0.27891667,0.40889126,0.57928138
51193,0,USVirginiaWestmoreland,Virginia,Westmoreland,2021-04-04 02:25:16.438997,2020-09-15 00:00:00.000000,0.38856809,0.69538439,1.34299441,70,125,241,33,67,132,0.18390500,0.37742052,0.73730065,0.28036576,0.41262463,0.57584994
51193,0,USVirginiaWestmoreland,Virginia,Westmoreland,2021-04-04 02:25:16.438997,2020-09-16 00:00:00.000000,0.41402612,0.71817827,1.38915210,74,129,250,34,70,137,0.19045452,0.39179709,0.76508918,0.28163195,0.41585057,0.57053889
51193,0,USVirginiaWestmoreland,Virginia,Westmoreland,2021-04-04 02:25:16.438997,2020-09-17 00:00:00.000000,0.42190892,0.73620465,1.43612933,76,132,258,35,72,143,0.19842225,0.40248172,0.79546987,0.28276089,0.41523711,0.57091218
51193,0,USVirginiaWestmoreland,Virginia,Westmoreland,2021-04-04 02:25:16.438997,2020-09-18 00:00:00.000000,0.42988314,0.75572685,1.48381931,77,136,267,37,74,149,0.20660000,0.41560899,0.82778275,0.28421479,0.41533298,0.59189994
51193,0,USVirginiaWestmoreland,Virginia,Westmoreland,2021-04-04 02:25:16.438997,2020-09-19 00:00:00.000000,0.45358130,0.77839393,1.53182876,81,140,275,38,76,155,0.21262469,0.42697338,0.86156651,0.28865370,0.41671377,0.59542565
51193,0,USVirginiaWestmoreland,Virginia,Westmoreland,2021-04-04 02:25:16.438997,2020-09-20 00:00:00.000000,0.47795036,0.80611590,1.57959693,86,145,284,39,79,161,0.22030545,0.43915119,0.89636747,0.30341967,0.42026846,0.64171710
51193,0,USVirginiaWestmoreland,Virginia,Westmoreland,2021-04-04 02:25:16.438997,2020-09-21 00:00:00.000000,0.50311781,0.83022335,1.62645696,90,149,293,41,81,167,0.23183907,0.45051035,0.93137720,0.30672976,0.42701144,0.63074423
51193,0,USVirginiaWestmoreland,Virginia,Westmoreland,2021-04-04 02:25:16.438997,2020-09-22 00:00:00.000000,0.52844861,0.84748371,1.67372083,95,152,301,44,83,173,0.24852205,0.46321086,0.96164965,0.31240293,0.44117288,0.65189681
51193,0,USVirginiaWestmoreland,Virginia,Westmoreland,2021-04-04 02:25:16.438997,2020-09-23 00:00:00.000000,0.54926197,0.89244438,1.72181803,98,160,310,48,86,178,0.26741304,0.48250819,0.99054189,0.31299180,0.45013352,0.65594507
51193,0,USVirginiaWestmoreland,Virginia,Westmoreland,2021-04-04 02:25:16.438997,2020-09-24 00:00:00.000000,0.57335533,0.93123880,1.77107161,103,167,319,51,90,183,0.28720853,0.50237767,1.01966909,0.32473479,0.45221239,0.66052404
51193,0,USVirginiaWestmoreland,Virginia,Westmoreland,2021-04-04 02:25:16.438997,2020-09-25 00:00:00.000000,0.59180389,0.96814260,1.82175479,106,174,328,54,92,188,0.30127435,0.51469177,1.04682111,0.33131132,0.45276924,0.66600470
51193,0,USVirginiaWestmoreland,Virginia,Westmoreland,2021-04-04 02:25:16.438997,2020-09-26 00:00:00.000000,0.59913837,1.01266450,1.87409898,107,182,337,56,97,193,0.31546039,0.54027805,1.07349810,0.33236430,0.46903556,0.68075639
51193,0,USVirginiaWestmoreland,Virginia,Westmoreland,2021-04-04 02:25:16.438997,2020-09-27 00:00:00.000000,0.60680203,1.05550013,1.92824491,109,190,347,58,100,198,0.32412300,0.55765769,1.09984082,0.32973052,0.48061361,0.70626643
51193,0,USVirginiaWestmoreland,Virginia,Westmoreland,2021-04-04 02:25:16.438997,2020-09-28 00:00:00.000000,0.64080405,1.09560801,2.00021974,115,197,360,60,103,202,0.33699164,0.57478666,1.12570376,0.32717128,0.47484437,0.72914415
51193,0,USVirginiaWestmoreland,Virginia,Westmoreland,2021-04-04 02:25:16.438997,2020-09-29 00:00:00.000000,0.66704021,1.14118114,2.05514072,120,205,370,63,107,209,0.35041283,0.59488539,1.16054047,0.32732148,0.47585920,0.74684295
51193,0,USVirginiaWestmoreland,Virginia,Westmoreland,2021-04-04 02:25:16.438997,2020-09-30 00:00:00.000000,0.67646686,1.20609761,2.13108688,121,217,383,64,109,217,0.35565756,0.60594891,1.20747773,0.35288088,0.48705330,0.74826597
51193,0,USVirginiaWestmoreland,Virginia,Westmoreland,2021-04-04 02:25:16.438997,2020-10-01 00:00:00.000000,0.68978343,1.26598692,2.20228409,124,228,396,65,116,226,0.36215730,0.64480496,1.25454999,0.36046571,0.48918110,0.74002644
51193,0,USVirginiaWestmoreland,Virginia,Westmoreland,2021-04-04 02:25:16.438997,2020-10-02 00:00:00.000000,0.70530603,1.33670016,2.25948513,127,240,407,66,121,234,0.37057968,0.67577272,1.30068183,0.36287949,0.48382499,0.71282359
51193,0,USVirginiaWestmoreland,Virginia,Westmoreland,2021-04-04 02:25:16.438997,2020-10-03 00:00:00.000000,0.73822265,1.38517035,2.31879471,132,249,417,69,128,242,0.38527001,0.71131369,1.34381576,0.36839928,0.48101304,0.71479726
51193,0,USVirginiaWestmoreland,Virginia,Westmoreland,2021-04-04 02:25:16.438997,2020-10-04 00:00:00.000000,0.78111682,1.43871739,2.37986554,140,259,428,73,134,248,0.40773365,0.74772110,1.38143572,0.36979268,0.47818284,0.70111551
51193,0,USVirginiaWestmoreland,Virginia,Westmoreland,2021-04-04 02:25:16.438997,2020-10-05 00:00:00.000000,0.85262957,1.49452711,2.44412980,153,269,440,77,139,255,0.43072649,0.77580103,1.41657693,0.36918107,0.47620066,0.68713010
51193,0,USVirginiaWestmoreland,Virginia,Westmoreland,2021-04-04 02:25:16.438997,2020-10-06 00:00:00.000000,0.92696362,1.57031108,2.50529228,166,282,451,83,144,262,0.46521811,0.80430305,1.45682838,0.36903146,0.46792145,0.68506048
51193,0,USVirginiaWestmoreland,Virginia,Westmoreland,2021-04-04 02:25:16.438997,2020-10-07 00:00:00.000000,1.00688753,1.61919344,2.56690630,181,291,462,91,151,270,0.50558122,0.83872204,1.50031052,0.35449629,0.45981767,0.67790577
51193,0,USVirginiaWestmoreland,Virginia,Westmoreland,2021-04-04 02:25:16.438997,2020-10-08 00:00:00.000000,1.09113642,1.66007259,2.62813428,196,299,473,98,157,277,0.54874199,0.87602582,1.53869497,0.33738777,0.44863462,0.66101511
51193,0,USVirginiaWestmoreland,Virginia,Westmoreland,2021-04-04 02:25:16.438997,2020-10-09 00:00:00.000000,1.15276251,1.70940785,2.68904695,207,307,484,106,162,284,0.59163066,0.90024414,1.57720135,0.33655639,0.43138139,0.65630020
51193,0,USVirginiaWestmoreland,Virginia,Westmoreland,2021-04-04 02:25:16.438997,2020-10-10 00:00:00.000000,1.23684340,1.75653387,2.75531908,222,316,496,114,166,291,0.63726021,0.92572585,1.61544168,0.32861434,0.42347135,0.62704073
51193,0,USVirginiaWestmoreland,Virginia,Westmoreland,2021-04-04 02:25:16.438997,2020-10-11 00:00:00.000000,1.27010162,1.78658370,2.81508289,228,321,507,121,169,296,0.67333608,0.94104852,1.64630287,0.29850729,0.40885775,0.59338528
51193,0,USVirginiaWestmoreland,Virginia,Westmoreland,2021-04-04 02:25:16.438997,2020-10-12 00:00:00.000000,1.30606584,1.81406932,2.86718193,235,326,516,126,175,303,0.70336292,0.97459986,1.68198204,0.27684455,0.38205627,0.56256258
51193,0,USVirginiaWestmoreland,Virginia,Westmoreland,2021-04-04 02:25:16.438997,2020-10-13 00:00:00.000000,1.31617182,1.81522200,2.90710280,237,327,523,129,178,311,0.71908768,0.98900247,1.72859348,0.26016355,0.36860626,0.54728298
51193,0,USVirginiaWestmoreland,Virginia,Westmoreland,2021-04-04 02:25:16.438997,2020-10-14 00:00:00.000000,1.31437456,1.81207994,2.83963365,236,326,511,129,180,314,0.71798567,1.00437318,1.74677273,0.24809888,0.35636975,0.51726583
51193,0,USVirginiaWestmoreland,Virginia,Westmoreland,2021-04-04 02:25:16.438997,2020-10-15 00:00:00.000000,1.28925400,1.78974446,2.76224547,232,322,497,128,180,312,0.71524391,1.00308679,1.73488302,0.23290256,0.33883251,0.49214440
51193,0,USVirginiaWestmoreland,Virginia,Westmoreland,2021-04-04 02:25:16.438997,2020-10-16 00:00:00.000000,1.25817864,1.77425676,2.73183183,226,319,492,127,179,306,0.70717356,0.99654073,1.70315395,0.22928373,0.31945848,0.45126591
51193,0,USVirginiaWestmoreland,Virginia,Westmoreland,2021-04-04 02:25:16.438997,2020-10-17 00:00:00.000000,1.22752966,1.77159663,2.69156977,221,319,484,125,177,298,0.69603772,0.98390073,1.65959478,0.21339835,0.30803724,0.42181259
51193,0,USVirginiaWestmoreland,Virginia,Westmoreland,2021-04-04 02:25:16.438997,2020-10-18 00:00:00.000000,1.19642473,1.75044977,2.64505665,215,315,476,122,173,289,0.68216337,0.96497816,1.60952671,0.21686159,0.30009990,0.39783464
51193,0,USVirginiaWestmoreland,Virginia,Westmoreland,2021-04-04 02:25:16.438997,2020-10-19 00:00:00.000000,1.15566946,1.72281316,2.60013922,208,310,468,120,171,280,0.66689855,0.95320988,1.55622357,0.20914847,0.29363510,0.39352768
51193,0,USVirginiaWestmoreland,Virginia,Westmoreland,2021-04-04 02:25:16.438997,2020-10-20 00:00:00.000000,1.12649139,1.68404497,2.56962643,202,303,462,116,169,272,0.64549453,0.94059280,1.51316623,0.20328705,0.29175890,0.39471228
51193,0,USVirginiaWestmoreland,Virginia,Westmoreland,2021-04-04 02:25:16.438997,2020-10-21 00:00:00.000000,1.10690337,1.67277106,2.54382685,199,301,458,113,166,270,0.62790093,0.92580603,1.50326739,0.20145794,0.28992923,0.38840987
51193,0,USVirginiaWestmoreland,Virginia,Westmoreland,2021-04-04 02:25:16.438997,2020-10-22 00:00:00.000000,1.07883313,1.63287814,2.51582590,194,294,453,108,164,268,0.60477426,0.91188722,1.49103149,0.20201638,0.29139564,0.38429543
51193,0,USVirginiaWestmoreland,Virginia,Westmoreland,2021-04-04 02:25:16.438997,2020-10-23 00:00:00.000000,1.04730351,1.59202237,2.47951455,188,286,446,104,159,266,0.58256062,0.88801397,1.47691164,0.20177557,0.29062874,0.38342142
51193,0,USVirginiaWestmoreland,Virginia,Westmoreland,2021-04-04 02:25:16.438997,2020-10-24 00:00:00.000000,1.01343957,1.55949828,2.39764976,182,280,431,101,155,263,0.56140892,0.86240882,1.46145556,0.19939851,0.29068469,0.38550774
51193,0,USVirginiaWestmoreland,Virginia,Westmoreland,2021-04-04 02:25:16.438997,2020-10-25 00:00:00.000000,0.98728684,1.53115888,2.31702911,177,275,417,97,151,260,0.54155781,0.84112935,1.44505774,0.19829101,0.29549176,0.38854514
51193,0,USVirginiaWestmoreland,Virginia,Westmoreland,2021-04-04 02:25:16.438997,2020-10-26 00:00:00.000000,0.95952491,1.48741662,2.26355942,172,267,407,94,150,257,0.52339512,0.83756410,1.42755434,0.19950477,0.29953267,0.41154729
51193,0,USVirginiaWestmoreland,Virginia,Westmoreland,2021-04-04 02:25:16.438997,2020-10-27 00:00:00.000000,0.93268497,1.45634219,2.24321860,168,262,404,91,150,251,0.50987476,0.83593443,1.39759529,0.20200860,0.30421503,0.40179354
51193,0,USVirginiaWestmoreland,Virginia,Westmoreland,2021-04-04 02:25:16.438997,2020-10-28 00:00:00.000000,0.90706693,1.42931588,2.18882629,163,257,394,91,149,244,0.50659335,0.83178062,1.35917699,0.20220853,0.30703878,0.39839139
51193,0,USVirginiaWestmoreland,Virginia,Westmoreland,2021-04-04 02:25:16.438997,2020-10-29 00:00:00.000000,0.89620487,1.39319560,2.12615650,161,250,383,88,148,237,0.49112961,0.82205720,1.31727093,0.20305023,0.31053154,0.42701042
51193,0,USVirginiaWestmoreland,Virginia,Westmoreland,2021-04-04 02:25:16.438997,2020-10-30 00:00:00.000000,0.88210167,1.36497945,2.07822310,158,245,374,86,145,230,0.47783135,0.80787590,1.27749358,0.20717808,0.31582513,0.43940311
51193,0,USVirginiaWestmoreland,Virginia,Westmoreland,2021-04-04 02:25:16.438997,2020-10-31 00:00:00.000000,0.86175077,1.35443653,2.03736620,155,244,367,84,143,223,0.47067397,0.79677361,1.24299831,0.22477851,0.32055871,0.48409745
51193,0,USVirginiaWestmoreland,Virginia,Westmoreland,2021-04-04 02:25:16.438997,2020-11-01 00:00:00.000000,0.84503102,1.34317557,1.99994331,152,241,360,83,140,218,0.46436717,0.77945521,1.21342720,0.23996522,0.33633337,0.51655604
51193,0,USVirginiaWestmoreland,Virginia,Westmoreland,2021-04-04 02:25:16.438997,2020-11-02 00:00:00.000000,0.83520683,1.32217080,1.95953953,150,238,353,82,139,213,0.45878254,0.77484783,1.18749584,0.24306549,0.34537335,0.54033875
51193,0,USVirginiaWestmoreland,Virginia,Westmoreland,2021-04-04 02:25:16.438997,2020-11-03 00:00:00.000000,0.83073323,1.32184887,1.93771382,149,238,349,79,138,210,0.44390597,0.76691774,1.17091139,0.24372924,0.34784116,0.53775507
51193,0,USVirginiaWestmoreland,Virginia,Westmoreland,2021-04-04 02:25:16.438997,2020-11-04 00:00:00.000000,0.83302600,1.32136282,1.93105147,150,238,347,78,135,209,0.43829475,0.75295133,1.16050840,0.24578439,0.35699125,0.53340430
51193,0,USVirginiaWestmoreland,Virginia,Westmoreland,2021-04-04 02:25:16.438997,2020-11-05 00:00:00.000000,0.81482176,1.32976212,1.94415612,146,239,350,78,136,208,0.43499631,0.75930297,1.15872088,0.24831360,0.36570891,0.54603673
51193,0,USVirginiaWestmoreland,Virginia,Westmoreland,2021-04-04 02:25:16.438997,2020-11-06 00:00:00.000000,0.79676388,1.33550085,1.95857096,143,240,352,77,136,210,0.43213835,0.75787321,1.16606524,0.25222753,0.38504827,0.56377212
51193,0,USVirginiaWestmoreland,Virginia,Westmoreland,2021-04-04 02:25:16.438997,2020-11-07 00:00:00.000000,0.79337757,1.33149849,1.97693623,142,239,356,78,135,211,0.43739797,0.75277417,1.17392962,0.25829801,0.40265745,0.56909089
51193,0,USVirginiaWestmoreland,Virginia,Westmoreland,2021-04-04 02:25:16.438997,2020-11-08 00:00:00.000000,0.80721312,1.34554867,2.01574052,145,242,363,79,135,213,0.43991123,0.75304402,1.18308446,0.27018545,0.42073402,0.57165942
51193,0,USVirginiaWestmoreland,Virginia,Westmoreland,2021-04-04 02:25:16.438997,2020-11-09 00:00:00.000000,0.81191728,1.35743607,2.07253385,146,244,373,79,136,215,0.44032513,0.75779997,1.19577529,0.31562909,0.43345943,0.57872276
51193,0,USVirginiaWestmoreland,Virginia,Westmoreland,2021-04-04 02:25:16.438997,2020-11-10 00:00:00.000000,0.81843988,1.37640158,2.13088678,147,247,383,80,137,219,0.44478522,0.76429532,1.22064387,0.32839634,0.45207721,0.59481486
51193,0,USVirginiaWestmoreland,Virginia,Westmoreland,2021-04-04 02:25:16.438997,2020-11-11 00:00:00.000000,0.84945324,1.41995764,2.19059528,153,255,394,81,140,226,0.45133959,0.78051721,1.25818318,0.34260982,0.46311859,0.60309667
51193,0,USVirginiaWestmoreland,Virginia,Westmoreland,2021-04-04 02:25:16.438997,2020-11-12 00:00:00.000000,0.89231582,1.47023022,2.26035402,160,264,407,82,144,233,0.45898698,0.80215312,1.29748697,0.34658940,0.46919188,0.65434522
51193,0,USVirginiaWestmoreland,Virginia,Westmoreland,2021-04-04 02:25:16.438997,2020-11-13 00:00:00.000000,0.91598763,1.53239796,2.33265159,165,276,420,84,147,240,0.46725440,0.81690541,1.33439525,0.35262048,0.48100961,0.72023671
51193,0,USVirginiaWestmoreland,Virginia,Westmoreland,2021-04-04 02:25:16.438997,2020-11-14 00:00:00.000000,0.90376542,1.58688283,2.40796449,162,285,433,85,150,247,0.47602240,0.83384921,1.37137810,0.36221316,0.50953364,0.74513673
51193,0,USVirginiaWestmoreland,Virginia,Westmoreland,2021-04-04 02:25:16.438997,2020-11-15 00:00:00.000000,0.89802597,1.64725510,2.48691243,161,296,448,87,154,254,0.48555168,0.85656380,1.41034301,0.39120429,0.53217826,0.75445771
51193,0,USVirginiaWestmoreland,Virginia,Westmoreland,2021-04-04 02:25:16.438997,2020-11-16 00:00:00.000000,0.91982897,1.71514814,2.61275574,165,308,470,90,159,261,0.50028108,0.88811115,1.45377733,0.42283912,0.55499818,0.75940770
51193,0,USVirginiaWestmoreland,Virginia,Westmoreland,2021-04-04 02:25:16.438997,2020-11-17 00:00:00.000000,0.95258695,1.79482167,2.79858308,171,323,504,93,166,273,0.51650224,0.92580550,1.51986311,0.45056695,0.57410241,0.76782563
51193,0,USVirginiaWestmoreland,Virginia,Westmoreland,2021-04-04 02:25:16.438997,2020-11-18 00:00:00.000000,0.99696168,1.88579297,2.97992283,179,339,536,95,174,283,0.53199873,0.96878013,1.57485846,0.45426827,0.59275481,0.77367795
51193,0,USVirginiaWestmoreland,Virginia,Westmoreland,2021-04-04 02:25:16.438997,2020-11-19 00:00:00.000000,1.05137950,1.97804057,3.10721209,189,356,559,98,185,294,0.54775205,1.03054652,1.63236462,0.47446669,0.60964559,0.79558973
51193,0,USVirginiaWestmoreland,Virginia,Westmoreland,2021-04-04 02:25:16.438997,2020-11-20 00:00:00.000000,1.11535569,2.09748308,3.36656803,200,377,606,102,198,305,0.57171507,1.10315267,1.69344381,0.50881351,0.63055442,0.82517746
51193,0,USVirginiaWestmoreland,Virginia,Westmoreland,2021-04-04 02:25:16.438997,2020-11-21 00:00:00.000000,1.18963406,2.20234732,3.64161454,214,396,656,108,209,320,0.60352445,1.16566237,1.77853565,0.51359005,0.65267781,0.84940884
51193,0,USVirginiaWestmoreland,Virginia,Westmoreland,2021-04-04 02:25:16.438997,2020-11-22 00:00:00.000000,1.27202575,2.32967766,3.92765279,229,419,707,115,221,346,0.64074131,1.23094584,1.92263725,0.52070290,0.67839623,0.87186565
51193,0,USVirginiaWestmoreland,Virginia,Westmoreland,2021-04-04 02:25:16.438997,2020-11-23 00:00:00.000000,1.38323913,2.47730379,4.21870470,249,446,759,123,235,374,0.68285726,1.30614377,2.07622232,0.54471536,0.69662641,0.87875757
51193,0,USVirginiaWestmoreland,Virginia,Westmoreland,2021-04-04 02:25:16.438997,2020-11-24 00:00:00.000000,1.52561990,2.65196303,4.44345804,274,477,800,131,251,402,0.73152073,1.39354183,2.23637379,0.54836264,0.70599041,0.87819566
51193,0,USVirginiaWestmoreland,Virginia,Westmoreland,2021-04-04 02:25:16.438997,2020-11-25 00:00:00.000000,1.68191512,2.86152086,4.64143065,302,515,836,141,269,432,0.78485389,1.49852700,2.40041389,0.55578668,0.71040371,0.90846147
51193,0,USVirginiaWestmoreland,Virginia,Westmoreland,2021-04-04 02:25:16.438997,2020-11-26 00:00:00.000000,1.83313141,3.07455093,4.83249090,330,553,870,151,290,462,0.84217055,1.61316211,2.56571857,0.55974099,0.71522618,0.88682749
51193,0,USVirginiaWestmoreland,Virginia,Westmoreland,2021-04-04 02:25:16.438997,2020-11-27 00:00:00.000000,2.00576172,3.27623250,5.11424878,361,590,921,162,311,491,0.90292338,1.73044583,2.72638240,0.56232407,0.70726207,0.89066837
51193,0,USVirginiaWestmoreland,Virginia,Westmoreland,2021-04-04 02:25:16.438997,2020-11-28 00:00:00.000000,2.19437043,3.48991643,5.38234773,395,628,969,174,331,517,0.96682026,1.83900841,2.87464349,0.53966562,0.70360707,0.91186767
51193,0,USVirginiaWestmoreland,Virginia,Westmoreland,2021-04-04 02:25:16.438997,2020-11-29 00:00:00.000000,2.39742971,3.73099771,5.59971952,431,672,1008,190,347,541,1.05531636,1.92869077,3.00836489,0.52561862,0.70400284,0.92010302
51193,0,USVirginiaWestmoreland,Virginia,Westmoreland,2021-04-04 02:25:16.438997,2020-11-30 00:00:00.000000,2.59499634,3.98534462,5.75369236,467,717,1036,210,369,563,1.17059572,2.04882042,3.13049676,0.52770776,0.70768483,0.92616565
51193,0,USVirginiaWestmoreland,Virginia,Westmoreland,2021-04-04 02:25:16.438997,2020-12-01 00:00:00.000000,2.80264337,4.22757170,5.85528711,504,761,1054,234,390,583,1.29948009,2.16644066,3.23799289,0.51745720,0.70715649,0.93065661
51193,0,USVirginiaWestmoreland,Virginia,Westmoreland,2021-04-04 02:25:16.438997,2020-12-02 00:00:00.000000,3.01748599,4.49195903,5.92642118,543,809,1067,259,412,599,1.44187625,2.28784397,3.33029342,0.51332879,0.68621218,0.92642660
51193,0,USVirginiaWestmoreland,Virginia,Westmoreland,2021-04-04 02:25:16.438997,2020-12-03 00:00:00.000000,3.21006577,4.73173136,6.35741707,578,852,1145,278,435,622,1.54685701,2.41902488,3.45460403,0.50724611,0.67170417,0.90621690
51193,0,USVirginiaWestmoreland,Virginia,Westmoreland,2021-04-04 02:25:16.438997,2020-12-04 00:00:00.000000,3.36040179,4.95128326,6.64670903,605,891,1197,295,457,640,1.64225005,2.53712169,3.55730715,0.48858411,0.66370905,0.86279962
51193,0,USVirginiaWestmoreland,Virginia,Westmoreland,2021-04-04 02:25:16.438997,2020-12-05 00:00:00.000000,3.50913702,5.16022663,7.05689800,632,929,1271,312,476,679,1.73243553,2.64457523,3.77297463,0.47649627,0.64370742,0.84375351
51193,0,USVirginiaWestmoreland,Virginia,Westmoreland,2021-04-04 02:25:16.438997,2020-12-06 00:00:00.000000,3.65096749,5.29873751,7.33301428,657,954,1321,325,493,724,1.80553237,2.74046172,4.02085662,0.46167306,0.61831911,0.82599310
51193,0,USVirginiaWestmoreland,Virginia,Westmoreland,2021-04-04 02:25:16.438997,2020-12-07 00:00:00.000000,3.80338255,5.47534613,7.53017730,685,986,1356,338,511,768,1.87692234,2.83959769,4.26862918,0.45026239,0.60513663,0.79755445
51193,0,USVirginiaWestmoreland,Virginia,Westmoreland,2021-04-04 02:25:16.438997,2020-12-08 00:00:00.000000,3.89413607,5.59718777,7.71093871,701,1008,1389,350,525,812,1.94417936,2.91564998,4.51129212,0.43454777,0.59121921,0.76431824
51193,0,USVirginiaWestmoreland,Virginia,Westmoreland,2021-04-04 02:25:16.438997,2020-12-09 00:00:00.000000,3.95056191,5.59568712,7.87848086,711,1008,1419,361,536,855,2.00754297,2.97573880,4.74669784,0.42581254,0.57168619,0.73479097
51193,0,USVirginiaWestmoreland,Virginia,Westmoreland,2021-04-04 02:25:16.438997,2020-12-10 00:00:00.000000,4.03488329,5.66908239,8.05250012,726,1021,1450,372,541,888,2.06613215,3.00654925,4.93190415,0.41202511,0.56008748,0.72022075
51193,0,USVirginiaWestmoreland,Virginia,Westmoreland,2021-04-04 02:25:16.438997,2020-12-11 00:00:00.000000,4.00870416,5.69439436,8.28295627,722,1025,1492,381,551,907,2.11782894,3.06360881,5.03779404,0.39872179,0.52945565,0.68631810
51193,0,USVirginiaWestmoreland,Virginia,Westmoreland,2021-04-04 02:25:16.438997,2020-12-12 00:00:00.000000,3.98804203,5.71676600,8.45577590,718,1029,1523,388,561,924,2.15689884,3.11881758,5.13394092,0.37505444,0.51171975,0.66165428
51193,0,USVirginiaWestmoreland,Virginia,Westmoreland,2021-04-04 02:25:16.438997,2020-12-13 00:00:00.000000,3.99190819,5.70721431,8.58108977,719,1028,1545,395,569,940,2.19470049,3.16225629,5.21999520,0.36709017,0.49745420,0.63858680
51193,0,USVirginiaWestmoreland,Virginia,Westmoreland,2021-04-04 02:25:16.438997,2020-12-14 00:00:00.000000,3.95209928,5.77823576,8.69996614,711,1040,1567,392,577,954,2.18088056,3.20613366,5.29590599,0.36182751,0.48902622,0.63422153
51193,0,USVirginiaWestmoreland,Virginia,Westmoreland,2021-04-04 02:25:16.438997,2020-12-15 00:00:00.000000,3.88454818,5.78485599,8.78923461,699,1042,1583,391,576,965,2.17545268,3.19744789,5.36036381,0.36006333,0.48690157,0.63088758
51193,0,USVirginiaWestmoreland,Virginia,Westmoreland,2021-04-04 02:25:16.438997,2020-12-16 00:00:00.000000,3.81335493,5.76571812,8.85482705,686,1038,1595,387,577,975,2.15260926,3.20727425,5.41418844,0.36069574,0.48394005,0.63065649
51193,0,USVirginiaWestmoreland,Virginia,Westmoreland,2021-04-04 02:25:16.438997,2020-12-17 00:00:00.000000,3.75142172,5.77634605,9.00606227,675,1040,1622,383,579,983,2.12788207,3.21874950,5.45769004,0.36202469,0.47944803,0.63037424
51193,0,USVirginiaWestmoreland,Virginia,Westmoreland,2021-04-04 02:25:16.438997,2020-12-18 00:00:00.000000,3.71207894,5.74907965,9.15711290,668,1035,1649,376,581,989,2.09242937,3.22868975,5.49046590,0.35870274,0.47346441,0.62675248
51193,0,USVirginiaWestmoreland,Virginia,Westmoreland,2021-04-04 02:25:16.438997,2020-12-19 00:00:00.000000,3.66745110,5.74451833,9.29338287,660,1034,1674,365,580,992,2.03128161,3.22193162,5.51074127,0.37018787,0.47008657,0.62093789
51193,0,USVirginiaWestmoreland,Virginia,Westmoreland,2021-04-04 02:25:16.438997,2020-12-20 00:00:00.000000,3.62020106,5.69341543,9.39200841,652,1025,1691,358,580,993,1.98835221,3.21976363,5.51462698,0.38647349,0.47422379,0.63464046
51193,0,USVirginiaWestmoreland,Virginia,Westmoreland,2021-04-04 02:25:16.438997,2020-12-21 00:00:00.000000,3.57170969,5.56571933,9.37166829,643,1002,1688,350,575,990,1.94551727,3.19456569,5.49806529,0.39569528,0.47335863,0.64548462
51193,0,USVirginiaWestmoreland,Virginia,Westmoreland,2021-04-04 02:25:16.438997,2020-12-22 00:00:00.000000,3.46470986,5.48917048,9.34011088,624,988,1682,344,569,984,1.90958713,3.16379351,5.46452839,0.39213343,0.48314340,0.66319894
51193,0,USVirginiaWestmoreland,Virginia,Westmoreland,2021-04-04 02:25:16.438997,2020-12-23 00:00:00.000000,3.36479685,5.43836926,9.29959945,606,979,1675,338,564,975,1.87694338,3.13426368,5.41721138,0.38635034,0.49648507,0.65819549
51193,0,USVirginiaWestmoreland,Virginia,Westmoreland,2021-04-04 02:25:16.438997,2020-12-24 00:00:00.000000,3.28884949,5.37324476,9.25170374,592,967,1666,335,561,966,1.86482989,3.11528295,5.36711149,0.38144241,0.50741577,0.66372042
51193,0,USVirginiaWestmoreland,Virginia,Westmoreland,2021-04-04 02:25:16.438997,2020-12-25 00:00:00.000000,3.24672222,5.31325610,9.19717958,584,957,1656,336,553,961,1.86595623,3.07482624,5.33724336,0.37843210,0.51873698,0.65891482
51193,0,USVirginiaWestmoreland,Virginia,Westmoreland,2021-04-04 02:25:16.438997,2020-12-26 00:00:00.000000,3.23894920,5.22102078,9.13668039,583,940,1645,331,549,959,1.83890066,3.04938553,5.32789544,0.37941497,0.52355429,0.66574071
51193,0,USVirginiaWestmoreland,Virginia,Westmoreland,2021-04-04 02:25:16.438997,2020-12-27 00:00:00.000000,3.25735096,5.13472660,9.07093850,586,925,1634,326,542,959,1.81020660,3.01305774,5.32660098,0.38538771,0.53492109,0.68920217
51193,0,USVirginiaWestmoreland,Virginia,Westmoreland,2021-04-04 02:25:16.438997,2020-12-28 00:00:00.000000,3.29137944,5.20692267,8.98864790,592,938,1619,321,538,959,1.78589727,2.99074941,5.32498706,0.41445713,0.54876406,0.70418677
51193,0,USVirginiaWestmoreland,Virginia,Westmoreland,2021-04-04 02:25:16.438997,2020-12-29 00:00:00.000000,3.28895954,5.21962234,8.90347559,592,940,1603,319,537,958,1.77142997,2.98397039,5.31962686,0.42948010,0.56877020,0.72419531
51193,0,USVirginiaWestmoreland,Virginia,Westmoreland,2021-04-04 02:25:16.438997,2020-12-30 00:00:00.000000,3.28716929,5.22002737,8.81718887,592,940,1588,319,536,956,1.77535870,2.97920662,5.30789802,0.44340767,0.58907130,0.77614110
51193,0,USVirginiaWestmoreland,Virginia,Westmoreland,2021-04-04 02:25:16.438997,2020-12-31 00:00:00.000000,3.30045611,5.27824849,8.73286794,594,950,1573,317,542,952,1.76105379,3.01228448,5.28858626,0.43686913,0.61397683,0.77898837
51193,0,USVirginiaWestmoreland,Virginia,Westmoreland,2021-04-04 02:25:16.438997,2021-01-01 00:00:00.000000,3.38037441,5.33382555,8.65395347,608,960,1559,323,542,947,1.79385586,3.01121269,5.26121407,0.42185992,0.62057518,0.82488568
51193,0,USVirginiaWestmoreland,Virginia,Westmoreland,2021-04-04 02:25:16.438997,2021-01-02 00:00:00.000000,3.47076660,5.42528033,8.58306126,625,977,1546,331,540,941,1.84129176,2.99888249,5.22570443,0.43776034,0.63372422,0.86782294
51193,0,USVirginiaWestmoreland,Virginia,Westmoreland,2021-04-04 02:25:16.438997,2021-01-03 00:00:00.000000,3.56135974,5.48673729,8.57701411,641,988,1545,339,537,933,1.88621191,2.98260543,5.18221669,0.45946237,0.63976748,0.90287609
51193,0,USVirginiaWestmoreland,Virginia,Westmoreland,2021-04-04 02:25:16.438997,2021-01-04 00:00:00.000000,3.64311851,5.54432029,8.63030448,656,998,1554,345,541,931,1.91948792,3.00607033,5.16948797,0.48057161,0.64922060,0.92001327
51193,0,USVirginiaWestmoreland,Virginia,Westmoreland,2021-04-04 02:25:16.438997,2021-01-05 00:00:00.000000,3.68026518,5.61966874,8.66673645,662,1012,1561,350,546,940,1.94491710,3.03461758,5.22022865,0.50099804,0.65376499,0.91986264
51193,0,USVirginiaWestmoreland,Virginia,Westmoreland,2021-04-04 02:25:16.438997,2021-01-06 00:00:00.000000,3.72186134,5.68380500,8.75897173,670,1023,1577,352,554,947,1.95464354,3.07819039,5.25706564,0.51517453,0.65737041,0.91702768
51193,0,USVirginiaWestmoreland,Virginia,Westmoreland,2021-04-04 02:25:16.438997,2021-01-07 00:00:00.000000,3.77280485,5.76863917,8.84657942,679,1039,1593,355,562,948,1.97381943,3.12478003,5.26561514,0.49822161,0.66904785,0.93203083
51193,0,USVirginiaWestmoreland,Virginia,Westmoreland,2021-04-04 02:25:16.438997,2021-01-08 00:00:00.000000,3.83765951,5.83759275,8.81586544,691,1051,1588,359,571,943,1.99765535,3.17427169,5.23532149,0.51930123,0.68842847,0.91925874
51193,0,USVirginiaWestmoreland,Virginia,Westmoreland,2021-04-04 02:25:16.438997,2021-01-09 00:00:00.000000,3.91927816,5.90873925,8.78553359,706,1064,1582,365,582,938,2.02806664,3.23573322,5.20724671,0.50336346,0.68380918,0.91512794
51193,0,USVirginiaWestmoreland,Virginia,Westmoreland,2021-04-04 02:25:16.438997,2021-01-10 00:00:00.000000,3.95043102,5.97839527,8.77652406,711,1077,1581,372,589,934,2.06673444,3.27449538,5.18991024,0.50487250,0.68308366,0.92473894
51193,0,USVirginiaWestmoreland,Virginia,Westmoreland,2021-04-04 02:25:16.438997,2021-01-11 00:00:00.000000,3.93533825,6.02949432,8.81876693,708,1086,1588,380,595,936,2.11463359,3.30303454,5.19704255,0.50515152,0.68947643,0.91158531
51193,0,USVirginiaWestmoreland,Virginia,Westmoreland,2021-04-04 02:25:16.438997,2021-01-12 00:00:00.000000,3.95988679,6.02497153,8.87349738,713,1085,1598,393,599,941,2.18160424,3.33017410,5.22786165,0.50299690,0.68142591,0.91035644
51193,0,USVirginiaWestmoreland,Virginia,Westmoreland,2021-04-04 02:25:16.438997,2021-01-13 00:00:00.000000,3.99255105,6.01199695,8.90818779,719,1083,1604,400,602,935,2.22470618,3.34381141,5.19352540,0.49759514,0.68041651,0.90783220
51193,0,USVirginiaWestmoreland,Virginia,Westmoreland,2021-04-04 02:25:16.438997,2021-01-14 00:00:00.000000,4.02097757,5.99674931,8.80472537,724,1080,1586,411,603,921,2.28398237,3.34942218,5.11400003,0.49016094,0.67608837,0.90154988
51193,0,USVirginiaWestmoreland,Virginia,Westmoreland,2021-04-04 02:25:16.438997,2021-01-15 00:00:00.000000,4.04477293,5.96538965,8.88425006,728,1074,1600,409,600,903,2.27047858,3.33472287,5.01790583,0.49167377,0.67338769,0.87033698
51193,0,USVirginiaWestmoreland,Virginia,Westmoreland,2021-04-04 02:25:16.438997,2021-01-16 00:00:00.000000,4.06250947,5.96896001,8.95508031,731,1075,1613,407,596,884,2.26259419,3.30873785,4.91084371,0.48319854,0.67763271,0.85828153
51193,0,USVirginiaWestmoreland,Virginia,Westmoreland,2021-04-04 02:25:16.438997,2021-01-17 00:00:00.000000,4.07245325,5.89441003,9.00885479,733,1061,1622,409,590,881,2.27346474,3.27667507,4.89428888,0.47586436,0.67007935,0.85586604
51193,0,USVirginiaWestmoreland,Virginia,Westmoreland,2021-04-04 02:25:16.438997,2021-01-18 00:00:00.000000,4.05924968,5.83609778,9.04637773,731,1051,1629,409,588,884,2.27432454,3.26459157,4.90807415,0.46767246,0.66211049,0.84851493
51193,0,USVirginiaWestmoreland,Virginia,Westmoreland,2021-04-04 02:25:16.438997,2021-01-19 00:00:00.000000,4.04011007,5.74810160,9.05888321,727,1035,1631,405,589,886,2.25168420,3.27289603,4.92227298,0.45965948,0.66182094,0.83312475
51193,0,USVirginiaWestmoreland,Virginia,Westmoreland,2021-04-04 02:25:16.438997,2021-01-20 00:00:00.000000,4.05729932,5.66733776,9.03985612,730,1020,1628,400,579,888,2.22534804,3.21807285,4.93367296,0.45706241,0.64906156,0.81704212
51193,0,USVirginiaWestmoreland,Virginia,Westmoreland,2021-04-04 02:25:16.438997,2021-01-21 00:00:00.000000,4.09491022,5.57568009,8.98281129,737,1004,1618,395,568,889,2.19604048,3.15442798,4.93950841,0.45567978,0.64570314,0.81245169
51193,0,USVirginiaWestmoreland,Virginia,Westmoreland,2021-04-04 02:25:16.438997,2021-01-22 00:00:00.000000,4.08577646,5.47128949,8.88606656,736,985,1600,389,557,889,2.16394165,3.09557254,4.93706982,0.44613100,0.62341209,0.81047896
51193,0,USVirginiaWestmoreland,Virginia,Westmoreland,2021-04-04 02:25:16.438997,2021-01-23 00:00:00.000000,3.99193086,5.35612146,8.75533401,719,964,1577,383,548,887,2.12875604,3.04487855,4.92414765,0.44310845,0.60764893,0.79687797
51193,0,USVirginiaWestmoreland,Virginia,Westmoreland,2021-04-04 02:25:16.438997,2021-01-24 00:00:00.000000,3.88792400,5.23516005,8.60091633,700,943,1549,376,538,882,2.08983653,2.98674582,4.90008905,0.41581244,0.60090181,0.79633155
51193,0,USVirginiaWestmoreland,Virginia,Westmoreland,2021-04-04 02:25:16.438997,2021-01-25 00:00:00.000000,3.74745632,5.11284714,8.42979236,675,921,1518,368,526,876,2.04676814,2.92330580,4.86564312,0.40270969,0.60089436,0.77126460
51193,0,USVirginiaWestmoreland,Virginia,Westmoreland,2021-04-04 02:25:16.438997,2021-01-26 00:00:00.000000,3.61019079,4.99586545,8.25406993,650,900,1486,365,513,867,2.02920484,2.85100651,4.81595999,0.38196015,0.60037231,0.77130907
51193,0,USVirginiaWestmoreland,Virginia,Westmoreland,2021-04-04 02:25:16.438997,2021-01-27 00:00:00.000000,3.48709517,4.82351988,8.07582677,628,868,1454,351,498,856,1.95332081,2.76988127,4.75438827,0.37047060,0.57935997,0.77136344
51193,0,USVirginiaWestmoreland,Virginia,Westmoreland,2021-04-04 02:25:16.438997,2021-01-28 00:00:00.000000,3.35230120,4.62509691,7.89371743,603,833,1422,338,480,843,1.87921201,2.66771913,4.68312003,0.36765166,0.55618605,0.77131315
51193,0,USVirginiaWestmoreland,Virginia,Westmoreland,2021-04-04 02:25:16.438997,2021-01-29 00:00:00.000000,3.20329389,4.39409267,7.70637556,577,791,1388,325,465,829,1.80490970,2.58192284,4.60295315,0.35856583,0.54689968,0.77530453
51193,0,USVirginiaWestmoreland,Virginia,Westmoreland,2021-04-04 02:25:16.438997,2021-01-30 00:00:00.000000,3.03897006,4.22393520,7.51252030,547,760,1353,312,447,812,1.73242350,2.48394542,4.51215152,0.33795479,0.53912184,0.80573200
51193,0,USVirginiaWestmoreland,Virginia,Westmoreland,2021-04-04 02:25:16.438997,2021-01-31 00:00:00.000000,2.90598059,4.08428986,7.31060448,523,735,1317,299,432,793,1.66243918,2.40163564,4.40574645,0.33559412,0.53600381,0.79287877
51193,0,USVirginiaWestmoreland,Virginia,Westmoreland,2021-04-04 02:25:16.438997,2021-02-01 00:00:00.000000,2.78300188,3.97090007,7.09658506,501,715,1278,287,420,771,1.59566655,2.33204589,4.28085336,0.31422209,0.52324590,0.77804092
51193,0,USVirginiaWestmoreland,Virginia,Westmoreland,2021-04-04 02:25:16.438997,2021-02-02 00:00:00.000000,2.66682218,3.81161651,6.85415994,480,686,1234,276,403,745,1.53581066,2.24090450,4.13781606,0.30699819,0.51762029,0.78765512
51193,0,USVirginiaWestmoreland,Virginia,Westmoreland,2021-04-04 02:25:16.438997,2021-02-03 00:00:00.000000,2.55498830,3.62361898,6.53256790,460,652,1176,267,390,717,1.48294930,2.16997052,3.98240266,0.30634271,0.51908509,0.79260518
51193,0,USVirginiaWestmoreland,Virginia,Westmoreland,2021-04-04 02:25:16.438997,2021-02-04 00:00:00.000000,2.42862664,3.49920250,6.21219184,437,630,1119,258,372,688,1.43475842,2.06718900,3.81931365,0.31057189,0.51605132,0.79175500
51193,0,USVirginiaWestmoreland,Virginia,Westmoreland,2021-04-04 02:25:16.438997,2021-02-05 00:00:00.000000,2.32111888,3.36354680,5.89430059,418,605,1061,248,358,657,1.37824900,1.99250905,3.65185144,0.30813482,0.51607880,0.78868186
51193,0,USVirginiaWestmoreland,Virginia,Westmoreland,2021-04-04 02:25:16.438997,2021-02-06 00:00:00.000000,2.20615677,3.19205952,5.58007278,397,575,1005,235,344,627,1.30769820,1.91344122,3.48226358,0.31158764,0.51558388,0.79548742
51193,0,USVirginiaWestmoreland,Virginia,Westmoreland,2021-04-04 02:25:16.438997,2021-02-07 00:00:00.000000,2.08629326,3.02219997,5.27103709,375,544,949,223,326,596,1.23894921,1.81453154,3.31215108,0.31086916,0.51567612,0.80385262
51193,0,USVirginiaWestmoreland,Virginia,Westmoreland,2021-04-04 02:25:16.438997,2021-02-08 00:00:00.000000,1.97273081,2.86754210,4.98679389,355,516,898,211,310,566,1.17242413,1.72134646,3.14280557,0.30438397,0.51421933,0.80768487
51193,0,USVirginiaWestmoreland,Virginia,Westmoreland,2021-04-04 02:25:16.438997,2021-02-09 00:00:00.000000,1.84251710,2.71773213,4.71174193,331,489,848,199,295,536,1.10720290,1.64124717,2.97913298,0.30150823,0.51537916,0.80925816
51193,0,USVirginiaWestmoreland,Virginia,Westmoreland,2021-04-04 02:25:16.438997,2021-02-10 00:00:00.000000,1.72313011,2.58539454,4.44789939,310,465,801,187,281,508,1.03983689,1.56444796,2.82096750,0.30302575,0.51195692,0.80851842
51193,0,USVirginiaWestmoreland,Virginia,Westmoreland,2021-04-04 02:25:16.438997,2021-02-11 00:00:00.000000,1.63142411,2.45483556,4.19618067,293,442,755,176,272,480,0.97700698,1.51133500,2.66848648,0.30900750,0.51521945,0.79803222
51193,0,USVirginiaWestmoreland,Virginia,Westmoreland,2021-04-04 02:25:16.438997,2021-02-12 00:00:00.000000,1.54134055,2.34805549,3.95726546,277,423,712,165,262,454,0.91903050,1.45581898,2.52201211,0.30571620,0.51708863,0.83834731
51193,0,USVirginiaWestmoreland,Virginia,Westmoreland,2021-04-04 02:25:16.438997,2021-02-13 00:00:00.000000,1.45197901,2.24033148,3.73223672,261,403,672,156,248,429,0.86675304,1.38009115,2.38189650,0.30734093,0.51056191,0.86826185
51193,0,USVirginiaWestmoreland,Virginia,Westmoreland,2021-04-04 02:25:16.438997,2021-02-14 00:00:00.000000,1.38252497,2.14346124,3.58639199,249,386,646,145,237,405,0.81027201,1.31719498,2.24858910,0.27943346,0.51405683,0.91652512
51193,0,USVirginiaWestmoreland,Virginia,Westmoreland,2021-04-04 02:25:16.438997,2021-02-15 00:00:00.000000,1.30367198,2.03213498,3.44666709,234,366,620,138,227,389,0.77027267,1.26126393,2.16116024,0.27244160,0.52504913,0.93524175
51193,0,USVirginiaWestmoreland,Virginia,Westmoreland,2021-04-04 02:25:16.438997,2021-02-16 00:00:00.000000,1.23070022,1.93256719,3.30455004,221,348,595,131,216,374,0.73204379,1.20412124,2.08027371,0.27113724,0.53388910,0.88221219
51193,0,USVirginiaWestmoreland,Virginia,Westmoreland,2021-04-04 02:25:16.438997,2021-02-17 00:00:00.000000,1.14596684,1.83246661,3.16459573,206,330,570,124,204,360,0.69234755,1.13617578,1.99982162,0.27100223,0.53204958,0.87970333
51193,0,USVirginiaWestmoreland,Virginia,Westmoreland,2021-04-04 02:25:16.438997,2021-02-18 00:00:00.000000,1.05112377,1.74038019,3.02829742,189,313,545,117,194,346,0.65498309,1.07814373,1.92095105,0.27234525,0.53577820,0.92741004
51193,0,USVirginiaWestmoreland,Virginia,Westmoreland,2021-04-04 02:25:16.438997,2021-02-19 00:00:00.000000,0.96768930,1.66474601,2.89642561,174,299,521,111,184,332,0.61788063,1.02536486,1.84417151,0.27946104,0.54502585,0.93827646
51193,0,USVirginiaWestmoreland,Virginia,Westmoreland,2021-04-04 02:25:16.438997,2021-02-20 00:00:00.000000,0.90060237,1.58918611,2.79091524,162,286,502,105,177,318,0.58537740,0.98282253,1.76978952,0.28232594,0.55347283,0.89672324
51193,0,USVirginiaWestmoreland,Virginia,Westmoreland,2021-04-04 02:25:16.438997,2021-02-21 00:00:00.000000,0.84520177,1.52411733,2.73296632,152,274,492,98,169,306,0.54440187,0.94302669,1.69963317,0.28927503,0.56359412,0.90689673
51193,0,USVirginiaWestmoreland,Virginia,Westmoreland,2021-04-04 02:25:16.438997,2021-02-22 00:00:00.000000,0.81130609,1.46360624,2.62853169,146,263,473,91,162,296,0.50558446,0.90204031,1.64810875,0.28866091,0.57353628,0.91410266
51193,0,USVirginiaWestmoreland,Virginia,Westmoreland,2021-04-04 02:25:16.438997,2021-02-23 00:00:00.000000,0.79621736,1.40559181,2.52417762,143,253,454,86,155,291,0.47936703,0.86228539,1.61613379,0.29110242,0.57940957,0.91856507
51193,0,USVirginiaWestmoreland,Virginia,Westmoreland,2021-04-04 02:25:16.438997,2021-02-24 00:00:00.000000,0.78778578,1.35112649,2.42220679,141,243,436,83,149,285,0.46181521,0.83015310,1.58597417,0.30372565,0.58695063,0.93754251
51193,0,USVirginiaWestmoreland,Virginia,Westmoreland,2021-04-04 02:25:16.438997,2021-02-25 00:00:00.000000,0.78492135,1.30007282,2.32306862,141,234,418,81,144,277,0.45047849,0.80253202,1.54269765,0.33856305,0.60049574,0.93460414
51193,0,USVirginiaWestmoreland,Virginia,Westmoreland,2021-04-04 02:25:16.438997,2021-02-26 00:00:00.000000,0.75150819,1.25352313,2.22714866,135,225,401,79,139,265,0.44382156,0.77317196,1.47168675,0.32272157,0.60619872,0.93042711
51193,0,USVirginiaWestmoreland,Virginia,Westmoreland,2021-04-04 02:25:16.438997,2021-02-27 00:00:00.000000,0.69621647,1.20626293,2.20390499,125,217,397,78,133,253,0.43442249,0.74036024,1.40547695,0.32331620,0.61893718,0.94093927
51193,0,USVirginiaWestmoreland,Virginia,Westmoreland,2021-04-04 02:25:16.438997,2021-02-28 00:00:00.000000,0.64472297,1.16568194,2.17894621,116,209,392,72,128,244,0.40254057,0.71276531,1.35802124,0.32308954,0.62835652,0.99195819
51193,0,USVirginiaWestmoreland,Virginia,Westmoreland,2021-04-04 02:25:16.438997,2021-03-01 00:00:00.000000,0.60726624,1.13294161,2.11940241,109,204,381,67,124,242,0.37283930,0.68870158,1.34594938,0.33013073,0.63794871,1.06069439
51193,0,USVirginiaWestmoreland,Virginia,Westmoreland,2021-04-04 02:25:16.438997,2021-03-02 00:00:00.000000,0.57621035,1.11269622,2.06173984,103,200,371,62,121,238,0.34916011,0.67194917,1.32256604,0.33406380,0.64788834,1.12154364
51193,0,USVirginiaWestmoreland,Virginia,Westmoreland,2021-04-04 02:25:16.438997,2021-03-03 00:00:00.000000,0.56718638,1.09877198,2.00650835,102,197,361,59,119,232,0.33075554,0.66282748,1.29329681,0.33635599,0.64974026,1.16977167
51193,0,USVirginiaWestmoreland,Virginia,Westmoreland,2021-04-04 02:25:16.438997,2021-03-04 00:00:00.000000,0.55918459,1.07458640,1.95800855,100,193,352,58,116,227,0.32514957,0.64558199,1.26175778,0.35347739,0.64531010,1.21490064
51193,0,USVirginiaWestmoreland,Virginia,Westmoreland,2021-04-04 02:25:16.438997,2021-03-05 00:00:00.000000,0.55202861,1.04751752,1.93442013,99,188,348,57,115,221,0.32027627,0.64303788,1.23033891,0.35170611,0.65122656,1.26782111
51193,0,USVirginiaWestmoreland,Virginia,Westmoreland,2021-04-04 02:25:16.438997,2021-03-06 00:00:00.000000,0.54615461,1.02573495,1.91961888,98,184,345,56,113,216,0.31595500,0.63048473,1.20045037,0.35825597,0.66740778,1.32497731
51193,0,USVirginiaWestmoreland,Virginia,Westmoreland,2021-04-04 02:25:16.438997,2021-03-07 00:00:00.000000,0.52833206,1.00201397,1.90426157,95,180,343,53,110,211,0.29732802,0.61564988,1.17266828,0.37935004,0.68738720,1.45903919
51193,0,USVirginiaWestmoreland,Virginia,Westmoreland,2021-04-04 02:25:16.438997,2021-03-08 00:00:00.000000,0.52702617,0.97923123,1.93758241,94,176,349,50,109,206,0.28079675,0.60893673,1.14696776,0.38678274,0.70368668,1.48545812
51193,0,USVirginiaWestmoreland,Virginia,Westmoreland,2021-04-04 02:25:16.438997,2021-03-09 00:00:00.000000,0.53511369,0.98080562,1.89416831,96,176,341,50,107,205,0.27990731,0.59685574,1.13835792,0.39668860,0.71695715,1.48487202
51193,0,USVirginiaWestmoreland,Virginia,Westmoreland,2021-04-04 02:25:16.438997,2021-03-10 00:00:00.000000,0.57104517,0.97882722,1.83939862,102,176,331,52,104,206,0.29356015,0.57872408,1.14798113,0.40132508,0.72537432,1.47916071
51193,0,USVirginiaWestmoreland,Virginia,Westmoreland,2021-04-04 02:25:16.438997,2021-03-11 00:00:00.000000,0.59498309,0.97741674,1.77364704,107,176,319,53,100,201,0.29511459,0.55935363,1.11961142,0.39088979,0.74602523,1.46833875
51193,0,USVirginiaWestmoreland,Virginia,Westmoreland,2021-04-04 02:25:16.438997,2021-03-12 00:00:00.000000,0.58842118,0.96657722,1.71425708,106,174,308,54,99,196,0.30527292,0.55433852,1.09070932,0.39017102,0.76849365,1.45066777
51193,0,USVirginiaWestmoreland,Virginia,Westmoreland,2021-04-04 02:25:16.438997,2021-03-13 00:00:00.000000,0.57931526,0.96257678,1.69664777,104,173,305,56,100,191,0.31608095,0.55585525,1.06125548,0.40378772,0.77872734,1.42658244
51193,0,USVirginiaWestmoreland,Virginia,Westmoreland,2021-04-04 02:25:16.438997,2021-03-14 00:00:00.000000,0.58297888,0.97552412,1.65339551,105,175,297,58,100,191,0.32490283,0.55594808,1.06261026,0.40365833,0.80226040,1.40220074
51193,0,USVirginiaWestmoreland,Virginia,Westmoreland,2021-04-04 02:25:16.438997,2021-03-15 00:00:00.000000,0.57904304,0.97592018,1.64994262,104,175,297,59,98,192,0.32998866,0.54774137,1.06964153,0.40341692,0.81917690,1.40859602
51193,0,USVirginiaWestmoreland,Virginia,Westmoreland,2021-04-04 02:25:16.438997,2021-03-16 00:00:00.000000,0.57957988,0.96845263,1.64930384,104,174,297,58,98,186,0.32617209,0.54761465,1.03265714,0.43391292,0.83411968,1.44522408
51193,0,USVirginiaWestmoreland,Virginia,Westmoreland,2021-04-04 02:25:16.438997,2021-03-17 00:00:00.000000,0.58410451,0.96119805,1.65071695,105,173,297,58,97,179,0.32429881,0.53909086,0.99694913,0.43368576,0.82787588,1.48228116
51193,0,USVirginiaWestmoreland,Virginia,Westmoreland,2021-04-04 02:25:16.438997,2021-03-18 00:00:00.000000,0.58944023,0.95847420,1.64428704,106,172,296,58,95,175,0.32451127,0.53239596,0.97605623,0.45092479,0.85321232,1.51699603
51193,0,USVirginiaWestmoreland,Virginia,Westmoreland,2021-04-04 02:25:16.438997,2021-03-19 00:00:00.000000,0.58151320,0.96977384,1.61813041,104,174,291,57,96,175,0.31761047,0.53397124,0.97457744,0.45709170,0.85753075,1.56121576
51193,0,USVirginiaWestmoreland,Virginia,Westmoreland,2021-04-04 02:25:16.438997,2021-03-20 00:00:00.000000,0.55983775,0.96293908,1.59142457,100,173,286,55,96,175,0.31015069,0.53842901,0.97453106,0.46037945,0.84299922,1.61352017
51193,0,USVirginiaWestmoreland,Virginia,Westmoreland,2021-04-04 02:25:16.438997,2021-03-21 00:00:00.000000,0.54128992,0.96608192,1.56439685,97,174,281,54,96,175,0.30317011,0.53763277,0.97483140,0.46692873,0.83308107,1.60517956
51193,0,USVirginiaWestmoreland,Virginia,Westmoreland,2021-04-04 02:25:16.438997,2021-03-22 00:00:00.000000,0.54112667,0.96058950,1.54188331,97,173,277,53,94,175,0.29712678,0.52530221,0.97470402,0.46395328,0.82865993,1.55270580
51193,0,USVirginiaWestmoreland,Virginia,Westmoreland,2021-04-04 02:25:16.438997,2021-03-23 00:00:00.000000,0.53554394,0.95437352,1.53376488,96,171,276,52,93,175,0.28912750,0.51948684,0.97392742,0.46112005,0.83287842,1.53357269
51193,0,USVirginiaWestmoreland,Virginia,Westmoreland,2021-04-04 02:25:16.438997,2021-03-24 00:00:00.000000,0.53105067,0.94006816,1.51231610,95,169,272,51,93,174,0.28651917,0.51789029,0.96978593,0.46889167,0.82639155,1.52111985
51193,0,USVirginiaWestmoreland,Virginia,Westmoreland,2021-04-04 02:25:16.438997,2021-03-25 00:00:00.000000,0.54299223,0.93215878,1.47670990,97,167,266,52,91,172,0.29273776,0.51064068,0.95622945,0.46922236,0.84399797,1.56516820
51193,0,USVirginiaWestmoreland,Virginia,Westmoreland,2021-04-04 02:25:16.438997,2021-03-26 00:00:00.000000,0.55401314,0.92523934,1.46034522,99,166,263,53,91,169,0.29933804,0.50541193,0.94291638,0.46455432,0.83519322,1.64301493
51193,0,USVirginiaWestmoreland,Virginia,Westmoreland,2021-04-04 02:25:16.438997,2021-03-27 00:00:00.000000,0.56068825,0.91958715,1.50279648,101,165,270,54,91,167,0.30268734,0.50625226,0.92973501,0.46057109,0.85781539,1.64998324
51193,0,USVirginiaWestmoreland,Virginia,Westmoreland,2021-04-04 02:25:16.438997,2021-03-28 00:00:00.000000,0.55029639,0.90533908,1.54686938,99,163,278,55,90,165,0.30601733,0.50129521,0.91663074,0.45036724,0.85424050,1.64377568
51193,0,USVirginiaWestmoreland,Virginia,Westmoreland,2021-04-04 02:25:16.438997,2021-03-29 00:00:00.000000,0.52687149,0.88436776,1.53985929,94,159,277,55,91,162,0.30829483,0.50608193,0.90358013,0.44639539,0.85573395,1.62674524
51193,0,USVirginiaWestmoreland,Virginia,Westmoreland,2021-04-04 02:25:16.438997,2021-03-30 00:00:00.000000,0.50385290,0.85972327,1.53838018,90,154,277,53,89,164,0.29747336,0.49479870,0.91179085,0.43858986,0.87043923,1.77626731
51193,0,USVirginiaWestmoreland,Virginia,Westmoreland,2021-04-04 02:25:16.438997,2021-03-31 00:00:00.000000,0.48064439,0.84391708,1.56172691,86,152,281,51,85,168,0.28501913,0.47679681,0.93564459,0.43960137,0.86588711,1.81419722
51193,0,USVirginiaWestmoreland,Virginia,Westmoreland,2021-04-04 02:25:16.438997,2021-04-01 00:00:00.000000,0.45787043,0.81470667,1.58391663,82,146,285,49,84,172,0.27263423,0.46957608,0.95945146,0.42947623,0.85829070,1.83882154
51193,0,USVirginiaWestmoreland,Virginia,Westmoreland,2021-04-04 02:25:16.438997,2021-04-02 00:00:00.000000,0.43136429,0.77630432,1.60398049,77,139,288,46,82,173,0.26056009,0.45733307,0.96403748,0.41441110,0.85411331,1.84615818
51193,0,USVirginiaWestmoreland,Virginia,Westmoreland,2021-04-04 02:25:16.438997,2021-04-03 00:00:00.000000,0.40308422,0.74430064,1.62345360,72,134,292,44,79,172,0.24904379,0.44310371,0.95640150,0.41044277,0.85333914,1.83077000
51193,0,USVirginiaWestmoreland,Virginia,Westmoreland,2021-04-04 02:25:16.438997,2021-04-04 00:00:00.000000,0.37621938,0.73193434,1.58961440,67,131,286,41,77,173,0.23301087,0.42957818,0.96083659,0.40870640,0.85737573,1.77544449
51193,0,USVirginiaWestmoreland,Virginia,Westmoreland,2021-04-04 02:25:16.438997,2021-04-05 00:00:00.000000,0.35747920,0.69682200,1.55525118,64,125,280,39,75,174,0.21764862,0.41818180,0.96671940,0.40723405,0.85516072,1.68142211
51193,0,USVirginiaWestmoreland,Virginia,Westmoreland,2021-04-04 02:25:16.438997,2021-04-06 00:00:00.000000,0.34444943,0.66139769,1.52108697,62,119,274,36,73,174,0.20313359,0.40665523,0.96828157,0.39522826,0.85368656,1.64103740
51193,0,USVirginiaWestmoreland,Virginia,Westmoreland,2021-04-04 02:25:16.438997,2021-04-07 00:00:00.000000,0.33188537,0.63794862,1.52125917,59,114,274,34,70,176,0.18976540,0.39360321,0.97975148,0.39038290,0.85276146,1.70207896
51193,0,USVirginiaWestmoreland,Virginia,Westmoreland,2021-04-04 02:25:16.438997,2021-04-08 00:00:00.000000,0.31184753,0.62061116,1.53273186,56,111,276,32,68,178,0.17769948,0.38048111,0.99082752,0.38825604,0.85328384,1.74469896
51193,0,USVirginiaWestmoreland,Virginia,Westmoreland,2021-04-04 02:25:16.438997,2021-04-09 00:00:00.000000,0.28105908,0.60434811,1.54336044,50,108,278,30,65,180,0.16728172,0.36288813,1.00149512,0.38670496,0.85384990,1.76112813
51193,0,USVirginiaWestmoreland,Virginia,Westmoreland,2021-04-04 02:25:16.438997,2021-04-10 00:00:00.000000,0.25387304,0.57918698,1.55312067,45,104,279,28,62,182,0.15620450,0.34892416,1.01073691,0.38557663,0.85408956,1.76700762
51193,0,USVirginiaWestmoreland,Virginia,Westmoreland,2021-04-04 02:25:16.438997,2021-04-11 00:00:00.000000,0.23811457,0.55443017,1.56199012,42,99,281,26,60,183,0.14647896,0.33532417,1.01735943,0.38475792,0.85418832,1.76905985
51193,0,USVirginiaWestmoreland,Virginia,Westmoreland,2021-04-04 02:25:16.438997,2021-04-12 00:00:00.000000,0.22335096,0.53102348,1.56994830,40,95,282,24,57,184,0.13738966,0.31975320,1.02340248,0.38416483,0.85422765,1.76977096
51193,0,USVirginiaWestmoreland,Virginia,Westmoreland,2021-04-04 02:25:16.438997,2021-04-13 00:00:00.000000,0.20951125,0.51165982,1.57697679,37,92,284,23,54,185,0.12887912,0.30477468,1.02885216,0.38373569,0.85424252,1.77001698
51193,0,USVirginiaWestmoreland,Virginia,Westmoreland,2021-04-04 02:25:16.438997,2021-04-14 00:00:00.000000,0.19653370,0.49294033,1.58305933,35,88,285,21,52,186,0.12090280,0.29258711,1.03369584,0.38342547,0.85424763,1.77010212
51193,0,USVirginiaWestmoreland,Virginia,Westmoreland,2021-04-04 02:25:16.438997,2021-04-15 00:00:00.000000,0.18436270,0.47484948,1.58818191,33,85,286,20,50,186,0.11342348,0.28263023,1.03792234,0.38320141,0.85424906,1.77037554
51193,0,USVirginiaWestmoreland,Virginia,Westmoreland,2021-04-04 02:25:16.438997,2021-04-16 00:00:00.000000,0.17294721,0.46017866,1.59233284,31,82,286,19,48,187,0.10640844,0.27043450,1.04152190,0.38303968,0.85424920,1.77556995
