FIPS,HR_UID,nameid,province,region,analysisTime,dates,pointprevalence_025,pointprevalence_50,pointprevalence_975,pointinfections_025,pointinfections_50,pointinfections_975,pointinfectious_025,pointinfectious_50,pointinfectious_975,pointinfectiousprevalence_05,pointinfectiousprevalence_50,pointinfectiousprevalence_95,infectrate_025,infectrate_50,infectrate_975
0,3570,CanadaOntarioYork,Ontario,York,2021-04-08 19:15:36.398295,2020-03-09 00:00:00.000000,0.00635007,0.01188373,0.02697247,76,142,323,33,69,146,0.00282118,0.00582116,0.01216125,0.64692233,0.83606071,0.98978834
0,3570,CanadaOntarioYork,Ontario,York,2021-04-08 19:15:36.398295,2020-03-10 00:00:00.000000,0.00792720,0.01399159,0.03168852,95,168,380,38,80,164,0.00320764,0.00669129,0.01366480,0.64692235,0.83599824,0.98978832
0,3570,CanadaOntarioYork,Ontario,York,2021-04-08 19:15:36.398295,2020-03-11 00:00:00.000000,0.00959483,0.01647435,0.03651115,115,197,438,46,90,185,0.00385362,0.00756794,0.01545590,0.64692240,0.83586732,0.98978826
0,3570,CanadaOntarioYork,Ontario,York,2021-04-08 19:15:36.398295,2020-03-12 00:00:00.000000,0.01116473,0.01951818,0.04186589,134,234,502,55,104,219,0.00464875,0.00869898,0.01830157,0.64692259,0.83559360,0.98978805
0,3570,CanadaOntarioYork,Ontario,York,2021-04-08 19:15:36.398295,2020-03-13 00:00:00.000000,0.01306740,0.02276507,0.04809384,156,273,577,65,121,260,0.00542250,0.01013621,0.02165450,0.64692336,0.83502452,0.98978719
0,3570,CanadaOntarioYork,Ontario,York,2021-04-08 19:15:36.398295,2020-03-14 00:00:00.000000,0.01562814,0.02651637,0.05529944,187,318,664,78,141,307,0.00654168,0.01180309,0.02562525,0.64692751,0.83385505,0.98978332
0,3570,CanadaOntarioYork,Ontario,York,2021-04-08 19:15:36.398295,2020-03-15 00:00:00.000000,0.01864565,0.03069483,0.06361515,223,368,763,94,164,364,0.00786278,0.01373769,0.03032131,0.64695695,0.83206887,0.98976506
0,3570,CanadaOntarioYork,Ontario,York,2021-04-08 19:15:36.398295,2020-03-16 00:00:00.000000,0.02220951,0.03571835,0.07313625,266,428,878,113,194,430,0.00941749,0.01616528,0.03587731,0.64721003,0.82655545,0.98967615
0,3570,CanadaOntarioYork,Ontario,York,2021-04-08 19:15:36.398295,2020-03-17 00:00:00.000000,0.02599664,0.04135574,0.08411195,312,496,1009,135,227,510,0.01124465,0.01895809,0.04251215,0.64952656,0.83024846,0.98923849
0,3570,CanadaOntarioYork,Ontario,York,2021-04-08 19:15:36.398295,2020-03-18 00:00:00.000000,0.03012850,0.04795824,0.09675128,361,575,1161,160,264,603,0.01337360,0.02202753,0.05026620,0.65089250,0.82551569,0.98394794
0,3570,CanadaOntarioYork,Ontario,York,2021-04-08 19:15:36.398295,2020-03-19 00:00:00.000000,0.03563379,0.05579912,0.11130047,427,670,1336,185,305,709,0.01543582,0.02543710,0.05910057,0.65945290,0.81607421,0.98111280
0,3570,CanadaOntarioYork,Ontario,York,2021-04-08 19:15:36.398295,2020-03-20 00:00:00.000000,0.04116136,0.06507896,0.12712233,494,781,1526,213,352,826,0.01781740,0.02939593,0.06886798,0.63673075,0.80488047,0.95599133
0,3570,CanadaOntarioYork,Ontario,York,2021-04-08 19:15:36.398295,2020-03-21 00:00:00.000000,0.04761577,0.07530158,0.14496576,571,904,1740,246,409,954,0.02057028,0.03406206,0.07948971,0.60664728,0.79455613,0.94606844
0,3570,CanadaOntarioYork,Ontario,York,2021-04-08 19:15:36.398295,2020-03-22 00:00:00.000000,0.05520533,0.08692672,0.16687205,662,1043,2003,285,470,1093,0.02377133,0.03916222,0.09108936,0.56979987,0.76348228,0.92224223
0,3570,CanadaOntarioYork,Ontario,York,2021-04-08 19:15:36.398295,2020-03-23 00:00:00.000000,0.06397119,0.10013720,0.19168623,768,1202,2301,330,546,1247,0.02751603,0.04551427,0.10390427,0.55382878,0.72982264,0.90390103
0,3570,CanadaOntarioYork,Ontario,York,2021-04-08 19:15:36.398295,2020-03-24 00:00:00.000000,0.07407732,0.11488300,0.21982444,889,1379,2639,382,625,1418,0.03187244,0.05213091,0.11817465,0.54064209,0.71400847,0.92260364
0,3570,CanadaOntarioYork,Ontario,York,2021-04-08 19:15:36.398295,2020-03-25 00:00:00.000000,0.08544651,0.12711894,0.25110011,1026,1526,3015,443,713,1611,0.03691934,0.05939478,0.13418626,0.52402330,0.69638206,0.89086077
0,3570,CanadaOntarioYork,Ontario,York,2021-04-08 19:15:36.398295,2020-03-26 00:00:00.000000,0.09645001,0.14259904,0.29129422,1158,1712,3497,516,805,1826,0.04299899,0.06709210,0.15213227,0.47858431,0.68359121,0.86741175
0,3570,CanadaOntarioYork,Ontario,York,2021-04-08 19:15:36.398295,2020-03-27 00:00:00.000000,0.10875723,0.15991053,0.32960150,1305,1920,3957,591,911,2018,0.04929839,0.07591565,0.16811232,0.44148232,0.66823910,0.81396112
0,3570,CanadaOntarioYork,Ontario,York,2021-04-08 19:15:36.398295,2020-03-28 00:00:00.000000,0.12234944,0.17716562,0.36293299,1469,2127,4357,678,1015,2184,0.05653294,0.08456910,0.18191512,0.43441632,0.63479350,0.79119674
0,3570,CanadaOntarioYork,Ontario,York,2021-04-08 19:15:36.398295,2020-03-29 00:00:00.000000,0.13731296,0.19672918,0.39341692,1648,2362,4723,769,1138,2444,0.06405614,0.09478993,0.20353875,0.40920012,0.58854876,0.75240551
0,3570,CanadaOntarioYork,Ontario,York,2021-04-08 19:15:36.398295,2020-03-30 00:00:00.000000,0.15151833,0.21437671,0.42449937,1819,2574,5097,874,1290,2718,0.07280234,0.10746978,0.22640389,0.38131454,0.53528463,0.73455872
0,3570,CanadaOntarioYork,Ontario,York,2021-04-08 19:15:36.398295,2020-03-31 00:00:00.000000,0.16486524,0.23554406,0.45445629,1979,2828,5456,981,1431,2995,0.08177590,0.11925557,0.24947384,0.33594440,0.47596157,0.70784338
0,3570,CanadaOntarioYork,Ontario,York,2021-04-08 19:15:36.398295,2020-04-01 00:00:00.000000,0.17610189,0.25503969,0.48343213,2114,3062,5804,1052,1564,3280,0.08766855,0.13032533,0.27318484,0.27239888,0.42691531,0.66844801
0,3570,CanadaOntarioYork,Ontario,York,2021-04-08 19:15:36.398295,2020-04-02 00:00:00.000000,0.18292545,0.27105762,0.51105589,2196,3254,6136,1123,1715,3574,0.09355089,0.14288808,0.29768848,0.24901896,0.38544186,0.54849275
0,3570,CanadaOntarioYork,Ontario,York,2021-04-08 19:15:36.398295,2020-04-03 00:00:00.000000,0.18999907,0.28242357,0.53747494,2281,3391,6453,1172,1815,3868,0.09766855,0.15122668,0.32218204,0.22287928,0.33860014,0.48446433
0,3570,CanadaOntarioYork,Ontario,York,2021-04-08 19:15:36.398295,2020-04-04 00:00:00.000000,0.19512444,0.29012958,0.56283202,2342,3483,6758,1273,1897,4150,0.10609732,0.15801241,0.34564952,0.21386154,0.31085934,0.44417950
0,3570,CanadaOntarioYork,Ontario,York,2021-04-08 19:15:36.398295,2020-04-05 00:00:00.000000,0.19935616,0.29609722,0.58653307,2393,3555,7042,1337,1980,4413,0.11135749,0.16493343,0.36757381,0.20642600,0.28908669,0.39408320
0,3570,CanadaOntarioYork,Ontario,York,2021-04-08 19:15:36.398295,2020-04-06 00:00:00.000000,0.20405811,0.30339289,0.60721260,2450,3643,7291,1406,2052,4627,0.11710308,0.17089307,0.38540174,0.20516019,0.27215544,0.36153452
0,3570,CanadaOntarioYork,Ontario,York,2021-04-08 19:15:36.398295,2020-04-07 00:00:00.000000,0.20856930,0.30877560,0.62304758,2504,3707,7481,1473,2135,4806,0.12272900,0.17784353,0.40025131,0.20226938,0.26352960,0.34295954
0,3570,CanadaOntarioYork,Ontario,York,2021-04-08 19:15:36.398295,2020-04-08 00:00:00.000000,0.20883126,0.30927990,0.63235480,2507,3713,7593,1480,2215,4961,0.12329327,0.18453118,0.41315737,0.19248866,0.25665775,0.33282394
0,3570,CanadaOntarioYork,Ontario,York,2021-04-08 19:15:36.398295,2020-04-09 00:00:00.000000,0.20863337,0.31074164,0.63559826,2505,3731,7632,1495,2263,5086,0.12457788,0.18853197,0.42362586,0.18233236,0.24854594,0.32038092
0,3570,CanadaOntarioYork,Ontario,York,2021-04-08 19:15:36.398295,2020-04-10 00:00:00.000000,0.21122065,0.30807262,0.64899479,2536,3699,7792,1517,2283,5173,0.12639246,0.19013348,0.43088182,0.17896360,0.23590686,0.31723863
0,3570,CanadaOntarioYork,Ontario,York,2021-04-08 19:15:36.398295,2020-04-11 00:00:00.000000,0.21373536,0.30850161,0.66041289,2566,3704,7929,1521,2295,5222,0.12668987,0.19114508,0.43492314,0.17472677,0.22482639,0.31274984
0,3570,CanadaOntarioYork,Ontario,York,2021-04-08 19:15:36.398295,2020-04-12 00:00:00.000000,0.21559416,0.30879007,0.66681437,2588,3707,8006,1523,2296,5242,0.12690729,0.19124864,0.43656425,0.16259343,0.21323203,0.30706645
0,3570,CanadaOntarioYork,Ontario,York,2021-04-08 19:15:36.398295,2020-04-13 00:00:00.000000,0.21548212,0.30999282,0.66899537,2587,3722,8033,1525,2301,5241,0.12701913,0.19167081,0.43652553,0.16015604,0.20766791,0.28889295
0,3570,CanadaOntarioYork,Ontario,York,2021-04-08 19:15:36.398295,2020-04-14 00:00:00.000000,0.21191821,0.31197607,0.66272597,2544,3746,7957,1525,2308,5228,0.12701937,0.19224438,0.43540488,0.15596874,0.20493800,0.27171905
0,3570,CanadaOntarioYork,Ontario,York,2021-04-08 19:15:36.398295,2020-04-15 00:00:00.000000,0.20686093,0.31338042,0.65377530,2483,3762,7850,1523,2320,5206,0.12691881,0.19322962,0.43359047,0.15197434,0.19740217,0.26173823
0,3570,CanadaOntarioYork,Ontario,York,2021-04-08 19:15:36.398295,2020-04-16 00:00:00.000000,0.20528556,0.31399494,0.64364870,2464,3770,7728,1483,2325,5179,0.12355922,0.19370021,0.43133361,0.14999425,0.19343492,0.25580887
0,3570,CanadaOntarioYork,Ontario,York,2021-04-08 19:15:36.398295,2020-04-17 00:00:00.000000,0.20220951,0.30928800,0.63268652,2428,3713,7597,1443,2306,5121,0.12021307,0.19205681,0.42651683,0.14027020,0.18988822,0.25133407
0,3570,CanadaOntarioYork,Ontario,York,2021-04-08 19:15:36.398295,2020-04-18 00:00:00.000000,0.19637653,0.30713004,0.62114264,2358,3687,7458,1403,2286,5045,0.11688562,0.19039383,0.42016628,0.12903099,0.18783293,0.24162940
0,3570,CanadaOntarioYork,Ontario,York,2021-04-08 19:15:36.398295,2020-04-19 00:00:00.000000,0.19065024,0.30457448,0.60900294,2289,3657,7312,1363,2253,4962,0.11358917,0.18765308,0.41326656,0.11854276,0.18565542,0.24097539
0,3570,CanadaOntarioYork,Ontario,York,2021-04-08 19:15:36.398295,2020-04-20 00:00:00.000000,0.18539188,0.29807859,0.59562648,2226,3579,7152,1324,2205,4873,0.11033396,0.18366457,0.40589436,0.11332439,0.17862504,0.23164337
0,3570,CanadaOntarioYork,Ontario,York,2021-04-08 19:15:36.398295,2020-04-21 00:00:00.000000,0.18183713,0.29251402,0.58465702,2183,3512,7020,1295,2162,4777,0.10785620,0.18007589,0.39790808,0.11203388,0.17540688,0.22493843
0,3570,CanadaOntarioYork,Ontario,York,2021-04-08 19:15:36.398295,2020-04-22 00:00:00.000000,0.17838443,0.28596330,0.58153608,2141,3433,6982,1269,2152,4742,0.10569399,0.17924856,0.39499011,0.11169625,0.17157040,0.22294129
0,3570,CanadaOntarioYork,Ontario,York,2021-04-08 19:15:36.398295,2020-04-23 00:00:00.000000,0.17499981,0.27862477,0.57770864,2101,3345,6936,1244,2138,4731,0.10363996,0.17812565,0.39406963,0.11141430,0.16817708,0.22552878
0,3570,CanadaOntarioYork,Ontario,York,2021-04-08 19:15:36.398295,2020-04-24 00:00:00.000000,0.17165679,0.27129802,0.57201859,2061,3257,6868,1212,2122,4718,0.10098679,0.17672302,0.39298050,0.11047629,0.16561922,0.22714217
0,3570,CanadaOntarioYork,Ontario,York,2021-04-08 19:15:36.398295,2020-04-25 00:00:00.000000,0.16545198,0.26504541,0.56403218,1986,3182,6772,1175,2087,4700,0.09787126,0.17382679,0.39142678,0.10929125,0.16508019,0.22904981
0,3570,CanadaOntarioYork,Ontario,York,2021-04-08 19:15:36.398295,2020-04-26 00:00:00.000000,0.16254196,0.25957865,0.55464110,1951,3116,6659,1136,2027,4676,0.09462912,0.16888385,0.38950296,0.10954128,0.16605432,0.22946779
0,3570,CanadaOntarioYork,Ontario,York,2021-04-08 19:15:36.398295,2020-04-27 00:00:00.000000,0.15892609,0.25430505,0.54476970,1908,3053,6541,1116,1981,4650,0.09299310,0.16502384,0.38731756,0.10991842,0.16702594,0.21633373
0,3570,CanadaOntarioYork,Ontario,York,2021-04-08 19:15:36.398295,2020-04-28 00:00:00.000000,0.15468926,0.24914884,0.53475905,1857,2991,6421,1099,1935,4622,0.09158288,0.16120781,0.38492742,0.10963063,0.16651595,0.21983954
0,3570,CanadaOntarioYork,Ontario,York,2021-04-08 19:15:36.398295,2020-04-29 00:00:00.000000,0.15060635,0.24357213,0.52477472,1808,2924,6301,1085,1908,4591,0.09036018,0.15894383,0.38239536,0.11061608,0.16675497,0.22090323
0,3570,CanadaOntarioYork,Ontario,York,2021-04-08 19:15:36.398295,2020-04-30 00:00:00.000000,0.14665963,0.23808394,0.51488565,1761,2858,6182,1072,1863,4553,0.08929146,0.15519431,0.37919054,0.11367699,0.16596583,0.21796552
0,3570,CanadaOntarioYork,Ontario,York,2021-04-08 19:15:36.398295,2020-05-01 00:00:00.000000,0.14283638,0.23186148,0.50511617,1715,2784,6065,1060,1811,4471,0.08835915,0.15084032,0.37237504,0.12096969,0.16594600,0.21635199
0,3570,CanadaOntarioYork,Ontario,York,2021-04-08 19:15:36.398295,2020-05-02 00:00:00.000000,0.13912645,0.22696398,0.49543378,1670,2725,5948,1051,1755,4389,0.08755650,0.14620172,0.36555049,0.12129886,0.16565830,0.22354290
0,3570,CanadaOntarioYork,Ontario,York,2021-04-08 19:15:36.398295,2020-05-03 00:00:00.000000,0.13556609,0.22157291,0.48563765,1627,2660,5831,1043,1709,4307,0.08687499,0.14236243,0.35874655,0.12113794,0.16538501,0.23423530
0,3570,CanadaOntarioYork,Ontario,York,2021-04-08 19:15:36.398295,2020-05-04 00:00:00.000000,0.13197776,0.21642160,0.47506605,1584,2598,5704,1033,1676,4224,0.08604888,0.13962900,0.35185367,0.11786536,0.16648563,0.24260288
0,3570,CanadaOntarioYork,Ontario,York,2021-04-08 19:15:36.398295,2020-05-05 00:00:00.000000,0.12846173,0.21349459,0.46294329,1542,2563,5558,1000,1636,4138,0.08331029,0.13624850,0.34469247,0.12531839,0.16670051,0.24580371
0,3570,CanadaOntarioYork,Ontario,York,2021-04-08 19:15:36.398295,2020-05-06 00:00:00.000000,0.12500958,0.21008367,0.44963546,1501,2522,5399,968,1592,4045,0.08068638,0.13265649,0.33687336,0.12153417,0.16829457,0.24675858
0,3570,CanadaOntarioYork,Ontario,York,2021-04-08 19:15:36.398295,2020-05-07 00:00:00.000000,0.12162907,0.20512470,0.43587493,1460,2463,5233,940,1555,3942,0.07832790,0.12954321,0.32830104,0.11764862,0.16942388,0.24926389
0,3570,CanadaOntarioYork,Ontario,York,2021-04-08 19:15:36.398295,2020-05-08 00:00:00.000000,0.11833565,0.20204925,0.42215200,1420,2426,5069,914,1525,3832,0.07617922,0.12708598,0.31917233,0.11686430,0.17336182,0.24932520
0,3570,CanadaOntarioYork,Ontario,York,2021-04-08 19:15:36.398295,2020-05-09 00:00:00.000000,0.11674232,0.19990487,0.41482528,1401,2400,4981,891,1516,3719,0.07423203,0.12628843,0.30976203,0.11703133,0.18129291,0.25082585
0,3570,CanadaOntarioYork,Ontario,York,2021-04-08 19:15:36.398295,2020-05-10 00:00:00.000000,0.11561219,0.19785155,0.41286341,1388,2375,4957,871,1493,3604,0.07256450,0.12437558,0.30022384,0.11776632,0.18469687,0.25163358
0,3570,CanadaOntarioYork,Ontario,York,2021-04-08 19:15:36.398295,2020-05-11 00:00:00.000000,0.11452484,0.19583361,0.41155692,1375,2351,4941,855,1456,3491,0.07124577,0.12127188,0.29075409,0.12051939,0.18962881,0.25105018
0,3570,CanadaOntarioYork,Ontario,York,2021-04-08 19:15:36.398295,2020-05-12 00:00:00.000000,0.11340546,0.19385765,0.41051154,1361,2327,4929,833,1428,3379,0.06940868,0.11893570,0.28140566,0.12850431,0.19438875,0.25024613
0,3570,CanadaOntarioYork,Ontario,York,2021-04-08 19:15:36.398295,2020-05-13 00:00:00.000000,0.11099815,0.19190915,0.40939552,1332,2304,4915,813,1412,3269,0.06771028,0.11767393,0.27226883,0.12994533,0.19575258,0.25208839
0,3570,CanadaOntarioYork,Ontario,York,2021-04-08 19:15:36.398295,2020-05-14 00:00:00.000000,0.10867847,0.18997396,0.40797903,1304,2281,4898,800,1406,3238,0.06670681,0.11710905,0.26973476,0.13299448,0.19367730,0.25824710
0,3570,CanadaOntarioYork,Ontario,York,2021-04-08 19:15:36.398295,2020-05-15 00:00:00.000000,0.10707920,0.18886621,0.40599093,1285,2267,4874,792,1404,3226,0.06596588,0.11696911,0.26873249,0.13523922,0.19395271,0.26544727
0,3570,CanadaOntarioYork,Ontario,York,2021-04-08 19:15:36.398295,2020-05-16 00:00:00.000000,0.10623008,0.18727051,0.40338600,1275,2248,4843,782,1408,3213,0.06513131,0.11726403,0.26760417,0.13152901,0.19914265,0.26756823
0,3570,CanadaOntarioYork,Ontario,York,2021-04-08 19:15:36.398295,2020-05-17 00:00:00.000000,0.10546821,0.18531145,0.40000175,1266,2225,4803,770,1399,3196,0.06416731,0.11654692,0.26622455,0.13454046,0.19896245,0.26799830
0,3570,CanadaOntarioYork,Ontario,York,2021-04-08 19:15:36.398295,2020-05-18 00:00:00.000000,0.10333999,0.18126676,0.39614384,1240,2176,4756,757,1365,3162,0.06305500,0.11374859,0.26337394,0.12967487,0.19938399,0.27562567
0,3570,CanadaOntarioYork,Ontario,York,2021-04-08 19:15:36.398295,2020-05-19 00:00:00.000000,0.10110246,0.17974633,0.39166291,1213,2158,4702,742,1342,3085,0.06187386,0.11180069,0.25695780,0.13825943,0.19908273,0.28423683
0,3570,CanadaOntarioYork,Ontario,York,2021-04-08 19:15:36.398295,2020-05-20 00:00:00.000000,0.10026858,0.17920275,0.38677941,1203,2151,4644,742,1338,3014,0.06183204,0.11144420,0.25108234,0.14173461,0.19964344,0.28475422
0,3570,CanadaOntarioYork,Ontario,York,2021-04-08 19:15:36.398295,2020-05-21 00:00:00.000000,0.10059934,0.18004512,0.38166012,1207,2161,4582,743,1330,2949,0.06191741,0.11077093,0.24560580,0.14278611,0.19875706,0.27959631
0,3570,CanadaOntarioYork,Ontario,York,2021-04-08 19:15:36.398295,2020-05-22 00:00:00.000000,0.10092619,0.18014036,0.37641441,1211,2163,4519,745,1313,2886,0.06206589,0.10942993,0.24042881,0.14159455,0.20034927,0.27592425
0,3570,CanadaOntarioYork,Ontario,York,2021-04-08 19:15:36.398295,2020-05-23 00:00:00.000000,0.10118051,0.17855900,0.37095086,1214,2144,4454,747,1310,2827,0.06222949,0.10912542,0.23547908,0.13653331,0.20023170,0.27057023
0,3570,CanadaOntarioYork,Ontario,York,2021-04-08 19:15:36.398295,2020-05-24 00:00:00.000000,0.10136920,0.17532556,0.36377628,1217,2105,4368,748,1301,2769,0.06237472,0.10837769,0.23065751,0.13713239,0.19565715,0.26504024
0,3570,CanadaOntarioYork,Ontario,York,2021-04-08 19:15:36.398295,2020-05-25 00:00:00.000000,0.10179302,0.17115186,0.35555201,1222,2055,4269,750,1284,2742,0.06248506,0.10697996,0.22843440,0.13566027,0.19408775,0.26256952
0,3570,CanadaOntarioYork,Ontario,York,2021-04-08 19:15:36.398295,2020-05-26 00:00:00.000000,0.10133621,0.16598538,0.34747833,1216,1993,4172,747,1271,2710,0.06221348,0.10590893,0.22576751,0.13597180,0.19254742,0.26363492
0,3570,CanadaOntarioYork,Ontario,York,2021-04-08 19:15:36.398295,2020-05-27 00:00:00.000000,0.10248074,0.16216664,0.33956933,1230,1947,4077,737,1258,2661,0.06139965,0.10479617,0.22164190,0.13412475,0.19124153,0.26359490
0,3570,CanadaOntarioYork,Ontario,York,2021-04-08 19:15:36.398295,2020-05-28 00:00:00.000000,0.10275781,0.15912134,0.33184459,1233,1910,3984,727,1244,2602,0.06056471,0.10363090,0.21669708,0.13326535,0.19004828,0.26755569
0,3570,CanadaOntarioYork,Ontario,York,2021-04-08 19:15:36.398295,2020-05-29 00:00:00.000000,0.09995560,0.15607684,0.32433677,1200,1874,3894,716,1218,2538,0.05969487,0.10148406,0.21137370,0.13007336,0.18778703,0.27050700
0,3570,CanadaOntarioYork,Ontario,York,2021-04-08 19:15:36.398295,2020-05-30 00:00:00.000000,0.09488588,0.15296901,0.31709361,1139,1836,3807,703,1191,2479,0.05857815,0.09922629,0.20646200,0.12290283,0.18374248,0.27237414
0,3570,CanadaOntarioYork,Ontario,York,2021-04-08 19:15:36.398295,2020-05-31 00:00:00.000000,0.09307560,0.14995449,0.31014625,1117,1800,3724,685,1176,2439,0.05709214,0.09799333,0.20315707,0.11943198,0.17886883,0.27106449
0,3570,CanadaOntarioYork,Ontario,York,2021-04-08 19:15:36.398295,2020-06-01 00:00:00.000000,0.09132063,0.14721990,0.30360667,1096,1767,3645,681,1160,2400,0.05677850,0.09665788,0.19990685,0.11801279,0.17569120,0.26653614
0,3570,CanadaOntarioYork,Ontario,York,2021-04-08 19:15:36.398295,2020-06-02 00:00:00.000000,0.08959301,0.14453352,0.29728086,1075,1735,3569,669,1142,2364,0.05573500,0.09514916,0.19688283,0.11729584,0.17474472,0.27607065
0,3570,CanadaOntarioYork,Ontario,York,2021-04-08 19:15:36.398295,2020-06-03 00:00:00.000000,0.08796862,0.14184877,0.29112795,1056,1703,3495,656,1126,2332,0.05469652,0.09385328,0.19427619,0.11427273,0.17077526,0.27650431
0,3570,CanadaOntarioYork,Ontario,York,2021-04-08 19:15:36.398295,2020-06-04 00:00:00.000000,0.08625698,0.13906148,0.28511479,1035,1669,3423,645,1106,2306,0.05372594,0.09217598,0.19206632,0.11401433,0.16852676,0.27011024
0,3570,CanadaOntarioYork,Ontario,York,2021-04-08 19:15:36.398295,2020-06-05 00:00:00.000000,0.08433901,0.13598278,0.27924882,1012,1632,3353,633,1082,2282,0.05273398,0.09016023,0.19009086,0.11032997,0.16677939,0.26489727
0,3570,CanadaOntarioYork,Ontario,York,2021-04-08 19:15:36.398295,2020-06-06 00:00:00.000000,0.08234637,0.13248378,0.27340749,988,1590,3282,620,1057,2259,0.05167491,0.08808651,0.18813241,0.10937049,0.16443417,0.26141027
0,3570,CanadaOntarioYork,Ontario,York,2021-04-08 19:15:36.398295,2020-06-07 00:00:00.000000,0.08180132,0.12893016,0.26719186,982,1548,3208,606,1032,2206,0.05051648,0.08595704,0.18378091,0.10932104,0.16044496,0.24845246
0,3570,CanadaOntarioYork,Ontario,York,2021-04-08 19:15:36.398295,2020-06-08 00:00:00.000000,0.08050106,0.12583843,0.25979507,966,1511,3119,591,1006,2136,0.04926818,0.08378179,0.17791554,0.10537131,0.15601626,0.22572964
0,3570,CanadaOntarioYork,Ontario,York,2021-04-08 19:15:36.398295,2020-06-09 00:00:00.000000,0.07872527,0.12287722,0.25129420,945,1475,3017,575,979,2063,0.04795510,0.08160773,0.17181490,0.10350633,0.15460450,0.22169219
0,3570,CanadaOntarioYork,Ontario,York,2021-04-08 19:15:36.398295,2020-06-10 00:00:00.000000,0.07535676,0.11934111,0.24230234,904,1433,2909,564,955,1988,0.04704290,0.07961060,0.16564252,0.10307184,0.15430144,0.21223251
0,3570,CanadaOntarioYork,Ontario,York,2021-04-08 19:15:36.398295,2020-06-11 00:00:00.000000,0.07214171,0.11510300,0.23323269,866,1382,2800,552,935,1931,0.04601629,0.07793823,0.16086741,0.10336530,0.15323729,0.20758884
0,3570,CanadaOntarioYork,Ontario,York,2021-04-08 19:15:36.398295,2020-06-12 00:00:00.000000,0.06910780,0.11176931,0.22420700,829,1342,2692,538,916,1900,0.04486666,0.07633010,0.15831525,0.10368166,0.15204763,0.20183682
0,3570,CanadaOntarioYork,Ontario,York,2021-04-08 19:15:36.398295,2020-06-13 00:00:00.000000,0.06711520,0.10899225,0.21523379,805,1308,2584,524,895,1870,0.04366655,0.07453925,0.15576489,0.10487514,0.14905585,0.19937132
0,3570,CanadaOntarioYork,Ontario,York,2021-04-08 19:15:36.398295,2020-06-14 00:00:00.000000,0.06458570,0.10626585,0.20923497,775,1275,2512,506,866,1839,0.04219281,0.07212098,0.15323029,0.10359724,0.14717140,0.19764405
0,3570,CanadaOntarioYork,Ontario,York,2021-04-08 19:15:36.398295,2020-06-15 00:00:00.000000,0.06205009,0.10354507,0.20602968,745,1243,2473,485,841,1809,0.04046442,0.07007715,0.15069465,0.10173376,0.14383204,0.20477210
0,3570,CanadaOntarioYork,Ontario,York,2021-04-08 19:15:36.398295,2020-06-16 00:00:00.000000,0.05962826,0.10076301,0.20275855,715,1209,2434,474,820,1770,0.03950244,0.06832518,0.14742138,0.09498215,0.14131770,0.21362561
0,3570,CanadaOntarioYork,Ontario,York,2021-04-08 19:15:36.398295,2020-06-17 00:00:00.000000,0.05732108,0.09797923,0.19930405,688,1176,2393,463,798,1714,0.03860999,0.06649744,0.14275792,0.09441307,0.14293150,0.21882450
0,3570,CanadaOntarioYork,Ontario,York,2021-04-08 19:15:36.398295,2020-06-18 00:00:00.000000,0.05525032,0.09519650,0.19533035,663,1143,2345,451,775,1649,0.03758763,0.06461251,0.13739316,0.09341927,0.14446080,0.20991746
0,3570,CanadaOntarioYork,Ontario,York,2021-04-08 19:15:36.398295,2020-06-19 00:00:00.000000,0.05350060,0.09262386,0.19033005,642,1112,2285,435,752,1582,0.03630924,0.06270222,0.13175212,0.09199377,0.14012992,0.19345930
0,3570,CanadaOntarioYork,Ontario,York,2021-04-08 19:15:36.398295,2020-06-20 00:00:00.000000,0.05187282,0.09041214,0.18401373,622,1085,2209,421,729,1513,0.03511495,0.06078683,0.12606906,0.09133618,0.13839428,0.19347531
0,3570,CanadaOntarioYork,Ontario,York,2021-04-08 19:15:36.398295,2020-06-21 00:00:00.000000,0.05037387,0.08823781,0.17788427,604,1059,2135,408,706,1475,0.03400104,0.05887089,0.12287698,0.09034566,0.13852759,0.19348693
0,3570,CanadaOntarioYork,Ontario,York,2021-04-08 19:15:36.398295,2020-06-22 00:00:00.000000,0.04902684,0.08524025,0.17236888,588,1023,2069,395,682,1437,0.03296785,0.05680402,0.11968272,0.08926008,0.13822058,0.20109838
0,3570,CanadaOntarioYork,Ontario,York,2021-04-08 19:15:36.398295,2020-06-23 00:00:00.000000,0.04778600,0.08235087,0.16711731,573,988,2006,384,657,1397,0.03202263,0.05474234,0.11638447,0.08850567,0.13820551,0.20777628
0,3570,CanadaOntarioYork,Ontario,York,2021-04-08 19:15:36.398295,2020-06-24 00:00:00.000000,0.04663333,0.08003831,0.16356306,559,961,1964,374,636,1357,0.03115587,0.05297329,0.11306450,0.08681285,0.13762880,0.20598407
0,3570,CanadaOntarioYork,Ontario,York,2021-04-08 19:15:36.398295,2020-06-25 00:00:00.000000,0.04502666,0.07759786,0.15957789,540,931,1916,364,615,1318,0.03035651,0.05126722,0.10978151,0.08859773,0.13678101,0.20299670
0,3570,CanadaOntarioYork,Ontario,York,2021-04-08 19:15:36.398295,2020-06-26 00:00:00.000000,0.04389960,0.07522013,0.15503131,527,903,1861,346,597,1279,0.02888690,0.04976636,0.10658242,0.08996291,0.13706588,0.19825209
0,3570,CanadaOntarioYork,Ontario,York,2021-04-08 19:15:36.398295,2020-06-27 00:00:00.000000,0.04280468,0.07361085,0.15028122,513,883,1804,327,578,1244,0.02727794,0.04817043,0.10360188,0.08997141,0.13535999,0.19309737
0,3570,CanadaOntarioYork,Ontario,York,2021-04-08 19:15:36.398295,2020-06-28 00:00:00.000000,0.04173186,0.07151660,0.14492038,501,858,1740,316,566,1208,0.02635151,0.04718888,0.10066931,0.08965467,0.13362757,0.19919393
0,3570,CanadaOntarioYork,Ontario,York,2021-04-08 19:15:36.398295,2020-06-29 00:00:00.000000,0.04083798,0.06911406,0.13967349,490,829,1677,308,557,1175,0.02568911,0.04640137,0.09785767,0.08535347,0.13338543,0.19778848
0,3570,CanadaOntarioYork,Ontario,York,2021-04-08 19:15:36.398295,2020-06-30 00:00:00.000000,0.03938830,0.06678155,0.13501954,472,801,1621,301,540,1143,0.02508876,0.04505040,0.09526228,0.08286234,0.13091260,0.18715086
0,3570,CanadaOntarioYork,Ontario,York,2021-04-08 19:15:36.398295,2020-07-01 00:00:00.000000,0.03737554,0.06451622,0.13074477,448,774,1569,294,524,1114,0.02451065,0.04367335,0.09279317,0.08253246,0.13140112,0.18476834
0,3570,CanadaOntarioYork,Ontario,York,2021-04-08 19:15:36.398295,2020-07-02 00:00:00.000000,0.03546381,0.06232176,0.12646752,425,748,1518,284,503,1085,0.02372208,0.04195740,0.09042928,0.08466874,0.12997443,0.18197607
0,3570,CanadaOntarioYork,Ontario,York,2021-04-08 19:15:36.398295,2020-07-03 00:00:00.000000,0.03363501,0.06020526,0.12220746,403,722,1467,272,480,1058,0.02270162,0.04001023,0.08814230,0.08623494,0.12964908,0.19003487
0,3570,CanadaOntarioYork,Ontario,York,2021-04-08 19:15:36.398295,2020-07-04 00:00:00.000000,0.03188835,0.05817566,0.11801787,382,698,1417,260,457,1026,0.02166570,0.03811959,0.08546056,0.08207887,0.12885797,0.19300998
0,3570,CanadaOntarioYork,Ontario,York,2021-04-08 19:15:36.398295,2020-07-05 00:00:00.000000,0.03022701,0.05635884,0.11395115,362,676,1368,247,442,992,0.02060032,0.03686218,0.08266162,0.07670227,0.12866522,0.18854576
0,3570,CanadaOntarioYork,Ontario,York,2021-04-08 19:15:36.398295,2020-07-06 00:00:00.000000,0.02866664,0.05418809,0.10971527,344,650,1317,234,428,959,0.01955498,0.03571681,0.07991513,0.07521497,0.12778121,0.18698486
0,3570,CanadaOntarioYork,Ontario,York,2021-04-08 19:15:36.398295,2020-07-07 00:00:00.000000,0.02718791,0.05188474,0.10561902,326,623,1268,222,415,926,0.01854658,0.03463565,0.07716193,0.07468901,0.12754207,0.18460306
0,3570,CanadaOntarioYork,Ontario,York,2021-04-08 19:15:36.398295,2020-07-08 00:00:00.000000,0.02578770,0.04926378,0.10165482,309,591,1220,211,400,893,0.01758152,0.03339230,0.07443525,0.07921656,0.12658607,0.18199182
0,3570,CanadaOntarioYork,Ontario,York,2021-04-08 19:15:36.398295,2020-07-09 00:00:00.000000,0.02446258,0.04708204,0.09782442,293,565,1174,200,382,861,0.01666371,0.03185464,0.07174298,0.08865428,0.12361164,0.17763132
0,3570,CanadaOntarioYork,Ontario,York,2021-04-08 19:15:36.398295,2020-07-10 00:00:00.000000,0.02320923,0.04511715,0.09413032,278,541,1130,189,364,829,0.01579532,0.03036122,0.06910810,0.08637207,0.12210478,0.17581785
0,3570,CanadaOntarioYork,Ontario,York,2021-04-08 19:15:36.398295,2020-07-11 00:00:00.000000,0.02202414,0.04327110,0.09059033,264,519,1087,179,350,799,0.01497690,0.02919901,0.06654695,0.08854344,0.12306055,0.17593139
0,3570,CanadaOntarioYork,Ontario,York,2021-04-08 19:15:36.398295,2020-07-12 00:00:00.000000,0.02090383,0.04150010,0.08777495,251,498,1053,170,336,769,0.01420732,0.02798644,0.06406951,0.08937583,0.12147284,0.17612775
0,3570,CanadaOntarioYork,Ontario,York,2021-04-08 19:15:36.398295,2020-07-13 00:00:00.000000,0.01991850,0.03947380,0.08432643,239,473,1012,161,321,744,0.01344450,0.02674128,0.06199786,0.08926283,0.11914808,0.17610959
0,3570,CanadaOntarioYork,Ontario,York,2021-04-08 19:15:36.398295,2020-07-14 00:00:00.000000,0.01897931,0.03767565,0.08169712,227,452,980,153,306,715,0.01276894,0.02552632,0.05961020,0.08868484,0.11968117,0.17372619
0,3570,CanadaOntarioYork,Ontario,York,2021-04-08 19:15:36.398295,2020-07-15 00:00:00.000000,0.01791699,0.03606293,0.08004930,215,433,961,144,294,689,0.01207357,0.02449158,0.05742687,0.08838797,0.12026225,0.17158115
0,3570,CanadaOntarioYork,Ontario,York,2021-04-08 19:15:36.398295,2020-07-16 00:00:00.000000,0.01691391,0.03452110,0.07844985,203,414,941,136,283,665,0.01140760,0.02359772,0.05545220,0.08845613,0.12087720,0.17032500
0,3570,CanadaOntarioYork,Ontario,York,2021-04-08 19:15:36.398295,2020-07-17 00:00:00.000000,0.01597131,0.03334742,0.07689767,191,400,923,129,273,643,0.01077555,0.02274591,0.05356779,0.08767258,0.12388916,0.17037122
0,3570,CanadaOntarioYork,Ontario,York,2021-04-08 19:15:36.398295,2020-07-18 00:00:00.000000,0.01509886,0.03222694,0.07539059,181,386,905,122,261,627,0.01017875,0.02181628,0.05222933,0.08785509,0.12484485,0.17079051
0,3570,CanadaOntarioYork,Ontario,York,2021-04-08 19:15:36.398295,2020-07-19 00:00:00.000000,0.01431238,0.03115938,0.07392689,171,374,887,115,252,612,0.00961930,0.02105333,0.05098441,0.08919363,0.12711404,0.17316225
0,3570,CanadaOntarioYork,Ontario,York,2021-04-08 19:15:36.398295,2020-07-20 00:00:00.000000,0.01388372,0.03014788,0.07215769,166,362,866,109,244,597,0.00910373,0.02035868,0.04978940,0.09035366,0.13139980,0.17083798
0,3570,CanadaOntarioYork,Ontario,York,2021-04-08 19:15:36.398295,2020-07-21 00:00:00.000000,0.01375634,0.02904462,0.07042925,165,348,845,104,236,584,0.00868855,0.01969873,0.04864086,0.09258135,0.13453316,0.18435517
0,3570,CanadaOntarioYork,Ontario,York,2021-04-08 19:15:36.398295,2020-07-22 00:00:00.000000,0.01325703,0.02803531,0.06915253,159,336,830,103,227,570,0.00859894,0.01898368,0.04753102,0.09189548,0.13646960,0.18562652
0,3570,CanadaOntarioYork,Ontario,York,2021-04-08 19:15:36.398295,2020-07-23 00:00:00.000000,0.01283667,0.02711732,0.06763856,154,325,812,99,218,558,0.00825611,0.01819457,0.04648635,0.09319775,0.13788805,0.18830601
0,3570,CanadaOntarioYork,Ontario,York,2021-04-08 19:15:36.398295,2020-07-24 00:00:00.000000,0.01250444,0.02628891,0.06613890,150,315,794,95,209,549,0.00794717,0.01747479,0.04577809,0.09979979,0.13941008,0.19135298
0,3570,CanadaOntarioYork,Ontario,York,2021-04-08 19:15:36.398295,2020-07-25 00:00:00.000000,0.01224413,0.02575290,0.06427257,147,309,771,92,204,536,0.00767736,0.01705094,0.04465731,0.10135266,0.14221497,0.21262519
0,3570,CanadaOntarioYork,Ontario,York,2021-04-08 19:15:36.398295,2020-07-26 00:00:00.000000,0.01203406,0.02549221,0.06229244,144,306,747,89,200,521,0.00745115,0.01668246,0.04342770,0.10440494,0.14488846,0.21301340
0,3570,CanadaOntarioYork,Ontario,York,2021-04-08 19:15:36.398295,2020-07-27 00:00:00.000000,0.01185751,0.02502775,0.06079366,142,300,729,87,196,510,0.00726312,0.01638173,0.04247813,0.10809021,0.14534631,0.22008364
0,3570,CanadaOntarioYork,Ontario,York,2021-04-08 19:15:36.398295,2020-07-28 00:00:00.000000,0.01170290,0.02460037,0.05920352,140,295,710,85,192,500,0.00710739,0.01603582,0.04165901,0.11331295,0.14457216,0.22674659
0,3570,CanadaOntarioYork,Ontario,York,2021-04-08 19:15:36.398295,2020-07-29 00:00:00.000000,0.01156580,0.02420400,0.05755047,138,290,691,83,188,491,0.00697678,0.01569709,0.04091740,0.11547119,0.14702950,0.22879783
0,3570,CanadaOntarioYork,Ontario,York,2021-04-08 19:15:36.398295,2020-07-30 00:00:00.000000,0.01144757,0.02385465,0.05591992,137,286,671,82,184,482,0.00686611,0.01533152,0.04019130,0.11646003,0.15095832,0.22968942
0,3570,CanadaOntarioYork,Ontario,York,2021-04-08 19:15:36.398295,2020-07-31 00:00:00.000000,0.01130592,0.02357747,0.05489866,135,283,659,81,180,473,0.00677253,0.01501960,0.03941820,0.11696591,0.15613208,0.23093700
0,3570,CanadaOntarioYork,Ontario,York,2021-04-08 19:15:36.398295,2020-08-01 00:00:00.000000,0.01111686,0.02325046,0.05438395,133,279,653,80,178,468,0.00669593,0.01482515,0.03901513,0.11971169,0.16200245,0.23873699
0,3570,CanadaOntarioYork,Ontario,York,2021-04-08 19:15:36.398295,2020-08-02 00:00:00.000000,0.01101072,0.02292435,0.05384180,132,275,646,79,176,464,0.00659779,0.01466652,0.03866633,0.12324090,0.17093154,0.25024223
0,3570,CanadaOntarioYork,Ontario,York,2021-04-08 19:15:36.398295,2020-08-03 00:00:00.000000,0.01132003,0.02280894,0.05315859,135,273,638,77,173,455,0.00649330,0.01448615,0.03789423,0.12444832,0.17343033,0.26612037
0,3570,CanadaOntarioYork,Ontario,York,2021-04-08 19:15:36.398295,2020-08-04 00:00:00.000000,0.01133068,0.02264678,0.05239436,136,271,629,78,171,445,0.00652583,0.01430022,0.03710997,0.12745045,0.17909897,0.28499874
0,3570,CanadaOntarioYork,Ontario,York,2021-04-08 19:15:36.398295,2020-08-05 00:00:00.000000,0.01136266,0.02252273,0.05169438,136,270,620,79,168,436,0.00657923,0.01405742,0.03636061,0.12943284,0.18443751,0.30092390
0,3570,CanadaOntarioYork,Ontario,York,2021-04-08 19:15:36.398295,2020-08-06 00:00:00.000000,0.01142069,0.02266186,0.05102492,137,272,612,79,167,428,0.00664572,0.01391999,0.03567862,0.13081068,0.18943947,0.30430148
0,3570,CanadaOntarioYork,Ontario,York,2021-04-08 19:15:36.398295,2020-08-07 00:00:00.000000,0.01151030,0.02271282,0.05042990,138,272,605,80,165,420,0.00671764,0.01381940,0.03505628,0.13435801,0.19702484,0.29682321
0,3570,CanadaOntarioYork,Ontario,York,2021-04-08 19:15:36.398295,2020-08-08 00:00:00.000000,0.01161813,0.02269240,0.04999680,139,272,600,81,166,414,0.00680357,0.01386535,0.03449670,0.13808505,0.20465503,0.29279873
0,3570,CanadaOntarioYork,Ontario,York,2021-04-08 19:15:36.398295,2020-08-09 00:00:00.000000,0.01172761,0.02298928,0.05031465,140,276,604,83,166,410,0.00692189,0.01390472,0.03417984,0.14559711,0.20949137,0.29508603
0,3570,CanadaOntarioYork,Ontario,York,2021-04-08 19:15:36.398295,2020-08-10 00:00:00.000000,0.01182701,0.02345420,0.05016890,142,281,602,84,166,406,0.00706532,0.01386881,0.03386269,0.14874405,0.21844890,0.30648635
0,3570,CanadaOntarioYork,Ontario,York,2021-04-08 19:15:36.398295,2020-08-11 00:00:00.000000,0.01193209,0.02384095,0.05040753,143,286,605,85,165,402,0.00712104,0.01380099,0.03351364,0.15812976,0.22240028,0.31194153
0,3570,CanadaOntarioYork,Ontario,York,2021-04-08 19:15:36.398295,2020-08-12 00:00:00.000000,0.01204395,0.02404517,0.05057840,144,288,607,86,168,398,0.00724211,0.01402397,0.03316053,0.16608935,0.22674860,0.35382929
0,3570,CanadaOntarioYork,Ontario,York,2021-04-08 19:15:36.398295,2020-08-13 00:00:00.000000,0.01225031,0.02433400,0.05088223,147,292,610,89,171,399,0.00741872,0.01432170,0.03327408,0.17297536,0.23621742,0.35757321
0,3570,CanadaOntarioYork,Ontario,York,2021-04-08 19:15:36.398295,2020-08-14 00:00:00.000000,0.01226049,0.02471340,0.05138892,147,296,617,91,176,401,0.00765070,0.01466292,0.03342088,0.17992221,0.24672544,0.37028748
0,3570,CanadaOntarioYork,Ontario,York,2021-04-08 19:15:36.398295,2020-08-15 00:00:00.000000,0.01236742,0.02513900,0.05212885,148,301,625,93,177,403,0.00782089,0.01478810,0.03364048,0.18004347,0.25387579,0.38151644
0,3570,CanadaOntarioYork,Ontario,York,2021-04-08 19:15:36.398295,2020-08-16 00:00:00.000000,0.01248307,0.02575158,0.05306516,149,309,637,93,179,407,0.00776306,0.01492956,0.03395912,0.18365604,0.26848509,0.40438287
0,3570,CanadaOntarioYork,Ontario,York,2021-04-08 19:15:36.398295,2020-08-17 00:00:00.000000,0.01298434,0.02628913,0.05499389,155,315,660,92,181,412,0.00771703,0.01509089,0.03438325,0.18454784,0.27786229,0.41609286
0,3570,CanadaOntarioYork,Ontario,York,2021-04-08 19:15:36.398295,2020-08-18 00:00:00.000000,0.01351790,0.02716543,0.05854213,162,326,702,93,184,419,0.00777062,0.01539203,0.03493002,0.18897199,0.28975834,0.41791227
0,3570,CanadaOntarioYork,Ontario,York,2021-04-08 19:15:36.398295,2020-08-19 00:00:00.000000,0.01412274,0.02809864,0.06253570,169,337,750,94,190,427,0.00788673,0.01585481,0.03558735,0.19801784,0.29459047,0.41887792
0,3570,CanadaOntarioYork,Ontario,York,2021-04-08 19:15:36.398295,2020-08-20 00:00:00.000000,0.01470558,0.02921755,0.06479492,176,350,778,96,196,446,0.00804920,0.01638590,0.03714781,0.21713100,0.29664486,0.41927918
0,3570,CanadaOntarioYork,Ontario,York,2021-04-08 19:15:36.398295,2020-08-21 00:00:00.000000,0.01489927,0.03049249,0.06661778,178,366,799,99,203,475,0.00825422,0.01697109,0.03959908,0.23210429,0.30440118,0.43790501
0,3570,CanadaOntarioYork,Ontario,York,2021-04-08 19:15:36.398295,2020-08-22 00:00:00.000000,0.01610228,0.03162512,0.06894817,193,379,827,102,213,507,0.00852196,0.01780832,0.04230117,0.23493926,0.30862473,0.44983934
0,3570,CanadaOntarioYork,Ontario,York,2021-04-08 19:15:36.398295,2020-08-23 00:00:00.000000,0.01746437,0.03268202,0.07172244,209,392,861,106,221,524,0.00882836,0.01845572,0.04365633,0.23622686,0.32057104,0.44486834
0,3570,CanadaOntarioYork,Ontario,York,2021-04-08 19:15:36.398295,2020-08-24 00:00:00.000000,0.01841679,0.03394686,0.07399875,221,407,888,111,227,543,0.00929417,0.01898149,0.04528412,0.24535679,0.33723446,0.44848444
0,3570,CanadaOntarioYork,Ontario,York,2021-04-08 19:15:36.398295,2020-08-25 00:00:00.000000,0.01947028,0.03515589,0.07847385,233,422,942,117,234,567,0.00981194,0.01949643,0.04722467,0.25655495,0.34318593,0.46648335
0,3570,CanadaOntarioYork,Ontario,York,2021-04-08 19:15:36.398295,2020-08-26 00:00:00.000000,0.02059999,0.03647161,0.08324411,247,437,999,124,242,593,0.01035554,0.02021199,0.04944662,0.26117081,0.35755956,0.47071128
0,3570,CanadaOntarioYork,Ontario,York,2021-04-08 19:15:36.398295,2020-08-27 00:00:00.000000,0.02180710,0.03765752,0.08835569,261,452,1060,131,253,621,0.01093978,0.02112219,0.05178940,0.26059854,0.36621293,0.47884858
0,3570,CanadaOntarioYork,Ontario,York,2021-04-08 19:15:36.398295,2020-08-28 00:00:00.000000,0.02312602,0.03900135,0.09390501,277,468,1127,138,265,644,0.01156635,0.02210549,0.05365102,0.26115870,0.37557305,0.51433201
0,3570,CanadaOntarioYork,Ontario,York,2021-04-08 19:15:36.398295,2020-08-29 00:00:00.000000,0.02464346,0.04143531,0.09994051,295,497,1200,147,278,686,0.01224366,0.02321675,0.05720982,0.27087847,0.38105818,0.53508178
0,3570,CanadaOntarioYork,Ontario,York,2021-04-08 19:15:36.398295,2020-08-30 00:00:00.000000,0.02602555,0.04432527,0.10593048,312,532,1271,156,292,733,0.01299572,0.02436939,0.06111232,0.29418630,0.39740568,0.53970975
0,3570,CanadaOntarioYork,Ontario,York,2021-04-08 19:15:36.398295,2020-08-31 00:00:00.000000,0.02698384,0.04753178,0.11026075,324,570,1323,166,310,779,0.01385447,0.02585381,0.06490272,0.29728495,0.40265125,0.55565037
0,3570,CanadaOntarioYork,Ontario,York,2021-04-08 19:15:36.398295,2020-09-01 00:00:00.000000,0.02797784,0.05104710,0.11968506,335,612,1437,178,330,822,0.01484834,0.02748265,0.06852898,0.30685407,0.40891096,0.55510835
0,3570,CanadaOntarioYork,Ontario,York,2021-04-08 19:15:36.398295,2020-09-02 00:00:00.000000,0.02911379,0.05438120,0.12970475,349,652,1557,191,349,877,0.01596818,0.02911120,0.07309868,0.32282575,0.41048646,0.52654148
0,3570,CanadaOntarioYork,Ontario,York,2021-04-08 19:15:36.398295,2020-09-03 00:00:00.000000,0.03076979,0.05790166,0.13878509,369,695,1666,201,370,937,0.01677292,0.03084996,0.07804342,0.33613861,0.41400839,0.52627275
0,3570,CanadaOntarioYork,Ontario,York,2021-04-08 19:15:36.398295,2020-09-04 00:00:00.000000,0.03370469,0.06141228,0.14849224,404,737,1783,210,393,1001,0.01750554,0.03280024,0.08337582,0.33775566,0.41873054,0.53784287
0,3570,CanadaOntarioYork,Ontario,York,2021-04-08 19:15:36.398295,2020-09-05 00:00:00.000000,0.03666663,0.06506932,0.15906696,440,781,1910,223,420,1070,0.01859937,0.03505202,0.08911781,0.34332313,0.42366012,0.54550198
0,3570,CanadaOntarioYork,Ontario,York,2021-04-08 19:15:36.398295,2020-09-06 00:00:00.000000,0.03965940,0.06924191,0.17118049,476,831,2055,244,449,1144,0.02033425,0.03745700,0.09534363,0.32814351,0.43228687,0.55444107
0,3570,CanadaOntarioYork,Ontario,York,2021-04-08 19:15:36.398295,2020-09-07 00:00:00.000000,0.04201000,0.07481418,0.18210836,504,898,2186,265,478,1227,0.02209390,0.03983622,0.10225903,0.33592285,0.43313499,0.55484123
0,3570,CanadaOntarioYork,Ontario,York,2021-04-08 19:15:36.398295,2020-09-08 00:00:00.000000,0.04551875,0.07922220,0.19344034,546,951,2322,292,512,1320,0.02437585,0.04266115,0.10999800,0.34111306,0.43111918,0.55465405
0,3570,CanadaOntarioYork,Ontario,York,2021-04-08 19:15:36.398295,2020-09-09 00:00:00.000000,0.05046041,0.08446057,0.20543633,605,1014,2466,316,554,1412,0.02635054,0.04618904,0.11762814,0.32101598,0.43266209,0.55930095
0,3570,CanadaOntarioYork,Ontario,York,2021-04-08 19:15:36.398295,2020-09-10 00:00:00.000000,0.05586740,0.08960525,0.21807695,670,1075,2618,336,591,1500,0.02800992,0.04924066,0.12498231,0.31514489,0.42538112,0.55957459
0,3570,CanadaOntarioYork,Ontario,York,2021-04-08 19:15:36.398295,2020-09-11 00:00:00.000000,0.05984872,0.09551691,0.23124242,718,1146,2776,357,625,1593,0.02973475,0.05212874,0.13273641,0.32356305,0.41663539,0.54349552
0,3570,CanadaOntarioYork,Ontario,York,2021-04-08 19:15:36.398295,2020-09-12 00:00:00.000000,0.06296568,0.10304166,0.24471121,756,1237,2938,378,661,1691,0.03153949,0.05512706,0.14086654,0.33467927,0.41336860,0.53697869
0,3570,CanadaOntarioYork,Ontario,York,2021-04-08 19:15:36.398295,2020-09-13 00:00:00.000000,0.06605274,0.11046272,0.25840449,793,1326,3102,401,707,1792,0.03343398,0.05891161,0.14929512,0.30654916,0.41425611,0.53003336
0,3570,CanadaOntarioYork,Ontario,York,2021-04-08 19:15:36.398295,2020-09-14 00:00:00.000000,0.06967256,0.11704756,0.27255631,836,1405,3272,425,758,1896,0.03542679,0.06313442,0.15795379,0.30903368,0.41414269,0.52036449
0,3570,CanadaOntarioYork,Ontario,York,2021-04-08 19:15:36.398295,2020-09-15 00:00:00.000000,0.07392531,0.12332213,0.28730539,887,1480,3449,451,808,2003,0.03756037,0.06729906,0.16687066,0.30657440,0.41158520,0.50877437
0,3570,CanadaOntarioYork,Ontario,York,2021-04-08 19:15:36.398295,2020-09-16 00:00:00.000000,0.07870140,0.13094566,0.30269704,945,1572,3634,478,866,2114,0.03983138,0.07217281,0.17610382,0.30595998,0.41063507,0.50857565
0,3570,CanadaOntarioYork,Ontario,York,2021-04-08 19:15:36.398295,2020-09-17 00:00:00.000000,0.08388687,0.13932218,0.31769365,1007,1672,3814,507,923,2229,0.04224116,0.07686961,0.18569989,0.31835812,0.40916241,0.51116616
0,3570,CanadaOntarioYork,Ontario,York,2021-04-08 19:15:36.398295,2020-09-18 00:00:00.000000,0.08942851,0.14777598,0.32870490,1073,1774,3946,537,981,2346,0.04479514,0.08174333,0.19538797,0.32305876,0.40483522,0.49980022
0,3570,CanadaOntarioYork,Ontario,York,2021-04-08 19:15:36.398295,2020-09-19 00:00:00.000000,0.09527969,0.15640031,0.33860017,1144,1877,4065,574,1033,2449,0.04785807,0.08607012,0.20397860,0.31349196,0.39835882,0.50143625
0,3570,CanadaOntarioYork,Ontario,York,2021-04-08 19:15:36.398295,2020-09-20 00:00:00.000000,0.10116964,0.16614768,0.34919392,1214,1995,4192,620,1087,2540,0.05167780,0.09055966,0.21159536,0.31249029,0.39429700,0.50228666
0,3570,CanadaOntarioYork,Ontario,York,2021-04-08 19:15:36.398295,2020-09-21 00:00:00.000000,0.10690593,0.17627099,0.36251743,1283,2116,4352,667,1146,2626,0.05560515,0.09544485,0.21871381,0.31530687,0.39298925,0.50370420
0,3570,CanadaOntarioYork,Ontario,York,2021-04-08 19:15:36.398295,2020-09-22 00:00:00.000000,0.11286322,0.18585366,0.39277189,1355,2231,4716,707,1203,2710,0.05892465,0.10020441,0.22573889,0.31364998,0.38818455,0.51080823
0,3570,CanadaOntarioYork,Ontario,York,2021-04-08 19:15:36.398295,2020-09-23 00:00:00.000000,0.11943621,0.19338378,0.42629884,1434,2322,5118,747,1260,2796,0.06228639,0.10496534,0.23286026,0.31214992,0.38709315,0.49990647
0,3570,CanadaOntarioYork,Ontario,York,2021-04-08 19:15:36.398295,2020-09-24 00:00:00.000000,0.12845038,0.20223435,0.46263524,1542,2428,5555,802,1319,2884,0.06685267,0.10989249,0.24026377,0.31125652,0.38687266,0.50000266
0,3570,CanadaOntarioYork,Ontario,York,2021-04-08 19:15:36.398295,2020-09-25 00:00:00.000000,0.13750923,0.21171525,0.49362879,1651,2542,5927,862,1383,2980,0.07183460,0.11524442,0.24818169,0.29551617,0.38635494,0.50305317
0,3570,CanadaOntarioYork,Ontario,York,2021-04-08 19:15:36.398295,2020-09-26 00:00:00.000000,0.14517702,0.22192033,0.51571186,1743,2664,6192,927,1464,3185,0.07726075,0.12199179,0.26531749,0.29461917,0.38493942,0.50490780
0,3570,CanadaOntarioYork,Ontario,York,2021-04-08 19:15:36.398295,2020-09-27 00:00:00.000000,0.15328007,0.23374679,0.53857692,1840,2806,6467,990,1551,3425,0.08250982,0.12921526,0.28531677,0.30020521,0.38449977,0.50527312
0,3570,CanadaOntarioYork,Ontario,York,2021-04-08 19:15:36.398295,2020-09-28 00:00:00.000000,0.16182678,0.24814030,0.55206085,1943,2979,6628,1037,1641,3709,0.08639628,0.13667644,0.30894453,0.30768231,0.38026932,0.50321437
0,3570,CanadaOntarioYork,Ontario,York,2021-04-08 19:15:36.398295,2020-09-29 00:00:00.000000,0.17082176,0.26354755,0.58562981,2051,3164,7032,1084,1723,4009,0.09027807,0.14357306,0.33393056,0.30767390,0.37996999,0.50318269
0,3570,CanadaOntarioYork,Ontario,York,2021-04-08 19:15:36.398295,2020-09-30 00:00:00.000000,0.18021662,0.28364945,0.61997459,2163,3405,7444,1130,1817,4324,0.09417058,0.15134523,0.36011043,0.30695406,0.37561390,0.49205535
0,3570,CanadaOntarioYork,Ontario,York,2021-04-08 19:15:36.398295,2020-10-01 00:00:00.000000,0.18999019,0.30134368,0.65202268,2281,3618,7829,1177,1914,4588,0.09810272,0.15943356,0.38215374,0.30858582,0.37864771,0.48405437
0,3570,CanadaOntarioYork,Ontario,York,2021-04-08 19:15:36.398295,2020-10-02 00:00:00.000000,0.20008549,0.31757923,0.68587762,2402,3813,8235,1225,2028,4817,0.10209770,0.16897070,0.40122942,0.29903179,0.37169782,0.46829814
0,3570,CanadaOntarioYork,Ontario,York,2021-04-08 19:15:36.398295,2020-10-03 00:00:00.000000,0.21042689,0.33181116,0.72123525,2526,3984,8660,1274,2145,5058,0.10617590,0.17866646,0.42129254,0.29376505,0.36788401,0.45764198
0,3570,CanadaOntarioYork,Ontario,York,2021-04-08 19:15:36.398295,2020-10-04 00:00:00.000000,0.22055654,0.34514621,0.75794059,2648,4144,9101,1325,2260,5302,0.11035695,0.18824800,0.44160871,0.28289503,0.36431166,0.44415089
0,3570,CanadaOntarioYork,Ontario,York,2021-04-08 19:15:36.398295,2020-10-05 00:00:00.000000,0.22912069,0.35859998,0.79574916,2751,4305,9555,1393,2375,5533,0.11602455,0.19783822,0.46079269,0.27505514,0.35713311,0.42384780
0,3570,CanadaOntarioYork,Ontario,York,2021-04-08 19:15:36.398295,2020-10-06 00:00:00.000000,0.23800153,0.37438563,0.82270765,2857,4495,9878,1470,2491,5788,0.12244323,0.20751136,0.48203088,0.26829191,0.34815460,0.42127742
0,3570,CanadaOntarioYork,Ontario,York,2021-04-08 19:15:36.398295,2020-10-07 00:00:00.000000,0.24724094,0.39084537,0.84572024,2968,4693,10155,1550,2619,6022,0.12916106,0.21814266,0.50155399,0.26467762,0.34478108,0.43686640
0,3570,CanadaOntarioYork,Ontario,York,2021-04-08 19:15:36.398295,2020-10-08 00:00:00.000000,0.25910779,0.40676411,0.86541354,3111,4884,10391,1635,2732,6233,0.13620455,0.22760430,0.51909257,0.26076089,0.33966812,0.44851579
0,3570,CanadaOntarioYork,Ontario,York,2021-04-08 19:15:36.398295,2020-10-09 00:00:00.000000,0.27066019,0.42229109,0.88235630,3249,5070,10594,1724,2840,6419,0.14359830,0.23659951,0.53458114,0.25711137,0.33651268,0.44637372
0,3570,CanadaOntarioYork,Ontario,York,2021-04-08 19:15:36.398295,2020-10-10 00:00:00.000000,0.28132213,0.43420525,0.89719070,3378,5213,10773,1817,2949,6581,0.15139596,0.24559791,0.54813626,0.25105274,0.33043104,0.44093874
0,3570,CanadaOntarioYork,Ontario,York,2021-04-08 19:15:36.398295,2020-10-11 00:00:00.000000,0.29295108,0.44570663,0.91051821,3517,5351,10933,1916,3049,6724,0.15958569,0.25396784,0.56000048,0.25013917,0.32127529,0.42865660
0,3570,CanadaOntarioYork,Ontario,York,2021-04-08 19:15:36.398295,2020-10-12 00:00:00.000000,0.30537427,0.46632105,0.92279896,3666,5599,11080,2019,3141,6848,0.16817266,0.26164890,0.57034428,0.24529678,0.31737604,0.42184800
0,3570,CanadaOntarioYork,Ontario,York,2021-04-08 19:15:36.398295,2020-10-13 00:00:00.000000,0.31507421,0.48518627,0.93444034,3783,5825,11220,2126,3243,6957,0.17713177,0.27015391,0.57946113,0.24333200,0.31351120,0.40371319
0,3570,CanadaOntarioYork,Ontario,York,2021-04-08 19:15:36.398295,2020-10-14 00:00:00.000000,0.32316348,0.50062456,0.94580082,3880,6011,11356,2183,3332,7058,0.18185548,0.27752243,0.58784441,0.24188103,0.31217149,0.38430748
0,3570,CanadaOntarioYork,Ontario,York,2021-04-08 19:15:36.398295,2020-10-15 00:00:00.000000,0.33237667,0.51325686,0.97708480,3991,6162,11732,2241,3445,7153,0.18666957,0.28693525,0.59574289,0.24050089,0.30519382,0.37277703
0,3570,CanadaOntarioYork,Ontario,York,2021-04-08 19:15:36.398295,2020-10-16 00:00:00.000000,0.33963148,0.52359192,1.01004918,4078,6287,12128,2300,3540,7274,0.19156197,0.29483484,0.60578388,0.23534629,0.30068578,0.38480577
0,3570,CanadaOntarioYork,Ontario,York,2021-04-08 19:15:36.398295,2020-10-17 00:00:00.000000,0.34748604,0.53475130,1.02800881,4172,6421,12343,2359,3635,7588,0.19646194,0.30279690,0.63197097,0.23245836,0.29314399,0.39098744
0,3570,CanadaOntarioYork,Ontario,York,2021-04-08 19:15:36.398295,2020-10-18 00:00:00.000000,0.35412809,0.54658386,1.04090428,4252,6563,12498,2415,3740,7889,0.20120067,0.31149557,0.65707854,0.23050576,0.28256569,0.37968203
0,3570,CanadaOntarioYork,Ontario,York,2021-04-08 19:15:36.398295,2020-10-19 00:00:00.000000,0.35868908,0.55690734,1.06706706,4306,6687,12812,2467,3845,8185,0.20546627,0.32022188,0.68172845,0.22574644,0.27905949,0.36904981
0,3570,CanadaOntarioYork,Ontario,York,2021-04-08 19:15:36.398295,2020-10-20 00:00:00.000000,0.36219433,0.56595167,1.10518737,4349,6795,13270,2508,3946,8477,0.20888796,0.32865092,0.70604273,0.22093111,0.27641770,0.36005832
0,3570,CanadaOntarioYork,Ontario,York,2021-04-08 19:15:36.398295,2020-10-21 00:00:00.000000,0.36502812,0.57671647,1.14406839,4383,6924,13737,2549,4036,8757,0.21232280,0.33615446,0.72934482,0.22051283,0.27490568,0.35785454
0,3570,CanadaOntarioYork,Ontario,York,2021-04-08 19:15:36.398295,2020-10-22 00:00:00.000000,0.37008328,0.58789379,1.18297448,4443,7059,14204,2589,4124,8989,0.21564818,0.34348766,0.74864635,0.21967791,0.27551047,0.35995733
0,3570,CanadaOntarioYork,Ontario,York,2021-04-08 19:15:36.398295,2020-10-23 00:00:00.000000,0.37583842,0.59791832,1.22045050,4512,7179,14654,2621,4210,9143,0.21834141,0.35063666,0.76147267,0.21132463,0.27447001,0.34104136
0,3570,CanadaOntarioYork,Ontario,York,2021-04-08 19:15:36.398295,2020-10-24 00:00:00.000000,0.38244198,0.60810530,1.25529243,4592,7301,15073,2621,4302,9235,0.21830296,0.35829224,0.76917562,0.20759406,0.27724203,0.33763763
0,3570,CanadaOntarioYork,Ontario,York,2021-04-08 19:15:36.398295,2020-10-25 00:00:00.000000,0.39005533,0.62268671,1.28617858,4683,7476,15443,2631,4405,9291,0.21914709,0.36686408,0.77383675,0.20695964,0.27821917,0.33840799
0,3570,CanadaOntarioYork,Ontario,York,2021-04-08 19:15:36.398295,2020-10-26 00:00:00.000000,0.39855675,0.63166073,1.31269668,4785,7584,15762,2652,4503,9536,0.22090670,0.37508480,0.79422891,0.20831837,0.27549822,0.34109543
0,3570,CanadaOntarioYork,Ontario,York,2021-04-08 19:15:36.398295,2020-10-27 00:00:00.000000,0.40055211,0.63898146,1.33565421,4809,7672,16038,2681,4584,9589,0.22330674,0.38176854,0.79862992,0.21256683,0.27295376,0.34521852
0,3570,CanadaOntarioYork,Ontario,York,2021-04-08 19:15:36.398295,2020-10-28 00:00:00.000000,0.39882582,0.64634679,1.34362339,4788,7761,16133,2715,4658,9602,0.22613446,0.38798516,0.79971028,0.20972732,0.27541367,0.35153668
0,3570,CanadaOntarioYork,Ontario,York,2021-04-08 19:15:36.398295,2020-10-29 00:00:00.000000,0.39812409,0.65394529,1.34993605,4780,7852,16209,2752,4718,9613,0.22926671,0.39295705,0.80058860,0.21587980,0.27516888,0.34045188
0,3570,CanadaOntarioYork,Ontario,York,2021-04-08 19:15:36.398295,2020-10-30 00:00:00.000000,0.39944101,0.65950162,1.36478301,4796,7919,16387,2793,4772,9635,0.23268333,0.39746246,0.80247659,0.22001286,0.27410896,0.34740208
0,3570,CanadaOntarioYork,Ontario,York,2021-04-08 19:15:36.398295,2020-10-31 00:00:00.000000,0.40297682,0.66109174,1.38469037,4838,7938,16626,2839,4823,9688,0.23647871,0.40172390,0.80683566,0.21234116,0.27697701,0.35002289
0,3570,CanadaOntarioYork,Ontario,York,2021-04-08 19:15:36.398295,2020-11-01 00:00:00.000000,0.40868802,0.66495612,1.40665020,4907,7984,16890,2887,4868,9820,0.24043667,0.40542862,0.81784843,0.20404377,0.28025364,0.35167326
0,3570,CanadaOntarioYork,Ontario,York,2021-04-08 19:15:36.398295,2020-11-02 00:00:00.000000,0.41817114,0.67425610,1.43044720,5021,8096,17176,2912,4922,10084,0.24251805,0.40998519,0.83984804,0.20314903,0.28112916,0.35611494
0,3570,CanadaOntarioYork,Ontario,York,2021-04-08 19:15:36.398295,2020-11-03 00:00:00.000000,0.43094081,0.68699965,1.45576944,5174,8249,17480,2950,4993,10384,0.24574451,0.41590139,0.86485246,0.20354868,0.28309731,0.35894035
0,3570,CanadaOntarioYork,Ontario,York,2021-04-08 19:15:36.398295,2020-11-04 00:00:00.000000,0.44048727,0.69926297,1.48259910,5289,8396,17802,3003,5068,10687,0.25016577,0.42214252,0.89005845,0.20591122,0.28355646,0.36360974
0,3570,CanadaOntarioYork,Ontario,York,2021-04-08 19:15:36.398295,2020-11-05 00:00:00.000000,0.45226399,0.71123553,1.51086847,5430,8540,18141,3072,5120,10985,0.25589521,0.42644787,0.91486448,0.21209021,0.28512325,0.36537872
0,3570,CanadaOntarioYork,Ontario,York,2021-04-08 19:15:36.398295,2020-11-06 00:00:00.000000,0.46838908,0.72644341,1.53646931,5624,8722,18449,3157,5213,11280,0.26298418,0.43418797,0.93943677,0.21797873,0.28938977,0.36745982
0,3570,CanadaOntarioYork,Ontario,York,2021-04-08 19:15:36.398295,2020-11-07 00:00:00.000000,0.48578184,0.73984921,1.57138486,5833,8883,18868,3257,5351,11669,0.27130227,0.44564642,0.97181404,0.22570291,0.29478925,0.36885038
0,3570,CanadaOntarioYork,Ontario,York,2021-04-08 19:15:36.398295,2020-11-08 00:00:00.000000,0.50067276,0.76217994,1.60363763,6011,9151,19255,3369,5469,12081,0.28062543,0.45553304,1.00618276,0.22513359,0.29800904,0.36794381
0,3570,CanadaOntarioYork,Ontario,York,2021-04-08 19:15:36.398295,2020-11-09 00:00:00.000000,0.51445172,0.78334658,1.63907011,6177,9406,19681,3491,5585,12304,0.29075087,0.46515704,1.02471112,0.22484464,0.29751317,0.36719035
0,3570,CanadaOntarioYork,Ontario,York,2021-04-08 19:15:36.398295,2020-11-10 00:00:00.000000,0.52783111,0.79548285,1.69119283,6337,9551,20307,3620,5677,12546,0.30153337,0.47286051,1.04490915,0.22960906,0.29985800,0.36837465
0,3570,CanadaOntarioYork,Ontario,York,2021-04-08 19:15:36.398295,2020-11-11 00:00:00.000000,0.54056534,0.80395047,1.72790741,6490,9653,20748,3757,5815,12825,0.31288531,0.48430779,1.06814457,0.23834077,0.29181796,0.36738790
0,3570,CanadaOntarioYork,Ontario,York,2021-04-08 19:15:36.398295,2020-11-12 00:00:00.000000,0.55236744,0.82161887,1.77261106,6632,9865,21284,3845,5940,13109,0.32021627,0.49474813,1.09174033,0.24241735,0.28829707,0.36679053
0,3570,CanadaOntarioYork,Ontario,York,2021-04-08 19:15:36.398295,2020-11-13 00:00:00.000000,0.56323930,0.84480789,1.80261434,6763,10144,21645,3886,6071,13426,0.32368823,0.50565060,1.11813862,0.24232953,0.28693814,0.36449130
0,3570,CanadaOntarioYork,Ontario,York,2021-04-08 19:15:36.398295,2020-11-14 00:00:00.000000,0.57236112,0.87379380,1.81858508,6872,10492,21836,3925,6172,13715,0.32691979,0.51405089,1.14221591,0.23645298,0.28818184,0.35929414
0,3570,CanadaOntarioYork,Ontario,York,2021-04-08 19:15:36.398295,2020-11-15 00:00:00.000000,0.57875567,0.88883916,1.84827469,6949,10672,22193,3964,6347,13947,0.33013337,0.52862437,1.16154305,0.23434431,0.28804868,0.35398209
0,3570,CanadaOntarioYork,Ontario,York,2021-04-08 19:15:36.398295,2020-11-16 00:00:00.000000,0.58637250,0.90366433,1.88539335,7040,10850,22639,4005,6492,14115,0.33354403,0.54071476,1.17557287,0.23410153,0.28614490,0.34988987
0,3570,CanadaOntarioYork,Ontario,York,2021-04-08 19:15:36.398295,2020-11-17 00:00:00.000000,0.59543942,0.92615282,1.92226017,7149,11120,23081,4050,6591,14230,0.33736169,0.54896379,1.18515939,0.23542526,0.28394797,0.34764284
0,3570,CanadaOntarioYork,Ontario,York,2021-04-08 19:15:36.398295,2020-11-18 00:00:00.000000,0.60615505,0.94972173,1.94182427,7278,11403,23316,4103,6674,14306,0.34177263,0.55587141,1.19144227,0.23194320,0.28409768,0.34625077
0,3570,CanadaOntarioYork,Ontario,York,2021-04-08 19:15:36.398295,2020-11-19 00:00:00.000000,0.61863842,0.96644058,1.95986591,7428,11604,23533,4165,6794,14370,0.34693359,0.56582590,1.19682105,0.22144654,0.28250524,0.34973857
0,3570,CanadaOntarioYork,Ontario,York,2021-04-08 19:15:36.398295,2020-11-20 00:00:00.000000,0.62413154,0.98930591,1.97541779,7494,11879,23720,4238,6950,14521,0.35296305,0.57879967,1.20935086,0.20977058,0.27989824,0.34505353
0,3570,CanadaOntarioYork,Ontario,York,2021-04-08 19:15:36.398295,2020-11-21 00:00:00.000000,0.62721690,1.00123210,1.98808874,7531,12022,23872,4322,7065,14654,0.35994681,0.58839805,1.22046632,0.19999522,0.27768589,0.34641714
0,3570,CanadaOntarioYork,Ontario,York,2021-04-08 19:15:36.398295,2020-11-22 00:00:00.000000,0.62986890,1.01190096,1.99864212,7563,12150,23998,4418,7139,14769,0.36796008,0.59456405,1.23000681,0.19793057,0.27634733,0.34686210
0,3570,CanadaOntarioYork,Ontario,York,2021-04-08 19:15:36.398295,2020-11-23 00:00:00.000000,0.63240438,1.02320700,2.02817135,7593,12286,24353,4522,7202,14910,0.37665772,0.59981468,1.24172242,0.19813197,0.27660186,0.34811365
0,3570,CanadaOntarioYork,Ontario,York,2021-04-08 19:15:36.398295,2020-11-24 00:00:00.000000,0.63479661,1.02528544,2.07034157,7622,12311,24859,4637,7252,15220,0.38617807,0.60396661,1.26753362,0.20349459,0.27991811,0.35361112
0,3570,CanadaOntarioYork,Ontario,York,2021-04-08 19:15:36.398295,2020-11-25 00:00:00.000000,0.64812903,1.03286694,2.11018469,7782,12402,25338,4695,7342,15536,0.39104347,0.61148376,1.29389548,0.21055197,0.27793863,0.35411868
0,3570,CanadaOntarioYork,Ontario,York,2021-04-08 19:15:36.398295,2020-11-26 00:00:00.000000,0.66084031,1.04478037,2.12289225,7935,12545,25490,4714,7433,15849,0.39258940,0.61903287,1.31998595,0.20697989,0.27310812,0.34507736
0,3570,CanadaOntarioYork,Ontario,York,2021-04-08 19:15:36.398295,2020-11-27 00:00:00.000000,0.67189261,1.05757014,2.12151204,8067,12698,25474,4731,7525,16148,0.39403861,0.62670271,1.34486083,0.20573749,0.26847839,0.35104102
0,3570,CanadaOntarioYork,Ontario,York,2021-04-08 19:15:36.398295,2020-11-28 00:00:00.000000,0.68179834,1.07568446,2.12078460,8186,12916,25465,4747,7622,16420,0.39541196,0.63483208,1.36748538,0.20516885,0.26938648,0.35743440
0,3570,CanadaOntarioYork,Ontario,York,2021-04-08 19:15:36.398295,2020-11-29 00:00:00.000000,0.69153702,1.08853878,2.12211640,8303,13070,25481,4772,7718,16653,0.39744787,0.64281514,1.38693270,0.20503773,0.26236449,0.35230321
0,3570,CanadaOntarioYork,Ontario,York,2021-04-08 19:15:36.398295,2020-11-30 00:00:00.000000,0.70137038,1.10583581,2.12685409,8421,13278,25538,4843,7815,16842,0.40334288,0.65091841,1.40267333,0.20511715,0.26056066,0.33347051
0,3570,CanadaOntarioYork,Ontario,York,2021-04-08 19:15:36.398295,2020-12-01 00:00:00.000000,0.71119641,1.12071239,2.15616639,8539,13457,25890,4911,7910,16988,0.40904768,0.65881166,1.41482811,0.20539942,0.26216524,0.32836857
0,3570,CanadaOntarioYork,Ontario,York,2021-04-08 19:15:36.398295,2020-12-02 00:00:00.000000,0.72082787,1.13360064,2.19914023,8655,13611,26406,4973,7966,17096,0.41423036,0.66343080,1.42379735,0.20149900,0.26114710,0.33100472
0,3570,CanadaOntarioYork,Ontario,York,2021-04-08 19:15:36.398295,2020-12-03 00:00:00.000000,0.72359037,1.13920495,2.24243990,8688,13679,26926,4924,8032,17174,0.41014711,0.66892194,1.43034059,0.19442789,0.26013215,0.33037034
0,3570,CanadaOntarioYork,Ontario,York,2021-04-08 19:15:36.398295,2020-12-04 00:00:00.000000,0.72817536,1.14563651,2.25059992,8743,13756,27024,4873,8107,17236,0.40585014,0.67516600,1.43545415,0.19623560,0.25948787,0.32745353
0,3570,CanadaOntarioYork,Ontario,York,2021-04-08 19:15:36.398295,2020-12-05 00:00:00.000000,0.73657714,1.15692203,2.25990482,8844,13891,27136,4853,8197,17293,0.40418824,0.68265682,1.44023480,0.19777399,0.26109527,0.33778621
0,3570,CanadaOntarioYork,Ontario,York,2021-04-08 19:15:36.398295,2020-12-06 00:00:00.000000,0.74949890,1.16395032,2.28333912,8999,13976,27417,4895,8333,17358,0.40768675,0.69397854,1.44560061,0.19647544,0.26132051,0.34041584
0,3570,CanadaOntarioYork,Ontario,York,2021-04-08 19:15:36.398295,2020-12-07 00:00:00.000000,0.76621562,1.17522724,2.32478109,9200,14111,27915,4964,8463,17435,0.41348366,0.70484817,1.45206451,0.19645793,0.26530720,0.34027660
0,3570,CanadaOntarioYork,Ontario,York,2021-04-08 19:15:36.398295,2020-12-08 00:00:00.000000,0.77880518,1.18572725,2.36959821,9351,14237,28453,5056,8588,17636,0.42113454,0.71522090,1.46881718,0.19878951,0.26968981,0.34098258
0,3570,CanadaOntarioYork,Ontario,York,2021-04-08 19:15:36.398295,2020-12-09 00:00:00.000000,0.79544218,1.19444209,2.41968810,9551,14342,29054,5164,8643,17904,0.43012032,0.71986819,1.49111979,0.20472417,0.27319910,0.34290620
0,3570,CanadaOntarioYork,Ontario,York,2021-04-08 19:15:36.398295,2020-12-10 00:00:00.000000,0.80651490,1.20088269,2.47728541,9684,14419,29746,5285,8663,18164,0.44020935,0.72147150,1.51275403,0.21212038,0.27909644,0.34431291
0,3570,CanadaOntarioYork,Ontario,York,2021-04-08 19:15:36.398295,2020-12-11 00:00:00.000000,0.80382929,1.20687549,2.52977843,9652,14491,30376,5417,8707,18421,0.45120211,0.72519967,1.53415147,0.21282257,0.28240711,0.34884031
0,3570,CanadaOntarioYork,Ontario,York,2021-04-08 19:15:36.398295,2020-12-12 00:00:00.000000,0.81105978,1.21322539,2.57703526,9738,14567,30944,5560,8819,18678,0.46307217,0.73452800,1.55557778,0.21645542,0.28360302,0.36894642
0,3570,CanadaOntarioYork,Ontario,York,2021-04-08 19:15:36.398295,2020-12-13 00:00:00.000000,0.81851193,1.21999142,2.62711908,9828,14649,31545,5697,8972,18937,0.47448733,0.74721506,1.57712150,0.21632832,0.29251417,0.37276562
0,3570,CanadaOntarioYork,Ontario,York,2021-04-08 19:15:36.398295,2020-12-14 00:00:00.000000,0.83725655,1.24215972,2.67067475,10053,14915,32068,5766,9059,19211,0.48027106,0.75446214,1.59997370,0.22188966,0.30097193,0.38090756
0,3570,CanadaOntarioYork,Ontario,York,2021-04-08 19:15:36.398295,2020-12-15 00:00:00.000000,0.84795794,1.28176246,2.70877224,10181,15390,32525,5832,9221,19519,0.48574171,0.76796095,1.62558467,0.23886791,0.31088546,0.39101115
0,3570,CanadaOntarioYork,Ontario,York,2021-04-08 19:15:36.398295,2020-12-16 00:00:00.000000,0.85566371,1.32757229,2.76528910,10274,15940,33204,5911,9425,19869,0.49232304,0.78492120,1.65472392,0.24758950,0.31873573,0.40119471
0,3570,CanadaOntarioYork,Ontario,York,2021-04-08 19:15:36.398295,2020-12-17 00:00:00.000000,0.87597294,1.36941652,2.82504156,10518,16443,33921,6023,9670,20252,0.50167501,0.80533639,1.68667008,0.25438901,0.32489702,0.40316849
0,3570,CanadaOntarioYork,Ontario,York,2021-04-08 19:15:36.398295,2020-12-18 00:00:00.000000,0.91503059,1.41687231,2.88577410,10987,17013,34651,6149,9941,20750,0.51209845,0.82794509,1.72808716,0.25854465,0.32667284,0.41451358
0,3570,CanadaOntarioYork,Ontario,York,2021-04-08 19:15:36.398295,2020-12-19 00:00:00.000000,0.94789773,1.45694443,2.94718463,11381,17494,35388,6315,10243,21364,0.52599976,0.85311588,1.77923732,0.27113830,0.33322172,0.41841930
0,3570,CanadaOntarioYork,Ontario,York,2021-04-08 19:15:36.398295,2020-12-20 00:00:00.000000,0.98215092,1.51215726,3.00959006,11793,18157,36137,6486,10525,21996,0.54020289,0.87656044,1.83190387,0.28279014,0.33758187,0.42335307
0,3570,CanadaOntarioYork,Ontario,York,2021-04-08 19:15:36.398295,2020-12-21 00:00:00.000000,1.01819239,1.57301401,3.08424823,12226,18888,37034,6673,10812,22694,0.55578335,0.90050225,1.89001422,0.26972641,0.35053911,0.44444891
0,3570,CanadaOntarioYork,Ontario,York,2021-04-08 19:15:36.398295,2020-12-22 00:00:00.000000,1.06807773,1.63197323,3.18755551,12825,19596,38274,6930,11145,23479,0.57720313,0.92816689,1.95539457,0.27324585,0.35622917,0.44233259
0,3570,CanadaOntarioYork,Ontario,York,2021-04-08 19:15:36.398295,2020-12-23 00:00:00.000000,1.10015976,1.68633572,3.29347540,13210,20248,39546,7270,11540,24331,0.60545456,0.96111471,2.02631365,0.27047219,0.36155711,0.44481909
0,3570,CanadaOntarioYork,Ontario,York,2021-04-08 19:15:36.398295,2020-12-24 00:00:00.000000,1.13526086,1.74799338,3.40286403,13631,20989,40860,7531,11974,24806,0.62721367,0.99723894,2.06587276,0.27232895,0.36762060,0.44468861
0,3570,CanadaOntarioYork,Ontario,York,2021-04-08 19:15:36.398295,2020-12-25 00:00:00.000000,1.17386571,1.82321814,3.51193363,14095,21892,42169,7800,12492,25070,0.64966742,1.04034639,2.08786313,0.28478640,0.36872281,0.44512658
0,3570,CanadaOntarioYork,Ontario,York,2021-04-08 19:15:36.398295,2020-12-26 00:00:00.000000,1.21602112,1.89034189,3.63937704,14601,22698,43700,8078,12948,25883,0.67278258,1.07837338,2.15557599,0.29017473,0.36035681,0.44438305
0,3570,CanadaOntarioYork,Ontario,York,2021-04-08 19:15:36.398295,2020-12-27 00:00:00.000000,1.26141364,1.95693504,3.79763476,15146,23498,45600,8350,13403,26706,0.69546467,1.11624152,2.22410267,0.28850506,0.36179009,0.44056548
0,3570,CanadaOntarioYork,Ontario,York,2021-04-08 19:15:36.398295,2020-12-28 00:00:00.000000,1.30972241,2.01627515,3.95006033,15726,24210,47430,8633,13930,27989,0.71900946,1.16011769,2.33096055,0.28158455,0.35454205,0.42928202
0,3570,CanadaOntarioYork,Ontario,York,2021-04-08 19:15:36.398295,2020-12-29 00:00:00.000000,1.36047338,2.07650150,4.03150430,16336,24933,48408,8948,14485,29284,0.74523040,1.20635867,2.43884761,0.27984560,0.35104606,0.42649297
0,3570,CanadaOntarioYork,Ontario,York,2021-04-08 19:15:36.398295,2020-12-30 00:00:00.000000,1.41330501,2.12579025,4.08973420,16970,25525,49107,9247,14937,30288,0.77014463,1.24398104,2.52247560,0.27878209,0.34154432,0.41851301
0,3570,CanadaOntarioYork,Ontario,York,2021-04-08 19:15:36.398295,2020-12-31 00:00:00.000000,1.46758578,2.16519823,4.14147712,17622,25998,49729,9548,15429,30980,0.79519929,1.28501356,2.58009121,0.25616626,0.33000603,0.41977334
0,3570,CanadaOntarioYork,Ontario,York,2021-04-08 19:15:36.398295,2021-01-01 00:00:00.000000,1.50703503,2.19304237,4.21323475,18095,26333,50590,9922,15876,31462,0.82633426,1.32218354,2.62024277,0.22448099,0.31253609,0.41019964
0,3570,CanadaOntarioYork,Ontario,York,2021-04-08 19:15:36.398295,2021-01-02 00:00:00.000000,1.53757513,2.21663867,4.29255152,18462,26616,51543,10186,16290,32135,0.84831358,1.35665078,2.67629492,0.20061844,0.28738643,0.39209924
0,3570,CanadaOntarioYork,Ontario,York,2021-04-08 19:15:36.398295,2021-01-03 00:00:00.000000,1.54689834,2.23067853,4.35322502,18574,26785,52271,10396,16574,32592,0.86581835,1.38029614,2.71430488,0.19529433,0.26445458,0.37166824
0,3570,CanadaOntarioYork,Ontario,York,2021-04-08 19:15:36.398295,2021-01-04 00:00:00.000000,1.55254637,2.25422622,4.37823463,18642,27067,52572,10559,16604,33235,0.87942708,1.38283884,2.76785037,0.17838951,0.24386812,0.33823686
0,3570,CanadaOntarioYork,Ontario,York,2021-04-08 19:15:36.398295,2021-01-05 00:00:00.000000,1.54108261,2.24106313,4.40646924,18504,26909,52911,10681,16758,33726,0.88955193,1.39564405,2.80877693,0.16524579,0.22848132,0.31749022
0,3570,CanadaOntarioYork,Ontario,York,2021-04-08 19:15:36.398295,2021-01-06 00:00:00.000000,1.51261451,2.22322509,4.37014479,18162,26695,52474,10715,16897,34049,0.89240956,1.40723821,2.83566166,0.15663544,0.21619459,0.28611897
0,3570,CanadaOntarioYork,Ontario,York,2021-04-08 19:15:36.398295,2021-01-07 00:00:00.000000,1.48164248,2.19623719,4.34894041,17790,26371,52220,10586,16897,34228,0.88165402,1.40726872,2.85057213,0.14992246,0.20379236,0.28528848
0,3570,CanadaOntarioYork,Ontario,York,2021-04-08 19:15:36.398295,2021-01-08 00:00:00.000000,1.44735992,2.16941853,4.31106095,17379,26049,51765,10433,16719,34281,0.86888833,1.39238579,2.85499502,0.14494980,0.19538445,0.25349416
0,3570,CanadaOntarioYork,Ontario,York,2021-04-08 19:15:36.398295,2021-01-09 00:00:00.000000,1.40958482,2.11541407,4.25149558,16925,25401,51050,10250,16502,34207,0.85366611,1.37435976,2.84879895,0.13818068,0.18626775,0.23330378
0,3570,CanadaOntarioYork,Ontario,York,2021-04-08 19:15:36.398295,2021-01-10 00:00:00.000000,1.36911243,2.03878896,4.16917913,16439,24480,50061,10039,16277,33989,0.83613456,1.35558673,2.83068058,0.13267503,0.17906543,0.22738980
0,3570,CanadaOntarioYork,Ontario,York,2021-04-08 19:15:36.398295,2021-01-11 00:00:00.000000,1.32725756,1.97490797,4.06826875,15937,23713,48850,9809,15950,33615,0.81691784,1.32832496,2.79953127,0.12812199,0.17330344,0.22518420
0,3570,CanadaOntarioYork,Ontario,York,2021-04-08 19:15:36.398295,2021-01-12 00:00:00.000000,1.28499798,1.92580264,3.95484480,15429,23124,47488,9567,15579,33088,0.79678219,1.29746809,2.75563289,0.12528733,0.16697004,0.21918422
0,3570,CanadaOntarioYork,Ontario,York,2021-04-08 19:15:36.398295,2021-01-13 00:00:00.000000,1.23321523,1.88196203,3.83368197,14807,22597,46033,9320,15265,32428,0.77624881,1.27130366,2.70063396,0.12482266,0.16584916,0.21695052
0,3570,CanadaOntarioYork,Ontario,York,2021-04-08 19:15:36.398295,2021-01-14 00:00:00.000000,1.17678811,1.83238669,3.70796130,14130,22002,44523,9073,14935,31660,0.75567376,1.24386255,2.63674267,0.12507006,0.16487469,0.20895874
0,3570,CanadaOntarioYork,Ontario,York,2021-04-08 19:15:36.398295,2021-01-15 00:00:00.000000,1.12662325,1.77462941,3.58010814,13528,21309,42988,8828,14540,30813,0.73527649,1.21092252,2.56612351,0.12391408,0.16312235,0.21142782
0,3570,CanadaOntarioYork,Ontario,York,2021-04-08 19:15:36.398295,2021-01-16 00:00:00.000000,1.09483817,1.72446133,3.45216992,13146,20706,41452,8587,14102,29907,0.71516727,1.17444808,2.49071527,0.12190495,0.16209342,0.21411745
0,3570,CanadaOntarioYork,Ontario,York,2021-04-08 19:15:36.398295,2021-01-17 00:00:00.000000,1.06270040,1.66953966,3.32581028,12760,20047,39935,8351,13623,28965,0.69549162,1.13453758,2.41222552,0.12170652,0.16178596,0.21565714
0,3570,CanadaOntarioYork,Ontario,York,2021-04-08 19:15:36.398295,2021-01-18 00:00:00.000000,1.02898947,1.61185787,3.20248092,12355,19354,38454,8115,13144,28003,0.67586433,1.09470481,2.33214402,0.12100268,0.16336218,0.21513595
0,3570,CanadaOntarioYork,Ontario,York,2021-04-08 19:15:36.398295,2021-01-19 00:00:00.000000,0.99449169,1.55452948,3.08263654,11941,18666,37015,7874,12672,27038,0.65575948,1.05536058,2.25177212,0.12030059,0.16274390,0.21452904
0,3570,CanadaOntarioYork,Ontario,York,2021-04-08 19:15:36.398295,2021-01-20 00:00:00.000000,0.95296781,1.49820878,2.96717931,11442,17989,35628,7585,12209,26081,0.63171536,1.01684950,2.17204928,0.12078497,0.16255097,0.21445156
0,3570,CanadaOntarioYork,Ontario,York,2021-04-08 19:15:36.398295,2021-01-21 00:00:00.000000,0.90727113,1.44483871,2.85852875,10894,17349,34324,7213,11759,25141,0.60077803,0.97930893,2.09378012,0.12213026,0.16096082,0.21320587
0,3570,CanadaOntarioYork,Ontario,York,2021-04-08 19:15:36.398295,2021-01-22 00:00:00.000000,0.86569693,1.39518996,2.76199606,10394,16752,33164,6863,11320,24231,0.57163314,0.94274257,2.01804555,0.12245275,0.16085206,0.21243787
0,3570,CanadaOntarioYork,Ontario,York,2021-04-08 19:15:36.398295,2021-01-23 00:00:00.000000,0.82827542,1.34941887,2.67855160,9945,16203,32163,6539,10889,23376,0.54463089,0.90685827,1.94679293,0.12333745,0.16090853,0.21281734
0,3570,CanadaOntarioYork,Ontario,York,2021-04-08 19:15:36.398295,2021-01-24 00:00:00.000000,0.79446322,1.30644903,2.60222410,9539,15687,31246,6243,10463,22592,0.51995800,0.87144059,1.88151686,0.12394412,0.16239691,0.21464335
0,3570,CanadaOntarioYork,Ontario,York,2021-04-08 19:15:36.398295,2021-01-25 00:00:00.000000,0.76368434,1.26538362,2.53497619,9170,15194,30439,5974,10050,21874,0.49754245,0.83698950,1.82175967,0.12426627,0.16313891,0.21782783
0,3570,CanadaOntarioYork,Ontario,York,2021-04-08 19:15:36.398295,2021-01-26 00:00:00.000000,0.73503227,1.22602557,2.47494943,8825,14721,29718,5729,9655,21208,0.47716642,0.80407770,1.76626571,0.12463420,0.16442905,0.22020482
0,3570,CanadaOntarioYork,Ontario,York,2021-04-08 19:15:36.398295,2021-01-27 00:00:00.000000,0.70802781,1.18505644,2.41396638,8501,14229,28985,5504,9306,20580,0.45844569,0.77507261,1.71395697,0.12542290,0.16700336,0.22172282
0,3570,CanadaOntarioYork,Ontario,York,2021-04-08 19:15:36.398295,2021-01-28 00:00:00.000000,0.68238442,1.14401175,2.35142559,8193,13736,28235,5295,8994,19979,0.44103601,0.74906157,1.66390144,0.12658859,0.17111385,0.22255329
0,3570,CanadaOntarioYork,Ontario,York,2021-04-08 19:15:36.398295,2021-01-29 00:00:00.000000,0.65840677,1.10132224,2.28714646,7905,13224,27463,5099,8656,19395,0.42467936,0.72094842,1.61524627,0.12564204,0.17266428,0.22281848
0,3570,CanadaOntarioYork,Ontario,York,2021-04-08 19:15:36.398295,2021-01-30 00:00:00.000000,0.63583719,1.06897811,2.22153037,7634,12835,26675,4915,8327,18818,0.40933758,0.69355010,1.56723699,0.12820720,0.17374624,0.21972459
0,3570,CanadaOntarioYork,Ontario,York,2021-04-08 19:15:36.398295,2021-01-31 00:00:00.000000,0.61456453,1.04119386,2.15536790,7379,12502,25880,4741,8026,18244,0.39491247,0.66848857,1.51939040,0.12595954,0.17642415,0.22324781
0,3570,CanadaOntarioYork,Ontario,York,2021-04-08 19:15:36.398295,2021-02-01 00:00:00.000000,0.59440667,1.01290694,2.08942240,7137,12162,25088,4577,7743,17670,0.38123291,0.64484518,1.47164377,0.12281230,0.17880433,0.22876206
0,3570,CanadaOntarioYork,Ontario,York,2021-04-08 19:15:36.398295,2021-02-02 00:00:00.000000,0.58529507,0.98341008,2.02451357,7027,11808,24309,4420,7472,17102,0.36814824,0.62234866,1.42429408,0.12198925,0.18233401,0.23474098
0,3570,CanadaOntarioYork,Ontario,York,2021-04-08 19:15:36.398295,2021-02-03 00:00:00.000000,0.57610238,0.95709040,1.96122503,6917,11492,23549,4271,7220,16574,0.35573499,0.60129095,1.38030186,0.12183953,0.18347387,0.23875757
0,3570,CanadaOntarioYork,Ontario,York,2021-04-08 19:15:36.398295,2021-02-04 00:00:00.000000,0.56157554,0.93283121,1.89992408,6743,11201,22813,4134,6995,16196,0.34431356,0.58261013,1.34885538,0.12330350,0.18500751,0.24410294
0,3570,CanadaOntarioYork,Ontario,York,2021-04-08 19:15:36.398295,2021-02-05 00:00:00.000000,0.55098073,0.90580044,1.84099135,6615,10876,22105,4012,6807,15831,0.33416694,0.56689891,1.31841507,0.12642862,0.18763649,0.25217753
0,3570,CanadaOntarioYork,Ontario,York,2021-04-08 19:15:36.398295,2021-02-06 00:00:00.000000,0.54387296,0.87749744,1.78569896,6530,10536,21441,3905,6638,15475,0.32526533,0.55289504,1.28881404,0.12999697,0.19302037,0.25997557
0,3570,CanadaOntarioYork,Ontario,York,2021-04-08 19:15:36.398295,2021-02-07 00:00:00.000000,0.53670173,0.85116427,1.74334849,6444,10220,20933,3811,6487,15127,0.31740395,0.54026008,1.25985831,0.13317290,0.19585588,0.26587712
0,3570,CanadaOntarioYork,Ontario,York,2021-04-08 19:15:36.398295,2021-02-08 00:00:00.000000,0.52334572,0.82795437,1.72729079,6284,9941,20740,3725,6348,14785,0.31029786,0.52867625,1.23137608,0.13604287,0.20054865,0.27131523
0,3570,CanadaOntarioYork,Ontario,York,2021-04-08 19:15:36.398295,2021-02-09 00:00:00.000000,0.50764336,0.80327615,1.71606487,6095,9645,20605,3646,6213,14448,0.30368708,0.51745133,1.20327335,0.13752777,0.20310520,0.27327073
0,3570,CanadaOntarioYork,Ontario,York,2021-04-08 19:15:36.398295,2021-02-10 00:00:00.000000,0.49308750,0.77988266,1.68369393,5920,9364,20217,3572,6058,14115,0.29750234,0.50451509,1.17553420,0.13882975,0.20527018,0.27518337
0,3570,CanadaOntarioYork,Ontario,York,2021-04-08 19:15:36.398295,2021-02-11 00:00:00.000000,0.48015701,0.75815761,1.64597405,5765,9103,19764,3505,5904,13787,0.29196860,0.49170671,1.14823928,0.13977231,0.20820314,0.27649682
0,3570,CanadaOntarioYork,Ontario,York,2021-04-08 19:15:36.398295,2021-02-12 00:00:00.000000,0.47460459,0.73906952,1.60995276,5698,8874,19331,3457,5819,13673,0.28790460,0.48466571,1.13870686,0.14139330,0.20967044,0.27813448
0,3570,CanadaOntarioYork,Ontario,York,2021-04-08 19:15:36.398295,2021-02-13 00:00:00.000000,0.47473813,0.71966202,1.57668455,5700,8641,18932,3434,5677,13583,0.28600714,0.47280330,1.13120868,0.14768528,0.21119250,0.28521097
0,3570,CanadaOntarioYork,Ontario,York,2021-04-08 19:15:36.398295,2021-02-14 00:00:00.000000,0.46235318,0.70247497,1.54697083,5551,8435,18575,3433,5534,13508,0.28591036,0.46094846,1.12502761,0.15670709,0.21272265,0.29300425
0,3570,CanadaOntarioYork,Ontario,York,2021-04-08 19:15:36.398295,2021-02-15 00:00:00.000000,0.44975829,0.69055095,1.52029336,5400,8291,18255,3388,5421,13443,0.28217737,0.45149279,1.11960337,0.15922689,0.21469301,0.29768438
0,3570,CanadaOntarioYork,Ontario,York,2021-04-08 19:15:36.398295,2021-02-16 00:00:00.000000,0.44107971,0.67983827,1.49503042,5296,8163,17951,3346,5313,13230,0.27870001,0.44249839,1.10184844,0.15918075,0.21588926,0.30032760
0,3570,CanadaOntarioYork,Ontario,York,2021-04-08 19:15:36.398295,2021-02-17 00:00:00.000000,0.43568096,0.66932165,1.47051924,5231,8036,17657,3307,5210,12993,0.27541747,0.43390200,1.08211331,0.15933301,0.21766152,0.30178822
0,3570,CanadaOntarioYork,Ontario,York,2021-04-08 19:15:36.398295,2021-02-18 00:00:00.000000,0.43051920,0.65983519,1.44658230,5169,7923,17369,3269,5111,12769,0.27227755,0.42567466,1.06348774,0.16019467,0.21876601,0.30260327
0,3570,CanadaOntarioYork,Ontario,York,2021-04-08 19:15:36.398295,2021-02-19 00:00:00.000000,0.42549627,0.64933886,1.42315149,5109,7797,17088,3231,5030,12555,0.26915926,0.41898404,1.04563084,0.16147179,0.22230031,0.30310223
0,3570,CanadaOntarioYork,Ontario,York,2021-04-08 19:15:36.398295,2021-02-20 00:00:00.000000,0.42053945,0.63834793,1.40017652,5049,7665,16812,3185,4977,12347,0.26530433,0.41450792,1.02833867,0.16343047,0.22527865,0.30353970
0,3570,CanadaOntarioYork,Ontario,York,2021-04-08 19:15:36.398295,2021-02-21 00:00:00.000000,0.41567732,0.63155509,1.38927395,4991,7583,16681,3130,4889,12145,0.26074366,0.40719703,1.01149334,0.16455623,0.22779432,0.30417983
0,3570,CanadaOntarioYork,Ontario,York,2021-04-08 19:15:36.398295,2021-02-22 00:00:00.000000,0.41116819,0.62492538,1.38127245,4937,7503,16585,3084,4810,11948,0.25689920,0.40062547,0.99504372,0.16914418,0.23428807,0.30667396
0,3570,CanadaOntarioYork,Ontario,York,2021-04-08 19:15:36.398295,2021-02-23 00:00:00.000000,0.40761694,0.61852767,1.37364839,4894,7427,16494,3045,4718,11755,0.25359638,0.39294505,0.97898245,0.17440218,0.23888261,0.31725493
0,3570,CanadaOntarioYork,Ontario,York,2021-04-08 19:15:36.398295,2021-02-24 00:00:00.000000,0.40614101,0.61262651,1.36630345,4876,7356,16406,3010,4647,11571,0.25071740,0.38708021,0.96366076,0.17879141,0.24459347,0.33904924
0,3570,CanadaOntarioYork,Ontario,York,2021-04-08 19:15:36.398295,2021-02-25 00:00:00.000000,0.40772268,0.60828464,1.35921910,4895,7304,16320,2980,4622,11407,0.24820374,0.38499466,0.95005219,0.18111997,0.25076319,0.35023335
0,3570,CanadaOntarioYork,Ontario,York,2021-04-08 19:15:36.398295,2021-02-26 00:00:00.000000,0.41146402,0.60827175,1.35248522,4940,7303,16240,2954,4603,11279,0.24605450,0.38334364,0.93940238,0.18340581,0.25774369,0.35699576
0,3570,CanadaOntarioYork,Ontario,York,2021-04-08 19:15:36.398295,2021-02-27 00:00:00.000000,0.41610739,0.61036692,1.34639255,4996,7329,16166,2933,4558,11193,0.24431974,0.37962875,0.93218661,0.18789285,0.26773359,0.35821025
0,3570,CanadaOntarioYork,Ontario,York,2021-04-08 19:15:36.398295,2021-02-28 00:00:00.000000,0.41817031,0.61152534,1.34163229,5021,7342,16109,2918,4513,11141,0.24308331,0.37591253,0.92789175,0.19476979,0.27760335,0.36740687
0,3570,CanadaOntarioYork,Ontario,York,2021-04-08 19:15:36.398295,2021-03-01 00:00:00.000000,0.42028735,0.61231329,1.34017041,5046,7352,16092,2910,4491,11115,0.24242812,0.37408258,0.92566537,0.19772155,0.28291438,0.37991426
0,3570,CanadaOntarioYork,Ontario,York,2021-04-08 19:15:36.398295,2021-03-02 00:00:00.000000,0.42337051,0.61868678,1.34374958,5083,7428,16135,2911,4478,11104,0.24247761,0.37297062,0.92482065,0.21176086,0.29004549,0.38425702
0,3570,CanadaOntarioYork,Ontario,York,2021-04-08 19:15:36.398295,2021-03-03 00:00:00.000000,0.42721141,0.62484819,1.35477934,5129,7502,16267,2920,4473,11105,0.24318379,0.37252470,0.92486939,0.21525300,0.30260123,0.38684218
0,3570,CanadaOntarioYork,Ontario,York,2021-04-08 19:15:36.398295,2021-03-04 00:00:00.000000,0.43299940,0.63060245,1.37373990,5199,7572,16495,2935,4475,11114,0.24446100,0.37275219,0.92558108,0.23144526,0.30905053,0.39959625
0,3570,CanadaOntarioYork,Ontario,York,2021-04-08 19:15:36.398295,2021-03-05 00:00:00.000000,0.44140694,0.63943595,1.39836230,5300,7678,16790,2956,4509,11130,0.24621552,0.37557776,0.92697697,0.23350846,0.32127699,0.41236616
0,3570,CanadaOntarioYork,Ontario,York,2021-04-08 19:15:36.398295,2021-03-06 00:00:00.000000,0.44936577,0.65173737,1.42499583,5395,7825,17110,3015,4555,11159,0.25116183,0.37942234,0.92936459,0.24103960,0.33305407,0.41724041
0,3570,CanadaOntarioYork,Ontario,York,2021-04-08 19:15:36.398295,2021-03-07 00:00:00.000000,0.45851554,0.66972438,1.45034752,5505,8041,17415,3082,4637,11207,0.25667164,0.38624516,0.93338410,0.24967179,0.34283000,0.43742255
0,3570,CanadaOntarioYork,Ontario,York,2021-04-08 19:15:36.398295,2021-03-08 00:00:00.000000,0.46827091,0.68625155,1.47216195,5622,8240,17677,3149,4740,11286,0.26231138,0.39479316,0.93996336,0.25260714,0.34566976,0.46084388
0,3570,CanadaOntarioYork,Ontario,York,2021-04-08 19:15:36.398295,2021-03-09 00:00:00.000000,0.47594196,0.70331262,1.49128733,5714,8445,17906,3218,4852,11404,0.26800699,0.40414095,0.94973431,0.26049615,0.35050789,0.48908508
0,3570,CanadaOntarioYork,Ontario,York,2021-04-08 19:15:36.398295,2021-03-10 00:00:00.000000,0.48769628,0.71703431,1.52737102,5856,8609,18340,3289,4985,11561,0.27393292,0.41518565,0.96282084,0.26596625,0.35315903,0.50438399
0,3570,CanadaOntarioYork,Ontario,York,2021-04-08 19:15:36.398295,2021-03-11 00:00:00.000000,0.50001125,0.74225180,1.55237946,6003,8912,18640,3365,5131,11754,0.28029569,0.42732012,0.97892484,0.27142484,0.36023919,0.51222379
0,3570,CanadaOntarioYork,Ontario,York,2021-04-08 19:15:36.398295,2021-03-12 00:00:00.000000,0.51577534,0.76424815,1.57874411,6193,9176,18956,3436,5277,11976,0.28616838,0.43952512,0.99741826,0.28438332,0.37437500,0.51683827
0,3570,CanadaOntarioYork,Ontario,York,2021-04-08 19:15:36.398295,2021-03-13 00:00:00.000000,0.53854802,0.78620375,1.60783909,6466,9440,19306,3528,5437,12146,0.29384708,0.45285657,1.01152965,0.29398503,0.38867988,0.52342232
0,3570,CanadaOntarioYork,Ontario,York,2021-04-08 19:15:36.398295,2021-03-14 00:00:00.000000,0.56441747,0.81083239,1.66924563,6777,9736,20043,3647,5606,12337,0.30379721,0.46692162,1.02746583,0.30260306,0.39170987,0.52233839
0,3570,CanadaOntarioYork,Ontario,York,2021-04-08 19:15:36.398295,2021-03-15 00:00:00.000000,0.59279223,0.84227895,1.74199875,7118,10113,20917,3801,5807,12606,0.31660116,0.48366556,1.04986532,0.30967225,0.39374269,0.52624242
0,3570,CanadaOntarioYork,Ontario,York,2021-04-08 19:15:36.398295,2021-03-16 00:00:00.000000,0.61768789,0.87883240,1.81770215,7416,10552,21826,3990,6045,13284,0.33235440,0.50350904,1.10635863,0.31378044,0.39858463,0.52859860
0,3570,CanadaOntarioYork,Ontario,York,2021-04-08 19:15:36.398295,2021-03-17 00:00:00.000000,0.64617084,0.91929818,1.89627628,7758,11038,22769,4211,6319,13982,0.35075516,0.52625997,1.16447164,0.31798730,0.40148227,0.52896346
0,3570,CanadaOntarioYork,Ontario,York,2021-04-08 19:15:36.398295,2021-03-18 00:00:00.000000,0.67643359,0.96336987,1.97770808,8122,11567,23747,4460,6602,14569,0.37144784,0.54987748,1.21337169,0.32300823,0.41132402,0.52382124
0,3570,CanadaOntarioYork,Ontario,York,2021-04-08 19:15:36.398295,2021-03-19 00:00:00.000000,0.70930043,1.00764131,2.06203694,8517,12099,24760,4661,6867,15125,0.38825194,0.57191467,1.25963961,0.32866537,0.41817626,0.53078970
0,3570,CanadaOntarioYork,Ontario,York,2021-04-08 19:15:36.398295,2021-03-20 00:00:00.000000,0.74548447,1.05991736,2.14934563,8951,12727,25808,4801,7144,15700,0.39985392,0.59498407,1.30756889,0.33448049,0.42835887,0.53160662
0,3570,CanadaOntarioYork,Ontario,York,2021-04-08 19:15:36.398295,2021-03-21 00:00:00.000000,0.77641785,1.11374494,2.23976748,9322,13373,26894,4966,7446,16296,0.41359893,0.62013770,1.35718967,0.33539939,0.44631161,0.53329381
0,3570,CanadaOntarioYork,Ontario,York,2021-04-08 19:15:36.398295,2021-03-22 00:00:00.000000,0.80810686,1.16726938,2.34576486,9703,14016,28167,5158,7781,16914,0.42963788,0.64808898,1.40862354,0.33599040,0.44947591,0.54326326
0,3570,CanadaOntarioYork,Ontario,York,2021-04-08 19:15:36.398295,2021-03-23 00:00:00.000000,0.84264475,1.22969414,2.45870352,10118,14765,29523,5375,8139,17555,0.44767413,0.67787215,1.46201192,0.33641899,0.44992502,0.56289290
0,3570,CanadaOntarioYork,Ontario,York,2021-04-08 19:15:36.398295,2021-03-24 00:00:00.000000,0.88181660,1.29734719,2.57689366,10588,15578,30942,5613,8517,18219,0.46750859,0.70938341,1.51736143,0.33677797,0.45141948,0.58206514
0,3570,CanadaOntarioYork,Ontario,York,2021-04-08 19:15:36.398295,2021-03-25 00:00:00.000000,0.92686492,1.36264176,2.70100107,11129,16362,32432,5872,8928,18907,0.48907016,0.74357818,1.57463844,0.33715395,0.45183121,0.57943619
0,3570,CanadaOntarioYork,Ontario,York,2021-04-08 19:15:36.398295,2021-03-26 00:00:00.000000,0.97348907,1.43666399,2.83320617,11689,17250,34020,6152,9421,19618,0.51235637,0.78460931,1.63384134,0.33259513,0.45316661,0.56509344
0,3570,CanadaOntarioYork,Ontario,York,2021-04-08 19:15:36.398295,2021-03-27 00:00:00.000000,1.01468475,1.51963599,2.97392333,12183,18247,35709,6455,9974,20487,0.53765603,0.83068477,1.70618456,0.33076058,0.45238396,0.56655527
0,3570,CanadaOntarioYork,Ontario,York,2021-04-08 19:15:36.398295,2021-03-28 00:00:00.000000,1.05880603,1.59646900,3.12264599,12713,19169,37495,6789,10529,21487,0.56540059,0.87686197,1.78952545,0.33838814,0.44785766,0.55488197
0,3570,CanadaOntarioYork,Ontario,York,2021-04-08 19:15:36.398295,2021-03-29 00:00:00.000000,1.10765202,1.66961845,3.27849371,13300,20048,39366,7157,11123,22548,0.59605216,0.92633709,1.87783396,0.34561606,0.44503796,0.56232502
0,3570,CanadaOntarioYork,Ontario,York,2021-04-08 19:15:36.398295,2021-03-30 00:00:00.000000,1.14120444,1.73744740,3.44108655,13703,20862,41319,7566,11738,23666,0.63013019,0.97756325,1.97095339,0.34774376,0.44109526,0.55557286
0,3570,CanadaOntarioYork,Ontario,York,2021-04-08 19:15:36.398295,2021-03-31 00:00:00.000000,1.19633282,1.79838234,3.61004461,14365,21594,43348,7897,12376,24839,0.65771286,1.03072821,2.06868215,0.34629734,0.44353739,0.56550238
0,3570,CanadaOntarioYork,Ontario,York,2021-04-08 19:15:36.398295,2021-04-01 00:00:00.000000,1.26487679,1.87414662,3.78486368,15188,22504,45447,8107,12956,26066,0.67517076,1.07903020,2.17079798,0.34485226,0.44211007,0.57890916
0,3570,CanadaOntarioYork,Ontario,York,2021-04-08 19:15:36.398295,2021-04-02 00:00:00.000000,1.33764707,1.96648219,3.96388819,16061,23612,47596,8471,13386,27341,0.70549153,1.11480486,2.27703394,0.33956937,0.44372238,0.59147441
0,3570,CanadaOntarioYork,Ontario,York,2021-04-08 19:15:36.398295,2021-04-03 00:00:00.000000,1.39886705,2.05763722,4.14158577,16797,24707,49730,9000,13826,28659,0.74955192,1.15150635,2.38679335,0.34028955,0.44337415,0.60238305
0,3570,CanadaOntarioYork,Ontario,York,2021-04-08 19:15:36.398295,2021-04-04 00:00:00.000000,1.45836792,2.14615171,4.30961023,17511,25770,51748,9589,14365,29998,0.79862811,1.19636731,2.49825818,0.33677551,0.44302036,0.62995769
0,3570,CanadaOntarioYork,Ontario,York,2021-04-08 19:15:36.398295,2021-04-05 00:00:00.000000,1.51896975,2.22995617,4.46961336,18239,26776,53669,10059,15069,31317,0.83776371,1.25501902,2.60812403,0.33018868,0.43950492,0.64670140
0,3570,CanadaOntarioYork,Ontario,York,2021-04-08 19:15:36.398295,2021-04-06 00:00:00.000000,1.58098853,2.32579059,4.62853234,18983,27927,55577,10537,15712,32598,0.87753327,1.30856643,2.71482750,0.31940365,0.43968132,0.66181801
0,3570,CanadaOntarioYork,Ontario,York,2021-04-08 19:15:36.398295,2021-04-07 00:00:00.000000,1.64483149,2.39656146,4.78889658,19750,28776,57503,11024,16463,34191,0.91816723,1.37106157,2.84745931,0.30512177,0.43712451,0.68878943
0,3570,CanadaOntarioYork,Ontario,York,2021-04-08 19:15:36.398295,2021-04-08 00:00:00.000000,1.71072065,2.51750442,4.95115686,20541,30229,59451,11518,17098,36204,0.95930039,1.42395222,3.01513351,0.29304978,0.43721673,0.70276627
0,3570,CanadaOntarioYork,Ontario,York,2021-04-08 19:15:36.398295,2021-04-09 00:00:00.000000,1.77876258,2.61226317,5.14540426,21358,31367,61784,12021,17614,38311,1.00114065,1.46697701,3.19063143,0.29247797,0.44069533,0.70536576
0,3570,CanadaOntarioYork,Ontario,York,2021-04-08 19:15:36.398295,2021-04-10 00:00:00.000000,1.84901631,2.71606984,5.37292241,22202,32613,64515,12535,18328,40511,1.04393618,1.52639230,3.37384453,0.29221580,0.44120211,0.70583116
0,3570,CanadaOntarioYork,Ontario,York,2021-04-08 19:15:36.398295,2021-04-11 00:00:00.000000,1.92152234,2.85134690,5.66114982,23072,34237,67976,13062,19254,42802,1.08789172,1.60349528,3.56465310,0.29209338,0.44120401,0.70592248
0,3570,CanadaOntarioYork,Ontario,York,2021-04-08 19:15:36.398295,2021-04-12 00:00:00.000000,1.95635884,3.04522028,5.96463314,23491,36565,71620,13606,20236,45183,1.13315408,1.68534499,3.76290266,0.29203512,0.44120474,0.70594495
0,3570,CanadaOntarioYork,Ontario,York,2021-04-08 19:15:36.398295,2021-04-13 00:00:00.000000,1.98162855,3.17956976,6.27429733,23794,38179,75339,13924,20929,47650,1.15965783,1.74298742,3.96838932,0.29200703,0.44120502,0.70595258
0,3570,CanadaOntarioYork,Ontario,York,2021-04-08 19:15:36.398295,2021-04-14 00:00:00.000000,2.00673340,3.31762908,6.59253182,24096,39836,79160,14107,21693,50202,1.17490892,1.80661358,4.18084933,0.29199337,0.44120512,0.70595592
0,3570,CanadaOntarioYork,Ontario,York,2021-04-08 19:15:36.398295,2021-04-15 00:00:00.000000,2.03165593,3.47639007,6.91864653,24395,41743,83076,14289,22619,52832,1.19005027,1.88374076,4.39995058,0.29198670,0.44120268,0.70595758
0,3570,CanadaOntarioYork,Ontario,York,2021-04-08 19:15:36.398295,2021-04-16 00:00:00.000000,2.05637601,3.58739057,7.29209548,24692,43075,87560,14470,24060,55538,1.20508160,2.00376345,4.62528550,0.29198343,0.44120037,0.70595844
0,3570,CanadaOntarioYork,Ontario,York,2021-04-08 19:15:36.398295,2021-04-17 00:00:00.000000,2.08087202,3.68630397,7.80778462,24986,44263,93752,14649,25249,58313,1.21999640,2.10276159,4.85636490,0.29198182,0.44119922,0.70595890
0,3570,CanadaOntarioYork,Ontario,York,2021-04-08 19:15:36.398295,2021-04-18 00:00:00.000000,2.10512155,3.83115722,8.34504290,25277,46003,100204,14826,26309,61150,1.23478473,2.19104176,5.09261304,0.29198103,0.44119865,0.70595914
0,3570,CanadaOntarioYork,Ontario,York,2021-04-08 19:15:36.398295,2021-04-19 00:00:00.000000,2.12910178,4.00395283,8.90225096,25565,48077,106894,15002,27533,64040,1.24943486,2.29302029,5.33336372,0.29198064,0.44119837,0.70595927
0,3570,CanadaOntarioYork,Ontario,York,2021-04-08 19:15:36.398295,2021-04-20 00:00:00.000000,2.15278962,4.24188438,9.47731426,25849,50934,113799,15176,28800,66976,1.26393403,2.39855789,5.57785780,0.29198045,0.44119823,0.70595933
0,3570,CanadaOntarioYork,Ontario,York,2021-04-08 19:15:36.398295,2021-04-21 00:00:00.000000,2.17616191,4.42925287,10.08872172,26130,53184,121141,15348,29738,69947,1.27826893,2.47661431,5.82524209,0.29198036,0.44119817,0.70595937
0,3570,CanadaOntarioYork,Ontario,York,2021-04-08 19:15:36.398295,2021-04-22 00:00:00.000000,2.20147619,4.54365774,10.87084333,26434,54558,130532,15518,30876,72934,1.29242599,2.57140241,6.07399357,0.29198031,0.44119813,0.70595939
