FIPS,HR_UID,nameid,province,region,analysisTime,dates,pointprevalence_025,pointprevalence_50,pointprevalence_975,pointinfections_025,pointinfections_50,pointinfections_975,pointinfectious_025,pointinfectious_50,pointinfectious_975,pointinfectiousprevalence_05,pointinfectiousprevalence_50,pointinfectiousprevalence_95,infectrate_025,infectrate_50,infectrate_975
6027,0,USCaliforniaInyo,California,Inyo,2021-04-04 13:35:41.434074,2020-03-09 00:00:00.000000,0.00334980,0.02214459,0.06734905,0,3,12,0,2,7,0.00194125,0.01150935,0.04002258,0.36816387,0.50941428,0.71901143
6027,0,USCaliforniaInyo,California,Inyo,2021-04-04 13:35:41.434074,2020-03-10 00:00:00.000000,0.00361579,0.02491402,0.07196563,0,4,12,0,2,6,0.00187002,0.01184947,0.03722968,0.36804888,0.50939065,0.71901047
6027,0,USCaliforniaInyo,California,Inyo,2021-04-04 13:35:41.434074,2020-03-11 00:00:00.000000,0.00420897,0.02764670,0.07680207,0,4,13,0,2,7,0.00196199,0.01239577,0.03910850,0.36784857,0.50933939,0.71900810
6027,0,USCaliforniaInyo,California,Inyo,2021-04-04 13:35:41.434074,2020-03-12 00:00:00.000000,0.00487834,0.02996536,0.08186232,0,5,14,0,2,7,0.00213945,0.01319475,0.04139671,0.36750063,0.50922826,0.71900221
6027,0,USCaliforniaInyo,California,Inyo,2021-04-04 13:35:41.434074,2020-03-13 00:00:00.000000,0.00563446,0.03236512,0.08926468,1,5,16,0,2,7,0.00236559,0.01452050,0.04398349,0.36689929,0.50898782,0.71898756
6027,0,USCaliforniaInyo,California,Inyo,2021-04-04 13:35:41.434074,2020-03-14 00:00:00.000000,0.00621544,0.03491954,0.09359418,1,6,16,0,2,8,0.00262678,0.01612894,0.04681164,0.36586883,0.50748229,0.71895111
6027,0,USCaliforniaInyo,California,Inyo,2021-04-04 13:35:41.434074,2020-03-15 00:00:00.000000,0.00681919,0.03719938,0.09968207,1,6,17,0,3,8,0.00291263,0.01770608,0.04982517,0.36412784,0.50347778,0.71886026
6027,0,USCaliforniaInyo,California,Inyo,2021-04-04 13:35:41.434074,2020-03-16 00:00:00.000000,0.01251866,0.04451244,0.11807992,2,8,21,0,3,9,0.00322057,0.01901821,0.05177848,0.36124984,0.49782849,0.71863326
6027,0,USCaliforniaInyo,California,Inyo,2021-04-04 13:35:41.434074,2020-03-17 00:00:00.000000,0.01956502,0.05294171,0.13247788,3,9,23,0,3,10,0.00497647,0.02159898,0.05879002,0.35262894,0.48715025,0.71806323
6027,0,USCaliforniaInyo,California,Inyo,2021-04-04 13:35:41.434074,2020-03-18 00:00:00.000000,0.02359694,0.06293785,0.14635936,4,11,26,1,4,11,0.00760588,0.02561652,0.06465431,0.33635105,0.47456975,0.71661852
6027,0,USCaliforniaInyo,California,Inyo,2021-04-04 13:35:41.434074,2020-03-19 00:00:00.000000,0.02792403,0.07319360,0.16021586,5,13,28,1,5,12,0.01092927,0.03035311,0.07094979,0.31353127,0.45699358,0.71255737
6027,0,USCaliforniaInyo,California,Inyo,2021-04-04 13:35:41.434074,2020-03-20 00:00:00.000000,0.03375744,0.08628914,0.18168388,6,15,32,2,6,14,0.01341337,0.03462888,0.07900553,0.27987293,0.42725206,0.67511393
6027,0,USCaliforniaInyo,California,Inyo,2021-04-04 13:35:41.434074,2020-03-21 00:00:00.000000,0.03781273,0.09356455,0.20063632,6,16,36,2,7,16,0.01549036,0.03942086,0.09114791,0.26353013,0.40454888,0.66728042
6027,0,USCaliforniaInyo,California,Inyo,2021-04-04 13:35:41.434074,2020-03-22 00:00:00.000000,0.04182073,0.10315842,0.22235301,7,18,40,3,7,18,0.01833348,0.04361184,0.10297508,0.24114707,0.37959538,0.64364729
6027,0,USCaliforniaInyo,California,Inyo,2021-04-04 13:35:41.434074,2020-03-23 00:00:00.000000,0.05372704,0.11183495,0.23373241,9,20,42,3,8,20,0.02062404,0.04851352,0.11377048,0.23170783,0.35709774,0.59015271
6027,0,USCaliforniaInyo,California,Inyo,2021-04-04 13:35:41.434074,2020-03-24 00:00:00.000000,0.06154990,0.12177422,0.24527303,11,21,44,4,9,22,0.02399548,0.05448267,0.12668457,0.22960515,0.34536101,0.54394519
6027,0,USCaliforniaInyo,California,Inyo,2021-04-04 13:35:41.434074,2020-03-25 00:00:00.000000,0.06877255,0.13298069,0.25776804,12,23,46,5,10,25,0.02814847,0.06029990,0.14015975,0.22837512,0.33532492,0.50869781
6027,0,USCaliforniaInyo,California,Inyo,2021-04-04 13:35:41.434074,2020-03-26 00:00:00.000000,0.07532236,0.14517466,0.26884037,13,26,48,5,11,26,0.03153127,0.06538839,0.14932833,0.22605038,0.32212161,0.48525633
6027,0,USCaliforniaInyo,California,Inyo,2021-04-04 13:35:41.434074,2020-03-27 00:00:00.000000,0.08116809,0.15384971,0.28775602,14,27,51,6,12,27,0.03497779,0.06959381,0.15051318,0.20578218,0.30569688,0.47893642
6027,0,USCaliforniaInyo,California,Inyo,2021-04-04 13:35:41.434074,2020-03-28 00:00:00.000000,0.08611040,0.16259778,0.30450624,15,29,54,6,13,27,0.03837993,0.07613750,0.15045729,0.19995105,0.28634206,0.45335202
6027,0,USCaliforniaInyo,California,Inyo,2021-04-04 13:35:41.434074,2020-03-29 00:00:00.000000,0.09058552,0.17278454,0.31827907,16,31,57,7,15,28,0.04167017,0.08361997,0.15772448,0.18578762,0.27393180,0.41684515
6027,0,USCaliforniaInyo,California,Inyo,2021-04-04 13:35:41.434074,2020-03-30 00:00:00.000000,0.09770886,0.18016200,0.32329291,17,32,58,8,16,30,0.04480846,0.08885693,0.16632275,0.17482248,0.26251417,0.38021767
6027,0,USCaliforniaInyo,California,Inyo,2021-04-04 13:35:41.434074,2020-03-31 00:00:00.000000,0.10478100,0.19030256,0.32812678,18,34,59,8,17,31,0.04832371,0.09478591,0.17185502,0.17043862,0.24805874,0.34525468
6027,0,USCaliforniaInyo,California,Inyo,2021-04-04 13:35:41.434074,2020-04-01 00:00:00.000000,0.11185808,0.20063048,0.34023464,20,36,61,9,18,32,0.05195690,0.10059657,0.17828748,0.16631691,0.24040247,0.33374094
6027,0,USCaliforniaInyo,California,Inyo,2021-04-04 13:35:41.434074,2020-04-02 00:00:00.000000,0.11528366,0.20855906,0.35122177,20,37,63,10,19,33,0.05556668,0.10561725,0.18637127,0.15897308,0.22862477,0.31329602
6027,0,USCaliforniaInyo,California,Inyo,2021-04-04 13:35:41.434074,2020-04-03 00:00:00.000000,0.11851283,0.21316108,0.36155391,21,38,65,10,19,34,0.05906983,0.11061081,0.19342026,0.15397343,0.21775699,0.31590156
6027,0,USCaliforniaInyo,California,Inyo,2021-04-04 13:35:41.434074,2020-04-04 00:00:00.000000,0.12149702,0.22161397,0.37126287,21,39,66,11,20,36,0.06237431,0.11404789,0.19980150,0.14978478,0.20763118,0.31495966
6027,0,USCaliforniaInyo,California,Inyo,2021-04-04 13:35:41.434074,2020-04-05 00:00:00.000000,0.12520706,0.22414699,0.38010977,22,40,68,11,21,37,0.06543013,0.11797708,0.20569507,0.14507632,0.20221156,0.31042843
6027,0,USCaliforniaInyo,California,Inyo,2021-04-04 13:35:41.434074,2020-04-06 00:00:00.000000,0.13271331,0.22495165,0.38171112,23,40,68,12,21,38,0.06812279,0.12072846,0.21109055,0.13996051,0.19737730,0.30718972
6027,0,USCaliforniaInyo,California,Inyo,2021-04-04 13:35:41.434074,2020-04-07 00:00:00.000000,0.13089508,0.22782850,0.39090822,23,41,70,12,22,38,0.07123298,0.12378089,0.21414584,0.13478974,0.19392075,0.29695039
6027,0,USCaliforniaInyo,California,Inyo,2021-04-04 13:35:41.434074,2020-04-08 00:00:00.000000,0.13624791,0.23069597,0.40156699,24,41,72,13,22,39,0.07322017,0.12397498,0.21926343,0.12720063,0.18961386,0.28453823
6027,0,USCaliforniaInyo,California,Inyo,2021-04-04 13:35:41.434074,2020-04-09 00:00:00.000000,0.14141497,0.23095914,0.41037344,25,41,74,13,22,40,0.07301192,0.12394163,0.22621000,0.12215120,0.18517665,0.28119563
6027,0,USCaliforniaInyo,California,Inyo,2021-04-04 13:35:41.434074,2020-04-10 00:00:00.000000,0.13659381,0.23078290,0.40447035,24,41,72,13,22,41,0.07424460,0.12525426,0.23264491,0.11986703,0.18037694,0.27095392
6027,0,USCaliforniaInyo,California,Inyo,2021-04-04 13:35:41.434074,2020-04-11 00:00:00.000000,0.13528999,0.23030109,0.40910064,24,41,73,13,22,43,0.07541513,0.12546927,0.23845583,0.11888105,0.17759321,0.26142739
6027,0,USCaliforniaInyo,California,Inyo,2021-04-04 13:35:41.434074,2020-04-12 00:00:00.000000,0.13610587,0.23372543,0.42072954,24,42,75,13,22,43,0.07216849,0.12573574,0.24339173,0.11543980,0.17071988,0.25421162
6027,0,USCaliforniaInyo,California,Inyo,2021-04-04 13:35:41.434074,2020-04-13 00:00:00.000000,0.13339765,0.23461834,0.42329997,24,42,76,12,22,44,0.06832561,0.12610409,0.24715733,0.11491345,0.16660887,0.24403458
6027,0,USCaliforniaInyo,California,Inyo,2021-04-04 13:35:41.434074,2020-04-14 00:00:00.000000,0.12821381,0.23705418,0.43136370,23,42,77,12,23,45,0.06697714,0.12822497,0.25053413,0.10248412,0.16202703,0.24137527
6027,0,USCaliforniaInyo,California,Inyo,2021-04-04 13:35:41.434074,2020-04-15 00:00:00.000000,0.13060354,0.23865240,0.43749004,23,43,78,12,23,46,0.06889174,0.13063546,0.25714972,0.10007485,0.15813660,0.24328709
6027,0,USCaliforniaInyo,California,Inyo,2021-04-04 13:35:41.434074,2020-04-16 00:00:00.000000,0.12848183,0.23618302,0.44171739,23,42,79,12,23,46,0.07127779,0.12892743,0.25628811,0.09847156,0.15527539,0.24546543
6027,0,USCaliforniaInyo,California,Inyo,2021-04-04 13:35:41.434074,2020-04-17 00:00:00.000000,0.12636385,0.23341508,0.44313896,22,42,79,12,23,46,0.06758389,0.12908433,0.25705200,0.09587129,0.15369041,0.24089427
6027,0,USCaliforniaInyo,California,Inyo,2021-04-04 13:35:41.434074,2020-04-18 00:00:00.000000,0.12427154,0.23073450,0.44359599,22,41,80,11,22,46,0.06397843,0.12733587,0.25818704,0.09336615,0.15143187,0.23798688
6027,0,USCaliforniaInyo,California,Inyo,2021-04-04 13:35:41.434074,2020-04-19 00:00:00.000000,0.11988105,0.22802548,0.43293747,21,41,78,11,22,46,0.06131804,0.12658474,0.25895017,0.08944696,0.15251253,0.23372506
6027,0,USCaliforniaInyo,California,Inyo,2021-04-04 13:35:41.434074,2020-04-20 00:00:00.000000,0.11094548,0.21720991,0.41391787,20,39,74,10,22,46,0.06035173,0.12669028,0.25926157,0.08597215,0.15133014,0.23191351
6027,0,USCaliforniaInyo,California,Inyo,2021-04-04 13:35:41.434074,2020-04-21 00:00:00.000000,0.10226024,0.20767965,0.39541788,18,37,71,10,22,46,0.05881773,0.12509981,0.25618546,0.08438296,0.14667303,0.23010082
6027,0,USCaliforniaInyo,California,Inyo,2021-04-04 13:35:41.434074,2020-04-22 00:00:00.000000,0.09376927,0.19767598,0.37875927,16,35,68,10,21,45,0.05685161,0.12107180,0.25110375,0.08341448,0.14460611,0.22773061
6027,0,USCaliforniaInyo,California,Inyo,2021-04-04 13:35:41.434074,2020-04-23 00:00:00.000000,0.08562096,0.18935292,0.37585729,15,34,67,9,21,44,0.05380246,0.11676071,0.24483603,0.08321377,0.14406169,0.22160580
6027,0,USCaliforniaInyo,California,Inyo,2021-04-04 13:35:41.434074,2020-04-24 00:00:00.000000,0.07793371,0.17908601,0.37240518,14,32,67,8,20,42,0.04936251,0.11105304,0.23782126,0.08318683,0.14235812,0.20808712
6027,0,USCaliforniaInyo,California,Inyo,2021-04-04 13:35:41.434074,2020-04-25 00:00:00.000000,0.07077801,0.17008911,0.36180281,12,30,65,8,19,41,0.04509936,0.10639453,0.23143761,0.08316111,0.13693108,0.19657053
6027,0,USCaliforniaInyo,California,Inyo,2021-04-04 13:35:41.434074,2020-04-26 00:00:00.000000,0.06417958,0.16410658,0.34861658,11,29,62,7,18,41,0.04107332,0.10108623,0.22737115,0.08314399,0.13458196,0.19238587
6027,0,USCaliforniaInyo,California,Inyo,2021-04-04 13:35:41.434074,2020-04-27 00:00:00.000000,0.05813437,0.15732635,0.33569742,10,28,60,6,17,40,0.03731920,0.09639547,0.22302052,0.08315882,0.13210846,0.19289800
6027,0,USCaliforniaInyo,California,Inyo,2021-04-04 13:35:41.434074,2020-04-28 00:00:00.000000,0.05262382,0.14893213,0.32317813,9,26,58,6,16,39,0.03385131,0.09225107,0.21850636,0.08323548,0.13128708,0.19102247
6027,0,USCaliforniaInyo,California,Inyo,2021-04-04 13:35:41.434074,2020-04-29 00:00:00.000000,0.04764431,0.13945195,0.31106154,8,25,56,5,15,38,0.03067013,0.08577631,0.21386034,0.08433109,0.13094388,0.18833841
6027,0,USCaliforniaInyo,California,Inyo,2021-04-04 13:35:41.434074,2020-04-30 00:00:00.000000,0.04323451,0.13182506,0.29997292,7,23,54,5,14,37,0.02777402,0.08176606,0.20710113,0.08657545,0.13158622,0.18562915
6027,0,USCaliforniaInyo,California,Inyo,2021-04-04 13:35:41.434074,2020-05-01 00:00:00.000000,0.03929537,0.12284419,0.29100414,7,22,52,4,13,35,0.02517283,0.07749113,0.19887174,0.08652218,0.13070019,0.19024878
6027,0,USCaliforniaInyo,California,Inyo,2021-04-04 13:35:41.434074,2020-05-02 00:00:00.000000,0.03573650,0.11489542,0.27924815,6,20,50,4,13,34,0.02284440,0.07339829,0.19086891,0.08650695,0.13068830,0.19221419
6027,0,USCaliforniaInyo,California,Inyo,2021-04-04 13:35:41.434074,2020-05-03 00:00:00.000000,0.03251319,0.10875538,0.26843107,5,19,48,3,12,33,0.02075602,0.06927578,0.18317551,0.08408733,0.12982270,0.20614610
6027,0,USCaliforniaInyo,California,Inyo,2021-04-04 13:35:41.434074,2020-05-04 00:00:00.000000,0.02958902,0.10367205,0.25878437,5,18,46,3,11,31,0.01887215,0.06613609,0.17591221,0.08238478,0.12960183,0.21105522
6027,0,USCaliforniaInyo,California,Inyo,2021-04-04 13:35:41.434074,2020-05-05 00:00:00.000000,0.02693317,0.09858871,0.25018012,4,17,45,3,11,30,0.01716749,0.06291131,0.16921257,0.08033710,0.12937408,0.21209917
6027,0,USCaliforniaInyo,California,Inyo,2021-04-04 13:35:41.434074,2020-05-06 00:00:00.000000,0.02451917,0.09343458,0.24228595,4,16,43,2,10,29,0.01562198,0.05894303,0.16311587,0.07903025,0.12732779,0.21225823
6027,0,USCaliforniaInyo,California,Inyo,2021-04-04 13:35:41.434074,2020-05-07 00:00:00.000000,0.02232399,0.08873297,0.23487834,4,16,42,2,9,28,0.01421887,0.05535016,0.15754920,0.07884958,0.12547246,0.21218376
6027,0,USCaliforniaInyo,California,Inyo,2021-04-04 13:35:41.434074,2020-05-08 00:00:00.000000,0.02032755,0.08374075,0.22785101,3,15,41,2,9,27,0.01294395,0.05231326,0.15240747,0.07784708,0.12658143,0.21195989
6027,0,USCaliforniaInyo,California,Inyo,2021-04-04 13:35:41.434074,2020-05-09 00:00:00.000000,0.01851271,0.07889120,0.22116314,3,14,39,2,8,26,0.01178492,0.04924504,0.14760292,0.07770673,0.12524998,0.21158267
6027,0,USCaliforniaInyo,California,Inyo,2021-04-04 13:35:41.434074,2020-05-10 00:00:00.000000,0.01686636,0.07522107,0.21479334,3,13,38,1,8,25,0.01073126,0.04635221,0.14307396,0.07689411,0.12573123,0.21120356
6027,0,USCaliforniaInyo,California,Inyo,2021-04-04 13:35:41.434074,2020-05-11 00:00:00.000000,0.02647493,0.07768082,0.21565392,4,14,38,1,7,25,0.00977435,0.04431413,0.13877901,0.07581097,0.12550017,0.21140818
6027,0,USCaliforniaInyo,California,Inyo,2021-04-04 13:35:41.434074,2020-05-12 00:00:00.000000,0.03514999,0.08187393,0.21953357,6,14,39,2,7,24,0.01178108,0.04349400,0.13667889,0.07560841,0.12980138,0.21370620
6027,0,USCaliforniaInyo,California,Inyo,2021-04-04 13:35:41.434074,2020-05-13 00:00:00.000000,0.04338635,0.08620028,0.22140516,7,15,39,2,7,24,0.01561164,0.04327694,0.13592499,0.07547347,0.13000199,0.21458138
6027,0,USCaliforniaInyo,California,Inyo,2021-04-04 13:35:41.434074,2020-05-14 00:00:00.000000,0.04612771,0.08922022,0.22025770,8,16,39,3,7,24,0.01980938,0.04390955,0.13599697,0.07437194,0.13096103,0.21347226
6027,0,USCaliforniaInyo,California,Inyo,2021-04-04 13:35:41.434074,2020-05-15 00:00:00.000000,0.04888097,0.09410115,0.21907269,8,16,39,4,8,24,0.02305890,0.04546703,0.13657443,0.07520818,0.12740120,0.21262943
6027,0,USCaliforniaInyo,California,Inyo,2021-04-04 13:35:41.434074,2020-05-16 00:00:00.000000,0.05158086,0.09885386,0.21777517,9,17,39,4,8,24,0.02491998,0.04821098,0.13724080,0.07552941,0.13136706,0.21205444
6027,0,USCaliforniaInyo,California,Inyo,2021-04-04 13:35:41.434074,2020-05-17 00:00:00.000000,0.05418979,0.10018600,0.22569658,9,18,40,4,9,24,0.02725676,0.05191539,0.13801534,0.07560451,0.13468683,0.21571806
6027,0,USCaliforniaInyo,California,Inyo,2021-04-04 13:35:41.434074,2020-05-18 00:00:00.000000,0.05920728,0.11054736,0.22403794,10,19,40,5,9,24,0.02869156,0.05420898,0.13656803,0.07613738,0.13576381,0.22271485
6027,0,USCaliforniaInyo,California,Inyo,2021-04-04 13:35:41.434074,2020-05-19 00:00:00.000000,0.06224887,0.11604733,0.22222164,11,20,40,5,10,24,0.03015347,0.05693104,0.13781982,0.07660845,0.13577526,0.22703995
6027,0,USCaliforniaInyo,California,Inyo,2021-04-04 13:35:41.434074,2020-05-20 00:00:00.000000,0.06453158,0.12068475,0.22047965,11,21,39,5,10,24,0.03158756,0.05961187,0.13827479,0.07684020,0.13452399,0.23080480
6027,0,USCaliforniaInyo,California,Inyo,2021-04-04 13:35:41.434074,2020-05-21 00:00:00.000000,0.06673761,0.12480688,0.22024545,12,22,39,5,11,24,0.03298492,0.06244004,0.13530114,0.07610113,0.13495060,0.22908331
6027,0,USCaliforniaInyo,California,Inyo,2021-04-04 13:35:41.434074,2020-05-22 00:00:00.000000,0.06886288,0.13040223,0.22595739,12,23,40,6,11,23,0.03432944,0.06487198,0.13043299,0.07730102,0.13374760,0.22616117
6027,0,USCaliforniaInyo,California,Inyo,2021-04-04 13:35:41.434074,2020-05-23 00:00:00.000000,0.07095153,0.13545173,0.23179763,12,24,41,6,12,23,0.03561128,0.06800715,0.12984819,0.07810569,0.13244614,0.22013527
6027,0,USCaliforniaInyo,California,Inyo,2021-04-04 13:35:41.434074,2020-05-24 00:00:00.000000,0.07170315,0.13727400,0.23758949,12,24,42,6,12,23,0.03594579,0.07189563,0.12984189,0.07854231,0.13223550,0.22125463
6027,0,USCaliforniaInyo,California,Inyo,2021-04-04 13:35:41.434074,2020-05-25 00:00:00.000000,0.07265323,0.13996960,0.23629375,13,25,42,6,13,23,0.03659306,0.07419940,0.12909559,0.07884971,0.13155359,0.22153748
6027,0,USCaliforniaInyo,California,Inyo,2021-04-04 13:35:41.434074,2020-05-26 00:00:00.000000,0.07402282,0.14119361,0.23489281,13,25,42,7,13,22,0.03898277,0.07422142,0.12633534,0.07926734,0.13193322,0.22150349
6027,0,USCaliforniaInyo,California,Inyo,2021-04-04 13:35:41.434074,2020-05-27 00:00:00.000000,0.07622850,0.14972590,0.24175966,13,27,43,7,13,22,0.04014769,0.07646254,0.12626364,0.07583316,0.13234340,0.22120860
6027,0,USCaliforniaInyo,California,Inyo,2021-04-04 13:35:41.434074,2020-05-28 00:00:00.000000,0.07997959,0.14858727,0.24161182,14,26,43,7,14,22,0.04201124,0.07796637,0.12748072,0.06879133,0.13595395,0.22036401
6027,0,USCaliforniaInyo,California,Inyo,2021-04-04 13:35:41.434074,2020-05-29 00:00:00.000000,0.08347236,0.15247575,0.24066357,15,27,43,7,14,23,0.04371390,0.08111062,0.13230156,0.07892948,0.13188147,0.21906047
6027,0,USCaliforniaInyo,California,Inyo,2021-04-04 13:35:41.434074,2020-05-30 00:00:00.000000,0.08673371,0.15393103,0.26996188,15,27,48,8,15,24,0.04601570,0.08467470,0.13314705,0.07975905,0.13275059,0.23685046
6027,0,USCaliforniaInyo,California,Inyo,2021-04-04 13:35:41.434074,2020-05-31 00:00:00.000000,0.08979667,0.15246612,0.27630643,16,27,49,8,15,25,0.04831756,0.08368425,0.13957409,0.08118674,0.13444682,0.24455454
6027,0,USCaliforniaInyo,California,Inyo,2021-04-04 13:35:41.434074,2020-06-01 00:00:00.000000,0.09135375,0.15616160,0.27307704,16,28,49,9,15,26,0.05016877,0.08359881,0.14747002,0.08300017,0.13676379,0.24231771
6027,0,USCaliforniaInyo,California,Inyo,2021-04-04 13:35:41.434074,2020-06-02 00:00:00.000000,0.09277890,0.16065143,0.27011593,16,28,48,9,15,27,0.05146779,0.08409190,0.15225553,0.08501701,0.14014902,0.22690125
6027,0,USCaliforniaInyo,California,Inyo,2021-04-04 13:35:41.434074,2020-06-03 00:00:00.000000,0.09404676,0.16362552,0.26990803,16,29,48,9,15,27,0.05246380,0.08653140,0.15503373,0.08536442,0.14010851,0.22714819
6027,0,USCaliforniaInyo,California,Inyo,2021-04-04 13:35:41.434074,2020-06-04 00:00:00.000000,0.09316890,0.16656940,0.28019677,16,30,50,9,15,28,0.05329002,0.08818278,0.15647765,0.08808031,0.14315819,0.22938720
6027,0,USCaliforniaInyo,California,Inyo,2021-04-04 13:35:41.434074,2020-06-05 00:00:00.000000,0.09523710,0.16947247,0.29332436,17,30,52,9,16,28,0.05400934,0.08987950,0.15711457,0.08938318,0.14281072,0.23587681
6027,0,USCaliforniaInyo,California,Inyo,2021-04-04 13:35:41.434074,2020-06-06 00:00:00.000000,0.09654566,0.17317824,0.30146975,17,31,54,9,16,28,0.05394812,0.08975481,0.15727129,0.08996686,0.14352107,0.23834456
6027,0,USCaliforniaInyo,California,Inyo,2021-04-04 13:35:41.434074,2020-06-07 00:00:00.000000,0.09698407,0.17428878,0.31089210,17,31,56,9,16,29,0.05302998,0.08948862,0.16555420,0.09030350,0.14833010,0.24145489
6027,0,USCaliforniaInyo,California,Inyo,2021-04-04 13:35:41.434074,2020-06-08 00:00:00.000000,0.10238314,0.17742552,0.31762811,18,32,57,9,16,31,0.05427882,0.09085168,0.17420382,0.09050882,0.15051918,0.24444734
6027,0,USCaliforniaInyo,California,Inyo,2021-04-04 13:35:41.434074,2020-06-09 00:00:00.000000,0.10608950,0.18037215,0.31656394,19,32,57,10,16,31,0.05631942,0.09393320,0.17534172,0.09068551,0.15524599,0.24792520
6027,0,USCaliforniaInyo,California,Inyo,2021-04-04 13:35:41.434074,2020-06-10 00:00:00.000000,0.10907966,0.18368032,0.31471690,19,33,56,10,17,31,0.05865419,0.09606850,0.17643478,0.09098622,0.15755003,0.25561065
6027,0,USCaliforniaInyo,California,Inyo,2021-04-04 13:35:41.434074,2020-06-11 00:00:00.000000,0.11244581,0.18630192,0.31233311,20,33,56,10,17,31,0.06071196,0.09900082,0.17649506,0.09178063,0.15946789,0.26017531
6027,0,USCaliforniaInyo,California,Inyo,2021-04-04 13:35:41.434074,2020-06-12 00:00:00.000000,0.11638076,0.18877853,0.31090918,20,34,56,10,18,33,0.06071455,0.10199719,0.18638200,0.09406270,0.16364948,0.27198205
6027,0,USCaliforniaInyo,California,Inyo,2021-04-04 13:35:41.434074,2020-06-13 00:00:00.000000,0.11741799,0.19168151,0.33556342,21,34,60,11,18,35,0.06228969,0.10489850,0.19470168,0.10000596,0.16737837,0.29515015
6027,0,USCaliforniaInyo,California,Inyo,2021-04-04 13:35:41.434074,2020-06-14 00:00:00.000000,0.11987273,0.19498820,0.37640092,21,35,67,11,18,36,0.06381018,0.10462951,0.20142904,0.10653261,0.17001328,0.30077084
6027,0,USCaliforniaInyo,California,Inyo,2021-04-04 13:35:41.434074,2020-06-15 00:00:00.000000,0.12272465,0.19935969,0.38920690,22,35,70,11,19,37,0.06526302,0.10556402,0.20825690,0.10562848,0.17443688,0.30177388
6027,0,USCaliforniaInyo,California,Inyo,2021-04-04 13:35:41.434074,2020-06-16 00:00:00.000000,0.12602908,0.20443010,0.40087599,22,36,72,11,19,38,0.06638587,0.10748148,0.21332776,0.09883794,0.17664160,0.30188413
6027,0,USCaliforniaInyo,California,Inyo,2021-04-04 13:35:41.434074,2020-06-17 00:00:00.000000,0.12987141,0.21058879,0.40818408,23,37,73,12,20,39,0.06965244,0.11153572,0.21684615,0.09435882,0.18221193,0.30919443
6027,0,USCaliforniaInyo,California,Inyo,2021-04-04 13:35:41.434074,2020-06-18 00:00:00.000000,0.13372404,0.21595500,0.41629658,24,38,75,12,20,39,0.07025399,0.11207643,0.22035970,0.09242891,0.19388973,0.31646768
6027,0,USCaliforniaInyo,California,Inyo,2021-04-04 13:35:41.434074,2020-06-19 00:00:00.000000,0.13452313,0.22025080,0.42675064,24,39,76,13,20,39,0.07556949,0.11370259,0.21935307,0.09230105,0.19615865,0.31856310
6027,0,USCaliforniaInyo,California,Inyo,2021-04-04 13:35:41.434074,2020-06-20 00:00:00.000000,0.13460329,0.22363647,0.43859250,24,40,79,13,20,40,0.07499365,0.11486109,0.22362090,0.09614231,0.20500391,0.31842320
6027,0,USCaliforniaInyo,California,Inyo,2021-04-04 13:35:41.434074,2020-06-21 00:00:00.000000,0.13513475,0.22538771,0.44537400,24,40,80,13,21,41,0.07433290,0.11667453,0.22848520,0.10565459,0.20939505,0.31431183
6027,0,USCaliforniaInyo,California,Inyo,2021-04-04 13:35:41.434074,2020-06-22 00:00:00.000000,0.13724787,0.23339827,0.45715176,24,42,82,13,21,41,0.07380477,0.11959370,0.23269434,0.10786577,0.21482817,0.31456079
6027,0,USCaliforniaInyo,California,Inyo,2021-04-04 13:35:41.434074,2020-06-23 00:00:00.000000,0.13674204,0.24108689,0.47529631,24,43,85,13,22,42,0.07457141,0.12323834,0.23786058,0.11691709,0.22504229,0.31728761
6027,0,USCaliforniaInyo,California,Inyo,2021-04-04 13:35:41.434074,2020-06-24 00:00:00.000000,0.14086176,0.25286965,0.49454567,25,45,89,13,23,43,0.07623475,0.12884743,0.24353888,0.12501246,0.23093474,0.32447013
6027,0,USCaliforniaInyo,California,Inyo,2021-04-04 13:35:41.434074,2020-06-25 00:00:00.000000,0.14676438,0.26619475,0.51392862,26,48,92,14,24,45,0.07857243,0.13385729,0.24948402,0.12932132,0.23806001,0.32735748
6027,0,USCaliforniaInyo,California,Inyo,2021-04-04 13:35:41.434074,2020-06-26 00:00:00.000000,0.15165106,0.26636388,0.53379654,27,48,96,14,25,46,0.07887292,0.13879958,0.25554137,0.12859553,0.24192697,0.32884309
6027,0,USCaliforniaInyo,California,Inyo,2021-04-04 13:35:41.434074,2020-06-27 00:00:00.000000,0.15709771,0.27595077,0.55447179,28,49,100,14,25,47,0.08154943,0.14386972,0.26157423,0.15152969,0.24385392,0.33051397
6027,0,USCaliforniaInyo,California,Inyo,2021-04-04 13:35:41.434074,2020-06-28 00:00:00.000000,0.16283603,0.28414359,0.57233455,29,51,103,15,26,48,0.08464331,0.14658985,0.26739807,0.15988299,0.25041820,0.33742469
6027,0,USCaliforniaInyo,California,Inyo,2021-04-04 13:35:41.434074,2020-06-29 00:00:00.000000,0.16412491,0.29235623,0.59549600,29,52,107,15,27,49,0.08763390,0.15096792,0.27280060,0.16013869,0.25762377,0.35006765
6027,0,USCaliforniaInyo,California,Inyo,2021-04-04 13:35:41.434074,2020-06-30 00:00:00.000000,0.17084433,0.30739183,0.62051510,30,55,111,15,27,50,0.08830467,0.15434435,0.27961233,0.16193421,0.26903293,0.36075249
6027,0,USCaliforniaInyo,California,Inyo,2021-04-04 13:35:41.434074,2020-07-01 00:00:00.000000,0.17766106,0.31412148,0.64658073,32,56,116,15,29,52,0.08782298,0.16406252,0.29326135,0.16220018,0.27815217,0.36843477
6027,0,USCaliforniaInyo,California,Inyo,2021-04-04 13:35:41.434074,2020-07-02 00:00:00.000000,0.18370482,0.32767297,0.65782878,33,59,118,16,30,56,0.09126407,0.16670112,0.31272329,0.16502171,0.28799501,0.37966630
6027,0,USCaliforniaInyo,California,Inyo,2021-04-04 13:35:41.434074,2020-07-03 00:00:00.000000,0.18780363,0.33667927,0.66918328,33,60,120,17,30,61,0.09481297,0.17040118,0.34035065,0.16754503,0.29278663,0.40792434
6027,0,USCaliforniaInyo,California,Inyo,2021-04-04 13:35:41.434074,2020-07-04 00:00:00.000000,0.18887045,0.34825467,0.70196235,34,62,126,17,32,64,0.09860767,0.17867229,0.35946068,0.17143410,0.30483783,0.44277123
6027,0,USCaliforniaInyo,California,Inyo,2021-04-04 13:35:41.434074,2020-07-05 00:00:00.000000,0.19477394,0.36655787,0.76838677,35,66,138,18,33,67,0.10250775,0.18600065,0.37343484,0.17563558,0.31558130,0.46979670
6027,0,USCaliforniaInyo,California,Inyo,2021-04-04 13:35:41.434074,2020-07-06 00:00:00.000000,0.21442849,0.38119901,0.80408868,38,68,145,19,34,72,0.10650244,0.19335983,0.40162043,0.18185309,0.31903576,0.50258578
6027,0,USCaliforniaInyo,California,Inyo,2021-04-04 13:35:41.434074,2020-07-07 00:00:00.000000,0.21971112,0.40018089,0.84140442,39,72,151,20,36,78,0.11469849,0.20229916,0.43307333,0.22466295,0.32533758,0.50641904
6027,0,USCaliforniaInyo,California,Inyo,2021-04-04 13:35:41.434074,2020-07-08 00:00:00.000000,0.22785311,0.41705856,0.88030795,41,75,158,21,38,84,0.11713969,0.21310084,0.46746347,0.22656996,0.33298485,0.50348302
6027,0,USCaliforniaInyo,California,Inyo,2021-04-04 13:35:41.434074,2020-07-09 00:00:00.000000,0.23971348,0.44263324,0.92089049,43,79,166,21,40,90,0.12173607,0.22418588,0.50435078,0.23341352,0.34800036,0.50641709
6027,0,USCaliforniaInyo,California,Inyo,2021-04-04 13:35:41.434074,2020-07-10 00:00:00.000000,0.25205536,0.47452120,0.96342099,45,85,173,23,42,98,0.12830641,0.23664110,0.54404939,0.24457646,0.35525000,0.50927193
6027,0,USCaliforniaInyo,California,Inyo,2021-04-04 13:35:41.434074,2020-07-11 00:00:00.000000,0.26489896,0.50539123,1.00826319,47,91,181,24,44,105,0.13608592,0.24865153,0.58658284,0.24938618,0.37492686,0.51419127
6027,0,USCaliforniaInyo,California,Inyo,2021-04-04 13:35:41.434074,2020-07-12 00:00:00.000000,0.27829694,0.54516683,1.05553899,50,98,190,26,47,114,0.14548409,0.26419186,0.63201074,0.25148372,0.38978661,0.51933684
6027,0,USCaliforniaInyo,California,Inyo,2021-04-04 13:35:41.434074,2020-07-13 00:00:00.000000,0.31297241,0.58404118,1.10437340,56,105,199,28,50,120,0.15694422,0.27960461,0.66529617,0.25599562,0.40142577,0.53243113
6027,0,USCaliforniaInyo,California,Inyo,2021-04-04 13:35:41.434074,2020-07-14 00:00:00.000000,0.33295735,0.62202197,1.16184436,60,112,209,30,53,125,0.16834264,0.29751559,0.69628843,0.26522321,0.40764793,0.55888554
6027,0,USCaliforniaInyo,California,Inyo,2021-04-04 13:35:41.434074,2020-07-15 00:00:00.000000,0.35412863,0.66158929,1.25175343,63,119,225,32,57,131,0.18232877,0.31832732,0.72862089,0.26833897,0.42068537,0.59215665
6027,0,USCaliforniaInyo,California,Inyo,2021-04-04 13:35:41.434074,2020-07-16 00:00:00.000000,0.37656263,0.71005252,1.34535544,67,128,242,35,60,137,0.19859581,0.33661562,0.76226410,0.28021522,0.42212755,0.62554476
6027,0,USCaliforniaInyo,California,Inyo,2021-04-04 13:35:41.434074,2020-07-17 00:00:00.000000,0.40202033,0.77130235,1.44274689,72,139,260,38,64,143,0.21112019,0.35971710,0.79716612,0.29385722,0.42787305,0.66170330
6027,0,USCaliforniaInyo,California,Inyo,2021-04-04 13:35:41.434074,2020-07-18 00:00:00.000000,0.43497654,0.82820930,1.54414572,78,149,278,40,69,150,0.22498466,0.38678456,0.83328448,0.31631450,0.44434672,0.65399645
6027,0,USCaliforniaInyo,California,Inyo,2021-04-04 13:35:41.434074,2020-07-19 00:00:00.000000,0.47312129,0.89176506,1.67547937,85,160,302,43,75,157,0.24192288,0.41579617,0.87066332,0.32187983,0.45393603,0.63650511
6027,0,USCaliforniaInyo,California,Inyo,2021-04-04 13:35:41.434074,2020-07-20 00:00:00.000000,0.51663245,0.96716598,1.79590932,93,174,323,47,80,164,0.26308000,0.44757107,0.90963382,0.33188781,0.46725365,0.62167580
6027,0,USCaliforniaInyo,California,Inyo,2021-04-04 13:35:41.434074,2020-07-21 00:00:00.000000,0.56212810,1.04396247,1.92990597,101,188,348,51,88,171,0.28588569,0.48932610,0.95221715,0.35154688,0.48029259,0.67243913
6027,0,USCaliforniaInyo,California,Inyo,2021-04-04 13:35:41.434074,2020-07-22 00:00:00.000000,0.61132658,1.14142582,2.07620531,110,205,374,56,97,181,0.31072636,0.54294800,1.00381534,0.35489371,0.49442966,0.66716149
6027,0,USCaliforniaInyo,California,Inyo,2021-04-04 13:35:41.434074,2020-07-23 00:00:00.000000,0.66402870,1.22927797,2.23468430,119,221,403,60,104,190,0.33794575,0.57930152,1.05492795,0.36445191,0.49777851,0.65525672
6027,0,USCaliforniaInyo,California,Inyo,2021-04-04 13:35:41.434074,2020-07-24 00:00:00.000000,0.72644361,1.32326466,2.40511362,131,238,433,66,112,200,0.36818345,0.62269262,1.10935398,0.36438130,0.49530020,0.66960415
6027,0,USCaliforniaInyo,California,Inyo,2021-04-04 13:35:41.434074,2020-07-25 00:00:00.000000,0.79885917,1.44754058,2.58645867,144,261,466,71,121,217,0.39631260,0.67267159,1.20393763,0.35869723,0.49650936,0.68266497
6027,0,USCaliforniaInyo,California,Inyo,2021-04-04 13:35:41.434074,2020-07-26 00:00:00.000000,0.87437198,1.56311090,2.77435013,157,281,500,75,131,230,0.41757255,0.72972243,1.27827487,0.34854305,0.49450030,0.66049551
6027,0,USCaliforniaInyo,California,Inyo,2021-04-04 13:35:41.434074,2020-07-27 00:00:00.000000,0.96002004,1.67297910,2.91148871,173,301,525,79,139,236,0.44089162,0.77499023,1.31319447,0.33153591,0.48921921,0.63657274
6027,0,USCaliforniaInyo,California,Inyo,2021-04-04 13:35:41.434074,2020-07-28 00:00:00.000000,1.04390253,1.80171981,3.06721633,188,325,553,85,150,250,0.47283789,0.83386592,1.38650382,0.32717711,0.49158494,0.66525572
6027,0,USCaliforniaInyo,California,Inyo,2021-04-04 13:35:41.434074,2020-07-29 00:00:00.000000,1.13374845,1.94205780,3.21667421,204,350,580,92,161,266,0.51466328,0.89702627,1.47765493,0.32390914,0.48905209,0.65794161
6027,0,USCaliforniaInyo,California,Inyo,2021-04-04 13:35:41.434074,2020-07-30 00:00:00.000000,1.23619980,2.08693160,3.33070972,222,376,600,102,174,282,0.56687522,0.96762017,1.56379438,0.32181572,0.48554218,0.66102789
6027,0,USCaliforniaInyo,California,Inyo,2021-04-04 13:35:41.434074,2020-07-31 00:00:00.000000,1.35101048,2.25905237,3.41168510,243,407,615,112,188,296,0.62251349,1.04693272,1.64476897,0.32043819,0.48220950,0.65136587
6027,0,USCaliforniaInyo,California,Inyo,2021-04-04 13:35:41.434074,2020-08-01 00:00:00.000000,1.47297218,2.36474784,3.46930226,265,426,625,122,202,310,0.68166848,1.12022235,1.72173676,0.28426105,0.46415387,0.64318368
6027,0,USCaliforniaInyo,California,Inyo,2021-04-04 13:35:41.434074,2020-08-02 00:00:00.000000,1.57086177,2.47220274,3.56970253,283,445,643,134,214,330,0.74467007,1.19060796,1.83123532,0.26238127,0.43755720,0.60697220
6027,0,USCaliforniaInyo,California,Inyo,2021-04-04 13:35:41.434074,2020-08-03 00:00:00.000000,1.67576851,2.58003490,3.68790403,302,465,665,146,227,348,0.81066178,1.25844433,1.93412600,0.25069839,0.40554279,0.60495474
6027,0,USCaliforniaInyo,California,Inyo,2021-04-04 13:35:41.434074,2020-08-04 00:00:00.000000,1.79874313,2.66525632,3.78227058,324,480,682,157,240,364,0.87127974,1.33358871,2.02111158,0.24175316,0.38918061,0.55304003
6027,0,USCaliforniaInyo,California,Inyo,2021-04-04 13:35:41.434074,2020-08-05 00:00:00.000000,1.89070944,2.72486279,3.89152752,341,491,701,167,253,378,0.92853068,1.40788374,2.09706816,0.22345316,0.37365874,0.52283369
6027,0,USCaliforniaInyo,California,Inyo,2021-04-04 13:35:41.434074,2020-08-06 00:00:00.000000,1.89237010,2.80228691,3.97246810,341,505,716,175,263,390,0.97051182,1.46128169,2.16448784,0.20195429,0.35613430,0.50297111
6027,0,USCaliforniaInyo,California,Inyo,2021-04-04 13:35:41.434074,2020-08-07 00:00:00.000000,1.95866623,2.86491014,4.00864286,353,516,723,184,269,400,1.02228372,1.49231121,2.22197781,0.17383628,0.33770348,0.49158490
6027,0,USCaliforniaInyo,California,Inyo,2021-04-04 13:35:41.434074,2020-08-08 00:00:00.000000,2.01464585,2.87253376,3.97826971,363,518,717,190,275,411,1.05507841,1.52662843,2.27942267,0.15771999,0.30390808,0.46953149
6027,0,USCaliforniaInyo,California,Inyo,2021-04-04 13:35:41.434074,2020-08-09 00:00:00.000000,2.05827707,2.84985589,3.92394450,371,514,707,191,276,417,1.06223649,1.53422515,2.31202938,0.15669248,0.27671053,0.42633248
6027,0,USCaliforniaInyo,California,Inyo,2021-04-04 13:35:41.434074,2020-08-10 00:00:00.000000,2.03315556,2.84923824,3.88685279,366,513,701,188,282,426,1.04738199,1.56857101,2.36644084,0.15273454,0.25520172,0.39417527
6027,0,USCaliforniaInyo,California,Inyo,2021-04-04 13:35:41.434074,2020-08-11 00:00:00.000000,1.99425759,2.86999655,3.85439431,359,517,695,185,284,426,1.03039227,1.57975426,2.36432817,0.13978622,0.24233086,0.36576060
6027,0,USCaliforniaInyo,California,Inyo,2021-04-04 13:35:41.434074,2020-08-12 00:00:00.000000,1.94534473,2.81690427,3.80654830,350,508,686,181,278,422,1.00503504,1.54391566,2.34108399,0.13014699,0.22233638,0.34346233
6027,0,USCaliforniaInyo,California,Inyo,2021-04-04 13:35:41.434074,2020-08-13 00:00:00.000000,1.88627446,2.74752802,3.74694906,340,495,675,176,278,416,0.97752326,1.54601454,2.31155472,0.12533560,0.20855992,0.33473911
6027,0,USCaliforniaInyo,California,Inyo,2021-04-04 13:35:41.434074,2020-08-14 00:00:00.000000,1.80409655,2.64391296,3.67497661,325,476,662,171,277,409,0.94880655,1.53702340,2.27223421,0.11594361,0.19693359,0.31999594
6027,0,USCaliforniaInyo,California,Inyo,2021-04-04 13:35:41.434074,2020-08-15 00:00:00.000000,1.67905951,2.58240361,3.58777379,302,465,647,165,273,398,0.92001860,1.51468943,2.20639414,0.11160230,0.18089836,0.30253289
6027,0,USCaliforniaInyo,California,Inyo,2021-04-04 13:35:41.434074,2020-08-16 00:00:00.000000,1.55726800,2.48402973,3.48420018,280,448,628,160,265,384,0.89246650,1.47281190,2.13331475,0.10932134,0.17446451,0.27656482
6027,0,USCaliforniaInyo,California,Inyo,2021-04-04 13:35:41.434074,2020-08-17 00:00:00.000000,1.43032672,2.39586562,3.33260180,258,432,601,156,255,370,0.86609149,1.41392854,2.05531884,0.09998607,0.16725761,0.25597512
6027,0,USCaliforniaInyo,California,Inyo,2021-04-04 13:35:41.434074,2020-08-18 00:00:00.000000,1.35278026,2.30532640,3.22865814,244,415,582,150,248,355,0.83444519,1.37838499,1.97254449,0.09348709,0.16440846,0.24274804
6027,0,USCaliforniaInyo,California,Inyo,2021-04-04 13:35:41.434074,2020-08-19 00:00:00.000000,1.31567314,2.20746491,3.12623723,237,398,563,141,241,345,0.78448294,1.33830819,1.91705993,0.09075502,0.15472837,0.23524730
6027,0,USCaliforniaInyo,California,Inyo,2021-04-04 13:35:41.434074,2020-08-20 00:00:00.000000,1.27590494,2.10398081,2.98565942,230,379,538,135,232,339,0.74982031,1.28627762,1.88260903,0.08902284,0.14901407,0.22879183
6027,0,USCaliforniaInyo,California,Inyo,2021-04-04 13:35:41.434074,2020-08-21 00:00:00.000000,1.23265470,2.00014321,2.87918027,222,360,519,129,221,332,0.71618849,1.22548211,1.84483617,0.08801105,0.13949113,0.21081582
6027,0,USCaliforniaInyo,California,Inyo,2021-04-04 13:35:41.434074,2020-08-22 00:00:00.000000,1.18866732,1.89574999,2.74360827,214,341,494,123,212,325,0.68472358,1.17739010,1.80241097,0.08718810,0.13484663,0.19188034
6027,0,USCaliforniaInyo,California,Inyo,2021-04-04 13:35:41.434074,2020-08-23 00:00:00.000000,1.14561356,1.78915684,2.60668068,206,322,470,118,203,316,0.65475986,1.13060625,1.75321915,0.08945669,0.13159524,0.18346905
6027,0,USCaliforniaInyo,California,Inyo,2021-04-04 13:35:41.434074,2020-08-24 00:00:00.000000,1.10426370,1.69025370,2.49610358,199,304,450,113,195,305,0.62643619,1.08613792,1.69591156,0.08578179,0.12807352,0.17913080
6027,0,USCaliforniaInyo,California,Inyo,2021-04-04 13:35:41.434074,2020-08-25 00:00:00.000000,1.06454346,1.61500980,2.38979793,192,291,431,108,187,295,0.59954432,1.03708415,1.63568169,0.08349332,0.12496792,0.17928629
6027,0,USCaliforniaInyo,California,Inyo,2021-04-04 13:35:41.434074,2020-08-26 00:00:00.000000,1.00929848,1.53271261,2.28533104,182,276,412,103,177,283,0.57408617,0.98587047,1.57315962,0.08077746,0.12264033,0.17963361
6027,0,USCaliforniaInyo,California,Inyo,2021-04-04 13:35:41.434074,2020-08-27 00:00:00.000000,0.94268584,1.44818435,2.18473165,170,261,394,99,168,272,0.54998697,0.93255709,1.50973390,0.07972343,0.12059519,0.17787097
6027,0,USCaliforniaInyo,California,Inyo,2021-04-04 13:35:41.434074,2020-08-28 00:00:00.000000,0.87506443,1.37013259,2.08892368,157,247,376,95,157,260,0.52720582,0.87509199,1.44459362,0.07768851,0.11787815,0.16937055
6027,0,USCaliforniaInyo,California,Inyo,2021-04-04 13:35:41.434074,2020-08-29 00:00:00.000000,0.80533311,1.29687254,1.99826413,145,233,360,88,148,247,0.49013044,0.82169219,1.37199520,0.07613891,0.11517142,0.15826690
6027,0,USCaliforniaInyo,California,Inyo,2021-04-04 13:35:41.434074,2020-08-30 00:00:00.000000,0.73885534,1.22103297,1.91281998,133,220,345,80,139,233,0.44813613,0.77492598,1.29467616,0.07067257,0.11361746,0.15697641
6027,0,USCaliforniaInyo,California,Inyo,2021-04-04 13:35:41.434074,2020-08-31 00:00:00.000000,0.70339513,1.14477699,1.82318926,126,206,328,76,131,223,0.42316839,0.73077000,1.23996187,0.06948089,0.10916185,0.16298412
6027,0,USCaliforniaInyo,California,Inyo,2021-04-04 13:35:41.434074,2020-09-01 00:00:00.000000,0.65508583,1.06005501,1.73845142,118,191,313,72,123,212,0.40265963,0.68699228,1.17783331,0.06946724,0.10683899,0.16283967
6027,0,USCaliforniaInyo,California,Inyo,2021-04-04 13:35:41.434074,2020-09-02 00:00:00.000000,0.60599055,0.99109412,1.65823370,109,178,299,67,116,201,0.37691369,0.64795480,1.11802727,0.06946154,0.10672751,0.16271385
6027,0,USCaliforniaInyo,California,Inyo,2021-04-04 13:35:41.434074,2020-09-03 00:00:00.000000,0.56151170,0.92724360,1.58251083,101,167,285,63,110,191,0.35467072,0.61312194,1.06075975,0.06945094,0.10694534,0.16248822
6027,0,USCaliforniaInyo,California,Inyo,2021-04-04 13:35:41.434074,2020-09-04 00:00:00.000000,0.52378420,0.87097689,1.51124685,94,157,272,59,103,181,0.32725886,0.57288781,1.00611655,0.06850975,0.10588213,0.16216036
6027,0,USCaliforniaInyo,California,Inyo,2021-04-04 13:35:41.434074,2020-09-05 00:00:00.000000,0.48991460,0.82123531,1.43713923,88,148,259,54,97,172,0.30380782,0.53816046,0.95406682,0.06623013,0.10648371,0.16176900
6027,0,USCaliforniaInyo,California,Inyo,2021-04-04 13:35:41.434074,2020-09-06 00:00:00.000000,0.45782854,0.77717705,1.36056460,82,140,245,51,91,163,0.28382134,0.50860364,0.90441286,0.06505377,0.10756718,0.16377194
6027,0,USCaliforniaInyo,California,Inyo,2021-04-04 13:35:41.434074,2020-09-07 00:00:00.000000,0.42676221,0.73468345,1.28532747,76,132,231,48,86,155,0.26640148,0.47861735,0.86071900,0.06459103,0.10826367,0.16427976
6027,0,USCaliforniaInyo,California,Inyo,2021-04-04 13:35:41.434074,2020-09-08 00:00:00.000000,0.39686310,0.69309783,1.23269205,71,125,222,45,81,147,0.25091339,0.44914181,0.81718034,0.06450983,0.10909557,0.16430773
6027,0,USCaliforniaInyo,California,Inyo,2021-04-04 13:35:41.434074,2020-09-09 00:00:00.000000,0.37291225,0.65427958,1.18206309,67,118,213,42,75,138,0.23556114,0.42107874,0.76889533,0.06482315,0.10965015,0.16411265
6027,0,USCaliforniaInyo,California,Inyo,2021-04-04 13:35:41.434074,2020-09-10 00:00:00.000000,0.35132822,0.62259667,1.13327291,63,112,204,39,71,130,0.21993768,0.39563465,0.72433575,0.06562220,0.10896565,0.16350960
6027,0,USCaliforniaInyo,California,Inyo,2021-04-04 13:35:41.434074,2020-09-11 00:00:00.000000,0.33327505,0.59177519,1.07205687,60,106,193,37,67,123,0.20708435,0.37547217,0.68402877,0.06694420,0.11004301,0.16186237
6027,0,USCaliforniaInyo,California,Inyo,2021-04-04 13:35:41.434074,2020-09-12 00:00:00.000000,0.30824721,0.55965709,1.00560098,55,100,181,35,64,116,0.19677163,0.35670292,0.64578672,0.06827649,0.11042822,0.17002250
6027,0,USCaliforniaInyo,California,Inyo,2021-04-04 13:35:41.434074,2020-09-13 00:00:00.000000,0.28369337,0.52556044,0.94351319,51,94,170,33,60,109,0.18512024,0.33675950,0.60961863,0.06904751,0.10993194,0.18245631
6027,0,USCaliforniaInyo,California,Inyo,2021-04-04 13:35:41.434074,2020-09-14 00:00:00.000000,0.27016907,0.50465994,0.88361120,48,91,159,31,57,103,0.17383517,0.31628872,0.57550387,0.06937569,0.10994841,0.18381103
6027,0,USCaliforniaInyo,California,Inyo,2021-04-04 13:35:41.434074,2020-09-15 00:00:00.000000,0.24760522,0.48629210,0.82791477,44,87,149,29,54,98,0.16403741,0.30098617,0.54387510,0.06953504,0.11024345,0.18536113
6027,0,USCaliforniaInyo,California,Inyo,2021-04-04 13:35:41.434074,2020-09-16 00:00:00.000000,0.23332548,0.47137287,0.78836673,42,85,142,27,52,92,0.15300854,0.28967135,0.51461071,0.07067946,0.11043893,0.18670916
6027,0,USCaliforniaInyo,California,Inyo,2021-04-04 13:35:41.434074,2020-09-17 00:00:00.000000,0.22094778,0.45419274,0.77122582,39,81,139,26,49,88,0.14519520,0.27710451,0.49006252,0.07058358,0.10980020,0.19294778
6027,0,USCaliforniaInyo,California,Inyo,2021-04-04 13:35:41.434074,2020-09-18 00:00:00.000000,0.21016074,0.43898533,0.75625750,37,79,136,24,47,85,0.13673859,0.26605992,0.47320810,0.07062729,0.10962234,0.19464681
6027,0,USCaliforniaInyo,California,Inyo,2021-04-04 13:35:41.434074,2020-09-19 00:00:00.000000,0.20069308,0.41947141,0.74326852,36,75,134,23,46,82,0.12941594,0.25672799,0.45586501,0.07092750,0.11114541,0.19709024
6027,0,USCaliforniaInyo,California,Inyo,2021-04-04 13:35:41.434074,2020-09-20 00:00:00.000000,0.19232110,0.40627875,0.71690936,34,73,129,22,44,79,0.12303472,0.24465115,0.43856962,0.07290088,0.11519241,0.20071995
6027,0,USCaliforniaInyo,California,Inyo,2021-04-04 13:35:41.434074,2020-09-21 00:00:00.000000,0.19148870,0.39389250,0.71301035,34,71,128,21,42,76,0.11743558,0.23834278,0.42168306,0.07663778,0.11810918,0.20557605
6027,0,USCaliforniaInyo,California,Inyo,2021-04-04 13:35:41.434074,2020-09-22 00:00:00.000000,0.18321925,0.38243047,0.69532861,33,68,125,20,42,73,0.11200498,0.23319642,0.40613768,0.07681175,0.11961553,0.21092445
6027,0,USCaliforniaInyo,California,Inyo,2021-04-04 13:35:41.434074,2020-09-23 00:00:00.000000,0.17629024,0.36454704,0.67301107,31,65,121,19,41,70,0.10637144,0.22730266,0.39175097,0.08105044,0.12333967,0.21600495
6027,0,USCaliforniaInyo,California,Inyo,2021-04-04 13:35:41.434074,2020-09-24 00:00:00.000000,0.17032925,0.35266921,0.63935459,30,63,115,18,39,68,0.10073182,0.21953438,0.37836005,0.08416419,0.12487108,0.22045121
6027,0,USCaliforniaInyo,California,Inyo,2021-04-04 13:35:41.434074,2020-09-25 00:00:00.000000,0.16532430,0.34239762,0.60742369,29,61,109,17,38,65,0.09485241,0.21306936,0.36549420,0.08553798,0.12489537,0.22436209
6027,0,USCaliforniaInyo,California,Inyo,2021-04-04 13:35:41.434074,2020-09-26 00:00:00.000000,0.16147329,0.33459005,0.57723916,29,60,104,16,36,64,0.08943678,0.20427155,0.35932744,0.08635529,0.12656727,0.22808668
6027,0,USCaliforniaInyo,California,Inyo,2021-04-04 13:35:41.434074,2020-09-27 00:00:00.000000,0.15508260,0.32823411,0.56752624,27,59,102,15,35,65,0.08448714,0.19746802,0.36255900,0.08706044,0.12942738,0.23263678
6027,0,USCaliforniaInyo,California,Inyo,2021-04-04 13:35:41.434074,2020-09-28 00:00:00.000000,0.15758575,0.33361587,0.56603368,28,60,102,14,34,66,0.08001032,0.18995656,0.36628308,0.08785588,0.13392127,0.23352611
6027,0,USCaliforniaInyo,California,Inyo,2021-04-04 13:35:41.434074,2020-09-29 00:00:00.000000,0.15706714,0.32987634,0.57915161,28,59,104,14,33,63,0.08082718,0.18762403,0.35268373,0.08923577,0.13752918,0.23517654
6027,0,USCaliforniaInyo,California,Inyo,2021-04-04 13:35:41.434074,2020-09-30 00:00:00.000000,0.15678157,0.32454667,0.59287761,28,58,106,15,33,61,0.08477060,0.18505550,0.33987310,0.09112407,0.14032909,0.23728543
6027,0,USCaliforniaInyo,California,Inyo,2021-04-04 13:35:41.434074,2020-10-01 00:00:00.000000,0.15705866,0.32512658,0.60686413,28,58,109,15,33,59,0.08718911,0.18600610,0.32948944,0.09044798,0.14671241,0.23697960
6027,0,USCaliforniaInyo,California,Inyo,2021-04-04 13:35:41.434074,2020-10-02 00:00:00.000000,0.15780423,0.32220578,0.60224917,28,58,108,15,32,58,0.08710153,0.18203199,0.32477068,0.09026668,0.15275783,0.24339541
6027,0,USCaliforniaInyo,California,Inyo,2021-04-04 13:35:41.434074,2020-10-03 00:00:00.000000,0.15910833,0.31528696,0.58974525,28,56,106,15,31,57,0.08716973,0.17651833,0.32055335,0.08997893,0.15930427,0.25270917
6027,0,USCaliforniaInyo,California,Inyo,2021-04-04 13:35:41.434074,2020-10-04 00:00:00.000000,0.16070374,0.31161986,0.56663270,28,56,102,15,31,57,0.08691184,0.17264812,0.31759062,0.09015813,0.16073173,0.25620379
6027,0,USCaliforniaInyo,California,Inyo,2021-04-04 13:35:41.434074,2020-10-05 00:00:00.000000,0.16536865,0.31725014,0.54775541,29,57,98,15,30,58,0.08662828,0.16748539,0.32464073,0.09114027,0.16309269,0.25892124
6027,0,USCaliforniaInyo,California,Inyo,2021-04-04 13:35:41.434074,2020-10-06 00:00:00.000000,0.16626484,0.32531006,0.54291965,29,58,97,15,30,58,0.08547753,0.16846784,0.32441861,0.09509358,0.16498196,0.26659236
6027,0,USCaliforniaInyo,California,Inyo,2021-04-04 13:35:41.434074,2020-10-07 00:00:00.000000,0.16273710,0.32992725,0.53767598,29,59,96,15,31,56,0.08391954,0.17364532,0.31492927,0.10240681,0.16742218,0.27000364
6027,0,USCaliforniaInyo,California,Inyo,2021-04-04 13:35:41.434074,2020-10-08 00:00:00.000000,0.16001585,0.33442845,0.53208427,28,60,95,14,32,54,0.08227471,0.17967738,0.30478339,0.10577480,0.17035849,0.27483715
6027,0,USCaliforniaInyo,California,Inyo,2021-04-04 13:35:41.434074,2020-10-09 00:00:00.000000,0.15836671,0.33589452,0.53046244,28,60,95,14,32,55,0.08074128,0.18186596,0.30499480,0.10870390,0.17657943,0.28935496
6027,0,USCaliforniaInyo,California,Inyo,2021-04-04 13:35:41.434074,2020-10-10 00:00:00.000000,0.15786463,0.33957082,0.54176755,28,61,97,14,33,53,0.07953181,0.18316841,0.29889959,0.11098132,0.17801598,0.29431607
6027,0,USCaliforniaInyo,California,Inyo,2021-04-04 13:35:41.434074,2020-10-11 00:00:00.000000,0.15806852,0.34744824,0.55349865,28,62,99,14,33,53,0.07873674,0.18645927,0.29754111,0.11298455,0.18042032,0.29209874
6027,0,USCaliforniaInyo,California,Inyo,2021-04-04 13:35:41.434074,2020-10-12 00:00:00.000000,0.17119265,0.35245013,0.55013851,30,63,99,14,34,54,0.07832795,0.19394097,0.30395692,0.11515294,0.18273529,0.28420626
6027,0,USCaliforniaInyo,California,Inyo,2021-04-04 13:35:41.434074,2020-10-13 00:00:00.000000,0.17027432,0.35806682,0.54879300,30,64,98,14,35,54,0.08125841,0.19700927,0.30488771,0.11875592,0.18538499,0.29034640
6027,0,USCaliforniaInyo,California,Inyo,2021-04-04 13:35:41.434074,2020-10-14 00:00:00.000000,0.16940890,0.36445042,0.55435560,30,65,100,15,35,55,0.08627071,0.19738617,0.30597476,0.12222303,0.19316770,0.31421918
6027,0,USCaliforniaInyo,California,Inyo,2021-04-04 13:35:41.434074,2020-10-15 00:00:00.000000,0.16870559,0.37117769,0.57787655,30,66,104,16,35,55,0.09219951,0.19854891,0.31043550,0.12699019,0.19993824,0.33105661
6027,0,USCaliforniaInyo,California,Inyo,2021-04-04 13:35:41.434074,2020-10-16 00:00:00.000000,0.16827470,0.36809515,0.58349669,30,66,105,16,35,56,0.09179249,0.19813676,0.31335355,0.12767557,0.20132490,0.33532132
6027,0,USCaliforniaInyo,California,Inyo,2021-04-04 13:35:41.434074,2020-10-17 00:00:00.000000,0.17545697,0.36290231,0.60245260,31,65,108,16,36,56,0.09147405,0.20018390,0.31095827,0.12948317,0.21281714,0.33611305
6027,0,USCaliforniaInyo,California,Inyo,2021-04-04 13:35:41.434074,2020-10-18 00:00:00.000000,0.18360818,0.36599858,0.62671113,33,66,113,16,36,58,0.09129229,0.20403310,0.32497275,0.13689112,0.22477311,0.33625913
6027,0,USCaliforniaInyo,California,Inyo,2021-04-04 13:35:41.434074,2020-10-19 00:00:00.000000,0.19962084,0.36942602,0.63480783,36,66,114,16,37,61,0.09337409,0.20715562,0.34140714,0.13830388,0.22874910,0.34521090
6027,0,USCaliforniaInyo,California,Inyo,2021-04-04 13:35:41.434074,2020-10-20 00:00:00.000000,0.22108327,0.37233076,0.64330596,39,67,116,17,37,64,0.09938513,0.20663971,0.35658526,0.14501071,0.23057532,0.34759183
6027,0,USCaliforniaInyo,California,Inyo,2021-04-04 13:35:41.434074,2020-10-21 00:00:00.000000,0.22637496,0.37566396,0.65165164,40,67,117,19,37,65,0.10907111,0.21062837,0.36080205,0.14682641,0.23176898,0.34866525
6027,0,USCaliforniaInyo,California,Inyo,2021-04-04 13:35:41.434074,2020-10-22 00:00:00.000000,0.22822152,0.38624164,0.66024955,41,69,119,20,38,65,0.11102724,0.21458982,0.36484608,0.15305279,0.23342397,0.34864192
6027,0,USCaliforniaInyo,California,Inyo,2021-04-04 13:35:41.434074,2020-10-23 00:00:00.000000,0.23060874,0.39774220,0.66253643,41,71,119,20,39,65,0.11150896,0.21777318,0.36403622,0.16005947,0.23704578,0.34705826
6027,0,USCaliforniaInyo,California,Inyo,2021-04-04 13:35:41.434074,2020-10-24 00:00:00.000000,0.23354887,0.40897210,0.68090217,42,73,122,20,39,65,0.11280711,0.22133350,0.36380392,0.16810073,0.24681249,0.34807780
6027,0,USCaliforniaInyo,California,Inyo,2021-04-04 13:35:41.434074,2020-10-25 00:00:00.000000,0.23722445,0.41846117,0.70241939,42,75,126,21,40,67,0.11782344,0.22574833,0.37318997,0.17608944,0.25721666,0.35400599
6027,0,USCaliforniaInyo,California,Inyo,2021-04-04 13:35:41.434074,2020-10-26 00:00:00.000000,0.25414016,0.43079367,0.70727963,45,77,127,22,41,68,0.12283210,0.22787818,0.38215537,0.18128612,0.26102108,0.37447345
6027,0,USCaliforniaInyo,California,Inyo,2021-04-04 13:35:41.434074,2020-10-27 00:00:00.000000,0.25449661,0.43230495,0.72184473,45,77,130,23,41,70,0.13154849,0.23137249,0.39001975,0.18825375,0.26239930,0.38227595
6027,0,USCaliforniaInyo,California,Inyo,2021-04-04 13:35:41.434074,2020-10-28 00:00:00.000000,0.26357027,0.44770869,0.73685163,47,80,132,25,42,72,0.14288345,0.23608188,0.40051529,0.19640376,0.26949223,0.39774722
6027,0,USCaliforniaInyo,California,Inyo,2021-04-04 13:35:41.434074,2020-10-29 00:00:00.000000,0.27230951,0.46041015,0.75219347,49,83,135,27,43,73,0.15017241,0.24154830,0.40983652,0.19750009,0.28322971,0.40101567
6027,0,USCaliforniaInyo,California,Inyo,2021-04-04 13:35:41.434074,2020-10-30 00:00:00.000000,0.27217441,0.47553242,0.76791415,49,85,138,27,44,76,0.15047400,0.24798430,0.42132365,0.19776970,0.28944340,0.40266536
6027,0,USCaliforniaInyo,California,Inyo,2021-04-04 13:35:41.434074,2020-10-31 00:00:00.000000,0.27474008,0.48991381,0.79074440,49,88,142,27,46,77,0.15099026,0.25530488,0.42996100,0.20433717,0.30532417,0.41101402
6027,0,USCaliforniaInyo,California,Inyo,2021-04-04 13:35:41.434074,2020-11-01 00:00:00.000000,0.27809372,0.50693696,0.80689286,50,91,145,27,47,79,0.15175582,0.26405825,0.44309058,0.20713384,0.31517114,0.46590444
6027,0,USCaliforniaInyo,California,Inyo,2021-04-04 13:35:41.434074,2020-11-02 00:00:00.000000,0.29742593,0.51747906,0.84313025,53,93,152,27,49,81,0.15292833,0.27392977,0.45328328,0.22020131,0.32093137,0.48504072
6027,0,USCaliforniaInyo,California,Inyo,2021-04-04 13:35:41.434074,2020-11-03 00:00:00.000000,0.30847585,0.52910533,0.88048529,55,95,158,28,50,85,0.15738404,0.28188276,0.47502510,0.22092262,0.32986605,0.49348947
6027,0,USCaliforniaInyo,California,Inyo,2021-04-04 13:35:41.434074,2020-11-04 00:00:00.000000,0.32069544,0.55021037,0.92258874,57,99,166,29,52,89,0.16361186,0.29041480,0.49361147,0.22604727,0.34400712,0.51646136
6027,0,USCaliforniaInyo,California,Inyo,2021-04-04 13:35:41.434074,2020-11-05 00:00:00.000000,0.33549798,0.56768297,0.97627323,60,102,176,30,53,92,0.16765773,0.29908482,0.51384095,0.23391801,0.35239678,0.53125189
6027,0,USCaliforniaInyo,California,Inyo,2021-04-04 13:35:41.434074,2020-11-06 00:00:00.000000,0.35201173,0.59172977,1.03341034,63,106,186,31,55,96,0.17365908,0.30839929,0.53569758,0.24575555,0.36429170,0.54084926
6027,0,USCaliforniaInyo,California,Inyo,2021-04-04 13:35:41.434074,2020-11-07 00:00:00.000000,0.36061291,0.61425128,1.09378338,65,110,197,32,57,101,0.18156911,0.31841425,0.56506050,0.25602415,0.37792412,0.54701264
6027,0,USCaliforniaInyo,California,Inyo,2021-04-04 13:35:41.434074,2020-11-08 00:00:00.000000,0.37135247,0.64917713,1.15717609,66,117,208,34,59,108,0.19096438,0.33011260,0.60211586,0.27452114,0.39649772,0.55105066
6027,0,USCaliforniaInyo,California,Inyo,2021-04-04 13:35:41.434074,2020-11-09 00:00:00.000000,0.40336969,0.67900864,1.21670887,72,122,219,35,61,115,0.19642790,0.34314940,0.64246881,0.29516280,0.41243507,0.55396562
6027,0,USCaliforniaInyo,California,Inyo,2021-04-04 13:35:41.434074,2020-11-10 00:00:00.000000,0.44274396,0.70834196,1.27904429,79,127,230,37,65,123,0.20996688,0.36174098,0.68241002,0.30486612,0.42255179,0.55736248
6027,0,USCaliforniaInyo,California,Inyo,2021-04-04 13:35:41.434074,2020-11-11 00:00:00.000000,0.46822594,0.75623321,1.36554807,84,136,246,40,67,130,0.22397723,0.37456406,0.72263536,0.31968076,0.43014786,0.56897765
6027,0,USCaliforniaInyo,California,Inyo,2021-04-04 13:35:41.434074,2020-11-12 00:00:00.000000,0.49159591,0.80045861,1.47355214,88,144,265,43,71,137,0.23906964,0.39660484,0.76369521,0.31925432,0.43727917,0.58657975
6027,0,USCaliforniaInyo,California,Inyo,2021-04-04 13:35:41.434074,2020-11-13 00:00:00.000000,0.51410933,0.85716952,1.58132528,92,154,285,44,75,145,0.24586659,0.41681948,0.80620489,0.32652221,0.45316095,0.61083034
6027,0,USCaliforniaInyo,California,Inyo,2021-04-04 13:35:41.434074,2020-11-14 00:00:00.000000,0.54532576,0.92692680,1.66652007,98,167,300,45,80,153,0.25362666,0.44565447,0.85044969,0.34046856,0.46551652,0.63108400
6027,0,USCaliforniaInyo,California,Inyo,2021-04-04 13:35:41.434074,2020-11-15 00:00:00.000000,0.57754979,1.00280776,1.75510711,104,180,316,48,86,161,0.27033937,0.47979012,0.89667056,0.35456796,0.48654535,0.65190741
6027,0,USCaliforniaInyo,California,Inyo,2021-04-04 13:35:41.434074,2020-11-16 00:00:00.000000,0.61811361,1.04275899,1.86074694,111,188,335,51,92,170,0.28817788,0.51473766,0.94492354,0.37509926,0.50343135,0.65838612
6027,0,USCaliforniaInyo,California,Inyo,2021-04-04 13:35:41.434074,2020-11-17 00:00:00.000000,0.65906830,1.11194301,1.96662884,118,200,354,55,98,180,0.30619103,0.54390604,0.99836300,0.39882123,0.52585757,0.68212473
6027,0,USCaliforniaInyo,California,Inyo,2021-04-04 13:35:41.434074,2020-11-18 00:00:00.000000,0.70649905,1.18615657,2.06996343,127,213,373,58,105,190,0.32548671,0.58251204,1.05508466,0.40405025,0.55050194,0.71026511
6027,0,USCaliforniaInyo,California,Inyo,2021-04-04 13:35:41.434074,2020-11-19 00:00:00.000000,0.75033147,1.26637279,2.16966999,135,228,391,62,111,200,0.34650556,0.62032019,1.11313864,0.40759240,0.57430807,0.73187992
6027,0,USCaliforniaInyo,California,Inyo,2021-04-04 13:35:41.434074,2020-11-20 00:00:00.000000,0.79794615,1.39611397,2.26817128,143,251,409,67,121,211,0.37563867,0.67543052,1.17109681,0.41377496,0.57886168,0.74507395
6027,0,USCaliforniaInyo,California,Inyo,2021-04-04 13:35:41.434074,2020-11-21 00:00:00.000000,0.87406854,1.51816842,2.41497560,157,273,435,74,130,221,0.41177027,0.72074888,1.22866527,0.42374695,0.58554227,0.77259339
6027,0,USCaliforniaInyo,California,Inyo,2021-04-04 13:35:41.434074,2020-11-22 00:00:00.000000,0.93672400,1.62558899,2.66323990,168,293,480,79,141,232,0.44218230,0.78639119,1.28623003,0.44087805,0.59925550,0.81412639
6027,0,USCaliforniaInyo,California,Inyo,2021-04-04 13:35:41.434074,2020-11-23 00:00:00.000000,1.00051933,1.72682500,2.86972439,180,311,517,84,153,242,0.47051540,0.84900757,1.34430348,0.44776389,0.60705533,0.82243198
6027,0,USCaliforniaInyo,California,Inyo,2021-04-04 13:35:41.434074,2020-11-24 00:00:00.000000,1.06830225,1.86866464,3.01133402,192,337,543,91,165,259,0.50779202,0.91771189,1.43860707,0.45964138,0.60826174,0.82291725
6027,0,USCaliforniaInyo,California,Inyo,2021-04-04 13:35:41.434074,2020-11-25 00:00:00.000000,1.14007517,2.03411233,3.19187543,205,366,575,97,179,278,0.54265690,0.99293846,1.54524510,0.46349029,0.62397442,0.87669888
6027,0,USCaliforniaInyo,California,Inyo,2021-04-04 13:35:41.434074,2020-11-26 00:00:00.000000,1.21689452,2.20478115,3.50790352,219,397,632,105,194,298,0.58295479,1.07874847,1.65539651,0.47206453,0.63482261,0.88160085
6027,0,USCaliforniaInyo,California,Inyo,2021-04-04 13:35:41.434074,2020-11-27 00:00:00.000000,1.37555893,2.40726975,3.78068888,248,434,681,115,211,318,0.63981302,1.17151051,1.76471758,0.45593034,0.64451977,0.91623360
6027,0,USCaliforniaInyo,California,Inyo,2021-04-04 13:35:41.434074,2020-11-28 00:00:00.000000,1.55658173,2.65771098,4.08745921,280,479,737,123,228,337,0.68281944,1.26851294,1.87048646,0.46847212,0.66322110,0.93128428
6027,0,USCaliforniaInyo,California,Inyo,2021-04-04 13:35:41.434074,2020-11-29 00:00:00.000000,1.69221360,2.87594377,4.40246713,305,518,794,131,247,366,0.72944477,1.37199896,2.03408849,0.48062808,0.66634674,0.92996093
6027,0,USCaliforniaInyo,California,Inyo,2021-04-04 13:35:41.434074,2020-11-30 00:00:00.000000,1.90605523,3.16147324,4.68535082,343,570,845,146,270,405,0.81171333,1.50195782,2.24856248,0.48658960,0.67370940,0.92579809
6027,0,USCaliforniaInyo,California,Inyo,2021-04-04 13:35:41.434074,2020-12-01 00:00:00.000000,2.14270247,3.48870457,5.01015801,386,629,903,164,297,448,0.91314387,1.64845688,2.48502080,0.49357093,0.67175536,0.91684923
6027,0,USCaliforniaInyo,California,Inyo,2021-04-04 13:35:41.434074,2020-12-02 00:00:00.000000,2.32616923,3.78373660,5.43642809,419,682,980,185,321,487,1.02703310,1.78328010,2.70335251,0.51178084,0.66936433,0.89952624
6027,0,USCaliforniaInyo,California,Inyo,2021-04-04 13:35:41.434074,2020-12-03 00:00:00.000000,2.46739662,4.05809275,5.86298867,445,732,1057,208,353,525,1.15466575,1.95794172,2.91583525,0.52894093,0.67569551,0.87489359
6027,0,USCaliforniaInyo,California,Inyo,2021-04-04 13:35:41.434074,2020-12-04 00:00:00.000000,2.61071167,4.40128678,6.27992594,470,793,1132,225,380,566,1.24909960,2.10905782,3.14112314,0.53109996,0.66532313,0.87246145
6027,0,USCaliforniaInyo,California,Inyo,2021-04-04 13:35:41.434074,2020-12-05 00:00:00.000000,2.76426326,4.73226754,6.71579290,498,853,1211,238,409,609,1.32388481,2.26898951,3.37853254,0.51807273,0.65112874,0.86465461
6027,0,USCaliforniaInyo,California,Inyo,2021-04-04 13:35:41.434074,2020-12-06 00:00:00.000000,3.04259520,5.11554918,7.21707542,548,922,1301,251,443,654,1.39668989,2.45748892,3.62609206,0.50265757,0.64563905,0.88202698
6027,0,USCaliforniaInyo,California,Inyo,2021-04-04 13:35:41.434074,2020-12-07 00:00:00.000000,3.31572911,5.53527604,7.69466012,598,998,1388,271,479,706,1.50724214,2.65904983,3.91788334,0.50214859,0.64228997,0.90145692
6027,0,USCaliforniaInyo,California,Inyo,2021-04-04 13:35:41.434074,2020-12-08 00:00:00.000000,3.58762474,5.92138391,8.18161033,647,1068,1475,297,519,748,1.65035276,2.88043210,4.15209119,0.49765681,0.63339092,0.88543427
6027,0,USCaliforniaInyo,California,Inyo,2021-04-04 13:35:41.434074,2020-12-09 00:00:00.000000,3.94415308,6.40444327,8.68249981,711,1155,1566,323,554,791,1.79334686,3.07431884,4.38792618,0.49614072,0.62485467,0.88204462
6027,0,USCaliforniaInyo,California,Inyo,2021-04-04 13:35:41.434074,2020-12-10 00:00:00.000000,4.36169289,6.78008604,9.34410110,786,1223,1685,349,592,835,1.93948779,3.28359408,4.62949996,0.49497230,0.61641672,0.88838216
6027,0,USCaliforniaInyo,California,Inyo,2021-04-04 13:35:41.434074,2020-12-11 00:00:00.000000,4.81423012,7.20500656,9.99652757,868,1299,1803,377,639,899,2.09107820,3.54390994,4.98649242,0.48734942,0.60536424,0.88570304
6027,0,USCaliforniaInyo,California,Inyo,2021-04-04 13:35:41.434074,2020-12-12 00:00:00.000000,5.30290161,7.58876370,10.60886732,956,1368,1913,405,676,972,2.24856805,3.75270721,5.39341335,0.45868795,0.58270000,0.86325911
6027,0,USCaliforniaInyo,California,Inyo,2021-04-04 13:35:41.434074,2020-12-13 00:00:00.000000,5.73975841,7.97219005,11.16655272,1035,1438,2014,434,723,1024,2.40835134,4.01226050,5.68151250,0.44112495,0.56902419,0.80108281
6027,0,USCaliforniaInyo,California,Inyo,2021-04-04 13:35:41.434074,2020-12-14 00:00:00.000000,5.96942746,8.35586266,11.67187633,1076,1507,2105,477,760,1077,2.64680421,4.21807765,5.97183209,0.43853743,0.53871765,0.71608155
6027,0,USCaliforniaInyo,California,Inyo,2021-04-04 13:35:41.434074,2020-12-15 00:00:00.000000,6.09835568,8.60221998,12.08155265,1100,1551,2179,517,789,1129,2.87051171,4.37496688,6.26265922,0.43578098,0.52597469,0.70016659
6027,0,USCaliforniaInyo,California,Inyo,2021-04-04 13:35:41.434074,2020-12-16 00:00:00.000000,6.22432649,8.90178498,12.47632035,1122,1605,2250,530,821,1182,2.94099674,4.55382710,6.55255621,0.42347172,0.51839920,0.70176664
6027,0,USCaliforniaInyo,California,Inyo,2021-04-04 13:35:41.434074,2020-12-17 00:00:00.000000,6.34958172,9.25555918,12.89502332,1145,1669,2326,542,863,1233,3.00815094,4.78643334,6.83900767,0.40886472,0.51428270,0.69060937
6027,0,USCaliforniaInyo,California,Inyo,2021-04-04 13:35:41.434074,2020-12-18 00:00:00.000000,6.48347335,9.57834696,13.36757789,1169,1727,2411,554,894,1284,3.07327249,4.95727213,7.11903831,0.40206880,0.51127834,0.69513346
6027,0,USCaliforniaInyo,California,Inyo,2021-04-04 13:35:41.434074,2020-12-19 00:00:00.000000,6.67125964,9.86613029,13.72302646,1203,1779,2475,566,919,1337,3.13902720,5.09597330,7.41543238,0.39512305,0.50615909,0.65655385
6027,0,USCaliforniaInyo,California,Inyo,2021-04-04 13:35:41.434074,2020-12-20 00:00:00.000000,6.96112961,10.01022883,14.06144201,1255,1805,2536,580,942,1390,3.21622697,5.22226204,7.70748403,0.39499470,0.50670123,0.65787313
6027,0,USCaliforniaInyo,California,Inyo,2021-04-04 13:35:41.434074,2020-12-21 00:00:00.000000,7.29871093,10.23239788,14.42869158,1316,1845,2602,599,963,1440,3.32126156,5.34022356,7.98498876,0.39713349,0.50502209,0.65911450
6027,0,USCaliforniaInyo,California,Inyo,2021-04-04 13:35:41.434074,2020-12-22 00:00:00.000000,7.61992946,10.42637678,14.77544545,1374,1880,2665,622,983,1487,3.45296897,5.45098276,8.24647137,0.39970510,0.50586593,0.66008602
6027,0,USCaliforniaInyo,California,Inyo,2021-04-04 13:35:41.434074,2020-12-23 00:00:00.000000,7.75386281,10.63612046,15.10272641,1398,1918,2724,650,1006,1514,3.60677905,5.58053933,8.39600347,0.39963893,0.50740705,0.66079417
6027,0,USCaliforniaInyo,California,Inyo,2021-04-04 13:35:41.434074,2020-12-24 00:00:00.000000,7.87940149,10.79689567,15.41068781,1421,1947,2779,678,1038,1534,3.76019850,5.75686992,8.50907526,0.39964099,0.51153512,0.66138454
6027,0,USCaliforniaInyo,California,Inyo,2021-04-04 13:35:41.434074,2020-12-25 00:00:00.000000,7.99618603,11.07019245,15.75606796,1442,1996,2842,690,1058,1569,3.82605486,5.86931546,8.69991159,0.39980530,0.52125985,0.68135708
6027,0,USCaliforniaInyo,California,Inyo,2021-04-04 13:35:41.434074,2020-12-26 00:00:00.000000,8.10380325,11.26000892,16.06214940,1461,2031,2897,701,1079,1604,3.88783802,5.98401797,8.89420347,0.40182857,0.52547464,0.70710716
6027,0,USCaliforniaInyo,California,Inyo,2021-04-04 13:35:41.434074,2020-12-27 00:00:00.000000,8.20182487,11.48371668,16.34482005,1479,2071,2948,725,1097,1639,4.02076148,6.08247719,9.08757892,0.41411679,0.53401841,0.70305455
6027,0,USCaliforniaInyo,California,Inyo,2021-04-04 13:35:41.434074,2020-12-28 00:00:00.000000,8.50920641,11.71699869,16.53122866,1534,2113,2982,756,1122,1672,4.19349422,6.22369756,9.27343233,0.44456571,0.54273939,0.70747603
6027,0,USCaliforniaInyo,California,Inyo,2021-04-04 13:35:41.434074,2020-12-29 00:00:00.000000,8.79510860,12.08502693,16.66892919,1586,2180,3006,787,1151,1704,4.36648863,6.38204769,9.44779141,0.45338231,0.55425676,0.70984723
6027,0,USCaliforniaInyo,California,Inyo,2021-04-04 13:35:41.434074,2020-12-30 00:00:00.000000,8.90633998,12.39625419,16.81476112,1606,2236,3033,816,1181,1733,4.52883239,6.54991358,9.60711171,0.45611025,0.56168587,0.71139218
6027,0,USCaliforniaInyo,California,Inyo,2021-04-04 13:35:41.434074,2020-12-31 00:00:00.000000,8.96703374,12.64915482,16.94246848,1617,2281,3056,843,1205,1758,4.67351999,6.68463807,9.74923758,0.44481752,0.56582833,0.71273344
6027,0,USCaliforniaInyo,California,Inyo,2021-04-04 13:35:41.434074,2021-01-01 00:00:00.000000,9.08521645,12.84213529,17.22622130,1638,2316,3107,866,1230,1780,4.80350124,6.82052767,9.87275317,0.44277253,0.56833004,0.71406311
6027,0,USCaliforniaInyo,California,Inyo,2021-04-04 13:35:41.434074,2021-01-02 00:00:00.000000,9.29899870,13.10510215,17.28779222,1677,2364,3118,887,1256,1801,4.92168959,6.96540765,9.98502694,0.44243841,0.57481198,0.73054202
6027,0,USCaliforniaInyo,California,Inyo,2021-04-04 13:35:41.434074,2021-01-03 00:00:00.000000,9.62497853,13.14039543,17.29285937,1736,2370,3119,899,1282,1815,4.98826617,7.10996300,10.06702135,0.44225016,0.58155480,0.73152165
6027,0,USCaliforniaInyo,California,Inyo,2021-04-04 13:35:41.434074,2021-01-04 00:00:00.000000,9.96218458,13.27312833,17.48226400,1797,2394,3153,907,1285,1825,5.03192782,7.12829167,10.12162573,0.42387351,0.57855935,0.73117108
6027,0,USCaliforniaInyo,California,Inyo,2021-04-04 13:35:41.434074,2021-01-05 00:00:00.000000,10.08727472,13.42316994,17.79322923,1819,2421,3209,914,1315,1833,5.07130780,7.29341090,10.16327653,0.43088425,0.57869592,0.71810242
6027,0,USCaliforniaInyo,California,Inyo,2021-04-04 13:35:41.434074,2021-01-06 00:00:00.000000,10.19687514,13.66043195,18.00989765,1839,2464,3248,944,1330,1857,5.23685913,7.37389417,10.29973830,0.43703801,0.57618757,0.72138494
6027,0,USCaliforniaInyo,California,Inyo,2021-04-04 13:35:41.434074,2021-01-07 00:00:00.000000,10.25529370,13.68945226,18.04640638,1849,2469,3255,963,1342,1871,5.33993546,7.44195920,10.37210156,0.43454099,0.56786439,0.71751979
6027,0,USCaliforniaInyo,California,Inyo,2021-04-04 13:35:41.434074,2021-01-08 00:00:00.000000,10.30749409,13.76348505,18.00812288,1859,2482,3248,972,1345,1890,5.39087163,7.45665520,10.48086269,0.42358223,0.55559404,0.71177141
6027,0,USCaliforniaInyo,California,Inyo,2021-04-04 13:35:41.434074,2021-01-09 00:00:00.000000,10.31428447,13.79864708,17.84150702,1860,2489,3218,979,1342,1905,5.43013017,7.44416969,10.56371049,0.40833147,0.54324675,0.69691895
6027,0,USCaliforniaInyo,California,Inyo,2021-04-04 13:35:41.434074,2021-01-10 00:00:00.000000,10.24975757,13.64054489,17.52666749,1848,2460,3161,991,1341,1915,5.49795425,7.43605122,10.61778347,0.39615359,0.52389933,0.66504714
6027,0,USCaliforniaInyo,California,Inyo,2021-04-04 13:35:41.434074,2021-01-11 00:00:00.000000,10.10486027,13.46439412,17.15170098,1822,2428,3093,1000,1332,1919,5.54840429,7.38938556,10.64239527,0.39101943,0.51194725,0.65889902
6027,0,USCaliforniaInyo,California,Inyo,2021-04-04 13:35:41.434074,2021-01-12 00:00:00.000000,9.91193765,13.32046973,16.73432081,1788,2402,3018,979,1321,1918,5.42895429,7.32524824,10.63745041,0.38478980,0.50461149,0.66137871
6027,0,USCaliforniaInyo,California,Inyo,2021-04-04 13:35:41.434074,2021-01-13 00:00:00.000000,9.66235302,13.08621363,16.28993235,1742,2360,2938,969,1310,1903,5.37315996,7.26298690,10.55238932,0.37903086,0.50179851,0.66204743
6027,0,USCaliforniaInyo,California,Inyo,2021-04-04 13:35:41.434074,2021-01-14 00:00:00.000000,9.37812704,12.74909657,15.82912448,1691,2299,2855,955,1288,1875,5.29582635,7.14550866,10.39951299,0.38276037,0.49957605,0.66238906
6027,0,USCaliforniaInyo,California,Inyo,2021-04-04 13:35:41.434074,2021-01-15 00:00:00.000000,9.07156839,12.45285036,15.36030262,1636,2246,2770,938,1265,1844,5.20274128,7.01267243,10.22404331,0.38126204,0.50630612,0.66299055
6027,0,USCaliforniaInyo,California,Inyo,2021-04-04 13:35:41.434074,2021-01-16 00:00:00.000000,8.70594565,12.09312158,15.13959201,1570,2181,2731,913,1239,1809,5.06438938,6.87145302,10.02834396,0.37539686,0.50334365,0.66433684
6027,0,USCaliforniaInyo,California,Inyo,2021-04-04 13:35:41.434074,2021-01-17 00:00:00.000000,8.39256165,11.77485050,14.92398469,1513,2124,2692,878,1215,1771,4.86740494,6.73588569,9.81977163,0.37507258,0.50682188,0.68598506
6027,0,USCaliforniaInyo,California,Inyo,2021-04-04 13:35:41.434074,2021-01-18 00:00:00.000000,8.12793893,11.47796447,14.68877525,1466,2070,2649,846,1195,1732,4.69368670,6.62746346,9.60182643,0.37222568,0.51417691,0.68388095
6027,0,USCaliforniaInyo,California,Inyo,2021-04-04 13:35:41.434074,2021-01-19 00:00:00.000000,7.81832552,11.21395040,14.43619713,1410,2022,2604,825,1173,1692,4.57592799,6.50791736,9.38242228,0.37496697,0.51763172,0.71328187
6027,0,USCaliforniaInyo,California,Inyo,2021-04-04 13:35:41.434074,2021-01-20 00:00:00.000000,7.51282193,10.93810831,14.16898369,1355,1973,2555,803,1146,1652,4.45328436,6.35806126,9.16174784,0.38151933,0.52111551,0.70209791
6027,0,USCaliforniaInyo,California,Inyo,2021-04-04 13:35:41.434074,2021-01-21 00:00:00.000000,7.28869065,10.65773670,13.89403193,1314,1922,2506,789,1121,1612,4.37576078,6.21594441,8.94042347,0.38196589,0.52768619,0.71039068
6027,0,USCaliforniaInyo,California,Inyo,2021-04-04 13:35:41.434074,2021-01-22 00:00:00.000000,7.13919925,10.45805650,13.61664174,1287,1886,2456,766,1092,1572,4.25028124,6.05901274,8.71954560,0.38367213,0.54443225,0.74334764
6027,0,USCaliforniaInyo,California,Inyo,2021-04-04 13:35:41.434074,2021-01-23 00:00:00.000000,7.00599522,10.12079570,13.33643618,1263,1825,2405,745,1059,1533,4.13201664,5.87252502,8.50068905,0.39124638,0.56261487,0.76514301
6027,0,USCaliforniaInyo,California,Inyo,2021-04-04 13:35:41.434074,2021-01-24 00:00:00.000000,6.88338119,9.89440116,13.05556377,1241,1784,2355,729,1027,1494,4.04435953,5.69618761,8.28580797,0.41417310,0.56664043,0.77328643
6027,0,USCaliforniaInyo,California,Inyo,2021-04-04 13:35:41.434074,2021-01-25 00:00:00.000000,6.76229196,9.62981142,12.59409308,1219,1737,2271,712,999,1459,3.94763192,5.54344097,8.09080490,0.42283096,0.58646233,0.78783486
6027,0,USCaliforniaInyo,California,Inyo,2021-04-04 13:35:41.434074,2021-01-26 00:00:00.000000,6.64012491,9.33578616,12.16698898,1197,1684,2194,694,978,1422,3.84740879,5.42221885,7.88842271,0.40638688,0.58951573,0.81154439
6027,0,USCaliforniaInyo,California,Inyo,2021-04-04 13:35:41.434074,2021-01-27 00:00:00.000000,6.35673928,9.13857834,11.87285510,1146,1648,2141,678,951,1385,3.76198025,5.27556554,7.67908348,0.40298330,0.60196657,0.83983060
6027,0,USCaliforniaInyo,California,Inyo,2021-04-04 13:35:41.434074,2021-01-28 00:00:00.000000,6.09171594,8.95905754,11.65253788,1098,1616,2102,660,925,1348,3.66191373,5.12937681,7.47451491,0.43211138,0.61508903,0.88592754
6027,0,USCaliforniaInyo,California,Inyo,2021-04-04 13:35:41.434074,2021-01-29 00:00:00.000000,5.86228096,8.72275812,11.40331740,1057,1573,2057,642,892,1318,3.56235438,4.94786234,7.30768554,0.45659700,0.62921970,0.98767279
6027,0,USCaliforniaInyo,California,Inyo,2021-04-04 13:35:41.434074,2021-01-30 00:00:00.000000,5.67649027,8.45647783,11.08735965,1023,1525,2000,625,865,1296,3.46478942,4.80062291,7.18448837,0.45694087,0.64795575,1.03604097
6027,0,USCaliforniaInyo,California,Inyo,2021-04-04 13:35:41.434074,2021-01-31 00:00:00.000000,5.53254585,8.24553603,10.87703419,998,1487,1962,608,846,1277,3.37064043,4.69138208,7.08193446,0.45798565,0.66860615,1.07967287
6027,0,USCaliforniaInyo,California,Inyo,2021-04-04 13:35:41.434074,2021-02-01 00:00:00.000000,5.41191462,7.97540879,10.66109601,976,1438,1923,591,824,1260,3.28111155,4.56897943,6.98625531,0.46032194,0.68384778,1.10290930
6027,0,USCaliforniaInyo,California,Inyo,2021-04-04 13:35:41.434074,2021-02-02 00:00:00.000000,5.31103864,7.70183458,10.44274644,958,1389,1883,576,806,1244,3.19733298,4.46854521,6.89637738,0.49520986,0.70075207,1.12337125
6027,0,USCaliforniaInyo,California,Inyo,2021-04-04 13:35:41.434074,2021-02-03 00:00:00.000000,5.16010002,7.44650483,10.22665574,930,1343,1844,556,788,1227,3.08420756,4.37213246,6.80491324,0.51136555,0.70953533,1.14886687
6027,0,USCaliforniaInyo,California,Inyo,2021-04-04 13:35:41.434074,2021-02-04 00:00:00.000000,4.96615097,7.31296959,10.02820438,895,1319,1808,535,767,1209,2.96731229,4.25281051,6.70756862,0.51274441,0.73254515,1.18429087
6027,0,USCaliforniaInyo,California,Inyo,2021-04-04 13:35:41.434074,2021-02-05 00:00:00.000000,4.83939749,7.19940182,9.85653838,872,1298,1778,515,745,1190,2.85647938,4.13311890,6.60203705,0.51425929,0.75272621,1.22707992
6027,0,USCaliforniaInyo,California,Inyo,2021-04-04 13:35:41.434074,2021-02-06 00:00:00.000000,4.74798022,7.08493937,9.67418436,856,1278,1745,496,727,1170,2.75248780,4.03234733,6.48728450,0.51544338,0.78890925,1.26634361
6027,0,USCaliforniaInyo,California,Inyo,2021-04-04 13:35:41.434074,2021-02-07 00:00:00.000000,4.64345297,6.95127748,9.48261171,837,1253,1710,482,710,1147,2.67210701,3.93872337,6.36308901,0.51608083,0.80745825,1.33657283
6027,0,USCaliforniaInyo,California,Inyo,2021-04-04 13:35:41.434074,2021-02-08 00:00:00.000000,4.53833394,6.82301158,9.28937301,818,1230,1675,475,695,1123,2.63521057,3.85281304,6.22974661,0.51457402,0.83000428,1.46405175
6027,0,USCaliforniaInyo,California,Inyo,2021-04-04 13:35:41.434074,2021-02-09 00:00:00.000000,4.43989936,6.62290977,9.08616277,800,1194,1639,469,682,1096,2.60388092,3.78250974,6.08124742,0.51660522,0.83582073,1.52255951
6027,0,USCaliforniaInyo,California,Inyo,2021-04-04 13:35:41.434074,2021-02-10 00:00:00.000000,4.35097367,6.41557774,8.87508337,784,1157,1600,460,663,1068,2.55197732,3.67846751,5.92092558,0.51627146,0.84667992,1.54315310
6027,0,USCaliforniaInyo,California,Inyo,2021-04-04 13:35:41.434074,2021-02-11 00:00:00.000000,4.27332501,6.22948298,8.65702344,770,1123,1561,448,647,1047,2.48520778,3.59142309,5.80619896,0.51593600,0.85220467,1.55033633
6027,0,USCaliforniaInyo,California,Inyo,2021-04-04 13:35:41.434074,2021-02-12 00:00:00.000000,4.20519838,6.06164276,8.43294825,758,1093,1521,437,626,1028,2.42789390,3.47498339,5.70016797,0.51609700,0.86860044,1.56185840
6027,0,USCaliforniaInyo,California,Inyo,2021-04-04 13:35:41.434074,2021-02-13 00:00:00.000000,4.14167309,5.87349278,8.16034044,747,1059,1472,429,606,1007,2.37851263,3.36434229,5.58675013,0.53914594,0.87244967,1.68219951
6027,0,USCaliforniaInyo,California,Inyo,2021-04-04 13:35:41.434074,2021-02-14 00:00:00.000000,4.07271894,5.71219514,7.97851837,734,1030,1439,420,591,986,2.33382983,3.27626575,5.46657297,0.54760236,0.88978040,1.70688279
6027,0,USCaliforniaInyo,California,Inyo,2021-04-04 13:35:41.434074,2021-02-15 00:00:00.000000,3.98435835,5.56972977,7.82151450,718,1004,1410,412,580,963,2.28577905,3.21891334,5.34030799,0.55478424,0.88694025,1.73589419
6027,0,USCaliforniaInyo,California,Inyo,2021-04-04 13:35:41.434074,2021-02-16 00:00:00.000000,3.89308742,5.38530381,7.65602001,702,971,1381,392,561,939,2.17364729,3.11073745,5.20599402,0.56042797,0.89463508,1.78819661
6027,0,USCaliforniaInyo,California,Inyo,2021-04-04 13:35:41.434074,2021-02-17 00:00:00.000000,3.75554224,5.23119791,7.41452806,677,943,1337,384,544,913,2.13292539,3.01983202,5.06540850,0.56019263,0.90045549,1.83603814
6027,0,USCaliforniaInyo,California,Inyo,2021-04-04 13:35:41.434074,2021-02-18 00:00:00.000000,3.63785458,5.07325446,7.13062486,656,915,1286,378,527,887,2.09621911,2.92273863,4.92000187,0.55675929,0.89676718,1.87668451
6027,0,USCaliforniaInyo,California,Inyo,2021-04-04 13:35:41.434074,2021-02-19 00:00:00.000000,3.56591550,4.90385558,6.84475695,643,884,1234,370,510,871,2.05650746,2.83101013,4.82975325,0.54913190,0.89091723,1.91829316
6027,0,USCaliforniaInyo,California,Inyo,2021-04-04 13:35:41.434074,2021-02-20 00:00:00.000000,3.49095483,4.74645445,6.55554139,629,856,1182,363,494,854,2.01468218,2.74396976,4.73485072,0.53847803,0.88359684,1.94890633
6027,0,USCaliforniaInyo,California,Inyo,2021-04-04 13:35:41.434074,2021-02-21 00:00:00.000000,3.41345947,4.56017655,6.30147887,615,822,1136,355,480,834,1.97129098,2.66189473,4.62519236,0.52633438,0.86788491,1.96584613
6027,0,USCaliforniaInyo,California,Inyo,2021-04-04 13:35:41.434074,2021-02-22 00:00:00.000000,3.34387042,4.37549556,6.08247969,603,789,1097,345,465,802,1.91511457,2.57777536,4.45108399,0.51422780,0.85391983,1.97128375
6027,0,USCaliforniaInyo,California,Inyo,2021-04-04 13:35:41.434074,2021-02-23 00:00:00.000000,3.21263865,4.17512464,5.86674231,579,753,1058,331,452,768,1.83841465,2.50660597,4.26031393,0.50368589,0.85816232,1.96932566
6027,0,USCaliforniaInyo,California,Inyo,2021-04-04 13:35:41.434074,2021-02-24 00:00:00.000000,3.06967841,3.99213209,5.65499836,553,720,1020,317,434,734,1.76194531,2.40806659,4.07266263,0.49552304,0.85873181,1.95820314
6027,0,USCaliforniaInyo,California,Inyo,2021-04-04 13:35:41.434074,2021-02-25 00:00:00.000000,2.93049606,3.84782967,5.44926692,528,694,982,304,420,701,1.68643062,2.32997857,3.88958035,0.49760323,0.84933634,1.92983561
6027,0,USCaliforniaInyo,California,Inyo,2021-04-04 13:35:41.434074,2021-02-26 00:00:00.000000,2.79682373,3.66669761,5.31301748,504,661,958,294,405,669,1.63098289,2.24653370,3.71230417,0.48472083,0.84652790,1.90899686
6027,0,USCaliforniaInyo,California,Inyo,2021-04-04 13:35:41.434074,2021-02-27 00:00:00.000000,2.63776032,3.51140744,5.15911170,475,633,930,279,387,638,1.54863176,2.15044368,3.54184990,0.48012819,0.84133596,1.97860793
6027,0,USCaliforniaInyo,California,Inyo,2021-04-04 13:35:41.434074,2021-02-28 00:00:00.000000,2.44705283,3.37388120,4.99175101,441,608,900,265,372,611,1.47030154,2.06531551,3.38830479,0.47532762,0.83589424,1.96960606
6027,0,USCaliforniaInyo,California,Inyo,2021-04-04 13:35:41.434074,2021-03-01 00:00:00.000000,2.26193493,3.23979384,4.82191899,408,584,869,252,358,584,1.40023180,1.98512311,3.24264279,0.47687521,0.82400553,1.93820197
6027,0,USCaliforniaInyo,California,Inyo,2021-04-04 13:35:41.434074,2021-03-02 00:00:00.000000,2.08866401,3.09836811,4.65176931,376,558,839,238,343,559,1.32066072,1.90560621,3.09887144,0.47976180,0.83205616,1.91328906
6027,0,USCaliforniaInyo,California,Inyo,2021-04-04 13:35:41.434074,2021-03-03 00:00:00.000000,1.92767089,2.96257270,4.48269070,347,534,808,224,328,533,1.24652263,1.82204052,2.95785665,0.45575884,0.82583196,1.89365587
6027,0,USCaliforniaInyo,California,Inyo,2021-04-04 13:35:41.434074,2021-03-04 00:00:00.000000,1.80663105,2.84964409,4.26588170,325,514,769,211,312,508,1.17495190,1.73374659,2.82022873,0.44524750,0.82381525,1.95132141
6027,0,USCaliforniaInyo,California,Inyo,2021-04-04 13:35:41.434074,2021-03-05 00:00:00.000000,1.72819569,2.73542488,3.99573717,311,493,720,199,297,484,1.10652001,1.65131259,2.68644526,0.44097459,0.82609418,1.96250135
6027,0,USCaliforniaInyo,California,Inyo,2021-04-04 13:35:41.434074,2021-03-06 00:00:00.000000,1.65630794,2.59603911,3.77192201,298,468,680,187,284,461,1.04151353,1.57957793,2.55998368,0.41600900,0.81495179,1.95346507
6027,0,USCaliforniaInyo,California,Inyo,2021-04-04 13:35:41.434074,2021-03-07 00:00:00.000000,1.59072011,2.45402868,3.67342663,286,442,662,176,271,442,0.98002970,1.50496722,2.45124412,0.40314460,0.78366809,1.94823258
6027,0,USCaliforniaInyo,California,Inyo,2021-04-04 13:35:41.434074,2021-03-08 00:00:00.000000,1.51032590,2.32944923,3.55733270,272,420,641,166,257,423,0.92204801,1.42726864,2.34916038,0.39674644,0.76583391,1.95619970
6027,0,USCaliforniaInyo,California,Inyo,2021-04-04 13:35:41.434074,2021-03-09 00:00:00.000000,1.43442992,2.19238149,3.44076668,258,395,620,155,244,397,0.86330583,1.35594325,2.20173835,0.38899520,0.75954263,2.09050421
6027,0,USCaliforniaInyo,California,Inyo,2021-04-04 13:35:41.434074,2021-03-10 00:00:00.000000,1.36151260,2.06684448,3.32691689,245,372,600,145,234,376,0.80654011,1.29739411,2.08466874,0.35930240,0.76475823,2.16541901
6027,0,USCaliforniaInyo,California,Inyo,2021-04-04 13:35:41.434074,2021-03-11 00:00:00.000000,1.27095096,1.96701688,3.20515970,229,354,578,135,224,356,0.75315080,1.24672501,1.97814541,0.35654385,0.75069348,2.16645655
6027,0,USCaliforniaInyo,California,Inyo,2021-04-04 13:35:41.434074,2021-03-12 00:00:00.000000,1.18573980,1.87572591,3.06290621,213,338,552,126,213,338,0.70318426,1.18113567,1.87604499,0.34266220,0.75287064,2.16604551
6027,0,USCaliforniaInyo,California,Inyo,2021-04-04 13:35:41.434074,2021-03-13 00:00:00.000000,1.10756104,1.78887429,2.92460168,199,322,527,118,202,320,0.65659121,1.12341554,1.77836805,0.33151439,0.75319118,2.16491578
6027,0,USCaliforniaInyo,California,Inyo,2021-04-04 13:35:41.434074,2021-03-14 00:00:00.000000,1.03568660,1.71084245,2.79193976,186,308,503,110,192,305,0.61327057,1.06902528,1.69180516,0.32586499,0.74904567,2.16385762
6027,0,USCaliforniaInyo,California,Inyo,2021-04-04 13:35:41.434074,2021-03-15 00:00:00.000000,0.95512003,1.62601491,2.66338678,172,293,480,103,183,292,0.57307734,1.01785560,1.62350100,0.31437675,0.74099188,2.16430883
6027,0,USCaliforniaInyo,California,Inyo,2021-04-04 13:35:41.434074,2021-03-16 00:00:00.000000,0.87904937,1.54124851,2.53347639,158,278,457,98,174,284,0.54476365,0.96647049,1.57638532,0.30338270,0.73385637,2.16891180
6027,0,USCaliforniaInyo,California,Inyo,2021-04-04 13:35:41.434074,2021-03-17 00:00:00.000000,0.80997845,1.46418613,2.41101861,146,264,434,93,165,276,0.51928797,0.91630221,1.53070593,0.28551714,0.72824480,2.18189301
6027,0,USCaliforniaInyo,California,Inyo,2021-04-04 13:35:41.434074,2021-03-18 00:00:00.000000,0.74748098,1.39641749,2.31716330,134,251,417,89,156,268,0.49494155,0.87007928,1.48622407,0.28161527,0.72478465,2.20958020
6027,0,USCaliforniaInyo,California,Inyo,2021-04-04 13:35:41.434074,2021-03-19 00:00:00.000000,0.69081861,1.31931350,2.22189258,124,237,400,84,150,260,0.47058357,0.83460414,1.44278098,0.28276417,0.73066441,2.31684361
6027,0,USCaliforniaInyo,California,Inyo,2021-04-04 13:35:41.434074,2021-03-20 00:00:00.000000,0.63943973,1.25909419,2.12484075,115,227,383,80,142,252,0.44638310,0.79220577,1.40027386,0.28741995,0.72834248,2.47643239
6027,0,USCaliforniaInyo,California,Inyo,2021-04-04 13:35:41.434074,2021-03-21 00:00:00.000000,0.60661145,1.19591785,2.03269128,109,215,366,75,134,245,0.41776865,0.74603262,1.35863870,0.29396694,0.72544733,2.44511080
6027,0,USCaliforniaInyo,California,Inyo,2021-04-04 13:35:41.434074,2021-03-22 00:00:00.000000,0.55555131,1.11807905,1.94019553,100,201,349,69,126,237,0.38643713,0.70026203,1.31783810,0.29193594,0.72293197,2.53567237
6027,0,USCaliforniaInyo,California,Inyo,2021-04-04 13:35:41.434074,2021-03-23 00:00:00.000000,0.52592904,1.05082113,1.85224995,94,189,334,64,119,230,0.35617580,0.66188904,1.27769973,0.28906721,0.71116746,2.57074304
6027,0,USCaliforniaInyo,California,Inyo,2021-04-04 13:35:41.434074,2021-03-24 00:00:00.000000,0.50997805,0.99508142,1.76875691,91,179,319,59,113,223,0.32752951,0.62834847,1.23822696,0.28693452,0.71023961,2.52926905
6027,0,USCaliforniaInyo,California,Inyo,2021-04-04 13:35:41.434074,2021-03-25 00:00:00.000000,0.49641997,0.93912733,1.68988796,89,169,304,56,109,216,0.31366182,0.60521032,1.19944902,0.28455745,0.70743506,2.50620586
6027,0,USCaliforniaInyo,California,Inyo,2021-04-04 13:35:41.434074,2021-03-26 00:00:00.000000,0.48413681,0.89132539,1.61608265,87,160,291,54,104,205,0.30423439,0.58128581,1.14189717,0.28231289,0.68831605,2.55087780
6027,0,USCaliforniaInyo,California,Inyo,2021-04-04 13:35:41.434074,2021-03-27 00:00:00.000000,0.47252743,0.84876618,1.54811187,85,153,279,52,98,195,0.29306646,0.54872234,1.08135347,0.28068841,0.68228631,2.63163297
6027,0,USCaliforniaInyo,California,Inyo,2021-04-04 13:35:41.434074,2021-03-28 00:00:00.000000,0.46139628,0.80576230,1.48670769,83,145,268,49,92,184,0.27484765,0.51224796,1.02448151,0.27780204,0.69010018,2.71854411
6027,0,USCaliforniaInyo,California,Inyo,2021-04-04 13:35:41.434074,2021-03-29 00:00:00.000000,0.43309517,0.76129803,1.41955004,78,137,256,46,88,175,0.25743812,0.49103935,0.97101872,0.27916608,0.70420324,2.75023514
6027,0,USCaliforniaInyo,California,Inyo,2021-04-04 13:35:41.434074,2021-03-30 00:00:00.000000,0.40532012,0.71649766,1.35763869,73,129,244,43,84,165,0.23900300,0.46871742,0.91812740,0.27882571,0.68516554,2.76549489
6027,0,USCaliforniaInyo,California,Inyo,2021-04-04 13:35:41.434074,2021-03-31 00:00:00.000000,0.37001718,0.67156321,1.29959811,66,121,234,39,79,156,0.22053568,0.44046965,0.86658563,0.27865106,0.70135998,2.76920499
6027,0,USCaliforniaInyo,California,Inyo,2021-04-04 13:35:41.434074,2021-04-01 00:00:00.000000,0.33596440,0.63973128,1.24484410,60,115,224,36,74,147,0.20263752,0.41511145,0.81688096,0.27855368,0.69439316,2.76979903
6027,0,USCaliforniaInyo,California,Inyo,2021-04-04 13:35:41.434074,2021-04-02 00:00:00.000000,0.30478075,0.60274899,1.19344199,54,108,215,33,70,138,0.18564266,0.39232798,0.76931994,0.27781580,0.69542450,2.76978379
6027,0,USCaliforniaInyo,California,Inyo,2021-04-04 13:35:41.434074,2021-04-03 00:00:00.000000,0.27629881,0.56775308,1.14611305,49,102,206,30,66,130,0.16971625,0.37037019,0.72409678,0.26837332,0.71718316,2.79374407
6027,0,USCaliforniaInyo,California,Inyo,2021-04-04 13:35:41.434074,2021-04-04 00:00:00.000000,0.25033038,0.52961537,1.10330169,45,95,199,27,62,122,0.15491890,0.34681470,0.68129651,0.26070229,0.71311199,2.83682589
6027,0,USCaliforniaInyo,California,Inyo,2021-04-04 13:35:41.434074,2021-04-05 00:00:00.000000,0.22666571,0.48971144,1.06473267,40,88,192,25,59,115,0.14124952,0.32803893,0.64089061,0.25860145,0.69196351,2.88035541
6027,0,USCaliforniaInyo,California,Inyo,2021-04-04 13:35:41.434074,2021-04-06 00:00:00.000000,0.20506803,0.45070518,1.00584495,36,81,181,23,55,109,0.12867312,0.30961287,0.60697752,0.25793133,0.68728449,2.90593386
6027,0,USCaliforniaInyo,California,Inyo,2021-04-04 13:35:41.434074,2021-04-07 00:00:00.000000,0.18534222,0.41558746,0.94572045,33,74,170,21,51,103,0.11713724,0.28643346,0.57592500,0.25456329,0.68072302,2.91649992
6027,0,USCaliforniaInyo,California,Inyo,2021-04-04 13:35:41.434074,2021-04-08 00:00:00.000000,0.16738796,0.38677384,0.88854581,30,69,160,19,48,96,0.10658075,0.26734252,0.53735597,0.25322566,0.67619098,2.92021893
6027,0,USCaliforniaInyo,California,Inyo,2021-04-04 13:35:41.434074,2021-04-09 00:00:00.000000,0.15110060,0.35987822,0.83434953,27,64,150,17,44,90,0.09693844,0.24942281,0.50224348,0.25141380,0.67557957,2.92145454
6027,0,USCaliforniaInyo,California,Inyo,2021-04-04 13:35:41.434074,2021-04-10 00:00:00.000000,0.13635197,0.33520810,0.78310273,24,60,141,15,41,85,0.08814388,0.23102572,0.47261982,0.25093880,0.67559255,2.92185843
6027,0,USCaliforniaInyo,California,Inyo,2021-04-04 13:35:41.434074,2021-04-11 00:00:00.000000,0.12301141,0.31431538,0.73473722,22,56,132,14,38,80,0.08013136,0.21298992,0.44471867,0.25081982,0.67559813,2.92199064
6027,0,USCaliforniaInyo,California,Inyo,2021-04-04 13:35:41.434074,2021-04-12 00:00:00.000000,0.11095398,0.29889140,0.68915882,20,53,124,13,35,75,0.07283732,0.19631497,0.41844202,0.25078921,0.67560059,2.92203453
6027,0,USCaliforniaInyo,California,Inyo,2021-04-04 13:35:41.434074,2021-04-13 00:00:00.000000,0.10006281,0.28377341,0.64625707,18,51,116,11,32,71,0.06620129,0.18255110,0.39369755,0.25078070,0.67560170,2.92204956
6027,0,USCaliforniaInyo,California,Inyo,2021-04-04 13:35:41.434074,2021-04-14 00:00:00.000000,0.09022968,0.26431811,0.60591209,16,47,109,10,30,66,0.06016647,0.17041383,0.37039825,0.25077801,0.67560220,2.92205502
6027,0,USCaliforniaInyo,California,Inyo,2021-04-04 13:35:41.434074,2021-04-15 00:00:00.000000,0.08135504,0.24543297,0.56799949,14,44,102,9,28,62,0.05468001,0.15907145,0.34846197,0.25077700,0.67560244,2.92205719
6027,0,USCaliforniaInyo,California,Inyo,2021-04-04 13:35:41.434074,2021-04-16 00:00:00.000000,0.07334775,0.22745637,0.53239371,13,41,96,8,26,59,0.04969308,0.14963736,0.32781111,0.25077657,0.67560256,2.92205818
