FIPS,HR_UID,nameid,province,region,analysisTime,dates,pointprevalence_025,pointprevalence_50,pointprevalence_975,pointinfections_025,pointinfections_50,pointinfections_975,pointinfectious_025,pointinfectious_50,pointinfectious_975,pointinfectiousprevalence_05,pointinfectiousprevalence_50,pointinfectiousprevalence_95,infectrate_025,infectrate_50,infectrate_975
0,0,Azerbaijan,,,2021-04-04 01:55:40.203885,2020-03-09 00:00:00.000000,0.00030823,0.00078245,0.00149069,31,79,151,12,33,62,0.00012280,0.00033064,0.00061368,0.71755984,0.90984442,1.15372685
0,0,Azerbaijan,,,2021-04-04 01:55:40.203885,2020-03-10 00:00:00.000000,0.00038212,0.00092269,0.00173928,38,93,176,15,38,73,0.00015536,0.00037889,0.00072578,0.71755828,0.90984430,1.15341596
0,0,Azerbaijan,,,2021-04-04 01:55:40.203885,2020-03-11 00:00:00.000000,0.00046199,0.00109322,0.00203973,46,110,206,20,46,86,0.00020351,0.00045802,0.00085751,0.71755470,0.90984405,1.15294132
0,0,Azerbaijan,,,2021-04-04 01:55:40.203885,2020-03-12 00:00:00.000000,0.00055573,0.00129173,0.00238342,56,130,241,25,56,104,0.00025641,0.00055439,0.00102897,0.71754648,0.90984352,1.15221749
0,0,Azerbaijan,,,2021-04-04 01:55:40.203885,2020-03-13 00:00:00.000000,0.00066498,0.00151084,0.00277703,67,153,281,31,67,127,0.00031067,0.00066270,0.00125821,0.71752763,0.90984241,1.15111568
0,0,Azerbaijan,,,2021-04-04 01:55:40.203885,2020-03-14 00:00:00.000000,0.00079213,0.00176882,0.00322817,80,179,327,39,78,154,0.00038506,0.00077729,0.00152267,0.71748439,0.90984006,1.14944352
0,0,Azerbaijan,,,2021-04-04 01:55:40.203885,2020-03-15 00:00:00.000000,0.00094006,0.00206641,0.00374555,95,209,379,47,92,185,0.00047301,0.00091081,0.00182882,0.71738538,0.90983511,1.14691785
0,0,Azerbaijan,,,2021-04-04 01:55:40.203885,2020-03-16 00:00:00.000000,0.00114686,0.00240213,0.00432773,116,243,438,56,108,219,0.00056207,0.00107470,0.00216854,0.71715947,0.91081245,1.14651076
0,0,Azerbaijan,,,2021-04-04 01:55:40.203885,2020-03-17 00:00:00.000000,0.00142249,0.00279485,0.00506160,144,283,513,67,127,253,0.00066500,0.00125346,0.00250245,0.71699806,0.91079980,1.14631060
0,0,Azerbaijan,,,2021-04-04 01:55:40.203885,2020-03-18 00:00:00.000000,0.00169223,0.00322250,0.00594205,171,326,602,79,147,292,0.00078492,0.00145385,0.00288006,0.71517605,0.91305962,1.14229833
0,0,Azerbaijan,,,2021-04-04 01:55:40.203885,2020-03-19 00:00:00.000000,0.00199782,0.00371380,0.00696420,202,376,706,93,169,334,0.00092491,0.00167325,0.00330380,0.71282461,0.90967476,1.13000959
0,0,Azerbaijan,,,2021-04-04 01:55:40.203885,2020-03-20 00:00:00.000000,0.00235419,0.00425724,0.00791110,238,431,802,110,194,380,0.00108843,0.00191369,0.00375123,0.71507344,0.90351232,1.13666788
0,0,Azerbaijan,,,2021-04-04 01:55:40.203885,2020-03-21 00:00:00.000000,0.00276993,0.00489074,0.00885548,280,495,897,129,224,439,0.00127942,0.00220942,0.00433671,0.70892085,0.90143148,1.13588248
0,0,Azerbaijan,,,2021-04-04 01:55:40.203885,2020-03-22 00:00:00.000000,0.00325516,0.00564456,0.01023580,330,572,1037,152,256,517,0.00150279,0.00252992,0.00510051,0.68046075,0.89139544,1.09825097
0,0,Azerbaijan,,,2021-04-04 01:55:40.203885,2020-03-23 00:00:00.000000,0.00382450,0.00651208,0.01203313,387,660,1220,180,294,608,0.00178021,0.00290535,0.00599768,0.65436384,0.87723035,1.08120802
0,0,Azerbaijan,,,2021-04-04 01:55:40.203885,2020-03-24 00:00:00.000000,0.00448888,0.00743653,0.01414173,455,754,1433,213,335,714,0.00210857,0.00331266,0.00705139,0.65213464,0.86305309,1.07365917
0,0,Azerbaijan,,,2021-04-04 01:55:40.203885,2020-03-25 00:00:00.000000,0.00523586,0.00844096,0.01646765,530,855,1669,250,385,840,0.00247455,0.00380615,0.00828802,0.64386339,0.84260221,1.06410939
0,0,Azerbaijan,,,2021-04-04 01:55:40.203885,2020-03-26 00:00:00.000000,0.00600086,0.00965897,0.01876097,608,979,1902,292,449,987,0.00288890,0.00442979,0.00973920,0.61716080,0.82732149,1.04561732
0,0,Azerbaijan,,,2021-04-04 01:55:40.203885,2020-03-27 00:00:00.000000,0.00687436,0.01096909,0.02131293,697,1112,2160,341,524,1154,0.00336455,0.00517351,0.01138908,0.61059129,0.78574120,1.00586524
0,0,Azerbaijan,,,2021-04-04 01:55:40.203885,2020-03-28 00:00:00.000000,0.00787317,0.01213791,0.02408734,798,1230,2442,396,600,1312,0.00391268,0.00592272,0.01294782,0.56693024,0.75158165,0.94176450
0,0,Azerbaijan,,,2021-04-04 01:55:40.203885,2020-03-29 00:00:00.000000,0.00901657,0.01383160,0.02694732,914,1402,2732,456,684,1485,0.00450221,0.00675130,0.01465314,0.50553603,0.70872812,0.90022732
0,0,Azerbaijan,,,2021-04-04 01:55:40.203885,2020-03-30 00:00:00.000000,0.01001563,0.01533207,0.02991903,1015,1554,3033,515,774,1665,0.00508100,0.00763672,0.01642684,0.48144288,0.66624871,0.86027265
0,0,Azerbaijan,,,2021-04-04 01:55:40.203885,2020-03-31 00:00:00.000000,0.01119280,0.01690194,0.03259319,1134,1713,3304,568,872,1844,0.00560672,0.00860811,0.01819633,0.46791723,0.63332475,0.85269558
0,0,Azerbaijan,,,2021-04-04 01:55:40.203885,2020-04-01 00:00:00.000000,0.01249067,0.01847143,0.03547038,1266,1872,3596,598,951,2024,0.00590108,0.00938119,0.01996526,0.46275239,0.62296260,0.83305619
0,0,Azerbaijan,,,2021-04-04 01:55:40.203885,2020-04-02 00:00:00.000000,0.01322658,0.02012526,0.03844351,1341,2040,3897,625,1036,2207,0.00616534,0.01022745,0.02177229,0.43457125,0.59163681,0.81447828
0,0,Azerbaijan,,,2021-04-04 01:55:40.203885,2020-04-03 00:00:00.000000,0.01386444,0.02189340,0.04241313,1405,2219,4300,652,1129,2396,0.00643490,0.01113796,0.02363837,0.42072586,0.56571784,0.79207673
0,0,Azerbaijan,,,2021-04-04 01:55:40.203885,2020-04-04 00:00:00.000000,0.01443364,0.02337483,0.04747639,1463,2370,4813,680,1229,2589,0.00670929,0.01212365,0.02554273,0.35507287,0.52751208,0.73536543
0,0,Azerbaijan,,,2021-04-04 01:55:40.203885,2020-04-05 00:00:00.000000,0.01501574,0.02476464,0.05082460,1522,2510,5153,708,1338,2778,0.00698937,0.01320428,0.02740406,0.32750132,0.48448242,0.64126577
0,0,Azerbaijan,,,2021-04-04 01:55:40.203885,2020-04-06 00:00:00.000000,0.01559913,0.02597824,0.05157822,1581,2633,5229,737,1429,2955,0.00727565,0.01409472,0.02915212,0.31658817,0.45040466,0.55949439
0,0,Azerbaijan,,,2021-04-04 01:55:40.203885,2020-04-07 00:00:00.000000,0.01617157,0.02687102,0.05223578,1639,2724,5296,767,1510,3120,0.00756522,0.01489291,0.03077389,0.30049466,0.42602805,0.53461339
0,0,Azerbaijan,,,2021-04-04 01:55:40.203885,2020-04-08 00:00:00.000000,0.01671586,0.02806959,0.05410336,1694,2846,5485,796,1564,3270,0.00785331,0.01543107,0.03225922,0.29335680,0.39255697,0.52701503
0,0,Azerbaijan,,,2021-04-04 01:55:40.203885,2020-04-09 00:00:00.000000,0.01720985,0.02839493,0.05618979,1744,2879,5697,824,1613,3386,0.00813303,0.01591343,0.03340010,0.28338877,0.36894182,0.49676268
0,0,Azerbaijan,,,2021-04-04 01:55:40.203885,2020-04-10 00:00:00.000000,0.01762482,0.02867766,0.05821595,1787,2907,5902,851,1654,3423,0.00839520,0.01631592,0.03376114,0.26777892,0.34337771,0.46883201
0,0,Azerbaijan,,,2021-04-04 01:55:40.203885,2020-04-11 00:00:00.000000,0.01794608,0.02896955,0.05967290,1819,2937,6050,874,1676,3451,0.00862767,0.01653684,0.03404507,0.25821754,0.32771266,0.43804301
0,0,Azerbaijan,,,2021-04-04 01:55:40.203885,2020-04-12 00:00:00.000000,0.01805525,0.02909170,0.05968311,1830,2949,6051,894,1669,3469,0.00882061,0.01646479,0.03421818,0.24687109,0.31755758,0.39629123
0,0,Azerbaijan,,,2021-04-04 01:55:40.203885,2020-04-13 00:00:00.000000,0.01788742,0.02901223,0.05950350,1813,2941,6033,909,1673,3470,0.00897385,0.01650375,0.03423121,0.24080950,0.30528149,0.39137019
0,0,Azerbaijan,,,2021-04-04 01:55:40.203885,2020-04-14 00:00:00.000000,0.01794303,0.02858339,0.05919710,1819,2898,6002,921,1676,3455,0.00908944,0.01653560,0.03407663,0.23273740,0.29753018,0.39135898
0,0,Azerbaijan,,,2021-04-04 01:55:40.203885,2020-04-15 00:00:00.000000,0.01783521,0.02809337,0.05881184,1808,2848,5963,930,1675,3427,0.00917922,0.01652909,0.03379982,0.22545191,0.29563780,0.39145536
0,0,Azerbaijan,,,2021-04-04 01:55:40.203885,2020-04-16 00:00:00.000000,0.01764518,0.02757418,0.05824731,1789,2795,5905,938,1657,3390,0.00925209,0.01635233,0.03343810,0.22214703,0.29302953,0.38576049
0,0,Azerbaijan,,,2021-04-04 01:55:40.203885,2020-04-17 00:00:00.000000,0.01760240,0.02704628,0.05659308,1784,2742,5738,943,1648,3374,0.00930665,0.01625415,0.03328620,0.22116939,0.28645198,0.37774067
0,0,Azerbaijan,,,2021-04-04 01:55:40.203885,2020-04-18 00:00:00.000000,0.01723770,0.02663702,0.05490018,1747,2700,5566,945,1646,3355,0.00932185,0.01623659,0.03309058,0.22159621,0.28536680,0.38919013
0,0,Azerbaijan,,,2021-04-04 01:55:40.203885,2020-04-19 00:00:00.000000,0.01700316,0.02629910,0.05390944,1723,2666,5465,947,1639,3319,0.00934903,0.01616731,0.03274178,0.22018628,0.29185954,0.38999894
0,0,Azerbaijan,,,2021-04-04 01:55:40.203885,2020-04-20 00:00:00.000000,0.01688765,0.02602080,0.05284581,1712,2638,5358,945,1625,3280,0.00932570,0.01602882,0.03235048,0.22131699,0.29631338,0.38994012
0,0,Azerbaijan,,,2021-04-04 01:55:40.203885,2020-04-21 00:00:00.000000,0.01683239,0.02583487,0.05173288,1706,2619,5245,939,1615,3226,0.00926196,0.01593647,0.03182338,0.22235990,0.30358892,0.39016467
0,0,Azerbaijan,,,2021-04-04 01:55:40.203885,2020-04-22 00:00:00.000000,0.01684696,0.02564533,0.05048293,1708,2600,5118,928,1613,3163,0.00915523,0.01590922,0.03119942,0.22321710,0.30669902,0.39128574
0,0,Azerbaijan,,,2021-04-04 01:55:40.203885,2020-04-23 00:00:00.000000,0.01681670,0.02545401,0.04938137,1705,2580,5006,921,1594,3110,0.00908780,0.01572225,0.03067521,0.22960050,0.31289664,0.39138748
0,0,Azerbaijan,,,2021-04-04 01:55:40.203885,2020-04-24 00:00:00.000000,0.01686715,0.02514488,0.04869836,1710,2549,4937,912,1576,3068,0.00900082,0.01555157,0.03025953,0.24510035,0.31944730,0.39828242
0,0,Azerbaijan,,,2021-04-04 01:55:40.203885,2020-04-25 00:00:00.000000,0.01694626,0.02498082,0.04846287,1718,2532,4913,913,1572,3047,0.00900624,0.01551177,0.03005493,0.24230410,0.32771398,0.41217262
0,0,Azerbaijan,,,2021-04-04 01:55:40.203885,2020-04-26 00:00:00.000000,0.01681243,0.02518385,0.04866625,1704,2553,4934,911,1574,3054,0.00898704,0.01552689,0.03012587,0.24674495,0.34639161,0.43139389
0,0,Azerbaijan,,,2021-04-04 01:55:40.203885,2020-04-27 00:00:00.000000,0.01670281,0.02532412,0.04974271,1693,2567,5043,906,1582,3050,0.00894299,0.01560977,0.03008162,0.25145733,0.35801613,0.45017209
0,0,Azerbaijan,,,2021-04-04 01:55:40.203885,2020-04-28 00:00:00.000000,0.01696440,0.02581734,0.05107768,1720,2617,5178,906,1592,3050,0.00894390,0.01570795,0.03008463,0.27614097,0.37503133,0.46053661
0,0,Azerbaijan,,,2021-04-04 01:55:40.203885,2020-04-29 00:00:00.000000,0.01750540,0.02627840,0.05247445,1774,2664,5320,902,1603,3137,0.00889739,0.01581081,0.03094628,0.29793865,0.39297853,0.48807785
0,0,Azerbaijan,,,2021-04-04 01:55:40.203885,2020-04-30 00:00:00.000000,0.01834333,0.02698508,0.05383333,1859,2736,5458,912,1621,3158,0.00900247,0.01599709,0.03115352,0.30092370,0.40223158,0.55054280
0,0,Azerbaijan,,,2021-04-04 01:55:40.203885,2020-05-01 00:00:00.000000,0.01954203,0.02818339,0.05502937,1981,2857,5579,944,1668,3180,0.00931340,0.01645471,0.03137183,0.30280903,0.41438391,0.57655990
0,0,Azerbaijan,,,2021-04-04 01:55:40.203885,2020-05-02 00:00:00.000000,0.02069626,0.02978910,0.05597381,2098,3020,5675,991,1726,3258,0.00977491,0.01703057,0.03214167,0.30896289,0.43205215,0.58200325
0,0,Azerbaijan,,,2021-04-04 01:55:40.203885,2020-05-03 00:00:00.000000,0.02093320,0.03100918,0.05670719,2122,3144,5749,1047,1792,3373,0.01033322,0.01767418,0.03327231,0.31742597,0.44252316,0.59500996
0,0,Azerbaijan,,,2021-04-04 01:55:40.203885,2020-05-04 00:00:00.000000,0.02170775,0.03253857,0.05780669,2200,3299,5861,1111,1870,3510,0.01095888,0.01844845,0.03462091,0.31199213,0.45604179,0.59539280
0,0,Azerbaijan,,,2021-04-04 01:55:40.203885,2020-05-05 00:00:00.000000,0.02302366,0.03409118,0.06109130,2334,3456,6194,1183,1925,3635,0.01167358,0.01898598,0.03585803,0.34471608,0.46252166,0.59510911
0,0,Azerbaijan,,,2021-04-04 01:55:40.203885,2020-05-06 00:00:00.000000,0.02450714,0.03569169,0.06461616,2484,3618,6551,1265,2009,3829,0.01248455,0.01982061,0.03777088,0.35297603,0.46571820,0.59346340
0,0,Azerbaijan,,,2021-04-04 01:55:40.203885,2020-05-07 00:00:00.000000,0.02600553,0.03713646,0.06838588,2636,3765,6933,1353,2103,4037,0.01335142,0.02075105,0.03981725,0.35440022,0.46649992,0.58628139
0,0,Azerbaijan,,,2021-04-04 01:55:40.203885,2020-05-08 00:00:00.000000,0.02685949,0.03881342,0.07243441,2723,3935,7344,1438,2207,4244,0.01419004,0.02177302,0.04185996,0.35597942,0.46892051,0.56421739
0,0,Azerbaijan,,,2021-04-04 01:55:40.203885,2020-05-09 00:00:00.000000,0.02794169,0.04100770,0.07680171,2833,4157,7787,1530,2320,4464,0.01509499,0.02288415,0.04402916,0.37509999,0.46237228,0.55995463
0,0,Azerbaijan,,,2021-04-04 01:55:40.203885,2020-05-10 00:00:00.000000,0.02924339,0.04289038,0.08150233,2965,4348,8263,1595,2439,4695,0.01574065,0.02405927,0.04631171,0.38025540,0.45073922,0.55917357
0,0,Azerbaijan,,,2021-04-04 01:55:40.203885,2020-05-11 00:00:00.000000,0.03069641,0.04473573,0.08651825,3112,4535,8772,1644,2563,4934,0.01621636,0.02528117,0.04867109,0.35619997,0.44765283,0.56211307
0,0,Azerbaijan,,,2021-04-04 01:55:40.203885,2020-05-12 00:00:00.000000,0.03227408,0.04738624,0.09181935,3272,4804,9309,1716,2691,5175,0.01693011,0.02654538,0.05104540,0.35136532,0.45517033,0.56152039
0,0,Azerbaijan,,,2021-04-04 01:55:40.203885,2020-05-13 00:00:00.000000,0.03394897,0.04965348,0.09736642,3442,5034,9872,1764,2824,5419,0.01740503,0.02785362,0.05345166,0.35011469,0.45497777,0.55836222
0,0,Azerbaijan,,,2021-04-04 01:55:40.203885,2020-05-14 00:00:00.000000,0.03573980,0.05143686,0.10282839,3623,5215,10425,1802,2932,5669,0.01777544,0.02892163,0.05591856,0.35125553,0.45324268,0.55644576
0,0,Azerbaijan,,,2021-04-04 01:55:40.203885,2020-05-15 00:00:00.000000,0.03732478,0.05424364,0.10774496,3784,5499,10924,1841,3064,5928,0.01816681,0.03022049,0.05847394,0.33654897,0.46038839,0.55344247
0,0,Azerbaijan,,,2021-04-04 01:55:40.203885,2020-05-16 00:00:00.000000,0.03875196,0.05759576,0.11309337,3929,5839,11466,1893,3246,6199,0.01867963,0.03201827,0.06114412,0.32130742,0.46148487,0.54844609
0,0,Azerbaijan,,,2021-04-04 01:55:40.203885,2020-05-17 00:00:00.000000,0.04071612,0.06031864,0.11877895,4128,6115,12043,1965,3421,6486,0.01938707,0.03374388,0.06397667,0.33591777,0.47315928,0.54402015
0,0,Azerbaijan,,,2021-04-04 01:55:40.203885,2020-05-18 00:00:00.000000,0.04307609,0.06290223,0.12478775,4367,6377,12652,2053,3555,6803,0.02025330,0.03506969,0.06709748,0.34818270,0.47459972,0.54825935
0,0,Azerbaijan,,,2021-04-04 01:55:40.203885,2020-05-19 00:00:00.000000,0.04543444,0.06560710,0.13111738,4606,6652,13294,2153,3722,7161,0.02123639,0.03671300,0.07062920,0.34264969,0.47828026,0.55850907
0,0,Azerbaijan,,,2021-04-04 01:55:40.203885,2020-05-20 00:00:00.000000,0.04781269,0.06846096,0.13781278,4847,6941,13973,2261,3904,7558,0.02230792,0.03851082,0.07455008,0.35126431,0.47760235,0.56149641
0,0,Azerbaijan,,,2021-04-04 01:55:40.203885,2020-05-21 00:00:00.000000,0.05037700,0.07156075,0.14503912,5107,7255,14705,2379,4104,7990,0.02347310,0.04047908,0.07881105,0.37116393,0.48223359,0.56362767
0,0,Azerbaijan,,,2021-04-04 01:55:40.203885,2020-05-22 00:00:00.000000,0.05295739,0.07443485,0.15326554,5369,7547,15539,2503,4309,8454,0.02469149,0.04250269,0.08338573,0.38442712,0.48209821,0.57814167
0,0,Azerbaijan,,,2021-04-04 01:55:40.203885,2020-05-23 00:00:00.000000,0.05569287,0.07733121,0.16293309,5646,7840,16520,2629,4539,8948,0.02592946,0.04477147,0.08825898,0.40055232,0.48644444,0.58520956
0,0,Azerbaijan,,,2021-04-04 01:55:40.203885,2020-05-24 00:00:00.000000,0.05871817,0.08172684,0.17377087,5953,8286,17618,2751,4774,9469,0.02713559,0.04708829,0.09339593,0.41763278,0.49520153,0.61642690
0,0,Azerbaijan,,,2021-04-04 01:55:40.203885,2020-05-25 00:00:00.000000,0.06230274,0.08669084,0.18547902,6316,8789,18806,2911,4962,10008,0.02871842,0.04894360,0.09870944,0.41783412,0.50379275,0.65994258
0,0,Azerbaijan,,,2021-04-04 01:55:40.203885,2020-05-26 00:00:00.000000,0.06652282,0.09195592,0.19781817,6744,9323,20057,3091,5234,10552,0.03048673,0.05162960,0.10407928,0.42464567,0.50518016,0.68745882
0,0,Azerbaijan,,,2021-04-04 01:55:40.203885,2020-05-27 00:00:00.000000,0.07216033,0.09780973,0.21040179,7316,9917,21333,3294,5533,11098,0.03248857,0.05457153,0.10945709,0.42379077,0.50519357,0.69768478
0,0,Azerbaijan,,,2021-04-04 01:55:40.203885,2020-05-28 00:00:00.000000,0.07855018,0.10484034,0.22166275,7964,10629,22474,3542,5828,11652,0.03493777,0.05748028,0.11492143,0.42337937,0.50659940,0.69739720
0,0,Azerbaijan,,,2021-04-04 01:55:40.203885,2020-05-29 00:00:00.000000,0.08322284,0.11204806,0.23322618,8438,11360,23647,3833,6140,12231,0.03781336,0.06055884,0.12063980,0.42608445,0.50449292,0.68934137
0,0,Azerbaijan,,,2021-04-04 01:55:40.203885,2020-05-30 00:00:00.000000,0.08947233,0.11918622,0.24437857,9071,12084,24777,4150,6587,12905,0.04093842,0.06497351,0.12728207,0.41699131,0.50141187,0.67589161
0,0,Azerbaijan,,,2021-04-04 01:55:40.203885,2020-05-31 00:00:00.000000,0.09621230,0.12606190,0.25463380,9755,12781,25817,4514,7014,13788,0.04452166,0.06918703,0.13599534,0.41240261,0.49891365,0.66065589
0,0,Azerbaijan,,,2021-04-04 01:55:40.203885,2020-06-01 00:00:00.000000,0.10313111,0.13232976,0.26483788,10456,13417,26852,4866,7437,14692,0.04800005,0.07335383,0.14491247,0.38286907,0.49688331,0.64423265
0,0,Azerbaijan,,,2021-04-04 01:55:40.203885,2020-06-02 00:00:00.000000,0.10724644,0.14051305,0.27511621,10873,14246,27894,5255,7888,15555,0.05183122,0.07780239,0.15342278,0.37578661,0.49374238,0.62971001
0,0,Azerbaijan,,,2021-04-04 01:55:40.203885,2020-06-03 00:00:00.000000,0.11059195,0.15037738,0.28546547,11213,15247,28943,5595,8358,16202,0.05518998,0.08244193,0.15979854,0.36459384,0.48153644,0.61428348
0,0,Azerbaijan,,,2021-04-04 01:55:40.203885,2020-06-04 00:00:00.000000,0.11661145,0.15770407,0.29581833,11823,15989,29993,5944,8841,16939,0.05862465,0.08719702,0.16707316,0.35015245,0.46696073,0.58653174
0,0,Azerbaijan,,,2021-04-04 01:55:40.203885,2020-06-05 00:00:00.000000,0.11975987,0.16532713,0.30606854,12142,16762,31032,6310,9256,17432,0.06223551,0.09129910,0.17193561,0.35233417,0.45265354,0.53803104
0,0,Azerbaijan,,,2021-04-04 01:55:40.203885,2020-06-06 00:00:00.000000,0.12260287,0.17240838,0.31609085,12430,17480,32049,6657,9723,18048,0.06565639,0.09590345,0.17801049,0.34886761,0.44294417,0.49361390
0,0,Azerbaijan,,,2021-04-04 01:55:40.203885,2020-06-07 00:00:00.000000,0.12611455,0.17925004,0.32580406,12786,18174,33033,6963,10157,18655,0.06868035,0.10018149,0.18398946,0.34001810,0.42711047,0.48601020
0,0,Azerbaijan,,,2021-04-04 01:55:40.203885,2020-06-08 00:00:00.000000,0.12835917,0.18618781,0.33526476,13014,18877,33993,7235,10542,19352,0.07135963,0.10398101,0.19087267,0.33745882,0.42005415,0.48479476
0,0,Azerbaijan,,,2021-04-04 01:55:40.203885,2020-06-09 00:00:00.000000,0.13329485,0.19258005,0.34463375,13514,19526,34943,7485,10885,20069,0.07382878,0.10736567,0.19793994,0.33695803,0.41132867,0.48253808
0,0,Azerbaijan,,,2021-04-04 01:55:40.203885,2020-06-10 00:00:00.000000,0.13912050,0.19902098,0.35413150,14105,20179,35906,7728,11233,20708,0.07622720,0.11079350,0.20423897,0.33772724,0.40874710,0.47591942
0,0,Azerbaijan,,,2021-04-04 01:55:40.203885,2020-06-11 00:00:00.000000,0.14429001,0.20425862,0.36413560,14629,20710,36920,7973,11603,21323,0.07864511,0.11444181,0.21030565,0.33942119,0.41399227,0.47561075
0,0,Azerbaijan,,,2021-04-04 01:55:40.203885,2020-06-12 00:00:00.000000,0.14708465,0.21113049,0.37521827,14913,21406,38044,8221,11947,21949,0.08109100,0.11783754,0.21647847,0.34341862,0.41455918,0.47528995
0,0,Azerbaijan,,,2021-04-04 01:55:40.203885,2020-06-13 00:00:00.000000,0.15031588,0.21808049,0.38768914,15240,22111,39308,8425,12353,22607,0.08309649,0.12183859,0.22297620,0.34363458,0.41382209,0.47911682
0,0,Azerbaijan,,,2021-04-04 01:55:40.203885,2020-06-14 00:00:00.000000,0.15429287,0.22502941,0.40156707,15644,22816,40715,8630,12777,23311,0.08512122,0.12602583,0.22991569,0.34020656,0.41612628,0.47301337
0,0,Azerbaijan,,,2021-04-04 01:55:40.203885,2020-06-15 00:00:00.000000,0.15914460,0.23189888,0.41658081,16135,23512,42237,8837,13223,24061,0.08715932,0.13042264,0.23731434,0.34320591,0.41745461,0.48820177
0,0,Azerbaijan,,,2021-04-04 01:55:40.203885,2020-06-16 00:00:00.000000,0.16470387,0.23905255,0.43248804,16699,24237,43850,9049,13693,24854,0.08925261,0.13505691,0.24513767,0.34319734,0.41879371,0.49189719
0,0,Azerbaijan,,,2021-04-04 01:55:40.203885,2020-06-17 00:00:00.000000,0.17080072,0.24507230,0.44926396,17317,24848,45551,9310,14168,25686,0.09182726,0.13973794,0.25333909,0.34336499,0.41927404,0.49031237
0,0,Azerbaijan,,,2021-04-04 01:55:40.203885,2020-06-18 00:00:00.000000,0.17735134,0.25071387,0.46668242,17981,25420,47317,9561,14563,26552,0.09430644,0.14364036,0.26188015,0.34367517,0.41796537,0.48240341
0,0,Azerbaijan,,,2021-04-04 01:55:40.203885,2020-06-19 00:00:00.000000,0.18419943,0.25503605,0.48422910,18676,25858,49096,9807,14865,27523,0.09672516,0.14661855,0.27145730,0.33859383,0.41685118,0.47550387
0,0,Azerbaijan,,,2021-04-04 01:55:40.203885,2020-06-20 00:00:00.000000,0.18868170,0.25928324,0.50042583,19130,26289,50739,10050,15192,28565,0.09912214,0.14984317,0.28173555,0.33598698,0.41437494,0.46653564
0,0,Azerbaijan,,,2021-04-04 01:55:40.203885,2020-06-21 00:00:00.000000,0.19250071,0.26424565,0.51458670,19517,26792,52174,10294,15553,29958,0.10152718,0.15339513,0.29547143,0.33663433,0.41275837,0.46308433
0,0,Azerbaijan,,,2021-04-04 01:55:40.203885,2020-06-22 00:00:00.000000,0.20023452,0.27143410,0.52797308,20302,27521,53532,10540,16026,31093,0.10395891,0.15806143,0.30666960,0.33480305,0.41184329,0.46171732
0,0,Azerbaijan,,,2021-04-04 01:55:40.203885,2020-06-23 00:00:00.000000,0.20632409,0.28084183,0.54125225,20919,28475,54878,10791,16579,32000,0.10642987,0.16351573,0.31561350,0.33449496,0.41007452,0.46747902
0,0,Azerbaijan,,,2021-04-04 01:55:40.203885,2020-06-24 00:00:00.000000,0.21274281,0.29064293,0.55456751,21570,29468,56228,11045,17071,32852,0.10894167,0.16837132,0.32401229,0.33389322,0.40863075,0.46111018
0,0,Azerbaijan,,,2021-04-04 01:55:40.203885,2020-06-25 00:00:00.000000,0.21764013,0.30037612,0.56766589,22066,30455,57556,11304,17629,33699,0.11149108,0.17387214,0.33236815,0.32405614,0.40327974,0.45939527
0,0,Azerbaijan,,,2021-04-04 01:55:40.203885,2020-06-26 00:00:00.000000,0.22202846,0.30618874,0.57907409,22511,31045,58713,11574,18120,34555,0.11415192,0.17871570,0.34081633,0.32308052,0.39951127,0.45867219
0,0,Azerbaijan,,,2021-04-04 01:55:40.203885,2020-06-27 00:00:00.000000,0.22558575,0.30876182,0.58562799,22872,31305,59377,11857,18568,35422,0.11694724,0.18313531,0.34936558,0.31583103,0.38801995,0.43831340
0,0,Azerbaijan,,,2021-04-04 01:55:40.203885,2020-06-28 00:00:00.000000,0.22863012,0.31113870,0.59413472,23181,31546,60240,12158,18967,36284,0.11991207,0.18707148,0.35786823,0.30503867,0.36928175,0.43718446
0,0,Azerbaijan,,,2021-04-04 01:55:40.203885,2020-06-29 00:00:00.000000,0.23134763,0.31530670,0.60362601,23456,31969,61202,12464,19290,37076,0.12293760,0.19025789,0.36567870,0.29667654,0.36314900,0.43064239
0,0,Azerbaijan,,,2021-04-04 01:55:40.203885,2020-06-30 00:00:00.000000,0.23368567,0.32115630,0.61130481,23693,32562,61981,12740,19540,37707,0.12565872,0.19272355,0.37189969,0.27841348,0.35868120,0.43526230
0,0,Azerbaijan,,,2021-04-04 01:55:40.203885,2020-07-01 00:00:00.000000,0.23554117,0.32609063,0.61824684,23881,33062,62685,12950,19764,38205,0.12772719,0.19493582,0.37681523,0.27596006,0.35252508,0.42680148
0,0,Azerbaijan,,,2021-04-04 01:55:40.203885,2020-07-02 00:00:00.000000,0.23685682,0.32973631,0.62481483,24015,33432,63351,13088,19912,38642,0.12908698,0.19639557,0.38112443,0.27709111,0.34225537,0.41866593
0,0,Azerbaijan,,,2021-04-04 01:55:40.203885,2020-07-03 00:00:00.000000,0.23950687,0.33199419,0.63106671,24284,33661,63984,13142,20018,39054,0.12961675,0.19744012,0.38518796,0.27920504,0.33471116,0.41767357
0,0,Azerbaijan,,,2021-04-04 01:55:40.203885,2020-07-04 00:00:00.000000,0.24023919,0.33244256,0.63636289,24358,33706,64521,13149,20066,39449,0.12969225,0.19790688,0.38907519,0.27793784,0.33090654,0.41315270
0,0,Azerbaijan,,,2021-04-04 01:55:40.203885,2020-07-05 00:00:00.000000,0.24026515,0.33153441,0.63794663,24360,33614,64682,13131,20020,39792,0.12951016,0.19745236,0.39246089,0.27318265,0.32217065,0.39435473
0,0,Azerbaijan,,,2021-04-04 01:55:40.203885,2020-07-06 00:00:00.000000,0.24024514,0.33003292,0.63105561,24358,33462,63983,13104,19962,39937,0.12924142,0.19688649,0.39389039,0.27268934,0.31696479,0.38801929
0,0,Azerbaijan,,,2021-04-04 01:55:40.203885,2020-07-07 00:00:00.000000,0.24002213,0.32820662,0.61702791,24336,33277,62561,13063,19806,39605,0.12884492,0.19534927,0.39061881,0.26445312,0.31177872,0.38514171
0,0,Azerbaijan,,,2021-04-04 01:55:40.203885,2020-07-08 00:00:00.000000,0.23681874,0.32760923,0.59989964,24011,33216,60824,13015,19731,38793,0.12836813,0.19460594,0.38260959,0.26378408,0.30927770,0.36780913
0,0,Azerbaijan,,,2021-04-04 01:55:40.203885,2020-07-09 00:00:00.000000,0.23644470,0.32632558,0.58157175,23973,33086,58966,12961,19658,37728,0.12783763,0.19389150,0.37210595,0.25731025,0.30863411,0.35403633
0,0,Azerbaijan,,,2021-04-04 01:55:40.203885,2020-07-10 00:00:00.000000,0.23454597,0.32365446,0.56939792,23781,32815,57732,12903,19531,36574,0.12726466,0.19263229,0.36072823,0.25503183,0.30240230,0.35411919
0,0,Azerbaijan,,,2021-04-04 01:55:40.203885,2020-07-11 00:00:00.000000,0.23079130,0.31938307,0.56734495,23400,32382,57524,12841,19483,36147,0.12664819,0.19216136,0.35651709,0.24891964,0.29602956,0.35374039
0,0,Azerbaijan,,,2021-04-04 01:55:40.203885,2020-07-12 00:00:00.000000,0.22648753,0.31381674,0.56503813,22963,31818,57290,12630,19375,35960,0.12457173,0.19109574,0.35467352,0.24048192,0.29145493,0.35246099
0,0,Azerbaijan,,,2021-04-04 01:55:40.203885,2020-07-13 00:00:00.000000,0.22445980,0.30721893,0.56216473,22758,31149,56998,12501,19101,35589,0.12329619,0.18839442,0.35100604,0.23242001,0.28426846,0.34841414
0,0,Azerbaijan,,,2021-04-04 01:55:40.203885,2020-07-14 00:00:00.000000,0.22244228,0.30281544,0.55786748,22553,30702,56563,12394,18719,35115,0.12223975,0.18462676,0.34633825,0.22953536,0.27966830,0.33991276
0,0,Azerbaijan,,,2021-04-04 01:55:40.203885,2020-07-15 00:00:00.000000,0.22040062,0.29912821,0.55074405,22346,30329,55840,12279,18318,34577,0.12110860,0.18066811,0.34102408,0.22923301,0.27573457,0.33828722
0,0,Azerbaijan,,,2021-04-04 01:55:40.203885,2020-07-16 00:00:00.000000,0.21672369,0.29298428,0.53962991,21973,29706,54714,12158,18025,33918,0.11991850,0.17778516,0.33452523,0.22262721,0.27148566,0.33825755
0,0,Azerbaijan,,,2021-04-04 01:55:40.203885,2020-07-17 00:00:00.000000,0.21265277,0.28770514,0.52510612,21561,29170,53241,12033,17647,33084,0.11867930,0.17405721,0.32630665,0.21383922,0.26800735,0.33820745
0,0,Azerbaijan,,,2021-04-04 01:55:40.203885,2020-07-18 00:00:00.000000,0.20872046,0.28286818,0.50867994,21162,28680,51575,11855,17257,32146,0.11692397,0.17021098,0.31705394,0.20196400,0.25531249,0.33882687
0,0,Azerbaijan,,,2021-04-04 01:55:40.203885,2020-07-19 00:00:00.000000,0.20440236,0.27628820,0.50110076,20724,28013,50807,11461,16857,31168,0.11304448,0.16625940,0.30741058,0.19897146,0.24246897,0.36601943
0,0,Azerbaijan,,,2021-04-04 01:55:40.203885,2020-07-20 00:00:00.000000,0.19484788,0.26926463,0.49233075,19755,27301,49918,11056,16444,30187,0.10904315,0.16218984,0.29772899,0.19621154,0.23933946,0.36622163
0,0,Azerbaijan,,,2021-04-04 01:55:40.203885,2020-07-21 00:00:00.000000,0.18417094,0.26212428,0.47487603,18673,26577,48148,10684,16018,29218,0.10537604,0.15798488,0.28817557,0.19155843,0.23648004,0.36603521
0,0,Azerbaijan,,,2021-04-04 01:55:40.203885,2020-07-22 00:00:00.000000,0.17389770,0.25502391,0.45421417,17631,25857,46053,10169,15834,28271,0.10030070,0.15617614,0.27883638,0.19080835,0.23187111,0.36416689
0,0,Azerbaijan,,,2021-04-04 01:55:40.203885,2020-07-23 00:00:00.000000,0.16419706,0.25109604,0.43271661,16648,25459,43873,9775,15862,27350,0.09640887,0.15644825,0.26975062,0.18982706,0.22871344,0.36182258
0,0,Azerbaijan,,,2021-04-04 01:55:40.203885,2020-07-24 00:00:00.000000,0.15519328,0.24469730,0.41124937,15735,24810,41697,9230,15308,26456,0.09103586,0.15098409,0.26093417,0.18444259,0.22789831,0.34050350
0,0,Azerbaijan,,,2021-04-04 01:55:40.203885,2020-07-25 00:00:00.000000,0.14716201,0.23458932,0.39862243,14921,23785,40417,8714,14715,25726,0.08594673,0.14513190,0.25373846,0.17504715,0.22548047,0.29414991
0,0,Azerbaijan,,,2021-04-04 01:55:40.203885,2020-07-26 00:00:00.000000,0.14068334,0.22529250,0.38440327,14264,22842,38975,8233,14112,25144,0.08120771,0.13919218,0.24799770,0.16718240,0.22793358,0.29257958
0,0,Azerbaijan,,,2021-04-04 01:55:40.203885,2020-07-27 00:00:00.000000,0.13384277,0.21484994,0.36729220,13570,21784,37240,7791,13684,24298,0.07684229,0.13496948,0.23965088,0.16574545,0.22083546,0.28312538
0,0,Azerbaijan,,,2021-04-04 01:55:40.203885,2020-07-28 00:00:00.000000,0.12753414,0.20236372,0.34909611,12930,20518,35395,7385,13213,23246,0.07284115,0.13032166,0.22927213,0.16440832,0.21686088,0.27032177
0,0,Azerbaijan,,,2021-04-04 01:55:40.203885,2020-07-29 00:00:00.000000,0.12164359,0.18966461,0.33090245,12333,19230,33550,7016,12661,22102,0.06919727,0.12488192,0.21799114,0.16349258,0.20645574,0.25959186
0,0,Azerbaijan,,,2021-04-04 01:55:40.203885,2020-07-30 00:00:00.000000,0.11610416,0.17767111,0.31331215,11772,18014,31767,6681,11975,21087,0.06589768,0.11811384,0.20798222,0.16170307,0.20012876,0.25700064
0,0,Azerbaijan,,,2021-04-04 01:55:40.203885,2020-07-31 00:00:00.000000,0.11086755,0.16868585,0.29664065,11241,17103,30076,6377,11350,20047,0.06290335,0.11194774,0.19772656,0.15613010,0.19305690,0.25841344
0,0,Azerbaijan,,,2021-04-04 01:55:40.203885,2020-08-01 00:00:00.000000,0.10589827,0.15997341,0.28102768,10737,16219,28493,6099,10702,19015,0.06015483,0.10555200,0.18754841,0.15160667,0.18726569,0.26088061
0,0,Azerbaijan,,,2021-04-04 01:55:40.203885,2020-08-02 00:00:00.000000,0.10115959,0.15128304,0.26645409,10256,15338,27016,5839,10235,18014,0.05759765,0.10095012,0.17767024,0.14999896,0.18829454,0.26233900
0,0,Azerbaijan,,,2021-04-04 01:55:40.203885,2020-08-03 00:00:00.000000,0.09532817,0.14288493,0.25275443,9665,14487,25627,5534,9671,17054,0.05458935,0.09538464,0.16819980,0.13663648,0.18755235,0.26298899
0,0,Azerbaijan,,,2021-04-04 01:55:40.203885,2020-08-04 00:00:00.000000,0.08991951,0.13493282,0.23962492,9117,13681,24295,5258,9120,16139,0.05186214,0.08995298,0.15918412,0.13608459,0.18951962,0.26326294
0,0,Azerbaijan,,,2021-04-04 01:55:40.203885,2020-08-05 00:00:00.000000,0.08454622,0.12753628,0.22679436,8572,12931,22995,5025,8591,15273,0.04956339,0.08473111,0.15063413,0.13595221,0.19062256,0.26122796
0,0,Azerbaijan,,,2021-04-04 01:55:40.203885,2020-08-06 00:00:00.000000,0.07923433,0.12079012,0.21410666,8033,12247,21708,4804,8108,14452,0.04738624,0.07997624,0.14254308,0.13606797,0.19274648,0.26132918
0,0,Azerbaijan,,,2021-04-04 01:55:40.203885,2020-08-07 00:00:00.000000,0.07409893,0.11480294,0.20160765,7513,11640,20441,4594,7610,13677,0.04531439,0.07505689,0.13489632,0.13685473,0.20107545,0.26146173
0,0,Azerbaijan,,,2021-04-04 01:55:40.203885,2020-08-08 00:00:00.000000,0.06945384,0.10909083,0.19073227,7042,11060,19338,4395,7131,12940,0.04334701,0.07033631,0.12762495,0.14712395,0.20670568,0.26556220
0,0,Azerbaijan,,,2021-04-04 01:55:40.203885,2020-08-09 00:00:00.000000,0.06552972,0.10340985,0.18461071,6644,10484,18718,4207,6691,12460,0.04149468,0.06600071,0.12289098,0.14918536,0.21665414,0.27540422
0,0,Azerbaijan,,,2021-04-04 01:55:40.203885,2020-08-10 00:00:00.000000,0.06252987,0.09872781,0.17860065,6340,10010,18108,4034,6363,12055,0.03979437,0.06276062,0.11890352,0.15319346,0.22418690,0.29456284
0,0,Azerbaijan,,,2021-04-04 01:55:40.203885,2020-08-11 00:00:00.000000,0.06034423,0.09347469,0.17274624,6118,9477,17515,3882,6111,11663,0.03829538,0.06027883,0.11503828,0.16704862,0.23538559,0.30485868
0,0,Azerbaijan,,,2021-04-04 01:55:40.203885,2020-08-12 00:00:00.000000,0.05894180,0.09022447,0.16711929,5976,9148,16944,3751,5845,11282,0.03700340,0.05765204,0.11127898,0.17648123,0.24152491,0.31952464
0,0,Azerbaijan,,,2021-04-04 01:55:40.203885,2020-08-13 00:00:00.000000,0.05819681,0.08698018,0.16198328,5900,8819,16423,3640,5592,10914,0.03590763,0.05516173,0.10764826,0.19012015,0.24967502,0.33309079
0,0,Azerbaijan,,,2021-04-04 01:55:40.203885,2020-08-14 00:00:00.000000,0.05755753,0.08388065,0.15775269,5835,8504,15994,3545,5362,10570,0.03496446,0.05289030,0.10425661,0.20255729,0.26091949,0.33926902
0,0,Azerbaijan,,,2021-04-04 01:55:40.203885,2020-08-15 00:00:00.000000,0.05655857,0.08203531,0.15413306,5734,8317,15627,3462,5162,10271,0.03414559,0.05091980,0.10130977,0.21513206,0.27611398,0.35372590
0,0,Azerbaijan,,,2021-04-04 01:55:40.203885,2020-08-16 00:00:00.000000,0.05609040,0.08062638,0.15090501,5687,8174,15300,3389,5024,9946,0.03342693,0.04955733,0.09810445,0.22126494,0.28892055,0.38936996
0,0,Azerbaijan,,,2021-04-04 01:55:40.203885,2020-08-17 00:00:00.000000,0.05586747,0.08067785,0.14782454,5664,8180,14988,3324,4978,9661,0.03279048,0.04910100,0.09528672,0.22954690,0.30263591,0.39420327
0,0,Azerbaijan,,,2021-04-04 01:55:40.203885,2020-08-18 00:00:00.000000,0.05579896,0.07998891,0.14485704,5657,8110,14687,3267,4950,9498,0.03222222,0.04882584,0.09367913,0.23200173,0.30938769,0.39609542
0,0,Azerbaijan,,,2021-04-04 01:55:40.203885,2020-08-19 00:00:00.000000,0.05583637,0.07929582,0.14197833,5661,8039,14395,3216,4914,9385,0.03172366,0.04847447,0.09256885,0.24212001,0.31169449,0.40556694
0,0,Azerbaijan,,,2021-04-04 01:55:40.203885,2020-08-20 00:00:00.000000,0.05572629,0.07861939,0.13984370,5650,7971,14178,3175,4891,9196,0.03132092,0.04823929,0.09070034,0.24260212,0.31978096,0.41338329
0,0,Azerbaijan,,,2021-04-04 01:55:40.203885,2020-08-21 00:00:00.000000,0.05618379,0.07849864,0.14059234,5696,7959,14254,3149,4856,9013,0.03106517,0.04790243,0.08889436,0.24757534,0.32924381,0.41985264
0,0,Azerbaijan,,,2021-04-04 01:55:40.203885,2020-08-22 00:00:00.000000,0.05649138,0.07896655,0.14143155,5727,8006,14339,3179,4793,8838,0.03136318,0.04727984,0.08716790,0.24951182,0.33303271,0.42357627
0,0,Azerbaijan,,,2021-04-04 01:55:40.203885,2020-08-23 00:00:00.000000,0.05693308,0.07931571,0.14234875,5772,8041,14432,3236,4786,8680,0.03192526,0.04721280,0.08560870,0.25432563,0.33564613,0.43437093
0,0,Azerbaijan,,,2021-04-04 01:55:40.203885,2020-08-24 00:00:00.000000,0.05755721,0.07843772,0.14331513,5835,7952,14530,3237,4792,8555,0.03193276,0.04726359,0.08438338,0.26152067,0.33548851,0.43456518
0,0,Azerbaijan,,,2021-04-04 01:55:40.203885,2020-08-25 00:00:00.000000,0.05820389,0.07820343,0.14427614,5901,7929,14628,3202,4786,8575,0.03158359,0.04720614,0.08458076,0.26694478,0.33572437,0.42992157
0,0,Azerbaijan,,,2021-04-04 01:55:40.203885,2020-08-26 00:00:00.000000,0.05899752,0.07841767,0.14517619,5981,7950,14719,3191,4762,8754,0.03147445,0.04697023,0.08634566,0.26569560,0.33530727,0.42608985
0,0,Azerbaijan,,,2021-04-04 01:55:40.203885,2020-08-27 00:00:00.000000,0.05979688,0.07895571,0.14598857,6062,8005,14802,3207,4752,8957,0.03163963,0.04687248,0.08834246,0.26558481,0.33449789,0.42316235
0,0,Azerbaijan,,,2021-04-04 01:55:40.203885,2020-08-28 00:00:00.000000,0.05989345,0.07924607,0.14733412,6072,8034,14938,3194,4744,9173,0.03150774,0.04679519,0.09047644,0.26650118,0.33459426,0.42062916
0,0,Azerbaijan,,,2021-04-04 01:55:40.203885,2020-08-29 00:00:00.000000,0.05946298,0.07935967,0.15060389,6029,8046,15269,3173,4755,9396,0.03130333,0.04690397,0.09267405,0.26450330,0.33784606,0.41715681
0,0,Azerbaijan,,,2021-04-04 01:55:40.203885,2020-08-30 00:00:00.000000,0.05913127,0.07922827,0.15341766,5995,8033,15555,3154,4741,9616,0.03111567,0.04675959,0.09484405,0.26473611,0.33675225,0.41303036
0,0,Azerbaijan,,,2021-04-04 01:55:40.203885,2020-08-31 00:00:00.000000,0.05890958,0.07908899,0.15527708,5972,8018,15743,3138,4768,9816,0.03095448,0.04703144,0.09681850,0.25742158,0.33825977,0.40862284
0,0,Azerbaijan,,,2021-04-04 01:55:40.203885,2020-09-01 00:00:00.000000,0.05875634,0.07883671,0.15588991,5957,7993,15805,3125,4784,9964,0.03082999,0.04718890,0.09828152,0.25941002,0.33850536,0.42228700
0,0,Azerbaijan,,,2021-04-04 01:55:40.203885,2020-09-02 00:00:00.000000,0.05864642,0.07880652,0.15543282,5946,7990,15759,3116,4838,10045,0.03073850,0.04772166,0.09907514,0.26364919,0.33545244,0.42889360
0,0,Azerbaijan,,,2021-04-04 01:55:40.203885,2020-09-03 00:00:00.000000,0.05857012,0.07904703,0.15414207,5938,8014,15628,3109,4876,10012,0.03067205,0.04809404,0.09875556,0.26780192,0.33373699,0.42966185
0,0,Azerbaijan,,,2021-04-04 01:55:40.203885,2020-09-04 00:00:00.000000,0.05853915,0.07935791,0.15255096,5935,8046,15467,3105,4909,9891,0.03062483,0.04841782,0.09755825,0.25454958,0.33005988,0.41197585
0,0,Azerbaijan,,,2021-04-04 01:55:40.203885,2020-09-05 00:00:00.000000,0.05856839,0.07970219,0.15053401,5938,8081,15262,3102,4937,9784,0.03059663,0.04869513,0.09650411,0.23923600,0.32635187,0.39609410
0,0,Azerbaijan,,,2021-04-04 01:55:40.203885,2020-09-06 00:00:00.000000,0.05869898,0.08003211,0.14942306,5951,8114,15150,3102,4949,9714,0.03059479,0.04881883,0.09581512,0.23736369,0.32102176,0.38923204
0,0,Azerbaijan,,,2021-04-04 01:55:40.203885,2020-09-07 00:00:00.000000,0.05914166,0.07887903,0.14886028,5996,7997,15093,3106,4946,9670,0.03063447,0.04878495,0.09537735,0.23182123,0.31625884,0.38472012
0,0,Azerbaijan,,,2021-04-04 01:55:40.203885,2020-09-08 00:00:00.000000,0.05963303,0.07739120,0.14816846,6046,7846,15023,3115,4933,9508,0.03073104,0.04865594,0.09378071,0.22949571,0.31332295,0.38512230
0,0,Azerbaijan,,,2021-04-04 01:55:40.203885,2020-09-09 00:00:00.000000,0.05983474,0.07681594,0.14734238,6066,7788,14939,3132,4910,9332,0.03089347,0.04843377,0.09204798,0.22858525,0.30849271,0.39317552
0,0,Azerbaijan,,,2021-04-04 01:55:40.203885,2020-09-10 00:00:00.000000,0.05860607,0.07677306,0.14630925,5942,7784,14834,3154,4871,9259,0.03111624,0.04804941,0.09132670,0.22802182,0.30278453,0.39804673
0,0,Azerbaijan,,,2021-04-04 01:55:40.203885,2020-09-11 00:00:00.000000,0.05825257,0.07632480,0.14496895,5906,7738,14698,3182,4837,9197,0.03138483,0.04771447,0.09070936,0.22577622,0.30075566,0.39968623
0,0,Azerbaijan,,,2021-04-04 01:55:40.203885,2020-09-12 00:00:00.000000,0.05733870,0.07554611,0.14324325,5813,7659,14523,3214,4778,9116,0.03170001,0.04712728,0.08991317,0.23015140,0.29772658,0.39337853
0,0,Azerbaijan,,,2021-04-04 01:55:40.203885,2020-09-13 00:00:00.000000,0.05601503,0.07434496,0.14113283,5679,7537,14309,3232,4668,9012,0.03188098,0.04604757,0.08888487,0.22142751,0.29904486,0.37756714
0,0,Azerbaijan,,,2021-04-04 01:55:40.203885,2020-09-14 00:00:00.000000,0.05480492,0.07289832,0.13871328,5556,7391,14064,3193,4567,8883,0.03149446,0.04505112,0.08761459,0.21646082,0.29790234,0.37205531
0,0,Azerbaijan,,,2021-04-04 01:55:40.203885,2020-09-15 00:00:00.000000,0.05387844,0.07138870,0.13609052,5462,7238,13798,3144,4483,8732,0.03101670,0.04422229,0.08612191,0.21415654,0.29062642,0.37228797
0,0,Azerbaijan,,,2021-04-04 01:55:40.203885,2020-09-16 00:00:00.000000,0.05316903,0.06973650,0.13334938,5390,7070,13520,3091,4388,8563,0.03048630,0.04328445,0.08445979,0.21320256,0.29049966,0.36590445
0,0,Azerbaijan,,,2021-04-04 01:55:40.203885,2020-09-17 00:00:00.000000,0.05246458,0.06855075,0.13054821,5319,6950,13236,3034,4281,8387,0.02993145,0.04222647,0.08272499,0.21286217,0.29289826,0.35165742
0,0,Azerbaijan,,,2021-04-04 01:55:40.203885,2020-09-18 00:00:00.000000,0.05157872,0.06698926,0.12771481,5229,6792,12949,2987,4208,8208,0.02946625,0.04150680,0.08095996,0.21532490,0.29411672,0.34932270
0,0,Azerbaijan,,,2021-04-04 01:55:40.203885,2020-09-19 00:00:00.000000,0.05030697,0.06617406,0.12699212,5100,6709,12875,2942,4152,8028,0.02902178,0.04095674,0.07918336,0.22141534,0.29645575,0.35357278
0,0,Azerbaijan,,,2021-04-04 01:55:40.203885,2020-09-20 00:00:00.000000,0.04890189,0.06539636,0.12654168,4958,6630,12830,2896,4103,7846,0.02856404,0.04047046,0.07738640,0.23540388,0.29617657,0.34335864
0,0,Azerbaijan,,,2021-04-04 01:55:40.203885,2020-09-21 00:00:00.000000,0.04822132,0.06483350,0.12627382,4889,6573,12803,2846,4054,7659,0.02807885,0.03998872,0.07554335,0.23951941,0.29650477,0.33891163
0,0,Azerbaijan,,,2021-04-04 01:55:40.203885,2020-09-22 00:00:00.000000,0.04753069,0.06489468,0.12612832,4819,6579,12788,2793,4044,7587,0.02755608,0.03988652,0.07483206,0.24111626,0.29593327,0.34654633
0,0,Azerbaijan,,,2021-04-04 01:55:40.203885,2020-09-23 00:00:00.000000,0.04689341,0.06483671,0.12605523,4754,6573,12780,2737,4049,7573,0.02700348,0.03994004,0.07469692,0.24060294,0.29883406,0.34873425
0,0,Azerbaijan,,,2021-04-04 01:55:40.203885,2020-09-24 00:00:00.000000,0.04575094,0.06444819,0.12605421,4638,6534,12780,2680,4050,7566,0.02643727,0.03994671,0.07462543,0.24669534,0.30217840,0.35398022
0,0,Azerbaijan,,,2021-04-04 01:55:40.203885,2020-09-25 00:00:00.000000,0.04534182,0.06390508,0.12614126,4597,6479,12789,2632,4022,7564,0.02596521,0.03967152,0.07460191,0.24696711,0.30800189,0.36691579
0,0,Azerbaijan,,,2021-04-04 01:55:40.203885,2020-09-26 00:00:00.000000,0.04611436,0.06342570,0.12642220,4675,6430,12818,2564,3950,7567,0.02529663,0.03896518,0.07463140,0.24971264,0.31450797,0.40106957
0,0,Azerbaijan,,,2021-04-04 01:55:40.203885,2020-09-27 00:00:00.000000,0.04676623,0.06348984,0.12722510,4741,6437,12899,2486,3883,7580,0.02451899,0.03829793,0.07475979,0.26571126,0.34108093,0.45803873
0,0,Azerbaijan,,,2021-04-04 01:55:40.203885,2020-09-28 00:00:00.000000,0.04742134,0.06496013,0.12914032,4808,6586,13093,2488,3866,7617,0.02454064,0.03813500,0.07512512,0.27855631,0.35536166,0.50241830
0,0,Azerbaijan,,,2021-04-04 01:55:40.203885,2020-09-29 00:00:00.000000,0.04841300,0.06658598,0.13261738,4908,6751,13446,2502,3915,7705,0.02468138,0.03862165,0.07600160,0.30144810,0.37794251,0.51690133
0,0,Azerbaijan,,,2021-04-04 01:55:40.203885,2020-09-30 00:00:00.000000,0.05003354,0.06901264,0.13748704,5072,6997,13940,2548,4038,7874,0.02513271,0.03983278,0.07766408,0.31633211,0.39408613,0.53205152
0,0,Azerbaijan,,,2021-04-04 01:55:40.203885,2020-10-01 00:00:00.000000,0.05114092,0.07061648,0.14352154,5185,7159,14551,2608,4147,8126,0.02572734,0.04090519,0.08015037,0.33122513,0.41286546,0.58121782
0,0,Azerbaijan,,,2021-04-04 01:55:40.203885,2020-10-02 00:00:00.000000,0.05189530,0.07322497,0.14791795,5261,7424,14997,2729,4243,8453,0.02692027,0.04185695,0.08337688,0.33289902,0.44605639,0.62778581
0,0,Azerbaijan,,,2021-04-04 01:55:40.203885,2020-10-03 00:00:00.000000,0.05285769,0.07683876,0.15182553,5359,7790,15393,2863,4349,8826,0.02823768,0.04290080,0.08705054,0.34550043,0.48755700,0.66082228
0,0,Azerbaijan,,,2021-04-04 01:55:40.203885,2020-10-04 00:00:00.000000,0.05332056,0.08103557,0.15747372,5406,8216,15966,3067,4557,9279,0.03025562,0.04495168,0.09152404,0.37873387,0.52624376,0.68639412
0,0,Azerbaijan,,,2021-04-04 01:55:40.203885,2020-10-05 00:00:00.000000,0.05729570,0.08592155,0.16538942,5809,8711,16769,3237,4814,9906,0.03193428,0.04748153,0.09770450,0.39784732,0.56250992,0.70397130
0,0,Azerbaijan,,,2021-04-04 01:55:40.203885,2020-10-06 00:00:00.000000,0.06253618,0.09272772,0.17611993,6340,9401,17857,3283,5053,10401,0.03238724,0.04984195,0.10258643,0.42555743,0.58026261,0.71553870
0,0,Azerbaijan,,,2021-04-04 01:55:40.203885,2020-10-07 00:00:00.000000,0.06780103,0.10137266,0.19015827,6874,10278,19280,3573,5339,11032,0.03524337,0.05266061,0.10880704,0.46214367,0.60402203,0.74232447
0,0,Azerbaijan,,,2021-04-04 01:55:40.203885,2020-10-08 00:00:00.000000,0.07516126,0.11126819,0.20774428,7620,11281,21063,4013,5713,11864,0.03958003,0.05635521,0.11701946,0.50449461,0.62128476,0.77782378
0,0,Azerbaijan,,,2021-04-04 01:55:40.203885,2020-10-09 00:00:00.000000,0.08414473,0.12052972,0.22882369,8531,12220,23200,4519,6235,12919,0.04457665,0.06150307,0.12742164,0.51794458,0.63213812,0.80302455
0,0,Azerbaijan,,,2021-04-04 01:55:40.203885,2020-10-10 00:00:00.000000,0.09239314,0.13429774,0.25331688,9367,13616,25684,4941,6846,14058,0.04873851,0.06752406,0.13865556,0.55029878,0.65411865,0.82122642
0,0,Azerbaijan,,,2021-04-04 01:55:40.203885,2020-10-11 00:00:00.000000,0.10324398,0.14830288,0.28126405,10468,15036,28517,5362,7550,15257,0.05288625,0.07446753,0.15048541,0.56525117,0.66996863,0.82651402
0,0,Azerbaijan,,,2021-04-04 01:55:40.203885,2020-10-12 00:00:00.000000,0.11512966,0.16338884,0.31271878,11673,16566,31707,5873,8306,16755,0.05793083,0.08192687,0.16525536,0.57246425,0.67531874,0.82824828
0,0,Azerbaijan,,,2021-04-04 01:55:40.203885,2020-10-13 00:00:00.000000,0.12804767,0.18053841,0.34788283,12982,18305,35272,6399,9135,18512,0.06311716,0.09009853,0.18258522,0.57710341,0.67078522,0.82846593
0,0,Azerbaijan,,,2021-04-04 01:55:40.203885,2020-10-14 00:00:00.000000,0.14281167,0.19837161,0.38706132,14479,20113,39244,6913,10139,20451,0.06818927,0.10000180,0.20170673,0.56353447,0.67118890,0.82026154
0,0,Azerbaijan,,,2021-04-04 01:55:40.203885,2020-10-15 00:00:00.000000,0.15947765,0.21530397,0.42955822,16169,21830,43553,7474,11219,22524,0.07371574,0.11065799,0.22215502,0.56225287,0.66900313,0.81920739
0,0,Azerbaijan,,,2021-04-04 01:55:40.203885,2020-10-16 00:00:00.000000,0.17516938,0.23485168,0.46972836,17760,23812,47626,8183,12416,24720,0.08070895,0.12245669,0.24381551,0.52767646,0.67042876,0.81683451
0,0,Azerbaijan,,,2021-04-04 01:55:40.203885,2020-10-17 00:00:00.000000,0.18905513,0.25826286,0.51277655,19168,26185,51991,8877,13631,27051,0.08756031,0.13444181,0.26680432,0.53748573,0.65627839,0.80200147
0,0,Azerbaijan,,,2021-04-04 01:55:40.203885,2020-10-18 00:00:00.000000,0.20270579,0.28109476,0.55901745,20552,28500,56679,9657,15026,29540,0.09525414,0.14820563,0.29134533,0.52875939,0.63035187,0.74783602
0,0,Azerbaijan,,,2021-04-04 01:55:40.203885,2020-10-19 00:00:00.000000,0.21704409,0.30408170,0.60842493,22006,30831,61689,10531,16348,32117,0.10387352,0.16123642,0.31677073,0.51627733,0.60784483,0.71765127
0,0,Azerbaijan,,,2021-04-04 01:55:40.203885,2020-10-20 00:00:00.000000,0.23221904,0.32901972,0.66054727,23545,33359,66974,11503,17959,34820,0.11346057,0.17712767,0.34342785,0.50176633,0.58213630,0.71566704
0,0,Azerbaijan,,,2021-04-04 01:55:40.203885,2020-10-21 00:00:00.000000,0.24835515,0.35494179,0.71175780,25181,35988,72166,12458,19578,37637,0.12287705,0.19310111,0.37120494,0.47975528,0.56813222,0.71286944
0,0,Azerbaijan,,,2021-04-04 01:55:40.203885,2020-10-22 00:00:00.000000,0.26555718,0.38059603,0.75834144,26925,38589,76889,13475,20983,40513,0.13291005,0.20695372,0.39956915,0.45525003,0.55769993,0.70408059
0,0,Azerbaijan,,,2021-04-04 01:55:40.203885,2020-10-23 00:00:00.000000,0.28378292,0.40617533,0.80357736,28773,41182,81476,14487,22585,43369,0.14288651,0.22275433,0.42773993,0.44455808,0.53969711,0.68544873
0,0,Azerbaijan,,,2021-04-04 01:55:40.203885,2020-10-24 00:00:00.000000,0.30271096,0.43107807,0.84983353,30692,43707,86166,15480,23835,46136,0.15267945,0.23508075,0.45502923,0.42721010,0.52515047,0.66095888
0,0,Azerbaijan,,,2021-04-04 01:55:40.203885,2020-10-25 00:00:00.000000,0.32090521,0.45617221,0.89790826,32537,46252,91040,16481,25117,48782,0.16254859,0.24772744,0.48112525,0.42032179,0.50378460,0.60649426
0,0,Azerbaijan,,,2021-04-04 01:55:40.203885,2020-10-26 00:00:00.000000,0.33622811,0.48211387,0.94815382,34090,48882,96134,17491,26454,51318,0.17251240,0.26091332,0.50614405,0.40494920,0.48557313,0.57431016
0,0,Azerbaijan,,,2021-04-04 01:55:40.203885,2020-10-27 00:00:00.000000,0.34943665,0.50754257,1.00065146,35429,51460,101457,18490,27848,53785,0.18236428,0.27465935,0.53047052,0.39067578,0.47899056,0.55833211
0,0,Azerbaijan,,,2021-04-04 01:55:40.203885,2020-10-28 00:00:00.000000,0.36731191,0.52870147,1.05491595,37242,53605,106959,19488,29271,56225,0.19221259,0.28870082,0.55453467,0.37834970,0.47419312,0.55588978
0,0,Azerbaijan,,,2021-04-04 01:55:40.203885,2020-10-29 00:00:00.000000,0.38858506,0.54954895,1.10265246,39399,55719,111799,20467,30614,59221,0.20186734,0.30193854,0.58408426,0.37946659,0.46603436,0.55012852
0,0,Azerbaijan,,,2021-04-04 01:55:40.203885,2020-10-30 00:00:00.000000,0.41034359,0.57316577,1.14832783,41605,58114,116430,21368,31860,62523,0.21074787,0.31422710,0.61665559,0.38127531,0.45954836,0.53701699
0,0,Azerbaijan,,,2021-04-04 01:55:40.203885,2020-10-31 00:00:00.000000,0.43157146,0.59497216,1.19673797,43757,60325,121339,22198,33022,65207,0.21893938,0.32569527,0.64312110,0.38284206,0.45858079,0.52396167
0,0,Azerbaijan,,,2021-04-04 01:55:40.203885,2020-11-01 00:00:00.000000,0.45097015,0.61607775,1.25010542,45724,62465,126750,22977,34300,67633,0.22662113,0.33829482,0.66705060,0.37818420,0.45510523,0.52432528
0,0,Azerbaijan,,,2021-04-04 01:55:40.203885,2020-11-02 00:00:00.000000,0.46840070,0.64065119,1.29951915,47491,64956,131760,23755,35770,69998,0.23429402,0.35279482,0.69037803,0.36678014,0.45181392,0.53330508
0,0,Azerbaijan,,,2021-04-04 01:55:40.203885,2020-11-03 00:00:00.000000,0.48472077,0.66182047,1.33523318,49146,67103,135381,24563,37099,72454,0.24226520,0.36590446,0.71460012,0.36388870,0.44796272,0.53231418
0,0,Azerbaijan,,,2021-04-04 01:55:40.203885,2020-11-04 00:00:00.000000,0.50068465,0.68311899,1.36861173,50765,69262,138765,25425,38543,75894,0.25076094,0.38014736,0.74852681,0.36346420,0.44533319,0.53019559
0,0,Azerbaijan,,,2021-04-04 01:55:40.203885,2020-11-05 00:00:00.000000,0.51671325,0.70540849,1.40063073,52390,71522,142012,26358,39854,79571,0.25996303,0.39307115,0.78479252,0.35206501,0.44096049,0.52376827
0,0,Azerbaijan,,,2021-04-04 01:55:40.203885,2020-11-06 00:00:00.000000,0.53304034,0.72968170,1.43212109,54045,73983,145205,27378,41317,83036,0.27002626,0.40750728,0.81897143,0.35961825,0.43464062,0.52384792
0,0,Azerbaijan,,,2021-04-04 01:55:40.203885,2020-11-07 00:00:00.000000,0.54985374,0.75398513,1.46427638,55750,76447,148465,28500,42909,84944,0.28108952,0.42320441,0.83778923,0.36468688,0.43656001,0.52452405
0,0,Azerbaijan,,,2021-04-04 01:55:40.203885,2020-11-08 00:00:00.000000,0.56713590,0.77850000,1.50058869,57502,78933,152147,29733,44395,86860,0.29325254,0.43786392,0.85668318,0.35658389,0.44193131,0.52723328
0,0,Azerbaijan,,,2021-04-04 01:55:40.203885,2020-11-09 00:00:00.000000,0.58491688,0.80468564,1.55138713,59305,81588,157297,31096,45899,88941,0.30669329,0.45269035,0.87720634,0.35355089,0.44758026,0.53445542
0,0,Azerbaijan,,,2021-04-04 01:55:40.203885,2020-11-10 00:00:00.000000,0.60325538,0.83448578,1.62749556,61165,84609,165014,32585,47412,91643,0.32138405,0.46761324,0.90385761,0.35942672,0.45441602,0.54749670
0,0,Azerbaijan,,,2021-04-04 01:55:40.203885,2020-11-11 00:00:00.000000,0.62378755,0.86793600,1.72185567,63246,88001,174581,34182,49183,95569,0.33713166,0.48508843,0.94257908,0.36973361,0.47027887,0.57396365
0,0,Azerbaijan,,,2021-04-04 01:55:40.203885,2020-11-12 00:00:00.000000,0.64416158,0.90014156,1.82670512,65312,91266,185212,35879,51075,100692,0.35387281,0.50374820,0.99310340,0.37893624,0.49561828,0.60527735
0,0,Azerbaijan,,,2021-04-04 01:55:40.203885,2020-11-13 00:00:00.000000,0.67361291,0.94942202,1.93969604,68298,96263,196669,37689,53119,106661,0.37172315,0.52390122,1.05197740,0.42710980,0.51995561,0.61362930
0,0,Azerbaijan,,,2021-04-04 01:55:40.203885,2020-11-14 00:00:00.000000,0.71245432,1.01108947,2.06041237,72236,102516,208908,39642,55704,113237,0.39098220,0.54939589,1.11683532,0.44841067,0.54011274,0.63464940
0,0,Azerbaijan,,,2021-04-04 01:55:40.203885,2020-11-15 00:00:00.000000,0.75767740,1.08068487,2.18902072,76822,109572,221948,41522,59204,120306,0.40952153,0.58391731,1.18655549,0.46918451,0.55514955,0.66776058
0,0,Azerbaijan,,,2021-04-04 01:55:40.203885,2020-11-16 00:00:00.000000,0.80718558,1.15730329,2.32538407,81841,117341,235774,43237,62958,127821,0.42643730,0.62094748,1.26067278,0.47928069,0.56314331,0.65787193
0,0,Azerbaijan,,,2021-04-04 01:55:40.203885,2020-11-17 00:00:00.000000,0.86478520,1.23413322,2.46928124,87682,125130,250364,45258,67094,135767,0.44637409,0.66173988,1.33903578,0.47922799,0.57398289,0.67022423
0,0,Azerbaijan,,,2021-04-04 01:55:40.203885,2020-11-18 00:00:00.000000,0.92697266,1.31583920,2.62067180,93987,133415,265714,47900,71676,144141,0.47243089,0.70692919,1.42163193,0.48095477,0.57323467,0.66714002
0,0,Azerbaijan,,,2021-04-04 01:55:40.203885,2020-11-19 00:00:00.000000,0.99363026,1.39799974,2.77955249,100745,141745,281823,51112,77064,152950,0.50410895,0.76006752,1.50850575,0.48152608,0.57358136,0.66190190
0,0,Azerbaijan,,,2021-04-04 01:55:40.203885,2020-11-20 00:00:00.000000,1.06468932,1.49111276,2.94581710,107950,151186,298681,54760,82469,162198,0.54009312,0.81337434,1.59971659,0.48159931,0.57118643,0.65486452
0,0,Azerbaijan,,,2021-04-04 01:55:40.203885,2020-11-21 00:00:00.000000,1.13956658,1.58805179,3.11889673,115542,161015,316230,58839,88060,171890,0.58032256,0.86852139,1.69531057,0.48131536,0.55748259,0.64697459
0,0,Azerbaijan,,,2021-04-04 01:55:40.203885,2020-11-22 00:00:00.000000,1.21587653,1.68571632,3.29265824,123279,170917,333848,62958,93412,182017,0.62094466,0.92130407,1.79519142,0.46416441,0.54081713,0.63793530
0,0,Azerbaijan,,,2021-04-04 01:55:40.203885,2020-11-23 00:00:00.000000,1.28928223,1.78277542,3.43876407,130722,180758,348662,67035,99163,192354,0.66115114,0.97802211,1.89713661,0.45356621,0.53033748,0.63502925
0,0,Azerbaijan,,,2021-04-04 01:55:40.203885,2020-11-24 00:00:00.000000,1.35966155,1.88804863,3.57346286,137858,191432,362319,71240,104736,201713,0.70262577,1.03298457,1.98944963,0.43974668,0.51991717,0.62685066
0,0,Azerbaijan,,,2021-04-04 01:55:40.203885,2020-11-25 00:00:00.000000,1.42873679,2.00108826,3.70740037,144862,202893,375899,75681,110285,210210,0.74642503,1.08771402,2.07325445,0.42362092,0.50708156,0.62674962
0,0,Azerbaijan,,,2021-04-04 01:55:40.203885,2020-11-26 00:00:00.000000,1.49539042,2.10963661,3.84076350,151620,213899,389421,80024,116483,218368,0.78925591,1.14885079,2.15370725,0.40647362,0.49115945,0.60543386
0,0,Azerbaijan,,,2021-04-04 01:55:40.203885,2020-11-27 00:00:00.000000,1.55611438,2.19160104,3.97345103,157777,222210,402875,84567,121356,227193,0.83407109,1.19690772,2.24074969,0.38162846,0.47249082,0.57538062
0,0,Azerbaijan,,,2021-04-04 01:55:40.203885,2020-11-28 00:00:00.000000,1.60326707,2.25133693,4.10387125,162558,228266,416098,88333,126586,238807,0.87120559,1.24848572,2.35529100,0.36910310,0.43927314,0.53427651
0,0,Azerbaijan,,,2021-04-04 01:55:40.203885,2020-11-29 00:00:00.000000,1.61722599,2.30006575,4.23026950,163973,233207,428914,91201,131155,249608,0.89949802,1.29355172,2.46182181,0.35322555,0.42298341,0.53022818
0,0,Azerbaijan,,,2021-04-04 01:55:40.203885,2020-11-30 00:00:00.000000,1.62686884,2.34280975,4.35151022,164951,237541,441207,93346,135470,257216,0.92065330,1.33610675,2.53685983,0.35175021,0.41910499,0.49420783
0,0,Azerbaijan,,,2021-04-04 01:55:40.203885,2020-12-01 00:00:00.000000,1.65673358,2.38239073,4.46277833,167979,241554,452488,95360,139143,261356,0.94052002,1.37233761,2.57768901,0.35278868,0.41162516,0.48269524
0,0,Azerbaijan,,,2021-04-04 01:55:40.203885,2020-12-02 00:00:00.000000,1.69608458,2.41987175,4.55961811,171968,245355,462307,97206,142352,264449,0.95872084,1.40398255,2.60819215,0.34320226,0.40074020,0.48058244
0,0,Azerbaijan,,,2021-04-04 01:55:40.203885,2020-12-03 00:00:00.000000,1.73594300,2.45507214,4.64451722,176010,248924,470915,98863,145247,270687,0.97506916,1.43254221,2.66971922,0.34289116,0.39386318,0.48036270
0,0,Azerbaijan,,,2021-04-04 01:55:40.203885,2020-12-04 00:00:00.000000,1.77564366,2.49234767,4.71834427,180035,252703,478401,100306,147845,276169,0.98929312,1.45816128,2.72378957,0.34284217,0.39227947,0.48100004
0,0,Azerbaijan,,,2021-04-04 01:55:40.203885,2020-12-05 00:00:00.000000,1.81360311,2.51867055,4.78124119,183884,255372,484778,101510,149730,280939,1.00116696,1.47675138,2.77082833,0.33252451,0.39245539,0.48326861
0,0,Azerbaijan,,,2021-04-04 01:55:40.203885,2020-12-06 00:00:00.000000,1.82994777,2.52905706,4.83363023,185541,256425,490090,102484,151010,285024,1.01077641,1.48937382,2.81112059,0.33240465,0.38830890,0.48263547
0,0,Azerbaijan,,,2021-04-04 01:55:40.203885,2020-12-07 00:00:00.000000,1.83392780,2.54039944,4.87633590,185945,257575,494420,103265,152013,288462,1.01848426,1.49927307,2.84503169,0.32539371,0.38775832,0.49240732
0,0,Azerbaijan,,,2021-04-04 01:55:40.203885,2020-12-08 00:00:00.000000,1.83463679,2.55338143,4.91028829,186017,258891,497862,103899,152945,291304,1.02473034,1.50845976,2.87306408,0.31934749,0.38320662,0.50536272
0,0,Azerbaijan,,,2021-04-04 01:55:40.203885,2020-12-09 00:00:00.000000,1.83265660,2.56715067,4.93610009,185816,260287,500479,104423,153863,293606,1.02989759,1.51751487,2.89576515,0.31909671,0.38580758,0.50511733
0,0,Azerbaijan,,,2021-04-04 01:55:40.203885,2020-12-10 00:00:00.000000,1.82848001,2.58111228,4.95340763,185392,261703,502234,104826,154406,295410,1.03387516,1.52287125,2.91355279,0.31888274,0.38352922,0.50499325
0,0,Azerbaijan,,,2021-04-04 01:55:40.203885,2020-12-11 00:00:00.000000,1.82237900,2.59094429,4.95908427,184774,262700,502810,105095,154570,296714,1.03652862,1.52448613,2.92641808,0.31753904,0.38016085,0.50481006
0,0,Azerbaijan,,,2021-04-04 01:55:40.203885,2020-12-12 00:00:00.000000,1.81415765,2.58887012,4.94282480,183940,262490,501161,105348,154507,297396,1.03902519,1.52386869,2.93314362,0.31611303,0.36930559,0.50417746
0,0,Azerbaijan,,,2021-04-04 01:55:40.203885,2020-12-13 00:00:00.000000,1.80247645,2.57338014,4.88236213,182756,260919,495031,104954,154146,297009,1.03513922,1.52030464,2.92932620,0.29701206,0.34917237,0.47941787
0,0,Azerbaijan,,,2021-04-04 01:55:40.203885,2020-12-14 00:00:00.000000,1.78286867,2.53186661,4.75822992,180768,256710,482445,104018,153671,294518,1.02590766,1.51562209,2.90475625,0.27087566,0.33578505,0.44712848
0,0,Azerbaijan,,,2021-04-04 01:55:40.203885,2020-12-15 00:00:00.000000,1.74283047,2.46396857,4.58231650,176708,249826,464609,102695,152765,288749,1.01285816,1.50668788,2.84786297,0.23380370,0.29957969,0.42209157
0,0,Azerbaijan,,,2021-04-04 01:55:40.203885,2020-12-16 00:00:00.000000,1.66732246,2.43567056,4.37631390,169052,246956,443722,101024,149322,282322,0.99637678,1.47272510,2.78447357,0.18171531,0.25773154,0.39665716
0,0,Azerbaijan,,,2021-04-04 01:55:40.203885,2020-12-17 00:00:00.000000,1.58370017,2.38050592,4.14712811,160574,241363,420484,98840,145069,273275,0.97483991,1.43078581,2.69524047,0.14962272,0.21469938,0.33441409
0,0,Azerbaijan,,,2021-04-04 01:55:40.203885,2020-12-18 00:00:00.000000,1.47294625,2.25122067,3.86595161,149344,228255,391975,95353,139643,261001,0.94044781,1.37726454,2.57418641,0.12768170,0.18263400,0.26018459
0,0,Azerbaijan,,,2021-04-04 01:55:40.203885,2020-12-19 00:00:00.000000,1.35595828,2.08442625,3.55312497,137482,211343,360257,91038,132659,247192,0.89789223,1.30838973,2.43799758,0.11090128,0.15881220,0.22899598
0,0,Azerbaijan,,,2021-04-04 01:55:40.203885,2020-12-20 00:00:00.000000,1.24152706,1.91362413,3.24643220,125880,194025,329161,85632,124549,232832,0.84456971,1.22840041,2.29636240,0.10450312,0.14821343,0.21268537
0,0,Azerbaijan,,,2021-04-04 01:55:40.203885,2020-12-21 00:00:00.000000,1.13314499,1.75018788,3.00890887,114891,177454,305078,78845,115950,218224,0.77763630,1.14359254,2.15229213,0.10369499,0.14211789,0.20615637
0,0,Azerbaijan,,,2021-04-04 01:55:40.203885,2020-12-22 00:00:00.000000,1.03242446,1.59667628,2.77054896,104679,161889,280910,71797,107263,203280,0.70811785,1.05791528,2.00489863,0.10366607,0.13848773,0.20382486
0,0,Azerbaijan,,,2021-04-04 01:55:40.203885,2020-12-23 00:00:00.000000,0.93978455,1.45862069,2.54091428,95286,147892,257627,65318,99264,188117,0.64422034,0.97902290,1.85535780,0.10390665,0.13635355,0.20315026
0,0,Azerbaijan,,,2021-04-04 01:55:40.203885,2020-12-24 00:00:00.000000,0.85506758,1.33492657,2.32631489,86696,135350,235869,59451,91894,173198,0.58634967,0.90633280,1.70821483,0.10484111,0.13557544,0.20312347
0,0,Azerbaijan,,,2021-04-04 01:55:40.203885,2020-12-25 00:00:00.000000,0.77788141,1.22082321,2.12900950,78870,123781,215863,54179,84520,158969,0.53436217,0.83360099,1.56787710,0.10779131,0.13581962,0.20350670
0,0,Azerbaijan,,,2021-04-04 01:55:40.203885,2020-12-26 00:00:00.000000,0.70781113,1.11490355,1.94872311,71766,113042,197584,49192,76966,145694,0.48517137,0.75910090,1.43694844,0.10962347,0.13664925,0.20435669
0,0,Azerbaijan,,,2021-04-04 01:55:40.203885,2020-12-27 00:00:00.000000,0.64451457,1.01723103,1.78411179,65348,103138,180894,44384,70333,133456,0.43775206,0.69368148,1.31624195,0.10908342,0.13897908,0.20585602
0,0,Azerbaijan,,,2021-04-04 01:55:40.203885,2020-12-28 00:00:00.000000,0.58754154,0.92599072,1.63369386,59571,93887,165643,40034,64122,122219,0.39484830,0.63242179,1.20542054,0.10642495,0.14163458,0.21533148
0,0,Azerbaijan,,,2021-04-04 01:55:40.203885,2020-12-29 00:00:00.000000,0.53630835,0.83883769,1.49615752,54377,85051,151698,36137,58388,111939,0.35641853,0.57587120,1.10402807,0.10497996,0.14617033,0.22136554
0,0,Azerbaijan,,,2021-04-04 01:55:40.203885,2020-12-30 00:00:00.000000,0.49041496,0.75980566,1.37035349,49724,77038,138942,32694,53017,102533,0.32245847,0.52289662,1.01126032,0.11051414,0.15374564,0.22607696
0,0,Azerbaijan,,,2021-04-04 01:55:40.203885,2020-12-31 00:00:00.000000,0.44963546,0.69278058,1.25532593,45589,70242,127279,29718,48306,93925,0.29310969,0.47643347,0.92636542,0.11636225,0.15676266,0.23131326
0,0,Azerbaijan,,,2021-04-04 01:55:40.203885,2021-01-01 00:00:00.000000,0.41369950,0.64000698,1.15067491,41945,64891,116668,27155,44237,86050,0.26782391,0.43629950,0.84869084,0.12838074,0.17109815,0.24253831
0,0,Azerbaijan,,,2021-04-04 01:55:40.203885,2021-01-02 00:00:00.000000,0.38572902,0.59133924,1.05893061,39109,59956,107366,24882,40473,78866,0.24541157,0.39917965,0.77783591,0.13887594,0.18390273,0.25992658
0,0,Azerbaijan,,,2021-04-04 01:55:40.203885,2021-01-03 00:00:00.000000,0.36377786,0.54962959,0.98182613,36884,55727,99549,22859,37419,72457,0.22545649,0.36905590,0.71462764,0.14501472,0.19371321,0.27078241
0,0,Azerbaijan,,,2021-04-04 01:55:40.203885,2021-01-04 00:00:00.000000,0.33922831,0.51101441,0.91305636,34394,51812,92576,21064,34615,66931,0.20774965,0.34140227,0.66012855,0.14814313,0.20073176,0.28627372
0,0,Azerbaijan,,,2021-04-04 01:55:40.203885,2021-01-05 00:00:00.000000,0.31698980,0.47474911,0.85053983,32140,48135,86237,19484,32158,62087,0.19216693,0.31716973,0.61235410,0.14882492,0.20330151,0.30239103
0,0,Azerbaijan,,,2021-04-04 01:55:40.203885,2021-01-06 00:00:00.000000,0.29676355,0.44188395,0.79426945,30089,44803,80532,18090,30062,57743,0.17842462,0.29649719,0.56950844,0.14923814,0.20393038,0.30611264
0,0,Azerbaijan,,,2021-04-04 01:55:40.203885,2021-01-07 00:00:00.000000,0.27559125,0.41194624,0.74624447,27942,41767,75663,16847,28157,53822,0.16616064,0.27771111,0.53083561,0.14923247,0.20632871,0.30747168
0,0,Azerbaijan,,,2021-04-04 01:55:40.203885,2021-01-08 00:00:00.000000,0.25617590,0.38515681,0.70437802,25974,39051,71418,15722,26403,50390,0.15506805,0.26040611,0.49698789,0.14944990,0.20833803,0.30942502
0,0,Azerbaijan,,,2021-04-04 01:55:40.203885,2021-01-09 00:00:00.000000,0.23842074,0.36267704,0.66596897,24173,36772,67523,14694,24775,47397,0.14492888,0.24435810,0.46746880,0.15026258,0.20948111,0.31239317
0,0,Azerbaijan,,,2021-04-04 01:55:40.203885,2021-01-10 00:00:00.000000,0.22229083,0.34010545,0.63010744,22538,34483,63887,13707,23169,44712,0.13519551,0.22851800,0.44098562,0.15194485,0.21011007,0.31652211
0,0,Azerbaijan,,,2021-04-04 01:55:40.203885,2021-01-11 00:00:00.000000,0.20772713,0.32040710,0.59596483,21061,32486,60425,12753,21811,42243,0.12578011,0.21512428,0.41663576,0.14979456,0.21064956,0.32141415
0,0,Azerbaijan,,,2021-04-04 01:55:40.203885,2021-01-12 00:00:00.000000,0.19452257,0.30090334,0.56344936,19722,30509,57129,11883,20454,39935,0.11720549,0.20173703,0.39387720,0.14859104,0.20939926,0.32611381
0,0,Azerbaijan,,,2021-04-04 01:55:40.203885,2021-01-13 00:00:00.000000,0.18294314,0.28371058,0.53245679,18548,28765,53986,11093,19336,37754,0.10941694,0.19071317,0.37236030,0.14829903,0.21349767,0.31714032
0,0,Azerbaijan,,,2021-04-04 01:55:40.203885,2021-01-14 00:00:00.000000,0.17225247,0.26747478,0.50300236,17464,27119,51000,10375,18282,35681,0.10233326,0.18031938,0.35191491,0.15167297,0.21199934,0.30311399
0,0,Azerbaijan,,,2021-04-04 01:55:40.203885,2021-01-15 00:00:00.000000,0.16230186,0.25189235,0.47508013,16456,25539,48169,9718,17259,33711,0.09585508,0.17022226,0.33248708,0.15630869,0.21382904,0.30050267
0,0,Azerbaijan,,,2021-04-04 01:55:40.203885,2021-01-16 00:00:00.000000,0.15300663,0.23743824,0.44865036,15513,24074,45489,9115,16238,31842,0.08990141,0.16015450,0.31405731,0.14996199,0.21242815,0.32513851
0,0,Azerbaijan,,,2021-04-04 01:55:40.203885,2021-01-17 00:00:00.000000,0.14429522,0.22349407,0.42365584,14630,22660,42955,8559,15266,30073,0.08441768,0.15056795,0.29660226,0.15595561,0.21373118,0.32311690
0,0,Azerbaijan,,,2021-04-04 01:55:40.203885,2021-01-18 00:00:00.000000,0.13610345,0.21027321,0.40001657,13799,21319,40558,8047,14324,28398,0.07936766,0.14127662,0.28008817,0.15591009,0.22088116,0.31135978
0,0,Azerbaijan,,,2021-04-04 01:55:40.203885,2021-01-19 00:00:00.000000,0.12835754,0.19704954,0.37765437,13014,19979,38291,7575,13435,26677,0.07471419,0.13251394,0.26311249,0.15600852,0.22398581,0.30911571
0,0,Azerbaijan,,,2021-04-04 01:55:40.203885,2021-01-20 00:00:00.000000,0.12097264,0.18447596,0.35640885,12265,18704,36136,7142,12628,25035,0.07044762,0.12455163,0.24691658,0.15623931,0.22447915,0.31672764
0,0,Azerbaijan,,,2021-04-04 01:55:40.203885,2021-01-21 00:00:00.000000,0.11391450,0.17408285,0.33605244,11549,17650,34072,6747,11855,23598,0.06654996,0.11692688,0.23274271,0.15873374,0.22401018,0.32304850
0,0,Azerbaijan,,,2021-04-04 01:55:40.203885,2021-01-22 00:00:00.000000,0.10819207,0.16456071,0.31635800,10969,16685,32076,6387,11097,22327,0.06299550,0.10944951,0.22021505,0.16475400,0.22983028,0.32763440
0,0,Azerbaijan,,,2021-04-04 01:55:40.203885,2021-01-23 00:00:00.000000,0.10302117,0.15575660,0.29720091,10445,15792,30133,6058,10417,21177,0.05975736,0.10274578,0.20887051,0.16936653,0.23218161,0.32958471
0,0,Azerbaijan,,,2021-04-04 01:55:40.203885,2021-01-24 00:00:00.000000,0.09826037,0.14822921,0.27870487,9962,15029,28258,5759,9832,19971,0.05680087,0.09697822,0.19697656,0.17140509,0.23553508,0.32745967
0,0,Azerbaijan,,,2021-04-04 01:55:40.203885,2021-01-25 00:00:00.000000,0.09247556,0.14107961,0.26201814,9376,14304,26566,5483,9306,18752,0.05408493,0.09178689,0.18494731,0.17085649,0.23654149,0.33330861
0,0,Azerbaijan,,,2021-04-04 01:55:40.203885,2021-01-26 00:00:00.000000,0.08722667,0.13444817,0.24985962,8844,13631,25333,5230,8824,17583,0.05158896,0.08703097,0.17341784,0.16839655,0.23935323,0.33767849
0,0,Azerbaijan,,,2021-04-04 01:55:40.203885,2021-01-27 00:00:00.000000,0.08327940,0.12754875,0.23792873,8443,12932,24124,4998,8346,16474,0.04930081,0.08232320,0.16248770,0.16788888,0.24284880,0.34049580
0,0,Azerbaijan,,,2021-04-04 01:55:40.203885,2021-01-28 00:00:00.000000,0.07960106,0.12074482,0.22691663,8070,12242,23007,4787,7898,15600,0.04721718,0.07790355,0.15386553,0.16983112,0.24633798,0.34766297
0,0,Azerbaijan,,,2021-04-04 01:55:40.203885,2021-01-29 00:00:00.000000,0.07650813,0.11415135,0.21713268,7757,11574,22015,4595,7443,14872,0.04532705,0.07341193,0.14668071,0.17597230,0.25097996,0.35489753
0,0,Azerbaijan,,,2021-04-04 01:55:40.203885,2021-01-30 00:00:00.000000,0.07404597,0.10827311,0.20801643,7507,10977,21091,4418,7024,14208,0.04357438,0.06928272,0.14013279,0.18394087,0.26119422,0.35604312
0,0,Azerbaijan,,,2021-04-04 01:55:40.203885,2021-01-31 00:00:00.000000,0.07162770,0.10328184,0.19937705,7262,10471,20215,4175,6655,13597,0.04118081,0.06563727,0.13410548,0.18319461,0.27044358,0.37510033
0,0,Azerbaijan,,,2021-04-04 01:55:40.203885,2021-02-01 00:00:00.000000,0.06900166,0.09918307,0.19114265,6996,10056,19380,4012,6352,13025,0.03957186,0.06265236,0.12846266,0.18595577,0.27878786,0.37390692
0,0,Azerbaijan,,,2021-04-04 01:55:40.203885,2021-02-02 00:00:00.000000,0.06685183,0.09546592,0.18327620,6778,9679,18582,3861,6081,12483,0.03808335,0.05997561,0.12312326,0.18896917,0.28104643,0.37973464
0,0,Azerbaijan,,,2021-04-04 01:55:40.203885,2021-02-03 00:00:00.000000,0.06513658,0.09259137,0.17576417,6604,9388,17821,3724,5860,11968,0.03673831,0.05780200,0.11804449,0.19448996,0.28296720,0.40073789
0,0,Azerbaijan,,,2021-04-04 01:55:40.203885,2021-02-04 00:00:00.000000,0.06351310,0.09030539,0.17023652,6439,9156,17260,3595,5675,11477,0.03546249,0.05597629,0.11320437,0.20535689,0.28682152,0.44135750
0,0,Azerbaijan,,,2021-04-04 01:55:40.203885,2021-02-05 00:00:00.000000,0.06196509,0.08793678,0.16565143,6282,8916,16795,3473,5504,11010,0.03426045,0.05429026,0.10859754,0.22652664,0.29172006,0.47181038
0,0,Azerbaijan,,,2021-04-04 01:55:40.203885,2021-02-06 00:00:00.000000,0.06007259,0.08555606,0.16175352,6090,8674,16400,3360,5294,10569,0.03314650,0.05221878,0.10424131,0.23337416,0.30271815,0.48299998
0,0,Azerbaijan,,,2021-04-04 01:55:40.203885,2021-02-07 00:00:00.000000,0.05856684,0.08278280,0.15872773,5938,8393,16093,3260,5160,10158,0.03215568,0.05089491,0.10018946,0.24237782,0.31293279,0.48540460
0,0,Azerbaijan,,,2021-04-04 01:55:40.203885,2021-02-08 00:00:00.000000,0.05759507,0.08034236,0.15658336,5839,8146,15876,3224,5055,9787,0.03180599,0.04986019,0.09653229,0.25588472,0.33285164,0.49017366
0,0,Azerbaijan,,,2021-04-04 01:55:40.203885,2021-02-09 00:00:00.000000,0.05717991,0.07924112,0.15513521,5797,8034,15729,3139,4986,9489,0.03096737,0.04917657,0.09359159,0.27547729,0.35382613,0.50018822
0,0,Azerbaijan,,,2021-04-04 01:55:40.203885,2021-02-10 00:00:00.000000,0.05695655,0.07857575,0.15418953,5774,7966,15633,3083,4930,9400,0.03041594,0.04862415,0.09271556,0.28228574,0.36136711,0.50475220
0,0,Azerbaijan,,,2021-04-04 01:55:40.203885,2021-02-11 00:00:00.000000,0.05626477,0.07845673,0.15372088,5704,7954,15586,3060,4872,9299,0.03018409,0.04805836,0.09171782,0.28536245,0.38298770,0.50815462
0,0,Azerbaijan,,,2021-04-04 01:55:40.203885,2021-02-12 00:00:00.000000,0.05569178,0.07867161,0.15401049,5646,7976,15615,3070,4825,9244,0.03027919,0.04759216,0.09117331,0.28613325,0.39605123,0.51789954
0,0,Azerbaijan,,,2021-04-04 01:55:40.203885,2021-02-13 00:00:00.000000,0.05528704,0.07925877,0.15539295,5605,8036,15755,3100,4798,9240,0.03058347,0.04732823,0.09113968,0.29057972,0.40604471,0.53865741
0,0,Azerbaijan,,,2021-04-04 01:55:40.203885,2021-02-14 00:00:00.000000,0.05520935,0.07996827,0.15763792,5597,8108,15983,3150,4790,9294,0.03106938,0.04724419,0.09166477,0.30295621,0.41996657,0.54856860
0,0,Azerbaijan,,,2021-04-04 01:55:40.203885,2021-02-15 00:00:00.000000,0.05568896,0.08080158,0.16027967,5646,8192,16251,3200,4772,9399,0.03156270,0.04707438,0.09270622,0.31313395,0.43257860,0.56664336
0,0,Azerbaijan,,,2021-04-04 01:55:40.203885,2021-02-16 00:00:00.000000,0.05622113,0.08185792,0.16320455,5700,8299,16547,3208,4832,9531,0.03164484,0.04765743,0.09400230,0.32306763,0.43645297,0.57576539
0,0,Azerbaijan,,,2021-04-04 01:55:40.203885,2021-02-17 00:00:00.000000,0.05680434,0.08293397,0.16648771,5759,8408,16880,3238,4896,9685,0.03194431,0.04829023,0.09552146,0.32745667,0.44866130,0.58213056
0,0,Azerbaijan,,,2021-04-04 01:55:40.203885,2021-02-18 00:00:00.000000,0.05747072,0.08498064,0.17074628,5827,8616,17312,3298,4962,9857,0.03253630,0.04893995,0.09722414,0.33603405,0.46546527,0.61983065
0,0,Azerbaijan,,,2021-04-04 01:55:40.203885,2021-02-19 00:00:00.000000,0.05834042,0.08736719,0.17655746,5915,8858,17901,3361,5042,10072,0.03315771,0.04973597,0.09934487,0.35334378,0.47702667,0.64667004
0,0,Azerbaijan,,,2021-04-04 01:55:40.203885,2021-02-20 00:00:00.000000,0.06149983,0.09001509,0.17939384,6235,9126,18189,3431,5162,10367,0.03384044,0.05091633,0.10225257,0.37984631,0.49341975,0.66723902
0,0,Azerbaijan,,,2021-04-04 01:55:40.203885,2021-02-21 00:00:00.000000,0.06553850,0.09308294,0.18141947,6645,9437,18394,3538,5306,10762,0.03489586,0.05233849,0.10615047,0.38299682,0.51584225,0.69514302
0,0,Azerbaijan,,,2021-04-04 01:55:40.203885,2021-02-22 00:00:00.000000,0.06907581,0.09687503,0.18769260,7003,9822,19030,3609,5481,11244,0.03560442,0.05406397,0.11090494,0.39307774,0.54661089,0.71958206
0,0,Azerbaijan,,,2021-04-04 01:55:40.203885,2021-02-23 00:00:00.000000,0.07152871,0.10160699,0.19756351,7252,10302,20031,3729,5699,11696,0.03678162,0.05621365,0.11536057,0.40315802,0.56770811,0.73913120
0,0,Azerbaijan,,,2021-04-04 01:55:40.203885,2021-02-24 00:00:00.000000,0.07455380,0.10671579,0.20808562,7559,10820,21098,3899,5976,12170,0.03845880,0.05894316,0.12003787,0.41063206,0.57807600,0.74594314
0,0,Azerbaijan,,,2021-04-04 01:55:40.203885,2021-02-25 00:00:00.000000,0.07842769,0.11243847,0.21926107,7951,11400,22231,4109,6283,12670,0.04052623,0.06197112,0.12496755,0.43456584,0.58514907,0.78311837
0,0,Azerbaijan,,,2021-04-04 01:55:40.203885,2021-02-26 00:00:00.000000,0.08364602,0.11882090,0.23112646,8481,12047,23434,4358,6639,13195,0.04298243,0.06548078,0.13014110,0.44864027,0.59986301,0.81330899
0,0,Azerbaijan,,,2021-04-04 01:55:40.203885,2021-02-27 00:00:00.000000,0.08925857,0.12451201,0.24374685,9050,12624,24713,4633,7040,13943,0.04569988,0.06943631,0.13752133,0.45907114,0.60277928,0.82858668
0,0,Azerbaijan,,,2021-04-04 01:55:40.203885,2021-02-28 00:00:00.000000,0.09526433,0.13290607,0.25847211,9659,13475,26206,4927,7393,14989,0.04859968,0.07291730,0.14783613,0.47294413,0.61169868,0.83673354
0,0,Azerbaijan,,,2021-04-04 01:55:40.203885,2021-03-01 00:00:00.000000,0.10165042,0.14083979,0.27325587,10306,14279,27705,5239,7817,15986,0.05167097,0.07710409,0.15766875,0.48572342,0.60592640,0.83919648
0,0,Azerbaijan,,,2021-04-04 01:55:40.203885,2021-03-02 00:00:00.000000,0.10796301,0.14874780,0.28866164,10946,15081,29267,5567,8360,16935,0.05491555,0.08246233,0.16703225,0.49375900,0.61738919,0.84410345
0,0,Azerbaijan,,,2021-04-04 01:55:40.203885,2021-03-03 00:00:00.000000,0.11457107,0.15679196,0.30496468,11616,15897,30920,5916,8955,17946,0.05835387,0.08832154,0.17700544,0.48902336,0.62772857,0.84525485
0,0,Azerbaijan,,,2021-04-04 01:55:40.203885,2021-03-04 00:00:00.000000,0.12110097,0.16739494,0.32219496,12278,16972,32667,6286,9473,18997,0.06200353,0.09343666,0.18737010,0.49099383,0.63141267,0.84583962
0,0,Azerbaijan,,,2021-04-04 01:55:40.203885,2021-03-05 00:00:00.000000,0.12970244,0.17775173,0.34251489,13150,18022,34728,6680,10126,20110,0.06588706,0.09987234,0.19834036,0.51025847,0.64269237,0.85597217
0,0,Azerbaijan,,,2021-04-04 01:55:40.203885,2021-03-06 00:00:00.000000,0.13749844,0.19059618,0.36672293,13941,19324,37182,7108,10835,21360,0.07011013,0.10686283,0.21067163,0.52845244,0.64683539,0.86640307
0,0,Azerbaijan,,,2021-04-04 01:55:40.203885,2021-03-07 00:00:00.000000,0.14606415,0.20546428,0.39441226,14809,20832,39990,7546,11598,22711,0.07442528,0.11439414,0.22399265,0.52472779,0.65708767,0.86973542
0,0,Azerbaijan,,,2021-04-04 01:55:40.203885,2021-03-08 00:00:00.000000,0.15828652,0.22088667,0.42519828,16048,22396,43111,8033,12417,24270,0.07923221,0.12246992,0.23937559,0.52557737,0.67753720,0.89320108
0,0,Azerbaijan,,,2021-04-04 01:55:40.203885,2021-03-09 00:00:00.000000,0.17206230,0.23816630,0.45872065,17445,24148,46510,8623,13280,26079,0.08505429,0.13098390,0.25721069,0.54242037,0.68312934,0.91886327
0,0,Azerbaijan,,,2021-04-04 01:55:40.203885,2021-03-10 00:00:00.000000,0.18712674,0.25837571,0.49467615,18973,26197,50156,9267,14312,28102,0.09139936,0.14116468,0.27716555,0.54533091,0.69059541,0.94854472
0,0,Azerbaijan,,,2021-04-04 01:55:40.203885,2021-03-11 00:00:00.000000,0.20244542,0.28133674,0.53265248,20526,28525,54006,10019,15484,30315,0.09881741,0.15272223,0.29899623,0.54669098,0.69141517,0.97137500
0,0,Azerbaijan,,,2021-04-04 01:55:40.203885,2021-03-12 00:00:00.000000,0.21800216,0.30597861,0.57253569,22103,31023,58050,10769,16699,32714,0.10621729,0.16470304,0.32265736,0.54775438,0.68878143,0.99428909
0,0,Azerbaijan,,,2021-04-04 01:55:40.203885,2021-03-13 00:00:00.000000,0.23344688,0.33245777,0.62130855,23669,33708,62995,11578,17954,35303,0.11419642,0.17707560,0.34819263,0.54800527,0.68269804,0.99545805
0,0,Azerbaijan,,,2021-04-04 01:55:40.203885,2021-03-14 00:00:00.000000,0.25081660,0.35920108,0.67410196,25430,36420,68348,12461,19320,37979,0.12290716,0.19054894,0.37457921,0.54828145,0.68011334,0.99574221
0,0,Azerbaijan,,,2021-04-04 01:55:40.203885,2021-03-15 00:00:00.000000,0.26990705,0.38616141,0.73121407,27366,39153,74139,13520,20794,40565,0.13334782,0.20509038,0.40009117,0.54885550,0.67341279,1.04195871
0,0,Azerbaijan,,,2021-04-04 01:55:40.203885,2021-03-16 00:00:00.000000,0.29103153,0.41524057,0.79295841,29508,42101,80399,14750,22418,43191,0.14548466,0.22110570,0.42598369,0.54415665,0.67067337,1.05150479
0,0,Azerbaijan,,,2021-04-04 01:55:40.203885,2021-03-17 00:00:00.000000,0.31201209,0.44442294,0.85967084,31635,45060,87163,16137,24035,45882,0.15916373,0.23705314,0.45252543,0.54557205,0.66437872,1.06595364
0,0,Azerbaijan,,,2021-04-04 01:55:40.203885,2021-03-18 00:00:00.000000,0.33419397,0.47325186,0.93170502,33884,47983,94467,17619,25903,49664,0.17377807,0.25548110,0.48982947,0.54428804,0.66594506,1.08637055
0,0,Azerbaijan,,,2021-04-04 01:55:40.203885,2021-03-19 00:00:00.000000,0.35897381,0.50570975,1.00943219,36396,51274,102348,18910,27936,53836,0.18650513,0.27552747,0.53097517,0.54868007,0.67032604,1.08379220
0,0,Azerbaijan,,,2021-04-04 01:55:40.203885,2021-03-20 00:00:00.000000,0.38619785,0.54816593,1.09324029,39157,55579,110845,20607,29802,58339,0.20324882,0.29393585,0.57539041,0.53991637,0.67904475,1.07617305
0,0,Azerbaijan,,,2021-04-04 01:55:40.203885,2021-03-21 00:00:00.000000,0.41592481,0.59618589,1.18353287,42171,60448,120000,22333,31740,63197,0.22026547,0.31305091,0.62330069,0.53489036,0.67200440,1.05994857
0,0,Azerbaijan,,,2021-04-04 01:55:40.203885,2021-03-22 00:00:00.000000,0.44851217,0.64888376,1.28072015,45475,65791,129854,24058,34131,68433,0.23728730,0.33662988,0.67494118,0.53388519,0.67092662,1.03702041
0,0,Azerbaijan,,,2021-04-04 01:55:40.203885,2021-03-23 00:00:00.000000,0.48346231,0.70187451,1.38523887,49019,71164,140451,25876,36788,74072,0.25521604,0.36283171,0.73055319,0.53366948,0.66494570,1.01327133
0,0,Azerbaijan,,,2021-04-04 01:55:40.203885,2021-03-24 00:00:00.000000,0.52053251,0.75514635,1.49752684,52777,76565,151836,27797,39822,80139,0.27415768,0.39275800,0.79039003,0.53347538,0.65982316,0.99570178
0,0,Azerbaijan,,,2021-04-04 01:55:40.203885,2021-03-25 00:00:00.000000,0.55831129,0.80461499,1.61802874,56608,81581,164054,29833,43141,86573,0.29424206,0.42549789,0.85385356,0.53375497,0.65692450,0.98582344
0,0,Azerbaijan,,,2021-04-04 01:55:40.203885,2021-03-26 00:00:00.000000,0.59823282,0.85515824,1.74719087,60655,86705,177150,31999,46302,93086,0.31560025,0.45667344,0.91808499,0.54344688,0.65117950,0.98189572
0,0,Azerbaijan,,,2021-04-04 01:55:40.203885,2021-03-27 00:00:00.000000,0.64155655,0.90846662,1.88414061,65048,92111,191036,34289,49469,100038,0.33819214,0.48790788,0.98665080,0.54360223,0.64630243,0.98513475
0,0,Azerbaijan,,,2021-04-04 01:55:40.203885,2021-03-28 00:00:00.000000,0.68654012,0.96826160,2.01554970,69609,98173,204360,36674,52341,107451,0.36171567,0.51623495,1.05976326,0.54354390,0.64595453,1.00502492
0,0,Azerbaijan,,,2021-04-04 01:55:40.203885,2021-03-29 00:00:00.000000,0.73240300,1.02801399,2.15435815,74259,104232,218434,39153,55276,115346,0.38616145,0.54517970,1.13763181,0.53965154,0.63771786,1.03290546
0,0,Azerbaijan,,,2021-04-04 01:55:40.203885,2021-03-30 00:00:00.000000,0.77896156,1.08643199,2.30072806,78980,110155,233274,41415,58374,123743,0.40847098,0.57573174,1.22045348,0.51345791,0.62953416,1.04377180
0,0,Azerbaijan,,,2021-04-04 01:55:40.203885,2021-03-31 00:00:00.000000,0.82644474,1.14784929,2.45476469,83794,116382,248892,44085,61992,132663,0.43480677,0.61141679,1.30842647,0.48795060,0.62716097,1.04588561
0,0,Azerbaijan,,,2021-04-04 01:55:40.203885,2021-04-01 00:00:00.000000,0.87530343,1.21241039,2.61652553,88748,122928,265294,46556,65799,142124,0.45917744,0.64896117,1.40173474,0.47843013,0.62621840,1.04621653
0,0,Azerbaijan,,,2021-04-04 01:55:40.203885,2021-04-02 00:00:00.000000,0.92598102,1.28198741,2.78600929,93886,129982,282478,48939,69812,152142,0.48267684,0.68854161,1.50054492,0.47572731,0.62592639,1.04626073
0,0,Azerbaijan,,,2021-04-04 01:55:40.203885,2021-04-03 00:00:00.000000,0.97883006,1.35879467,2.96314729,99245,137770,300438,51429,73873,162733,0.50723189,0.72859912,1.60500209,0.47498343,0.62592811,1.04626388
0,0,Azerbaijan,,,2021-04-04 01:55:40.203885,2021-04-04 00:00:00.000000,1.03411305,1.43867031,3.14779428,104850,145869,319160,54023,78458,173909,0.53282149,0.77381591,1.71522490,0.47478281,0.62592908,1.04626270
0,0,Azerbaijan,,,2021-04-04 01:55:40.203885,2021-04-05 00:00:00.000000,1.07850251,1.52276914,3.33971912,109351,154396,338619,56651,83523,185678,0.55873920,0.82377496,1.83129999,0.47472900,0.62592959,1.04626179
0,0,Azerbaijan,,,2021-04-04 01:55:40.203885,2021-04-06 00:00:00.000000,1.12249243,1.61126652,3.53859545,113811,163369,358784,59389,88708,198034,0.58574494,0.87490660,1.95315872,0.47471458,0.62592984,1.04626134
0,0,Azerbaijan,,,2021-04-04 01:55:40.203885,2021-04-07 00:00:00.000000,1.16801555,1.71285385,3.74388383,118427,173669,379598,62242,94220,210948,0.61388594,0.92927485,2.08052730,0.47471072,0.62592997,1.04626113
0,0,Azerbaijan,,,2021-04-04 01:55:40.203885,2021-04-08 00:00:00.000000,1.21510981,1.82317579,3.95486025,123202,184854,400990,65215,99419,224449,0.64320391,0.98055125,2.21368727,0.47470969,0.62593004,1.04626104
0,0,Azerbaijan,,,2021-04-04 01:55:40.203885,2021-04-09 00:00:00.000000,1.26380753,1.91275137,4.17113318,128139,193937,422918,68311,104859,238527,0.67373763,1.03419972,2.35252941,0.47470942,0.62593007,1.04626100
0,0,Azerbaijan,,,2021-04-04 01:55:40.203885,2021-04-10 00:00:00.000000,1.31413777,2.01410145,4.39191924,133242,204213,445304,71534,110744,253162,0.70552384,1.09224314,2.49687922,0.47470934,0.62593009,1.04626099
0,0,Azerbaijan,,,2021-04-04 01:55:40.203885,2021-04-11 00:00:00.000000,1.36612707,2.13064014,4.61630607,138514,216029,468055,74887,116482,268332,0.73859757,1.14883572,2.64648985,0.47470932,0.62593009,1.04626098
0,0,Azerbaijan,,,2021-04-04 01:55:40.203885,2021-04-12 00:00:00.000000,1.41979964,2.26036734,4.84325039,143955,229182,491065,78536,123014,284001,0.77458508,1.21325719,2.80103530,0.47470932,0.62593010,1.04626098
0,0,Azerbaijan,,,2021-04-04 01:55:40.203885,2021-04-13 00:00:00.000000,1.47517713,2.39662401,5.07157856,149570,242997,514216,82348,128914,300130,0.81217908,1.27144496,2.96010411,0.47470931,0.62593010,1.04626098
0,0,Azerbaijan,,,2021-04-04 01:55:40.203885,2021-04-14 00:00:00.000000,1.53227848,2.50865670,5.29999022,155360,254357,537375,86314,135158,316666,0.85129785,1.33303321,3.12319380,0.47470931,0.62593010,1.04626098
0,0,Azerbaijan,,,2021-04-04 01:55:40.203885,2021-04-15 00:00:00.000000,1.59111951,2.61692835,5.52706538,161326,265334,560398,90438,141847,333189,0.89197176,1.39900317,3.28616206,0.47470931,0.62593010,1.04626098
0,0,Azerbaijan,,,2021-04-04 01:55:40.203885,2021-04-16 00:00:00.000000,1.65171265,2.72870084,5.75127503,167470,276667,583131,94723,150068,347673,0.93422814,1.48008170,3.42901177,0.47470931,0.62593010,1.04626097
0,0,Azerbaijan,,,2021-04-04 01:55:40.203885,2021-04-17 00:00:00.000000,1.71406655,2.86380757,6.05986958,173792,290366,614420,99170,157576,362003,0.97809085,1.55413315,3.57034664,0.47470931,0.62593010,1.04626097
