FIPS,HR_UID,nameid,province,region,analysisTime,dates,pointprevalence_025,pointprevalence_50,pointprevalence_975,pointinfections_025,pointinfections_50,pointinfections_975,pointinfectious_025,pointinfectious_50,pointinfectious_975,pointinfectiousprevalence_05,pointinfectiousprevalence_50,pointinfectiousprevalence_95,infectrate_025,infectrate_50,infectrate_975
29101,0,USMissouriJohnson,Missouri,Johnson,2021-04-04 08:06:29.854686,2020-03-09 00:00:00.000000,0.00035488,0.00510058,0.02405004,0,2,13,0,1,8,0.00018409,0.00286649,0.01483268,0.33328954,0.46081327,0.65628801
29101,0,USMissouriJohnson,Missouri,Johnson,2021-04-04 08:06:29.854686,2020-03-10 00:00:00.000000,0.00037501,0.00545106,0.02417139,0,2,13,0,1,8,0.00019486,0.00310152,0.01616351,0.33328952,0.46078887,0.65623713
29101,0,USMissouriJohnson,Missouri,Johnson,2021-04-04 08:06:29.854686,2020-03-11 00:00:00.000000,0.00040731,0.00589804,0.02452139,0,3,13,0,1,8,0.00022116,0.00340961,0.01634024,0.33328947,0.46073274,0.65611863
29101,0,USMissouriJohnson,Missouri,Johnson,2021-04-04 08:06:29.854686,2020-03-12 00:00:00.000000,0.00044672,0.00657787,0.02496715,0,3,13,0,2,8,0.00025223,0.00388767,0.01648662,0.33328939,0.46060374,0.65583998
29101,0,USMissouriJohnson,Missouri,Johnson,2021-04-04 08:06:29.854686,2020-03-13 00:00:00.000000,0.00049218,0.00733044,0.02545934,0,3,13,0,2,9,0.00028591,0.00435992,0.01672705,0.33328920,0.46030795,0.65518016
29101,0,USMissouriJohnson,Missouri,Johnson,2021-04-04 08:06:29.854686,2020-03-14 00:00:00.000000,0.00054360,0.00815543,0.02632069,0,4,14,0,2,9,0.00032212,0.00483287,0.01720899,0.33328874,0.45963314,0.65361310
29101,0,USMissouriJohnson,Missouri,Johnson,2021-04-04 08:06:29.854686,2020-03-15 00:00:00.000000,0.00060111,0.00898969,0.02884581,0,4,15,0,2,10,0.00036125,0.00535155,0.01865166,0.33328744,0.45589824,0.64990655
29101,0,USMissouriJohnson,Missouri,Johnson,2021-04-04 08:06:29.854686,2020-03-16 00:00:00.000000,0.00367994,0.01182873,0.03616175,1,6,19,0,3,10,0.00040370,0.00596714,0.02022268,0.31411743,0.45199182,0.63851799
29101,0,USMissouriJohnson,Missouri,Johnson,2021-04-04 08:06:29.854686,2020-03-17 00:00:00.000000,0.00643544,0.01414626,0.04808355,3,7,25,1,4,12,0.00190382,0.00773801,0.02266316,0.31411877,0.44509811,0.60833962
29101,0,USMissouriJohnson,Missouri,Johnson,2021-04-04 08:06:29.854686,2020-03-18 00:00:00.000000,0.00869986,0.01775270,0.05533536,4,9,29,2,4,14,0.00378945,0.00918998,0.02617414,0.30039538,0.43865539,0.58534343
29101,0,USMissouriJohnson,Missouri,Johnson,2021-04-04 08:06:29.854686,2020-03-19 00:00:00.000000,0.01094000,0.02159448,0.06131289,5,11,33,2,6,18,0.00539119,0.01130654,0.03333166,0.25068821,0.40848310,0.55455320
29101,0,USMissouriJohnson,Missouri,Johnson,2021-04-04 08:06:29.854686,2020-03-20 00:00:00.000000,0.01309261,0.02594662,0.06718811,7,14,36,3,7,22,0.00657258,0.01351787,0.04144931,0.24118129,0.37876240,0.51939194
29101,0,USMissouriJohnson,Missouri,Johnson,2021-04-04 08:06:29.854686,2020-03-21 00:00:00.000000,0.01359065,0.02946853,0.07358999,7,15,39,4,8,24,0.00771739,0.01629584,0.04610278,0.21740317,0.35420542,0.51706217
29101,0,USMissouriJohnson,Missouri,Johnson,2021-04-04 08:06:29.854686,2020-03-22 00:00:00.000000,0.01537655,0.03336550,0.08902883,8,18,48,4,10,27,0.00908395,0.01889560,0.05021589,0.20885157,0.33800449,0.50847749
29101,0,USMissouriJohnson,Missouri,Johnson,2021-04-04 08:06:29.854686,2020-03-23 00:00:00.000000,0.02018744,0.03754713,0.10239036,10,20,55,5,11,30,0.01004944,0.02138594,0.05566231,0.20871572,0.32754509,0.47997387
29101,0,USMissouriJohnson,Missouri,Johnson,2021-04-04 08:06:29.854686,2020-03-24 00:00:00.000000,0.02367853,0.04232067,0.11557599,12,22,62,6,13,35,0.01212984,0.02428516,0.06532199,0.19835417,0.31340693,0.44682455
29101,0,USMissouriJohnson,Missouri,Johnson,2021-04-04 08:06:29.854686,2020-03-25 00:00:00.000000,0.02588203,0.04613585,0.12760149,13,24,68,7,14,40,0.01443586,0.02733848,0.07465391,0.19562679,0.30093547,0.41261946
29101,0,USMissouriJohnson,Missouri,Johnson,2021-04-04 08:06:29.854686,2020-03-26 00:00:00.000000,0.02793935,0.05091800,0.13771437,15,27,74,8,17,45,0.01598366,0.03173160,0.08338656,0.17745940,0.28120081,0.40843950
29101,0,USMissouriJohnson,Missouri,Johnson,2021-04-04 08:06:29.854686,2020-03-27 00:00:00.000000,0.02985536,0.05386368,0.14568416,16,29,78,9,17,49,0.01746080,0.03323060,0.09107401,0.16841400,0.26460346,0.38920388
29101,0,USMissouriJohnson,Missouri,Johnson,2021-04-04 08:06:29.854686,2020-03-28 00:00:00.000000,0.03182220,0.05808842,0.15218066,17,31,82,10,19,52,0.01885532,0.03561459,0.09676839,0.16221344,0.25184109,0.37483277
29101,0,USMissouriJohnson,Missouri,Johnson,2021-04-04 08:06:29.854686,2020-03-29 00:00:00.000000,0.03431099,0.06132382,0.15788514,18,33,85,11,20,55,0.02048421,0.03856990,0.10201753,0.15222679,0.23272798,0.35053303
29101,0,USMissouriJohnson,Missouri,Johnson,2021-04-04 08:06:29.854686,2020-03-30 00:00:00.000000,0.03586455,0.06553486,0.16084308,19,35,86,12,22,57,0.02231008,0.04143722,0.10709139,0.14780802,0.21730638,0.33705351
29101,0,USMissouriJohnson,Missouri,Johnson,2021-04-04 08:06:29.854686,2020-03-31 00:00:00.000000,0.03795935,0.07053511,0.16354696,20,38,88,12,24,59,0.02365896,0.04508420,0.11012614,0.13970502,0.20840427,0.32486067
29101,0,USMissouriJohnson,Missouri,Johnson,2021-04-04 08:06:29.854686,2020-04-01 00:00:00.000000,0.04022566,0.07476567,0.16598550,21,40,89,13,26,60,0.02474355,0.04838502,0.11245207,0.13315271,0.20122219,0.31284708
29101,0,USMissouriJohnson,Missouri,Johnson,2021-04-04 08:06:29.854686,2020-04-02 00:00:00.000000,0.04097999,0.07773053,0.16754841,22,42,90,13,27,61,0.02585837,0.05123833,0.11285595,0.12928808,0.19373701,0.30669236
29101,0,USMissouriJohnson,Missouri,Johnson,2021-04-04 08:06:29.854686,2020-04-03 00:00:00.000000,0.04080697,0.07988714,0.16497252,22,43,89,14,29,60,0.02739975,0.05378675,0.11239088,0.12561881,0.18920089,0.29510829
29101,0,USMissouriJohnson,Missouri,Johnson,2021-04-04 08:06:29.854686,2020-04-04 00:00:00.000000,0.04107092,0.08213281,0.16158146,22,44,87,15,30,60,0.02896039,0.05590714,0.11131906,0.12149200,0.17941073,0.27016360
29101,0,USMissouriJohnson,Missouri,Johnson,2021-04-04 08:06:29.854686,2020-04-05 00:00:00.000000,0.04210685,0.08326556,0.15708435,22,45,84,16,31,59,0.03008661,0.05744925,0.10967758,0.11198572,0.17135878,0.26149958
29101,0,USMissouriJohnson,Missouri,Johnson,2021-04-04 08:06:29.854686,2020-04-06 00:00:00.000000,0.04471349,0.08534788,0.15703684,24,46,84,16,31,58,0.02997035,0.05900607,0.10738447,0.10415592,0.16772614,0.25980570
29101,0,USMissouriJohnson,Missouri,Johnson,2021-04-04 08:06:29.854686,2020-04-07 00:00:00.000000,0.04416080,0.08657413,0.15882642,23,46,85,16,32,60,0.02975997,0.05987922,0.11132351,0.09717073,0.16500567,0.25333355
29101,0,USMissouriJohnson,Missouri,Johnson,2021-04-04 08:06:29.854686,2020-04-08 00:00:00.000000,0.04372214,0.08669158,0.15689264,23,46,84,16,32,60,0.03002564,0.06004226,0.11211340,0.09514025,0.15830635,0.23882329
29101,0,USMissouriJohnson,Missouri,Johnson,2021-04-04 08:06:29.854686,2020-04-09 00:00:00.000000,0.04333797,0.08771617,0.15683984,23,47,84,16,32,59,0.02986092,0.06083785,0.11083778,0.09463010,0.15548719,0.22878162
29101,0,USMissouriJohnson,Missouri,Johnson,2021-04-04 08:06:29.854686,2020-04-10 00:00:00.000000,0.04316340,0.09010677,0.15673682,23,48,84,15,33,59,0.02959442,0.06218454,0.10958254,0.09421576,0.15451154,0.21892123
29101,0,USMissouriJohnson,Missouri,Johnson,2021-04-04 08:06:29.854686,2020-04-11 00:00:00.000000,0.04331397,0.09045047,0.15724673,23,48,85,16,34,58,0.02961357,0.06329424,0.10847866,0.09389351,0.14710939,0.21321935
29101,0,USMissouriJohnson,Missouri,Johnson,2021-04-04 08:06:29.854686,2020-04-12 00:00:00.000000,0.04316752,0.09075284,0.16344215,23,49,88,16,34,60,0.02974575,0.06367744,0.11208650,0.09363934,0.14020190,0.19997164
29101,0,USMissouriJohnson,Missouri,Johnson,2021-04-04 08:06:29.854686,2020-04-13 00:00:00.000000,0.04359269,0.09135895,0.16202976,23,49,87,16,34,63,0.02986075,0.06400702,0.11667481,0.09337215,0.13591203,0.19589286
29101,0,USMissouriJohnson,Missouri,Johnson,2021-04-04 08:06:29.854686,2020-04-14 00:00:00.000000,0.04395749,0.09426576,0.15952860,23,50,86,16,34,63,0.03093632,0.06451714,0.11689436,0.08532132,0.12829806,0.18995302
29101,0,USMissouriJohnson,Missouri,Johnson,2021-04-04 08:06:29.854686,2020-04-15 00:00:00.000000,0.04364260,0.09487028,0.15587894,23,51,84,17,35,62,0.03205951,0.06474915,0.11524637,0.08232887,0.12709175,0.18721384
29101,0,USMissouriJohnson,Missouri,Johnson,2021-04-04 08:06:29.854686,2020-04-16 00:00:00.000000,0.04264993,0.09365351,0.15174576,23,50,82,16,35,60,0.03131940,0.06579672,0.11273968,0.08200787,0.11988386,0.18399014
29101,0,USMissouriJohnson,Missouri,Johnson,2021-04-04 08:06:29.854686,2020-04-17 00:00:00.000000,0.04171103,0.09481396,0.14738565,22,51,79,16,36,59,0.03061958,0.06687061,0.10984603,0.07730620,0.11343232,0.18228475
29101,0,USMissouriJohnson,Missouri,Johnson,2021-04-04 08:06:29.854686,2020-04-18 00:00:00.000000,0.04081695,0.09401277,0.14648004,22,50,79,16,36,57,0.02995609,0.06660610,0.10676968,0.07563020,0.11121253,0.18023822
29101,0,USMissouriJohnson,Missouri,Johnson,2021-04-04 08:06:29.854686,2020-04-19 00:00:00.000000,0.03995848,0.09315752,0.14677389,21,50,79,15,34,55,0.02932338,0.06404592,0.10354023,0.07329118,0.10843926,0.17178511
29101,0,USMissouriJohnson,Missouri,Johnson,2021-04-04 08:06:29.854686,2020-04-20 00:00:00.000000,0.03952608,0.09283027,0.14779108,21,50,79,15,34,56,0.02871550,0.06411657,0.10396574,0.07135084,0.10714806,0.16999436
29101,0,USMissouriJohnson,Missouri,Johnson,2021-04-04 08:06:29.854686,2020-04-21 00:00:00.000000,0.03912268,0.09234936,0.14642177,21,49,79,15,34,56,0.02834580,0.06441029,0.10449130,0.07108994,0.10591377,0.16783558
29101,0,USMissouriJohnson,Missouri,Johnson,2021-04-04 08:06:29.854686,2020-04-22 00:00:00.000000,0.03876945,0.09086620,0.14457825,20,49,78,15,35,56,0.02805571,0.06476654,0.10413355,0.07056460,0.10533805,0.16602719
29101,0,USMissouriJohnson,Missouri,Johnson,2021-04-04 08:06:29.854686,2020-04-23 00:00:00.000000,0.03844245,0.09136030,0.14372680,20,49,77,15,34,56,0.02779555,0.06439286,0.10417171,0.06868253,0.10391226,0.16468606
29101,0,USMissouriJohnson,Missouri,Johnson,2021-04-04 08:06:29.854686,2020-04-24 00:00:00.000000,0.03813964,0.09194354,0.14281771,20,49,77,14,34,56,0.02756307,0.06470811,0.10371754,0.06217852,0.10381793,0.16389463
29101,0,USMissouriJohnson,Missouri,Johnson,2021-04-04 08:06:29.854686,2020-04-25 00:00:00.000000,0.03786447,0.09087218,0.14165635,20,49,76,14,34,55,0.02735109,0.06447569,0.10316987,0.06131125,0.10286453,0.16520347
29101,0,USMissouriJohnson,Missouri,Johnson,2021-04-04 08:06:29.854686,2020-04-26 00:00:00.000000,0.03762038,0.09029408,0.13993628,20,48,75,14,34,55,0.02712202,0.06371095,0.10248284,0.06119294,0.10183247,0.16193504
29101,0,USMissouriJohnson,Missouri,Johnson,2021-04-04 08:06:29.854686,2020-04-27 00:00:00.000000,0.03878851,0.08879647,0.13692436,20,48,74,14,34,55,0.02693830,0.06341008,0.10312287,0.06117713,0.10115907,0.16175960
29101,0,USMissouriJohnson,Missouri,Johnson,2021-04-04 08:06:29.854686,2020-04-28 00:00:00.000000,0.03998216,0.08763805,0.13826660,21,47,74,14,33,56,0.02755834,0.06271836,0.10510638,0.06118668,0.09947054,0.16145165
29101,0,USMissouriJohnson,Missouri,Johnson,2021-04-04 08:06:29.854686,2020-04-29 00:00:00.000000,0.04127219,0.08687133,0.14146512,22,46,76,15,33,58,0.02776769,0.06276952,0.10750921,0.06120638,0.09810168,0.16087720
29101,0,USMissouriJohnson,Missouri,Johnson,2021-04-04 08:06:29.854686,2020-04-30 00:00:00.000000,0.04126546,0.08623456,0.14466455,22,46,78,15,33,59,0.02808112,0.06287309,0.11004360,0.06230100,0.09728319,0.15980335
29101,0,USMissouriJohnson,Missouri,Johnson,2021-04-04 08:06:29.854686,2020-05-01 00:00:00.000000,0.03969975,0.08489882,0.14587362,21,45,78,15,34,60,0.02899849,0.06302980,0.11255186,0.06336742,0.09622318,0.15787254
29101,0,USMissouriJohnson,Missouri,Johnson,2021-04-04 08:06:29.854686,2020-05-02 00:00:00.000000,0.03823856,0.08458903,0.14331428,20,45,77,15,33,61,0.02833419,0.06220991,0.11418254,0.06335216,0.09452596,0.15467091
29101,0,USMissouriJohnson,Missouri,Johnson,2021-04-04 08:06:29.854686,2020-05-03 00:00:00.000000,0.03692168,0.08359967,0.14082692,19,45,76,14,32,60,0.02728834,0.06080917,0.11216925,0.06334429,0.09370895,0.15002969
29101,0,USMissouriJohnson,Missouri,Johnson,2021-04-04 08:06:29.854686,2020-05-04 00:00:00.000000,0.04084908,0.08356037,0.13704547,22,45,74,14,32,59,0.02632499,0.06044013,0.11020568,0.06334865,0.09352409,0.14693251
29101,0,USMissouriJohnson,Missouri,Johnson,2021-04-04 08:06:29.854686,2020-05-05 00:00:00.000000,0.04485729,0.08278424,0.13644353,24,44,73,14,32,58,0.02746153,0.05951985,0.10778052,0.06118878,0.09274362,0.14542676
29101,0,USMissouriJohnson,Missouri,Johnson,2021-04-04 08:06:29.854686,2020-05-06 00:00:00.000000,0.04542443,0.08081748,0.14673783,24,43,79,16,32,56,0.02960636,0.05921122,0.10513564,0.06198760,0.09202607,0.14543648
29101,0,USMissouriJohnson,Missouri,Johnson,2021-04-04 08:06:29.854686,2020-05-07 00:00:00.000000,0.04469875,0.08003167,0.14460055,24,43,78,17,31,55,0.03207964,0.05747810,0.10240687,0.06129047,0.09173495,0.14608394
29101,0,USMissouriJohnson,Missouri,Johnson,2021-04-04 08:06:29.854686,2020-05-08 00:00:00.000000,0.04272961,0.07718896,0.14241248,23,41,76,17,31,58,0.03217329,0.05814433,0.10765304,0.05951823,0.09173607,0.14699706
29101,0,USMissouriJohnson,Missouri,Johnson,2021-04-04 08:06:29.854686,2020-05-09 00:00:00.000000,0.04087311,0.07575665,0.13996321,22,40,75,16,30,60,0.03112227,0.05669753,0.11220148,0.05971579,0.08973157,0.14349643
29101,0,USMissouriJohnson,Missouri,Johnson,2021-04-04 08:06:29.854686,2020-05-10 00:00:00.000000,0.03866503,0.07427550,0.13755253,20,40,74,16,29,59,0.02978639,0.05547425,0.11048312,0.06308428,0.08803201,0.14603309
29101,0,USMissouriJohnson,Missouri,Johnson,2021-04-04 08:06:29.854686,2020-05-11 00:00:00.000000,0.03944846,0.07417733,0.13623158,21,40,73,15,29,58,0.02851987,0.05464766,0.10863164,0.06359896,0.08880863,0.14783160
29101,0,USMissouriJohnson,Missouri,Johnson,2021-04-04 08:06:29.854686,2020-05-12 00:00:00.000000,0.04038015,0.07297282,0.13499518,21,39,72,15,29,58,0.02842692,0.05482849,0.10736934,0.06163470,0.08767186,0.14851298
29101,0,USMissouriJohnson,Missouri,Johnson,2021-04-04 08:06:29.854686,2020-05-13 00:00:00.000000,0.03940849,0.07260800,0.13648574,21,39,73,15,28,57,0.02885570,0.05339455,0.10635258,0.06117635,0.08768636,0.14868333
29101,0,USMissouriJohnson,Missouri,Johnson,2021-04-04 08:06:29.854686,2020-05-14 00:00:00.000000,0.03796113,0.07205091,0.13961847,20,38,75,14,28,57,0.02739140,0.05255840,0.10544652,0.06002489,0.08674988,0.14844109
29101,0,USMissouriJohnson,Missouri,Johnson,2021-04-04 08:06:29.854686,2020-05-15 00:00:00.000000,0.04033687,0.07038003,0.14259934,21,38,77,15,28,56,0.02793831,0.05287580,0.10459579,0.05930412,0.08685814,0.14769218
29101,0,USMissouriJohnson,Missouri,Johnson,2021-04-04 08:06:29.854686,2020-05-16 00:00:00.000000,0.04197363,0.06888353,0.14535821,22,37,78,16,28,56,0.02972909,0.05207691,0.10376469,0.05919054,0.08824878,0.14694289
29101,0,USMissouriJohnson,Missouri,Johnson,2021-04-04 08:06:29.854686,2020-05-17 00:00:00.000000,0.04067330,0.06955071,0.14784467,21,37,79,16,27,55,0.03009972,0.05076290,0.10288843,0.05911970,0.08979226,0.15232913
29101,0,USMissouriJohnson,Missouri,Johnson,2021-04-04 08:06:29.854686,2020-05-18 00:00:00.000000,0.04269371,0.07128609,0.14538506,23,38,78,16,27,55,0.02988238,0.05041135,0.10282824,0.05851913,0.08983785,0.15263900
29101,0,USMissouriJohnson,Missouri,Johnson,2021-04-04 08:06:29.854686,2020-05-19 00:00:00.000000,0.04231478,0.07217839,0.14258015,22,39,77,15,27,55,0.02958247,0.05027217,0.10279222,0.05801813,0.08996438,0.15261836
29101,0,USMissouriJohnson,Missouri,Johnson,2021-04-04 08:06:29.854686,2020-05-20 00:00:00.000000,0.04139134,0.07048213,0.13923220,22,38,75,15,27,54,0.02919897,0.05087264,0.10169184,0.05784065,0.08996864,0.15267567
29101,0,USMissouriJohnson,Missouri,Johnson,2021-04-04 08:06:29.854686,2020-05-21 00:00:00.000000,0.04012269,0.07238739,0.13552898,21,39,73,15,27,54,0.02889676,0.05071036,0.09994151,0.05842041,0.09225529,0.15282053
29101,0,USMissouriJohnson,Missouri,Johnson,2021-04-04 08:06:29.854686,2020-05-22 00:00:00.000000,0.03895723,0.07108402,0.13164762,21,38,71,15,27,52,0.02864386,0.05115705,0.09777319,0.05837403,0.09187421,0.15306678
29101,0,USMissouriJohnson,Missouri,Johnson,2021-04-04 08:06:29.854686,2020-05-23 00:00:00.000000,0.03791460,0.06828213,0.12772839,20,36,69,15,27,51,0.02842038,0.05156940,0.09534715,0.05713534,0.09439520,0.15345023
29101,0,USMissouriJohnson,Missouri,Johnson,2021-04-04 08:06:29.854686,2020-05-24 00:00:00.000000,0.03699857,0.06701795,0.12392055,20,36,66,15,27,49,0.02821216,0.05065855,0.09245272,0.05946335,0.09658525,0.15491864
29101,0,USMissouriJohnson,Missouri,Johnson,2021-04-04 08:06:29.854686,2020-05-25 00:00:00.000000,0.03702449,0.06829473,0.12351463,20,36,66,15,26,48,0.02800559,0.04906246,0.09021573,0.06404771,0.09515456,0.15571864
29101,0,USMissouriJohnson,Missouri,Johnson,2021-04-04 08:06:29.854686,2020-05-26 00:00:00.000000,0.03715087,0.07096249,0.12117306,20,38,65,15,26,47,0.02788862,0.04891003,0.08871428,0.06681066,0.09368613,0.15592165
29101,0,USMissouriJohnson,Missouri,Johnson,2021-04-04 08:06:29.854686,2020-05-27 00:00:00.000000,0.03737948,0.07335914,0.12101591,20,39,65,15,26,47,0.02797038,0.04959609,0.08772087,0.06686912,0.09273347,0.15673412
29101,0,USMissouriJohnson,Missouri,Johnson,2021-04-04 08:06:29.854686,2020-05-28 00:00:00.000000,0.03732376,0.07334986,0.12383285,20,39,66,15,27,47,0.02811982,0.05025910,0.08730925,0.06741859,0.09339778,0.15722917
29101,0,USMissouriJohnson,Missouri,Johnson,2021-04-04 08:06:29.854686,2020-05-29 00:00:00.000000,0.03667803,0.07504047,0.12666004,19,40,68,15,28,47,0.02778349,0.05180635,0.08704400,0.06625227,0.09437051,0.15744027
29101,0,USMissouriJohnson,Missouri,Johnson,2021-04-04 08:06:29.854686,2020-05-30 00:00:00.000000,0.03665536,0.07436983,0.12913433,19,40,69,14,28,46,0.02728464,0.05245461,0.08691470,0.06510504,0.09671579,0.15743321
29101,0,USMissouriJohnson,Missouri,Johnson,2021-04-04 08:06:29.854686,2020-05-31 00:00:00.000000,0.03733013,0.07480458,0.13479144,20,40,72,14,29,47,0.02717473,0.05388114,0.08785417,0.06436744,0.09701264,0.15726379
29101,0,USMissouriJohnson,Missouri,Johnson,2021-04-04 08:06:29.854686,2020-06-01 00:00:00.000000,0.03707778,0.07671023,0.13479794,20,41,72,14,28,51,0.02767055,0.05356324,0.09580010,0.06391138,0.09800094,0.15829591
29101,0,USMissouriJohnson,Missouri,Johnson,2021-04-04 08:06:29.854686,2020-06-02 00:00:00.000000,0.03586148,0.07666006,0.13664942,19,41,73,15,29,52,0.02807468,0.05451201,0.09706342,0.06539555,0.09874235,0.16767937
29101,0,USMissouriJohnson,Missouri,Johnson,2021-04-04 08:06:29.854686,2020-06-03 00:00:00.000000,0.03462079,0.07743538,0.13571910,18,41,73,14,29,52,0.02717306,0.05507522,0.09674848,0.06603062,0.10033811,0.17491940
29101,0,USMissouriJohnson,Missouri,Johnson,2021-04-04 08:06:29.854686,2020-06-04 00:00:00.000000,0.03345156,0.07724265,0.14191112,18,41,76,14,29,51,0.02626244,0.05496803,0.09594961,0.06688134,0.10441179,0.17902748
29101,0,USMissouriJohnson,Missouri,Johnson,2021-04-04 08:06:29.854686,2020-06-05 00:00:00.000000,0.03237032,0.07718787,0.14084801,17,41,76,13,29,53,0.02540216,0.05497609,0.09947626,0.06779688,0.10591164,0.18795398
29101,0,USMissouriJohnson,Missouri,Johnson,2021-04-04 08:06:29.854686,2020-06-06 00:00:00.000000,0.03140489,0.07806190,0.14552072,16,42,78,13,30,53,0.02460099,0.05619043,0.09979248,0.07162068,0.10873917,0.19659074
29101,0,USMissouriJohnson,Missouri,Johnson,2021-04-04 08:06:29.854686,2020-06-07 00:00:00.000000,0.03068972,0.07883088,0.15063040,16,42,81,12,30,54,0.02387428,0.05637664,0.10120461,0.07375050,0.11098015,0.20230423
29101,0,USMissouriJohnson,Missouri,Johnson,2021-04-04 08:06:29.854686,2020-06-08 00:00:00.000000,0.03212703,0.07925316,0.15205523,17,42,82,12,30,57,0.02330485,0.05703352,0.10625984,0.07441324,0.11203172,0.20778176
29101,0,USMissouriJohnson,Missouri,Johnson,2021-04-04 08:06:29.854686,2020-06-09 00:00:00.000000,0.03362546,0.08121234,0.15345276,18,43,82,12,31,57,0.02401632,0.05755902,0.10596177,0.07459077,0.11187574,0.21118412
29101,0,USMissouriJohnson,Missouri,Johnson,2021-04-04 08:06:29.854686,2020-06-10 00:00:00.000000,0.03524496,0.08162678,0.15707011,19,44,84,13,31,59,0.02510201,0.05886345,0.11068208,0.07469011,0.11314003,0.21359646
29101,0,USMissouriJohnson,Missouri,Johnson,2021-04-04 08:06:29.854686,2020-06-11 00:00:00.000000,0.03682178,0.08434795,0.15839598,19,45,85,14,32,61,0.02626062,0.05921604,0.11296858,0.07496520,0.11431345,0.21559301
29101,0,USMissouriJohnson,Missouri,Johnson,2021-04-04 08:06:29.854686,2020-06-12 00:00:00.000000,0.03831329,0.08434509,0.16074198,20,45,86,14,32,61,0.02739615,0.05934195,0.11425969,0.07608713,0.11565361,0.21788719
29101,0,USMissouriJohnson,Missouri,Johnson,2021-04-04 08:06:29.854686,2020-06-13 00:00:00.000000,0.03972114,0.08691743,0.16808070,21,46,90,15,32,62,0.02848164,0.05969309,0.11539749,0.07649524,0.12062097,0.22146862
29101,0,USMissouriJohnson,Missouri,Johnson,2021-04-04 08:06:29.854686,2020-06-14 00:00:00.000000,0.04108276,0.08770088,0.17976106,22,47,97,15,32,63,0.02951601,0.06083201,0.11670196,0.07743989,0.13063239,0.23061650
29101,0,USMissouriJohnson,Missouri,Johnson,2021-04-04 08:06:29.854686,2020-06-15 00:00:00.000000,0.04210850,0.08835998,0.19063716,22,47,103,16,33,67,0.03024079,0.06242237,0.12562321,0.07835491,0.13685206,0.23657925
29101,0,USMissouriJohnson,Missouri,Johnson,2021-04-04 08:06:29.854686,2020-06-16 00:00:00.000000,0.04165159,0.08975030,0.20156849,22,48,108,16,33,72,0.03003836,0.06239655,0.13398268,0.07857654,0.13971336,0.24481302
29101,0,USMissouriJohnson,Missouri,Johnson,2021-04-04 08:06:29.854686,2020-06-17 00:00:00.000000,0.04271087,0.09254234,0.21229523,23,50,114,16,33,76,0.02975928,0.06287002,0.14211164,0.07864688,0.14346094,0.24300175
29101,0,USMissouriJohnson,Missouri,Johnson,2021-04-04 08:06:29.854686,2020-06-18 00:00:00.000000,0.04633311,0.09537613,0.22325559,25,51,120,16,34,81,0.03057893,0.06442925,0.15010230,0.07929400,0.14947343,0.24362986
29101,0,USMissouriJohnson,Missouri,Johnson,2021-04-04 08:06:29.854686,2020-06-19 00:00:00.000000,0.04990535,0.09834102,0.23486653,26,53,126,17,35,85,0.03175831,0.06658063,0.15807935,0.08211972,0.15093855,0.24528860
29101,0,USMissouriJohnson,Missouri,Johnson,2021-04-04 08:06:29.854686,2020-06-20 00:00:00.000000,0.05262254,0.10237901,0.24667980,28,55,133,18,37,89,0.03330633,0.06929019,0.16638451,0.08516850,0.15460148,0.25927330
29101,0,USMissouriJohnson,Missouri,Johnson,2021-04-04 08:06:29.854686,2020-06-21 00:00:00.000000,0.05050670,0.10387179,0.25267170,27,56,136,19,38,94,0.03568428,0.07131148,0.17516576,0.08652399,0.15802567,0.26686167
29101,0,USMissouriJohnson,Missouri,Johnson,2021-04-04 08:06:29.854686,2020-06-22 00:00:00.000000,0.05601382,0.10872289,0.26638162,30,58,144,19,39,99,0.03515573,0.07226161,0.18439073,0.08971039,0.16344196,0.27547996
29101,0,USMissouriJohnson,Missouri,Johnson,2021-04-04 08:06:29.854686,2020-06-23 00:00:00.000000,0.05927746,0.11615346,0.27338550,32,62,147,20,40,103,0.03814834,0.07405734,0.19106135,0.08857071,0.17132678,0.27793435
29101,0,USMissouriJohnson,Missouri,Johnson,2021-04-04 08:06:29.854686,2020-06-24 00:00:00.000000,0.06019040,0.12417571,0.28046957,32,67,151,20,42,106,0.03827000,0.07833419,0.19666965,0.08800005,0.17369045,0.27856765
29101,0,USMissouriJohnson,Missouri,Johnson,2021-04-04 08:06:29.854686,2020-06-25 00:00:00.000000,0.06087799,0.13449244,0.28801508,32,72,155,23,44,109,0.04363090,0.08200270,0.20206579,0.09181110,0.17468051,0.28000727
29101,0,USMissouriJohnson,Missouri,Johnson,2021-04-04 08:06:29.854686,2020-06-26 00:00:00.000000,0.06175954,0.14449169,0.29537581,33,78,159,23,49,112,0.04407546,0.09075479,0.20760367,0.09736627,0.18016848,0.28354655
29101,0,USMissouriJohnson,Missouri,Johnson,2021-04-04 08:06:29.854686,2020-06-27 00:00:00.000000,0.06095231,0.15262106,0.30380773,32,82,164,23,52,115,0.04351175,0.09751385,0.21326430,0.10031372,0.19193533,0.28908037
29101,0,USMissouriJohnson,Missouri,Johnson,2021-04-04 08:06:29.854686,2020-06-28 00:00:00.000000,0.06267646,0.16057076,0.31857225,33,86,172,22,56,118,0.04221152,0.10504367,0.21878419,0.10086832,0.19351091,0.29737205
29101,0,USMissouriJohnson,Missouri,Johnson,2021-04-04 08:06:29.854686,2020-06-29 00:00:00.000000,0.07684731,0.16437014,0.34126494,41,88,184,22,59,121,0.04140345,0.10914356,0.22438633,0.10249680,0.19668455,0.30332074
29101,0,USMissouriJohnson,Missouri,Johnson,2021-04-04 08:06:29.854686,2020-06-30 00:00:00.000000,0.08985970,0.17176382,0.36486264,48,92,197,25,60,128,0.04807470,0.11235185,0.23717849,0.10661697,0.19832250,0.30536931
29101,0,USMissouriJohnson,Missouri,Johnson,2021-04-04 08:06:29.854686,2020-07-01 00:00:00.000000,0.10363413,0.17677005,0.38956398,56,95,210,30,63,136,0.05663823,0.11677763,0.25249064,0.11132715,0.19832041,0.30973478
29101,0,USMissouriJohnson,Missouri,Johnson,2021-04-04 08:06:29.854686,2020-07-02 00:00:00.000000,0.11828080,0.18250388,0.41495854,63,98,224,34,65,145,0.06428900,0.12029811,0.26977836,0.11414932,0.20172894,0.30520839
29101,0,USMissouriJohnson,Missouri,Johnson,2021-04-04 08:06:29.854686,2020-07-03 00:00:00.000000,0.12203108,0.18734909,0.43783255,65,101,236,40,68,155,0.07490910,0.12620643,0.28787104,0.11762861,0.20055957,0.30457724
29101,0,USMissouriJohnson,Missouri,Johnson,2021-04-04 08:06:29.854686,2020-07-04 00:00:00.000000,0.11849320,0.19822787,0.46082775,64,107,249,43,70,164,0.07967035,0.13066850,0.30463732,0.12287505,0.19906106,0.31439296
29101,0,USMissouriJohnson,Missouri,Johnson,2021-04-04 08:06:29.854686,2020-07-05 00:00:00.000000,0.11502602,0.20759778,0.48527302,62,112,262,44,73,174,0.08232546,0.13674305,0.32362420,0.13210304,0.19844474,0.31522892
29101,0,USMissouriJohnson,Missouri,Johnson,2021-04-04 08:06:29.854686,2020-07-06 00:00:00.000000,0.12434915,0.21200563,0.50799035,67,114,274,45,77,185,0.08324508,0.14298052,0.34296816,0.13533279,0.19921037,0.31861334
29101,0,USMissouriJohnson,Missouri,Johnson,2021-04-04 08:06:29.854686,2020-07-07 00:00:00.000000,0.13382794,0.22182780,0.53222274,72,119,287,47,80,192,0.08727975,0.14866441,0.35561351,0.13559713,0.19895089,0.31892196
29101,0,USMissouriJohnson,Missouri,Johnson,2021-04-04 08:06:29.854686,2020-07-08 00:00:00.000000,0.14396483,0.23272667,0.55638477,77,125,300,50,82,201,0.09324524,0.15239530,0.37328434,0.13573159,0.19809090,0.32613043
29101,0,USMissouriJohnson,Missouri,Johnson,2021-04-04 08:06:29.854686,2020-07-09 00:00:00.000000,0.15404676,0.23725403,0.58039645,83,128,313,52,87,211,0.09800405,0.16123104,0.39115045,0.13714010,0.19437169,0.31730592
29101,0,USMissouriJohnson,Missouri,Johnson,2021-04-04 08:06:29.854686,2020-07-10 00:00:00.000000,0.16148703,0.24253959,0.60396068,87,131,326,55,90,221,0.10291880,0.16670886,0.40907965,0.13908409,0.19208745,0.31319945
29101,0,USMissouriJohnson,Missouri,Johnson,2021-04-04 08:06:29.854686,2020-07-11 00:00:00.000000,0.17119433,0.24948745,0.62678390,92,134,338,58,91,230,0.10787059,0.16965189,0.42674026,0.14138669,0.19106166,0.30724053
29101,0,USMissouriJohnson,Missouri,Johnson,2021-04-04 08:06:29.854686,2020-07-12 00:00:00.000000,0.17687679,0.25525807,0.63883247,95,137,345,60,93,240,0.11274533,0.17347813,0.44401775,0.14227908,0.18820597,0.28200463
29101,0,USMissouriJohnson,Missouri,Johnson,2021-04-04 08:06:29.854686,2020-07-13 00:00:00.000000,0.17655400,0.26328085,0.65489392,95,142,354,62,96,249,0.11545106,0.17817220,0.46081239,0.14199340,0.18803207,0.28324105
29101,0,USMissouriJohnson,Missouri,Johnson,2021-04-04 08:06:29.854686,2020-07-14 00:00:00.000000,0.17337061,0.27320270,0.66905058,93,147,361,63,99,256,0.11815018,0.18360627,0.47433080,0.14292992,0.18754428,0.27757509
29101,0,USMissouriJohnson,Missouri,Johnson,2021-04-04 08:06:29.854686,2020-07-15 00:00:00.000000,0.16967362,0.28132233,0.68225370,91,152,368,65,102,262,0.12074032,0.19044324,0.48585759,0.14405662,0.18792427,0.27653727
29101,0,USMissouriJohnson,Missouri,Johnson,2021-04-04 08:06:29.854686,2020-07-16 00:00:00.000000,0.16733034,0.28800689,0.69414422,90,155,375,66,106,268,0.12256873,0.19746627,0.49611987,0.14452616,0.18445709,0.27723041
29101,0,USMissouriJohnson,Missouri,Johnson,2021-04-04 08:06:29.854686,2020-07-17 00:00:00.000000,0.16804710,0.29458996,0.70371128,90,159,380,64,108,273,0.12013516,0.20022258,0.50541170,0.13881824,0.18353869,0.28094547
29101,0,USMissouriJohnson,Missouri,Johnson,2021-04-04 08:06:29.854686,2020-07-18 00:00:00.000000,0.16900328,0.29824063,0.70995439,91,161,383,64,111,277,0.11882338,0.20603467,0.51358696,0.13019684,0.18282871,0.27262554
29101,0,USMissouriJohnson,Missouri,Johnson,2021-04-04 08:06:29.854686,2020-07-19 00:00:00.000000,0.17051802,0.30802120,0.71302671,92,166,385,64,112,281,0.11943620,0.20851090,0.52049170,0.12434025,0.18230835,0.26075810
29101,0,USMissouriJohnson,Missouri,Johnson,2021-04-04 08:06:29.854686,2020-07-20 00:00:00.000000,0.16966314,0.30678122,0.70249187,91,165,379,65,114,284,0.12030842,0.21248947,0.52635471,0.11996509,0.17741268,0.25715794
29101,0,USMissouriJohnson,Missouri,Johnson,2021-04-04 08:06:29.854686,2020-07-21 00:00:00.000000,0.16895325,0.30869623,0.69100604,91,166,373,65,117,285,0.12111215,0.21656188,0.52746103,0.11920127,0.17893791,0.26131559
29101,0,USMissouriJohnson,Missouri,Johnson,2021-04-04 08:06:29.854686,2020-07-22 00:00:00.000000,0.17410499,0.31097477,0.67897694,94,168,367,65,118,282,0.12078525,0.21945547,0.52240213,0.11839672,0.17564686,0.26034800
29101,0,USMissouriJohnson,Missouri,Johnson,2021-04-04 08:06:29.854686,2020-07-23 00:00:00.000000,0.17584775,0.31404175,0.66714055,95,169,360,66,120,278,0.12284317,0.22223850,0.51546591,0.11851340,0.17287915,0.23914568
29101,0,USMissouriJohnson,Missouri,Johnson,2021-04-04 08:06:29.854686,2020-07-24 00:00:00.000000,0.17799302,0.31525309,0.65622504,96,170,354,66,122,274,0.12391146,0.22607442,0.50845677,0.12217059,0.17210178,0.23168957
29101,0,USMissouriJohnson,Missouri,Johnson,2021-04-04 08:06:29.854686,2020-07-25 00:00:00.000000,0.17973271,0.31989018,0.65886910,97,172,356,67,122,277,0.12522992,0.22697120,0.51252868,0.11891951,0.17069293,0.23093419
29101,0,USMissouriJohnson,Missouri,Johnson,2021-04-04 08:06:29.854686,2020-07-26 00:00:00.000000,0.17511454,0.31770004,0.66072183,94,171,357,68,122,278,0.12682131,0.22631261,0.51526735,0.11845942,0.17304502,0.23711632
29101,0,USMissouriJohnson,Missouri,Johnson,2021-04-04 08:06:29.854686,2020-07-27 00:00:00.000000,0.17943172,0.31552438,0.65950178,97,170,356,67,121,275,0.12404426,0.22493918,0.51010828,0.11819002,0.17212220,0.23436862
29101,0,USMissouriJohnson,Missouri,Johnson,2021-04-04 08:06:29.854686,2020-07-28 00:00:00.000000,0.17869503,0.31276795,0.65811577,96,169,355,66,120,272,0.12343516,0.22313838,0.50377362,0.11814428,0.17190040,0.22609371
29101,0,USMissouriJohnson,Missouri,Johnson,2021-04-04 08:06:29.854686,2020-07-29 00:00:00.000000,0.17539670,0.31566307,0.65386503,94,170,353,67,120,269,0.12398096,0.22280259,0.49796755,0.11823829,0.17153929,0.22385540
29101,0,USMissouriJohnson,Missouri,Johnson,2021-04-04 08:06:29.854686,2020-07-30 00:00:00.000000,0.17250154,0.31821753,0.64734534,93,172,349,65,120,266,0.12163506,0.22237338,0.49253958,0.12288699,0.17138907,0.22451083
29101,0,USMissouriJohnson,Missouri,Johnson,2021-04-04 08:06:29.854686,2020-07-31 00:00:00.000000,0.17000519,0.31423510,0.64171880,91,169,346,64,118,263,0.11952950,0.21992819,0.48745653,0.12497340,0.17135309,0.23041983
29101,0,USMissouriJohnson,Missouri,Johnson,2021-04-04 08:06:29.854686,2020-08-01 00:00:00.000000,0.16787854,0.31459045,0.64030186,90,170,346,63,118,261,0.11768510,0.21969257,0.48284949,0.12876109,0.17327453,0.23116572
29101,0,USMissouriJohnson,Missouri,Johnson,2021-04-04 08:06:29.854686,2020-08-02 00:00:00.000000,0.16471364,0.31304247,0.64832591,89,169,350,62,117,259,0.11609583,0.21732604,0.47937814,0.13651279,0.17421380,0.24800581
29101,0,USMissouriJohnson,Missouri,Johnson,2021-04-04 08:06:29.854686,2020-08-03 00:00:00.000000,0.15775741,0.31271469,0.65035349,85,169,351,60,116,261,0.11264353,0.21522948,0.48315779,0.13553494,0.17830012,0.25443094
29101,0,USMissouriJohnson,Missouri,Johnson,2021-04-04 08:06:29.854686,2020-08-04 00:00:00.000000,0.15991951,0.31154259,0.65239554,86,168,352,60,115,264,0.11154829,0.21375129,0.48858947,0.13683005,0.18282898,0.25781482
29101,0,USMissouriJohnson,Missouri,Johnson,2021-04-04 08:06:29.854686,2020-08-05 00:00:00.000000,0.16178453,0.31045880,0.65414730,87,167,353,61,115,268,0.11438725,0.21328542,0.49583267,0.13750863,0.18398093,0.27571755
29101,0,USMissouriJohnson,Missouri,Johnson,2021-04-04 08:06:29.854686,2020-08-06 00:00:00.000000,0.15927896,0.31186642,0.65597768,86,168,354,63,115,268,0.11797753,0.21304359,0.49736574,0.14154064,0.18574742,0.27135730
29101,0,USMissouriJohnson,Missouri,Johnson,2021-04-04 08:06:29.854686,2020-08-07 00:00:00.000000,0.15706210,0.30876080,0.65869749,84,166,356,63,116,266,0.11718917,0.21537630,0.49272428,0.14984061,0.19260932,0.26500566
29101,0,USMissouriJohnson,Missouri,Johnson,2021-04-04 08:06:29.854686,2020-08-08 00:00:00.000000,0.15647917,0.30629861,0.67183619,84,165,363,62,117,263,0.11635086,0.21752453,0.48810342,0.15302149,0.19865520,0.28649687
29101,0,USMissouriJohnson,Missouri,Johnson,2021-04-04 08:06:29.854686,2020-08-09 00:00:00.000000,0.15971888,0.31487118,0.69359929,86,170,374,62,119,262,0.11572594,0.22144911,0.48610363,0.15823214,0.20449216,0.29569685
29101,0,USMissouriJohnson,Missouri,Johnson,2021-04-04 08:06:29.854686,2020-08-10 00:00:00.000000,0.16083379,0.32208831,0.69640151,86,174,376,62,120,267,0.11480148,0.22236496,0.49398054,0.16106364,0.21158745,0.30000035
29101,0,USMissouriJohnson,Missouri,Johnson,2021-04-04 08:06:29.854686,2020-08-11 00:00:00.000000,0.16377344,0.32774596,0.71624620,88,177,387,61,121,270,0.11379245,0.22517854,0.50065903,0.16548914,0.21550836,0.30337063
29101,0,USMissouriJohnson,Missouri,Johnson,2021-04-04 08:06:29.854686,2020-08-12 00:00:00.000000,0.16906293,0.33308537,0.73647823,91,180,398,63,123,271,0.11780977,0.22790199,0.50300821,0.16883591,0.22065472,0.30856762
29101,0,USMissouriJohnson,Missouri,Johnson,2021-04-04 08:06:29.854686,2020-08-13 00:00:00.000000,0.17662768,0.33538641,0.75680005,95,181,409,65,127,281,0.12123606,0.23601873,0.52136799,0.17093564,0.22554435,0.31992192
29101,0,USMissouriJohnson,Missouri,Johnson,2021-04-04 08:06:29.854686,2020-08-14 00:00:00.000000,0.18615903,0.34507267,0.77686063,100,186,419,68,130,292,0.12632917,0.24147743,0.54085538,0.17481851,0.23366269,0.33026178
29101,0,USMissouriJohnson,Missouri,Johnson,2021-04-04 08:06:29.854686,2020-08-15 00:00:00.000000,0.19722752,0.34897191,0.79627441,106,188,430,71,132,302,0.13288877,0.24477611,0.55916562,0.17899373,0.24234072,0.33834222
29101,0,USMissouriJohnson,Missouri,Johnson,2021-04-04 08:06:29.854686,2020-08-16 00:00:00.000000,0.20953631,0.35691720,0.81481669,113,192,440,76,133,310,0.14061879,0.24756097,0.57345159,0.16971899,0.25115222,0.36528208
29101,0,USMissouriJohnson,Missouri,Johnson,2021-04-04 08:06:29.854686,2020-08-17 00:00:00.000000,0.22417131,0.37262766,0.83059410,121,201,449,80,136,317,0.14928161,0.25233621,0.58738367,0.16786035,0.25937341,0.37898657
29101,0,USMissouriJohnson,Missouri,Johnson,2021-04-04 08:06:29.854686,2020-08-18 00:00:00.000000,0.23505571,0.39226214,0.84657496,127,212,457,86,141,324,0.15943231,0.26108862,0.60017873,0.18667557,0.27157097,0.39398103
29101,0,USMissouriJohnson,Missouri,Johnson,2021-04-04 08:06:29.854686,2020-08-19 00:00:00.000000,0.23333991,0.41477818,0.86432926,126,224,467,91,145,331,0.16840836,0.26979493,0.61244649,0.19468550,0.27736020,0.40207799
29101,0,USMissouriJohnson,Missouri,Johnson,2021-04-04 08:06:29.854686,2020-08-20 00:00:00.000000,0.23171164,0.43420540,0.89796042,125,234,485,90,153,337,0.16717509,0.28302458,0.62509242,0.20473611,0.28360579,0.40597340
29101,0,USMissouriJohnson,Missouri,Johnson,2021-04-04 08:06:29.854686,2020-08-21 00:00:00.000000,0.23016899,0.45353769,0.94985992,124,245,513,89,161,345,0.16600662,0.29784746,0.63943158,0.20625848,0.29558876,0.41891346
29101,0,USMissouriJohnson,Missouri,Johnson,2021-04-04 08:06:29.854686,2020-08-22 00:00:00.000000,0.22874994,0.47752728,1.00450504,123,258,543,89,169,355,0.16489848,0.31262041,0.65678915,0.21209689,0.31146169,0.44548216
29101,0,USMissouriJohnson,Missouri,Johnson,2021-04-04 08:06:29.854686,2020-08-23 00:00:00.000000,0.22766094,0.51171483,1.06179682,123,276,574,88,178,366,0.16387281,0.33000276,0.67776710,0.21445613,0.31893381,0.45202633
29101,0,USMissouriJohnson,Missouri,Johnson,2021-04-04 08:06:29.854686,2020-08-24 00:00:00.000000,0.23843628,0.54191360,1.11621592,128,292,603,89,188,379,0.16505797,0.34840687,0.70210751,0.22162253,0.32546628,0.46575830
29101,0,USMissouriJohnson,Missouri,Johnson,2021-04-04 08:06:29.854686,2020-08-25 00:00:00.000000,0.25297272,0.57727168,1.17017712,136,312,632,94,199,394,0.17468437,0.36941471,0.73053100,0.23348856,0.33081295,0.46770411
29101,0,USMissouriJohnson,Missouri,Johnson,2021-04-04 08:06:29.854686,2020-08-26 00:00:00.000000,0.26847499,0.62148622,1.21893323,145,335,658,100,210,411,0.18519368,0.39009725,0.76187206,0.23396005,0.33253205,0.47161787
29101,0,USMissouriJohnson,Missouri,Johnson,2021-04-04 08:06:29.854686,2020-08-27 00:00:00.000000,0.28494742,0.66778716,1.26175305,154,361,682,106,226,430,0.19648642,0.41841085,0.79544468,0.23652426,0.34165313,0.46836075
29101,0,USMissouriJohnson,Missouri,Johnson,2021-04-04 08:06:29.854686,2020-08-28 00:00:00.000000,0.30274110,0.72261322,1.32357016,163,390,715,112,241,449,0.20845585,0.44735968,0.83087201,0.24487119,0.34880389,0.46756177
29101,0,USMissouriJohnson,Missouri,Johnson,2021-04-04 08:06:29.854686,2020-08-29 00:00:00.000000,0.32501768,0.78069488,1.39535802,175,422,754,119,260,471,0.22134179,0.48212173,0.87301485,0.26008373,0.35229756,0.47087926
29101,0,USMissouriJohnson,Missouri,Johnson,2021-04-04 08:06:29.854686,2020-08-30 00:00:00.000000,0.35727333,0.82928785,1.46857565,193,448,793,127,278,498,0.23556894,0.51482903,0.92166768,0.26375334,0.36219122,0.47938666
29101,0,USMissouriJohnson,Missouri,Johnson,2021-04-04 08:06:29.854686,2020-08-31 00:00:00.000000,0.39534667,0.88628420,1.54563580,213,479,835,136,299,525,0.25186756,0.55324898,0.97154957,0.26483896,0.36403945,0.48426774
29101,0,USMissouriJohnson,Missouri,Johnson,2021-04-04 08:06:29.854686,2020-09-01 00:00:00.000000,0.43688583,0.94556690,1.62459314,236,511,878,146,321,554,0.27022303,0.59462972,1.02593755,0.26546499,0.36949528,0.48525467
29101,0,USMissouriJohnson,Missouri,Johnson,2021-04-04 08:06:29.854686,2020-09-02 00:00:00.000000,0.48239345,0.99663847,1.70552986,260,538,922,157,340,584,0.29181011,0.62948806,1.08093559,0.26634992,0.36989490,0.48537894
29101,0,USMissouriJohnson,Missouri,Johnson,2021-04-04 08:06:29.854686,2020-09-03 00:00:00.000000,0.53208413,1.05286128,1.75880107,287,569,950,171,363,614,0.31667542,0.67310978,1.13689920,0.26280983,0.37290650,0.48431362
29101,0,USMissouriJohnson,Missouri,Johnson,2021-04-04 08:06:29.854686,2020-09-04 00:00:00.000000,0.58633382,1.13179042,1.81126255,316,611,979,186,389,645,0.34472909,0.71965817,1.19388359,0.26109243,0.36490595,0.48035627
29101,0,USMissouriJohnson,Missouri,Johnson,2021-04-04 08:06:29.854686,2020-09-05 00:00:00.000000,0.64238102,1.21644646,1.88856153,347,657,1020,203,420,676,0.37668949,0.77842490,1.25122098,0.26140291,0.35892185,0.48064899
29101,0,USMissouriJohnson,Missouri,Johnson,2021-04-04 08:06:29.854686,2020-09-06 00:00:00.000000,0.69657499,1.28275523,1.96114000,376,693,1060,224,448,706,0.41471631,0.83041001,1.30749644,0.26503926,0.35403834,0.49057380
29101,0,USMissouriJohnson,Missouri,Johnson,2021-04-04 08:06:29.854686,2020-09-07 00:00:00.000000,0.76053101,1.33955596,2.04718177,411,724,1106,247,476,738,0.45737013,0.88194819,1.36515572,0.26634061,0.34766356,0.48732755
29101,0,USMissouriJohnson,Missouri,Johnson,2021-04-04 08:06:29.854686,2020-09-08 00:00:00.000000,0.83082218,1.40306384,2.14502793,449,758,1159,272,502,770,0.50485815,0.93026783,1.42495591,0.25957423,0.33917777,0.49876434
29101,0,USMissouriJohnson,Missouri,Johnson,2021-04-04 08:06:29.854686,2020-09-09 00:00:00.000000,0.89039983,1.47150407,2.25578809,481,795,1219,299,530,802,0.55445275,0.98101584,1.48515128,0.25421312,0.33637412,0.50350168
29101,0,USMissouriJohnson,Missouri,Johnson,2021-04-04 08:06:29.854686,2020-09-10 00:00:00.000000,0.93344895,1.55033339,2.39690885,504,838,1295,326,556,835,0.60456612,1.02860923,1.54631774,0.25303135,0.32873957,0.48267078
29101,0,USMissouriJohnson,Missouri,Johnson,2021-04-04 08:06:29.854686,2020-09-11 00:00:00.000000,1.02527808,1.62567515,2.49637021,554,878,1349,353,578,869,0.65367264,1.07055488,1.60840755,0.24482279,0.31847541,0.47091822
29101,0,USMissouriJohnson,Missouri,Johnson,2021-04-04 08:06:29.854686,2020-09-12 00:00:00.000000,1.10221291,1.69479613,2.62077114,595,916,1416,376,606,899,0.69560125,1.12137352,1.66427962,0.23527355,0.30837056,0.43960008
29101,0,USMissouriJohnson,Missouri,Johnson,2021-04-04 08:06:29.854686,2020-09-13 00:00:00.000000,1.13517913,1.75221846,2.74546805,613,947,1484,394,636,942,0.72916070,1.17691450,1.74357461,0.23215623,0.30503879,0.39355229
29101,0,USMissouriJohnson,Missouri,Johnson,2021-04-04 08:06:29.854686,2020-09-14 00:00:00.000000,1.15741248,1.80868093,2.86941635,625,977,1551,409,659,989,0.75823523,1.22062242,1.82986437,0.22648191,0.30045116,0.38446258
29101,0,USMissouriJohnson,Missouri,Johnson,2021-04-04 08:06:29.854686,2020-09-15 00:00:00.000000,1.17348478,1.86995753,2.98251331,634,1010,1612,424,681,1036,0.78554910,1.26073536,1.91718629,0.22233810,0.29490734,0.36511591
29101,0,USMissouriJohnson,Missouri,Johnson,2021-04-04 08:06:29.854686,2020-09-16 00:00:00.000000,1.18663186,1.93380937,3.07570767,641,1045,1662,439,698,1082,0.81268185,1.29237754,2.00218242,0.22131418,0.29180894,0.36021706
29101,0,USMissouriJohnson,Missouri,Johnson,2021-04-04 08:06:29.854686,2020-09-17 00:00:00.000000,1.19835705,1.99394475,3.14646320,647,1077,1701,446,718,1124,0.82666431,1.32845522,2.08029804,0.22006217,0.29186661,0.36038309
29101,0,USMissouriJohnson,Missouri,Johnson,2021-04-04 08:06:29.854686,2020-09-18 00:00:00.000000,1.20939935,2.05495325,3.21270496,653,1110,1736,452,743,1161,0.83637051,1.37531822,2.14805934,0.21401601,0.28871924,0.35919698
29101,0,USMissouriJohnson,Missouri,Johnson,2021-04-04 08:06:29.854686,2020-09-19 00:00:00.000000,1.22867686,2.11744228,3.31918027,664,1144,1794,456,769,1192,0.84502118,1.42429016,2.20547214,0.21063337,0.28444312,0.35415869
29101,0,USMissouriJohnson,Missouri,Johnson,2021-04-04 08:06:29.854686,2020-09-20 00:00:00.000000,1.26711984,2.18167139,3.42209879,685,1179,1850,461,792,1218,0.85316645,1.46507628,2.25470009,0.21023106,0.28169969,0.36508033
29101,0,USMissouriJohnson,Missouri,Johnson,2021-04-04 08:06:29.854686,2020-09-21 00:00:00.000000,1.31101986,2.23756244,3.51566197,708,1209,1900,472,815,1245,0.87332724,1.50758916,2.30433824,0.21002492,0.28092048,0.37612193
29101,0,USMissouriJohnson,Missouri,Johnson,2021-04-04 08:06:29.854686,2020-09-22 00:00:00.000000,1.35824108,2.30320868,3.51385733,734,1245,1899,487,841,1286,0.90249456,1.55567565,2.37903299,0.21041140,0.28363003,0.38015451
29101,0,USMissouriJohnson,Missouri,Johnson,2021-04-04 08:06:29.854686,2020-09-23 00:00:00.000000,1.41004892,2.36284443,3.59665832,762,1277,1944,505,873,1325,0.93432079,1.61537164,2.45241611,0.21158701,0.28323846,0.37971596
29101,0,USMissouriJohnson,Missouri,Johnson,2021-04-04 08:06:29.854686,2020-09-24 00:00:00.000000,1.46779728,2.42712766,3.69529937,793,1312,1997,523,901,1365,0.96890638,1.66705632,2.52558540,0.21401567,0.28589239,0.37677366
29101,0,USMissouriJohnson,Missouri,Johnson,2021-04-04 08:06:29.854686,2020-09-25 00:00:00.000000,1.51054381,2.51323482,3.79867178,816,1358,2053,544,920,1405,1.00714479,1.70355842,2.59891003,0.21795980,0.28647768,0.35755973
29101,0,USMissouriJohnson,Missouri,Johnson,2021-04-04 08:06:29.854686,2020-09-26 00:00:00.000000,1.54252360,2.59608682,3.90926908,833,1403,2113,567,953,1428,1.04988413,1.76392993,2.64266808,0.21771089,0.28854069,0.35670303
29101,0,USMissouriJohnson,Missouri,Johnson,2021-04-04 08:06:29.854686,2020-09-27 00:00:00.000000,1.58828069,2.66918903,3.99292347,858,1443,2158,582,988,1467,1.07804134,1.82768478,2.71441786,0.21708865,0.29299893,0.35829884
29101,0,USMissouriJohnson,Missouri,Johnson,2021-04-04 08:06:29.854686,2020-09-28 00:00:00.000000,1.64601272,2.76249627,4.05966895,889,1493,2194,597,1018,1504,1.10501248,1.88475517,2.78223619,0.21582961,0.29448497,0.35951294
29101,0,USMissouriJohnson,Missouri,Johnson,2021-04-04 08:06:29.854686,2020-09-29 00:00:00.000000,1.71526450,2.82069943,4.16516617,927,1524,2251,616,1047,1560,1.14020013,1.93787898,2.88619459,0.21972060,0.29517895,0.35947480
29101,0,USMissouriJohnson,Missouri,Johnson,2021-04-04 08:06:29.854686,2020-09-30 00:00:00.000000,1.79289917,2.89060786,4.35464430,969,1562,2354,639,1068,1608,1.18338218,1.97687665,2.97522678,0.22827897,0.29332773,0.36450918
29101,0,USMissouriJohnson,Missouri,Johnson,2021-04-04 08:06:29.854686,2020-10-01 00:00:00.000000,1.87675013,2.97391600,4.54703402,1014,1607,2458,666,1092,1658,1.23318727,2.02074539,3.06721244,0.23036366,0.29280920,0.36245448
29101,0,USMissouriJohnson,Missouri,Johnson,2021-04-04 08:06:29.854686,2020-10-02 00:00:00.000000,1.95706266,3.05705304,4.67923496,1058,1652,2529,696,1112,1709,1.28816227,2.05761125,3.16151995,0.22981130,0.29115336,0.35870823
29101,0,USMissouriJohnson,Missouri,Johnson,2021-04-04 08:06:29.854686,2020-10-03 00:00:00.000000,2.03670142,3.11240661,4.79390473,1101,1682,2591,728,1139,1759,1.34719793,2.10795852,3.25552024,0.23143407,0.29157878,0.35458921
29101,0,USMissouriJohnson,Missouri,Johnson,2021-04-04 08:06:29.854686,2020-10-04 00:00:00.000000,2.08454753,3.17449862,4.88743533,1126,1716,2642,761,1168,1807,1.40948523,2.16161230,3.34326699,0.22229290,0.28996301,0.36025014
29101,0,USMissouriJohnson,Missouri,Johnson,2021-04-04 08:06:29.854686,2020-10-05 00:00:00.000000,2.13428396,3.22585884,4.96601600,1153,1743,2684,786,1209,1849,1.45528460,2.23671039,3.42036283,0.20235967,0.28852101,0.35149321
29101,0,USMissouriJohnson,Missouri,Johnson,2021-04-04 08:06:29.854686,2020-10-06 00:00:00.000000,2.17785436,3.31491623,5.07220985,1177,1792,2742,794,1239,1885,1.46914771,2.29200870,3.48719362,0.20155878,0.28637028,0.35397337
29101,0,USMissouriJohnson,Missouri,Johnson,2021-04-04 08:06:29.854686,2020-10-07 00:00:00.000000,2.18869391,3.36107859,5.24625341,1183,1817,2836,824,1260,1955,1.52492988,2.33126641,3.61744445,0.20070567,0.28409364,0.35581657
29101,0,USMissouriJohnson,Missouri,Johnson,2021-04-04 08:06:29.854686,2020-10-08 00:00:00.000000,2.19717742,3.40531220,5.41502323,1187,1840,2927,838,1283,2029,1.55162481,2.37399601,3.75411885,0.19378203,0.27408161,0.34881829
29101,0,USMissouriJohnson,Missouri,Johnson,2021-04-04 08:06:29.854686,2020-10-09 00:00:00.000000,2.20398546,3.43669942,5.58170081,1191,1857,3017,847,1311,2100,1.56831038,2.42614170,3.88444578,0.19848027,0.26336199,0.34355591
29101,0,USMissouriJohnson,Missouri,Johnson,2021-04-04 08:06:29.854686,2020-10-10 00:00:00.000000,2.25898040,3.48222589,5.73860480,1221,1882,3102,854,1331,2146,1.58080450,2.46356042,3.96985968,0.18823407,0.25160133,0.34047948
29101,0,USMissouriJohnson,Missouri,Johnson,2021-04-04 08:06:29.854686,2020-10-11 00:00:00.000000,2.33155111,3.48985821,5.85558649,1260,1886,3165,864,1341,2184,1.59871988,2.48060516,4.04081694,0.18366679,0.23665484,0.32542572
29101,0,USMissouriJohnson,Missouri,Johnson,2021-04-04 08:06:29.854686,2020-10-12 00:00:00.000000,2.38381025,3.45865311,5.91436147,1288,1869,3197,871,1352,2215,1.61169713,2.50233715,4.09800183,0.17450449,0.23108412,0.30010490
29101,0,USMissouriJohnson,Missouri,Johnson,2021-04-04 08:06:29.854686,2020-10-13 00:00:00.000000,2.40498974,3.45391926,5.93710269,1300,1867,3209,878,1359,2239,1.62539645,2.51441500,4.14209469,0.17163491,0.22683846,0.29592735
29101,0,USMissouriJohnson,Missouri,Johnson,2021-04-04 08:06:29.854686,2020-10-14 00:00:00.000000,2.42528087,3.47134071,5.94857139,1311,1876,3215,886,1358,2257,1.63952758,2.51355811,4.17591423,0.17179137,0.22542436,0.28772783
29101,0,USMissouriJohnson,Missouri,Johnson,2021-04-04 08:06:29.854686,2020-10-15 00:00:00.000000,2.36852929,3.50436644,5.94387723,1280,1894,3213,893,1361,2270,1.65357013,2.51755983,4.20045795,0.17200191,0.22388787,0.27983784
29101,0,USMissouriJohnson,Missouri,Johnson,2021-04-04 08:06:29.854686,2020-10-16 00:00:00.000000,2.30684429,3.45626902,5.92016155,1247,1868,3200,901,1357,2278,1.66676629,2.51119031,4.21491932,0.17123420,0.21805938,0.28721919
29101,0,USMissouriJohnson,Missouri,Johnson,2021-04-04 08:06:29.854686,2020-10-17 00:00:00.000000,2.25991153,3.41300292,5.96634827,1221,1845,3225,906,1348,2280,1.67601242,2.49420846,4.21797979,0.16784446,0.21866573,0.29847366
29101,0,USMissouriJohnson,Missouri,Johnson,2021-04-04 08:06:29.854686,2020-10-18 00:00:00.000000,2.21743767,3.37469527,6.05912453,1198,1824,3275,885,1340,2315,1.63882265,2.47871135,4.28302521,0.16791658,0.21916694,0.30582008
29101,0,USMissouriJohnson,Missouri,Johnson,2021-04-04 08:06:29.854686,2020-10-19 00:00:00.000000,2.18081519,3.33335816,6.04237354,1178,1802,3266,868,1333,2352,1.60652292,2.46586316,4.35099329,0.16679397,0.21545870,0.30681226
29101,0,USMissouriJohnson,Missouri,Johnson,2021-04-04 08:06:29.854686,2020-10-20 00:00:00.000000,2.18995491,3.32951404,6.01897721,1183,1800,3253,853,1320,2386,1.57828639,2.44260138,4.41426076,0.16715416,0.21402858,0.30692346
29101,0,USMissouriJohnson,Missouri,Johnson,2021-04-04 08:06:29.854686,2020-10-21 00:00:00.000000,2.20913321,3.30841440,5.99480226,1194,1788,3240,851,1315,2418,1.57453493,2.43242586,4.47425952,0.17007120,0.21483774,0.30692015
29101,0,USMissouriJohnson,Missouri,Johnson,2021-04-04 08:06:29.854686,2020-10-22 00:00:00.000000,2.22810970,3.26742810,5.97351735,1204,1766,3229,858,1308,2435,1.58764229,2.41998058,4.50507353,0.16505419,0.21593835,0.30682023
29101,0,USMissouriJohnson,Missouri,Johnson,2021-04-04 08:06:29.854686,2020-10-23 00:00:00.000000,2.19589865,3.24729450,5.96318567,1187,1755,3223,865,1300,2427,1.60075054,2.40562466,4.49078237,0.16461773,0.21764488,0.30659369
29101,0,USMissouriJohnson,Missouri,Johnson,2021-04-04 08:06:29.854686,2020-10-24 00:00:00.000000,2.17542090,3.23794214,5.97590456,1176,1750,3230,855,1286,2422,1.58192886,2.37986020,4.48033473,0.16437558,0.22164053,0.29620386
29101,0,USMissouriJohnson,Missouri,Johnson,2021-04-04 08:06:29.854686,2020-10-25 00:00:00.000000,2.17954737,3.20841418,6.01568016,1178,1734,3252,836,1273,2422,1.54686380,2.35493458,4.48031645,0.16417062,0.22391709,0.29824900
29101,0,USMissouriJohnson,Missouri,Johnson,2021-04-04 08:06:29.854686,2020-10-26 00:00:00.000000,2.19155049,3.17886474,6.07360895,1184,1718,3283,835,1253,2430,1.54604372,2.31823570,4.49559434,0.16400716,0.22625596,0.29936771
29101,0,USMissouriJohnson,Missouri,Johnson,2021-04-04 08:06:29.854686,2020-10-27 00:00:00.000000,2.20997454,3.15778452,6.13932255,1194,1707,3319,841,1234,2446,1.55683764,2.28347051,4.52527224,0.16174958,0.22776654,0.30423513
29101,0,USMissouriJohnson,Missouri,Johnson,2021-04-04 08:06:29.854686,2020-10-28 00:00:00.000000,2.22854813,3.15634679,6.17151206,1204,1706,3336,848,1225,2467,1.56885231,2.26750599,4.56491284,0.16210466,0.22934425,0.31531390
29101,0,USMissouriJohnson,Missouri,Johnson,2021-04-04 08:06:29.854686,2020-10-29 00:00:00.000000,2.24754802,3.15760637,6.07657948,1215,1707,3285,854,1227,2465,1.58122722,2.27015214,4.56135394,0.16389506,0.23526815,0.33999178
29101,0,USMissouriJohnson,Missouri,Johnson,2021-04-04 08:06:29.854686,2020-10-30 00:00:00.000000,2.27416901,3.14158748,5.99483444,1229,1698,3240,861,1212,2432,1.59403369,2.24351062,4.49905259,0.16581212,0.24069404,0.34629663
29101,0,USMissouriJohnson,Missouri,Johnson,2021-04-04 08:06:29.854686,2020-10-31 00:00:00.000000,2.28464169,3.14190821,5.91782950,1235,1698,3199,862,1208,2401,1.59624557,2.23476238,4.44224078,0.17801715,0.25122811,0.34932117
29101,0,USMissouriJohnson,Missouri,Johnson,2021-04-04 08:06:29.854686,2020-11-01 00:00:00.000000,2.29646328,3.14266307,5.84296447,1241,1698,3158,858,1204,2375,1.58855473,2.22727713,4.39452739,0.18638907,0.25651786,0.35145193
29101,0,USMissouriJohnson,Missouri,Johnson,2021-04-04 08:06:29.854686,2020-11-02 00:00:00.000000,2.26217588,3.16399791,5.76592571,1222,1710,3117,857,1200,2354,1.58530955,2.21993427,4.35567980,0.18426199,0.25728959,0.35265074
29101,0,USMissouriJohnson,Missouri,Johnson,2021-04-04 08:06:29.854686,2020-11-03 00:00:00.000000,2.23489804,3.17580844,5.68923716,1208,1716,3075,854,1195,2335,1.58093165,2.21067545,4.32087331,0.18142878,0.25495449,0.35249321
29101,0,USMissouriJohnson,Missouri,Johnson,2021-04-04 08:06:29.854686,2020-11-04 00:00:00.000000,2.22259780,3.18257791,5.61267303,1201,1720,3034,852,1198,2317,1.57779119,2.21638867,4.28675468,0.18104300,0.25967896,0.34405873
29101,0,USMissouriJohnson,Missouri,Johnson,2021-04-04 08:06:29.854686,2020-11-05 00:00:00.000000,2.23265615,3.20903591,5.53648434,1207,1734,2993,852,1213,2298,1.57600955,2.24492806,4.25091043,0.18144028,0.25711727,0.33457333
29101,0,USMissouriJohnson,Missouri,Johnson,2021-04-04 08:06:29.854686,2020-11-06 00:00:00.000000,2.26929840,3.20404667,5.46151098,1226,1732,2952,852,1218,2276,1.57607014,2.25396952,4.21150198,0.16018392,0.25676179,0.33385511
29101,0,USMissouriJohnson,Missouri,Johnson,2021-04-04 08:06:29.854686,2020-11-07 00:00:00.000000,2.27881577,3.22125816,5.38980348,1231,1741,2913,853,1220,2252,1.57853086,2.25669374,4.16703240,0.15516788,0.25407301,0.33473684
29101,0,USMissouriJohnson,Missouri,Johnson,2021-04-04 08:06:29.854686,2020-11-08 00:00:00.000000,2.27401791,3.23011999,5.36797381,1229,1746,2902,856,1223,2225,1.58341349,2.26248881,4.11632199,0.15815616,0.25474139,0.33072608
29101,0,USMissouriJohnson,Missouri,Johnson,2021-04-04 08:06:29.854686,2020-11-09 00:00:00.000000,2.26598131,3.24143514,5.37905457,1225,1752,2908,862,1234,2194,1.59477792,2.28395423,4.05865099,0.16784741,0.25671905,0.32191293
29101,0,USMissouriJohnson,Missouri,Johnson,2021-04-04 08:06:29.854686,2020-11-10 00:00:00.000000,2.25277849,3.23584044,5.27096616,1217,1749,2849,879,1236,2158,1.62633050,2.28757122,3.99276525,0.16569795,0.25603933,0.31396926
29101,0,USMissouriJohnson,Missouri,Johnson,2021-04-04 08:06:29.854686,2020-11-11 00:00:00.000000,2.23613870,3.24599243,5.19565492,1208,1754,2808,877,1241,2119,1.62372885,2.29683037,3.91996604,0.16949500,0.25619366,0.31556482
29101,0,USMissouriJohnson,Missouri,Johnson,2021-04-04 08:06:29.854686,2020-11-12 00:00:00.000000,2.21990903,3.25390767,5.20781658,1200,1759,2815,872,1241,2087,1.61458620,2.29647419,3.86170439,0.17209696,0.25490324,0.31510992
29101,0,USMissouriJohnson,Missouri,Johnson,2021-04-04 08:06:29.854686,2020-11-13 00:00:00.000000,2.22896940,3.26654327,5.26387358,1205,1765,2845,878,1243,2088,1.62534562,2.30003845,3.86267474,0.17110047,0.25191303,0.31683868
29101,0,USMissouriJohnson,Missouri,Johnson,2021-04-04 08:06:29.854686,2020-11-14 00:00:00.000000,2.23649733,3.24490670,5.31801749,1209,1754,2875,886,1232,2085,1.63930102,2.28012002,3.85832013,0.16979794,0.24989702,0.31885866
29101,0,USMissouriJohnson,Missouri,Johnson,2021-04-04 08:06:29.854686,2020-11-15 00:00:00.000000,2.24305736,3.21273565,5.31921669,1212,1736,2875,882,1223,2080,1.63162257,2.26256182,3.84926521,0.16824144,0.24736714,0.32178356
29101,0,USMissouriJohnson,Missouri,Johnson,2021-04-04 08:06:29.854686,2020-11-16 00:00:00.000000,2.25993149,3.22175350,5.28907021,1221,1741,2859,868,1212,2074,1.60634418,2.24278182,3.83642111,0.16721860,0.24706962,0.33472852
29101,0,USMissouriJohnson,Missouri,Johnson,2021-04-04 08:06:29.854686,2020-11-17 00:00:00.000000,2.25566957,3.18457626,5.25651519,1219,1721,2841,864,1207,2080,1.59964609,2.23433608,3.84811749,0.16492259,0.24962691,0.33991887
29101,0,USMissouriJohnson,Missouri,Johnson,2021-04-04 08:06:29.854686,2020-11-18 00:00:00.000000,2.25997647,3.17242375,5.22178842,1221,1715,2823,857,1200,2082,1.58689019,2.22069995,3.85187724,0.16476990,0.25210660,0.33677159
29101,0,USMissouriJohnson,Missouri,Johnson,2021-04-04 08:06:29.854686,2020-11-19 00:00:00.000000,2.26315150,3.17324934,5.18527068,1223,1715,2803,853,1206,2070,1.57965213,2.23184839,3.82943356,0.16481487,0.25293031,0.33241831
29101,0,USMissouriJohnson,Missouri,Johnson,2021-04-04 08:06:29.854686,2020-11-20 00:00:00.000000,2.26457908,3.17438771,5.14667119,1224,1716,2782,851,1217,2079,1.57576850,2.25216531,3.84594569,0.16518370,0.25066389,0.32911046
29101,0,USMissouriJohnson,Missouri,Johnson,2021-04-04 08:06:29.854686,2020-11-21 00:00:00.000000,2.26124449,3.14191608,5.10146107,1222,1698,2757,843,1214,2087,1.56101368,2.24686572,3.86219491,0.16599985,0.24774609,0.32675581
29101,0,USMissouriJohnson,Missouri,Johnson,2021-04-04 08:06:29.854686,2020-11-22 00:00:00.000000,2.24941711,3.08892030,5.03560054,1216,1669,2722,828,1210,2095,1.53205582,2.23862136,3.87574926,0.16445812,0.24863183,0.30820125
29101,0,USMissouriJohnson,Missouri,Johnson,2021-04-04 08:06:29.854686,2020-11-23 00:00:00.000000,2.23814166,3.04080447,4.99146888,1209,1643,2698,816,1201,2088,1.51067947,2.22309149,3.86349873,0.16028969,0.24414977,0.32013058
29101,0,USMissouriJohnson,Missouri,Johnson,2021-04-04 08:06:29.854686,2020-11-24 00:00:00.000000,2.22482604,3.01721407,5.00492790,1202,1631,2705,809,1197,2080,1.49768069,2.21574598,3.84802360,0.15929937,0.23715406,0.32333479
29101,0,USMissouriJohnson,Missouri,Johnson,2021-04-04 08:06:29.854686,2020-11-25 00:00:00.000000,2.21300112,3.03452905,4.92898634,1196,1640,2664,805,1184,2069,1.49023522,2.19031044,3.82746873,0.15843210,0.23804860,0.32141973
29101,0,USMissouriJohnson,Missouri,Johnson,2021-04-04 08:06:29.854686,2020-11-26 00:00:00.000000,2.19327455,2.99067635,4.80977223,1185,1616,2600,801,1162,2053,1.48278700,2.15117131,3.79785188,0.15806609,0.23422379,0.31600018
29101,0,USMissouriJohnson,Missouri,Johnson,2021-04-04 08:06:29.854686,2020-11-27 00:00:00.000000,2.16374895,2.93574988,4.69229289,1169,1587,2536,796,1157,2005,1.47347607,2.14029615,3.70904641,0.15726716,0.22971107,0.31486348
29101,0,USMissouriJohnson,Missouri,Johnson,2021-04-04 08:06:29.854686,2020-11-28 00:00:00.000000,2.12908050,2.90276318,4.57520015,1151,1569,2473,792,1141,1957,1.46643271,2.11094144,3.62027141,0.15259717,0.22661778,0.30935544
29101,0,USMissouriJohnson,Missouri,Johnson,2021-04-04 08:06:29.854686,2020-11-29 00:00:00.000000,2.10033749,2.90129035,4.45983108,1135,1568,2411,788,1134,1909,1.45931720,2.09909861,3.53219817,0.14950323,0.22287445,0.31438131
29101,0,USMissouriJohnson,Missouri,Johnson,2021-04-04 08:06:29.854686,2020-11-30 00:00:00.000000,2.06508137,2.87633866,4.34996856,1116,1555,2351,785,1114,1862,1.45309480,2.06180396,3.44522928,0.14835240,0.22000808,0.31614000
29101,0,USMissouriJohnson,Missouri,Johnson,2021-04-04 08:06:29.854686,2020-12-01 00:00:00.000000,2.01687330,2.82645949,4.24236776,1090,1528,2293,781,1092,1816,1.44584657,2.02157734,3.36077481,0.14623892,0.21952433,0.31613811
29101,0,USMissouriJohnson,Missouri,Johnson,2021-04-04 08:06:29.854686,2020-12-02 00:00:00.000000,1.97199362,2.76579554,4.22296154,1066,1495,2283,769,1078,1772,1.42323548,1.99413310,3.27840899,0.14547319,0.21887696,0.31262143
29101,0,USMissouriJohnson,Missouri,Johnson,2021-04-04 08:06:29.854686,2020-12-03 00:00:00.000000,1.93162006,2.69767457,4.20582555,1044,1458,2273,751,1068,1728,1.39062813,1.97574094,3.19782536,0.14551315,0.21742729,0.30356590
29101,0,USMissouriJohnson,Missouri,Johnson,2021-04-04 08:06:29.854686,2020-12-04 00:00:00.000000,1.89794549,2.67269956,4.18761430,1026,1444,2263,735,1061,1685,1.36061472,1.96265977,3.11851853,0.14574721,0.21522597,0.28985203
29101,0,USMissouriJohnson,Missouri,Johnson,2021-04-04 08:06:29.854686,2020-12-05 00:00:00.000000,1.85520243,2.64596747,4.16558453,1002,1430,2251,721,1045,1664,1.33400965,1.93436676,3.07862604,0.14578910,0.21650597,0.29823736
29101,0,USMissouriJohnson,Missouri,Johnson,2021-04-04 08:06:29.854686,2020-12-06 00:00:00.000000,1.81063086,2.60496183,4.13566201,978,1408,2235,709,1025,1656,1.31179325,1.89642362,3.06367290,0.14457209,0.21352800,0.30105186
29101,0,USMissouriJohnson,Missouri,Johnson,2021-04-04 08:06:29.854686,2020-12-07 00:00:00.000000,1.75284364,2.55608045,4.08898745,947,1381,2210,695,1007,1648,1.28685796,1.86293630,3.04936899,0.13990728,0.21156516,0.29936399
29101,0,USMissouriJohnson,Missouri,Johnson,2021-04-04 08:06:29.854686,2020-12-08 00:00:00.000000,1.70454576,2.51325278,4.02727448,921,1358,2177,663,993,1644,1.22821337,1.83702321,3.04216853,0.13760797,0.20961352,0.30979786
29101,0,USMissouriJohnson,Missouri,Johnson,2021-04-04 08:06:29.854686,2020-12-09 00:00:00.000000,1.65394674,2.45090161,3.94470117,894,1325,2132,634,972,1641,1.17354630,1.79842049,3.03699084,0.13475420,0.20933880,0.30902249
29101,0,USMissouriJohnson,Missouri,Johnson,2021-04-04 08:06:29.854686,2020-12-10 00:00:00.000000,1.60757696,2.39532435,3.87247296,869,1294,2093,634,949,1625,1.17274024,1.75700914,3.00740481,0.13527017,0.20818537,0.30643257
29101,0,USMissouriJohnson,Missouri,Johnson,2021-04-04 08:06:29.854686,2020-12-11 00:00:00.000000,1.56759074,2.34537964,3.78023938,847,1267,2043,633,934,1581,1.17251789,1.72894364,2.92517078,0.13676735,0.20640486,0.29861502
29101,0,USMissouriJohnson,Missouri,Johnson,2021-04-04 08:06:29.854686,2020-12-12 00:00:00.000000,1.53514348,2.29451193,3.66513113,829,1240,1981,633,912,1536,1.17239953,1.68729030,2.84268102,0.12686611,0.20794051,0.29291073
29101,0,USMissouriJohnson,Missouri,Johnson,2021-04-04 08:06:29.854686,2020-12-13 00:00:00.000000,1.50855526,2.23610115,3.53691542,815,1208,1912,619,890,1492,1.14597542,1.64720674,2.76058590,0.12191542,0.21027572,0.28004765
29101,0,USMissouriJohnson,Missouri,Johnson,2021-04-04 08:06:29.854686,2020-12-14 00:00:00.000000,1.48603432,2.17161166,3.41110188,803,1174,1844,602,873,1448,1.11497307,1.61583437,2.67869598,0.12206395,0.20350938,0.27851747
29101,0,USMissouriJohnson,Missouri,Johnson,2021-04-04 08:06:29.854686,2020-12-15 00:00:00.000000,1.45072447,2.12485321,3.28608318,784,1148,1776,584,846,1403,1.08029130,1.56624024,2.59672645,0.12217253,0.20497123,0.28296183
29101,0,USMissouriJohnson,Missouri,Johnson,2021-04-04 08:06:29.854686,2020-12-16 00:00:00.000000,1.40088074,2.06460472,3.16304913,757,1116,1710,564,831,1360,1.04425644,1.53793251,2.51608902,0.12224098,0.20309269,0.27777457
29101,0,USMissouriJohnson,Missouri,Johnson,2021-04-04 08:06:29.854686,2020-12-17 00:00:00.000000,1.35376706,2.02255488,3.05924448,731,1093,1653,545,813,1317,1.00850543,1.50458508,2.43778449,0.12235933,0.20072794,0.27538144
29101,0,USMissouriJohnson,Missouri,Johnson,2021-04-04 08:06:29.854686,2020-12-18 00:00:00.000000,1.31117045,1.98789570,2.97677918,708,1074,1609,526,799,1276,0.97450563,1.47946022,2.36206081,0.12272132,0.20022079,0.27534835
29101,0,USMissouriJohnson,Missouri,Johnson,2021-04-04 08:06:29.854686,2020-12-19 00:00:00.000000,1.27428789,1.92091767,2.89282663,688,1038,1563,510,776,1238,0.94354082,1.43608367,2.29056295,0.12312654,0.19785436,0.27542537
29101,0,USMissouriJohnson,Missouri,Johnson,2021-04-04 08:06:29.854686,2020-12-20 00:00:00.000000,1.24348970,1.85194673,2.80330804,672,1001,1515,495,746,1201,0.91652361,1.38153319,2.22273248,0.12682429,0.19254205,0.27556260
29101,0,USMissouriJohnson,Missouri,Johnson,2021-04-04 08:06:29.854686,2020-12-21 00:00:00.000000,1.21834585,1.78013702,2.72259741,658,962,1471,483,722,1166,0.89380285,1.33627733,2.15798083,0.13179369,0.19250024,0.27554195
29101,0,USMissouriJohnson,Missouri,Johnson,2021-04-04 08:06:29.854686,2020-12-22 00:00:00.000000,1.19374566,1.74053234,2.64454000,645,940,1429,473,707,1132,0.87515511,1.30952512,2.09545507,0.13215495,0.18744036,0.28143972
29101,0,USMissouriJohnson,Missouri,Johnson,2021-04-04 08:06:29.854686,2020-12-23 00:00:00.000000,1.13975024,1.69586678,2.56892015,616,916,1388,464,689,1100,0.85981810,1.27520515,2.03503737,0.13203423,0.18783328,0.28499363
29101,0,USMissouriJohnson,Missouri,Johnson,2021-04-04 08:06:29.854686,2020-12-24 00:00:00.000000,1.08892043,1.65486621,2.52731069,588,894,1366,448,669,1068,0.82969779,1.23909435,1.97659163,0.13188405,0.18935399,0.27589408
29101,0,USMissouriJohnson,Missouri,Johnson,2021-04-04 08:06:29.854686,2020-12-25 00:00:00.000000,1.04107343,1.61611647,2.49633239,562,873,1349,426,656,1037,0.78804906,1.21362915,1.91996908,0.13179426,0.19570304,0.27659180
29101,0,USMissouriJohnson,Missouri,Johnson,2021-04-04 08:06:29.854686,2020-12-26 00:00:00.000000,0.99599665,1.58074794,2.44748284,538,854,1323,402,645,1012,0.74508239,1.19433699,1.87345018,0.13659856,0.19496662,0.27618428
29101,0,USMissouriJohnson,Missouri,Johnson,2021-04-04 08:06:29.854686,2020-12-27 00:00:00.000000,0.95345041,1.54441013,2.36813577,515,834,1280,381,626,996,0.70558655,1.15962288,1.84301354,0.13594142,0.19701053,0.27710983
29101,0,USMissouriJohnson,Missouri,Johnson,2021-04-04 08:06:29.854686,2020-12-28 00:00:00.000000,0.91514889,1.49842682,2.28990859,494,810,1237,361,610,973,0.66913877,1.12955347,1.80084564,0.13588043,0.19537878,0.27736357
29101,0,USMissouriJohnson,Missouri,Johnson,2021-04-04 08:06:29.854686,2020-12-29 00:00:00.000000,0.87885082,1.47102137,2.23358746,475,795,1207,343,600,946,0.63575147,1.11103735,1.75063283,0.13624796,0.19480312,0.27732497
29101,0,USMissouriJohnson,Missouri,Johnson,2021-04-04 08:06:29.854686,2020-12-30 00:00:00.000000,0.84129044,1.44669082,2.15670563,454,782,1165,327,591,916,0.60495843,1.09334642,1.69596321,0.13715515,0.19507540,0.27717440
29101,0,USMissouriJohnson,Missouri,Johnson,2021-04-04 08:06:29.854686,2020-12-31 00:00:00.000000,0.80363546,1.41393774,2.09012549,434,764,1129,311,581,886,0.57652914,1.07578938,1.63948513,0.13771337,0.19621416,0.27658212
29101,0,USMissouriJohnson,Missouri,Johnson,2021-04-04 08:06:29.854686,2021-01-01 00:00:00.000000,0.78029277,1.38403589,2.04694344,421,748,1106,297,563,860,0.55033107,1.04202517,1.59140230,0.14240095,0.19468909,0.27193862
29101,0,USMissouriJohnson,Missouri,Johnson,2021-04-04 08:06:29.854686,2021-01-02 00:00:00.000000,0.75022891,1.35492662,2.00816941,405,732,1085,289,546,840,0.53613808,1.01058897,1.55477761,0.14795410,0.19851456,0.25792751
29101,0,USMissouriJohnson,Missouri,Johnson,2021-04-04 08:06:29.854686,2021-01-03 00:00:00.000000,0.72169153,1.32531675,1.95975698,390,716,1059,282,535,816,0.52243225,0.98973353,1.51060201,0.14857483,0.19416249,0.25611248
29101,0,USMissouriJohnson,Missouri,Johnson,2021-04-04 08:06:29.854686,2021-01-04 00:00:00.000000,0.69194571,1.29551007,1.92366676,374,700,1039,274,521,806,0.50777635,0.96477100,1.49138892,0.14922164,0.19792158,0.26152951
29101,0,USMissouriJohnson,Missouri,Johnson,2021-04-04 08:06:29.854686,2021-01-05 00:00:00.000000,0.66447557,1.26577678,1.90877872,359,684,1031,266,506,791,0.49347423,0.93605638,1.46484927,0.14449886,0.20096033,0.26360221
29101,0,USMissouriJohnson,Missouri,Johnson,2021-04-04 08:06:29.854686,2021-01-06 00:00:00.000000,0.64469845,1.23458611,1.89301611,348,667,1023,259,490,779,0.47962135,0.90783522,1.44098156,0.13862591,0.20194483,0.26439718
29101,0,USMissouriJohnson,Missouri,Johnson,2021-04-04 08:06:29.854686,2021-01-07 00:00:00.000000,0.62966389,1.20054460,1.87095957,340,649,1011,251,479,767,0.46460099,0.88707922,1.41921984,0.13772798,0.19519334,0.26727534
29101,0,USMissouriJohnson,Missouri,Johnson,2021-04-04 08:06:29.854686,2021-01-08 00:00:00.000000,0.62643699,1.17337844,1.84824959,338,634,999,241,464,756,0.44758129,0.85918031,1.39904452,0.13850237,0.19514835,0.26799375
29101,0,USMissouriJohnson,Missouri,Johnson,2021-04-04 08:06:29.854686,2021-01-09 00:00:00.000000,0.62336408,1.13592101,1.82576644,337,614,987,236,452,746,0.43761094,0.83772480,1.38001671,0.15014333,0.19395688,0.26650148
29101,0,USMissouriJohnson,Missouri,Johnson,2021-04-04 08:06:29.854686,2021-01-10 00:00:00.000000,0.60603178,1.10102650,1.80321391,327,595,974,232,438,736,0.42924402,0.81180906,1.36177898,0.14959142,0.19725659,0.26535944
29101,0,USMissouriJohnson,Missouri,Johnson,2021-04-04 08:06:29.854686,2021-01-11 00:00:00.000000,0.58502603,1.06852128,1.77963390,316,577,962,225,426,726,0.41679244,0.78966289,1.34403584,0.14772452,0.19650495,0.26562010
29101,0,USMissouriJohnson,Missouri,Johnson,2021-04-04 08:06:29.854686,2021-01-12 00:00:00.000000,0.56381587,1.04853576,1.75575502,304,566,949,217,410,717,0.40293130,0.75977200,1.32634094,0.14709044,0.19733166,0.26244655
29101,0,USMissouriJohnson,Missouri,Johnson,2021-04-04 08:06:29.854686,2021-01-13 00:00:00.000000,0.54377778,1.02967562,1.72902599,293,556,934,210,400,707,0.38851949,0.74145410,1.30862275,0.14566174,0.19727556,0.26420224
29101,0,USMissouriJohnson,Missouri,Johnson,2021-04-04 08:06:29.854686,2021-01-14 00:00:00.000000,0.52587269,1.00691149,1.70309887,284,544,920,202,391,697,0.37462302,0.72335536,1.29087077,0.14553167,0.19908120,0.26667884
29101,0,USMissouriJohnson,Missouri,Johnson,2021-04-04 08:06:29.854686,2021-01-15 00:00:00.000000,0.51038059,0.98433777,1.67978150,275,532,908,195,381,688,0.36199955,0.70532914,1.27309474,0.14599082,0.19946851,0.27120153
29101,0,USMissouriJohnson,Missouri,Johnson,2021-04-04 08:06:29.854686,2021-01-16 00:00:00.000000,0.49712301,0.96224755,1.65497348,268,520,894,189,375,678,0.35097901,0.69505330,1.25528560,0.14680933,0.20228171,0.28098227
29101,0,USMissouriJohnson,Missouri,Johnson,2021-04-04 08:06:29.854686,2021-01-17 00:00:00.000000,0.48567296,0.94006758,1.61371720,262,508,872,184,368,668,0.34152736,0.68120965,1.23744068,0.14684083,0.20821163,0.28188661
29101,0,USMissouriJohnson,Missouri,Johnson,2021-04-04 08:06:29.854686,2021-01-18 00:00:00.000000,0.47552850,0.91735336,1.57863642,257,495,853,180,360,659,0.33337230,0.66639916,1.21960880,0.15362452,0.20835860,0.28540976
29101,0,USMissouriJohnson,Missouri,Johnson,2021-04-04 08:06:29.854686,2021-01-19 00:00:00.000000,0.46634204,0.89586707,1.54791747,252,484,836,176,352,649,0.32618991,0.65262783,1.20148619,0.15183432,0.21554676,0.28745966
29101,0,USMissouriJohnson,Missouri,Johnson,2021-04-04 08:06:29.854686,2021-01-20 00:00:00.000000,0.45790788,0.87563569,1.51955126,247,473,821,172,345,639,0.31971701,0.63840641,1.18373308,0.15062195,0.21833147,0.29674651
29101,0,USMissouriJohnson,Missouri,Johnson,2021-04-04 08:06:29.854686,2021-01-21 00:00:00.000000,0.45172967,0.85847720,1.49273948,244,464,807,169,337,630,0.31375076,0.62443400,1.16707449,0.15218787,0.22178593,0.30219660
29101,0,USMissouriJohnson,Missouri,Johnson,2021-04-04 08:06:29.854686,2021-01-22 00:00:00.000000,0.44593170,0.84194673,1.46745793,241,455,793,166,332,623,0.30815491,0.61539852,1.15327418,0.16268252,0.22752730,0.31214377
29101,0,USMissouriJohnson,Missouri,Johnson,2021-04-04 08:06:29.854686,2021-01-23 00:00:00.000000,0.44096087,0.82897234,1.44476283,238,448,781,163,330,618,0.30286799,0.61047161,1.14447906,0.16828415,0.23185685,0.32067117
29101,0,USMissouriJohnson,Missouri,Johnson,2021-04-04 08:06:29.854686,2021-01-24 00:00:00.000000,0.43818889,0.81892695,1.42825427,236,442,772,161,325,610,0.29798518,0.60170137,1.12858509,0.17542280,0.24060014,0.32509627
29101,0,USMissouriJohnson,Missouri,Johnson,2021-04-04 08:06:29.854686,2021-01-25 00:00:00.000000,0.43771674,0.81105471,1.41813795,236,438,766,159,320,601,0.29414929,0.59331581,1.11242098,0.18100923,0.25120951,0.36381019
29101,0,USMissouriJohnson,Missouri,Johnson,2021-04-04 08:06:29.854686,2021-01-26 00:00:00.000000,0.44419451,0.80808545,1.41202387,240,436,763,158,315,594,0.29382149,0.58271477,1.10032872,0.18595100,0.25752403,0.40784617
29101,0,USMissouriJohnson,Missouri,Johnson,2021-04-04 08:06:29.854686,2021-01-27 00:00:00.000000,0.45358503,0.80671256,1.40786318,245,436,761,161,310,590,0.29843942,0.57519307,1.09185541,0.19469751,0.25954897,0.44665624
29101,0,USMissouriJohnson,Missouri,Johnson,2021-04-04 08:06:29.854686,2021-01-28 00:00:00.000000,0.46856103,0.80177235,1.40587124,253,433,760,165,307,587,0.30663807,0.56824299,1.08596696,0.20205498,0.26282433,0.46274103
29101,0,USMissouriJohnson,Missouri,Johnson,2021-04-04 08:06:29.854686,2021-01-29 00:00:00.000000,0.48367105,0.81007406,1.40756554,261,437,760,171,306,585,0.31670938,0.56679627,1.08219045,0.20753370,0.27244253,0.46694816
29101,0,USMissouriJohnson,Missouri,Johnson,2021-04-04 08:06:29.854686,2021-01-30 00:00:00.000000,0.49847728,0.80913062,1.41579882,269,437,765,173,306,584,0.32008477,0.56675873,1.08085514,0.21646566,0.28945588,0.47011890
29101,0,USMissouriJohnson,Missouri,Johnson,2021-04-04 08:06:29.854686,2021-01-31 00:00:00.000000,0.49479977,0.81175265,1.43899432,267,438,777,178,307,585,0.32992261,0.56900999,1.08317796,0.22146450,0.30932432,0.47032871
29101,0,USMissouriJohnson,Missouri,Johnson,2021-04-04 08:06:29.854686,2021-02-01 00:00:00.000000,0.49206088,0.81834562,1.48722170,266,442,804,184,310,589,0.34085063,0.57374940,1.09098619,0.22516144,0.33093494,0.47951743
29101,0,USMissouriJohnson,Missouri,Johnson,2021-04-04 08:06:29.854686,2021-02-02 00:00:00.000000,0.49017947,0.83651620,1.53764736,265,452,831,186,314,598,0.34477907,0.58162843,1.10615136,0.22910051,0.35524583,0.49191485
29101,0,USMissouriJohnson,Missouri,Johnson,2021-04-04 08:06:29.854686,2021-02-03 00:00:00.000000,0.48928156,0.85335478,1.58931196,264,461,859,185,316,610,0.34401116,0.58497957,1.12961888,0.25021757,0.36726625,0.51648410
29101,0,USMissouriJohnson,Missouri,Johnson,2021-04-04 08:06:29.854686,2021-02-04 00:00:00.000000,0.49802813,0.88434312,1.64391092,269,478,888,189,323,628,0.35006429,0.59855668,1.16234452,0.26102851,0.38292574,0.60890263
29101,0,USMissouriJohnson,Missouri,Johnson,2021-04-04 08:06:29.854686,2021-02-05 00:00:00.000000,0.50166939,0.92091034,1.71088674,271,497,924,194,328,651,0.35888067,0.60791455,1.20523607,0.26875483,0.39618922,0.63231678
29101,0,USMissouriJohnson,Missouri,Johnson,2021-04-04 08:06:29.854686,2021-02-06 00:00:00.000000,0.50837952,0.97223661,1.80662404,274,525,976,196,339,680,0.36292017,0.62732383,1.25874559,0.27191693,0.42110629,0.66781320
29101,0,USMissouriJohnson,Missouri,Johnson,2021-04-04 08:06:29.854686,2021-02-07 00:00:00.000000,0.52953515,1.03078170,1.91408444,286,557,1034,196,351,714,0.36302606,0.64953179,1.32221478,0.29959829,0.45014072,0.68915244
29101,0,USMissouriJohnson,Missouri,Johnson,2021-04-04 08:06:29.854686,2021-02-08 00:00:00.000000,0.54148145,1.08813954,2.03768667,292,588,1101,196,369,754,0.36366290,0.68409419,1.39470191,0.32585344,0.48285921,0.71222686
29101,0,USMissouriJohnson,Missouri,Johnson,2021-04-04 08:06:29.854686,2021-02-09 00:00:00.000000,0.56536130,1.14227506,2.20813465,305,617,1193,199,390,799,0.36822773,0.72222951,1.47815641,0.36704448,0.50763497,0.74472512
29101,0,USMissouriJohnson,Missouri,Johnson,2021-04-04 08:06:29.854686,2021-02-10 00:00:00.000000,0.60058978,1.22078369,2.39332726,324,659,1293,210,414,849,0.38903797,0.76589102,1.57083323,0.38651440,0.53035496,0.75210923
29101,0,USMissouriJohnson,Missouri,Johnson,2021-04-04 08:06:29.854686,2021-02-11 00:00:00.000000,0.64121425,1.30194295,2.57634882,346,703,1392,225,438,903,0.41672861,0.81042919,1.67171027,0.40049560,0.56687930,0.77813998
29101,0,USMissouriJohnson,Missouri,Johnson,2021-04-04 08:06:29.854686,2021-02-12 00:00:00.000000,0.68553586,1.39734540,2.76011091,370,755,1492,241,468,962,0.44683821,0.86715287,1.78037868,0.40263808,0.58817765,0.85245187
29101,0,USMissouriJohnson,Missouri,Johnson,2021-04-04 08:06:29.854686,2021-02-13 00:00:00.000000,0.75686496,1.50826576,3.00261838,409,815,1623,258,500,1026,0.47796503,0.92568046,1.89783091,0.42376206,0.63365466,0.94716350
29101,0,USMissouriJohnson,Missouri,Johnson,2021-04-04 08:06:29.854686,2021-02-14 00:00:00.000000,0.82740468,1.67073406,3.30035957,447,903,1784,278,537,1112,0.51530084,0.99380259,2.05740304,0.45533549,0.68688659,0.96134044
29101,0,USMissouriJohnson,Missouri,Johnson,2021-04-04 08:06:29.854686,2021-02-15 00:00:00.000000,0.88678057,1.84580059,3.66096240,479,997,1979,300,590,1206,0.55539888,1.09288273,2.23128424,0.48026799,0.70811552,0.96769579
29101,0,USMissouriJohnson,Missouri,Johnson,2021-04-04 08:06:29.854686,2021-02-16 00:00:00.000000,1.00338376,2.06047329,4.06127381,542,1113,2195,330,648,1332,0.61203640,1.19969363,2.46508681,0.49874364,0.75682281,0.98131220
29101,0,USMissouriJohnson,Missouri,Johnson,2021-04-04 08:06:29.854686,2021-02-17 00:00:00.000000,1.14586686,2.31205137,4.50278192,619,1249,2434,370,718,1500,0.68449461,1.32968191,2.77565108,0.53936450,0.77892146,0.99048734
29101,0,USMissouriJohnson,Missouri,Johnson,2021-04-04 08:06:29.854686,2021-02-18 00:00:00.000000,1.32495943,2.58450150,5.00135662,716,1397,2703,417,802,1689,0.77283529,1.48374896,3.12568674,0.57268762,0.79473536,1.01392379
29101,0,USMissouriJohnson,Missouri,Johnson,2021-04-04 08:06:29.854686,2021-02-19 00:00:00.000000,1.46923709,2.87764866,5.62069103,794,1555,3038,475,898,1873,0.87967350,1.66288790,3.46524231,0.59919606,0.81941528,1.07021357
29101,0,USMissouriJohnson,Missouri,Johnson,2021-04-04 08:06:29.854686,2021-02-20 00:00:00.000000,1.62814968,3.23761651,6.34924597,880,1750,3432,542,1011,2092,1.00415234,1.87030004,3.87027102,0.64443807,0.83716246,1.06752264
29101,0,USMissouriJohnson,Missouri,Johnson,2021-04-04 08:06:29.854686,2021-02-21 00:00:00.000000,1.78263649,3.64385937,7.14492294,963,1969,3862,597,1139,2351,1.10483073,2.10704202,4.35016552,0.66444028,0.86731585,1.10399598
29101,0,USMissouriJohnson,Missouri,Johnson,2021-04-04 08:06:29.854686,2021-02-22 00:00:00.000000,2.00973347,4.08905106,7.99953716,1086,2210,4324,654,1276,2644,1.21013825,2.36146141,4.89241264,0.70485648,0.90111393,1.11800130
29101,0,USMissouriJohnson,Missouri,Johnson,2021-04-04 08:06:29.854686,2021-02-23 00:00:00.000000,2.29763281,4.57134350,8.93065322,1242,2471,4828,754,1428,2965,1.39542769,2.64242539,5.48498889,0.71474214,0.91816954,1.17853900
29101,0,USMissouriJohnson,Missouri,Johnson,2021-04-04 08:06:29.854686,2021-02-24 00:00:00.000000,2.63150270,5.11307718,9.93625847,1422,2764,5371,863,1604,3315,1.59799392,2.96879029,6.13287190,0.71613418,0.92773866,1.19836419
29101,0,USMissouriJohnson,Missouri,Johnson,2021-04-04 08:06:29.854686,2021-02-25 00:00:00.000000,2.98429220,5.72158393,11.01462168,1613,3093,5954,977,1785,3696,1.80753738,3.30195811,6.83705424,0.71981787,0.93235927,1.20268980
29101,0,USMissouriJohnson,Missouri,Johnson,2021-04-04 08:06:29.854686,2021-02-26 00:00:00.000000,3.39929719,6.36857015,12.16110888,1837,3442,6574,1105,1990,4107,2.04446176,3.68242936,7.59702325,0.76605881,0.93329970,1.19846394
29101,0,USMissouriJohnson,Missouri,Johnson,2021-04-04 08:06:29.854686,2021-02-27 00:00:00.000000,3.91823010,7.08359926,13.36809943,2118,3829,7227,1249,2226,4546,2.31110856,4.11849294,8.41061298,0.80657321,0.93362703,1.16073675
29101,0,USMissouriJohnson,Missouri,Johnson,2021-04-04 08:06:29.854686,2021-02-28 00:00:00.000000,4.47937103,7.88263231,14.62466891,2421,4261,7906,1414,2483,5013,2.61668581,4.59333642,9.27375293,0.83801906,0.93233479,1.12438899
29101,0,USMissouriJohnson,Missouri,Johnson,2021-04-04 08:06:29.854686,2021-03-01 00:00:00.000000,5.10588164,8.74163059,16.00426363,2760,4725,8652,1601,2761,5510,2.96217440,5.10738469,10.19326804,0.83731969,0.94359384,1.14640532
29101,0,USMissouriJohnson,Missouri,Johnson,2021-04-04 08:06:29.854686,2021-03-02 00:00:00.000000,5.80577042,9.61087545,17.41695829,3138,5195,9415,1811,3064,6058,3.35057486,5.66791305,11.20584699,0.83602355,0.93743385,1.22256946
29101,0,USMissouriJohnson,Missouri,Johnson,2021-04-04 08:06:29.854686,2021-03-03 00:00:00.000000,6.58244577,10.52246721,18.83426603,3558,5688,10182,2043,3389,6623,3.77991349,6.27041708,12.25228148,0.83254966,0.93666620,1.22274252
29101,0,USMissouriJohnson,Missouri,Johnson,2021-04-04 08:06:29.854686,2021-03-04 00:00:00.000000,7.37155270,11.51032757,20.21726278,3985,6222,10929,2302,3745,7155,4.25826956,6.92805500,13.23621465,0.83130219,0.93277140,1.21743204
29101,0,USMissouriJohnson,Missouri,Johnson,2021-04-04 08:06:29.854686,2021-03-05 00:00:00.000000,8.19301586,12.58815668,21.52756267,4429,6805,11638,2584,4103,7675,4.78066231,7.59037875,14.19756150,0.83109089,0.92569421,1.18584102
29101,0,USMissouriJohnson,Missouri,Johnson,2021-04-04 08:06:29.854686,2021-03-06 00:00:00.000000,9.07517906,13.58159764,22.72781256,4906,7342,12287,2892,4458,8187,5.35082799,8.24762140,15.14438608,0.83116028,0.91631430,1.10137525
29101,0,USMissouriJohnson,Missouri,Johnson,2021-04-04 08:06:29.854686,2021-03-07 00:00:00.000000,10.01397810,14.54540489,23.78193689,5413,7863,12856,3226,4843,8679,5.96878413,8.95825769,16.05498589,0.76911080,0.89820683,1.10079403
29101,0,USMissouriJohnson,Missouri,Johnson,2021-04-04 08:06:29.854686,2021-03-08 00:00:00.000000,10.98578973,15.72053049,24.65826867,5939,8498,13330,3586,5259,9074,6.63326575,9.72913814,16.78445899,0.64094977,0.86775413,1.10834199
29101,0,USMissouriJohnson,Missouri,Johnson,2021-04-04 08:06:29.854686,2021-03-09 00:00:00.000000,11.83888335,16.44405257,25.34073892,6400,8889,13699,3967,5664,9465,7.33894356,10.47833116,17.50928468,0.57513772,0.80854635,1.07445673
29101,0,USMissouriJohnson,Missouri,Johnson,2021-04-04 08:06:29.854686,2021-03-10 00:00:00.000000,12.71286835,17.13011434,25.81382806,6872,9260,13955,4368,5995,9830,8.08112545,11.08967693,18.18376273,0.42527163,0.71478108,1.05951513
29101,0,USMissouriJohnson,Missouri,Johnson,2021-04-04 08:06:29.854686,2021-03-11 00:00:00.000000,12.66417573,17.31005056,26.05829132,6846,9358,14087,4592,6185,10135,8.49435589,11.44124650,18.74811682,0.32178850,0.54963793,1.05781452
29101,0,USMissouriJohnson,Missouri,Johnson,2021-04-04 08:06:29.854686,2021-03-12 00:00:00.000000,12.40870680,16.97803898,26.13335446,6708,9178,14128,4576,6345,10374,8.46555201,11.73659909,19.19071281,0.26026307,0.43666156,1.04736793
29101,0,USMissouriJohnson,Missouri,Johnson,2021-04-04 08:06:29.854686,2021-03-13 00:00:00.000000,11.79495566,16.39143595,26.21245401,6376,8861,14170,4609,6344,10541,8.52691992,11.73570362,19.49820644,0.20935845,0.35913309,0.98519006
29101,0,USMissouriJohnson,Missouri,Johnson,2021-04-04 08:06:29.854686,2021-03-14 00:00:00.000000,11.20286344,15.71578325,25.96346128,6056,8496,14036,4541,6267,10634,8.39975829,11.59363051,19.67175412,0.19146203,0.34688317,0.81680287
29101,0,USMissouriJohnson,Missouri,Johnson,2021-04-04 08:06:29.854686,2021-03-15 00:00:00.000000,10.65374795,14.92737484,25.39640348,5759,8070,13729,4368,6067,10657,8.07999620,11.22267218,19.71343554,0.17924999,0.31806681,0.70991856
29101,0,USMissouriJohnson,Missouri,Johnson,2021-04-04 08:06:29.854686,2021-03-16 00:00:00.000000,9.90746032,14.18605543,24.67872260,5356,7669,13341,4186,5807,10521,7.74301505,10.74250070,19.46102062,0.17208381,0.31325892,0.68773010
29101,0,USMissouriJohnson,Missouri,Johnson,2021-04-04 08:06:29.854686,2021-03-17 00:00:00.000000,9.28829125,13.52471917,23.87525216,5021,7311,12907,3871,5553,10312,7.16149613,10.27198774,19.07505266,0.15226255,0.29762260,0.68450469
29101,0,USMissouriJohnson,Missouri,Johnson,2021-04-04 08:06:29.854686,2021-03-18 00:00:00.000000,8.42786909,12.86737555,23.01245885,4556,6956,12440,3540,5317,10046,6.54939994,9.83542296,18.58260181,0.12905561,0.27861227,0.68412450
29101,0,USMissouriJohnson,Missouri,Johnson,2021-04-04 08:06:29.854686,2021-03-19 00:00:00.000000,7.62595295,12.14160694,22.11018446,4122,6563,11953,3259,5088,9733,6.02996040,9.41309605,18.00512657,0.12871220,0.27073852,0.68432913
29101,0,USMissouriJohnson,Missouri,Johnson,2021-04-04 08:06:29.854686,2021-03-20 00:00:00.000000,6.86549032,11.45305868,21.18499595,3711,6191,11453,2953,4827,9400,5.46258827,8.92950263,17.38802185,0.12859958,0.26494794,0.68538151
29101,0,USMissouriJohnson,Missouri,Johnson,2021-04-04 08:06:29.854686,2021-03-21 00:00:00.000000,6.21027587,10.72787426,20.25210942,3357,5799,10948,2675,4572,9047,4.94935276,8.45790174,16.73631902,0.11170742,0.26065791,0.68908801
29101,0,USMissouriJohnson,Missouri,Johnson,2021-04-04 08:06:29.854686,2021-03-22 00:00:00.000000,5.69303093,10.05693317,19.33134712,3077,5436,10450,2444,4315,8684,4.52210165,7.98236022,16.06386436,0.11056370,0.25149050,0.67870835
29101,0,USMissouriJohnson,Missouri,Johnson,2021-04-04 08:06:29.854686,2021-03-23 00:00:00.000000,5.21756194,9.39583777,18.42248306,2820,5079,9959,2244,4037,8317,4.15239178,7.46825548,15.38499439,0.11013128,0.24874691,0.63197484
29101,0,USMissouriJohnson,Missouri,Johnson,2021-04-04 08:06:29.854686,2021-03-24 00:00:00.000000,4.78149096,8.74191381,17.52751292,2584,4726,9475,2060,3777,7950,3.81050150,6.98739963,14.70666062,0.10993432,0.24767739,0.62512207
29101,0,USMissouriJohnson,Missouri,Johnson,2021-04-04 08:06:29.854686,2021-03-25 00:00:00.000000,4.38386032,8.14634197,16.64887872,2370,4404,9000,1889,3535,7586,3.49569825,6.53948464,14.03287956,0.10993043,0.24700730,0.63492042
29101,0,USMissouriJohnson,Missouri,Johnson,2021-04-04 08:06:29.854686,2021-03-26 00:00:00.000000,4.02213304,7.56116220,15.78992981,2174,4087,8536,1733,3311,7226,3.20716235,6.12600026,13.36661663,0.11032997,0.24848831,0.63388028
29101,0,USMissouriJohnson,Missouri,Johnson,2021-04-04 08:06:29.854686,2021-03-27 00:00:00.000000,3.69156032,7.03100767,14.95395852,1995,3801,8084,1591,3093,6871,2.94358429,5.72141325,12.71074160,0.11135207,0.24228248,0.65163070
29101,0,USMissouriJohnson,Missouri,Johnson,2021-04-04 08:06:29.854686,2021-03-28 00:00:00.000000,3.38888430,6.57869718,14.14386092,1832,3556,7646,1461,2905,6524,2.70257467,5.37405401,12.06806808,0.11135076,0.24081467,0.67289427
29101,0,USMissouriJohnson,Missouri,Johnson,2021-04-04 08:06:29.854686,2021-03-29 00:00:00.000000,3.10782435,6.16025431,13.38755504,1680,3330,7237,1341,2701,6185,2.48182962,4.99725870,11.44120815,0.11133967,0.23789747,0.69273212
29101,0,USMissouriJohnson,Missouri,Johnson,2021-04-04 08:06:29.854686,2021-03-30 00:00:00.000000,2.84994915,5.75643674,12.67659610,1540,3112,6853,1231,2503,5854,2.27774132,4.63101107,10.82933848,0.11132093,0.23916364,0.70843514
29101,0,USMissouriJohnson,Missouri,Johnson,2021-04-04 08:06:29.854686,2021-03-31 00:00:00.000000,2.61331166,5.34320170,11.98607264,1412,2888,6479,1129,2324,5533,2.08971286,4.30044810,10.23587631,0.11128597,0.24316906,0.71217321
29101,0,USMissouriJohnson,Missouri,Johnson,2021-04-04 08:06:29.854686,2021-04-01 00:00:00.000000,2.39615795,4.95766407,11.32030420,1295,2680,6119,1036,2165,5224,1.91680448,4.00637773,9.66314310,0.11123087,0.23891500,0.71063641
29101,0,USMissouriJohnson,Missouri,Johnson,2021-04-04 08:06:29.854686,2021-04-02 00:00:00.000000,2.19694015,4.60208738,10.68401907,1187,2487,5775,950,2016,4926,1.75796390,3.72971747,9.11247885,0.11117269,0.23693910,0.66889006
29101,0,USMissouriJohnson,Missouri,Johnson,2021-04-04 08:06:29.854686,2021-04-03 00:00:00.000000,1.99048935,4.27782065,10.07946310,1076,2312,5449,871,1875,4638,1.61213188,3.47004677,8.58039943,0.11110082,0.23980360,0.68158875
29101,0,USMissouriJohnson,Missouri,Johnson,2021-04-04 08:06:29.854686,2021-04-04 00:00:00.000000,1.79457118,3.97851411,9.50426869,970,2150,5138,799,1744,4355,1.47828360,3.22774396,8.05556646,0.10919184,0.24004917,0.69682727
29101,0,USMissouriJohnson,Missouri,Johnson,2021-04-04 08:06:29.854686,2021-04-05 00:00:00.000000,1.61827694,3.67436347,8.95519603,874,1986,4841,732,1624,4079,1.35537965,3.00428679,7.54638789,0.10477609,0.23930427,0.70409740
29101,0,USMissouriJohnson,Missouri,Johnson,2021-04-04 08:06:29.854686,2021-04-06 00:00:00.000000,1.45946373,3.40821604,8.43052389,789,1842,4557,671,1506,3816,1.24201477,2.78710164,7.05931923,0.09962252,0.24232805,0.70683446
29101,0,USMissouriJohnson,Missouri,Johnson,2021-04-04 08:06:29.854686,2021-04-07 00:00:00.000000,1.31642659,3.16005435,7.92952287,711,1708,4286,612,1394,3566,1.13274397,2.57961113,6.59744164,0.09910066,0.24203070,0.70775933
29101,0,USMissouriJohnson,Missouri,Johnson,2021-04-04 08:06:29.854686,2021-04-08 00:00:00.000000,1.18757201,2.92882754,7.45181474,642,1583,4028,552,1298,3346,1.02219022,2.40148442,6.18954746,0.09907121,0.24163872,0.70805554
29101,0,USMissouriJohnson,Missouri,Johnson,2021-04-04 08:06:29.854686,2021-04-09 00:00:00.000000,1.07146565,2.70073897,6.99708898,579,1460,3782,498,1209,3159,0.92252620,2.23754044,5.84475142,0.09906954,0.24143796,0.70814526
29101,0,USMissouriJohnson,Missouri,Johnson,2021-04-04 08:06:29.854686,2021-04-10 00:00:00.000000,0.96682173,2.48420905,6.60951273,522,1343,3573,450,1124,3000,0.83265734,2.07991396,5.55077349,0.09906943,0.24133600,0.70816929
29101,0,USMissouriJohnson,Missouri,Johnson,2021-04-04 08:06:29.854686,2021-04-11 00:00:00.000000,0.87248698,2.30485969,6.26909817,471,1246,3389,406,1045,2849,0.75160380,1.93419660,5.27036020,0.09906941,0.24128454,0.70817329
29101,0,USMissouriJohnson,Missouri,Johnson,2021-04-04 08:06:29.854686,2021-04-12 00:00:00.000000,0.78742764,2.15278832,5.94548530,425,1163,3214,366,967,2704,0.67848754,1.79033460,5.00306035,0.09906940,0.24125868,0.70817181
29101,0,USMissouriJohnson,Missouri,Johnson,2021-04-04 08:06:29.854686,2021-04-13 00:00:00.000000,0.71075062,2.01805102,5.63793370,384,1090,3047,331,895,2567,0.61252093,1.65703976,4.74840719,0.09906940,0.24124574,0.70816930
29101,0,USMissouriJohnson,Missouri,Johnson,2021-04-04 08:06:29.854686,2021-04-14 00:00:00.000000,0.64161470,1.89157961,5.34572053,346,1022,2890,298,829,2435,0.55299680,1.53359665,4.50592471,0.09906940,0.24123930,0.70816700
29101,0,USMissouriJohnson,Missouri,Johnson,2021-04-04 08:06:29.854686,2021-04-15 00:00:00.000000,0.57923735,1.76734123,5.06814445,313,955,2739,269,767,2311,0.49927969,1.41984310,4.27513378,0.09906940,0.24123611,0.70816519
29101,0,USMissouriJohnson,Missouri,Johnson,2021-04-04 08:06:29.854686,2021-04-16 00:00:00.000000,0.52295063,1.64327175,4.80452756,282,888,2597,243,716,2192,0.45079821,1.32609842,4.05555737,0.09906940,0.24123454,0.70816382
